solid cylinder
  facet normal 0.751817 -0.659372 0
    outer loop
       vertex 0.297576 -0.176776 0
       vertex 0.319138 -0.152191 0
       vertex 0.319138 -0.152191 0.1
    endloop
  endfacet
  facet normal 0.751817 -0.659372 0
    outer loop
       vertex 0.319138 -0.152191 0.1
       vertex 0.297576 -0.176776 0.1
       vertex 0.297576 -0.176776 0
    endloop
  endfacet
  facet normal 0.831476 -0.555561 0
    outer loop
       vertex 0.319138 -0.152191 0
       vertex 0.337306 -0.125 0
       vertex 0.337306 -0.125 0.1
    endloop
  endfacet
  facet normal 0.831476 -0.555561 0
    outer loop
       vertex 0.337306 -0.125 0.1
       vertex 0.319138 -0.152191 0.1
       vertex 0.319138 -0.152191 0
    endloop
  endfacet
  facet normal 0.896866 -0.442302 0
    outer loop
       vertex 0.337306 -0.125 0
       vertex 0.35177 -0.095671 0
       vertex 0.35177 -0.095671 0.1
    endloop
  endfacet
  facet normal 0.896866 -0.442302 0
    outer loop
       vertex 0.35177 -0.095671 0.1
       vertex 0.337306 -0.125 0.1
       vertex 0.337306 -0.125 0
    endloop
  endfacet
  facet normal 0.946935 -0.321425 0
    outer loop
       vertex 0.35177 -0.095671 0
       vertex 0.362281 -0.064705 0
       vertex 0.362281 -0.064705 0.1
    endloop
  endfacet
  facet normal 0.946935 -0.321425 0
    outer loop
       vertex 0.362281 -0.064705 0.1
       vertex 0.35177 -0.095671 0.1
       vertex 0.35177 -0.095671 0
    endloop
  endfacet
  facet normal 0.980784 -0.195096 0
    outer loop
       vertex 0.362281 -0.064705 0
       vertex 0.368661 -0.0326315 0
       vertex 0.368661 -0.0326315 0.1
    endloop
  endfacet
  facet normal 0.980784 -0.195096 0
    outer loop
       vertex 0.368661 -0.0326315 0.1
       vertex 0.362281 -0.064705 0.1
       vertex 0.362281 -0.064705 0
    endloop
  endfacet
  facet normal 0.997858 -0.0654098 0
    outer loop
       vertex 0.3708 -8.32665e-17 0.1
       vertex 0.368661 -0.0326315 0.1
       vertex 0.368661 -0.0326315 0
    endloop
  endfacet
  facet normal 0.997858 -0.0654098 -1.08928e-16
    outer loop
       vertex 0.368661 -0.0326315 0
       vertex 0.3708 8.32665e-17 0
       vertex 0.3708 -8.32665e-17 0.1
    endloop
  endfacet
  facet normal 0.997858 0.0654098 0
    outer loop
       vertex 0.3708 8.32665e-17 0
       vertex 0.368661 0.0326315 0
       vertex 0.368661 0.0326315 0.1
    endloop
  endfacet
  facet normal 0.997858 0.0654098 1.08928e-16
    outer loop
       vertex 0.368661 0.0326315 0.1
       vertex 0.3708 -8.32665e-17 0.1
       vertex 0.3708 8.32665e-17 0
    endloop
  endfacet
  facet normal 0.980784 0.195096 0
    outer loop
       vertex 0.368661 0.0326315 0
       vertex 0.362281 0.064705 0
       vertex 0.362281 0.064705 0.1
    endloop
  endfacet
  facet normal 0.980784 0.195096 0
    outer loop
       vertex 0.362281 0.064705 0.1
       vertex 0.368661 0.0326315 0.1
       vertex 0.368661 0.0326315 0
    endloop
  endfacet
  facet normal 0.946935 0.321425 0
    outer loop
       vertex 0.362281 0.064705 0
       vertex 0.35177 0.095671 0
       vertex 0.35177 0.095671 0.1
    endloop
  endfacet
  facet normal 0.946935 0.321425 0
    outer loop
       vertex 0.35177 0.095671 0.1
       vertex 0.362281 0.064705 0.1
       vertex 0.362281 0.064705 0
    endloop
  endfacet
  facet normal 0.896866 0.442302 0
    outer loop
       vertex 0.35177 0.095671 0
       vertex 0.337306 0.125 0
       vertex 0.337306 0.125 0.1
    endloop
  endfacet
  facet normal 0.896866 0.442302 0
    outer loop
       vertex 0.337306 0.125 0.1
       vertex 0.35177 0.095671 0.1
       vertex 0.35177 0.095671 0
    endloop
  endfacet
  facet normal 0.831476 0.555561 0
    outer loop
       vertex 0.337306 0.125 0
       vertex 0.319138 0.152191 0
       vertex 0.319138 0.152191 0.1
    endloop
  endfacet
  facet normal 0.831476 0.555561 0
    outer loop
       vertex 0.319138 0.152191 0.1
       vertex 0.337306 0.125 0.1
       vertex 0.337306 0.125 0
    endloop
  endfacet
  facet normal 0.751817 0.659372 0
    outer loop
       vertex 0.319138 0.152191 0
       vertex 0.297576 0.176776 0
       vertex 0.297576 0.176776 0.1
    endloop
  endfacet
  facet normal 0.751817 0.659372 0
    outer loop
       vertex 0.297576 0.176776 0.1
       vertex 0.319138 0.152191 0.1
       vertex 0.319138 0.152191 0
    endloop
  endfacet
  facet normal 0.659372 0.751817 0
    outer loop
       vertex 0.297576 0.176776 0
       vertex 0.272991 0.198338 0
       vertex 0.272991 0.198338 0.1
    endloop
  endfacet
  facet normal 0.659372 0.751817 0
    outer loop
       vertex 0.272991 0.198338 0.1
       vertex 0.297576 0.176776 0.1
       vertex 0.297576 0.176776 0
    endloop
  endfacet
  facet normal 0.555561 0.831476 0
    outer loop
       vertex 0.272991 0.198338 0
       vertex 0.2458 0.216506 0
       vertex 0.2458 0.216506 0.1
    endloop
  endfacet
  facet normal 0.555561 0.831476 0
    outer loop
       vertex 0.2458 0.216506 0.1
       vertex 0.272991 0.198338 0.1
       vertex 0.272991 0.198338 0
    endloop
  endfacet
  facet normal 0.442302 0.896866 0
    outer loop
       vertex 0.2458 0.216506 0
       vertex 0.216471 0.23097 0
       vertex 0.216471 0.23097 0.1
    endloop
  endfacet
  facet normal 0.442302 0.896866 0
    outer loop
       vertex 0.216471 0.23097 0.1
       vertex 0.2458 0.216506 0.1
       vertex 0.2458 0.216506 0
    endloop
  endfacet
  facet normal 0.321425 0.946935 0
    outer loop
       vertex 0.216471 0.23097 0
       vertex 0.185505 0.241481 0
       vertex 0.185505 0.241481 0.1
    endloop
  endfacet
  facet normal 0.321425 0.946935 0
    outer loop
       vertex 0.185505 0.241481 0.1
       vertex 0.216471 0.23097 0.1
       vertex 0.216471 0.23097 0
    endloop
  endfacet
  facet normal 0.195096 0.980784 0
    outer loop
       vertex 0.185505 0.241481 0
       vertex 0.153431 0.247861 0
       vertex 0.153431 0.247861 0.1
    endloop
  endfacet
  facet normal 0.195096 0.980784 0
    outer loop
       vertex 0.153431 0.247861 0.1
       vertex 0.185505 0.241481 0.1
       vertex 0.185505 0.241481 0
    endloop
  endfacet
  facet normal 0.0654098 0.997858 0
    outer loop
       vertex 0.1208 0.25 0.1
       vertex 0.153431 0.247861 0.1
       vertex 0.153431 0.247861 0
    endloop
  endfacet
  facet normal 0.0654098 0.997858 -1.08928e-16
    outer loop
       vertex 0.153431 0.247861 0
       vertex 0.1208 0.25 0
       vertex 0.1208 0.25 0.1
    endloop
  endfacet
  facet normal -0.0654098 0.997858 0
    outer loop
       vertex 0.1208 0.25 0
       vertex 0.0881683 0.247861 0
       vertex 0.0881683 0.247861 0.1
    endloop
  endfacet
  facet normal -0.0654098 0.997858 1.08928e-16
    outer loop
       vertex 0.0881683 0.247861 0.1
       vertex 0.1208 0.25 0.1
       vertex 0.1208 0.25 0
    endloop
  endfacet
  facet normal -0.195096 0.980784 0
    outer loop
       vertex 0.0881683 0.247861 0
       vertex 0.0560948 0.241481 0
       vertex 0.0560948 0.241481 0.1
    endloop
  endfacet
  facet normal -0.195096 0.980784 0
    outer loop
       vertex 0.0560948 0.241481 0.1
       vertex 0.0881683 0.247861 0.1
       vertex 0.0881683 0.247861 0
    endloop
  endfacet
  facet normal -0.321425 0.946935 0
    outer loop
       vertex 0.0560948 0.241481 0
       vertex 0.0251288 0.23097 0
       vertex 0.0251288 0.23097 0.1
    endloop
  endfacet
  facet normal -0.321425 0.946935 0
    outer loop
       vertex 0.0251288 0.23097 0.1
       vertex 0.0560948 0.241481 0.1
       vertex 0.0560948 0.241481 0
    endloop
  endfacet
  facet normal -0.442302 0.896866 0
    outer loop
       vertex 0.0251288 0.23097 0
       vertex -0.00420022 0.216506 0
       vertex -0.00420022 0.216506 0.1
    endloop
  endfacet
  facet normal -0.442302 0.896866 0
    outer loop
       vertex -0.00420022 0.216506 0.1
       vertex 0.0251288 0.23097 0.1
       vertex 0.0251288 0.23097 0
    endloop
  endfacet
  facet normal -0.555561 0.831476 0
    outer loop
       vertex -0.00420022 0.216506 0
       vertex -0.0313912 0.198338 0
       vertex -0.0313912 0.198338 0.1
    endloop
  endfacet
  facet normal -0.555561 0.831476 0
    outer loop
       vertex -0.0313912 0.198338 0.1
       vertex -0.00420022 0.216506 0.1
       vertex -0.00420022 0.216506 0
    endloop
  endfacet
  facet normal -0.659372 0.751817 0
    outer loop
       vertex -0.0313912 0.198338 0
       vertex -0.0559762 0.176776 0
       vertex -0.0559762 0.176776 0.1
    endloop
  endfacet
  facet normal -0.659372 0.751817 0
    outer loop
       vertex -0.0559762 0.176776 0.1
       vertex -0.0313912 0.198338 0.1
       vertex -0.0313912 0.198338 0
    endloop
  endfacet
  facet normal -0.751817 0.659372 0
    outer loop
       vertex -0.0559762 0.176776 0
       vertex -0.0775382 0.152191 0
       vertex -0.0775382 0.152191 0.1
    endloop
  endfacet
  facet normal -0.751817 0.659372 0
    outer loop
       vertex -0.0775382 0.152191 0.1
       vertex -0.0559762 0.176776 0.1
       vertex -0.0559762 0.176776 0
    endloop
  endfacet
  facet normal -0.831476 0.555561 0
    outer loop
       vertex -0.0775382 0.152191 0
       vertex -0.0957062 0.125 0
       vertex -0.0957062 0.125 0.1
    endloop
  endfacet
  facet normal -0.831476 0.555561 0
    outer loop
       vertex -0.0957062 0.125 0.1
       vertex -0.0775382 0.152191 0.1
       vertex -0.0775382 0.152191 0
    endloop
  endfacet
  facet normal -0.896866 0.442302 0
    outer loop
       vertex -0.0957062 0.125 0
       vertex -0.11017 0.095671 0
       vertex -0.11017 0.095671 0.1
    endloop
  endfacet
  facet normal -0.896866 0.442302 0
    outer loop
       vertex -0.11017 0.095671 0.1
       vertex -0.0957062 0.125 0.1
       vertex -0.0957062 0.125 0
    endloop
  endfacet
  facet normal -0.946935 0.321425 0
    outer loop
       vertex -0.11017 0.095671 0
       vertex -0.120681 0.064705 0
       vertex -0.120681 0.064705 0.1
    endloop
  endfacet
  facet normal -0.946935 0.321425 0
    outer loop
       vertex -0.120681 0.064705 0.1
       vertex -0.11017 0.095671 0.1
       vertex -0.11017 0.095671 0
    endloop
  endfacet
  facet normal -0.980784 0.195096 0
    outer loop
       vertex -0.120681 0.064705 0
       vertex -0.127061 0.0326315 0
       vertex -0.127061 0.0326315 0.1
    endloop
  endfacet
  facet normal -0.980784 0.195096 0
    outer loop
       vertex -0.127061 0.0326315 0.1
       vertex -0.120681 0.064705 0.1
       vertex -0.120681 0.064705 0
    endloop
  endfacet
  facet normal -0.997858 0.0654098 0
    outer loop
       vertex -0.1292 8.32665e-17 0.1
       vertex -0.127061 0.0326315 0.1
       vertex -0.127061 0.0326315 0
    endloop
  endfacet
  facet normal -0.997858 0.0654098 -1.08928e-16
    outer loop
       vertex -0.127061 0.0326315 0
       vertex -0.1292 -8.32665e-17 0
       vertex -0.1292 8.32665e-17 0.1
    endloop
  endfacet
  facet normal -0.997858 -0.0654098 0
    outer loop
       vertex -0.1292 -8.32665e-17 0
       vertex -0.127061 -0.0326315 0
       vertex -0.127061 -0.0326315 0.1
    endloop
  endfacet
  facet normal -0.997858 -0.0654098 1.08928e-16
    outer loop
       vertex -0.127061 -0.0326315 0.1
       vertex -0.1292 8.32665e-17 0.1
       vertex -0.1292 -8.32665e-17 0
    endloop
  endfacet
  facet normal -0.980784 -0.195096 0
    outer loop
       vertex -0.127061 -0.0326315 0
       vertex -0.120681 -0.064705 0
       vertex -0.120681 -0.064705 0.1
    endloop
  endfacet
  facet normal -0.980784 -0.195096 0
    outer loop
       vertex -0.120681 -0.064705 0.1
       vertex -0.127061 -0.0326315 0.1
       vertex -0.127061 -0.0326315 0
    endloop
  endfacet
  facet normal -0.946935 -0.321425 0
    outer loop
       vertex -0.120681 -0.064705 0
       vertex -0.11017 -0.095671 0
       vertex -0.11017 -0.095671 0.1
    endloop
  endfacet
  facet normal -0.946935 -0.321425 0
    outer loop
       vertex -0.11017 -0.095671 0.1
       vertex -0.120681 -0.064705 0.1
       vertex -0.120681 -0.064705 0
    endloop
  endfacet
  facet normal -0.896866 -0.442302 0
    outer loop
       vertex -0.11017 -0.095671 0
       vertex -0.0957062 -0.125 0
       vertex -0.0957062 -0.125 0.1
    endloop
  endfacet
  facet normal -0.896866 -0.442302 0
    outer loop
       vertex -0.0957062 -0.125 0.1
       vertex -0.11017 -0.095671 0.1
       vertex -0.11017 -0.095671 0
    endloop
  endfacet
  facet normal -0.831476 -0.555561 0
    outer loop
       vertex -0.0957062 -0.125 0
       vertex -0.0775382 -0.152191 0
       vertex -0.0775382 -0.152191 0.1
    endloop
  endfacet
  facet normal -0.831476 -0.555561 0
    outer loop
       vertex -0.0775382 -0.152191 0.1
       vertex -0.0957062 -0.125 0.1
       vertex -0.0957062 -0.125 0
    endloop
  endfacet
  facet normal -0.751817 -0.659372 0
    outer loop
       vertex -0.0775382 -0.152191 0
       vertex -0.0559762 -0.176776 0
       vertex -0.0559762 -0.176776 0.1
    endloop
  endfacet
  facet normal -0.751817 -0.659372 0
    outer loop
       vertex -0.0559762 -0.176776 0.1
       vertex -0.0775382 -0.152191 0.1
       vertex -0.0775382 -0.152191 0
    endloop
  endfacet
  facet normal 0.659372 -0.751817 0
    outer loop
       vertex 0.297576 -0.176776 0
       vertex 0.297576 -0.176776 0.1
       vertex 0.272991 -0.198338 0.1
    endloop
  endfacet
  facet normal 0.659372 -0.751817 0
    outer loop
       vertex 0.272991 -0.198338 0.1
       vertex 0.272991 -0.198338 0
       vertex 0.297576 -0.176776 0
    endloop
  endfacet
  facet normal 0.555561 -0.831476 0
    outer loop
       vertex 0.272991 -0.198338 0
       vertex 0.272991 -0.198338 0.1
       vertex 0.2458 -0.216506 0.1
    endloop
  endfacet
  facet normal 0.555561 -0.831476 0
    outer loop
       vertex 0.2458 -0.216506 0.1
       vertex 0.2458 -0.216506 0
       vertex 0.272991 -0.198338 0
    endloop
  endfacet
  facet normal 0.442302 -0.896866 0
    outer loop
       vertex 0.2458 -0.216506 0
       vertex 0.2458 -0.216506 0.1
       vertex 0.216471 -0.23097 0.1
    endloop
  endfacet
  facet normal 0.442302 -0.896866 0
    outer loop
       vertex 0.216471 -0.23097 0.1
       vertex 0.216471 -0.23097 0
       vertex 0.2458 -0.216506 0
    endloop
  endfacet
  facet normal 0.321425 -0.946935 0
    outer loop
       vertex 0.216471 -0.23097 0
       vertex 0.216471 -0.23097 0.1
       vertex 0.185505 -0.241481 0.1
    endloop
  endfacet
  facet normal 0.321425 -0.946935 0
    outer loop
       vertex 0.185505 -0.241481 0.1
       vertex 0.185505 -0.241481 0
       vertex 0.216471 -0.23097 0
    endloop
  endfacet
  facet normal 0.195096 -0.980784 0
    outer loop
       vertex 0.185505 -0.241481 0
       vertex 0.185505 -0.241481 0.1
       vertex 0.153431 -0.247861 0.1
    endloop
  endfacet
  facet normal 0.195096 -0.980784 0
    outer loop
       vertex 0.153431 -0.247861 0.1
       vertex 0.153431 -0.247861 0
       vertex 0.185505 -0.241481 0
    endloop
  endfacet
  facet normal 0.0654098 -0.997858 0
    outer loop
       vertex 0.1208 -0.25 0
       vertex 0.153431 -0.247861 0
       vertex 0.153431 -0.247861 0.1
    endloop
  endfacet
  facet normal 0.0654098 -0.997858 1.08928e-16
    outer loop
       vertex 0.153431 -0.247861 0.1
       vertex 0.1208 -0.25 0.1
       vertex 0.1208 -0.25 0
    endloop
  endfacet
  facet normal -0.0654098 -0.997858 0
    outer loop
       vertex 0.1208 -0.25 0.1
       vertex 0.0881683 -0.247861 0.1
       vertex 0.0881683 -0.247861 0
    endloop
  endfacet
  facet normal -0.0654098 -0.997858 -1.08928e-16
    outer loop
       vertex 0.0881683 -0.247861 0
       vertex 0.1208 -0.25 0
       vertex 0.1208 -0.25 0.1
    endloop
  endfacet
  facet normal -0.195096 -0.980784 0
    outer loop
       vertex 0.0881683 -0.247861 0
       vertex 0.0881683 -0.247861 0.1
       vertex 0.0560948 -0.241481 0.1
    endloop
  endfacet
  facet normal -0.195096 -0.980784 -0
    outer loop
       vertex 0.0560948 -0.241481 0.1
       vertex 0.0560948 -0.241481 0
       vertex 0.0881683 -0.247861 0
    endloop
  endfacet
  facet normal -0.321425 -0.946935 0
    outer loop
       vertex 0.0560948 -0.241481 0
       vertex 0.0560948 -0.241481 0.1
       vertex 0.0251288 -0.23097 0.1
    endloop
  endfacet
  facet normal -0.321425 -0.946935 -0
    outer loop
       vertex 0.0251288 -0.23097 0.1
       vertex 0.0251288 -0.23097 0
       vertex 0.0560948 -0.241481 0
    endloop
  endfacet
  facet normal -0.442302 -0.896866 0
    outer loop
       vertex 0.0251288 -0.23097 0
       vertex 0.0251288 -0.23097 0.1
       vertex -0.00420022 -0.216506 0.1
    endloop
  endfacet
  facet normal -0.442302 -0.896866 -0
    outer loop
       vertex -0.00420022 -0.216506 0.1
       vertex -0.00420022 -0.216506 0
       vertex 0.0251288 -0.23097 0
    endloop
  endfacet
  facet normal -0.555561 -0.831476 0
    outer loop
       vertex -0.00420022 -0.216506 0
       vertex -0.00420022 -0.216506 0.1
       vertex -0.0313912 -0.198338 0.1
    endloop
  endfacet
  facet normal -0.555561 -0.831476 -0
    outer loop
       vertex -0.0313912 -0.198338 0.1
       vertex -0.0313912 -0.198338 0
       vertex -0.00420022 -0.216506 0
    endloop
  endfacet
  facet normal -0.659372 -0.751817 0
    outer loop
       vertex -0.0313912 -0.198338 0
       vertex -0.0313912 -0.198338 0.1
       vertex -0.0559762 -0.176776 0.1
    endloop
  endfacet
  facet normal -0.659372 -0.751817 -0
    outer loop
       vertex -0.0559762 -0.176776 0.1
       vertex -0.0559762 -0.176776 0
       vertex -0.0313912 -0.198338 0
    endloop
  endfacet
endsolid cylinder
