solid cylinder
  facet normal 0.751817 -0.659372 0
    outer loop
       vertex 0.402877 -0.176776 0
       vertex 0.424439 -0.152191 0
       vertex 0.424439 -0.152191 0.1
    endloop
  endfacet
  facet normal 0.751817 -0.659372 0
    outer loop
       vertex 0.424439 -0.152191 0.1
       vertex 0.402877 -0.176776 0.1
       vertex 0.402877 -0.176776 0
    endloop
  endfacet
  facet normal 0.831476 -0.555561 0
    outer loop
       vertex 0.424439 -0.152191 0
       vertex 0.442607 -0.125 0
       vertex 0.442607 -0.125 0.1
    endloop
  endfacet
  facet normal 0.831476 -0.555561 0
    outer loop
       vertex 0.442607 -0.125 0.1
       vertex 0.424439 -0.152191 0.1
       vertex 0.424439 -0.152191 0
    endloop
  endfacet
  facet normal 0.896866 -0.442302 0
    outer loop
       vertex 0.442607 -0.125 0
       vertex 0.457071 -0.095671 0
       vertex 0.457071 -0.095671 0.1
    endloop
  endfacet
  facet normal 0.896866 -0.442302 0
    outer loop
       vertex 0.457071 -0.095671 0.1
       vertex 0.442607 -0.125 0.1
       vertex 0.442607 -0.125 0
    endloop
  endfacet
  facet normal 0.946935 -0.321425 0
    outer loop
       vertex 0.457071 -0.095671 0
       vertex 0.467582 -0.064705 0
       vertex 0.467582 -0.064705 0.1
    endloop
  endfacet
  facet normal 0.946935 -0.321425 0
    outer loop
       vertex 0.467582 -0.064705 0.1
       vertex 0.457071 -0.095671 0.1
       vertex 0.457071 -0.095671 0
    endloop
  endfacet
  facet normal 0.980784 -0.195096 0
    outer loop
       vertex 0.467582 -0.064705 0
       vertex 0.473962 -0.0326315 0
       vertex 0.473962 -0.0326315 0.1
    endloop
  endfacet
  facet normal 0.980784 -0.195096 0
    outer loop
       vertex 0.473962 -0.0326315 0.1
       vertex 0.467582 -0.064705 0.1
       vertex 0.467582 -0.064705 0
    endloop
  endfacet
  facet normal 0.997858 -0.0654098 0
    outer loop
       vertex 0.476101 -8.32665e-17 0.1
       vertex 0.473962 -0.0326315 0.1
       vertex 0.473962 -0.0326315 0
    endloop
  endfacet
  facet normal 0.997858 -0.0654098 -1.08928e-16
    outer loop
       vertex 0.473962 -0.0326315 0
       vertex 0.476101 8.32665e-17 0
       vertex 0.476101 -8.32665e-17 0.1
    endloop
  endfacet
  facet normal 0.997858 0.0654098 0
    outer loop
       vertex 0.476101 8.32665e-17 0
       vertex 0.473962 0.0326315 0
       vertex 0.473962 0.0326315 0.1
    endloop
  endfacet
  facet normal 0.997858 0.0654098 1.08928e-16
    outer loop
       vertex 0.473962 0.0326315 0.1
       vertex 0.476101 -8.32665e-17 0.1
       vertex 0.476101 8.32665e-17 0
    endloop
  endfacet
  facet normal 0.980784 0.195096 0
    outer loop
       vertex 0.473962 0.0326315 0
       vertex 0.467582 0.064705 0
       vertex 0.467582 0.064705 0.1
    endloop
  endfacet
  facet normal 0.980784 0.195096 0
    outer loop
       vertex 0.467582 0.064705 0.1
       vertex 0.473962 0.0326315 0.1
       vertex 0.473962 0.0326315 0
    endloop
  endfacet
  facet normal 0.946935 0.321425 0
    outer loop
       vertex 0.467582 0.064705 0
       vertex 0.457071 0.095671 0
       vertex 0.457071 0.095671 0.1
    endloop
  endfacet
  facet normal 0.946935 0.321425 0
    outer loop
       vertex 0.457071 0.095671 0.1
       vertex 0.467582 0.064705 0.1
       vertex 0.467582 0.064705 0
    endloop
  endfacet
  facet normal 0.896866 0.442302 0
    outer loop
       vertex 0.457071 0.095671 0
       vertex 0.442607 0.125 0
       vertex 0.442607 0.125 0.1
    endloop
  endfacet
  facet normal 0.896866 0.442302 0
    outer loop
       vertex 0.442607 0.125 0.1
       vertex 0.457071 0.095671 0.1
       vertex 0.457071 0.095671 0
    endloop
  endfacet
  facet normal 0.831476 0.555561 0
    outer loop
       vertex 0.442607 0.125 0
       vertex 0.424439 0.152191 0
       vertex 0.424439 0.152191 0.1
    endloop
  endfacet
  facet normal 0.831476 0.555561 0
    outer loop
       vertex 0.424439 0.152191 0.1
       vertex 0.442607 0.125 0.1
       vertex 0.442607 0.125 0
    endloop
  endfacet
  facet normal 0.751817 0.659372 0
    outer loop
       vertex 0.424439 0.152191 0
       vertex 0.402877 0.176776 0
       vertex 0.402877 0.176776 0.1
    endloop
  endfacet
  facet normal 0.751817 0.659372 0
    outer loop
       vertex 0.402877 0.176776 0.1
       vertex 0.424439 0.152191 0.1
       vertex 0.424439 0.152191 0
    endloop
  endfacet
  facet normal 0.659372 0.751817 0
    outer loop
       vertex 0.402877 0.176776 0
       vertex 0.378292 0.198338 0
       vertex 0.378292 0.198338 0.1
    endloop
  endfacet
  facet normal 0.659372 0.751817 0
    outer loop
       vertex 0.378292 0.198338 0.1
       vertex 0.402877 0.176776 0.1
       vertex 0.402877 0.176776 0
    endloop
  endfacet
  facet normal 0.555561 0.831476 0
    outer loop
       vertex 0.378292 0.198338 0
       vertex 0.351101 0.216506 0
       vertex 0.351101 0.216506 0.1
    endloop
  endfacet
  facet normal 0.555561 0.831476 0
    outer loop
       vertex 0.351101 0.216506 0.1
       vertex 0.378292 0.198338 0.1
       vertex 0.378292 0.198338 0
    endloop
  endfacet
  facet normal 0.442302 0.896866 0
    outer loop
       vertex 0.351101 0.216506 0
       vertex 0.321772 0.23097 0
       vertex 0.321772 0.23097 0.1
    endloop
  endfacet
  facet normal 0.442302 0.896866 0
    outer loop
       vertex 0.321772 0.23097 0.1
       vertex 0.351101 0.216506 0.1
       vertex 0.351101 0.216506 0
    endloop
  endfacet
  facet normal 0.321425 0.946935 0
    outer loop
       vertex 0.321772 0.23097 0
       vertex 0.290806 0.241481 0
       vertex 0.290806 0.241481 0.1
    endloop
  endfacet
  facet normal 0.321425 0.946935 0
    outer loop
       vertex 0.290806 0.241481 0.1
       vertex 0.321772 0.23097 0.1
       vertex 0.321772 0.23097 0
    endloop
  endfacet
  facet normal 0.195096 0.980784 0
    outer loop
       vertex 0.290806 0.241481 0
       vertex 0.258733 0.247861 0
       vertex 0.258733 0.247861 0.1
    endloop
  endfacet
  facet normal 0.195096 0.980784 0
    outer loop
       vertex 0.258733 0.247861 0.1
       vertex 0.290806 0.241481 0.1
       vertex 0.290806 0.241481 0
    endloop
  endfacet
  facet normal 0.0654098 0.997858 0
    outer loop
       vertex 0.226101 0.25 0.1
       vertex 0.258733 0.247861 0.1
       vertex 0.258733 0.247861 0
    endloop
  endfacet
  facet normal 0.0654098 0.997858 -1.0893e-16
    outer loop
       vertex 0.258733 0.247861 0
       vertex 0.226101 0.25 0
       vertex 0.226101 0.25 0.1
    endloop
  endfacet
  facet normal -0.0654098 0.997858 0
    outer loop
       vertex 0.226101 0.25 0
       vertex 0.19347 0.247861 0
       vertex 0.19347 0.247861 0.1
    endloop
  endfacet
  facet normal -0.0654098 0.997858 1.0893e-16
    outer loop
       vertex 0.19347 0.247861 0.1
       vertex 0.226101 0.25 0.1
       vertex 0.226101 0.25 0
    endloop
  endfacet
  facet normal -0.195096 0.980784 0
    outer loop
       vertex 0.19347 0.247861 0
       vertex 0.161396 0.241481 0
       vertex 0.161396 0.241481 0.1
    endloop
  endfacet
  facet normal -0.195096 0.980784 0
    outer loop
       vertex 0.161396 0.241481 0.1
       vertex 0.19347 0.247861 0.1
       vertex 0.19347 0.247861 0
    endloop
  endfacet
  facet normal -0.321425 0.946935 0
    outer loop
       vertex 0.161396 0.241481 0
       vertex 0.13043 0.23097 0
       vertex 0.13043 0.23097 0.1
    endloop
  endfacet
  facet normal -0.321425 0.946935 0
    outer loop
       vertex 0.13043 0.23097 0.1
       vertex 0.161396 0.241481 0.1
       vertex 0.161396 0.241481 0
    endloop
  endfacet
  facet normal -0.442302 0.896866 0
    outer loop
       vertex 0.13043 0.23097 0
       vertex 0.101101 0.216506 0
       vertex 0.101101 0.216506 0.1
    endloop
  endfacet
  facet normal -0.442302 0.896866 0
    outer loop
       vertex 0.101101 0.216506 0.1
       vertex 0.13043 0.23097 0.1
       vertex 0.13043 0.23097 0
    endloop
  endfacet
  facet normal -0.555561 0.831476 0
    outer loop
       vertex 0.101101 0.216506 0
       vertex 0.0739105 0.198338 0
       vertex 0.0739105 0.198338 0.1
    endloop
  endfacet
  facet normal -0.555561 0.831476 0
    outer loop
       vertex 0.0739105 0.198338 0.1
       vertex 0.101101 0.216506 0.1
       vertex 0.101101 0.216506 0
    endloop
  endfacet
  facet normal -0.659372 0.751817 0
    outer loop
       vertex 0.0739105 0.198338 0
       vertex 0.0493255 0.176776 0
       vertex 0.0493255 0.176776 0.1
    endloop
  endfacet
  facet normal -0.659372 0.751817 0
    outer loop
       vertex 0.0493255 0.176776 0.1
       vertex 0.0739105 0.198338 0.1
       vertex 0.0739105 0.198338 0
    endloop
  endfacet
  facet normal -0.751817 0.659372 0
    outer loop
       vertex 0.0493255 0.176776 0
       vertex 0.0277635 0.152191 0
       vertex 0.0277635 0.152191 0.1
    endloop
  endfacet
  facet normal -0.751817 0.659372 0
    outer loop
       vertex 0.0277635 0.152191 0.1
       vertex 0.0493255 0.176776 0.1
       vertex 0.0493255 0.176776 0
    endloop
  endfacet
  facet normal -0.831476 0.555561 0
    outer loop
       vertex 0.0277635 0.152191 0
       vertex 0.00959546 0.125 0
       vertex 0.00959546 0.125 0.1
    endloop
  endfacet
  facet normal -0.831476 0.555561 0
    outer loop
       vertex 0.00959546 0.125 0.1
       vertex 0.0277635 0.152191 0.1
       vertex 0.0277635 0.152191 0
    endloop
  endfacet
  facet normal -0.896866 0.442302 0
    outer loop
       vertex 0.00959546 0.125 0
       vertex -0.00486854 0.095671 0
       vertex -0.00486854 0.095671 0.1
    endloop
  endfacet
  facet normal -0.896866 0.442302 0
    outer loop
       vertex -0.00486854 0.095671 0.1
       vertex 0.00959546 0.125 0.1
       vertex 0.00959546 0.125 0
    endloop
  endfacet
  facet normal -0.946935 0.321425 0
    outer loop
       vertex -0.00486854 0.095671 0
       vertex -0.0153795 0.064705 0
       vertex -0.0153795 0.064705 0.1
    endloop
  endfacet
  facet normal -0.946935 0.321425 0
    outer loop
       vertex -0.0153795 0.064705 0.1
       vertex -0.00486854 0.095671 0.1
       vertex -0.00486854 0.095671 0
    endloop
  endfacet
  facet normal -0.980784 0.195096 0
    outer loop
       vertex -0.0153795 0.064705 0
       vertex -0.0217595 0.0326315 0
       vertex -0.0217595 0.0326315 0.1
    endloop
  endfacet
  facet normal -0.980784 0.195096 0
    outer loop
       vertex -0.0217595 0.0326315 0.1
       vertex -0.0153795 0.064705 0.1
       vertex -0.0153795 0.064705 0
    endloop
  endfacet
  facet normal -0.997858 0.0654098 0
    outer loop
       vertex -0.0238985 8.32665e-17 0.1
       vertex -0.0217595 0.0326315 0.1
       vertex -0.0217595 0.0326315 0
    endloop
  endfacet
  facet normal -0.997858 0.0654098 -1.08928e-16
    outer loop
       vertex -0.0217595 0.0326315 0
       vertex -0.0238985 -8.32665e-17 0
       vertex -0.0238985 8.32665e-17 0.1
    endloop
  endfacet
  facet normal -0.997858 -0.0654098 0
    outer loop
       vertex -0.0238985 -8.32665e-17 0
       vertex -0.0217595 -0.0326315 0
       vertex -0.0217595 -0.0326315 0.1
    endloop
  endfacet
  facet normal -0.997858 -0.0654098 1.08928e-16
    outer loop
       vertex -0.0217595 -0.0326315 0.1
       vertex -0.0238985 8.32665e-17 0.1
       vertex -0.0238985 -8.32665e-17 0
    endloop
  endfacet
  facet normal -0.980784 -0.195096 0
    outer loop
       vertex -0.0217595 -0.0326315 0
       vertex -0.0153795 -0.064705 0
       vertex -0.0153795 -0.064705 0.1
    endloop
  endfacet
  facet normal -0.980784 -0.195096 0
    outer loop
       vertex -0.0153795 -0.064705 0.1
       vertex -0.0217595 -0.0326315 0.1
       vertex -0.0217595 -0.0326315 0
    endloop
  endfacet
  facet normal -0.946935 -0.321425 0
    outer loop
       vertex -0.0153795 -0.064705 0
       vertex -0.00486854 -0.095671 0
       vertex -0.00486854 -0.095671 0.1
    endloop
  endfacet
  facet normal -0.946935 -0.321425 0
    outer loop
       vertex -0.00486854 -0.095671 0.1
       vertex -0.0153795 -0.064705 0.1
       vertex -0.0153795 -0.064705 0
    endloop
  endfacet
  facet normal -0.896866 -0.442302 0
    outer loop
       vertex -0.00486854 -0.095671 0
       vertex 0.00959546 -0.125 0
       vertex 0.00959546 -0.125 0.1
    endloop
  endfacet
  facet normal -0.896866 -0.442302 0
    outer loop
       vertex 0.00959546 -0.125 0.1
       vertex -0.00486854 -0.095671 0.1
       vertex -0.00486854 -0.095671 0
    endloop
  endfacet
  facet normal -0.831476 -0.555561 0
    outer loop
       vertex 0.00959546 -0.125 0
       vertex 0.0277635 -0.152191 0
       vertex 0.0277635 -0.152191 0.1
    endloop
  endfacet
  facet normal -0.831476 -0.555561 0
    outer loop
       vertex 0.0277635 -0.152191 0.1
       vertex 0.00959546 -0.125 0.1
       vertex 0.00959546 -0.125 0
    endloop
  endfacet
  facet normal -0.751817 -0.659372 0
    outer loop
       vertex 0.0277635 -0.152191 0
       vertex 0.0493255 -0.176776 0
       vertex 0.0493255 -0.176776 0.1
    endloop
  endfacet
  facet normal -0.751817 -0.659372 0
    outer loop
       vertex 0.0493255 -0.176776 0.1
       vertex 0.0277635 -0.152191 0.1
       vertex 0.0277635 -0.152191 0
    endloop
  endfacet
  facet normal 0.659372 -0.751817 0
    outer loop
       vertex 0.402877 -0.176776 0
       vertex 0.402877 -0.176776 0.1
       vertex 0.378292 -0.198338 0.1
    endloop
  endfacet
  facet normal 0.659372 -0.751817 0
    outer loop
       vertex 0.378292 -0.198338 0.1
       vertex 0.378292 -0.198338 0
       vertex 0.402877 -0.176776 0
    endloop
  endfacet
  facet normal 0.555561 -0.831476 0
    outer loop
       vertex 0.378292 -0.198338 0
       vertex 0.378292 -0.198338 0.1
       vertex 0.351101 -0.216506 0.1
    endloop
  endfacet
  facet normal 0.555561 -0.831476 0
    outer loop
       vertex 0.351101 -0.216506 0.1
       vertex 0.351101 -0.216506 0
       vertex 0.378292 -0.198338 0
    endloop
  endfacet
  facet normal 0.442302 -0.896866 0
    outer loop
       vertex 0.351101 -0.216506 0
       vertex 0.351101 -0.216506 0.1
       vertex 0.321772 -0.23097 0.1
    endloop
  endfacet
  facet normal 0.442302 -0.896866 0
    outer loop
       vertex 0.321772 -0.23097 0.1
       vertex 0.321772 -0.23097 0
       vertex 0.351101 -0.216506 0
    endloop
  endfacet
  facet normal 0.321425 -0.946935 0
    outer loop
       vertex 0.321772 -0.23097 0
       vertex 0.321772 -0.23097 0.1
       vertex 0.290806 -0.241481 0.1
    endloop
  endfacet
  facet normal 0.321425 -0.946935 0
    outer loop
       vertex 0.290806 -0.241481 0.1
       vertex 0.290806 -0.241481 0
       vertex 0.321772 -0.23097 0
    endloop
  endfacet
  facet normal 0.195096 -0.980784 0
    outer loop
       vertex 0.290806 -0.241481 0
       vertex 0.290806 -0.241481 0.1
       vertex 0.258733 -0.247861 0.1
    endloop
  endfacet
  facet normal 0.195096 -0.980784 0
    outer loop
       vertex 0.258733 -0.247861 0.1
       vertex 0.258733 -0.247861 0
       vertex 0.290806 -0.241481 0
    endloop
  endfacet
  facet normal 0.0654098 -0.997858 0
    outer loop
       vertex 0.226101 -0.25 0
       vertex 0.258733 -0.247861 0
       vertex 0.258733 -0.247861 0.1
    endloop
  endfacet
  facet normal 0.0654098 -0.997858 1.0893e-16
    outer loop
       vertex 0.258733 -0.247861 0.1
       vertex 0.226101 -0.25 0.1
       vertex 0.226101 -0.25 0
    endloop
  endfacet
  facet normal -0.0654098 -0.997858 0
    outer loop
       vertex 0.226101 -0.25 0.1
       vertex 0.19347 -0.247861 0.1
       vertex 0.19347 -0.247861 0
    endloop
  endfacet
  facet normal -0.0654098 -0.997858 -1.0893e-16
    outer loop
       vertex 0.19347 -0.247861 0
       vertex 0.226101 -0.25 0
       vertex 0.226101 -0.25 0.1
    endloop
  endfacet
  facet normal -0.195096 -0.980784 0
    outer loop
       vertex 0.19347 -0.247861 0
       vertex 0.19347 -0.247861 0.1
       vertex 0.161396 -0.241481 0.1
    endloop
  endfacet
  facet normal -0.195096 -0.980784 -0
    outer loop
       vertex 0.161396 -0.241481 0.1
       vertex 0.161396 -0.241481 0
       vertex 0.19347 -0.247861 0
    endloop
  endfacet
  facet normal -0.321425 -0.946935 0
    outer loop
       vertex 0.161396 -0.241481 0
       vertex 0.161396 -0.241481 0.1
       vertex 0.13043 -0.23097 0.1
    endloop
  endfacet
  facet normal -0.321425 -0.946935 -0
    outer loop
       vertex 0.13043 -0.23097 0.1
       vertex 0.13043 -0.23097 0
       vertex 0.161396 -0.241481 0
    endloop
  endfacet
  facet normal -0.442302 -0.896866 0
    outer loop
       vertex 0.13043 -0.23097 0
       vertex 0.13043 -0.23097 0.1
       vertex 0.101101 -0.216506 0.1
    endloop
  endfacet
  facet normal -0.442302 -0.896866 -0
    outer loop
       vertex 0.101101 -0.216506 0.1
       vertex 0.101101 -0.216506 0
       vertex 0.13043 -0.23097 0
    endloop
  endfacet
  facet normal -0.555561 -0.831476 0
    outer loop
       vertex 0.101101 -0.216506 0
       vertex 0.101101 -0.216506 0.1
       vertex 0.0739105 -0.198338 0.1
    endloop
  endfacet
  facet normal -0.555561 -0.831476 -0
    outer loop
       vertex 0.0739105 -0.198338 0.1
       vertex 0.0739105 -0.198338 0
       vertex 0.101101 -0.216506 0
    endloop
  endfacet
  facet normal -0.659372 -0.751817 0
    outer loop
       vertex 0.0739105 -0.198338 0
       vertex 0.0739105 -0.198338 0.1
       vertex 0.0493255 -0.176776 0.1
    endloop
  endfacet
  facet normal -0.659372 -0.751817 -0
    outer loop
       vertex 0.0493255 -0.176776 0.1
       vertex 0.0493255 -0.176776 0
       vertex 0.0739105 -0.198338 0
    endloop
  endfacet
endsolid cylinder
