solid cylinder
  facet normal 0.751817 -0.659372 0
    outer loop
       vertex 0.378682 -0.176776 0
       vertex 0.400244 -0.152191 0
       vertex 0.400244 -0.152191 0.1
    endloop
  endfacet
  facet normal 0.751817 -0.659372 0
    outer loop
       vertex 0.400244 -0.152191 0.1
       vertex 0.378682 -0.176776 0.1
       vertex 0.378682 -0.176776 0
    endloop
  endfacet
  facet normal 0.831476 -0.555561 0
    outer loop
       vertex 0.400244 -0.152191 0
       vertex 0.418412 -0.125 0
       vertex 0.418412 -0.125 0.1
    endloop
  endfacet
  facet normal 0.831476 -0.555561 0
    outer loop
       vertex 0.418412 -0.125 0.1
       vertex 0.400244 -0.152191 0.1
       vertex 0.400244 -0.152191 0
    endloop
  endfacet
  facet normal 0.896866 -0.442302 0
    outer loop
       vertex 0.418412 -0.125 0
       vertex 0.432876 -0.095671 0
       vertex 0.432876 -0.095671 0.1
    endloop
  endfacet
  facet normal 0.896866 -0.442302 0
    outer loop
       vertex 0.432876 -0.095671 0.1
       vertex 0.418412 -0.125 0.1
       vertex 0.418412 -0.125 0
    endloop
  endfacet
  facet normal 0.946935 -0.321425 0
    outer loop
       vertex 0.432876 -0.095671 0
       vertex 0.443387 -0.064705 0
       vertex 0.443387 -0.064705 0.1
    endloop
  endfacet
  facet normal 0.946935 -0.321425 0
    outer loop
       vertex 0.443387 -0.064705 0.1
       vertex 0.432876 -0.095671 0.1
       vertex 0.432876 -0.095671 0
    endloop
  endfacet
  facet normal 0.980784 -0.195096 0
    outer loop
       vertex 0.443387 -0.064705 0
       vertex 0.449767 -0.0326315 0
       vertex 0.449767 -0.0326315 0.1
    endloop
  endfacet
  facet normal 0.980784 -0.195096 0
    outer loop
       vertex 0.449767 -0.0326315 0.1
       vertex 0.443387 -0.064705 0.1
       vertex 0.443387 -0.064705 0
    endloop
  endfacet
  facet normal 0.997858 -0.0654098 0
    outer loop
       vertex 0.451906 -8.32665e-17 0.1
       vertex 0.449767 -0.0326315 0.1
       vertex 0.449767 -0.0326315 0
    endloop
  endfacet
  facet normal 0.997858 -0.0654098 -1.08928e-16
    outer loop
       vertex 0.449767 -0.0326315 0
       vertex 0.451906 8.32665e-17 0
       vertex 0.451906 -8.32665e-17 0.1
    endloop
  endfacet
  facet normal 0.997858 0.0654098 0
    outer loop
       vertex 0.451906 8.32665e-17 0
       vertex 0.449767 0.0326315 0
       vertex 0.449767 0.0326315 0.1
    endloop
  endfacet
  facet normal 0.997858 0.0654098 1.08928e-16
    outer loop
       vertex 0.449767 0.0326315 0.1
       vertex 0.451906 -8.32665e-17 0.1
       vertex 0.451906 8.32665e-17 0
    endloop
  endfacet
  facet normal 0.980784 0.195096 0
    outer loop
       vertex 0.449767 0.0326315 0
       vertex 0.443387 0.064705 0
       vertex 0.443387 0.064705 0.1
    endloop
  endfacet
  facet normal 0.980784 0.195096 0
    outer loop
       vertex 0.443387 0.064705 0.1
       vertex 0.449767 0.0326315 0.1
       vertex 0.449767 0.0326315 0
    endloop
  endfacet
  facet normal 0.946935 0.321425 0
    outer loop
       vertex 0.443387 0.064705 0
       vertex 0.432876 0.095671 0
       vertex 0.432876 0.095671 0.1
    endloop
  endfacet
  facet normal 0.946935 0.321425 0
    outer loop
       vertex 0.432876 0.095671 0.1
       vertex 0.443387 0.064705 0.1
       vertex 0.443387 0.064705 0
    endloop
  endfacet
  facet normal 0.896866 0.442302 0
    outer loop
       vertex 0.432876 0.095671 0
       vertex 0.418412 0.125 0
       vertex 0.418412 0.125 0.1
    endloop
  endfacet
  facet normal 0.896866 0.442302 0
    outer loop
       vertex 0.418412 0.125 0.1
       vertex 0.432876 0.095671 0.1
       vertex 0.432876 0.095671 0
    endloop
  endfacet
  facet normal 0.831476 0.555561 0
    outer loop
       vertex 0.418412 0.125 0
       vertex 0.400244 0.152191 0
       vertex 0.400244 0.152191 0.1
    endloop
  endfacet
  facet normal 0.831476 0.555561 0
    outer loop
       vertex 0.400244 0.152191 0.1
       vertex 0.418412 0.125 0.1
       vertex 0.418412 0.125 0
    endloop
  endfacet
  facet normal 0.751817 0.659372 0
    outer loop
       vertex 0.400244 0.152191 0
       vertex 0.378682 0.176776 0
       vertex 0.378682 0.176776 0.1
    endloop
  endfacet
  facet normal 0.751817 0.659372 0
    outer loop
       vertex 0.378682 0.176776 0.1
       vertex 0.400244 0.152191 0.1
       vertex 0.400244 0.152191 0
    endloop
  endfacet
  facet normal 0.659372 0.751817 0
    outer loop
       vertex 0.378682 0.176776 0
       vertex 0.354097 0.198338 0
       vertex 0.354097 0.198338 0.1
    endloop
  endfacet
  facet normal 0.659372 0.751817 0
    outer loop
       vertex 0.354097 0.198338 0.1
       vertex 0.378682 0.176776 0.1
       vertex 0.378682 0.176776 0
    endloop
  endfacet
  facet normal 0.555561 0.831476 0
    outer loop
       vertex 0.354097 0.198338 0
       vertex 0.326906 0.216506 0
       vertex 0.326906 0.216506 0.1
    endloop
  endfacet
  facet normal 0.555561 0.831476 0
    outer loop
       vertex 0.326906 0.216506 0.1
       vertex 0.354097 0.198338 0.1
       vertex 0.354097 0.198338 0
    endloop
  endfacet
  facet normal 0.442302 0.896866 0
    outer loop
       vertex 0.326906 0.216506 0
       vertex 0.297577 0.23097 0
       vertex 0.297577 0.23097 0.1
    endloop
  endfacet
  facet normal 0.442302 0.896866 0
    outer loop
       vertex 0.297577 0.23097 0.1
       vertex 0.326906 0.216506 0.1
       vertex 0.326906 0.216506 0
    endloop
  endfacet
  facet normal 0.321425 0.946935 0
    outer loop
       vertex 0.297577 0.23097 0
       vertex 0.266611 0.241481 0
       vertex 0.266611 0.241481 0.1
    endloop
  endfacet
  facet normal 0.321425 0.946935 0
    outer loop
       vertex 0.266611 0.241481 0.1
       vertex 0.297577 0.23097 0.1
       vertex 0.297577 0.23097 0
    endloop
  endfacet
  facet normal 0.195096 0.980784 0
    outer loop
       vertex 0.266611 0.241481 0
       vertex 0.234537 0.247861 0
       vertex 0.234537 0.247861 0.1
    endloop
  endfacet
  facet normal 0.195096 0.980784 0
    outer loop
       vertex 0.234537 0.247861 0.1
       vertex 0.266611 0.241481 0.1
       vertex 0.266611 0.241481 0
    endloop
  endfacet
  facet normal 0.0654098 0.997858 0
    outer loop
       vertex 0.201906 0.25 0.1
       vertex 0.234537 0.247861 0.1
       vertex 0.234537 0.247861 0
    endloop
  endfacet
  facet normal 0.0654098 0.997858 -1.0893e-16
    outer loop
       vertex 0.234537 0.247861 0
       vertex 0.201906 0.25 0
       vertex 0.201906 0.25 0.1
    endloop
  endfacet
  facet normal -0.0654098 0.997858 0
    outer loop
       vertex 0.201906 0.25 0
       vertex 0.169274 0.247861 0
       vertex 0.169274 0.247861 0.1
    endloop
  endfacet
  facet normal -0.0654098 0.997858 1.0893e-16
    outer loop
       vertex 0.169274 0.247861 0.1
       vertex 0.201906 0.25 0.1
       vertex 0.201906 0.25 0
    endloop
  endfacet
  facet normal -0.195096 0.980784 0
    outer loop
       vertex 0.169274 0.247861 0
       vertex 0.137201 0.241481 0
       vertex 0.137201 0.241481 0.1
    endloop
  endfacet
  facet normal -0.195096 0.980784 0
    outer loop
       vertex 0.137201 0.241481 0.1
       vertex 0.169274 0.247861 0.1
       vertex 0.169274 0.247861 0
    endloop
  endfacet
  facet normal -0.321425 0.946935 0
    outer loop
       vertex 0.137201 0.241481 0
       vertex 0.106235 0.23097 0
       vertex 0.106235 0.23097 0.1
    endloop
  endfacet
  facet normal -0.321425 0.946935 0
    outer loop
       vertex 0.106235 0.23097 0.1
       vertex 0.137201 0.241481 0.1
       vertex 0.137201 0.241481 0
    endloop
  endfacet
  facet normal -0.442302 0.896866 0
    outer loop
       vertex 0.106235 0.23097 0
       vertex 0.0769055 0.216506 0
       vertex 0.0769055 0.216506 0.1
    endloop
  endfacet
  facet normal -0.442302 0.896866 0
    outer loop
       vertex 0.0769055 0.216506 0.1
       vertex 0.106235 0.23097 0.1
       vertex 0.106235 0.23097 0
    endloop
  endfacet
  facet normal -0.555561 0.831476 0
    outer loop
       vertex 0.0769055 0.216506 0
       vertex 0.0497145 0.198338 0
       vertex 0.0497145 0.198338 0.1
    endloop
  endfacet
  facet normal -0.555561 0.831476 0
    outer loop
       vertex 0.0497145 0.198338 0.1
       vertex 0.0769055 0.216506 0.1
       vertex 0.0769055 0.216506 0
    endloop
  endfacet
  facet normal -0.659372 0.751817 0
    outer loop
       vertex 0.0497145 0.198338 0
       vertex 0.0251295 0.176776 0
       vertex 0.0251295 0.176776 0.1
    endloop
  endfacet
  facet normal -0.659372 0.751817 0
    outer loop
       vertex 0.0251295 0.176776 0.1
       vertex 0.0497145 0.198338 0.1
       vertex 0.0497145 0.198338 0
    endloop
  endfacet
  facet normal -0.751817 0.659372 0
    outer loop
       vertex 0.0251295 0.176776 0
       vertex 0.00356754 0.152191 0
       vertex 0.00356754 0.152191 0.1
    endloop
  endfacet
  facet normal -0.751817 0.659372 0
    outer loop
       vertex 0.00356754 0.152191 0.1
       vertex 0.0251295 0.176776 0.1
       vertex 0.0251295 0.176776 0
    endloop
  endfacet
  facet normal -0.831476 0.555561 0
    outer loop
       vertex 0.00356754 0.152191 0
       vertex -0.0146005 0.125 0
       vertex -0.0146005 0.125 0.1
    endloop
  endfacet
  facet normal -0.831476 0.555561 0
    outer loop
       vertex -0.0146005 0.125 0.1
       vertex 0.00356754 0.152191 0.1
       vertex 0.00356754 0.152191 0
    endloop
  endfacet
  facet normal -0.896866 0.442302 0
    outer loop
       vertex -0.0146005 0.125 0
       vertex -0.0290645 0.095671 0
       vertex -0.0290645 0.095671 0.1
    endloop
  endfacet
  facet normal -0.896866 0.442302 0
    outer loop
       vertex -0.0290645 0.095671 0.1
       vertex -0.0146005 0.125 0.1
       vertex -0.0146005 0.125 0
    endloop
  endfacet
  facet normal -0.946935 0.321425 0
    outer loop
       vertex -0.0290645 0.095671 0
       vertex -0.0395755 0.064705 0
       vertex -0.0395755 0.064705 0.1
    endloop
  endfacet
  facet normal -0.946935 0.321425 0
    outer loop
       vertex -0.0395755 0.064705 0.1
       vertex -0.0290645 0.095671 0.1
       vertex -0.0290645 0.095671 0
    endloop
  endfacet
  facet normal -0.980784 0.195096 0
    outer loop
       vertex -0.0395755 0.064705 0
       vertex -0.0459555 0.0326315 0
       vertex -0.0459555 0.0326315 0.1
    endloop
  endfacet
  facet normal -0.980784 0.195096 0
    outer loop
       vertex -0.0459555 0.0326315 0.1
       vertex -0.0395755 0.064705 0.1
       vertex -0.0395755 0.064705 0
    endloop
  endfacet
  facet normal -0.997858 0.0654098 0
    outer loop
       vertex -0.0480945 8.32665e-17 0.1
       vertex -0.0459555 0.0326315 0.1
       vertex -0.0459555 0.0326315 0
    endloop
  endfacet
  facet normal -0.997858 0.0654098 -1.08928e-16
    outer loop
       vertex -0.0459555 0.0326315 0
       vertex -0.0480945 -8.32665e-17 0
       vertex -0.0480945 8.32665e-17 0.1
    endloop
  endfacet
  facet normal -0.997858 -0.0654098 0
    outer loop
       vertex -0.0480945 -8.32665e-17 0
       vertex -0.0459555 -0.0326315 0
       vertex -0.0459555 -0.0326315 0.1
    endloop
  endfacet
  facet normal -0.997858 -0.0654098 1.08928e-16
    outer loop
       vertex -0.0459555 -0.0326315 0.1
       vertex -0.0480945 8.32665e-17 0.1
       vertex -0.0480945 -8.32665e-17 0
    endloop
  endfacet
  facet normal -0.980784 -0.195096 0
    outer loop
       vertex -0.0459555 -0.0326315 0
       vertex -0.0395755 -0.064705 0
       vertex -0.0395755 -0.064705 0.1
    endloop
  endfacet
  facet normal -0.980784 -0.195096 0
    outer loop
       vertex -0.0395755 -0.064705 0.1
       vertex -0.0459555 -0.0326315 0.1
       vertex -0.0459555 -0.0326315 0
    endloop
  endfacet
  facet normal -0.946935 -0.321425 0
    outer loop
       vertex -0.0395755 -0.064705 0
       vertex -0.0290645 -0.095671 0
       vertex -0.0290645 -0.095671 0.1
    endloop
  endfacet
  facet normal -0.946935 -0.321425 0
    outer loop
       vertex -0.0290645 -0.095671 0.1
       vertex -0.0395755 -0.064705 0.1
       vertex -0.0395755 -0.064705 0
    endloop
  endfacet
  facet normal -0.896866 -0.442302 0
    outer loop
       vertex -0.0290645 -0.095671 0
       vertex -0.0146005 -0.125 0
       vertex -0.0146005 -0.125 0.1
    endloop
  endfacet
  facet normal -0.896866 -0.442302 0
    outer loop
       vertex -0.0146005 -0.125 0.1
       vertex -0.0290645 -0.095671 0.1
       vertex -0.0290645 -0.095671 0
    endloop
  endfacet
  facet normal -0.831476 -0.555561 0
    outer loop
       vertex -0.0146005 -0.125 0
       vertex 0.00356754 -0.152191 0
       vertex 0.00356754 -0.152191 0.1
    endloop
  endfacet
  facet normal -0.831476 -0.555561 0
    outer loop
       vertex 0.00356754 -0.152191 0.1
       vertex -0.0146005 -0.125 0.1
       vertex -0.0146005 -0.125 0
    endloop
  endfacet
  facet normal -0.751817 -0.659372 0
    outer loop
       vertex 0.00356754 -0.152191 0
       vertex 0.0251295 -0.176776 0
       vertex 0.0251295 -0.176776 0.1
    endloop
  endfacet
  facet normal -0.751817 -0.659372 0
    outer loop
       vertex 0.0251295 -0.176776 0.1
       vertex 0.00356754 -0.152191 0.1
       vertex 0.00356754 -0.152191 0
    endloop
  endfacet
  facet normal 0.659372 -0.751817 0
    outer loop
       vertex 0.378682 -0.176776 0
       vertex 0.378682 -0.176776 0.1
       vertex 0.354097 -0.198338 0.1
    endloop
  endfacet
  facet normal 0.659372 -0.751817 0
    outer loop
       vertex 0.354097 -0.198338 0.1
       vertex 0.354097 -0.198338 0
       vertex 0.378682 -0.176776 0
    endloop
  endfacet
  facet normal 0.555561 -0.831476 0
    outer loop
       vertex 0.354097 -0.198338 0
       vertex 0.354097 -0.198338 0.1
       vertex 0.326906 -0.216506 0.1
    endloop
  endfacet
  facet normal 0.555561 -0.831476 0
    outer loop
       vertex 0.326906 -0.216506 0.1
       vertex 0.326906 -0.216506 0
       vertex 0.354097 -0.198338 0
    endloop
  endfacet
  facet normal 0.442302 -0.896866 0
    outer loop
       vertex 0.326906 -0.216506 0
       vertex 0.326906 -0.216506 0.1
       vertex 0.297577 -0.23097 0.1
    endloop
  endfacet
  facet normal 0.442302 -0.896866 0
    outer loop
       vertex 0.297577 -0.23097 0.1
       vertex 0.297577 -0.23097 0
       vertex 0.326906 -0.216506 0
    endloop
  endfacet
  facet normal 0.321425 -0.946935 0
    outer loop
       vertex 0.297577 -0.23097 0
       vertex 0.297577 -0.23097 0.1
       vertex 0.266611 -0.241481 0.1
    endloop
  endfacet
  facet normal 0.321425 -0.946935 0
    outer loop
       vertex 0.266611 -0.241481 0.1
       vertex 0.266611 -0.241481 0
       vertex 0.297577 -0.23097 0
    endloop
  endfacet
  facet normal 0.195096 -0.980784 0
    outer loop
       vertex 0.266611 -0.241481 0
       vertex 0.266611 -0.241481 0.1
       vertex 0.234537 -0.247861 0.1
    endloop
  endfacet
  facet normal 0.195096 -0.980784 0
    outer loop
       vertex 0.234537 -0.247861 0.1
       vertex 0.234537 -0.247861 0
       vertex 0.266611 -0.241481 0
    endloop
  endfacet
  facet normal 0.0654098 -0.997858 0
    outer loop
       vertex 0.201906 -0.25 0
       vertex 0.234537 -0.247861 0
       vertex 0.234537 -0.247861 0.1
    endloop
  endfacet
  facet normal 0.0654098 -0.997858 1.0893e-16
    outer loop
       vertex 0.234537 -0.247861 0.1
       vertex 0.201906 -0.25 0.1
       vertex 0.201906 -0.25 0
    endloop
  endfacet
  facet normal -0.0654098 -0.997858 0
    outer loop
       vertex 0.201906 -0.25 0.1
       vertex 0.169274 -0.247861 0.1
       vertex 0.169274 -0.247861 0
    endloop
  endfacet
  facet normal -0.0654098 -0.997858 -1.0893e-16
    outer loop
       vertex 0.169274 -0.247861 0
       vertex 0.201906 -0.25 0
       vertex 0.201906 -0.25 0.1
    endloop
  endfacet
  facet normal -0.195096 -0.980784 0
    outer loop
       vertex 0.169274 -0.247861 0
       vertex 0.169274 -0.247861 0.1
       vertex 0.137201 -0.241481 0.1
    endloop
  endfacet
  facet normal -0.195096 -0.980784 -0
    outer loop
       vertex 0.137201 -0.241481 0.1
       vertex 0.137201 -0.241481 0
       vertex 0.169274 -0.247861 0
    endloop
  endfacet
  facet normal -0.321425 -0.946935 0
    outer loop
       vertex 0.137201 -0.241481 0
       vertex 0.137201 -0.241481 0.1
       vertex 0.106235 -0.23097 0.1
    endloop
  endfacet
  facet normal -0.321425 -0.946935 -0
    outer loop
       vertex 0.106235 -0.23097 0.1
       vertex 0.106235 -0.23097 0
       vertex 0.137201 -0.241481 0
    endloop
  endfacet
  facet normal -0.442302 -0.896866 0
    outer loop
       vertex 0.106235 -0.23097 0
       vertex 0.106235 -0.23097 0.1
       vertex 0.0769055 -0.216506 0.1
    endloop
  endfacet
  facet normal -0.442302 -0.896866 -0
    outer loop
       vertex 0.0769055 -0.216506 0.1
       vertex 0.0769055 -0.216506 0
       vertex 0.106235 -0.23097 0
    endloop
  endfacet
  facet normal -0.555561 -0.831476 0
    outer loop
       vertex 0.0769055 -0.216506 0
       vertex 0.0769055 -0.216506 0.1
       vertex 0.0497145 -0.198338 0.1
    endloop
  endfacet
  facet normal -0.555561 -0.831476 -0
    outer loop
       vertex 0.0497145 -0.198338 0.1
       vertex 0.0497145 -0.198338 0
       vertex 0.0769055 -0.216506 0
    endloop
  endfacet
  facet normal -0.659372 -0.751817 0
    outer loop
       vertex 0.0497145 -0.198338 0
       vertex 0.0497145 -0.198338 0.1
       vertex 0.0251295 -0.176776 0.1
    endloop
  endfacet
  facet normal -0.659372 -0.751817 -0
    outer loop
       vertex 0.0251295 -0.176776 0.1
       vertex 0.0251295 -0.176776 0
       vertex 0.0497145 -0.198338 0
    endloop
  endfacet
endsolid cylinder
