solid cylinder
  facet normal 0.751817 -0.659372 0
    outer loop
       vertex 0.388923 -0.176776 0
       vertex 0.410485 -0.152191 0
       vertex 0.410485 -0.152191 0.1
    endloop
  endfacet
  facet normal 0.751817 -0.659372 0
    outer loop
       vertex 0.410485 -0.152191 0.1
       vertex 0.388923 -0.176776 0.1
       vertex 0.388923 -0.176776 0
    endloop
  endfacet
  facet normal 0.831476 -0.555561 0
    outer loop
       vertex 0.410485 -0.152191 0
       vertex 0.428653 -0.125 0
       vertex 0.428653 -0.125 0.1
    endloop
  endfacet
  facet normal 0.831476 -0.555561 0
    outer loop
       vertex 0.428653 -0.125 0.1
       vertex 0.410485 -0.152191 0.1
       vertex 0.410485 -0.152191 0
    endloop
  endfacet
  facet normal 0.896866 -0.442302 0
    outer loop
       vertex 0.428653 -0.125 0
       vertex 0.443117 -0.095671 0
       vertex 0.443117 -0.095671 0.1
    endloop
  endfacet
  facet normal 0.896866 -0.442302 0
    outer loop
       vertex 0.443117 -0.095671 0.1
       vertex 0.428653 -0.125 0.1
       vertex 0.428653 -0.125 0
    endloop
  endfacet
  facet normal 0.946935 -0.321425 0
    outer loop
       vertex 0.443117 -0.095671 0
       vertex 0.453628 -0.064705 0
       vertex 0.453628 -0.064705 0.1
    endloop
  endfacet
  facet normal 0.946935 -0.321425 0
    outer loop
       vertex 0.453628 -0.064705 0.1
       vertex 0.443117 -0.095671 0.1
       vertex 0.443117 -0.095671 0
    endloop
  endfacet
  facet normal 0.980784 -0.195096 0
    outer loop
       vertex 0.453628 -0.064705 0
       vertex 0.460008 -0.0326315 0
       vertex 0.460008 -0.0326315 0.1
    endloop
  endfacet
  facet normal 0.980784 -0.195096 0
    outer loop
       vertex 0.460008 -0.0326315 0.1
       vertex 0.453628 -0.064705 0.1
       vertex 0.453628 -0.064705 0
    endloop
  endfacet
  facet normal 0.997858 -0.0654098 0
    outer loop
       vertex 0.462147 -8.32665e-17 0.1
       vertex 0.460008 -0.0326315 0.1
       vertex 0.460008 -0.0326315 0
    endloop
  endfacet
  facet normal 0.997858 -0.0654098 -1.08928e-16
    outer loop
       vertex 0.460008 -0.0326315 0
       vertex 0.462147 8.32665e-17 0
       vertex 0.462147 -8.32665e-17 0.1
    endloop
  endfacet
  facet normal 0.997858 0.0654098 0
    outer loop
       vertex 0.462147 8.32665e-17 0
       vertex 0.460008 0.0326315 0
       vertex 0.460008 0.0326315 0.1
    endloop
  endfacet
  facet normal 0.997858 0.0654098 1.08928e-16
    outer loop
       vertex 0.460008 0.0326315 0.1
       vertex 0.462147 -8.32665e-17 0.1
       vertex 0.462147 8.32665e-17 0
    endloop
  endfacet
  facet normal 0.980784 0.195096 0
    outer loop
       vertex 0.460008 0.0326315 0
       vertex 0.453628 0.064705 0
       vertex 0.453628 0.064705 0.1
    endloop
  endfacet
  facet normal 0.980784 0.195096 0
    outer loop
       vertex 0.453628 0.064705 0.1
       vertex 0.460008 0.0326315 0.1
       vertex 0.460008 0.0326315 0
    endloop
  endfacet
  facet normal 0.946935 0.321425 0
    outer loop
       vertex 0.453628 0.064705 0
       vertex 0.443117 0.095671 0
       vertex 0.443117 0.095671 0.1
    endloop
  endfacet
  facet normal 0.946935 0.321425 0
    outer loop
       vertex 0.443117 0.095671 0.1
       vertex 0.453628 0.064705 0.1
       vertex 0.453628 0.064705 0
    endloop
  endfacet
  facet normal 0.896866 0.442302 0
    outer loop
       vertex 0.443117 0.095671 0
       vertex 0.428653 0.125 0
       vertex 0.428653 0.125 0.1
    endloop
  endfacet
  facet normal 0.896866 0.442302 0
    outer loop
       vertex 0.428653 0.125 0.1
       vertex 0.443117 0.095671 0.1
       vertex 0.443117 0.095671 0
    endloop
  endfacet
  facet normal 0.831476 0.555561 0
    outer loop
       vertex 0.428653 0.125 0
       vertex 0.410485 0.152191 0
       vertex 0.410485 0.152191 0.1
    endloop
  endfacet
  facet normal 0.831476 0.555561 0
    outer loop
       vertex 0.410485 0.152191 0.1
       vertex 0.428653 0.125 0.1
       vertex 0.428653 0.125 0
    endloop
  endfacet
  facet normal 0.751817 0.659372 0
    outer loop
       vertex 0.410485 0.152191 0
       vertex 0.388923 0.176776 0
       vertex 0.388923 0.176776 0.1
    endloop
  endfacet
  facet normal 0.751817 0.659372 0
    outer loop
       vertex 0.388923 0.176776 0.1
       vertex 0.410485 0.152191 0.1
       vertex 0.410485 0.152191 0
    endloop
  endfacet
  facet normal 0.659372 0.751817 0
    outer loop
       vertex 0.388923 0.176776 0
       vertex 0.364338 0.198338 0
       vertex 0.364338 0.198338 0.1
    endloop
  endfacet
  facet normal 0.659372 0.751817 0
    outer loop
       vertex 0.364338 0.198338 0.1
       vertex 0.388923 0.176776 0.1
       vertex 0.388923 0.176776 0
    endloop
  endfacet
  facet normal 0.555561 0.831476 0
    outer loop
       vertex 0.364338 0.198338 0
       vertex 0.337147 0.216506 0
       vertex 0.337147 0.216506 0.1
    endloop
  endfacet
  facet normal 0.555561 0.831476 0
    outer loop
       vertex 0.337147 0.216506 0.1
       vertex 0.364338 0.198338 0.1
       vertex 0.364338 0.198338 0
    endloop
  endfacet
  facet normal 0.442302 0.896866 0
    outer loop
       vertex 0.337147 0.216506 0
       vertex 0.307818 0.23097 0
       vertex 0.307818 0.23097 0.1
    endloop
  endfacet
  facet normal 0.442302 0.896866 0
    outer loop
       vertex 0.307818 0.23097 0.1
       vertex 0.337147 0.216506 0.1
       vertex 0.337147 0.216506 0
    endloop
  endfacet
  facet normal 0.321425 0.946935 0
    outer loop
       vertex 0.307818 0.23097 0
       vertex 0.276852 0.241481 0
       vertex 0.276852 0.241481 0.1
    endloop
  endfacet
  facet normal 0.321425 0.946935 0
    outer loop
       vertex 0.276852 0.241481 0.1
       vertex 0.307818 0.23097 0.1
       vertex 0.307818 0.23097 0
    endloop
  endfacet
  facet normal 0.195096 0.980784 0
    outer loop
       vertex 0.276852 0.241481 0
       vertex 0.244778 0.247861 0
       vertex 0.244778 0.247861 0.1
    endloop
  endfacet
  facet normal 0.195096 0.980784 0
    outer loop
       vertex 0.244778 0.247861 0.1
       vertex 0.276852 0.241481 0.1
       vertex 0.276852 0.241481 0
    endloop
  endfacet
  facet normal 0.0654098 0.997858 0
    outer loop
       vertex 0.212147 0.25 0.1
       vertex 0.244778 0.247861 0.1
       vertex 0.244778 0.247861 0
    endloop
  endfacet
  facet normal 0.0654098 0.997858 -1.0893e-16
    outer loop
       vertex 0.244778 0.247861 0
       vertex 0.212147 0.25 0
       vertex 0.212147 0.25 0.1
    endloop
  endfacet
  facet normal -0.0654098 0.997858 0
    outer loop
       vertex 0.212147 0.25 0
       vertex 0.179515 0.247861 0
       vertex 0.179515 0.247861 0.1
    endloop
  endfacet
  facet normal -0.0654098 0.997858 1.0893e-16
    outer loop
       vertex 0.179515 0.247861 0.1
       vertex 0.212147 0.25 0.1
       vertex 0.212147 0.25 0
    endloop
  endfacet
  facet normal -0.195096 0.980784 0
    outer loop
       vertex 0.179515 0.247861 0
       vertex 0.147442 0.241481 0
       vertex 0.147442 0.241481 0.1
    endloop
  endfacet
  facet normal -0.195096 0.980784 0
    outer loop
       vertex 0.147442 0.241481 0.1
       vertex 0.179515 0.247861 0.1
       vertex 0.179515 0.247861 0
    endloop
  endfacet
  facet normal -0.321425 0.946935 0
    outer loop
       vertex 0.147442 0.241481 0
       vertex 0.116476 0.23097 0
       vertex 0.116476 0.23097 0.1
    endloop
  endfacet
  facet normal -0.321425 0.946935 0
    outer loop
       vertex 0.116476 0.23097 0.1
       vertex 0.147442 0.241481 0.1
       vertex 0.147442 0.241481 0
    endloop
  endfacet
  facet normal -0.442302 0.896866 0
    outer loop
       vertex 0.116476 0.23097 0
       vertex 0.0871468 0.216506 0
       vertex 0.0871468 0.216506 0.1
    endloop
  endfacet
  facet normal -0.442302 0.896866 0
    outer loop
       vertex 0.0871468 0.216506 0.1
       vertex 0.116476 0.23097 0.1
       vertex 0.116476 0.23097 0
    endloop
  endfacet
  facet normal -0.555561 0.831476 0
    outer loop
       vertex 0.0871468 0.216506 0
       vertex 0.0599558 0.198338 0
       vertex 0.0599558 0.198338 0.1
    endloop
  endfacet
  facet normal -0.555561 0.831476 0
    outer loop
       vertex 0.0599558 0.198338 0.1
       vertex 0.0871468 0.216506 0.1
       vertex 0.0871468 0.216506 0
    endloop
  endfacet
  facet normal -0.659372 0.751817 0
    outer loop
       vertex 0.0599558 0.198338 0
       vertex 0.0353708 0.176776 0
       vertex 0.0353708 0.176776 0.1
    endloop
  endfacet
  facet normal -0.659372 0.751817 0
    outer loop
       vertex 0.0353708 0.176776 0.1
       vertex 0.0599558 0.198338 0.1
       vertex 0.0599558 0.198338 0
    endloop
  endfacet
  facet normal -0.751817 0.659372 0
    outer loop
       vertex 0.0353708 0.176776 0
       vertex 0.0138088 0.152191 0
       vertex 0.0138088 0.152191 0.1
    endloop
  endfacet
  facet normal -0.751817 0.659372 0
    outer loop
       vertex 0.0138088 0.152191 0.1
       vertex 0.0353708 0.176776 0.1
       vertex 0.0353708 0.176776 0
    endloop
  endfacet
  facet normal -0.831476 0.555561 0
    outer loop
       vertex 0.0138088 0.152191 0
       vertex -0.00435924 0.125 0
       vertex -0.00435924 0.125 0.1
    endloop
  endfacet
  facet normal -0.831476 0.555561 0
    outer loop
       vertex -0.00435924 0.125 0.1
       vertex 0.0138088 0.152191 0.1
       vertex 0.0138088 0.152191 0
    endloop
  endfacet
  facet normal -0.896866 0.442302 0
    outer loop
       vertex -0.00435924 0.125 0
       vertex -0.0188232 0.095671 0
       vertex -0.0188232 0.095671 0.1
    endloop
  endfacet
  facet normal -0.896866 0.442302 0
    outer loop
       vertex -0.0188232 0.095671 0.1
       vertex -0.00435924 0.125 0.1
       vertex -0.00435924 0.125 0
    endloop
  endfacet
  facet normal -0.946935 0.321425 0
    outer loop
       vertex -0.0188232 0.095671 0
       vertex -0.0293342 0.064705 0
       vertex -0.0293342 0.064705 0.1
    endloop
  endfacet
  facet normal -0.946935 0.321425 0
    outer loop
       vertex -0.0293342 0.064705 0.1
       vertex -0.0188232 0.095671 0.1
       vertex -0.0188232 0.095671 0
    endloop
  endfacet
  facet normal -0.980784 0.195096 0
    outer loop
       vertex -0.0293342 0.064705 0
       vertex -0.0357142 0.0326315 0
       vertex -0.0357142 0.0326315 0.1
    endloop
  endfacet
  facet normal -0.980784 0.195096 0
    outer loop
       vertex -0.0357142 0.0326315 0.1
       vertex -0.0293342 0.064705 0.1
       vertex -0.0293342 0.064705 0
    endloop
  endfacet
  facet normal -0.997858 0.0654098 0
    outer loop
       vertex -0.0378532 8.32665e-17 0.1
       vertex -0.0357142 0.0326315 0.1
       vertex -0.0357142 0.0326315 0
    endloop
  endfacet
  facet normal -0.997858 0.0654098 -1.08928e-16
    outer loop
       vertex -0.0357142 0.0326315 0
       vertex -0.0378532 -8.32665e-17 0
       vertex -0.0378532 8.32665e-17 0.1
    endloop
  endfacet
  facet normal -0.997858 -0.0654098 0
    outer loop
       vertex -0.0378532 -8.32665e-17 0
       vertex -0.0357142 -0.0326315 0
       vertex -0.0357142 -0.0326315 0.1
    endloop
  endfacet
  facet normal -0.997858 -0.0654098 1.08928e-16
    outer loop
       vertex -0.0357142 -0.0326315 0.1
       vertex -0.0378532 8.32665e-17 0.1
       vertex -0.0378532 -8.32665e-17 0
    endloop
  endfacet
  facet normal -0.980784 -0.195096 0
    outer loop
       vertex -0.0357142 -0.0326315 0
       vertex -0.0293342 -0.064705 0
       vertex -0.0293342 -0.064705 0.1
    endloop
  endfacet
  facet normal -0.980784 -0.195096 0
    outer loop
       vertex -0.0293342 -0.064705 0.1
       vertex -0.0357142 -0.0326315 0.1
       vertex -0.0357142 -0.0326315 0
    endloop
  endfacet
  facet normal -0.946935 -0.321425 0
    outer loop
       vertex -0.0293342 -0.064705 0
       vertex -0.0188232 -0.095671 0
       vertex -0.0188232 -0.095671 0.1
    endloop
  endfacet
  facet normal -0.946935 -0.321425 0
    outer loop
       vertex -0.0188232 -0.095671 0.1
       vertex -0.0293342 -0.064705 0.1
       vertex -0.0293342 -0.064705 0
    endloop
  endfacet
  facet normal -0.896866 -0.442302 0
    outer loop
       vertex -0.0188232 -0.095671 0
       vertex -0.00435924 -0.125 0
       vertex -0.00435924 -0.125 0.1
    endloop
  endfacet
  facet normal -0.896866 -0.442302 0
    outer loop
       vertex -0.00435924 -0.125 0.1
       vertex -0.0188232 -0.095671 0.1
       vertex -0.0188232 -0.095671 0
    endloop
  endfacet
  facet normal -0.831476 -0.555561 0
    outer loop
       vertex -0.00435924 -0.125 0
       vertex 0.0138088 -0.152191 0
       vertex 0.0138088 -0.152191 0.1
    endloop
  endfacet
  facet normal -0.831476 -0.555561 0
    outer loop
       vertex 0.0138088 -0.152191 0.1
       vertex -0.00435924 -0.125 0.1
       vertex -0.00435924 -0.125 0
    endloop
  endfacet
  facet normal -0.751817 -0.659372 0
    outer loop
       vertex 0.0138088 -0.152191 0
       vertex 0.0353708 -0.176776 0
       vertex 0.0353708 -0.176776 0.1
    endloop
  endfacet
  facet normal -0.751817 -0.659372 0
    outer loop
       vertex 0.0353708 -0.176776 0.1
       vertex 0.0138088 -0.152191 0.1
       vertex 0.0138088 -0.152191 0
    endloop
  endfacet
  facet normal 0.659372 -0.751817 0
    outer loop
       vertex 0.388923 -0.176776 0
       vertex 0.388923 -0.176776 0.1
       vertex 0.364338 -0.198338 0.1
    endloop
  endfacet
  facet normal 0.659372 -0.751817 0
    outer loop
       vertex 0.364338 -0.198338 0.1
       vertex 0.364338 -0.198338 0
       vertex 0.388923 -0.176776 0
    endloop
  endfacet
  facet normal 0.555561 -0.831476 0
    outer loop
       vertex 0.364338 -0.198338 0
       vertex 0.364338 -0.198338 0.1
       vertex 0.337147 -0.216506 0.1
    endloop
  endfacet
  facet normal 0.555561 -0.831476 0
    outer loop
       vertex 0.337147 -0.216506 0.1
       vertex 0.337147 -0.216506 0
       vertex 0.364338 -0.198338 0
    endloop
  endfacet
  facet normal 0.442302 -0.896866 0
    outer loop
       vertex 0.337147 -0.216506 0
       vertex 0.337147 -0.216506 0.1
       vertex 0.307818 -0.23097 0.1
    endloop
  endfacet
  facet normal 0.442302 -0.896866 0
    outer loop
       vertex 0.307818 -0.23097 0.1
       vertex 0.307818 -0.23097 0
       vertex 0.337147 -0.216506 0
    endloop
  endfacet
  facet normal 0.321425 -0.946935 0
    outer loop
       vertex 0.307818 -0.23097 0
       vertex 0.307818 -0.23097 0.1
       vertex 0.276852 -0.241481 0.1
    endloop
  endfacet
  facet normal 0.321425 -0.946935 0
    outer loop
       vertex 0.276852 -0.241481 0.1
       vertex 0.276852 -0.241481 0
       vertex 0.307818 -0.23097 0
    endloop
  endfacet
  facet normal 0.195096 -0.980784 0
    outer loop
       vertex 0.276852 -0.241481 0
       vertex 0.276852 -0.241481 0.1
       vertex 0.244778 -0.247861 0.1
    endloop
  endfacet
  facet normal 0.195096 -0.980784 0
    outer loop
       vertex 0.244778 -0.247861 0.1
       vertex 0.244778 -0.247861 0
       vertex 0.276852 -0.241481 0
    endloop
  endfacet
  facet normal 0.0654098 -0.997858 0
    outer loop
       vertex 0.212147 -0.25 0
       vertex 0.244778 -0.247861 0
       vertex 0.244778 -0.247861 0.1
    endloop
  endfacet
  facet normal 0.0654098 -0.997858 1.0893e-16
    outer loop
       vertex 0.244778 -0.247861 0.1
       vertex 0.212147 -0.25 0.1
       vertex 0.212147 -0.25 0
    endloop
  endfacet
  facet normal -0.0654098 -0.997858 0
    outer loop
       vertex 0.212147 -0.25 0.1
       vertex 0.179515 -0.247861 0.1
       vertex 0.179515 -0.247861 0
    endloop
  endfacet
  facet normal -0.0654098 -0.997858 -1.0893e-16
    outer loop
       vertex 0.179515 -0.247861 0
       vertex 0.212147 -0.25 0
       vertex 0.212147 -0.25 0.1
    endloop
  endfacet
  facet normal -0.195096 -0.980784 0
    outer loop
       vertex 0.179515 -0.247861 0
       vertex 0.179515 -0.247861 0.1
       vertex 0.147442 -0.241481 0.1
    endloop
  endfacet
  facet normal -0.195096 -0.980784 -0
    outer loop
       vertex 0.147442 -0.241481 0.1
       vertex 0.147442 -0.241481 0
       vertex 0.179515 -0.247861 0
    endloop
  endfacet
  facet normal -0.321425 -0.946935 0
    outer loop
       vertex 0.147442 -0.241481 0
       vertex 0.147442 -0.241481 0.1
       vertex 0.116476 -0.23097 0.1
    endloop
  endfacet
  facet normal -0.321425 -0.946935 -0
    outer loop
       vertex 0.116476 -0.23097 0.1
       vertex 0.116476 -0.23097 0
       vertex 0.147442 -0.241481 0
    endloop
  endfacet
  facet normal -0.442302 -0.896866 0
    outer loop
       vertex 0.116476 -0.23097 0
       vertex 0.116476 -0.23097 0.1
       vertex 0.0871468 -0.216506 0.1
    endloop
  endfacet
  facet normal -0.442302 -0.896866 -0
    outer loop
       vertex 0.0871468 -0.216506 0.1
       vertex 0.0871468 -0.216506 0
       vertex 0.116476 -0.23097 0
    endloop
  endfacet
  facet normal -0.555561 -0.831476 0
    outer loop
       vertex 0.0871468 -0.216506 0
       vertex 0.0871468 -0.216506 0.1
       vertex 0.0599558 -0.198338 0.1
    endloop
  endfacet
  facet normal -0.555561 -0.831476 -0
    outer loop
       vertex 0.0599558 -0.198338 0.1
       vertex 0.0599558 -0.198338 0
       vertex 0.0871468 -0.216506 0
    endloop
  endfacet
  facet normal -0.659372 -0.751817 0
    outer loop
       vertex 0.0599558 -0.198338 0
       vertex 0.0599558 -0.198338 0.1
       vertex 0.0353708 -0.176776 0.1
    endloop
  endfacet
  facet normal -0.659372 -0.751817 -0
    outer loop
       vertex 0.0353708 -0.176776 0.1
       vertex 0.0353708 -0.176776 0
       vertex 0.0599558 -0.198338 0
    endloop
  endfacet
endsolid cylinder
