solid cylinder
  facet normal 0.751817 -0.659372 0
    outer loop
       vertex 0.0732538 -0.176776 0
       vertex 0.0948158 -0.152191 0
       vertex 0.0948158 -0.152191 0.1
    endloop
  endfacet
  facet normal 0.751817 -0.659372 0
    outer loop
       vertex 0.0948158 -0.152191 0.1
       vertex 0.0732538 -0.176776 0.1
       vertex 0.0732538 -0.176776 0
    endloop
  endfacet
  facet normal 0.831476 -0.555561 0
    outer loop
       vertex 0.0948158 -0.152191 0
       vertex 0.112984 -0.125 0
       vertex 0.112984 -0.125 0.1
    endloop
  endfacet
  facet normal 0.831476 -0.555561 0
    outer loop
       vertex 0.112984 -0.125 0.1
       vertex 0.0948158 -0.152191 0.1
       vertex 0.0948158 -0.152191 0
    endloop
  endfacet
  facet normal 0.896866 -0.442302 0
    outer loop
       vertex 0.112984 -0.125 0
       vertex 0.127448 -0.095671 0
       vertex 0.127448 -0.095671 0.1
    endloop
  endfacet
  facet normal 0.896866 -0.442302 0
    outer loop
       vertex 0.127448 -0.095671 0.1
       vertex 0.112984 -0.125 0.1
       vertex 0.112984 -0.125 0
    endloop
  endfacet
  facet normal 0.946935 -0.321425 0
    outer loop
       vertex 0.127448 -0.095671 0
       vertex 0.137959 -0.064705 0
       vertex 0.137959 -0.064705 0.1
    endloop
  endfacet
  facet normal 0.946935 -0.321425 0
    outer loop
       vertex 0.137959 -0.064705 0.1
       vertex 0.127448 -0.095671 0.1
       vertex 0.127448 -0.095671 0
    endloop
  endfacet
  facet normal 0.980784 -0.195096 0
    outer loop
       vertex 0.137959 -0.064705 0
       vertex 0.144339 -0.0326315 0
       vertex 0.144339 -0.0326315 0.1
    endloop
  endfacet
  facet normal 0.980784 -0.195096 0
    outer loop
       vertex 0.144339 -0.0326315 0.1
       vertex 0.137959 -0.064705 0.1
       vertex 0.137959 -0.064705 0
    endloop
  endfacet
  facet normal 0.997858 -0.0654098 0
    outer loop
       vertex 0.146478 -8.32665e-17 0.1
       vertex 0.144339 -0.0326315 0.1
       vertex 0.144339 -0.0326315 0
    endloop
  endfacet
  facet normal 0.997858 -0.0654098 -1.08928e-16
    outer loop
       vertex 0.144339 -0.0326315 0
       vertex 0.146478 8.32665e-17 0
       vertex 0.146478 -8.32665e-17 0.1
    endloop
  endfacet
  facet normal 0.997858 0.0654098 0
    outer loop
       vertex 0.146478 8.32665e-17 0
       vertex 0.144339 0.0326315 0
       vertex 0.144339 0.0326315 0.1
    endloop
  endfacet
  facet normal 0.997858 0.0654098 1.08928e-16
    outer loop
       vertex 0.144339 0.0326315 0.1
       vertex 0.146478 -8.32665e-17 0.1
       vertex 0.146478 8.32665e-17 0
    endloop
  endfacet
  facet normal 0.980784 0.195096 0
    outer loop
       vertex 0.144339 0.0326315 0
       vertex 0.137959 0.064705 0
       vertex 0.137959 0.064705 0.1
    endloop
  endfacet
  facet normal 0.980784 0.195096 0
    outer loop
       vertex 0.137959 0.064705 0.1
       vertex 0.144339 0.0326315 0.1
       vertex 0.144339 0.0326315 0
    endloop
  endfacet
  facet normal 0.946935 0.321425 0
    outer loop
       vertex 0.137959 0.064705 0
       vertex 0.127448 0.095671 0
       vertex 0.127448 0.095671 0.1
    endloop
  endfacet
  facet normal 0.946935 0.321425 0
    outer loop
       vertex 0.127448 0.095671 0.1
       vertex 0.137959 0.064705 0.1
       vertex 0.137959 0.064705 0
    endloop
  endfacet
  facet normal 0.896866 0.442302 0
    outer loop
       vertex 0.127448 0.095671 0
       vertex 0.112984 0.125 0
       vertex 0.112984 0.125 0.1
    endloop
  endfacet
  facet normal 0.896866 0.442302 0
    outer loop
       vertex 0.112984 0.125 0.1
       vertex 0.127448 0.095671 0.1
       vertex 0.127448 0.095671 0
    endloop
  endfacet
  facet normal 0.831476 0.555561 0
    outer loop
       vertex 0.112984 0.125 0
       vertex 0.0948158 0.152191 0
       vertex 0.0948158 0.152191 0.1
    endloop
  endfacet
  facet normal 0.831476 0.555561 0
    outer loop
       vertex 0.0948158 0.152191 0.1
       vertex 0.112984 0.125 0.1
       vertex 0.112984 0.125 0
    endloop
  endfacet
  facet normal 0.751817 0.659372 0
    outer loop
       vertex 0.0948158 0.152191 0
       vertex 0.0732538 0.176776 0
       vertex 0.0732538 0.176776 0.1
    endloop
  endfacet
  facet normal 0.751817 0.659372 0
    outer loop
       vertex 0.0732538 0.176776 0.1
       vertex 0.0948158 0.152191 0.1
       vertex 0.0948158 0.152191 0
    endloop
  endfacet
  facet normal 0.659372 0.751817 0
    outer loop
       vertex 0.0732538 0.176776 0
       vertex 0.0486688 0.198338 0
       vertex 0.0486688 0.198338 0.1
    endloop
  endfacet
  facet normal 0.659372 0.751817 0
    outer loop
       vertex 0.0486688 0.198338 0.1
       vertex 0.0732538 0.176776 0.1
       vertex 0.0732538 0.176776 0
    endloop
  endfacet
  facet normal 0.555561 0.831476 0
    outer loop
       vertex 0.0486688 0.198338 0
       vertex 0.0214778 0.216506 0
       vertex 0.0214778 0.216506 0.1
    endloop
  endfacet
  facet normal 0.555561 0.831476 0
    outer loop
       vertex 0.0214778 0.216506 0.1
       vertex 0.0486688 0.198338 0.1
       vertex 0.0486688 0.198338 0
    endloop
  endfacet
  facet normal 0.442302 0.896866 0
    outer loop
       vertex 0.0214778 0.216506 0
       vertex -0.00785125 0.23097 0
       vertex -0.00785125 0.23097 0.1
    endloop
  endfacet
  facet normal 0.442302 0.896866 0
    outer loop
       vertex -0.00785125 0.23097 0.1
       vertex 0.0214778 0.216506 0.1
       vertex 0.0214778 0.216506 0
    endloop
  endfacet
  facet normal 0.321425 0.946935 0
    outer loop
       vertex -0.00785125 0.23097 0
       vertex -0.0388172 0.241481 0
       vertex -0.0388172 0.241481 0.1
    endloop
  endfacet
  facet normal 0.321425 0.946935 0
    outer loop
       vertex -0.0388172 0.241481 0.1
       vertex -0.00785125 0.23097 0.1
       vertex -0.00785125 0.23097 0
    endloop
  endfacet
  facet normal 0.195096 0.980784 0
    outer loop
       vertex -0.0388172 0.241481 0
       vertex -0.0708907 0.247861 0
       vertex -0.0708907 0.247861 0.1
    endloop
  endfacet
  facet normal 0.195096 0.980784 0
    outer loop
       vertex -0.0708907 0.247861 0.1
       vertex -0.0388172 0.241481 0.1
       vertex -0.0388172 0.241481 0
    endloop
  endfacet
  facet normal 0.0654098 0.997858 0
    outer loop
       vertex -0.103522 0.25 0.1
       vertex -0.0708907 0.247861 0.1
       vertex -0.0708907 0.247861 0
    endloop
  endfacet
  facet normal 0.0654098 0.997858 -1.0893e-16
    outer loop
       vertex -0.0708907 0.247861 0
       vertex -0.103522 0.25 0
       vertex -0.103522 0.25 0.1
    endloop
  endfacet
  facet normal -0.0654098 0.997858 0
    outer loop
       vertex -0.103522 0.25 0
       vertex -0.136154 0.247861 0
       vertex -0.136154 0.247861 0.1
    endloop
  endfacet
  facet normal -0.0654098 0.997858 1.0893e-16
    outer loop
       vertex -0.136154 0.247861 0.1
       vertex -0.103522 0.25 0.1
       vertex -0.103522 0.25 0
    endloop
  endfacet
  facet normal -0.195096 0.980784 0
    outer loop
       vertex -0.136154 0.247861 0
       vertex -0.168227 0.241481 0
       vertex -0.168227 0.241481 0.1
    endloop
  endfacet
  facet normal -0.195096 0.980784 0
    outer loop
       vertex -0.168227 0.241481 0.1
       vertex -0.136154 0.247861 0.1
       vertex -0.136154 0.247861 0
    endloop
  endfacet
  facet normal -0.321425 0.946935 0
    outer loop
       vertex -0.168227 0.241481 0
       vertex -0.199193 0.23097 0
       vertex -0.199193 0.23097 0.1
    endloop
  endfacet
  facet normal -0.321425 0.946935 0
    outer loop
       vertex -0.199193 0.23097 0.1
       vertex -0.168227 0.241481 0.1
       vertex -0.168227 0.241481 0
    endloop
  endfacet
  facet normal -0.442302 0.896866 0
    outer loop
       vertex -0.199193 0.23097 0
       vertex -0.228522 0.216506 0
       vertex -0.228522 0.216506 0.1
    endloop
  endfacet
  facet normal -0.442302 0.896866 0
    outer loop
       vertex -0.228522 0.216506 0.1
       vertex -0.199193 0.23097 0.1
       vertex -0.199193 0.23097 0
    endloop
  endfacet
  facet normal -0.555561 0.831476 0
    outer loop
       vertex -0.228522 0.216506 0
       vertex -0.255713 0.198338 0
       vertex -0.255713 0.198338 0.1
    endloop
  endfacet
  facet normal -0.555561 0.831476 0
    outer loop
       vertex -0.255713 0.198338 0.1
       vertex -0.228522 0.216506 0.1
       vertex -0.228522 0.216506 0
    endloop
  endfacet
  facet normal -0.659372 0.751817 0
    outer loop
       vertex -0.255713 0.198338 0
       vertex -0.280298 0.176776 0
       vertex -0.280298 0.176776 0.1
    endloop
  endfacet
  facet normal -0.659372 0.751817 0
    outer loop
       vertex -0.280298 0.176776 0.1
       vertex -0.255713 0.198338 0.1
       vertex -0.255713 0.198338 0
    endloop
  endfacet
  facet normal -0.751817 0.659372 0
    outer loop
       vertex -0.280298 0.176776 0
       vertex -0.30186 0.152191 0
       vertex -0.30186 0.152191 0.1
    endloop
  endfacet
  facet normal -0.751817 0.659372 0
    outer loop
       vertex -0.30186 0.152191 0.1
       vertex -0.280298 0.176776 0.1
       vertex -0.280298 0.176776 0
    endloop
  endfacet
  facet normal -0.831476 0.555561 0
    outer loop
       vertex -0.30186 0.152191 0
       vertex -0.320028 0.125 0
       vertex -0.320028 0.125 0.1
    endloop
  endfacet
  facet normal -0.831476 0.555561 0
    outer loop
       vertex -0.320028 0.125 0.1
       vertex -0.30186 0.152191 0.1
       vertex -0.30186 0.152191 0
    endloop
  endfacet
  facet normal -0.896866 0.442302 0
    outer loop
       vertex -0.320028 0.125 0
       vertex -0.334492 0.095671 0
       vertex -0.334492 0.095671 0.1
    endloop
  endfacet
  facet normal -0.896866 0.442302 0
    outer loop
       vertex -0.334492 0.095671 0.1
       vertex -0.320028 0.125 0.1
       vertex -0.320028 0.125 0
    endloop
  endfacet
  facet normal -0.946935 0.321425 0
    outer loop
       vertex -0.334492 0.095671 0
       vertex -0.345003 0.064705 0
       vertex -0.345003 0.064705 0.1
    endloop
  endfacet
  facet normal -0.946935 0.321425 0
    outer loop
       vertex -0.345003 0.064705 0.1
       vertex -0.334492 0.095671 0.1
       vertex -0.334492 0.095671 0
    endloop
  endfacet
  facet normal -0.980784 0.195096 0
    outer loop
       vertex -0.345003 0.064705 0
       vertex -0.351383 0.0326315 0
       vertex -0.351383 0.0326315 0.1
    endloop
  endfacet
  facet normal -0.980784 0.195096 0
    outer loop
       vertex -0.351383 0.0326315 0.1
       vertex -0.345003 0.064705 0.1
       vertex -0.345003 0.064705 0
    endloop
  endfacet
  facet normal -0.997858 0.0654098 0
    outer loop
       vertex -0.353522 8.32665e-17 0.1
       vertex -0.351383 0.0326315 0.1
       vertex -0.351383 0.0326315 0
    endloop
  endfacet
  facet normal -0.997858 0.0654098 -1.08928e-16
    outer loop
       vertex -0.351383 0.0326315 0
       vertex -0.353522 -8.32665e-17 0
       vertex -0.353522 8.32665e-17 0.1
    endloop
  endfacet
  facet normal -0.997858 -0.0654098 0
    outer loop
       vertex -0.353522 -8.32665e-17 0
       vertex -0.351383 -0.0326315 0
       vertex -0.351383 -0.0326315 0.1
    endloop
  endfacet
  facet normal -0.997858 -0.0654098 1.08928e-16
    outer loop
       vertex -0.351383 -0.0326315 0.1
       vertex -0.353522 8.32665e-17 0.1
       vertex -0.353522 -8.32665e-17 0
    endloop
  endfacet
  facet normal -0.980784 -0.195096 0
    outer loop
       vertex -0.351383 -0.0326315 0
       vertex -0.345003 -0.064705 0
       vertex -0.345003 -0.064705 0.1
    endloop
  endfacet
  facet normal -0.980784 -0.195096 0
    outer loop
       vertex -0.345003 -0.064705 0.1
       vertex -0.351383 -0.0326315 0.1
       vertex -0.351383 -0.0326315 0
    endloop
  endfacet
  facet normal -0.946935 -0.321425 0
    outer loop
       vertex -0.345003 -0.064705 0
       vertex -0.334492 -0.095671 0
       vertex -0.334492 -0.095671 0.1
    endloop
  endfacet
  facet normal -0.946935 -0.321425 0
    outer loop
       vertex -0.334492 -0.095671 0.1
       vertex -0.345003 -0.064705 0.1
       vertex -0.345003 -0.064705 0
    endloop
  endfacet
  facet normal -0.896866 -0.442302 0
    outer loop
       vertex -0.334492 -0.095671 0
       vertex -0.320028 -0.125 0
       vertex -0.320028 -0.125 0.1
    endloop
  endfacet
  facet normal -0.896866 -0.442302 0
    outer loop
       vertex -0.320028 -0.125 0.1
       vertex -0.334492 -0.095671 0.1
       vertex -0.334492 -0.095671 0
    endloop
  endfacet
  facet normal -0.831476 -0.555561 0
    outer loop
       vertex -0.320028 -0.125 0
       vertex -0.30186 -0.152191 0
       vertex -0.30186 -0.152191 0.1
    endloop
  endfacet
  facet normal -0.831476 -0.555561 0
    outer loop
       vertex -0.30186 -0.152191 0.1
       vertex -0.320028 -0.125 0.1
       vertex -0.320028 -0.125 0
    endloop
  endfacet
  facet normal -0.751817 -0.659372 0
    outer loop
       vertex -0.30186 -0.152191 0
       vertex -0.280298 -0.176776 0
       vertex -0.280298 -0.176776 0.1
    endloop
  endfacet
  facet normal -0.751817 -0.659372 0
    outer loop
       vertex -0.280298 -0.176776 0.1
       vertex -0.30186 -0.152191 0.1
       vertex -0.30186 -0.152191 0
    endloop
  endfacet
  facet normal 0.659372 -0.751817 0
    outer loop
       vertex 0.0732538 -0.176776 0
       vertex 0.0732538 -0.176776 0.1
       vertex 0.0486688 -0.198338 0.1
    endloop
  endfacet
  facet normal 0.659372 -0.751817 0
    outer loop
       vertex 0.0486688 -0.198338 0.1
       vertex 0.0486688 -0.198338 0
       vertex 0.0732538 -0.176776 0
    endloop
  endfacet
  facet normal 0.555561 -0.831476 0
    outer loop
       vertex 0.0486688 -0.198338 0
       vertex 0.0486688 -0.198338 0.1
       vertex 0.0214778 -0.216506 0.1
    endloop
  endfacet
  facet normal 0.555561 -0.831476 0
    outer loop
       vertex 0.0214778 -0.216506 0.1
       vertex 0.0214778 -0.216506 0
       vertex 0.0486688 -0.198338 0
    endloop
  endfacet
  facet normal 0.442302 -0.896866 0
    outer loop
       vertex 0.0214778 -0.216506 0
       vertex 0.0214778 -0.216506 0.1
       vertex -0.00785125 -0.23097 0.1
    endloop
  endfacet
  facet normal 0.442302 -0.896866 0
    outer loop
       vertex -0.00785125 -0.23097 0.1
       vertex -0.00785125 -0.23097 0
       vertex 0.0214778 -0.216506 0
    endloop
  endfacet
  facet normal 0.321425 -0.946935 0
    outer loop
       vertex -0.00785125 -0.23097 0
       vertex -0.00785125 -0.23097 0.1
       vertex -0.0388172 -0.241481 0.1
    endloop
  endfacet
  facet normal 0.321425 -0.946935 0
    outer loop
       vertex -0.0388172 -0.241481 0.1
       vertex -0.0388172 -0.241481 0
       vertex -0.00785125 -0.23097 0
    endloop
  endfacet
  facet normal 0.195096 -0.980784 0
    outer loop
       vertex -0.0388172 -0.241481 0
       vertex -0.0388172 -0.241481 0.1
       vertex -0.0708907 -0.247861 0.1
    endloop
  endfacet
  facet normal 0.195096 -0.980784 0
    outer loop
       vertex -0.0708907 -0.247861 0.1
       vertex -0.0708907 -0.247861 0
       vertex -0.0388172 -0.241481 0
    endloop
  endfacet
  facet normal 0.0654098 -0.997858 0
    outer loop
       vertex -0.103522 -0.25 0
       vertex -0.0708907 -0.247861 0
       vertex -0.0708907 -0.247861 0.1
    endloop
  endfacet
  facet normal 0.0654098 -0.997858 1.0893e-16
    outer loop
       vertex -0.0708907 -0.247861 0.1
       vertex -0.103522 -0.25 0.1
       vertex -0.103522 -0.25 0
    endloop
  endfacet
  facet normal -0.0654098 -0.997858 0
    outer loop
       vertex -0.103522 -0.25 0.1
       vertex -0.136154 -0.247861 0.1
       vertex -0.136154 -0.247861 0
    endloop
  endfacet
  facet normal -0.0654098 -0.997858 -1.0893e-16
    outer loop
       vertex -0.136154 -0.247861 0
       vertex -0.103522 -0.25 0
       vertex -0.103522 -0.25 0.1
    endloop
  endfacet
  facet normal -0.195096 -0.980784 0
    outer loop
       vertex -0.136154 -0.247861 0
       vertex -0.136154 -0.247861 0.1
       vertex -0.168227 -0.241481 0.1
    endloop
  endfacet
  facet normal -0.195096 -0.980784 -0
    outer loop
       vertex -0.168227 -0.241481 0.1
       vertex -0.168227 -0.241481 0
       vertex -0.136154 -0.247861 0
    endloop
  endfacet
  facet normal -0.321425 -0.946935 0
    outer loop
       vertex -0.168227 -0.241481 0
       vertex -0.168227 -0.241481 0.1
       vertex -0.199193 -0.23097 0.1
    endloop
  endfacet
  facet normal -0.321425 -0.946935 -0
    outer loop
       vertex -0.199193 -0.23097 0.1
       vertex -0.199193 -0.23097 0
       vertex -0.168227 -0.241481 0
    endloop
  endfacet
  facet normal -0.442302 -0.896866 0
    outer loop
       vertex -0.199193 -0.23097 0
       vertex -0.199193 -0.23097 0.1
       vertex -0.228522 -0.216506 0.1
    endloop
  endfacet
  facet normal -0.442302 -0.896866 -0
    outer loop
       vertex -0.228522 -0.216506 0.1
       vertex -0.228522 -0.216506 0
       vertex -0.199193 -0.23097 0
    endloop
  endfacet
  facet normal -0.555561 -0.831476 0
    outer loop
       vertex -0.228522 -0.216506 0
       vertex -0.228522 -0.216506 0.1
       vertex -0.255713 -0.198338 0.1
    endloop
  endfacet
  facet normal -0.555561 -0.831476 -0
    outer loop
       vertex -0.255713 -0.198338 0.1
       vertex -0.255713 -0.198338 0
       vertex -0.228522 -0.216506 0
    endloop
  endfacet
  facet normal -0.659372 -0.751817 0
    outer loop
       vertex -0.255713 -0.198338 0
       vertex -0.255713 -0.198338 0.1
       vertex -0.280298 -0.176776 0.1
    endloop
  endfacet
  facet normal -0.659372 -0.751817 -0
    outer loop
       vertex -0.280298 -0.176776 0.1
       vertex -0.280298 -0.176776 0
       vertex -0.255713 -0.198338 0
    endloop
  endfacet
endsolid cylinder
