solid cylinder
  facet normal 0.751817 -0.659372 0
    outer loop
       vertex 0.140126 -0.176776 0
       vertex 0.161688 -0.152191 0
       vertex 0.161688 -0.152191 0.1
    endloop
  endfacet
  facet normal 0.751817 -0.659372 0
    outer loop
       vertex 0.161688 -0.152191 0.1
       vertex 0.140126 -0.176776 0.1
       vertex 0.140126 -0.176776 0
    endloop
  endfacet
  facet normal 0.831476 -0.555561 0
    outer loop
       vertex 0.161688 -0.152191 0
       vertex 0.179856 -0.125 0
       vertex 0.179856 -0.125 0.1
    endloop
  endfacet
  facet normal 0.831476 -0.555561 0
    outer loop
       vertex 0.179856 -0.125 0.1
       vertex 0.161688 -0.152191 0.1
       vertex 0.161688 -0.152191 0
    endloop
  endfacet
  facet normal 0.896866 -0.442302 0
    outer loop
       vertex 0.179856 -0.125 0
       vertex 0.19432 -0.095671 0
       vertex 0.19432 -0.095671 0.1
    endloop
  endfacet
  facet normal 0.896866 -0.442302 0
    outer loop
       vertex 0.19432 -0.095671 0.1
       vertex 0.179856 -0.125 0.1
       vertex 0.179856 -0.125 0
    endloop
  endfacet
  facet normal 0.946935 -0.321425 0
    outer loop
       vertex 0.19432 -0.095671 0
       vertex 0.204831 -0.064705 0
       vertex 0.204831 -0.064705 0.1
    endloop
  endfacet
  facet normal 0.946935 -0.321425 0
    outer loop
       vertex 0.204831 -0.064705 0.1
       vertex 0.19432 -0.095671 0.1
       vertex 0.19432 -0.095671 0
    endloop
  endfacet
  facet normal 0.980784 -0.195096 0
    outer loop
       vertex 0.204831 -0.064705 0
       vertex 0.211211 -0.0326315 0
       vertex 0.211211 -0.0326315 0.1
    endloop
  endfacet
  facet normal 0.980784 -0.195096 0
    outer loop
       vertex 0.211211 -0.0326315 0.1
       vertex 0.204831 -0.064705 0.1
       vertex 0.204831 -0.064705 0
    endloop
  endfacet
  facet normal 0.997858 -0.0654098 0
    outer loop
       vertex 0.21335 -8.32665e-17 0.1
       vertex 0.211211 -0.0326315 0.1
       vertex 0.211211 -0.0326315 0
    endloop
  endfacet
  facet normal 0.997858 -0.0654098 -1.08928e-16
    outer loop
       vertex 0.211211 -0.0326315 0
       vertex 0.21335 8.32665e-17 0
       vertex 0.21335 -8.32665e-17 0.1
    endloop
  endfacet
  facet normal 0.997858 0.0654098 0
    outer loop
       vertex 0.21335 8.32665e-17 0
       vertex 0.211211 0.0326315 0
       vertex 0.211211 0.0326315 0.1
    endloop
  endfacet
  facet normal 0.997858 0.0654098 1.08928e-16
    outer loop
       vertex 0.211211 0.0326315 0.1
       vertex 0.21335 -8.32665e-17 0.1
       vertex 0.21335 8.32665e-17 0
    endloop
  endfacet
  facet normal 0.980784 0.195096 0
    outer loop
       vertex 0.211211 0.0326315 0
       vertex 0.204831 0.064705 0
       vertex 0.204831 0.064705 0.1
    endloop
  endfacet
  facet normal 0.980784 0.195096 0
    outer loop
       vertex 0.204831 0.064705 0.1
       vertex 0.211211 0.0326315 0.1
       vertex 0.211211 0.0326315 0
    endloop
  endfacet
  facet normal 0.946935 0.321425 0
    outer loop
       vertex 0.204831 0.064705 0
       vertex 0.19432 0.095671 0
       vertex 0.19432 0.095671 0.1
    endloop
  endfacet
  facet normal 0.946935 0.321425 0
    outer loop
       vertex 0.19432 0.095671 0.1
       vertex 0.204831 0.064705 0.1
       vertex 0.204831 0.064705 0
    endloop
  endfacet
  facet normal 0.896866 0.442302 0
    outer loop
       vertex 0.19432 0.095671 0
       vertex 0.179856 0.125 0
       vertex 0.179856 0.125 0.1
    endloop
  endfacet
  facet normal 0.896866 0.442302 0
    outer loop
       vertex 0.179856 0.125 0.1
       vertex 0.19432 0.095671 0.1
       vertex 0.19432 0.095671 0
    endloop
  endfacet
  facet normal 0.831476 0.555561 0
    outer loop
       vertex 0.179856 0.125 0
       vertex 0.161688 0.152191 0
       vertex 0.161688 0.152191 0.1
    endloop
  endfacet
  facet normal 0.831476 0.555561 0
    outer loop
       vertex 0.161688 0.152191 0.1
       vertex 0.179856 0.125 0.1
       vertex 0.179856 0.125 0
    endloop
  endfacet
  facet normal 0.751817 0.659372 0
    outer loop
       vertex 0.161688 0.152191 0
       vertex 0.140126 0.176776 0
       vertex 0.140126 0.176776 0.1
    endloop
  endfacet
  facet normal 0.751817 0.659372 0
    outer loop
       vertex 0.140126 0.176776 0.1
       vertex 0.161688 0.152191 0.1
       vertex 0.161688 0.152191 0
    endloop
  endfacet
  facet normal 0.659372 0.751817 0
    outer loop
       vertex 0.140126 0.176776 0
       vertex 0.115541 0.198338 0
       vertex 0.115541 0.198338 0.1
    endloop
  endfacet
  facet normal 0.659372 0.751817 0
    outer loop
       vertex 0.115541 0.198338 0.1
       vertex 0.140126 0.176776 0.1
       vertex 0.140126 0.176776 0
    endloop
  endfacet
  facet normal 0.555561 0.831476 0
    outer loop
       vertex 0.115541 0.198338 0
       vertex 0.0883502 0.216506 0
       vertex 0.0883502 0.216506 0.1
    endloop
  endfacet
  facet normal 0.555561 0.831476 0
    outer loop
       vertex 0.0883502 0.216506 0.1
       vertex 0.115541 0.198338 0.1
       vertex 0.115541 0.198338 0
    endloop
  endfacet
  facet normal 0.442302 0.896866 0
    outer loop
       vertex 0.0883502 0.216506 0
       vertex 0.0590212 0.23097 0
       vertex 0.0590212 0.23097 0.1
    endloop
  endfacet
  facet normal 0.442302 0.896866 0
    outer loop
       vertex 0.0590212 0.23097 0.1
       vertex 0.0883502 0.216506 0.1
       vertex 0.0883502 0.216506 0
    endloop
  endfacet
  facet normal 0.321425 0.946935 0
    outer loop
       vertex 0.0590212 0.23097 0
       vertex 0.0280552 0.241481 0
       vertex 0.0280552 0.241481 0.1
    endloop
  endfacet
  facet normal 0.321425 0.946935 0
    outer loop
       vertex 0.0280552 0.241481 0.1
       vertex 0.0590212 0.23097 0.1
       vertex 0.0590212 0.23097 0
    endloop
  endfacet
  facet normal 0.195096 0.980784 0
    outer loop
       vertex 0.0280552 0.241481 0
       vertex -0.00401834 0.247861 0
       vertex -0.00401834 0.247861 0.1
    endloop
  endfacet
  facet normal 0.195096 0.980784 0
    outer loop
       vertex -0.00401834 0.247861 0.1
       vertex 0.0280552 0.241481 0.1
       vertex 0.0280552 0.241481 0
    endloop
  endfacet
  facet normal 0.0654098 0.997858 0
    outer loop
       vertex -0.0366498 0.25 0.1
       vertex -0.00401834 0.247861 0.1
       vertex -0.00401834 0.247861 0
    endloop
  endfacet
  facet normal 0.0654098 0.997858 -1.08928e-16
    outer loop
       vertex -0.00401834 0.247861 0
       vertex -0.0366498 0.25 0
       vertex -0.0366498 0.25 0.1
    endloop
  endfacet
  facet normal -0.0654098 0.997858 0
    outer loop
       vertex -0.0366498 0.25 0
       vertex -0.0692813 0.247861 0
       vertex -0.0692813 0.247861 0.1
    endloop
  endfacet
  facet normal -0.0654098 0.997858 1.08928e-16
    outer loop
       vertex -0.0692813 0.247861 0.1
       vertex -0.0366498 0.25 0.1
       vertex -0.0366498 0.25 0
    endloop
  endfacet
  facet normal -0.195096 0.980784 0
    outer loop
       vertex -0.0692813 0.247861 0
       vertex -0.101355 0.241481 0
       vertex -0.101355 0.241481 0.1
    endloop
  endfacet
  facet normal -0.195096 0.980784 0
    outer loop
       vertex -0.101355 0.241481 0.1
       vertex -0.0692813 0.247861 0.1
       vertex -0.0692813 0.247861 0
    endloop
  endfacet
  facet normal -0.321425 0.946935 0
    outer loop
       vertex -0.101355 0.241481 0
       vertex -0.132321 0.23097 0
       vertex -0.132321 0.23097 0.1
    endloop
  endfacet
  facet normal -0.321425 0.946935 0
    outer loop
       vertex -0.132321 0.23097 0.1
       vertex -0.101355 0.241481 0.1
       vertex -0.101355 0.241481 0
    endloop
  endfacet
  facet normal -0.442302 0.896866 0
    outer loop
       vertex -0.132321 0.23097 0
       vertex -0.16165 0.216506 0
       vertex -0.16165 0.216506 0.1
    endloop
  endfacet
  facet normal -0.442302 0.896866 0
    outer loop
       vertex -0.16165 0.216506 0.1
       vertex -0.132321 0.23097 0.1
       vertex -0.132321 0.23097 0
    endloop
  endfacet
  facet normal -0.555561 0.831476 0
    outer loop
       vertex -0.16165 0.216506 0
       vertex -0.188841 0.198338 0
       vertex -0.188841 0.198338 0.1
    endloop
  endfacet
  facet normal -0.555561 0.831476 0
    outer loop
       vertex -0.188841 0.198338 0.1
       vertex -0.16165 0.216506 0.1
       vertex -0.16165 0.216506 0
    endloop
  endfacet
  facet normal -0.659372 0.751817 0
    outer loop
       vertex -0.188841 0.198338 0
       vertex -0.213426 0.176776 0
       vertex -0.213426 0.176776 0.1
    endloop
  endfacet
  facet normal -0.659372 0.751817 0
    outer loop
       vertex -0.213426 0.176776 0.1
       vertex -0.188841 0.198338 0.1
       vertex -0.188841 0.198338 0
    endloop
  endfacet
  facet normal -0.751817 0.659372 0
    outer loop
       vertex -0.213426 0.176776 0
       vertex -0.234988 0.152191 0
       vertex -0.234988 0.152191 0.1
    endloop
  endfacet
  facet normal -0.751817 0.659372 0
    outer loop
       vertex -0.234988 0.152191 0.1
       vertex -0.213426 0.176776 0.1
       vertex -0.213426 0.176776 0
    endloop
  endfacet
  facet normal -0.831476 0.555561 0
    outer loop
       vertex -0.234988 0.152191 0
       vertex -0.253156 0.125 0
       vertex -0.253156 0.125 0.1
    endloop
  endfacet
  facet normal -0.831476 0.555561 0
    outer loop
       vertex -0.253156 0.125 0.1
       vertex -0.234988 0.152191 0.1
       vertex -0.234988 0.152191 0
    endloop
  endfacet
  facet normal -0.896866 0.442302 0
    outer loop
       vertex -0.253156 0.125 0
       vertex -0.26762 0.095671 0
       vertex -0.26762 0.095671 0.1
    endloop
  endfacet
  facet normal -0.896866 0.442302 0
    outer loop
       vertex -0.26762 0.095671 0.1
       vertex -0.253156 0.125 0.1
       vertex -0.253156 0.125 0
    endloop
  endfacet
  facet normal -0.946935 0.321425 0
    outer loop
       vertex -0.26762 0.095671 0
       vertex -0.278131 0.064705 0
       vertex -0.278131 0.064705 0.1
    endloop
  endfacet
  facet normal -0.946935 0.321425 0
    outer loop
       vertex -0.278131 0.064705 0.1
       vertex -0.26762 0.095671 0.1
       vertex -0.26762 0.095671 0
    endloop
  endfacet
  facet normal -0.980784 0.195096 0
    outer loop
       vertex -0.278131 0.064705 0
       vertex -0.284511 0.0326315 0
       vertex -0.284511 0.0326315 0.1
    endloop
  endfacet
  facet normal -0.980784 0.195096 0
    outer loop
       vertex -0.284511 0.0326315 0.1
       vertex -0.278131 0.064705 0.1
       vertex -0.278131 0.064705 0
    endloop
  endfacet
  facet normal -0.997858 0.0654098 0
    outer loop
       vertex -0.28665 8.32665e-17 0.1
       vertex -0.284511 0.0326315 0.1
       vertex -0.284511 0.0326315 0
    endloop
  endfacet
  facet normal -0.997858 0.0654098 -1.08928e-16
    outer loop
       vertex -0.284511 0.0326315 0
       vertex -0.28665 -8.32665e-17 0
       vertex -0.28665 8.32665e-17 0.1
    endloop
  endfacet
  facet normal -0.997858 -0.0654098 0
    outer loop
       vertex -0.28665 -8.32665e-17 0
       vertex -0.284511 -0.0326315 0
       vertex -0.284511 -0.0326315 0.1
    endloop
  endfacet
  facet normal -0.997858 -0.0654098 1.08928e-16
    outer loop
       vertex -0.284511 -0.0326315 0.1
       vertex -0.28665 8.32665e-17 0.1
       vertex -0.28665 -8.32665e-17 0
    endloop
  endfacet
  facet normal -0.980784 -0.195096 0
    outer loop
       vertex -0.284511 -0.0326315 0
       vertex -0.278131 -0.064705 0
       vertex -0.278131 -0.064705 0.1
    endloop
  endfacet
  facet normal -0.980784 -0.195096 0
    outer loop
       vertex -0.278131 -0.064705 0.1
       vertex -0.284511 -0.0326315 0.1
       vertex -0.284511 -0.0326315 0
    endloop
  endfacet
  facet normal -0.946935 -0.321425 0
    outer loop
       vertex -0.278131 -0.064705 0
       vertex -0.26762 -0.095671 0
       vertex -0.26762 -0.095671 0.1
    endloop
  endfacet
  facet normal -0.946935 -0.321425 0
    outer loop
       vertex -0.26762 -0.095671 0.1
       vertex -0.278131 -0.064705 0.1
       vertex -0.278131 -0.064705 0
    endloop
  endfacet
  facet normal -0.896866 -0.442302 0
    outer loop
       vertex -0.26762 -0.095671 0
       vertex -0.253156 -0.125 0
       vertex -0.253156 -0.125 0.1
    endloop
  endfacet
  facet normal -0.896866 -0.442302 0
    outer loop
       vertex -0.253156 -0.125 0.1
       vertex -0.26762 -0.095671 0.1
       vertex -0.26762 -0.095671 0
    endloop
  endfacet
  facet normal -0.831476 -0.555561 0
    outer loop
       vertex -0.253156 -0.125 0
       vertex -0.234988 -0.152191 0
       vertex -0.234988 -0.152191 0.1
    endloop
  endfacet
  facet normal -0.831476 -0.555561 0
    outer loop
       vertex -0.234988 -0.152191 0.1
       vertex -0.253156 -0.125 0.1
       vertex -0.253156 -0.125 0
    endloop
  endfacet
  facet normal -0.751817 -0.659372 0
    outer loop
       vertex -0.234988 -0.152191 0
       vertex -0.213426 -0.176776 0
       vertex -0.213426 -0.176776 0.1
    endloop
  endfacet
  facet normal -0.751817 -0.659372 0
    outer loop
       vertex -0.213426 -0.176776 0.1
       vertex -0.234988 -0.152191 0.1
       vertex -0.234988 -0.152191 0
    endloop
  endfacet
  facet normal 0.659372 -0.751817 0
    outer loop
       vertex 0.140126 -0.176776 0
       vertex 0.140126 -0.176776 0.1
       vertex 0.115541 -0.198338 0.1
    endloop
  endfacet
  facet normal 0.659372 -0.751817 0
    outer loop
       vertex 0.115541 -0.198338 0.1
       vertex 0.115541 -0.198338 0
       vertex 0.140126 -0.176776 0
    endloop
  endfacet
  facet normal 0.555561 -0.831476 0
    outer loop
       vertex 0.115541 -0.198338 0
       vertex 0.115541 -0.198338 0.1
       vertex 0.0883502 -0.216506 0.1
    endloop
  endfacet
  facet normal 0.555561 -0.831476 0
    outer loop
       vertex 0.0883502 -0.216506 0.1
       vertex 0.0883502 -0.216506 0
       vertex 0.115541 -0.198338 0
    endloop
  endfacet
  facet normal 0.442302 -0.896866 0
    outer loop
       vertex 0.0883502 -0.216506 0
       vertex 0.0883502 -0.216506 0.1
       vertex 0.0590212 -0.23097 0.1
    endloop
  endfacet
  facet normal 0.442302 -0.896866 0
    outer loop
       vertex 0.0590212 -0.23097 0.1
       vertex 0.0590212 -0.23097 0
       vertex 0.0883502 -0.216506 0
    endloop
  endfacet
  facet normal 0.321425 -0.946935 0
    outer loop
       vertex 0.0590212 -0.23097 0
       vertex 0.0590212 -0.23097 0.1
       vertex 0.0280552 -0.241481 0.1
    endloop
  endfacet
  facet normal 0.321425 -0.946935 0
    outer loop
       vertex 0.0280552 -0.241481 0.1
       vertex 0.0280552 -0.241481 0
       vertex 0.0590212 -0.23097 0
    endloop
  endfacet
  facet normal 0.195096 -0.980784 0
    outer loop
       vertex 0.0280552 -0.241481 0
       vertex 0.0280552 -0.241481 0.1
       vertex -0.00401834 -0.247861 0.1
    endloop
  endfacet
  facet normal 0.195096 -0.980784 0
    outer loop
       vertex -0.00401834 -0.247861 0.1
       vertex -0.00401834 -0.247861 0
       vertex 0.0280552 -0.241481 0
    endloop
  endfacet
  facet normal 0.0654098 -0.997858 0
    outer loop
       vertex -0.0366498 -0.25 0
       vertex -0.00401834 -0.247861 0
       vertex -0.00401834 -0.247861 0.1
    endloop
  endfacet
  facet normal 0.0654098 -0.997858 1.08928e-16
    outer loop
       vertex -0.00401834 -0.247861 0.1
       vertex -0.0366498 -0.25 0.1
       vertex -0.0366498 -0.25 0
    endloop
  endfacet
  facet normal -0.0654098 -0.997858 0
    outer loop
       vertex -0.0366498 -0.25 0.1
       vertex -0.0692813 -0.247861 0.1
       vertex -0.0692813 -0.247861 0
    endloop
  endfacet
  facet normal -0.0654098 -0.997858 -1.08928e-16
    outer loop
       vertex -0.0692813 -0.247861 0
       vertex -0.0366498 -0.25 0
       vertex -0.0366498 -0.25 0.1
    endloop
  endfacet
  facet normal -0.195096 -0.980784 0
    outer loop
       vertex -0.0692813 -0.247861 0
       vertex -0.0692813 -0.247861 0.1
       vertex -0.101355 -0.241481 0.1
    endloop
  endfacet
  facet normal -0.195096 -0.980784 -0
    outer loop
       vertex -0.101355 -0.241481 0.1
       vertex -0.101355 -0.241481 0
       vertex -0.0692813 -0.247861 0
    endloop
  endfacet
  facet normal -0.321425 -0.946935 0
    outer loop
       vertex -0.101355 -0.241481 0
       vertex -0.101355 -0.241481 0.1
       vertex -0.132321 -0.23097 0.1
    endloop
  endfacet
  facet normal -0.321425 -0.946935 -0
    outer loop
       vertex -0.132321 -0.23097 0.1
       vertex -0.132321 -0.23097 0
       vertex -0.101355 -0.241481 0
    endloop
  endfacet
  facet normal -0.442302 -0.896866 0
    outer loop
       vertex -0.132321 -0.23097 0
       vertex -0.132321 -0.23097 0.1
       vertex -0.16165 -0.216506 0.1
    endloop
  endfacet
  facet normal -0.442302 -0.896866 -0
    outer loop
       vertex -0.16165 -0.216506 0.1
       vertex -0.16165 -0.216506 0
       vertex -0.132321 -0.23097 0
    endloop
  endfacet
  facet normal -0.555561 -0.831476 0
    outer loop
       vertex -0.16165 -0.216506 0
       vertex -0.16165 -0.216506 0.1
       vertex -0.188841 -0.198338 0.1
    endloop
  endfacet
  facet normal -0.555561 -0.831476 -0
    outer loop
       vertex -0.188841 -0.198338 0.1
       vertex -0.188841 -0.198338 0
       vertex -0.16165 -0.216506 0
    endloop
  endfacet
  facet normal -0.659372 -0.751817 0
    outer loop
       vertex -0.188841 -0.198338 0
       vertex -0.188841 -0.198338 0.1
       vertex -0.213426 -0.176776 0.1
    endloop
  endfacet
  facet normal -0.659372 -0.751817 -0
    outer loop
       vertex -0.213426 -0.176776 0.1
       vertex -0.213426 -0.176776 0
       vertex -0.188841 -0.198338 0
    endloop
  endfacet
endsolid cylinder
