solid cylinder
  facet normal 0.751817 -0.659372 0
    outer loop
       vertex 0.432667 -0.176776 0
       vertex 0.454229 -0.152191 0
       vertex 0.454229 -0.152191 0.1
    endloop
  endfacet
  facet normal 0.751817 -0.659372 0
    outer loop
       vertex 0.454229 -0.152191 0.1
       vertex 0.432667 -0.176776 0.1
       vertex 0.432667 -0.176776 0
    endloop
  endfacet
  facet normal 0.831476 -0.555561 0
    outer loop
       vertex 0.454229 -0.152191 0
       vertex 0.472397 -0.125 0
       vertex 0.472397 -0.125 0.1
    endloop
  endfacet
  facet normal 0.831476 -0.555561 0
    outer loop
       vertex 0.472397 -0.125 0.1
       vertex 0.454229 -0.152191 0.1
       vertex 0.454229 -0.152191 0
    endloop
  endfacet
  facet normal 0.896866 -0.442302 0
    outer loop
       vertex 0.472397 -0.125 0
       vertex 0.486861 -0.095671 0
       vertex 0.486861 -0.095671 0.1
    endloop
  endfacet
  facet normal 0.896866 -0.442302 0
    outer loop
       vertex 0.486861 -0.095671 0.1
       vertex 0.472397 -0.125 0.1
       vertex 0.472397 -0.125 0
    endloop
  endfacet
  facet normal 0.946935 -0.321425 0
    outer loop
       vertex 0.486861 -0.095671 0
       vertex 0.497372 -0.064705 0
       vertex 0.497372 -0.064705 0.1
    endloop
  endfacet
  facet normal 0.946935 -0.321425 0
    outer loop
       vertex 0.497372 -0.064705 0.1
       vertex 0.486861 -0.095671 0.1
       vertex 0.486861 -0.095671 0
    endloop
  endfacet
  facet normal 0.980784 -0.195096 0
    outer loop
       vertex 0.497372 -0.064705 0
       vertex 0.503752 -0.0326315 0
       vertex 0.503752 -0.0326315 0.1
    endloop
  endfacet
  facet normal 0.980784 -0.195096 0
    outer loop
       vertex 0.503752 -0.0326315 0.1
       vertex 0.497372 -0.064705 0.1
       vertex 0.497372 -0.064705 0
    endloop
  endfacet
  facet normal 0.997858 -0.0654098 0
    outer loop
       vertex 0.505891 -8.32665e-17 0.1
       vertex 0.503752 -0.0326315 0.1
       vertex 0.503752 -0.0326315 0
    endloop
  endfacet
  facet normal 0.997858 -0.0654098 -1.0893e-16
    outer loop
       vertex 0.503752 -0.0326315 0
       vertex 0.505891 8.32665e-17 0
       vertex 0.505891 -8.32665e-17 0.1
    endloop
  endfacet
  facet normal 0.997858 0.0654098 0
    outer loop
       vertex 0.505891 8.32665e-17 0
       vertex 0.503752 0.0326315 0
       vertex 0.503752 0.0326315 0.1
    endloop
  endfacet
  facet normal 0.997858 0.0654098 1.0893e-16
    outer loop
       vertex 0.503752 0.0326315 0.1
       vertex 0.505891 -8.32665e-17 0.1
       vertex 0.505891 8.32665e-17 0
    endloop
  endfacet
  facet normal 0.980784 0.195096 0
    outer loop
       vertex 0.503752 0.0326315 0
       vertex 0.497372 0.064705 0
       vertex 0.497372 0.064705 0.1
    endloop
  endfacet
  facet normal 0.980784 0.195096 0
    outer loop
       vertex 0.497372 0.064705 0.1
       vertex 0.503752 0.0326315 0.1
       vertex 0.503752 0.0326315 0
    endloop
  endfacet
  facet normal 0.946935 0.321425 0
    outer loop
       vertex 0.497372 0.064705 0
       vertex 0.486861 0.095671 0
       vertex 0.486861 0.095671 0.1
    endloop
  endfacet
  facet normal 0.946935 0.321425 0
    outer loop
       vertex 0.486861 0.095671 0.1
       vertex 0.497372 0.064705 0.1
       vertex 0.497372 0.064705 0
    endloop
  endfacet
  facet normal 0.896866 0.442302 0
    outer loop
       vertex 0.486861 0.095671 0
       vertex 0.472397 0.125 0
       vertex 0.472397 0.125 0.1
    endloop
  endfacet
  facet normal 0.896866 0.442302 0
    outer loop
       vertex 0.472397 0.125 0.1
       vertex 0.486861 0.095671 0.1
       vertex 0.486861 0.095671 0
    endloop
  endfacet
  facet normal 0.831476 0.555561 0
    outer loop
       vertex 0.472397 0.125 0
       vertex 0.454229 0.152191 0
       vertex 0.454229 0.152191 0.1
    endloop
  endfacet
  facet normal 0.831476 0.555561 0
    outer loop
       vertex 0.454229 0.152191 0.1
       vertex 0.472397 0.125 0.1
       vertex 0.472397 0.125 0
    endloop
  endfacet
  facet normal 0.751817 0.659372 0
    outer loop
       vertex 0.454229 0.152191 0
       vertex 0.432667 0.176776 0
       vertex 0.432667 0.176776 0.1
    endloop
  endfacet
  facet normal 0.751817 0.659372 0
    outer loop
       vertex 0.432667 0.176776 0.1
       vertex 0.454229 0.152191 0.1
       vertex 0.454229 0.152191 0
    endloop
  endfacet
  facet normal 0.659372 0.751817 0
    outer loop
       vertex 0.432667 0.176776 0
       vertex 0.408082 0.198338 0
       vertex 0.408082 0.198338 0.1
    endloop
  endfacet
  facet normal 0.659372 0.751817 0
    outer loop
       vertex 0.408082 0.198338 0.1
       vertex 0.432667 0.176776 0.1
       vertex 0.432667 0.176776 0
    endloop
  endfacet
  facet normal 0.555561 0.831476 0
    outer loop
       vertex 0.408082 0.198338 0
       vertex 0.380891 0.216506 0
       vertex 0.380891 0.216506 0.1
    endloop
  endfacet
  facet normal 0.555561 0.831476 0
    outer loop
       vertex 0.380891 0.216506 0.1
       vertex 0.408082 0.198338 0.1
       vertex 0.408082 0.198338 0
    endloop
  endfacet
  facet normal 0.442302 0.896866 0
    outer loop
       vertex 0.380891 0.216506 0
       vertex 0.351562 0.23097 0
       vertex 0.351562 0.23097 0.1
    endloop
  endfacet
  facet normal 0.442302 0.896866 0
    outer loop
       vertex 0.351562 0.23097 0.1
       vertex 0.380891 0.216506 0.1
       vertex 0.380891 0.216506 0
    endloop
  endfacet
  facet normal 0.321425 0.946935 0
    outer loop
       vertex 0.351562 0.23097 0
       vertex 0.320596 0.241481 0
       vertex 0.320596 0.241481 0.1
    endloop
  endfacet
  facet normal 0.321425 0.946935 0
    outer loop
       vertex 0.320596 0.241481 0.1
       vertex 0.351562 0.23097 0.1
       vertex 0.351562 0.23097 0
    endloop
  endfacet
  facet normal 0.195096 0.980784 0
    outer loop
       vertex 0.320596 0.241481 0
       vertex 0.288523 0.247861 0
       vertex 0.288523 0.247861 0.1
    endloop
  endfacet
  facet normal 0.195096 0.980784 0
    outer loop
       vertex 0.288523 0.247861 0.1
       vertex 0.320596 0.241481 0.1
       vertex 0.320596 0.241481 0
    endloop
  endfacet
  facet normal 0.0654098 0.997858 0
    outer loop
       vertex 0.255891 0.25 0.1
       vertex 0.288523 0.247861 0.1
       vertex 0.288523 0.247861 0
    endloop
  endfacet
  facet normal 0.0654098 0.997858 -7.26205e-17
    outer loop
       vertex 0.288523 0.247861 0
       vertex 0.255891 0.25 0
       vertex 0.255891 0.25 0.1
    endloop
  endfacet
  facet normal -0.0654098 0.997858 0
    outer loop
       vertex 0.255891 0.25 0
       vertex 0.22326 0.247861 0
       vertex 0.22326 0.247861 0.1
    endloop
  endfacet
  facet normal -0.0654098 0.997858 7.26205e-17
    outer loop
       vertex 0.22326 0.247861 0.1
       vertex 0.255891 0.25 0.1
       vertex 0.255891 0.25 0
    endloop
  endfacet
  facet normal -0.195096 0.980784 0
    outer loop
       vertex 0.22326 0.247861 0
       vertex 0.191186 0.241481 0
       vertex 0.191186 0.241481 0.1
    endloop
  endfacet
  facet normal -0.195096 0.980784 0
    outer loop
       vertex 0.191186 0.241481 0.1
       vertex 0.22326 0.247861 0.1
       vertex 0.22326 0.247861 0
    endloop
  endfacet
  facet normal -0.321425 0.946935 0
    outer loop
       vertex 0.191186 0.241481 0
       vertex 0.16022 0.23097 0
       vertex 0.16022 0.23097 0.1
    endloop
  endfacet
  facet normal -0.321425 0.946935 0
    outer loop
       vertex 0.16022 0.23097 0.1
       vertex 0.191186 0.241481 0.1
       vertex 0.191186 0.241481 0
    endloop
  endfacet
  facet normal -0.442302 0.896866 0
    outer loop
       vertex 0.16022 0.23097 0
       vertex 0.130891 0.216506 0
       vertex 0.130891 0.216506 0.1
    endloop
  endfacet
  facet normal -0.442302 0.896866 0
    outer loop
       vertex 0.130891 0.216506 0.1
       vertex 0.16022 0.23097 0.1
       vertex 0.16022 0.23097 0
    endloop
  endfacet
  facet normal -0.555561 0.831476 0
    outer loop
       vertex 0.130891 0.216506 0
       vertex 0.1037 0.198338 0
       vertex 0.1037 0.198338 0.1
    endloop
  endfacet
  facet normal -0.555561 0.831476 0
    outer loop
       vertex 0.1037 0.198338 0.1
       vertex 0.130891 0.216506 0.1
       vertex 0.130891 0.216506 0
    endloop
  endfacet
  facet normal -0.659372 0.751817 0
    outer loop
       vertex 0.1037 0.198338 0
       vertex 0.0791155 0.176776 0
       vertex 0.0791155 0.176776 0.1
    endloop
  endfacet
  facet normal -0.659372 0.751817 0
    outer loop
       vertex 0.0791155 0.176776 0.1
       vertex 0.1037 0.198338 0.1
       vertex 0.1037 0.198338 0
    endloop
  endfacet
  facet normal -0.751817 0.659372 0
    outer loop
       vertex 0.0791155 0.176776 0
       vertex 0.0575535 0.152191 0
       vertex 0.0575535 0.152191 0.1
    endloop
  endfacet
  facet normal -0.751817 0.659372 0
    outer loop
       vertex 0.0575535 0.152191 0.1
       vertex 0.0791155 0.176776 0.1
       vertex 0.0791155 0.176776 0
    endloop
  endfacet
  facet normal -0.831476 0.555561 0
    outer loop
       vertex 0.0575535 0.152191 0
       vertex 0.0393855 0.125 0
       vertex 0.0393855 0.125 0.1
    endloop
  endfacet
  facet normal -0.831476 0.555561 0
    outer loop
       vertex 0.0393855 0.125 0.1
       vertex 0.0575535 0.152191 0.1
       vertex 0.0575535 0.152191 0
    endloop
  endfacet
  facet normal -0.896866 0.442302 0
    outer loop
       vertex 0.0393855 0.125 0
       vertex 0.0249215 0.095671 0
       vertex 0.0249215 0.095671 0.1
    endloop
  endfacet
  facet normal -0.896866 0.442302 0
    outer loop
       vertex 0.0249215 0.095671 0.1
       vertex 0.0393855 0.125 0.1
       vertex 0.0393855 0.125 0
    endloop
  endfacet
  facet normal -0.946935 0.321425 0
    outer loop
       vertex 0.0249215 0.095671 0
       vertex 0.0144105 0.064705 0
       vertex 0.0144105 0.064705 0.1
    endloop
  endfacet
  facet normal -0.946935 0.321425 0
    outer loop
       vertex 0.0144105 0.064705 0.1
       vertex 0.0249215 0.095671 0.1
       vertex 0.0249215 0.095671 0
    endloop
  endfacet
  facet normal -0.980784 0.195096 0
    outer loop
       vertex 0.0144105 0.064705 0
       vertex 0.00803049 0.0326315 0
       vertex 0.00803049 0.0326315 0.1
    endloop
  endfacet
  facet normal -0.980784 0.195096 0
    outer loop
       vertex 0.00803049 0.0326315 0.1
       vertex 0.0144105 0.064705 0.1
       vertex 0.0144105 0.064705 0
    endloop
  endfacet
  facet normal -0.997858 0.0654098 0
    outer loop
       vertex 0.00589149 8.32665e-17 0.1
       vertex 0.00803049 0.0326315 0.1
       vertex 0.00803049 0.0326315 0
    endloop
  endfacet
  facet normal -0.997858 0.0654098 -1.08928e-16
    outer loop
       vertex 0.00803049 0.0326315 0
       vertex 0.00589149 -8.32665e-17 0
       vertex 0.00589149 8.32665e-17 0.1
    endloop
  endfacet
  facet normal -0.997858 -0.0654098 0
    outer loop
       vertex 0.00589149 -8.32665e-17 0
       vertex 0.00803049 -0.0326315 0
       vertex 0.00803049 -0.0326315 0.1
    endloop
  endfacet
  facet normal -0.997858 -0.0654098 1.08928e-16
    outer loop
       vertex 0.00803049 -0.0326315 0.1
       vertex 0.00589149 8.32665e-17 0.1
       vertex 0.00589149 -8.32665e-17 0
    endloop
  endfacet
  facet normal -0.980784 -0.195096 0
    outer loop
       vertex 0.00803049 -0.0326315 0
       vertex 0.0144105 -0.064705 0
       vertex 0.0144105 -0.064705 0.1
    endloop
  endfacet
  facet normal -0.980784 -0.195096 0
    outer loop
       vertex 0.0144105 -0.064705 0.1
       vertex 0.00803049 -0.0326315 0.1
       vertex 0.00803049 -0.0326315 0
    endloop
  endfacet
  facet normal -0.946935 -0.321425 0
    outer loop
       vertex 0.0144105 -0.064705 0
       vertex 0.0249215 -0.095671 0
       vertex 0.0249215 -0.095671 0.1
    endloop
  endfacet
  facet normal -0.946935 -0.321425 0
    outer loop
       vertex 0.0249215 -0.095671 0.1
       vertex 0.0144105 -0.064705 0.1
       vertex 0.0144105 -0.064705 0
    endloop
  endfacet
  facet normal -0.896866 -0.442302 0
    outer loop
       vertex 0.0249215 -0.095671 0
       vertex 0.0393855 -0.125 0
       vertex 0.0393855 -0.125 0.1
    endloop
  endfacet
  facet normal -0.896866 -0.442302 0
    outer loop
       vertex 0.0393855 -0.125 0.1
       vertex 0.0249215 -0.095671 0.1
       vertex 0.0249215 -0.095671 0
    endloop
  endfacet
  facet normal -0.831476 -0.555561 0
    outer loop
       vertex 0.0393855 -0.125 0
       vertex 0.0575535 -0.152191 0
       vertex 0.0575535 -0.152191 0.1
    endloop
  endfacet
  facet normal -0.831476 -0.555561 0
    outer loop
       vertex 0.0575535 -0.152191 0.1
       vertex 0.0393855 -0.125 0.1
       vertex 0.0393855 -0.125 0
    endloop
  endfacet
  facet normal -0.751817 -0.659372 0
    outer loop
       vertex 0.0575535 -0.152191 0
       vertex 0.0791155 -0.176776 0
       vertex 0.0791155 -0.176776 0.1
    endloop
  endfacet
  facet normal -0.751817 -0.659372 0
    outer loop
       vertex 0.0791155 -0.176776 0.1
       vertex 0.0575535 -0.152191 0.1
       vertex 0.0575535 -0.152191 0
    endloop
  endfacet
  facet normal 0.659372 -0.751817 0
    outer loop
       vertex 0.432667 -0.176776 0
       vertex 0.432667 -0.176776 0.1
       vertex 0.408082 -0.198338 0.1
    endloop
  endfacet
  facet normal 0.659372 -0.751817 0
    outer loop
       vertex 0.408082 -0.198338 0.1
       vertex 0.408082 -0.198338 0
       vertex 0.432667 -0.176776 0
    endloop
  endfacet
  facet normal 0.555561 -0.831476 0
    outer loop
       vertex 0.408082 -0.198338 0
       vertex 0.408082 -0.198338 0.1
       vertex 0.380891 -0.216506 0.1
    endloop
  endfacet
  facet normal 0.555561 -0.831476 0
    outer loop
       vertex 0.380891 -0.216506 0.1
       vertex 0.380891 -0.216506 0
       vertex 0.408082 -0.198338 0
    endloop
  endfacet
  facet normal 0.442302 -0.896866 0
    outer loop
       vertex 0.380891 -0.216506 0
       vertex 0.380891 -0.216506 0.1
       vertex 0.351562 -0.23097 0.1
    endloop
  endfacet
  facet normal 0.442302 -0.896866 0
    outer loop
       vertex 0.351562 -0.23097 0.1
       vertex 0.351562 -0.23097 0
       vertex 0.380891 -0.216506 0
    endloop
  endfacet
  facet normal 0.321425 -0.946935 0
    outer loop
       vertex 0.351562 -0.23097 0
       vertex 0.351562 -0.23097 0.1
       vertex 0.320596 -0.241481 0.1
    endloop
  endfacet
  facet normal 0.321425 -0.946935 0
    outer loop
       vertex 0.320596 -0.241481 0.1
       vertex 0.320596 -0.241481 0
       vertex 0.351562 -0.23097 0
    endloop
  endfacet
  facet normal 0.195096 -0.980784 0
    outer loop
       vertex 0.320596 -0.241481 0
       vertex 0.320596 -0.241481 0.1
       vertex 0.288523 -0.247861 0.1
    endloop
  endfacet
  facet normal 0.195096 -0.980784 0
    outer loop
       vertex 0.288523 -0.247861 0.1
       vertex 0.288523 -0.247861 0
       vertex 0.320596 -0.241481 0
    endloop
  endfacet
  facet normal 0.0654098 -0.997858 0
    outer loop
       vertex 0.255891 -0.25 0
       vertex 0.288523 -0.247861 0
       vertex 0.288523 -0.247861 0.1
    endloop
  endfacet
  facet normal 0.0654098 -0.997858 7.26205e-17
    outer loop
       vertex 0.288523 -0.247861 0.1
       vertex 0.255891 -0.25 0.1
       vertex 0.255891 -0.25 0
    endloop
  endfacet
  facet normal -0.0654098 -0.997858 0
    outer loop
       vertex 0.255891 -0.25 0.1
       vertex 0.22326 -0.247861 0.1
       vertex 0.22326 -0.247861 0
    endloop
  endfacet
  facet normal -0.0654098 -0.997858 -7.26205e-17
    outer loop
       vertex 0.22326 -0.247861 0
       vertex 0.255891 -0.25 0
       vertex 0.255891 -0.25 0.1
    endloop
  endfacet
  facet normal -0.195096 -0.980784 0
    outer loop
       vertex 0.22326 -0.247861 0
       vertex 0.22326 -0.247861 0.1
       vertex 0.191186 -0.241481 0.1
    endloop
  endfacet
  facet normal -0.195096 -0.980784 -0
    outer loop
       vertex 0.191186 -0.241481 0.1
       vertex 0.191186 -0.241481 0
       vertex 0.22326 -0.247861 0
    endloop
  endfacet
  facet normal -0.321425 -0.946935 0
    outer loop
       vertex 0.191186 -0.241481 0
       vertex 0.191186 -0.241481 0.1
       vertex 0.16022 -0.23097 0.1
    endloop
  endfacet
  facet normal -0.321425 -0.946935 -0
    outer loop
       vertex 0.16022 -0.23097 0.1
       vertex 0.16022 -0.23097 0
       vertex 0.191186 -0.241481 0
    endloop
  endfacet
  facet normal -0.442302 -0.896866 0
    outer loop
       vertex 0.16022 -0.23097 0
       vertex 0.16022 -0.23097 0.1
       vertex 0.130891 -0.216506 0.1
    endloop
  endfacet
  facet normal -0.442302 -0.896866 -0
    outer loop
       vertex 0.130891 -0.216506 0.1
       vertex 0.130891 -0.216506 0
       vertex 0.16022 -0.23097 0
    endloop
  endfacet
  facet normal -0.555561 -0.831476 0
    outer loop
       vertex 0.130891 -0.216506 0
       vertex 0.130891 -0.216506 0.1
       vertex 0.1037 -0.198338 0.1
    endloop
  endfacet
  facet normal -0.555561 -0.831476 -0
    outer loop
       vertex 0.1037 -0.198338 0.1
       vertex 0.1037 -0.198338 0
       vertex 0.130891 -0.216506 0
    endloop
  endfacet
  facet normal -0.659372 -0.751817 0
    outer loop
       vertex 0.1037 -0.198338 0
       vertex 0.1037 -0.198338 0.1
       vertex 0.0791155 -0.176776 0.1
    endloop
  endfacet
  facet normal -0.659372 -0.751817 -0
    outer loop
       vertex 0.0791155 -0.176776 0.1
       vertex 0.0791155 -0.176776 0
       vertex 0.1037 -0.198338 0
    endloop
  endfacet
endsolid cylinder
