solid cylinder
  facet normal 0.751817 -0.659372 0
    outer loop
       vertex 0.379028 -0.176776 0
       vertex 0.40059 -0.152191 0
       vertex 0.40059 -0.152191 0.1
    endloop
  endfacet
  facet normal 0.751817 -0.659372 0
    outer loop
       vertex 0.40059 -0.152191 0.1
       vertex 0.379028 -0.176776 0.1
       vertex 0.379028 -0.176776 0
    endloop
  endfacet
  facet normal 0.831476 -0.555561 0
    outer loop
       vertex 0.40059 -0.152191 0
       vertex 0.418758 -0.125 0
       vertex 0.418758 -0.125 0.1
    endloop
  endfacet
  facet normal 0.831476 -0.555561 0
    outer loop
       vertex 0.418758 -0.125 0.1
       vertex 0.40059 -0.152191 0.1
       vertex 0.40059 -0.152191 0
    endloop
  endfacet
  facet normal 0.896866 -0.442302 0
    outer loop
       vertex 0.418758 -0.125 0
       vertex 0.433222 -0.095671 0
       vertex 0.433222 -0.095671 0.1
    endloop
  endfacet
  facet normal 0.896866 -0.442302 0
    outer loop
       vertex 0.433222 -0.095671 0.1
       vertex 0.418758 -0.125 0.1
       vertex 0.418758 -0.125 0
    endloop
  endfacet
  facet normal 0.946935 -0.321425 0
    outer loop
       vertex 0.433222 -0.095671 0
       vertex 0.443733 -0.064705 0
       vertex 0.443733 -0.064705 0.1
    endloop
  endfacet
  facet normal 0.946935 -0.321425 0
    outer loop
       vertex 0.443733 -0.064705 0.1
       vertex 0.433222 -0.095671 0.1
       vertex 0.433222 -0.095671 0
    endloop
  endfacet
  facet normal 0.980784 -0.195096 0
    outer loop
       vertex 0.443733 -0.064705 0
       vertex 0.450113 -0.0326315 0
       vertex 0.450113 -0.0326315 0.1
    endloop
  endfacet
  facet normal 0.980784 -0.195096 0
    outer loop
       vertex 0.450113 -0.0326315 0.1
       vertex 0.443733 -0.064705 0.1
       vertex 0.443733 -0.064705 0
    endloop
  endfacet
  facet normal 0.997858 -0.0654098 0
    outer loop
       vertex 0.452252 -8.32665e-17 0.1
       vertex 0.450113 -0.0326315 0.1
       vertex 0.450113 -0.0326315 0
    endloop
  endfacet
  facet normal 0.997858 -0.0654098 -1.08928e-16
    outer loop
       vertex 0.450113 -0.0326315 0
       vertex 0.452252 8.32665e-17 0
       vertex 0.452252 -8.32665e-17 0.1
    endloop
  endfacet
  facet normal 0.997858 0.0654098 0
    outer loop
       vertex 0.452252 8.32665e-17 0
       vertex 0.450113 0.0326315 0
       vertex 0.450113 0.0326315 0.1
    endloop
  endfacet
  facet normal 0.997858 0.0654098 1.08928e-16
    outer loop
       vertex 0.450113 0.0326315 0.1
       vertex 0.452252 -8.32665e-17 0.1
       vertex 0.452252 8.32665e-17 0
    endloop
  endfacet
  facet normal 0.980784 0.195096 0
    outer loop
       vertex 0.450113 0.0326315 0
       vertex 0.443733 0.064705 0
       vertex 0.443733 0.064705 0.1
    endloop
  endfacet
  facet normal 0.980784 0.195096 0
    outer loop
       vertex 0.443733 0.064705 0.1
       vertex 0.450113 0.0326315 0.1
       vertex 0.450113 0.0326315 0
    endloop
  endfacet
  facet normal 0.946935 0.321425 0
    outer loop
       vertex 0.443733 0.064705 0
       vertex 0.433222 0.095671 0
       vertex 0.433222 0.095671 0.1
    endloop
  endfacet
  facet normal 0.946935 0.321425 0
    outer loop
       vertex 0.433222 0.095671 0.1
       vertex 0.443733 0.064705 0.1
       vertex 0.443733 0.064705 0
    endloop
  endfacet
  facet normal 0.896866 0.442302 0
    outer loop
       vertex 0.433222 0.095671 0
       vertex 0.418758 0.125 0
       vertex 0.418758 0.125 0.1
    endloop
  endfacet
  facet normal 0.896866 0.442302 0
    outer loop
       vertex 0.418758 0.125 0.1
       vertex 0.433222 0.095671 0.1
       vertex 0.433222 0.095671 0
    endloop
  endfacet
  facet normal 0.831476 0.555561 0
    outer loop
       vertex 0.418758 0.125 0
       vertex 0.40059 0.152191 0
       vertex 0.40059 0.152191 0.1
    endloop
  endfacet
  facet normal 0.831476 0.555561 0
    outer loop
       vertex 0.40059 0.152191 0.1
       vertex 0.418758 0.125 0.1
       vertex 0.418758 0.125 0
    endloop
  endfacet
  facet normal 0.751817 0.659372 0
    outer loop
       vertex 0.40059 0.152191 0
       vertex 0.379028 0.176776 0
       vertex 0.379028 0.176776 0.1
    endloop
  endfacet
  facet normal 0.751817 0.659372 0
    outer loop
       vertex 0.379028 0.176776 0.1
       vertex 0.40059 0.152191 0.1
       vertex 0.40059 0.152191 0
    endloop
  endfacet
  facet normal 0.659372 0.751817 0
    outer loop
       vertex 0.379028 0.176776 0
       vertex 0.354443 0.198338 0
       vertex 0.354443 0.198338 0.1
    endloop
  endfacet
  facet normal 0.659372 0.751817 0
    outer loop
       vertex 0.354443 0.198338 0.1
       vertex 0.379028 0.176776 0.1
       vertex 0.379028 0.176776 0
    endloop
  endfacet
  facet normal 0.555561 0.831476 0
    outer loop
       vertex 0.354443 0.198338 0
       vertex 0.327252 0.216506 0
       vertex 0.327252 0.216506 0.1
    endloop
  endfacet
  facet normal 0.555561 0.831476 0
    outer loop
       vertex 0.327252 0.216506 0.1
       vertex 0.354443 0.198338 0.1
       vertex 0.354443 0.198338 0
    endloop
  endfacet
  facet normal 0.442302 0.896866 0
    outer loop
       vertex 0.327252 0.216506 0
       vertex 0.297923 0.23097 0
       vertex 0.297923 0.23097 0.1
    endloop
  endfacet
  facet normal 0.442302 0.896866 0
    outer loop
       vertex 0.297923 0.23097 0.1
       vertex 0.327252 0.216506 0.1
       vertex 0.327252 0.216506 0
    endloop
  endfacet
  facet normal 0.321425 0.946935 0
    outer loop
       vertex 0.297923 0.23097 0
       vertex 0.266957 0.241481 0
       vertex 0.266957 0.241481 0.1
    endloop
  endfacet
  facet normal 0.321425 0.946935 0
    outer loop
       vertex 0.266957 0.241481 0.1
       vertex 0.297923 0.23097 0.1
       vertex 0.297923 0.23097 0
    endloop
  endfacet
  facet normal 0.195096 0.980784 0
    outer loop
       vertex 0.266957 0.241481 0
       vertex 0.234883 0.247861 0
       vertex 0.234883 0.247861 0.1
    endloop
  endfacet
  facet normal 0.195096 0.980784 0
    outer loop
       vertex 0.234883 0.247861 0.1
       vertex 0.266957 0.241481 0.1
       vertex 0.266957 0.241481 0
    endloop
  endfacet
  facet normal 0.0654098 0.997858 0
    outer loop
       vertex 0.202252 0.25 0.1
       vertex 0.234883 0.247861 0.1
       vertex 0.234883 0.247861 0
    endloop
  endfacet
  facet normal 0.0654098 0.997858 -1.0893e-16
    outer loop
       vertex 0.234883 0.247861 0
       vertex 0.202252 0.25 0
       vertex 0.202252 0.25 0.1
    endloop
  endfacet
  facet normal -0.0654098 0.997858 0
    outer loop
       vertex 0.202252 0.25 0
       vertex 0.16962 0.247861 0
       vertex 0.16962 0.247861 0.1
    endloop
  endfacet
  facet normal -0.0654098 0.997858 1.0893e-16
    outer loop
       vertex 0.16962 0.247861 0.1
       vertex 0.202252 0.25 0.1
       vertex 0.202252 0.25 0
    endloop
  endfacet
  facet normal -0.195096 0.980784 0
    outer loop
       vertex 0.16962 0.247861 0
       vertex 0.137547 0.241481 0
       vertex 0.137547 0.241481 0.1
    endloop
  endfacet
  facet normal -0.195096 0.980784 0
    outer loop
       vertex 0.137547 0.241481 0.1
       vertex 0.16962 0.247861 0.1
       vertex 0.16962 0.247861 0
    endloop
  endfacet
  facet normal -0.321425 0.946935 0
    outer loop
       vertex 0.137547 0.241481 0
       vertex 0.106581 0.23097 0
       vertex 0.106581 0.23097 0.1
    endloop
  endfacet
  facet normal -0.321425 0.946935 0
    outer loop
       vertex 0.106581 0.23097 0.1
       vertex 0.137547 0.241481 0.1
       vertex 0.137547 0.241481 0
    endloop
  endfacet
  facet normal -0.442302 0.896866 0
    outer loop
       vertex 0.106581 0.23097 0
       vertex 0.0772515 0.216506 0
       vertex 0.0772515 0.216506 0.1
    endloop
  endfacet
  facet normal -0.442302 0.896866 0
    outer loop
       vertex 0.0772515 0.216506 0.1
       vertex 0.106581 0.23097 0.1
       vertex 0.106581 0.23097 0
    endloop
  endfacet
  facet normal -0.555561 0.831476 0
    outer loop
       vertex 0.0772515 0.216506 0
       vertex 0.0500605 0.198338 0
       vertex 0.0500605 0.198338 0.1
    endloop
  endfacet
  facet normal -0.555561 0.831476 0
    outer loop
       vertex 0.0500605 0.198338 0.1
       vertex 0.0772515 0.216506 0.1
       vertex 0.0772515 0.216506 0
    endloop
  endfacet
  facet normal -0.659372 0.751817 0
    outer loop
       vertex 0.0500605 0.198338 0
       vertex 0.0254755 0.176776 0
       vertex 0.0254755 0.176776 0.1
    endloop
  endfacet
  facet normal -0.659372 0.751817 0
    outer loop
       vertex 0.0254755 0.176776 0.1
       vertex 0.0500605 0.198338 0.1
       vertex 0.0500605 0.198338 0
    endloop
  endfacet
  facet normal -0.751817 0.659372 0
    outer loop
       vertex 0.0254755 0.176776 0
       vertex 0.00391355 0.152191 0
       vertex 0.00391355 0.152191 0.1
    endloop
  endfacet
  facet normal -0.751817 0.659372 0
    outer loop
       vertex 0.00391355 0.152191 0.1
       vertex 0.0254755 0.176776 0.1
       vertex 0.0254755 0.176776 0
    endloop
  endfacet
  facet normal -0.831476 0.555561 0
    outer loop
       vertex 0.00391355 0.152191 0
       vertex -0.0142545 0.125 0
       vertex -0.0142545 0.125 0.1
    endloop
  endfacet
  facet normal -0.831476 0.555561 0
    outer loop
       vertex -0.0142545 0.125 0.1
       vertex 0.00391355 0.152191 0.1
       vertex 0.00391355 0.152191 0
    endloop
  endfacet
  facet normal -0.896866 0.442302 0
    outer loop
       vertex -0.0142545 0.125 0
       vertex -0.0287185 0.095671 0
       vertex -0.0287185 0.095671 0.1
    endloop
  endfacet
  facet normal -0.896866 0.442302 0
    outer loop
       vertex -0.0287185 0.095671 0.1
       vertex -0.0142545 0.125 0.1
       vertex -0.0142545 0.125 0
    endloop
  endfacet
  facet normal -0.946935 0.321425 0
    outer loop
       vertex -0.0287185 0.095671 0
       vertex -0.0392295 0.064705 0
       vertex -0.0392295 0.064705 0.1
    endloop
  endfacet
  facet normal -0.946935 0.321425 0
    outer loop
       vertex -0.0392295 0.064705 0.1
       vertex -0.0287185 0.095671 0.1
       vertex -0.0287185 0.095671 0
    endloop
  endfacet
  facet normal -0.980784 0.195096 0
    outer loop
       vertex -0.0392295 0.064705 0
       vertex -0.0456095 0.0326315 0
       vertex -0.0456095 0.0326315 0.1
    endloop
  endfacet
  facet normal -0.980784 0.195096 0
    outer loop
       vertex -0.0456095 0.0326315 0.1
       vertex -0.0392295 0.064705 0.1
       vertex -0.0392295 0.064705 0
    endloop
  endfacet
  facet normal -0.997858 0.0654098 0
    outer loop
       vertex -0.0477485 8.32665e-17 0.1
       vertex -0.0456095 0.0326315 0.1
       vertex -0.0456095 0.0326315 0
    endloop
  endfacet
  facet normal -0.997858 0.0654098 -1.08928e-16
    outer loop
       vertex -0.0456095 0.0326315 0
       vertex -0.0477485 -8.32665e-17 0
       vertex -0.0477485 8.32665e-17 0.1
    endloop
  endfacet
  facet normal -0.997858 -0.0654098 0
    outer loop
       vertex -0.0477485 -8.32665e-17 0
       vertex -0.0456095 -0.0326315 0
       vertex -0.0456095 -0.0326315 0.1
    endloop
  endfacet
  facet normal -0.997858 -0.0654098 1.08928e-16
    outer loop
       vertex -0.0456095 -0.0326315 0.1
       vertex -0.0477485 8.32665e-17 0.1
       vertex -0.0477485 -8.32665e-17 0
    endloop
  endfacet
  facet normal -0.980784 -0.195096 0
    outer loop
       vertex -0.0456095 -0.0326315 0
       vertex -0.0392295 -0.064705 0
       vertex -0.0392295 -0.064705 0.1
    endloop
  endfacet
  facet normal -0.980784 -0.195096 0
    outer loop
       vertex -0.0392295 -0.064705 0.1
       vertex -0.0456095 -0.0326315 0.1
       vertex -0.0456095 -0.0326315 0
    endloop
  endfacet
  facet normal -0.946935 -0.321425 0
    outer loop
       vertex -0.0392295 -0.064705 0
       vertex -0.0287185 -0.095671 0
       vertex -0.0287185 -0.095671 0.1
    endloop
  endfacet
  facet normal -0.946935 -0.321425 0
    outer loop
       vertex -0.0287185 -0.095671 0.1
       vertex -0.0392295 -0.064705 0.1
       vertex -0.0392295 -0.064705 0
    endloop
  endfacet
  facet normal -0.896866 -0.442302 0
    outer loop
       vertex -0.0287185 -0.095671 0
       vertex -0.0142545 -0.125 0
       vertex -0.0142545 -0.125 0.1
    endloop
  endfacet
  facet normal -0.896866 -0.442302 0
    outer loop
       vertex -0.0142545 -0.125 0.1
       vertex -0.0287185 -0.095671 0.1
       vertex -0.0287185 -0.095671 0
    endloop
  endfacet
  facet normal -0.831476 -0.555561 0
    outer loop
       vertex -0.0142545 -0.125 0
       vertex 0.00391355 -0.152191 0
       vertex 0.00391355 -0.152191 0.1
    endloop
  endfacet
  facet normal -0.831476 -0.555561 0
    outer loop
       vertex 0.00391355 -0.152191 0.1
       vertex -0.0142545 -0.125 0.1
       vertex -0.0142545 -0.125 0
    endloop
  endfacet
  facet normal -0.751817 -0.659372 0
    outer loop
       vertex 0.00391355 -0.152191 0
       vertex 0.0254755 -0.176776 0
       vertex 0.0254755 -0.176776 0.1
    endloop
  endfacet
  facet normal -0.751817 -0.659372 0
    outer loop
       vertex 0.0254755 -0.176776 0.1
       vertex 0.00391355 -0.152191 0.1
       vertex 0.00391355 -0.152191 0
    endloop
  endfacet
  facet normal 0.659372 -0.751817 0
    outer loop
       vertex 0.379028 -0.176776 0
       vertex 0.379028 -0.176776 0.1
       vertex 0.354443 -0.198338 0.1
    endloop
  endfacet
  facet normal 0.659372 -0.751817 0
    outer loop
       vertex 0.354443 -0.198338 0.1
       vertex 0.354443 -0.198338 0
       vertex 0.379028 -0.176776 0
    endloop
  endfacet
  facet normal 0.555561 -0.831476 0
    outer loop
       vertex 0.354443 -0.198338 0
       vertex 0.354443 -0.198338 0.1
       vertex 0.327252 -0.216506 0.1
    endloop
  endfacet
  facet normal 0.555561 -0.831476 0
    outer loop
       vertex 0.327252 -0.216506 0.1
       vertex 0.327252 -0.216506 0
       vertex 0.354443 -0.198338 0
    endloop
  endfacet
  facet normal 0.442302 -0.896866 0
    outer loop
       vertex 0.327252 -0.216506 0
       vertex 0.327252 -0.216506 0.1
       vertex 0.297923 -0.23097 0.1
    endloop
  endfacet
  facet normal 0.442302 -0.896866 0
    outer loop
       vertex 0.297923 -0.23097 0.1
       vertex 0.297923 -0.23097 0
       vertex 0.327252 -0.216506 0
    endloop
  endfacet
  facet normal 0.321425 -0.946935 0
    outer loop
       vertex 0.297923 -0.23097 0
       vertex 0.297923 -0.23097 0.1
       vertex 0.266957 -0.241481 0.1
    endloop
  endfacet
  facet normal 0.321425 -0.946935 0
    outer loop
       vertex 0.266957 -0.241481 0.1
       vertex 0.266957 -0.241481 0
       vertex 0.297923 -0.23097 0
    endloop
  endfacet
  facet normal 0.195096 -0.980784 0
    outer loop
       vertex 0.266957 -0.241481 0
       vertex 0.266957 -0.241481 0.1
       vertex 0.234883 -0.247861 0.1
    endloop
  endfacet
  facet normal 0.195096 -0.980784 0
    outer loop
       vertex 0.234883 -0.247861 0.1
       vertex 0.234883 -0.247861 0
       vertex 0.266957 -0.241481 0
    endloop
  endfacet
  facet normal 0.0654098 -0.997858 0
    outer loop
       vertex 0.202252 -0.25 0
       vertex 0.234883 -0.247861 0
       vertex 0.234883 -0.247861 0.1
    endloop
  endfacet
  facet normal 0.0654098 -0.997858 1.0893e-16
    outer loop
       vertex 0.234883 -0.247861 0.1
       vertex 0.202252 -0.25 0.1
       vertex 0.202252 -0.25 0
    endloop
  endfacet
  facet normal -0.0654098 -0.997858 0
    outer loop
       vertex 0.202252 -0.25 0.1
       vertex 0.16962 -0.247861 0.1
       vertex 0.16962 -0.247861 0
    endloop
  endfacet
  facet normal -0.0654098 -0.997858 -1.0893e-16
    outer loop
       vertex 0.16962 -0.247861 0
       vertex 0.202252 -0.25 0
       vertex 0.202252 -0.25 0.1
    endloop
  endfacet
  facet normal -0.195096 -0.980784 0
    outer loop
       vertex 0.16962 -0.247861 0
       vertex 0.16962 -0.247861 0.1
       vertex 0.137547 -0.241481 0.1
    endloop
  endfacet
  facet normal -0.195096 -0.980784 -0
    outer loop
       vertex 0.137547 -0.241481 0.1
       vertex 0.137547 -0.241481 0
       vertex 0.16962 -0.247861 0
    endloop
  endfacet
  facet normal -0.321425 -0.946935 0
    outer loop
       vertex 0.137547 -0.241481 0
       vertex 0.137547 -0.241481 0.1
       vertex 0.106581 -0.23097 0.1
    endloop
  endfacet
  facet normal -0.321425 -0.946935 -0
    outer loop
       vertex 0.106581 -0.23097 0.1
       vertex 0.106581 -0.23097 0
       vertex 0.137547 -0.241481 0
    endloop
  endfacet
  facet normal -0.442302 -0.896866 0
    outer loop
       vertex 0.106581 -0.23097 0
       vertex 0.106581 -0.23097 0.1
       vertex 0.0772515 -0.216506 0.1
    endloop
  endfacet
  facet normal -0.442302 -0.896866 -0
    outer loop
       vertex 0.0772515 -0.216506 0.1
       vertex 0.0772515 -0.216506 0
       vertex 0.106581 -0.23097 0
    endloop
  endfacet
  facet normal -0.555561 -0.831476 0
    outer loop
       vertex 0.0772515 -0.216506 0
       vertex 0.0772515 -0.216506 0.1
       vertex 0.0500605 -0.198338 0.1
    endloop
  endfacet
  facet normal -0.555561 -0.831476 -0
    outer loop
       vertex 0.0500605 -0.198338 0.1
       vertex 0.0500605 -0.198338 0
       vertex 0.0772515 -0.216506 0
    endloop
  endfacet
  facet normal -0.659372 -0.751817 0
    outer loop
       vertex 0.0500605 -0.198338 0
       vertex 0.0500605 -0.198338 0.1
       vertex 0.0254755 -0.176776 0.1
    endloop
  endfacet
  facet normal -0.659372 -0.751817 -0
    outer loop
       vertex 0.0254755 -0.176776 0.1
       vertex 0.0254755 -0.176776 0
       vertex 0.0500605 -0.198338 0
    endloop
  endfacet
endsolid cylinder
