solid cylinder
  facet normal 0.751817 -0.659372 0
    outer loop
       vertex 0.335106 -0.176776 0
       vertex 0.356668 -0.152191 0
       vertex 0.356668 -0.152191 0.1
    endloop
  endfacet
  facet normal 0.751817 -0.659372 0
    outer loop
       vertex 0.356668 -0.152191 0.1
       vertex 0.335106 -0.176776 0.1
       vertex 0.335106 -0.176776 0
    endloop
  endfacet
  facet normal 0.831476 -0.555561 0
    outer loop
       vertex 0.356668 -0.152191 0
       vertex 0.374836 -0.125 0
       vertex 0.374836 -0.125 0.1
    endloop
  endfacet
  facet normal 0.831476 -0.555561 0
    outer loop
       vertex 0.374836 -0.125 0.1
       vertex 0.356668 -0.152191 0.1
       vertex 0.356668 -0.152191 0
    endloop
  endfacet
  facet normal 0.896866 -0.442302 0
    outer loop
       vertex 0.374836 -0.125 0
       vertex 0.3893 -0.095671 0
       vertex 0.3893 -0.095671 0.1
    endloop
  endfacet
  facet normal 0.896866 -0.442302 0
    outer loop
       vertex 0.3893 -0.095671 0.1
       vertex 0.374836 -0.125 0.1
       vertex 0.374836 -0.125 0
    endloop
  endfacet
  facet normal 0.946935 -0.321425 0
    outer loop
       vertex 0.3893 -0.095671 0
       vertex 0.399811 -0.064705 0
       vertex 0.399811 -0.064705 0.1
    endloop
  endfacet
  facet normal 0.946935 -0.321425 0
    outer loop
       vertex 0.399811 -0.064705 0.1
       vertex 0.3893 -0.095671 0.1
       vertex 0.3893 -0.095671 0
    endloop
  endfacet
  facet normal 0.980784 -0.195096 0
    outer loop
       vertex 0.399811 -0.064705 0
       vertex 0.406191 -0.0326315 0
       vertex 0.406191 -0.0326315 0.1
    endloop
  endfacet
  facet normal 0.980784 -0.195096 0
    outer loop
       vertex 0.406191 -0.0326315 0.1
       vertex 0.399811 -0.064705 0.1
       vertex 0.399811 -0.064705 0
    endloop
  endfacet
  facet normal 0.997858 -0.0654098 0
    outer loop
       vertex 0.40833 -8.32665e-17 0.1
       vertex 0.406191 -0.0326315 0.1
       vertex 0.406191 -0.0326315 0
    endloop
  endfacet
  facet normal 0.997858 -0.0654098 -1.08928e-16
    outer loop
       vertex 0.406191 -0.0326315 0
       vertex 0.40833 8.32665e-17 0
       vertex 0.40833 -8.32665e-17 0.1
    endloop
  endfacet
  facet normal 0.997858 0.0654098 0
    outer loop
       vertex 0.40833 8.32665e-17 0
       vertex 0.406191 0.0326315 0
       vertex 0.406191 0.0326315 0.1
    endloop
  endfacet
  facet normal 0.997858 0.0654098 1.08928e-16
    outer loop
       vertex 0.406191 0.0326315 0.1
       vertex 0.40833 -8.32665e-17 0.1
       vertex 0.40833 8.32665e-17 0
    endloop
  endfacet
  facet normal 0.980784 0.195096 0
    outer loop
       vertex 0.406191 0.0326315 0
       vertex 0.399811 0.064705 0
       vertex 0.399811 0.064705 0.1
    endloop
  endfacet
  facet normal 0.980784 0.195096 0
    outer loop
       vertex 0.399811 0.064705 0.1
       vertex 0.406191 0.0326315 0.1
       vertex 0.406191 0.0326315 0
    endloop
  endfacet
  facet normal 0.946935 0.321425 0
    outer loop
       vertex 0.399811 0.064705 0
       vertex 0.3893 0.095671 0
       vertex 0.3893 0.095671 0.1
    endloop
  endfacet
  facet normal 0.946935 0.321425 0
    outer loop
       vertex 0.3893 0.095671 0.1
       vertex 0.399811 0.064705 0.1
       vertex 0.399811 0.064705 0
    endloop
  endfacet
  facet normal 0.896866 0.442302 0
    outer loop
       vertex 0.3893 0.095671 0
       vertex 0.374836 0.125 0
       vertex 0.374836 0.125 0.1
    endloop
  endfacet
  facet normal 0.896866 0.442302 0
    outer loop
       vertex 0.374836 0.125 0.1
       vertex 0.3893 0.095671 0.1
       vertex 0.3893 0.095671 0
    endloop
  endfacet
  facet normal 0.831476 0.555561 0
    outer loop
       vertex 0.374836 0.125 0
       vertex 0.356668 0.152191 0
       vertex 0.356668 0.152191 0.1
    endloop
  endfacet
  facet normal 0.831476 0.555561 0
    outer loop
       vertex 0.356668 0.152191 0.1
       vertex 0.374836 0.125 0.1
       vertex 0.374836 0.125 0
    endloop
  endfacet
  facet normal 0.751817 0.659372 0
    outer loop
       vertex 0.356668 0.152191 0
       vertex 0.335106 0.176776 0
       vertex 0.335106 0.176776 0.1
    endloop
  endfacet
  facet normal 0.751817 0.659372 0
    outer loop
       vertex 0.335106 0.176776 0.1
       vertex 0.356668 0.152191 0.1
       vertex 0.356668 0.152191 0
    endloop
  endfacet
  facet normal 0.659372 0.751817 0
    outer loop
       vertex 0.335106 0.176776 0
       vertex 0.310521 0.198338 0
       vertex 0.310521 0.198338 0.1
    endloop
  endfacet
  facet normal 0.659372 0.751817 0
    outer loop
       vertex 0.310521 0.198338 0.1
       vertex 0.335106 0.176776 0.1
       vertex 0.335106 0.176776 0
    endloop
  endfacet
  facet normal 0.555561 0.831476 0
    outer loop
       vertex 0.310521 0.198338 0
       vertex 0.28333 0.216506 0
       vertex 0.28333 0.216506 0.1
    endloop
  endfacet
  facet normal 0.555561 0.831476 0
    outer loop
       vertex 0.28333 0.216506 0.1
       vertex 0.310521 0.198338 0.1
       vertex 0.310521 0.198338 0
    endloop
  endfacet
  facet normal 0.442302 0.896866 0
    outer loop
       vertex 0.28333 0.216506 0
       vertex 0.254001 0.23097 0
       vertex 0.254001 0.23097 0.1
    endloop
  endfacet
  facet normal 0.442302 0.896866 0
    outer loop
       vertex 0.254001 0.23097 0.1
       vertex 0.28333 0.216506 0.1
       vertex 0.28333 0.216506 0
    endloop
  endfacet
  facet normal 0.321425 0.946935 0
    outer loop
       vertex 0.254001 0.23097 0
       vertex 0.223035 0.241481 0
       vertex 0.223035 0.241481 0.1
    endloop
  endfacet
  facet normal 0.321425 0.946935 0
    outer loop
       vertex 0.223035 0.241481 0.1
       vertex 0.254001 0.23097 0.1
       vertex 0.254001 0.23097 0
    endloop
  endfacet
  facet normal 0.195096 0.980784 0
    outer loop
       vertex 0.223035 0.241481 0
       vertex 0.190961 0.247861 0
       vertex 0.190961 0.247861 0.1
    endloop
  endfacet
  facet normal 0.195096 0.980784 0
    outer loop
       vertex 0.190961 0.247861 0.1
       vertex 0.223035 0.241481 0.1
       vertex 0.223035 0.241481 0
    endloop
  endfacet
  facet normal 0.0654098 0.997858 0
    outer loop
       vertex 0.15833 0.25 0.1
       vertex 0.190961 0.247861 0.1
       vertex 0.190961 0.247861 0
    endloop
  endfacet
  facet normal 0.0654098 0.997858 -1.0893e-16
    outer loop
       vertex 0.190961 0.247861 0
       vertex 0.15833 0.25 0
       vertex 0.15833 0.25 0.1
    endloop
  endfacet
  facet normal -0.0654098 0.997858 0
    outer loop
       vertex 0.15833 0.25 0
       vertex 0.125698 0.247861 0
       vertex 0.125698 0.247861 0.1
    endloop
  endfacet
  facet normal -0.0654098 0.997858 1.0893e-16
    outer loop
       vertex 0.125698 0.247861 0.1
       vertex 0.15833 0.25 0.1
       vertex 0.15833 0.25 0
    endloop
  endfacet
  facet normal -0.195096 0.980784 0
    outer loop
       vertex 0.125698 0.247861 0
       vertex 0.0936246 0.241481 0
       vertex 0.0936246 0.241481 0.1
    endloop
  endfacet
  facet normal -0.195096 0.980784 0
    outer loop
       vertex 0.0936246 0.241481 0.1
       vertex 0.125698 0.247861 0.1
       vertex 0.125698 0.247861 0
    endloop
  endfacet
  facet normal -0.321425 0.946935 0
    outer loop
       vertex 0.0936246 0.241481 0
       vertex 0.0626586 0.23097 0
       vertex 0.0626586 0.23097 0.1
    endloop
  endfacet
  facet normal -0.321425 0.946935 0
    outer loop
       vertex 0.0626586 0.23097 0.1
       vertex 0.0936246 0.241481 0.1
       vertex 0.0936246 0.241481 0
    endloop
  endfacet
  facet normal -0.442302 0.896866 0
    outer loop
       vertex 0.0626586 0.23097 0
       vertex 0.0333296 0.216506 0
       vertex 0.0333296 0.216506 0.1
    endloop
  endfacet
  facet normal -0.442302 0.896866 0
    outer loop
       vertex 0.0333296 0.216506 0.1
       vertex 0.0626586 0.23097 0.1
       vertex 0.0626586 0.23097 0
    endloop
  endfacet
  facet normal -0.555561 0.831476 0
    outer loop
       vertex 0.0333296 0.216506 0
       vertex 0.0061386 0.198338 0
       vertex 0.0061386 0.198338 0.1
    endloop
  endfacet
  facet normal -0.555561 0.831476 0
    outer loop
       vertex 0.0061386 0.198338 0.1
       vertex 0.0333296 0.216506 0.1
       vertex 0.0333296 0.216506 0
    endloop
  endfacet
  facet normal -0.659372 0.751817 0
    outer loop
       vertex 0.0061386 0.198338 0
       vertex -0.0184464 0.176776 0
       vertex -0.0184464 0.176776 0.1
    endloop
  endfacet
  facet normal -0.659372 0.751817 0
    outer loop
       vertex -0.0184464 0.176776 0.1
       vertex 0.0061386 0.198338 0.1
       vertex 0.0061386 0.198338 0
    endloop
  endfacet
  facet normal -0.751817 0.659372 0
    outer loop
       vertex -0.0184464 0.176776 0
       vertex -0.0400084 0.152191 0
       vertex -0.0400084 0.152191 0.1
    endloop
  endfacet
  facet normal -0.751817 0.659372 0
    outer loop
       vertex -0.0400084 0.152191 0.1
       vertex -0.0184464 0.176776 0.1
       vertex -0.0184464 0.176776 0
    endloop
  endfacet
  facet normal -0.831476 0.555561 0
    outer loop
       vertex -0.0400084 0.152191 0
       vertex -0.0581764 0.125 0
       vertex -0.0581764 0.125 0.1
    endloop
  endfacet
  facet normal -0.831476 0.555561 0
    outer loop
       vertex -0.0581764 0.125 0.1
       vertex -0.0400084 0.152191 0.1
       vertex -0.0400084 0.152191 0
    endloop
  endfacet
  facet normal -0.896866 0.442302 0
    outer loop
       vertex -0.0581764 0.125 0
       vertex -0.0726404 0.095671 0
       vertex -0.0726404 0.095671 0.1
    endloop
  endfacet
  facet normal -0.896866 0.442302 0
    outer loop
       vertex -0.0726404 0.095671 0.1
       vertex -0.0581764 0.125 0.1
       vertex -0.0581764 0.125 0
    endloop
  endfacet
  facet normal -0.946935 0.321425 0
    outer loop
       vertex -0.0726404 0.095671 0
       vertex -0.0831514 0.064705 0
       vertex -0.0831514 0.064705 0.1
    endloop
  endfacet
  facet normal -0.946935 0.321425 0
    outer loop
       vertex -0.0831514 0.064705 0.1
       vertex -0.0726404 0.095671 0.1
       vertex -0.0726404 0.095671 0
    endloop
  endfacet
  facet normal -0.980784 0.195096 0
    outer loop
       vertex -0.0831514 0.064705 0
       vertex -0.0895314 0.0326315 0
       vertex -0.0895314 0.0326315 0.1
    endloop
  endfacet
  facet normal -0.980784 0.195096 0
    outer loop
       vertex -0.0895314 0.0326315 0.1
       vertex -0.0831514 0.064705 0.1
       vertex -0.0831514 0.064705 0
    endloop
  endfacet
  facet normal -0.997858 0.0654098 0
    outer loop
       vertex -0.0916704 8.32665e-17 0.1
       vertex -0.0895314 0.0326315 0.1
       vertex -0.0895314 0.0326315 0
    endloop
  endfacet
  facet normal -0.997858 0.0654098 -1.08928e-16
    outer loop
       vertex -0.0895314 0.0326315 0
       vertex -0.0916704 -8.32665e-17 0
       vertex -0.0916704 8.32665e-17 0.1
    endloop
  endfacet
  facet normal -0.997858 -0.0654098 0
    outer loop
       vertex -0.0916704 -8.32665e-17 0
       vertex -0.0895314 -0.0326315 0
       vertex -0.0895314 -0.0326315 0.1
    endloop
  endfacet
  facet normal -0.997858 -0.0654098 1.08928e-16
    outer loop
       vertex -0.0895314 -0.0326315 0.1
       vertex -0.0916704 8.32665e-17 0.1
       vertex -0.0916704 -8.32665e-17 0
    endloop
  endfacet
  facet normal -0.980784 -0.195096 0
    outer loop
       vertex -0.0895314 -0.0326315 0
       vertex -0.0831514 -0.064705 0
       vertex -0.0831514 -0.064705 0.1
    endloop
  endfacet
  facet normal -0.980784 -0.195096 0
    outer loop
       vertex -0.0831514 -0.064705 0.1
       vertex -0.0895314 -0.0326315 0.1
       vertex -0.0895314 -0.0326315 0
    endloop
  endfacet
  facet normal -0.946935 -0.321425 0
    outer loop
       vertex -0.0831514 -0.064705 0
       vertex -0.0726404 -0.095671 0
       vertex -0.0726404 -0.095671 0.1
    endloop
  endfacet
  facet normal -0.946935 -0.321425 0
    outer loop
       vertex -0.0726404 -0.095671 0.1
       vertex -0.0831514 -0.064705 0.1
       vertex -0.0831514 -0.064705 0
    endloop
  endfacet
  facet normal -0.896866 -0.442302 0
    outer loop
       vertex -0.0726404 -0.095671 0
       vertex -0.0581764 -0.125 0
       vertex -0.0581764 -0.125 0.1
    endloop
  endfacet
  facet normal -0.896866 -0.442302 0
    outer loop
       vertex -0.0581764 -0.125 0.1
       vertex -0.0726404 -0.095671 0.1
       vertex -0.0726404 -0.095671 0
    endloop
  endfacet
  facet normal -0.831476 -0.555561 0
    outer loop
       vertex -0.0581764 -0.125 0
       vertex -0.0400084 -0.152191 0
       vertex -0.0400084 -0.152191 0.1
    endloop
  endfacet
  facet normal -0.831476 -0.555561 0
    outer loop
       vertex -0.0400084 -0.152191 0.1
       vertex -0.0581764 -0.125 0.1
       vertex -0.0581764 -0.125 0
    endloop
  endfacet
  facet normal -0.751817 -0.659372 0
    outer loop
       vertex -0.0400084 -0.152191 0
       vertex -0.0184464 -0.176776 0
       vertex -0.0184464 -0.176776 0.1
    endloop
  endfacet
  facet normal -0.751817 -0.659372 0
    outer loop
       vertex -0.0184464 -0.176776 0.1
       vertex -0.0400084 -0.152191 0.1
       vertex -0.0400084 -0.152191 0
    endloop
  endfacet
  facet normal 0.659372 -0.751817 0
    outer loop
       vertex 0.335106 -0.176776 0
       vertex 0.335106 -0.176776 0.1
       vertex 0.310521 -0.198338 0.1
    endloop
  endfacet
  facet normal 0.659372 -0.751817 0
    outer loop
       vertex 0.310521 -0.198338 0.1
       vertex 0.310521 -0.198338 0
       vertex 0.335106 -0.176776 0
    endloop
  endfacet
  facet normal 0.555561 -0.831476 0
    outer loop
       vertex 0.310521 -0.198338 0
       vertex 0.310521 -0.198338 0.1
       vertex 0.28333 -0.216506 0.1
    endloop
  endfacet
  facet normal 0.555561 -0.831476 0
    outer loop
       vertex 0.28333 -0.216506 0.1
       vertex 0.28333 -0.216506 0
       vertex 0.310521 -0.198338 0
    endloop
  endfacet
  facet normal 0.442302 -0.896866 0
    outer loop
       vertex 0.28333 -0.216506 0
       vertex 0.28333 -0.216506 0.1
       vertex 0.254001 -0.23097 0.1
    endloop
  endfacet
  facet normal 0.442302 -0.896866 0
    outer loop
       vertex 0.254001 -0.23097 0.1
       vertex 0.254001 -0.23097 0
       vertex 0.28333 -0.216506 0
    endloop
  endfacet
  facet normal 0.321425 -0.946935 0
    outer loop
       vertex 0.254001 -0.23097 0
       vertex 0.254001 -0.23097 0.1
       vertex 0.223035 -0.241481 0.1
    endloop
  endfacet
  facet normal 0.321425 -0.946935 0
    outer loop
       vertex 0.223035 -0.241481 0.1
       vertex 0.223035 -0.241481 0
       vertex 0.254001 -0.23097 0
    endloop
  endfacet
  facet normal 0.195096 -0.980784 0
    outer loop
       vertex 0.223035 -0.241481 0
       vertex 0.223035 -0.241481 0.1
       vertex 0.190961 -0.247861 0.1
    endloop
  endfacet
  facet normal 0.195096 -0.980784 0
    outer loop
       vertex 0.190961 -0.247861 0.1
       vertex 0.190961 -0.247861 0
       vertex 0.223035 -0.241481 0
    endloop
  endfacet
  facet normal 0.0654098 -0.997858 0
    outer loop
       vertex 0.15833 -0.25 0
       vertex 0.190961 -0.247861 0
       vertex 0.190961 -0.247861 0.1
    endloop
  endfacet
  facet normal 0.0654098 -0.997858 1.0893e-16
    outer loop
       vertex 0.190961 -0.247861 0.1
       vertex 0.15833 -0.25 0.1
       vertex 0.15833 -0.25 0
    endloop
  endfacet
  facet normal -0.0654098 -0.997858 0
    outer loop
       vertex 0.15833 -0.25 0.1
       vertex 0.125698 -0.247861 0.1
       vertex 0.125698 -0.247861 0
    endloop
  endfacet
  facet normal -0.0654098 -0.997858 -1.0893e-16
    outer loop
       vertex 0.125698 -0.247861 0
       vertex 0.15833 -0.25 0
       vertex 0.15833 -0.25 0.1
    endloop
  endfacet
  facet normal -0.195096 -0.980784 0
    outer loop
       vertex 0.125698 -0.247861 0
       vertex 0.125698 -0.247861 0.1
       vertex 0.0936246 -0.241481 0.1
    endloop
  endfacet
  facet normal -0.195096 -0.980784 -0
    outer loop
       vertex 0.0936246 -0.241481 0.1
       vertex 0.0936246 -0.241481 0
       vertex 0.125698 -0.247861 0
    endloop
  endfacet
  facet normal -0.321425 -0.946935 0
    outer loop
       vertex 0.0936246 -0.241481 0
       vertex 0.0936246 -0.241481 0.1
       vertex 0.0626586 -0.23097 0.1
    endloop
  endfacet
  facet normal -0.321425 -0.946935 -0
    outer loop
       vertex 0.0626586 -0.23097 0.1
       vertex 0.0626586 -0.23097 0
       vertex 0.0936246 -0.241481 0
    endloop
  endfacet
  facet normal -0.442302 -0.896866 0
    outer loop
       vertex 0.0626586 -0.23097 0
       vertex 0.0626586 -0.23097 0.1
       vertex 0.0333296 -0.216506 0.1
    endloop
  endfacet
  facet normal -0.442302 -0.896866 -0
    outer loop
       vertex 0.0333296 -0.216506 0.1
       vertex 0.0333296 -0.216506 0
       vertex 0.0626586 -0.23097 0
    endloop
  endfacet
  facet normal -0.555561 -0.831476 0
    outer loop
       vertex 0.0333296 -0.216506 0
       vertex 0.0333296 -0.216506 0.1
       vertex 0.0061386 -0.198338 0.1
    endloop
  endfacet
  facet normal -0.555561 -0.831476 -0
    outer loop
       vertex 0.0061386 -0.198338 0.1
       vertex 0.0061386 -0.198338 0
       vertex 0.0333296 -0.216506 0
    endloop
  endfacet
  facet normal -0.659372 -0.751817 0
    outer loop
       vertex 0.0061386 -0.198338 0
       vertex 0.0061386 -0.198338 0.1
       vertex -0.0184464 -0.176776 0.1
    endloop
  endfacet
  facet normal -0.659372 -0.751817 -0
    outer loop
       vertex -0.0184464 -0.176776 0.1
       vertex -0.0184464 -0.176776 0
       vertex 0.0061386 -0.198338 0
    endloop
  endfacet
endsolid cylinder
