solid cylinder
  facet normal 0.751817 -0.659372 0
    outer loop
       vertex 0.318728 -0.176776 0
       vertex 0.34029 -0.152191 0
       vertex 0.34029 -0.152191 0.1
    endloop
  endfacet
  facet normal 0.751817 -0.659372 0
    outer loop
       vertex 0.34029 -0.152191 0.1
       vertex 0.318728 -0.176776 0.1
       vertex 0.318728 -0.176776 0
    endloop
  endfacet
  facet normal 0.831476 -0.555561 0
    outer loop
       vertex 0.34029 -0.152191 0
       vertex 0.358458 -0.125 0
       vertex 0.358458 -0.125 0.1
    endloop
  endfacet
  facet normal 0.831476 -0.555561 0
    outer loop
       vertex 0.358458 -0.125 0.1
       vertex 0.34029 -0.152191 0.1
       vertex 0.34029 -0.152191 0
    endloop
  endfacet
  facet normal 0.896866 -0.442302 0
    outer loop
       vertex 0.358458 -0.125 0
       vertex 0.372922 -0.095671 0
       vertex 0.372922 -0.095671 0.1
    endloop
  endfacet
  facet normal 0.896866 -0.442302 0
    outer loop
       vertex 0.372922 -0.095671 0.1
       vertex 0.358458 -0.125 0.1
       vertex 0.358458 -0.125 0
    endloop
  endfacet
  facet normal 0.946935 -0.321425 0
    outer loop
       vertex 0.372922 -0.095671 0
       vertex 0.383433 -0.064705 0
       vertex 0.383433 -0.064705 0.1
    endloop
  endfacet
  facet normal 0.946935 -0.321425 0
    outer loop
       vertex 0.383433 -0.064705 0.1
       vertex 0.372922 -0.095671 0.1
       vertex 0.372922 -0.095671 0
    endloop
  endfacet
  facet normal 0.980784 -0.195096 0
    outer loop
       vertex 0.383433 -0.064705 0
       vertex 0.389813 -0.0326315 0
       vertex 0.389813 -0.0326315 0.1
    endloop
  endfacet
  facet normal 0.980784 -0.195096 0
    outer loop
       vertex 0.389813 -0.0326315 0.1
       vertex 0.383433 -0.064705 0.1
       vertex 0.383433 -0.064705 0
    endloop
  endfacet
  facet normal 0.997858 -0.0654098 0
    outer loop
       vertex 0.391952 -8.32665e-17 0.1
       vertex 0.389813 -0.0326315 0.1
       vertex 0.389813 -0.0326315 0
    endloop
  endfacet
  facet normal 0.997858 -0.0654098 -1.08928e-16
    outer loop
       vertex 0.389813 -0.0326315 0
       vertex 0.391952 8.32665e-17 0
       vertex 0.391952 -8.32665e-17 0.1
    endloop
  endfacet
  facet normal 0.997858 0.0654098 0
    outer loop
       vertex 0.391952 8.32665e-17 0
       vertex 0.389813 0.0326315 0
       vertex 0.389813 0.0326315 0.1
    endloop
  endfacet
  facet normal 0.997858 0.0654098 1.08928e-16
    outer loop
       vertex 0.389813 0.0326315 0.1
       vertex 0.391952 -8.32665e-17 0.1
       vertex 0.391952 8.32665e-17 0
    endloop
  endfacet
  facet normal 0.980784 0.195096 0
    outer loop
       vertex 0.389813 0.0326315 0
       vertex 0.383433 0.064705 0
       vertex 0.383433 0.064705 0.1
    endloop
  endfacet
  facet normal 0.980784 0.195096 0
    outer loop
       vertex 0.383433 0.064705 0.1
       vertex 0.389813 0.0326315 0.1
       vertex 0.389813 0.0326315 0
    endloop
  endfacet
  facet normal 0.946935 0.321425 0
    outer loop
       vertex 0.383433 0.064705 0
       vertex 0.372922 0.095671 0
       vertex 0.372922 0.095671 0.1
    endloop
  endfacet
  facet normal 0.946935 0.321425 0
    outer loop
       vertex 0.372922 0.095671 0.1
       vertex 0.383433 0.064705 0.1
       vertex 0.383433 0.064705 0
    endloop
  endfacet
  facet normal 0.896866 0.442302 0
    outer loop
       vertex 0.372922 0.095671 0
       vertex 0.358458 0.125 0
       vertex 0.358458 0.125 0.1
    endloop
  endfacet
  facet normal 0.896866 0.442302 0
    outer loop
       vertex 0.358458 0.125 0.1
       vertex 0.372922 0.095671 0.1
       vertex 0.372922 0.095671 0
    endloop
  endfacet
  facet normal 0.831476 0.555561 0
    outer loop
       vertex 0.358458 0.125 0
       vertex 0.34029 0.152191 0
       vertex 0.34029 0.152191 0.1
    endloop
  endfacet
  facet normal 0.831476 0.555561 0
    outer loop
       vertex 0.34029 0.152191 0.1
       vertex 0.358458 0.125 0.1
       vertex 0.358458 0.125 0
    endloop
  endfacet
  facet normal 0.751817 0.659372 0
    outer loop
       vertex 0.34029 0.152191 0
       vertex 0.318728 0.176776 0
       vertex 0.318728 0.176776 0.1
    endloop
  endfacet
  facet normal 0.751817 0.659372 0
    outer loop
       vertex 0.318728 0.176776 0.1
       vertex 0.34029 0.152191 0.1
       vertex 0.34029 0.152191 0
    endloop
  endfacet
  facet normal 0.659372 0.751817 0
    outer loop
       vertex 0.318728 0.176776 0
       vertex 0.294143 0.198338 0
       vertex 0.294143 0.198338 0.1
    endloop
  endfacet
  facet normal 0.659372 0.751817 0
    outer loop
       vertex 0.294143 0.198338 0.1
       vertex 0.318728 0.176776 0.1
       vertex 0.318728 0.176776 0
    endloop
  endfacet
  facet normal 0.555561 0.831476 0
    outer loop
       vertex 0.294143 0.198338 0
       vertex 0.266952 0.216506 0
       vertex 0.266952 0.216506 0.1
    endloop
  endfacet
  facet normal 0.555561 0.831476 0
    outer loop
       vertex 0.266952 0.216506 0.1
       vertex 0.294143 0.198338 0.1
       vertex 0.294143 0.198338 0
    endloop
  endfacet
  facet normal 0.442302 0.896866 0
    outer loop
       vertex 0.266952 0.216506 0
       vertex 0.237623 0.23097 0
       vertex 0.237623 0.23097 0.1
    endloop
  endfacet
  facet normal 0.442302 0.896866 0
    outer loop
       vertex 0.237623 0.23097 0.1
       vertex 0.266952 0.216506 0.1
       vertex 0.266952 0.216506 0
    endloop
  endfacet
  facet normal 0.321425 0.946935 0
    outer loop
       vertex 0.237623 0.23097 0
       vertex 0.206657 0.241481 0
       vertex 0.206657 0.241481 0.1
    endloop
  endfacet
  facet normal 0.321425 0.946935 0
    outer loop
       vertex 0.206657 0.241481 0.1
       vertex 0.237623 0.23097 0.1
       vertex 0.237623 0.23097 0
    endloop
  endfacet
  facet normal 0.195096 0.980784 0
    outer loop
       vertex 0.206657 0.241481 0
       vertex 0.174583 0.247861 0
       vertex 0.174583 0.247861 0.1
    endloop
  endfacet
  facet normal 0.195096 0.980784 0
    outer loop
       vertex 0.174583 0.247861 0.1
       vertex 0.206657 0.241481 0.1
       vertex 0.206657 0.241481 0
    endloop
  endfacet
  facet normal 0.0654098 0.997858 0
    outer loop
       vertex 0.141952 0.25 0.1
       vertex 0.174583 0.247861 0.1
       vertex 0.174583 0.247861 0
    endloop
  endfacet
  facet normal 0.0654098 0.997858 -1.0893e-16
    outer loop
       vertex 0.174583 0.247861 0
       vertex 0.141952 0.25 0
       vertex 0.141952 0.25 0.1
    endloop
  endfacet
  facet normal -0.0654098 0.997858 0
    outer loop
       vertex 0.141952 0.25 0
       vertex 0.10932 0.247861 0
       vertex 0.10932 0.247861 0.1
    endloop
  endfacet
  facet normal -0.0654098 0.997858 1.0893e-16
    outer loop
       vertex 0.10932 0.247861 0.1
       vertex 0.141952 0.25 0.1
       vertex 0.141952 0.25 0
    endloop
  endfacet
  facet normal -0.195096 0.980784 0
    outer loop
       vertex 0.10932 0.247861 0
       vertex 0.0772467 0.241481 0
       vertex 0.0772467 0.241481 0.1
    endloop
  endfacet
  facet normal -0.195096 0.980784 0
    outer loop
       vertex 0.0772467 0.241481 0.1
       vertex 0.10932 0.247861 0.1
       vertex 0.10932 0.247861 0
    endloop
  endfacet
  facet normal -0.321425 0.946935 0
    outer loop
       vertex 0.0772467 0.241481 0
       vertex 0.0462807 0.23097 0
       vertex 0.0462807 0.23097 0.1
    endloop
  endfacet
  facet normal -0.321425 0.946935 0
    outer loop
       vertex 0.0462807 0.23097 0.1
       vertex 0.0772467 0.241481 0.1
       vertex 0.0772467 0.241481 0
    endloop
  endfacet
  facet normal -0.442302 0.896866 0
    outer loop
       vertex 0.0462807 0.23097 0
       vertex 0.0169517 0.216506 0
       vertex 0.0169517 0.216506 0.1
    endloop
  endfacet
  facet normal -0.442302 0.896866 0
    outer loop
       vertex 0.0169517 0.216506 0.1
       vertex 0.0462807 0.23097 0.1
       vertex 0.0462807 0.23097 0
    endloop
  endfacet
  facet normal -0.555561 0.831476 0
    outer loop
       vertex 0.0169517 0.216506 0
       vertex -0.0102393 0.198338 0
       vertex -0.0102393 0.198338 0.1
    endloop
  endfacet
  facet normal -0.555561 0.831476 0
    outer loop
       vertex -0.0102393 0.198338 0.1
       vertex 0.0169517 0.216506 0.1
       vertex 0.0169517 0.216506 0
    endloop
  endfacet
  facet normal -0.659372 0.751817 0
    outer loop
       vertex -0.0102393 0.198338 0
       vertex -0.0348243 0.176776 0
       vertex -0.0348243 0.176776 0.1
    endloop
  endfacet
  facet normal -0.659372 0.751817 0
    outer loop
       vertex -0.0348243 0.176776 0.1
       vertex -0.0102393 0.198338 0.1
       vertex -0.0102393 0.198338 0
    endloop
  endfacet
  facet normal -0.751817 0.659372 0
    outer loop
       vertex -0.0348243 0.176776 0
       vertex -0.0563863 0.152191 0
       vertex -0.0563863 0.152191 0.1
    endloop
  endfacet
  facet normal -0.751817 0.659372 0
    outer loop
       vertex -0.0563863 0.152191 0.1
       vertex -0.0348243 0.176776 0.1
       vertex -0.0348243 0.176776 0
    endloop
  endfacet
  facet normal -0.831476 0.555561 0
    outer loop
       vertex -0.0563863 0.152191 0
       vertex -0.0745543 0.125 0
       vertex -0.0745543 0.125 0.1
    endloop
  endfacet
  facet normal -0.831476 0.555561 0
    outer loop
       vertex -0.0745543 0.125 0.1
       vertex -0.0563863 0.152191 0.1
       vertex -0.0563863 0.152191 0
    endloop
  endfacet
  facet normal -0.896866 0.442302 0
    outer loop
       vertex -0.0745543 0.125 0
       vertex -0.0890183 0.095671 0
       vertex -0.0890183 0.095671 0.1
    endloop
  endfacet
  facet normal -0.896866 0.442302 0
    outer loop
       vertex -0.0890183 0.095671 0.1
       vertex -0.0745543 0.125 0.1
       vertex -0.0745543 0.125 0
    endloop
  endfacet
  facet normal -0.946935 0.321425 0
    outer loop
       vertex -0.0890183 0.095671 0
       vertex -0.0995293 0.064705 0
       vertex -0.0995293 0.064705 0.1
    endloop
  endfacet
  facet normal -0.946935 0.321425 0
    outer loop
       vertex -0.0995293 0.064705 0.1
       vertex -0.0890183 0.095671 0.1
       vertex -0.0890183 0.095671 0
    endloop
  endfacet
  facet normal -0.980784 0.195096 0
    outer loop
       vertex -0.0995293 0.064705 0
       vertex -0.105909 0.0326315 0
       vertex -0.105909 0.0326315 0.1
    endloop
  endfacet
  facet normal -0.980784 0.195096 0
    outer loop
       vertex -0.105909 0.0326315 0.1
       vertex -0.0995293 0.064705 0.1
       vertex -0.0995293 0.064705 0
    endloop
  endfacet
  facet normal -0.997858 0.0654098 0
    outer loop
       vertex -0.108048 8.32665e-17 0.1
       vertex -0.105909 0.0326315 0.1
       vertex -0.105909 0.0326315 0
    endloop
  endfacet
  facet normal -0.997858 0.0654098 -1.08928e-16
    outer loop
       vertex -0.105909 0.0326315 0
       vertex -0.108048 -8.32665e-17 0
       vertex -0.108048 8.32665e-17 0.1
    endloop
  endfacet
  facet normal -0.997858 -0.0654098 0
    outer loop
       vertex -0.108048 -8.32665e-17 0
       vertex -0.105909 -0.0326315 0
       vertex -0.105909 -0.0326315 0.1
    endloop
  endfacet
  facet normal -0.997858 -0.0654098 1.08928e-16
    outer loop
       vertex -0.105909 -0.0326315 0.1
       vertex -0.108048 8.32665e-17 0.1
       vertex -0.108048 -8.32665e-17 0
    endloop
  endfacet
  facet normal -0.980784 -0.195096 0
    outer loop
       vertex -0.105909 -0.0326315 0
       vertex -0.0995293 -0.064705 0
       vertex -0.0995293 -0.064705 0.1
    endloop
  endfacet
  facet normal -0.980784 -0.195096 0
    outer loop
       vertex -0.0995293 -0.064705 0.1
       vertex -0.105909 -0.0326315 0.1
       vertex -0.105909 -0.0326315 0
    endloop
  endfacet
  facet normal -0.946935 -0.321425 0
    outer loop
       vertex -0.0995293 -0.064705 0
       vertex -0.0890183 -0.095671 0
       vertex -0.0890183 -0.095671 0.1
    endloop
  endfacet
  facet normal -0.946935 -0.321425 0
    outer loop
       vertex -0.0890183 -0.095671 0.1
       vertex -0.0995293 -0.064705 0.1
       vertex -0.0995293 -0.064705 0
    endloop
  endfacet
  facet normal -0.896866 -0.442302 0
    outer loop
       vertex -0.0890183 -0.095671 0
       vertex -0.0745543 -0.125 0
       vertex -0.0745543 -0.125 0.1
    endloop
  endfacet
  facet normal -0.896866 -0.442302 0
    outer loop
       vertex -0.0745543 -0.125 0.1
       vertex -0.0890183 -0.095671 0.1
       vertex -0.0890183 -0.095671 0
    endloop
  endfacet
  facet normal -0.831476 -0.555561 0
    outer loop
       vertex -0.0745543 -0.125 0
       vertex -0.0563863 -0.152191 0
       vertex -0.0563863 -0.152191 0.1
    endloop
  endfacet
  facet normal -0.831476 -0.555561 0
    outer loop
       vertex -0.0563863 -0.152191 0.1
       vertex -0.0745543 -0.125 0.1
       vertex -0.0745543 -0.125 0
    endloop
  endfacet
  facet normal -0.751817 -0.659372 0
    outer loop
       vertex -0.0563863 -0.152191 0
       vertex -0.0348243 -0.176776 0
       vertex -0.0348243 -0.176776 0.1
    endloop
  endfacet
  facet normal -0.751817 -0.659372 0
    outer loop
       vertex -0.0348243 -0.176776 0.1
       vertex -0.0563863 -0.152191 0.1
       vertex -0.0563863 -0.152191 0
    endloop
  endfacet
  facet normal 0.659372 -0.751817 0
    outer loop
       vertex 0.318728 -0.176776 0
       vertex 0.318728 -0.176776 0.1
       vertex 0.294143 -0.198338 0.1
    endloop
  endfacet
  facet normal 0.659372 -0.751817 0
    outer loop
       vertex 0.294143 -0.198338 0.1
       vertex 0.294143 -0.198338 0
       vertex 0.318728 -0.176776 0
    endloop
  endfacet
  facet normal 0.555561 -0.831476 0
    outer loop
       vertex 0.294143 -0.198338 0
       vertex 0.294143 -0.198338 0.1
       vertex 0.266952 -0.216506 0.1
    endloop
  endfacet
  facet normal 0.555561 -0.831476 0
    outer loop
       vertex 0.266952 -0.216506 0.1
       vertex 0.266952 -0.216506 0
       vertex 0.294143 -0.198338 0
    endloop
  endfacet
  facet normal 0.442302 -0.896866 0
    outer loop
       vertex 0.266952 -0.216506 0
       vertex 0.266952 -0.216506 0.1
       vertex 0.237623 -0.23097 0.1
    endloop
  endfacet
  facet normal 0.442302 -0.896866 0
    outer loop
       vertex 0.237623 -0.23097 0.1
       vertex 0.237623 -0.23097 0
       vertex 0.266952 -0.216506 0
    endloop
  endfacet
  facet normal 0.321425 -0.946935 0
    outer loop
       vertex 0.237623 -0.23097 0
       vertex 0.237623 -0.23097 0.1
       vertex 0.206657 -0.241481 0.1
    endloop
  endfacet
  facet normal 0.321425 -0.946935 0
    outer loop
       vertex 0.206657 -0.241481 0.1
       vertex 0.206657 -0.241481 0
       vertex 0.237623 -0.23097 0
    endloop
  endfacet
  facet normal 0.195096 -0.980784 0
    outer loop
       vertex 0.206657 -0.241481 0
       vertex 0.206657 -0.241481 0.1
       vertex 0.174583 -0.247861 0.1
    endloop
  endfacet
  facet normal 0.195096 -0.980784 0
    outer loop
       vertex 0.174583 -0.247861 0.1
       vertex 0.174583 -0.247861 0
       vertex 0.206657 -0.241481 0
    endloop
  endfacet
  facet normal 0.0654098 -0.997858 0
    outer loop
       vertex 0.141952 -0.25 0
       vertex 0.174583 -0.247861 0
       vertex 0.174583 -0.247861 0.1
    endloop
  endfacet
  facet normal 0.0654098 -0.997858 1.0893e-16
    outer loop
       vertex 0.174583 -0.247861 0.1
       vertex 0.141952 -0.25 0.1
       vertex 0.141952 -0.25 0
    endloop
  endfacet
  facet normal -0.0654098 -0.997858 0
    outer loop
       vertex 0.141952 -0.25 0.1
       vertex 0.10932 -0.247861 0.1
       vertex 0.10932 -0.247861 0
    endloop
  endfacet
  facet normal -0.0654098 -0.997858 -1.0893e-16
    outer loop
       vertex 0.10932 -0.247861 0
       vertex 0.141952 -0.25 0
       vertex 0.141952 -0.25 0.1
    endloop
  endfacet
  facet normal -0.195096 -0.980784 0
    outer loop
       vertex 0.10932 -0.247861 0
       vertex 0.10932 -0.247861 0.1
       vertex 0.0772467 -0.241481 0.1
    endloop
  endfacet
  facet normal -0.195096 -0.980784 -0
    outer loop
       vertex 0.0772467 -0.241481 0.1
       vertex 0.0772467 -0.241481 0
       vertex 0.10932 -0.247861 0
    endloop
  endfacet
  facet normal -0.321425 -0.946935 0
    outer loop
       vertex 0.0772467 -0.241481 0
       vertex 0.0772467 -0.241481 0.1
       vertex 0.0462807 -0.23097 0.1
    endloop
  endfacet
  facet normal -0.321425 -0.946935 -0
    outer loop
       vertex 0.0462807 -0.23097 0.1
       vertex 0.0462807 -0.23097 0
       vertex 0.0772467 -0.241481 0
    endloop
  endfacet
  facet normal -0.442302 -0.896866 0
    outer loop
       vertex 0.0462807 -0.23097 0
       vertex 0.0462807 -0.23097 0.1
       vertex 0.0169517 -0.216506 0.1
    endloop
  endfacet
  facet normal -0.442302 -0.896866 -0
    outer loop
       vertex 0.0169517 -0.216506 0.1
       vertex 0.0169517 -0.216506 0
       vertex 0.0462807 -0.23097 0
    endloop
  endfacet
  facet normal -0.555561 -0.831476 0
    outer loop
       vertex 0.0169517 -0.216506 0
       vertex 0.0169517 -0.216506 0.1
       vertex -0.0102393 -0.198338 0.1
    endloop
  endfacet
  facet normal -0.555561 -0.831476 -0
    outer loop
       vertex -0.0102393 -0.198338 0.1
       vertex -0.0102393 -0.198338 0
       vertex 0.0169517 -0.216506 0
    endloop
  endfacet
  facet normal -0.659372 -0.751817 0
    outer loop
       vertex -0.0102393 -0.198338 0
       vertex -0.0102393 -0.198338 0.1
       vertex -0.0348243 -0.176776 0.1
    endloop
  endfacet
  facet normal -0.659372 -0.751817 -0
    outer loop
       vertex -0.0348243 -0.176776 0.1
       vertex -0.0348243 -0.176776 0
       vertex -0.0102393 -0.198338 0
    endloop
  endfacet
endsolid cylinder
