solid cylinder
  facet normal 0.751817 -0.659372 0
    outer loop
       vertex -0.0302192 -0.176776 0
       vertex -0.00865724 -0.152191 0
       vertex -0.00865724 -0.152191 0.1
    endloop
  endfacet
  facet normal 0.751817 -0.659372 0
    outer loop
       vertex -0.00865724 -0.152191 0.1
       vertex -0.0302192 -0.176776 0.1
       vertex -0.0302192 -0.176776 0
    endloop
  endfacet
  facet normal 0.831476 -0.555561 0
    outer loop
       vertex -0.00865724 -0.152191 0
       vertex 0.00951076 -0.125 0
       vertex 0.00951076 -0.125 0.1
    endloop
  endfacet
  facet normal 0.831476 -0.555561 0
    outer loop
       vertex 0.00951076 -0.125 0.1
       vertex -0.00865724 -0.152191 0.1
       vertex -0.00865724 -0.152191 0
    endloop
  endfacet
  facet normal 0.896866 -0.442302 0
    outer loop
       vertex 0.00951076 -0.125 0
       vertex 0.0239748 -0.095671 0
       vertex 0.0239748 -0.095671 0.1
    endloop
  endfacet
  facet normal 0.896866 -0.442302 0
    outer loop
       vertex 0.0239748 -0.095671 0.1
       vertex 0.00951076 -0.125 0.1
       vertex 0.00951076 -0.125 0
    endloop
  endfacet
  facet normal 0.946935 -0.321425 0
    outer loop
       vertex 0.0239748 -0.095671 0
       vertex 0.0344858 -0.064705 0
       vertex 0.0344858 -0.064705 0.1
    endloop
  endfacet
  facet normal 0.946935 -0.321425 0
    outer loop
       vertex 0.0344858 -0.064705 0.1
       vertex 0.0239748 -0.095671 0.1
       vertex 0.0239748 -0.095671 0
    endloop
  endfacet
  facet normal 0.980784 -0.195096 0
    outer loop
       vertex 0.0344858 -0.064705 0
       vertex 0.0408658 -0.0326315 0
       vertex 0.0408658 -0.0326315 0.1
    endloop
  endfacet
  facet normal 0.980784 -0.195096 0
    outer loop
       vertex 0.0408658 -0.0326315 0.1
       vertex 0.0344858 -0.064705 0.1
       vertex 0.0344858 -0.064705 0
    endloop
  endfacet
  facet normal 0.997858 -0.0654098 0
    outer loop
       vertex 0.0430048 -8.32665e-17 0.1
       vertex 0.0408658 -0.0326315 0.1
       vertex 0.0408658 -0.0326315 0
    endloop
  endfacet
  facet normal 0.997858 -0.0654098 -1.08928e-16
    outer loop
       vertex 0.0408658 -0.0326315 0
       vertex 0.0430048 8.32665e-17 0
       vertex 0.0430048 -8.32665e-17 0.1
    endloop
  endfacet
  facet normal 0.997858 0.0654098 0
    outer loop
       vertex 0.0430048 8.32665e-17 0
       vertex 0.0408658 0.0326315 0
       vertex 0.0408658 0.0326315 0.1
    endloop
  endfacet
  facet normal 0.997858 0.0654098 1.08928e-16
    outer loop
       vertex 0.0408658 0.0326315 0.1
       vertex 0.0430048 -8.32665e-17 0.1
       vertex 0.0430048 8.32665e-17 0
    endloop
  endfacet
  facet normal 0.980784 0.195096 0
    outer loop
       vertex 0.0408658 0.0326315 0
       vertex 0.0344858 0.064705 0
       vertex 0.0344858 0.064705 0.1
    endloop
  endfacet
  facet normal 0.980784 0.195096 0
    outer loop
       vertex 0.0344858 0.064705 0.1
       vertex 0.0408658 0.0326315 0.1
       vertex 0.0408658 0.0326315 0
    endloop
  endfacet
  facet normal 0.946935 0.321425 0
    outer loop
       vertex 0.0344858 0.064705 0
       vertex 0.0239748 0.095671 0
       vertex 0.0239748 0.095671 0.1
    endloop
  endfacet
  facet normal 0.946935 0.321425 0
    outer loop
       vertex 0.0239748 0.095671 0.1
       vertex 0.0344858 0.064705 0.1
       vertex 0.0344858 0.064705 0
    endloop
  endfacet
  facet normal 0.896866 0.442302 0
    outer loop
       vertex 0.0239748 0.095671 0
       vertex 0.00951076 0.125 0
       vertex 0.00951076 0.125 0.1
    endloop
  endfacet
  facet normal 0.896866 0.442302 0
    outer loop
       vertex 0.00951076 0.125 0.1
       vertex 0.0239748 0.095671 0.1
       vertex 0.0239748 0.095671 0
    endloop
  endfacet
  facet normal 0.831476 0.555561 0
    outer loop
       vertex 0.00951076 0.125 0
       vertex -0.00865724 0.152191 0
       vertex -0.00865724 0.152191 0.1
    endloop
  endfacet
  facet normal 0.831476 0.555561 0
    outer loop
       vertex -0.00865724 0.152191 0.1
       vertex 0.00951076 0.125 0.1
       vertex 0.00951076 0.125 0
    endloop
  endfacet
  facet normal 0.751817 0.659372 0
    outer loop
       vertex -0.00865724 0.152191 0
       vertex -0.0302192 0.176776 0
       vertex -0.0302192 0.176776 0.1
    endloop
  endfacet
  facet normal 0.751817 0.659372 0
    outer loop
       vertex -0.0302192 0.176776 0.1
       vertex -0.00865724 0.152191 0.1
       vertex -0.00865724 0.152191 0
    endloop
  endfacet
  facet normal 0.659372 0.751817 0
    outer loop
       vertex -0.0302192 0.176776 0
       vertex -0.0548042 0.198338 0
       vertex -0.0548042 0.198338 0.1
    endloop
  endfacet
  facet normal 0.659372 0.751817 0
    outer loop
       vertex -0.0548042 0.198338 0.1
       vertex -0.0302192 0.176776 0.1
       vertex -0.0302192 0.176776 0
    endloop
  endfacet
  facet normal 0.555561 0.831476 0
    outer loop
       vertex -0.0548042 0.198338 0
       vertex -0.0819952 0.216506 0
       vertex -0.0819952 0.216506 0.1
    endloop
  endfacet
  facet normal 0.555561 0.831476 0
    outer loop
       vertex -0.0819952 0.216506 0.1
       vertex -0.0548042 0.198338 0.1
       vertex -0.0548042 0.198338 0
    endloop
  endfacet
  facet normal 0.442302 0.896866 0
    outer loop
       vertex -0.0819952 0.216506 0
       vertex -0.111324 0.23097 0
       vertex -0.111324 0.23097 0.1
    endloop
  endfacet
  facet normal 0.442302 0.896866 0
    outer loop
       vertex -0.111324 0.23097 0.1
       vertex -0.0819952 0.216506 0.1
       vertex -0.0819952 0.216506 0
    endloop
  endfacet
  facet normal 0.321425 0.946935 0
    outer loop
       vertex -0.111324 0.23097 0
       vertex -0.14229 0.241481 0
       vertex -0.14229 0.241481 0.1
    endloop
  endfacet
  facet normal 0.321425 0.946935 0
    outer loop
       vertex -0.14229 0.241481 0.1
       vertex -0.111324 0.23097 0.1
       vertex -0.111324 0.23097 0
    endloop
  endfacet
  facet normal 0.195096 0.980784 0
    outer loop
       vertex -0.14229 0.241481 0
       vertex -0.174364 0.247861 0
       vertex -0.174364 0.247861 0.1
    endloop
  endfacet
  facet normal 0.195096 0.980784 0
    outer loop
       vertex -0.174364 0.247861 0.1
       vertex -0.14229 0.241481 0.1
       vertex -0.14229 0.241481 0
    endloop
  endfacet
  facet normal 0.0654098 0.997858 0
    outer loop
       vertex -0.206995 0.25 0.1
       vertex -0.174364 0.247861 0.1
       vertex -0.174364 0.247861 0
    endloop
  endfacet
  facet normal 0.0654098 0.997858 -1.0893e-16
    outer loop
       vertex -0.174364 0.247861 0
       vertex -0.206995 0.25 0
       vertex -0.206995 0.25 0.1
    endloop
  endfacet
  facet normal -0.0654098 0.997858 0
    outer loop
       vertex -0.206995 0.25 0
       vertex -0.239627 0.247861 0
       vertex -0.239627 0.247861 0.1
    endloop
  endfacet
  facet normal -0.0654098 0.997858 1.0893e-16
    outer loop
       vertex -0.239627 0.247861 0.1
       vertex -0.206995 0.25 0.1
       vertex -0.206995 0.25 0
    endloop
  endfacet
  facet normal -0.195096 0.980784 0
    outer loop
       vertex -0.239627 0.247861 0
       vertex -0.2717 0.241481 0
       vertex -0.2717 0.241481 0.1
    endloop
  endfacet
  facet normal -0.195096 0.980784 0
    outer loop
       vertex -0.2717 0.241481 0.1
       vertex -0.239627 0.247861 0.1
       vertex -0.239627 0.247861 0
    endloop
  endfacet
  facet normal -0.321425 0.946935 0
    outer loop
       vertex -0.2717 0.241481 0
       vertex -0.302666 0.23097 0
       vertex -0.302666 0.23097 0.1
    endloop
  endfacet
  facet normal -0.321425 0.946935 0
    outer loop
       vertex -0.302666 0.23097 0.1
       vertex -0.2717 0.241481 0.1
       vertex -0.2717 0.241481 0
    endloop
  endfacet
  facet normal -0.442302 0.896866 0
    outer loop
       vertex -0.302666 0.23097 0
       vertex -0.331995 0.216506 0
       vertex -0.331995 0.216506 0.1
    endloop
  endfacet
  facet normal -0.442302 0.896866 0
    outer loop
       vertex -0.331995 0.216506 0.1
       vertex -0.302666 0.23097 0.1
       vertex -0.302666 0.23097 0
    endloop
  endfacet
  facet normal -0.555561 0.831476 0
    outer loop
       vertex -0.331995 0.216506 0
       vertex -0.359186 0.198338 0
       vertex -0.359186 0.198338 0.1
    endloop
  endfacet
  facet normal -0.555561 0.831476 0
    outer loop
       vertex -0.359186 0.198338 0.1
       vertex -0.331995 0.216506 0.1
       vertex -0.331995 0.216506 0
    endloop
  endfacet
  facet normal -0.659372 0.751817 0
    outer loop
       vertex -0.359186 0.198338 0
       vertex -0.383771 0.176776 0
       vertex -0.383771 0.176776 0.1
    endloop
  endfacet
  facet normal -0.659372 0.751817 0
    outer loop
       vertex -0.383771 0.176776 0.1
       vertex -0.359186 0.198338 0.1
       vertex -0.359186 0.198338 0
    endloop
  endfacet
  facet normal -0.751817 0.659372 0
    outer loop
       vertex -0.383771 0.176776 0
       vertex -0.405333 0.152191 0
       vertex -0.405333 0.152191 0.1
    endloop
  endfacet
  facet normal -0.751817 0.659372 0
    outer loop
       vertex -0.405333 0.152191 0.1
       vertex -0.383771 0.176776 0.1
       vertex -0.383771 0.176776 0
    endloop
  endfacet
  facet normal -0.831476 0.555561 0
    outer loop
       vertex -0.405333 0.152191 0
       vertex -0.423501 0.125 0
       vertex -0.423501 0.125 0.1
    endloop
  endfacet
  facet normal -0.831476 0.555561 0
    outer loop
       vertex -0.423501 0.125 0.1
       vertex -0.405333 0.152191 0.1
       vertex -0.405333 0.152191 0
    endloop
  endfacet
  facet normal -0.896866 0.442302 0
    outer loop
       vertex -0.423501 0.125 0
       vertex -0.437965 0.095671 0
       vertex -0.437965 0.095671 0.1
    endloop
  endfacet
  facet normal -0.896866 0.442302 0
    outer loop
       vertex -0.437965 0.095671 0.1
       vertex -0.423501 0.125 0.1
       vertex -0.423501 0.125 0
    endloop
  endfacet
  facet normal -0.946935 0.321425 0
    outer loop
       vertex -0.437965 0.095671 0
       vertex -0.448476 0.064705 0
       vertex -0.448476 0.064705 0.1
    endloop
  endfacet
  facet normal -0.946935 0.321425 0
    outer loop
       vertex -0.448476 0.064705 0.1
       vertex -0.437965 0.095671 0.1
       vertex -0.437965 0.095671 0
    endloop
  endfacet
  facet normal -0.980784 0.195096 0
    outer loop
       vertex -0.448476 0.064705 0
       vertex -0.454856 0.0326315 0
       vertex -0.454856 0.0326315 0.1
    endloop
  endfacet
  facet normal -0.980784 0.195096 0
    outer loop
       vertex -0.454856 0.0326315 0.1
       vertex -0.448476 0.064705 0.1
       vertex -0.448476 0.064705 0
    endloop
  endfacet
  facet normal -0.997858 0.0654098 0
    outer loop
       vertex -0.456995 8.32665e-17 0.1
       vertex -0.454856 0.0326315 0.1
       vertex -0.454856 0.0326315 0
    endloop
  endfacet
  facet normal -0.997858 0.0654098 -1.08928e-16
    outer loop
       vertex -0.454856 0.0326315 0
       vertex -0.456995 -8.32665e-17 0
       vertex -0.456995 8.32665e-17 0.1
    endloop
  endfacet
  facet normal -0.997858 -0.0654098 0
    outer loop
       vertex -0.456995 -8.32665e-17 0
       vertex -0.454856 -0.0326315 0
       vertex -0.454856 -0.0326315 0.1
    endloop
  endfacet
  facet normal -0.997858 -0.0654098 1.08928e-16
    outer loop
       vertex -0.454856 -0.0326315 0.1
       vertex -0.456995 8.32665e-17 0.1
       vertex -0.456995 -8.32665e-17 0
    endloop
  endfacet
  facet normal -0.980784 -0.195096 0
    outer loop
       vertex -0.454856 -0.0326315 0
       vertex -0.448476 -0.064705 0
       vertex -0.448476 -0.064705 0.1
    endloop
  endfacet
  facet normal -0.980784 -0.195096 0
    outer loop
       vertex -0.448476 -0.064705 0.1
       vertex -0.454856 -0.0326315 0.1
       vertex -0.454856 -0.0326315 0
    endloop
  endfacet
  facet normal -0.946935 -0.321425 0
    outer loop
       vertex -0.448476 -0.064705 0
       vertex -0.437965 -0.095671 0
       vertex -0.437965 -0.095671 0.1
    endloop
  endfacet
  facet normal -0.946935 -0.321425 0
    outer loop
       vertex -0.437965 -0.095671 0.1
       vertex -0.448476 -0.064705 0.1
       vertex -0.448476 -0.064705 0
    endloop
  endfacet
  facet normal -0.896866 -0.442302 0
    outer loop
       vertex -0.437965 -0.095671 0
       vertex -0.423501 -0.125 0
       vertex -0.423501 -0.125 0.1
    endloop
  endfacet
  facet normal -0.896866 -0.442302 0
    outer loop
       vertex -0.423501 -0.125 0.1
       vertex -0.437965 -0.095671 0.1
       vertex -0.437965 -0.095671 0
    endloop
  endfacet
  facet normal -0.831476 -0.555561 0
    outer loop
       vertex -0.423501 -0.125 0
       vertex -0.405333 -0.152191 0
       vertex -0.405333 -0.152191 0.1
    endloop
  endfacet
  facet normal -0.831476 -0.555561 0
    outer loop
       vertex -0.405333 -0.152191 0.1
       vertex -0.423501 -0.125 0.1
       vertex -0.423501 -0.125 0
    endloop
  endfacet
  facet normal -0.751817 -0.659372 0
    outer loop
       vertex -0.405333 -0.152191 0
       vertex -0.383771 -0.176776 0
       vertex -0.383771 -0.176776 0.1
    endloop
  endfacet
  facet normal -0.751817 -0.659372 0
    outer loop
       vertex -0.383771 -0.176776 0.1
       vertex -0.405333 -0.152191 0.1
       vertex -0.405333 -0.152191 0
    endloop
  endfacet
  facet normal 0.659372 -0.751817 0
    outer loop
       vertex -0.0302192 -0.176776 0
       vertex -0.0302192 -0.176776 0.1
       vertex -0.0548042 -0.198338 0.1
    endloop
  endfacet
  facet normal 0.659372 -0.751817 0
    outer loop
       vertex -0.0548042 -0.198338 0.1
       vertex -0.0548042 -0.198338 0
       vertex -0.0302192 -0.176776 0
    endloop
  endfacet
  facet normal 0.555561 -0.831476 0
    outer loop
       vertex -0.0548042 -0.198338 0
       vertex -0.0548042 -0.198338 0.1
       vertex -0.0819952 -0.216506 0.1
    endloop
  endfacet
  facet normal 0.555561 -0.831476 0
    outer loop
       vertex -0.0819952 -0.216506 0.1
       vertex -0.0819952 -0.216506 0
       vertex -0.0548042 -0.198338 0
    endloop
  endfacet
  facet normal 0.442302 -0.896866 0
    outer loop
       vertex -0.0819952 -0.216506 0
       vertex -0.0819952 -0.216506 0.1
       vertex -0.111324 -0.23097 0.1
    endloop
  endfacet
  facet normal 0.442302 -0.896866 0
    outer loop
       vertex -0.111324 -0.23097 0.1
       vertex -0.111324 -0.23097 0
       vertex -0.0819952 -0.216506 0
    endloop
  endfacet
  facet normal 0.321425 -0.946935 0
    outer loop
       vertex -0.111324 -0.23097 0
       vertex -0.111324 -0.23097 0.1
       vertex -0.14229 -0.241481 0.1
    endloop
  endfacet
  facet normal 0.321425 -0.946935 0
    outer loop
       vertex -0.14229 -0.241481 0.1
       vertex -0.14229 -0.241481 0
       vertex -0.111324 -0.23097 0
    endloop
  endfacet
  facet normal 0.195096 -0.980784 0
    outer loop
       vertex -0.14229 -0.241481 0
       vertex -0.14229 -0.241481 0.1
       vertex -0.174364 -0.247861 0.1
    endloop
  endfacet
  facet normal 0.195096 -0.980784 0
    outer loop
       vertex -0.174364 -0.247861 0.1
       vertex -0.174364 -0.247861 0
       vertex -0.14229 -0.241481 0
    endloop
  endfacet
  facet normal 0.0654098 -0.997858 0
    outer loop
       vertex -0.206995 -0.25 0
       vertex -0.174364 -0.247861 0
       vertex -0.174364 -0.247861 0.1
    endloop
  endfacet
  facet normal 0.0654098 -0.997858 1.0893e-16
    outer loop
       vertex -0.174364 -0.247861 0.1
       vertex -0.206995 -0.25 0.1
       vertex -0.206995 -0.25 0
    endloop
  endfacet
  facet normal -0.0654098 -0.997858 0
    outer loop
       vertex -0.206995 -0.25 0.1
       vertex -0.239627 -0.247861 0.1
       vertex -0.239627 -0.247861 0
    endloop
  endfacet
  facet normal -0.0654098 -0.997858 -1.0893e-16
    outer loop
       vertex -0.239627 -0.247861 0
       vertex -0.206995 -0.25 0
       vertex -0.206995 -0.25 0.1
    endloop
  endfacet
  facet normal -0.195096 -0.980784 0
    outer loop
       vertex -0.239627 -0.247861 0
       vertex -0.239627 -0.247861 0.1
       vertex -0.2717 -0.241481 0.1
    endloop
  endfacet
  facet normal -0.195096 -0.980784 -0
    outer loop
       vertex -0.2717 -0.241481 0.1
       vertex -0.2717 -0.241481 0
       vertex -0.239627 -0.247861 0
    endloop
  endfacet
  facet normal -0.321425 -0.946935 0
    outer loop
       vertex -0.2717 -0.241481 0
       vertex -0.2717 -0.241481 0.1
       vertex -0.302666 -0.23097 0.1
    endloop
  endfacet
  facet normal -0.321425 -0.946935 -0
    outer loop
       vertex -0.302666 -0.23097 0.1
       vertex -0.302666 -0.23097 0
       vertex -0.2717 -0.241481 0
    endloop
  endfacet
  facet normal -0.442302 -0.896866 0
    outer loop
       vertex -0.302666 -0.23097 0
       vertex -0.302666 -0.23097 0.1
       vertex -0.331995 -0.216506 0.1
    endloop
  endfacet
  facet normal -0.442302 -0.896866 -0
    outer loop
       vertex -0.331995 -0.216506 0.1
       vertex -0.331995 -0.216506 0
       vertex -0.302666 -0.23097 0
    endloop
  endfacet
  facet normal -0.555561 -0.831476 0
    outer loop
       vertex -0.331995 -0.216506 0
       vertex -0.331995 -0.216506 0.1
       vertex -0.359186 -0.198338 0.1
    endloop
  endfacet
  facet normal -0.555561 -0.831476 -0
    outer loop
       vertex -0.359186 -0.198338 0.1
       vertex -0.359186 -0.198338 0
       vertex -0.331995 -0.216506 0
    endloop
  endfacet
  facet normal -0.659372 -0.751817 0
    outer loop
       vertex -0.359186 -0.198338 0
       vertex -0.359186 -0.198338 0.1
       vertex -0.383771 -0.176776 0.1
    endloop
  endfacet
  facet normal -0.659372 -0.751817 -0
    outer loop
       vertex -0.383771 -0.176776 0.1
       vertex -0.383771 -0.176776 0
       vertex -0.359186 -0.198338 0
    endloop
  endfacet
endsolid cylinder
