solid cylinder
  facet normal 0.751817 -0.659372 0
    outer loop
       vertex 0.0994962 -0.176776 0
       vertex 0.121058 -0.152191 0
       vertex 0.121058 -0.152191 0.1
    endloop
  endfacet
  facet normal 0.751817 -0.659372 0
    outer loop
       vertex 0.121058 -0.152191 0.1
       vertex 0.0994962 -0.176776 0.1
       vertex 0.0994962 -0.176776 0
    endloop
  endfacet
  facet normal 0.831476 -0.555561 0
    outer loop
       vertex 0.121058 -0.152191 0
       vertex 0.139226 -0.125 0
       vertex 0.139226 -0.125 0.1
    endloop
  endfacet
  facet normal 0.831476 -0.555561 0
    outer loop
       vertex 0.139226 -0.125 0.1
       vertex 0.121058 -0.152191 0.1
       vertex 0.121058 -0.152191 0
    endloop
  endfacet
  facet normal 0.896866 -0.442302 0
    outer loop
       vertex 0.139226 -0.125 0
       vertex 0.15369 -0.095671 0
       vertex 0.15369 -0.095671 0.1
    endloop
  endfacet
  facet normal 0.896866 -0.442302 0
    outer loop
       vertex 0.15369 -0.095671 0.1
       vertex 0.139226 -0.125 0.1
       vertex 0.139226 -0.125 0
    endloop
  endfacet
  facet normal 0.946935 -0.321425 0
    outer loop
       vertex 0.15369 -0.095671 0
       vertex 0.164201 -0.064705 0
       vertex 0.164201 -0.064705 0.1
    endloop
  endfacet
  facet normal 0.946935 -0.321425 0
    outer loop
       vertex 0.164201 -0.064705 0.1
       vertex 0.15369 -0.095671 0.1
       vertex 0.15369 -0.095671 0
    endloop
  endfacet
  facet normal 0.980784 -0.195096 0
    outer loop
       vertex 0.164201 -0.064705 0
       vertex 0.170581 -0.0326315 0
       vertex 0.170581 -0.0326315 0.1
    endloop
  endfacet
  facet normal 0.980784 -0.195096 0
    outer loop
       vertex 0.170581 -0.0326315 0.1
       vertex 0.164201 -0.064705 0.1
       vertex 0.164201 -0.064705 0
    endloop
  endfacet
  facet normal 0.997858 -0.0654098 0
    outer loop
       vertex 0.17272 -8.32665e-17 0.1
       vertex 0.170581 -0.0326315 0.1
       vertex 0.170581 -0.0326315 0
    endloop
  endfacet
  facet normal 0.997858 -0.0654098 -1.08928e-16
    outer loop
       vertex 0.170581 -0.0326315 0
       vertex 0.17272 8.32665e-17 0
       vertex 0.17272 -8.32665e-17 0.1
    endloop
  endfacet
  facet normal 0.997858 0.0654098 0
    outer loop
       vertex 0.17272 8.32665e-17 0
       vertex 0.170581 0.0326315 0
       vertex 0.170581 0.0326315 0.1
    endloop
  endfacet
  facet normal 0.997858 0.0654098 1.08928e-16
    outer loop
       vertex 0.170581 0.0326315 0.1
       vertex 0.17272 -8.32665e-17 0.1
       vertex 0.17272 8.32665e-17 0
    endloop
  endfacet
  facet normal 0.980784 0.195096 0
    outer loop
       vertex 0.170581 0.0326315 0
       vertex 0.164201 0.064705 0
       vertex 0.164201 0.064705 0.1
    endloop
  endfacet
  facet normal 0.980784 0.195096 0
    outer loop
       vertex 0.164201 0.064705 0.1
       vertex 0.170581 0.0326315 0.1
       vertex 0.170581 0.0326315 0
    endloop
  endfacet
  facet normal 0.946935 0.321425 0
    outer loop
       vertex 0.164201 0.064705 0
       vertex 0.15369 0.095671 0
       vertex 0.15369 0.095671 0.1
    endloop
  endfacet
  facet normal 0.946935 0.321425 0
    outer loop
       vertex 0.15369 0.095671 0.1
       vertex 0.164201 0.064705 0.1
       vertex 0.164201 0.064705 0
    endloop
  endfacet
  facet normal 0.896866 0.442302 0
    outer loop
       vertex 0.15369 0.095671 0
       vertex 0.139226 0.125 0
       vertex 0.139226 0.125 0.1
    endloop
  endfacet
  facet normal 0.896866 0.442302 0
    outer loop
       vertex 0.139226 0.125 0.1
       vertex 0.15369 0.095671 0.1
       vertex 0.15369 0.095671 0
    endloop
  endfacet
  facet normal 0.831476 0.555561 0
    outer loop
       vertex 0.139226 0.125 0
       vertex 0.121058 0.152191 0
       vertex 0.121058 0.152191 0.1
    endloop
  endfacet
  facet normal 0.831476 0.555561 0
    outer loop
       vertex 0.121058 0.152191 0.1
       vertex 0.139226 0.125 0.1
       vertex 0.139226 0.125 0
    endloop
  endfacet
  facet normal 0.751817 0.659372 0
    outer loop
       vertex 0.121058 0.152191 0
       vertex 0.0994962 0.176776 0
       vertex 0.0994962 0.176776 0.1
    endloop
  endfacet
  facet normal 0.751817 0.659372 0
    outer loop
       vertex 0.0994962 0.176776 0.1
       vertex 0.121058 0.152191 0.1
       vertex 0.121058 0.152191 0
    endloop
  endfacet
  facet normal 0.659372 0.751817 0
    outer loop
       vertex 0.0994962 0.176776 0
       vertex 0.0749112 0.198338 0
       vertex 0.0749112 0.198338 0.1
    endloop
  endfacet
  facet normal 0.659372 0.751817 0
    outer loop
       vertex 0.0749112 0.198338 0.1
       vertex 0.0994962 0.176776 0.1
       vertex 0.0994962 0.176776 0
    endloop
  endfacet
  facet normal 0.555561 0.831476 0
    outer loop
       vertex 0.0749112 0.198338 0
       vertex 0.0477202 0.216506 0
       vertex 0.0477202 0.216506 0.1
    endloop
  endfacet
  facet normal 0.555561 0.831476 0
    outer loop
       vertex 0.0477202 0.216506 0.1
       vertex 0.0749112 0.198338 0.1
       vertex 0.0749112 0.198338 0
    endloop
  endfacet
  facet normal 0.442302 0.896866 0
    outer loop
       vertex 0.0477202 0.216506 0
       vertex 0.0183912 0.23097 0
       vertex 0.0183912 0.23097 0.1
    endloop
  endfacet
  facet normal 0.442302 0.896866 0
    outer loop
       vertex 0.0183912 0.23097 0.1
       vertex 0.0477202 0.216506 0.1
       vertex 0.0477202 0.216506 0
    endloop
  endfacet
  facet normal 0.321425 0.946935 0
    outer loop
       vertex 0.0183912 0.23097 0
       vertex -0.0125748 0.241481 0
       vertex -0.0125748 0.241481 0.1
    endloop
  endfacet
  facet normal 0.321425 0.946935 0
    outer loop
       vertex -0.0125748 0.241481 0.1
       vertex 0.0183912 0.23097 0.1
       vertex 0.0183912 0.23097 0
    endloop
  endfacet
  facet normal 0.195096 0.980784 0
    outer loop
       vertex -0.0125748 0.241481 0
       vertex -0.0446483 0.247861 0
       vertex -0.0446483 0.247861 0.1
    endloop
  endfacet
  facet normal 0.195096 0.980784 0
    outer loop
       vertex -0.0446483 0.247861 0.1
       vertex -0.0125748 0.241481 0.1
       vertex -0.0125748 0.241481 0
    endloop
  endfacet
  facet normal 0.0654098 0.997858 0
    outer loop
       vertex -0.0772798 0.25 0.1
       vertex -0.0446483 0.247861 0.1
       vertex -0.0446483 0.247861 0
    endloop
  endfacet
  facet normal 0.0654098 0.997858 -1.08928e-16
    outer loop
       vertex -0.0446483 0.247861 0
       vertex -0.0772798 0.25 0
       vertex -0.0772798 0.25 0.1
    endloop
  endfacet
  facet normal -0.0654098 0.997858 0
    outer loop
       vertex -0.0772798 0.25 0
       vertex -0.109911 0.247861 0
       vertex -0.109911 0.247861 0.1
    endloop
  endfacet
  facet normal -0.0654098 0.997858 1.08928e-16
    outer loop
       vertex -0.109911 0.247861 0.1
       vertex -0.0772798 0.25 0.1
       vertex -0.0772798 0.25 0
    endloop
  endfacet
  facet normal -0.195096 0.980784 0
    outer loop
       vertex -0.109911 0.247861 0
       vertex -0.141985 0.241481 0
       vertex -0.141985 0.241481 0.1
    endloop
  endfacet
  facet normal -0.195096 0.980784 0
    outer loop
       vertex -0.141985 0.241481 0.1
       vertex -0.109911 0.247861 0.1
       vertex -0.109911 0.247861 0
    endloop
  endfacet
  facet normal -0.321425 0.946935 0
    outer loop
       vertex -0.141985 0.241481 0
       vertex -0.172951 0.23097 0
       vertex -0.172951 0.23097 0.1
    endloop
  endfacet
  facet normal -0.321425 0.946935 0
    outer loop
       vertex -0.172951 0.23097 0.1
       vertex -0.141985 0.241481 0.1
       vertex -0.141985 0.241481 0
    endloop
  endfacet
  facet normal -0.442302 0.896866 0
    outer loop
       vertex -0.172951 0.23097 0
       vertex -0.20228 0.216506 0
       vertex -0.20228 0.216506 0.1
    endloop
  endfacet
  facet normal -0.442302 0.896866 0
    outer loop
       vertex -0.20228 0.216506 0.1
       vertex -0.172951 0.23097 0.1
       vertex -0.172951 0.23097 0
    endloop
  endfacet
  facet normal -0.555561 0.831476 0
    outer loop
       vertex -0.20228 0.216506 0
       vertex -0.229471 0.198338 0
       vertex -0.229471 0.198338 0.1
    endloop
  endfacet
  facet normal -0.555561 0.831476 0
    outer loop
       vertex -0.229471 0.198338 0.1
       vertex -0.20228 0.216506 0.1
       vertex -0.20228 0.216506 0
    endloop
  endfacet
  facet normal -0.659372 0.751817 0
    outer loop
       vertex -0.229471 0.198338 0
       vertex -0.254056 0.176776 0
       vertex -0.254056 0.176776 0.1
    endloop
  endfacet
  facet normal -0.659372 0.751817 0
    outer loop
       vertex -0.254056 0.176776 0.1
       vertex -0.229471 0.198338 0.1
       vertex -0.229471 0.198338 0
    endloop
  endfacet
  facet normal -0.751817 0.659372 0
    outer loop
       vertex -0.254056 0.176776 0
       vertex -0.275618 0.152191 0
       vertex -0.275618 0.152191 0.1
    endloop
  endfacet
  facet normal -0.751817 0.659372 0
    outer loop
       vertex -0.275618 0.152191 0.1
       vertex -0.254056 0.176776 0.1
       vertex -0.254056 0.176776 0
    endloop
  endfacet
  facet normal -0.831476 0.555561 0
    outer loop
       vertex -0.275618 0.152191 0
       vertex -0.293786 0.125 0
       vertex -0.293786 0.125 0.1
    endloop
  endfacet
  facet normal -0.831476 0.555561 0
    outer loop
       vertex -0.293786 0.125 0.1
       vertex -0.275618 0.152191 0.1
       vertex -0.275618 0.152191 0
    endloop
  endfacet
  facet normal -0.896866 0.442302 0
    outer loop
       vertex -0.293786 0.125 0
       vertex -0.30825 0.095671 0
       vertex -0.30825 0.095671 0.1
    endloop
  endfacet
  facet normal -0.896866 0.442302 0
    outer loop
       vertex -0.30825 0.095671 0.1
       vertex -0.293786 0.125 0.1
       vertex -0.293786 0.125 0
    endloop
  endfacet
  facet normal -0.946935 0.321425 0
    outer loop
       vertex -0.30825 0.095671 0
       vertex -0.318761 0.064705 0
       vertex -0.318761 0.064705 0.1
    endloop
  endfacet
  facet normal -0.946935 0.321425 0
    outer loop
       vertex -0.318761 0.064705 0.1
       vertex -0.30825 0.095671 0.1
       vertex -0.30825 0.095671 0
    endloop
  endfacet
  facet normal -0.980784 0.195096 0
    outer loop
       vertex -0.318761 0.064705 0
       vertex -0.325141 0.0326315 0
       vertex -0.325141 0.0326315 0.1
    endloop
  endfacet
  facet normal -0.980784 0.195096 0
    outer loop
       vertex -0.325141 0.0326315 0.1
       vertex -0.318761 0.064705 0.1
       vertex -0.318761 0.064705 0
    endloop
  endfacet
  facet normal -0.997858 0.0654098 0
    outer loop
       vertex -0.32728 8.32665e-17 0.1
       vertex -0.325141 0.0326315 0.1
       vertex -0.325141 0.0326315 0
    endloop
  endfacet
  facet normal -0.997858 0.0654098 -1.08928e-16
    outer loop
       vertex -0.325141 0.0326315 0
       vertex -0.32728 -8.32665e-17 0
       vertex -0.32728 8.32665e-17 0.1
    endloop
  endfacet
  facet normal -0.997858 -0.0654098 0
    outer loop
       vertex -0.32728 -8.32665e-17 0
       vertex -0.325141 -0.0326315 0
       vertex -0.325141 -0.0326315 0.1
    endloop
  endfacet
  facet normal -0.997858 -0.0654098 1.08928e-16
    outer loop
       vertex -0.325141 -0.0326315 0.1
       vertex -0.32728 8.32665e-17 0.1
       vertex -0.32728 -8.32665e-17 0
    endloop
  endfacet
  facet normal -0.980784 -0.195096 0
    outer loop
       vertex -0.325141 -0.0326315 0
       vertex -0.318761 -0.064705 0
       vertex -0.318761 -0.064705 0.1
    endloop
  endfacet
  facet normal -0.980784 -0.195096 0
    outer loop
       vertex -0.318761 -0.064705 0.1
       vertex -0.325141 -0.0326315 0.1
       vertex -0.325141 -0.0326315 0
    endloop
  endfacet
  facet normal -0.946935 -0.321425 0
    outer loop
       vertex -0.318761 -0.064705 0
       vertex -0.30825 -0.095671 0
       vertex -0.30825 -0.095671 0.1
    endloop
  endfacet
  facet normal -0.946935 -0.321425 0
    outer loop
       vertex -0.30825 -0.095671 0.1
       vertex -0.318761 -0.064705 0.1
       vertex -0.318761 -0.064705 0
    endloop
  endfacet
  facet normal -0.896866 -0.442302 0
    outer loop
       vertex -0.30825 -0.095671 0
       vertex -0.293786 -0.125 0
       vertex -0.293786 -0.125 0.1
    endloop
  endfacet
  facet normal -0.896866 -0.442302 0
    outer loop
       vertex -0.293786 -0.125 0.1
       vertex -0.30825 -0.095671 0.1
       vertex -0.30825 -0.095671 0
    endloop
  endfacet
  facet normal -0.831476 -0.555561 0
    outer loop
       vertex -0.293786 -0.125 0
       vertex -0.275618 -0.152191 0
       vertex -0.275618 -0.152191 0.1
    endloop
  endfacet
  facet normal -0.831476 -0.555561 0
    outer loop
       vertex -0.275618 -0.152191 0.1
       vertex -0.293786 -0.125 0.1
       vertex -0.293786 -0.125 0
    endloop
  endfacet
  facet normal -0.751817 -0.659372 0
    outer loop
       vertex -0.275618 -0.152191 0
       vertex -0.254056 -0.176776 0
       vertex -0.254056 -0.176776 0.1
    endloop
  endfacet
  facet normal -0.751817 -0.659372 0
    outer loop
       vertex -0.254056 -0.176776 0.1
       vertex -0.275618 -0.152191 0.1
       vertex -0.275618 -0.152191 0
    endloop
  endfacet
  facet normal 0.659372 -0.751817 0
    outer loop
       vertex 0.0994962 -0.176776 0
       vertex 0.0994962 -0.176776 0.1
       vertex 0.0749112 -0.198338 0.1
    endloop
  endfacet
  facet normal 0.659372 -0.751817 0
    outer loop
       vertex 0.0749112 -0.198338 0.1
       vertex 0.0749112 -0.198338 0
       vertex 0.0994962 -0.176776 0
    endloop
  endfacet
  facet normal 0.555561 -0.831476 0
    outer loop
       vertex 0.0749112 -0.198338 0
       vertex 0.0749112 -0.198338 0.1
       vertex 0.0477202 -0.216506 0.1
    endloop
  endfacet
  facet normal 0.555561 -0.831476 0
    outer loop
       vertex 0.0477202 -0.216506 0.1
       vertex 0.0477202 -0.216506 0
       vertex 0.0749112 -0.198338 0
    endloop
  endfacet
  facet normal 0.442302 -0.896866 0
    outer loop
       vertex 0.0477202 -0.216506 0
       vertex 0.0477202 -0.216506 0.1
       vertex 0.0183912 -0.23097 0.1
    endloop
  endfacet
  facet normal 0.442302 -0.896866 0
    outer loop
       vertex 0.0183912 -0.23097 0.1
       vertex 0.0183912 -0.23097 0
       vertex 0.0477202 -0.216506 0
    endloop
  endfacet
  facet normal 0.321425 -0.946935 0
    outer loop
       vertex 0.0183912 -0.23097 0
       vertex 0.0183912 -0.23097 0.1
       vertex -0.0125748 -0.241481 0.1
    endloop
  endfacet
  facet normal 0.321425 -0.946935 0
    outer loop
       vertex -0.0125748 -0.241481 0.1
       vertex -0.0125748 -0.241481 0
       vertex 0.0183912 -0.23097 0
    endloop
  endfacet
  facet normal 0.195096 -0.980784 0
    outer loop
       vertex -0.0125748 -0.241481 0
       vertex -0.0125748 -0.241481 0.1
       vertex -0.0446483 -0.247861 0.1
    endloop
  endfacet
  facet normal 0.195096 -0.980784 0
    outer loop
       vertex -0.0446483 -0.247861 0.1
       vertex -0.0446483 -0.247861 0
       vertex -0.0125748 -0.241481 0
    endloop
  endfacet
  facet normal 0.0654098 -0.997858 0
    outer loop
       vertex -0.0772798 -0.25 0
       vertex -0.0446483 -0.247861 0
       vertex -0.0446483 -0.247861 0.1
    endloop
  endfacet
  facet normal 0.0654098 -0.997858 1.08928e-16
    outer loop
       vertex -0.0446483 -0.247861 0.1
       vertex -0.0772798 -0.25 0.1
       vertex -0.0772798 -0.25 0
    endloop
  endfacet
  facet normal -0.0654098 -0.997858 0
    outer loop
       vertex -0.0772798 -0.25 0.1
       vertex -0.109911 -0.247861 0.1
       vertex -0.109911 -0.247861 0
    endloop
  endfacet
  facet normal -0.0654098 -0.997858 -1.08928e-16
    outer loop
       vertex -0.109911 -0.247861 0
       vertex -0.0772798 -0.25 0
       vertex -0.0772798 -0.25 0.1
    endloop
  endfacet
  facet normal -0.195096 -0.980784 0
    outer loop
       vertex -0.109911 -0.247861 0
       vertex -0.109911 -0.247861 0.1
       vertex -0.141985 -0.241481 0.1
    endloop
  endfacet
  facet normal -0.195096 -0.980784 -0
    outer loop
       vertex -0.141985 -0.241481 0.1
       vertex -0.141985 -0.241481 0
       vertex -0.109911 -0.247861 0
    endloop
  endfacet
  facet normal -0.321425 -0.946935 0
    outer loop
       vertex -0.141985 -0.241481 0
       vertex -0.141985 -0.241481 0.1
       vertex -0.172951 -0.23097 0.1
    endloop
  endfacet
  facet normal -0.321425 -0.946935 -0
    outer loop
       vertex -0.172951 -0.23097 0.1
       vertex -0.172951 -0.23097 0
       vertex -0.141985 -0.241481 0
    endloop
  endfacet
  facet normal -0.442302 -0.896866 0
    outer loop
       vertex -0.172951 -0.23097 0
       vertex -0.172951 -0.23097 0.1
       vertex -0.20228 -0.216506 0.1
    endloop
  endfacet
  facet normal -0.442302 -0.896866 -0
    outer loop
       vertex -0.20228 -0.216506 0.1
       vertex -0.20228 -0.216506 0
       vertex -0.172951 -0.23097 0
    endloop
  endfacet
  facet normal -0.555561 -0.831476 0
    outer loop
       vertex -0.20228 -0.216506 0
       vertex -0.20228 -0.216506 0.1
       vertex -0.229471 -0.198338 0.1
    endloop
  endfacet
  facet normal -0.555561 -0.831476 -0
    outer loop
       vertex -0.229471 -0.198338 0.1
       vertex -0.229471 -0.198338 0
       vertex -0.20228 -0.216506 0
    endloop
  endfacet
  facet normal -0.659372 -0.751817 0
    outer loop
       vertex -0.229471 -0.198338 0
       vertex -0.229471 -0.198338 0.1
       vertex -0.254056 -0.176776 0.1
    endloop
  endfacet
  facet normal -0.659372 -0.751817 -0
    outer loop
       vertex -0.254056 -0.176776 0.1
       vertex -0.254056 -0.176776 0
       vertex -0.229471 -0.198338 0
    endloop
  endfacet
endsolid cylinder
