solid cylinder
  facet normal 0.751817 -0.659372 0
    outer loop
       vertex 0.118437 -0.176776 0
       vertex 0.139999 -0.152191 0
       vertex 0.139999 -0.152191 0.1
    endloop
  endfacet
  facet normal 0.751817 -0.659372 0
    outer loop
       vertex 0.139999 -0.152191 0.1
       vertex 0.118437 -0.176776 0.1
       vertex 0.118437 -0.176776 0
    endloop
  endfacet
  facet normal 0.831476 -0.555561 0
    outer loop
       vertex 0.139999 -0.152191 0
       vertex 0.158167 -0.125 0
       vertex 0.158167 -0.125 0.1
    endloop
  endfacet
  facet normal 0.831476 -0.555561 0
    outer loop
       vertex 0.158167 -0.125 0.1
       vertex 0.139999 -0.152191 0.1
       vertex 0.139999 -0.152191 0
    endloop
  endfacet
  facet normal 0.896866 -0.442302 0
    outer loop
       vertex 0.158167 -0.125 0
       vertex 0.172631 -0.095671 0
       vertex 0.172631 -0.095671 0.1
    endloop
  endfacet
  facet normal 0.896866 -0.442302 0
    outer loop
       vertex 0.172631 -0.095671 0.1
       vertex 0.158167 -0.125 0.1
       vertex 0.158167 -0.125 0
    endloop
  endfacet
  facet normal 0.946935 -0.321425 0
    outer loop
       vertex 0.172631 -0.095671 0
       vertex 0.183142 -0.064705 0
       vertex 0.183142 -0.064705 0.1
    endloop
  endfacet
  facet normal 0.946935 -0.321425 0
    outer loop
       vertex 0.183142 -0.064705 0.1
       vertex 0.172631 -0.095671 0.1
       vertex 0.172631 -0.095671 0
    endloop
  endfacet
  facet normal 0.980784 -0.195096 0
    outer loop
       vertex 0.183142 -0.064705 0
       vertex 0.189522 -0.0326315 0
       vertex 0.189522 -0.0326315 0.1
    endloop
  endfacet
  facet normal 0.980784 -0.195096 0
    outer loop
       vertex 0.189522 -0.0326315 0.1
       vertex 0.183142 -0.064705 0.1
       vertex 0.183142 -0.064705 0
    endloop
  endfacet
  facet normal 0.997858 -0.0654098 0
    outer loop
       vertex 0.191661 -8.32665e-17 0.1
       vertex 0.189522 -0.0326315 0.1
       vertex 0.189522 -0.0326315 0
    endloop
  endfacet
  facet normal 0.997858 -0.0654098 -1.08928e-16
    outer loop
       vertex 0.189522 -0.0326315 0
       vertex 0.191661 8.32665e-17 0
       vertex 0.191661 -8.32665e-17 0.1
    endloop
  endfacet
  facet normal 0.997858 0.0654098 0
    outer loop
       vertex 0.191661 8.32665e-17 0
       vertex 0.189522 0.0326315 0
       vertex 0.189522 0.0326315 0.1
    endloop
  endfacet
  facet normal 0.997858 0.0654098 1.08928e-16
    outer loop
       vertex 0.189522 0.0326315 0.1
       vertex 0.191661 -8.32665e-17 0.1
       vertex 0.191661 8.32665e-17 0
    endloop
  endfacet
  facet normal 0.980784 0.195096 0
    outer loop
       vertex 0.189522 0.0326315 0
       vertex 0.183142 0.064705 0
       vertex 0.183142 0.064705 0.1
    endloop
  endfacet
  facet normal 0.980784 0.195096 0
    outer loop
       vertex 0.183142 0.064705 0.1
       vertex 0.189522 0.0326315 0.1
       vertex 0.189522 0.0326315 0
    endloop
  endfacet
  facet normal 0.946935 0.321425 0
    outer loop
       vertex 0.183142 0.064705 0
       vertex 0.172631 0.095671 0
       vertex 0.172631 0.095671 0.1
    endloop
  endfacet
  facet normal 0.946935 0.321425 0
    outer loop
       vertex 0.172631 0.095671 0.1
       vertex 0.183142 0.064705 0.1
       vertex 0.183142 0.064705 0
    endloop
  endfacet
  facet normal 0.896866 0.442302 0
    outer loop
       vertex 0.172631 0.095671 0
       vertex 0.158167 0.125 0
       vertex 0.158167 0.125 0.1
    endloop
  endfacet
  facet normal 0.896866 0.442302 0
    outer loop
       vertex 0.158167 0.125 0.1
       vertex 0.172631 0.095671 0.1
       vertex 0.172631 0.095671 0
    endloop
  endfacet
  facet normal 0.831476 0.555561 0
    outer loop
       vertex 0.158167 0.125 0
       vertex 0.139999 0.152191 0
       vertex 0.139999 0.152191 0.1
    endloop
  endfacet
  facet normal 0.831476 0.555561 0
    outer loop
       vertex 0.139999 0.152191 0.1
       vertex 0.158167 0.125 0.1
       vertex 0.158167 0.125 0
    endloop
  endfacet
  facet normal 0.751817 0.659372 0
    outer loop
       vertex 0.139999 0.152191 0
       vertex 0.118437 0.176776 0
       vertex 0.118437 0.176776 0.1
    endloop
  endfacet
  facet normal 0.751817 0.659372 0
    outer loop
       vertex 0.118437 0.176776 0.1
       vertex 0.139999 0.152191 0.1
       vertex 0.139999 0.152191 0
    endloop
  endfacet
  facet normal 0.659372 0.751817 0
    outer loop
       vertex 0.118437 0.176776 0
       vertex 0.0938517 0.198338 0
       vertex 0.0938517 0.198338 0.1
    endloop
  endfacet
  facet normal 0.659372 0.751817 0
    outer loop
       vertex 0.0938517 0.198338 0.1
       vertex 0.118437 0.176776 0.1
       vertex 0.118437 0.176776 0
    endloop
  endfacet
  facet normal 0.555561 0.831476 0
    outer loop
       vertex 0.0938517 0.198338 0
       vertex 0.0666607 0.216506 0
       vertex 0.0666607 0.216506 0.1
    endloop
  endfacet
  facet normal 0.555561 0.831476 0
    outer loop
       vertex 0.0666607 0.216506 0.1
       vertex 0.0938517 0.198338 0.1
       vertex 0.0938517 0.198338 0
    endloop
  endfacet
  facet normal 0.442302 0.896866 0
    outer loop
       vertex 0.0666607 0.216506 0
       vertex 0.0373317 0.23097 0
       vertex 0.0373317 0.23097 0.1
    endloop
  endfacet
  facet normal 0.442302 0.896866 0
    outer loop
       vertex 0.0373317 0.23097 0.1
       vertex 0.0666607 0.216506 0.1
       vertex 0.0666607 0.216506 0
    endloop
  endfacet
  facet normal 0.321425 0.946935 0
    outer loop
       vertex 0.0373317 0.23097 0
       vertex 0.00636569 0.241481 0
       vertex 0.00636569 0.241481 0.1
    endloop
  endfacet
  facet normal 0.321425 0.946935 0
    outer loop
       vertex 0.00636569 0.241481 0.1
       vertex 0.0373317 0.23097 0.1
       vertex 0.0373317 0.23097 0
    endloop
  endfacet
  facet normal 0.195096 0.980784 0
    outer loop
       vertex 0.00636569 0.241481 0
       vertex -0.0257078 0.247861 0
       vertex -0.0257078 0.247861 0.1
    endloop
  endfacet
  facet normal 0.195096 0.980784 0
    outer loop
       vertex -0.0257078 0.247861 0.1
       vertex 0.00636569 0.241481 0.1
       vertex 0.00636569 0.241481 0
    endloop
  endfacet
  facet normal 0.0654098 0.997858 0
    outer loop
       vertex -0.0583393 0.25 0.1
       vertex -0.0257078 0.247861 0.1
       vertex -0.0257078 0.247861 0
    endloop
  endfacet
  facet normal 0.0654098 0.997858 -1.08928e-16
    outer loop
       vertex -0.0257078 0.247861 0
       vertex -0.0583393 0.25 0
       vertex -0.0583393 0.25 0.1
    endloop
  endfacet
  facet normal -0.0654098 0.997858 0
    outer loop
       vertex -0.0583393 0.25 0
       vertex -0.0909708 0.247861 0
       vertex -0.0909708 0.247861 0.1
    endloop
  endfacet
  facet normal -0.0654098 0.997858 1.0893e-16
    outer loop
       vertex -0.0909708 0.247861 0.1
       vertex -0.0583393 0.25 0.1
       vertex -0.0583393 0.25 0
    endloop
  endfacet
  facet normal -0.195096 0.980784 0
    outer loop
       vertex -0.0909708 0.247861 0
       vertex -0.123044 0.241481 0
       vertex -0.123044 0.241481 0.1
    endloop
  endfacet
  facet normal -0.195096 0.980784 0
    outer loop
       vertex -0.123044 0.241481 0.1
       vertex -0.0909708 0.247861 0.1
       vertex -0.0909708 0.247861 0
    endloop
  endfacet
  facet normal -0.321425 0.946935 0
    outer loop
       vertex -0.123044 0.241481 0
       vertex -0.15401 0.23097 0
       vertex -0.15401 0.23097 0.1
    endloop
  endfacet
  facet normal -0.321425 0.946935 0
    outer loop
       vertex -0.15401 0.23097 0.1
       vertex -0.123044 0.241481 0.1
       vertex -0.123044 0.241481 0
    endloop
  endfacet
  facet normal -0.442302 0.896866 0
    outer loop
       vertex -0.15401 0.23097 0
       vertex -0.183339 0.216506 0
       vertex -0.183339 0.216506 0.1
    endloop
  endfacet
  facet normal -0.442302 0.896866 0
    outer loop
       vertex -0.183339 0.216506 0.1
       vertex -0.15401 0.23097 0.1
       vertex -0.15401 0.23097 0
    endloop
  endfacet
  facet normal -0.555561 0.831476 0
    outer loop
       vertex -0.183339 0.216506 0
       vertex -0.21053 0.198338 0
       vertex -0.21053 0.198338 0.1
    endloop
  endfacet
  facet normal -0.555561 0.831476 0
    outer loop
       vertex -0.21053 0.198338 0.1
       vertex -0.183339 0.216506 0.1
       vertex -0.183339 0.216506 0
    endloop
  endfacet
  facet normal -0.659372 0.751817 0
    outer loop
       vertex -0.21053 0.198338 0
       vertex -0.235115 0.176776 0
       vertex -0.235115 0.176776 0.1
    endloop
  endfacet
  facet normal -0.659372 0.751817 0
    outer loop
       vertex -0.235115 0.176776 0.1
       vertex -0.21053 0.198338 0.1
       vertex -0.21053 0.198338 0
    endloop
  endfacet
  facet normal -0.751817 0.659372 0
    outer loop
       vertex -0.235115 0.176776 0
       vertex -0.256677 0.152191 0
       vertex -0.256677 0.152191 0.1
    endloop
  endfacet
  facet normal -0.751817 0.659372 0
    outer loop
       vertex -0.256677 0.152191 0.1
       vertex -0.235115 0.176776 0.1
       vertex -0.235115 0.176776 0
    endloop
  endfacet
  facet normal -0.831476 0.555561 0
    outer loop
       vertex -0.256677 0.152191 0
       vertex -0.274845 0.125 0
       vertex -0.274845 0.125 0.1
    endloop
  endfacet
  facet normal -0.831476 0.555561 0
    outer loop
       vertex -0.274845 0.125 0.1
       vertex -0.256677 0.152191 0.1
       vertex -0.256677 0.152191 0
    endloop
  endfacet
  facet normal -0.896866 0.442302 0
    outer loop
       vertex -0.274845 0.125 0
       vertex -0.289309 0.095671 0
       vertex -0.289309 0.095671 0.1
    endloop
  endfacet
  facet normal -0.896866 0.442302 0
    outer loop
       vertex -0.289309 0.095671 0.1
       vertex -0.274845 0.125 0.1
       vertex -0.274845 0.125 0
    endloop
  endfacet
  facet normal -0.946935 0.321425 0
    outer loop
       vertex -0.289309 0.095671 0
       vertex -0.29982 0.064705 0
       vertex -0.29982 0.064705 0.1
    endloop
  endfacet
  facet normal -0.946935 0.321425 0
    outer loop
       vertex -0.29982 0.064705 0.1
       vertex -0.289309 0.095671 0.1
       vertex -0.289309 0.095671 0
    endloop
  endfacet
  facet normal -0.980784 0.195096 0
    outer loop
       vertex -0.29982 0.064705 0
       vertex -0.3062 0.0326315 0
       vertex -0.3062 0.0326315 0.1
    endloop
  endfacet
  facet normal -0.980784 0.195096 0
    outer loop
       vertex -0.3062 0.0326315 0.1
       vertex -0.29982 0.064705 0.1
       vertex -0.29982 0.064705 0
    endloop
  endfacet
  facet normal -0.997858 0.0654098 0
    outer loop
       vertex -0.308339 8.32665e-17 0.1
       vertex -0.3062 0.0326315 0.1
       vertex -0.3062 0.0326315 0
    endloop
  endfacet
  facet normal -0.997858 0.0654098 -1.08928e-16
    outer loop
       vertex -0.3062 0.0326315 0
       vertex -0.308339 -8.32665e-17 0
       vertex -0.308339 8.32665e-17 0.1
    endloop
  endfacet
  facet normal -0.997858 -0.0654098 0
    outer loop
       vertex -0.308339 -8.32665e-17 0
       vertex -0.3062 -0.0326315 0
       vertex -0.3062 -0.0326315 0.1
    endloop
  endfacet
  facet normal -0.997858 -0.0654098 1.08928e-16
    outer loop
       vertex -0.3062 -0.0326315 0.1
       vertex -0.308339 8.32665e-17 0.1
       vertex -0.308339 -8.32665e-17 0
    endloop
  endfacet
  facet normal -0.980784 -0.195096 0
    outer loop
       vertex -0.3062 -0.0326315 0
       vertex -0.29982 -0.064705 0
       vertex -0.29982 -0.064705 0.1
    endloop
  endfacet
  facet normal -0.980784 -0.195096 0
    outer loop
       vertex -0.29982 -0.064705 0.1
       vertex -0.3062 -0.0326315 0.1
       vertex -0.3062 -0.0326315 0
    endloop
  endfacet
  facet normal -0.946935 -0.321425 0
    outer loop
       vertex -0.29982 -0.064705 0
       vertex -0.289309 -0.095671 0
       vertex -0.289309 -0.095671 0.1
    endloop
  endfacet
  facet normal -0.946935 -0.321425 0
    outer loop
       vertex -0.289309 -0.095671 0.1
       vertex -0.29982 -0.064705 0.1
       vertex -0.29982 -0.064705 0
    endloop
  endfacet
  facet normal -0.896866 -0.442302 0
    outer loop
       vertex -0.289309 -0.095671 0
       vertex -0.274845 -0.125 0
       vertex -0.274845 -0.125 0.1
    endloop
  endfacet
  facet normal -0.896866 -0.442302 0
    outer loop
       vertex -0.274845 -0.125 0.1
       vertex -0.289309 -0.095671 0.1
       vertex -0.289309 -0.095671 0
    endloop
  endfacet
  facet normal -0.831476 -0.555561 0
    outer loop
       vertex -0.274845 -0.125 0
       vertex -0.256677 -0.152191 0
       vertex -0.256677 -0.152191 0.1
    endloop
  endfacet
  facet normal -0.831476 -0.555561 0
    outer loop
       vertex -0.256677 -0.152191 0.1
       vertex -0.274845 -0.125 0.1
       vertex -0.274845 -0.125 0
    endloop
  endfacet
  facet normal -0.751817 -0.659372 0
    outer loop
       vertex -0.256677 -0.152191 0
       vertex -0.235115 -0.176776 0
       vertex -0.235115 -0.176776 0.1
    endloop
  endfacet
  facet normal -0.751817 -0.659372 0
    outer loop
       vertex -0.235115 -0.176776 0.1
       vertex -0.256677 -0.152191 0.1
       vertex -0.256677 -0.152191 0
    endloop
  endfacet
  facet normal 0.659372 -0.751817 0
    outer loop
       vertex 0.118437 -0.176776 0
       vertex 0.118437 -0.176776 0.1
       vertex 0.0938517 -0.198338 0.1
    endloop
  endfacet
  facet normal 0.659372 -0.751817 0
    outer loop
       vertex 0.0938517 -0.198338 0.1
       vertex 0.0938517 -0.198338 0
       vertex 0.118437 -0.176776 0
    endloop
  endfacet
  facet normal 0.555561 -0.831476 0
    outer loop
       vertex 0.0938517 -0.198338 0
       vertex 0.0938517 -0.198338 0.1
       vertex 0.0666607 -0.216506 0.1
    endloop
  endfacet
  facet normal 0.555561 -0.831476 0
    outer loop
       vertex 0.0666607 -0.216506 0.1
       vertex 0.0666607 -0.216506 0
       vertex 0.0938517 -0.198338 0
    endloop
  endfacet
  facet normal 0.442302 -0.896866 0
    outer loop
       vertex 0.0666607 -0.216506 0
       vertex 0.0666607 -0.216506 0.1
       vertex 0.0373317 -0.23097 0.1
    endloop
  endfacet
  facet normal 0.442302 -0.896866 0
    outer loop
       vertex 0.0373317 -0.23097 0.1
       vertex 0.0373317 -0.23097 0
       vertex 0.0666607 -0.216506 0
    endloop
  endfacet
  facet normal 0.321425 -0.946935 0
    outer loop
       vertex 0.0373317 -0.23097 0
       vertex 0.0373317 -0.23097 0.1
       vertex 0.00636569 -0.241481 0.1
    endloop
  endfacet
  facet normal 0.321425 -0.946935 0
    outer loop
       vertex 0.00636569 -0.241481 0.1
       vertex 0.00636569 -0.241481 0
       vertex 0.0373317 -0.23097 0
    endloop
  endfacet
  facet normal 0.195096 -0.980784 0
    outer loop
       vertex 0.00636569 -0.241481 0
       vertex 0.00636569 -0.241481 0.1
       vertex -0.0257078 -0.247861 0.1
    endloop
  endfacet
  facet normal 0.195096 -0.980784 0
    outer loop
       vertex -0.0257078 -0.247861 0.1
       vertex -0.0257078 -0.247861 0
       vertex 0.00636569 -0.241481 0
    endloop
  endfacet
  facet normal 0.0654098 -0.997858 0
    outer loop
       vertex -0.0583393 -0.25 0
       vertex -0.0257078 -0.247861 0
       vertex -0.0257078 -0.247861 0.1
    endloop
  endfacet
  facet normal 0.0654098 -0.997858 1.08928e-16
    outer loop
       vertex -0.0257078 -0.247861 0.1
       vertex -0.0583393 -0.25 0.1
       vertex -0.0583393 -0.25 0
    endloop
  endfacet
  facet normal -0.0654098 -0.997858 0
    outer loop
       vertex -0.0583393 -0.25 0.1
       vertex -0.0909708 -0.247861 0.1
       vertex -0.0909708 -0.247861 0
    endloop
  endfacet
  facet normal -0.0654098 -0.997858 -1.0893e-16
    outer loop
       vertex -0.0909708 -0.247861 0
       vertex -0.0583393 -0.25 0
       vertex -0.0583393 -0.25 0.1
    endloop
  endfacet
  facet normal -0.195096 -0.980784 0
    outer loop
       vertex -0.0909708 -0.247861 0
       vertex -0.0909708 -0.247861 0.1
       vertex -0.123044 -0.241481 0.1
    endloop
  endfacet
  facet normal -0.195096 -0.980784 -0
    outer loop
       vertex -0.123044 -0.241481 0.1
       vertex -0.123044 -0.241481 0
       vertex -0.0909708 -0.247861 0
    endloop
  endfacet
  facet normal -0.321425 -0.946935 0
    outer loop
       vertex -0.123044 -0.241481 0
       vertex -0.123044 -0.241481 0.1
       vertex -0.15401 -0.23097 0.1
    endloop
  endfacet
  facet normal -0.321425 -0.946935 -0
    outer loop
       vertex -0.15401 -0.23097 0.1
       vertex -0.15401 -0.23097 0
       vertex -0.123044 -0.241481 0
    endloop
  endfacet
  facet normal -0.442302 -0.896866 0
    outer loop
       vertex -0.15401 -0.23097 0
       vertex -0.15401 -0.23097 0.1
       vertex -0.183339 -0.216506 0.1
    endloop
  endfacet
  facet normal -0.442302 -0.896866 -0
    outer loop
       vertex -0.183339 -0.216506 0.1
       vertex -0.183339 -0.216506 0
       vertex -0.15401 -0.23097 0
    endloop
  endfacet
  facet normal -0.555561 -0.831476 0
    outer loop
       vertex -0.183339 -0.216506 0
       vertex -0.183339 -0.216506 0.1
       vertex -0.21053 -0.198338 0.1
    endloop
  endfacet
  facet normal -0.555561 -0.831476 -0
    outer loop
       vertex -0.21053 -0.198338 0.1
       vertex -0.21053 -0.198338 0
       vertex -0.183339 -0.216506 0
    endloop
  endfacet
  facet normal -0.659372 -0.751817 0
    outer loop
       vertex -0.21053 -0.198338 0
       vertex -0.21053 -0.198338 0.1
       vertex -0.235115 -0.176776 0.1
    endloop
  endfacet
  facet normal -0.659372 -0.751817 -0
    outer loop
       vertex -0.235115 -0.176776 0.1
       vertex -0.235115 -0.176776 0
       vertex -0.21053 -0.198338 0
    endloop
  endfacet
endsolid cylinder
