solid cylinder
  facet normal 0.751817 -0.659372 0
    outer loop
       vertex 0.173132 -0.176776 0
       vertex 0.194694 -0.152191 0
       vertex 0.194694 -0.152191 0.1
    endloop
  endfacet
  facet normal 0.751817 -0.659372 0
    outer loop
       vertex 0.194694 -0.152191 0.1
       vertex 0.173132 -0.176776 0.1
       vertex 0.173132 -0.176776 0
    endloop
  endfacet
  facet normal 0.831476 -0.555561 0
    outer loop
       vertex 0.194694 -0.152191 0
       vertex 0.212862 -0.125 0
       vertex 0.212862 -0.125 0.1
    endloop
  endfacet
  facet normal 0.831476 -0.555561 0
    outer loop
       vertex 0.212862 -0.125 0.1
       vertex 0.194694 -0.152191 0.1
       vertex 0.194694 -0.152191 0
    endloop
  endfacet
  facet normal 0.896866 -0.442302 0
    outer loop
       vertex 0.212862 -0.125 0
       vertex 0.227326 -0.095671 0
       vertex 0.227326 -0.095671 0.1
    endloop
  endfacet
  facet normal 0.896866 -0.442302 0
    outer loop
       vertex 0.227326 -0.095671 0.1
       vertex 0.212862 -0.125 0.1
       vertex 0.212862 -0.125 0
    endloop
  endfacet
  facet normal 0.946935 -0.321425 0
    outer loop
       vertex 0.227326 -0.095671 0
       vertex 0.237837 -0.064705 0
       vertex 0.237837 -0.064705 0.1
    endloop
  endfacet
  facet normal 0.946935 -0.321425 0
    outer loop
       vertex 0.237837 -0.064705 0.1
       vertex 0.227326 -0.095671 0.1
       vertex 0.227326 -0.095671 0
    endloop
  endfacet
  facet normal 0.980784 -0.195096 0
    outer loop
       vertex 0.237837 -0.064705 0
       vertex 0.244217 -0.0326315 0
       vertex 0.244217 -0.0326315 0.1
    endloop
  endfacet
  facet normal 0.980784 -0.195096 0
    outer loop
       vertex 0.244217 -0.0326315 0.1
       vertex 0.237837 -0.064705 0.1
       vertex 0.237837 -0.064705 0
    endloop
  endfacet
  facet normal 0.997858 -0.0654098 0
    outer loop
       vertex 0.246356 -8.32665e-17 0.1
       vertex 0.244217 -0.0326315 0.1
       vertex 0.244217 -0.0326315 0
    endloop
  endfacet
  facet normal 0.997858 -0.0654098 -1.08928e-16
    outer loop
       vertex 0.244217 -0.0326315 0
       vertex 0.246356 8.32665e-17 0
       vertex 0.246356 -8.32665e-17 0.1
    endloop
  endfacet
  facet normal 0.997858 0.0654098 0
    outer loop
       vertex 0.246356 8.32665e-17 0
       vertex 0.244217 0.0326315 0
       vertex 0.244217 0.0326315 0.1
    endloop
  endfacet
  facet normal 0.997858 0.0654098 1.08928e-16
    outer loop
       vertex 0.244217 0.0326315 0.1
       vertex 0.246356 -8.32665e-17 0.1
       vertex 0.246356 8.32665e-17 0
    endloop
  endfacet
  facet normal 0.980784 0.195096 0
    outer loop
       vertex 0.244217 0.0326315 0
       vertex 0.237837 0.064705 0
       vertex 0.237837 0.064705 0.1
    endloop
  endfacet
  facet normal 0.980784 0.195096 0
    outer loop
       vertex 0.237837 0.064705 0.1
       vertex 0.244217 0.0326315 0.1
       vertex 0.244217 0.0326315 0
    endloop
  endfacet
  facet normal 0.946935 0.321425 0
    outer loop
       vertex 0.237837 0.064705 0
       vertex 0.227326 0.095671 0
       vertex 0.227326 0.095671 0.1
    endloop
  endfacet
  facet normal 0.946935 0.321425 0
    outer loop
       vertex 0.227326 0.095671 0.1
       vertex 0.237837 0.064705 0.1
       vertex 0.237837 0.064705 0
    endloop
  endfacet
  facet normal 0.896866 0.442302 0
    outer loop
       vertex 0.227326 0.095671 0
       vertex 0.212862 0.125 0
       vertex 0.212862 0.125 0.1
    endloop
  endfacet
  facet normal 0.896866 0.442302 0
    outer loop
       vertex 0.212862 0.125 0.1
       vertex 0.227326 0.095671 0.1
       vertex 0.227326 0.095671 0
    endloop
  endfacet
  facet normal 0.831476 0.555561 0
    outer loop
       vertex 0.212862 0.125 0
       vertex 0.194694 0.152191 0
       vertex 0.194694 0.152191 0.1
    endloop
  endfacet
  facet normal 0.831476 0.555561 0
    outer loop
       vertex 0.194694 0.152191 0.1
       vertex 0.212862 0.125 0.1
       vertex 0.212862 0.125 0
    endloop
  endfacet
  facet normal 0.751817 0.659372 0
    outer loop
       vertex 0.194694 0.152191 0
       vertex 0.173132 0.176776 0
       vertex 0.173132 0.176776 0.1
    endloop
  endfacet
  facet normal 0.751817 0.659372 0
    outer loop
       vertex 0.173132 0.176776 0.1
       vertex 0.194694 0.152191 0.1
       vertex 0.194694 0.152191 0
    endloop
  endfacet
  facet normal 0.659372 0.751817 0
    outer loop
       vertex 0.173132 0.176776 0
       vertex 0.148547 0.198338 0
       vertex 0.148547 0.198338 0.1
    endloop
  endfacet
  facet normal 0.659372 0.751817 0
    outer loop
       vertex 0.148547 0.198338 0.1
       vertex 0.173132 0.176776 0.1
       vertex 0.173132 0.176776 0
    endloop
  endfacet
  facet normal 0.555561 0.831476 0
    outer loop
       vertex 0.148547 0.198338 0
       vertex 0.121356 0.216506 0
       vertex 0.121356 0.216506 0.1
    endloop
  endfacet
  facet normal 0.555561 0.831476 0
    outer loop
       vertex 0.121356 0.216506 0.1
       vertex 0.148547 0.198338 0.1
       vertex 0.148547 0.198338 0
    endloop
  endfacet
  facet normal 0.442302 0.896866 0
    outer loop
       vertex 0.121356 0.216506 0
       vertex 0.0920269 0.23097 0
       vertex 0.0920269 0.23097 0.1
    endloop
  endfacet
  facet normal 0.442302 0.896866 0
    outer loop
       vertex 0.0920269 0.23097 0.1
       vertex 0.121356 0.216506 0.1
       vertex 0.121356 0.216506 0
    endloop
  endfacet
  facet normal 0.321425 0.946935 0
    outer loop
       vertex 0.0920269 0.23097 0
       vertex 0.0610609 0.241481 0
       vertex 0.0610609 0.241481 0.1
    endloop
  endfacet
  facet normal 0.321425 0.946935 0
    outer loop
       vertex 0.0610609 0.241481 0.1
       vertex 0.0920269 0.23097 0.1
       vertex 0.0920269 0.23097 0
    endloop
  endfacet
  facet normal 0.195096 0.980784 0
    outer loop
       vertex 0.0610609 0.241481 0
       vertex 0.0289874 0.247861 0
       vertex 0.0289874 0.247861 0.1
    endloop
  endfacet
  facet normal 0.195096 0.980784 0
    outer loop
       vertex 0.0289874 0.247861 0.1
       vertex 0.0610609 0.241481 0.1
       vertex 0.0610609 0.241481 0
    endloop
  endfacet
  facet normal 0.0654098 0.997858 0
    outer loop
       vertex -0.00364406 0.25 0.1
       vertex 0.0289874 0.247861 0.1
       vertex 0.0289874 0.247861 0
    endloop
  endfacet
  facet normal 0.0654098 0.997858 -1.0893e-16
    outer loop
       vertex 0.0289874 0.247861 0
       vertex -0.00364406 0.25 0
       vertex -0.00364406 0.25 0.1
    endloop
  endfacet
  facet normal -0.0654098 0.997858 0
    outer loop
       vertex -0.00364406 0.25 0
       vertex -0.0362756 0.247861 0
       vertex -0.0362756 0.247861 0.1
    endloop
  endfacet
  facet normal -0.0654098 0.997858 1.0893e-16
    outer loop
       vertex -0.0362756 0.247861 0.1
       vertex -0.00364406 0.25 0.1
       vertex -0.00364406 0.25 0
    endloop
  endfacet
  facet normal -0.195096 0.980784 0
    outer loop
       vertex -0.0362756 0.247861 0
       vertex -0.0683491 0.241481 0
       vertex -0.0683491 0.241481 0.1
    endloop
  endfacet
  facet normal -0.195096 0.980784 0
    outer loop
       vertex -0.0683491 0.241481 0.1
       vertex -0.0362756 0.247861 0.1
       vertex -0.0362756 0.247861 0
    endloop
  endfacet
  facet normal -0.321425 0.946935 0
    outer loop
       vertex -0.0683491 0.241481 0
       vertex -0.0993151 0.23097 0
       vertex -0.0993151 0.23097 0.1
    endloop
  endfacet
  facet normal -0.321425 0.946935 0
    outer loop
       vertex -0.0993151 0.23097 0.1
       vertex -0.0683491 0.241481 0.1
       vertex -0.0683491 0.241481 0
    endloop
  endfacet
  facet normal -0.442302 0.896866 0
    outer loop
       vertex -0.0993151 0.23097 0
       vertex -0.128644 0.216506 0
       vertex -0.128644 0.216506 0.1
    endloop
  endfacet
  facet normal -0.442302 0.896866 0
    outer loop
       vertex -0.128644 0.216506 0.1
       vertex -0.0993151 0.23097 0.1
       vertex -0.0993151 0.23097 0
    endloop
  endfacet
  facet normal -0.555561 0.831476 0
    outer loop
       vertex -0.128644 0.216506 0
       vertex -0.155835 0.198338 0
       vertex -0.155835 0.198338 0.1
    endloop
  endfacet
  facet normal -0.555561 0.831476 0
    outer loop
       vertex -0.155835 0.198338 0.1
       vertex -0.128644 0.216506 0.1
       vertex -0.128644 0.216506 0
    endloop
  endfacet
  facet normal -0.659372 0.751817 0
    outer loop
       vertex -0.155835 0.198338 0
       vertex -0.18042 0.176776 0
       vertex -0.18042 0.176776 0.1
    endloop
  endfacet
  facet normal -0.659372 0.751817 0
    outer loop
       vertex -0.18042 0.176776 0.1
       vertex -0.155835 0.198338 0.1
       vertex -0.155835 0.198338 0
    endloop
  endfacet
  facet normal -0.751817 0.659372 0
    outer loop
       vertex -0.18042 0.176776 0
       vertex -0.201982 0.152191 0
       vertex -0.201982 0.152191 0.1
    endloop
  endfacet
  facet normal -0.751817 0.659372 0
    outer loop
       vertex -0.201982 0.152191 0.1
       vertex -0.18042 0.176776 0.1
       vertex -0.18042 0.176776 0
    endloop
  endfacet
  facet normal -0.831476 0.555561 0
    outer loop
       vertex -0.201982 0.152191 0
       vertex -0.22015 0.125 0
       vertex -0.22015 0.125 0.1
    endloop
  endfacet
  facet normal -0.831476 0.555561 0
    outer loop
       vertex -0.22015 0.125 0.1
       vertex -0.201982 0.152191 0.1
       vertex -0.201982 0.152191 0
    endloop
  endfacet
  facet normal -0.896866 0.442302 0
    outer loop
       vertex -0.22015 0.125 0
       vertex -0.234614 0.095671 0
       vertex -0.234614 0.095671 0.1
    endloop
  endfacet
  facet normal -0.896866 0.442302 0
    outer loop
       vertex -0.234614 0.095671 0.1
       vertex -0.22015 0.125 0.1
       vertex -0.22015 0.125 0
    endloop
  endfacet
  facet normal -0.946935 0.321425 0
    outer loop
       vertex -0.234614 0.095671 0
       vertex -0.245125 0.064705 0
       vertex -0.245125 0.064705 0.1
    endloop
  endfacet
  facet normal -0.946935 0.321425 0
    outer loop
       vertex -0.245125 0.064705 0.1
       vertex -0.234614 0.095671 0.1
       vertex -0.234614 0.095671 0
    endloop
  endfacet
  facet normal -0.980784 0.195096 0
    outer loop
       vertex -0.245125 0.064705 0
       vertex -0.251505 0.0326315 0
       vertex -0.251505 0.0326315 0.1
    endloop
  endfacet
  facet normal -0.980784 0.195096 0
    outer loop
       vertex -0.251505 0.0326315 0.1
       vertex -0.245125 0.064705 0.1
       vertex -0.245125 0.064705 0
    endloop
  endfacet
  facet normal -0.997858 0.0654098 0
    outer loop
       vertex -0.253644 8.32665e-17 0.1
       vertex -0.251505 0.0326315 0.1
       vertex -0.251505 0.0326315 0
    endloop
  endfacet
  facet normal -0.997858 0.0654098 -1.08928e-16
    outer loop
       vertex -0.251505 0.0326315 0
       vertex -0.253644 -8.32665e-17 0
       vertex -0.253644 8.32665e-17 0.1
    endloop
  endfacet
  facet normal -0.997858 -0.0654098 0
    outer loop
       vertex -0.253644 -8.32665e-17 0
       vertex -0.251505 -0.0326315 0
       vertex -0.251505 -0.0326315 0.1
    endloop
  endfacet
  facet normal -0.997858 -0.0654098 1.08928e-16
    outer loop
       vertex -0.251505 -0.0326315 0.1
       vertex -0.253644 8.32665e-17 0.1
       vertex -0.253644 -8.32665e-17 0
    endloop
  endfacet
  facet normal -0.980784 -0.195096 0
    outer loop
       vertex -0.251505 -0.0326315 0
       vertex -0.245125 -0.064705 0
       vertex -0.245125 -0.064705 0.1
    endloop
  endfacet
  facet normal -0.980784 -0.195096 0
    outer loop
       vertex -0.245125 -0.064705 0.1
       vertex -0.251505 -0.0326315 0.1
       vertex -0.251505 -0.0326315 0
    endloop
  endfacet
  facet normal -0.946935 -0.321425 0
    outer loop
       vertex -0.245125 -0.064705 0
       vertex -0.234614 -0.095671 0
       vertex -0.234614 -0.095671 0.1
    endloop
  endfacet
  facet normal -0.946935 -0.321425 0
    outer loop
       vertex -0.234614 -0.095671 0.1
       vertex -0.245125 -0.064705 0.1
       vertex -0.245125 -0.064705 0
    endloop
  endfacet
  facet normal -0.896866 -0.442302 0
    outer loop
       vertex -0.234614 -0.095671 0
       vertex -0.22015 -0.125 0
       vertex -0.22015 -0.125 0.1
    endloop
  endfacet
  facet normal -0.896866 -0.442302 0
    outer loop
       vertex -0.22015 -0.125 0.1
       vertex -0.234614 -0.095671 0.1
       vertex -0.234614 -0.095671 0
    endloop
  endfacet
  facet normal -0.831476 -0.555561 0
    outer loop
       vertex -0.22015 -0.125 0
       vertex -0.201982 -0.152191 0
       vertex -0.201982 -0.152191 0.1
    endloop
  endfacet
  facet normal -0.831476 -0.555561 0
    outer loop
       vertex -0.201982 -0.152191 0.1
       vertex -0.22015 -0.125 0.1
       vertex -0.22015 -0.125 0
    endloop
  endfacet
  facet normal -0.751817 -0.659372 0
    outer loop
       vertex -0.201982 -0.152191 0
       vertex -0.18042 -0.176776 0
       vertex -0.18042 -0.176776 0.1
    endloop
  endfacet
  facet normal -0.751817 -0.659372 0
    outer loop
       vertex -0.18042 -0.176776 0.1
       vertex -0.201982 -0.152191 0.1
       vertex -0.201982 -0.152191 0
    endloop
  endfacet
  facet normal 0.659372 -0.751817 0
    outer loop
       vertex 0.173132 -0.176776 0
       vertex 0.173132 -0.176776 0.1
       vertex 0.148547 -0.198338 0.1
    endloop
  endfacet
  facet normal 0.659372 -0.751817 0
    outer loop
       vertex 0.148547 -0.198338 0.1
       vertex 0.148547 -0.198338 0
       vertex 0.173132 -0.176776 0
    endloop
  endfacet
  facet normal 0.555561 -0.831476 0
    outer loop
       vertex 0.148547 -0.198338 0
       vertex 0.148547 -0.198338 0.1
       vertex 0.121356 -0.216506 0.1
    endloop
  endfacet
  facet normal 0.555561 -0.831476 0
    outer loop
       vertex 0.121356 -0.216506 0.1
       vertex 0.121356 -0.216506 0
       vertex 0.148547 -0.198338 0
    endloop
  endfacet
  facet normal 0.442302 -0.896866 0
    outer loop
       vertex 0.121356 -0.216506 0
       vertex 0.121356 -0.216506 0.1
       vertex 0.0920269 -0.23097 0.1
    endloop
  endfacet
  facet normal 0.442302 -0.896866 0
    outer loop
       vertex 0.0920269 -0.23097 0.1
       vertex 0.0920269 -0.23097 0
       vertex 0.121356 -0.216506 0
    endloop
  endfacet
  facet normal 0.321425 -0.946935 0
    outer loop
       vertex 0.0920269 -0.23097 0
       vertex 0.0920269 -0.23097 0.1
       vertex 0.0610609 -0.241481 0.1
    endloop
  endfacet
  facet normal 0.321425 -0.946935 0
    outer loop
       vertex 0.0610609 -0.241481 0.1
       vertex 0.0610609 -0.241481 0
       vertex 0.0920269 -0.23097 0
    endloop
  endfacet
  facet normal 0.195096 -0.980784 0
    outer loop
       vertex 0.0610609 -0.241481 0
       vertex 0.0610609 -0.241481 0.1
       vertex 0.0289874 -0.247861 0.1
    endloop
  endfacet
  facet normal 0.195096 -0.980784 0
    outer loop
       vertex 0.0289874 -0.247861 0.1
       vertex 0.0289874 -0.247861 0
       vertex 0.0610609 -0.241481 0
    endloop
  endfacet
  facet normal 0.0654098 -0.997858 0
    outer loop
       vertex -0.00364406 -0.25 0
       vertex 0.0289874 -0.247861 0
       vertex 0.0289874 -0.247861 0.1
    endloop
  endfacet
  facet normal 0.0654098 -0.997858 1.0893e-16
    outer loop
       vertex 0.0289874 -0.247861 0.1
       vertex -0.00364406 -0.25 0.1
       vertex -0.00364406 -0.25 0
    endloop
  endfacet
  facet normal -0.0654098 -0.997858 0
    outer loop
       vertex -0.00364406 -0.25 0.1
       vertex -0.0362756 -0.247861 0.1
       vertex -0.0362756 -0.247861 0
    endloop
  endfacet
  facet normal -0.0654098 -0.997858 -1.0893e-16
    outer loop
       vertex -0.0362756 -0.247861 0
       vertex -0.00364406 -0.25 0
       vertex -0.00364406 -0.25 0.1
    endloop
  endfacet
  facet normal -0.195096 -0.980784 0
    outer loop
       vertex -0.0362756 -0.247861 0
       vertex -0.0362756 -0.247861 0.1
       vertex -0.0683491 -0.241481 0.1
    endloop
  endfacet
  facet normal -0.195096 -0.980784 -0
    outer loop
       vertex -0.0683491 -0.241481 0.1
       vertex -0.0683491 -0.241481 0
       vertex -0.0362756 -0.247861 0
    endloop
  endfacet
  facet normal -0.321425 -0.946935 0
    outer loop
       vertex -0.0683491 -0.241481 0
       vertex -0.0683491 -0.241481 0.1
       vertex -0.0993151 -0.23097 0.1
    endloop
  endfacet
  facet normal -0.321425 -0.946935 -0
    outer loop
       vertex -0.0993151 -0.23097 0.1
       vertex -0.0993151 -0.23097 0
       vertex -0.0683491 -0.241481 0
    endloop
  endfacet
  facet normal -0.442302 -0.896866 0
    outer loop
       vertex -0.0993151 -0.23097 0
       vertex -0.0993151 -0.23097 0.1
       vertex -0.128644 -0.216506 0.1
    endloop
  endfacet
  facet normal -0.442302 -0.896866 -0
    outer loop
       vertex -0.128644 -0.216506 0.1
       vertex -0.128644 -0.216506 0
       vertex -0.0993151 -0.23097 0
    endloop
  endfacet
  facet normal -0.555561 -0.831476 0
    outer loop
       vertex -0.128644 -0.216506 0
       vertex -0.128644 -0.216506 0.1
       vertex -0.155835 -0.198338 0.1
    endloop
  endfacet
  facet normal -0.555561 -0.831476 -0
    outer loop
       vertex -0.155835 -0.198338 0.1
       vertex -0.155835 -0.198338 0
       vertex -0.128644 -0.216506 0
    endloop
  endfacet
  facet normal -0.659372 -0.751817 0
    outer loop
       vertex -0.155835 -0.198338 0
       vertex -0.155835 -0.198338 0.1
       vertex -0.18042 -0.176776 0.1
    endloop
  endfacet
  facet normal -0.659372 -0.751817 -0
    outer loop
       vertex -0.18042 -0.176776 0.1
       vertex -0.18042 -0.176776 0
       vertex -0.155835 -0.198338 0
    endloop
  endfacet
endsolid cylinder
