solid cylinder
  facet normal 0.751817 -0.659372 0
    outer loop
       vertex 0.196597 -0.176776 0
       vertex 0.218159 -0.152191 0
       vertex 0.218159 -0.152191 0.1
    endloop
  endfacet
  facet normal 0.751817 -0.659372 0
    outer loop
       vertex 0.218159 -0.152191 0.1
       vertex 0.196597 -0.176776 0.1
       vertex 0.196597 -0.176776 0
    endloop
  endfacet
  facet normal 0.831476 -0.555561 0
    outer loop
       vertex 0.218159 -0.152191 0
       vertex 0.236327 -0.125 0
       vertex 0.236327 -0.125 0.1
    endloop
  endfacet
  facet normal 0.831476 -0.555561 0
    outer loop
       vertex 0.236327 -0.125 0.1
       vertex 0.218159 -0.152191 0.1
       vertex 0.218159 -0.152191 0
    endloop
  endfacet
  facet normal 0.896866 -0.442302 0
    outer loop
       vertex 0.236327 -0.125 0
       vertex 0.250791 -0.095671 0
       vertex 0.250791 -0.095671 0.1
    endloop
  endfacet
  facet normal 0.896866 -0.442302 0
    outer loop
       vertex 0.250791 -0.095671 0.1
       vertex 0.236327 -0.125 0.1
       vertex 0.236327 -0.125 0
    endloop
  endfacet
  facet normal 0.946935 -0.321425 0
    outer loop
       vertex 0.250791 -0.095671 0
       vertex 0.261302 -0.064705 0
       vertex 0.261302 -0.064705 0.1
    endloop
  endfacet
  facet normal 0.946935 -0.321425 0
    outer loop
       vertex 0.261302 -0.064705 0.1
       vertex 0.250791 -0.095671 0.1
       vertex 0.250791 -0.095671 0
    endloop
  endfacet
  facet normal 0.980784 -0.195096 0
    outer loop
       vertex 0.261302 -0.064705 0
       vertex 0.267682 -0.0326315 0
       vertex 0.267682 -0.0326315 0.1
    endloop
  endfacet
  facet normal 0.980784 -0.195096 0
    outer loop
       vertex 0.267682 -0.0326315 0.1
       vertex 0.261302 -0.064705 0.1
       vertex 0.261302 -0.064705 0
    endloop
  endfacet
  facet normal 0.997858 -0.0654098 0
    outer loop
       vertex 0.269821 -8.32665e-17 0.1
       vertex 0.267682 -0.0326315 0.1
       vertex 0.267682 -0.0326315 0
    endloop
  endfacet
  facet normal 0.997858 -0.0654098 -1.08928e-16
    outer loop
       vertex 0.267682 -0.0326315 0
       vertex 0.269821 8.32665e-17 0
       vertex 0.269821 -8.32665e-17 0.1
    endloop
  endfacet
  facet normal 0.997858 0.0654098 0
    outer loop
       vertex 0.269821 8.32665e-17 0
       vertex 0.267682 0.0326315 0
       vertex 0.267682 0.0326315 0.1
    endloop
  endfacet
  facet normal 0.997858 0.0654098 1.08928e-16
    outer loop
       vertex 0.267682 0.0326315 0.1
       vertex 0.269821 -8.32665e-17 0.1
       vertex 0.269821 8.32665e-17 0
    endloop
  endfacet
  facet normal 0.980784 0.195096 0
    outer loop
       vertex 0.267682 0.0326315 0
       vertex 0.261302 0.064705 0
       vertex 0.261302 0.064705 0.1
    endloop
  endfacet
  facet normal 0.980784 0.195096 0
    outer loop
       vertex 0.261302 0.064705 0.1
       vertex 0.267682 0.0326315 0.1
       vertex 0.267682 0.0326315 0
    endloop
  endfacet
  facet normal 0.946935 0.321425 0
    outer loop
       vertex 0.261302 0.064705 0
       vertex 0.250791 0.095671 0
       vertex 0.250791 0.095671 0.1
    endloop
  endfacet
  facet normal 0.946935 0.321425 0
    outer loop
       vertex 0.250791 0.095671 0.1
       vertex 0.261302 0.064705 0.1
       vertex 0.261302 0.064705 0
    endloop
  endfacet
  facet normal 0.896866 0.442302 0
    outer loop
       vertex 0.250791 0.095671 0
       vertex 0.236327 0.125 0
       vertex 0.236327 0.125 0.1
    endloop
  endfacet
  facet normal 0.896866 0.442302 0
    outer loop
       vertex 0.236327 0.125 0.1
       vertex 0.250791 0.095671 0.1
       vertex 0.250791 0.095671 0
    endloop
  endfacet
  facet normal 0.831476 0.555561 0
    outer loop
       vertex 0.236327 0.125 0
       vertex 0.218159 0.152191 0
       vertex 0.218159 0.152191 0.1
    endloop
  endfacet
  facet normal 0.831476 0.555561 0
    outer loop
       vertex 0.218159 0.152191 0.1
       vertex 0.236327 0.125 0.1
       vertex 0.236327 0.125 0
    endloop
  endfacet
  facet normal 0.751817 0.659372 0
    outer loop
       vertex 0.218159 0.152191 0
       vertex 0.196597 0.176776 0
       vertex 0.196597 0.176776 0.1
    endloop
  endfacet
  facet normal 0.751817 0.659372 0
    outer loop
       vertex 0.196597 0.176776 0.1
       vertex 0.218159 0.152191 0.1
       vertex 0.218159 0.152191 0
    endloop
  endfacet
  facet normal 0.659372 0.751817 0
    outer loop
       vertex 0.196597 0.176776 0
       vertex 0.172012 0.198338 0
       vertex 0.172012 0.198338 0.1
    endloop
  endfacet
  facet normal 0.659372 0.751817 0
    outer loop
       vertex 0.172012 0.198338 0.1
       vertex 0.196597 0.176776 0.1
       vertex 0.196597 0.176776 0
    endloop
  endfacet
  facet normal 0.555561 0.831476 0
    outer loop
       vertex 0.172012 0.198338 0
       vertex 0.144821 0.216506 0
       vertex 0.144821 0.216506 0.1
    endloop
  endfacet
  facet normal 0.555561 0.831476 0
    outer loop
       vertex 0.144821 0.216506 0.1
       vertex 0.172012 0.198338 0.1
       vertex 0.172012 0.198338 0
    endloop
  endfacet
  facet normal 0.442302 0.896866 0
    outer loop
       vertex 0.144821 0.216506 0
       vertex 0.115492 0.23097 0
       vertex 0.115492 0.23097 0.1
    endloop
  endfacet
  facet normal 0.442302 0.896866 0
    outer loop
       vertex 0.115492 0.23097 0.1
       vertex 0.144821 0.216506 0.1
       vertex 0.144821 0.216506 0
    endloop
  endfacet
  facet normal 0.321425 0.946935 0
    outer loop
       vertex 0.115492 0.23097 0
       vertex 0.0845265 0.241481 0
       vertex 0.0845265 0.241481 0.1
    endloop
  endfacet
  facet normal 0.321425 0.946935 0
    outer loop
       vertex 0.0845265 0.241481 0.1
       vertex 0.115492 0.23097 0.1
       vertex 0.115492 0.23097 0
    endloop
  endfacet
  facet normal 0.195096 0.980784 0
    outer loop
       vertex 0.0845265 0.241481 0
       vertex 0.052453 0.247861 0
       vertex 0.052453 0.247861 0.1
    endloop
  endfacet
  facet normal 0.195096 0.980784 0
    outer loop
       vertex 0.052453 0.247861 0.1
       vertex 0.0845265 0.241481 0.1
       vertex 0.0845265 0.241481 0
    endloop
  endfacet
  facet normal 0.0654098 0.997858 0
    outer loop
       vertex 0.0198215 0.25 0.1
       vertex 0.052453 0.247861 0.1
       vertex 0.052453 0.247861 0
    endloop
  endfacet
  facet normal 0.0654098 0.997858 -1.0893e-16
    outer loop
       vertex 0.052453 0.247861 0
       vertex 0.0198215 0.25 0
       vertex 0.0198215 0.25 0.1
    endloop
  endfacet
  facet normal -0.0654098 0.997858 0
    outer loop
       vertex 0.0198215 0.25 0
       vertex -0.01281 0.247861 0
       vertex -0.01281 0.247861 0.1
    endloop
  endfacet
  facet normal -0.0654098 0.997858 1.08928e-16
    outer loop
       vertex -0.01281 0.247861 0.1
       vertex 0.0198215 0.25 0.1
       vertex 0.0198215 0.25 0
    endloop
  endfacet
  facet normal -0.195096 0.980784 0
    outer loop
       vertex -0.01281 0.247861 0
       vertex -0.0448835 0.241481 0
       vertex -0.0448835 0.241481 0.1
    endloop
  endfacet
  facet normal -0.195096 0.980784 0
    outer loop
       vertex -0.0448835 0.241481 0.1
       vertex -0.01281 0.247861 0.1
       vertex -0.01281 0.247861 0
    endloop
  endfacet
  facet normal -0.321425 0.946935 0
    outer loop
       vertex -0.0448835 0.241481 0
       vertex -0.0758495 0.23097 0
       vertex -0.0758495 0.23097 0.1
    endloop
  endfacet
  facet normal -0.321425 0.946935 0
    outer loop
       vertex -0.0758495 0.23097 0.1
       vertex -0.0448835 0.241481 0.1
       vertex -0.0448835 0.241481 0
    endloop
  endfacet
  facet normal -0.442302 0.896866 0
    outer loop
       vertex -0.0758495 0.23097 0
       vertex -0.105179 0.216506 0
       vertex -0.105179 0.216506 0.1
    endloop
  endfacet
  facet normal -0.442302 0.896866 0
    outer loop
       vertex -0.105179 0.216506 0.1
       vertex -0.0758495 0.23097 0.1
       vertex -0.0758495 0.23097 0
    endloop
  endfacet
  facet normal -0.555561 0.831476 0
    outer loop
       vertex -0.105179 0.216506 0
       vertex -0.13237 0.198338 0
       vertex -0.13237 0.198338 0.1
    endloop
  endfacet
  facet normal -0.555561 0.831476 0
    outer loop
       vertex -0.13237 0.198338 0.1
       vertex -0.105179 0.216506 0.1
       vertex -0.105179 0.216506 0
    endloop
  endfacet
  facet normal -0.659372 0.751817 0
    outer loop
       vertex -0.13237 0.198338 0
       vertex -0.156955 0.176776 0
       vertex -0.156955 0.176776 0.1
    endloop
  endfacet
  facet normal -0.659372 0.751817 0
    outer loop
       vertex -0.156955 0.176776 0.1
       vertex -0.13237 0.198338 0.1
       vertex -0.13237 0.198338 0
    endloop
  endfacet
  facet normal -0.751817 0.659372 0
    outer loop
       vertex -0.156955 0.176776 0
       vertex -0.178517 0.152191 0
       vertex -0.178517 0.152191 0.1
    endloop
  endfacet
  facet normal -0.751817 0.659372 0
    outer loop
       vertex -0.178517 0.152191 0.1
       vertex -0.156955 0.176776 0.1
       vertex -0.156955 0.176776 0
    endloop
  endfacet
  facet normal -0.831476 0.555561 0
    outer loop
       vertex -0.178517 0.152191 0
       vertex -0.196685 0.125 0
       vertex -0.196685 0.125 0.1
    endloop
  endfacet
  facet normal -0.831476 0.555561 0
    outer loop
       vertex -0.196685 0.125 0.1
       vertex -0.178517 0.152191 0.1
       vertex -0.178517 0.152191 0
    endloop
  endfacet
  facet normal -0.896866 0.442302 0
    outer loop
       vertex -0.196685 0.125 0
       vertex -0.211149 0.095671 0
       vertex -0.211149 0.095671 0.1
    endloop
  endfacet
  facet normal -0.896866 0.442302 0
    outer loop
       vertex -0.211149 0.095671 0.1
       vertex -0.196685 0.125 0.1
       vertex -0.196685 0.125 0
    endloop
  endfacet
  facet normal -0.946935 0.321425 0
    outer loop
       vertex -0.211149 0.095671 0
       vertex -0.22166 0.064705 0
       vertex -0.22166 0.064705 0.1
    endloop
  endfacet
  facet normal -0.946935 0.321425 0
    outer loop
       vertex -0.22166 0.064705 0.1
       vertex -0.211149 0.095671 0.1
       vertex -0.211149 0.095671 0
    endloop
  endfacet
  facet normal -0.980784 0.195096 0
    outer loop
       vertex -0.22166 0.064705 0
       vertex -0.22804 0.0326315 0
       vertex -0.22804 0.0326315 0.1
    endloop
  endfacet
  facet normal -0.980784 0.195096 0
    outer loop
       vertex -0.22804 0.0326315 0.1
       vertex -0.22166 0.064705 0.1
       vertex -0.22166 0.064705 0
    endloop
  endfacet
  facet normal -0.997858 0.0654098 0
    outer loop
       vertex -0.230179 8.32665e-17 0.1
       vertex -0.22804 0.0326315 0.1
       vertex -0.22804 0.0326315 0
    endloop
  endfacet
  facet normal -0.997858 0.0654098 -1.08928e-16
    outer loop
       vertex -0.22804 0.0326315 0
       vertex -0.230179 -8.32665e-17 0
       vertex -0.230179 8.32665e-17 0.1
    endloop
  endfacet
  facet normal -0.997858 -0.0654098 0
    outer loop
       vertex -0.230179 -8.32665e-17 0
       vertex -0.22804 -0.0326315 0
       vertex -0.22804 -0.0326315 0.1
    endloop
  endfacet
  facet normal -0.997858 -0.0654098 1.08928e-16
    outer loop
       vertex -0.22804 -0.0326315 0.1
       vertex -0.230179 8.32665e-17 0.1
       vertex -0.230179 -8.32665e-17 0
    endloop
  endfacet
  facet normal -0.980784 -0.195096 0
    outer loop
       vertex -0.22804 -0.0326315 0
       vertex -0.22166 -0.064705 0
       vertex -0.22166 -0.064705 0.1
    endloop
  endfacet
  facet normal -0.980784 -0.195096 0
    outer loop
       vertex -0.22166 -0.064705 0.1
       vertex -0.22804 -0.0326315 0.1
       vertex -0.22804 -0.0326315 0
    endloop
  endfacet
  facet normal -0.946935 -0.321425 0
    outer loop
       vertex -0.22166 -0.064705 0
       vertex -0.211149 -0.095671 0
       vertex -0.211149 -0.095671 0.1
    endloop
  endfacet
  facet normal -0.946935 -0.321425 0
    outer loop
       vertex -0.211149 -0.095671 0.1
       vertex -0.22166 -0.064705 0.1
       vertex -0.22166 -0.064705 0
    endloop
  endfacet
  facet normal -0.896866 -0.442302 0
    outer loop
       vertex -0.211149 -0.095671 0
       vertex -0.196685 -0.125 0
       vertex -0.196685 -0.125 0.1
    endloop
  endfacet
  facet normal -0.896866 -0.442302 0
    outer loop
       vertex -0.196685 -0.125 0.1
       vertex -0.211149 -0.095671 0.1
       vertex -0.211149 -0.095671 0
    endloop
  endfacet
  facet normal -0.831476 -0.555561 0
    outer loop
       vertex -0.196685 -0.125 0
       vertex -0.178517 -0.152191 0
       vertex -0.178517 -0.152191 0.1
    endloop
  endfacet
  facet normal -0.831476 -0.555561 0
    outer loop
       vertex -0.178517 -0.152191 0.1
       vertex -0.196685 -0.125 0.1
       vertex -0.196685 -0.125 0
    endloop
  endfacet
  facet normal -0.751817 -0.659372 0
    outer loop
       vertex -0.178517 -0.152191 0
       vertex -0.156955 -0.176776 0
       vertex -0.156955 -0.176776 0.1
    endloop
  endfacet
  facet normal -0.751817 -0.659372 0
    outer loop
       vertex -0.156955 -0.176776 0.1
       vertex -0.178517 -0.152191 0.1
       vertex -0.178517 -0.152191 0
    endloop
  endfacet
  facet normal 0.659372 -0.751817 0
    outer loop
       vertex 0.196597 -0.176776 0
       vertex 0.196597 -0.176776 0.1
       vertex 0.172012 -0.198338 0.1
    endloop
  endfacet
  facet normal 0.659372 -0.751817 0
    outer loop
       vertex 0.172012 -0.198338 0.1
       vertex 0.172012 -0.198338 0
       vertex 0.196597 -0.176776 0
    endloop
  endfacet
  facet normal 0.555561 -0.831476 0
    outer loop
       vertex 0.172012 -0.198338 0
       vertex 0.172012 -0.198338 0.1
       vertex 0.144821 -0.216506 0.1
    endloop
  endfacet
  facet normal 0.555561 -0.831476 0
    outer loop
       vertex 0.144821 -0.216506 0.1
       vertex 0.144821 -0.216506 0
       vertex 0.172012 -0.198338 0
    endloop
  endfacet
  facet normal 0.442302 -0.896866 0
    outer loop
       vertex 0.144821 -0.216506 0
       vertex 0.144821 -0.216506 0.1
       vertex 0.115492 -0.23097 0.1
    endloop
  endfacet
  facet normal 0.442302 -0.896866 0
    outer loop
       vertex 0.115492 -0.23097 0.1
       vertex 0.115492 -0.23097 0
       vertex 0.144821 -0.216506 0
    endloop
  endfacet
  facet normal 0.321425 -0.946935 0
    outer loop
       vertex 0.115492 -0.23097 0
       vertex 0.115492 -0.23097 0.1
       vertex 0.0845265 -0.241481 0.1
    endloop
  endfacet
  facet normal 0.321425 -0.946935 0
    outer loop
       vertex 0.0845265 -0.241481 0.1
       vertex 0.0845265 -0.241481 0
       vertex 0.115492 -0.23097 0
    endloop
  endfacet
  facet normal 0.195096 -0.980784 0
    outer loop
       vertex 0.0845265 -0.241481 0
       vertex 0.0845265 -0.241481 0.1
       vertex 0.052453 -0.247861 0.1
    endloop
  endfacet
  facet normal 0.195096 -0.980784 0
    outer loop
       vertex 0.052453 -0.247861 0.1
       vertex 0.052453 -0.247861 0
       vertex 0.0845265 -0.241481 0
    endloop
  endfacet
  facet normal 0.0654098 -0.997858 0
    outer loop
       vertex 0.0198215 -0.25 0
       vertex 0.052453 -0.247861 0
       vertex 0.052453 -0.247861 0.1
    endloop
  endfacet
  facet normal 0.0654098 -0.997858 1.0893e-16
    outer loop
       vertex 0.052453 -0.247861 0.1
       vertex 0.0198215 -0.25 0.1
       vertex 0.0198215 -0.25 0
    endloop
  endfacet
  facet normal -0.0654098 -0.997858 0
    outer loop
       vertex 0.0198215 -0.25 0.1
       vertex -0.01281 -0.247861 0.1
       vertex -0.01281 -0.247861 0
    endloop
  endfacet
  facet normal -0.0654098 -0.997858 -1.08928e-16
    outer loop
       vertex -0.01281 -0.247861 0
       vertex 0.0198215 -0.25 0
       vertex 0.0198215 -0.25 0.1
    endloop
  endfacet
  facet normal -0.195096 -0.980784 0
    outer loop
       vertex -0.01281 -0.247861 0
       vertex -0.01281 -0.247861 0.1
       vertex -0.0448835 -0.241481 0.1
    endloop
  endfacet
  facet normal -0.195096 -0.980784 -0
    outer loop
       vertex -0.0448835 -0.241481 0.1
       vertex -0.0448835 -0.241481 0
       vertex -0.01281 -0.247861 0
    endloop
  endfacet
  facet normal -0.321425 -0.946935 0
    outer loop
       vertex -0.0448835 -0.241481 0
       vertex -0.0448835 -0.241481 0.1
       vertex -0.0758495 -0.23097 0.1
    endloop
  endfacet
  facet normal -0.321425 -0.946935 -0
    outer loop
       vertex -0.0758495 -0.23097 0.1
       vertex -0.0758495 -0.23097 0
       vertex -0.0448835 -0.241481 0
    endloop
  endfacet
  facet normal -0.442302 -0.896866 0
    outer loop
       vertex -0.0758495 -0.23097 0
       vertex -0.0758495 -0.23097 0.1
       vertex -0.105179 -0.216506 0.1
    endloop
  endfacet
  facet normal -0.442302 -0.896866 -0
    outer loop
       vertex -0.105179 -0.216506 0.1
       vertex -0.105179 -0.216506 0
       vertex -0.0758495 -0.23097 0
    endloop
  endfacet
  facet normal -0.555561 -0.831476 0
    outer loop
       vertex -0.105179 -0.216506 0
       vertex -0.105179 -0.216506 0.1
       vertex -0.13237 -0.198338 0.1
    endloop
  endfacet
  facet normal -0.555561 -0.831476 -0
    outer loop
       vertex -0.13237 -0.198338 0.1
       vertex -0.13237 -0.198338 0
       vertex -0.105179 -0.216506 0
    endloop
  endfacet
  facet normal -0.659372 -0.751817 0
    outer loop
       vertex -0.13237 -0.198338 0
       vertex -0.13237 -0.198338 0.1
       vertex -0.156955 -0.176776 0.1
    endloop
  endfacet
  facet normal -0.659372 -0.751817 -0
    outer loop
       vertex -0.156955 -0.176776 0.1
       vertex -0.156955 -0.176776 0
       vertex -0.13237 -0.198338 0
    endloop
  endfacet
endsolid cylinder
