solid cylinder
  facet normal 0.751817 -0.659372 0
    outer loop
       vertex 0.361127 -0.176776 0
       vertex 0.382689 -0.152191 0
       vertex 0.382689 -0.152191 0.1
    endloop
  endfacet
  facet normal 0.751817 -0.659372 0
    outer loop
       vertex 0.382689 -0.152191 0.1
       vertex 0.361127 -0.176776 0.1
       vertex 0.361127 -0.176776 0
    endloop
  endfacet
  facet normal 0.831476 -0.555561 0
    outer loop
       vertex 0.382689 -0.152191 0
       vertex 0.400857 -0.125 0
       vertex 0.400857 -0.125 0.1
    endloop
  endfacet
  facet normal 0.831476 -0.555561 0
    outer loop
       vertex 0.400857 -0.125 0.1
       vertex 0.382689 -0.152191 0.1
       vertex 0.382689 -0.152191 0
    endloop
  endfacet
  facet normal 0.896866 -0.442302 0
    outer loop
       vertex 0.400857 -0.125 0
       vertex 0.415321 -0.095671 0
       vertex 0.415321 -0.095671 0.1
    endloop
  endfacet
  facet normal 0.896866 -0.442302 0
    outer loop
       vertex 0.415321 -0.095671 0.1
       vertex 0.400857 -0.125 0.1
       vertex 0.400857 -0.125 0
    endloop
  endfacet
  facet normal 0.946935 -0.321425 0
    outer loop
       vertex 0.415321 -0.095671 0
       vertex 0.425832 -0.064705 0
       vertex 0.425832 -0.064705 0.1
    endloop
  endfacet
  facet normal 0.946935 -0.321425 0
    outer loop
       vertex 0.425832 -0.064705 0.1
       vertex 0.415321 -0.095671 0.1
       vertex 0.415321 -0.095671 0
    endloop
  endfacet
  facet normal 0.980784 -0.195096 0
    outer loop
       vertex 0.425832 -0.064705 0
       vertex 0.432212 -0.0326315 0
       vertex 0.432212 -0.0326315 0.1
    endloop
  endfacet
  facet normal 0.980784 -0.195096 0
    outer loop
       vertex 0.432212 -0.0326315 0.1
       vertex 0.425832 -0.064705 0.1
       vertex 0.425832 -0.064705 0
    endloop
  endfacet
  facet normal 0.997858 -0.0654098 0
    outer loop
       vertex 0.434351 -8.32665e-17 0.1
       vertex 0.432212 -0.0326315 0.1
       vertex 0.432212 -0.0326315 0
    endloop
  endfacet
  facet normal 0.997858 -0.0654098 -1.08928e-16
    outer loop
       vertex 0.432212 -0.0326315 0
       vertex 0.434351 8.32665e-17 0
       vertex 0.434351 -8.32665e-17 0.1
    endloop
  endfacet
  facet normal 0.997858 0.0654098 0
    outer loop
       vertex 0.434351 8.32665e-17 0
       vertex 0.432212 0.0326315 0
       vertex 0.432212 0.0326315 0.1
    endloop
  endfacet
  facet normal 0.997858 0.0654098 1.08928e-16
    outer loop
       vertex 0.432212 0.0326315 0.1
       vertex 0.434351 -8.32665e-17 0.1
       vertex 0.434351 8.32665e-17 0
    endloop
  endfacet
  facet normal 0.980784 0.195096 0
    outer loop
       vertex 0.432212 0.0326315 0
       vertex 0.425832 0.064705 0
       vertex 0.425832 0.064705 0.1
    endloop
  endfacet
  facet normal 0.980784 0.195096 0
    outer loop
       vertex 0.425832 0.064705 0.1
       vertex 0.432212 0.0326315 0.1
       vertex 0.432212 0.0326315 0
    endloop
  endfacet
  facet normal 0.946935 0.321425 0
    outer loop
       vertex 0.425832 0.064705 0
       vertex 0.415321 0.095671 0
       vertex 0.415321 0.095671 0.1
    endloop
  endfacet
  facet normal 0.946935 0.321425 0
    outer loop
       vertex 0.415321 0.095671 0.1
       vertex 0.425832 0.064705 0.1
       vertex 0.425832 0.064705 0
    endloop
  endfacet
  facet normal 0.896866 0.442302 0
    outer loop
       vertex 0.415321 0.095671 0
       vertex 0.400857 0.125 0
       vertex 0.400857 0.125 0.1
    endloop
  endfacet
  facet normal 0.896866 0.442302 0
    outer loop
       vertex 0.400857 0.125 0.1
       vertex 0.415321 0.095671 0.1
       vertex 0.415321 0.095671 0
    endloop
  endfacet
  facet normal 0.831476 0.555561 0
    outer loop
       vertex 0.400857 0.125 0
       vertex 0.382689 0.152191 0
       vertex 0.382689 0.152191 0.1
    endloop
  endfacet
  facet normal 0.831476 0.555561 0
    outer loop
       vertex 0.382689 0.152191 0.1
       vertex 0.400857 0.125 0.1
       vertex 0.400857 0.125 0
    endloop
  endfacet
  facet normal 0.751817 0.659372 0
    outer loop
       vertex 0.382689 0.152191 0
       vertex 0.361127 0.176776 0
       vertex 0.361127 0.176776 0.1
    endloop
  endfacet
  facet normal 0.751817 0.659372 0
    outer loop
       vertex 0.361127 0.176776 0.1
       vertex 0.382689 0.152191 0.1
       vertex 0.382689 0.152191 0
    endloop
  endfacet
  facet normal 0.659372 0.751817 0
    outer loop
       vertex 0.361127 0.176776 0
       vertex 0.336542 0.198338 0
       vertex 0.336542 0.198338 0.1
    endloop
  endfacet
  facet normal 0.659372 0.751817 0
    outer loop
       vertex 0.336542 0.198338 0.1
       vertex 0.361127 0.176776 0.1
       vertex 0.361127 0.176776 0
    endloop
  endfacet
  facet normal 0.555561 0.831476 0
    outer loop
       vertex 0.336542 0.198338 0
       vertex 0.309351 0.216506 0
       vertex 0.309351 0.216506 0.1
    endloop
  endfacet
  facet normal 0.555561 0.831476 0
    outer loop
       vertex 0.309351 0.216506 0.1
       vertex 0.336542 0.198338 0.1
       vertex 0.336542 0.198338 0
    endloop
  endfacet
  facet normal 0.442302 0.896866 0
    outer loop
       vertex 0.309351 0.216506 0
       vertex 0.280022 0.23097 0
       vertex 0.280022 0.23097 0.1
    endloop
  endfacet
  facet normal 0.442302 0.896866 0
    outer loop
       vertex 0.280022 0.23097 0.1
       vertex 0.309351 0.216506 0.1
       vertex 0.309351 0.216506 0
    endloop
  endfacet
  facet normal 0.321425 0.946935 0
    outer loop
       vertex 0.280022 0.23097 0
       vertex 0.249056 0.241481 0
       vertex 0.249056 0.241481 0.1
    endloop
  endfacet
  facet normal 0.321425 0.946935 0
    outer loop
       vertex 0.249056 0.241481 0.1
       vertex 0.280022 0.23097 0.1
       vertex 0.280022 0.23097 0
    endloop
  endfacet
  facet normal 0.195096 0.980784 0
    outer loop
       vertex 0.249056 0.241481 0
       vertex 0.216982 0.247861 0
       vertex 0.216982 0.247861 0.1
    endloop
  endfacet
  facet normal 0.195096 0.980784 0
    outer loop
       vertex 0.216982 0.247861 0.1
       vertex 0.249056 0.241481 0.1
       vertex 0.249056 0.241481 0
    endloop
  endfacet
  facet normal 0.0654098 0.997858 0
    outer loop
       vertex 0.184351 0.25 0.1
       vertex 0.216982 0.247861 0.1
       vertex 0.216982 0.247861 0
    endloop
  endfacet
  facet normal 0.0654098 0.997858 -1.0893e-16
    outer loop
       vertex 0.216982 0.247861 0
       vertex 0.184351 0.25 0
       vertex 0.184351 0.25 0.1
    endloop
  endfacet
  facet normal -0.0654098 0.997858 0
    outer loop
       vertex 0.184351 0.25 0
       vertex 0.151719 0.247861 0
       vertex 0.151719 0.247861 0.1
    endloop
  endfacet
  facet normal -0.0654098 0.997858 1.0893e-16
    outer loop
       vertex 0.151719 0.247861 0.1
       vertex 0.184351 0.25 0.1
       vertex 0.184351 0.25 0
    endloop
  endfacet
  facet normal -0.195096 0.980784 0
    outer loop
       vertex 0.151719 0.247861 0
       vertex 0.119646 0.241481 0
       vertex 0.119646 0.241481 0.1
    endloop
  endfacet
  facet normal -0.195096 0.980784 0
    outer loop
       vertex 0.119646 0.241481 0.1
       vertex 0.151719 0.247861 0.1
       vertex 0.151719 0.247861 0
    endloop
  endfacet
  facet normal -0.321425 0.946935 0
    outer loop
       vertex 0.119646 0.241481 0
       vertex 0.0886795 0.23097 0
       vertex 0.0886795 0.23097 0.1
    endloop
  endfacet
  facet normal -0.321425 0.946935 0
    outer loop
       vertex 0.0886795 0.23097 0.1
       vertex 0.119646 0.241481 0.1
       vertex 0.119646 0.241481 0
    endloop
  endfacet
  facet normal -0.442302 0.896866 0
    outer loop
       vertex 0.0886795 0.23097 0
       vertex 0.0593505 0.216506 0
       vertex 0.0593505 0.216506 0.1
    endloop
  endfacet
  facet normal -0.442302 0.896866 0
    outer loop
       vertex 0.0593505 0.216506 0.1
       vertex 0.0886795 0.23097 0.1
       vertex 0.0886795 0.23097 0
    endloop
  endfacet
  facet normal -0.555561 0.831476 0
    outer loop
       vertex 0.0593505 0.216506 0
       vertex 0.0321595 0.198338 0
       vertex 0.0321595 0.198338 0.1
    endloop
  endfacet
  facet normal -0.555561 0.831476 0
    outer loop
       vertex 0.0321595 0.198338 0.1
       vertex 0.0593505 0.216506 0.1
       vertex 0.0593505 0.216506 0
    endloop
  endfacet
  facet normal -0.659372 0.751817 0
    outer loop
       vertex 0.0321595 0.198338 0
       vertex 0.00757454 0.176776 0
       vertex 0.00757454 0.176776 0.1
    endloop
  endfacet
  facet normal -0.659372 0.751817 0
    outer loop
       vertex 0.00757454 0.176776 0.1
       vertex 0.0321595 0.198338 0.1
       vertex 0.0321595 0.198338 0
    endloop
  endfacet
  facet normal -0.751817 0.659372 0
    outer loop
       vertex 0.00757454 0.176776 0
       vertex -0.0139875 0.152191 0
       vertex -0.0139875 0.152191 0.1
    endloop
  endfacet
  facet normal -0.751817 0.659372 0
    outer loop
       vertex -0.0139875 0.152191 0.1
       vertex 0.00757454 0.176776 0.1
       vertex 0.00757454 0.176776 0
    endloop
  endfacet
  facet normal -0.831476 0.555561 0
    outer loop
       vertex -0.0139875 0.152191 0
       vertex -0.0321555 0.125 0
       vertex -0.0321555 0.125 0.1
    endloop
  endfacet
  facet normal -0.831476 0.555561 0
    outer loop
       vertex -0.0321555 0.125 0.1
       vertex -0.0139875 0.152191 0.1
       vertex -0.0139875 0.152191 0
    endloop
  endfacet
  facet normal -0.896866 0.442302 0
    outer loop
       vertex -0.0321555 0.125 0
       vertex -0.0466195 0.095671 0
       vertex -0.0466195 0.095671 0.1
    endloop
  endfacet
  facet normal -0.896866 0.442302 0
    outer loop
       vertex -0.0466195 0.095671 0.1
       vertex -0.0321555 0.125 0.1
       vertex -0.0321555 0.125 0
    endloop
  endfacet
  facet normal -0.946935 0.321425 0
    outer loop
       vertex -0.0466195 0.095671 0
       vertex -0.0571305 0.064705 0
       vertex -0.0571305 0.064705 0.1
    endloop
  endfacet
  facet normal -0.946935 0.321425 0
    outer loop
       vertex -0.0571305 0.064705 0.1
       vertex -0.0466195 0.095671 0.1
       vertex -0.0466195 0.095671 0
    endloop
  endfacet
  facet normal -0.980784 0.195096 0
    outer loop
       vertex -0.0571305 0.064705 0
       vertex -0.0635105 0.0326315 0
       vertex -0.0635105 0.0326315 0.1
    endloop
  endfacet
  facet normal -0.980784 0.195096 0
    outer loop
       vertex -0.0635105 0.0326315 0.1
       vertex -0.0571305 0.064705 0.1
       vertex -0.0571305 0.064705 0
    endloop
  endfacet
  facet normal -0.997858 0.0654098 0
    outer loop
       vertex -0.0656495 8.32665e-17 0.1
       vertex -0.0635105 0.0326315 0.1
       vertex -0.0635105 0.0326315 0
    endloop
  endfacet
  facet normal -0.997858 0.0654098 -1.08928e-16
    outer loop
       vertex -0.0635105 0.0326315 0
       vertex -0.0656495 -8.32665e-17 0
       vertex -0.0656495 8.32665e-17 0.1
    endloop
  endfacet
  facet normal -0.997858 -0.0654098 0
    outer loop
       vertex -0.0656495 -8.32665e-17 0
       vertex -0.0635105 -0.0326315 0
       vertex -0.0635105 -0.0326315 0.1
    endloop
  endfacet
  facet normal -0.997858 -0.0654098 1.08928e-16
    outer loop
       vertex -0.0635105 -0.0326315 0.1
       vertex -0.0656495 8.32665e-17 0.1
       vertex -0.0656495 -8.32665e-17 0
    endloop
  endfacet
  facet normal -0.980784 -0.195096 0
    outer loop
       vertex -0.0635105 -0.0326315 0
       vertex -0.0571305 -0.064705 0
       vertex -0.0571305 -0.064705 0.1
    endloop
  endfacet
  facet normal -0.980784 -0.195096 0
    outer loop
       vertex -0.0571305 -0.064705 0.1
       vertex -0.0635105 -0.0326315 0.1
       vertex -0.0635105 -0.0326315 0
    endloop
  endfacet
  facet normal -0.946935 -0.321425 0
    outer loop
       vertex -0.0571305 -0.064705 0
       vertex -0.0466195 -0.095671 0
       vertex -0.0466195 -0.095671 0.1
    endloop
  endfacet
  facet normal -0.946935 -0.321425 0
    outer loop
       vertex -0.0466195 -0.095671 0.1
       vertex -0.0571305 -0.064705 0.1
       vertex -0.0571305 -0.064705 0
    endloop
  endfacet
  facet normal -0.896866 -0.442302 0
    outer loop
       vertex -0.0466195 -0.095671 0
       vertex -0.0321555 -0.125 0
       vertex -0.0321555 -0.125 0.1
    endloop
  endfacet
  facet normal -0.896866 -0.442302 0
    outer loop
       vertex -0.0321555 -0.125 0.1
       vertex -0.0466195 -0.095671 0.1
       vertex -0.0466195 -0.095671 0
    endloop
  endfacet
  facet normal -0.831476 -0.555561 0
    outer loop
       vertex -0.0321555 -0.125 0
       vertex -0.0139875 -0.152191 0
       vertex -0.0139875 -0.152191 0.1
    endloop
  endfacet
  facet normal -0.831476 -0.555561 0
    outer loop
       vertex -0.0139875 -0.152191 0.1
       vertex -0.0321555 -0.125 0.1
       vertex -0.0321555 -0.125 0
    endloop
  endfacet
  facet normal -0.751817 -0.659372 0
    outer loop
       vertex -0.0139875 -0.152191 0
       vertex 0.00757454 -0.176776 0
       vertex 0.00757454 -0.176776 0.1
    endloop
  endfacet
  facet normal -0.751817 -0.659372 0
    outer loop
       vertex 0.00757454 -0.176776 0.1
       vertex -0.0139875 -0.152191 0.1
       vertex -0.0139875 -0.152191 0
    endloop
  endfacet
  facet normal 0.659372 -0.751817 0
    outer loop
       vertex 0.361127 -0.176776 0
       vertex 0.361127 -0.176776 0.1
       vertex 0.336542 -0.198338 0.1
    endloop
  endfacet
  facet normal 0.659372 -0.751817 0
    outer loop
       vertex 0.336542 -0.198338 0.1
       vertex 0.336542 -0.198338 0
       vertex 0.361127 -0.176776 0
    endloop
  endfacet
  facet normal 0.555561 -0.831476 0
    outer loop
       vertex 0.336542 -0.198338 0
       vertex 0.336542 -0.198338 0.1
       vertex 0.309351 -0.216506 0.1
    endloop
  endfacet
  facet normal 0.555561 -0.831476 0
    outer loop
       vertex 0.309351 -0.216506 0.1
       vertex 0.309351 -0.216506 0
       vertex 0.336542 -0.198338 0
    endloop
  endfacet
  facet normal 0.442302 -0.896866 0
    outer loop
       vertex 0.309351 -0.216506 0
       vertex 0.309351 -0.216506 0.1
       vertex 0.280022 -0.23097 0.1
    endloop
  endfacet
  facet normal 0.442302 -0.896866 0
    outer loop
       vertex 0.280022 -0.23097 0.1
       vertex 0.280022 -0.23097 0
       vertex 0.309351 -0.216506 0
    endloop
  endfacet
  facet normal 0.321425 -0.946935 0
    outer loop
       vertex 0.280022 -0.23097 0
       vertex 0.280022 -0.23097 0.1
       vertex 0.249056 -0.241481 0.1
    endloop
  endfacet
  facet normal 0.321425 -0.946935 0
    outer loop
       vertex 0.249056 -0.241481 0.1
       vertex 0.249056 -0.241481 0
       vertex 0.280022 -0.23097 0
    endloop
  endfacet
  facet normal 0.195096 -0.980784 0
    outer loop
       vertex 0.249056 -0.241481 0
       vertex 0.249056 -0.241481 0.1
       vertex 0.216982 -0.247861 0.1
    endloop
  endfacet
  facet normal 0.195096 -0.980784 0
    outer loop
       vertex 0.216982 -0.247861 0.1
       vertex 0.216982 -0.247861 0
       vertex 0.249056 -0.241481 0
    endloop
  endfacet
  facet normal 0.0654098 -0.997858 0
    outer loop
       vertex 0.184351 -0.25 0
       vertex 0.216982 -0.247861 0
       vertex 0.216982 -0.247861 0.1
    endloop
  endfacet
  facet normal 0.0654098 -0.997858 1.0893e-16
    outer loop
       vertex 0.216982 -0.247861 0.1
       vertex 0.184351 -0.25 0.1
       vertex 0.184351 -0.25 0
    endloop
  endfacet
  facet normal -0.0654098 -0.997858 0
    outer loop
       vertex 0.184351 -0.25 0.1
       vertex 0.151719 -0.247861 0.1
       vertex 0.151719 -0.247861 0
    endloop
  endfacet
  facet normal -0.0654098 -0.997858 -1.0893e-16
    outer loop
       vertex 0.151719 -0.247861 0
       vertex 0.184351 -0.25 0
       vertex 0.184351 -0.25 0.1
    endloop
  endfacet
  facet normal -0.195096 -0.980784 0
    outer loop
       vertex 0.151719 -0.247861 0
       vertex 0.151719 -0.247861 0.1
       vertex 0.119646 -0.241481 0.1
    endloop
  endfacet
  facet normal -0.195096 -0.980784 -0
    outer loop
       vertex 0.119646 -0.241481 0.1
       vertex 0.119646 -0.241481 0
       vertex 0.151719 -0.247861 0
    endloop
  endfacet
  facet normal -0.321425 -0.946935 0
    outer loop
       vertex 0.119646 -0.241481 0
       vertex 0.119646 -0.241481 0.1
       vertex 0.0886795 -0.23097 0.1
    endloop
  endfacet
  facet normal -0.321425 -0.946935 -0
    outer loop
       vertex 0.0886795 -0.23097 0.1
       vertex 0.0886795 -0.23097 0
       vertex 0.119646 -0.241481 0
    endloop
  endfacet
  facet normal -0.442302 -0.896866 0
    outer loop
       vertex 0.0886795 -0.23097 0
       vertex 0.0886795 -0.23097 0.1
       vertex 0.0593505 -0.216506 0.1
    endloop
  endfacet
  facet normal -0.442302 -0.896866 -0
    outer loop
       vertex 0.0593505 -0.216506 0.1
       vertex 0.0593505 -0.216506 0
       vertex 0.0886795 -0.23097 0
    endloop
  endfacet
  facet normal -0.555561 -0.831476 0
    outer loop
       vertex 0.0593505 -0.216506 0
       vertex 0.0593505 -0.216506 0.1
       vertex 0.0321595 -0.198338 0.1
    endloop
  endfacet
  facet normal -0.555561 -0.831476 -0
    outer loop
       vertex 0.0321595 -0.198338 0.1
       vertex 0.0321595 -0.198338 0
       vertex 0.0593505 -0.216506 0
    endloop
  endfacet
  facet normal -0.659372 -0.751817 0
    outer loop
       vertex 0.0321595 -0.198338 0
       vertex 0.0321595 -0.198338 0.1
       vertex 0.00757454 -0.176776 0.1
    endloop
  endfacet
  facet normal -0.659372 -0.751817 -0
    outer loop
       vertex 0.00757454 -0.176776 0.1
       vertex 0.00757454 -0.176776 0
       vertex 0.0321595 -0.198338 0
    endloop
  endfacet
endsolid cylinder
