solid cylinder
  facet normal 0.751817 -0.659372 0
    outer loop
       vertex 0.456239 -0.176776 0
       vertex 0.477801 -0.152191 0
       vertex 0.477801 -0.152191 0.1
    endloop
  endfacet
  facet normal 0.751817 -0.659372 0
    outer loop
       vertex 0.477801 -0.152191 0.1
       vertex 0.456239 -0.176776 0.1
       vertex 0.456239 -0.176776 0
    endloop
  endfacet
  facet normal 0.831476 -0.555561 0
    outer loop
       vertex 0.477801 -0.152191 0
       vertex 0.495969 -0.125 0
       vertex 0.495969 -0.125 0.1
    endloop
  endfacet
  facet normal 0.831476 -0.555561 0
    outer loop
       vertex 0.495969 -0.125 0.1
       vertex 0.477801 -0.152191 0.1
       vertex 0.477801 -0.152191 0
    endloop
  endfacet
  facet normal 0.896866 -0.442302 0
    outer loop
       vertex 0.495969 -0.125 0
       vertex 0.510433 -0.095671 0
       vertex 0.510433 -0.095671 0.1
    endloop
  endfacet
  facet normal 0.896866 -0.442302 0
    outer loop
       vertex 0.510433 -0.095671 0.1
       vertex 0.495969 -0.125 0.1
       vertex 0.495969 -0.125 0
    endloop
  endfacet
  facet normal 0.946935 -0.321425 0
    outer loop
       vertex 0.510433 -0.095671 0
       vertex 0.520944 -0.064705 0
       vertex 0.520944 -0.064705 0.1
    endloop
  endfacet
  facet normal 0.946935 -0.321425 0
    outer loop
       vertex 0.520944 -0.064705 0.1
       vertex 0.510433 -0.095671 0.1
       vertex 0.510433 -0.095671 0
    endloop
  endfacet
  facet normal 0.980784 -0.195096 0
    outer loop
       vertex 0.520944 -0.064705 0
       vertex 0.527324 -0.0326315 0
       vertex 0.527324 -0.0326315 0.1
    endloop
  endfacet
  facet normal 0.980784 -0.195096 0
    outer loop
       vertex 0.527324 -0.0326315 0.1
       vertex 0.520944 -0.064705 0.1
       vertex 0.520944 -0.064705 0
    endloop
  endfacet
  facet normal 0.997858 -0.0654098 0
    outer loop
       vertex 0.529463 -8.32665e-17 0.1
       vertex 0.527324 -0.0326315 0.1
       vertex 0.527324 -0.0326315 0
    endloop
  endfacet
  facet normal 0.997858 -0.0654098 -1.08928e-16
    outer loop
       vertex 0.527324 -0.0326315 0
       vertex 0.529463 8.32665e-17 0
       vertex 0.529463 -8.32665e-17 0.1
    endloop
  endfacet
  facet normal 0.997858 0.0654098 0
    outer loop
       vertex 0.529463 8.32665e-17 0
       vertex 0.527324 0.0326315 0
       vertex 0.527324 0.0326315 0.1
    endloop
  endfacet
  facet normal 0.997858 0.0654098 1.08928e-16
    outer loop
       vertex 0.527324 0.0326315 0.1
       vertex 0.529463 -8.32665e-17 0.1
       vertex 0.529463 8.32665e-17 0
    endloop
  endfacet
  facet normal 0.980784 0.195096 0
    outer loop
       vertex 0.527324 0.0326315 0
       vertex 0.520944 0.064705 0
       vertex 0.520944 0.064705 0.1
    endloop
  endfacet
  facet normal 0.980784 0.195096 0
    outer loop
       vertex 0.520944 0.064705 0.1
       vertex 0.527324 0.0326315 0.1
       vertex 0.527324 0.0326315 0
    endloop
  endfacet
  facet normal 0.946935 0.321425 0
    outer loop
       vertex 0.520944 0.064705 0
       vertex 0.510433 0.095671 0
       vertex 0.510433 0.095671 0.1
    endloop
  endfacet
  facet normal 0.946935 0.321425 0
    outer loop
       vertex 0.510433 0.095671 0.1
       vertex 0.520944 0.064705 0.1
       vertex 0.520944 0.064705 0
    endloop
  endfacet
  facet normal 0.896866 0.442302 0
    outer loop
       vertex 0.510433 0.095671 0
       vertex 0.495969 0.125 0
       vertex 0.495969 0.125 0.1
    endloop
  endfacet
  facet normal 0.896866 0.442302 0
    outer loop
       vertex 0.495969 0.125 0.1
       vertex 0.510433 0.095671 0.1
       vertex 0.510433 0.095671 0
    endloop
  endfacet
  facet normal 0.831476 0.555561 0
    outer loop
       vertex 0.495969 0.125 0
       vertex 0.477801 0.152191 0
       vertex 0.477801 0.152191 0.1
    endloop
  endfacet
  facet normal 0.831476 0.555561 0
    outer loop
       vertex 0.477801 0.152191 0.1
       vertex 0.495969 0.125 0.1
       vertex 0.495969 0.125 0
    endloop
  endfacet
  facet normal 0.751817 0.659372 0
    outer loop
       vertex 0.477801 0.152191 0
       vertex 0.456239 0.176776 0
       vertex 0.456239 0.176776 0.1
    endloop
  endfacet
  facet normal 0.751817 0.659372 0
    outer loop
       vertex 0.456239 0.176776 0.1
       vertex 0.477801 0.152191 0.1
       vertex 0.477801 0.152191 0
    endloop
  endfacet
  facet normal 0.659372 0.751817 0
    outer loop
       vertex 0.456239 0.176776 0
       vertex 0.431654 0.198338 0
       vertex 0.431654 0.198338 0.1
    endloop
  endfacet
  facet normal 0.659372 0.751817 0
    outer loop
       vertex 0.431654 0.198338 0.1
       vertex 0.456239 0.176776 0.1
       vertex 0.456239 0.176776 0
    endloop
  endfacet
  facet normal 0.555561 0.831476 0
    outer loop
       vertex 0.431654 0.198338 0
       vertex 0.404463 0.216506 0
       vertex 0.404463 0.216506 0.1
    endloop
  endfacet
  facet normal 0.555561 0.831476 0
    outer loop
       vertex 0.404463 0.216506 0.1
       vertex 0.431654 0.198338 0.1
       vertex 0.431654 0.198338 0
    endloop
  endfacet
  facet normal 0.442302 0.896866 0
    outer loop
       vertex 0.404463 0.216506 0
       vertex 0.375134 0.23097 0
       vertex 0.375134 0.23097 0.1
    endloop
  endfacet
  facet normal 0.442302 0.896866 0
    outer loop
       vertex 0.375134 0.23097 0.1
       vertex 0.404463 0.216506 0.1
       vertex 0.404463 0.216506 0
    endloop
  endfacet
  facet normal 0.321425 0.946935 0
    outer loop
       vertex 0.375134 0.23097 0
       vertex 0.344168 0.241481 0
       vertex 0.344168 0.241481 0.1
    endloop
  endfacet
  facet normal 0.321425 0.946935 0
    outer loop
       vertex 0.344168 0.241481 0.1
       vertex 0.375134 0.23097 0.1
       vertex 0.375134 0.23097 0
    endloop
  endfacet
  facet normal 0.195096 0.980784 0
    outer loop
       vertex 0.344168 0.241481 0
       vertex 0.312094 0.247861 0
       vertex 0.312094 0.247861 0.1
    endloop
  endfacet
  facet normal 0.195096 0.980784 0
    outer loop
       vertex 0.312094 0.247861 0.1
       vertex 0.344168 0.241481 0.1
       vertex 0.344168 0.241481 0
    endloop
  endfacet
  facet normal 0.0654098 0.997858 0
    outer loop
       vertex 0.279463 0.25 0.1
       vertex 0.312094 0.247861 0.1
       vertex 0.312094 0.247861 0
    endloop
  endfacet
  facet normal 0.0654098 0.997858 -1.45239e-16
    outer loop
       vertex 0.312094 0.247861 0
       vertex 0.279463 0.25 0
       vertex 0.279463 0.25 0.1
    endloop
  endfacet
  facet normal -0.0654098 0.997858 0
    outer loop
       vertex 0.279463 0.25 0
       vertex 0.246831 0.247861 0
       vertex 0.246831 0.247861 0.1
    endloop
  endfacet
  facet normal -0.0654098 0.997858 1.45239e-16
    outer loop
       vertex 0.246831 0.247861 0.1
       vertex 0.279463 0.25 0.1
       vertex 0.279463 0.25 0
    endloop
  endfacet
  facet normal -0.195096 0.980784 0
    outer loop
       vertex 0.246831 0.247861 0
       vertex 0.214758 0.241481 0
       vertex 0.214758 0.241481 0.1
    endloop
  endfacet
  facet normal -0.195096 0.980784 0
    outer loop
       vertex 0.214758 0.241481 0.1
       vertex 0.246831 0.247861 0.1
       vertex 0.246831 0.247861 0
    endloop
  endfacet
  facet normal -0.321425 0.946935 0
    outer loop
       vertex 0.214758 0.241481 0
       vertex 0.183792 0.23097 0
       vertex 0.183792 0.23097 0.1
    endloop
  endfacet
  facet normal -0.321425 0.946935 0
    outer loop
       vertex 0.183792 0.23097 0.1
       vertex 0.214758 0.241481 0.1
       vertex 0.214758 0.241481 0
    endloop
  endfacet
  facet normal -0.442302 0.896866 0
    outer loop
       vertex 0.183792 0.23097 0
       vertex 0.154463 0.216506 0
       vertex 0.154463 0.216506 0.1
    endloop
  endfacet
  facet normal -0.442302 0.896866 0
    outer loop
       vertex 0.154463 0.216506 0.1
       vertex 0.183792 0.23097 0.1
       vertex 0.183792 0.23097 0
    endloop
  endfacet
  facet normal -0.555561 0.831476 0
    outer loop
       vertex 0.154463 0.216506 0
       vertex 0.127272 0.198338 0
       vertex 0.127272 0.198338 0.1
    endloop
  endfacet
  facet normal -0.555561 0.831476 0
    outer loop
       vertex 0.127272 0.198338 0.1
       vertex 0.154463 0.216506 0.1
       vertex 0.154463 0.216506 0
    endloop
  endfacet
  facet normal -0.659372 0.751817 0
    outer loop
       vertex 0.127272 0.198338 0
       vertex 0.102687 0.176776 0
       vertex 0.102687 0.176776 0.1
    endloop
  endfacet
  facet normal -0.659372 0.751817 0
    outer loop
       vertex 0.102687 0.176776 0.1
       vertex 0.127272 0.198338 0.1
       vertex 0.127272 0.198338 0
    endloop
  endfacet
  facet normal -0.751817 0.659372 0
    outer loop
       vertex 0.102687 0.176776 0
       vertex 0.0811245 0.152191 0
       vertex 0.0811245 0.152191 0.1
    endloop
  endfacet
  facet normal -0.751817 0.659372 0
    outer loop
       vertex 0.0811245 0.152191 0.1
       vertex 0.102687 0.176776 0.1
       vertex 0.102687 0.176776 0
    endloop
  endfacet
  facet normal -0.831476 0.555561 0
    outer loop
       vertex 0.0811245 0.152191 0
       vertex 0.0629565 0.125 0
       vertex 0.0629565 0.125 0.1
    endloop
  endfacet
  facet normal -0.831476 0.555561 0
    outer loop
       vertex 0.0629565 0.125 0.1
       vertex 0.0811245 0.152191 0.1
       vertex 0.0811245 0.152191 0
    endloop
  endfacet
  facet normal -0.896866 0.442302 0
    outer loop
       vertex 0.0629565 0.125 0
       vertex 0.0484925 0.095671 0
       vertex 0.0484925 0.095671 0.1
    endloop
  endfacet
  facet normal -0.896866 0.442302 0
    outer loop
       vertex 0.0484925 0.095671 0.1
       vertex 0.0629565 0.125 0.1
       vertex 0.0629565 0.125 0
    endloop
  endfacet
  facet normal -0.946935 0.321425 0
    outer loop
       vertex 0.0484925 0.095671 0
       vertex 0.0379815 0.064705 0
       vertex 0.0379815 0.064705 0.1
    endloop
  endfacet
  facet normal -0.946935 0.321425 0
    outer loop
       vertex 0.0379815 0.064705 0.1
       vertex 0.0484925 0.095671 0.1
       vertex 0.0484925 0.095671 0
    endloop
  endfacet
  facet normal -0.980784 0.195096 0
    outer loop
       vertex 0.0379815 0.064705 0
       vertex 0.0316015 0.0326315 0
       vertex 0.0316015 0.0326315 0.1
    endloop
  endfacet
  facet normal -0.980784 0.195096 0
    outer loop
       vertex 0.0316015 0.0326315 0.1
       vertex 0.0379815 0.064705 0.1
       vertex 0.0379815 0.064705 0
    endloop
  endfacet
  facet normal -0.997858 0.0654098 0
    outer loop
       vertex 0.0294625 8.32665e-17 0.1
       vertex 0.0316015 0.0326315 0.1
       vertex 0.0316015 0.0326315 0
    endloop
  endfacet
  facet normal -0.997858 0.0654098 -1.08928e-16
    outer loop
       vertex 0.0316015 0.0326315 0
       vertex 0.0294625 -8.32665e-17 0
       vertex 0.0294625 8.32665e-17 0.1
    endloop
  endfacet
  facet normal -0.997858 -0.0654098 0
    outer loop
       vertex 0.0294625 -8.32665e-17 0
       vertex 0.0316015 -0.0326315 0
       vertex 0.0316015 -0.0326315 0.1
    endloop
  endfacet
  facet normal -0.997858 -0.0654098 1.08928e-16
    outer loop
       vertex 0.0316015 -0.0326315 0.1
       vertex 0.0294625 8.32665e-17 0.1
       vertex 0.0294625 -8.32665e-17 0
    endloop
  endfacet
  facet normal -0.980784 -0.195096 0
    outer loop
       vertex 0.0316015 -0.0326315 0
       vertex 0.0379815 -0.064705 0
       vertex 0.0379815 -0.064705 0.1
    endloop
  endfacet
  facet normal -0.980784 -0.195096 0
    outer loop
       vertex 0.0379815 -0.064705 0.1
       vertex 0.0316015 -0.0326315 0.1
       vertex 0.0316015 -0.0326315 0
    endloop
  endfacet
  facet normal -0.946935 -0.321425 0
    outer loop
       vertex 0.0379815 -0.064705 0
       vertex 0.0484925 -0.095671 0
       vertex 0.0484925 -0.095671 0.1
    endloop
  endfacet
  facet normal -0.946935 -0.321425 0
    outer loop
       vertex 0.0484925 -0.095671 0.1
       vertex 0.0379815 -0.064705 0.1
       vertex 0.0379815 -0.064705 0
    endloop
  endfacet
  facet normal -0.896866 -0.442302 0
    outer loop
       vertex 0.0484925 -0.095671 0
       vertex 0.0629565 -0.125 0
       vertex 0.0629565 -0.125 0.1
    endloop
  endfacet
  facet normal -0.896866 -0.442302 0
    outer loop
       vertex 0.0629565 -0.125 0.1
       vertex 0.0484925 -0.095671 0.1
       vertex 0.0484925 -0.095671 0
    endloop
  endfacet
  facet normal -0.831476 -0.555561 0
    outer loop
       vertex 0.0629565 -0.125 0
       vertex 0.0811245 -0.152191 0
       vertex 0.0811245 -0.152191 0.1
    endloop
  endfacet
  facet normal -0.831476 -0.555561 0
    outer loop
       vertex 0.0811245 -0.152191 0.1
       vertex 0.0629565 -0.125 0.1
       vertex 0.0629565 -0.125 0
    endloop
  endfacet
  facet normal -0.751817 -0.659372 0
    outer loop
       vertex 0.0811245 -0.152191 0
       vertex 0.102687 -0.176776 0
       vertex 0.102687 -0.176776 0.1
    endloop
  endfacet
  facet normal -0.751817 -0.659372 0
    outer loop
       vertex 0.102687 -0.176776 0.1
       vertex 0.0811245 -0.152191 0.1
       vertex 0.0811245 -0.152191 0
    endloop
  endfacet
  facet normal 0.659372 -0.751817 0
    outer loop
       vertex 0.456239 -0.176776 0
       vertex 0.456239 -0.176776 0.1
       vertex 0.431654 -0.198338 0.1
    endloop
  endfacet
  facet normal 0.659372 -0.751817 0
    outer loop
       vertex 0.431654 -0.198338 0.1
       vertex 0.431654 -0.198338 0
       vertex 0.456239 -0.176776 0
    endloop
  endfacet
  facet normal 0.555561 -0.831476 0
    outer loop
       vertex 0.431654 -0.198338 0
       vertex 0.431654 -0.198338 0.1
       vertex 0.404463 -0.216506 0.1
    endloop
  endfacet
  facet normal 0.555561 -0.831476 0
    outer loop
       vertex 0.404463 -0.216506 0.1
       vertex 0.404463 -0.216506 0
       vertex 0.431654 -0.198338 0
    endloop
  endfacet
  facet normal 0.442302 -0.896866 0
    outer loop
       vertex 0.404463 -0.216506 0
       vertex 0.404463 -0.216506 0.1
       vertex 0.375134 -0.23097 0.1
    endloop
  endfacet
  facet normal 0.442302 -0.896866 0
    outer loop
       vertex 0.375134 -0.23097 0.1
       vertex 0.375134 -0.23097 0
       vertex 0.404463 -0.216506 0
    endloop
  endfacet
  facet normal 0.321425 -0.946935 0
    outer loop
       vertex 0.375134 -0.23097 0
       vertex 0.375134 -0.23097 0.1
       vertex 0.344168 -0.241481 0.1
    endloop
  endfacet
  facet normal 0.321425 -0.946935 0
    outer loop
       vertex 0.344168 -0.241481 0.1
       vertex 0.344168 -0.241481 0
       vertex 0.375134 -0.23097 0
    endloop
  endfacet
  facet normal 0.195096 -0.980784 0
    outer loop
       vertex 0.344168 -0.241481 0
       vertex 0.344168 -0.241481 0.1
       vertex 0.312094 -0.247861 0.1
    endloop
  endfacet
  facet normal 0.195096 -0.980784 0
    outer loop
       vertex 0.312094 -0.247861 0.1
       vertex 0.312094 -0.247861 0
       vertex 0.344168 -0.241481 0
    endloop
  endfacet
  facet normal 0.0654098 -0.997858 0
    outer loop
       vertex 0.279463 -0.25 0
       vertex 0.312094 -0.247861 0
       vertex 0.312094 -0.247861 0.1
    endloop
  endfacet
  facet normal 0.0654098 -0.997858 1.45239e-16
    outer loop
       vertex 0.312094 -0.247861 0.1
       vertex 0.279463 -0.25 0.1
       vertex 0.279463 -0.25 0
    endloop
  endfacet
  facet normal -0.0654098 -0.997858 0
    outer loop
       vertex 0.279463 -0.25 0.1
       vertex 0.246831 -0.247861 0.1
       vertex 0.246831 -0.247861 0
    endloop
  endfacet
  facet normal -0.0654098 -0.997858 -1.45239e-16
    outer loop
       vertex 0.246831 -0.247861 0
       vertex 0.279463 -0.25 0
       vertex 0.279463 -0.25 0.1
    endloop
  endfacet
  facet normal -0.195096 -0.980784 0
    outer loop
       vertex 0.246831 -0.247861 0
       vertex 0.246831 -0.247861 0.1
       vertex 0.214758 -0.241481 0.1
    endloop
  endfacet
  facet normal -0.195096 -0.980784 -0
    outer loop
       vertex 0.214758 -0.241481 0.1
       vertex 0.214758 -0.241481 0
       vertex 0.246831 -0.247861 0
    endloop
  endfacet
  facet normal -0.321425 -0.946935 0
    outer loop
       vertex 0.214758 -0.241481 0
       vertex 0.214758 -0.241481 0.1
       vertex 0.183792 -0.23097 0.1
    endloop
  endfacet
  facet normal -0.321425 -0.946935 -0
    outer loop
       vertex 0.183792 -0.23097 0.1
       vertex 0.183792 -0.23097 0
       vertex 0.214758 -0.241481 0
    endloop
  endfacet
  facet normal -0.442302 -0.896866 0
    outer loop
       vertex 0.183792 -0.23097 0
       vertex 0.183792 -0.23097 0.1
       vertex 0.154463 -0.216506 0.1
    endloop
  endfacet
  facet normal -0.442302 -0.896866 -0
    outer loop
       vertex 0.154463 -0.216506 0.1
       vertex 0.154463 -0.216506 0
       vertex 0.183792 -0.23097 0
    endloop
  endfacet
  facet normal -0.555561 -0.831476 0
    outer loop
       vertex 0.154463 -0.216506 0
       vertex 0.154463 -0.216506 0.1
       vertex 0.127272 -0.198338 0.1
    endloop
  endfacet
  facet normal -0.555561 -0.831476 -0
    outer loop
       vertex 0.127272 -0.198338 0.1
       vertex 0.127272 -0.198338 0
       vertex 0.154463 -0.216506 0
    endloop
  endfacet
  facet normal -0.659372 -0.751817 0
    outer loop
       vertex 0.127272 -0.198338 0
       vertex 0.127272 -0.198338 0.1
       vertex 0.102687 -0.176776 0.1
    endloop
  endfacet
  facet normal -0.659372 -0.751817 -0
    outer loop
       vertex 0.102687 -0.176776 0.1
       vertex 0.102687 -0.176776 0
       vertex 0.127272 -0.198338 0
    endloop
  endfacet
endsolid cylinder
