solid cylinder
  facet normal 0.751817 -0.659372 0
    outer loop
       vertex 0.302722 -0.176776 0
       vertex 0.324284 -0.152191 0
       vertex 0.324284 -0.152191 0.1
    endloop
  endfacet
  facet normal 0.751817 -0.659372 0
    outer loop
       vertex 0.324284 -0.152191 0.1
       vertex 0.302722 -0.176776 0.1
       vertex 0.302722 -0.176776 0
    endloop
  endfacet
  facet normal 0.831476 -0.555561 0
    outer loop
       vertex 0.324284 -0.152191 0
       vertex 0.342452 -0.125 0
       vertex 0.342452 -0.125 0.1
    endloop
  endfacet
  facet normal 0.831476 -0.555561 0
    outer loop
       vertex 0.342452 -0.125 0.1
       vertex 0.324284 -0.152191 0.1
       vertex 0.324284 -0.152191 0
    endloop
  endfacet
  facet normal 0.896866 -0.442302 0
    outer loop
       vertex 0.342452 -0.125 0
       vertex 0.356916 -0.095671 0
       vertex 0.356916 -0.095671 0.1
    endloop
  endfacet
  facet normal 0.896866 -0.442302 0
    outer loop
       vertex 0.356916 -0.095671 0.1
       vertex 0.342452 -0.125 0.1
       vertex 0.342452 -0.125 0
    endloop
  endfacet
  facet normal 0.946935 -0.321425 0
    outer loop
       vertex 0.356916 -0.095671 0
       vertex 0.367427 -0.064705 0
       vertex 0.367427 -0.064705 0.1
    endloop
  endfacet
  facet normal 0.946935 -0.321425 0
    outer loop
       vertex 0.367427 -0.064705 0.1
       vertex 0.356916 -0.095671 0.1
       vertex 0.356916 -0.095671 0
    endloop
  endfacet
  facet normal 0.980784 -0.195096 0
    outer loop
       vertex 0.367427 -0.064705 0
       vertex 0.373807 -0.0326315 0
       vertex 0.373807 -0.0326315 0.1
    endloop
  endfacet
  facet normal 0.980784 -0.195096 0
    outer loop
       vertex 0.373807 -0.0326315 0.1
       vertex 0.367427 -0.064705 0.1
       vertex 0.367427 -0.064705 0
    endloop
  endfacet
  facet normal 0.997858 -0.0654098 0
    outer loop
       vertex 0.375946 -8.32665e-17 0.1
       vertex 0.373807 -0.0326315 0.1
       vertex 0.373807 -0.0326315 0
    endloop
  endfacet
  facet normal 0.997858 -0.0654098 -1.08928e-16
    outer loop
       vertex 0.373807 -0.0326315 0
       vertex 0.375946 8.32665e-17 0
       vertex 0.375946 -8.32665e-17 0.1
    endloop
  endfacet
  facet normal 0.997858 0.0654098 0
    outer loop
       vertex 0.375946 8.32665e-17 0
       vertex 0.373807 0.0326315 0
       vertex 0.373807 0.0326315 0.1
    endloop
  endfacet
  facet normal 0.997858 0.0654098 1.08928e-16
    outer loop
       vertex 0.373807 0.0326315 0.1
       vertex 0.375946 -8.32665e-17 0.1
       vertex 0.375946 8.32665e-17 0
    endloop
  endfacet
  facet normal 0.980784 0.195096 0
    outer loop
       vertex 0.373807 0.0326315 0
       vertex 0.367427 0.064705 0
       vertex 0.367427 0.064705 0.1
    endloop
  endfacet
  facet normal 0.980784 0.195096 0
    outer loop
       vertex 0.367427 0.064705 0.1
       vertex 0.373807 0.0326315 0.1
       vertex 0.373807 0.0326315 0
    endloop
  endfacet
  facet normal 0.946935 0.321425 0
    outer loop
       vertex 0.367427 0.064705 0
       vertex 0.356916 0.095671 0
       vertex 0.356916 0.095671 0.1
    endloop
  endfacet
  facet normal 0.946935 0.321425 0
    outer loop
       vertex 0.356916 0.095671 0.1
       vertex 0.367427 0.064705 0.1
       vertex 0.367427 0.064705 0
    endloop
  endfacet
  facet normal 0.896866 0.442302 0
    outer loop
       vertex 0.356916 0.095671 0
       vertex 0.342452 0.125 0
       vertex 0.342452 0.125 0.1
    endloop
  endfacet
  facet normal 0.896866 0.442302 0
    outer loop
       vertex 0.342452 0.125 0.1
       vertex 0.356916 0.095671 0.1
       vertex 0.356916 0.095671 0
    endloop
  endfacet
  facet normal 0.831476 0.555561 0
    outer loop
       vertex 0.342452 0.125 0
       vertex 0.324284 0.152191 0
       vertex 0.324284 0.152191 0.1
    endloop
  endfacet
  facet normal 0.831476 0.555561 0
    outer loop
       vertex 0.324284 0.152191 0.1
       vertex 0.342452 0.125 0.1
       vertex 0.342452 0.125 0
    endloop
  endfacet
  facet normal 0.751817 0.659372 0
    outer loop
       vertex 0.324284 0.152191 0
       vertex 0.302722 0.176776 0
       vertex 0.302722 0.176776 0.1
    endloop
  endfacet
  facet normal 0.751817 0.659372 0
    outer loop
       vertex 0.302722 0.176776 0.1
       vertex 0.324284 0.152191 0.1
       vertex 0.324284 0.152191 0
    endloop
  endfacet
  facet normal 0.659372 0.751817 0
    outer loop
       vertex 0.302722 0.176776 0
       vertex 0.278137 0.198338 0
       vertex 0.278137 0.198338 0.1
    endloop
  endfacet
  facet normal 0.659372 0.751817 0
    outer loop
       vertex 0.278137 0.198338 0.1
       vertex 0.302722 0.176776 0.1
       vertex 0.302722 0.176776 0
    endloop
  endfacet
  facet normal 0.555561 0.831476 0
    outer loop
       vertex 0.278137 0.198338 0
       vertex 0.250946 0.216506 0
       vertex 0.250946 0.216506 0.1
    endloop
  endfacet
  facet normal 0.555561 0.831476 0
    outer loop
       vertex 0.250946 0.216506 0.1
       vertex 0.278137 0.198338 0.1
       vertex 0.278137 0.198338 0
    endloop
  endfacet
  facet normal 0.442302 0.896866 0
    outer loop
       vertex 0.250946 0.216506 0
       vertex 0.221617 0.23097 0
       vertex 0.221617 0.23097 0.1
    endloop
  endfacet
  facet normal 0.442302 0.896866 0
    outer loop
       vertex 0.221617 0.23097 0.1
       vertex 0.250946 0.216506 0.1
       vertex 0.250946 0.216506 0
    endloop
  endfacet
  facet normal 0.321425 0.946935 0
    outer loop
       vertex 0.221617 0.23097 0
       vertex 0.190651 0.241481 0
       vertex 0.190651 0.241481 0.1
    endloop
  endfacet
  facet normal 0.321425 0.946935 0
    outer loop
       vertex 0.190651 0.241481 0.1
       vertex 0.221617 0.23097 0.1
       vertex 0.221617 0.23097 0
    endloop
  endfacet
  facet normal 0.195096 0.980784 0
    outer loop
       vertex 0.190651 0.241481 0
       vertex 0.158578 0.247861 0
       vertex 0.158578 0.247861 0.1
    endloop
  endfacet
  facet normal 0.195096 0.980784 0
    outer loop
       vertex 0.158578 0.247861 0.1
       vertex 0.190651 0.241481 0.1
       vertex 0.190651 0.241481 0
    endloop
  endfacet
  facet normal 0.0654098 0.997858 0
    outer loop
       vertex 0.125946 0.25 0.1
       vertex 0.158578 0.247861 0.1
       vertex 0.158578 0.247861 0
    endloop
  endfacet
  facet normal 0.0654098 0.997858 -1.0893e-16
    outer loop
       vertex 0.158578 0.247861 0
       vertex 0.125946 0.25 0
       vertex 0.125946 0.25 0.1
    endloop
  endfacet
  facet normal -0.0654098 0.997858 0
    outer loop
       vertex 0.125946 0.25 0
       vertex 0.0933146 0.247861 0
       vertex 0.0933146 0.247861 0.1
    endloop
  endfacet
  facet normal -0.0654098 0.997858 1.0893e-16
    outer loop
       vertex 0.0933146 0.247861 0.1
       vertex 0.125946 0.25 0.1
       vertex 0.125946 0.25 0
    endloop
  endfacet
  facet normal -0.195096 0.980784 0
    outer loop
       vertex 0.0933146 0.247861 0
       vertex 0.0612411 0.241481 0
       vertex 0.0612411 0.241481 0.1
    endloop
  endfacet
  facet normal -0.195096 0.980784 0
    outer loop
       vertex 0.0612411 0.241481 0.1
       vertex 0.0933146 0.247861 0.1
       vertex 0.0933146 0.247861 0
    endloop
  endfacet
  facet normal -0.321425 0.946935 0
    outer loop
       vertex 0.0612411 0.241481 0
       vertex 0.0302751 0.23097 0
       vertex 0.0302751 0.23097 0.1
    endloop
  endfacet
  facet normal -0.321425 0.946935 0
    outer loop
       vertex 0.0302751 0.23097 0.1
       vertex 0.0612411 0.241481 0.1
       vertex 0.0612411 0.241481 0
    endloop
  endfacet
  facet normal -0.442302 0.896866 0
    outer loop
       vertex 0.0302751 0.23097 0
       vertex 0.000946132 0.216506 0
       vertex 0.000946132 0.216506 0.1
    endloop
  endfacet
  facet normal -0.442302 0.896866 0
    outer loop
       vertex 0.000946132 0.216506 0.1
       vertex 0.0302751 0.23097 0.1
       vertex 0.0302751 0.23097 0
    endloop
  endfacet
  facet normal -0.555561 0.831476 0
    outer loop
       vertex 0.000946132 0.216506 0
       vertex -0.0262449 0.198338 0
       vertex -0.0262449 0.198338 0.1
    endloop
  endfacet
  facet normal -0.555561 0.831476 0
    outer loop
       vertex -0.0262449 0.198338 0.1
       vertex 0.000946132 0.216506 0.1
       vertex 0.000946132 0.216506 0
    endloop
  endfacet
  facet normal -0.659372 0.751817 0
    outer loop
       vertex -0.0262449 0.198338 0
       vertex -0.0508299 0.176776 0
       vertex -0.0508299 0.176776 0.1
    endloop
  endfacet
  facet normal -0.659372 0.751817 0
    outer loop
       vertex -0.0508299 0.176776 0.1
       vertex -0.0262449 0.198338 0.1
       vertex -0.0262449 0.198338 0
    endloop
  endfacet
  facet normal -0.751817 0.659372 0
    outer loop
       vertex -0.0508299 0.176776 0
       vertex -0.0723919 0.152191 0
       vertex -0.0723919 0.152191 0.1
    endloop
  endfacet
  facet normal -0.751817 0.659372 0
    outer loop
       vertex -0.0723919 0.152191 0.1
       vertex -0.0508299 0.176776 0.1
       vertex -0.0508299 0.176776 0
    endloop
  endfacet
  facet normal -0.831476 0.555561 0
    outer loop
       vertex -0.0723919 0.152191 0
       vertex -0.0905599 0.125 0
       vertex -0.0905599 0.125 0.1
    endloop
  endfacet
  facet normal -0.831476 0.555561 0
    outer loop
       vertex -0.0905599 0.125 0.1
       vertex -0.0723919 0.152191 0.1
       vertex -0.0723919 0.152191 0
    endloop
  endfacet
  facet normal -0.896866 0.442302 0
    outer loop
       vertex -0.0905599 0.125 0
       vertex -0.105024 0.095671 0
       vertex -0.105024 0.095671 0.1
    endloop
  endfacet
  facet normal -0.896866 0.442302 0
    outer loop
       vertex -0.105024 0.095671 0.1
       vertex -0.0905599 0.125 0.1
       vertex -0.0905599 0.125 0
    endloop
  endfacet
  facet normal -0.946935 0.321425 0
    outer loop
       vertex -0.105024 0.095671 0
       vertex -0.115535 0.064705 0
       vertex -0.115535 0.064705 0.1
    endloop
  endfacet
  facet normal -0.946935 0.321425 0
    outer loop
       vertex -0.115535 0.064705 0.1
       vertex -0.105024 0.095671 0.1
       vertex -0.105024 0.095671 0
    endloop
  endfacet
  facet normal -0.980784 0.195096 0
    outer loop
       vertex -0.115535 0.064705 0
       vertex -0.121915 0.0326315 0
       vertex -0.121915 0.0326315 0.1
    endloop
  endfacet
  facet normal -0.980784 0.195096 0
    outer loop
       vertex -0.121915 0.0326315 0.1
       vertex -0.115535 0.064705 0.1
       vertex -0.115535 0.064705 0
    endloop
  endfacet
  facet normal -0.997858 0.0654098 0
    outer loop
       vertex -0.124054 8.32665e-17 0.1
       vertex -0.121915 0.0326315 0.1
       vertex -0.121915 0.0326315 0
    endloop
  endfacet
  facet normal -0.997858 0.0654098 -1.08928e-16
    outer loop
       vertex -0.121915 0.0326315 0
       vertex -0.124054 -8.32665e-17 0
       vertex -0.124054 8.32665e-17 0.1
    endloop
  endfacet
  facet normal -0.997858 -0.0654098 0
    outer loop
       vertex -0.124054 -8.32665e-17 0
       vertex -0.121915 -0.0326315 0
       vertex -0.121915 -0.0326315 0.1
    endloop
  endfacet
  facet normal -0.997858 -0.0654098 1.08928e-16
    outer loop
       vertex -0.121915 -0.0326315 0.1
       vertex -0.124054 8.32665e-17 0.1
       vertex -0.124054 -8.32665e-17 0
    endloop
  endfacet
  facet normal -0.980784 -0.195096 0
    outer loop
       vertex -0.121915 -0.0326315 0
       vertex -0.115535 -0.064705 0
       vertex -0.115535 -0.064705 0.1
    endloop
  endfacet
  facet normal -0.980784 -0.195096 0
    outer loop
       vertex -0.115535 -0.064705 0.1
       vertex -0.121915 -0.0326315 0.1
       vertex -0.121915 -0.0326315 0
    endloop
  endfacet
  facet normal -0.946935 -0.321425 0
    outer loop
       vertex -0.115535 -0.064705 0
       vertex -0.105024 -0.095671 0
       vertex -0.105024 -0.095671 0.1
    endloop
  endfacet
  facet normal -0.946935 -0.321425 0
    outer loop
       vertex -0.105024 -0.095671 0.1
       vertex -0.115535 -0.064705 0.1
       vertex -0.115535 -0.064705 0
    endloop
  endfacet
  facet normal -0.896866 -0.442302 0
    outer loop
       vertex -0.105024 -0.095671 0
       vertex -0.0905599 -0.125 0
       vertex -0.0905599 -0.125 0.1
    endloop
  endfacet
  facet normal -0.896866 -0.442302 0
    outer loop
       vertex -0.0905599 -0.125 0.1
       vertex -0.105024 -0.095671 0.1
       vertex -0.105024 -0.095671 0
    endloop
  endfacet
  facet normal -0.831476 -0.555561 0
    outer loop
       vertex -0.0905599 -0.125 0
       vertex -0.0723919 -0.152191 0
       vertex -0.0723919 -0.152191 0.1
    endloop
  endfacet
  facet normal -0.831476 -0.555561 0
    outer loop
       vertex -0.0723919 -0.152191 0.1
       vertex -0.0905599 -0.125 0.1
       vertex -0.0905599 -0.125 0
    endloop
  endfacet
  facet normal -0.751817 -0.659372 0
    outer loop
       vertex -0.0723919 -0.152191 0
       vertex -0.0508299 -0.176776 0
       vertex -0.0508299 -0.176776 0.1
    endloop
  endfacet
  facet normal -0.751817 -0.659372 0
    outer loop
       vertex -0.0508299 -0.176776 0.1
       vertex -0.0723919 -0.152191 0.1
       vertex -0.0723919 -0.152191 0
    endloop
  endfacet
  facet normal 0.659372 -0.751817 0
    outer loop
       vertex 0.302722 -0.176776 0
       vertex 0.302722 -0.176776 0.1
       vertex 0.278137 -0.198338 0.1
    endloop
  endfacet
  facet normal 0.659372 -0.751817 0
    outer loop
       vertex 0.278137 -0.198338 0.1
       vertex 0.278137 -0.198338 0
       vertex 0.302722 -0.176776 0
    endloop
  endfacet
  facet normal 0.555561 -0.831476 0
    outer loop
       vertex 0.278137 -0.198338 0
       vertex 0.278137 -0.198338 0.1
       vertex 0.250946 -0.216506 0.1
    endloop
  endfacet
  facet normal 0.555561 -0.831476 0
    outer loop
       vertex 0.250946 -0.216506 0.1
       vertex 0.250946 -0.216506 0
       vertex 0.278137 -0.198338 0
    endloop
  endfacet
  facet normal 0.442302 -0.896866 0
    outer loop
       vertex 0.250946 -0.216506 0
       vertex 0.250946 -0.216506 0.1
       vertex 0.221617 -0.23097 0.1
    endloop
  endfacet
  facet normal 0.442302 -0.896866 0
    outer loop
       vertex 0.221617 -0.23097 0.1
       vertex 0.221617 -0.23097 0
       vertex 0.250946 -0.216506 0
    endloop
  endfacet
  facet normal 0.321425 -0.946935 0
    outer loop
       vertex 0.221617 -0.23097 0
       vertex 0.221617 -0.23097 0.1
       vertex 0.190651 -0.241481 0.1
    endloop
  endfacet
  facet normal 0.321425 -0.946935 0
    outer loop
       vertex 0.190651 -0.241481 0.1
       vertex 0.190651 -0.241481 0
       vertex 0.221617 -0.23097 0
    endloop
  endfacet
  facet normal 0.195096 -0.980784 0
    outer loop
       vertex 0.190651 -0.241481 0
       vertex 0.190651 -0.241481 0.1
       vertex 0.158578 -0.247861 0.1
    endloop
  endfacet
  facet normal 0.195096 -0.980784 0
    outer loop
       vertex 0.158578 -0.247861 0.1
       vertex 0.158578 -0.247861 0
       vertex 0.190651 -0.241481 0
    endloop
  endfacet
  facet normal 0.0654098 -0.997858 0
    outer loop
       vertex 0.125946 -0.25 0
       vertex 0.158578 -0.247861 0
       vertex 0.158578 -0.247861 0.1
    endloop
  endfacet
  facet normal 0.0654098 -0.997858 1.0893e-16
    outer loop
       vertex 0.158578 -0.247861 0.1
       vertex 0.125946 -0.25 0.1
       vertex 0.125946 -0.25 0
    endloop
  endfacet
  facet normal -0.0654098 -0.997858 0
    outer loop
       vertex 0.125946 -0.25 0.1
       vertex 0.0933146 -0.247861 0.1
       vertex 0.0933146 -0.247861 0
    endloop
  endfacet
  facet normal -0.0654098 -0.997858 -1.0893e-16
    outer loop
       vertex 0.0933146 -0.247861 0
       vertex 0.125946 -0.25 0
       vertex 0.125946 -0.25 0.1
    endloop
  endfacet
  facet normal -0.195096 -0.980784 0
    outer loop
       vertex 0.0933146 -0.247861 0
       vertex 0.0933146 -0.247861 0.1
       vertex 0.0612411 -0.241481 0.1
    endloop
  endfacet
  facet normal -0.195096 -0.980784 -0
    outer loop
       vertex 0.0612411 -0.241481 0.1
       vertex 0.0612411 -0.241481 0
       vertex 0.0933146 -0.247861 0
    endloop
  endfacet
  facet normal -0.321425 -0.946935 0
    outer loop
       vertex 0.0612411 -0.241481 0
       vertex 0.0612411 -0.241481 0.1
       vertex 0.0302751 -0.23097 0.1
    endloop
  endfacet
  facet normal -0.321425 -0.946935 -0
    outer loop
       vertex 0.0302751 -0.23097 0.1
       vertex 0.0302751 -0.23097 0
       vertex 0.0612411 -0.241481 0
    endloop
  endfacet
  facet normal -0.442302 -0.896866 0
    outer loop
       vertex 0.0302751 -0.23097 0
       vertex 0.0302751 -0.23097 0.1
       vertex 0.000946132 -0.216506 0.1
    endloop
  endfacet
  facet normal -0.442302 -0.896866 -0
    outer loop
       vertex 0.000946132 -0.216506 0.1
       vertex 0.000946132 -0.216506 0
       vertex 0.0302751 -0.23097 0
    endloop
  endfacet
  facet normal -0.555561 -0.831476 0
    outer loop
       vertex 0.000946132 -0.216506 0
       vertex 0.000946132 -0.216506 0.1
       vertex -0.0262449 -0.198338 0.1
    endloop
  endfacet
  facet normal -0.555561 -0.831476 -0
    outer loop
       vertex -0.0262449 -0.198338 0.1
       vertex -0.0262449 -0.198338 0
       vertex 0.000946132 -0.216506 0
    endloop
  endfacet
  facet normal -0.659372 -0.751817 0
    outer loop
       vertex -0.0262449 -0.198338 0
       vertex -0.0262449 -0.198338 0.1
       vertex -0.0508299 -0.176776 0.1
    endloop
  endfacet
  facet normal -0.659372 -0.751817 -0
    outer loop
       vertex -0.0508299 -0.176776 0.1
       vertex -0.0508299 -0.176776 0
       vertex -0.0262449 -0.198338 0
    endloop
  endfacet
endsolid cylinder
