solid cylinder
  facet normal 0.751817 -0.659372 0
    outer loop
       vertex 0.157277 -0.176776 0
       vertex 0.178839 -0.152191 0
       vertex 0.178839 -0.152191 0.1
    endloop
  endfacet
  facet normal 0.751817 -0.659372 0
    outer loop
       vertex 0.178839 -0.152191 0.1
       vertex 0.157277 -0.176776 0.1
       vertex 0.157277 -0.176776 0
    endloop
  endfacet
  facet normal 0.831476 -0.555561 0
    outer loop
       vertex 0.178839 -0.152191 0
       vertex 0.197007 -0.125 0
       vertex 0.197007 -0.125 0.1
    endloop
  endfacet
  facet normal 0.831476 -0.555561 0
    outer loop
       vertex 0.197007 -0.125 0.1
       vertex 0.178839 -0.152191 0.1
       vertex 0.178839 -0.152191 0
    endloop
  endfacet
  facet normal 0.896866 -0.442302 0
    outer loop
       vertex 0.197007 -0.125 0
       vertex 0.211471 -0.095671 0
       vertex 0.211471 -0.095671 0.1
    endloop
  endfacet
  facet normal 0.896866 -0.442302 0
    outer loop
       vertex 0.211471 -0.095671 0.1
       vertex 0.197007 -0.125 0.1
       vertex 0.197007 -0.125 0
    endloop
  endfacet
  facet normal 0.946935 -0.321425 0
    outer loop
       vertex 0.211471 -0.095671 0
       vertex 0.221982 -0.064705 0
       vertex 0.221982 -0.064705 0.1
    endloop
  endfacet
  facet normal 0.946935 -0.321425 0
    outer loop
       vertex 0.221982 -0.064705 0.1
       vertex 0.211471 -0.095671 0.1
       vertex 0.211471 -0.095671 0
    endloop
  endfacet
  facet normal 0.980784 -0.195096 0
    outer loop
       vertex 0.221982 -0.064705 0
       vertex 0.228362 -0.0326315 0
       vertex 0.228362 -0.0326315 0.1
    endloop
  endfacet
  facet normal 0.980784 -0.195096 0
    outer loop
       vertex 0.228362 -0.0326315 0.1
       vertex 0.221982 -0.064705 0.1
       vertex 0.221982 -0.064705 0
    endloop
  endfacet
  facet normal 0.997858 -0.0654098 0
    outer loop
       vertex 0.230501 -8.32665e-17 0.1
       vertex 0.228362 -0.0326315 0.1
       vertex 0.228362 -0.0326315 0
    endloop
  endfacet
  facet normal 0.997858 -0.0654098 -1.08928e-16
    outer loop
       vertex 0.228362 -0.0326315 0
       vertex 0.230501 8.32665e-17 0
       vertex 0.230501 -8.32665e-17 0.1
    endloop
  endfacet
  facet normal 0.997858 0.0654098 0
    outer loop
       vertex 0.230501 8.32665e-17 0
       vertex 0.228362 0.0326315 0
       vertex 0.228362 0.0326315 0.1
    endloop
  endfacet
  facet normal 0.997858 0.0654098 1.08928e-16
    outer loop
       vertex 0.228362 0.0326315 0.1
       vertex 0.230501 -8.32665e-17 0.1
       vertex 0.230501 8.32665e-17 0
    endloop
  endfacet
  facet normal 0.980784 0.195096 0
    outer loop
       vertex 0.228362 0.0326315 0
       vertex 0.221982 0.064705 0
       vertex 0.221982 0.064705 0.1
    endloop
  endfacet
  facet normal 0.980784 0.195096 0
    outer loop
       vertex 0.221982 0.064705 0.1
       vertex 0.228362 0.0326315 0.1
       vertex 0.228362 0.0326315 0
    endloop
  endfacet
  facet normal 0.946935 0.321425 0
    outer loop
       vertex 0.221982 0.064705 0
       vertex 0.211471 0.095671 0
       vertex 0.211471 0.095671 0.1
    endloop
  endfacet
  facet normal 0.946935 0.321425 0
    outer loop
       vertex 0.211471 0.095671 0.1
       vertex 0.221982 0.064705 0.1
       vertex 0.221982 0.064705 0
    endloop
  endfacet
  facet normal 0.896866 0.442302 0
    outer loop
       vertex 0.211471 0.095671 0
       vertex 0.197007 0.125 0
       vertex 0.197007 0.125 0.1
    endloop
  endfacet
  facet normal 0.896866 0.442302 0
    outer loop
       vertex 0.197007 0.125 0.1
       vertex 0.211471 0.095671 0.1
       vertex 0.211471 0.095671 0
    endloop
  endfacet
  facet normal 0.831476 0.555561 0
    outer loop
       vertex 0.197007 0.125 0
       vertex 0.178839 0.152191 0
       vertex 0.178839 0.152191 0.1
    endloop
  endfacet
  facet normal 0.831476 0.555561 0
    outer loop
       vertex 0.178839 0.152191 0.1
       vertex 0.197007 0.125 0.1
       vertex 0.197007 0.125 0
    endloop
  endfacet
  facet normal 0.751817 0.659372 0
    outer loop
       vertex 0.178839 0.152191 0
       vertex 0.157277 0.176776 0
       vertex 0.157277 0.176776 0.1
    endloop
  endfacet
  facet normal 0.751817 0.659372 0
    outer loop
       vertex 0.157277 0.176776 0.1
       vertex 0.178839 0.152191 0.1
       vertex 0.178839 0.152191 0
    endloop
  endfacet
  facet normal 0.659372 0.751817 0
    outer loop
       vertex 0.157277 0.176776 0
       vertex 0.132692 0.198338 0
       vertex 0.132692 0.198338 0.1
    endloop
  endfacet
  facet normal 0.659372 0.751817 0
    outer loop
       vertex 0.132692 0.198338 0.1
       vertex 0.157277 0.176776 0.1
       vertex 0.157277 0.176776 0
    endloop
  endfacet
  facet normal 0.555561 0.831476 0
    outer loop
       vertex 0.132692 0.198338 0
       vertex 0.105501 0.216506 0
       vertex 0.105501 0.216506 0.1
    endloop
  endfacet
  facet normal 0.555561 0.831476 0
    outer loop
       vertex 0.105501 0.216506 0.1
       vertex 0.132692 0.198338 0.1
       vertex 0.132692 0.198338 0
    endloop
  endfacet
  facet normal 0.442302 0.896866 0
    outer loop
       vertex 0.105501 0.216506 0
       vertex 0.0761722 0.23097 0
       vertex 0.0761722 0.23097 0.1
    endloop
  endfacet
  facet normal 0.442302 0.896866 0
    outer loop
       vertex 0.0761722 0.23097 0.1
       vertex 0.105501 0.216506 0.1
       vertex 0.105501 0.216506 0
    endloop
  endfacet
  facet normal 0.321425 0.946935 0
    outer loop
       vertex 0.0761722 0.23097 0
       vertex 0.0452062 0.241481 0
       vertex 0.0452062 0.241481 0.1
    endloop
  endfacet
  facet normal 0.321425 0.946935 0
    outer loop
       vertex 0.0452062 0.241481 0.1
       vertex 0.0761722 0.23097 0.1
       vertex 0.0761722 0.23097 0
    endloop
  endfacet
  facet normal 0.195096 0.980784 0
    outer loop
       vertex 0.0452062 0.241481 0
       vertex 0.0131327 0.247861 0
       vertex 0.0131327 0.247861 0.1
    endloop
  endfacet
  facet normal 0.195096 0.980784 0
    outer loop
       vertex 0.0131327 0.247861 0.1
       vertex 0.0452062 0.241481 0.1
       vertex 0.0452062 0.241481 0
    endloop
  endfacet
  facet normal 0.0654098 0.997858 0
    outer loop
       vertex -0.0194988 0.25 0.1
       vertex 0.0131327 0.247861 0.1
       vertex 0.0131327 0.247861 0
    endloop
  endfacet
  facet normal 0.0654098 0.997858 -1.08928e-16
    outer loop
       vertex 0.0131327 0.247861 0
       vertex -0.0194988 0.25 0
       vertex -0.0194988 0.25 0.1
    endloop
  endfacet
  facet normal -0.0654098 0.997858 0
    outer loop
       vertex -0.0194988 0.25 0
       vertex -0.0521303 0.247861 0
       vertex -0.0521303 0.247861 0.1
    endloop
  endfacet
  facet normal -0.0654098 0.997858 1.0893e-16
    outer loop
       vertex -0.0521303 0.247861 0.1
       vertex -0.0194988 0.25 0.1
       vertex -0.0194988 0.25 0
    endloop
  endfacet
  facet normal -0.195096 0.980784 0
    outer loop
       vertex -0.0521303 0.247861 0
       vertex -0.0842038 0.241481 0
       vertex -0.0842038 0.241481 0.1
    endloop
  endfacet
  facet normal -0.195096 0.980784 0
    outer loop
       vertex -0.0842038 0.241481 0.1
       vertex -0.0521303 0.247861 0.1
       vertex -0.0521303 0.247861 0
    endloop
  endfacet
  facet normal -0.321425 0.946935 0
    outer loop
       vertex -0.0842038 0.241481 0
       vertex -0.11517 0.23097 0
       vertex -0.11517 0.23097 0.1
    endloop
  endfacet
  facet normal -0.321425 0.946935 0
    outer loop
       vertex -0.11517 0.23097 0.1
       vertex -0.0842038 0.241481 0.1
       vertex -0.0842038 0.241481 0
    endloop
  endfacet
  facet normal -0.442302 0.896866 0
    outer loop
       vertex -0.11517 0.23097 0
       vertex -0.144499 0.216506 0
       vertex -0.144499 0.216506 0.1
    endloop
  endfacet
  facet normal -0.442302 0.896866 0
    outer loop
       vertex -0.144499 0.216506 0.1
       vertex -0.11517 0.23097 0.1
       vertex -0.11517 0.23097 0
    endloop
  endfacet
  facet normal -0.555561 0.831476 0
    outer loop
       vertex -0.144499 0.216506 0
       vertex -0.17169 0.198338 0
       vertex -0.17169 0.198338 0.1
    endloop
  endfacet
  facet normal -0.555561 0.831476 0
    outer loop
       vertex -0.17169 0.198338 0.1
       vertex -0.144499 0.216506 0.1
       vertex -0.144499 0.216506 0
    endloop
  endfacet
  facet normal -0.659372 0.751817 0
    outer loop
       vertex -0.17169 0.198338 0
       vertex -0.196275 0.176776 0
       vertex -0.196275 0.176776 0.1
    endloop
  endfacet
  facet normal -0.659372 0.751817 0
    outer loop
       vertex -0.196275 0.176776 0.1
       vertex -0.17169 0.198338 0.1
       vertex -0.17169 0.198338 0
    endloop
  endfacet
  facet normal -0.751817 0.659372 0
    outer loop
       vertex -0.196275 0.176776 0
       vertex -0.217837 0.152191 0
       vertex -0.217837 0.152191 0.1
    endloop
  endfacet
  facet normal -0.751817 0.659372 0
    outer loop
       vertex -0.217837 0.152191 0.1
       vertex -0.196275 0.176776 0.1
       vertex -0.196275 0.176776 0
    endloop
  endfacet
  facet normal -0.831476 0.555561 0
    outer loop
       vertex -0.217837 0.152191 0
       vertex -0.236005 0.125 0
       vertex -0.236005 0.125 0.1
    endloop
  endfacet
  facet normal -0.831476 0.555561 0
    outer loop
       vertex -0.236005 0.125 0.1
       vertex -0.217837 0.152191 0.1
       vertex -0.217837 0.152191 0
    endloop
  endfacet
  facet normal -0.896866 0.442302 0
    outer loop
       vertex -0.236005 0.125 0
       vertex -0.250469 0.095671 0
       vertex -0.250469 0.095671 0.1
    endloop
  endfacet
  facet normal -0.896866 0.442302 0
    outer loop
       vertex -0.250469 0.095671 0.1
       vertex -0.236005 0.125 0.1
       vertex -0.236005 0.125 0
    endloop
  endfacet
  facet normal -0.946935 0.321425 0
    outer loop
       vertex -0.250469 0.095671 0
       vertex -0.26098 0.064705 0
       vertex -0.26098 0.064705 0.1
    endloop
  endfacet
  facet normal -0.946935 0.321425 0
    outer loop
       vertex -0.26098 0.064705 0.1
       vertex -0.250469 0.095671 0.1
       vertex -0.250469 0.095671 0
    endloop
  endfacet
  facet normal -0.980784 0.195096 0
    outer loop
       vertex -0.26098 0.064705 0
       vertex -0.26736 0.0326315 0
       vertex -0.26736 0.0326315 0.1
    endloop
  endfacet
  facet normal -0.980784 0.195096 0
    outer loop
       vertex -0.26736 0.0326315 0.1
       vertex -0.26098 0.064705 0.1
       vertex -0.26098 0.064705 0
    endloop
  endfacet
  facet normal -0.997858 0.0654098 0
    outer loop
       vertex -0.269499 8.32665e-17 0.1
       vertex -0.26736 0.0326315 0.1
       vertex -0.26736 0.0326315 0
    endloop
  endfacet
  facet normal -0.997858 0.0654098 -1.08928e-16
    outer loop
       vertex -0.26736 0.0326315 0
       vertex -0.269499 -8.32665e-17 0
       vertex -0.269499 8.32665e-17 0.1
    endloop
  endfacet
  facet normal -0.997858 -0.0654098 0
    outer loop
       vertex -0.269499 -8.32665e-17 0
       vertex -0.26736 -0.0326315 0
       vertex -0.26736 -0.0326315 0.1
    endloop
  endfacet
  facet normal -0.997858 -0.0654098 1.08928e-16
    outer loop
       vertex -0.26736 -0.0326315 0.1
       vertex -0.269499 8.32665e-17 0.1
       vertex -0.269499 -8.32665e-17 0
    endloop
  endfacet
  facet normal -0.980784 -0.195096 0
    outer loop
       vertex -0.26736 -0.0326315 0
       vertex -0.26098 -0.064705 0
       vertex -0.26098 -0.064705 0.1
    endloop
  endfacet
  facet normal -0.980784 -0.195096 0
    outer loop
       vertex -0.26098 -0.064705 0.1
       vertex -0.26736 -0.0326315 0.1
       vertex -0.26736 -0.0326315 0
    endloop
  endfacet
  facet normal -0.946935 -0.321425 0
    outer loop
       vertex -0.26098 -0.064705 0
       vertex -0.250469 -0.095671 0
       vertex -0.250469 -0.095671 0.1
    endloop
  endfacet
  facet normal -0.946935 -0.321425 0
    outer loop
       vertex -0.250469 -0.095671 0.1
       vertex -0.26098 -0.064705 0.1
       vertex -0.26098 -0.064705 0
    endloop
  endfacet
  facet normal -0.896866 -0.442302 0
    outer loop
       vertex -0.250469 -0.095671 0
       vertex -0.236005 -0.125 0
       vertex -0.236005 -0.125 0.1
    endloop
  endfacet
  facet normal -0.896866 -0.442302 0
    outer loop
       vertex -0.236005 -0.125 0.1
       vertex -0.250469 -0.095671 0.1
       vertex -0.250469 -0.095671 0
    endloop
  endfacet
  facet normal -0.831476 -0.555561 0
    outer loop
       vertex -0.236005 -0.125 0
       vertex -0.217837 -0.152191 0
       vertex -0.217837 -0.152191 0.1
    endloop
  endfacet
  facet normal -0.831476 -0.555561 0
    outer loop
       vertex -0.217837 -0.152191 0.1
       vertex -0.236005 -0.125 0.1
       vertex -0.236005 -0.125 0
    endloop
  endfacet
  facet normal -0.751817 -0.659372 0
    outer loop
       vertex -0.217837 -0.152191 0
       vertex -0.196275 -0.176776 0
       vertex -0.196275 -0.176776 0.1
    endloop
  endfacet
  facet normal -0.751817 -0.659372 0
    outer loop
       vertex -0.196275 -0.176776 0.1
       vertex -0.217837 -0.152191 0.1
       vertex -0.217837 -0.152191 0
    endloop
  endfacet
  facet normal 0.659372 -0.751817 0
    outer loop
       vertex 0.157277 -0.176776 0
       vertex 0.157277 -0.176776 0.1
       vertex 0.132692 -0.198338 0.1
    endloop
  endfacet
  facet normal 0.659372 -0.751817 0
    outer loop
       vertex 0.132692 -0.198338 0.1
       vertex 0.132692 -0.198338 0
       vertex 0.157277 -0.176776 0
    endloop
  endfacet
  facet normal 0.555561 -0.831476 0
    outer loop
       vertex 0.132692 -0.198338 0
       vertex 0.132692 -0.198338 0.1
       vertex 0.105501 -0.216506 0.1
    endloop
  endfacet
  facet normal 0.555561 -0.831476 0
    outer loop
       vertex 0.105501 -0.216506 0.1
       vertex 0.105501 -0.216506 0
       vertex 0.132692 -0.198338 0
    endloop
  endfacet
  facet normal 0.442302 -0.896866 0
    outer loop
       vertex 0.105501 -0.216506 0
       vertex 0.105501 -0.216506 0.1
       vertex 0.0761722 -0.23097 0.1
    endloop
  endfacet
  facet normal 0.442302 -0.896866 0
    outer loop
       vertex 0.0761722 -0.23097 0.1
       vertex 0.0761722 -0.23097 0
       vertex 0.105501 -0.216506 0
    endloop
  endfacet
  facet normal 0.321425 -0.946935 0
    outer loop
       vertex 0.0761722 -0.23097 0
       vertex 0.0761722 -0.23097 0.1
       vertex 0.0452062 -0.241481 0.1
    endloop
  endfacet
  facet normal 0.321425 -0.946935 0
    outer loop
       vertex 0.0452062 -0.241481 0.1
       vertex 0.0452062 -0.241481 0
       vertex 0.0761722 -0.23097 0
    endloop
  endfacet
  facet normal 0.195096 -0.980784 0
    outer loop
       vertex 0.0452062 -0.241481 0
       vertex 0.0452062 -0.241481 0.1
       vertex 0.0131327 -0.247861 0.1
    endloop
  endfacet
  facet normal 0.195096 -0.980784 0
    outer loop
       vertex 0.0131327 -0.247861 0.1
       vertex 0.0131327 -0.247861 0
       vertex 0.0452062 -0.241481 0
    endloop
  endfacet
  facet normal 0.0654098 -0.997858 0
    outer loop
       vertex -0.0194988 -0.25 0
       vertex 0.0131327 -0.247861 0
       vertex 0.0131327 -0.247861 0.1
    endloop
  endfacet
  facet normal 0.0654098 -0.997858 1.08928e-16
    outer loop
       vertex 0.0131327 -0.247861 0.1
       vertex -0.0194988 -0.25 0.1
       vertex -0.0194988 -0.25 0
    endloop
  endfacet
  facet normal -0.0654098 -0.997858 0
    outer loop
       vertex -0.0194988 -0.25 0.1
       vertex -0.0521303 -0.247861 0.1
       vertex -0.0521303 -0.247861 0
    endloop
  endfacet
  facet normal -0.0654098 -0.997858 -1.0893e-16
    outer loop
       vertex -0.0521303 -0.247861 0
       vertex -0.0194988 -0.25 0
       vertex -0.0194988 -0.25 0.1
    endloop
  endfacet
  facet normal -0.195096 -0.980784 0
    outer loop
       vertex -0.0521303 -0.247861 0
       vertex -0.0521303 -0.247861 0.1
       vertex -0.0842038 -0.241481 0.1
    endloop
  endfacet
  facet normal -0.195096 -0.980784 -0
    outer loop
       vertex -0.0842038 -0.241481 0.1
       vertex -0.0842038 -0.241481 0
       vertex -0.0521303 -0.247861 0
    endloop
  endfacet
  facet normal -0.321425 -0.946935 0
    outer loop
       vertex -0.0842038 -0.241481 0
       vertex -0.0842038 -0.241481 0.1
       vertex -0.11517 -0.23097 0.1
    endloop
  endfacet
  facet normal -0.321425 -0.946935 -0
    outer loop
       vertex -0.11517 -0.23097 0.1
       vertex -0.11517 -0.23097 0
       vertex -0.0842038 -0.241481 0
    endloop
  endfacet
  facet normal -0.442302 -0.896866 0
    outer loop
       vertex -0.11517 -0.23097 0
       vertex -0.11517 -0.23097 0.1
       vertex -0.144499 -0.216506 0.1
    endloop
  endfacet
  facet normal -0.442302 -0.896866 -0
    outer loop
       vertex -0.144499 -0.216506 0.1
       vertex -0.144499 -0.216506 0
       vertex -0.11517 -0.23097 0
    endloop
  endfacet
  facet normal -0.555561 -0.831476 0
    outer loop
       vertex -0.144499 -0.216506 0
       vertex -0.144499 -0.216506 0.1
       vertex -0.17169 -0.198338 0.1
    endloop
  endfacet
  facet normal -0.555561 -0.831476 -0
    outer loop
       vertex -0.17169 -0.198338 0.1
       vertex -0.17169 -0.198338 0
       vertex -0.144499 -0.216506 0
    endloop
  endfacet
  facet normal -0.659372 -0.751817 0
    outer loop
       vertex -0.17169 -0.198338 0
       vertex -0.17169 -0.198338 0.1
       vertex -0.196275 -0.176776 0.1
    endloop
  endfacet
  facet normal -0.659372 -0.751817 -0
    outer loop
       vertex -0.196275 -0.176776 0.1
       vertex -0.196275 -0.176776 0
       vertex -0.17169 -0.198338 0
    endloop
  endfacet
endsolid cylinder
