solid cylinder
  facet normal 0.751817 -0.659372 0
    outer loop
       vertex -0.0327485 -0.176776 0
       vertex -0.0111865 -0.152191 0
       vertex -0.0111865 -0.152191 0.1
    endloop
  endfacet
  facet normal 0.751817 -0.659372 0
    outer loop
       vertex -0.0111865 -0.152191 0.1
       vertex -0.0327485 -0.176776 0.1
       vertex -0.0327485 -0.176776 0
    endloop
  endfacet
  facet normal 0.831476 -0.555561 0
    outer loop
       vertex -0.0111865 -0.152191 0
       vertex 0.00698148 -0.125 0
       vertex 0.00698148 -0.125 0.1
    endloop
  endfacet
  facet normal 0.831476 -0.555561 0
    outer loop
       vertex 0.00698148 -0.125 0.1
       vertex -0.0111865 -0.152191 0.1
       vertex -0.0111865 -0.152191 0
    endloop
  endfacet
  facet normal 0.896866 -0.442302 0
    outer loop
       vertex 0.00698148 -0.125 0
       vertex 0.0214455 -0.095671 0
       vertex 0.0214455 -0.095671 0.1
    endloop
  endfacet
  facet normal 0.896866 -0.442302 0
    outer loop
       vertex 0.0214455 -0.095671 0.1
       vertex 0.00698148 -0.125 0.1
       vertex 0.00698148 -0.125 0
    endloop
  endfacet
  facet normal 0.946935 -0.321425 0
    outer loop
       vertex 0.0214455 -0.095671 0
       vertex 0.0319565 -0.064705 0
       vertex 0.0319565 -0.064705 0.1
    endloop
  endfacet
  facet normal 0.946935 -0.321425 0
    outer loop
       vertex 0.0319565 -0.064705 0.1
       vertex 0.0214455 -0.095671 0.1
       vertex 0.0214455 -0.095671 0
    endloop
  endfacet
  facet normal 0.980784 -0.195096 0
    outer loop
       vertex 0.0319565 -0.064705 0
       vertex 0.0383365 -0.0326315 0
       vertex 0.0383365 -0.0326315 0.1
    endloop
  endfacet
  facet normal 0.980784 -0.195096 0
    outer loop
       vertex 0.0383365 -0.0326315 0.1
       vertex 0.0319565 -0.064705 0.1
       vertex 0.0319565 -0.064705 0
    endloop
  endfacet
  facet normal 0.997858 -0.0654098 0
    outer loop
       vertex 0.0404755 -8.32665e-17 0.1
       vertex 0.0383365 -0.0326315 0.1
       vertex 0.0383365 -0.0326315 0
    endloop
  endfacet
  facet normal 0.997858 -0.0654098 -1.08928e-16
    outer loop
       vertex 0.0383365 -0.0326315 0
       vertex 0.0404755 8.32665e-17 0
       vertex 0.0404755 -8.32665e-17 0.1
    endloop
  endfacet
  facet normal 0.997858 0.0654098 0
    outer loop
       vertex 0.0404755 8.32665e-17 0
       vertex 0.0383365 0.0326315 0
       vertex 0.0383365 0.0326315 0.1
    endloop
  endfacet
  facet normal 0.997858 0.0654098 1.08928e-16
    outer loop
       vertex 0.0383365 0.0326315 0.1
       vertex 0.0404755 -8.32665e-17 0.1
       vertex 0.0404755 8.32665e-17 0
    endloop
  endfacet
  facet normal 0.980784 0.195096 0
    outer loop
       vertex 0.0383365 0.0326315 0
       vertex 0.0319565 0.064705 0
       vertex 0.0319565 0.064705 0.1
    endloop
  endfacet
  facet normal 0.980784 0.195096 0
    outer loop
       vertex 0.0319565 0.064705 0.1
       vertex 0.0383365 0.0326315 0.1
       vertex 0.0383365 0.0326315 0
    endloop
  endfacet
  facet normal 0.946935 0.321425 0
    outer loop
       vertex 0.0319565 0.064705 0
       vertex 0.0214455 0.095671 0
       vertex 0.0214455 0.095671 0.1
    endloop
  endfacet
  facet normal 0.946935 0.321425 0
    outer loop
       vertex 0.0214455 0.095671 0.1
       vertex 0.0319565 0.064705 0.1
       vertex 0.0319565 0.064705 0
    endloop
  endfacet
  facet normal 0.896866 0.442302 0
    outer loop
       vertex 0.0214455 0.095671 0
       vertex 0.00698148 0.125 0
       vertex 0.00698148 0.125 0.1
    endloop
  endfacet
  facet normal 0.896866 0.442302 0
    outer loop
       vertex 0.00698148 0.125 0.1
       vertex 0.0214455 0.095671 0.1
       vertex 0.0214455 0.095671 0
    endloop
  endfacet
  facet normal 0.831476 0.555561 0
    outer loop
       vertex 0.00698148 0.125 0
       vertex -0.0111865 0.152191 0
       vertex -0.0111865 0.152191 0.1
    endloop
  endfacet
  facet normal 0.831476 0.555561 0
    outer loop
       vertex -0.0111865 0.152191 0.1
       vertex 0.00698148 0.125 0.1
       vertex 0.00698148 0.125 0
    endloop
  endfacet
  facet normal 0.751817 0.659372 0
    outer loop
       vertex -0.0111865 0.152191 0
       vertex -0.0327485 0.176776 0
       vertex -0.0327485 0.176776 0.1
    endloop
  endfacet
  facet normal 0.751817 0.659372 0
    outer loop
       vertex -0.0327485 0.176776 0.1
       vertex -0.0111865 0.152191 0.1
       vertex -0.0111865 0.152191 0
    endloop
  endfacet
  facet normal 0.659372 0.751817 0
    outer loop
       vertex -0.0327485 0.176776 0
       vertex -0.0573335 0.198338 0
       vertex -0.0573335 0.198338 0.1
    endloop
  endfacet
  facet normal 0.659372 0.751817 0
    outer loop
       vertex -0.0573335 0.198338 0.1
       vertex -0.0327485 0.176776 0.1
       vertex -0.0327485 0.176776 0
    endloop
  endfacet
  facet normal 0.555561 0.831476 0
    outer loop
       vertex -0.0573335 0.198338 0
       vertex -0.0845245 0.216506 0
       vertex -0.0845245 0.216506 0.1
    endloop
  endfacet
  facet normal 0.555561 0.831476 0
    outer loop
       vertex -0.0845245 0.216506 0.1
       vertex -0.0573335 0.198338 0.1
       vertex -0.0573335 0.198338 0
    endloop
  endfacet
  facet normal 0.442302 0.896866 0
    outer loop
       vertex -0.0845245 0.216506 0
       vertex -0.113854 0.23097 0
       vertex -0.113854 0.23097 0.1
    endloop
  endfacet
  facet normal 0.442302 0.896866 0
    outer loop
       vertex -0.113854 0.23097 0.1
       vertex -0.0845245 0.216506 0.1
       vertex -0.0845245 0.216506 0
    endloop
  endfacet
  facet normal 0.321425 0.946935 0
    outer loop
       vertex -0.113854 0.23097 0
       vertex -0.14482 0.241481 0
       vertex -0.14482 0.241481 0.1
    endloop
  endfacet
  facet normal 0.321425 0.946935 0
    outer loop
       vertex -0.14482 0.241481 0.1
       vertex -0.113854 0.23097 0.1
       vertex -0.113854 0.23097 0
    endloop
  endfacet
  facet normal 0.195096 0.980784 0
    outer loop
       vertex -0.14482 0.241481 0
       vertex -0.176893 0.247861 0
       vertex -0.176893 0.247861 0.1
    endloop
  endfacet
  facet normal 0.195096 0.980784 0
    outer loop
       vertex -0.176893 0.247861 0.1
       vertex -0.14482 0.241481 0.1
       vertex -0.14482 0.241481 0
    endloop
  endfacet
  facet normal 0.0654098 0.997858 0
    outer loop
       vertex -0.209525 0.25 0.1
       vertex -0.176893 0.247861 0.1
       vertex -0.176893 0.247861 0
    endloop
  endfacet
  facet normal 0.0654098 0.997858 -1.0893e-16
    outer loop
       vertex -0.176893 0.247861 0
       vertex -0.209525 0.25 0
       vertex -0.209525 0.25 0.1
    endloop
  endfacet
  facet normal -0.0654098 0.997858 0
    outer loop
       vertex -0.209525 0.25 0
       vertex -0.242156 0.247861 0
       vertex -0.242156 0.247861 0.1
    endloop
  endfacet
  facet normal -0.0654098 0.997858 1.0893e-16
    outer loop
       vertex -0.242156 0.247861 0.1
       vertex -0.209525 0.25 0.1
       vertex -0.209525 0.25 0
    endloop
  endfacet
  facet normal -0.195096 0.980784 0
    outer loop
       vertex -0.242156 0.247861 0
       vertex -0.27423 0.241481 0
       vertex -0.27423 0.241481 0.1
    endloop
  endfacet
  facet normal -0.195096 0.980784 0
    outer loop
       vertex -0.27423 0.241481 0.1
       vertex -0.242156 0.247861 0.1
       vertex -0.242156 0.247861 0
    endloop
  endfacet
  facet normal -0.321425 0.946935 0
    outer loop
       vertex -0.27423 0.241481 0
       vertex -0.305196 0.23097 0
       vertex -0.305196 0.23097 0.1
    endloop
  endfacet
  facet normal -0.321425 0.946935 0
    outer loop
       vertex -0.305196 0.23097 0.1
       vertex -0.27423 0.241481 0.1
       vertex -0.27423 0.241481 0
    endloop
  endfacet
  facet normal -0.442302 0.896866 0
    outer loop
       vertex -0.305196 0.23097 0
       vertex -0.334525 0.216506 0
       vertex -0.334525 0.216506 0.1
    endloop
  endfacet
  facet normal -0.442302 0.896866 0
    outer loop
       vertex -0.334525 0.216506 0.1
       vertex -0.305196 0.23097 0.1
       vertex -0.305196 0.23097 0
    endloop
  endfacet
  facet normal -0.555561 0.831476 0
    outer loop
       vertex -0.334525 0.216506 0
       vertex -0.361716 0.198338 0
       vertex -0.361716 0.198338 0.1
    endloop
  endfacet
  facet normal -0.555561 0.831476 0
    outer loop
       vertex -0.361716 0.198338 0.1
       vertex -0.334525 0.216506 0.1
       vertex -0.334525 0.216506 0
    endloop
  endfacet
  facet normal -0.659372 0.751817 0
    outer loop
       vertex -0.361716 0.198338 0
       vertex -0.386301 0.176776 0
       vertex -0.386301 0.176776 0.1
    endloop
  endfacet
  facet normal -0.659372 0.751817 0
    outer loop
       vertex -0.386301 0.176776 0.1
       vertex -0.361716 0.198338 0.1
       vertex -0.361716 0.198338 0
    endloop
  endfacet
  facet normal -0.751817 0.659372 0
    outer loop
       vertex -0.386301 0.176776 0
       vertex -0.407863 0.152191 0
       vertex -0.407863 0.152191 0.1
    endloop
  endfacet
  facet normal -0.751817 0.659372 0
    outer loop
       vertex -0.407863 0.152191 0.1
       vertex -0.386301 0.176776 0.1
       vertex -0.386301 0.176776 0
    endloop
  endfacet
  facet normal -0.831476 0.555561 0
    outer loop
       vertex -0.407863 0.152191 0
       vertex -0.426031 0.125 0
       vertex -0.426031 0.125 0.1
    endloop
  endfacet
  facet normal -0.831476 0.555561 0
    outer loop
       vertex -0.426031 0.125 0.1
       vertex -0.407863 0.152191 0.1
       vertex -0.407863 0.152191 0
    endloop
  endfacet
  facet normal -0.896866 0.442302 0
    outer loop
       vertex -0.426031 0.125 0
       vertex -0.440495 0.095671 0
       vertex -0.440495 0.095671 0.1
    endloop
  endfacet
  facet normal -0.896866 0.442302 0
    outer loop
       vertex -0.440495 0.095671 0.1
       vertex -0.426031 0.125 0.1
       vertex -0.426031 0.125 0
    endloop
  endfacet
  facet normal -0.946935 0.321425 0
    outer loop
       vertex -0.440495 0.095671 0
       vertex -0.451006 0.064705 0
       vertex -0.451006 0.064705 0.1
    endloop
  endfacet
  facet normal -0.946935 0.321425 0
    outer loop
       vertex -0.451006 0.064705 0.1
       vertex -0.440495 0.095671 0.1
       vertex -0.440495 0.095671 0
    endloop
  endfacet
  facet normal -0.980784 0.195096 0
    outer loop
       vertex -0.451006 0.064705 0
       vertex -0.457386 0.0326315 0
       vertex -0.457386 0.0326315 0.1
    endloop
  endfacet
  facet normal -0.980784 0.195096 0
    outer loop
       vertex -0.457386 0.0326315 0.1
       vertex -0.451006 0.064705 0.1
       vertex -0.451006 0.064705 0
    endloop
  endfacet
  facet normal -0.997858 0.0654098 0
    outer loop
       vertex -0.459525 8.32665e-17 0.1
       vertex -0.457386 0.0326315 0.1
       vertex -0.457386 0.0326315 0
    endloop
  endfacet
  facet normal -0.997858 0.0654098 -1.08928e-16
    outer loop
       vertex -0.457386 0.0326315 0
       vertex -0.459525 -8.32665e-17 0
       vertex -0.459525 8.32665e-17 0.1
    endloop
  endfacet
  facet normal -0.997858 -0.0654098 0
    outer loop
       vertex -0.459525 -8.32665e-17 0
       vertex -0.457386 -0.0326315 0
       vertex -0.457386 -0.0326315 0.1
    endloop
  endfacet
  facet normal -0.997858 -0.0654098 1.08928e-16
    outer loop
       vertex -0.457386 -0.0326315 0.1
       vertex -0.459525 8.32665e-17 0.1
       vertex -0.459525 -8.32665e-17 0
    endloop
  endfacet
  facet normal -0.980784 -0.195096 0
    outer loop
       vertex -0.457386 -0.0326315 0
       vertex -0.451006 -0.064705 0
       vertex -0.451006 -0.064705 0.1
    endloop
  endfacet
  facet normal -0.980784 -0.195096 0
    outer loop
       vertex -0.451006 -0.064705 0.1
       vertex -0.457386 -0.0326315 0.1
       vertex -0.457386 -0.0326315 0
    endloop
  endfacet
  facet normal -0.946935 -0.321425 0
    outer loop
       vertex -0.451006 -0.064705 0
       vertex -0.440495 -0.095671 0
       vertex -0.440495 -0.095671 0.1
    endloop
  endfacet
  facet normal -0.946935 -0.321425 0
    outer loop
       vertex -0.440495 -0.095671 0.1
       vertex -0.451006 -0.064705 0.1
       vertex -0.451006 -0.064705 0
    endloop
  endfacet
  facet normal -0.896866 -0.442302 0
    outer loop
       vertex -0.440495 -0.095671 0
       vertex -0.426031 -0.125 0
       vertex -0.426031 -0.125 0.1
    endloop
  endfacet
  facet normal -0.896866 -0.442302 0
    outer loop
       vertex -0.426031 -0.125 0.1
       vertex -0.440495 -0.095671 0.1
       vertex -0.440495 -0.095671 0
    endloop
  endfacet
  facet normal -0.831476 -0.555561 0
    outer loop
       vertex -0.426031 -0.125 0
       vertex -0.407863 -0.152191 0
       vertex -0.407863 -0.152191 0.1
    endloop
  endfacet
  facet normal -0.831476 -0.555561 0
    outer loop
       vertex -0.407863 -0.152191 0.1
       vertex -0.426031 -0.125 0.1
       vertex -0.426031 -0.125 0
    endloop
  endfacet
  facet normal -0.751817 -0.659372 0
    outer loop
       vertex -0.407863 -0.152191 0
       vertex -0.386301 -0.176776 0
       vertex -0.386301 -0.176776 0.1
    endloop
  endfacet
  facet normal -0.751817 -0.659372 0
    outer loop
       vertex -0.386301 -0.176776 0.1
       vertex -0.407863 -0.152191 0.1
       vertex -0.407863 -0.152191 0
    endloop
  endfacet
  facet normal 0.659372 -0.751817 0
    outer loop
       vertex -0.0327485 -0.176776 0
       vertex -0.0327485 -0.176776 0.1
       vertex -0.0573335 -0.198338 0.1
    endloop
  endfacet
  facet normal 0.659372 -0.751817 0
    outer loop
       vertex -0.0573335 -0.198338 0.1
       vertex -0.0573335 -0.198338 0
       vertex -0.0327485 -0.176776 0
    endloop
  endfacet
  facet normal 0.555561 -0.831476 0
    outer loop
       vertex -0.0573335 -0.198338 0
       vertex -0.0573335 -0.198338 0.1
       vertex -0.0845245 -0.216506 0.1
    endloop
  endfacet
  facet normal 0.555561 -0.831476 0
    outer loop
       vertex -0.0845245 -0.216506 0.1
       vertex -0.0845245 -0.216506 0
       vertex -0.0573335 -0.198338 0
    endloop
  endfacet
  facet normal 0.442302 -0.896866 0
    outer loop
       vertex -0.0845245 -0.216506 0
       vertex -0.0845245 -0.216506 0.1
       vertex -0.113854 -0.23097 0.1
    endloop
  endfacet
  facet normal 0.442302 -0.896866 0
    outer loop
       vertex -0.113854 -0.23097 0.1
       vertex -0.113854 -0.23097 0
       vertex -0.0845245 -0.216506 0
    endloop
  endfacet
  facet normal 0.321425 -0.946935 0
    outer loop
       vertex -0.113854 -0.23097 0
       vertex -0.113854 -0.23097 0.1
       vertex -0.14482 -0.241481 0.1
    endloop
  endfacet
  facet normal 0.321425 -0.946935 0
    outer loop
       vertex -0.14482 -0.241481 0.1
       vertex -0.14482 -0.241481 0
       vertex -0.113854 -0.23097 0
    endloop
  endfacet
  facet normal 0.195096 -0.980784 0
    outer loop
       vertex -0.14482 -0.241481 0
       vertex -0.14482 -0.241481 0.1
       vertex -0.176893 -0.247861 0.1
    endloop
  endfacet
  facet normal 0.195096 -0.980784 0
    outer loop
       vertex -0.176893 -0.247861 0.1
       vertex -0.176893 -0.247861 0
       vertex -0.14482 -0.241481 0
    endloop
  endfacet
  facet normal 0.0654098 -0.997858 0
    outer loop
       vertex -0.209525 -0.25 0
       vertex -0.176893 -0.247861 0
       vertex -0.176893 -0.247861 0.1
    endloop
  endfacet
  facet normal 0.0654098 -0.997858 1.0893e-16
    outer loop
       vertex -0.176893 -0.247861 0.1
       vertex -0.209525 -0.25 0.1
       vertex -0.209525 -0.25 0
    endloop
  endfacet
  facet normal -0.0654098 -0.997858 0
    outer loop
       vertex -0.209525 -0.25 0.1
       vertex -0.242156 -0.247861 0.1
       vertex -0.242156 -0.247861 0
    endloop
  endfacet
  facet normal -0.0654098 -0.997858 -1.0893e-16
    outer loop
       vertex -0.242156 -0.247861 0
       vertex -0.209525 -0.25 0
       vertex -0.209525 -0.25 0.1
    endloop
  endfacet
  facet normal -0.195096 -0.980784 0
    outer loop
       vertex -0.242156 -0.247861 0
       vertex -0.242156 -0.247861 0.1
       vertex -0.27423 -0.241481 0.1
    endloop
  endfacet
  facet normal -0.195096 -0.980784 -0
    outer loop
       vertex -0.27423 -0.241481 0.1
       vertex -0.27423 -0.241481 0
       vertex -0.242156 -0.247861 0
    endloop
  endfacet
  facet normal -0.321425 -0.946935 0
    outer loop
       vertex -0.27423 -0.241481 0
       vertex -0.27423 -0.241481 0.1
       vertex -0.305196 -0.23097 0.1
    endloop
  endfacet
  facet normal -0.321425 -0.946935 -0
    outer loop
       vertex -0.305196 -0.23097 0.1
       vertex -0.305196 -0.23097 0
       vertex -0.27423 -0.241481 0
    endloop
  endfacet
  facet normal -0.442302 -0.896866 0
    outer loop
       vertex -0.305196 -0.23097 0
       vertex -0.305196 -0.23097 0.1
       vertex -0.334525 -0.216506 0.1
    endloop
  endfacet
  facet normal -0.442302 -0.896866 -0
    outer loop
       vertex -0.334525 -0.216506 0.1
       vertex -0.334525 -0.216506 0
       vertex -0.305196 -0.23097 0
    endloop
  endfacet
  facet normal -0.555561 -0.831476 0
    outer loop
       vertex -0.334525 -0.216506 0
       vertex -0.334525 -0.216506 0.1
       vertex -0.361716 -0.198338 0.1
    endloop
  endfacet
  facet normal -0.555561 -0.831476 -0
    outer loop
       vertex -0.361716 -0.198338 0.1
       vertex -0.361716 -0.198338 0
       vertex -0.334525 -0.216506 0
    endloop
  endfacet
  facet normal -0.659372 -0.751817 0
    outer loop
       vertex -0.361716 -0.198338 0
       vertex -0.361716 -0.198338 0.1
       vertex -0.386301 -0.176776 0.1
    endloop
  endfacet
  facet normal -0.659372 -0.751817 -0
    outer loop
       vertex -0.386301 -0.176776 0.1
       vertex -0.386301 -0.176776 0
       vertex -0.361716 -0.198338 0
    endloop
  endfacet
endsolid cylinder
