solid cylinder
  facet normal 0.751817 -0.659372 0
    outer loop
       vertex 0.323514 -0.176776 0
       vertex 0.345076 -0.152191 0
       vertex 0.345076 -0.152191 0.1
    endloop
  endfacet
  facet normal 0.751817 -0.659372 0
    outer loop
       vertex 0.345076 -0.152191 0.1
       vertex 0.323514 -0.176776 0.1
       vertex 0.323514 -0.176776 0
    endloop
  endfacet
  facet normal 0.831476 -0.555561 0
    outer loop
       vertex 0.345076 -0.152191 0
       vertex 0.363244 -0.125 0
       vertex 0.363244 -0.125 0.1
    endloop
  endfacet
  facet normal 0.831476 -0.555561 0
    outer loop
       vertex 0.363244 -0.125 0.1
       vertex 0.345076 -0.152191 0.1
       vertex 0.345076 -0.152191 0
    endloop
  endfacet
  facet normal 0.896866 -0.442302 0
    outer loop
       vertex 0.363244 -0.125 0
       vertex 0.377708 -0.095671 0
       vertex 0.377708 -0.095671 0.1
    endloop
  endfacet
  facet normal 0.896866 -0.442302 0
    outer loop
       vertex 0.377708 -0.095671 0.1
       vertex 0.363244 -0.125 0.1
       vertex 0.363244 -0.125 0
    endloop
  endfacet
  facet normal 0.946935 -0.321425 0
    outer loop
       vertex 0.377708 -0.095671 0
       vertex 0.388219 -0.064705 0
       vertex 0.388219 -0.064705 0.1
    endloop
  endfacet
  facet normal 0.946935 -0.321425 0
    outer loop
       vertex 0.388219 -0.064705 0.1
       vertex 0.377708 -0.095671 0.1
       vertex 0.377708 -0.095671 0
    endloop
  endfacet
  facet normal 0.980784 -0.195096 0
    outer loop
       vertex 0.388219 -0.064705 0
       vertex 0.394599 -0.0326315 0
       vertex 0.394599 -0.0326315 0.1
    endloop
  endfacet
  facet normal 0.980784 -0.195096 0
    outer loop
       vertex 0.394599 -0.0326315 0.1
       vertex 0.388219 -0.064705 0.1
       vertex 0.388219 -0.064705 0
    endloop
  endfacet
  facet normal 0.997858 -0.0654098 0
    outer loop
       vertex 0.396738 -8.32665e-17 0.1
       vertex 0.394599 -0.0326315 0.1
       vertex 0.394599 -0.0326315 0
    endloop
  endfacet
  facet normal 0.997858 -0.0654098 -1.08928e-16
    outer loop
       vertex 0.394599 -0.0326315 0
       vertex 0.396738 8.32665e-17 0
       vertex 0.396738 -8.32665e-17 0.1
    endloop
  endfacet
  facet normal 0.997858 0.0654098 0
    outer loop
       vertex 0.396738 8.32665e-17 0
       vertex 0.394599 0.0326315 0
       vertex 0.394599 0.0326315 0.1
    endloop
  endfacet
  facet normal 0.997858 0.0654098 1.08928e-16
    outer loop
       vertex 0.394599 0.0326315 0.1
       vertex 0.396738 -8.32665e-17 0.1
       vertex 0.396738 8.32665e-17 0
    endloop
  endfacet
  facet normal 0.980784 0.195096 0
    outer loop
       vertex 0.394599 0.0326315 0
       vertex 0.388219 0.064705 0
       vertex 0.388219 0.064705 0.1
    endloop
  endfacet
  facet normal 0.980784 0.195096 0
    outer loop
       vertex 0.388219 0.064705 0.1
       vertex 0.394599 0.0326315 0.1
       vertex 0.394599 0.0326315 0
    endloop
  endfacet
  facet normal 0.946935 0.321425 0
    outer loop
       vertex 0.388219 0.064705 0
       vertex 0.377708 0.095671 0
       vertex 0.377708 0.095671 0.1
    endloop
  endfacet
  facet normal 0.946935 0.321425 0
    outer loop
       vertex 0.377708 0.095671 0.1
       vertex 0.388219 0.064705 0.1
       vertex 0.388219 0.064705 0
    endloop
  endfacet
  facet normal 0.896866 0.442302 0
    outer loop
       vertex 0.377708 0.095671 0
       vertex 0.363244 0.125 0
       vertex 0.363244 0.125 0.1
    endloop
  endfacet
  facet normal 0.896866 0.442302 0
    outer loop
       vertex 0.363244 0.125 0.1
       vertex 0.377708 0.095671 0.1
       vertex 0.377708 0.095671 0
    endloop
  endfacet
  facet normal 0.831476 0.555561 0
    outer loop
       vertex 0.363244 0.125 0
       vertex 0.345076 0.152191 0
       vertex 0.345076 0.152191 0.1
    endloop
  endfacet
  facet normal 0.831476 0.555561 0
    outer loop
       vertex 0.345076 0.152191 0.1
       vertex 0.363244 0.125 0.1
       vertex 0.363244 0.125 0
    endloop
  endfacet
  facet normal 0.751817 0.659372 0
    outer loop
       vertex 0.345076 0.152191 0
       vertex 0.323514 0.176776 0
       vertex 0.323514 0.176776 0.1
    endloop
  endfacet
  facet normal 0.751817 0.659372 0
    outer loop
       vertex 0.323514 0.176776 0.1
       vertex 0.345076 0.152191 0.1
       vertex 0.345076 0.152191 0
    endloop
  endfacet
  facet normal 0.659372 0.751817 0
    outer loop
       vertex 0.323514 0.176776 0
       vertex 0.298929 0.198338 0
       vertex 0.298929 0.198338 0.1
    endloop
  endfacet
  facet normal 0.659372 0.751817 0
    outer loop
       vertex 0.298929 0.198338 0.1
       vertex 0.323514 0.176776 0.1
       vertex 0.323514 0.176776 0
    endloop
  endfacet
  facet normal 0.555561 0.831476 0
    outer loop
       vertex 0.298929 0.198338 0
       vertex 0.271738 0.216506 0
       vertex 0.271738 0.216506 0.1
    endloop
  endfacet
  facet normal 0.555561 0.831476 0
    outer loop
       vertex 0.271738 0.216506 0.1
       vertex 0.298929 0.198338 0.1
       vertex 0.298929 0.198338 0
    endloop
  endfacet
  facet normal 0.442302 0.896866 0
    outer loop
       vertex 0.271738 0.216506 0
       vertex 0.242409 0.23097 0
       vertex 0.242409 0.23097 0.1
    endloop
  endfacet
  facet normal 0.442302 0.896866 0
    outer loop
       vertex 0.242409 0.23097 0.1
       vertex 0.271738 0.216506 0.1
       vertex 0.271738 0.216506 0
    endloop
  endfacet
  facet normal 0.321425 0.946935 0
    outer loop
       vertex 0.242409 0.23097 0
       vertex 0.211443 0.241481 0
       vertex 0.211443 0.241481 0.1
    endloop
  endfacet
  facet normal 0.321425 0.946935 0
    outer loop
       vertex 0.211443 0.241481 0.1
       vertex 0.242409 0.23097 0.1
       vertex 0.242409 0.23097 0
    endloop
  endfacet
  facet normal 0.195096 0.980784 0
    outer loop
       vertex 0.211443 0.241481 0
       vertex 0.179369 0.247861 0
       vertex 0.179369 0.247861 0.1
    endloop
  endfacet
  facet normal 0.195096 0.980784 0
    outer loop
       vertex 0.179369 0.247861 0.1
       vertex 0.211443 0.241481 0.1
       vertex 0.211443 0.241481 0
    endloop
  endfacet
  facet normal 0.0654098 0.997858 0
    outer loop
       vertex 0.146738 0.25 0.1
       vertex 0.179369 0.247861 0.1
       vertex 0.179369 0.247861 0
    endloop
  endfacet
  facet normal 0.0654098 0.997858 -1.0893e-16
    outer loop
       vertex 0.179369 0.247861 0
       vertex 0.146738 0.25 0
       vertex 0.146738 0.25 0.1
    endloop
  endfacet
  facet normal -0.0654098 0.997858 0
    outer loop
       vertex 0.146738 0.25 0
       vertex 0.114106 0.247861 0
       vertex 0.114106 0.247861 0.1
    endloop
  endfacet
  facet normal -0.0654098 0.997858 1.0893e-16
    outer loop
       vertex 0.114106 0.247861 0.1
       vertex 0.146738 0.25 0.1
       vertex 0.146738 0.25 0
    endloop
  endfacet
  facet normal -0.195096 0.980784 0
    outer loop
       vertex 0.114106 0.247861 0
       vertex 0.0820328 0.241481 0
       vertex 0.0820328 0.241481 0.1
    endloop
  endfacet
  facet normal -0.195096 0.980784 0
    outer loop
       vertex 0.0820328 0.241481 0.1
       vertex 0.114106 0.247861 0.1
       vertex 0.114106 0.247861 0
    endloop
  endfacet
  facet normal -0.321425 0.946935 0
    outer loop
       vertex 0.0820328 0.241481 0
       vertex 0.0510668 0.23097 0
       vertex 0.0510668 0.23097 0.1
    endloop
  endfacet
  facet normal -0.321425 0.946935 0
    outer loop
       vertex 0.0510668 0.23097 0.1
       vertex 0.0820328 0.241481 0.1
       vertex 0.0820328 0.241481 0
    endloop
  endfacet
  facet normal -0.442302 0.896866 0
    outer loop
       vertex 0.0510668 0.23097 0
       vertex 0.0217378 0.216506 0
       vertex 0.0217378 0.216506 0.1
    endloop
  endfacet
  facet normal -0.442302 0.896866 0
    outer loop
       vertex 0.0217378 0.216506 0.1
       vertex 0.0510668 0.23097 0.1
       vertex 0.0510668 0.23097 0
    endloop
  endfacet
  facet normal -0.555561 0.831476 0
    outer loop
       vertex 0.0217378 0.216506 0
       vertex -0.00545319 0.198338 0
       vertex -0.00545319 0.198338 0.1
    endloop
  endfacet
  facet normal -0.555561 0.831476 0
    outer loop
       vertex -0.00545319 0.198338 0.1
       vertex 0.0217378 0.216506 0.1
       vertex 0.0217378 0.216506 0
    endloop
  endfacet
  facet normal -0.659372 0.751817 0
    outer loop
       vertex -0.00545319 0.198338 0
       vertex -0.0300382 0.176776 0
       vertex -0.0300382 0.176776 0.1
    endloop
  endfacet
  facet normal -0.659372 0.751817 0
    outer loop
       vertex -0.0300382 0.176776 0.1
       vertex -0.00545319 0.198338 0.1
       vertex -0.00545319 0.198338 0
    endloop
  endfacet
  facet normal -0.751817 0.659372 0
    outer loop
       vertex -0.0300382 0.176776 0
       vertex -0.0516002 0.152191 0
       vertex -0.0516002 0.152191 0.1
    endloop
  endfacet
  facet normal -0.751817 0.659372 0
    outer loop
       vertex -0.0516002 0.152191 0.1
       vertex -0.0300382 0.176776 0.1
       vertex -0.0300382 0.176776 0
    endloop
  endfacet
  facet normal -0.831476 0.555561 0
    outer loop
       vertex -0.0516002 0.152191 0
       vertex -0.0697682 0.125 0
       vertex -0.0697682 0.125 0.1
    endloop
  endfacet
  facet normal -0.831476 0.555561 0
    outer loop
       vertex -0.0697682 0.125 0.1
       vertex -0.0516002 0.152191 0.1
       vertex -0.0516002 0.152191 0
    endloop
  endfacet
  facet normal -0.896866 0.442302 0
    outer loop
       vertex -0.0697682 0.125 0
       vertex -0.0842322 0.095671 0
       vertex -0.0842322 0.095671 0.1
    endloop
  endfacet
  facet normal -0.896866 0.442302 0
    outer loop
       vertex -0.0842322 0.095671 0.1
       vertex -0.0697682 0.125 0.1
       vertex -0.0697682 0.125 0
    endloop
  endfacet
  facet normal -0.946935 0.321425 0
    outer loop
       vertex -0.0842322 0.095671 0
       vertex -0.0947432 0.064705 0
       vertex -0.0947432 0.064705 0.1
    endloop
  endfacet
  facet normal -0.946935 0.321425 0
    outer loop
       vertex -0.0947432 0.064705 0.1
       vertex -0.0842322 0.095671 0.1
       vertex -0.0842322 0.095671 0
    endloop
  endfacet
  facet normal -0.980784 0.195096 0
    outer loop
       vertex -0.0947432 0.064705 0
       vertex -0.101123 0.0326315 0
       vertex -0.101123 0.0326315 0.1
    endloop
  endfacet
  facet normal -0.980784 0.195096 0
    outer loop
       vertex -0.101123 0.0326315 0.1
       vertex -0.0947432 0.064705 0.1
       vertex -0.0947432 0.064705 0
    endloop
  endfacet
  facet normal -0.997858 0.0654098 0
    outer loop
       vertex -0.103262 8.32665e-17 0.1
       vertex -0.101123 0.0326315 0.1
       vertex -0.101123 0.0326315 0
    endloop
  endfacet
  facet normal -0.997858 0.0654098 -1.08928e-16
    outer loop
       vertex -0.101123 0.0326315 0
       vertex -0.103262 -8.32665e-17 0
       vertex -0.103262 8.32665e-17 0.1
    endloop
  endfacet
  facet normal -0.997858 -0.0654098 0
    outer loop
       vertex -0.103262 -8.32665e-17 0
       vertex -0.101123 -0.0326315 0
       vertex -0.101123 -0.0326315 0.1
    endloop
  endfacet
  facet normal -0.997858 -0.0654098 1.08928e-16
    outer loop
       vertex -0.101123 -0.0326315 0.1
       vertex -0.103262 8.32665e-17 0.1
       vertex -0.103262 -8.32665e-17 0
    endloop
  endfacet
  facet normal -0.980784 -0.195096 0
    outer loop
       vertex -0.101123 -0.0326315 0
       vertex -0.0947432 -0.064705 0
       vertex -0.0947432 -0.064705 0.1
    endloop
  endfacet
  facet normal -0.980784 -0.195096 0
    outer loop
       vertex -0.0947432 -0.064705 0.1
       vertex -0.101123 -0.0326315 0.1
       vertex -0.101123 -0.0326315 0
    endloop
  endfacet
  facet normal -0.946935 -0.321425 0
    outer loop
       vertex -0.0947432 -0.064705 0
       vertex -0.0842322 -0.095671 0
       vertex -0.0842322 -0.095671 0.1
    endloop
  endfacet
  facet normal -0.946935 -0.321425 0
    outer loop
       vertex -0.0842322 -0.095671 0.1
       vertex -0.0947432 -0.064705 0.1
       vertex -0.0947432 -0.064705 0
    endloop
  endfacet
  facet normal -0.896866 -0.442302 0
    outer loop
       vertex -0.0842322 -0.095671 0
       vertex -0.0697682 -0.125 0
       vertex -0.0697682 -0.125 0.1
    endloop
  endfacet
  facet normal -0.896866 -0.442302 0
    outer loop
       vertex -0.0697682 -0.125 0.1
       vertex -0.0842322 -0.095671 0.1
       vertex -0.0842322 -0.095671 0
    endloop
  endfacet
  facet normal -0.831476 -0.555561 0
    outer loop
       vertex -0.0697682 -0.125 0
       vertex -0.0516002 -0.152191 0
       vertex -0.0516002 -0.152191 0.1
    endloop
  endfacet
  facet normal -0.831476 -0.555561 0
    outer loop
       vertex -0.0516002 -0.152191 0.1
       vertex -0.0697682 -0.125 0.1
       vertex -0.0697682 -0.125 0
    endloop
  endfacet
  facet normal -0.751817 -0.659372 0
    outer loop
       vertex -0.0516002 -0.152191 0
       vertex -0.0300382 -0.176776 0
       vertex -0.0300382 -0.176776 0.1
    endloop
  endfacet
  facet normal -0.751817 -0.659372 0
    outer loop
       vertex -0.0300382 -0.176776 0.1
       vertex -0.0516002 -0.152191 0.1
       vertex -0.0516002 -0.152191 0
    endloop
  endfacet
  facet normal 0.659372 -0.751817 0
    outer loop
       vertex 0.323514 -0.176776 0
       vertex 0.323514 -0.176776 0.1
       vertex 0.298929 -0.198338 0.1
    endloop
  endfacet
  facet normal 0.659372 -0.751817 0
    outer loop
       vertex 0.298929 -0.198338 0.1
       vertex 0.298929 -0.198338 0
       vertex 0.323514 -0.176776 0
    endloop
  endfacet
  facet normal 0.555561 -0.831476 0
    outer loop
       vertex 0.298929 -0.198338 0
       vertex 0.298929 -0.198338 0.1
       vertex 0.271738 -0.216506 0.1
    endloop
  endfacet
  facet normal 0.555561 -0.831476 0
    outer loop
       vertex 0.271738 -0.216506 0.1
       vertex 0.271738 -0.216506 0
       vertex 0.298929 -0.198338 0
    endloop
  endfacet
  facet normal 0.442302 -0.896866 0
    outer loop
       vertex 0.271738 -0.216506 0
       vertex 0.271738 -0.216506 0.1
       vertex 0.242409 -0.23097 0.1
    endloop
  endfacet
  facet normal 0.442302 -0.896866 0
    outer loop
       vertex 0.242409 -0.23097 0.1
       vertex 0.242409 -0.23097 0
       vertex 0.271738 -0.216506 0
    endloop
  endfacet
  facet normal 0.321425 -0.946935 0
    outer loop
       vertex 0.242409 -0.23097 0
       vertex 0.242409 -0.23097 0.1
       vertex 0.211443 -0.241481 0.1
    endloop
  endfacet
  facet normal 0.321425 -0.946935 0
    outer loop
       vertex 0.211443 -0.241481 0.1
       vertex 0.211443 -0.241481 0
       vertex 0.242409 -0.23097 0
    endloop
  endfacet
  facet normal 0.195096 -0.980784 0
    outer loop
       vertex 0.211443 -0.241481 0
       vertex 0.211443 -0.241481 0.1
       vertex 0.179369 -0.247861 0.1
    endloop
  endfacet
  facet normal 0.195096 -0.980784 0
    outer loop
       vertex 0.179369 -0.247861 0.1
       vertex 0.179369 -0.247861 0
       vertex 0.211443 -0.241481 0
    endloop
  endfacet
  facet normal 0.0654098 -0.997858 0
    outer loop
       vertex 0.146738 -0.25 0
       vertex 0.179369 -0.247861 0
       vertex 0.179369 -0.247861 0.1
    endloop
  endfacet
  facet normal 0.0654098 -0.997858 1.0893e-16
    outer loop
       vertex 0.179369 -0.247861 0.1
       vertex 0.146738 -0.25 0.1
       vertex 0.146738 -0.25 0
    endloop
  endfacet
  facet normal -0.0654098 -0.997858 0
    outer loop
       vertex 0.146738 -0.25 0.1
       vertex 0.114106 -0.247861 0.1
       vertex 0.114106 -0.247861 0
    endloop
  endfacet
  facet normal -0.0654098 -0.997858 -1.0893e-16
    outer loop
       vertex 0.114106 -0.247861 0
       vertex 0.146738 -0.25 0
       vertex 0.146738 -0.25 0.1
    endloop
  endfacet
  facet normal -0.195096 -0.980784 0
    outer loop
       vertex 0.114106 -0.247861 0
       vertex 0.114106 -0.247861 0.1
       vertex 0.0820328 -0.241481 0.1
    endloop
  endfacet
  facet normal -0.195096 -0.980784 -0
    outer loop
       vertex 0.0820328 -0.241481 0.1
       vertex 0.0820328 -0.241481 0
       vertex 0.114106 -0.247861 0
    endloop
  endfacet
  facet normal -0.321425 -0.946935 0
    outer loop
       vertex 0.0820328 -0.241481 0
       vertex 0.0820328 -0.241481 0.1
       vertex 0.0510668 -0.23097 0.1
    endloop
  endfacet
  facet normal -0.321425 -0.946935 -0
    outer loop
       vertex 0.0510668 -0.23097 0.1
       vertex 0.0510668 -0.23097 0
       vertex 0.0820328 -0.241481 0
    endloop
  endfacet
  facet normal -0.442302 -0.896866 0
    outer loop
       vertex 0.0510668 -0.23097 0
       vertex 0.0510668 -0.23097 0.1
       vertex 0.0217378 -0.216506 0.1
    endloop
  endfacet
  facet normal -0.442302 -0.896866 -0
    outer loop
       vertex 0.0217378 -0.216506 0.1
       vertex 0.0217378 -0.216506 0
       vertex 0.0510668 -0.23097 0
    endloop
  endfacet
  facet normal -0.555561 -0.831476 0
    outer loop
       vertex 0.0217378 -0.216506 0
       vertex 0.0217378 -0.216506 0.1
       vertex -0.00545319 -0.198338 0.1
    endloop
  endfacet
  facet normal -0.555561 -0.831476 -0
    outer loop
       vertex -0.00545319 -0.198338 0.1
       vertex -0.00545319 -0.198338 0
       vertex 0.0217378 -0.216506 0
    endloop
  endfacet
  facet normal -0.659372 -0.751817 0
    outer loop
       vertex -0.00545319 -0.198338 0
       vertex -0.00545319 -0.198338 0.1
       vertex -0.0300382 -0.176776 0.1
    endloop
  endfacet
  facet normal -0.659372 -0.751817 -0
    outer loop
       vertex -0.0300382 -0.176776 0.1
       vertex -0.0300382 -0.176776 0
       vertex -0.00545319 -0.198338 0
    endloop
  endfacet
endsolid cylinder
