solid cylinder
  facet normal 0.751817 -0.659372 0
    outer loop
       vertex -0.0300123 -0.176776 0
       vertex -0.00845031 -0.152191 0
       vertex -0.00845031 -0.152191 0.1
    endloop
  endfacet
  facet normal 0.751817 -0.659372 0
    outer loop
       vertex -0.00845031 -0.152191 0.1
       vertex -0.0300123 -0.176776 0.1
       vertex -0.0300123 -0.176776 0
    endloop
  endfacet
  facet normal 0.831476 -0.555561 0
    outer loop
       vertex -0.00845031 -0.152191 0
       vertex 0.00971769 -0.125 0
       vertex 0.00971769 -0.125 0.1
    endloop
  endfacet
  facet normal 0.831476 -0.555561 0
    outer loop
       vertex 0.00971769 -0.125 0.1
       vertex -0.00845031 -0.152191 0.1
       vertex -0.00845031 -0.152191 0
    endloop
  endfacet
  facet normal 0.896866 -0.442302 0
    outer loop
       vertex 0.00971769 -0.125 0
       vertex 0.0241817 -0.095671 0
       vertex 0.0241817 -0.095671 0.1
    endloop
  endfacet
  facet normal 0.896866 -0.442302 0
    outer loop
       vertex 0.0241817 -0.095671 0.1
       vertex 0.00971769 -0.125 0.1
       vertex 0.00971769 -0.125 0
    endloop
  endfacet
  facet normal 0.946935 -0.321425 0
    outer loop
       vertex 0.0241817 -0.095671 0
       vertex 0.0346927 -0.064705 0
       vertex 0.0346927 -0.064705 0.1
    endloop
  endfacet
  facet normal 0.946935 -0.321425 0
    outer loop
       vertex 0.0346927 -0.064705 0.1
       vertex 0.0241817 -0.095671 0.1
       vertex 0.0241817 -0.095671 0
    endloop
  endfacet
  facet normal 0.980784 -0.195096 0
    outer loop
       vertex 0.0346927 -0.064705 0
       vertex 0.0410727 -0.0326315 0
       vertex 0.0410727 -0.0326315 0.1
    endloop
  endfacet
  facet normal 0.980784 -0.195096 0
    outer loop
       vertex 0.0410727 -0.0326315 0.1
       vertex 0.0346927 -0.064705 0.1
       vertex 0.0346927 -0.064705 0
    endloop
  endfacet
  facet normal 0.997858 -0.0654098 0
    outer loop
       vertex 0.0432117 -8.32665e-17 0.1
       vertex 0.0410727 -0.0326315 0.1
       vertex 0.0410727 -0.0326315 0
    endloop
  endfacet
  facet normal 0.997858 -0.0654098 -1.08928e-16
    outer loop
       vertex 0.0410727 -0.0326315 0
       vertex 0.0432117 8.32665e-17 0
       vertex 0.0432117 -8.32665e-17 0.1
    endloop
  endfacet
  facet normal 0.997858 0.0654098 0
    outer loop
       vertex 0.0432117 8.32665e-17 0
       vertex 0.0410727 0.0326315 0
       vertex 0.0410727 0.0326315 0.1
    endloop
  endfacet
  facet normal 0.997858 0.0654098 1.08928e-16
    outer loop
       vertex 0.0410727 0.0326315 0.1
       vertex 0.0432117 -8.32665e-17 0.1
       vertex 0.0432117 8.32665e-17 0
    endloop
  endfacet
  facet normal 0.980784 0.195096 0
    outer loop
       vertex 0.0410727 0.0326315 0
       vertex 0.0346927 0.064705 0
       vertex 0.0346927 0.064705 0.1
    endloop
  endfacet
  facet normal 0.980784 0.195096 0
    outer loop
       vertex 0.0346927 0.064705 0.1
       vertex 0.0410727 0.0326315 0.1
       vertex 0.0410727 0.0326315 0
    endloop
  endfacet
  facet normal 0.946935 0.321425 0
    outer loop
       vertex 0.0346927 0.064705 0
       vertex 0.0241817 0.095671 0
       vertex 0.0241817 0.095671 0.1
    endloop
  endfacet
  facet normal 0.946935 0.321425 0
    outer loop
       vertex 0.0241817 0.095671 0.1
       vertex 0.0346927 0.064705 0.1
       vertex 0.0346927 0.064705 0
    endloop
  endfacet
  facet normal 0.896866 0.442302 0
    outer loop
       vertex 0.0241817 0.095671 0
       vertex 0.00971769 0.125 0
       vertex 0.00971769 0.125 0.1
    endloop
  endfacet
  facet normal 0.896866 0.442302 0
    outer loop
       vertex 0.00971769 0.125 0.1
       vertex 0.0241817 0.095671 0.1
       vertex 0.0241817 0.095671 0
    endloop
  endfacet
  facet normal 0.831476 0.555561 0
    outer loop
       vertex 0.00971769 0.125 0
       vertex -0.00845031 0.152191 0
       vertex -0.00845031 0.152191 0.1
    endloop
  endfacet
  facet normal 0.831476 0.555561 0
    outer loop
       vertex -0.00845031 0.152191 0.1
       vertex 0.00971769 0.125 0.1
       vertex 0.00971769 0.125 0
    endloop
  endfacet
  facet normal 0.751817 0.659372 0
    outer loop
       vertex -0.00845031 0.152191 0
       vertex -0.0300123 0.176776 0
       vertex -0.0300123 0.176776 0.1
    endloop
  endfacet
  facet normal 0.751817 0.659372 0
    outer loop
       vertex -0.0300123 0.176776 0.1
       vertex -0.00845031 0.152191 0.1
       vertex -0.00845031 0.152191 0
    endloop
  endfacet
  facet normal 0.659372 0.751817 0
    outer loop
       vertex -0.0300123 0.176776 0
       vertex -0.0545973 0.198338 0
       vertex -0.0545973 0.198338 0.1
    endloop
  endfacet
  facet normal 0.659372 0.751817 0
    outer loop
       vertex -0.0545973 0.198338 0.1
       vertex -0.0300123 0.176776 0.1
       vertex -0.0300123 0.176776 0
    endloop
  endfacet
  facet normal 0.555561 0.831476 0
    outer loop
       vertex -0.0545973 0.198338 0
       vertex -0.0817883 0.216506 0
       vertex -0.0817883 0.216506 0.1
    endloop
  endfacet
  facet normal 0.555561 0.831476 0
    outer loop
       vertex -0.0817883 0.216506 0.1
       vertex -0.0545973 0.198338 0.1
       vertex -0.0545973 0.198338 0
    endloop
  endfacet
  facet normal 0.442302 0.896866 0
    outer loop
       vertex -0.0817883 0.216506 0
       vertex -0.111117 0.23097 0
       vertex -0.111117 0.23097 0.1
    endloop
  endfacet
  facet normal 0.442302 0.896866 0
    outer loop
       vertex -0.111117 0.23097 0.1
       vertex -0.0817883 0.216506 0.1
       vertex -0.0817883 0.216506 0
    endloop
  endfacet
  facet normal 0.321425 0.946935 0
    outer loop
       vertex -0.111117 0.23097 0
       vertex -0.142083 0.241481 0
       vertex -0.142083 0.241481 0.1
    endloop
  endfacet
  facet normal 0.321425 0.946935 0
    outer loop
       vertex -0.142083 0.241481 0.1
       vertex -0.111117 0.23097 0.1
       vertex -0.111117 0.23097 0
    endloop
  endfacet
  facet normal 0.195096 0.980784 0
    outer loop
       vertex -0.142083 0.241481 0
       vertex -0.174157 0.247861 0
       vertex -0.174157 0.247861 0.1
    endloop
  endfacet
  facet normal 0.195096 0.980784 0
    outer loop
       vertex -0.174157 0.247861 0.1
       vertex -0.142083 0.241481 0.1
       vertex -0.142083 0.241481 0
    endloop
  endfacet
  facet normal 0.0654098 0.997858 0
    outer loop
       vertex -0.206788 0.25 0.1
       vertex -0.174157 0.247861 0.1
       vertex -0.174157 0.247861 0
    endloop
  endfacet
  facet normal 0.0654098 0.997858 -1.0893e-16
    outer loop
       vertex -0.174157 0.247861 0
       vertex -0.206788 0.25 0
       vertex -0.206788 0.25 0.1
    endloop
  endfacet
  facet normal -0.0654098 0.997858 0
    outer loop
       vertex -0.206788 0.25 0
       vertex -0.23942 0.247861 0
       vertex -0.23942 0.247861 0.1
    endloop
  endfacet
  facet normal -0.0654098 0.997858 1.0893e-16
    outer loop
       vertex -0.23942 0.247861 0.1
       vertex -0.206788 0.25 0.1
       vertex -0.206788 0.25 0
    endloop
  endfacet
  facet normal -0.195096 0.980784 0
    outer loop
       vertex -0.23942 0.247861 0
       vertex -0.271493 0.241481 0
       vertex -0.271493 0.241481 0.1
    endloop
  endfacet
  facet normal -0.195096 0.980784 0
    outer loop
       vertex -0.271493 0.241481 0.1
       vertex -0.23942 0.247861 0.1
       vertex -0.23942 0.247861 0
    endloop
  endfacet
  facet normal -0.321425 0.946935 0
    outer loop
       vertex -0.271493 0.241481 0
       vertex -0.302459 0.23097 0
       vertex -0.302459 0.23097 0.1
    endloop
  endfacet
  facet normal -0.321425 0.946935 0
    outer loop
       vertex -0.302459 0.23097 0.1
       vertex -0.271493 0.241481 0.1
       vertex -0.271493 0.241481 0
    endloop
  endfacet
  facet normal -0.442302 0.896866 0
    outer loop
       vertex -0.302459 0.23097 0
       vertex -0.331788 0.216506 0
       vertex -0.331788 0.216506 0.1
    endloop
  endfacet
  facet normal -0.442302 0.896866 0
    outer loop
       vertex -0.331788 0.216506 0.1
       vertex -0.302459 0.23097 0.1
       vertex -0.302459 0.23097 0
    endloop
  endfacet
  facet normal -0.555561 0.831476 0
    outer loop
       vertex -0.331788 0.216506 0
       vertex -0.358979 0.198338 0
       vertex -0.358979 0.198338 0.1
    endloop
  endfacet
  facet normal -0.555561 0.831476 0
    outer loop
       vertex -0.358979 0.198338 0.1
       vertex -0.331788 0.216506 0.1
       vertex -0.331788 0.216506 0
    endloop
  endfacet
  facet normal -0.659372 0.751817 0
    outer loop
       vertex -0.358979 0.198338 0
       vertex -0.383564 0.176776 0
       vertex -0.383564 0.176776 0.1
    endloop
  endfacet
  facet normal -0.659372 0.751817 0
    outer loop
       vertex -0.383564 0.176776 0.1
       vertex -0.358979 0.198338 0.1
       vertex -0.358979 0.198338 0
    endloop
  endfacet
  facet normal -0.751817 0.659372 0
    outer loop
       vertex -0.383564 0.176776 0
       vertex -0.405126 0.152191 0
       vertex -0.405126 0.152191 0.1
    endloop
  endfacet
  facet normal -0.751817 0.659372 0
    outer loop
       vertex -0.405126 0.152191 0.1
       vertex -0.383564 0.176776 0.1
       vertex -0.383564 0.176776 0
    endloop
  endfacet
  facet normal -0.831476 0.555561 0
    outer loop
       vertex -0.405126 0.152191 0
       vertex -0.423294 0.125 0
       vertex -0.423294 0.125 0.1
    endloop
  endfacet
  facet normal -0.831476 0.555561 0
    outer loop
       vertex -0.423294 0.125 0.1
       vertex -0.405126 0.152191 0.1
       vertex -0.405126 0.152191 0
    endloop
  endfacet
  facet normal -0.896866 0.442302 0
    outer loop
       vertex -0.423294 0.125 0
       vertex -0.437758 0.095671 0
       vertex -0.437758 0.095671 0.1
    endloop
  endfacet
  facet normal -0.896866 0.442302 0
    outer loop
       vertex -0.437758 0.095671 0.1
       vertex -0.423294 0.125 0.1
       vertex -0.423294 0.125 0
    endloop
  endfacet
  facet normal -0.946935 0.321425 0
    outer loop
       vertex -0.437758 0.095671 0
       vertex -0.448269 0.064705 0
       vertex -0.448269 0.064705 0.1
    endloop
  endfacet
  facet normal -0.946935 0.321425 0
    outer loop
       vertex -0.448269 0.064705 0.1
       vertex -0.437758 0.095671 0.1
       vertex -0.437758 0.095671 0
    endloop
  endfacet
  facet normal -0.980784 0.195096 0
    outer loop
       vertex -0.448269 0.064705 0
       vertex -0.454649 0.0326315 0
       vertex -0.454649 0.0326315 0.1
    endloop
  endfacet
  facet normal -0.980784 0.195096 0
    outer loop
       vertex -0.454649 0.0326315 0.1
       vertex -0.448269 0.064705 0.1
       vertex -0.448269 0.064705 0
    endloop
  endfacet
  facet normal -0.997858 0.0654098 0
    outer loop
       vertex -0.456788 8.32665e-17 0.1
       vertex -0.454649 0.0326315 0.1
       vertex -0.454649 0.0326315 0
    endloop
  endfacet
  facet normal -0.997858 0.0654098 -1.08928e-16
    outer loop
       vertex -0.454649 0.0326315 0
       vertex -0.456788 -8.32665e-17 0
       vertex -0.456788 8.32665e-17 0.1
    endloop
  endfacet
  facet normal -0.997858 -0.0654098 0
    outer loop
       vertex -0.456788 -8.32665e-17 0
       vertex -0.454649 -0.0326315 0
       vertex -0.454649 -0.0326315 0.1
    endloop
  endfacet
  facet normal -0.997858 -0.0654098 1.08928e-16
    outer loop
       vertex -0.454649 -0.0326315 0.1
       vertex -0.456788 8.32665e-17 0.1
       vertex -0.456788 -8.32665e-17 0
    endloop
  endfacet
  facet normal -0.980784 -0.195096 0
    outer loop
       vertex -0.454649 -0.0326315 0
       vertex -0.448269 -0.064705 0
       vertex -0.448269 -0.064705 0.1
    endloop
  endfacet
  facet normal -0.980784 -0.195096 0
    outer loop
       vertex -0.448269 -0.064705 0.1
       vertex -0.454649 -0.0326315 0.1
       vertex -0.454649 -0.0326315 0
    endloop
  endfacet
  facet normal -0.946935 -0.321425 0
    outer loop
       vertex -0.448269 -0.064705 0
       vertex -0.437758 -0.095671 0
       vertex -0.437758 -0.095671 0.1
    endloop
  endfacet
  facet normal -0.946935 -0.321425 0
    outer loop
       vertex -0.437758 -0.095671 0.1
       vertex -0.448269 -0.064705 0.1
       vertex -0.448269 -0.064705 0
    endloop
  endfacet
  facet normal -0.896866 -0.442302 0
    outer loop
       vertex -0.437758 -0.095671 0
       vertex -0.423294 -0.125 0
       vertex -0.423294 -0.125 0.1
    endloop
  endfacet
  facet normal -0.896866 -0.442302 0
    outer loop
       vertex -0.423294 -0.125 0.1
       vertex -0.437758 -0.095671 0.1
       vertex -0.437758 -0.095671 0
    endloop
  endfacet
  facet normal -0.831476 -0.555561 0
    outer loop
       vertex -0.423294 -0.125 0
       vertex -0.405126 -0.152191 0
       vertex -0.405126 -0.152191 0.1
    endloop
  endfacet
  facet normal -0.831476 -0.555561 0
    outer loop
       vertex -0.405126 -0.152191 0.1
       vertex -0.423294 -0.125 0.1
       vertex -0.423294 -0.125 0
    endloop
  endfacet
  facet normal -0.751817 -0.659372 0
    outer loop
       vertex -0.405126 -0.152191 0
       vertex -0.383564 -0.176776 0
       vertex -0.383564 -0.176776 0.1
    endloop
  endfacet
  facet normal -0.751817 -0.659372 0
    outer loop
       vertex -0.383564 -0.176776 0.1
       vertex -0.405126 -0.152191 0.1
       vertex -0.405126 -0.152191 0
    endloop
  endfacet
  facet normal 0.659372 -0.751817 0
    outer loop
       vertex -0.0300123 -0.176776 0
       vertex -0.0300123 -0.176776 0.1
       vertex -0.0545973 -0.198338 0.1
    endloop
  endfacet
  facet normal 0.659372 -0.751817 0
    outer loop
       vertex -0.0545973 -0.198338 0.1
       vertex -0.0545973 -0.198338 0
       vertex -0.0300123 -0.176776 0
    endloop
  endfacet
  facet normal 0.555561 -0.831476 0
    outer loop
       vertex -0.0545973 -0.198338 0
       vertex -0.0545973 -0.198338 0.1
       vertex -0.0817883 -0.216506 0.1
    endloop
  endfacet
  facet normal 0.555561 -0.831476 0
    outer loop
       vertex -0.0817883 -0.216506 0.1
       vertex -0.0817883 -0.216506 0
       vertex -0.0545973 -0.198338 0
    endloop
  endfacet
  facet normal 0.442302 -0.896866 0
    outer loop
       vertex -0.0817883 -0.216506 0
       vertex -0.0817883 -0.216506 0.1
       vertex -0.111117 -0.23097 0.1
    endloop
  endfacet
  facet normal 0.442302 -0.896866 0
    outer loop
       vertex -0.111117 -0.23097 0.1
       vertex -0.111117 -0.23097 0
       vertex -0.0817883 -0.216506 0
    endloop
  endfacet
  facet normal 0.321425 -0.946935 0
    outer loop
       vertex -0.111117 -0.23097 0
       vertex -0.111117 -0.23097 0.1
       vertex -0.142083 -0.241481 0.1
    endloop
  endfacet
  facet normal 0.321425 -0.946935 0
    outer loop
       vertex -0.142083 -0.241481 0.1
       vertex -0.142083 -0.241481 0
       vertex -0.111117 -0.23097 0
    endloop
  endfacet
  facet normal 0.195096 -0.980784 0
    outer loop
       vertex -0.142083 -0.241481 0
       vertex -0.142083 -0.241481 0.1
       vertex -0.174157 -0.247861 0.1
    endloop
  endfacet
  facet normal 0.195096 -0.980784 0
    outer loop
       vertex -0.174157 -0.247861 0.1
       vertex -0.174157 -0.247861 0
       vertex -0.142083 -0.241481 0
    endloop
  endfacet
  facet normal 0.0654098 -0.997858 0
    outer loop
       vertex -0.206788 -0.25 0
       vertex -0.174157 -0.247861 0
       vertex -0.174157 -0.247861 0.1
    endloop
  endfacet
  facet normal 0.0654098 -0.997858 1.0893e-16
    outer loop
       vertex -0.174157 -0.247861 0.1
       vertex -0.206788 -0.25 0.1
       vertex -0.206788 -0.25 0
    endloop
  endfacet
  facet normal -0.0654098 -0.997858 0
    outer loop
       vertex -0.206788 -0.25 0.1
       vertex -0.23942 -0.247861 0.1
       vertex -0.23942 -0.247861 0
    endloop
  endfacet
  facet normal -0.0654098 -0.997858 -1.0893e-16
    outer loop
       vertex -0.23942 -0.247861 0
       vertex -0.206788 -0.25 0
       vertex -0.206788 -0.25 0.1
    endloop
  endfacet
  facet normal -0.195096 -0.980784 0
    outer loop
       vertex -0.23942 -0.247861 0
       vertex -0.23942 -0.247861 0.1
       vertex -0.271493 -0.241481 0.1
    endloop
  endfacet
  facet normal -0.195096 -0.980784 -0
    outer loop
       vertex -0.271493 -0.241481 0.1
       vertex -0.271493 -0.241481 0
       vertex -0.23942 -0.247861 0
    endloop
  endfacet
  facet normal -0.321425 -0.946935 0
    outer loop
       vertex -0.271493 -0.241481 0
       vertex -0.271493 -0.241481 0.1
       vertex -0.302459 -0.23097 0.1
    endloop
  endfacet
  facet normal -0.321425 -0.946935 -0
    outer loop
       vertex -0.302459 -0.23097 0.1
       vertex -0.302459 -0.23097 0
       vertex -0.271493 -0.241481 0
    endloop
  endfacet
  facet normal -0.442302 -0.896866 0
    outer loop
       vertex -0.302459 -0.23097 0
       vertex -0.302459 -0.23097 0.1
       vertex -0.331788 -0.216506 0.1
    endloop
  endfacet
  facet normal -0.442302 -0.896866 -0
    outer loop
       vertex -0.331788 -0.216506 0.1
       vertex -0.331788 -0.216506 0
       vertex -0.302459 -0.23097 0
    endloop
  endfacet
  facet normal -0.555561 -0.831476 0
    outer loop
       vertex -0.331788 -0.216506 0
       vertex -0.331788 -0.216506 0.1
       vertex -0.358979 -0.198338 0.1
    endloop
  endfacet
  facet normal -0.555561 -0.831476 -0
    outer loop
       vertex -0.358979 -0.198338 0.1
       vertex -0.358979 -0.198338 0
       vertex -0.331788 -0.216506 0
    endloop
  endfacet
  facet normal -0.659372 -0.751817 0
    outer loop
       vertex -0.358979 -0.198338 0
       vertex -0.358979 -0.198338 0.1
       vertex -0.383564 -0.176776 0.1
    endloop
  endfacet
  facet normal -0.659372 -0.751817 -0
    outer loop
       vertex -0.383564 -0.176776 0.1
       vertex -0.383564 -0.176776 0
       vertex -0.358979 -0.198338 0
    endloop
  endfacet
endsolid cylinder
