solid cylinder
  facet normal 0.751817 -0.659372 0
    outer loop
       vertex 0.0377433 -0.176776 0
       vertex 0.0593053 -0.152191 0
       vertex 0.0593053 -0.152191 0.1
    endloop
  endfacet
  facet normal 0.751817 -0.659372 0
    outer loop
       vertex 0.0593053 -0.152191 0.1
       vertex 0.0377433 -0.176776 0.1
       vertex 0.0377433 -0.176776 0
    endloop
  endfacet
  facet normal 0.831476 -0.555561 0
    outer loop
       vertex 0.0593053 -0.152191 0
       vertex 0.0774733 -0.125 0
       vertex 0.0774733 -0.125 0.1
    endloop
  endfacet
  facet normal 0.831476 -0.555561 0
    outer loop
       vertex 0.0774733 -0.125 0.1
       vertex 0.0593053 -0.152191 0.1
       vertex 0.0593053 -0.152191 0
    endloop
  endfacet
  facet normal 0.896866 -0.442302 0
    outer loop
       vertex 0.0774733 -0.125 0
       vertex 0.0919373 -0.095671 0
       vertex 0.0919373 -0.095671 0.1
    endloop
  endfacet
  facet normal 0.896866 -0.442302 0
    outer loop
       vertex 0.0919373 -0.095671 0.1
       vertex 0.0774733 -0.125 0.1
       vertex 0.0774733 -0.125 0
    endloop
  endfacet
  facet normal 0.946935 -0.321425 0
    outer loop
       vertex 0.0919373 -0.095671 0
       vertex 0.102448 -0.064705 0
       vertex 0.102448 -0.064705 0.1
    endloop
  endfacet
  facet normal 0.946935 -0.321425 0
    outer loop
       vertex 0.102448 -0.064705 0.1
       vertex 0.0919373 -0.095671 0.1
       vertex 0.0919373 -0.095671 0
    endloop
  endfacet
  facet normal 0.980784 -0.195096 0
    outer loop
       vertex 0.102448 -0.064705 0
       vertex 0.108828 -0.0326315 0
       vertex 0.108828 -0.0326315 0.1
    endloop
  endfacet
  facet normal 0.980784 -0.195096 0
    outer loop
       vertex 0.108828 -0.0326315 0.1
       vertex 0.102448 -0.064705 0.1
       vertex 0.102448 -0.064705 0
    endloop
  endfacet
  facet normal 0.997858 -0.0654098 0
    outer loop
       vertex 0.110967 -8.32665e-17 0.1
       vertex 0.108828 -0.0326315 0.1
       vertex 0.108828 -0.0326315 0
    endloop
  endfacet
  facet normal 0.997858 -0.0654098 -1.08928e-16
    outer loop
       vertex 0.108828 -0.0326315 0
       vertex 0.110967 8.32665e-17 0
       vertex 0.110967 -8.32665e-17 0.1
    endloop
  endfacet
  facet normal 0.997858 0.0654098 0
    outer loop
       vertex 0.110967 8.32665e-17 0
       vertex 0.108828 0.0326315 0
       vertex 0.108828 0.0326315 0.1
    endloop
  endfacet
  facet normal 0.997858 0.0654098 1.08928e-16
    outer loop
       vertex 0.108828 0.0326315 0.1
       vertex 0.110967 -8.32665e-17 0.1
       vertex 0.110967 8.32665e-17 0
    endloop
  endfacet
  facet normal 0.980784 0.195096 0
    outer loop
       vertex 0.108828 0.0326315 0
       vertex 0.102448 0.064705 0
       vertex 0.102448 0.064705 0.1
    endloop
  endfacet
  facet normal 0.980784 0.195096 0
    outer loop
       vertex 0.102448 0.064705 0.1
       vertex 0.108828 0.0326315 0.1
       vertex 0.108828 0.0326315 0
    endloop
  endfacet
  facet normal 0.946935 0.321425 0
    outer loop
       vertex 0.102448 0.064705 0
       vertex 0.0919373 0.095671 0
       vertex 0.0919373 0.095671 0.1
    endloop
  endfacet
  facet normal 0.946935 0.321425 0
    outer loop
       vertex 0.0919373 0.095671 0.1
       vertex 0.102448 0.064705 0.1
       vertex 0.102448 0.064705 0
    endloop
  endfacet
  facet normal 0.896866 0.442302 0
    outer loop
       vertex 0.0919373 0.095671 0
       vertex 0.0774733 0.125 0
       vertex 0.0774733 0.125 0.1
    endloop
  endfacet
  facet normal 0.896866 0.442302 0
    outer loop
       vertex 0.0774733 0.125 0.1
       vertex 0.0919373 0.095671 0.1
       vertex 0.0919373 0.095671 0
    endloop
  endfacet
  facet normal 0.831476 0.555561 0
    outer loop
       vertex 0.0774733 0.125 0
       vertex 0.0593053 0.152191 0
       vertex 0.0593053 0.152191 0.1
    endloop
  endfacet
  facet normal 0.831476 0.555561 0
    outer loop
       vertex 0.0593053 0.152191 0.1
       vertex 0.0774733 0.125 0.1
       vertex 0.0774733 0.125 0
    endloop
  endfacet
  facet normal 0.751817 0.659372 0
    outer loop
       vertex 0.0593053 0.152191 0
       vertex 0.0377433 0.176776 0
       vertex 0.0377433 0.176776 0.1
    endloop
  endfacet
  facet normal 0.751817 0.659372 0
    outer loop
       vertex 0.0377433 0.176776 0.1
       vertex 0.0593053 0.152191 0.1
       vertex 0.0593053 0.152191 0
    endloop
  endfacet
  facet normal 0.659372 0.751817 0
    outer loop
       vertex 0.0377433 0.176776 0
       vertex 0.0131583 0.198338 0
       vertex 0.0131583 0.198338 0.1
    endloop
  endfacet
  facet normal 0.659372 0.751817 0
    outer loop
       vertex 0.0131583 0.198338 0.1
       vertex 0.0377433 0.176776 0.1
       vertex 0.0377433 0.176776 0
    endloop
  endfacet
  facet normal 0.555561 0.831476 0
    outer loop
       vertex 0.0131583 0.198338 0
       vertex -0.0140327 0.216506 0
       vertex -0.0140327 0.216506 0.1
    endloop
  endfacet
  facet normal 0.555561 0.831476 0
    outer loop
       vertex -0.0140327 0.216506 0.1
       vertex 0.0131583 0.198338 0.1
       vertex 0.0131583 0.198338 0
    endloop
  endfacet
  facet normal 0.442302 0.896866 0
    outer loop
       vertex -0.0140327 0.216506 0
       vertex -0.0433617 0.23097 0
       vertex -0.0433617 0.23097 0.1
    endloop
  endfacet
  facet normal 0.442302 0.896866 0
    outer loop
       vertex -0.0433617 0.23097 0.1
       vertex -0.0140327 0.216506 0.1
       vertex -0.0140327 0.216506 0
    endloop
  endfacet
  facet normal 0.321425 0.946935 0
    outer loop
       vertex -0.0433617 0.23097 0
       vertex -0.0743277 0.241481 0
       vertex -0.0743277 0.241481 0.1
    endloop
  endfacet
  facet normal 0.321425 0.946935 0
    outer loop
       vertex -0.0743277 0.241481 0.1
       vertex -0.0433617 0.23097 0.1
       vertex -0.0433617 0.23097 0
    endloop
  endfacet
  facet normal 0.195096 0.980784 0
    outer loop
       vertex -0.0743277 0.241481 0
       vertex -0.106401 0.247861 0
       vertex -0.106401 0.247861 0.1
    endloop
  endfacet
  facet normal 0.195096 0.980784 0
    outer loop
       vertex -0.106401 0.247861 0.1
       vertex -0.0743277 0.241481 0.1
       vertex -0.0743277 0.241481 0
    endloop
  endfacet
  facet normal 0.0654098 0.997858 0
    outer loop
       vertex -0.139033 0.25 0.1
       vertex -0.106401 0.247861 0.1
       vertex -0.106401 0.247861 0
    endloop
  endfacet
  facet normal 0.0654098 0.997858 -1.0893e-16
    outer loop
       vertex -0.106401 0.247861 0
       vertex -0.139033 0.25 0
       vertex -0.139033 0.25 0.1
    endloop
  endfacet
  facet normal -0.0654098 0.997858 0
    outer loop
       vertex -0.139033 0.25 0
       vertex -0.171664 0.247861 0
       vertex -0.171664 0.247861 0.1
    endloop
  endfacet
  facet normal -0.0654098 0.997858 1.0893e-16
    outer loop
       vertex -0.171664 0.247861 0.1
       vertex -0.139033 0.25 0.1
       vertex -0.139033 0.25 0
    endloop
  endfacet
  facet normal -0.195096 0.980784 0
    outer loop
       vertex -0.171664 0.247861 0
       vertex -0.203738 0.241481 0
       vertex -0.203738 0.241481 0.1
    endloop
  endfacet
  facet normal -0.195096 0.980784 0
    outer loop
       vertex -0.203738 0.241481 0.1
       vertex -0.171664 0.247861 0.1
       vertex -0.171664 0.247861 0
    endloop
  endfacet
  facet normal -0.321425 0.946935 0
    outer loop
       vertex -0.203738 0.241481 0
       vertex -0.234704 0.23097 0
       vertex -0.234704 0.23097 0.1
    endloop
  endfacet
  facet normal -0.321425 0.946935 0
    outer loop
       vertex -0.234704 0.23097 0.1
       vertex -0.203738 0.241481 0.1
       vertex -0.203738 0.241481 0
    endloop
  endfacet
  facet normal -0.442302 0.896866 0
    outer loop
       vertex -0.234704 0.23097 0
       vertex -0.264033 0.216506 0
       vertex -0.264033 0.216506 0.1
    endloop
  endfacet
  facet normal -0.442302 0.896866 0
    outer loop
       vertex -0.264033 0.216506 0.1
       vertex -0.234704 0.23097 0.1
       vertex -0.234704 0.23097 0
    endloop
  endfacet
  facet normal -0.555561 0.831476 0
    outer loop
       vertex -0.264033 0.216506 0
       vertex -0.291224 0.198338 0
       vertex -0.291224 0.198338 0.1
    endloop
  endfacet
  facet normal -0.555561 0.831476 0
    outer loop
       vertex -0.291224 0.198338 0.1
       vertex -0.264033 0.216506 0.1
       vertex -0.264033 0.216506 0
    endloop
  endfacet
  facet normal -0.659372 0.751817 0
    outer loop
       vertex -0.291224 0.198338 0
       vertex -0.315809 0.176776 0
       vertex -0.315809 0.176776 0.1
    endloop
  endfacet
  facet normal -0.659372 0.751817 0
    outer loop
       vertex -0.315809 0.176776 0.1
       vertex -0.291224 0.198338 0.1
       vertex -0.291224 0.198338 0
    endloop
  endfacet
  facet normal -0.751817 0.659372 0
    outer loop
       vertex -0.315809 0.176776 0
       vertex -0.337371 0.152191 0
       vertex -0.337371 0.152191 0.1
    endloop
  endfacet
  facet normal -0.751817 0.659372 0
    outer loop
       vertex -0.337371 0.152191 0.1
       vertex -0.315809 0.176776 0.1
       vertex -0.315809 0.176776 0
    endloop
  endfacet
  facet normal -0.831476 0.555561 0
    outer loop
       vertex -0.337371 0.152191 0
       vertex -0.355539 0.125 0
       vertex -0.355539 0.125 0.1
    endloop
  endfacet
  facet normal -0.831476 0.555561 0
    outer loop
       vertex -0.355539 0.125 0.1
       vertex -0.337371 0.152191 0.1
       vertex -0.337371 0.152191 0
    endloop
  endfacet
  facet normal -0.896866 0.442302 0
    outer loop
       vertex -0.355539 0.125 0
       vertex -0.370003 0.095671 0
       vertex -0.370003 0.095671 0.1
    endloop
  endfacet
  facet normal -0.896866 0.442302 0
    outer loop
       vertex -0.370003 0.095671 0.1
       vertex -0.355539 0.125 0.1
       vertex -0.355539 0.125 0
    endloop
  endfacet
  facet normal -0.946935 0.321425 0
    outer loop
       vertex -0.370003 0.095671 0
       vertex -0.380514 0.064705 0
       vertex -0.380514 0.064705 0.1
    endloop
  endfacet
  facet normal -0.946935 0.321425 0
    outer loop
       vertex -0.380514 0.064705 0.1
       vertex -0.370003 0.095671 0.1
       vertex -0.370003 0.095671 0
    endloop
  endfacet
  facet normal -0.980784 0.195096 0
    outer loop
       vertex -0.380514 0.064705 0
       vertex -0.386894 0.0326315 0
       vertex -0.386894 0.0326315 0.1
    endloop
  endfacet
  facet normal -0.980784 0.195096 0
    outer loop
       vertex -0.386894 0.0326315 0.1
       vertex -0.380514 0.064705 0.1
       vertex -0.380514 0.064705 0
    endloop
  endfacet
  facet normal -0.997858 0.0654098 0
    outer loop
       vertex -0.389033 8.32665e-17 0.1
       vertex -0.386894 0.0326315 0.1
       vertex -0.386894 0.0326315 0
    endloop
  endfacet
  facet normal -0.997858 0.0654098 -1.08928e-16
    outer loop
       vertex -0.386894 0.0326315 0
       vertex -0.389033 -8.32665e-17 0
       vertex -0.389033 8.32665e-17 0.1
    endloop
  endfacet
  facet normal -0.997858 -0.0654098 0
    outer loop
       vertex -0.389033 -8.32665e-17 0
       vertex -0.386894 -0.0326315 0
       vertex -0.386894 -0.0326315 0.1
    endloop
  endfacet
  facet normal -0.997858 -0.0654098 1.08928e-16
    outer loop
       vertex -0.386894 -0.0326315 0.1
       vertex -0.389033 8.32665e-17 0.1
       vertex -0.389033 -8.32665e-17 0
    endloop
  endfacet
  facet normal -0.980784 -0.195096 0
    outer loop
       vertex -0.386894 -0.0326315 0
       vertex -0.380514 -0.064705 0
       vertex -0.380514 -0.064705 0.1
    endloop
  endfacet
  facet normal -0.980784 -0.195096 0
    outer loop
       vertex -0.380514 -0.064705 0.1
       vertex -0.386894 -0.0326315 0.1
       vertex -0.386894 -0.0326315 0
    endloop
  endfacet
  facet normal -0.946935 -0.321425 0
    outer loop
       vertex -0.380514 -0.064705 0
       vertex -0.370003 -0.095671 0
       vertex -0.370003 -0.095671 0.1
    endloop
  endfacet
  facet normal -0.946935 -0.321425 0
    outer loop
       vertex -0.370003 -0.095671 0.1
       vertex -0.380514 -0.064705 0.1
       vertex -0.380514 -0.064705 0
    endloop
  endfacet
  facet normal -0.896866 -0.442302 0
    outer loop
       vertex -0.370003 -0.095671 0
       vertex -0.355539 -0.125 0
       vertex -0.355539 -0.125 0.1
    endloop
  endfacet
  facet normal -0.896866 -0.442302 0
    outer loop
       vertex -0.355539 -0.125 0.1
       vertex -0.370003 -0.095671 0.1
       vertex -0.370003 -0.095671 0
    endloop
  endfacet
  facet normal -0.831476 -0.555561 0
    outer loop
       vertex -0.355539 -0.125 0
       vertex -0.337371 -0.152191 0
       vertex -0.337371 -0.152191 0.1
    endloop
  endfacet
  facet normal -0.831476 -0.555561 0
    outer loop
       vertex -0.337371 -0.152191 0.1
       vertex -0.355539 -0.125 0.1
       vertex -0.355539 -0.125 0
    endloop
  endfacet
  facet normal -0.751817 -0.659372 0
    outer loop
       vertex -0.337371 -0.152191 0
       vertex -0.315809 -0.176776 0
       vertex -0.315809 -0.176776 0.1
    endloop
  endfacet
  facet normal -0.751817 -0.659372 0
    outer loop
       vertex -0.315809 -0.176776 0.1
       vertex -0.337371 -0.152191 0.1
       vertex -0.337371 -0.152191 0
    endloop
  endfacet
  facet normal 0.659372 -0.751817 0
    outer loop
       vertex 0.0377433 -0.176776 0
       vertex 0.0377433 -0.176776 0.1
       vertex 0.0131583 -0.198338 0.1
    endloop
  endfacet
  facet normal 0.659372 -0.751817 0
    outer loop
       vertex 0.0131583 -0.198338 0.1
       vertex 0.0131583 -0.198338 0
       vertex 0.0377433 -0.176776 0
    endloop
  endfacet
  facet normal 0.555561 -0.831476 0
    outer loop
       vertex 0.0131583 -0.198338 0
       vertex 0.0131583 -0.198338 0.1
       vertex -0.0140327 -0.216506 0.1
    endloop
  endfacet
  facet normal 0.555561 -0.831476 0
    outer loop
       vertex -0.0140327 -0.216506 0.1
       vertex -0.0140327 -0.216506 0
       vertex 0.0131583 -0.198338 0
    endloop
  endfacet
  facet normal 0.442302 -0.896866 0
    outer loop
       vertex -0.0140327 -0.216506 0
       vertex -0.0140327 -0.216506 0.1
       vertex -0.0433617 -0.23097 0.1
    endloop
  endfacet
  facet normal 0.442302 -0.896866 0
    outer loop
       vertex -0.0433617 -0.23097 0.1
       vertex -0.0433617 -0.23097 0
       vertex -0.0140327 -0.216506 0
    endloop
  endfacet
  facet normal 0.321425 -0.946935 0
    outer loop
       vertex -0.0433617 -0.23097 0
       vertex -0.0433617 -0.23097 0.1
       vertex -0.0743277 -0.241481 0.1
    endloop
  endfacet
  facet normal 0.321425 -0.946935 0
    outer loop
       vertex -0.0743277 -0.241481 0.1
       vertex -0.0743277 -0.241481 0
       vertex -0.0433617 -0.23097 0
    endloop
  endfacet
  facet normal 0.195096 -0.980784 0
    outer loop
       vertex -0.0743277 -0.241481 0
       vertex -0.0743277 -0.241481 0.1
       vertex -0.106401 -0.247861 0.1
    endloop
  endfacet
  facet normal 0.195096 -0.980784 0
    outer loop
       vertex -0.106401 -0.247861 0.1
       vertex -0.106401 -0.247861 0
       vertex -0.0743277 -0.241481 0
    endloop
  endfacet
  facet normal 0.0654098 -0.997858 0
    outer loop
       vertex -0.139033 -0.25 0
       vertex -0.106401 -0.247861 0
       vertex -0.106401 -0.247861 0.1
    endloop
  endfacet
  facet normal 0.0654098 -0.997858 1.0893e-16
    outer loop
       vertex -0.106401 -0.247861 0.1
       vertex -0.139033 -0.25 0.1
       vertex -0.139033 -0.25 0
    endloop
  endfacet
  facet normal -0.0654098 -0.997858 0
    outer loop
       vertex -0.139033 -0.25 0.1
       vertex -0.171664 -0.247861 0.1
       vertex -0.171664 -0.247861 0
    endloop
  endfacet
  facet normal -0.0654098 -0.997858 -1.0893e-16
    outer loop
       vertex -0.171664 -0.247861 0
       vertex -0.139033 -0.25 0
       vertex -0.139033 -0.25 0.1
    endloop
  endfacet
  facet normal -0.195096 -0.980784 0
    outer loop
       vertex -0.171664 -0.247861 0
       vertex -0.171664 -0.247861 0.1
       vertex -0.203738 -0.241481 0.1
    endloop
  endfacet
  facet normal -0.195096 -0.980784 -0
    outer loop
       vertex -0.203738 -0.241481 0.1
       vertex -0.203738 -0.241481 0
       vertex -0.171664 -0.247861 0
    endloop
  endfacet
  facet normal -0.321425 -0.946935 0
    outer loop
       vertex -0.203738 -0.241481 0
       vertex -0.203738 -0.241481 0.1
       vertex -0.234704 -0.23097 0.1
    endloop
  endfacet
  facet normal -0.321425 -0.946935 -0
    outer loop
       vertex -0.234704 -0.23097 0.1
       vertex -0.234704 -0.23097 0
       vertex -0.203738 -0.241481 0
    endloop
  endfacet
  facet normal -0.442302 -0.896866 0
    outer loop
       vertex -0.234704 -0.23097 0
       vertex -0.234704 -0.23097 0.1
       vertex -0.264033 -0.216506 0.1
    endloop
  endfacet
  facet normal -0.442302 -0.896866 -0
    outer loop
       vertex -0.264033 -0.216506 0.1
       vertex -0.264033 -0.216506 0
       vertex -0.234704 -0.23097 0
    endloop
  endfacet
  facet normal -0.555561 -0.831476 0
    outer loop
       vertex -0.264033 -0.216506 0
       vertex -0.264033 -0.216506 0.1
       vertex -0.291224 -0.198338 0.1
    endloop
  endfacet
  facet normal -0.555561 -0.831476 -0
    outer loop
       vertex -0.291224 -0.198338 0.1
       vertex -0.291224 -0.198338 0
       vertex -0.264033 -0.216506 0
    endloop
  endfacet
  facet normal -0.659372 -0.751817 0
    outer loop
       vertex -0.291224 -0.198338 0
       vertex -0.291224 -0.198338 0.1
       vertex -0.315809 -0.176776 0.1
    endloop
  endfacet
  facet normal -0.659372 -0.751817 -0
    outer loop
       vertex -0.315809 -0.176776 0.1
       vertex -0.315809 -0.176776 0
       vertex -0.291224 -0.198338 0
    endloop
  endfacet
endsolid cylinder
