solid cylinder
  facet normal 0.751817 -0.659372 0
    outer loop
       vertex 0.0622805 -0.176776 0
       vertex 0.0838425 -0.152191 0
       vertex 0.0838425 -0.152191 0.1
    endloop
  endfacet
  facet normal 0.751817 -0.659372 0
    outer loop
       vertex 0.0838425 -0.152191 0.1
       vertex 0.0622805 -0.176776 0.1
       vertex 0.0622805 -0.176776 0
    endloop
  endfacet
  facet normal 0.831476 -0.555561 0
    outer loop
       vertex 0.0838425 -0.152191 0
       vertex 0.10201 -0.125 0
       vertex 0.10201 -0.125 0.1
    endloop
  endfacet
  facet normal 0.831476 -0.555561 0
    outer loop
       vertex 0.10201 -0.125 0.1
       vertex 0.0838425 -0.152191 0.1
       vertex 0.0838425 -0.152191 0
    endloop
  endfacet
  facet normal 0.896866 -0.442302 0
    outer loop
       vertex 0.10201 -0.125 0
       vertex 0.116474 -0.095671 0
       vertex 0.116474 -0.095671 0.1
    endloop
  endfacet
  facet normal 0.896866 -0.442302 0
    outer loop
       vertex 0.116474 -0.095671 0.1
       vertex 0.10201 -0.125 0.1
       vertex 0.10201 -0.125 0
    endloop
  endfacet
  facet normal 0.946935 -0.321425 0
    outer loop
       vertex 0.116474 -0.095671 0
       vertex 0.126985 -0.064705 0
       vertex 0.126985 -0.064705 0.1
    endloop
  endfacet
  facet normal 0.946935 -0.321425 0
    outer loop
       vertex 0.126985 -0.064705 0.1
       vertex 0.116474 -0.095671 0.1
       vertex 0.116474 -0.095671 0
    endloop
  endfacet
  facet normal 0.980784 -0.195096 0
    outer loop
       vertex 0.126985 -0.064705 0
       vertex 0.133365 -0.0326315 0
       vertex 0.133365 -0.0326315 0.1
    endloop
  endfacet
  facet normal 0.980784 -0.195096 0
    outer loop
       vertex 0.133365 -0.0326315 0.1
       vertex 0.126985 -0.064705 0.1
       vertex 0.126985 -0.064705 0
    endloop
  endfacet
  facet normal 0.997858 -0.0654098 0
    outer loop
       vertex 0.135504 -8.32665e-17 0.1
       vertex 0.133365 -0.0326315 0.1
       vertex 0.133365 -0.0326315 0
    endloop
  endfacet
  facet normal 0.997858 -0.0654098 -1.08928e-16
    outer loop
       vertex 0.133365 -0.0326315 0
       vertex 0.135504 8.32665e-17 0
       vertex 0.135504 -8.32665e-17 0.1
    endloop
  endfacet
  facet normal 0.997858 0.0654098 0
    outer loop
       vertex 0.135504 8.32665e-17 0
       vertex 0.133365 0.0326315 0
       vertex 0.133365 0.0326315 0.1
    endloop
  endfacet
  facet normal 0.997858 0.0654098 1.08928e-16
    outer loop
       vertex 0.133365 0.0326315 0.1
       vertex 0.135504 -8.32665e-17 0.1
       vertex 0.135504 8.32665e-17 0
    endloop
  endfacet
  facet normal 0.980784 0.195096 0
    outer loop
       vertex 0.133365 0.0326315 0
       vertex 0.126985 0.064705 0
       vertex 0.126985 0.064705 0.1
    endloop
  endfacet
  facet normal 0.980784 0.195096 0
    outer loop
       vertex 0.126985 0.064705 0.1
       vertex 0.133365 0.0326315 0.1
       vertex 0.133365 0.0326315 0
    endloop
  endfacet
  facet normal 0.946935 0.321425 0
    outer loop
       vertex 0.126985 0.064705 0
       vertex 0.116474 0.095671 0
       vertex 0.116474 0.095671 0.1
    endloop
  endfacet
  facet normal 0.946935 0.321425 0
    outer loop
       vertex 0.116474 0.095671 0.1
       vertex 0.126985 0.064705 0.1
       vertex 0.126985 0.064705 0
    endloop
  endfacet
  facet normal 0.896866 0.442302 0
    outer loop
       vertex 0.116474 0.095671 0
       vertex 0.10201 0.125 0
       vertex 0.10201 0.125 0.1
    endloop
  endfacet
  facet normal 0.896866 0.442302 0
    outer loop
       vertex 0.10201 0.125 0.1
       vertex 0.116474 0.095671 0.1
       vertex 0.116474 0.095671 0
    endloop
  endfacet
  facet normal 0.831476 0.555561 0
    outer loop
       vertex 0.10201 0.125 0
       vertex 0.0838425 0.152191 0
       vertex 0.0838425 0.152191 0.1
    endloop
  endfacet
  facet normal 0.831476 0.555561 0
    outer loop
       vertex 0.0838425 0.152191 0.1
       vertex 0.10201 0.125 0.1
       vertex 0.10201 0.125 0
    endloop
  endfacet
  facet normal 0.751817 0.659372 0
    outer loop
       vertex 0.0838425 0.152191 0
       vertex 0.0622805 0.176776 0
       vertex 0.0622805 0.176776 0.1
    endloop
  endfacet
  facet normal 0.751817 0.659372 0
    outer loop
       vertex 0.0622805 0.176776 0.1
       vertex 0.0838425 0.152191 0.1
       vertex 0.0838425 0.152191 0
    endloop
  endfacet
  facet normal 0.659372 0.751817 0
    outer loop
       vertex 0.0622805 0.176776 0
       vertex 0.0376955 0.198338 0
       vertex 0.0376955 0.198338 0.1
    endloop
  endfacet
  facet normal 0.659372 0.751817 0
    outer loop
       vertex 0.0376955 0.198338 0.1
       vertex 0.0622805 0.176776 0.1
       vertex 0.0622805 0.176776 0
    endloop
  endfacet
  facet normal 0.555561 0.831476 0
    outer loop
       vertex 0.0376955 0.198338 0
       vertex 0.0105045 0.216506 0
       vertex 0.0105045 0.216506 0.1
    endloop
  endfacet
  facet normal 0.555561 0.831476 0
    outer loop
       vertex 0.0105045 0.216506 0.1
       vertex 0.0376955 0.198338 0.1
       vertex 0.0376955 0.198338 0
    endloop
  endfacet
  facet normal 0.442302 0.896866 0
    outer loop
       vertex 0.0105045 0.216506 0
       vertex -0.0188245 0.23097 0
       vertex -0.0188245 0.23097 0.1
    endloop
  endfacet
  facet normal 0.442302 0.896866 0
    outer loop
       vertex -0.0188245 0.23097 0.1
       vertex 0.0105045 0.216506 0.1
       vertex 0.0105045 0.216506 0
    endloop
  endfacet
  facet normal 0.321425 0.946935 0
    outer loop
       vertex -0.0188245 0.23097 0
       vertex -0.0497905 0.241481 0
       vertex -0.0497905 0.241481 0.1
    endloop
  endfacet
  facet normal 0.321425 0.946935 0
    outer loop
       vertex -0.0497905 0.241481 0.1
       vertex -0.0188245 0.23097 0.1
       vertex -0.0188245 0.23097 0
    endloop
  endfacet
  facet normal 0.195096 0.980784 0
    outer loop
       vertex -0.0497905 0.241481 0
       vertex -0.081864 0.247861 0
       vertex -0.081864 0.247861 0.1
    endloop
  endfacet
  facet normal 0.195096 0.980784 0
    outer loop
       vertex -0.081864 0.247861 0.1
       vertex -0.0497905 0.241481 0.1
       vertex -0.0497905 0.241481 0
    endloop
  endfacet
  facet normal 0.0654098 0.997858 0
    outer loop
       vertex -0.114496 0.25 0.1
       vertex -0.081864 0.247861 0.1
       vertex -0.081864 0.247861 0
    endloop
  endfacet
  facet normal 0.0654098 0.997858 -1.08928e-16
    outer loop
       vertex -0.081864 0.247861 0
       vertex -0.114496 0.25 0
       vertex -0.114496 0.25 0.1
    endloop
  endfacet
  facet normal -0.0654098 0.997858 0
    outer loop
       vertex -0.114496 0.25 0
       vertex -0.147127 0.247861 0
       vertex -0.147127 0.247861 0.1
    endloop
  endfacet
  facet normal -0.0654098 0.997858 1.08928e-16
    outer loop
       vertex -0.147127 0.247861 0.1
       vertex -0.114496 0.25 0.1
       vertex -0.114496 0.25 0
    endloop
  endfacet
  facet normal -0.195096 0.980784 0
    outer loop
       vertex -0.147127 0.247861 0
       vertex -0.179201 0.241481 0
       vertex -0.179201 0.241481 0.1
    endloop
  endfacet
  facet normal -0.195096 0.980784 0
    outer loop
       vertex -0.179201 0.241481 0.1
       vertex -0.147127 0.247861 0.1
       vertex -0.147127 0.247861 0
    endloop
  endfacet
  facet normal -0.321425 0.946935 0
    outer loop
       vertex -0.179201 0.241481 0
       vertex -0.210167 0.23097 0
       vertex -0.210167 0.23097 0.1
    endloop
  endfacet
  facet normal -0.321425 0.946935 0
    outer loop
       vertex -0.210167 0.23097 0.1
       vertex -0.179201 0.241481 0.1
       vertex -0.179201 0.241481 0
    endloop
  endfacet
  facet normal -0.442302 0.896866 0
    outer loop
       vertex -0.210167 0.23097 0
       vertex -0.239496 0.216506 0
       vertex -0.239496 0.216506 0.1
    endloop
  endfacet
  facet normal -0.442302 0.896866 0
    outer loop
       vertex -0.239496 0.216506 0.1
       vertex -0.210167 0.23097 0.1
       vertex -0.210167 0.23097 0
    endloop
  endfacet
  facet normal -0.555561 0.831476 0
    outer loop
       vertex -0.239496 0.216506 0
       vertex -0.266687 0.198338 0
       vertex -0.266687 0.198338 0.1
    endloop
  endfacet
  facet normal -0.555561 0.831476 0
    outer loop
       vertex -0.266687 0.198338 0.1
       vertex -0.239496 0.216506 0.1
       vertex -0.239496 0.216506 0
    endloop
  endfacet
  facet normal -0.659372 0.751817 0
    outer loop
       vertex -0.266687 0.198338 0
       vertex -0.291272 0.176776 0
       vertex -0.291272 0.176776 0.1
    endloop
  endfacet
  facet normal -0.659372 0.751817 0
    outer loop
       vertex -0.291272 0.176776 0.1
       vertex -0.266687 0.198338 0.1
       vertex -0.266687 0.198338 0
    endloop
  endfacet
  facet normal -0.751817 0.659372 0
    outer loop
       vertex -0.291272 0.176776 0
       vertex -0.312834 0.152191 0
       vertex -0.312834 0.152191 0.1
    endloop
  endfacet
  facet normal -0.751817 0.659372 0
    outer loop
       vertex -0.312834 0.152191 0.1
       vertex -0.291272 0.176776 0.1
       vertex -0.291272 0.176776 0
    endloop
  endfacet
  facet normal -0.831476 0.555561 0
    outer loop
       vertex -0.312834 0.152191 0
       vertex -0.331002 0.125 0
       vertex -0.331002 0.125 0.1
    endloop
  endfacet
  facet normal -0.831476 0.555561 0
    outer loop
       vertex -0.331002 0.125 0.1
       vertex -0.312834 0.152191 0.1
       vertex -0.312834 0.152191 0
    endloop
  endfacet
  facet normal -0.896866 0.442302 0
    outer loop
       vertex -0.331002 0.125 0
       vertex -0.345466 0.095671 0
       vertex -0.345466 0.095671 0.1
    endloop
  endfacet
  facet normal -0.896866 0.442302 0
    outer loop
       vertex -0.345466 0.095671 0.1
       vertex -0.331002 0.125 0.1
       vertex -0.331002 0.125 0
    endloop
  endfacet
  facet normal -0.946935 0.321425 0
    outer loop
       vertex -0.345466 0.095671 0
       vertex -0.355977 0.064705 0
       vertex -0.355977 0.064705 0.1
    endloop
  endfacet
  facet normal -0.946935 0.321425 0
    outer loop
       vertex -0.355977 0.064705 0.1
       vertex -0.345466 0.095671 0.1
       vertex -0.345466 0.095671 0
    endloop
  endfacet
  facet normal -0.980784 0.195096 0
    outer loop
       vertex -0.355977 0.064705 0
       vertex -0.362357 0.0326315 0
       vertex -0.362357 0.0326315 0.1
    endloop
  endfacet
  facet normal -0.980784 0.195096 0
    outer loop
       vertex -0.362357 0.0326315 0.1
       vertex -0.355977 0.064705 0.1
       vertex -0.355977 0.064705 0
    endloop
  endfacet
  facet normal -0.997858 0.0654098 0
    outer loop
       vertex -0.364496 8.32665e-17 0.1
       vertex -0.362357 0.0326315 0.1
       vertex -0.362357 0.0326315 0
    endloop
  endfacet
  facet normal -0.997858 0.0654098 -1.08928e-16
    outer loop
       vertex -0.362357 0.0326315 0
       vertex -0.364496 -8.32665e-17 0
       vertex -0.364496 8.32665e-17 0.1
    endloop
  endfacet
  facet normal -0.997858 -0.0654098 0
    outer loop
       vertex -0.364496 -8.32665e-17 0
       vertex -0.362357 -0.0326315 0
       vertex -0.362357 -0.0326315 0.1
    endloop
  endfacet
  facet normal -0.997858 -0.0654098 1.08928e-16
    outer loop
       vertex -0.362357 -0.0326315 0.1
       vertex -0.364496 8.32665e-17 0.1
       vertex -0.364496 -8.32665e-17 0
    endloop
  endfacet
  facet normal -0.980784 -0.195096 0
    outer loop
       vertex -0.362357 -0.0326315 0
       vertex -0.355977 -0.064705 0
       vertex -0.355977 -0.064705 0.1
    endloop
  endfacet
  facet normal -0.980784 -0.195096 0
    outer loop
       vertex -0.355977 -0.064705 0.1
       vertex -0.362357 -0.0326315 0.1
       vertex -0.362357 -0.0326315 0
    endloop
  endfacet
  facet normal -0.946935 -0.321425 0
    outer loop
       vertex -0.355977 -0.064705 0
       vertex -0.345466 -0.095671 0
       vertex -0.345466 -0.095671 0.1
    endloop
  endfacet
  facet normal -0.946935 -0.321425 0
    outer loop
       vertex -0.345466 -0.095671 0.1
       vertex -0.355977 -0.064705 0.1
       vertex -0.355977 -0.064705 0
    endloop
  endfacet
  facet normal -0.896866 -0.442302 0
    outer loop
       vertex -0.345466 -0.095671 0
       vertex -0.331002 -0.125 0
       vertex -0.331002 -0.125 0.1
    endloop
  endfacet
  facet normal -0.896866 -0.442302 0
    outer loop
       vertex -0.331002 -0.125 0.1
       vertex -0.345466 -0.095671 0.1
       vertex -0.345466 -0.095671 0
    endloop
  endfacet
  facet normal -0.831476 -0.555561 0
    outer loop
       vertex -0.331002 -0.125 0
       vertex -0.312834 -0.152191 0
       vertex -0.312834 -0.152191 0.1
    endloop
  endfacet
  facet normal -0.831476 -0.555561 0
    outer loop
       vertex -0.312834 -0.152191 0.1
       vertex -0.331002 -0.125 0.1
       vertex -0.331002 -0.125 0
    endloop
  endfacet
  facet normal -0.751817 -0.659372 0
    outer loop
       vertex -0.312834 -0.152191 0
       vertex -0.291272 -0.176776 0
       vertex -0.291272 -0.176776 0.1
    endloop
  endfacet
  facet normal -0.751817 -0.659372 0
    outer loop
       vertex -0.291272 -0.176776 0.1
       vertex -0.312834 -0.152191 0.1
       vertex -0.312834 -0.152191 0
    endloop
  endfacet
  facet normal 0.659372 -0.751817 0
    outer loop
       vertex 0.0622805 -0.176776 0
       vertex 0.0622805 -0.176776 0.1
       vertex 0.0376955 -0.198338 0.1
    endloop
  endfacet
  facet normal 0.659372 -0.751817 0
    outer loop
       vertex 0.0376955 -0.198338 0.1
       vertex 0.0376955 -0.198338 0
       vertex 0.0622805 -0.176776 0
    endloop
  endfacet
  facet normal 0.555561 -0.831476 0
    outer loop
       vertex 0.0376955 -0.198338 0
       vertex 0.0376955 -0.198338 0.1
       vertex 0.0105045 -0.216506 0.1
    endloop
  endfacet
  facet normal 0.555561 -0.831476 0
    outer loop
       vertex 0.0105045 -0.216506 0.1
       vertex 0.0105045 -0.216506 0
       vertex 0.0376955 -0.198338 0
    endloop
  endfacet
  facet normal 0.442302 -0.896866 0
    outer loop
       vertex 0.0105045 -0.216506 0
       vertex 0.0105045 -0.216506 0.1
       vertex -0.0188245 -0.23097 0.1
    endloop
  endfacet
  facet normal 0.442302 -0.896866 0
    outer loop
       vertex -0.0188245 -0.23097 0.1
       vertex -0.0188245 -0.23097 0
       vertex 0.0105045 -0.216506 0
    endloop
  endfacet
  facet normal 0.321425 -0.946935 0
    outer loop
       vertex -0.0188245 -0.23097 0
       vertex -0.0188245 -0.23097 0.1
       vertex -0.0497905 -0.241481 0.1
    endloop
  endfacet
  facet normal 0.321425 -0.946935 0
    outer loop
       vertex -0.0497905 -0.241481 0.1
       vertex -0.0497905 -0.241481 0
       vertex -0.0188245 -0.23097 0
    endloop
  endfacet
  facet normal 0.195096 -0.980784 0
    outer loop
       vertex -0.0497905 -0.241481 0
       vertex -0.0497905 -0.241481 0.1
       vertex -0.081864 -0.247861 0.1
    endloop
  endfacet
  facet normal 0.195096 -0.980784 0
    outer loop
       vertex -0.081864 -0.247861 0.1
       vertex -0.081864 -0.247861 0
       vertex -0.0497905 -0.241481 0
    endloop
  endfacet
  facet normal 0.0654098 -0.997858 0
    outer loop
       vertex -0.114496 -0.25 0
       vertex -0.081864 -0.247861 0
       vertex -0.081864 -0.247861 0.1
    endloop
  endfacet
  facet normal 0.0654098 -0.997858 1.08928e-16
    outer loop
       vertex -0.081864 -0.247861 0.1
       vertex -0.114496 -0.25 0.1
       vertex -0.114496 -0.25 0
    endloop
  endfacet
  facet normal -0.0654098 -0.997858 0
    outer loop
       vertex -0.114496 -0.25 0.1
       vertex -0.147127 -0.247861 0.1
       vertex -0.147127 -0.247861 0
    endloop
  endfacet
  facet normal -0.0654098 -0.997858 -1.08928e-16
    outer loop
       vertex -0.147127 -0.247861 0
       vertex -0.114496 -0.25 0
       vertex -0.114496 -0.25 0.1
    endloop
  endfacet
  facet normal -0.195096 -0.980784 0
    outer loop
       vertex -0.147127 -0.247861 0
       vertex -0.147127 -0.247861 0.1
       vertex -0.179201 -0.241481 0.1
    endloop
  endfacet
  facet normal -0.195096 -0.980784 -0
    outer loop
       vertex -0.179201 -0.241481 0.1
       vertex -0.179201 -0.241481 0
       vertex -0.147127 -0.247861 0
    endloop
  endfacet
  facet normal -0.321425 -0.946935 0
    outer loop
       vertex -0.179201 -0.241481 0
       vertex -0.179201 -0.241481 0.1
       vertex -0.210167 -0.23097 0.1
    endloop
  endfacet
  facet normal -0.321425 -0.946935 -0
    outer loop
       vertex -0.210167 -0.23097 0.1
       vertex -0.210167 -0.23097 0
       vertex -0.179201 -0.241481 0
    endloop
  endfacet
  facet normal -0.442302 -0.896866 0
    outer loop
       vertex -0.210167 -0.23097 0
       vertex -0.210167 -0.23097 0.1
       vertex -0.239496 -0.216506 0.1
    endloop
  endfacet
  facet normal -0.442302 -0.896866 -0
    outer loop
       vertex -0.239496 -0.216506 0.1
       vertex -0.239496 -0.216506 0
       vertex -0.210167 -0.23097 0
    endloop
  endfacet
  facet normal -0.555561 -0.831476 0
    outer loop
       vertex -0.239496 -0.216506 0
       vertex -0.239496 -0.216506 0.1
       vertex -0.266687 -0.198338 0.1
    endloop
  endfacet
  facet normal -0.555561 -0.831476 -0
    outer loop
       vertex -0.266687 -0.198338 0.1
       vertex -0.266687 -0.198338 0
       vertex -0.239496 -0.216506 0
    endloop
  endfacet
  facet normal -0.659372 -0.751817 0
    outer loop
       vertex -0.266687 -0.198338 0
       vertex -0.266687 -0.198338 0.1
       vertex -0.291272 -0.176776 0.1
    endloop
  endfacet
  facet normal -0.659372 -0.751817 -0
    outer loop
       vertex -0.291272 -0.176776 0.1
       vertex -0.291272 -0.176776 0
       vertex -0.266687 -0.198338 0
    endloop
  endfacet
endsolid cylinder
