solid cylinder
  facet normal 0.751817 -0.659372 0
    outer loop
       vertex 0.18645 -0.176776 0
       vertex 0.208012 -0.152191 0
       vertex 0.208012 -0.152191 0.1
    endloop
  endfacet
  facet normal 0.751817 -0.659372 0
    outer loop
       vertex 0.208012 -0.152191 0.1
       vertex 0.18645 -0.176776 0.1
       vertex 0.18645 -0.176776 0
    endloop
  endfacet
  facet normal 0.831476 -0.555561 0
    outer loop
       vertex 0.208012 -0.152191 0
       vertex 0.22618 -0.125 0
       vertex 0.22618 -0.125 0.1
    endloop
  endfacet
  facet normal 0.831476 -0.555561 0
    outer loop
       vertex 0.22618 -0.125 0.1
       vertex 0.208012 -0.152191 0.1
       vertex 0.208012 -0.152191 0
    endloop
  endfacet
  facet normal 0.896866 -0.442302 0
    outer loop
       vertex 0.22618 -0.125 0
       vertex 0.240644 -0.095671 0
       vertex 0.240644 -0.095671 0.1
    endloop
  endfacet
  facet normal 0.896866 -0.442302 0
    outer loop
       vertex 0.240644 -0.095671 0.1
       vertex 0.22618 -0.125 0.1
       vertex 0.22618 -0.125 0
    endloop
  endfacet
  facet normal 0.946935 -0.321425 0
    outer loop
       vertex 0.240644 -0.095671 0
       vertex 0.251155 -0.064705 0
       vertex 0.251155 -0.064705 0.1
    endloop
  endfacet
  facet normal 0.946935 -0.321425 0
    outer loop
       vertex 0.251155 -0.064705 0.1
       vertex 0.240644 -0.095671 0.1
       vertex 0.240644 -0.095671 0
    endloop
  endfacet
  facet normal 0.980784 -0.195096 0
    outer loop
       vertex 0.251155 -0.064705 0
       vertex 0.257535 -0.0326315 0
       vertex 0.257535 -0.0326315 0.1
    endloop
  endfacet
  facet normal 0.980784 -0.195096 0
    outer loop
       vertex 0.257535 -0.0326315 0.1
       vertex 0.251155 -0.064705 0.1
       vertex 0.251155 -0.064705 0
    endloop
  endfacet
  facet normal 0.997858 -0.0654098 0
    outer loop
       vertex 0.259674 -8.32665e-17 0.1
       vertex 0.257535 -0.0326315 0.1
       vertex 0.257535 -0.0326315 0
    endloop
  endfacet
  facet normal 0.997858 -0.0654098 -1.08928e-16
    outer loop
       vertex 0.257535 -0.0326315 0
       vertex 0.259674 8.32665e-17 0
       vertex 0.259674 -8.32665e-17 0.1
    endloop
  endfacet
  facet normal 0.997858 0.0654098 0
    outer loop
       vertex 0.259674 8.32665e-17 0
       vertex 0.257535 0.0326315 0
       vertex 0.257535 0.0326315 0.1
    endloop
  endfacet
  facet normal 0.997858 0.0654098 1.08928e-16
    outer loop
       vertex 0.257535 0.0326315 0.1
       vertex 0.259674 -8.32665e-17 0.1
       vertex 0.259674 8.32665e-17 0
    endloop
  endfacet
  facet normal 0.980784 0.195096 0
    outer loop
       vertex 0.257535 0.0326315 0
       vertex 0.251155 0.064705 0
       vertex 0.251155 0.064705 0.1
    endloop
  endfacet
  facet normal 0.980784 0.195096 0
    outer loop
       vertex 0.251155 0.064705 0.1
       vertex 0.257535 0.0326315 0.1
       vertex 0.257535 0.0326315 0
    endloop
  endfacet
  facet normal 0.946935 0.321425 0
    outer loop
       vertex 0.251155 0.064705 0
       vertex 0.240644 0.095671 0
       vertex 0.240644 0.095671 0.1
    endloop
  endfacet
  facet normal 0.946935 0.321425 0
    outer loop
       vertex 0.240644 0.095671 0.1
       vertex 0.251155 0.064705 0.1
       vertex 0.251155 0.064705 0
    endloop
  endfacet
  facet normal 0.896866 0.442302 0
    outer loop
       vertex 0.240644 0.095671 0
       vertex 0.22618 0.125 0
       vertex 0.22618 0.125 0.1
    endloop
  endfacet
  facet normal 0.896866 0.442302 0
    outer loop
       vertex 0.22618 0.125 0.1
       vertex 0.240644 0.095671 0.1
       vertex 0.240644 0.095671 0
    endloop
  endfacet
  facet normal 0.831476 0.555561 0
    outer loop
       vertex 0.22618 0.125 0
       vertex 0.208012 0.152191 0
       vertex 0.208012 0.152191 0.1
    endloop
  endfacet
  facet normal 0.831476 0.555561 0
    outer loop
       vertex 0.208012 0.152191 0.1
       vertex 0.22618 0.125 0.1
       vertex 0.22618 0.125 0
    endloop
  endfacet
  facet normal 0.751817 0.659372 0
    outer loop
       vertex 0.208012 0.152191 0
       vertex 0.18645 0.176776 0
       vertex 0.18645 0.176776 0.1
    endloop
  endfacet
  facet normal 0.751817 0.659372 0
    outer loop
       vertex 0.18645 0.176776 0.1
       vertex 0.208012 0.152191 0.1
       vertex 0.208012 0.152191 0
    endloop
  endfacet
  facet normal 0.659372 0.751817 0
    outer loop
       vertex 0.18645 0.176776 0
       vertex 0.161865 0.198338 0
       vertex 0.161865 0.198338 0.1
    endloop
  endfacet
  facet normal 0.659372 0.751817 0
    outer loop
       vertex 0.161865 0.198338 0.1
       vertex 0.18645 0.176776 0.1
       vertex 0.18645 0.176776 0
    endloop
  endfacet
  facet normal 0.555561 0.831476 0
    outer loop
       vertex 0.161865 0.198338 0
       vertex 0.134674 0.216506 0
       vertex 0.134674 0.216506 0.1
    endloop
  endfacet
  facet normal 0.555561 0.831476 0
    outer loop
       vertex 0.134674 0.216506 0.1
       vertex 0.161865 0.198338 0.1
       vertex 0.161865 0.198338 0
    endloop
  endfacet
  facet normal 0.442302 0.896866 0
    outer loop
       vertex 0.134674 0.216506 0
       vertex 0.105345 0.23097 0
       vertex 0.105345 0.23097 0.1
    endloop
  endfacet
  facet normal 0.442302 0.896866 0
    outer loop
       vertex 0.105345 0.23097 0.1
       vertex 0.134674 0.216506 0.1
       vertex 0.134674 0.216506 0
    endloop
  endfacet
  facet normal 0.321425 0.946935 0
    outer loop
       vertex 0.105345 0.23097 0
       vertex 0.0743786 0.241481 0
       vertex 0.0743786 0.241481 0.1
    endloop
  endfacet
  facet normal 0.321425 0.946935 0
    outer loop
       vertex 0.0743786 0.241481 0.1
       vertex 0.105345 0.23097 0.1
       vertex 0.105345 0.23097 0
    endloop
  endfacet
  facet normal 0.195096 0.980784 0
    outer loop
       vertex 0.0743786 0.241481 0
       vertex 0.0423051 0.247861 0
       vertex 0.0423051 0.247861 0.1
    endloop
  endfacet
  facet normal 0.195096 0.980784 0
    outer loop
       vertex 0.0423051 0.247861 0.1
       vertex 0.0743786 0.241481 0.1
       vertex 0.0743786 0.241481 0
    endloop
  endfacet
  facet normal 0.0654098 0.997858 0
    outer loop
       vertex 0.00967361 0.25 0.1
       vertex 0.0423051 0.247861 0.1
       vertex 0.0423051 0.247861 0
    endloop
  endfacet
  facet normal 0.0654098 0.997858 -1.08928e-16
    outer loop
       vertex 0.0423051 0.247861 0
       vertex 0.00967361 0.25 0
       vertex 0.00967361 0.25 0.1
    endloop
  endfacet
  facet normal -0.0654098 0.997858 0
    outer loop
       vertex 0.00967361 0.25 0
       vertex -0.0229579 0.247861 0
       vertex -0.0229579 0.247861 0.1
    endloop
  endfacet
  facet normal -0.0654098 0.997858 1.08928e-16
    outer loop
       vertex -0.0229579 0.247861 0.1
       vertex 0.00967361 0.25 0.1
       vertex 0.00967361 0.25 0
    endloop
  endfacet
  facet normal -0.195096 0.980784 0
    outer loop
       vertex -0.0229579 0.247861 0
       vertex -0.0550314 0.241481 0
       vertex -0.0550314 0.241481 0.1
    endloop
  endfacet
  facet normal -0.195096 0.980784 0
    outer loop
       vertex -0.0550314 0.241481 0.1
       vertex -0.0229579 0.247861 0.1
       vertex -0.0229579 0.247861 0
    endloop
  endfacet
  facet normal -0.321425 0.946935 0
    outer loop
       vertex -0.0550314 0.241481 0
       vertex -0.0859974 0.23097 0
       vertex -0.0859974 0.23097 0.1
    endloop
  endfacet
  facet normal -0.321425 0.946935 0
    outer loop
       vertex -0.0859974 0.23097 0.1
       vertex -0.0550314 0.241481 0.1
       vertex -0.0550314 0.241481 0
    endloop
  endfacet
  facet normal -0.442302 0.896866 0
    outer loop
       vertex -0.0859974 0.23097 0
       vertex -0.115326 0.216506 0
       vertex -0.115326 0.216506 0.1
    endloop
  endfacet
  facet normal -0.442302 0.896866 0
    outer loop
       vertex -0.115326 0.216506 0.1
       vertex -0.0859974 0.23097 0.1
       vertex -0.0859974 0.23097 0
    endloop
  endfacet
  facet normal -0.555561 0.831476 0
    outer loop
       vertex -0.115326 0.216506 0
       vertex -0.142517 0.198338 0
       vertex -0.142517 0.198338 0.1
    endloop
  endfacet
  facet normal -0.555561 0.831476 0
    outer loop
       vertex -0.142517 0.198338 0.1
       vertex -0.115326 0.216506 0.1
       vertex -0.115326 0.216506 0
    endloop
  endfacet
  facet normal -0.659372 0.751817 0
    outer loop
       vertex -0.142517 0.198338 0
       vertex -0.167102 0.176776 0
       vertex -0.167102 0.176776 0.1
    endloop
  endfacet
  facet normal -0.659372 0.751817 0
    outer loop
       vertex -0.167102 0.176776 0.1
       vertex -0.142517 0.198338 0.1
       vertex -0.142517 0.198338 0
    endloop
  endfacet
  facet normal -0.751817 0.659372 0
    outer loop
       vertex -0.167102 0.176776 0
       vertex -0.188664 0.152191 0
       vertex -0.188664 0.152191 0.1
    endloop
  endfacet
  facet normal -0.751817 0.659372 0
    outer loop
       vertex -0.188664 0.152191 0.1
       vertex -0.167102 0.176776 0.1
       vertex -0.167102 0.176776 0
    endloop
  endfacet
  facet normal -0.831476 0.555561 0
    outer loop
       vertex -0.188664 0.152191 0
       vertex -0.206832 0.125 0
       vertex -0.206832 0.125 0.1
    endloop
  endfacet
  facet normal -0.831476 0.555561 0
    outer loop
       vertex -0.206832 0.125 0.1
       vertex -0.188664 0.152191 0.1
       vertex -0.188664 0.152191 0
    endloop
  endfacet
  facet normal -0.896866 0.442302 0
    outer loop
       vertex -0.206832 0.125 0
       vertex -0.221296 0.095671 0
       vertex -0.221296 0.095671 0.1
    endloop
  endfacet
  facet normal -0.896866 0.442302 0
    outer loop
       vertex -0.221296 0.095671 0.1
       vertex -0.206832 0.125 0.1
       vertex -0.206832 0.125 0
    endloop
  endfacet
  facet normal -0.946935 0.321425 0
    outer loop
       vertex -0.221296 0.095671 0
       vertex -0.231807 0.064705 0
       vertex -0.231807 0.064705 0.1
    endloop
  endfacet
  facet normal -0.946935 0.321425 0
    outer loop
       vertex -0.231807 0.064705 0.1
       vertex -0.221296 0.095671 0.1
       vertex -0.221296 0.095671 0
    endloop
  endfacet
  facet normal -0.980784 0.195096 0
    outer loop
       vertex -0.231807 0.064705 0
       vertex -0.238187 0.0326315 0
       vertex -0.238187 0.0326315 0.1
    endloop
  endfacet
  facet normal -0.980784 0.195096 0
    outer loop
       vertex -0.238187 0.0326315 0.1
       vertex -0.231807 0.064705 0.1
       vertex -0.231807 0.064705 0
    endloop
  endfacet
  facet normal -0.997858 0.0654098 0
    outer loop
       vertex -0.240326 8.32665e-17 0.1
       vertex -0.238187 0.0326315 0.1
       vertex -0.238187 0.0326315 0
    endloop
  endfacet
  facet normal -0.997858 0.0654098 -1.08928e-16
    outer loop
       vertex -0.238187 0.0326315 0
       vertex -0.240326 -8.32665e-17 0
       vertex -0.240326 8.32665e-17 0.1
    endloop
  endfacet
  facet normal -0.997858 -0.0654098 0
    outer loop
       vertex -0.240326 -8.32665e-17 0
       vertex -0.238187 -0.0326315 0
       vertex -0.238187 -0.0326315 0.1
    endloop
  endfacet
  facet normal -0.997858 -0.0654098 1.08928e-16
    outer loop
       vertex -0.238187 -0.0326315 0.1
       vertex -0.240326 8.32665e-17 0.1
       vertex -0.240326 -8.32665e-17 0
    endloop
  endfacet
  facet normal -0.980784 -0.195096 0
    outer loop
       vertex -0.238187 -0.0326315 0
       vertex -0.231807 -0.064705 0
       vertex -0.231807 -0.064705 0.1
    endloop
  endfacet
  facet normal -0.980784 -0.195096 0
    outer loop
       vertex -0.231807 -0.064705 0.1
       vertex -0.238187 -0.0326315 0.1
       vertex -0.238187 -0.0326315 0
    endloop
  endfacet
  facet normal -0.946935 -0.321425 0
    outer loop
       vertex -0.231807 -0.064705 0
       vertex -0.221296 -0.095671 0
       vertex -0.221296 -0.095671 0.1
    endloop
  endfacet
  facet normal -0.946935 -0.321425 0
    outer loop
       vertex -0.221296 -0.095671 0.1
       vertex -0.231807 -0.064705 0.1
       vertex -0.231807 -0.064705 0
    endloop
  endfacet
  facet normal -0.896866 -0.442302 0
    outer loop
       vertex -0.221296 -0.095671 0
       vertex -0.206832 -0.125 0
       vertex -0.206832 -0.125 0.1
    endloop
  endfacet
  facet normal -0.896866 -0.442302 0
    outer loop
       vertex -0.206832 -0.125 0.1
       vertex -0.221296 -0.095671 0.1
       vertex -0.221296 -0.095671 0
    endloop
  endfacet
  facet normal -0.831476 -0.555561 0
    outer loop
       vertex -0.206832 -0.125 0
       vertex -0.188664 -0.152191 0
       vertex -0.188664 -0.152191 0.1
    endloop
  endfacet
  facet normal -0.831476 -0.555561 0
    outer loop
       vertex -0.188664 -0.152191 0.1
       vertex -0.206832 -0.125 0.1
       vertex -0.206832 -0.125 0
    endloop
  endfacet
  facet normal -0.751817 -0.659372 0
    outer loop
       vertex -0.188664 -0.152191 0
       vertex -0.167102 -0.176776 0
       vertex -0.167102 -0.176776 0.1
    endloop
  endfacet
  facet normal -0.751817 -0.659372 0
    outer loop
       vertex -0.167102 -0.176776 0.1
       vertex -0.188664 -0.152191 0.1
       vertex -0.188664 -0.152191 0
    endloop
  endfacet
  facet normal 0.659372 -0.751817 0
    outer loop
       vertex 0.18645 -0.176776 0
       vertex 0.18645 -0.176776 0.1
       vertex 0.161865 -0.198338 0.1
    endloop
  endfacet
  facet normal 0.659372 -0.751817 0
    outer loop
       vertex 0.161865 -0.198338 0.1
       vertex 0.161865 -0.198338 0
       vertex 0.18645 -0.176776 0
    endloop
  endfacet
  facet normal 0.555561 -0.831476 0
    outer loop
       vertex 0.161865 -0.198338 0
       vertex 0.161865 -0.198338 0.1
       vertex 0.134674 -0.216506 0.1
    endloop
  endfacet
  facet normal 0.555561 -0.831476 0
    outer loop
       vertex 0.134674 -0.216506 0.1
       vertex 0.134674 -0.216506 0
       vertex 0.161865 -0.198338 0
    endloop
  endfacet
  facet normal 0.442302 -0.896866 0
    outer loop
       vertex 0.134674 -0.216506 0
       vertex 0.134674 -0.216506 0.1
       vertex 0.105345 -0.23097 0.1
    endloop
  endfacet
  facet normal 0.442302 -0.896866 0
    outer loop
       vertex 0.105345 -0.23097 0.1
       vertex 0.105345 -0.23097 0
       vertex 0.134674 -0.216506 0
    endloop
  endfacet
  facet normal 0.321425 -0.946935 0
    outer loop
       vertex 0.105345 -0.23097 0
       vertex 0.105345 -0.23097 0.1
       vertex 0.0743786 -0.241481 0.1
    endloop
  endfacet
  facet normal 0.321425 -0.946935 0
    outer loop
       vertex 0.0743786 -0.241481 0.1
       vertex 0.0743786 -0.241481 0
       vertex 0.105345 -0.23097 0
    endloop
  endfacet
  facet normal 0.195096 -0.980784 0
    outer loop
       vertex 0.0743786 -0.241481 0
       vertex 0.0743786 -0.241481 0.1
       vertex 0.0423051 -0.247861 0.1
    endloop
  endfacet
  facet normal 0.195096 -0.980784 0
    outer loop
       vertex 0.0423051 -0.247861 0.1
       vertex 0.0423051 -0.247861 0
       vertex 0.0743786 -0.241481 0
    endloop
  endfacet
  facet normal 0.0654098 -0.997858 0
    outer loop
       vertex 0.00967361 -0.25 0
       vertex 0.0423051 -0.247861 0
       vertex 0.0423051 -0.247861 0.1
    endloop
  endfacet
  facet normal 0.0654098 -0.997858 1.08928e-16
    outer loop
       vertex 0.0423051 -0.247861 0.1
       vertex 0.00967361 -0.25 0.1
       vertex 0.00967361 -0.25 0
    endloop
  endfacet
  facet normal -0.0654098 -0.997858 0
    outer loop
       vertex 0.00967361 -0.25 0.1
       vertex -0.0229579 -0.247861 0.1
       vertex -0.0229579 -0.247861 0
    endloop
  endfacet
  facet normal -0.0654098 -0.997858 -1.08928e-16
    outer loop
       vertex -0.0229579 -0.247861 0
       vertex 0.00967361 -0.25 0
       vertex 0.00967361 -0.25 0.1
    endloop
  endfacet
  facet normal -0.195096 -0.980784 0
    outer loop
       vertex -0.0229579 -0.247861 0
       vertex -0.0229579 -0.247861 0.1
       vertex -0.0550314 -0.241481 0.1
    endloop
  endfacet
  facet normal -0.195096 -0.980784 -0
    outer loop
       vertex -0.0550314 -0.241481 0.1
       vertex -0.0550314 -0.241481 0
       vertex -0.0229579 -0.247861 0
    endloop
  endfacet
  facet normal -0.321425 -0.946935 0
    outer loop
       vertex -0.0550314 -0.241481 0
       vertex -0.0550314 -0.241481 0.1
       vertex -0.0859974 -0.23097 0.1
    endloop
  endfacet
  facet normal -0.321425 -0.946935 -0
    outer loop
       vertex -0.0859974 -0.23097 0.1
       vertex -0.0859974 -0.23097 0
       vertex -0.0550314 -0.241481 0
    endloop
  endfacet
  facet normal -0.442302 -0.896866 0
    outer loop
       vertex -0.0859974 -0.23097 0
       vertex -0.0859974 -0.23097 0.1
       vertex -0.115326 -0.216506 0.1
    endloop
  endfacet
  facet normal -0.442302 -0.896866 -0
    outer loop
       vertex -0.115326 -0.216506 0.1
       vertex -0.115326 -0.216506 0
       vertex -0.0859974 -0.23097 0
    endloop
  endfacet
  facet normal -0.555561 -0.831476 0
    outer loop
       vertex -0.115326 -0.216506 0
       vertex -0.115326 -0.216506 0.1
       vertex -0.142517 -0.198338 0.1
    endloop
  endfacet
  facet normal -0.555561 -0.831476 -0
    outer loop
       vertex -0.142517 -0.198338 0.1
       vertex -0.142517 -0.198338 0
       vertex -0.115326 -0.216506 0
    endloop
  endfacet
  facet normal -0.659372 -0.751817 0
    outer loop
       vertex -0.142517 -0.198338 0
       vertex -0.142517 -0.198338 0.1
       vertex -0.167102 -0.176776 0.1
    endloop
  endfacet
  facet normal -0.659372 -0.751817 -0
    outer loop
       vertex -0.167102 -0.176776 0.1
       vertex -0.167102 -0.176776 0
       vertex -0.142517 -0.198338 0
    endloop
  endfacet
endsolid cylinder
