solid cylinder
  facet normal 0.751817 -0.659372 0
    outer loop
       vertex 0.0109244 -0.176776 0
       vertex 0.0324864 -0.152191 0
       vertex 0.0324864 -0.152191 0.1
    endloop
  endfacet
  facet normal 0.751817 -0.659372 0
    outer loop
       vertex 0.0324864 -0.152191 0.1
       vertex 0.0109244 -0.176776 0.1
       vertex 0.0109244 -0.176776 0
    endloop
  endfacet
  facet normal 0.831476 -0.555561 0
    outer loop
       vertex 0.0324864 -0.152191 0
       vertex 0.0506544 -0.125 0
       vertex 0.0506544 -0.125 0.1
    endloop
  endfacet
  facet normal 0.831476 -0.555561 0
    outer loop
       vertex 0.0506544 -0.125 0.1
       vertex 0.0324864 -0.152191 0.1
       vertex 0.0324864 -0.152191 0
    endloop
  endfacet
  facet normal 0.896866 -0.442302 0
    outer loop
       vertex 0.0506544 -0.125 0
       vertex 0.0651184 -0.095671 0
       vertex 0.0651184 -0.095671 0.1
    endloop
  endfacet
  facet normal 0.896866 -0.442302 0
    outer loop
       vertex 0.0651184 -0.095671 0.1
       vertex 0.0506544 -0.125 0.1
       vertex 0.0506544 -0.125 0
    endloop
  endfacet
  facet normal 0.946935 -0.321425 0
    outer loop
       vertex 0.0651184 -0.095671 0
       vertex 0.0756294 -0.064705 0
       vertex 0.0756294 -0.064705 0.1
    endloop
  endfacet
  facet normal 0.946935 -0.321425 0
    outer loop
       vertex 0.0756294 -0.064705 0.1
       vertex 0.0651184 -0.095671 0.1
       vertex 0.0651184 -0.095671 0
    endloop
  endfacet
  facet normal 0.980784 -0.195096 0
    outer loop
       vertex 0.0756294 -0.064705 0
       vertex 0.0820094 -0.0326315 0
       vertex 0.0820094 -0.0326315 0.1
    endloop
  endfacet
  facet normal 0.980784 -0.195096 0
    outer loop
       vertex 0.0820094 -0.0326315 0.1
       vertex 0.0756294 -0.064705 0.1
       vertex 0.0756294 -0.064705 0
    endloop
  endfacet
  facet normal 0.997858 -0.0654098 0
    outer loop
       vertex 0.0841484 -8.32665e-17 0.1
       vertex 0.0820094 -0.0326315 0.1
       vertex 0.0820094 -0.0326315 0
    endloop
  endfacet
  facet normal 0.997858 -0.0654098 -1.08928e-16
    outer loop
       vertex 0.0820094 -0.0326315 0
       vertex 0.0841484 8.32665e-17 0
       vertex 0.0841484 -8.32665e-17 0.1
    endloop
  endfacet
  facet normal 0.997858 0.0654098 0
    outer loop
       vertex 0.0841484 8.32665e-17 0
       vertex 0.0820094 0.0326315 0
       vertex 0.0820094 0.0326315 0.1
    endloop
  endfacet
  facet normal 0.997858 0.0654098 1.08928e-16
    outer loop
       vertex 0.0820094 0.0326315 0.1
       vertex 0.0841484 -8.32665e-17 0.1
       vertex 0.0841484 8.32665e-17 0
    endloop
  endfacet
  facet normal 0.980784 0.195096 0
    outer loop
       vertex 0.0820094 0.0326315 0
       vertex 0.0756294 0.064705 0
       vertex 0.0756294 0.064705 0.1
    endloop
  endfacet
  facet normal 0.980784 0.195096 0
    outer loop
       vertex 0.0756294 0.064705 0.1
       vertex 0.0820094 0.0326315 0.1
       vertex 0.0820094 0.0326315 0
    endloop
  endfacet
  facet normal 0.946935 0.321425 0
    outer loop
       vertex 0.0756294 0.064705 0
       vertex 0.0651184 0.095671 0
       vertex 0.0651184 0.095671 0.1
    endloop
  endfacet
  facet normal 0.946935 0.321425 0
    outer loop
       vertex 0.0651184 0.095671 0.1
       vertex 0.0756294 0.064705 0.1
       vertex 0.0756294 0.064705 0
    endloop
  endfacet
  facet normal 0.896866 0.442302 0
    outer loop
       vertex 0.0651184 0.095671 0
       vertex 0.0506544 0.125 0
       vertex 0.0506544 0.125 0.1
    endloop
  endfacet
  facet normal 0.896866 0.442302 0
    outer loop
       vertex 0.0506544 0.125 0.1
       vertex 0.0651184 0.095671 0.1
       vertex 0.0651184 0.095671 0
    endloop
  endfacet
  facet normal 0.831476 0.555561 0
    outer loop
       vertex 0.0506544 0.125 0
       vertex 0.0324864 0.152191 0
       vertex 0.0324864 0.152191 0.1
    endloop
  endfacet
  facet normal 0.831476 0.555561 0
    outer loop
       vertex 0.0324864 0.152191 0.1
       vertex 0.0506544 0.125 0.1
       vertex 0.0506544 0.125 0
    endloop
  endfacet
  facet normal 0.751817 0.659372 0
    outer loop
       vertex 0.0324864 0.152191 0
       vertex 0.0109244 0.176776 0
       vertex 0.0109244 0.176776 0.1
    endloop
  endfacet
  facet normal 0.751817 0.659372 0
    outer loop
       vertex 0.0109244 0.176776 0.1
       vertex 0.0324864 0.152191 0.1
       vertex 0.0324864 0.152191 0
    endloop
  endfacet
  facet normal 0.659372 0.751817 0
    outer loop
       vertex 0.0109244 0.176776 0
       vertex -0.0136606 0.198338 0
       vertex -0.0136606 0.198338 0.1
    endloop
  endfacet
  facet normal 0.659372 0.751817 0
    outer loop
       vertex -0.0136606 0.198338 0.1
       vertex 0.0109244 0.176776 0.1
       vertex 0.0109244 0.176776 0
    endloop
  endfacet
  facet normal 0.555561 0.831476 0
    outer loop
       vertex -0.0136606 0.198338 0
       vertex -0.0408516 0.216506 0
       vertex -0.0408516 0.216506 0.1
    endloop
  endfacet
  facet normal 0.555561 0.831476 0
    outer loop
       vertex -0.0408516 0.216506 0.1
       vertex -0.0136606 0.198338 0.1
       vertex -0.0136606 0.198338 0
    endloop
  endfacet
  facet normal 0.442302 0.896866 0
    outer loop
       vertex -0.0408516 0.216506 0
       vertex -0.0701806 0.23097 0
       vertex -0.0701806 0.23097 0.1
    endloop
  endfacet
  facet normal 0.442302 0.896866 0
    outer loop
       vertex -0.0701806 0.23097 0.1
       vertex -0.0408516 0.216506 0.1
       vertex -0.0408516 0.216506 0
    endloop
  endfacet
  facet normal 0.321425 0.946935 0
    outer loop
       vertex -0.0701806 0.23097 0
       vertex -0.101147 0.241481 0
       vertex -0.101147 0.241481 0.1
    endloop
  endfacet
  facet normal 0.321425 0.946935 0
    outer loop
       vertex -0.101147 0.241481 0.1
       vertex -0.0701806 0.23097 0.1
       vertex -0.0701806 0.23097 0
    endloop
  endfacet
  facet normal 0.195096 0.980784 0
    outer loop
       vertex -0.101147 0.241481 0
       vertex -0.13322 0.247861 0
       vertex -0.13322 0.247861 0.1
    endloop
  endfacet
  facet normal 0.195096 0.980784 0
    outer loop
       vertex -0.13322 0.247861 0.1
       vertex -0.101147 0.241481 0.1
       vertex -0.101147 0.241481 0
    endloop
  endfacet
  facet normal 0.0654098 0.997858 0
    outer loop
       vertex -0.165852 0.25 0.1
       vertex -0.13322 0.247861 0.1
       vertex -0.13322 0.247861 0
    endloop
  endfacet
  facet normal 0.0654098 0.997858 -1.0893e-16
    outer loop
       vertex -0.13322 0.247861 0
       vertex -0.165852 0.25 0
       vertex -0.165852 0.25 0.1
    endloop
  endfacet
  facet normal -0.0654098 0.997858 0
    outer loop
       vertex -0.165852 0.25 0
       vertex -0.198483 0.247861 0
       vertex -0.198483 0.247861 0.1
    endloop
  endfacet
  facet normal -0.0654098 0.997858 1.0893e-16
    outer loop
       vertex -0.198483 0.247861 0.1
       vertex -0.165852 0.25 0.1
       vertex -0.165852 0.25 0
    endloop
  endfacet
  facet normal -0.195096 0.980784 0
    outer loop
       vertex -0.198483 0.247861 0
       vertex -0.230557 0.241481 0
       vertex -0.230557 0.241481 0.1
    endloop
  endfacet
  facet normal -0.195096 0.980784 0
    outer loop
       vertex -0.230557 0.241481 0.1
       vertex -0.198483 0.247861 0.1
       vertex -0.198483 0.247861 0
    endloop
  endfacet
  facet normal -0.321425 0.946935 0
    outer loop
       vertex -0.230557 0.241481 0
       vertex -0.261523 0.23097 0
       vertex -0.261523 0.23097 0.1
    endloop
  endfacet
  facet normal -0.321425 0.946935 0
    outer loop
       vertex -0.261523 0.23097 0.1
       vertex -0.230557 0.241481 0.1
       vertex -0.230557 0.241481 0
    endloop
  endfacet
  facet normal -0.442302 0.896866 0
    outer loop
       vertex -0.261523 0.23097 0
       vertex -0.290852 0.216506 0
       vertex -0.290852 0.216506 0.1
    endloop
  endfacet
  facet normal -0.442302 0.896866 0
    outer loop
       vertex -0.290852 0.216506 0.1
       vertex -0.261523 0.23097 0.1
       vertex -0.261523 0.23097 0
    endloop
  endfacet
  facet normal -0.555561 0.831476 0
    outer loop
       vertex -0.290852 0.216506 0
       vertex -0.318043 0.198338 0
       vertex -0.318043 0.198338 0.1
    endloop
  endfacet
  facet normal -0.555561 0.831476 0
    outer loop
       vertex -0.318043 0.198338 0.1
       vertex -0.290852 0.216506 0.1
       vertex -0.290852 0.216506 0
    endloop
  endfacet
  facet normal -0.659372 0.751817 0
    outer loop
       vertex -0.318043 0.198338 0
       vertex -0.342628 0.176776 0
       vertex -0.342628 0.176776 0.1
    endloop
  endfacet
  facet normal -0.659372 0.751817 0
    outer loop
       vertex -0.342628 0.176776 0.1
       vertex -0.318043 0.198338 0.1
       vertex -0.318043 0.198338 0
    endloop
  endfacet
  facet normal -0.751817 0.659372 0
    outer loop
       vertex -0.342628 0.176776 0
       vertex -0.36419 0.152191 0
       vertex -0.36419 0.152191 0.1
    endloop
  endfacet
  facet normal -0.751817 0.659372 0
    outer loop
       vertex -0.36419 0.152191 0.1
       vertex -0.342628 0.176776 0.1
       vertex -0.342628 0.176776 0
    endloop
  endfacet
  facet normal -0.831476 0.555561 0
    outer loop
       vertex -0.36419 0.152191 0
       vertex -0.382358 0.125 0
       vertex -0.382358 0.125 0.1
    endloop
  endfacet
  facet normal -0.831476 0.555561 0
    outer loop
       vertex -0.382358 0.125 0.1
       vertex -0.36419 0.152191 0.1
       vertex -0.36419 0.152191 0
    endloop
  endfacet
  facet normal -0.896866 0.442302 0
    outer loop
       vertex -0.382358 0.125 0
       vertex -0.396822 0.095671 0
       vertex -0.396822 0.095671 0.1
    endloop
  endfacet
  facet normal -0.896866 0.442302 0
    outer loop
       vertex -0.396822 0.095671 0.1
       vertex -0.382358 0.125 0.1
       vertex -0.382358 0.125 0
    endloop
  endfacet
  facet normal -0.946935 0.321425 0
    outer loop
       vertex -0.396822 0.095671 0
       vertex -0.407333 0.064705 0
       vertex -0.407333 0.064705 0.1
    endloop
  endfacet
  facet normal -0.946935 0.321425 0
    outer loop
       vertex -0.407333 0.064705 0.1
       vertex -0.396822 0.095671 0.1
       vertex -0.396822 0.095671 0
    endloop
  endfacet
  facet normal -0.980784 0.195096 0
    outer loop
       vertex -0.407333 0.064705 0
       vertex -0.413713 0.0326315 0
       vertex -0.413713 0.0326315 0.1
    endloop
  endfacet
  facet normal -0.980784 0.195096 0
    outer loop
       vertex -0.413713 0.0326315 0.1
       vertex -0.407333 0.064705 0.1
       vertex -0.407333 0.064705 0
    endloop
  endfacet
  facet normal -0.997858 0.0654098 0
    outer loop
       vertex -0.415852 8.32665e-17 0.1
       vertex -0.413713 0.0326315 0.1
       vertex -0.413713 0.0326315 0
    endloop
  endfacet
  facet normal -0.997858 0.0654098 -1.08928e-16
    outer loop
       vertex -0.413713 0.0326315 0
       vertex -0.415852 -8.32665e-17 0
       vertex -0.415852 8.32665e-17 0.1
    endloop
  endfacet
  facet normal -0.997858 -0.0654098 0
    outer loop
       vertex -0.415852 -8.32665e-17 0
       vertex -0.413713 -0.0326315 0
       vertex -0.413713 -0.0326315 0.1
    endloop
  endfacet
  facet normal -0.997858 -0.0654098 1.08928e-16
    outer loop
       vertex -0.413713 -0.0326315 0.1
       vertex -0.415852 8.32665e-17 0.1
       vertex -0.415852 -8.32665e-17 0
    endloop
  endfacet
  facet normal -0.980784 -0.195096 0
    outer loop
       vertex -0.413713 -0.0326315 0
       vertex -0.407333 -0.064705 0
       vertex -0.407333 -0.064705 0.1
    endloop
  endfacet
  facet normal -0.980784 -0.195096 0
    outer loop
       vertex -0.407333 -0.064705 0.1
       vertex -0.413713 -0.0326315 0.1
       vertex -0.413713 -0.0326315 0
    endloop
  endfacet
  facet normal -0.946935 -0.321425 0
    outer loop
       vertex -0.407333 -0.064705 0
       vertex -0.396822 -0.095671 0
       vertex -0.396822 -0.095671 0.1
    endloop
  endfacet
  facet normal -0.946935 -0.321425 0
    outer loop
       vertex -0.396822 -0.095671 0.1
       vertex -0.407333 -0.064705 0.1
       vertex -0.407333 -0.064705 0
    endloop
  endfacet
  facet normal -0.896866 -0.442302 0
    outer loop
       vertex -0.396822 -0.095671 0
       vertex -0.382358 -0.125 0
       vertex -0.382358 -0.125 0.1
    endloop
  endfacet
  facet normal -0.896866 -0.442302 0
    outer loop
       vertex -0.382358 -0.125 0.1
       vertex -0.396822 -0.095671 0.1
       vertex -0.396822 -0.095671 0
    endloop
  endfacet
  facet normal -0.831476 -0.555561 0
    outer loop
       vertex -0.382358 -0.125 0
       vertex -0.36419 -0.152191 0
       vertex -0.36419 -0.152191 0.1
    endloop
  endfacet
  facet normal -0.831476 -0.555561 0
    outer loop
       vertex -0.36419 -0.152191 0.1
       vertex -0.382358 -0.125 0.1
       vertex -0.382358 -0.125 0
    endloop
  endfacet
  facet normal -0.751817 -0.659372 0
    outer loop
       vertex -0.36419 -0.152191 0
       vertex -0.342628 -0.176776 0
       vertex -0.342628 -0.176776 0.1
    endloop
  endfacet
  facet normal -0.751817 -0.659372 0
    outer loop
       vertex -0.342628 -0.176776 0.1
       vertex -0.36419 -0.152191 0.1
       vertex -0.36419 -0.152191 0
    endloop
  endfacet
  facet normal 0.659372 -0.751817 0
    outer loop
       vertex 0.0109244 -0.176776 0
       vertex 0.0109244 -0.176776 0.1
       vertex -0.0136606 -0.198338 0.1
    endloop
  endfacet
  facet normal 0.659372 -0.751817 0
    outer loop
       vertex -0.0136606 -0.198338 0.1
       vertex -0.0136606 -0.198338 0
       vertex 0.0109244 -0.176776 0
    endloop
  endfacet
  facet normal 0.555561 -0.831476 0
    outer loop
       vertex -0.0136606 -0.198338 0
       vertex -0.0136606 -0.198338 0.1
       vertex -0.0408516 -0.216506 0.1
    endloop
  endfacet
  facet normal 0.555561 -0.831476 0
    outer loop
       vertex -0.0408516 -0.216506 0.1
       vertex -0.0408516 -0.216506 0
       vertex -0.0136606 -0.198338 0
    endloop
  endfacet
  facet normal 0.442302 -0.896866 0
    outer loop
       vertex -0.0408516 -0.216506 0
       vertex -0.0408516 -0.216506 0.1
       vertex -0.0701806 -0.23097 0.1
    endloop
  endfacet
  facet normal 0.442302 -0.896866 0
    outer loop
       vertex -0.0701806 -0.23097 0.1
       vertex -0.0701806 -0.23097 0
       vertex -0.0408516 -0.216506 0
    endloop
  endfacet
  facet normal 0.321425 -0.946935 0
    outer loop
       vertex -0.0701806 -0.23097 0
       vertex -0.0701806 -0.23097 0.1
       vertex -0.101147 -0.241481 0.1
    endloop
  endfacet
  facet normal 0.321425 -0.946935 0
    outer loop
       vertex -0.101147 -0.241481 0.1
       vertex -0.101147 -0.241481 0
       vertex -0.0701806 -0.23097 0
    endloop
  endfacet
  facet normal 0.195096 -0.980784 0
    outer loop
       vertex -0.101147 -0.241481 0
       vertex -0.101147 -0.241481 0.1
       vertex -0.13322 -0.247861 0.1
    endloop
  endfacet
  facet normal 0.195096 -0.980784 0
    outer loop
       vertex -0.13322 -0.247861 0.1
       vertex -0.13322 -0.247861 0
       vertex -0.101147 -0.241481 0
    endloop
  endfacet
  facet normal 0.0654098 -0.997858 0
    outer loop
       vertex -0.165852 -0.25 0
       vertex -0.13322 -0.247861 0
       vertex -0.13322 -0.247861 0.1
    endloop
  endfacet
  facet normal 0.0654098 -0.997858 1.0893e-16
    outer loop
       vertex -0.13322 -0.247861 0.1
       vertex -0.165852 -0.25 0.1
       vertex -0.165852 -0.25 0
    endloop
  endfacet
  facet normal -0.0654098 -0.997858 0
    outer loop
       vertex -0.165852 -0.25 0.1
       vertex -0.198483 -0.247861 0.1
       vertex -0.198483 -0.247861 0
    endloop
  endfacet
  facet normal -0.0654098 -0.997858 -1.0893e-16
    outer loop
       vertex -0.198483 -0.247861 0
       vertex -0.165852 -0.25 0
       vertex -0.165852 -0.25 0.1
    endloop
  endfacet
  facet normal -0.195096 -0.980784 0
    outer loop
       vertex -0.198483 -0.247861 0
       vertex -0.198483 -0.247861 0.1
       vertex -0.230557 -0.241481 0.1
    endloop
  endfacet
  facet normal -0.195096 -0.980784 -0
    outer loop
       vertex -0.230557 -0.241481 0.1
       vertex -0.230557 -0.241481 0
       vertex -0.198483 -0.247861 0
    endloop
  endfacet
  facet normal -0.321425 -0.946935 0
    outer loop
       vertex -0.230557 -0.241481 0
       vertex -0.230557 -0.241481 0.1
       vertex -0.261523 -0.23097 0.1
    endloop
  endfacet
  facet normal -0.321425 -0.946935 -0
    outer loop
       vertex -0.261523 -0.23097 0.1
       vertex -0.261523 -0.23097 0
       vertex -0.230557 -0.241481 0
    endloop
  endfacet
  facet normal -0.442302 -0.896866 0
    outer loop
       vertex -0.261523 -0.23097 0
       vertex -0.261523 -0.23097 0.1
       vertex -0.290852 -0.216506 0.1
    endloop
  endfacet
  facet normal -0.442302 -0.896866 -0
    outer loop
       vertex -0.290852 -0.216506 0.1
       vertex -0.290852 -0.216506 0
       vertex -0.261523 -0.23097 0
    endloop
  endfacet
  facet normal -0.555561 -0.831476 0
    outer loop
       vertex -0.290852 -0.216506 0
       vertex -0.290852 -0.216506 0.1
       vertex -0.318043 -0.198338 0.1
    endloop
  endfacet
  facet normal -0.555561 -0.831476 -0
    outer loop
       vertex -0.318043 -0.198338 0.1
       vertex -0.318043 -0.198338 0
       vertex -0.290852 -0.216506 0
    endloop
  endfacet
  facet normal -0.659372 -0.751817 0
    outer loop
       vertex -0.318043 -0.198338 0
       vertex -0.318043 -0.198338 0.1
       vertex -0.342628 -0.176776 0.1
    endloop
  endfacet
  facet normal -0.659372 -0.751817 -0
    outer loop
       vertex -0.342628 -0.176776 0.1
       vertex -0.342628 -0.176776 0
       vertex -0.318043 -0.198338 0
    endloop
  endfacet
endsolid cylinder
