solid cylinder
  facet normal 0.751817 -0.659372 0
    outer loop
       vertex 0.316199 -0.176776 0
       vertex 0.337761 -0.152191 0
       vertex 0.337761 -0.152191 0.1
    endloop
  endfacet
  facet normal 0.751817 -0.659372 0
    outer loop
       vertex 0.337761 -0.152191 0.1
       vertex 0.316199 -0.176776 0.1
       vertex 0.316199 -0.176776 0
    endloop
  endfacet
  facet normal 0.831476 -0.555561 0
    outer loop
       vertex 0.337761 -0.152191 0
       vertex 0.355929 -0.125 0
       vertex 0.355929 -0.125 0.1
    endloop
  endfacet
  facet normal 0.831476 -0.555561 0
    outer loop
       vertex 0.355929 -0.125 0.1
       vertex 0.337761 -0.152191 0.1
       vertex 0.337761 -0.152191 0
    endloop
  endfacet
  facet normal 0.896866 -0.442302 0
    outer loop
       vertex 0.355929 -0.125 0
       vertex 0.370393 -0.095671 0
       vertex 0.370393 -0.095671 0.1
    endloop
  endfacet
  facet normal 0.896866 -0.442302 0
    outer loop
       vertex 0.370393 -0.095671 0.1
       vertex 0.355929 -0.125 0.1
       vertex 0.355929 -0.125 0
    endloop
  endfacet
  facet normal 0.946935 -0.321425 0
    outer loop
       vertex 0.370393 -0.095671 0
       vertex 0.380904 -0.064705 0
       vertex 0.380904 -0.064705 0.1
    endloop
  endfacet
  facet normal 0.946935 -0.321425 0
    outer loop
       vertex 0.380904 -0.064705 0.1
       vertex 0.370393 -0.095671 0.1
       vertex 0.370393 -0.095671 0
    endloop
  endfacet
  facet normal 0.980784 -0.195096 0
    outer loop
       vertex 0.380904 -0.064705 0
       vertex 0.387284 -0.0326315 0
       vertex 0.387284 -0.0326315 0.1
    endloop
  endfacet
  facet normal 0.980784 -0.195096 0
    outer loop
       vertex 0.387284 -0.0326315 0.1
       vertex 0.380904 -0.064705 0.1
       vertex 0.380904 -0.064705 0
    endloop
  endfacet
  facet normal 0.997858 -0.0654098 0
    outer loop
       vertex 0.389423 -8.32665e-17 0.1
       vertex 0.387284 -0.0326315 0.1
       vertex 0.387284 -0.0326315 0
    endloop
  endfacet
  facet normal 0.997858 -0.0654098 -1.08928e-16
    outer loop
       vertex 0.387284 -0.0326315 0
       vertex 0.389423 8.32665e-17 0
       vertex 0.389423 -8.32665e-17 0.1
    endloop
  endfacet
  facet normal 0.997858 0.0654098 0
    outer loop
       vertex 0.389423 8.32665e-17 0
       vertex 0.387284 0.0326315 0
       vertex 0.387284 0.0326315 0.1
    endloop
  endfacet
  facet normal 0.997858 0.0654098 1.08928e-16
    outer loop
       vertex 0.387284 0.0326315 0.1
       vertex 0.389423 -8.32665e-17 0.1
       vertex 0.389423 8.32665e-17 0
    endloop
  endfacet
  facet normal 0.980784 0.195096 0
    outer loop
       vertex 0.387284 0.0326315 0
       vertex 0.380904 0.064705 0
       vertex 0.380904 0.064705 0.1
    endloop
  endfacet
  facet normal 0.980784 0.195096 0
    outer loop
       vertex 0.380904 0.064705 0.1
       vertex 0.387284 0.0326315 0.1
       vertex 0.387284 0.0326315 0
    endloop
  endfacet
  facet normal 0.946935 0.321425 0
    outer loop
       vertex 0.380904 0.064705 0
       vertex 0.370393 0.095671 0
       vertex 0.370393 0.095671 0.1
    endloop
  endfacet
  facet normal 0.946935 0.321425 0
    outer loop
       vertex 0.370393 0.095671 0.1
       vertex 0.380904 0.064705 0.1
       vertex 0.380904 0.064705 0
    endloop
  endfacet
  facet normal 0.896866 0.442302 0
    outer loop
       vertex 0.370393 0.095671 0
       vertex 0.355929 0.125 0
       vertex 0.355929 0.125 0.1
    endloop
  endfacet
  facet normal 0.896866 0.442302 0
    outer loop
       vertex 0.355929 0.125 0.1
       vertex 0.370393 0.095671 0.1
       vertex 0.370393 0.095671 0
    endloop
  endfacet
  facet normal 0.831476 0.555561 0
    outer loop
       vertex 0.355929 0.125 0
       vertex 0.337761 0.152191 0
       vertex 0.337761 0.152191 0.1
    endloop
  endfacet
  facet normal 0.831476 0.555561 0
    outer loop
       vertex 0.337761 0.152191 0.1
       vertex 0.355929 0.125 0.1
       vertex 0.355929 0.125 0
    endloop
  endfacet
  facet normal 0.751817 0.659372 0
    outer loop
       vertex 0.337761 0.152191 0
       vertex 0.316199 0.176776 0
       vertex 0.316199 0.176776 0.1
    endloop
  endfacet
  facet normal 0.751817 0.659372 0
    outer loop
       vertex 0.316199 0.176776 0.1
       vertex 0.337761 0.152191 0.1
       vertex 0.337761 0.152191 0
    endloop
  endfacet
  facet normal 0.659372 0.751817 0
    outer loop
       vertex 0.316199 0.176776 0
       vertex 0.291614 0.198338 0
       vertex 0.291614 0.198338 0.1
    endloop
  endfacet
  facet normal 0.659372 0.751817 0
    outer loop
       vertex 0.291614 0.198338 0.1
       vertex 0.316199 0.176776 0.1
       vertex 0.316199 0.176776 0
    endloop
  endfacet
  facet normal 0.555561 0.831476 0
    outer loop
       vertex 0.291614 0.198338 0
       vertex 0.264423 0.216506 0
       vertex 0.264423 0.216506 0.1
    endloop
  endfacet
  facet normal 0.555561 0.831476 0
    outer loop
       vertex 0.264423 0.216506 0.1
       vertex 0.291614 0.198338 0.1
       vertex 0.291614 0.198338 0
    endloop
  endfacet
  facet normal 0.442302 0.896866 0
    outer loop
       vertex 0.264423 0.216506 0
       vertex 0.235094 0.23097 0
       vertex 0.235094 0.23097 0.1
    endloop
  endfacet
  facet normal 0.442302 0.896866 0
    outer loop
       vertex 0.235094 0.23097 0.1
       vertex 0.264423 0.216506 0.1
       vertex 0.264423 0.216506 0
    endloop
  endfacet
  facet normal 0.321425 0.946935 0
    outer loop
       vertex 0.235094 0.23097 0
       vertex 0.204128 0.241481 0
       vertex 0.204128 0.241481 0.1
    endloop
  endfacet
  facet normal 0.321425 0.946935 0
    outer loop
       vertex 0.204128 0.241481 0.1
       vertex 0.235094 0.23097 0.1
       vertex 0.235094 0.23097 0
    endloop
  endfacet
  facet normal 0.195096 0.980784 0
    outer loop
       vertex 0.204128 0.241481 0
       vertex 0.172055 0.247861 0
       vertex 0.172055 0.247861 0.1
    endloop
  endfacet
  facet normal 0.195096 0.980784 0
    outer loop
       vertex 0.172055 0.247861 0.1
       vertex 0.204128 0.241481 0.1
       vertex 0.204128 0.241481 0
    endloop
  endfacet
  facet normal 0.0654098 0.997858 0
    outer loop
       vertex 0.139423 0.25 0.1
       vertex 0.172055 0.247861 0.1
       vertex 0.172055 0.247861 0
    endloop
  endfacet
  facet normal 0.0654098 0.997858 -1.0893e-16
    outer loop
       vertex 0.172055 0.247861 0
       vertex 0.139423 0.25 0
       vertex 0.139423 0.25 0.1
    endloop
  endfacet
  facet normal -0.0654098 0.997858 0
    outer loop
       vertex 0.139423 0.25 0
       vertex 0.106792 0.247861 0
       vertex 0.106792 0.247861 0.1
    endloop
  endfacet
  facet normal -0.0654098 0.997858 1.0893e-16
    outer loop
       vertex 0.106792 0.247861 0.1
       vertex 0.139423 0.25 0.1
       vertex 0.139423 0.25 0
    endloop
  endfacet
  facet normal -0.195096 0.980784 0
    outer loop
       vertex 0.106792 0.247861 0
       vertex 0.0747182 0.241481 0
       vertex 0.0747182 0.241481 0.1
    endloop
  endfacet
  facet normal -0.195096 0.980784 0
    outer loop
       vertex 0.0747182 0.241481 0.1
       vertex 0.106792 0.247861 0.1
       vertex 0.106792 0.247861 0
    endloop
  endfacet
  facet normal -0.321425 0.946935 0
    outer loop
       vertex 0.0747182 0.241481 0
       vertex 0.0437522 0.23097 0
       vertex 0.0437522 0.23097 0.1
    endloop
  endfacet
  facet normal -0.321425 0.946935 0
    outer loop
       vertex 0.0437522 0.23097 0.1
       vertex 0.0747182 0.241481 0.1
       vertex 0.0747182 0.241481 0
    endloop
  endfacet
  facet normal -0.442302 0.896866 0
    outer loop
       vertex 0.0437522 0.23097 0
       vertex 0.0144232 0.216506 0
       vertex 0.0144232 0.216506 0.1
    endloop
  endfacet
  facet normal -0.442302 0.896866 0
    outer loop
       vertex 0.0144232 0.216506 0.1
       vertex 0.0437522 0.23097 0.1
       vertex 0.0437522 0.23097 0
    endloop
  endfacet
  facet normal -0.555561 0.831476 0
    outer loop
       vertex 0.0144232 0.216506 0
       vertex -0.0127678 0.198338 0
       vertex -0.0127678 0.198338 0.1
    endloop
  endfacet
  facet normal -0.555561 0.831476 0
    outer loop
       vertex -0.0127678 0.198338 0.1
       vertex 0.0144232 0.216506 0.1
       vertex 0.0144232 0.216506 0
    endloop
  endfacet
  facet normal -0.659372 0.751817 0
    outer loop
       vertex -0.0127678 0.198338 0
       vertex -0.0373528 0.176776 0
       vertex -0.0373528 0.176776 0.1
    endloop
  endfacet
  facet normal -0.659372 0.751817 0
    outer loop
       vertex -0.0373528 0.176776 0.1
       vertex -0.0127678 0.198338 0.1
       vertex -0.0127678 0.198338 0
    endloop
  endfacet
  facet normal -0.751817 0.659372 0
    outer loop
       vertex -0.0373528 0.176776 0
       vertex -0.0589148 0.152191 0
       vertex -0.0589148 0.152191 0.1
    endloop
  endfacet
  facet normal -0.751817 0.659372 0
    outer loop
       vertex -0.0589148 0.152191 0.1
       vertex -0.0373528 0.176776 0.1
       vertex -0.0373528 0.176776 0
    endloop
  endfacet
  facet normal -0.831476 0.555561 0
    outer loop
       vertex -0.0589148 0.152191 0
       vertex -0.0770828 0.125 0
       vertex -0.0770828 0.125 0.1
    endloop
  endfacet
  facet normal -0.831476 0.555561 0
    outer loop
       vertex -0.0770828 0.125 0.1
       vertex -0.0589148 0.152191 0.1
       vertex -0.0589148 0.152191 0
    endloop
  endfacet
  facet normal -0.896866 0.442302 0
    outer loop
       vertex -0.0770828 0.125 0
       vertex -0.0915468 0.095671 0
       vertex -0.0915468 0.095671 0.1
    endloop
  endfacet
  facet normal -0.896866 0.442302 0
    outer loop
       vertex -0.0915468 0.095671 0.1
       vertex -0.0770828 0.125 0.1
       vertex -0.0770828 0.125 0
    endloop
  endfacet
  facet normal -0.946935 0.321425 0
    outer loop
       vertex -0.0915468 0.095671 0
       vertex -0.102058 0.064705 0
       vertex -0.102058 0.064705 0.1
    endloop
  endfacet
  facet normal -0.946935 0.321425 0
    outer loop
       vertex -0.102058 0.064705 0.1
       vertex -0.0915468 0.095671 0.1
       vertex -0.0915468 0.095671 0
    endloop
  endfacet
  facet normal -0.980784 0.195096 0
    outer loop
       vertex -0.102058 0.064705 0
       vertex -0.108438 0.0326315 0
       vertex -0.108438 0.0326315 0.1
    endloop
  endfacet
  facet normal -0.980784 0.195096 0
    outer loop
       vertex -0.108438 0.0326315 0.1
       vertex -0.102058 0.064705 0.1
       vertex -0.102058 0.064705 0
    endloop
  endfacet
  facet normal -0.997858 0.0654098 0
    outer loop
       vertex -0.110577 8.32665e-17 0.1
       vertex -0.108438 0.0326315 0.1
       vertex -0.108438 0.0326315 0
    endloop
  endfacet
  facet normal -0.997858 0.0654098 -1.08928e-16
    outer loop
       vertex -0.108438 0.0326315 0
       vertex -0.110577 -8.32665e-17 0
       vertex -0.110577 8.32665e-17 0.1
    endloop
  endfacet
  facet normal -0.997858 -0.0654098 0
    outer loop
       vertex -0.110577 -8.32665e-17 0
       vertex -0.108438 -0.0326315 0
       vertex -0.108438 -0.0326315 0.1
    endloop
  endfacet
  facet normal -0.997858 -0.0654098 1.08928e-16
    outer loop
       vertex -0.108438 -0.0326315 0.1
       vertex -0.110577 8.32665e-17 0.1
       vertex -0.110577 -8.32665e-17 0
    endloop
  endfacet
  facet normal -0.980784 -0.195096 0
    outer loop
       vertex -0.108438 -0.0326315 0
       vertex -0.102058 -0.064705 0
       vertex -0.102058 -0.064705 0.1
    endloop
  endfacet
  facet normal -0.980784 -0.195096 0
    outer loop
       vertex -0.102058 -0.064705 0.1
       vertex -0.108438 -0.0326315 0.1
       vertex -0.108438 -0.0326315 0
    endloop
  endfacet
  facet normal -0.946935 -0.321425 0
    outer loop
       vertex -0.102058 -0.064705 0
       vertex -0.0915468 -0.095671 0
       vertex -0.0915468 -0.095671 0.1
    endloop
  endfacet
  facet normal -0.946935 -0.321425 0
    outer loop
       vertex -0.0915468 -0.095671 0.1
       vertex -0.102058 -0.064705 0.1
       vertex -0.102058 -0.064705 0
    endloop
  endfacet
  facet normal -0.896866 -0.442302 0
    outer loop
       vertex -0.0915468 -0.095671 0
       vertex -0.0770828 -0.125 0
       vertex -0.0770828 -0.125 0.1
    endloop
  endfacet
  facet normal -0.896866 -0.442302 0
    outer loop
       vertex -0.0770828 -0.125 0.1
       vertex -0.0915468 -0.095671 0.1
       vertex -0.0915468 -0.095671 0
    endloop
  endfacet
  facet normal -0.831476 -0.555561 0
    outer loop
       vertex -0.0770828 -0.125 0
       vertex -0.0589148 -0.152191 0
       vertex -0.0589148 -0.152191 0.1
    endloop
  endfacet
  facet normal -0.831476 -0.555561 0
    outer loop
       vertex -0.0589148 -0.152191 0.1
       vertex -0.0770828 -0.125 0.1
       vertex -0.0770828 -0.125 0
    endloop
  endfacet
  facet normal -0.751817 -0.659372 0
    outer loop
       vertex -0.0589148 -0.152191 0
       vertex -0.0373528 -0.176776 0
       vertex -0.0373528 -0.176776 0.1
    endloop
  endfacet
  facet normal -0.751817 -0.659372 0
    outer loop
       vertex -0.0373528 -0.176776 0.1
       vertex -0.0589148 -0.152191 0.1
       vertex -0.0589148 -0.152191 0
    endloop
  endfacet
  facet normal 0.659372 -0.751817 0
    outer loop
       vertex 0.316199 -0.176776 0
       vertex 0.316199 -0.176776 0.1
       vertex 0.291614 -0.198338 0.1
    endloop
  endfacet
  facet normal 0.659372 -0.751817 0
    outer loop
       vertex 0.291614 -0.198338 0.1
       vertex 0.291614 -0.198338 0
       vertex 0.316199 -0.176776 0
    endloop
  endfacet
  facet normal 0.555561 -0.831476 0
    outer loop
       vertex 0.291614 -0.198338 0
       vertex 0.291614 -0.198338 0.1
       vertex 0.264423 -0.216506 0.1
    endloop
  endfacet
  facet normal 0.555561 -0.831476 0
    outer loop
       vertex 0.264423 -0.216506 0.1
       vertex 0.264423 -0.216506 0
       vertex 0.291614 -0.198338 0
    endloop
  endfacet
  facet normal 0.442302 -0.896866 0
    outer loop
       vertex 0.264423 -0.216506 0
       vertex 0.264423 -0.216506 0.1
       vertex 0.235094 -0.23097 0.1
    endloop
  endfacet
  facet normal 0.442302 -0.896866 0
    outer loop
       vertex 0.235094 -0.23097 0.1
       vertex 0.235094 -0.23097 0
       vertex 0.264423 -0.216506 0
    endloop
  endfacet
  facet normal 0.321425 -0.946935 0
    outer loop
       vertex 0.235094 -0.23097 0
       vertex 0.235094 -0.23097 0.1
       vertex 0.204128 -0.241481 0.1
    endloop
  endfacet
  facet normal 0.321425 -0.946935 0
    outer loop
       vertex 0.204128 -0.241481 0.1
       vertex 0.204128 -0.241481 0
       vertex 0.235094 -0.23097 0
    endloop
  endfacet
  facet normal 0.195096 -0.980784 0
    outer loop
       vertex 0.204128 -0.241481 0
       vertex 0.204128 -0.241481 0.1
       vertex 0.172055 -0.247861 0.1
    endloop
  endfacet
  facet normal 0.195096 -0.980784 0
    outer loop
       vertex 0.172055 -0.247861 0.1
       vertex 0.172055 -0.247861 0
       vertex 0.204128 -0.241481 0
    endloop
  endfacet
  facet normal 0.0654098 -0.997858 0
    outer loop
       vertex 0.139423 -0.25 0
       vertex 0.172055 -0.247861 0
       vertex 0.172055 -0.247861 0.1
    endloop
  endfacet
  facet normal 0.0654098 -0.997858 1.0893e-16
    outer loop
       vertex 0.172055 -0.247861 0.1
       vertex 0.139423 -0.25 0.1
       vertex 0.139423 -0.25 0
    endloop
  endfacet
  facet normal -0.0654098 -0.997858 0
    outer loop
       vertex 0.139423 -0.25 0.1
       vertex 0.106792 -0.247861 0.1
       vertex 0.106792 -0.247861 0
    endloop
  endfacet
  facet normal -0.0654098 -0.997858 -1.0893e-16
    outer loop
       vertex 0.106792 -0.247861 0
       vertex 0.139423 -0.25 0
       vertex 0.139423 -0.25 0.1
    endloop
  endfacet
  facet normal -0.195096 -0.980784 0
    outer loop
       vertex 0.106792 -0.247861 0
       vertex 0.106792 -0.247861 0.1
       vertex 0.0747182 -0.241481 0.1
    endloop
  endfacet
  facet normal -0.195096 -0.980784 -0
    outer loop
       vertex 0.0747182 -0.241481 0.1
       vertex 0.0747182 -0.241481 0
       vertex 0.106792 -0.247861 0
    endloop
  endfacet
  facet normal -0.321425 -0.946935 0
    outer loop
       vertex 0.0747182 -0.241481 0
       vertex 0.0747182 -0.241481 0.1
       vertex 0.0437522 -0.23097 0.1
    endloop
  endfacet
  facet normal -0.321425 -0.946935 -0
    outer loop
       vertex 0.0437522 -0.23097 0.1
       vertex 0.0437522 -0.23097 0
       vertex 0.0747182 -0.241481 0
    endloop
  endfacet
  facet normal -0.442302 -0.896866 0
    outer loop
       vertex 0.0437522 -0.23097 0
       vertex 0.0437522 -0.23097 0.1
       vertex 0.0144232 -0.216506 0.1
    endloop
  endfacet
  facet normal -0.442302 -0.896866 -0
    outer loop
       vertex 0.0144232 -0.216506 0.1
       vertex 0.0144232 -0.216506 0
       vertex 0.0437522 -0.23097 0
    endloop
  endfacet
  facet normal -0.555561 -0.831476 0
    outer loop
       vertex 0.0144232 -0.216506 0
       vertex 0.0144232 -0.216506 0.1
       vertex -0.0127678 -0.198338 0.1
    endloop
  endfacet
  facet normal -0.555561 -0.831476 -0
    outer loop
       vertex -0.0127678 -0.198338 0.1
       vertex -0.0127678 -0.198338 0
       vertex 0.0144232 -0.216506 0
    endloop
  endfacet
  facet normal -0.659372 -0.751817 0
    outer loop
       vertex -0.0127678 -0.198338 0
       vertex -0.0127678 -0.198338 0.1
       vertex -0.0373528 -0.176776 0.1
    endloop
  endfacet
  facet normal -0.659372 -0.751817 -0
    outer loop
       vertex -0.0373528 -0.176776 0.1
       vertex -0.0373528 -0.176776 0
       vertex -0.0127678 -0.198338 0
    endloop
  endfacet
endsolid cylinder
