solid cylinder
  facet normal 0.751817 -0.659372 0
    outer loop
       vertex 0.480828 -0.176776 0
       vertex 0.50239 -0.152191 0
       vertex 0.50239 -0.152191 0.1
    endloop
  endfacet
  facet normal 0.751817 -0.659372 0
    outer loop
       vertex 0.50239 -0.152191 0.1
       vertex 0.480828 -0.176776 0.1
       vertex 0.480828 -0.176776 0
    endloop
  endfacet
  facet normal 0.831476 -0.555561 0
    outer loop
       vertex 0.50239 -0.152191 0
       vertex 0.520558 -0.125 0
       vertex 0.520558 -0.125 0.1
    endloop
  endfacet
  facet normal 0.831476 -0.555561 0
    outer loop
       vertex 0.520558 -0.125 0.1
       vertex 0.50239 -0.152191 0.1
       vertex 0.50239 -0.152191 0
    endloop
  endfacet
  facet normal 0.896866 -0.442302 0
    outer loop
       vertex 0.520558 -0.125 0
       vertex 0.535022 -0.095671 0
       vertex 0.535022 -0.095671 0.1
    endloop
  endfacet
  facet normal 0.896866 -0.442302 0
    outer loop
       vertex 0.535022 -0.095671 0.1
       vertex 0.520558 -0.125 0.1
       vertex 0.520558 -0.125 0
    endloop
  endfacet
  facet normal 0.946935 -0.321425 0
    outer loop
       vertex 0.535022 -0.095671 0
       vertex 0.545533 -0.064705 0
       vertex 0.545533 -0.064705 0.1
    endloop
  endfacet
  facet normal 0.946935 -0.321425 0
    outer loop
       vertex 0.545533 -0.064705 0.1
       vertex 0.535022 -0.095671 0.1
       vertex 0.535022 -0.095671 0
    endloop
  endfacet
  facet normal 0.980784 -0.195096 0
    outer loop
       vertex 0.545533 -0.064705 0
       vertex 0.551913 -0.0326315 0
       vertex 0.551913 -0.0326315 0.1
    endloop
  endfacet
  facet normal 0.980784 -0.195096 0
    outer loop
       vertex 0.551913 -0.0326315 0.1
       vertex 0.545533 -0.064705 0.1
       vertex 0.545533 -0.064705 0
    endloop
  endfacet
  facet normal 0.997858 -0.0654098 0
    outer loop
       vertex 0.554052 -8.32665e-17 0.1
       vertex 0.551913 -0.0326315 0.1
       vertex 0.551913 -0.0326315 0
    endloop
  endfacet
  facet normal 0.997858 -0.0654098 -1.08928e-16
    outer loop
       vertex 0.551913 -0.0326315 0
       vertex 0.554052 8.32665e-17 0
       vertex 0.554052 -8.32665e-17 0.1
    endloop
  endfacet
  facet normal 0.997858 0.0654098 0
    outer loop
       vertex 0.554052 8.32665e-17 0
       vertex 0.551913 0.0326315 0
       vertex 0.551913 0.0326315 0.1
    endloop
  endfacet
  facet normal 0.997858 0.0654098 1.08928e-16
    outer loop
       vertex 0.551913 0.0326315 0.1
       vertex 0.554052 -8.32665e-17 0.1
       vertex 0.554052 8.32665e-17 0
    endloop
  endfacet
  facet normal 0.980784 0.195096 0
    outer loop
       vertex 0.551913 0.0326315 0
       vertex 0.545533 0.064705 0
       vertex 0.545533 0.064705 0.1
    endloop
  endfacet
  facet normal 0.980784 0.195096 0
    outer loop
       vertex 0.545533 0.064705 0.1
       vertex 0.551913 0.0326315 0.1
       vertex 0.551913 0.0326315 0
    endloop
  endfacet
  facet normal 0.946935 0.321425 0
    outer loop
       vertex 0.545533 0.064705 0
       vertex 0.535022 0.095671 0
       vertex 0.535022 0.095671 0.1
    endloop
  endfacet
  facet normal 0.946935 0.321425 0
    outer loop
       vertex 0.535022 0.095671 0.1
       vertex 0.545533 0.064705 0.1
       vertex 0.545533 0.064705 0
    endloop
  endfacet
  facet normal 0.896866 0.442302 0
    outer loop
       vertex 0.535022 0.095671 0
       vertex 0.520558 0.125 0
       vertex 0.520558 0.125 0.1
    endloop
  endfacet
  facet normal 0.896866 0.442302 0
    outer loop
       vertex 0.520558 0.125 0.1
       vertex 0.535022 0.095671 0.1
       vertex 0.535022 0.095671 0
    endloop
  endfacet
  facet normal 0.831476 0.555561 0
    outer loop
       vertex 0.520558 0.125 0
       vertex 0.50239 0.152191 0
       vertex 0.50239 0.152191 0.1
    endloop
  endfacet
  facet normal 0.831476 0.555561 0
    outer loop
       vertex 0.50239 0.152191 0.1
       vertex 0.520558 0.125 0.1
       vertex 0.520558 0.125 0
    endloop
  endfacet
  facet normal 0.751817 0.659372 0
    outer loop
       vertex 0.50239 0.152191 0
       vertex 0.480828 0.176776 0
       vertex 0.480828 0.176776 0.1
    endloop
  endfacet
  facet normal 0.751817 0.659372 0
    outer loop
       vertex 0.480828 0.176776 0.1
       vertex 0.50239 0.152191 0.1
       vertex 0.50239 0.152191 0
    endloop
  endfacet
  facet normal 0.659372 0.751817 0
    outer loop
       vertex 0.480828 0.176776 0
       vertex 0.456243 0.198338 0
       vertex 0.456243 0.198338 0.1
    endloop
  endfacet
  facet normal 0.659372 0.751817 0
    outer loop
       vertex 0.456243 0.198338 0.1
       vertex 0.480828 0.176776 0.1
       vertex 0.480828 0.176776 0
    endloop
  endfacet
  facet normal 0.555561 0.831476 0
    outer loop
       vertex 0.456243 0.198338 0
       vertex 0.429052 0.216506 0
       vertex 0.429052 0.216506 0.1
    endloop
  endfacet
  facet normal 0.555561 0.831476 0
    outer loop
       vertex 0.429052 0.216506 0.1
       vertex 0.456243 0.198338 0.1
       vertex 0.456243 0.198338 0
    endloop
  endfacet
  facet normal 0.442302 0.896866 0
    outer loop
       vertex 0.429052 0.216506 0
       vertex 0.399723 0.23097 0
       vertex 0.399723 0.23097 0.1
    endloop
  endfacet
  facet normal 0.442302 0.896866 0
    outer loop
       vertex 0.399723 0.23097 0.1
       vertex 0.429052 0.216506 0.1
       vertex 0.429052 0.216506 0
    endloop
  endfacet
  facet normal 0.321425 0.946935 0
    outer loop
       vertex 0.399723 0.23097 0
       vertex 0.368757 0.241481 0
       vertex 0.368757 0.241481 0.1
    endloop
  endfacet
  facet normal 0.321425 0.946935 0
    outer loop
       vertex 0.368757 0.241481 0.1
       vertex 0.399723 0.23097 0.1
       vertex 0.399723 0.23097 0
    endloop
  endfacet
  facet normal 0.195096 0.980784 0
    outer loop
       vertex 0.368757 0.241481 0
       vertex 0.336684 0.247861 0
       vertex 0.336684 0.247861 0.1
    endloop
  endfacet
  facet normal 0.195096 0.980784 0
    outer loop
       vertex 0.336684 0.247861 0.1
       vertex 0.368757 0.241481 0.1
       vertex 0.368757 0.241481 0
    endloop
  endfacet
  facet normal 0.0654098 0.997858 0
    outer loop
       vertex 0.304052 0.25 0.1
       vertex 0.336684 0.247861 0.1
       vertex 0.336684 0.247861 0
    endloop
  endfacet
  facet normal 0.0654098 0.997858 -1.45239e-16
    outer loop
       vertex 0.336684 0.247861 0
       vertex 0.304052 0.25 0
       vertex 0.304052 0.25 0.1
    endloop
  endfacet
  facet normal -0.0654098 0.997858 0
    outer loop
       vertex 0.304052 0.25 0
       vertex 0.271421 0.247861 0
       vertex 0.271421 0.247861 0.1
    endloop
  endfacet
  facet normal -0.0654098 0.997858 1.45239e-16
    outer loop
       vertex 0.271421 0.247861 0.1
       vertex 0.304052 0.25 0.1
       vertex 0.304052 0.25 0
    endloop
  endfacet
  facet normal -0.195096 0.980784 0
    outer loop
       vertex 0.271421 0.247861 0
       vertex 0.239347 0.241481 0
       vertex 0.239347 0.241481 0.1
    endloop
  endfacet
  facet normal -0.195096 0.980784 0
    outer loop
       vertex 0.239347 0.241481 0.1
       vertex 0.271421 0.247861 0.1
       vertex 0.271421 0.247861 0
    endloop
  endfacet
  facet normal -0.321425 0.946935 0
    outer loop
       vertex 0.239347 0.241481 0
       vertex 0.208381 0.23097 0
       vertex 0.208381 0.23097 0.1
    endloop
  endfacet
  facet normal -0.321425 0.946935 0
    outer loop
       vertex 0.208381 0.23097 0.1
       vertex 0.239347 0.241481 0.1
       vertex 0.239347 0.241481 0
    endloop
  endfacet
  facet normal -0.442302 0.896866 0
    outer loop
       vertex 0.208381 0.23097 0
       vertex 0.179052 0.216506 0
       vertex 0.179052 0.216506 0.1
    endloop
  endfacet
  facet normal -0.442302 0.896866 0
    outer loop
       vertex 0.179052 0.216506 0.1
       vertex 0.208381 0.23097 0.1
       vertex 0.208381 0.23097 0
    endloop
  endfacet
  facet normal -0.555561 0.831476 0
    outer loop
       vertex 0.179052 0.216506 0
       vertex 0.151861 0.198338 0
       vertex 0.151861 0.198338 0.1
    endloop
  endfacet
  facet normal -0.555561 0.831476 0
    outer loop
       vertex 0.151861 0.198338 0.1
       vertex 0.179052 0.216506 0.1
       vertex 0.179052 0.216506 0
    endloop
  endfacet
  facet normal -0.659372 0.751817 0
    outer loop
       vertex 0.151861 0.198338 0
       vertex 0.127276 0.176776 0
       vertex 0.127276 0.176776 0.1
    endloop
  endfacet
  facet normal -0.659372 0.751817 0
    outer loop
       vertex 0.127276 0.176776 0.1
       vertex 0.151861 0.198338 0.1
       vertex 0.151861 0.198338 0
    endloop
  endfacet
  facet normal -0.751817 0.659372 0
    outer loop
       vertex 0.127276 0.176776 0
       vertex 0.105714 0.152191 0
       vertex 0.105714 0.152191 0.1
    endloop
  endfacet
  facet normal -0.751817 0.659372 0
    outer loop
       vertex 0.105714 0.152191 0.1
       vertex 0.127276 0.176776 0.1
       vertex 0.127276 0.176776 0
    endloop
  endfacet
  facet normal -0.831476 0.555561 0
    outer loop
       vertex 0.105714 0.152191 0
       vertex 0.0875461 0.125 0
       vertex 0.0875461 0.125 0.1
    endloop
  endfacet
  facet normal -0.831476 0.555561 0
    outer loop
       vertex 0.0875461 0.125 0.1
       vertex 0.105714 0.152191 0.1
       vertex 0.105714 0.152191 0
    endloop
  endfacet
  facet normal -0.896866 0.442302 0
    outer loop
       vertex 0.0875461 0.125 0
       vertex 0.0730821 0.095671 0
       vertex 0.0730821 0.095671 0.1
    endloop
  endfacet
  facet normal -0.896866 0.442302 0
    outer loop
       vertex 0.0730821 0.095671 0.1
       vertex 0.0875461 0.125 0.1
       vertex 0.0875461 0.125 0
    endloop
  endfacet
  facet normal -0.946935 0.321425 0
    outer loop
       vertex 0.0730821 0.095671 0
       vertex 0.0625711 0.064705 0
       vertex 0.0625711 0.064705 0.1
    endloop
  endfacet
  facet normal -0.946935 0.321425 0
    outer loop
       vertex 0.0625711 0.064705 0.1
       vertex 0.0730821 0.095671 0.1
       vertex 0.0730821 0.095671 0
    endloop
  endfacet
  facet normal -0.980784 0.195096 0
    outer loop
       vertex 0.0625711 0.064705 0
       vertex 0.0561911 0.0326315 0
       vertex 0.0561911 0.0326315 0.1
    endloop
  endfacet
  facet normal -0.980784 0.195096 0
    outer loop
       vertex 0.0561911 0.0326315 0.1
       vertex 0.0625711 0.064705 0.1
       vertex 0.0625711 0.064705 0
    endloop
  endfacet
  facet normal -0.997858 0.0654098 0
    outer loop
       vertex 0.0540521 8.32665e-17 0.1
       vertex 0.0561911 0.0326315 0.1
       vertex 0.0561911 0.0326315 0
    endloop
  endfacet
  facet normal -0.997858 0.0654098 -1.08928e-16
    outer loop
       vertex 0.0561911 0.0326315 0
       vertex 0.0540521 -8.32665e-17 0
       vertex 0.0540521 8.32665e-17 0.1
    endloop
  endfacet
  facet normal -0.997858 -0.0654098 0
    outer loop
       vertex 0.0540521 -8.32665e-17 0
       vertex 0.0561911 -0.0326315 0
       vertex 0.0561911 -0.0326315 0.1
    endloop
  endfacet
  facet normal -0.997858 -0.0654098 1.08928e-16
    outer loop
       vertex 0.0561911 -0.0326315 0.1
       vertex 0.0540521 8.32665e-17 0.1
       vertex 0.0540521 -8.32665e-17 0
    endloop
  endfacet
  facet normal -0.980784 -0.195096 0
    outer loop
       vertex 0.0561911 -0.0326315 0
       vertex 0.0625711 -0.064705 0
       vertex 0.0625711 -0.064705 0.1
    endloop
  endfacet
  facet normal -0.980784 -0.195096 0
    outer loop
       vertex 0.0625711 -0.064705 0.1
       vertex 0.0561911 -0.0326315 0.1
       vertex 0.0561911 -0.0326315 0
    endloop
  endfacet
  facet normal -0.946935 -0.321425 0
    outer loop
       vertex 0.0625711 -0.064705 0
       vertex 0.0730821 -0.095671 0
       vertex 0.0730821 -0.095671 0.1
    endloop
  endfacet
  facet normal -0.946935 -0.321425 0
    outer loop
       vertex 0.0730821 -0.095671 0.1
       vertex 0.0625711 -0.064705 0.1
       vertex 0.0625711 -0.064705 0
    endloop
  endfacet
  facet normal -0.896866 -0.442302 0
    outer loop
       vertex 0.0730821 -0.095671 0
       vertex 0.0875461 -0.125 0
       vertex 0.0875461 -0.125 0.1
    endloop
  endfacet
  facet normal -0.896866 -0.442302 0
    outer loop
       vertex 0.0875461 -0.125 0.1
       vertex 0.0730821 -0.095671 0.1
       vertex 0.0730821 -0.095671 0
    endloop
  endfacet
  facet normal -0.831476 -0.555561 0
    outer loop
       vertex 0.0875461 -0.125 0
       vertex 0.105714 -0.152191 0
       vertex 0.105714 -0.152191 0.1
    endloop
  endfacet
  facet normal -0.831476 -0.555561 0
    outer loop
       vertex 0.105714 -0.152191 0.1
       vertex 0.0875461 -0.125 0.1
       vertex 0.0875461 -0.125 0
    endloop
  endfacet
  facet normal -0.751817 -0.659372 0
    outer loop
       vertex 0.105714 -0.152191 0
       vertex 0.127276 -0.176776 0
       vertex 0.127276 -0.176776 0.1
    endloop
  endfacet
  facet normal -0.751817 -0.659372 0
    outer loop
       vertex 0.127276 -0.176776 0.1
       vertex 0.105714 -0.152191 0.1
       vertex 0.105714 -0.152191 0
    endloop
  endfacet
  facet normal 0.659372 -0.751817 0
    outer loop
       vertex 0.480828 -0.176776 0
       vertex 0.480828 -0.176776 0.1
       vertex 0.456243 -0.198338 0.1
    endloop
  endfacet
  facet normal 0.659372 -0.751817 0
    outer loop
       vertex 0.456243 -0.198338 0.1
       vertex 0.456243 -0.198338 0
       vertex 0.480828 -0.176776 0
    endloop
  endfacet
  facet normal 0.555561 -0.831476 0
    outer loop
       vertex 0.456243 -0.198338 0
       vertex 0.456243 -0.198338 0.1
       vertex 0.429052 -0.216506 0.1
    endloop
  endfacet
  facet normal 0.555561 -0.831476 0
    outer loop
       vertex 0.429052 -0.216506 0.1
       vertex 0.429052 -0.216506 0
       vertex 0.456243 -0.198338 0
    endloop
  endfacet
  facet normal 0.442302 -0.896866 0
    outer loop
       vertex 0.429052 -0.216506 0
       vertex 0.429052 -0.216506 0.1
       vertex 0.399723 -0.23097 0.1
    endloop
  endfacet
  facet normal 0.442302 -0.896866 0
    outer loop
       vertex 0.399723 -0.23097 0.1
       vertex 0.399723 -0.23097 0
       vertex 0.429052 -0.216506 0
    endloop
  endfacet
  facet normal 0.321425 -0.946935 0
    outer loop
       vertex 0.399723 -0.23097 0
       vertex 0.399723 -0.23097 0.1
       vertex 0.368757 -0.241481 0.1
    endloop
  endfacet
  facet normal 0.321425 -0.946935 0
    outer loop
       vertex 0.368757 -0.241481 0.1
       vertex 0.368757 -0.241481 0
       vertex 0.399723 -0.23097 0
    endloop
  endfacet
  facet normal 0.195096 -0.980784 0
    outer loop
       vertex 0.368757 -0.241481 0
       vertex 0.368757 -0.241481 0.1
       vertex 0.336684 -0.247861 0.1
    endloop
  endfacet
  facet normal 0.195096 -0.980784 0
    outer loop
       vertex 0.336684 -0.247861 0.1
       vertex 0.336684 -0.247861 0
       vertex 0.368757 -0.241481 0
    endloop
  endfacet
  facet normal 0.0654098 -0.997858 0
    outer loop
       vertex 0.304052 -0.25 0
       vertex 0.336684 -0.247861 0
       vertex 0.336684 -0.247861 0.1
    endloop
  endfacet
  facet normal 0.0654098 -0.997858 1.45239e-16
    outer loop
       vertex 0.336684 -0.247861 0.1
       vertex 0.304052 -0.25 0.1
       vertex 0.304052 -0.25 0
    endloop
  endfacet
  facet normal -0.0654098 -0.997858 0
    outer loop
       vertex 0.304052 -0.25 0.1
       vertex 0.271421 -0.247861 0.1
       vertex 0.271421 -0.247861 0
    endloop
  endfacet
  facet normal -0.0654098 -0.997858 -1.45239e-16
    outer loop
       vertex 0.271421 -0.247861 0
       vertex 0.304052 -0.25 0
       vertex 0.304052 -0.25 0.1
    endloop
  endfacet
  facet normal -0.195096 -0.980784 0
    outer loop
       vertex 0.271421 -0.247861 0
       vertex 0.271421 -0.247861 0.1
       vertex 0.239347 -0.241481 0.1
    endloop
  endfacet
  facet normal -0.195096 -0.980784 -0
    outer loop
       vertex 0.239347 -0.241481 0.1
       vertex 0.239347 -0.241481 0
       vertex 0.271421 -0.247861 0
    endloop
  endfacet
  facet normal -0.321425 -0.946935 0
    outer loop
       vertex 0.239347 -0.241481 0
       vertex 0.239347 -0.241481 0.1
       vertex 0.208381 -0.23097 0.1
    endloop
  endfacet
  facet normal -0.321425 -0.946935 -0
    outer loop
       vertex 0.208381 -0.23097 0.1
       vertex 0.208381 -0.23097 0
       vertex 0.239347 -0.241481 0
    endloop
  endfacet
  facet normal -0.442302 -0.896866 0
    outer loop
       vertex 0.208381 -0.23097 0
       vertex 0.208381 -0.23097 0.1
       vertex 0.179052 -0.216506 0.1
    endloop
  endfacet
  facet normal -0.442302 -0.896866 -0
    outer loop
       vertex 0.179052 -0.216506 0.1
       vertex 0.179052 -0.216506 0
       vertex 0.208381 -0.23097 0
    endloop
  endfacet
  facet normal -0.555561 -0.831476 0
    outer loop
       vertex 0.179052 -0.216506 0
       vertex 0.179052 -0.216506 0.1
       vertex 0.151861 -0.198338 0.1
    endloop
  endfacet
  facet normal -0.555561 -0.831476 -0
    outer loop
       vertex 0.151861 -0.198338 0.1
       vertex 0.151861 -0.198338 0
       vertex 0.179052 -0.216506 0
    endloop
  endfacet
  facet normal -0.659372 -0.751817 0
    outer loop
       vertex 0.151861 -0.198338 0
       vertex 0.151861 -0.198338 0.1
       vertex 0.127276 -0.176776 0.1
    endloop
  endfacet
  facet normal -0.659372 -0.751817 -0
    outer loop
       vertex 0.127276 -0.176776 0.1
       vertex 0.127276 -0.176776 0
       vertex 0.151861 -0.198338 0
    endloop
  endfacet
endsolid cylinder
