solid cylinder
  facet normal 0.751817 -0.659372 0
    outer loop
       vertex 0.300557 -0.176776 0
       vertex 0.322119 -0.152191 0
       vertex 0.322119 -0.152191 0.1
    endloop
  endfacet
  facet normal 0.751817 -0.659372 0
    outer loop
       vertex 0.322119 -0.152191 0.1
       vertex 0.300557 -0.176776 0.1
       vertex 0.300557 -0.176776 0
    endloop
  endfacet
  facet normal 0.831476 -0.555561 0
    outer loop
       vertex 0.322119 -0.152191 0
       vertex 0.340287 -0.125 0
       vertex 0.340287 -0.125 0.1
    endloop
  endfacet
  facet normal 0.831476 -0.555561 0
    outer loop
       vertex 0.340287 -0.125 0.1
       vertex 0.322119 -0.152191 0.1
       vertex 0.322119 -0.152191 0
    endloop
  endfacet
  facet normal 0.896866 -0.442302 0
    outer loop
       vertex 0.340287 -0.125 0
       vertex 0.354751 -0.095671 0
       vertex 0.354751 -0.095671 0.1
    endloop
  endfacet
  facet normal 0.896866 -0.442302 0
    outer loop
       vertex 0.354751 -0.095671 0.1
       vertex 0.340287 -0.125 0.1
       vertex 0.340287 -0.125 0
    endloop
  endfacet
  facet normal 0.946935 -0.321425 0
    outer loop
       vertex 0.354751 -0.095671 0
       vertex 0.365262 -0.064705 0
       vertex 0.365262 -0.064705 0.1
    endloop
  endfacet
  facet normal 0.946935 -0.321425 0
    outer loop
       vertex 0.365262 -0.064705 0.1
       vertex 0.354751 -0.095671 0.1
       vertex 0.354751 -0.095671 0
    endloop
  endfacet
  facet normal 0.980784 -0.195096 0
    outer loop
       vertex 0.365262 -0.064705 0
       vertex 0.371642 -0.0326315 0
       vertex 0.371642 -0.0326315 0.1
    endloop
  endfacet
  facet normal 0.980784 -0.195096 0
    outer loop
       vertex 0.371642 -0.0326315 0.1
       vertex 0.365262 -0.064705 0.1
       vertex 0.365262 -0.064705 0
    endloop
  endfacet
  facet normal 0.997858 -0.0654098 0
    outer loop
       vertex 0.373781 -8.32665e-17 0.1
       vertex 0.371642 -0.0326315 0.1
       vertex 0.371642 -0.0326315 0
    endloop
  endfacet
  facet normal 0.997858 -0.0654098 -1.08928e-16
    outer loop
       vertex 0.371642 -0.0326315 0
       vertex 0.373781 8.32665e-17 0
       vertex 0.373781 -8.32665e-17 0.1
    endloop
  endfacet
  facet normal 0.997858 0.0654098 0
    outer loop
       vertex 0.373781 8.32665e-17 0
       vertex 0.371642 0.0326315 0
       vertex 0.371642 0.0326315 0.1
    endloop
  endfacet
  facet normal 0.997858 0.0654098 1.08928e-16
    outer loop
       vertex 0.371642 0.0326315 0.1
       vertex 0.373781 -8.32665e-17 0.1
       vertex 0.373781 8.32665e-17 0
    endloop
  endfacet
  facet normal 0.980784 0.195096 0
    outer loop
       vertex 0.371642 0.0326315 0
       vertex 0.365262 0.064705 0
       vertex 0.365262 0.064705 0.1
    endloop
  endfacet
  facet normal 0.980784 0.195096 0
    outer loop
       vertex 0.365262 0.064705 0.1
       vertex 0.371642 0.0326315 0.1
       vertex 0.371642 0.0326315 0
    endloop
  endfacet
  facet normal 0.946935 0.321425 0
    outer loop
       vertex 0.365262 0.064705 0
       vertex 0.354751 0.095671 0
       vertex 0.354751 0.095671 0.1
    endloop
  endfacet
  facet normal 0.946935 0.321425 0
    outer loop
       vertex 0.354751 0.095671 0.1
       vertex 0.365262 0.064705 0.1
       vertex 0.365262 0.064705 0
    endloop
  endfacet
  facet normal 0.896866 0.442302 0
    outer loop
       vertex 0.354751 0.095671 0
       vertex 0.340287 0.125 0
       vertex 0.340287 0.125 0.1
    endloop
  endfacet
  facet normal 0.896866 0.442302 0
    outer loop
       vertex 0.340287 0.125 0.1
       vertex 0.354751 0.095671 0.1
       vertex 0.354751 0.095671 0
    endloop
  endfacet
  facet normal 0.831476 0.555561 0
    outer loop
       vertex 0.340287 0.125 0
       vertex 0.322119 0.152191 0
       vertex 0.322119 0.152191 0.1
    endloop
  endfacet
  facet normal 0.831476 0.555561 0
    outer loop
       vertex 0.322119 0.152191 0.1
       vertex 0.340287 0.125 0.1
       vertex 0.340287 0.125 0
    endloop
  endfacet
  facet normal 0.751817 0.659372 0
    outer loop
       vertex 0.322119 0.152191 0
       vertex 0.300557 0.176776 0
       vertex 0.300557 0.176776 0.1
    endloop
  endfacet
  facet normal 0.751817 0.659372 0
    outer loop
       vertex 0.300557 0.176776 0.1
       vertex 0.322119 0.152191 0.1
       vertex 0.322119 0.152191 0
    endloop
  endfacet
  facet normal 0.659372 0.751817 0
    outer loop
       vertex 0.300557 0.176776 0
       vertex 0.275972 0.198338 0
       vertex 0.275972 0.198338 0.1
    endloop
  endfacet
  facet normal 0.659372 0.751817 0
    outer loop
       vertex 0.275972 0.198338 0.1
       vertex 0.300557 0.176776 0.1
       vertex 0.300557 0.176776 0
    endloop
  endfacet
  facet normal 0.555561 0.831476 0
    outer loop
       vertex 0.275972 0.198338 0
       vertex 0.248781 0.216506 0
       vertex 0.248781 0.216506 0.1
    endloop
  endfacet
  facet normal 0.555561 0.831476 0
    outer loop
       vertex 0.248781 0.216506 0.1
       vertex 0.275972 0.198338 0.1
       vertex 0.275972 0.198338 0
    endloop
  endfacet
  facet normal 0.442302 0.896866 0
    outer loop
       vertex 0.248781 0.216506 0
       vertex 0.219452 0.23097 0
       vertex 0.219452 0.23097 0.1
    endloop
  endfacet
  facet normal 0.442302 0.896866 0
    outer loop
       vertex 0.219452 0.23097 0.1
       vertex 0.248781 0.216506 0.1
       vertex 0.248781 0.216506 0
    endloop
  endfacet
  facet normal 0.321425 0.946935 0
    outer loop
       vertex 0.219452 0.23097 0
       vertex 0.188486 0.241481 0
       vertex 0.188486 0.241481 0.1
    endloop
  endfacet
  facet normal 0.321425 0.946935 0
    outer loop
       vertex 0.188486 0.241481 0.1
       vertex 0.219452 0.23097 0.1
       vertex 0.219452 0.23097 0
    endloop
  endfacet
  facet normal 0.195096 0.980784 0
    outer loop
       vertex 0.188486 0.241481 0
       vertex 0.156412 0.247861 0
       vertex 0.156412 0.247861 0.1
    endloop
  endfacet
  facet normal 0.195096 0.980784 0
    outer loop
       vertex 0.156412 0.247861 0.1
       vertex 0.188486 0.241481 0.1
       vertex 0.188486 0.241481 0
    endloop
  endfacet
  facet normal 0.0654098 0.997858 0
    outer loop
       vertex 0.123781 0.25 0.1
       vertex 0.156412 0.247861 0.1
       vertex 0.156412 0.247861 0
    endloop
  endfacet
  facet normal 0.0654098 0.997858 -1.08928e-16
    outer loop
       vertex 0.156412 0.247861 0
       vertex 0.123781 0.25 0
       vertex 0.123781 0.25 0.1
    endloop
  endfacet
  facet normal -0.0654098 0.997858 0
    outer loop
       vertex 0.123781 0.25 0
       vertex 0.0911493 0.247861 0
       vertex 0.0911493 0.247861 0.1
    endloop
  endfacet
  facet normal -0.0654098 0.997858 1.08928e-16
    outer loop
       vertex 0.0911493 0.247861 0.1
       vertex 0.123781 0.25 0.1
       vertex 0.123781 0.25 0
    endloop
  endfacet
  facet normal -0.195096 0.980784 0
    outer loop
       vertex 0.0911493 0.247861 0
       vertex 0.0590758 0.241481 0
       vertex 0.0590758 0.241481 0.1
    endloop
  endfacet
  facet normal -0.195096 0.980784 0
    outer loop
       vertex 0.0590758 0.241481 0.1
       vertex 0.0911493 0.247861 0.1
       vertex 0.0911493 0.247861 0
    endloop
  endfacet
  facet normal -0.321425 0.946935 0
    outer loop
       vertex 0.0590758 0.241481 0
       vertex 0.0281098 0.23097 0
       vertex 0.0281098 0.23097 0.1
    endloop
  endfacet
  facet normal -0.321425 0.946935 0
    outer loop
       vertex 0.0281098 0.23097 0.1
       vertex 0.0590758 0.241481 0.1
       vertex 0.0590758 0.241481 0
    endloop
  endfacet
  facet normal -0.442302 0.896866 0
    outer loop
       vertex 0.0281098 0.23097 0
       vertex -0.00121925 0.216506 0
       vertex -0.00121925 0.216506 0.1
    endloop
  endfacet
  facet normal -0.442302 0.896866 0
    outer loop
       vertex -0.00121925 0.216506 0.1
       vertex 0.0281098 0.23097 0.1
       vertex 0.0281098 0.23097 0
    endloop
  endfacet
  facet normal -0.555561 0.831476 0
    outer loop
       vertex -0.00121925 0.216506 0
       vertex -0.0284102 0.198338 0
       vertex -0.0284102 0.198338 0.1
    endloop
  endfacet
  facet normal -0.555561 0.831476 0
    outer loop
       vertex -0.0284102 0.198338 0.1
       vertex -0.00121925 0.216506 0.1
       vertex -0.00121925 0.216506 0
    endloop
  endfacet
  facet normal -0.659372 0.751817 0
    outer loop
       vertex -0.0284102 0.198338 0
       vertex -0.0529952 0.176776 0
       vertex -0.0529952 0.176776 0.1
    endloop
  endfacet
  facet normal -0.659372 0.751817 0
    outer loop
       vertex -0.0529952 0.176776 0.1
       vertex -0.0284102 0.198338 0.1
       vertex -0.0284102 0.198338 0
    endloop
  endfacet
  facet normal -0.751817 0.659372 0
    outer loop
       vertex -0.0529952 0.176776 0
       vertex -0.0745572 0.152191 0
       vertex -0.0745572 0.152191 0.1
    endloop
  endfacet
  facet normal -0.751817 0.659372 0
    outer loop
       vertex -0.0745572 0.152191 0.1
       vertex -0.0529952 0.176776 0.1
       vertex -0.0529952 0.176776 0
    endloop
  endfacet
  facet normal -0.831476 0.555561 0
    outer loop
       vertex -0.0745572 0.152191 0
       vertex -0.0927252 0.125 0
       vertex -0.0927252 0.125 0.1
    endloop
  endfacet
  facet normal -0.831476 0.555561 0
    outer loop
       vertex -0.0927252 0.125 0.1
       vertex -0.0745572 0.152191 0.1
       vertex -0.0745572 0.152191 0
    endloop
  endfacet
  facet normal -0.896866 0.442302 0
    outer loop
       vertex -0.0927252 0.125 0
       vertex -0.107189 0.095671 0
       vertex -0.107189 0.095671 0.1
    endloop
  endfacet
  facet normal -0.896866 0.442302 0
    outer loop
       vertex -0.107189 0.095671 0.1
       vertex -0.0927252 0.125 0.1
       vertex -0.0927252 0.125 0
    endloop
  endfacet
  facet normal -0.946935 0.321425 0
    outer loop
       vertex -0.107189 0.095671 0
       vertex -0.1177 0.064705 0
       vertex -0.1177 0.064705 0.1
    endloop
  endfacet
  facet normal -0.946935 0.321425 0
    outer loop
       vertex -0.1177 0.064705 0.1
       vertex -0.107189 0.095671 0.1
       vertex -0.107189 0.095671 0
    endloop
  endfacet
  facet normal -0.980784 0.195096 0
    outer loop
       vertex -0.1177 0.064705 0
       vertex -0.12408 0.0326315 0
       vertex -0.12408 0.0326315 0.1
    endloop
  endfacet
  facet normal -0.980784 0.195096 0
    outer loop
       vertex -0.12408 0.0326315 0.1
       vertex -0.1177 0.064705 0.1
       vertex -0.1177 0.064705 0
    endloop
  endfacet
  facet normal -0.997858 0.0654098 0
    outer loop
       vertex -0.126219 8.32665e-17 0.1
       vertex -0.12408 0.0326315 0.1
       vertex -0.12408 0.0326315 0
    endloop
  endfacet
  facet normal -0.997858 0.0654098 -1.0893e-16
    outer loop
       vertex -0.12408 0.0326315 0
       vertex -0.126219 -8.32665e-17 0
       vertex -0.126219 8.32665e-17 0.1
    endloop
  endfacet
  facet normal -0.997858 -0.0654098 0
    outer loop
       vertex -0.126219 -8.32665e-17 0
       vertex -0.12408 -0.0326315 0
       vertex -0.12408 -0.0326315 0.1
    endloop
  endfacet
  facet normal -0.997858 -0.0654098 1.0893e-16
    outer loop
       vertex -0.12408 -0.0326315 0.1
       vertex -0.126219 8.32665e-17 0.1
       vertex -0.126219 -8.32665e-17 0
    endloop
  endfacet
  facet normal -0.980784 -0.195096 0
    outer loop
       vertex -0.12408 -0.0326315 0
       vertex -0.1177 -0.064705 0
       vertex -0.1177 -0.064705 0.1
    endloop
  endfacet
  facet normal -0.980784 -0.195096 0
    outer loop
       vertex -0.1177 -0.064705 0.1
       vertex -0.12408 -0.0326315 0.1
       vertex -0.12408 -0.0326315 0
    endloop
  endfacet
  facet normal -0.946935 -0.321425 0
    outer loop
       vertex -0.1177 -0.064705 0
       vertex -0.107189 -0.095671 0
       vertex -0.107189 -0.095671 0.1
    endloop
  endfacet
  facet normal -0.946935 -0.321425 0
    outer loop
       vertex -0.107189 -0.095671 0.1
       vertex -0.1177 -0.064705 0.1
       vertex -0.1177 -0.064705 0
    endloop
  endfacet
  facet normal -0.896866 -0.442302 0
    outer loop
       vertex -0.107189 -0.095671 0
       vertex -0.0927252 -0.125 0
       vertex -0.0927252 -0.125 0.1
    endloop
  endfacet
  facet normal -0.896866 -0.442302 0
    outer loop
       vertex -0.0927252 -0.125 0.1
       vertex -0.107189 -0.095671 0.1
       vertex -0.107189 -0.095671 0
    endloop
  endfacet
  facet normal -0.831476 -0.555561 0
    outer loop
       vertex -0.0927252 -0.125 0
       vertex -0.0745572 -0.152191 0
       vertex -0.0745572 -0.152191 0.1
    endloop
  endfacet
  facet normal -0.831476 -0.555561 0
    outer loop
       vertex -0.0745572 -0.152191 0.1
       vertex -0.0927252 -0.125 0.1
       vertex -0.0927252 -0.125 0
    endloop
  endfacet
  facet normal -0.751817 -0.659372 0
    outer loop
       vertex -0.0745572 -0.152191 0
       vertex -0.0529952 -0.176776 0
       vertex -0.0529952 -0.176776 0.1
    endloop
  endfacet
  facet normal -0.751817 -0.659372 0
    outer loop
       vertex -0.0529952 -0.176776 0.1
       vertex -0.0745572 -0.152191 0.1
       vertex -0.0745572 -0.152191 0
    endloop
  endfacet
  facet normal 0.659372 -0.751817 0
    outer loop
       vertex 0.300557 -0.176776 0
       vertex 0.300557 -0.176776 0.1
       vertex 0.275972 -0.198338 0.1
    endloop
  endfacet
  facet normal 0.659372 -0.751817 0
    outer loop
       vertex 0.275972 -0.198338 0.1
       vertex 0.275972 -0.198338 0
       vertex 0.300557 -0.176776 0
    endloop
  endfacet
  facet normal 0.555561 -0.831476 0
    outer loop
       vertex 0.275972 -0.198338 0
       vertex 0.275972 -0.198338 0.1
       vertex 0.248781 -0.216506 0.1
    endloop
  endfacet
  facet normal 0.555561 -0.831476 0
    outer loop
       vertex 0.248781 -0.216506 0.1
       vertex 0.248781 -0.216506 0
       vertex 0.275972 -0.198338 0
    endloop
  endfacet
  facet normal 0.442302 -0.896866 0
    outer loop
       vertex 0.248781 -0.216506 0
       vertex 0.248781 -0.216506 0.1
       vertex 0.219452 -0.23097 0.1
    endloop
  endfacet
  facet normal 0.442302 -0.896866 0
    outer loop
       vertex 0.219452 -0.23097 0.1
       vertex 0.219452 -0.23097 0
       vertex 0.248781 -0.216506 0
    endloop
  endfacet
  facet normal 0.321425 -0.946935 0
    outer loop
       vertex 0.219452 -0.23097 0
       vertex 0.219452 -0.23097 0.1
       vertex 0.188486 -0.241481 0.1
    endloop
  endfacet
  facet normal 0.321425 -0.946935 0
    outer loop
       vertex 0.188486 -0.241481 0.1
       vertex 0.188486 -0.241481 0
       vertex 0.219452 -0.23097 0
    endloop
  endfacet
  facet normal 0.195096 -0.980784 0
    outer loop
       vertex 0.188486 -0.241481 0
       vertex 0.188486 -0.241481 0.1
       vertex 0.156412 -0.247861 0.1
    endloop
  endfacet
  facet normal 0.195096 -0.980784 0
    outer loop
       vertex 0.156412 -0.247861 0.1
       vertex 0.156412 -0.247861 0
       vertex 0.188486 -0.241481 0
    endloop
  endfacet
  facet normal 0.0654098 -0.997858 0
    outer loop
       vertex 0.123781 -0.25 0
       vertex 0.156412 -0.247861 0
       vertex 0.156412 -0.247861 0.1
    endloop
  endfacet
  facet normal 0.0654098 -0.997858 1.08928e-16
    outer loop
       vertex 0.156412 -0.247861 0.1
       vertex 0.123781 -0.25 0.1
       vertex 0.123781 -0.25 0
    endloop
  endfacet
  facet normal -0.0654098 -0.997858 0
    outer loop
       vertex 0.123781 -0.25 0.1
       vertex 0.0911493 -0.247861 0.1
       vertex 0.0911493 -0.247861 0
    endloop
  endfacet
  facet normal -0.0654098 -0.997858 -1.08928e-16
    outer loop
       vertex 0.0911493 -0.247861 0
       vertex 0.123781 -0.25 0
       vertex 0.123781 -0.25 0.1
    endloop
  endfacet
  facet normal -0.195096 -0.980784 0
    outer loop
       vertex 0.0911493 -0.247861 0
       vertex 0.0911493 -0.247861 0.1
       vertex 0.0590758 -0.241481 0.1
    endloop
  endfacet
  facet normal -0.195096 -0.980784 -0
    outer loop
       vertex 0.0590758 -0.241481 0.1
       vertex 0.0590758 -0.241481 0
       vertex 0.0911493 -0.247861 0
    endloop
  endfacet
  facet normal -0.321425 -0.946935 0
    outer loop
       vertex 0.0590758 -0.241481 0
       vertex 0.0590758 -0.241481 0.1
       vertex 0.0281098 -0.23097 0.1
    endloop
  endfacet
  facet normal -0.321425 -0.946935 -0
    outer loop
       vertex 0.0281098 -0.23097 0.1
       vertex 0.0281098 -0.23097 0
       vertex 0.0590758 -0.241481 0
    endloop
  endfacet
  facet normal -0.442302 -0.896866 0
    outer loop
       vertex 0.0281098 -0.23097 0
       vertex 0.0281098 -0.23097 0.1
       vertex -0.00121925 -0.216506 0.1
    endloop
  endfacet
  facet normal -0.442302 -0.896866 -0
    outer loop
       vertex -0.00121925 -0.216506 0.1
       vertex -0.00121925 -0.216506 0
       vertex 0.0281098 -0.23097 0
    endloop
  endfacet
  facet normal -0.555561 -0.831476 0
    outer loop
       vertex -0.00121925 -0.216506 0
       vertex -0.00121925 -0.216506 0.1
       vertex -0.0284102 -0.198338 0.1
    endloop
  endfacet
  facet normal -0.555561 -0.831476 -0
    outer loop
       vertex -0.0284102 -0.198338 0.1
       vertex -0.0284102 -0.198338 0
       vertex -0.00121925 -0.216506 0
    endloop
  endfacet
  facet normal -0.659372 -0.751817 0
    outer loop
       vertex -0.0284102 -0.198338 0
       vertex -0.0284102 -0.198338 0.1
       vertex -0.0529952 -0.176776 0.1
    endloop
  endfacet
  facet normal -0.659372 -0.751817 -0
    outer loop
       vertex -0.0529952 -0.176776 0.1
       vertex -0.0529952 -0.176776 0
       vertex -0.0284102 -0.198338 0
    endloop
  endfacet
endsolid cylinder
