solid cylinder
  facet normal 0.751817 -0.659372 0
    outer loop
       vertex 0.284388 -0.176776 0
       vertex 0.30595 -0.152191 0
       vertex 0.30595 -0.152191 0.1
    endloop
  endfacet
  facet normal 0.751817 -0.659372 0
    outer loop
       vertex 0.30595 -0.152191 0.1
       vertex 0.284388 -0.176776 0.1
       vertex 0.284388 -0.176776 0
    endloop
  endfacet
  facet normal 0.831476 -0.555561 0
    outer loop
       vertex 0.30595 -0.152191 0
       vertex 0.324118 -0.125 0
       vertex 0.324118 -0.125 0.1
    endloop
  endfacet
  facet normal 0.831476 -0.555561 0
    outer loop
       vertex 0.324118 -0.125 0.1
       vertex 0.30595 -0.152191 0.1
       vertex 0.30595 -0.152191 0
    endloop
  endfacet
  facet normal 0.896866 -0.442302 0
    outer loop
       vertex 0.324118 -0.125 0
       vertex 0.338582 -0.095671 0
       vertex 0.338582 -0.095671 0.1
    endloop
  endfacet
  facet normal 0.896866 -0.442302 0
    outer loop
       vertex 0.338582 -0.095671 0.1
       vertex 0.324118 -0.125 0.1
       vertex 0.324118 -0.125 0
    endloop
  endfacet
  facet normal 0.946935 -0.321425 0
    outer loop
       vertex 0.338582 -0.095671 0
       vertex 0.349093 -0.064705 0
       vertex 0.349093 -0.064705 0.1
    endloop
  endfacet
  facet normal 0.946935 -0.321425 0
    outer loop
       vertex 0.349093 -0.064705 0.1
       vertex 0.338582 -0.095671 0.1
       vertex 0.338582 -0.095671 0
    endloop
  endfacet
  facet normal 0.980784 -0.195096 0
    outer loop
       vertex 0.349093 -0.064705 0
       vertex 0.355473 -0.0326315 0
       vertex 0.355473 -0.0326315 0.1
    endloop
  endfacet
  facet normal 0.980784 -0.195096 0
    outer loop
       vertex 0.355473 -0.0326315 0.1
       vertex 0.349093 -0.064705 0.1
       vertex 0.349093 -0.064705 0
    endloop
  endfacet
  facet normal 0.997858 -0.0654098 0
    outer loop
       vertex 0.357612 -8.32665e-17 0.1
       vertex 0.355473 -0.0326315 0.1
       vertex 0.355473 -0.0326315 0
    endloop
  endfacet
  facet normal 0.997858 -0.0654098 -1.08928e-16
    outer loop
       vertex 0.355473 -0.0326315 0
       vertex 0.357612 8.32665e-17 0
       vertex 0.357612 -8.32665e-17 0.1
    endloop
  endfacet
  facet normal 0.997858 0.0654098 0
    outer loop
       vertex 0.357612 8.32665e-17 0
       vertex 0.355473 0.0326315 0
       vertex 0.355473 0.0326315 0.1
    endloop
  endfacet
  facet normal 0.997858 0.0654098 1.08928e-16
    outer loop
       vertex 0.355473 0.0326315 0.1
       vertex 0.357612 -8.32665e-17 0.1
       vertex 0.357612 8.32665e-17 0
    endloop
  endfacet
  facet normal 0.980784 0.195096 0
    outer loop
       vertex 0.355473 0.0326315 0
       vertex 0.349093 0.064705 0
       vertex 0.349093 0.064705 0.1
    endloop
  endfacet
  facet normal 0.980784 0.195096 0
    outer loop
       vertex 0.349093 0.064705 0.1
       vertex 0.355473 0.0326315 0.1
       vertex 0.355473 0.0326315 0
    endloop
  endfacet
  facet normal 0.946935 0.321425 0
    outer loop
       vertex 0.349093 0.064705 0
       vertex 0.338582 0.095671 0
       vertex 0.338582 0.095671 0.1
    endloop
  endfacet
  facet normal 0.946935 0.321425 0
    outer loop
       vertex 0.338582 0.095671 0.1
       vertex 0.349093 0.064705 0.1
       vertex 0.349093 0.064705 0
    endloop
  endfacet
  facet normal 0.896866 0.442302 0
    outer loop
       vertex 0.338582 0.095671 0
       vertex 0.324118 0.125 0
       vertex 0.324118 0.125 0.1
    endloop
  endfacet
  facet normal 0.896866 0.442302 0
    outer loop
       vertex 0.324118 0.125 0.1
       vertex 0.338582 0.095671 0.1
       vertex 0.338582 0.095671 0
    endloop
  endfacet
  facet normal 0.831476 0.555561 0
    outer loop
       vertex 0.324118 0.125 0
       vertex 0.30595 0.152191 0
       vertex 0.30595 0.152191 0.1
    endloop
  endfacet
  facet normal 0.831476 0.555561 0
    outer loop
       vertex 0.30595 0.152191 0.1
       vertex 0.324118 0.125 0.1
       vertex 0.324118 0.125 0
    endloop
  endfacet
  facet normal 0.751817 0.659372 0
    outer loop
       vertex 0.30595 0.152191 0
       vertex 0.284388 0.176776 0
       vertex 0.284388 0.176776 0.1
    endloop
  endfacet
  facet normal 0.751817 0.659372 0
    outer loop
       vertex 0.284388 0.176776 0.1
       vertex 0.30595 0.152191 0.1
       vertex 0.30595 0.152191 0
    endloop
  endfacet
  facet normal 0.659372 0.751817 0
    outer loop
       vertex 0.284388 0.176776 0
       vertex 0.259803 0.198338 0
       vertex 0.259803 0.198338 0.1
    endloop
  endfacet
  facet normal 0.659372 0.751817 0
    outer loop
       vertex 0.259803 0.198338 0.1
       vertex 0.284388 0.176776 0.1
       vertex 0.284388 0.176776 0
    endloop
  endfacet
  facet normal 0.555561 0.831476 0
    outer loop
       vertex 0.259803 0.198338 0
       vertex 0.232612 0.216506 0
       vertex 0.232612 0.216506 0.1
    endloop
  endfacet
  facet normal 0.555561 0.831476 0
    outer loop
       vertex 0.232612 0.216506 0.1
       vertex 0.259803 0.198338 0.1
       vertex 0.259803 0.198338 0
    endloop
  endfacet
  facet normal 0.442302 0.896866 0
    outer loop
       vertex 0.232612 0.216506 0
       vertex 0.203283 0.23097 0
       vertex 0.203283 0.23097 0.1
    endloop
  endfacet
  facet normal 0.442302 0.896866 0
    outer loop
       vertex 0.203283 0.23097 0.1
       vertex 0.232612 0.216506 0.1
       vertex 0.232612 0.216506 0
    endloop
  endfacet
  facet normal 0.321425 0.946935 0
    outer loop
       vertex 0.203283 0.23097 0
       vertex 0.172317 0.241481 0
       vertex 0.172317 0.241481 0.1
    endloop
  endfacet
  facet normal 0.321425 0.946935 0
    outer loop
       vertex 0.172317 0.241481 0.1
       vertex 0.203283 0.23097 0.1
       vertex 0.203283 0.23097 0
    endloop
  endfacet
  facet normal 0.195096 0.980784 0
    outer loop
       vertex 0.172317 0.241481 0
       vertex 0.140244 0.247861 0
       vertex 0.140244 0.247861 0.1
    endloop
  endfacet
  facet normal 0.195096 0.980784 0
    outer loop
       vertex 0.140244 0.247861 0.1
       vertex 0.172317 0.241481 0.1
       vertex 0.172317 0.241481 0
    endloop
  endfacet
  facet normal 0.0654098 0.997858 0
    outer loop
       vertex 0.107612 0.25 0.1
       vertex 0.140244 0.247861 0.1
       vertex 0.140244 0.247861 0
    endloop
  endfacet
  facet normal 0.0654098 0.997858 -1.0893e-16
    outer loop
       vertex 0.140244 0.247861 0
       vertex 0.107612 0.25 0
       vertex 0.107612 0.25 0.1
    endloop
  endfacet
  facet normal -0.0654098 0.997858 0
    outer loop
       vertex 0.107612 0.25 0
       vertex 0.0749808 0.247861 0
       vertex 0.0749808 0.247861 0.1
    endloop
  endfacet
  facet normal -0.0654098 0.997858 1.0893e-16
    outer loop
       vertex 0.0749808 0.247861 0.1
       vertex 0.107612 0.25 0.1
       vertex 0.107612 0.25 0
    endloop
  endfacet
  facet normal -0.195096 0.980784 0
    outer loop
       vertex 0.0749808 0.247861 0
       vertex 0.0429073 0.241481 0
       vertex 0.0429073 0.241481 0.1
    endloop
  endfacet
  facet normal -0.195096 0.980784 0
    outer loop
       vertex 0.0429073 0.241481 0.1
       vertex 0.0749808 0.247861 0.1
       vertex 0.0749808 0.247861 0
    endloop
  endfacet
  facet normal -0.321425 0.946935 0
    outer loop
       vertex 0.0429073 0.241481 0
       vertex 0.0119413 0.23097 0
       vertex 0.0119413 0.23097 0.1
    endloop
  endfacet
  facet normal -0.321425 0.946935 0
    outer loop
       vertex 0.0119413 0.23097 0.1
       vertex 0.0429073 0.241481 0.1
       vertex 0.0429073 0.241481 0
    endloop
  endfacet
  facet normal -0.442302 0.896866 0
    outer loop
       vertex 0.0119413 0.23097 0
       vertex -0.0173877 0.216506 0
       vertex -0.0173877 0.216506 0.1
    endloop
  endfacet
  facet normal -0.442302 0.896866 0
    outer loop
       vertex -0.0173877 0.216506 0.1
       vertex 0.0119413 0.23097 0.1
       vertex 0.0119413 0.23097 0
    endloop
  endfacet
  facet normal -0.555561 0.831476 0
    outer loop
       vertex -0.0173877 0.216506 0
       vertex -0.0445787 0.198338 0
       vertex -0.0445787 0.198338 0.1
    endloop
  endfacet
  facet normal -0.555561 0.831476 0
    outer loop
       vertex -0.0445787 0.198338 0.1
       vertex -0.0173877 0.216506 0.1
       vertex -0.0173877 0.216506 0
    endloop
  endfacet
  facet normal -0.659372 0.751817 0
    outer loop
       vertex -0.0445787 0.198338 0
       vertex -0.0691637 0.176776 0
       vertex -0.0691637 0.176776 0.1
    endloop
  endfacet
  facet normal -0.659372 0.751817 0
    outer loop
       vertex -0.0691637 0.176776 0.1
       vertex -0.0445787 0.198338 0.1
       vertex -0.0445787 0.198338 0
    endloop
  endfacet
  facet normal -0.751817 0.659372 0
    outer loop
       vertex -0.0691637 0.176776 0
       vertex -0.0907257 0.152191 0
       vertex -0.0907257 0.152191 0.1
    endloop
  endfacet
  facet normal -0.751817 0.659372 0
    outer loop
       vertex -0.0907257 0.152191 0.1
       vertex -0.0691637 0.176776 0.1
       vertex -0.0691637 0.176776 0
    endloop
  endfacet
  facet normal -0.831476 0.555561 0
    outer loop
       vertex -0.0907257 0.152191 0
       vertex -0.108894 0.125 0
       vertex -0.108894 0.125 0.1
    endloop
  endfacet
  facet normal -0.831476 0.555561 0
    outer loop
       vertex -0.108894 0.125 0.1
       vertex -0.0907257 0.152191 0.1
       vertex -0.0907257 0.152191 0
    endloop
  endfacet
  facet normal -0.896866 0.442302 0
    outer loop
       vertex -0.108894 0.125 0
       vertex -0.123358 0.095671 0
       vertex -0.123358 0.095671 0.1
    endloop
  endfacet
  facet normal -0.896866 0.442302 0
    outer loop
       vertex -0.123358 0.095671 0.1
       vertex -0.108894 0.125 0.1
       vertex -0.108894 0.125 0
    endloop
  endfacet
  facet normal -0.946935 0.321425 0
    outer loop
       vertex -0.123358 0.095671 0
       vertex -0.133869 0.064705 0
       vertex -0.133869 0.064705 0.1
    endloop
  endfacet
  facet normal -0.946935 0.321425 0
    outer loop
       vertex -0.133869 0.064705 0.1
       vertex -0.123358 0.095671 0.1
       vertex -0.123358 0.095671 0
    endloop
  endfacet
  facet normal -0.980784 0.195096 0
    outer loop
       vertex -0.133869 0.064705 0
       vertex -0.140249 0.0326315 0
       vertex -0.140249 0.0326315 0.1
    endloop
  endfacet
  facet normal -0.980784 0.195096 0
    outer loop
       vertex -0.140249 0.0326315 0.1
       vertex -0.133869 0.064705 0.1
       vertex -0.133869 0.064705 0
    endloop
  endfacet
  facet normal -0.997858 0.0654098 0
    outer loop
       vertex -0.142388 8.32665e-17 0.1
       vertex -0.140249 0.0326315 0.1
       vertex -0.140249 0.0326315 0
    endloop
  endfacet
  facet normal -0.997858 0.0654098 -1.08928e-16
    outer loop
       vertex -0.140249 0.0326315 0
       vertex -0.142388 -8.32665e-17 0
       vertex -0.142388 8.32665e-17 0.1
    endloop
  endfacet
  facet normal -0.997858 -0.0654098 0
    outer loop
       vertex -0.142388 -8.32665e-17 0
       vertex -0.140249 -0.0326315 0
       vertex -0.140249 -0.0326315 0.1
    endloop
  endfacet
  facet normal -0.997858 -0.0654098 1.08928e-16
    outer loop
       vertex -0.140249 -0.0326315 0.1
       vertex -0.142388 8.32665e-17 0.1
       vertex -0.142388 -8.32665e-17 0
    endloop
  endfacet
  facet normal -0.980784 -0.195096 0
    outer loop
       vertex -0.140249 -0.0326315 0
       vertex -0.133869 -0.064705 0
       vertex -0.133869 -0.064705 0.1
    endloop
  endfacet
  facet normal -0.980784 -0.195096 0
    outer loop
       vertex -0.133869 -0.064705 0.1
       vertex -0.140249 -0.0326315 0.1
       vertex -0.140249 -0.0326315 0
    endloop
  endfacet
  facet normal -0.946935 -0.321425 0
    outer loop
       vertex -0.133869 -0.064705 0
       vertex -0.123358 -0.095671 0
       vertex -0.123358 -0.095671 0.1
    endloop
  endfacet
  facet normal -0.946935 -0.321425 0
    outer loop
       vertex -0.123358 -0.095671 0.1
       vertex -0.133869 -0.064705 0.1
       vertex -0.133869 -0.064705 0
    endloop
  endfacet
  facet normal -0.896866 -0.442302 0
    outer loop
       vertex -0.123358 -0.095671 0
       vertex -0.108894 -0.125 0
       vertex -0.108894 -0.125 0.1
    endloop
  endfacet
  facet normal -0.896866 -0.442302 0
    outer loop
       vertex -0.108894 -0.125 0.1
       vertex -0.123358 -0.095671 0.1
       vertex -0.123358 -0.095671 0
    endloop
  endfacet
  facet normal -0.831476 -0.555561 0
    outer loop
       vertex -0.108894 -0.125 0
       vertex -0.0907257 -0.152191 0
       vertex -0.0907257 -0.152191 0.1
    endloop
  endfacet
  facet normal -0.831476 -0.555561 0
    outer loop
       vertex -0.0907257 -0.152191 0.1
       vertex -0.108894 -0.125 0.1
       vertex -0.108894 -0.125 0
    endloop
  endfacet
  facet normal -0.751817 -0.659372 0
    outer loop
       vertex -0.0907257 -0.152191 0
       vertex -0.0691637 -0.176776 0
       vertex -0.0691637 -0.176776 0.1
    endloop
  endfacet
  facet normal -0.751817 -0.659372 0
    outer loop
       vertex -0.0691637 -0.176776 0.1
       vertex -0.0907257 -0.152191 0.1
       vertex -0.0907257 -0.152191 0
    endloop
  endfacet
  facet normal 0.659372 -0.751817 0
    outer loop
       vertex 0.284388 -0.176776 0
       vertex 0.284388 -0.176776 0.1
       vertex 0.259803 -0.198338 0.1
    endloop
  endfacet
  facet normal 0.659372 -0.751817 0
    outer loop
       vertex 0.259803 -0.198338 0.1
       vertex 0.259803 -0.198338 0
       vertex 0.284388 -0.176776 0
    endloop
  endfacet
  facet normal 0.555561 -0.831476 0
    outer loop
       vertex 0.259803 -0.198338 0
       vertex 0.259803 -0.198338 0.1
       vertex 0.232612 -0.216506 0.1
    endloop
  endfacet
  facet normal 0.555561 -0.831476 0
    outer loop
       vertex 0.232612 -0.216506 0.1
       vertex 0.232612 -0.216506 0
       vertex 0.259803 -0.198338 0
    endloop
  endfacet
  facet normal 0.442302 -0.896866 0
    outer loop
       vertex 0.232612 -0.216506 0
       vertex 0.232612 -0.216506 0.1
       vertex 0.203283 -0.23097 0.1
    endloop
  endfacet
  facet normal 0.442302 -0.896866 0
    outer loop
       vertex 0.203283 -0.23097 0.1
       vertex 0.203283 -0.23097 0
       vertex 0.232612 -0.216506 0
    endloop
  endfacet
  facet normal 0.321425 -0.946935 0
    outer loop
       vertex 0.203283 -0.23097 0
       vertex 0.203283 -0.23097 0.1
       vertex 0.172317 -0.241481 0.1
    endloop
  endfacet
  facet normal 0.321425 -0.946935 0
    outer loop
       vertex 0.172317 -0.241481 0.1
       vertex 0.172317 -0.241481 0
       vertex 0.203283 -0.23097 0
    endloop
  endfacet
  facet normal 0.195096 -0.980784 0
    outer loop
       vertex 0.172317 -0.241481 0
       vertex 0.172317 -0.241481 0.1
       vertex 0.140244 -0.247861 0.1
    endloop
  endfacet
  facet normal 0.195096 -0.980784 0
    outer loop
       vertex 0.140244 -0.247861 0.1
       vertex 0.140244 -0.247861 0
       vertex 0.172317 -0.241481 0
    endloop
  endfacet
  facet normal 0.0654098 -0.997858 0
    outer loop
       vertex 0.107612 -0.25 0
       vertex 0.140244 -0.247861 0
       vertex 0.140244 -0.247861 0.1
    endloop
  endfacet
  facet normal 0.0654098 -0.997858 1.0893e-16
    outer loop
       vertex 0.140244 -0.247861 0.1
       vertex 0.107612 -0.25 0.1
       vertex 0.107612 -0.25 0
    endloop
  endfacet
  facet normal -0.0654098 -0.997858 0
    outer loop
       vertex 0.107612 -0.25 0.1
       vertex 0.0749808 -0.247861 0.1
       vertex 0.0749808 -0.247861 0
    endloop
  endfacet
  facet normal -0.0654098 -0.997858 -1.0893e-16
    outer loop
       vertex 0.0749808 -0.247861 0
       vertex 0.107612 -0.25 0
       vertex 0.107612 -0.25 0.1
    endloop
  endfacet
  facet normal -0.195096 -0.980784 0
    outer loop
       vertex 0.0749808 -0.247861 0
       vertex 0.0749808 -0.247861 0.1
       vertex 0.0429073 -0.241481 0.1
    endloop
  endfacet
  facet normal -0.195096 -0.980784 -0
    outer loop
       vertex 0.0429073 -0.241481 0.1
       vertex 0.0429073 -0.241481 0
       vertex 0.0749808 -0.247861 0
    endloop
  endfacet
  facet normal -0.321425 -0.946935 0
    outer loop
       vertex 0.0429073 -0.241481 0
       vertex 0.0429073 -0.241481 0.1
       vertex 0.0119413 -0.23097 0.1
    endloop
  endfacet
  facet normal -0.321425 -0.946935 -0
    outer loop
       vertex 0.0119413 -0.23097 0.1
       vertex 0.0119413 -0.23097 0
       vertex 0.0429073 -0.241481 0
    endloop
  endfacet
  facet normal -0.442302 -0.896866 0
    outer loop
       vertex 0.0119413 -0.23097 0
       vertex 0.0119413 -0.23097 0.1
       vertex -0.0173877 -0.216506 0.1
    endloop
  endfacet
  facet normal -0.442302 -0.896866 -0
    outer loop
       vertex -0.0173877 -0.216506 0.1
       vertex -0.0173877 -0.216506 0
       vertex 0.0119413 -0.23097 0
    endloop
  endfacet
  facet normal -0.555561 -0.831476 0
    outer loop
       vertex -0.0173877 -0.216506 0
       vertex -0.0173877 -0.216506 0.1
       vertex -0.0445787 -0.198338 0.1
    endloop
  endfacet
  facet normal -0.555561 -0.831476 -0
    outer loop
       vertex -0.0445787 -0.198338 0.1
       vertex -0.0445787 -0.198338 0
       vertex -0.0173877 -0.216506 0
    endloop
  endfacet
  facet normal -0.659372 -0.751817 0
    outer loop
       vertex -0.0445787 -0.198338 0
       vertex -0.0445787 -0.198338 0.1
       vertex -0.0691637 -0.176776 0.1
    endloop
  endfacet
  facet normal -0.659372 -0.751817 -0
    outer loop
       vertex -0.0691637 -0.176776 0.1
       vertex -0.0691637 -0.176776 0
       vertex -0.0445787 -0.198338 0
    endloop
  endfacet
endsolid cylinder
