solid cylinder
  facet normal 0.751817 -0.659372 0
    outer loop
       vertex 0.278651 -0.176776 0
       vertex 0.300213 -0.152191 0
       vertex 0.300213 -0.152191 0.1
    endloop
  endfacet
  facet normal 0.751817 -0.659372 0
    outer loop
       vertex 0.300213 -0.152191 0.1
       vertex 0.278651 -0.176776 0.1
       vertex 0.278651 -0.176776 0
    endloop
  endfacet
  facet normal 0.831476 -0.555561 0
    outer loop
       vertex 0.300213 -0.152191 0
       vertex 0.318381 -0.125 0
       vertex 0.318381 -0.125 0.1
    endloop
  endfacet
  facet normal 0.831476 -0.555561 0
    outer loop
       vertex 0.318381 -0.125 0.1
       vertex 0.300213 -0.152191 0.1
       vertex 0.300213 -0.152191 0
    endloop
  endfacet
  facet normal 0.896866 -0.442302 0
    outer loop
       vertex 0.318381 -0.125 0
       vertex 0.332845 -0.095671 0
       vertex 0.332845 -0.095671 0.1
    endloop
  endfacet
  facet normal 0.896866 -0.442302 0
    outer loop
       vertex 0.332845 -0.095671 0.1
       vertex 0.318381 -0.125 0.1
       vertex 0.318381 -0.125 0
    endloop
  endfacet
  facet normal 0.946935 -0.321425 0
    outer loop
       vertex 0.332845 -0.095671 0
       vertex 0.343356 -0.064705 0
       vertex 0.343356 -0.064705 0.1
    endloop
  endfacet
  facet normal 0.946935 -0.321425 0
    outer loop
       vertex 0.343356 -0.064705 0.1
       vertex 0.332845 -0.095671 0.1
       vertex 0.332845 -0.095671 0
    endloop
  endfacet
  facet normal 0.980784 -0.195096 0
    outer loop
       vertex 0.343356 -0.064705 0
       vertex 0.349736 -0.0326315 0
       vertex 0.349736 -0.0326315 0.1
    endloop
  endfacet
  facet normal 0.980784 -0.195096 0
    outer loop
       vertex 0.349736 -0.0326315 0.1
       vertex 0.343356 -0.064705 0.1
       vertex 0.343356 -0.064705 0
    endloop
  endfacet
  facet normal 0.997858 -0.0654098 0
    outer loop
       vertex 0.351875 -8.32665e-17 0.1
       vertex 0.349736 -0.0326315 0.1
       vertex 0.349736 -0.0326315 0
    endloop
  endfacet
  facet normal 0.997858 -0.0654098 -1.08928e-16
    outer loop
       vertex 0.349736 -0.0326315 0
       vertex 0.351875 8.32665e-17 0
       vertex 0.351875 -8.32665e-17 0.1
    endloop
  endfacet
  facet normal 0.997858 0.0654098 0
    outer loop
       vertex 0.351875 8.32665e-17 0
       vertex 0.349736 0.0326315 0
       vertex 0.349736 0.0326315 0.1
    endloop
  endfacet
  facet normal 0.997858 0.0654098 1.08928e-16
    outer loop
       vertex 0.349736 0.0326315 0.1
       vertex 0.351875 -8.32665e-17 0.1
       vertex 0.351875 8.32665e-17 0
    endloop
  endfacet
  facet normal 0.980784 0.195096 0
    outer loop
       vertex 0.349736 0.0326315 0
       vertex 0.343356 0.064705 0
       vertex 0.343356 0.064705 0.1
    endloop
  endfacet
  facet normal 0.980784 0.195096 0
    outer loop
       vertex 0.343356 0.064705 0.1
       vertex 0.349736 0.0326315 0.1
       vertex 0.349736 0.0326315 0
    endloop
  endfacet
  facet normal 0.946935 0.321425 0
    outer loop
       vertex 0.343356 0.064705 0
       vertex 0.332845 0.095671 0
       vertex 0.332845 0.095671 0.1
    endloop
  endfacet
  facet normal 0.946935 0.321425 0
    outer loop
       vertex 0.332845 0.095671 0.1
       vertex 0.343356 0.064705 0.1
       vertex 0.343356 0.064705 0
    endloop
  endfacet
  facet normal 0.896866 0.442302 0
    outer loop
       vertex 0.332845 0.095671 0
       vertex 0.318381 0.125 0
       vertex 0.318381 0.125 0.1
    endloop
  endfacet
  facet normal 0.896866 0.442302 0
    outer loop
       vertex 0.318381 0.125 0.1
       vertex 0.332845 0.095671 0.1
       vertex 0.332845 0.095671 0
    endloop
  endfacet
  facet normal 0.831476 0.555561 0
    outer loop
       vertex 0.318381 0.125 0
       vertex 0.300213 0.152191 0
       vertex 0.300213 0.152191 0.1
    endloop
  endfacet
  facet normal 0.831476 0.555561 0
    outer loop
       vertex 0.300213 0.152191 0.1
       vertex 0.318381 0.125 0.1
       vertex 0.318381 0.125 0
    endloop
  endfacet
  facet normal 0.751817 0.659372 0
    outer loop
       vertex 0.300213 0.152191 0
       vertex 0.278651 0.176776 0
       vertex 0.278651 0.176776 0.1
    endloop
  endfacet
  facet normal 0.751817 0.659372 0
    outer loop
       vertex 0.278651 0.176776 0.1
       vertex 0.300213 0.152191 0.1
       vertex 0.300213 0.152191 0
    endloop
  endfacet
  facet normal 0.659372 0.751817 0
    outer loop
       vertex 0.278651 0.176776 0
       vertex 0.254066 0.198338 0
       vertex 0.254066 0.198338 0.1
    endloop
  endfacet
  facet normal 0.659372 0.751817 0
    outer loop
       vertex 0.254066 0.198338 0.1
       vertex 0.278651 0.176776 0.1
       vertex 0.278651 0.176776 0
    endloop
  endfacet
  facet normal 0.555561 0.831476 0
    outer loop
       vertex 0.254066 0.198338 0
       vertex 0.226875 0.216506 0
       vertex 0.226875 0.216506 0.1
    endloop
  endfacet
  facet normal 0.555561 0.831476 0
    outer loop
       vertex 0.226875 0.216506 0.1
       vertex 0.254066 0.198338 0.1
       vertex 0.254066 0.198338 0
    endloop
  endfacet
  facet normal 0.442302 0.896866 0
    outer loop
       vertex 0.226875 0.216506 0
       vertex 0.197546 0.23097 0
       vertex 0.197546 0.23097 0.1
    endloop
  endfacet
  facet normal 0.442302 0.896866 0
    outer loop
       vertex 0.197546 0.23097 0.1
       vertex 0.226875 0.216506 0.1
       vertex 0.226875 0.216506 0
    endloop
  endfacet
  facet normal 0.321425 0.946935 0
    outer loop
       vertex 0.197546 0.23097 0
       vertex 0.16658 0.241481 0
       vertex 0.16658 0.241481 0.1
    endloop
  endfacet
  facet normal 0.321425 0.946935 0
    outer loop
       vertex 0.16658 0.241481 0.1
       vertex 0.197546 0.23097 0.1
       vertex 0.197546 0.23097 0
    endloop
  endfacet
  facet normal 0.195096 0.980784 0
    outer loop
       vertex 0.16658 0.241481 0
       vertex 0.134507 0.247861 0
       vertex 0.134507 0.247861 0.1
    endloop
  endfacet
  facet normal 0.195096 0.980784 0
    outer loop
       vertex 0.134507 0.247861 0.1
       vertex 0.16658 0.241481 0.1
       vertex 0.16658 0.241481 0
    endloop
  endfacet
  facet normal 0.0654098 0.997858 0
    outer loop
       vertex 0.101875 0.25 0.1
       vertex 0.134507 0.247861 0.1
       vertex 0.134507 0.247861 0
    endloop
  endfacet
  facet normal 0.0654098 0.997858 -1.0893e-16
    outer loop
       vertex 0.134507 0.247861 0
       vertex 0.101875 0.25 0
       vertex 0.101875 0.25 0.1
    endloop
  endfacet
  facet normal -0.0654098 0.997858 0
    outer loop
       vertex 0.101875 0.25 0
       vertex 0.0692437 0.247861 0
       vertex 0.0692437 0.247861 0.1
    endloop
  endfacet
  facet normal -0.0654098 0.997858 1.0893e-16
    outer loop
       vertex 0.0692437 0.247861 0.1
       vertex 0.101875 0.25 0.1
       vertex 0.101875 0.25 0
    endloop
  endfacet
  facet normal -0.195096 0.980784 0
    outer loop
       vertex 0.0692437 0.247861 0
       vertex 0.0371702 0.241481 0
       vertex 0.0371702 0.241481 0.1
    endloop
  endfacet
  facet normal -0.195096 0.980784 0
    outer loop
       vertex 0.0371702 0.241481 0.1
       vertex 0.0692437 0.247861 0.1
       vertex 0.0692437 0.247861 0
    endloop
  endfacet
  facet normal -0.321425 0.946935 0
    outer loop
       vertex 0.0371702 0.241481 0
       vertex 0.00620417 0.23097 0
       vertex 0.00620417 0.23097 0.1
    endloop
  endfacet
  facet normal -0.321425 0.946935 0
    outer loop
       vertex 0.00620417 0.23097 0.1
       vertex 0.0371702 0.241481 0.1
       vertex 0.0371702 0.241481 0
    endloop
  endfacet
  facet normal -0.442302 0.896866 0
    outer loop
       vertex 0.00620417 0.23097 0
       vertex -0.0231248 0.216506 0
       vertex -0.0231248 0.216506 0.1
    endloop
  endfacet
  facet normal -0.442302 0.896866 0
    outer loop
       vertex -0.0231248 0.216506 0.1
       vertex 0.00620417 0.23097 0.1
       vertex 0.00620417 0.23097 0
    endloop
  endfacet
  facet normal -0.555561 0.831476 0
    outer loop
       vertex -0.0231248 0.216506 0
       vertex -0.0503158 0.198338 0
       vertex -0.0503158 0.198338 0.1
    endloop
  endfacet
  facet normal -0.555561 0.831476 0
    outer loop
       vertex -0.0503158 0.198338 0.1
       vertex -0.0231248 0.216506 0.1
       vertex -0.0231248 0.216506 0
    endloop
  endfacet
  facet normal -0.659372 0.751817 0
    outer loop
       vertex -0.0503158 0.198338 0
       vertex -0.0749008 0.176776 0
       vertex -0.0749008 0.176776 0.1
    endloop
  endfacet
  facet normal -0.659372 0.751817 0
    outer loop
       vertex -0.0749008 0.176776 0.1
       vertex -0.0503158 0.198338 0.1
       vertex -0.0503158 0.198338 0
    endloop
  endfacet
  facet normal -0.751817 0.659372 0
    outer loop
       vertex -0.0749008 0.176776 0
       vertex -0.0964628 0.152191 0
       vertex -0.0964628 0.152191 0.1
    endloop
  endfacet
  facet normal -0.751817 0.659372 0
    outer loop
       vertex -0.0964628 0.152191 0.1
       vertex -0.0749008 0.176776 0.1
       vertex -0.0749008 0.176776 0
    endloop
  endfacet
  facet normal -0.831476 0.555561 0
    outer loop
       vertex -0.0964628 0.152191 0
       vertex -0.114631 0.125 0
       vertex -0.114631 0.125 0.1
    endloop
  endfacet
  facet normal -0.831476 0.555561 0
    outer loop
       vertex -0.114631 0.125 0.1
       vertex -0.0964628 0.152191 0.1
       vertex -0.0964628 0.152191 0
    endloop
  endfacet
  facet normal -0.896866 0.442302 0
    outer loop
       vertex -0.114631 0.125 0
       vertex -0.129095 0.095671 0
       vertex -0.129095 0.095671 0.1
    endloop
  endfacet
  facet normal -0.896866 0.442302 0
    outer loop
       vertex -0.129095 0.095671 0.1
       vertex -0.114631 0.125 0.1
       vertex -0.114631 0.125 0
    endloop
  endfacet
  facet normal -0.946935 0.321425 0
    outer loop
       vertex -0.129095 0.095671 0
       vertex -0.139606 0.064705 0
       vertex -0.139606 0.064705 0.1
    endloop
  endfacet
  facet normal -0.946935 0.321425 0
    outer loop
       vertex -0.139606 0.064705 0.1
       vertex -0.129095 0.095671 0.1
       vertex -0.129095 0.095671 0
    endloop
  endfacet
  facet normal -0.980784 0.195096 0
    outer loop
       vertex -0.139606 0.064705 0
       vertex -0.145986 0.0326315 0
       vertex -0.145986 0.0326315 0.1
    endloop
  endfacet
  facet normal -0.980784 0.195096 0
    outer loop
       vertex -0.145986 0.0326315 0.1
       vertex -0.139606 0.064705 0.1
       vertex -0.139606 0.064705 0
    endloop
  endfacet
  facet normal -0.997858 0.0654098 0
    outer loop
       vertex -0.148125 8.32665e-17 0.1
       vertex -0.145986 0.0326315 0.1
       vertex -0.145986 0.0326315 0
    endloop
  endfacet
  facet normal -0.997858 0.0654098 -1.08928e-16
    outer loop
       vertex -0.145986 0.0326315 0
       vertex -0.148125 -8.32665e-17 0
       vertex -0.148125 8.32665e-17 0.1
    endloop
  endfacet
  facet normal -0.997858 -0.0654098 0
    outer loop
       vertex -0.148125 -8.32665e-17 0
       vertex -0.145986 -0.0326315 0
       vertex -0.145986 -0.0326315 0.1
    endloop
  endfacet
  facet normal -0.997858 -0.0654098 1.08928e-16
    outer loop
       vertex -0.145986 -0.0326315 0.1
       vertex -0.148125 8.32665e-17 0.1
       vertex -0.148125 -8.32665e-17 0
    endloop
  endfacet
  facet normal -0.980784 -0.195096 0
    outer loop
       vertex -0.145986 -0.0326315 0
       vertex -0.139606 -0.064705 0
       vertex -0.139606 -0.064705 0.1
    endloop
  endfacet
  facet normal -0.980784 -0.195096 0
    outer loop
       vertex -0.139606 -0.064705 0.1
       vertex -0.145986 -0.0326315 0.1
       vertex -0.145986 -0.0326315 0
    endloop
  endfacet
  facet normal -0.946935 -0.321425 0
    outer loop
       vertex -0.139606 -0.064705 0
       vertex -0.129095 -0.095671 0
       vertex -0.129095 -0.095671 0.1
    endloop
  endfacet
  facet normal -0.946935 -0.321425 0
    outer loop
       vertex -0.129095 -0.095671 0.1
       vertex -0.139606 -0.064705 0.1
       vertex -0.139606 -0.064705 0
    endloop
  endfacet
  facet normal -0.896866 -0.442302 0
    outer loop
       vertex -0.129095 -0.095671 0
       vertex -0.114631 -0.125 0
       vertex -0.114631 -0.125 0.1
    endloop
  endfacet
  facet normal -0.896866 -0.442302 0
    outer loop
       vertex -0.114631 -0.125 0.1
       vertex -0.129095 -0.095671 0.1
       vertex -0.129095 -0.095671 0
    endloop
  endfacet
  facet normal -0.831476 -0.555561 0
    outer loop
       vertex -0.114631 -0.125 0
       vertex -0.0964628 -0.152191 0
       vertex -0.0964628 -0.152191 0.1
    endloop
  endfacet
  facet normal -0.831476 -0.555561 0
    outer loop
       vertex -0.0964628 -0.152191 0.1
       vertex -0.114631 -0.125 0.1
       vertex -0.114631 -0.125 0
    endloop
  endfacet
  facet normal -0.751817 -0.659372 0
    outer loop
       vertex -0.0964628 -0.152191 0
       vertex -0.0749008 -0.176776 0
       vertex -0.0749008 -0.176776 0.1
    endloop
  endfacet
  facet normal -0.751817 -0.659372 0
    outer loop
       vertex -0.0749008 -0.176776 0.1
       vertex -0.0964628 -0.152191 0.1
       vertex -0.0964628 -0.152191 0
    endloop
  endfacet
  facet normal 0.659372 -0.751817 0
    outer loop
       vertex 0.278651 -0.176776 0
       vertex 0.278651 -0.176776 0.1
       vertex 0.254066 -0.198338 0.1
    endloop
  endfacet
  facet normal 0.659372 -0.751817 0
    outer loop
       vertex 0.254066 -0.198338 0.1
       vertex 0.254066 -0.198338 0
       vertex 0.278651 -0.176776 0
    endloop
  endfacet
  facet normal 0.555561 -0.831476 0
    outer loop
       vertex 0.254066 -0.198338 0
       vertex 0.254066 -0.198338 0.1
       vertex 0.226875 -0.216506 0.1
    endloop
  endfacet
  facet normal 0.555561 -0.831476 0
    outer loop
       vertex 0.226875 -0.216506 0.1
       vertex 0.226875 -0.216506 0
       vertex 0.254066 -0.198338 0
    endloop
  endfacet
  facet normal 0.442302 -0.896866 0
    outer loop
       vertex 0.226875 -0.216506 0
       vertex 0.226875 -0.216506 0.1
       vertex 0.197546 -0.23097 0.1
    endloop
  endfacet
  facet normal 0.442302 -0.896866 0
    outer loop
       vertex 0.197546 -0.23097 0.1
       vertex 0.197546 -0.23097 0
       vertex 0.226875 -0.216506 0
    endloop
  endfacet
  facet normal 0.321425 -0.946935 0
    outer loop
       vertex 0.197546 -0.23097 0
       vertex 0.197546 -0.23097 0.1
       vertex 0.16658 -0.241481 0.1
    endloop
  endfacet
  facet normal 0.321425 -0.946935 0
    outer loop
       vertex 0.16658 -0.241481 0.1
       vertex 0.16658 -0.241481 0
       vertex 0.197546 -0.23097 0
    endloop
  endfacet
  facet normal 0.195096 -0.980784 0
    outer loop
       vertex 0.16658 -0.241481 0
       vertex 0.16658 -0.241481 0.1
       vertex 0.134507 -0.247861 0.1
    endloop
  endfacet
  facet normal 0.195096 -0.980784 0
    outer loop
       vertex 0.134507 -0.247861 0.1
       vertex 0.134507 -0.247861 0
       vertex 0.16658 -0.241481 0
    endloop
  endfacet
  facet normal 0.0654098 -0.997858 0
    outer loop
       vertex 0.101875 -0.25 0
       vertex 0.134507 -0.247861 0
       vertex 0.134507 -0.247861 0.1
    endloop
  endfacet
  facet normal 0.0654098 -0.997858 1.0893e-16
    outer loop
       vertex 0.134507 -0.247861 0.1
       vertex 0.101875 -0.25 0.1
       vertex 0.101875 -0.25 0
    endloop
  endfacet
  facet normal -0.0654098 -0.997858 0
    outer loop
       vertex 0.101875 -0.25 0.1
       vertex 0.0692437 -0.247861 0.1
       vertex 0.0692437 -0.247861 0
    endloop
  endfacet
  facet normal -0.0654098 -0.997858 -1.0893e-16
    outer loop
       vertex 0.0692437 -0.247861 0
       vertex 0.101875 -0.25 0
       vertex 0.101875 -0.25 0.1
    endloop
  endfacet
  facet normal -0.195096 -0.980784 0
    outer loop
       vertex 0.0692437 -0.247861 0
       vertex 0.0692437 -0.247861 0.1
       vertex 0.0371702 -0.241481 0.1
    endloop
  endfacet
  facet normal -0.195096 -0.980784 -0
    outer loop
       vertex 0.0371702 -0.241481 0.1
       vertex 0.0371702 -0.241481 0
       vertex 0.0692437 -0.247861 0
    endloop
  endfacet
  facet normal -0.321425 -0.946935 0
    outer loop
       vertex 0.0371702 -0.241481 0
       vertex 0.0371702 -0.241481 0.1
       vertex 0.00620417 -0.23097 0.1
    endloop
  endfacet
  facet normal -0.321425 -0.946935 -0
    outer loop
       vertex 0.00620417 -0.23097 0.1
       vertex 0.00620417 -0.23097 0
       vertex 0.0371702 -0.241481 0
    endloop
  endfacet
  facet normal -0.442302 -0.896866 0
    outer loop
       vertex 0.00620417 -0.23097 0
       vertex 0.00620417 -0.23097 0.1
       vertex -0.0231248 -0.216506 0.1
    endloop
  endfacet
  facet normal -0.442302 -0.896866 -0
    outer loop
       vertex -0.0231248 -0.216506 0.1
       vertex -0.0231248 -0.216506 0
       vertex 0.00620417 -0.23097 0
    endloop
  endfacet
  facet normal -0.555561 -0.831476 0
    outer loop
       vertex -0.0231248 -0.216506 0
       vertex -0.0231248 -0.216506 0.1
       vertex -0.0503158 -0.198338 0.1
    endloop
  endfacet
  facet normal -0.555561 -0.831476 -0
    outer loop
       vertex -0.0503158 -0.198338 0.1
       vertex -0.0503158 -0.198338 0
       vertex -0.0231248 -0.216506 0
    endloop
  endfacet
  facet normal -0.659372 -0.751817 0
    outer loop
       vertex -0.0503158 -0.198338 0
       vertex -0.0503158 -0.198338 0.1
       vertex -0.0749008 -0.176776 0.1
    endloop
  endfacet
  facet normal -0.659372 -0.751817 -0
    outer loop
       vertex -0.0749008 -0.176776 0.1
       vertex -0.0749008 -0.176776 0
       vertex -0.0503158 -0.198338 0
    endloop
  endfacet
endsolid cylinder
