solid cylinder
  facet normal 0.751817 -0.659372 0
    outer loop
       vertex 0.0912802 -0.176776 0
       vertex 0.112842 -0.152191 0
       vertex 0.112842 -0.152191 0.1
    endloop
  endfacet
  facet normal 0.751817 -0.659372 0
    outer loop
       vertex 0.112842 -0.152191 0.1
       vertex 0.0912802 -0.176776 0.1
       vertex 0.0912802 -0.176776 0
    endloop
  endfacet
  facet normal 0.831476 -0.555561 0
    outer loop
       vertex 0.112842 -0.152191 0
       vertex 0.13101 -0.125 0
       vertex 0.13101 -0.125 0.1
    endloop
  endfacet
  facet normal 0.831476 -0.555561 0
    outer loop
       vertex 0.13101 -0.125 0.1
       vertex 0.112842 -0.152191 0.1
       vertex 0.112842 -0.152191 0
    endloop
  endfacet
  facet normal 0.896866 -0.442302 0
    outer loop
       vertex 0.13101 -0.125 0
       vertex 0.145474 -0.095671 0
       vertex 0.145474 -0.095671 0.1
    endloop
  endfacet
  facet normal 0.896866 -0.442302 0
    outer loop
       vertex 0.145474 -0.095671 0.1
       vertex 0.13101 -0.125 0.1
       vertex 0.13101 -0.125 0
    endloop
  endfacet
  facet normal 0.946935 -0.321425 0
    outer loop
       vertex 0.145474 -0.095671 0
       vertex 0.155985 -0.064705 0
       vertex 0.155985 -0.064705 0.1
    endloop
  endfacet
  facet normal 0.946935 -0.321425 0
    outer loop
       vertex 0.155985 -0.064705 0.1
       vertex 0.145474 -0.095671 0.1
       vertex 0.145474 -0.095671 0
    endloop
  endfacet
  facet normal 0.980784 -0.195096 0
    outer loop
       vertex 0.155985 -0.064705 0
       vertex 0.162365 -0.0326315 0
       vertex 0.162365 -0.0326315 0.1
    endloop
  endfacet
  facet normal 0.980784 -0.195096 0
    outer loop
       vertex 0.162365 -0.0326315 0.1
       vertex 0.155985 -0.064705 0.1
       vertex 0.155985 -0.064705 0
    endloop
  endfacet
  facet normal 0.997858 -0.0654098 0
    outer loop
       vertex 0.164504 -8.32665e-17 0.1
       vertex 0.162365 -0.0326315 0.1
       vertex 0.162365 -0.0326315 0
    endloop
  endfacet
  facet normal 0.997858 -0.0654098 -1.08928e-16
    outer loop
       vertex 0.162365 -0.0326315 0
       vertex 0.164504 8.32665e-17 0
       vertex 0.164504 -8.32665e-17 0.1
    endloop
  endfacet
  facet normal 0.997858 0.0654098 0
    outer loop
       vertex 0.164504 8.32665e-17 0
       vertex 0.162365 0.0326315 0
       vertex 0.162365 0.0326315 0.1
    endloop
  endfacet
  facet normal 0.997858 0.0654098 1.08928e-16
    outer loop
       vertex 0.162365 0.0326315 0.1
       vertex 0.164504 -8.32665e-17 0.1
       vertex 0.164504 8.32665e-17 0
    endloop
  endfacet
  facet normal 0.980784 0.195096 0
    outer loop
       vertex 0.162365 0.0326315 0
       vertex 0.155985 0.064705 0
       vertex 0.155985 0.064705 0.1
    endloop
  endfacet
  facet normal 0.980784 0.195096 0
    outer loop
       vertex 0.155985 0.064705 0.1
       vertex 0.162365 0.0326315 0.1
       vertex 0.162365 0.0326315 0
    endloop
  endfacet
  facet normal 0.946935 0.321425 0
    outer loop
       vertex 0.155985 0.064705 0
       vertex 0.145474 0.095671 0
       vertex 0.145474 0.095671 0.1
    endloop
  endfacet
  facet normal 0.946935 0.321425 0
    outer loop
       vertex 0.145474 0.095671 0.1
       vertex 0.155985 0.064705 0.1
       vertex 0.155985 0.064705 0
    endloop
  endfacet
  facet normal 0.896866 0.442302 0
    outer loop
       vertex 0.145474 0.095671 0
       vertex 0.13101 0.125 0
       vertex 0.13101 0.125 0.1
    endloop
  endfacet
  facet normal 0.896866 0.442302 0
    outer loop
       vertex 0.13101 0.125 0.1
       vertex 0.145474 0.095671 0.1
       vertex 0.145474 0.095671 0
    endloop
  endfacet
  facet normal 0.831476 0.555561 0
    outer loop
       vertex 0.13101 0.125 0
       vertex 0.112842 0.152191 0
       vertex 0.112842 0.152191 0.1
    endloop
  endfacet
  facet normal 0.831476 0.555561 0
    outer loop
       vertex 0.112842 0.152191 0.1
       vertex 0.13101 0.125 0.1
       vertex 0.13101 0.125 0
    endloop
  endfacet
  facet normal 0.751817 0.659372 0
    outer loop
       vertex 0.112842 0.152191 0
       vertex 0.0912802 0.176776 0
       vertex 0.0912802 0.176776 0.1
    endloop
  endfacet
  facet normal 0.751817 0.659372 0
    outer loop
       vertex 0.0912802 0.176776 0.1
       vertex 0.112842 0.152191 0.1
       vertex 0.112842 0.152191 0
    endloop
  endfacet
  facet normal 0.659372 0.751817 0
    outer loop
       vertex 0.0912802 0.176776 0
       vertex 0.0666952 0.198338 0
       vertex 0.0666952 0.198338 0.1
    endloop
  endfacet
  facet normal 0.659372 0.751817 0
    outer loop
       vertex 0.0666952 0.198338 0.1
       vertex 0.0912802 0.176776 0.1
       vertex 0.0912802 0.176776 0
    endloop
  endfacet
  facet normal 0.555561 0.831476 0
    outer loop
       vertex 0.0666952 0.198338 0
       vertex 0.0395042 0.216506 0
       vertex 0.0395042 0.216506 0.1
    endloop
  endfacet
  facet normal 0.555561 0.831476 0
    outer loop
       vertex 0.0395042 0.216506 0.1
       vertex 0.0666952 0.198338 0.1
       vertex 0.0666952 0.198338 0
    endloop
  endfacet
  facet normal 0.442302 0.896866 0
    outer loop
       vertex 0.0395042 0.216506 0
       vertex 0.0101752 0.23097 0
       vertex 0.0101752 0.23097 0.1
    endloop
  endfacet
  facet normal 0.442302 0.896866 0
    outer loop
       vertex 0.0101752 0.23097 0.1
       vertex 0.0395042 0.216506 0.1
       vertex 0.0395042 0.216506 0
    endloop
  endfacet
  facet normal 0.321425 0.946935 0
    outer loop
       vertex 0.0101752 0.23097 0
       vertex -0.0207908 0.241481 0
       vertex -0.0207908 0.241481 0.1
    endloop
  endfacet
  facet normal 0.321425 0.946935 0
    outer loop
       vertex -0.0207908 0.241481 0.1
       vertex 0.0101752 0.23097 0.1
       vertex 0.0101752 0.23097 0
    endloop
  endfacet
  facet normal 0.195096 0.980784 0
    outer loop
       vertex -0.0207908 0.241481 0
       vertex -0.0528643 0.247861 0
       vertex -0.0528643 0.247861 0.1
    endloop
  endfacet
  facet normal 0.195096 0.980784 0
    outer loop
       vertex -0.0528643 0.247861 0.1
       vertex -0.0207908 0.241481 0.1
       vertex -0.0207908 0.241481 0
    endloop
  endfacet
  facet normal 0.0654098 0.997858 0
    outer loop
       vertex -0.0854958 0.25 0.1
       vertex -0.0528643 0.247861 0.1
       vertex -0.0528643 0.247861 0
    endloop
  endfacet
  facet normal 0.0654098 0.997858 -1.08928e-16
    outer loop
       vertex -0.0528643 0.247861 0
       vertex -0.0854958 0.25 0
       vertex -0.0854958 0.25 0.1
    endloop
  endfacet
  facet normal -0.0654098 0.997858 0
    outer loop
       vertex -0.0854958 0.25 0
       vertex -0.118127 0.247861 0
       vertex -0.118127 0.247861 0.1
    endloop
  endfacet
  facet normal -0.0654098 0.997858 1.0893e-16
    outer loop
       vertex -0.118127 0.247861 0.1
       vertex -0.0854958 0.25 0.1
       vertex -0.0854958 0.25 0
    endloop
  endfacet
  facet normal -0.195096 0.980784 0
    outer loop
       vertex -0.118127 0.247861 0
       vertex -0.150201 0.241481 0
       vertex -0.150201 0.241481 0.1
    endloop
  endfacet
  facet normal -0.195096 0.980784 0
    outer loop
       vertex -0.150201 0.241481 0.1
       vertex -0.118127 0.247861 0.1
       vertex -0.118127 0.247861 0
    endloop
  endfacet
  facet normal -0.321425 0.946935 0
    outer loop
       vertex -0.150201 0.241481 0
       vertex -0.181167 0.23097 0
       vertex -0.181167 0.23097 0.1
    endloop
  endfacet
  facet normal -0.321425 0.946935 0
    outer loop
       vertex -0.181167 0.23097 0.1
       vertex -0.150201 0.241481 0.1
       vertex -0.150201 0.241481 0
    endloop
  endfacet
  facet normal -0.442302 0.896866 0
    outer loop
       vertex -0.181167 0.23097 0
       vertex -0.210496 0.216506 0
       vertex -0.210496 0.216506 0.1
    endloop
  endfacet
  facet normal -0.442302 0.896866 0
    outer loop
       vertex -0.210496 0.216506 0.1
       vertex -0.181167 0.23097 0.1
       vertex -0.181167 0.23097 0
    endloop
  endfacet
  facet normal -0.555561 0.831476 0
    outer loop
       vertex -0.210496 0.216506 0
       vertex -0.237687 0.198338 0
       vertex -0.237687 0.198338 0.1
    endloop
  endfacet
  facet normal -0.555561 0.831476 0
    outer loop
       vertex -0.237687 0.198338 0.1
       vertex -0.210496 0.216506 0.1
       vertex -0.210496 0.216506 0
    endloop
  endfacet
  facet normal -0.659372 0.751817 0
    outer loop
       vertex -0.237687 0.198338 0
       vertex -0.262272 0.176776 0
       vertex -0.262272 0.176776 0.1
    endloop
  endfacet
  facet normal -0.659372 0.751817 0
    outer loop
       vertex -0.262272 0.176776 0.1
       vertex -0.237687 0.198338 0.1
       vertex -0.237687 0.198338 0
    endloop
  endfacet
  facet normal -0.751817 0.659372 0
    outer loop
       vertex -0.262272 0.176776 0
       vertex -0.283834 0.152191 0
       vertex -0.283834 0.152191 0.1
    endloop
  endfacet
  facet normal -0.751817 0.659372 0
    outer loop
       vertex -0.283834 0.152191 0.1
       vertex -0.262272 0.176776 0.1
       vertex -0.262272 0.176776 0
    endloop
  endfacet
  facet normal -0.831476 0.555561 0
    outer loop
       vertex -0.283834 0.152191 0
       vertex -0.302002 0.125 0
       vertex -0.302002 0.125 0.1
    endloop
  endfacet
  facet normal -0.831476 0.555561 0
    outer loop
       vertex -0.302002 0.125 0.1
       vertex -0.283834 0.152191 0.1
       vertex -0.283834 0.152191 0
    endloop
  endfacet
  facet normal -0.896866 0.442302 0
    outer loop
       vertex -0.302002 0.125 0
       vertex -0.316466 0.095671 0
       vertex -0.316466 0.095671 0.1
    endloop
  endfacet
  facet normal -0.896866 0.442302 0
    outer loop
       vertex -0.316466 0.095671 0.1
       vertex -0.302002 0.125 0.1
       vertex -0.302002 0.125 0
    endloop
  endfacet
  facet normal -0.946935 0.321425 0
    outer loop
       vertex -0.316466 0.095671 0
       vertex -0.326977 0.064705 0
       vertex -0.326977 0.064705 0.1
    endloop
  endfacet
  facet normal -0.946935 0.321425 0
    outer loop
       vertex -0.326977 0.064705 0.1
       vertex -0.316466 0.095671 0.1
       vertex -0.316466 0.095671 0
    endloop
  endfacet
  facet normal -0.980784 0.195096 0
    outer loop
       vertex -0.326977 0.064705 0
       vertex -0.333357 0.0326315 0
       vertex -0.333357 0.0326315 0.1
    endloop
  endfacet
  facet normal -0.980784 0.195096 0
    outer loop
       vertex -0.333357 0.0326315 0.1
       vertex -0.326977 0.064705 0.1
       vertex -0.326977 0.064705 0
    endloop
  endfacet
  facet normal -0.997858 0.0654098 0
    outer loop
       vertex -0.335496 8.32665e-17 0.1
       vertex -0.333357 0.0326315 0.1
       vertex -0.333357 0.0326315 0
    endloop
  endfacet
  facet normal -0.997858 0.0654098 -1.08928e-16
    outer loop
       vertex -0.333357 0.0326315 0
       vertex -0.335496 -8.32665e-17 0
       vertex -0.335496 8.32665e-17 0.1
    endloop
  endfacet
  facet normal -0.997858 -0.0654098 0
    outer loop
       vertex -0.335496 -8.32665e-17 0
       vertex -0.333357 -0.0326315 0
       vertex -0.333357 -0.0326315 0.1
    endloop
  endfacet
  facet normal -0.997858 -0.0654098 1.08928e-16
    outer loop
       vertex -0.333357 -0.0326315 0.1
       vertex -0.335496 8.32665e-17 0.1
       vertex -0.335496 -8.32665e-17 0
    endloop
  endfacet
  facet normal -0.980784 -0.195096 0
    outer loop
       vertex -0.333357 -0.0326315 0
       vertex -0.326977 -0.064705 0
       vertex -0.326977 -0.064705 0.1
    endloop
  endfacet
  facet normal -0.980784 -0.195096 0
    outer loop
       vertex -0.326977 -0.064705 0.1
       vertex -0.333357 -0.0326315 0.1
       vertex -0.333357 -0.0326315 0
    endloop
  endfacet
  facet normal -0.946935 -0.321425 0
    outer loop
       vertex -0.326977 -0.064705 0
       vertex -0.316466 -0.095671 0
       vertex -0.316466 -0.095671 0.1
    endloop
  endfacet
  facet normal -0.946935 -0.321425 0
    outer loop
       vertex -0.316466 -0.095671 0.1
       vertex -0.326977 -0.064705 0.1
       vertex -0.326977 -0.064705 0
    endloop
  endfacet
  facet normal -0.896866 -0.442302 0
    outer loop
       vertex -0.316466 -0.095671 0
       vertex -0.302002 -0.125 0
       vertex -0.302002 -0.125 0.1
    endloop
  endfacet
  facet normal -0.896866 -0.442302 0
    outer loop
       vertex -0.302002 -0.125 0.1
       vertex -0.316466 -0.095671 0.1
       vertex -0.316466 -0.095671 0
    endloop
  endfacet
  facet normal -0.831476 -0.555561 0
    outer loop
       vertex -0.302002 -0.125 0
       vertex -0.283834 -0.152191 0
       vertex -0.283834 -0.152191 0.1
    endloop
  endfacet
  facet normal -0.831476 -0.555561 0
    outer loop
       vertex -0.283834 -0.152191 0.1
       vertex -0.302002 -0.125 0.1
       vertex -0.302002 -0.125 0
    endloop
  endfacet
  facet normal -0.751817 -0.659372 0
    outer loop
       vertex -0.283834 -0.152191 0
       vertex -0.262272 -0.176776 0
       vertex -0.262272 -0.176776 0.1
    endloop
  endfacet
  facet normal -0.751817 -0.659372 0
    outer loop
       vertex -0.262272 -0.176776 0.1
       vertex -0.283834 -0.152191 0.1
       vertex -0.283834 -0.152191 0
    endloop
  endfacet
  facet normal 0.659372 -0.751817 0
    outer loop
       vertex 0.0912802 -0.176776 0
       vertex 0.0912802 -0.176776 0.1
       vertex 0.0666952 -0.198338 0.1
    endloop
  endfacet
  facet normal 0.659372 -0.751817 0
    outer loop
       vertex 0.0666952 -0.198338 0.1
       vertex 0.0666952 -0.198338 0
       vertex 0.0912802 -0.176776 0
    endloop
  endfacet
  facet normal 0.555561 -0.831476 0
    outer loop
       vertex 0.0666952 -0.198338 0
       vertex 0.0666952 -0.198338 0.1
       vertex 0.0395042 -0.216506 0.1
    endloop
  endfacet
  facet normal 0.555561 -0.831476 0
    outer loop
       vertex 0.0395042 -0.216506 0.1
       vertex 0.0395042 -0.216506 0
       vertex 0.0666952 -0.198338 0
    endloop
  endfacet
  facet normal 0.442302 -0.896866 0
    outer loop
       vertex 0.0395042 -0.216506 0
       vertex 0.0395042 -0.216506 0.1
       vertex 0.0101752 -0.23097 0.1
    endloop
  endfacet
  facet normal 0.442302 -0.896866 0
    outer loop
       vertex 0.0101752 -0.23097 0.1
       vertex 0.0101752 -0.23097 0
       vertex 0.0395042 -0.216506 0
    endloop
  endfacet
  facet normal 0.321425 -0.946935 0
    outer loop
       vertex 0.0101752 -0.23097 0
       vertex 0.0101752 -0.23097 0.1
       vertex -0.0207908 -0.241481 0.1
    endloop
  endfacet
  facet normal 0.321425 -0.946935 0
    outer loop
       vertex -0.0207908 -0.241481 0.1
       vertex -0.0207908 -0.241481 0
       vertex 0.0101752 -0.23097 0
    endloop
  endfacet
  facet normal 0.195096 -0.980784 0
    outer loop
       vertex -0.0207908 -0.241481 0
       vertex -0.0207908 -0.241481 0.1
       vertex -0.0528643 -0.247861 0.1
    endloop
  endfacet
  facet normal 0.195096 -0.980784 0
    outer loop
       vertex -0.0528643 -0.247861 0.1
       vertex -0.0528643 -0.247861 0
       vertex -0.0207908 -0.241481 0
    endloop
  endfacet
  facet normal 0.0654098 -0.997858 0
    outer loop
       vertex -0.0854958 -0.25 0
       vertex -0.0528643 -0.247861 0
       vertex -0.0528643 -0.247861 0.1
    endloop
  endfacet
  facet normal 0.0654098 -0.997858 1.08928e-16
    outer loop
       vertex -0.0528643 -0.247861 0.1
       vertex -0.0854958 -0.25 0.1
       vertex -0.0854958 -0.25 0
    endloop
  endfacet
  facet normal -0.0654098 -0.997858 0
    outer loop
       vertex -0.0854958 -0.25 0.1
       vertex -0.118127 -0.247861 0.1
       vertex -0.118127 -0.247861 0
    endloop
  endfacet
  facet normal -0.0654098 -0.997858 -1.0893e-16
    outer loop
       vertex -0.118127 -0.247861 0
       vertex -0.0854958 -0.25 0
       vertex -0.0854958 -0.25 0.1
    endloop
  endfacet
  facet normal -0.195096 -0.980784 0
    outer loop
       vertex -0.118127 -0.247861 0
       vertex -0.118127 -0.247861 0.1
       vertex -0.150201 -0.241481 0.1
    endloop
  endfacet
  facet normal -0.195096 -0.980784 -0
    outer loop
       vertex -0.150201 -0.241481 0.1
       vertex -0.150201 -0.241481 0
       vertex -0.118127 -0.247861 0
    endloop
  endfacet
  facet normal -0.321425 -0.946935 0
    outer loop
       vertex -0.150201 -0.241481 0
       vertex -0.150201 -0.241481 0.1
       vertex -0.181167 -0.23097 0.1
    endloop
  endfacet
  facet normal -0.321425 -0.946935 -0
    outer loop
       vertex -0.181167 -0.23097 0.1
       vertex -0.181167 -0.23097 0
       vertex -0.150201 -0.241481 0
    endloop
  endfacet
  facet normal -0.442302 -0.896866 0
    outer loop
       vertex -0.181167 -0.23097 0
       vertex -0.181167 -0.23097 0.1
       vertex -0.210496 -0.216506 0.1
    endloop
  endfacet
  facet normal -0.442302 -0.896866 -0
    outer loop
       vertex -0.210496 -0.216506 0.1
       vertex -0.210496 -0.216506 0
       vertex -0.181167 -0.23097 0
    endloop
  endfacet
  facet normal -0.555561 -0.831476 0
    outer loop
       vertex -0.210496 -0.216506 0
       vertex -0.210496 -0.216506 0.1
       vertex -0.237687 -0.198338 0.1
    endloop
  endfacet
  facet normal -0.555561 -0.831476 -0
    outer loop
       vertex -0.237687 -0.198338 0.1
       vertex -0.237687 -0.198338 0
       vertex -0.210496 -0.216506 0
    endloop
  endfacet
  facet normal -0.659372 -0.751817 0
    outer loop
       vertex -0.237687 -0.198338 0
       vertex -0.237687 -0.198338 0.1
       vertex -0.262272 -0.176776 0.1
    endloop
  endfacet
  facet normal -0.659372 -0.751817 -0
    outer loop
       vertex -0.262272 -0.176776 0.1
       vertex -0.262272 -0.176776 0
       vertex -0.237687 -0.198338 0
    endloop
  endfacet
endsolid cylinder
