solid cylinder
  facet normal 0.751817 -0.659372 0
    outer loop
       vertex 0.270439 -0.176776 0
       vertex 0.292001 -0.152191 0
       vertex 0.292001 -0.152191 0.1
    endloop
  endfacet
  facet normal 0.751817 -0.659372 0
    outer loop
       vertex 0.292001 -0.152191 0.1
       vertex 0.270439 -0.176776 0.1
       vertex 0.270439 -0.176776 0
    endloop
  endfacet
  facet normal 0.831476 -0.555561 0
    outer loop
       vertex 0.292001 -0.152191 0
       vertex 0.310169 -0.125 0
       vertex 0.310169 -0.125 0.1
    endloop
  endfacet
  facet normal 0.831476 -0.555561 0
    outer loop
       vertex 0.310169 -0.125 0.1
       vertex 0.292001 -0.152191 0.1
       vertex 0.292001 -0.152191 0
    endloop
  endfacet
  facet normal 0.896866 -0.442302 0
    outer loop
       vertex 0.310169 -0.125 0
       vertex 0.324633 -0.095671 0
       vertex 0.324633 -0.095671 0.1
    endloop
  endfacet
  facet normal 0.896866 -0.442302 0
    outer loop
       vertex 0.324633 -0.095671 0.1
       vertex 0.310169 -0.125 0.1
       vertex 0.310169 -0.125 0
    endloop
  endfacet
  facet normal 0.946935 -0.321425 0
    outer loop
       vertex 0.324633 -0.095671 0
       vertex 0.335144 -0.064705 0
       vertex 0.335144 -0.064705 0.1
    endloop
  endfacet
  facet normal 0.946935 -0.321425 0
    outer loop
       vertex 0.335144 -0.064705 0.1
       vertex 0.324633 -0.095671 0.1
       vertex 0.324633 -0.095671 0
    endloop
  endfacet
  facet normal 0.980784 -0.195096 0
    outer loop
       vertex 0.335144 -0.064705 0
       vertex 0.341524 -0.0326315 0
       vertex 0.341524 -0.0326315 0.1
    endloop
  endfacet
  facet normal 0.980784 -0.195096 0
    outer loop
       vertex 0.341524 -0.0326315 0.1
       vertex 0.335144 -0.064705 0.1
       vertex 0.335144 -0.064705 0
    endloop
  endfacet
  facet normal 0.997858 -0.0654098 0
    outer loop
       vertex 0.343663 -8.32665e-17 0.1
       vertex 0.341524 -0.0326315 0.1
       vertex 0.341524 -0.0326315 0
    endloop
  endfacet
  facet normal 0.997858 -0.0654098 -1.08928e-16
    outer loop
       vertex 0.341524 -0.0326315 0
       vertex 0.343663 8.32665e-17 0
       vertex 0.343663 -8.32665e-17 0.1
    endloop
  endfacet
  facet normal 0.997858 0.0654098 0
    outer loop
       vertex 0.343663 8.32665e-17 0
       vertex 0.341524 0.0326315 0
       vertex 0.341524 0.0326315 0.1
    endloop
  endfacet
  facet normal 0.997858 0.0654098 1.08928e-16
    outer loop
       vertex 0.341524 0.0326315 0.1
       vertex 0.343663 -8.32665e-17 0.1
       vertex 0.343663 8.32665e-17 0
    endloop
  endfacet
  facet normal 0.980784 0.195096 0
    outer loop
       vertex 0.341524 0.0326315 0
       vertex 0.335144 0.064705 0
       vertex 0.335144 0.064705 0.1
    endloop
  endfacet
  facet normal 0.980784 0.195096 0
    outer loop
       vertex 0.335144 0.064705 0.1
       vertex 0.341524 0.0326315 0.1
       vertex 0.341524 0.0326315 0
    endloop
  endfacet
  facet normal 0.946935 0.321425 0
    outer loop
       vertex 0.335144 0.064705 0
       vertex 0.324633 0.095671 0
       vertex 0.324633 0.095671 0.1
    endloop
  endfacet
  facet normal 0.946935 0.321425 0
    outer loop
       vertex 0.324633 0.095671 0.1
       vertex 0.335144 0.064705 0.1
       vertex 0.335144 0.064705 0
    endloop
  endfacet
  facet normal 0.896866 0.442302 0
    outer loop
       vertex 0.324633 0.095671 0
       vertex 0.310169 0.125 0
       vertex 0.310169 0.125 0.1
    endloop
  endfacet
  facet normal 0.896866 0.442302 0
    outer loop
       vertex 0.310169 0.125 0.1
       vertex 0.324633 0.095671 0.1
       vertex 0.324633 0.095671 0
    endloop
  endfacet
  facet normal 0.831476 0.555561 0
    outer loop
       vertex 0.310169 0.125 0
       vertex 0.292001 0.152191 0
       vertex 0.292001 0.152191 0.1
    endloop
  endfacet
  facet normal 0.831476 0.555561 0
    outer loop
       vertex 0.292001 0.152191 0.1
       vertex 0.310169 0.125 0.1
       vertex 0.310169 0.125 0
    endloop
  endfacet
  facet normal 0.751817 0.659372 0
    outer loop
       vertex 0.292001 0.152191 0
       vertex 0.270439 0.176776 0
       vertex 0.270439 0.176776 0.1
    endloop
  endfacet
  facet normal 0.751817 0.659372 0
    outer loop
       vertex 0.270439 0.176776 0.1
       vertex 0.292001 0.152191 0.1
       vertex 0.292001 0.152191 0
    endloop
  endfacet
  facet normal 0.659372 0.751817 0
    outer loop
       vertex 0.270439 0.176776 0
       vertex 0.245854 0.198338 0
       vertex 0.245854 0.198338 0.1
    endloop
  endfacet
  facet normal 0.659372 0.751817 0
    outer loop
       vertex 0.245854 0.198338 0.1
       vertex 0.270439 0.176776 0.1
       vertex 0.270439 0.176776 0
    endloop
  endfacet
  facet normal 0.555561 0.831476 0
    outer loop
       vertex 0.245854 0.198338 0
       vertex 0.218663 0.216506 0
       vertex 0.218663 0.216506 0.1
    endloop
  endfacet
  facet normal 0.555561 0.831476 0
    outer loop
       vertex 0.218663 0.216506 0.1
       vertex 0.245854 0.198338 0.1
       vertex 0.245854 0.198338 0
    endloop
  endfacet
  facet normal 0.442302 0.896866 0
    outer loop
       vertex 0.218663 0.216506 0
       vertex 0.189334 0.23097 0
       vertex 0.189334 0.23097 0.1
    endloop
  endfacet
  facet normal 0.442302 0.896866 0
    outer loop
       vertex 0.189334 0.23097 0.1
       vertex 0.218663 0.216506 0.1
       vertex 0.218663 0.216506 0
    endloop
  endfacet
  facet normal 0.321425 0.946935 0
    outer loop
       vertex 0.189334 0.23097 0
       vertex 0.158368 0.241481 0
       vertex 0.158368 0.241481 0.1
    endloop
  endfacet
  facet normal 0.321425 0.946935 0
    outer loop
       vertex 0.158368 0.241481 0.1
       vertex 0.189334 0.23097 0.1
       vertex 0.189334 0.23097 0
    endloop
  endfacet
  facet normal 0.195096 0.980784 0
    outer loop
       vertex 0.158368 0.241481 0
       vertex 0.126295 0.247861 0
       vertex 0.126295 0.247861 0.1
    endloop
  endfacet
  facet normal 0.195096 0.980784 0
    outer loop
       vertex 0.126295 0.247861 0.1
       vertex 0.158368 0.241481 0.1
       vertex 0.158368 0.241481 0
    endloop
  endfacet
  facet normal 0.0654098 0.997858 0
    outer loop
       vertex 0.093663 0.25 0.1
       vertex 0.126295 0.247861 0.1
       vertex 0.126295 0.247861 0
    endloop
  endfacet
  facet normal 0.0654098 0.997858 -1.08928e-16
    outer loop
       vertex 0.126295 0.247861 0
       vertex 0.093663 0.25 0
       vertex 0.093663 0.25 0.1
    endloop
  endfacet
  facet normal -0.0654098 0.997858 0
    outer loop
       vertex 0.093663 0.25 0
       vertex 0.0610315 0.247861 0
       vertex 0.0610315 0.247861 0.1
    endloop
  endfacet
  facet normal -0.0654098 0.997858 1.08928e-16
    outer loop
       vertex 0.0610315 0.247861 0.1
       vertex 0.093663 0.25 0.1
       vertex 0.093663 0.25 0
    endloop
  endfacet
  facet normal -0.195096 0.980784 0
    outer loop
       vertex 0.0610315 0.247861 0
       vertex 0.028958 0.241481 0
       vertex 0.028958 0.241481 0.1
    endloop
  endfacet
  facet normal -0.195096 0.980784 0
    outer loop
       vertex 0.028958 0.241481 0.1
       vertex 0.0610315 0.247861 0.1
       vertex 0.0610315 0.247861 0
    endloop
  endfacet
  facet normal -0.321425 0.946935 0
    outer loop
       vertex 0.028958 0.241481 0
       vertex -0.00200795 0.23097 0
       vertex -0.00200795 0.23097 0.1
    endloop
  endfacet
  facet normal -0.321425 0.946935 0
    outer loop
       vertex -0.00200795 0.23097 0.1
       vertex 0.028958 0.241481 0.1
       vertex 0.028958 0.241481 0
    endloop
  endfacet
  facet normal -0.442302 0.896866 0
    outer loop
       vertex -0.00200795 0.23097 0
       vertex -0.031337 0.216506 0
       vertex -0.031337 0.216506 0.1
    endloop
  endfacet
  facet normal -0.442302 0.896866 0
    outer loop
       vertex -0.031337 0.216506 0.1
       vertex -0.00200795 0.23097 0.1
       vertex -0.00200795 0.23097 0
    endloop
  endfacet
  facet normal -0.555561 0.831476 0
    outer loop
       vertex -0.031337 0.216506 0
       vertex -0.058528 0.198338 0
       vertex -0.058528 0.198338 0.1
    endloop
  endfacet
  facet normal -0.555561 0.831476 0
    outer loop
       vertex -0.058528 0.198338 0.1
       vertex -0.031337 0.216506 0.1
       vertex -0.031337 0.216506 0
    endloop
  endfacet
  facet normal -0.659372 0.751817 0
    outer loop
       vertex -0.058528 0.198338 0
       vertex -0.083113 0.176776 0
       vertex -0.083113 0.176776 0.1
    endloop
  endfacet
  facet normal -0.659372 0.751817 0
    outer loop
       vertex -0.083113 0.176776 0.1
       vertex -0.058528 0.198338 0.1
       vertex -0.058528 0.198338 0
    endloop
  endfacet
  facet normal -0.751817 0.659372 0
    outer loop
       vertex -0.083113 0.176776 0
       vertex -0.104675 0.152191 0
       vertex -0.104675 0.152191 0.1
    endloop
  endfacet
  facet normal -0.751817 0.659372 0
    outer loop
       vertex -0.104675 0.152191 0.1
       vertex -0.083113 0.176776 0.1
       vertex -0.083113 0.176776 0
    endloop
  endfacet
  facet normal -0.831476 0.555561 0
    outer loop
       vertex -0.104675 0.152191 0
       vertex -0.122843 0.125 0
       vertex -0.122843 0.125 0.1
    endloop
  endfacet
  facet normal -0.831476 0.555561 0
    outer loop
       vertex -0.122843 0.125 0.1
       vertex -0.104675 0.152191 0.1
       vertex -0.104675 0.152191 0
    endloop
  endfacet
  facet normal -0.896866 0.442302 0
    outer loop
       vertex -0.122843 0.125 0
       vertex -0.137307 0.095671 0
       vertex -0.137307 0.095671 0.1
    endloop
  endfacet
  facet normal -0.896866 0.442302 0
    outer loop
       vertex -0.137307 0.095671 0.1
       vertex -0.122843 0.125 0.1
       vertex -0.122843 0.125 0
    endloop
  endfacet
  facet normal -0.946935 0.321425 0
    outer loop
       vertex -0.137307 0.095671 0
       vertex -0.147818 0.064705 0
       vertex -0.147818 0.064705 0.1
    endloop
  endfacet
  facet normal -0.946935 0.321425 0
    outer loop
       vertex -0.147818 0.064705 0.1
       vertex -0.137307 0.095671 0.1
       vertex -0.137307 0.095671 0
    endloop
  endfacet
  facet normal -0.980784 0.195096 0
    outer loop
       vertex -0.147818 0.064705 0
       vertex -0.154198 0.0326315 0
       vertex -0.154198 0.0326315 0.1
    endloop
  endfacet
  facet normal -0.980784 0.195096 0
    outer loop
       vertex -0.154198 0.0326315 0.1
       vertex -0.147818 0.064705 0.1
       vertex -0.147818 0.064705 0
    endloop
  endfacet
  facet normal -0.997858 0.0654098 0
    outer loop
       vertex -0.156337 8.32665e-17 0.1
       vertex -0.154198 0.0326315 0.1
       vertex -0.154198 0.0326315 0
    endloop
  endfacet
  facet normal -0.997858 0.0654098 -1.08928e-16
    outer loop
       vertex -0.154198 0.0326315 0
       vertex -0.156337 -8.32665e-17 0
       vertex -0.156337 8.32665e-17 0.1
    endloop
  endfacet
  facet normal -0.997858 -0.0654098 0
    outer loop
       vertex -0.156337 -8.32665e-17 0
       vertex -0.154198 -0.0326315 0
       vertex -0.154198 -0.0326315 0.1
    endloop
  endfacet
  facet normal -0.997858 -0.0654098 1.08928e-16
    outer loop
       vertex -0.154198 -0.0326315 0.1
       vertex -0.156337 8.32665e-17 0.1
       vertex -0.156337 -8.32665e-17 0
    endloop
  endfacet
  facet normal -0.980784 -0.195096 0
    outer loop
       vertex -0.154198 -0.0326315 0
       vertex -0.147818 -0.064705 0
       vertex -0.147818 -0.064705 0.1
    endloop
  endfacet
  facet normal -0.980784 -0.195096 0
    outer loop
       vertex -0.147818 -0.064705 0.1
       vertex -0.154198 -0.0326315 0.1
       vertex -0.154198 -0.0326315 0
    endloop
  endfacet
  facet normal -0.946935 -0.321425 0
    outer loop
       vertex -0.147818 -0.064705 0
       vertex -0.137307 -0.095671 0
       vertex -0.137307 -0.095671 0.1
    endloop
  endfacet
  facet normal -0.946935 -0.321425 0
    outer loop
       vertex -0.137307 -0.095671 0.1
       vertex -0.147818 -0.064705 0.1
       vertex -0.147818 -0.064705 0
    endloop
  endfacet
  facet normal -0.896866 -0.442302 0
    outer loop
       vertex -0.137307 -0.095671 0
       vertex -0.122843 -0.125 0
       vertex -0.122843 -0.125 0.1
    endloop
  endfacet
  facet normal -0.896866 -0.442302 0
    outer loop
       vertex -0.122843 -0.125 0.1
       vertex -0.137307 -0.095671 0.1
       vertex -0.137307 -0.095671 0
    endloop
  endfacet
  facet normal -0.831476 -0.555561 0
    outer loop
       vertex -0.122843 -0.125 0
       vertex -0.104675 -0.152191 0
       vertex -0.104675 -0.152191 0.1
    endloop
  endfacet
  facet normal -0.831476 -0.555561 0
    outer loop
       vertex -0.104675 -0.152191 0.1
       vertex -0.122843 -0.125 0.1
       vertex -0.122843 -0.125 0
    endloop
  endfacet
  facet normal -0.751817 -0.659372 0
    outer loop
       vertex -0.104675 -0.152191 0
       vertex -0.083113 -0.176776 0
       vertex -0.083113 -0.176776 0.1
    endloop
  endfacet
  facet normal -0.751817 -0.659372 0
    outer loop
       vertex -0.083113 -0.176776 0.1
       vertex -0.104675 -0.152191 0.1
       vertex -0.104675 -0.152191 0
    endloop
  endfacet
  facet normal 0.659372 -0.751817 0
    outer loop
       vertex 0.270439 -0.176776 0
       vertex 0.270439 -0.176776 0.1
       vertex 0.245854 -0.198338 0.1
    endloop
  endfacet
  facet normal 0.659372 -0.751817 0
    outer loop
       vertex 0.245854 -0.198338 0.1
       vertex 0.245854 -0.198338 0
       vertex 0.270439 -0.176776 0
    endloop
  endfacet
  facet normal 0.555561 -0.831476 0
    outer loop
       vertex 0.245854 -0.198338 0
       vertex 0.245854 -0.198338 0.1
       vertex 0.218663 -0.216506 0.1
    endloop
  endfacet
  facet normal 0.555561 -0.831476 0
    outer loop
       vertex 0.218663 -0.216506 0.1
       vertex 0.218663 -0.216506 0
       vertex 0.245854 -0.198338 0
    endloop
  endfacet
  facet normal 0.442302 -0.896866 0
    outer loop
       vertex 0.218663 -0.216506 0
       vertex 0.218663 -0.216506 0.1
       vertex 0.189334 -0.23097 0.1
    endloop
  endfacet
  facet normal 0.442302 -0.896866 0
    outer loop
       vertex 0.189334 -0.23097 0.1
       vertex 0.189334 -0.23097 0
       vertex 0.218663 -0.216506 0
    endloop
  endfacet
  facet normal 0.321425 -0.946935 0
    outer loop
       vertex 0.189334 -0.23097 0
       vertex 0.189334 -0.23097 0.1
       vertex 0.158368 -0.241481 0.1
    endloop
  endfacet
  facet normal 0.321425 -0.946935 0
    outer loop
       vertex 0.158368 -0.241481 0.1
       vertex 0.158368 -0.241481 0
       vertex 0.189334 -0.23097 0
    endloop
  endfacet
  facet normal 0.195096 -0.980784 0
    outer loop
       vertex 0.158368 -0.241481 0
       vertex 0.158368 -0.241481 0.1
       vertex 0.126295 -0.247861 0.1
    endloop
  endfacet
  facet normal 0.195096 -0.980784 0
    outer loop
       vertex 0.126295 -0.247861 0.1
       vertex 0.126295 -0.247861 0
       vertex 0.158368 -0.241481 0
    endloop
  endfacet
  facet normal 0.0654098 -0.997858 0
    outer loop
       vertex 0.093663 -0.25 0
       vertex 0.126295 -0.247861 0
       vertex 0.126295 -0.247861 0.1
    endloop
  endfacet
  facet normal 0.0654098 -0.997858 1.08928e-16
    outer loop
       vertex 0.126295 -0.247861 0.1
       vertex 0.093663 -0.25 0.1
       vertex 0.093663 -0.25 0
    endloop
  endfacet
  facet normal -0.0654098 -0.997858 0
    outer loop
       vertex 0.093663 -0.25 0.1
       vertex 0.0610315 -0.247861 0.1
       vertex 0.0610315 -0.247861 0
    endloop
  endfacet
  facet normal -0.0654098 -0.997858 -1.08928e-16
    outer loop
       vertex 0.0610315 -0.247861 0
       vertex 0.093663 -0.25 0
       vertex 0.093663 -0.25 0.1
    endloop
  endfacet
  facet normal -0.195096 -0.980784 0
    outer loop
       vertex 0.0610315 -0.247861 0
       vertex 0.0610315 -0.247861 0.1
       vertex 0.028958 -0.241481 0.1
    endloop
  endfacet
  facet normal -0.195096 -0.980784 -0
    outer loop
       vertex 0.028958 -0.241481 0.1
       vertex 0.028958 -0.241481 0
       vertex 0.0610315 -0.247861 0
    endloop
  endfacet
  facet normal -0.321425 -0.946935 0
    outer loop
       vertex 0.028958 -0.241481 0
       vertex 0.028958 -0.241481 0.1
       vertex -0.00200795 -0.23097 0.1
    endloop
  endfacet
  facet normal -0.321425 -0.946935 -0
    outer loop
       vertex -0.00200795 -0.23097 0.1
       vertex -0.00200795 -0.23097 0
       vertex 0.028958 -0.241481 0
    endloop
  endfacet
  facet normal -0.442302 -0.896866 0
    outer loop
       vertex -0.00200795 -0.23097 0
       vertex -0.00200795 -0.23097 0.1
       vertex -0.031337 -0.216506 0.1
    endloop
  endfacet
  facet normal -0.442302 -0.896866 -0
    outer loop
       vertex -0.031337 -0.216506 0.1
       vertex -0.031337 -0.216506 0
       vertex -0.00200795 -0.23097 0
    endloop
  endfacet
  facet normal -0.555561 -0.831476 0
    outer loop
       vertex -0.031337 -0.216506 0
       vertex -0.031337 -0.216506 0.1
       vertex -0.058528 -0.198338 0.1
    endloop
  endfacet
  facet normal -0.555561 -0.831476 -0
    outer loop
       vertex -0.058528 -0.198338 0.1
       vertex -0.058528 -0.198338 0
       vertex -0.031337 -0.216506 0
    endloop
  endfacet
  facet normal -0.659372 -0.751817 0
    outer loop
       vertex -0.058528 -0.198338 0
       vertex -0.058528 -0.198338 0.1
       vertex -0.083113 -0.176776 0.1
    endloop
  endfacet
  facet normal -0.659372 -0.751817 -0
    outer loop
       vertex -0.083113 -0.176776 0.1
       vertex -0.083113 -0.176776 0
       vertex -0.058528 -0.198338 0
    endloop
  endfacet
endsolid cylinder
