solid cylinder
  facet normal 0.751817 -0.659372 0
    outer loop
       vertex 0.357282 -0.176776 0
       vertex 0.378844 -0.152191 0
       vertex 0.378844 -0.152191 0.1
    endloop
  endfacet
  facet normal 0.751817 -0.659372 0
    outer loop
       vertex 0.378844 -0.152191 0.1
       vertex 0.357282 -0.176776 0.1
       vertex 0.357282 -0.176776 0
    endloop
  endfacet
  facet normal 0.831476 -0.555561 0
    outer loop
       vertex 0.378844 -0.152191 0
       vertex 0.397012 -0.125 0
       vertex 0.397012 -0.125 0.1
    endloop
  endfacet
  facet normal 0.831476 -0.555561 0
    outer loop
       vertex 0.397012 -0.125 0.1
       vertex 0.378844 -0.152191 0.1
       vertex 0.378844 -0.152191 0
    endloop
  endfacet
  facet normal 0.896866 -0.442302 0
    outer loop
       vertex 0.397012 -0.125 0
       vertex 0.411476 -0.095671 0
       vertex 0.411476 -0.095671 0.1
    endloop
  endfacet
  facet normal 0.896866 -0.442302 0
    outer loop
       vertex 0.411476 -0.095671 0.1
       vertex 0.397012 -0.125 0.1
       vertex 0.397012 -0.125 0
    endloop
  endfacet
  facet normal 0.946935 -0.321425 0
    outer loop
       vertex 0.411476 -0.095671 0
       vertex 0.421987 -0.064705 0
       vertex 0.421987 -0.064705 0.1
    endloop
  endfacet
  facet normal 0.946935 -0.321425 0
    outer loop
       vertex 0.421987 -0.064705 0.1
       vertex 0.411476 -0.095671 0.1
       vertex 0.411476 -0.095671 0
    endloop
  endfacet
  facet normal 0.980784 -0.195096 0
    outer loop
       vertex 0.421987 -0.064705 0
       vertex 0.428367 -0.0326315 0
       vertex 0.428367 -0.0326315 0.1
    endloop
  endfacet
  facet normal 0.980784 -0.195096 0
    outer loop
       vertex 0.428367 -0.0326315 0.1
       vertex 0.421987 -0.064705 0.1
       vertex 0.421987 -0.064705 0
    endloop
  endfacet
  facet normal 0.997858 -0.0654098 0
    outer loop
       vertex 0.430506 -8.32665e-17 0.1
       vertex 0.428367 -0.0326315 0.1
       vertex 0.428367 -0.0326315 0
    endloop
  endfacet
  facet normal 0.997858 -0.0654098 -1.08928e-16
    outer loop
       vertex 0.428367 -0.0326315 0
       vertex 0.430506 8.32665e-17 0
       vertex 0.430506 -8.32665e-17 0.1
    endloop
  endfacet
  facet normal 0.997858 0.0654098 0
    outer loop
       vertex 0.430506 8.32665e-17 0
       vertex 0.428367 0.0326315 0
       vertex 0.428367 0.0326315 0.1
    endloop
  endfacet
  facet normal 0.997858 0.0654098 1.08928e-16
    outer loop
       vertex 0.428367 0.0326315 0.1
       vertex 0.430506 -8.32665e-17 0.1
       vertex 0.430506 8.32665e-17 0
    endloop
  endfacet
  facet normal 0.980784 0.195096 0
    outer loop
       vertex 0.428367 0.0326315 0
       vertex 0.421987 0.064705 0
       vertex 0.421987 0.064705 0.1
    endloop
  endfacet
  facet normal 0.980784 0.195096 0
    outer loop
       vertex 0.421987 0.064705 0.1
       vertex 0.428367 0.0326315 0.1
       vertex 0.428367 0.0326315 0
    endloop
  endfacet
  facet normal 0.946935 0.321425 0
    outer loop
       vertex 0.421987 0.064705 0
       vertex 0.411476 0.095671 0
       vertex 0.411476 0.095671 0.1
    endloop
  endfacet
  facet normal 0.946935 0.321425 0
    outer loop
       vertex 0.411476 0.095671 0.1
       vertex 0.421987 0.064705 0.1
       vertex 0.421987 0.064705 0
    endloop
  endfacet
  facet normal 0.896866 0.442302 0
    outer loop
       vertex 0.411476 0.095671 0
       vertex 0.397012 0.125 0
       vertex 0.397012 0.125 0.1
    endloop
  endfacet
  facet normal 0.896866 0.442302 0
    outer loop
       vertex 0.397012 0.125 0.1
       vertex 0.411476 0.095671 0.1
       vertex 0.411476 0.095671 0
    endloop
  endfacet
  facet normal 0.831476 0.555561 0
    outer loop
       vertex 0.397012 0.125 0
       vertex 0.378844 0.152191 0
       vertex 0.378844 0.152191 0.1
    endloop
  endfacet
  facet normal 0.831476 0.555561 0
    outer loop
       vertex 0.378844 0.152191 0.1
       vertex 0.397012 0.125 0.1
       vertex 0.397012 0.125 0
    endloop
  endfacet
  facet normal 0.751817 0.659372 0
    outer loop
       vertex 0.378844 0.152191 0
       vertex 0.357282 0.176776 0
       vertex 0.357282 0.176776 0.1
    endloop
  endfacet
  facet normal 0.751817 0.659372 0
    outer loop
       vertex 0.357282 0.176776 0.1
       vertex 0.378844 0.152191 0.1
       vertex 0.378844 0.152191 0
    endloop
  endfacet
  facet normal 0.659372 0.751817 0
    outer loop
       vertex 0.357282 0.176776 0
       vertex 0.332697 0.198338 0
       vertex 0.332697 0.198338 0.1
    endloop
  endfacet
  facet normal 0.659372 0.751817 0
    outer loop
       vertex 0.332697 0.198338 0.1
       vertex 0.357282 0.176776 0.1
       vertex 0.357282 0.176776 0
    endloop
  endfacet
  facet normal 0.555561 0.831476 0
    outer loop
       vertex 0.332697 0.198338 0
       vertex 0.305506 0.216506 0
       vertex 0.305506 0.216506 0.1
    endloop
  endfacet
  facet normal 0.555561 0.831476 0
    outer loop
       vertex 0.305506 0.216506 0.1
       vertex 0.332697 0.198338 0.1
       vertex 0.332697 0.198338 0
    endloop
  endfacet
  facet normal 0.442302 0.896866 0
    outer loop
       vertex 0.305506 0.216506 0
       vertex 0.276177 0.23097 0
       vertex 0.276177 0.23097 0.1
    endloop
  endfacet
  facet normal 0.442302 0.896866 0
    outer loop
       vertex 0.276177 0.23097 0.1
       vertex 0.305506 0.216506 0.1
       vertex 0.305506 0.216506 0
    endloop
  endfacet
  facet normal 0.321425 0.946935 0
    outer loop
       vertex 0.276177 0.23097 0
       vertex 0.245211 0.241481 0
       vertex 0.245211 0.241481 0.1
    endloop
  endfacet
  facet normal 0.321425 0.946935 0
    outer loop
       vertex 0.245211 0.241481 0.1
       vertex 0.276177 0.23097 0.1
       vertex 0.276177 0.23097 0
    endloop
  endfacet
  facet normal 0.195096 0.980784 0
    outer loop
       vertex 0.245211 0.241481 0
       vertex 0.213137 0.247861 0
       vertex 0.213137 0.247861 0.1
    endloop
  endfacet
  facet normal 0.195096 0.980784 0
    outer loop
       vertex 0.213137 0.247861 0.1
       vertex 0.245211 0.241481 0.1
       vertex 0.245211 0.241481 0
    endloop
  endfacet
  facet normal 0.0654098 0.997858 0
    outer loop
       vertex 0.180506 0.25 0.1
       vertex 0.213137 0.247861 0.1
       vertex 0.213137 0.247861 0
    endloop
  endfacet
  facet normal 0.0654098 0.997858 -1.0893e-16
    outer loop
       vertex 0.213137 0.247861 0
       vertex 0.180506 0.25 0
       vertex 0.180506 0.25 0.1
    endloop
  endfacet
  facet normal -0.0654098 0.997858 0
    outer loop
       vertex 0.180506 0.25 0
       vertex 0.147874 0.247861 0
       vertex 0.147874 0.247861 0.1
    endloop
  endfacet
  facet normal -0.0654098 0.997858 1.0893e-16
    outer loop
       vertex 0.147874 0.247861 0.1
       vertex 0.180506 0.25 0.1
       vertex 0.180506 0.25 0
    endloop
  endfacet
  facet normal -0.195096 0.980784 0
    outer loop
       vertex 0.147874 0.247861 0
       vertex 0.115801 0.241481 0
       vertex 0.115801 0.241481 0.1
    endloop
  endfacet
  facet normal -0.195096 0.980784 0
    outer loop
       vertex 0.115801 0.241481 0.1
       vertex 0.147874 0.247861 0.1
       vertex 0.147874 0.247861 0
    endloop
  endfacet
  facet normal -0.321425 0.946935 0
    outer loop
       vertex 0.115801 0.241481 0
       vertex 0.0848348 0.23097 0
       vertex 0.0848348 0.23097 0.1
    endloop
  endfacet
  facet normal -0.321425 0.946935 0
    outer loop
       vertex 0.0848348 0.23097 0.1
       vertex 0.115801 0.241481 0.1
       vertex 0.115801 0.241481 0
    endloop
  endfacet
  facet normal -0.442302 0.896866 0
    outer loop
       vertex 0.0848348 0.23097 0
       vertex 0.0555058 0.216506 0
       vertex 0.0555058 0.216506 0.1
    endloop
  endfacet
  facet normal -0.442302 0.896866 0
    outer loop
       vertex 0.0555058 0.216506 0.1
       vertex 0.0848348 0.23097 0.1
       vertex 0.0848348 0.23097 0
    endloop
  endfacet
  facet normal -0.555561 0.831476 0
    outer loop
       vertex 0.0555058 0.216506 0
       vertex 0.0283148 0.198338 0
       vertex 0.0283148 0.198338 0.1
    endloop
  endfacet
  facet normal -0.555561 0.831476 0
    outer loop
       vertex 0.0283148 0.198338 0.1
       vertex 0.0555058 0.216506 0.1
       vertex 0.0555058 0.216506 0
    endloop
  endfacet
  facet normal -0.659372 0.751817 0
    outer loop
       vertex 0.0283148 0.198338 0
       vertex 0.00372981 0.176776 0
       vertex 0.00372981 0.176776 0.1
    endloop
  endfacet
  facet normal -0.659372 0.751817 0
    outer loop
       vertex 0.00372981 0.176776 0.1
       vertex 0.0283148 0.198338 0.1
       vertex 0.0283148 0.198338 0
    endloop
  endfacet
  facet normal -0.751817 0.659372 0
    outer loop
       vertex 0.00372981 0.176776 0
       vertex -0.0178322 0.152191 0
       vertex -0.0178322 0.152191 0.1
    endloop
  endfacet
  facet normal -0.751817 0.659372 0
    outer loop
       vertex -0.0178322 0.152191 0.1
       vertex 0.00372981 0.176776 0.1
       vertex 0.00372981 0.176776 0
    endloop
  endfacet
  facet normal -0.831476 0.555561 0
    outer loop
       vertex -0.0178322 0.152191 0
       vertex -0.0360002 0.125 0
       vertex -0.0360002 0.125 0.1
    endloop
  endfacet
  facet normal -0.831476 0.555561 0
    outer loop
       vertex -0.0360002 0.125 0.1
       vertex -0.0178322 0.152191 0.1
       vertex -0.0178322 0.152191 0
    endloop
  endfacet
  facet normal -0.896866 0.442302 0
    outer loop
       vertex -0.0360002 0.125 0
       vertex -0.0504642 0.095671 0
       vertex -0.0504642 0.095671 0.1
    endloop
  endfacet
  facet normal -0.896866 0.442302 0
    outer loop
       vertex -0.0504642 0.095671 0.1
       vertex -0.0360002 0.125 0.1
       vertex -0.0360002 0.125 0
    endloop
  endfacet
  facet normal -0.946935 0.321425 0
    outer loop
       vertex -0.0504642 0.095671 0
       vertex -0.0609752 0.064705 0
       vertex -0.0609752 0.064705 0.1
    endloop
  endfacet
  facet normal -0.946935 0.321425 0
    outer loop
       vertex -0.0609752 0.064705 0.1
       vertex -0.0504642 0.095671 0.1
       vertex -0.0504642 0.095671 0
    endloop
  endfacet
  facet normal -0.980784 0.195096 0
    outer loop
       vertex -0.0609752 0.064705 0
       vertex -0.0673552 0.0326315 0
       vertex -0.0673552 0.0326315 0.1
    endloop
  endfacet
  facet normal -0.980784 0.195096 0
    outer loop
       vertex -0.0673552 0.0326315 0.1
       vertex -0.0609752 0.064705 0.1
       vertex -0.0609752 0.064705 0
    endloop
  endfacet
  facet normal -0.997858 0.0654098 0
    outer loop
       vertex -0.0694942 8.32665e-17 0.1
       vertex -0.0673552 0.0326315 0.1
       vertex -0.0673552 0.0326315 0
    endloop
  endfacet
  facet normal -0.997858 0.0654098 -1.08928e-16
    outer loop
       vertex -0.0673552 0.0326315 0
       vertex -0.0694942 -8.32665e-17 0
       vertex -0.0694942 8.32665e-17 0.1
    endloop
  endfacet
  facet normal -0.997858 -0.0654098 0
    outer loop
       vertex -0.0694942 -8.32665e-17 0
       vertex -0.0673552 -0.0326315 0
       vertex -0.0673552 -0.0326315 0.1
    endloop
  endfacet
  facet normal -0.997858 -0.0654098 1.08928e-16
    outer loop
       vertex -0.0673552 -0.0326315 0.1
       vertex -0.0694942 8.32665e-17 0.1
       vertex -0.0694942 -8.32665e-17 0
    endloop
  endfacet
  facet normal -0.980784 -0.195096 0
    outer loop
       vertex -0.0673552 -0.0326315 0
       vertex -0.0609752 -0.064705 0
       vertex -0.0609752 -0.064705 0.1
    endloop
  endfacet
  facet normal -0.980784 -0.195096 0
    outer loop
       vertex -0.0609752 -0.064705 0.1
       vertex -0.0673552 -0.0326315 0.1
       vertex -0.0673552 -0.0326315 0
    endloop
  endfacet
  facet normal -0.946935 -0.321425 0
    outer loop
       vertex -0.0609752 -0.064705 0
       vertex -0.0504642 -0.095671 0
       vertex -0.0504642 -0.095671 0.1
    endloop
  endfacet
  facet normal -0.946935 -0.321425 0
    outer loop
       vertex -0.0504642 -0.095671 0.1
       vertex -0.0609752 -0.064705 0.1
       vertex -0.0609752 -0.064705 0
    endloop
  endfacet
  facet normal -0.896866 -0.442302 0
    outer loop
       vertex -0.0504642 -0.095671 0
       vertex -0.0360002 -0.125 0
       vertex -0.0360002 -0.125 0.1
    endloop
  endfacet
  facet normal -0.896866 -0.442302 0
    outer loop
       vertex -0.0360002 -0.125 0.1
       vertex -0.0504642 -0.095671 0.1
       vertex -0.0504642 -0.095671 0
    endloop
  endfacet
  facet normal -0.831476 -0.555561 0
    outer loop
       vertex -0.0360002 -0.125 0
       vertex -0.0178322 -0.152191 0
       vertex -0.0178322 -0.152191 0.1
    endloop
  endfacet
  facet normal -0.831476 -0.555561 0
    outer loop
       vertex -0.0178322 -0.152191 0.1
       vertex -0.0360002 -0.125 0.1
       vertex -0.0360002 -0.125 0
    endloop
  endfacet
  facet normal -0.751817 -0.659372 0
    outer loop
       vertex -0.0178322 -0.152191 0
       vertex 0.00372981 -0.176776 0
       vertex 0.00372981 -0.176776 0.1
    endloop
  endfacet
  facet normal -0.751817 -0.659372 0
    outer loop
       vertex 0.00372981 -0.176776 0.1
       vertex -0.0178322 -0.152191 0.1
       vertex -0.0178322 -0.152191 0
    endloop
  endfacet
  facet normal 0.659372 -0.751817 0
    outer loop
       vertex 0.357282 -0.176776 0
       vertex 0.357282 -0.176776 0.1
       vertex 0.332697 -0.198338 0.1
    endloop
  endfacet
  facet normal 0.659372 -0.751817 0
    outer loop
       vertex 0.332697 -0.198338 0.1
       vertex 0.332697 -0.198338 0
       vertex 0.357282 -0.176776 0
    endloop
  endfacet
  facet normal 0.555561 -0.831476 0
    outer loop
       vertex 0.332697 -0.198338 0
       vertex 0.332697 -0.198338 0.1
       vertex 0.305506 -0.216506 0.1
    endloop
  endfacet
  facet normal 0.555561 -0.831476 0
    outer loop
       vertex 0.305506 -0.216506 0.1
       vertex 0.305506 -0.216506 0
       vertex 0.332697 -0.198338 0
    endloop
  endfacet
  facet normal 0.442302 -0.896866 0
    outer loop
       vertex 0.305506 -0.216506 0
       vertex 0.305506 -0.216506 0.1
       vertex 0.276177 -0.23097 0.1
    endloop
  endfacet
  facet normal 0.442302 -0.896866 0
    outer loop
       vertex 0.276177 -0.23097 0.1
       vertex 0.276177 -0.23097 0
       vertex 0.305506 -0.216506 0
    endloop
  endfacet
  facet normal 0.321425 -0.946935 0
    outer loop
       vertex 0.276177 -0.23097 0
       vertex 0.276177 -0.23097 0.1
       vertex 0.245211 -0.241481 0.1
    endloop
  endfacet
  facet normal 0.321425 -0.946935 0
    outer loop
       vertex 0.245211 -0.241481 0.1
       vertex 0.245211 -0.241481 0
       vertex 0.276177 -0.23097 0
    endloop
  endfacet
  facet normal 0.195096 -0.980784 0
    outer loop
       vertex 0.245211 -0.241481 0
       vertex 0.245211 -0.241481 0.1
       vertex 0.213137 -0.247861 0.1
    endloop
  endfacet
  facet normal 0.195096 -0.980784 0
    outer loop
       vertex 0.213137 -0.247861 0.1
       vertex 0.213137 -0.247861 0
       vertex 0.245211 -0.241481 0
    endloop
  endfacet
  facet normal 0.0654098 -0.997858 0
    outer loop
       vertex 0.180506 -0.25 0
       vertex 0.213137 -0.247861 0
       vertex 0.213137 -0.247861 0.1
    endloop
  endfacet
  facet normal 0.0654098 -0.997858 1.0893e-16
    outer loop
       vertex 0.213137 -0.247861 0.1
       vertex 0.180506 -0.25 0.1
       vertex 0.180506 -0.25 0
    endloop
  endfacet
  facet normal -0.0654098 -0.997858 0
    outer loop
       vertex 0.180506 -0.25 0.1
       vertex 0.147874 -0.247861 0.1
       vertex 0.147874 -0.247861 0
    endloop
  endfacet
  facet normal -0.0654098 -0.997858 -1.0893e-16
    outer loop
       vertex 0.147874 -0.247861 0
       vertex 0.180506 -0.25 0
       vertex 0.180506 -0.25 0.1
    endloop
  endfacet
  facet normal -0.195096 -0.980784 0
    outer loop
       vertex 0.147874 -0.247861 0
       vertex 0.147874 -0.247861 0.1
       vertex 0.115801 -0.241481 0.1
    endloop
  endfacet
  facet normal -0.195096 -0.980784 -0
    outer loop
       vertex 0.115801 -0.241481 0.1
       vertex 0.115801 -0.241481 0
       vertex 0.147874 -0.247861 0
    endloop
  endfacet
  facet normal -0.321425 -0.946935 0
    outer loop
       vertex 0.115801 -0.241481 0
       vertex 0.115801 -0.241481 0.1
       vertex 0.0848348 -0.23097 0.1
    endloop
  endfacet
  facet normal -0.321425 -0.946935 -0
    outer loop
       vertex 0.0848348 -0.23097 0.1
       vertex 0.0848348 -0.23097 0
       vertex 0.115801 -0.241481 0
    endloop
  endfacet
  facet normal -0.442302 -0.896866 0
    outer loop
       vertex 0.0848348 -0.23097 0
       vertex 0.0848348 -0.23097 0.1
       vertex 0.0555058 -0.216506 0.1
    endloop
  endfacet
  facet normal -0.442302 -0.896866 -0
    outer loop
       vertex 0.0555058 -0.216506 0.1
       vertex 0.0555058 -0.216506 0
       vertex 0.0848348 -0.23097 0
    endloop
  endfacet
  facet normal -0.555561 -0.831476 0
    outer loop
       vertex 0.0555058 -0.216506 0
       vertex 0.0555058 -0.216506 0.1
       vertex 0.0283148 -0.198338 0.1
    endloop
  endfacet
  facet normal -0.555561 -0.831476 -0
    outer loop
       vertex 0.0283148 -0.198338 0.1
       vertex 0.0283148 -0.198338 0
       vertex 0.0555058 -0.216506 0
    endloop
  endfacet
  facet normal -0.659372 -0.751817 0
    outer loop
       vertex 0.0283148 -0.198338 0
       vertex 0.0283148 -0.198338 0.1
       vertex 0.00372981 -0.176776 0.1
    endloop
  endfacet
  facet normal -0.659372 -0.751817 -0
    outer loop
       vertex 0.00372981 -0.176776 0.1
       vertex 0.00372981 -0.176776 0
       vertex 0.0283148 -0.198338 0
    endloop
  endfacet
endsolid cylinder
