solid cylinder
  facet normal 0.751817 -0.659372 0
    outer loop
       vertex 0.25331 -0.176776 0
       vertex 0.274872 -0.152191 0
       vertex 0.274872 -0.152191 0.1
    endloop
  endfacet
  facet normal 0.751817 -0.659372 0
    outer loop
       vertex 0.274872 -0.152191 0.1
       vertex 0.25331 -0.176776 0.1
       vertex 0.25331 -0.176776 0
    endloop
  endfacet
  facet normal 0.831476 -0.555561 0
    outer loop
       vertex 0.274872 -0.152191 0
       vertex 0.29304 -0.125 0
       vertex 0.29304 -0.125 0.1
    endloop
  endfacet
  facet normal 0.831476 -0.555561 0
    outer loop
       vertex 0.29304 -0.125 0.1
       vertex 0.274872 -0.152191 0.1
       vertex 0.274872 -0.152191 0
    endloop
  endfacet
  facet normal 0.896866 -0.442302 0
    outer loop
       vertex 0.29304 -0.125 0
       vertex 0.307504 -0.095671 0
       vertex 0.307504 -0.095671 0.1
    endloop
  endfacet
  facet normal 0.896866 -0.442302 0
    outer loop
       vertex 0.307504 -0.095671 0.1
       vertex 0.29304 -0.125 0.1
       vertex 0.29304 -0.125 0
    endloop
  endfacet
  facet normal 0.946935 -0.321425 0
    outer loop
       vertex 0.307504 -0.095671 0
       vertex 0.318015 -0.064705 0
       vertex 0.318015 -0.064705 0.1
    endloop
  endfacet
  facet normal 0.946935 -0.321425 0
    outer loop
       vertex 0.318015 -0.064705 0.1
       vertex 0.307504 -0.095671 0.1
       vertex 0.307504 -0.095671 0
    endloop
  endfacet
  facet normal 0.980784 -0.195096 0
    outer loop
       vertex 0.318015 -0.064705 0
       vertex 0.324395 -0.0326315 0
       vertex 0.324395 -0.0326315 0.1
    endloop
  endfacet
  facet normal 0.980784 -0.195096 0
    outer loop
       vertex 0.324395 -0.0326315 0.1
       vertex 0.318015 -0.064705 0.1
       vertex 0.318015 -0.064705 0
    endloop
  endfacet
  facet normal 0.997858 -0.0654098 0
    outer loop
       vertex 0.326534 -8.32665e-17 0.1
       vertex 0.324395 -0.0326315 0.1
       vertex 0.324395 -0.0326315 0
    endloop
  endfacet
  facet normal 0.997858 -0.0654098 -1.08928e-16
    outer loop
       vertex 0.324395 -0.0326315 0
       vertex 0.326534 8.32665e-17 0
       vertex 0.326534 -8.32665e-17 0.1
    endloop
  endfacet
  facet normal 0.997858 0.0654098 0
    outer loop
       vertex 0.326534 8.32665e-17 0
       vertex 0.324395 0.0326315 0
       vertex 0.324395 0.0326315 0.1
    endloop
  endfacet
  facet normal 0.997858 0.0654098 1.08928e-16
    outer loop
       vertex 0.324395 0.0326315 0.1
       vertex 0.326534 -8.32665e-17 0.1
       vertex 0.326534 8.32665e-17 0
    endloop
  endfacet
  facet normal 0.980784 0.195096 0
    outer loop
       vertex 0.324395 0.0326315 0
       vertex 0.318015 0.064705 0
       vertex 0.318015 0.064705 0.1
    endloop
  endfacet
  facet normal 0.980784 0.195096 0
    outer loop
       vertex 0.318015 0.064705 0.1
       vertex 0.324395 0.0326315 0.1
       vertex 0.324395 0.0326315 0
    endloop
  endfacet
  facet normal 0.946935 0.321425 0
    outer loop
       vertex 0.318015 0.064705 0
       vertex 0.307504 0.095671 0
       vertex 0.307504 0.095671 0.1
    endloop
  endfacet
  facet normal 0.946935 0.321425 0
    outer loop
       vertex 0.307504 0.095671 0.1
       vertex 0.318015 0.064705 0.1
       vertex 0.318015 0.064705 0
    endloop
  endfacet
  facet normal 0.896866 0.442302 0
    outer loop
       vertex 0.307504 0.095671 0
       vertex 0.29304 0.125 0
       vertex 0.29304 0.125 0.1
    endloop
  endfacet
  facet normal 0.896866 0.442302 0
    outer loop
       vertex 0.29304 0.125 0.1
       vertex 0.307504 0.095671 0.1
       vertex 0.307504 0.095671 0
    endloop
  endfacet
  facet normal 0.831476 0.555561 0
    outer loop
       vertex 0.29304 0.125 0
       vertex 0.274872 0.152191 0
       vertex 0.274872 0.152191 0.1
    endloop
  endfacet
  facet normal 0.831476 0.555561 0
    outer loop
       vertex 0.274872 0.152191 0.1
       vertex 0.29304 0.125 0.1
       vertex 0.29304 0.125 0
    endloop
  endfacet
  facet normal 0.751817 0.659372 0
    outer loop
       vertex 0.274872 0.152191 0
       vertex 0.25331 0.176776 0
       vertex 0.25331 0.176776 0.1
    endloop
  endfacet
  facet normal 0.751817 0.659372 0
    outer loop
       vertex 0.25331 0.176776 0.1
       vertex 0.274872 0.152191 0.1
       vertex 0.274872 0.152191 0
    endloop
  endfacet
  facet normal 0.659372 0.751817 0
    outer loop
       vertex 0.25331 0.176776 0
       vertex 0.228725 0.198338 0
       vertex 0.228725 0.198338 0.1
    endloop
  endfacet
  facet normal 0.659372 0.751817 0
    outer loop
       vertex 0.228725 0.198338 0.1
       vertex 0.25331 0.176776 0.1
       vertex 0.25331 0.176776 0
    endloop
  endfacet
  facet normal 0.555561 0.831476 0
    outer loop
       vertex 0.228725 0.198338 0
       vertex 0.201534 0.216506 0
       vertex 0.201534 0.216506 0.1
    endloop
  endfacet
  facet normal 0.555561 0.831476 0
    outer loop
       vertex 0.201534 0.216506 0.1
       vertex 0.228725 0.198338 0.1
       vertex 0.228725 0.198338 0
    endloop
  endfacet
  facet normal 0.442302 0.896866 0
    outer loop
       vertex 0.201534 0.216506 0
       vertex 0.172205 0.23097 0
       vertex 0.172205 0.23097 0.1
    endloop
  endfacet
  facet normal 0.442302 0.896866 0
    outer loop
       vertex 0.172205 0.23097 0.1
       vertex 0.201534 0.216506 0.1
       vertex 0.201534 0.216506 0
    endloop
  endfacet
  facet normal 0.321425 0.946935 0
    outer loop
       vertex 0.172205 0.23097 0
       vertex 0.141239 0.241481 0
       vertex 0.141239 0.241481 0.1
    endloop
  endfacet
  facet normal 0.321425 0.946935 0
    outer loop
       vertex 0.141239 0.241481 0.1
       vertex 0.172205 0.23097 0.1
       vertex 0.172205 0.23097 0
    endloop
  endfacet
  facet normal 0.195096 0.980784 0
    outer loop
       vertex 0.141239 0.241481 0
       vertex 0.109165 0.247861 0
       vertex 0.109165 0.247861 0.1
    endloop
  endfacet
  facet normal 0.195096 0.980784 0
    outer loop
       vertex 0.109165 0.247861 0.1
       vertex 0.141239 0.241481 0.1
       vertex 0.141239 0.241481 0
    endloop
  endfacet
  facet normal 0.0654098 0.997858 0
    outer loop
       vertex 0.0765336 0.25 0.1
       vertex 0.109165 0.247861 0.1
       vertex 0.109165 0.247861 0
    endloop
  endfacet
  facet normal 0.0654098 0.997858 -1.08928e-16
    outer loop
       vertex 0.109165 0.247861 0
       vertex 0.0765336 0.25 0
       vertex 0.0765336 0.25 0.1
    endloop
  endfacet
  facet normal -0.0654098 0.997858 0
    outer loop
       vertex 0.0765336 0.25 0
       vertex 0.0439021 0.247861 0
       vertex 0.0439021 0.247861 0.1
    endloop
  endfacet
  facet normal -0.0654098 0.997858 1.08928e-16
    outer loop
       vertex 0.0439021 0.247861 0.1
       vertex 0.0765336 0.25 0.1
       vertex 0.0765336 0.25 0
    endloop
  endfacet
  facet normal -0.195096 0.980784 0
    outer loop
       vertex 0.0439021 0.247861 0
       vertex 0.0118286 0.241481 0
       vertex 0.0118286 0.241481 0.1
    endloop
  endfacet
  facet normal -0.195096 0.980784 0
    outer loop
       vertex 0.0118286 0.241481 0.1
       vertex 0.0439021 0.247861 0.1
       vertex 0.0439021 0.247861 0
    endloop
  endfacet
  facet normal -0.321425 0.946935 0
    outer loop
       vertex 0.0118286 0.241481 0
       vertex -0.0191374 0.23097 0
       vertex -0.0191374 0.23097 0.1
    endloop
  endfacet
  facet normal -0.321425 0.946935 0
    outer loop
       vertex -0.0191374 0.23097 0.1
       vertex 0.0118286 0.241481 0.1
       vertex 0.0118286 0.241481 0
    endloop
  endfacet
  facet normal -0.442302 0.896866 0
    outer loop
       vertex -0.0191374 0.23097 0
       vertex -0.0484664 0.216506 0
       vertex -0.0484664 0.216506 0.1
    endloop
  endfacet
  facet normal -0.442302 0.896866 0
    outer loop
       vertex -0.0484664 0.216506 0.1
       vertex -0.0191374 0.23097 0.1
       vertex -0.0191374 0.23097 0
    endloop
  endfacet
  facet normal -0.555561 0.831476 0
    outer loop
       vertex -0.0484664 0.216506 0
       vertex -0.0756574 0.198338 0
       vertex -0.0756574 0.198338 0.1
    endloop
  endfacet
  facet normal -0.555561 0.831476 0
    outer loop
       vertex -0.0756574 0.198338 0.1
       vertex -0.0484664 0.216506 0.1
       vertex -0.0484664 0.216506 0
    endloop
  endfacet
  facet normal -0.659372 0.751817 0
    outer loop
       vertex -0.0756574 0.198338 0
       vertex -0.100242 0.176776 0
       vertex -0.100242 0.176776 0.1
    endloop
  endfacet
  facet normal -0.659372 0.751817 0
    outer loop
       vertex -0.100242 0.176776 0.1
       vertex -0.0756574 0.198338 0.1
       vertex -0.0756574 0.198338 0
    endloop
  endfacet
  facet normal -0.751817 0.659372 0
    outer loop
       vertex -0.100242 0.176776 0
       vertex -0.121804 0.152191 0
       vertex -0.121804 0.152191 0.1
    endloop
  endfacet
  facet normal -0.751817 0.659372 0
    outer loop
       vertex -0.121804 0.152191 0.1
       vertex -0.100242 0.176776 0.1
       vertex -0.100242 0.176776 0
    endloop
  endfacet
  facet normal -0.831476 0.555561 0
    outer loop
       vertex -0.121804 0.152191 0
       vertex -0.139972 0.125 0
       vertex -0.139972 0.125 0.1
    endloop
  endfacet
  facet normal -0.831476 0.555561 0
    outer loop
       vertex -0.139972 0.125 0.1
       vertex -0.121804 0.152191 0.1
       vertex -0.121804 0.152191 0
    endloop
  endfacet
  facet normal -0.896866 0.442302 0
    outer loop
       vertex -0.139972 0.125 0
       vertex -0.154436 0.095671 0
       vertex -0.154436 0.095671 0.1
    endloop
  endfacet
  facet normal -0.896866 0.442302 0
    outer loop
       vertex -0.154436 0.095671 0.1
       vertex -0.139972 0.125 0.1
       vertex -0.139972 0.125 0
    endloop
  endfacet
  facet normal -0.946935 0.321425 0
    outer loop
       vertex -0.154436 0.095671 0
       vertex -0.164947 0.064705 0
       vertex -0.164947 0.064705 0.1
    endloop
  endfacet
  facet normal -0.946935 0.321425 0
    outer loop
       vertex -0.164947 0.064705 0.1
       vertex -0.154436 0.095671 0.1
       vertex -0.154436 0.095671 0
    endloop
  endfacet
  facet normal -0.980784 0.195096 0
    outer loop
       vertex -0.164947 0.064705 0
       vertex -0.171327 0.0326315 0
       vertex -0.171327 0.0326315 0.1
    endloop
  endfacet
  facet normal -0.980784 0.195096 0
    outer loop
       vertex -0.171327 0.0326315 0.1
       vertex -0.164947 0.064705 0.1
       vertex -0.164947 0.064705 0
    endloop
  endfacet
  facet normal -0.997858 0.0654098 0
    outer loop
       vertex -0.173466 8.32665e-17 0.1
       vertex -0.171327 0.0326315 0.1
       vertex -0.171327 0.0326315 0
    endloop
  endfacet
  facet normal -0.997858 0.0654098 -1.08928e-16
    outer loop
       vertex -0.171327 0.0326315 0
       vertex -0.173466 -8.32665e-17 0
       vertex -0.173466 8.32665e-17 0.1
    endloop
  endfacet
  facet normal -0.997858 -0.0654098 0
    outer loop
       vertex -0.173466 -8.32665e-17 0
       vertex -0.171327 -0.0326315 0
       vertex -0.171327 -0.0326315 0.1
    endloop
  endfacet
  facet normal -0.997858 -0.0654098 1.08928e-16
    outer loop
       vertex -0.171327 -0.0326315 0.1
       vertex -0.173466 8.32665e-17 0.1
       vertex -0.173466 -8.32665e-17 0
    endloop
  endfacet
  facet normal -0.980784 -0.195096 0
    outer loop
       vertex -0.171327 -0.0326315 0
       vertex -0.164947 -0.064705 0
       vertex -0.164947 -0.064705 0.1
    endloop
  endfacet
  facet normal -0.980784 -0.195096 0
    outer loop
       vertex -0.164947 -0.064705 0.1
       vertex -0.171327 -0.0326315 0.1
       vertex -0.171327 -0.0326315 0
    endloop
  endfacet
  facet normal -0.946935 -0.321425 0
    outer loop
       vertex -0.164947 -0.064705 0
       vertex -0.154436 -0.095671 0
       vertex -0.154436 -0.095671 0.1
    endloop
  endfacet
  facet normal -0.946935 -0.321425 0
    outer loop
       vertex -0.154436 -0.095671 0.1
       vertex -0.164947 -0.064705 0.1
       vertex -0.164947 -0.064705 0
    endloop
  endfacet
  facet normal -0.896866 -0.442302 0
    outer loop
       vertex -0.154436 -0.095671 0
       vertex -0.139972 -0.125 0
       vertex -0.139972 -0.125 0.1
    endloop
  endfacet
  facet normal -0.896866 -0.442302 0
    outer loop
       vertex -0.139972 -0.125 0.1
       vertex -0.154436 -0.095671 0.1
       vertex -0.154436 -0.095671 0
    endloop
  endfacet
  facet normal -0.831476 -0.555561 0
    outer loop
       vertex -0.139972 -0.125 0
       vertex -0.121804 -0.152191 0
       vertex -0.121804 -0.152191 0.1
    endloop
  endfacet
  facet normal -0.831476 -0.555561 0
    outer loop
       vertex -0.121804 -0.152191 0.1
       vertex -0.139972 -0.125 0.1
       vertex -0.139972 -0.125 0
    endloop
  endfacet
  facet normal -0.751817 -0.659372 0
    outer loop
       vertex -0.121804 -0.152191 0
       vertex -0.100242 -0.176776 0
       vertex -0.100242 -0.176776 0.1
    endloop
  endfacet
  facet normal -0.751817 -0.659372 0
    outer loop
       vertex -0.100242 -0.176776 0.1
       vertex -0.121804 -0.152191 0.1
       vertex -0.121804 -0.152191 0
    endloop
  endfacet
  facet normal 0.659372 -0.751817 0
    outer loop
       vertex 0.25331 -0.176776 0
       vertex 0.25331 -0.176776 0.1
       vertex 0.228725 -0.198338 0.1
    endloop
  endfacet
  facet normal 0.659372 -0.751817 0
    outer loop
       vertex 0.228725 -0.198338 0.1
       vertex 0.228725 -0.198338 0
       vertex 0.25331 -0.176776 0
    endloop
  endfacet
  facet normal 0.555561 -0.831476 0
    outer loop
       vertex 0.228725 -0.198338 0
       vertex 0.228725 -0.198338 0.1
       vertex 0.201534 -0.216506 0.1
    endloop
  endfacet
  facet normal 0.555561 -0.831476 0
    outer loop
       vertex 0.201534 -0.216506 0.1
       vertex 0.201534 -0.216506 0
       vertex 0.228725 -0.198338 0
    endloop
  endfacet
  facet normal 0.442302 -0.896866 0
    outer loop
       vertex 0.201534 -0.216506 0
       vertex 0.201534 -0.216506 0.1
       vertex 0.172205 -0.23097 0.1
    endloop
  endfacet
  facet normal 0.442302 -0.896866 0
    outer loop
       vertex 0.172205 -0.23097 0.1
       vertex 0.172205 -0.23097 0
       vertex 0.201534 -0.216506 0
    endloop
  endfacet
  facet normal 0.321425 -0.946935 0
    outer loop
       vertex 0.172205 -0.23097 0
       vertex 0.172205 -0.23097 0.1
       vertex 0.141239 -0.241481 0.1
    endloop
  endfacet
  facet normal 0.321425 -0.946935 0
    outer loop
       vertex 0.141239 -0.241481 0.1
       vertex 0.141239 -0.241481 0
       vertex 0.172205 -0.23097 0
    endloop
  endfacet
  facet normal 0.195096 -0.980784 0
    outer loop
       vertex 0.141239 -0.241481 0
       vertex 0.141239 -0.241481 0.1
       vertex 0.109165 -0.247861 0.1
    endloop
  endfacet
  facet normal 0.195096 -0.980784 0
    outer loop
       vertex 0.109165 -0.247861 0.1
       vertex 0.109165 -0.247861 0
       vertex 0.141239 -0.241481 0
    endloop
  endfacet
  facet normal 0.0654098 -0.997858 0
    outer loop
       vertex 0.0765336 -0.25 0
       vertex 0.109165 -0.247861 0
       vertex 0.109165 -0.247861 0.1
    endloop
  endfacet
  facet normal 0.0654098 -0.997858 1.08928e-16
    outer loop
       vertex 0.109165 -0.247861 0.1
       vertex 0.0765336 -0.25 0.1
       vertex 0.0765336 -0.25 0
    endloop
  endfacet
  facet normal -0.0654098 -0.997858 0
    outer loop
       vertex 0.0765336 -0.25 0.1
       vertex 0.0439021 -0.247861 0.1
       vertex 0.0439021 -0.247861 0
    endloop
  endfacet
  facet normal -0.0654098 -0.997858 -1.08928e-16
    outer loop
       vertex 0.0439021 -0.247861 0
       vertex 0.0765336 -0.25 0
       vertex 0.0765336 -0.25 0.1
    endloop
  endfacet
  facet normal -0.195096 -0.980784 0
    outer loop
       vertex 0.0439021 -0.247861 0
       vertex 0.0439021 -0.247861 0.1
       vertex 0.0118286 -0.241481 0.1
    endloop
  endfacet
  facet normal -0.195096 -0.980784 -0
    outer loop
       vertex 0.0118286 -0.241481 0.1
       vertex 0.0118286 -0.241481 0
       vertex 0.0439021 -0.247861 0
    endloop
  endfacet
  facet normal -0.321425 -0.946935 0
    outer loop
       vertex 0.0118286 -0.241481 0
       vertex 0.0118286 -0.241481 0.1
       vertex -0.0191374 -0.23097 0.1
    endloop
  endfacet
  facet normal -0.321425 -0.946935 -0
    outer loop
       vertex -0.0191374 -0.23097 0.1
       vertex -0.0191374 -0.23097 0
       vertex 0.0118286 -0.241481 0
    endloop
  endfacet
  facet normal -0.442302 -0.896866 0
    outer loop
       vertex -0.0191374 -0.23097 0
       vertex -0.0191374 -0.23097 0.1
       vertex -0.0484664 -0.216506 0.1
    endloop
  endfacet
  facet normal -0.442302 -0.896866 -0
    outer loop
       vertex -0.0484664 -0.216506 0.1
       vertex -0.0484664 -0.216506 0
       vertex -0.0191374 -0.23097 0
    endloop
  endfacet
  facet normal -0.555561 -0.831476 0
    outer loop
       vertex -0.0484664 -0.216506 0
       vertex -0.0484664 -0.216506 0.1
       vertex -0.0756574 -0.198338 0.1
    endloop
  endfacet
  facet normal -0.555561 -0.831476 -0
    outer loop
       vertex -0.0756574 -0.198338 0.1
       vertex -0.0756574 -0.198338 0
       vertex -0.0484664 -0.216506 0
    endloop
  endfacet
  facet normal -0.659372 -0.751817 0
    outer loop
       vertex -0.0756574 -0.198338 0
       vertex -0.0756574 -0.198338 0.1
       vertex -0.100242 -0.176776 0.1
    endloop
  endfacet
  facet normal -0.659372 -0.751817 -0
    outer loop
       vertex -0.100242 -0.176776 0.1
       vertex -0.100242 -0.176776 0
       vertex -0.0756574 -0.198338 0
    endloop
  endfacet
endsolid cylinder
