solid cylinder
  facet normal 0.751817 -0.659372 0
    outer loop
       vertex 0.446913 -0.176776 0
       vertex 0.468475 -0.152191 0
       vertex 0.468475 -0.152191 0.1
    endloop
  endfacet
  facet normal 0.751817 -0.659372 0
    outer loop
       vertex 0.468475 -0.152191 0.1
       vertex 0.446913 -0.176776 0.1
       vertex 0.446913 -0.176776 0
    endloop
  endfacet
  facet normal 0.831476 -0.555561 0
    outer loop
       vertex 0.468475 -0.152191 0
       vertex 0.486643 -0.125 0
       vertex 0.486643 -0.125 0.1
    endloop
  endfacet
  facet normal 0.831476 -0.555561 0
    outer loop
       vertex 0.486643 -0.125 0.1
       vertex 0.468475 -0.152191 0.1
       vertex 0.468475 -0.152191 0
    endloop
  endfacet
  facet normal 0.896866 -0.442302 0
    outer loop
       vertex 0.486643 -0.125 0
       vertex 0.501107 -0.095671 0
       vertex 0.501107 -0.095671 0.1
    endloop
  endfacet
  facet normal 0.896866 -0.442302 0
    outer loop
       vertex 0.501107 -0.095671 0.1
       vertex 0.486643 -0.125 0.1
       vertex 0.486643 -0.125 0
    endloop
  endfacet
  facet normal 0.946935 -0.321425 0
    outer loop
       vertex 0.501107 -0.095671 0
       vertex 0.511618 -0.064705 0
       vertex 0.511618 -0.064705 0.1
    endloop
  endfacet
  facet normal 0.946935 -0.321425 0
    outer loop
       vertex 0.511618 -0.064705 0.1
       vertex 0.501107 -0.095671 0.1
       vertex 0.501107 -0.095671 0
    endloop
  endfacet
  facet normal 0.980784 -0.195096 0
    outer loop
       vertex 0.511618 -0.064705 0
       vertex 0.517998 -0.0326315 0
       vertex 0.517998 -0.0326315 0.1
    endloop
  endfacet
  facet normal 0.980784 -0.195096 0
    outer loop
       vertex 0.517998 -0.0326315 0.1
       vertex 0.511618 -0.064705 0.1
       vertex 0.511618 -0.064705 0
    endloop
  endfacet
  facet normal 0.997858 -0.0654098 0
    outer loop
       vertex 0.520137 -8.32665e-17 0.1
       vertex 0.517998 -0.0326315 0.1
       vertex 0.517998 -0.0326315 0
    endloop
  endfacet
  facet normal 0.997858 -0.0654098 -1.0893e-16
    outer loop
       vertex 0.517998 -0.0326315 0
       vertex 0.520137 8.32665e-17 0
       vertex 0.520137 -8.32665e-17 0.1
    endloop
  endfacet
  facet normal 0.997858 0.0654098 0
    outer loop
       vertex 0.520137 8.32665e-17 0
       vertex 0.517998 0.0326315 0
       vertex 0.517998 0.0326315 0.1
    endloop
  endfacet
  facet normal 0.997858 0.0654098 1.0893e-16
    outer loop
       vertex 0.517998 0.0326315 0.1
       vertex 0.520137 -8.32665e-17 0.1
       vertex 0.520137 8.32665e-17 0
    endloop
  endfacet
  facet normal 0.980784 0.195096 0
    outer loop
       vertex 0.517998 0.0326315 0
       vertex 0.511618 0.064705 0
       vertex 0.511618 0.064705 0.1
    endloop
  endfacet
  facet normal 0.980784 0.195096 0
    outer loop
       vertex 0.511618 0.064705 0.1
       vertex 0.517998 0.0326315 0.1
       vertex 0.517998 0.0326315 0
    endloop
  endfacet
  facet normal 0.946935 0.321425 0
    outer loop
       vertex 0.511618 0.064705 0
       vertex 0.501107 0.095671 0
       vertex 0.501107 0.095671 0.1
    endloop
  endfacet
  facet normal 0.946935 0.321425 0
    outer loop
       vertex 0.501107 0.095671 0.1
       vertex 0.511618 0.064705 0.1
       vertex 0.511618 0.064705 0
    endloop
  endfacet
  facet normal 0.896866 0.442302 0
    outer loop
       vertex 0.501107 0.095671 0
       vertex 0.486643 0.125 0
       vertex 0.486643 0.125 0.1
    endloop
  endfacet
  facet normal 0.896866 0.442302 0
    outer loop
       vertex 0.486643 0.125 0.1
       vertex 0.501107 0.095671 0.1
       vertex 0.501107 0.095671 0
    endloop
  endfacet
  facet normal 0.831476 0.555561 0
    outer loop
       vertex 0.486643 0.125 0
       vertex 0.468475 0.152191 0
       vertex 0.468475 0.152191 0.1
    endloop
  endfacet
  facet normal 0.831476 0.555561 0
    outer loop
       vertex 0.468475 0.152191 0.1
       vertex 0.486643 0.125 0.1
       vertex 0.486643 0.125 0
    endloop
  endfacet
  facet normal 0.751817 0.659372 0
    outer loop
       vertex 0.468475 0.152191 0
       vertex 0.446913 0.176776 0
       vertex 0.446913 0.176776 0.1
    endloop
  endfacet
  facet normal 0.751817 0.659372 0
    outer loop
       vertex 0.446913 0.176776 0.1
       vertex 0.468475 0.152191 0.1
       vertex 0.468475 0.152191 0
    endloop
  endfacet
  facet normal 0.659372 0.751817 0
    outer loop
       vertex 0.446913 0.176776 0
       vertex 0.422328 0.198338 0
       vertex 0.422328 0.198338 0.1
    endloop
  endfacet
  facet normal 0.659372 0.751817 0
    outer loop
       vertex 0.422328 0.198338 0.1
       vertex 0.446913 0.176776 0.1
       vertex 0.446913 0.176776 0
    endloop
  endfacet
  facet normal 0.555561 0.831476 0
    outer loop
       vertex 0.422328 0.198338 0
       vertex 0.395137 0.216506 0
       vertex 0.395137 0.216506 0.1
    endloop
  endfacet
  facet normal 0.555561 0.831476 0
    outer loop
       vertex 0.395137 0.216506 0.1
       vertex 0.422328 0.198338 0.1
       vertex 0.422328 0.198338 0
    endloop
  endfacet
  facet normal 0.442302 0.896866 0
    outer loop
       vertex 0.395137 0.216506 0
       vertex 0.365808 0.23097 0
       vertex 0.365808 0.23097 0.1
    endloop
  endfacet
  facet normal 0.442302 0.896866 0
    outer loop
       vertex 0.365808 0.23097 0.1
       vertex 0.395137 0.216506 0.1
       vertex 0.395137 0.216506 0
    endloop
  endfacet
  facet normal 0.321425 0.946935 0
    outer loop
       vertex 0.365808 0.23097 0
       vertex 0.334842 0.241481 0
       vertex 0.334842 0.241481 0.1
    endloop
  endfacet
  facet normal 0.321425 0.946935 0
    outer loop
       vertex 0.334842 0.241481 0.1
       vertex 0.365808 0.23097 0.1
       vertex 0.365808 0.23097 0
    endloop
  endfacet
  facet normal 0.195096 0.980784 0
    outer loop
       vertex 0.334842 0.241481 0
       vertex 0.302769 0.247861 0
       vertex 0.302769 0.247861 0.1
    endloop
  endfacet
  facet normal 0.195096 0.980784 0
    outer loop
       vertex 0.302769 0.247861 0.1
       vertex 0.334842 0.241481 0.1
       vertex 0.334842 0.241481 0
    endloop
  endfacet
  facet normal 0.0654098 0.997858 0
    outer loop
       vertex 0.270137 0.25 0.1
       vertex 0.302769 0.247861 0.1
       vertex 0.302769 0.247861 0
    endloop
  endfacet
  facet normal 0.0654098 0.997858 -7.26205e-17
    outer loop
       vertex 0.302769 0.247861 0
       vertex 0.270137 0.25 0
       vertex 0.270137 0.25 0.1
    endloop
  endfacet
  facet normal -0.0654098 0.997858 0
    outer loop
       vertex 0.270137 0.25 0
       vertex 0.237506 0.247861 0
       vertex 0.237506 0.247861 0.1
    endloop
  endfacet
  facet normal -0.0654098 0.997858 7.26205e-17
    outer loop
       vertex 0.237506 0.247861 0.1
       vertex 0.270137 0.25 0.1
       vertex 0.270137 0.25 0
    endloop
  endfacet
  facet normal -0.195096 0.980784 0
    outer loop
       vertex 0.237506 0.247861 0
       vertex 0.205432 0.241481 0
       vertex 0.205432 0.241481 0.1
    endloop
  endfacet
  facet normal -0.195096 0.980784 0
    outer loop
       vertex 0.205432 0.241481 0.1
       vertex 0.237506 0.247861 0.1
       vertex 0.237506 0.247861 0
    endloop
  endfacet
  facet normal -0.321425 0.946935 0
    outer loop
       vertex 0.205432 0.241481 0
       vertex 0.174466 0.23097 0
       vertex 0.174466 0.23097 0.1
    endloop
  endfacet
  facet normal -0.321425 0.946935 0
    outer loop
       vertex 0.174466 0.23097 0.1
       vertex 0.205432 0.241481 0.1
       vertex 0.205432 0.241481 0
    endloop
  endfacet
  facet normal -0.442302 0.896866 0
    outer loop
       vertex 0.174466 0.23097 0
       vertex 0.145137 0.216506 0
       vertex 0.145137 0.216506 0.1
    endloop
  endfacet
  facet normal -0.442302 0.896866 0
    outer loop
       vertex 0.145137 0.216506 0.1
       vertex 0.174466 0.23097 0.1
       vertex 0.174466 0.23097 0
    endloop
  endfacet
  facet normal -0.555561 0.831476 0
    outer loop
       vertex 0.145137 0.216506 0
       vertex 0.117946 0.198338 0
       vertex 0.117946 0.198338 0.1
    endloop
  endfacet
  facet normal -0.555561 0.831476 0
    outer loop
       vertex 0.117946 0.198338 0.1
       vertex 0.145137 0.216506 0.1
       vertex 0.145137 0.216506 0
    endloop
  endfacet
  facet normal -0.659372 0.751817 0
    outer loop
       vertex 0.117946 0.198338 0
       vertex 0.0933613 0.176776 0
       vertex 0.0933613 0.176776 0.1
    endloop
  endfacet
  facet normal -0.659372 0.751817 0
    outer loop
       vertex 0.0933613 0.176776 0.1
       vertex 0.117946 0.198338 0.1
       vertex 0.117946 0.198338 0
    endloop
  endfacet
  facet normal -0.751817 0.659372 0
    outer loop
       vertex 0.0933613 0.176776 0
       vertex 0.0717993 0.152191 0
       vertex 0.0717993 0.152191 0.1
    endloop
  endfacet
  facet normal -0.751817 0.659372 0
    outer loop
       vertex 0.0717993 0.152191 0.1
       vertex 0.0933613 0.176776 0.1
       vertex 0.0933613 0.176776 0
    endloop
  endfacet
  facet normal -0.831476 0.555561 0
    outer loop
       vertex 0.0717993 0.152191 0
       vertex 0.0536313 0.125 0
       vertex 0.0536313 0.125 0.1
    endloop
  endfacet
  facet normal -0.831476 0.555561 0
    outer loop
       vertex 0.0536313 0.125 0.1
       vertex 0.0717993 0.152191 0.1
       vertex 0.0717993 0.152191 0
    endloop
  endfacet
  facet normal -0.896866 0.442302 0
    outer loop
       vertex 0.0536313 0.125 0
       vertex 0.0391673 0.095671 0
       vertex 0.0391673 0.095671 0.1
    endloop
  endfacet
  facet normal -0.896866 0.442302 0
    outer loop
       vertex 0.0391673 0.095671 0.1
       vertex 0.0536313 0.125 0.1
       vertex 0.0536313 0.125 0
    endloop
  endfacet
  facet normal -0.946935 0.321425 0
    outer loop
       vertex 0.0391673 0.095671 0
       vertex 0.0286563 0.064705 0
       vertex 0.0286563 0.064705 0.1
    endloop
  endfacet
  facet normal -0.946935 0.321425 0
    outer loop
       vertex 0.0286563 0.064705 0.1
       vertex 0.0391673 0.095671 0.1
       vertex 0.0391673 0.095671 0
    endloop
  endfacet
  facet normal -0.980784 0.195096 0
    outer loop
       vertex 0.0286563 0.064705 0
       vertex 0.0222763 0.0326315 0
       vertex 0.0222763 0.0326315 0.1
    endloop
  endfacet
  facet normal -0.980784 0.195096 0
    outer loop
       vertex 0.0222763 0.0326315 0.1
       vertex 0.0286563 0.064705 0.1
       vertex 0.0286563 0.064705 0
    endloop
  endfacet
  facet normal -0.997858 0.0654098 0
    outer loop
       vertex 0.0201373 8.32665e-17 0.1
       vertex 0.0222763 0.0326315 0.1
       vertex 0.0222763 0.0326315 0
    endloop
  endfacet
  facet normal -0.997858 0.0654098 -1.08928e-16
    outer loop
       vertex 0.0222763 0.0326315 0
       vertex 0.0201373 -8.32665e-17 0
       vertex 0.0201373 8.32665e-17 0.1
    endloop
  endfacet
  facet normal -0.997858 -0.0654098 0
    outer loop
       vertex 0.0201373 -8.32665e-17 0
       vertex 0.0222763 -0.0326315 0
       vertex 0.0222763 -0.0326315 0.1
    endloop
  endfacet
  facet normal -0.997858 -0.0654098 1.08928e-16
    outer loop
       vertex 0.0222763 -0.0326315 0.1
       vertex 0.0201373 8.32665e-17 0.1
       vertex 0.0201373 -8.32665e-17 0
    endloop
  endfacet
  facet normal -0.980784 -0.195096 0
    outer loop
       vertex 0.0222763 -0.0326315 0
       vertex 0.0286563 -0.064705 0
       vertex 0.0286563 -0.064705 0.1
    endloop
  endfacet
  facet normal -0.980784 -0.195096 0
    outer loop
       vertex 0.0286563 -0.064705 0.1
       vertex 0.0222763 -0.0326315 0.1
       vertex 0.0222763 -0.0326315 0
    endloop
  endfacet
  facet normal -0.946935 -0.321425 0
    outer loop
       vertex 0.0286563 -0.064705 0
       vertex 0.0391673 -0.095671 0
       vertex 0.0391673 -0.095671 0.1
    endloop
  endfacet
  facet normal -0.946935 -0.321425 0
    outer loop
       vertex 0.0391673 -0.095671 0.1
       vertex 0.0286563 -0.064705 0.1
       vertex 0.0286563 -0.064705 0
    endloop
  endfacet
  facet normal -0.896866 -0.442302 0
    outer loop
       vertex 0.0391673 -0.095671 0
       vertex 0.0536313 -0.125 0
       vertex 0.0536313 -0.125 0.1
    endloop
  endfacet
  facet normal -0.896866 -0.442302 0
    outer loop
       vertex 0.0536313 -0.125 0.1
       vertex 0.0391673 -0.095671 0.1
       vertex 0.0391673 -0.095671 0
    endloop
  endfacet
  facet normal -0.831476 -0.555561 0
    outer loop
       vertex 0.0536313 -0.125 0
       vertex 0.0717993 -0.152191 0
       vertex 0.0717993 -0.152191 0.1
    endloop
  endfacet
  facet normal -0.831476 -0.555561 0
    outer loop
       vertex 0.0717993 -0.152191 0.1
       vertex 0.0536313 -0.125 0.1
       vertex 0.0536313 -0.125 0
    endloop
  endfacet
  facet normal -0.751817 -0.659372 0
    outer loop
       vertex 0.0717993 -0.152191 0
       vertex 0.0933613 -0.176776 0
       vertex 0.0933613 -0.176776 0.1
    endloop
  endfacet
  facet normal -0.751817 -0.659372 0
    outer loop
       vertex 0.0933613 -0.176776 0.1
       vertex 0.0717993 -0.152191 0.1
       vertex 0.0717993 -0.152191 0
    endloop
  endfacet
  facet normal 0.659372 -0.751817 0
    outer loop
       vertex 0.446913 -0.176776 0
       vertex 0.446913 -0.176776 0.1
       vertex 0.422328 -0.198338 0.1
    endloop
  endfacet
  facet normal 0.659372 -0.751817 0
    outer loop
       vertex 0.422328 -0.198338 0.1
       vertex 0.422328 -0.198338 0
       vertex 0.446913 -0.176776 0
    endloop
  endfacet
  facet normal 0.555561 -0.831476 0
    outer loop
       vertex 0.422328 -0.198338 0
       vertex 0.422328 -0.198338 0.1
       vertex 0.395137 -0.216506 0.1
    endloop
  endfacet
  facet normal 0.555561 -0.831476 0
    outer loop
       vertex 0.395137 -0.216506 0.1
       vertex 0.395137 -0.216506 0
       vertex 0.422328 -0.198338 0
    endloop
  endfacet
  facet normal 0.442302 -0.896866 0
    outer loop
       vertex 0.395137 -0.216506 0
       vertex 0.395137 -0.216506 0.1
       vertex 0.365808 -0.23097 0.1
    endloop
  endfacet
  facet normal 0.442302 -0.896866 0
    outer loop
       vertex 0.365808 -0.23097 0.1
       vertex 0.365808 -0.23097 0
       vertex 0.395137 -0.216506 0
    endloop
  endfacet
  facet normal 0.321425 -0.946935 0
    outer loop
       vertex 0.365808 -0.23097 0
       vertex 0.365808 -0.23097 0.1
       vertex 0.334842 -0.241481 0.1
    endloop
  endfacet
  facet normal 0.321425 -0.946935 0
    outer loop
       vertex 0.334842 -0.241481 0.1
       vertex 0.334842 -0.241481 0
       vertex 0.365808 -0.23097 0
    endloop
  endfacet
  facet normal 0.195096 -0.980784 0
    outer loop
       vertex 0.334842 -0.241481 0
       vertex 0.334842 -0.241481 0.1
       vertex 0.302769 -0.247861 0.1
    endloop
  endfacet
  facet normal 0.195096 -0.980784 0
    outer loop
       vertex 0.302769 -0.247861 0.1
       vertex 0.302769 -0.247861 0
       vertex 0.334842 -0.241481 0
    endloop
  endfacet
  facet normal 0.0654098 -0.997858 0
    outer loop
       vertex 0.270137 -0.25 0
       vertex 0.302769 -0.247861 0
       vertex 0.302769 -0.247861 0.1
    endloop
  endfacet
  facet normal 0.0654098 -0.997858 7.26205e-17
    outer loop
       vertex 0.302769 -0.247861 0.1
       vertex 0.270137 -0.25 0.1
       vertex 0.270137 -0.25 0
    endloop
  endfacet
  facet normal -0.0654098 -0.997858 0
    outer loop
       vertex 0.270137 -0.25 0.1
       vertex 0.237506 -0.247861 0.1
       vertex 0.237506 -0.247861 0
    endloop
  endfacet
  facet normal -0.0654098 -0.997858 -7.26205e-17
    outer loop
       vertex 0.237506 -0.247861 0
       vertex 0.270137 -0.25 0
       vertex 0.270137 -0.25 0.1
    endloop
  endfacet
  facet normal -0.195096 -0.980784 0
    outer loop
       vertex 0.237506 -0.247861 0
       vertex 0.237506 -0.247861 0.1
       vertex 0.205432 -0.241481 0.1
    endloop
  endfacet
  facet normal -0.195096 -0.980784 -0
    outer loop
       vertex 0.205432 -0.241481 0.1
       vertex 0.205432 -0.241481 0
       vertex 0.237506 -0.247861 0
    endloop
  endfacet
  facet normal -0.321425 -0.946935 0
    outer loop
       vertex 0.205432 -0.241481 0
       vertex 0.205432 -0.241481 0.1
       vertex 0.174466 -0.23097 0.1
    endloop
  endfacet
  facet normal -0.321425 -0.946935 -0
    outer loop
       vertex 0.174466 -0.23097 0.1
       vertex 0.174466 -0.23097 0
       vertex 0.205432 -0.241481 0
    endloop
  endfacet
  facet normal -0.442302 -0.896866 0
    outer loop
       vertex 0.174466 -0.23097 0
       vertex 0.174466 -0.23097 0.1
       vertex 0.145137 -0.216506 0.1
    endloop
  endfacet
  facet normal -0.442302 -0.896866 -0
    outer loop
       vertex 0.145137 -0.216506 0.1
       vertex 0.145137 -0.216506 0
       vertex 0.174466 -0.23097 0
    endloop
  endfacet
  facet normal -0.555561 -0.831476 0
    outer loop
       vertex 0.145137 -0.216506 0
       vertex 0.145137 -0.216506 0.1
       vertex 0.117946 -0.198338 0.1
    endloop
  endfacet
  facet normal -0.555561 -0.831476 -0
    outer loop
       vertex 0.117946 -0.198338 0.1
       vertex 0.117946 -0.198338 0
       vertex 0.145137 -0.216506 0
    endloop
  endfacet
  facet normal -0.659372 -0.751817 0
    outer loop
       vertex 0.117946 -0.198338 0
       vertex 0.117946 -0.198338 0.1
       vertex 0.0933613 -0.176776 0.1
    endloop
  endfacet
  facet normal -0.659372 -0.751817 -0
    outer loop
       vertex 0.0933613 -0.176776 0.1
       vertex 0.0933613 -0.176776 0
       vertex 0.117946 -0.198338 0
    endloop
  endfacet
endsolid cylinder
