solid cylinder
  facet normal 0.751817 -0.659372 0
    outer loop
       vertex 0.310574 -0.176776 0
       vertex 0.332136 -0.152191 0
       vertex 0.332136 -0.152191 0.1
    endloop
  endfacet
  facet normal 0.751817 -0.659372 0
    outer loop
       vertex 0.332136 -0.152191 0.1
       vertex 0.310574 -0.176776 0.1
       vertex 0.310574 -0.176776 0
    endloop
  endfacet
  facet normal 0.831476 -0.555561 0
    outer loop
       vertex 0.332136 -0.152191 0
       vertex 0.350304 -0.125 0
       vertex 0.350304 -0.125 0.1
    endloop
  endfacet
  facet normal 0.831476 -0.555561 0
    outer loop
       vertex 0.350304 -0.125 0.1
       vertex 0.332136 -0.152191 0.1
       vertex 0.332136 -0.152191 0
    endloop
  endfacet
  facet normal 0.896866 -0.442302 0
    outer loop
       vertex 0.350304 -0.125 0
       vertex 0.364768 -0.095671 0
       vertex 0.364768 -0.095671 0.1
    endloop
  endfacet
  facet normal 0.896866 -0.442302 0
    outer loop
       vertex 0.364768 -0.095671 0.1
       vertex 0.350304 -0.125 0.1
       vertex 0.350304 -0.125 0
    endloop
  endfacet
  facet normal 0.946935 -0.321425 0
    outer loop
       vertex 0.364768 -0.095671 0
       vertex 0.375279 -0.064705 0
       vertex 0.375279 -0.064705 0.1
    endloop
  endfacet
  facet normal 0.946935 -0.321425 0
    outer loop
       vertex 0.375279 -0.064705 0.1
       vertex 0.364768 -0.095671 0.1
       vertex 0.364768 -0.095671 0
    endloop
  endfacet
  facet normal 0.980784 -0.195096 0
    outer loop
       vertex 0.375279 -0.064705 0
       vertex 0.381659 -0.0326315 0
       vertex 0.381659 -0.0326315 0.1
    endloop
  endfacet
  facet normal 0.980784 -0.195096 0
    outer loop
       vertex 0.381659 -0.0326315 0.1
       vertex 0.375279 -0.064705 0.1
       vertex 0.375279 -0.064705 0
    endloop
  endfacet
  facet normal 0.997858 -0.0654098 0
    outer loop
       vertex 0.383798 -8.32665e-17 0.1
       vertex 0.381659 -0.0326315 0.1
       vertex 0.381659 -0.0326315 0
    endloop
  endfacet
  facet normal 0.997858 -0.0654098 -1.08928e-16
    outer loop
       vertex 0.381659 -0.0326315 0
       vertex 0.383798 8.32665e-17 0
       vertex 0.383798 -8.32665e-17 0.1
    endloop
  endfacet
  facet normal 0.997858 0.0654098 0
    outer loop
       vertex 0.383798 8.32665e-17 0
       vertex 0.381659 0.0326315 0
       vertex 0.381659 0.0326315 0.1
    endloop
  endfacet
  facet normal 0.997858 0.0654098 1.08928e-16
    outer loop
       vertex 0.381659 0.0326315 0.1
       vertex 0.383798 -8.32665e-17 0.1
       vertex 0.383798 8.32665e-17 0
    endloop
  endfacet
  facet normal 0.980784 0.195096 0
    outer loop
       vertex 0.381659 0.0326315 0
       vertex 0.375279 0.064705 0
       vertex 0.375279 0.064705 0.1
    endloop
  endfacet
  facet normal 0.980784 0.195096 0
    outer loop
       vertex 0.375279 0.064705 0.1
       vertex 0.381659 0.0326315 0.1
       vertex 0.381659 0.0326315 0
    endloop
  endfacet
  facet normal 0.946935 0.321425 0
    outer loop
       vertex 0.375279 0.064705 0
       vertex 0.364768 0.095671 0
       vertex 0.364768 0.095671 0.1
    endloop
  endfacet
  facet normal 0.946935 0.321425 0
    outer loop
       vertex 0.364768 0.095671 0.1
       vertex 0.375279 0.064705 0.1
       vertex 0.375279 0.064705 0
    endloop
  endfacet
  facet normal 0.896866 0.442302 0
    outer loop
       vertex 0.364768 0.095671 0
       vertex 0.350304 0.125 0
       vertex 0.350304 0.125 0.1
    endloop
  endfacet
  facet normal 0.896866 0.442302 0
    outer loop
       vertex 0.350304 0.125 0.1
       vertex 0.364768 0.095671 0.1
       vertex 0.364768 0.095671 0
    endloop
  endfacet
  facet normal 0.831476 0.555561 0
    outer loop
       vertex 0.350304 0.125 0
       vertex 0.332136 0.152191 0
       vertex 0.332136 0.152191 0.1
    endloop
  endfacet
  facet normal 0.831476 0.555561 0
    outer loop
       vertex 0.332136 0.152191 0.1
       vertex 0.350304 0.125 0.1
       vertex 0.350304 0.125 0
    endloop
  endfacet
  facet normal 0.751817 0.659372 0
    outer loop
       vertex 0.332136 0.152191 0
       vertex 0.310574 0.176776 0
       vertex 0.310574 0.176776 0.1
    endloop
  endfacet
  facet normal 0.751817 0.659372 0
    outer loop
       vertex 0.310574 0.176776 0.1
       vertex 0.332136 0.152191 0.1
       vertex 0.332136 0.152191 0
    endloop
  endfacet
  facet normal 0.659372 0.751817 0
    outer loop
       vertex 0.310574 0.176776 0
       vertex 0.285989 0.198338 0
       vertex 0.285989 0.198338 0.1
    endloop
  endfacet
  facet normal 0.659372 0.751817 0
    outer loop
       vertex 0.285989 0.198338 0.1
       vertex 0.310574 0.176776 0.1
       vertex 0.310574 0.176776 0
    endloop
  endfacet
  facet normal 0.555561 0.831476 0
    outer loop
       vertex 0.285989 0.198338 0
       vertex 0.258798 0.216506 0
       vertex 0.258798 0.216506 0.1
    endloop
  endfacet
  facet normal 0.555561 0.831476 0
    outer loop
       vertex 0.258798 0.216506 0.1
       vertex 0.285989 0.198338 0.1
       vertex 0.285989 0.198338 0
    endloop
  endfacet
  facet normal 0.442302 0.896866 0
    outer loop
       vertex 0.258798 0.216506 0
       vertex 0.229469 0.23097 0
       vertex 0.229469 0.23097 0.1
    endloop
  endfacet
  facet normal 0.442302 0.896866 0
    outer loop
       vertex 0.229469 0.23097 0.1
       vertex 0.258798 0.216506 0.1
       vertex 0.258798 0.216506 0
    endloop
  endfacet
  facet normal 0.321425 0.946935 0
    outer loop
       vertex 0.229469 0.23097 0
       vertex 0.198503 0.241481 0
       vertex 0.198503 0.241481 0.1
    endloop
  endfacet
  facet normal 0.321425 0.946935 0
    outer loop
       vertex 0.198503 0.241481 0.1
       vertex 0.229469 0.23097 0.1
       vertex 0.229469 0.23097 0
    endloop
  endfacet
  facet normal 0.195096 0.980784 0
    outer loop
       vertex 0.198503 0.241481 0
       vertex 0.16643 0.247861 0
       vertex 0.16643 0.247861 0.1
    endloop
  endfacet
  facet normal 0.195096 0.980784 0
    outer loop
       vertex 0.16643 0.247861 0.1
       vertex 0.198503 0.241481 0.1
       vertex 0.198503 0.241481 0
    endloop
  endfacet
  facet normal 0.0654098 0.997858 0
    outer loop
       vertex 0.133798 0.25 0.1
       vertex 0.16643 0.247861 0.1
       vertex 0.16643 0.247861 0
    endloop
  endfacet
  facet normal 0.0654098 0.997858 -1.0893e-16
    outer loop
       vertex 0.16643 0.247861 0
       vertex 0.133798 0.25 0
       vertex 0.133798 0.25 0.1
    endloop
  endfacet
  facet normal -0.0654098 0.997858 0
    outer loop
       vertex 0.133798 0.25 0
       vertex 0.101167 0.247861 0
       vertex 0.101167 0.247861 0.1
    endloop
  endfacet
  facet normal -0.0654098 0.997858 1.0893e-16
    outer loop
       vertex 0.101167 0.247861 0.1
       vertex 0.133798 0.25 0.1
       vertex 0.133798 0.25 0
    endloop
  endfacet
  facet normal -0.195096 0.980784 0
    outer loop
       vertex 0.101167 0.247861 0
       vertex 0.0690931 0.241481 0
       vertex 0.0690931 0.241481 0.1
    endloop
  endfacet
  facet normal -0.195096 0.980784 0
    outer loop
       vertex 0.0690931 0.241481 0.1
       vertex 0.101167 0.247861 0.1
       vertex 0.101167 0.247861 0
    endloop
  endfacet
  facet normal -0.321425 0.946935 0
    outer loop
       vertex 0.0690931 0.241481 0
       vertex 0.0381271 0.23097 0
       vertex 0.0381271 0.23097 0.1
    endloop
  endfacet
  facet normal -0.321425 0.946935 0
    outer loop
       vertex 0.0381271 0.23097 0.1
       vertex 0.0690931 0.241481 0.1
       vertex 0.0690931 0.241481 0
    endloop
  endfacet
  facet normal -0.442302 0.896866 0
    outer loop
       vertex 0.0381271 0.23097 0
       vertex 0.00879806 0.216506 0
       vertex 0.00879806 0.216506 0.1
    endloop
  endfacet
  facet normal -0.442302 0.896866 0
    outer loop
       vertex 0.00879806 0.216506 0.1
       vertex 0.0381271 0.23097 0.1
       vertex 0.0381271 0.23097 0
    endloop
  endfacet
  facet normal -0.555561 0.831476 0
    outer loop
       vertex 0.00879806 0.216506 0
       vertex -0.0183929 0.198338 0
       vertex -0.0183929 0.198338 0.1
    endloop
  endfacet
  facet normal -0.555561 0.831476 0
    outer loop
       vertex -0.0183929 0.198338 0.1
       vertex 0.00879806 0.216506 0.1
       vertex 0.00879806 0.216506 0
    endloop
  endfacet
  facet normal -0.659372 0.751817 0
    outer loop
       vertex -0.0183929 0.198338 0
       vertex -0.0429779 0.176776 0
       vertex -0.0429779 0.176776 0.1
    endloop
  endfacet
  facet normal -0.659372 0.751817 0
    outer loop
       vertex -0.0429779 0.176776 0.1
       vertex -0.0183929 0.198338 0.1
       vertex -0.0183929 0.198338 0
    endloop
  endfacet
  facet normal -0.751817 0.659372 0
    outer loop
       vertex -0.0429779 0.176776 0
       vertex -0.0645399 0.152191 0
       vertex -0.0645399 0.152191 0.1
    endloop
  endfacet
  facet normal -0.751817 0.659372 0
    outer loop
       vertex -0.0645399 0.152191 0.1
       vertex -0.0429779 0.176776 0.1
       vertex -0.0429779 0.176776 0
    endloop
  endfacet
  facet normal -0.831476 0.555561 0
    outer loop
       vertex -0.0645399 0.152191 0
       vertex -0.0827079 0.125 0
       vertex -0.0827079 0.125 0.1
    endloop
  endfacet
  facet normal -0.831476 0.555561 0
    outer loop
       vertex -0.0827079 0.125 0.1
       vertex -0.0645399 0.152191 0.1
       vertex -0.0645399 0.152191 0
    endloop
  endfacet
  facet normal -0.896866 0.442302 0
    outer loop
       vertex -0.0827079 0.125 0
       vertex -0.0971719 0.095671 0
       vertex -0.0971719 0.095671 0.1
    endloop
  endfacet
  facet normal -0.896866 0.442302 0
    outer loop
       vertex -0.0971719 0.095671 0.1
       vertex -0.0827079 0.125 0.1
       vertex -0.0827079 0.125 0
    endloop
  endfacet
  facet normal -0.946935 0.321425 0
    outer loop
       vertex -0.0971719 0.095671 0
       vertex -0.107683 0.064705 0
       vertex -0.107683 0.064705 0.1
    endloop
  endfacet
  facet normal -0.946935 0.321425 0
    outer loop
       vertex -0.107683 0.064705 0.1
       vertex -0.0971719 0.095671 0.1
       vertex -0.0971719 0.095671 0
    endloop
  endfacet
  facet normal -0.980784 0.195096 0
    outer loop
       vertex -0.107683 0.064705 0
       vertex -0.114063 0.0326315 0
       vertex -0.114063 0.0326315 0.1
    endloop
  endfacet
  facet normal -0.980784 0.195096 0
    outer loop
       vertex -0.114063 0.0326315 0.1
       vertex -0.107683 0.064705 0.1
       vertex -0.107683 0.064705 0
    endloop
  endfacet
  facet normal -0.997858 0.0654098 0
    outer loop
       vertex -0.116202 8.32665e-17 0.1
       vertex -0.114063 0.0326315 0.1
       vertex -0.114063 0.0326315 0
    endloop
  endfacet
  facet normal -0.997858 0.0654098 -1.08928e-16
    outer loop
       vertex -0.114063 0.0326315 0
       vertex -0.116202 -8.32665e-17 0
       vertex -0.116202 8.32665e-17 0.1
    endloop
  endfacet
  facet normal -0.997858 -0.0654098 0
    outer loop
       vertex -0.116202 -8.32665e-17 0
       vertex -0.114063 -0.0326315 0
       vertex -0.114063 -0.0326315 0.1
    endloop
  endfacet
  facet normal -0.997858 -0.0654098 1.08928e-16
    outer loop
       vertex -0.114063 -0.0326315 0.1
       vertex -0.116202 8.32665e-17 0.1
       vertex -0.116202 -8.32665e-17 0
    endloop
  endfacet
  facet normal -0.980784 -0.195096 0
    outer loop
       vertex -0.114063 -0.0326315 0
       vertex -0.107683 -0.064705 0
       vertex -0.107683 -0.064705 0.1
    endloop
  endfacet
  facet normal -0.980784 -0.195096 0
    outer loop
       vertex -0.107683 -0.064705 0.1
       vertex -0.114063 -0.0326315 0.1
       vertex -0.114063 -0.0326315 0
    endloop
  endfacet
  facet normal -0.946935 -0.321425 0
    outer loop
       vertex -0.107683 -0.064705 0
       vertex -0.0971719 -0.095671 0
       vertex -0.0971719 -0.095671 0.1
    endloop
  endfacet
  facet normal -0.946935 -0.321425 0
    outer loop
       vertex -0.0971719 -0.095671 0.1
       vertex -0.107683 -0.064705 0.1
       vertex -0.107683 -0.064705 0
    endloop
  endfacet
  facet normal -0.896866 -0.442302 0
    outer loop
       vertex -0.0971719 -0.095671 0
       vertex -0.0827079 -0.125 0
       vertex -0.0827079 -0.125 0.1
    endloop
  endfacet
  facet normal -0.896866 -0.442302 0
    outer loop
       vertex -0.0827079 -0.125 0.1
       vertex -0.0971719 -0.095671 0.1
       vertex -0.0971719 -0.095671 0
    endloop
  endfacet
  facet normal -0.831476 -0.555561 0
    outer loop
       vertex -0.0827079 -0.125 0
       vertex -0.0645399 -0.152191 0
       vertex -0.0645399 -0.152191 0.1
    endloop
  endfacet
  facet normal -0.831476 -0.555561 0
    outer loop
       vertex -0.0645399 -0.152191 0.1
       vertex -0.0827079 -0.125 0.1
       vertex -0.0827079 -0.125 0
    endloop
  endfacet
  facet normal -0.751817 -0.659372 0
    outer loop
       vertex -0.0645399 -0.152191 0
       vertex -0.0429779 -0.176776 0
       vertex -0.0429779 -0.176776 0.1
    endloop
  endfacet
  facet normal -0.751817 -0.659372 0
    outer loop
       vertex -0.0429779 -0.176776 0.1
       vertex -0.0645399 -0.152191 0.1
       vertex -0.0645399 -0.152191 0
    endloop
  endfacet
  facet normal 0.659372 -0.751817 0
    outer loop
       vertex 0.310574 -0.176776 0
       vertex 0.310574 -0.176776 0.1
       vertex 0.285989 -0.198338 0.1
    endloop
  endfacet
  facet normal 0.659372 -0.751817 0
    outer loop
       vertex 0.285989 -0.198338 0.1
       vertex 0.285989 -0.198338 0
       vertex 0.310574 -0.176776 0
    endloop
  endfacet
  facet normal 0.555561 -0.831476 0
    outer loop
       vertex 0.285989 -0.198338 0
       vertex 0.285989 -0.198338 0.1
       vertex 0.258798 -0.216506 0.1
    endloop
  endfacet
  facet normal 0.555561 -0.831476 0
    outer loop
       vertex 0.258798 -0.216506 0.1
       vertex 0.258798 -0.216506 0
       vertex 0.285989 -0.198338 0
    endloop
  endfacet
  facet normal 0.442302 -0.896866 0
    outer loop
       vertex 0.258798 -0.216506 0
       vertex 0.258798 -0.216506 0.1
       vertex 0.229469 -0.23097 0.1
    endloop
  endfacet
  facet normal 0.442302 -0.896866 0
    outer loop
       vertex 0.229469 -0.23097 0.1
       vertex 0.229469 -0.23097 0
       vertex 0.258798 -0.216506 0
    endloop
  endfacet
  facet normal 0.321425 -0.946935 0
    outer loop
       vertex 0.229469 -0.23097 0
       vertex 0.229469 -0.23097 0.1
       vertex 0.198503 -0.241481 0.1
    endloop
  endfacet
  facet normal 0.321425 -0.946935 0
    outer loop
       vertex 0.198503 -0.241481 0.1
       vertex 0.198503 -0.241481 0
       vertex 0.229469 -0.23097 0
    endloop
  endfacet
  facet normal 0.195096 -0.980784 0
    outer loop
       vertex 0.198503 -0.241481 0
       vertex 0.198503 -0.241481 0.1
       vertex 0.16643 -0.247861 0.1
    endloop
  endfacet
  facet normal 0.195096 -0.980784 0
    outer loop
       vertex 0.16643 -0.247861 0.1
       vertex 0.16643 -0.247861 0
       vertex 0.198503 -0.241481 0
    endloop
  endfacet
  facet normal 0.0654098 -0.997858 0
    outer loop
       vertex 0.133798 -0.25 0
       vertex 0.16643 -0.247861 0
       vertex 0.16643 -0.247861 0.1
    endloop
  endfacet
  facet normal 0.0654098 -0.997858 1.0893e-16
    outer loop
       vertex 0.16643 -0.247861 0.1
       vertex 0.133798 -0.25 0.1
       vertex 0.133798 -0.25 0
    endloop
  endfacet
  facet normal -0.0654098 -0.997858 0
    outer loop
       vertex 0.133798 -0.25 0.1
       vertex 0.101167 -0.247861 0.1
       vertex 0.101167 -0.247861 0
    endloop
  endfacet
  facet normal -0.0654098 -0.997858 -1.0893e-16
    outer loop
       vertex 0.101167 -0.247861 0
       vertex 0.133798 -0.25 0
       vertex 0.133798 -0.25 0.1
    endloop
  endfacet
  facet normal -0.195096 -0.980784 0
    outer loop
       vertex 0.101167 -0.247861 0
       vertex 0.101167 -0.247861 0.1
       vertex 0.0690931 -0.241481 0.1
    endloop
  endfacet
  facet normal -0.195096 -0.980784 -0
    outer loop
       vertex 0.0690931 -0.241481 0.1
       vertex 0.0690931 -0.241481 0
       vertex 0.101167 -0.247861 0
    endloop
  endfacet
  facet normal -0.321425 -0.946935 0
    outer loop
       vertex 0.0690931 -0.241481 0
       vertex 0.0690931 -0.241481 0.1
       vertex 0.0381271 -0.23097 0.1
    endloop
  endfacet
  facet normal -0.321425 -0.946935 -0
    outer loop
       vertex 0.0381271 -0.23097 0.1
       vertex 0.0381271 -0.23097 0
       vertex 0.0690931 -0.241481 0
    endloop
  endfacet
  facet normal -0.442302 -0.896866 0
    outer loop
       vertex 0.0381271 -0.23097 0
       vertex 0.0381271 -0.23097 0.1
       vertex 0.00879806 -0.216506 0.1
    endloop
  endfacet
  facet normal -0.442302 -0.896866 -0
    outer loop
       vertex 0.00879806 -0.216506 0.1
       vertex 0.00879806 -0.216506 0
       vertex 0.0381271 -0.23097 0
    endloop
  endfacet
  facet normal -0.555561 -0.831476 0
    outer loop
       vertex 0.00879806 -0.216506 0
       vertex 0.00879806 -0.216506 0.1
       vertex -0.0183929 -0.198338 0.1
    endloop
  endfacet
  facet normal -0.555561 -0.831476 -0
    outer loop
       vertex -0.0183929 -0.198338 0.1
       vertex -0.0183929 -0.198338 0
       vertex 0.00879806 -0.216506 0
    endloop
  endfacet
  facet normal -0.659372 -0.751817 0
    outer loop
       vertex -0.0183929 -0.198338 0
       vertex -0.0183929 -0.198338 0.1
       vertex -0.0429779 -0.176776 0.1
    endloop
  endfacet
  facet normal -0.659372 -0.751817 -0
    outer loop
       vertex -0.0429779 -0.176776 0.1
       vertex -0.0429779 -0.176776 0
       vertex -0.0183929 -0.198338 0
    endloop
  endfacet
endsolid cylinder
