solid cylinder
  facet normal 0.751817 -0.659372 0
    outer loop
       vertex 0.475831 -0.176776 0
       vertex 0.497393 -0.152191 0
       vertex 0.497393 -0.152191 0.1
    endloop
  endfacet
  facet normal 0.751817 -0.659372 0
    outer loop
       vertex 0.497393 -0.152191 0.1
       vertex 0.475831 -0.176776 0.1
       vertex 0.475831 -0.176776 0
    endloop
  endfacet
  facet normal 0.831476 -0.555561 0
    outer loop
       vertex 0.497393 -0.152191 0
       vertex 0.515561 -0.125 0
       vertex 0.515561 -0.125 0.1
    endloop
  endfacet
  facet normal 0.831476 -0.555561 0
    outer loop
       vertex 0.515561 -0.125 0.1
       vertex 0.497393 -0.152191 0.1
       vertex 0.497393 -0.152191 0
    endloop
  endfacet
  facet normal 0.896866 -0.442302 0
    outer loop
       vertex 0.515561 -0.125 0
       vertex 0.530025 -0.095671 0
       vertex 0.530025 -0.095671 0.1
    endloop
  endfacet
  facet normal 0.896866 -0.442302 0
    outer loop
       vertex 0.530025 -0.095671 0.1
       vertex 0.515561 -0.125 0.1
       vertex 0.515561 -0.125 0
    endloop
  endfacet
  facet normal 0.946935 -0.321425 0
    outer loop
       vertex 0.530025 -0.095671 0
       vertex 0.540536 -0.064705 0
       vertex 0.540536 -0.064705 0.1
    endloop
  endfacet
  facet normal 0.946935 -0.321425 0
    outer loop
       vertex 0.540536 -0.064705 0.1
       vertex 0.530025 -0.095671 0.1
       vertex 0.530025 -0.095671 0
    endloop
  endfacet
  facet normal 0.980784 -0.195096 0
    outer loop
       vertex 0.540536 -0.064705 0
       vertex 0.546916 -0.0326315 0
       vertex 0.546916 -0.0326315 0.1
    endloop
  endfacet
  facet normal 0.980784 -0.195096 0
    outer loop
       vertex 0.546916 -0.0326315 0.1
       vertex 0.540536 -0.064705 0.1
       vertex 0.540536 -0.064705 0
    endloop
  endfacet
  facet normal 0.997858 -0.0654098 0
    outer loop
       vertex 0.549055 -8.32665e-17 0.1
       vertex 0.546916 -0.0326315 0.1
       vertex 0.546916 -0.0326315 0
    endloop
  endfacet
  facet normal 0.997858 -0.0654098 -1.08928e-16
    outer loop
       vertex 0.546916 -0.0326315 0
       vertex 0.549055 8.32665e-17 0
       vertex 0.549055 -8.32665e-17 0.1
    endloop
  endfacet
  facet normal 0.997858 0.0654098 0
    outer loop
       vertex 0.549055 8.32665e-17 0
       vertex 0.546916 0.0326315 0
       vertex 0.546916 0.0326315 0.1
    endloop
  endfacet
  facet normal 0.997858 0.0654098 1.08928e-16
    outer loop
       vertex 0.546916 0.0326315 0.1
       vertex 0.549055 -8.32665e-17 0.1
       vertex 0.549055 8.32665e-17 0
    endloop
  endfacet
  facet normal 0.980784 0.195096 0
    outer loop
       vertex 0.546916 0.0326315 0
       vertex 0.540536 0.064705 0
       vertex 0.540536 0.064705 0.1
    endloop
  endfacet
  facet normal 0.980784 0.195096 0
    outer loop
       vertex 0.540536 0.064705 0.1
       vertex 0.546916 0.0326315 0.1
       vertex 0.546916 0.0326315 0
    endloop
  endfacet
  facet normal 0.946935 0.321425 0
    outer loop
       vertex 0.540536 0.064705 0
       vertex 0.530025 0.095671 0
       vertex 0.530025 0.095671 0.1
    endloop
  endfacet
  facet normal 0.946935 0.321425 0
    outer loop
       vertex 0.530025 0.095671 0.1
       vertex 0.540536 0.064705 0.1
       vertex 0.540536 0.064705 0
    endloop
  endfacet
  facet normal 0.896866 0.442302 0
    outer loop
       vertex 0.530025 0.095671 0
       vertex 0.515561 0.125 0
       vertex 0.515561 0.125 0.1
    endloop
  endfacet
  facet normal 0.896866 0.442302 0
    outer loop
       vertex 0.515561 0.125 0.1
       vertex 0.530025 0.095671 0.1
       vertex 0.530025 0.095671 0
    endloop
  endfacet
  facet normal 0.831476 0.555561 0
    outer loop
       vertex 0.515561 0.125 0
       vertex 0.497393 0.152191 0
       vertex 0.497393 0.152191 0.1
    endloop
  endfacet
  facet normal 0.831476 0.555561 0
    outer loop
       vertex 0.497393 0.152191 0.1
       vertex 0.515561 0.125 0.1
       vertex 0.515561 0.125 0
    endloop
  endfacet
  facet normal 0.751817 0.659372 0
    outer loop
       vertex 0.497393 0.152191 0
       vertex 0.475831 0.176776 0
       vertex 0.475831 0.176776 0.1
    endloop
  endfacet
  facet normal 0.751817 0.659372 0
    outer loop
       vertex 0.475831 0.176776 0.1
       vertex 0.497393 0.152191 0.1
       vertex 0.497393 0.152191 0
    endloop
  endfacet
  facet normal 0.659372 0.751817 0
    outer loop
       vertex 0.475831 0.176776 0
       vertex 0.451246 0.198338 0
       vertex 0.451246 0.198338 0.1
    endloop
  endfacet
  facet normal 0.659372 0.751817 0
    outer loop
       vertex 0.451246 0.198338 0.1
       vertex 0.475831 0.176776 0.1
       vertex 0.475831 0.176776 0
    endloop
  endfacet
  facet normal 0.555561 0.831476 0
    outer loop
       vertex 0.451246 0.198338 0
       vertex 0.424055 0.216506 0
       vertex 0.424055 0.216506 0.1
    endloop
  endfacet
  facet normal 0.555561 0.831476 0
    outer loop
       vertex 0.424055 0.216506 0.1
       vertex 0.451246 0.198338 0.1
       vertex 0.451246 0.198338 0
    endloop
  endfacet
  facet normal 0.442302 0.896866 0
    outer loop
       vertex 0.424055 0.216506 0
       vertex 0.394726 0.23097 0
       vertex 0.394726 0.23097 0.1
    endloop
  endfacet
  facet normal 0.442302 0.896866 0
    outer loop
       vertex 0.394726 0.23097 0.1
       vertex 0.424055 0.216506 0.1
       vertex 0.424055 0.216506 0
    endloop
  endfacet
  facet normal 0.321425 0.946935 0
    outer loop
       vertex 0.394726 0.23097 0
       vertex 0.36376 0.241481 0
       vertex 0.36376 0.241481 0.1
    endloop
  endfacet
  facet normal 0.321425 0.946935 0
    outer loop
       vertex 0.36376 0.241481 0.1
       vertex 0.394726 0.23097 0.1
       vertex 0.394726 0.23097 0
    endloop
  endfacet
  facet normal 0.195096 0.980784 0
    outer loop
       vertex 0.36376 0.241481 0
       vertex 0.331687 0.247861 0
       vertex 0.331687 0.247861 0.1
    endloop
  endfacet
  facet normal 0.195096 0.980784 0
    outer loop
       vertex 0.331687 0.247861 0.1
       vertex 0.36376 0.241481 0.1
       vertex 0.36376 0.241481 0
    endloop
  endfacet
  facet normal 0.0654098 0.997858 0
    outer loop
       vertex 0.299055 0.25 0.1
       vertex 0.331687 0.247861 0.1
       vertex 0.331687 0.247861 0
    endloop
  endfacet
  facet normal 0.0654098 0.997858 -1.45239e-16
    outer loop
       vertex 0.331687 0.247861 0
       vertex 0.299055 0.25 0
       vertex 0.299055 0.25 0.1
    endloop
  endfacet
  facet normal -0.0654098 0.997858 0
    outer loop
       vertex 0.299055 0.25 0
       vertex 0.266424 0.247861 0
       vertex 0.266424 0.247861 0.1
    endloop
  endfacet
  facet normal -0.0654098 0.997858 1.45239e-16
    outer loop
       vertex 0.266424 0.247861 0.1
       vertex 0.299055 0.25 0.1
       vertex 0.299055 0.25 0
    endloop
  endfacet
  facet normal -0.195096 0.980784 0
    outer loop
       vertex 0.266424 0.247861 0
       vertex 0.23435 0.241481 0
       vertex 0.23435 0.241481 0.1
    endloop
  endfacet
  facet normal -0.195096 0.980784 0
    outer loop
       vertex 0.23435 0.241481 0.1
       vertex 0.266424 0.247861 0.1
       vertex 0.266424 0.247861 0
    endloop
  endfacet
  facet normal -0.321425 0.946935 0
    outer loop
       vertex 0.23435 0.241481 0
       vertex 0.203384 0.23097 0
       vertex 0.203384 0.23097 0.1
    endloop
  endfacet
  facet normal -0.321425 0.946935 0
    outer loop
       vertex 0.203384 0.23097 0.1
       vertex 0.23435 0.241481 0.1
       vertex 0.23435 0.241481 0
    endloop
  endfacet
  facet normal -0.442302 0.896866 0
    outer loop
       vertex 0.203384 0.23097 0
       vertex 0.174055 0.216506 0
       vertex 0.174055 0.216506 0.1
    endloop
  endfacet
  facet normal -0.442302 0.896866 0
    outer loop
       vertex 0.174055 0.216506 0.1
       vertex 0.203384 0.23097 0.1
       vertex 0.203384 0.23097 0
    endloop
  endfacet
  facet normal -0.555561 0.831476 0
    outer loop
       vertex 0.174055 0.216506 0
       vertex 0.146864 0.198338 0
       vertex 0.146864 0.198338 0.1
    endloop
  endfacet
  facet normal -0.555561 0.831476 0
    outer loop
       vertex 0.146864 0.198338 0.1
       vertex 0.174055 0.216506 0.1
       vertex 0.174055 0.216506 0
    endloop
  endfacet
  facet normal -0.659372 0.751817 0
    outer loop
       vertex 0.146864 0.198338 0
       vertex 0.122279 0.176776 0
       vertex 0.122279 0.176776 0.1
    endloop
  endfacet
  facet normal -0.659372 0.751817 0
    outer loop
       vertex 0.122279 0.176776 0.1
       vertex 0.146864 0.198338 0.1
       vertex 0.146864 0.198338 0
    endloop
  endfacet
  facet normal -0.751817 0.659372 0
    outer loop
       vertex 0.122279 0.176776 0
       vertex 0.100717 0.152191 0
       vertex 0.100717 0.152191 0.1
    endloop
  endfacet
  facet normal -0.751817 0.659372 0
    outer loop
       vertex 0.100717 0.152191 0.1
       vertex 0.122279 0.176776 0.1
       vertex 0.122279 0.176776 0
    endloop
  endfacet
  facet normal -0.831476 0.555561 0
    outer loop
       vertex 0.100717 0.152191 0
       vertex 0.0825491 0.125 0
       vertex 0.0825491 0.125 0.1
    endloop
  endfacet
  facet normal -0.831476 0.555561 0
    outer loop
       vertex 0.0825491 0.125 0.1
       vertex 0.100717 0.152191 0.1
       vertex 0.100717 0.152191 0
    endloop
  endfacet
  facet normal -0.896866 0.442302 0
    outer loop
       vertex 0.0825491 0.125 0
       vertex 0.0680851 0.095671 0
       vertex 0.0680851 0.095671 0.1
    endloop
  endfacet
  facet normal -0.896866 0.442302 0
    outer loop
       vertex 0.0680851 0.095671 0.1
       vertex 0.0825491 0.125 0.1
       vertex 0.0825491 0.125 0
    endloop
  endfacet
  facet normal -0.946935 0.321425 0
    outer loop
       vertex 0.0680851 0.095671 0
       vertex 0.0575741 0.064705 0
       vertex 0.0575741 0.064705 0.1
    endloop
  endfacet
  facet normal -0.946935 0.321425 0
    outer loop
       vertex 0.0575741 0.064705 0.1
       vertex 0.0680851 0.095671 0.1
       vertex 0.0680851 0.095671 0
    endloop
  endfacet
  facet normal -0.980784 0.195096 0
    outer loop
       vertex 0.0575741 0.064705 0
       vertex 0.0511941 0.0326315 0
       vertex 0.0511941 0.0326315 0.1
    endloop
  endfacet
  facet normal -0.980784 0.195096 0
    outer loop
       vertex 0.0511941 0.0326315 0.1
       vertex 0.0575741 0.064705 0.1
       vertex 0.0575741 0.064705 0
    endloop
  endfacet
  facet normal -0.997858 0.0654098 0
    outer loop
       vertex 0.0490551 8.32665e-17 0.1
       vertex 0.0511941 0.0326315 0.1
       vertex 0.0511941 0.0326315 0
    endloop
  endfacet
  facet normal -0.997858 0.0654098 -1.08928e-16
    outer loop
       vertex 0.0511941 0.0326315 0
       vertex 0.0490551 -8.32665e-17 0
       vertex 0.0490551 8.32665e-17 0.1
    endloop
  endfacet
  facet normal -0.997858 -0.0654098 0
    outer loop
       vertex 0.0490551 -8.32665e-17 0
       vertex 0.0511941 -0.0326315 0
       vertex 0.0511941 -0.0326315 0.1
    endloop
  endfacet
  facet normal -0.997858 -0.0654098 1.08928e-16
    outer loop
       vertex 0.0511941 -0.0326315 0.1
       vertex 0.0490551 8.32665e-17 0.1
       vertex 0.0490551 -8.32665e-17 0
    endloop
  endfacet
  facet normal -0.980784 -0.195096 0
    outer loop
       vertex 0.0511941 -0.0326315 0
       vertex 0.0575741 -0.064705 0
       vertex 0.0575741 -0.064705 0.1
    endloop
  endfacet
  facet normal -0.980784 -0.195096 0
    outer loop
       vertex 0.0575741 -0.064705 0.1
       vertex 0.0511941 -0.0326315 0.1
       vertex 0.0511941 -0.0326315 0
    endloop
  endfacet
  facet normal -0.946935 -0.321425 0
    outer loop
       vertex 0.0575741 -0.064705 0
       vertex 0.0680851 -0.095671 0
       vertex 0.0680851 -0.095671 0.1
    endloop
  endfacet
  facet normal -0.946935 -0.321425 0
    outer loop
       vertex 0.0680851 -0.095671 0.1
       vertex 0.0575741 -0.064705 0.1
       vertex 0.0575741 -0.064705 0
    endloop
  endfacet
  facet normal -0.896866 -0.442302 0
    outer loop
       vertex 0.0680851 -0.095671 0
       vertex 0.0825491 -0.125 0
       vertex 0.0825491 -0.125 0.1
    endloop
  endfacet
  facet normal -0.896866 -0.442302 0
    outer loop
       vertex 0.0825491 -0.125 0.1
       vertex 0.0680851 -0.095671 0.1
       vertex 0.0680851 -0.095671 0
    endloop
  endfacet
  facet normal -0.831476 -0.555561 0
    outer loop
       vertex 0.0825491 -0.125 0
       vertex 0.100717 -0.152191 0
       vertex 0.100717 -0.152191 0.1
    endloop
  endfacet
  facet normal -0.831476 -0.555561 0
    outer loop
       vertex 0.100717 -0.152191 0.1
       vertex 0.0825491 -0.125 0.1
       vertex 0.0825491 -0.125 0
    endloop
  endfacet
  facet normal -0.751817 -0.659372 0
    outer loop
       vertex 0.100717 -0.152191 0
       vertex 0.122279 -0.176776 0
       vertex 0.122279 -0.176776 0.1
    endloop
  endfacet
  facet normal -0.751817 -0.659372 0
    outer loop
       vertex 0.122279 -0.176776 0.1
       vertex 0.100717 -0.152191 0.1
       vertex 0.100717 -0.152191 0
    endloop
  endfacet
  facet normal 0.659372 -0.751817 0
    outer loop
       vertex 0.475831 -0.176776 0
       vertex 0.475831 -0.176776 0.1
       vertex 0.451246 -0.198338 0.1
    endloop
  endfacet
  facet normal 0.659372 -0.751817 0
    outer loop
       vertex 0.451246 -0.198338 0.1
       vertex 0.451246 -0.198338 0
       vertex 0.475831 -0.176776 0
    endloop
  endfacet
  facet normal 0.555561 -0.831476 0
    outer loop
       vertex 0.451246 -0.198338 0
       vertex 0.451246 -0.198338 0.1
       vertex 0.424055 -0.216506 0.1
    endloop
  endfacet
  facet normal 0.555561 -0.831476 0
    outer loop
       vertex 0.424055 -0.216506 0.1
       vertex 0.424055 -0.216506 0
       vertex 0.451246 -0.198338 0
    endloop
  endfacet
  facet normal 0.442302 -0.896866 0
    outer loop
       vertex 0.424055 -0.216506 0
       vertex 0.424055 -0.216506 0.1
       vertex 0.394726 -0.23097 0.1
    endloop
  endfacet
  facet normal 0.442302 -0.896866 0
    outer loop
       vertex 0.394726 -0.23097 0.1
       vertex 0.394726 -0.23097 0
       vertex 0.424055 -0.216506 0
    endloop
  endfacet
  facet normal 0.321425 -0.946935 0
    outer loop
       vertex 0.394726 -0.23097 0
       vertex 0.394726 -0.23097 0.1
       vertex 0.36376 -0.241481 0.1
    endloop
  endfacet
  facet normal 0.321425 -0.946935 0
    outer loop
       vertex 0.36376 -0.241481 0.1
       vertex 0.36376 -0.241481 0
       vertex 0.394726 -0.23097 0
    endloop
  endfacet
  facet normal 0.195096 -0.980784 0
    outer loop
       vertex 0.36376 -0.241481 0
       vertex 0.36376 -0.241481 0.1
       vertex 0.331687 -0.247861 0.1
    endloop
  endfacet
  facet normal 0.195096 -0.980784 0
    outer loop
       vertex 0.331687 -0.247861 0.1
       vertex 0.331687 -0.247861 0
       vertex 0.36376 -0.241481 0
    endloop
  endfacet
  facet normal 0.0654098 -0.997858 0
    outer loop
       vertex 0.299055 -0.25 0
       vertex 0.331687 -0.247861 0
       vertex 0.331687 -0.247861 0.1
    endloop
  endfacet
  facet normal 0.0654098 -0.997858 1.45239e-16
    outer loop
       vertex 0.331687 -0.247861 0.1
       vertex 0.299055 -0.25 0.1
       vertex 0.299055 -0.25 0
    endloop
  endfacet
  facet normal -0.0654098 -0.997858 0
    outer loop
       vertex 0.299055 -0.25 0.1
       vertex 0.266424 -0.247861 0.1
       vertex 0.266424 -0.247861 0
    endloop
  endfacet
  facet normal -0.0654098 -0.997858 -1.45239e-16
    outer loop
       vertex 0.266424 -0.247861 0
       vertex 0.299055 -0.25 0
       vertex 0.299055 -0.25 0.1
    endloop
  endfacet
  facet normal -0.195096 -0.980784 0
    outer loop
       vertex 0.266424 -0.247861 0
       vertex 0.266424 -0.247861 0.1
       vertex 0.23435 -0.241481 0.1
    endloop
  endfacet
  facet normal -0.195096 -0.980784 -0
    outer loop
       vertex 0.23435 -0.241481 0.1
       vertex 0.23435 -0.241481 0
       vertex 0.266424 -0.247861 0
    endloop
  endfacet
  facet normal -0.321425 -0.946935 0
    outer loop
       vertex 0.23435 -0.241481 0
       vertex 0.23435 -0.241481 0.1
       vertex 0.203384 -0.23097 0.1
    endloop
  endfacet
  facet normal -0.321425 -0.946935 -0
    outer loop
       vertex 0.203384 -0.23097 0.1
       vertex 0.203384 -0.23097 0
       vertex 0.23435 -0.241481 0
    endloop
  endfacet
  facet normal -0.442302 -0.896866 0
    outer loop
       vertex 0.203384 -0.23097 0
       vertex 0.203384 -0.23097 0.1
       vertex 0.174055 -0.216506 0.1
    endloop
  endfacet
  facet normal -0.442302 -0.896866 -0
    outer loop
       vertex 0.174055 -0.216506 0.1
       vertex 0.174055 -0.216506 0
       vertex 0.203384 -0.23097 0
    endloop
  endfacet
  facet normal -0.555561 -0.831476 0
    outer loop
       vertex 0.174055 -0.216506 0
       vertex 0.174055 -0.216506 0.1
       vertex 0.146864 -0.198338 0.1
    endloop
  endfacet
  facet normal -0.555561 -0.831476 -0
    outer loop
       vertex 0.146864 -0.198338 0.1
       vertex 0.146864 -0.198338 0
       vertex 0.174055 -0.216506 0
    endloop
  endfacet
  facet normal -0.659372 -0.751817 0
    outer loop
       vertex 0.146864 -0.198338 0
       vertex 0.146864 -0.198338 0.1
       vertex 0.122279 -0.176776 0.1
    endloop
  endfacet
  facet normal -0.659372 -0.751817 -0
    outer loop
       vertex 0.122279 -0.176776 0.1
       vertex 0.122279 -0.176776 0
       vertex 0.146864 -0.198338 0
    endloop
  endfacet
endsolid cylinder
