solid cylinder
  facet normal 0.751817 -0.659372 0
    outer loop
       vertex 0.46437 -0.176776 0
       vertex 0.485932 -0.152191 0
       vertex 0.485932 -0.152191 0.1
    endloop
  endfacet
  facet normal 0.751817 -0.659372 0
    outer loop
       vertex 0.485932 -0.152191 0.1
       vertex 0.46437 -0.176776 0.1
       vertex 0.46437 -0.176776 0
    endloop
  endfacet
  facet normal 0.831476 -0.555561 0
    outer loop
       vertex 0.485932 -0.152191 0
       vertex 0.5041 -0.125 0
       vertex 0.5041 -0.125 0.1
    endloop
  endfacet
  facet normal 0.831476 -0.555561 0
    outer loop
       vertex 0.5041 -0.125 0.1
       vertex 0.485932 -0.152191 0.1
       vertex 0.485932 -0.152191 0
    endloop
  endfacet
  facet normal 0.896866 -0.442302 0
    outer loop
       vertex 0.5041 -0.125 0
       vertex 0.518564 -0.095671 0
       vertex 0.518564 -0.095671 0.1
    endloop
  endfacet
  facet normal 0.896866 -0.442302 0
    outer loop
       vertex 0.518564 -0.095671 0.1
       vertex 0.5041 -0.125 0.1
       vertex 0.5041 -0.125 0
    endloop
  endfacet
  facet normal 0.946935 -0.321425 0
    outer loop
       vertex 0.518564 -0.095671 0
       vertex 0.529075 -0.064705 0
       vertex 0.529075 -0.064705 0.1
    endloop
  endfacet
  facet normal 0.946935 -0.321425 0
    outer loop
       vertex 0.529075 -0.064705 0.1
       vertex 0.518564 -0.095671 0.1
       vertex 0.518564 -0.095671 0
    endloop
  endfacet
  facet normal 0.980784 -0.195096 0
    outer loop
       vertex 0.529075 -0.064705 0
       vertex 0.535455 -0.0326315 0
       vertex 0.535455 -0.0326315 0.1
    endloop
  endfacet
  facet normal 0.980784 -0.195096 0
    outer loop
       vertex 0.535455 -0.0326315 0.1
       vertex 0.529075 -0.064705 0.1
       vertex 0.529075 -0.064705 0
    endloop
  endfacet
  facet normal 0.997858 -0.0654098 0
    outer loop
       vertex 0.537594 -8.32665e-17 0.1
       vertex 0.535455 -0.0326315 0.1
       vertex 0.535455 -0.0326315 0
    endloop
  endfacet
  facet normal 0.997858 -0.0654098 -1.0893e-16
    outer loop
       vertex 0.535455 -0.0326315 0
       vertex 0.537594 8.32665e-17 0
       vertex 0.537594 -8.32665e-17 0.1
    endloop
  endfacet
  facet normal 0.997858 0.0654098 0
    outer loop
       vertex 0.537594 8.32665e-17 0
       vertex 0.535455 0.0326315 0
       vertex 0.535455 0.0326315 0.1
    endloop
  endfacet
  facet normal 0.997858 0.0654098 1.0893e-16
    outer loop
       vertex 0.535455 0.0326315 0.1
       vertex 0.537594 -8.32665e-17 0.1
       vertex 0.537594 8.32665e-17 0
    endloop
  endfacet
  facet normal 0.980784 0.195096 0
    outer loop
       vertex 0.535455 0.0326315 0
       vertex 0.529075 0.064705 0
       vertex 0.529075 0.064705 0.1
    endloop
  endfacet
  facet normal 0.980784 0.195096 0
    outer loop
       vertex 0.529075 0.064705 0.1
       vertex 0.535455 0.0326315 0.1
       vertex 0.535455 0.0326315 0
    endloop
  endfacet
  facet normal 0.946935 0.321425 0
    outer loop
       vertex 0.529075 0.064705 0
       vertex 0.518564 0.095671 0
       vertex 0.518564 0.095671 0.1
    endloop
  endfacet
  facet normal 0.946935 0.321425 0
    outer loop
       vertex 0.518564 0.095671 0.1
       vertex 0.529075 0.064705 0.1
       vertex 0.529075 0.064705 0
    endloop
  endfacet
  facet normal 0.896866 0.442302 0
    outer loop
       vertex 0.518564 0.095671 0
       vertex 0.5041 0.125 0
       vertex 0.5041 0.125 0.1
    endloop
  endfacet
  facet normal 0.896866 0.442302 0
    outer loop
       vertex 0.5041 0.125 0.1
       vertex 0.518564 0.095671 0.1
       vertex 0.518564 0.095671 0
    endloop
  endfacet
  facet normal 0.831476 0.555561 0
    outer loop
       vertex 0.5041 0.125 0
       vertex 0.485932 0.152191 0
       vertex 0.485932 0.152191 0.1
    endloop
  endfacet
  facet normal 0.831476 0.555561 0
    outer loop
       vertex 0.485932 0.152191 0.1
       vertex 0.5041 0.125 0.1
       vertex 0.5041 0.125 0
    endloop
  endfacet
  facet normal 0.751817 0.659372 0
    outer loop
       vertex 0.485932 0.152191 0
       vertex 0.46437 0.176776 0
       vertex 0.46437 0.176776 0.1
    endloop
  endfacet
  facet normal 0.751817 0.659372 0
    outer loop
       vertex 0.46437 0.176776 0.1
       vertex 0.485932 0.152191 0.1
       vertex 0.485932 0.152191 0
    endloop
  endfacet
  facet normal 0.659372 0.751817 0
    outer loop
       vertex 0.46437 0.176776 0
       vertex 0.439785 0.198338 0
       vertex 0.439785 0.198338 0.1
    endloop
  endfacet
  facet normal 0.659372 0.751817 0
    outer loop
       vertex 0.439785 0.198338 0.1
       vertex 0.46437 0.176776 0.1
       vertex 0.46437 0.176776 0
    endloop
  endfacet
  facet normal 0.555561 0.831476 0
    outer loop
       vertex 0.439785 0.198338 0
       vertex 0.412594 0.216506 0
       vertex 0.412594 0.216506 0.1
    endloop
  endfacet
  facet normal 0.555561 0.831476 0
    outer loop
       vertex 0.412594 0.216506 0.1
       vertex 0.439785 0.198338 0.1
       vertex 0.439785 0.198338 0
    endloop
  endfacet
  facet normal 0.442302 0.896866 0
    outer loop
       vertex 0.412594 0.216506 0
       vertex 0.383265 0.23097 0
       vertex 0.383265 0.23097 0.1
    endloop
  endfacet
  facet normal 0.442302 0.896866 0
    outer loop
       vertex 0.383265 0.23097 0.1
       vertex 0.412594 0.216506 0.1
       vertex 0.412594 0.216506 0
    endloop
  endfacet
  facet normal 0.321425 0.946935 0
    outer loop
       vertex 0.383265 0.23097 0
       vertex 0.352299 0.241481 0
       vertex 0.352299 0.241481 0.1
    endloop
  endfacet
  facet normal 0.321425 0.946935 0
    outer loop
       vertex 0.352299 0.241481 0.1
       vertex 0.383265 0.23097 0.1
       vertex 0.383265 0.23097 0
    endloop
  endfacet
  facet normal 0.195096 0.980784 0
    outer loop
       vertex 0.352299 0.241481 0
       vertex 0.320226 0.247861 0
       vertex 0.320226 0.247861 0.1
    endloop
  endfacet
  facet normal 0.195096 0.980784 0
    outer loop
       vertex 0.320226 0.247861 0.1
       vertex 0.352299 0.241481 0.1
       vertex 0.352299 0.241481 0
    endloop
  endfacet
  facet normal 0.0654098 0.997858 0
    outer loop
       vertex 0.287594 0.25 0.1
       vertex 0.320226 0.247861 0.1
       vertex 0.320226 0.247861 0
    endloop
  endfacet
  facet normal 0.0654098 0.997858 -7.26205e-17
    outer loop
       vertex 0.320226 0.247861 0
       vertex 0.287594 0.25 0
       vertex 0.287594 0.25 0.1
    endloop
  endfacet
  facet normal -0.0654098 0.997858 0
    outer loop
       vertex 0.287594 0.25 0
       vertex 0.254963 0.247861 0
       vertex 0.254963 0.247861 0.1
    endloop
  endfacet
  facet normal -0.0654098 0.997858 7.26205e-17
    outer loop
       vertex 0.254963 0.247861 0.1
       vertex 0.287594 0.25 0.1
       vertex 0.287594 0.25 0
    endloop
  endfacet
  facet normal -0.195096 0.980784 0
    outer loop
       vertex 0.254963 0.247861 0
       vertex 0.222889 0.241481 0
       vertex 0.222889 0.241481 0.1
    endloop
  endfacet
  facet normal -0.195096 0.980784 0
    outer loop
       vertex 0.222889 0.241481 0.1
       vertex 0.254963 0.247861 0.1
       vertex 0.254963 0.247861 0
    endloop
  endfacet
  facet normal -0.321425 0.946935 0
    outer loop
       vertex 0.222889 0.241481 0
       vertex 0.191923 0.23097 0
       vertex 0.191923 0.23097 0.1
    endloop
  endfacet
  facet normal -0.321425 0.946935 0
    outer loop
       vertex 0.191923 0.23097 0.1
       vertex 0.222889 0.241481 0.1
       vertex 0.222889 0.241481 0
    endloop
  endfacet
  facet normal -0.442302 0.896866 0
    outer loop
       vertex 0.191923 0.23097 0
       vertex 0.162594 0.216506 0
       vertex 0.162594 0.216506 0.1
    endloop
  endfacet
  facet normal -0.442302 0.896866 0
    outer loop
       vertex 0.162594 0.216506 0.1
       vertex 0.191923 0.23097 0.1
       vertex 0.191923 0.23097 0
    endloop
  endfacet
  facet normal -0.555561 0.831476 0
    outer loop
       vertex 0.162594 0.216506 0
       vertex 0.135403 0.198338 0
       vertex 0.135403 0.198338 0.1
    endloop
  endfacet
  facet normal -0.555561 0.831476 0
    outer loop
       vertex 0.135403 0.198338 0.1
       vertex 0.162594 0.216506 0.1
       vertex 0.162594 0.216506 0
    endloop
  endfacet
  facet normal -0.659372 0.751817 0
    outer loop
       vertex 0.135403 0.198338 0
       vertex 0.110818 0.176776 0
       vertex 0.110818 0.176776 0.1
    endloop
  endfacet
  facet normal -0.659372 0.751817 0
    outer loop
       vertex 0.110818 0.176776 0.1
       vertex 0.135403 0.198338 0.1
       vertex 0.135403 0.198338 0
    endloop
  endfacet
  facet normal -0.751817 0.659372 0
    outer loop
       vertex 0.110818 0.176776 0
       vertex 0.089256 0.152191 0
       vertex 0.089256 0.152191 0.1
    endloop
  endfacet
  facet normal -0.751817 0.659372 0
    outer loop
       vertex 0.089256 0.152191 0.1
       vertex 0.110818 0.176776 0.1
       vertex 0.110818 0.176776 0
    endloop
  endfacet
  facet normal -0.831476 0.555561 0
    outer loop
       vertex 0.089256 0.152191 0
       vertex 0.071088 0.125 0
       vertex 0.071088 0.125 0.1
    endloop
  endfacet
  facet normal -0.831476 0.555561 0
    outer loop
       vertex 0.071088 0.125 0.1
       vertex 0.089256 0.152191 0.1
       vertex 0.089256 0.152191 0
    endloop
  endfacet
  facet normal -0.896866 0.442302 0
    outer loop
       vertex 0.071088 0.125 0
       vertex 0.056624 0.095671 0
       vertex 0.056624 0.095671 0.1
    endloop
  endfacet
  facet normal -0.896866 0.442302 0
    outer loop
       vertex 0.056624 0.095671 0.1
       vertex 0.071088 0.125 0.1
       vertex 0.071088 0.125 0
    endloop
  endfacet
  facet normal -0.946935 0.321425 0
    outer loop
       vertex 0.056624 0.095671 0
       vertex 0.046113 0.064705 0
       vertex 0.046113 0.064705 0.1
    endloop
  endfacet
  facet normal -0.946935 0.321425 0
    outer loop
       vertex 0.046113 0.064705 0.1
       vertex 0.056624 0.095671 0.1
       vertex 0.056624 0.095671 0
    endloop
  endfacet
  facet normal -0.980784 0.195096 0
    outer loop
       vertex 0.046113 0.064705 0
       vertex 0.039733 0.0326315 0
       vertex 0.039733 0.0326315 0.1
    endloop
  endfacet
  facet normal -0.980784 0.195096 0
    outer loop
       vertex 0.039733 0.0326315 0.1
       vertex 0.046113 0.064705 0.1
       vertex 0.046113 0.064705 0
    endloop
  endfacet
  facet normal -0.997858 0.0654098 0
    outer loop
       vertex 0.037594 8.32665e-17 0.1
       vertex 0.039733 0.0326315 0.1
       vertex 0.039733 0.0326315 0
    endloop
  endfacet
  facet normal -0.997858 0.0654098 -1.08928e-16
    outer loop
       vertex 0.039733 0.0326315 0
       vertex 0.037594 -8.32665e-17 0
       vertex 0.037594 8.32665e-17 0.1
    endloop
  endfacet
  facet normal -0.997858 -0.0654098 0
    outer loop
       vertex 0.037594 -8.32665e-17 0
       vertex 0.039733 -0.0326315 0
       vertex 0.039733 -0.0326315 0.1
    endloop
  endfacet
  facet normal -0.997858 -0.0654098 1.08928e-16
    outer loop
       vertex 0.039733 -0.0326315 0.1
       vertex 0.037594 8.32665e-17 0.1
       vertex 0.037594 -8.32665e-17 0
    endloop
  endfacet
  facet normal -0.980784 -0.195096 0
    outer loop
       vertex 0.039733 -0.0326315 0
       vertex 0.046113 -0.064705 0
       vertex 0.046113 -0.064705 0.1
    endloop
  endfacet
  facet normal -0.980784 -0.195096 0
    outer loop
       vertex 0.046113 -0.064705 0.1
       vertex 0.039733 -0.0326315 0.1
       vertex 0.039733 -0.0326315 0
    endloop
  endfacet
  facet normal -0.946935 -0.321425 0
    outer loop
       vertex 0.046113 -0.064705 0
       vertex 0.056624 -0.095671 0
       vertex 0.056624 -0.095671 0.1
    endloop
  endfacet
  facet normal -0.946935 -0.321425 0
    outer loop
       vertex 0.056624 -0.095671 0.1
       vertex 0.046113 -0.064705 0.1
       vertex 0.046113 -0.064705 0
    endloop
  endfacet
  facet normal -0.896866 -0.442302 0
    outer loop
       vertex 0.056624 -0.095671 0
       vertex 0.071088 -0.125 0
       vertex 0.071088 -0.125 0.1
    endloop
  endfacet
  facet normal -0.896866 -0.442302 0
    outer loop
       vertex 0.071088 -0.125 0.1
       vertex 0.056624 -0.095671 0.1
       vertex 0.056624 -0.095671 0
    endloop
  endfacet
  facet normal -0.831476 -0.555561 0
    outer loop
       vertex 0.071088 -0.125 0
       vertex 0.089256 -0.152191 0
       vertex 0.089256 -0.152191 0.1
    endloop
  endfacet
  facet normal -0.831476 -0.555561 0
    outer loop
       vertex 0.089256 -0.152191 0.1
       vertex 0.071088 -0.125 0.1
       vertex 0.071088 -0.125 0
    endloop
  endfacet
  facet normal -0.751817 -0.659372 0
    outer loop
       vertex 0.089256 -0.152191 0
       vertex 0.110818 -0.176776 0
       vertex 0.110818 -0.176776 0.1
    endloop
  endfacet
  facet normal -0.751817 -0.659372 0
    outer loop
       vertex 0.110818 -0.176776 0.1
       vertex 0.089256 -0.152191 0.1
       vertex 0.089256 -0.152191 0
    endloop
  endfacet
  facet normal 0.659372 -0.751817 0
    outer loop
       vertex 0.46437 -0.176776 0
       vertex 0.46437 -0.176776 0.1
       vertex 0.439785 -0.198338 0.1
    endloop
  endfacet
  facet normal 0.659372 -0.751817 0
    outer loop
       vertex 0.439785 -0.198338 0.1
       vertex 0.439785 -0.198338 0
       vertex 0.46437 -0.176776 0
    endloop
  endfacet
  facet normal 0.555561 -0.831476 0
    outer loop
       vertex 0.439785 -0.198338 0
       vertex 0.439785 -0.198338 0.1
       vertex 0.412594 -0.216506 0.1
    endloop
  endfacet
  facet normal 0.555561 -0.831476 0
    outer loop
       vertex 0.412594 -0.216506 0.1
       vertex 0.412594 -0.216506 0
       vertex 0.439785 -0.198338 0
    endloop
  endfacet
  facet normal 0.442302 -0.896866 0
    outer loop
       vertex 0.412594 -0.216506 0
       vertex 0.412594 -0.216506 0.1
       vertex 0.383265 -0.23097 0.1
    endloop
  endfacet
  facet normal 0.442302 -0.896866 0
    outer loop
       vertex 0.383265 -0.23097 0.1
       vertex 0.383265 -0.23097 0
       vertex 0.412594 -0.216506 0
    endloop
  endfacet
  facet normal 0.321425 -0.946935 0
    outer loop
       vertex 0.383265 -0.23097 0
       vertex 0.383265 -0.23097 0.1
       vertex 0.352299 -0.241481 0.1
    endloop
  endfacet
  facet normal 0.321425 -0.946935 0
    outer loop
       vertex 0.352299 -0.241481 0.1
       vertex 0.352299 -0.241481 0
       vertex 0.383265 -0.23097 0
    endloop
  endfacet
  facet normal 0.195096 -0.980784 0
    outer loop
       vertex 0.352299 -0.241481 0
       vertex 0.352299 -0.241481 0.1
       vertex 0.320226 -0.247861 0.1
    endloop
  endfacet
  facet normal 0.195096 -0.980784 0
    outer loop
       vertex 0.320226 -0.247861 0.1
       vertex 0.320226 -0.247861 0
       vertex 0.352299 -0.241481 0
    endloop
  endfacet
  facet normal 0.0654098 -0.997858 0
    outer loop
       vertex 0.287594 -0.25 0
       vertex 0.320226 -0.247861 0
       vertex 0.320226 -0.247861 0.1
    endloop
  endfacet
  facet normal 0.0654098 -0.997858 7.26205e-17
    outer loop
       vertex 0.320226 -0.247861 0.1
       vertex 0.287594 -0.25 0.1
       vertex 0.287594 -0.25 0
    endloop
  endfacet
  facet normal -0.0654098 -0.997858 0
    outer loop
       vertex 0.287594 -0.25 0.1
       vertex 0.254963 -0.247861 0.1
       vertex 0.254963 -0.247861 0
    endloop
  endfacet
  facet normal -0.0654098 -0.997858 -7.26205e-17
    outer loop
       vertex 0.254963 -0.247861 0
       vertex 0.287594 -0.25 0
       vertex 0.287594 -0.25 0.1
    endloop
  endfacet
  facet normal -0.195096 -0.980784 0
    outer loop
       vertex 0.254963 -0.247861 0
       vertex 0.254963 -0.247861 0.1
       vertex 0.222889 -0.241481 0.1
    endloop
  endfacet
  facet normal -0.195096 -0.980784 -0
    outer loop
       vertex 0.222889 -0.241481 0.1
       vertex 0.222889 -0.241481 0
       vertex 0.254963 -0.247861 0
    endloop
  endfacet
  facet normal -0.321425 -0.946935 0
    outer loop
       vertex 0.222889 -0.241481 0
       vertex 0.222889 -0.241481 0.1
       vertex 0.191923 -0.23097 0.1
    endloop
  endfacet
  facet normal -0.321425 -0.946935 -0
    outer loop
       vertex 0.191923 -0.23097 0.1
       vertex 0.191923 -0.23097 0
       vertex 0.222889 -0.241481 0
    endloop
  endfacet
  facet normal -0.442302 -0.896866 0
    outer loop
       vertex 0.191923 -0.23097 0
       vertex 0.191923 -0.23097 0.1
       vertex 0.162594 -0.216506 0.1
    endloop
  endfacet
  facet normal -0.442302 -0.896866 -0
    outer loop
       vertex 0.162594 -0.216506 0.1
       vertex 0.162594 -0.216506 0
       vertex 0.191923 -0.23097 0
    endloop
  endfacet
  facet normal -0.555561 -0.831476 0
    outer loop
       vertex 0.162594 -0.216506 0
       vertex 0.162594 -0.216506 0.1
       vertex 0.135403 -0.198338 0.1
    endloop
  endfacet
  facet normal -0.555561 -0.831476 -0
    outer loop
       vertex 0.135403 -0.198338 0.1
       vertex 0.135403 -0.198338 0
       vertex 0.162594 -0.216506 0
    endloop
  endfacet
  facet normal -0.659372 -0.751817 0
    outer loop
       vertex 0.135403 -0.198338 0
       vertex 0.135403 -0.198338 0.1
       vertex 0.110818 -0.176776 0.1
    endloop
  endfacet
  facet normal -0.659372 -0.751817 -0
    outer loop
       vertex 0.110818 -0.176776 0.1
       vertex 0.110818 -0.176776 0
       vertex 0.135403 -0.198338 0
    endloop
  endfacet
endsolid cylinder
