solid cylinder
  facet normal 0.751817 -0.659372 0
    outer loop
       vertex 0.293256 -0.176776 0
       vertex 0.314818 -0.152191 0
       vertex 0.314818 -0.152191 0.1
    endloop
  endfacet
  facet normal 0.751817 -0.659372 0
    outer loop
       vertex 0.314818 -0.152191 0.1
       vertex 0.293256 -0.176776 0.1
       vertex 0.293256 -0.176776 0
    endloop
  endfacet
  facet normal 0.831476 -0.555561 0
    outer loop
       vertex 0.314818 -0.152191 0
       vertex 0.332986 -0.125 0
       vertex 0.332986 -0.125 0.1
    endloop
  endfacet
  facet normal 0.831476 -0.555561 0
    outer loop
       vertex 0.332986 -0.125 0.1
       vertex 0.314818 -0.152191 0.1
       vertex 0.314818 -0.152191 0
    endloop
  endfacet
  facet normal 0.896866 -0.442302 0
    outer loop
       vertex 0.332986 -0.125 0
       vertex 0.34745 -0.095671 0
       vertex 0.34745 -0.095671 0.1
    endloop
  endfacet
  facet normal 0.896866 -0.442302 0
    outer loop
       vertex 0.34745 -0.095671 0.1
       vertex 0.332986 -0.125 0.1
       vertex 0.332986 -0.125 0
    endloop
  endfacet
  facet normal 0.946935 -0.321425 0
    outer loop
       vertex 0.34745 -0.095671 0
       vertex 0.357961 -0.064705 0
       vertex 0.357961 -0.064705 0.1
    endloop
  endfacet
  facet normal 0.946935 -0.321425 0
    outer loop
       vertex 0.357961 -0.064705 0.1
       vertex 0.34745 -0.095671 0.1
       vertex 0.34745 -0.095671 0
    endloop
  endfacet
  facet normal 0.980784 -0.195096 0
    outer loop
       vertex 0.357961 -0.064705 0
       vertex 0.364341 -0.0326315 0
       vertex 0.364341 -0.0326315 0.1
    endloop
  endfacet
  facet normal 0.980784 -0.195096 0
    outer loop
       vertex 0.364341 -0.0326315 0.1
       vertex 0.357961 -0.064705 0.1
       vertex 0.357961 -0.064705 0
    endloop
  endfacet
  facet normal 0.997858 -0.0654098 0
    outer loop
       vertex 0.36648 -8.32665e-17 0.1
       vertex 0.364341 -0.0326315 0.1
       vertex 0.364341 -0.0326315 0
    endloop
  endfacet
  facet normal 0.997858 -0.0654098 -1.08928e-16
    outer loop
       vertex 0.364341 -0.0326315 0
       vertex 0.36648 8.32665e-17 0
       vertex 0.36648 -8.32665e-17 0.1
    endloop
  endfacet
  facet normal 0.997858 0.0654098 0
    outer loop
       vertex 0.36648 8.32665e-17 0
       vertex 0.364341 0.0326315 0
       vertex 0.364341 0.0326315 0.1
    endloop
  endfacet
  facet normal 0.997858 0.0654098 1.08928e-16
    outer loop
       vertex 0.364341 0.0326315 0.1
       vertex 0.36648 -8.32665e-17 0.1
       vertex 0.36648 8.32665e-17 0
    endloop
  endfacet
  facet normal 0.980784 0.195096 0
    outer loop
       vertex 0.364341 0.0326315 0
       vertex 0.357961 0.064705 0
       vertex 0.357961 0.064705 0.1
    endloop
  endfacet
  facet normal 0.980784 0.195096 0
    outer loop
       vertex 0.357961 0.064705 0.1
       vertex 0.364341 0.0326315 0.1
       vertex 0.364341 0.0326315 0
    endloop
  endfacet
  facet normal 0.946935 0.321425 0
    outer loop
       vertex 0.357961 0.064705 0
       vertex 0.34745 0.095671 0
       vertex 0.34745 0.095671 0.1
    endloop
  endfacet
  facet normal 0.946935 0.321425 0
    outer loop
       vertex 0.34745 0.095671 0.1
       vertex 0.357961 0.064705 0.1
       vertex 0.357961 0.064705 0
    endloop
  endfacet
  facet normal 0.896866 0.442302 0
    outer loop
       vertex 0.34745 0.095671 0
       vertex 0.332986 0.125 0
       vertex 0.332986 0.125 0.1
    endloop
  endfacet
  facet normal 0.896866 0.442302 0
    outer loop
       vertex 0.332986 0.125 0.1
       vertex 0.34745 0.095671 0.1
       vertex 0.34745 0.095671 0
    endloop
  endfacet
  facet normal 0.831476 0.555561 0
    outer loop
       vertex 0.332986 0.125 0
       vertex 0.314818 0.152191 0
       vertex 0.314818 0.152191 0.1
    endloop
  endfacet
  facet normal 0.831476 0.555561 0
    outer loop
       vertex 0.314818 0.152191 0.1
       vertex 0.332986 0.125 0.1
       vertex 0.332986 0.125 0
    endloop
  endfacet
  facet normal 0.751817 0.659372 0
    outer loop
       vertex 0.314818 0.152191 0
       vertex 0.293256 0.176776 0
       vertex 0.293256 0.176776 0.1
    endloop
  endfacet
  facet normal 0.751817 0.659372 0
    outer loop
       vertex 0.293256 0.176776 0.1
       vertex 0.314818 0.152191 0.1
       vertex 0.314818 0.152191 0
    endloop
  endfacet
  facet normal 0.659372 0.751817 0
    outer loop
       vertex 0.293256 0.176776 0
       vertex 0.268671 0.198338 0
       vertex 0.268671 0.198338 0.1
    endloop
  endfacet
  facet normal 0.659372 0.751817 0
    outer loop
       vertex 0.268671 0.198338 0.1
       vertex 0.293256 0.176776 0.1
       vertex 0.293256 0.176776 0
    endloop
  endfacet
  facet normal 0.555561 0.831476 0
    outer loop
       vertex 0.268671 0.198338 0
       vertex 0.24148 0.216506 0
       vertex 0.24148 0.216506 0.1
    endloop
  endfacet
  facet normal 0.555561 0.831476 0
    outer loop
       vertex 0.24148 0.216506 0.1
       vertex 0.268671 0.198338 0.1
       vertex 0.268671 0.198338 0
    endloop
  endfacet
  facet normal 0.442302 0.896866 0
    outer loop
       vertex 0.24148 0.216506 0
       vertex 0.212151 0.23097 0
       vertex 0.212151 0.23097 0.1
    endloop
  endfacet
  facet normal 0.442302 0.896866 0
    outer loop
       vertex 0.212151 0.23097 0.1
       vertex 0.24148 0.216506 0.1
       vertex 0.24148 0.216506 0
    endloop
  endfacet
  facet normal 0.321425 0.946935 0
    outer loop
       vertex 0.212151 0.23097 0
       vertex 0.181185 0.241481 0
       vertex 0.181185 0.241481 0.1
    endloop
  endfacet
  facet normal 0.321425 0.946935 0
    outer loop
       vertex 0.181185 0.241481 0.1
       vertex 0.212151 0.23097 0.1
       vertex 0.212151 0.23097 0
    endloop
  endfacet
  facet normal 0.195096 0.980784 0
    outer loop
       vertex 0.181185 0.241481 0
       vertex 0.149111 0.247861 0
       vertex 0.149111 0.247861 0.1
    endloop
  endfacet
  facet normal 0.195096 0.980784 0
    outer loop
       vertex 0.149111 0.247861 0.1
       vertex 0.181185 0.241481 0.1
       vertex 0.181185 0.241481 0
    endloop
  endfacet
  facet normal 0.0654098 0.997858 0
    outer loop
       vertex 0.11648 0.25 0.1
       vertex 0.149111 0.247861 0.1
       vertex 0.149111 0.247861 0
    endloop
  endfacet
  facet normal 0.0654098 0.997858 -1.0893e-16
    outer loop
       vertex 0.149111 0.247861 0
       vertex 0.11648 0.25 0
       vertex 0.11648 0.25 0.1
    endloop
  endfacet
  facet normal -0.0654098 0.997858 0
    outer loop
       vertex 0.11648 0.25 0
       vertex 0.0838483 0.247861 0
       vertex 0.0838483 0.247861 0.1
    endloop
  endfacet
  facet normal -0.0654098 0.997858 1.0893e-16
    outer loop
       vertex 0.0838483 0.247861 0.1
       vertex 0.11648 0.25 0.1
       vertex 0.11648 0.25 0
    endloop
  endfacet
  facet normal -0.195096 0.980784 0
    outer loop
       vertex 0.0838483 0.247861 0
       vertex 0.0517748 0.241481 0
       vertex 0.0517748 0.241481 0.1
    endloop
  endfacet
  facet normal -0.195096 0.980784 0
    outer loop
       vertex 0.0517748 0.241481 0.1
       vertex 0.0838483 0.247861 0.1
       vertex 0.0838483 0.247861 0
    endloop
  endfacet
  facet normal -0.321425 0.946935 0
    outer loop
       vertex 0.0517748 0.241481 0
       vertex 0.0208088 0.23097 0
       vertex 0.0208088 0.23097 0.1
    endloop
  endfacet
  facet normal -0.321425 0.946935 0
    outer loop
       vertex 0.0208088 0.23097 0.1
       vertex 0.0517748 0.241481 0.1
       vertex 0.0517748 0.241481 0
    endloop
  endfacet
  facet normal -0.442302 0.896866 0
    outer loop
       vertex 0.0208088 0.23097 0
       vertex -0.00852021 0.216506 0
       vertex -0.00852021 0.216506 0.1
    endloop
  endfacet
  facet normal -0.442302 0.896866 0
    outer loop
       vertex -0.00852021 0.216506 0.1
       vertex 0.0208088 0.23097 0.1
       vertex 0.0208088 0.23097 0
    endloop
  endfacet
  facet normal -0.555561 0.831476 0
    outer loop
       vertex -0.00852021 0.216506 0
       vertex -0.0357112 0.198338 0
       vertex -0.0357112 0.198338 0.1
    endloop
  endfacet
  facet normal -0.555561 0.831476 0
    outer loop
       vertex -0.0357112 0.198338 0.1
       vertex -0.00852021 0.216506 0.1
       vertex -0.00852021 0.216506 0
    endloop
  endfacet
  facet normal -0.659372 0.751817 0
    outer loop
       vertex -0.0357112 0.198338 0
       vertex -0.0602962 0.176776 0
       vertex -0.0602962 0.176776 0.1
    endloop
  endfacet
  facet normal -0.659372 0.751817 0
    outer loop
       vertex -0.0602962 0.176776 0.1
       vertex -0.0357112 0.198338 0.1
       vertex -0.0357112 0.198338 0
    endloop
  endfacet
  facet normal -0.751817 0.659372 0
    outer loop
       vertex -0.0602962 0.176776 0
       vertex -0.0818582 0.152191 0
       vertex -0.0818582 0.152191 0.1
    endloop
  endfacet
  facet normal -0.751817 0.659372 0
    outer loop
       vertex -0.0818582 0.152191 0.1
       vertex -0.0602962 0.176776 0.1
       vertex -0.0602962 0.176776 0
    endloop
  endfacet
  facet normal -0.831476 0.555561 0
    outer loop
       vertex -0.0818582 0.152191 0
       vertex -0.100026 0.125 0
       vertex -0.100026 0.125 0.1
    endloop
  endfacet
  facet normal -0.831476 0.555561 0
    outer loop
       vertex -0.100026 0.125 0.1
       vertex -0.0818582 0.152191 0.1
       vertex -0.0818582 0.152191 0
    endloop
  endfacet
  facet normal -0.896866 0.442302 0
    outer loop
       vertex -0.100026 0.125 0
       vertex -0.11449 0.095671 0
       vertex -0.11449 0.095671 0.1
    endloop
  endfacet
  facet normal -0.896866 0.442302 0
    outer loop
       vertex -0.11449 0.095671 0.1
       vertex -0.100026 0.125 0.1
       vertex -0.100026 0.125 0
    endloop
  endfacet
  facet normal -0.946935 0.321425 0
    outer loop
       vertex -0.11449 0.095671 0
       vertex -0.125001 0.064705 0
       vertex -0.125001 0.064705 0.1
    endloop
  endfacet
  facet normal -0.946935 0.321425 0
    outer loop
       vertex -0.125001 0.064705 0.1
       vertex -0.11449 0.095671 0.1
       vertex -0.11449 0.095671 0
    endloop
  endfacet
  facet normal -0.980784 0.195096 0
    outer loop
       vertex -0.125001 0.064705 0
       vertex -0.131381 0.0326315 0
       vertex -0.131381 0.0326315 0.1
    endloop
  endfacet
  facet normal -0.980784 0.195096 0
    outer loop
       vertex -0.131381 0.0326315 0.1
       vertex -0.125001 0.064705 0.1
       vertex -0.125001 0.064705 0
    endloop
  endfacet
  facet normal -0.997858 0.0654098 0
    outer loop
       vertex -0.13352 8.32665e-17 0.1
       vertex -0.131381 0.0326315 0.1
       vertex -0.131381 0.0326315 0
    endloop
  endfacet
  facet normal -0.997858 0.0654098 -1.08928e-16
    outer loop
       vertex -0.131381 0.0326315 0
       vertex -0.13352 -8.32665e-17 0
       vertex -0.13352 8.32665e-17 0.1
    endloop
  endfacet
  facet normal -0.997858 -0.0654098 0
    outer loop
       vertex -0.13352 -8.32665e-17 0
       vertex -0.131381 -0.0326315 0
       vertex -0.131381 -0.0326315 0.1
    endloop
  endfacet
  facet normal -0.997858 -0.0654098 1.08928e-16
    outer loop
       vertex -0.131381 -0.0326315 0.1
       vertex -0.13352 8.32665e-17 0.1
       vertex -0.13352 -8.32665e-17 0
    endloop
  endfacet
  facet normal -0.980784 -0.195096 0
    outer loop
       vertex -0.131381 -0.0326315 0
       vertex -0.125001 -0.064705 0
       vertex -0.125001 -0.064705 0.1
    endloop
  endfacet
  facet normal -0.980784 -0.195096 0
    outer loop
       vertex -0.125001 -0.064705 0.1
       vertex -0.131381 -0.0326315 0.1
       vertex -0.131381 -0.0326315 0
    endloop
  endfacet
  facet normal -0.946935 -0.321425 0
    outer loop
       vertex -0.125001 -0.064705 0
       vertex -0.11449 -0.095671 0
       vertex -0.11449 -0.095671 0.1
    endloop
  endfacet
  facet normal -0.946935 -0.321425 0
    outer loop
       vertex -0.11449 -0.095671 0.1
       vertex -0.125001 -0.064705 0.1
       vertex -0.125001 -0.064705 0
    endloop
  endfacet
  facet normal -0.896866 -0.442302 0
    outer loop
       vertex -0.11449 -0.095671 0
       vertex -0.100026 -0.125 0
       vertex -0.100026 -0.125 0.1
    endloop
  endfacet
  facet normal -0.896866 -0.442302 0
    outer loop
       vertex -0.100026 -0.125 0.1
       vertex -0.11449 -0.095671 0.1
       vertex -0.11449 -0.095671 0
    endloop
  endfacet
  facet normal -0.831476 -0.555561 0
    outer loop
       vertex -0.100026 -0.125 0
       vertex -0.0818582 -0.152191 0
       vertex -0.0818582 -0.152191 0.1
    endloop
  endfacet
  facet normal -0.831476 -0.555561 0
    outer loop
       vertex -0.0818582 -0.152191 0.1
       vertex -0.100026 -0.125 0.1
       vertex -0.100026 -0.125 0
    endloop
  endfacet
  facet normal -0.751817 -0.659372 0
    outer loop
       vertex -0.0818582 -0.152191 0
       vertex -0.0602962 -0.176776 0
       vertex -0.0602962 -0.176776 0.1
    endloop
  endfacet
  facet normal -0.751817 -0.659372 0
    outer loop
       vertex -0.0602962 -0.176776 0.1
       vertex -0.0818582 -0.152191 0.1
       vertex -0.0818582 -0.152191 0
    endloop
  endfacet
  facet normal 0.659372 -0.751817 0
    outer loop
       vertex 0.293256 -0.176776 0
       vertex 0.293256 -0.176776 0.1
       vertex 0.268671 -0.198338 0.1
    endloop
  endfacet
  facet normal 0.659372 -0.751817 0
    outer loop
       vertex 0.268671 -0.198338 0.1
       vertex 0.268671 -0.198338 0
       vertex 0.293256 -0.176776 0
    endloop
  endfacet
  facet normal 0.555561 -0.831476 0
    outer loop
       vertex 0.268671 -0.198338 0
       vertex 0.268671 -0.198338 0.1
       vertex 0.24148 -0.216506 0.1
    endloop
  endfacet
  facet normal 0.555561 -0.831476 0
    outer loop
       vertex 0.24148 -0.216506 0.1
       vertex 0.24148 -0.216506 0
       vertex 0.268671 -0.198338 0
    endloop
  endfacet
  facet normal 0.442302 -0.896866 0
    outer loop
       vertex 0.24148 -0.216506 0
       vertex 0.24148 -0.216506 0.1
       vertex 0.212151 -0.23097 0.1
    endloop
  endfacet
  facet normal 0.442302 -0.896866 0
    outer loop
       vertex 0.212151 -0.23097 0.1
       vertex 0.212151 -0.23097 0
       vertex 0.24148 -0.216506 0
    endloop
  endfacet
  facet normal 0.321425 -0.946935 0
    outer loop
       vertex 0.212151 -0.23097 0
       vertex 0.212151 -0.23097 0.1
       vertex 0.181185 -0.241481 0.1
    endloop
  endfacet
  facet normal 0.321425 -0.946935 0
    outer loop
       vertex 0.181185 -0.241481 0.1
       vertex 0.181185 -0.241481 0
       vertex 0.212151 -0.23097 0
    endloop
  endfacet
  facet normal 0.195096 -0.980784 0
    outer loop
       vertex 0.181185 -0.241481 0
       vertex 0.181185 -0.241481 0.1
       vertex 0.149111 -0.247861 0.1
    endloop
  endfacet
  facet normal 0.195096 -0.980784 0
    outer loop
       vertex 0.149111 -0.247861 0.1
       vertex 0.149111 -0.247861 0
       vertex 0.181185 -0.241481 0
    endloop
  endfacet
  facet normal 0.0654098 -0.997858 0
    outer loop
       vertex 0.11648 -0.25 0
       vertex 0.149111 -0.247861 0
       vertex 0.149111 -0.247861 0.1
    endloop
  endfacet
  facet normal 0.0654098 -0.997858 1.0893e-16
    outer loop
       vertex 0.149111 -0.247861 0.1
       vertex 0.11648 -0.25 0.1
       vertex 0.11648 -0.25 0
    endloop
  endfacet
  facet normal -0.0654098 -0.997858 0
    outer loop
       vertex 0.11648 -0.25 0.1
       vertex 0.0838483 -0.247861 0.1
       vertex 0.0838483 -0.247861 0
    endloop
  endfacet
  facet normal -0.0654098 -0.997858 -1.0893e-16
    outer loop
       vertex 0.0838483 -0.247861 0
       vertex 0.11648 -0.25 0
       vertex 0.11648 -0.25 0.1
    endloop
  endfacet
  facet normal -0.195096 -0.980784 0
    outer loop
       vertex 0.0838483 -0.247861 0
       vertex 0.0838483 -0.247861 0.1
       vertex 0.0517748 -0.241481 0.1
    endloop
  endfacet
  facet normal -0.195096 -0.980784 -0
    outer loop
       vertex 0.0517748 -0.241481 0.1
       vertex 0.0517748 -0.241481 0
       vertex 0.0838483 -0.247861 0
    endloop
  endfacet
  facet normal -0.321425 -0.946935 0
    outer loop
       vertex 0.0517748 -0.241481 0
       vertex 0.0517748 -0.241481 0.1
       vertex 0.0208088 -0.23097 0.1
    endloop
  endfacet
  facet normal -0.321425 -0.946935 -0
    outer loop
       vertex 0.0208088 -0.23097 0.1
       vertex 0.0208088 -0.23097 0
       vertex 0.0517748 -0.241481 0
    endloop
  endfacet
  facet normal -0.442302 -0.896866 0
    outer loop
       vertex 0.0208088 -0.23097 0
       vertex 0.0208088 -0.23097 0.1
       vertex -0.00852021 -0.216506 0.1
    endloop
  endfacet
  facet normal -0.442302 -0.896866 -0
    outer loop
       vertex -0.00852021 -0.216506 0.1
       vertex -0.00852021 -0.216506 0
       vertex 0.0208088 -0.23097 0
    endloop
  endfacet
  facet normal -0.555561 -0.831476 0
    outer loop
       vertex -0.00852021 -0.216506 0
       vertex -0.00852021 -0.216506 0.1
       vertex -0.0357112 -0.198338 0.1
    endloop
  endfacet
  facet normal -0.555561 -0.831476 -0
    outer loop
       vertex -0.0357112 -0.198338 0.1
       vertex -0.0357112 -0.198338 0
       vertex -0.00852021 -0.216506 0
    endloop
  endfacet
  facet normal -0.659372 -0.751817 0
    outer loop
       vertex -0.0357112 -0.198338 0
       vertex -0.0357112 -0.198338 0.1
       vertex -0.0602962 -0.176776 0.1
    endloop
  endfacet
  facet normal -0.659372 -0.751817 -0
    outer loop
       vertex -0.0602962 -0.176776 0.1
       vertex -0.0602962 -0.176776 0
       vertex -0.0357112 -0.198338 0
    endloop
  endfacet
endsolid cylinder
