solid cylinder
  facet normal 0.751817 -0.659372 0
    outer loop
       vertex 0.231563 -0.176776 0
       vertex 0.253125 -0.152191 0
       vertex 0.253125 -0.152191 0.1
    endloop
  endfacet
  facet normal 0.751817 -0.659372 0
    outer loop
       vertex 0.253125 -0.152191 0.1
       vertex 0.231563 -0.176776 0.1
       vertex 0.231563 -0.176776 0
    endloop
  endfacet
  facet normal 0.831476 -0.555561 0
    outer loop
       vertex 0.253125 -0.152191 0
       vertex 0.271293 -0.125 0
       vertex 0.271293 -0.125 0.1
    endloop
  endfacet
  facet normal 0.831476 -0.555561 0
    outer loop
       vertex 0.271293 -0.125 0.1
       vertex 0.253125 -0.152191 0.1
       vertex 0.253125 -0.152191 0
    endloop
  endfacet
  facet normal 0.896866 -0.442302 0
    outer loop
       vertex 0.271293 -0.125 0
       vertex 0.285757 -0.095671 0
       vertex 0.285757 -0.095671 0.1
    endloop
  endfacet
  facet normal 0.896866 -0.442302 0
    outer loop
       vertex 0.285757 -0.095671 0.1
       vertex 0.271293 -0.125 0.1
       vertex 0.271293 -0.125 0
    endloop
  endfacet
  facet normal 0.946935 -0.321425 0
    outer loop
       vertex 0.285757 -0.095671 0
       vertex 0.296268 -0.064705 0
       vertex 0.296268 -0.064705 0.1
    endloop
  endfacet
  facet normal 0.946935 -0.321425 0
    outer loop
       vertex 0.296268 -0.064705 0.1
       vertex 0.285757 -0.095671 0.1
       vertex 0.285757 -0.095671 0
    endloop
  endfacet
  facet normal 0.980784 -0.195096 0
    outer loop
       vertex 0.296268 -0.064705 0
       vertex 0.302648 -0.0326315 0
       vertex 0.302648 -0.0326315 0.1
    endloop
  endfacet
  facet normal 0.980784 -0.195096 0
    outer loop
       vertex 0.302648 -0.0326315 0.1
       vertex 0.296268 -0.064705 0.1
       vertex 0.296268 -0.064705 0
    endloop
  endfacet
  facet normal 0.997858 -0.0654098 0
    outer loop
       vertex 0.304787 -8.32665e-17 0.1
       vertex 0.302648 -0.0326315 0.1
       vertex 0.302648 -0.0326315 0
    endloop
  endfacet
  facet normal 0.997858 -0.0654098 -1.08928e-16
    outer loop
       vertex 0.302648 -0.0326315 0
       vertex 0.304787 8.32665e-17 0
       vertex 0.304787 -8.32665e-17 0.1
    endloop
  endfacet
  facet normal 0.997858 0.0654098 0
    outer loop
       vertex 0.304787 8.32665e-17 0
       vertex 0.302648 0.0326315 0
       vertex 0.302648 0.0326315 0.1
    endloop
  endfacet
  facet normal 0.997858 0.0654098 1.08928e-16
    outer loop
       vertex 0.302648 0.0326315 0.1
       vertex 0.304787 -8.32665e-17 0.1
       vertex 0.304787 8.32665e-17 0
    endloop
  endfacet
  facet normal 0.980784 0.195096 0
    outer loop
       vertex 0.302648 0.0326315 0
       vertex 0.296268 0.064705 0
       vertex 0.296268 0.064705 0.1
    endloop
  endfacet
  facet normal 0.980784 0.195096 0
    outer loop
       vertex 0.296268 0.064705 0.1
       vertex 0.302648 0.0326315 0.1
       vertex 0.302648 0.0326315 0
    endloop
  endfacet
  facet normal 0.946935 0.321425 0
    outer loop
       vertex 0.296268 0.064705 0
       vertex 0.285757 0.095671 0
       vertex 0.285757 0.095671 0.1
    endloop
  endfacet
  facet normal 0.946935 0.321425 0
    outer loop
       vertex 0.285757 0.095671 0.1
       vertex 0.296268 0.064705 0.1
       vertex 0.296268 0.064705 0
    endloop
  endfacet
  facet normal 0.896866 0.442302 0
    outer loop
       vertex 0.285757 0.095671 0
       vertex 0.271293 0.125 0
       vertex 0.271293 0.125 0.1
    endloop
  endfacet
  facet normal 0.896866 0.442302 0
    outer loop
       vertex 0.271293 0.125 0.1
       vertex 0.285757 0.095671 0.1
       vertex 0.285757 0.095671 0
    endloop
  endfacet
  facet normal 0.831476 0.555561 0
    outer loop
       vertex 0.271293 0.125 0
       vertex 0.253125 0.152191 0
       vertex 0.253125 0.152191 0.1
    endloop
  endfacet
  facet normal 0.831476 0.555561 0
    outer loop
       vertex 0.253125 0.152191 0.1
       vertex 0.271293 0.125 0.1
       vertex 0.271293 0.125 0
    endloop
  endfacet
  facet normal 0.751817 0.659372 0
    outer loop
       vertex 0.253125 0.152191 0
       vertex 0.231563 0.176776 0
       vertex 0.231563 0.176776 0.1
    endloop
  endfacet
  facet normal 0.751817 0.659372 0
    outer loop
       vertex 0.231563 0.176776 0.1
       vertex 0.253125 0.152191 0.1
       vertex 0.253125 0.152191 0
    endloop
  endfacet
  facet normal 0.659372 0.751817 0
    outer loop
       vertex 0.231563 0.176776 0
       vertex 0.206978 0.198338 0
       vertex 0.206978 0.198338 0.1
    endloop
  endfacet
  facet normal 0.659372 0.751817 0
    outer loop
       vertex 0.206978 0.198338 0.1
       vertex 0.231563 0.176776 0.1
       vertex 0.231563 0.176776 0
    endloop
  endfacet
  facet normal 0.555561 0.831476 0
    outer loop
       vertex 0.206978 0.198338 0
       vertex 0.179787 0.216506 0
       vertex 0.179787 0.216506 0.1
    endloop
  endfacet
  facet normal 0.555561 0.831476 0
    outer loop
       vertex 0.179787 0.216506 0.1
       vertex 0.206978 0.198338 0.1
       vertex 0.206978 0.198338 0
    endloop
  endfacet
  facet normal 0.442302 0.896866 0
    outer loop
       vertex 0.179787 0.216506 0
       vertex 0.150458 0.23097 0
       vertex 0.150458 0.23097 0.1
    endloop
  endfacet
  facet normal 0.442302 0.896866 0
    outer loop
       vertex 0.150458 0.23097 0.1
       vertex 0.179787 0.216506 0.1
       vertex 0.179787 0.216506 0
    endloop
  endfacet
  facet normal 0.321425 0.946935 0
    outer loop
       vertex 0.150458 0.23097 0
       vertex 0.119492 0.241481 0
       vertex 0.119492 0.241481 0.1
    endloop
  endfacet
  facet normal 0.321425 0.946935 0
    outer loop
       vertex 0.119492 0.241481 0.1
       vertex 0.150458 0.23097 0.1
       vertex 0.150458 0.23097 0
    endloop
  endfacet
  facet normal 0.195096 0.980784 0
    outer loop
       vertex 0.119492 0.241481 0
       vertex 0.0874182 0.247861 0
       vertex 0.0874182 0.247861 0.1
    endloop
  endfacet
  facet normal 0.195096 0.980784 0
    outer loop
       vertex 0.0874182 0.247861 0.1
       vertex 0.119492 0.241481 0.1
       vertex 0.119492 0.241481 0
    endloop
  endfacet
  facet normal 0.0654098 0.997858 0
    outer loop
       vertex 0.0547867 0.25 0.1
       vertex 0.0874182 0.247861 0.1
       vertex 0.0874182 0.247861 0
    endloop
  endfacet
  facet normal 0.0654098 0.997858 -1.0893e-16
    outer loop
       vertex 0.0874182 0.247861 0
       vertex 0.0547867 0.25 0
       vertex 0.0547867 0.25 0.1
    endloop
  endfacet
  facet normal -0.0654098 0.997858 0
    outer loop
       vertex 0.0547867 0.25 0
       vertex 0.0221552 0.247861 0
       vertex 0.0221552 0.247861 0.1
    endloop
  endfacet
  facet normal -0.0654098 0.997858 1.08928e-16
    outer loop
       vertex 0.0221552 0.247861 0.1
       vertex 0.0547867 0.25 0.1
       vertex 0.0547867 0.25 0
    endloop
  endfacet
  facet normal -0.195096 0.980784 0
    outer loop
       vertex 0.0221552 0.247861 0
       vertex -0.00991834 0.241481 0
       vertex -0.00991834 0.241481 0.1
    endloop
  endfacet
  facet normal -0.195096 0.980784 0
    outer loop
       vertex -0.00991834 0.241481 0.1
       vertex 0.0221552 0.247861 0.1
       vertex 0.0221552 0.247861 0
    endloop
  endfacet
  facet normal -0.321425 0.946935 0
    outer loop
       vertex -0.00991834 0.241481 0
       vertex -0.0408843 0.23097 0
       vertex -0.0408843 0.23097 0.1
    endloop
  endfacet
  facet normal -0.321425 0.946935 0
    outer loop
       vertex -0.0408843 0.23097 0.1
       vertex -0.00991834 0.241481 0.1
       vertex -0.00991834 0.241481 0
    endloop
  endfacet
  facet normal -0.442302 0.896866 0
    outer loop
       vertex -0.0408843 0.23097 0
       vertex -0.0702133 0.216506 0
       vertex -0.0702133 0.216506 0.1
    endloop
  endfacet
  facet normal -0.442302 0.896866 0
    outer loop
       vertex -0.0702133 0.216506 0.1
       vertex -0.0408843 0.23097 0.1
       vertex -0.0408843 0.23097 0
    endloop
  endfacet
  facet normal -0.555561 0.831476 0
    outer loop
       vertex -0.0702133 0.216506 0
       vertex -0.0974043 0.198338 0
       vertex -0.0974043 0.198338 0.1
    endloop
  endfacet
  facet normal -0.555561 0.831476 0
    outer loop
       vertex -0.0974043 0.198338 0.1
       vertex -0.0702133 0.216506 0.1
       vertex -0.0702133 0.216506 0
    endloop
  endfacet
  facet normal -0.659372 0.751817 0
    outer loop
       vertex -0.0974043 0.198338 0
       vertex -0.121989 0.176776 0
       vertex -0.121989 0.176776 0.1
    endloop
  endfacet
  facet normal -0.659372 0.751817 0
    outer loop
       vertex -0.121989 0.176776 0.1
       vertex -0.0974043 0.198338 0.1
       vertex -0.0974043 0.198338 0
    endloop
  endfacet
  facet normal -0.751817 0.659372 0
    outer loop
       vertex -0.121989 0.176776 0
       vertex -0.143551 0.152191 0
       vertex -0.143551 0.152191 0.1
    endloop
  endfacet
  facet normal -0.751817 0.659372 0
    outer loop
       vertex -0.143551 0.152191 0.1
       vertex -0.121989 0.176776 0.1
       vertex -0.121989 0.176776 0
    endloop
  endfacet
  facet normal -0.831476 0.555561 0
    outer loop
       vertex -0.143551 0.152191 0
       vertex -0.161719 0.125 0
       vertex -0.161719 0.125 0.1
    endloop
  endfacet
  facet normal -0.831476 0.555561 0
    outer loop
       vertex -0.161719 0.125 0.1
       vertex -0.143551 0.152191 0.1
       vertex -0.143551 0.152191 0
    endloop
  endfacet
  facet normal -0.896866 0.442302 0
    outer loop
       vertex -0.161719 0.125 0
       vertex -0.176183 0.095671 0
       vertex -0.176183 0.095671 0.1
    endloop
  endfacet
  facet normal -0.896866 0.442302 0
    outer loop
       vertex -0.176183 0.095671 0.1
       vertex -0.161719 0.125 0.1
       vertex -0.161719 0.125 0
    endloop
  endfacet
  facet normal -0.946935 0.321425 0
    outer loop
       vertex -0.176183 0.095671 0
       vertex -0.186694 0.064705 0
       vertex -0.186694 0.064705 0.1
    endloop
  endfacet
  facet normal -0.946935 0.321425 0
    outer loop
       vertex -0.186694 0.064705 0.1
       vertex -0.176183 0.095671 0.1
       vertex -0.176183 0.095671 0
    endloop
  endfacet
  facet normal -0.980784 0.195096 0
    outer loop
       vertex -0.186694 0.064705 0
       vertex -0.193074 0.0326315 0
       vertex -0.193074 0.0326315 0.1
    endloop
  endfacet
  facet normal -0.980784 0.195096 0
    outer loop
       vertex -0.193074 0.0326315 0.1
       vertex -0.186694 0.064705 0.1
       vertex -0.186694 0.064705 0
    endloop
  endfacet
  facet normal -0.997858 0.0654098 0
    outer loop
       vertex -0.195213 8.32665e-17 0.1
       vertex -0.193074 0.0326315 0.1
       vertex -0.193074 0.0326315 0
    endloop
  endfacet
  facet normal -0.997858 0.0654098 -1.08928e-16
    outer loop
       vertex -0.193074 0.0326315 0
       vertex -0.195213 -8.32665e-17 0
       vertex -0.195213 8.32665e-17 0.1
    endloop
  endfacet
  facet normal -0.997858 -0.0654098 0
    outer loop
       vertex -0.195213 -8.32665e-17 0
       vertex -0.193074 -0.0326315 0
       vertex -0.193074 -0.0326315 0.1
    endloop
  endfacet
  facet normal -0.997858 -0.0654098 1.08928e-16
    outer loop
       vertex -0.193074 -0.0326315 0.1
       vertex -0.195213 8.32665e-17 0.1
       vertex -0.195213 -8.32665e-17 0
    endloop
  endfacet
  facet normal -0.980784 -0.195096 0
    outer loop
       vertex -0.193074 -0.0326315 0
       vertex -0.186694 -0.064705 0
       vertex -0.186694 -0.064705 0.1
    endloop
  endfacet
  facet normal -0.980784 -0.195096 0
    outer loop
       vertex -0.186694 -0.064705 0.1
       vertex -0.193074 -0.0326315 0.1
       vertex -0.193074 -0.0326315 0
    endloop
  endfacet
  facet normal -0.946935 -0.321425 0
    outer loop
       vertex -0.186694 -0.064705 0
       vertex -0.176183 -0.095671 0
       vertex -0.176183 -0.095671 0.1
    endloop
  endfacet
  facet normal -0.946935 -0.321425 0
    outer loop
       vertex -0.176183 -0.095671 0.1
       vertex -0.186694 -0.064705 0.1
       vertex -0.186694 -0.064705 0
    endloop
  endfacet
  facet normal -0.896866 -0.442302 0
    outer loop
       vertex -0.176183 -0.095671 0
       vertex -0.161719 -0.125 0
       vertex -0.161719 -0.125 0.1
    endloop
  endfacet
  facet normal -0.896866 -0.442302 0
    outer loop
       vertex -0.161719 -0.125 0.1
       vertex -0.176183 -0.095671 0.1
       vertex -0.176183 -0.095671 0
    endloop
  endfacet
  facet normal -0.831476 -0.555561 0
    outer loop
       vertex -0.161719 -0.125 0
       vertex -0.143551 -0.152191 0
       vertex -0.143551 -0.152191 0.1
    endloop
  endfacet
  facet normal -0.831476 -0.555561 0
    outer loop
       vertex -0.143551 -0.152191 0.1
       vertex -0.161719 -0.125 0.1
       vertex -0.161719 -0.125 0
    endloop
  endfacet
  facet normal -0.751817 -0.659372 0
    outer loop
       vertex -0.143551 -0.152191 0
       vertex -0.121989 -0.176776 0
       vertex -0.121989 -0.176776 0.1
    endloop
  endfacet
  facet normal -0.751817 -0.659372 0
    outer loop
       vertex -0.121989 -0.176776 0.1
       vertex -0.143551 -0.152191 0.1
       vertex -0.143551 -0.152191 0
    endloop
  endfacet
  facet normal 0.659372 -0.751817 0
    outer loop
       vertex 0.231563 -0.176776 0
       vertex 0.231563 -0.176776 0.1
       vertex 0.206978 -0.198338 0.1
    endloop
  endfacet
  facet normal 0.659372 -0.751817 0
    outer loop
       vertex 0.206978 -0.198338 0.1
       vertex 0.206978 -0.198338 0
       vertex 0.231563 -0.176776 0
    endloop
  endfacet
  facet normal 0.555561 -0.831476 0
    outer loop
       vertex 0.206978 -0.198338 0
       vertex 0.206978 -0.198338 0.1
       vertex 0.179787 -0.216506 0.1
    endloop
  endfacet
  facet normal 0.555561 -0.831476 0
    outer loop
       vertex 0.179787 -0.216506 0.1
       vertex 0.179787 -0.216506 0
       vertex 0.206978 -0.198338 0
    endloop
  endfacet
  facet normal 0.442302 -0.896866 0
    outer loop
       vertex 0.179787 -0.216506 0
       vertex 0.179787 -0.216506 0.1
       vertex 0.150458 -0.23097 0.1
    endloop
  endfacet
  facet normal 0.442302 -0.896866 0
    outer loop
       vertex 0.150458 -0.23097 0.1
       vertex 0.150458 -0.23097 0
       vertex 0.179787 -0.216506 0
    endloop
  endfacet
  facet normal 0.321425 -0.946935 0
    outer loop
       vertex 0.150458 -0.23097 0
       vertex 0.150458 -0.23097 0.1
       vertex 0.119492 -0.241481 0.1
    endloop
  endfacet
  facet normal 0.321425 -0.946935 0
    outer loop
       vertex 0.119492 -0.241481 0.1
       vertex 0.119492 -0.241481 0
       vertex 0.150458 -0.23097 0
    endloop
  endfacet
  facet normal 0.195096 -0.980784 0
    outer loop
       vertex 0.119492 -0.241481 0
       vertex 0.119492 -0.241481 0.1
       vertex 0.0874182 -0.247861 0.1
    endloop
  endfacet
  facet normal 0.195096 -0.980784 0
    outer loop
       vertex 0.0874182 -0.247861 0.1
       vertex 0.0874182 -0.247861 0
       vertex 0.119492 -0.241481 0
    endloop
  endfacet
  facet normal 0.0654098 -0.997858 0
    outer loop
       vertex 0.0547867 -0.25 0
       vertex 0.0874182 -0.247861 0
       vertex 0.0874182 -0.247861 0.1
    endloop
  endfacet
  facet normal 0.0654098 -0.997858 1.0893e-16
    outer loop
       vertex 0.0874182 -0.247861 0.1
       vertex 0.0547867 -0.25 0.1
       vertex 0.0547867 -0.25 0
    endloop
  endfacet
  facet normal -0.0654098 -0.997858 0
    outer loop
       vertex 0.0547867 -0.25 0.1
       vertex 0.0221552 -0.247861 0.1
       vertex 0.0221552 -0.247861 0
    endloop
  endfacet
  facet normal -0.0654098 -0.997858 -1.08928e-16
    outer loop
       vertex 0.0221552 -0.247861 0
       vertex 0.0547867 -0.25 0
       vertex 0.0547867 -0.25 0.1
    endloop
  endfacet
  facet normal -0.195096 -0.980784 0
    outer loop
       vertex 0.0221552 -0.247861 0
       vertex 0.0221552 -0.247861 0.1
       vertex -0.00991834 -0.241481 0.1
    endloop
  endfacet
  facet normal -0.195096 -0.980784 -0
    outer loop
       vertex -0.00991834 -0.241481 0.1
       vertex -0.00991834 -0.241481 0
       vertex 0.0221552 -0.247861 0
    endloop
  endfacet
  facet normal -0.321425 -0.946935 0
    outer loop
       vertex -0.00991834 -0.241481 0
       vertex -0.00991834 -0.241481 0.1
       vertex -0.0408843 -0.23097 0.1
    endloop
  endfacet
  facet normal -0.321425 -0.946935 -0
    outer loop
       vertex -0.0408843 -0.23097 0.1
       vertex -0.0408843 -0.23097 0
       vertex -0.00991834 -0.241481 0
    endloop
  endfacet
  facet normal -0.442302 -0.896866 0
    outer loop
       vertex -0.0408843 -0.23097 0
       vertex -0.0408843 -0.23097 0.1
       vertex -0.0702133 -0.216506 0.1
    endloop
  endfacet
  facet normal -0.442302 -0.896866 -0
    outer loop
       vertex -0.0702133 -0.216506 0.1
       vertex -0.0702133 -0.216506 0
       vertex -0.0408843 -0.23097 0
    endloop
  endfacet
  facet normal -0.555561 -0.831476 0
    outer loop
       vertex -0.0702133 -0.216506 0
       vertex -0.0702133 -0.216506 0.1
       vertex -0.0974043 -0.198338 0.1
    endloop
  endfacet
  facet normal -0.555561 -0.831476 -0
    outer loop
       vertex -0.0974043 -0.198338 0.1
       vertex -0.0974043 -0.198338 0
       vertex -0.0702133 -0.216506 0
    endloop
  endfacet
  facet normal -0.659372 -0.751817 0
    outer loop
       vertex -0.0974043 -0.198338 0
       vertex -0.0974043 -0.198338 0.1
       vertex -0.121989 -0.176776 0.1
    endloop
  endfacet
  facet normal -0.659372 -0.751817 -0
    outer loop
       vertex -0.121989 -0.176776 0.1
       vertex -0.121989 -0.176776 0
       vertex -0.0974043 -0.198338 0
    endloop
  endfacet
endsolid cylinder
