solid cylinder
  facet normal 0.751817 -0.659372 0
    outer loop
       vertex 0.243742 -0.176776 0
       vertex 0.265304 -0.152191 0
       vertex 0.265304 -0.152191 0.1
    endloop
  endfacet
  facet normal 0.751817 -0.659372 0
    outer loop
       vertex 0.265304 -0.152191 0.1
       vertex 0.243742 -0.176776 0.1
       vertex 0.243742 -0.176776 0
    endloop
  endfacet
  facet normal 0.831476 -0.555561 0
    outer loop
       vertex 0.265304 -0.152191 0
       vertex 0.283472 -0.125 0
       vertex 0.283472 -0.125 0.1
    endloop
  endfacet
  facet normal 0.831476 -0.555561 0
    outer loop
       vertex 0.283472 -0.125 0.1
       vertex 0.265304 -0.152191 0.1
       vertex 0.265304 -0.152191 0
    endloop
  endfacet
  facet normal 0.896866 -0.442302 0
    outer loop
       vertex 0.283472 -0.125 0
       vertex 0.297936 -0.095671 0
       vertex 0.297936 -0.095671 0.1
    endloop
  endfacet
  facet normal 0.896866 -0.442302 0
    outer loop
       vertex 0.297936 -0.095671 0.1
       vertex 0.283472 -0.125 0.1
       vertex 0.283472 -0.125 0
    endloop
  endfacet
  facet normal 0.946935 -0.321425 0
    outer loop
       vertex 0.297936 -0.095671 0
       vertex 0.308447 -0.064705 0
       vertex 0.308447 -0.064705 0.1
    endloop
  endfacet
  facet normal 0.946935 -0.321425 0
    outer loop
       vertex 0.308447 -0.064705 0.1
       vertex 0.297936 -0.095671 0.1
       vertex 0.297936 -0.095671 0
    endloop
  endfacet
  facet normal 0.980784 -0.195096 0
    outer loop
       vertex 0.308447 -0.064705 0
       vertex 0.314827 -0.0326315 0
       vertex 0.314827 -0.0326315 0.1
    endloop
  endfacet
  facet normal 0.980784 -0.195096 0
    outer loop
       vertex 0.314827 -0.0326315 0.1
       vertex 0.308447 -0.064705 0.1
       vertex 0.308447 -0.064705 0
    endloop
  endfacet
  facet normal 0.997858 -0.0654098 0
    outer loop
       vertex 0.316966 -8.32665e-17 0.1
       vertex 0.314827 -0.0326315 0.1
       vertex 0.314827 -0.0326315 0
    endloop
  endfacet
  facet normal 0.997858 -0.0654098 -1.08928e-16
    outer loop
       vertex 0.314827 -0.0326315 0
       vertex 0.316966 8.32665e-17 0
       vertex 0.316966 -8.32665e-17 0.1
    endloop
  endfacet
  facet normal 0.997858 0.0654098 0
    outer loop
       vertex 0.316966 8.32665e-17 0
       vertex 0.314827 0.0326315 0
       vertex 0.314827 0.0326315 0.1
    endloop
  endfacet
  facet normal 0.997858 0.0654098 1.08928e-16
    outer loop
       vertex 0.314827 0.0326315 0.1
       vertex 0.316966 -8.32665e-17 0.1
       vertex 0.316966 8.32665e-17 0
    endloop
  endfacet
  facet normal 0.980784 0.195096 0
    outer loop
       vertex 0.314827 0.0326315 0
       vertex 0.308447 0.064705 0
       vertex 0.308447 0.064705 0.1
    endloop
  endfacet
  facet normal 0.980784 0.195096 0
    outer loop
       vertex 0.308447 0.064705 0.1
       vertex 0.314827 0.0326315 0.1
       vertex 0.314827 0.0326315 0
    endloop
  endfacet
  facet normal 0.946935 0.321425 0
    outer loop
       vertex 0.308447 0.064705 0
       vertex 0.297936 0.095671 0
       vertex 0.297936 0.095671 0.1
    endloop
  endfacet
  facet normal 0.946935 0.321425 0
    outer loop
       vertex 0.297936 0.095671 0.1
       vertex 0.308447 0.064705 0.1
       vertex 0.308447 0.064705 0
    endloop
  endfacet
  facet normal 0.896866 0.442302 0
    outer loop
       vertex 0.297936 0.095671 0
       vertex 0.283472 0.125 0
       vertex 0.283472 0.125 0.1
    endloop
  endfacet
  facet normal 0.896866 0.442302 0
    outer loop
       vertex 0.283472 0.125 0.1
       vertex 0.297936 0.095671 0.1
       vertex 0.297936 0.095671 0
    endloop
  endfacet
  facet normal 0.831476 0.555561 0
    outer loop
       vertex 0.283472 0.125 0
       vertex 0.265304 0.152191 0
       vertex 0.265304 0.152191 0.1
    endloop
  endfacet
  facet normal 0.831476 0.555561 0
    outer loop
       vertex 0.265304 0.152191 0.1
       vertex 0.283472 0.125 0.1
       vertex 0.283472 0.125 0
    endloop
  endfacet
  facet normal 0.751817 0.659372 0
    outer loop
       vertex 0.265304 0.152191 0
       vertex 0.243742 0.176776 0
       vertex 0.243742 0.176776 0.1
    endloop
  endfacet
  facet normal 0.751817 0.659372 0
    outer loop
       vertex 0.243742 0.176776 0.1
       vertex 0.265304 0.152191 0.1
       vertex 0.265304 0.152191 0
    endloop
  endfacet
  facet normal 0.659372 0.751817 0
    outer loop
       vertex 0.243742 0.176776 0
       vertex 0.219157 0.198338 0
       vertex 0.219157 0.198338 0.1
    endloop
  endfacet
  facet normal 0.659372 0.751817 0
    outer loop
       vertex 0.219157 0.198338 0.1
       vertex 0.243742 0.176776 0.1
       vertex 0.243742 0.176776 0
    endloop
  endfacet
  facet normal 0.555561 0.831476 0
    outer loop
       vertex 0.219157 0.198338 0
       vertex 0.191966 0.216506 0
       vertex 0.191966 0.216506 0.1
    endloop
  endfacet
  facet normal 0.555561 0.831476 0
    outer loop
       vertex 0.191966 0.216506 0.1
       vertex 0.219157 0.198338 0.1
       vertex 0.219157 0.198338 0
    endloop
  endfacet
  facet normal 0.442302 0.896866 0
    outer loop
       vertex 0.191966 0.216506 0
       vertex 0.162637 0.23097 0
       vertex 0.162637 0.23097 0.1
    endloop
  endfacet
  facet normal 0.442302 0.896866 0
    outer loop
       vertex 0.162637 0.23097 0.1
       vertex 0.191966 0.216506 0.1
       vertex 0.191966 0.216506 0
    endloop
  endfacet
  facet normal 0.321425 0.946935 0
    outer loop
       vertex 0.162637 0.23097 0
       vertex 0.131671 0.241481 0
       vertex 0.131671 0.241481 0.1
    endloop
  endfacet
  facet normal 0.321425 0.946935 0
    outer loop
       vertex 0.131671 0.241481 0.1
       vertex 0.162637 0.23097 0.1
       vertex 0.162637 0.23097 0
    endloop
  endfacet
  facet normal 0.195096 0.980784 0
    outer loop
       vertex 0.131671 0.241481 0
       vertex 0.0995975 0.247861 0
       vertex 0.0995975 0.247861 0.1
    endloop
  endfacet
  facet normal 0.195096 0.980784 0
    outer loop
       vertex 0.0995975 0.247861 0.1
       vertex 0.131671 0.241481 0.1
       vertex 0.131671 0.241481 0
    endloop
  endfacet
  facet normal 0.0654098 0.997858 0
    outer loop
       vertex 0.066966 0.25 0.1
       vertex 0.0995975 0.247861 0.1
       vertex 0.0995975 0.247861 0
    endloop
  endfacet
  facet normal 0.0654098 0.997858 -1.0893e-16
    outer loop
       vertex 0.0995975 0.247861 0
       vertex 0.066966 0.25 0
       vertex 0.066966 0.25 0.1
    endloop
  endfacet
  facet normal -0.0654098 0.997858 0
    outer loop
       vertex 0.066966 0.25 0
       vertex 0.0343345 0.247861 0
       vertex 0.0343345 0.247861 0.1
    endloop
  endfacet
  facet normal -0.0654098 0.997858 1.08928e-16
    outer loop
       vertex 0.0343345 0.247861 0.1
       vertex 0.066966 0.25 0.1
       vertex 0.066966 0.25 0
    endloop
  endfacet
  facet normal -0.195096 0.980784 0
    outer loop
       vertex 0.0343345 0.247861 0
       vertex 0.00226101 0.241481 0
       vertex 0.00226101 0.241481 0.1
    endloop
  endfacet
  facet normal -0.195096 0.980784 0
    outer loop
       vertex 0.00226101 0.241481 0.1
       vertex 0.0343345 0.247861 0.1
       vertex 0.0343345 0.247861 0
    endloop
  endfacet
  facet normal -0.321425 0.946935 0
    outer loop
       vertex 0.00226101 0.241481 0
       vertex -0.028705 0.23097 0
       vertex -0.028705 0.23097 0.1
    endloop
  endfacet
  facet normal -0.321425 0.946935 0
    outer loop
       vertex -0.028705 0.23097 0.1
       vertex 0.00226101 0.241481 0.1
       vertex 0.00226101 0.241481 0
    endloop
  endfacet
  facet normal -0.442302 0.896866 0
    outer loop
       vertex -0.028705 0.23097 0
       vertex -0.058034 0.216506 0
       vertex -0.058034 0.216506 0.1
    endloop
  endfacet
  facet normal -0.442302 0.896866 0
    outer loop
       vertex -0.058034 0.216506 0.1
       vertex -0.028705 0.23097 0.1
       vertex -0.028705 0.23097 0
    endloop
  endfacet
  facet normal -0.555561 0.831476 0
    outer loop
       vertex -0.058034 0.216506 0
       vertex -0.085225 0.198338 0
       vertex -0.085225 0.198338 0.1
    endloop
  endfacet
  facet normal -0.555561 0.831476 0
    outer loop
       vertex -0.085225 0.198338 0.1
       vertex -0.058034 0.216506 0.1
       vertex -0.058034 0.216506 0
    endloop
  endfacet
  facet normal -0.659372 0.751817 0
    outer loop
       vertex -0.085225 0.198338 0
       vertex -0.10981 0.176776 0
       vertex -0.10981 0.176776 0.1
    endloop
  endfacet
  facet normal -0.659372 0.751817 0
    outer loop
       vertex -0.10981 0.176776 0.1
       vertex -0.085225 0.198338 0.1
       vertex -0.085225 0.198338 0
    endloop
  endfacet
  facet normal -0.751817 0.659372 0
    outer loop
       vertex -0.10981 0.176776 0
       vertex -0.131372 0.152191 0
       vertex -0.131372 0.152191 0.1
    endloop
  endfacet
  facet normal -0.751817 0.659372 0
    outer loop
       vertex -0.131372 0.152191 0.1
       vertex -0.10981 0.176776 0.1
       vertex -0.10981 0.176776 0
    endloop
  endfacet
  facet normal -0.831476 0.555561 0
    outer loop
       vertex -0.131372 0.152191 0
       vertex -0.14954 0.125 0
       vertex -0.14954 0.125 0.1
    endloop
  endfacet
  facet normal -0.831476 0.555561 0
    outer loop
       vertex -0.14954 0.125 0.1
       vertex -0.131372 0.152191 0.1
       vertex -0.131372 0.152191 0
    endloop
  endfacet
  facet normal -0.896866 0.442302 0
    outer loop
       vertex -0.14954 0.125 0
       vertex -0.164004 0.095671 0
       vertex -0.164004 0.095671 0.1
    endloop
  endfacet
  facet normal -0.896866 0.442302 0
    outer loop
       vertex -0.164004 0.095671 0.1
       vertex -0.14954 0.125 0.1
       vertex -0.14954 0.125 0
    endloop
  endfacet
  facet normal -0.946935 0.321425 0
    outer loop
       vertex -0.164004 0.095671 0
       vertex -0.174515 0.064705 0
       vertex -0.174515 0.064705 0.1
    endloop
  endfacet
  facet normal -0.946935 0.321425 0
    outer loop
       vertex -0.174515 0.064705 0.1
       vertex -0.164004 0.095671 0.1
       vertex -0.164004 0.095671 0
    endloop
  endfacet
  facet normal -0.980784 0.195096 0
    outer loop
       vertex -0.174515 0.064705 0
       vertex -0.180895 0.0326315 0
       vertex -0.180895 0.0326315 0.1
    endloop
  endfacet
  facet normal -0.980784 0.195096 0
    outer loop
       vertex -0.180895 0.0326315 0.1
       vertex -0.174515 0.064705 0.1
       vertex -0.174515 0.064705 0
    endloop
  endfacet
  facet normal -0.997858 0.0654098 0
    outer loop
       vertex -0.183034 8.32665e-17 0.1
       vertex -0.180895 0.0326315 0.1
       vertex -0.180895 0.0326315 0
    endloop
  endfacet
  facet normal -0.997858 0.0654098 -1.08928e-16
    outer loop
       vertex -0.180895 0.0326315 0
       vertex -0.183034 -8.32665e-17 0
       vertex -0.183034 8.32665e-17 0.1
    endloop
  endfacet
  facet normal -0.997858 -0.0654098 0
    outer loop
       vertex -0.183034 -8.32665e-17 0
       vertex -0.180895 -0.0326315 0
       vertex -0.180895 -0.0326315 0.1
    endloop
  endfacet
  facet normal -0.997858 -0.0654098 1.08928e-16
    outer loop
       vertex -0.180895 -0.0326315 0.1
       vertex -0.183034 8.32665e-17 0.1
       vertex -0.183034 -8.32665e-17 0
    endloop
  endfacet
  facet normal -0.980784 -0.195096 0
    outer loop
       vertex -0.180895 -0.0326315 0
       vertex -0.174515 -0.064705 0
       vertex -0.174515 -0.064705 0.1
    endloop
  endfacet
  facet normal -0.980784 -0.195096 0
    outer loop
       vertex -0.174515 -0.064705 0.1
       vertex -0.180895 -0.0326315 0.1
       vertex -0.180895 -0.0326315 0
    endloop
  endfacet
  facet normal -0.946935 -0.321425 0
    outer loop
       vertex -0.174515 -0.064705 0
       vertex -0.164004 -0.095671 0
       vertex -0.164004 -0.095671 0.1
    endloop
  endfacet
  facet normal -0.946935 -0.321425 0
    outer loop
       vertex -0.164004 -0.095671 0.1
       vertex -0.174515 -0.064705 0.1
       vertex -0.174515 -0.064705 0
    endloop
  endfacet
  facet normal -0.896866 -0.442302 0
    outer loop
       vertex -0.164004 -0.095671 0
       vertex -0.14954 -0.125 0
       vertex -0.14954 -0.125 0.1
    endloop
  endfacet
  facet normal -0.896866 -0.442302 0
    outer loop
       vertex -0.14954 -0.125 0.1
       vertex -0.164004 -0.095671 0.1
       vertex -0.164004 -0.095671 0
    endloop
  endfacet
  facet normal -0.831476 -0.555561 0
    outer loop
       vertex -0.14954 -0.125 0
       vertex -0.131372 -0.152191 0
       vertex -0.131372 -0.152191 0.1
    endloop
  endfacet
  facet normal -0.831476 -0.555561 0
    outer loop
       vertex -0.131372 -0.152191 0.1
       vertex -0.14954 -0.125 0.1
       vertex -0.14954 -0.125 0
    endloop
  endfacet
  facet normal -0.751817 -0.659372 0
    outer loop
       vertex -0.131372 -0.152191 0
       vertex -0.10981 -0.176776 0
       vertex -0.10981 -0.176776 0.1
    endloop
  endfacet
  facet normal -0.751817 -0.659372 0
    outer loop
       vertex -0.10981 -0.176776 0.1
       vertex -0.131372 -0.152191 0.1
       vertex -0.131372 -0.152191 0
    endloop
  endfacet
  facet normal 0.659372 -0.751817 0
    outer loop
       vertex 0.243742 -0.176776 0
       vertex 0.243742 -0.176776 0.1
       vertex 0.219157 -0.198338 0.1
    endloop
  endfacet
  facet normal 0.659372 -0.751817 0
    outer loop
       vertex 0.219157 -0.198338 0.1
       vertex 0.219157 -0.198338 0
       vertex 0.243742 -0.176776 0
    endloop
  endfacet
  facet normal 0.555561 -0.831476 0
    outer loop
       vertex 0.219157 -0.198338 0
       vertex 0.219157 -0.198338 0.1
       vertex 0.191966 -0.216506 0.1
    endloop
  endfacet
  facet normal 0.555561 -0.831476 0
    outer loop
       vertex 0.191966 -0.216506 0.1
       vertex 0.191966 -0.216506 0
       vertex 0.219157 -0.198338 0
    endloop
  endfacet
  facet normal 0.442302 -0.896866 0
    outer loop
       vertex 0.191966 -0.216506 0
       vertex 0.191966 -0.216506 0.1
       vertex 0.162637 -0.23097 0.1
    endloop
  endfacet
  facet normal 0.442302 -0.896866 0
    outer loop
       vertex 0.162637 -0.23097 0.1
       vertex 0.162637 -0.23097 0
       vertex 0.191966 -0.216506 0
    endloop
  endfacet
  facet normal 0.321425 -0.946935 0
    outer loop
       vertex 0.162637 -0.23097 0
       vertex 0.162637 -0.23097 0.1
       vertex 0.131671 -0.241481 0.1
    endloop
  endfacet
  facet normal 0.321425 -0.946935 0
    outer loop
       vertex 0.131671 -0.241481 0.1
       vertex 0.131671 -0.241481 0
       vertex 0.162637 -0.23097 0
    endloop
  endfacet
  facet normal 0.195096 -0.980784 0
    outer loop
       vertex 0.131671 -0.241481 0
       vertex 0.131671 -0.241481 0.1
       vertex 0.0995975 -0.247861 0.1
    endloop
  endfacet
  facet normal 0.195096 -0.980784 0
    outer loop
       vertex 0.0995975 -0.247861 0.1
       vertex 0.0995975 -0.247861 0
       vertex 0.131671 -0.241481 0
    endloop
  endfacet
  facet normal 0.0654098 -0.997858 0
    outer loop
       vertex 0.066966 -0.25 0
       vertex 0.0995975 -0.247861 0
       vertex 0.0995975 -0.247861 0.1
    endloop
  endfacet
  facet normal 0.0654098 -0.997858 1.0893e-16
    outer loop
       vertex 0.0995975 -0.247861 0.1
       vertex 0.066966 -0.25 0.1
       vertex 0.066966 -0.25 0
    endloop
  endfacet
  facet normal -0.0654098 -0.997858 0
    outer loop
       vertex 0.066966 -0.25 0.1
       vertex 0.0343345 -0.247861 0.1
       vertex 0.0343345 -0.247861 0
    endloop
  endfacet
  facet normal -0.0654098 -0.997858 -1.08928e-16
    outer loop
       vertex 0.0343345 -0.247861 0
       vertex 0.066966 -0.25 0
       vertex 0.066966 -0.25 0.1
    endloop
  endfacet
  facet normal -0.195096 -0.980784 0
    outer loop
       vertex 0.0343345 -0.247861 0
       vertex 0.0343345 -0.247861 0.1
       vertex 0.00226101 -0.241481 0.1
    endloop
  endfacet
  facet normal -0.195096 -0.980784 -0
    outer loop
       vertex 0.00226101 -0.241481 0.1
       vertex 0.00226101 -0.241481 0
       vertex 0.0343345 -0.247861 0
    endloop
  endfacet
  facet normal -0.321425 -0.946935 0
    outer loop
       vertex 0.00226101 -0.241481 0
       vertex 0.00226101 -0.241481 0.1
       vertex -0.028705 -0.23097 0.1
    endloop
  endfacet
  facet normal -0.321425 -0.946935 -0
    outer loop
       vertex -0.028705 -0.23097 0.1
       vertex -0.028705 -0.23097 0
       vertex 0.00226101 -0.241481 0
    endloop
  endfacet
  facet normal -0.442302 -0.896866 0
    outer loop
       vertex -0.028705 -0.23097 0
       vertex -0.028705 -0.23097 0.1
       vertex -0.058034 -0.216506 0.1
    endloop
  endfacet
  facet normal -0.442302 -0.896866 -0
    outer loop
       vertex -0.058034 -0.216506 0.1
       vertex -0.058034 -0.216506 0
       vertex -0.028705 -0.23097 0
    endloop
  endfacet
  facet normal -0.555561 -0.831476 0
    outer loop
       vertex -0.058034 -0.216506 0
       vertex -0.058034 -0.216506 0.1
       vertex -0.085225 -0.198338 0.1
    endloop
  endfacet
  facet normal -0.555561 -0.831476 -0
    outer loop
       vertex -0.085225 -0.198338 0.1
       vertex -0.085225 -0.198338 0
       vertex -0.058034 -0.216506 0
    endloop
  endfacet
  facet normal -0.659372 -0.751817 0
    outer loop
       vertex -0.085225 -0.198338 0
       vertex -0.085225 -0.198338 0.1
       vertex -0.10981 -0.176776 0.1
    endloop
  endfacet
  facet normal -0.659372 -0.751817 -0
    outer loop
       vertex -0.10981 -0.176776 0.1
       vertex -0.10981 -0.176776 0
       vertex -0.085225 -0.198338 0
    endloop
  endfacet
endsolid cylinder
