solid cylinder
  facet normal 0.751817 -0.659372 0
    outer loop
       vertex -0.0867061 -0.176776 0
       vertex -0.0651441 -0.152191 0
       vertex -0.0651441 -0.152191 0.1
    endloop
  endfacet
  facet normal 0.751817 -0.659372 0
    outer loop
       vertex -0.0651441 -0.152191 0.1
       vertex -0.0867061 -0.176776 0.1
       vertex -0.0867061 -0.176776 0
    endloop
  endfacet
  facet normal 0.831476 -0.555561 0
    outer loop
       vertex -0.0651441 -0.152191 0
       vertex -0.0469761 -0.125 0
       vertex -0.0469761 -0.125 0.1
    endloop
  endfacet
  facet normal 0.831476 -0.555561 0
    outer loop
       vertex -0.0469761 -0.125 0.1
       vertex -0.0651441 -0.152191 0.1
       vertex -0.0651441 -0.152191 0
    endloop
  endfacet
  facet normal 0.896866 -0.442302 0
    outer loop
       vertex -0.0469761 -0.125 0
       vertex -0.0325121 -0.095671 0
       vertex -0.0325121 -0.095671 0.1
    endloop
  endfacet
  facet normal 0.896866 -0.442302 0
    outer loop
       vertex -0.0325121 -0.095671 0.1
       vertex -0.0469761 -0.125 0.1
       vertex -0.0469761 -0.125 0
    endloop
  endfacet
  facet normal 0.946935 -0.321425 0
    outer loop
       vertex -0.0325121 -0.095671 0
       vertex -0.0220011 -0.064705 0
       vertex -0.0220011 -0.064705 0.1
    endloop
  endfacet
  facet normal 0.946935 -0.321425 0
    outer loop
       vertex -0.0220011 -0.064705 0.1
       vertex -0.0325121 -0.095671 0.1
       vertex -0.0325121 -0.095671 0
    endloop
  endfacet
  facet normal 0.980784 -0.195096 0
    outer loop
       vertex -0.0220011 -0.064705 0
       vertex -0.0156211 -0.0326315 0
       vertex -0.0156211 -0.0326315 0.1
    endloop
  endfacet
  facet normal 0.980784 -0.195096 0
    outer loop
       vertex -0.0156211 -0.0326315 0.1
       vertex -0.0220011 -0.064705 0.1
       vertex -0.0220011 -0.064705 0
    endloop
  endfacet
  facet normal 0.997858 -0.0654098 0
    outer loop
       vertex -0.0134821 -8.32665e-17 0.1
       vertex -0.0156211 -0.0326315 0.1
       vertex -0.0156211 -0.0326315 0
    endloop
  endfacet
  facet normal 0.997858 -0.0654098 -1.08928e-16
    outer loop
       vertex -0.0156211 -0.0326315 0
       vertex -0.0134821 8.32665e-17 0
       vertex -0.0134821 -8.32665e-17 0.1
    endloop
  endfacet
  facet normal 0.997858 0.0654098 0
    outer loop
       vertex -0.0134821 8.32665e-17 0
       vertex -0.0156211 0.0326315 0
       vertex -0.0156211 0.0326315 0.1
    endloop
  endfacet
  facet normal 0.997858 0.0654098 1.08928e-16
    outer loop
       vertex -0.0156211 0.0326315 0.1
       vertex -0.0134821 -8.32665e-17 0.1
       vertex -0.0134821 8.32665e-17 0
    endloop
  endfacet
  facet normal 0.980784 0.195096 0
    outer loop
       vertex -0.0156211 0.0326315 0
       vertex -0.0220011 0.064705 0
       vertex -0.0220011 0.064705 0.1
    endloop
  endfacet
  facet normal 0.980784 0.195096 0
    outer loop
       vertex -0.0220011 0.064705 0.1
       vertex -0.0156211 0.0326315 0.1
       vertex -0.0156211 0.0326315 0
    endloop
  endfacet
  facet normal 0.946935 0.321425 0
    outer loop
       vertex -0.0220011 0.064705 0
       vertex -0.0325121 0.095671 0
       vertex -0.0325121 0.095671 0.1
    endloop
  endfacet
  facet normal 0.946935 0.321425 0
    outer loop
       vertex -0.0325121 0.095671 0.1
       vertex -0.0220011 0.064705 0.1
       vertex -0.0220011 0.064705 0
    endloop
  endfacet
  facet normal 0.896866 0.442302 0
    outer loop
       vertex -0.0325121 0.095671 0
       vertex -0.0469761 0.125 0
       vertex -0.0469761 0.125 0.1
    endloop
  endfacet
  facet normal 0.896866 0.442302 0
    outer loop
       vertex -0.0469761 0.125 0.1
       vertex -0.0325121 0.095671 0.1
       vertex -0.0325121 0.095671 0
    endloop
  endfacet
  facet normal 0.831476 0.555561 0
    outer loop
       vertex -0.0469761 0.125 0
       vertex -0.0651441 0.152191 0
       vertex -0.0651441 0.152191 0.1
    endloop
  endfacet
  facet normal 0.831476 0.555561 0
    outer loop
       vertex -0.0651441 0.152191 0.1
       vertex -0.0469761 0.125 0.1
       vertex -0.0469761 0.125 0
    endloop
  endfacet
  facet normal 0.751817 0.659372 0
    outer loop
       vertex -0.0651441 0.152191 0
       vertex -0.0867061 0.176776 0
       vertex -0.0867061 0.176776 0.1
    endloop
  endfacet
  facet normal 0.751817 0.659372 0
    outer loop
       vertex -0.0867061 0.176776 0.1
       vertex -0.0651441 0.152191 0.1
       vertex -0.0651441 0.152191 0
    endloop
  endfacet
  facet normal 0.659372 0.751817 0
    outer loop
       vertex -0.0867061 0.176776 0
       vertex -0.111291 0.198338 0
       vertex -0.111291 0.198338 0.1
    endloop
  endfacet
  facet normal 0.659372 0.751817 0
    outer loop
       vertex -0.111291 0.198338 0.1
       vertex -0.0867061 0.176776 0.1
       vertex -0.0867061 0.176776 0
    endloop
  endfacet
  facet normal 0.555561 0.831476 0
    outer loop
       vertex -0.111291 0.198338 0
       vertex -0.138482 0.216506 0
       vertex -0.138482 0.216506 0.1
    endloop
  endfacet
  facet normal 0.555561 0.831476 0
    outer loop
       vertex -0.138482 0.216506 0.1
       vertex -0.111291 0.198338 0.1
       vertex -0.111291 0.198338 0
    endloop
  endfacet
  facet normal 0.442302 0.896866 0
    outer loop
       vertex -0.138482 0.216506 0
       vertex -0.167811 0.23097 0
       vertex -0.167811 0.23097 0.1
    endloop
  endfacet
  facet normal 0.442302 0.896866 0
    outer loop
       vertex -0.167811 0.23097 0.1
       vertex -0.138482 0.216506 0.1
       vertex -0.138482 0.216506 0
    endloop
  endfacet
  facet normal 0.321425 0.946935 0
    outer loop
       vertex -0.167811 0.23097 0
       vertex -0.198777 0.241481 0
       vertex -0.198777 0.241481 0.1
    endloop
  endfacet
  facet normal 0.321425 0.946935 0
    outer loop
       vertex -0.198777 0.241481 0.1
       vertex -0.167811 0.23097 0.1
       vertex -0.167811 0.23097 0
    endloop
  endfacet
  facet normal 0.195096 0.980784 0
    outer loop
       vertex -0.198777 0.241481 0
       vertex -0.230851 0.247861 0
       vertex -0.230851 0.247861 0.1
    endloop
  endfacet
  facet normal 0.195096 0.980784 0
    outer loop
       vertex -0.230851 0.247861 0.1
       vertex -0.198777 0.241481 0.1
       vertex -0.198777 0.241481 0
    endloop
  endfacet
  facet normal 0.0654098 0.997858 0
    outer loop
       vertex -0.263482 0.25 0.1
       vertex -0.230851 0.247861 0.1
       vertex -0.230851 0.247861 0
    endloop
  endfacet
  facet normal 0.0654098 0.997858 -1.45239e-16
    outer loop
       vertex -0.230851 0.247861 0
       vertex -0.263482 0.25 0
       vertex -0.263482 0.25 0.1
    endloop
  endfacet
  facet normal -0.0654098 0.997858 0
    outer loop
       vertex -0.263482 0.25 0
       vertex -0.296114 0.247861 0
       vertex -0.296114 0.247861 0.1
    endloop
  endfacet
  facet normal -0.0654098 0.997858 1.45239e-16
    outer loop
       vertex -0.296114 0.247861 0.1
       vertex -0.263482 0.25 0.1
       vertex -0.263482 0.25 0
    endloop
  endfacet
  facet normal -0.195096 0.980784 0
    outer loop
       vertex -0.296114 0.247861 0
       vertex -0.328187 0.241481 0
       vertex -0.328187 0.241481 0.1
    endloop
  endfacet
  facet normal -0.195096 0.980784 0
    outer loop
       vertex -0.328187 0.241481 0.1
       vertex -0.296114 0.247861 0.1
       vertex -0.296114 0.247861 0
    endloop
  endfacet
  facet normal -0.321425 0.946935 0
    outer loop
       vertex -0.328187 0.241481 0
       vertex -0.359153 0.23097 0
       vertex -0.359153 0.23097 0.1
    endloop
  endfacet
  facet normal -0.321425 0.946935 0
    outer loop
       vertex -0.359153 0.23097 0.1
       vertex -0.328187 0.241481 0.1
       vertex -0.328187 0.241481 0
    endloop
  endfacet
  facet normal -0.442302 0.896866 0
    outer loop
       vertex -0.359153 0.23097 0
       vertex -0.388482 0.216506 0
       vertex -0.388482 0.216506 0.1
    endloop
  endfacet
  facet normal -0.442302 0.896866 0
    outer loop
       vertex -0.388482 0.216506 0.1
       vertex -0.359153 0.23097 0.1
       vertex -0.359153 0.23097 0
    endloop
  endfacet
  facet normal -0.555561 0.831476 0
    outer loop
       vertex -0.388482 0.216506 0
       vertex -0.415673 0.198338 0
       vertex -0.415673 0.198338 0.1
    endloop
  endfacet
  facet normal -0.555561 0.831476 0
    outer loop
       vertex -0.415673 0.198338 0.1
       vertex -0.388482 0.216506 0.1
       vertex -0.388482 0.216506 0
    endloop
  endfacet
  facet normal -0.659372 0.751817 0
    outer loop
       vertex -0.415673 0.198338 0
       vertex -0.440258 0.176776 0
       vertex -0.440258 0.176776 0.1
    endloop
  endfacet
  facet normal -0.659372 0.751817 0
    outer loop
       vertex -0.440258 0.176776 0.1
       vertex -0.415673 0.198338 0.1
       vertex -0.415673 0.198338 0
    endloop
  endfacet
  facet normal -0.751817 0.659372 0
    outer loop
       vertex -0.440258 0.176776 0
       vertex -0.46182 0.152191 0
       vertex -0.46182 0.152191 0.1
    endloop
  endfacet
  facet normal -0.751817 0.659372 0
    outer loop
       vertex -0.46182 0.152191 0.1
       vertex -0.440258 0.176776 0.1
       vertex -0.440258 0.176776 0
    endloop
  endfacet
  facet normal -0.831476 0.555561 0
    outer loop
       vertex -0.46182 0.152191 0
       vertex -0.479988 0.125 0
       vertex -0.479988 0.125 0.1
    endloop
  endfacet
  facet normal -0.831476 0.555561 0
    outer loop
       vertex -0.479988 0.125 0.1
       vertex -0.46182 0.152191 0.1
       vertex -0.46182 0.152191 0
    endloop
  endfacet
  facet normal -0.896866 0.442302 0
    outer loop
       vertex -0.479988 0.125 0
       vertex -0.494452 0.095671 0
       vertex -0.494452 0.095671 0.1
    endloop
  endfacet
  facet normal -0.896866 0.442302 0
    outer loop
       vertex -0.494452 0.095671 0.1
       vertex -0.479988 0.125 0.1
       vertex -0.479988 0.125 0
    endloop
  endfacet
  facet normal -0.946935 0.321425 0
    outer loop
       vertex -0.494452 0.095671 0
       vertex -0.504963 0.064705 0
       vertex -0.504963 0.064705 0.1
    endloop
  endfacet
  facet normal -0.946935 0.321425 0
    outer loop
       vertex -0.504963 0.064705 0.1
       vertex -0.494452 0.095671 0.1
       vertex -0.494452 0.095671 0
    endloop
  endfacet
  facet normal -0.980784 0.195096 0
    outer loop
       vertex -0.504963 0.064705 0
       vertex -0.511343 0.0326315 0
       vertex -0.511343 0.0326315 0.1
    endloop
  endfacet
  facet normal -0.980784 0.195096 0
    outer loop
       vertex -0.511343 0.0326315 0.1
       vertex -0.504963 0.064705 0.1
       vertex -0.504963 0.064705 0
    endloop
  endfacet
  facet normal -0.997858 0.0654098 0
    outer loop
       vertex -0.513482 8.32665e-17 0.1
       vertex -0.511343 0.0326315 0.1
       vertex -0.511343 0.0326315 0
    endloop
  endfacet
  facet normal -0.997858 0.0654098 -1.08928e-16
    outer loop
       vertex -0.511343 0.0326315 0
       vertex -0.513482 -8.32665e-17 0
       vertex -0.513482 8.32665e-17 0.1
    endloop
  endfacet
  facet normal -0.997858 -0.0654098 0
    outer loop
       vertex -0.513482 -8.32665e-17 0
       vertex -0.511343 -0.0326315 0
       vertex -0.511343 -0.0326315 0.1
    endloop
  endfacet
  facet normal -0.997858 -0.0654098 1.08928e-16
    outer loop
       vertex -0.511343 -0.0326315 0.1
       vertex -0.513482 8.32665e-17 0.1
       vertex -0.513482 -8.32665e-17 0
    endloop
  endfacet
  facet normal -0.980784 -0.195096 0
    outer loop
       vertex -0.511343 -0.0326315 0
       vertex -0.504963 -0.064705 0
       vertex -0.504963 -0.064705 0.1
    endloop
  endfacet
  facet normal -0.980784 -0.195096 0
    outer loop
       vertex -0.504963 -0.064705 0.1
       vertex -0.511343 -0.0326315 0.1
       vertex -0.511343 -0.0326315 0
    endloop
  endfacet
  facet normal -0.946935 -0.321425 0
    outer loop
       vertex -0.504963 -0.064705 0
       vertex -0.494452 -0.095671 0
       vertex -0.494452 -0.095671 0.1
    endloop
  endfacet
  facet normal -0.946935 -0.321425 0
    outer loop
       vertex -0.494452 -0.095671 0.1
       vertex -0.504963 -0.064705 0.1
       vertex -0.504963 -0.064705 0
    endloop
  endfacet
  facet normal -0.896866 -0.442302 0
    outer loop
       vertex -0.494452 -0.095671 0
       vertex -0.479988 -0.125 0
       vertex -0.479988 -0.125 0.1
    endloop
  endfacet
  facet normal -0.896866 -0.442302 0
    outer loop
       vertex -0.479988 -0.125 0.1
       vertex -0.494452 -0.095671 0.1
       vertex -0.494452 -0.095671 0
    endloop
  endfacet
  facet normal -0.831476 -0.555561 0
    outer loop
       vertex -0.479988 -0.125 0
       vertex -0.46182 -0.152191 0
       vertex -0.46182 -0.152191 0.1
    endloop
  endfacet
  facet normal -0.831476 -0.555561 0
    outer loop
       vertex -0.46182 -0.152191 0.1
       vertex -0.479988 -0.125 0.1
       vertex -0.479988 -0.125 0
    endloop
  endfacet
  facet normal -0.751817 -0.659372 0
    outer loop
       vertex -0.46182 -0.152191 0
       vertex -0.440258 -0.176776 0
       vertex -0.440258 -0.176776 0.1
    endloop
  endfacet
  facet normal -0.751817 -0.659372 0
    outer loop
       vertex -0.440258 -0.176776 0.1
       vertex -0.46182 -0.152191 0.1
       vertex -0.46182 -0.152191 0
    endloop
  endfacet
  facet normal 0.659372 -0.751817 0
    outer loop
       vertex -0.0867061 -0.176776 0
       vertex -0.0867061 -0.176776 0.1
       vertex -0.111291 -0.198338 0.1
    endloop
  endfacet
  facet normal 0.659372 -0.751817 0
    outer loop
       vertex -0.111291 -0.198338 0.1
       vertex -0.111291 -0.198338 0
       vertex -0.0867061 -0.176776 0
    endloop
  endfacet
  facet normal 0.555561 -0.831476 0
    outer loop
       vertex -0.111291 -0.198338 0
       vertex -0.111291 -0.198338 0.1
       vertex -0.138482 -0.216506 0.1
    endloop
  endfacet
  facet normal 0.555561 -0.831476 0
    outer loop
       vertex -0.138482 -0.216506 0.1
       vertex -0.138482 -0.216506 0
       vertex -0.111291 -0.198338 0
    endloop
  endfacet
  facet normal 0.442302 -0.896866 0
    outer loop
       vertex -0.138482 -0.216506 0
       vertex -0.138482 -0.216506 0.1
       vertex -0.167811 -0.23097 0.1
    endloop
  endfacet
  facet normal 0.442302 -0.896866 0
    outer loop
       vertex -0.167811 -0.23097 0.1
       vertex -0.167811 -0.23097 0
       vertex -0.138482 -0.216506 0
    endloop
  endfacet
  facet normal 0.321425 -0.946935 0
    outer loop
       vertex -0.167811 -0.23097 0
       vertex -0.167811 -0.23097 0.1
       vertex -0.198777 -0.241481 0.1
    endloop
  endfacet
  facet normal 0.321425 -0.946935 0
    outer loop
       vertex -0.198777 -0.241481 0.1
       vertex -0.198777 -0.241481 0
       vertex -0.167811 -0.23097 0
    endloop
  endfacet
  facet normal 0.195096 -0.980784 0
    outer loop
       vertex -0.198777 -0.241481 0
       vertex -0.198777 -0.241481 0.1
       vertex -0.230851 -0.247861 0.1
    endloop
  endfacet
  facet normal 0.195096 -0.980784 0
    outer loop
       vertex -0.230851 -0.247861 0.1
       vertex -0.230851 -0.247861 0
       vertex -0.198777 -0.241481 0
    endloop
  endfacet
  facet normal 0.0654098 -0.997858 0
    outer loop
       vertex -0.263482 -0.25 0
       vertex -0.230851 -0.247861 0
       vertex -0.230851 -0.247861 0.1
    endloop
  endfacet
  facet normal 0.0654098 -0.997858 1.45239e-16
    outer loop
       vertex -0.230851 -0.247861 0.1
       vertex -0.263482 -0.25 0.1
       vertex -0.263482 -0.25 0
    endloop
  endfacet
  facet normal -0.0654098 -0.997858 0
    outer loop
       vertex -0.263482 -0.25 0.1
       vertex -0.296114 -0.247861 0.1
       vertex -0.296114 -0.247861 0
    endloop
  endfacet
  facet normal -0.0654098 -0.997858 -1.45239e-16
    outer loop
       vertex -0.296114 -0.247861 0
       vertex -0.263482 -0.25 0
       vertex -0.263482 -0.25 0.1
    endloop
  endfacet
  facet normal -0.195096 -0.980784 0
    outer loop
       vertex -0.296114 -0.247861 0
       vertex -0.296114 -0.247861 0.1
       vertex -0.328187 -0.241481 0.1
    endloop
  endfacet
  facet normal -0.195096 -0.980784 -0
    outer loop
       vertex -0.328187 -0.241481 0.1
       vertex -0.328187 -0.241481 0
       vertex -0.296114 -0.247861 0
    endloop
  endfacet
  facet normal -0.321425 -0.946935 0
    outer loop
       vertex -0.328187 -0.241481 0
       vertex -0.328187 -0.241481 0.1
       vertex -0.359153 -0.23097 0.1
    endloop
  endfacet
  facet normal -0.321425 -0.946935 -0
    outer loop
       vertex -0.359153 -0.23097 0.1
       vertex -0.359153 -0.23097 0
       vertex -0.328187 -0.241481 0
    endloop
  endfacet
  facet normal -0.442302 -0.896866 0
    outer loop
       vertex -0.359153 -0.23097 0
       vertex -0.359153 -0.23097 0.1
       vertex -0.388482 -0.216506 0.1
    endloop
  endfacet
  facet normal -0.442302 -0.896866 -0
    outer loop
       vertex -0.388482 -0.216506 0.1
       vertex -0.388482 -0.216506 0
       vertex -0.359153 -0.23097 0
    endloop
  endfacet
  facet normal -0.555561 -0.831476 0
    outer loop
       vertex -0.388482 -0.216506 0
       vertex -0.388482 -0.216506 0.1
       vertex -0.415673 -0.198338 0.1
    endloop
  endfacet
  facet normal -0.555561 -0.831476 -0
    outer loop
       vertex -0.415673 -0.198338 0.1
       vertex -0.415673 -0.198338 0
       vertex -0.388482 -0.216506 0
    endloop
  endfacet
  facet normal -0.659372 -0.751817 0
    outer loop
       vertex -0.415673 -0.198338 0
       vertex -0.415673 -0.198338 0.1
       vertex -0.440258 -0.176776 0.1
    endloop
  endfacet
  facet normal -0.659372 -0.751817 -0
    outer loop
       vertex -0.440258 -0.176776 0.1
       vertex -0.440258 -0.176776 0
       vertex -0.415673 -0.198338 0
    endloop
  endfacet
endsolid cylinder
