solid cylinder
  facet normal 0.751817 -0.659372 0
    outer loop
       vertex -0.110405 -0.176776 0
       vertex -0.0888432 -0.152191 0
       vertex -0.0888432 -0.152191 0.1
    endloop
  endfacet
  facet normal 0.751817 -0.659372 0
    outer loop
       vertex -0.0888432 -0.152191 0.1
       vertex -0.110405 -0.176776 0.1
       vertex -0.110405 -0.176776 0
    endloop
  endfacet
  facet normal 0.831476 -0.555561 0
    outer loop
       vertex -0.0888432 -0.152191 0
       vertex -0.0706752 -0.125 0
       vertex -0.0706752 -0.125 0.1
    endloop
  endfacet
  facet normal 0.831476 -0.555561 0
    outer loop
       vertex -0.0706752 -0.125 0.1
       vertex -0.0888432 -0.152191 0.1
       vertex -0.0888432 -0.152191 0
    endloop
  endfacet
  facet normal 0.896866 -0.442302 0
    outer loop
       vertex -0.0706752 -0.125 0
       vertex -0.0562112 -0.095671 0
       vertex -0.0562112 -0.095671 0.1
    endloop
  endfacet
  facet normal 0.896866 -0.442302 0
    outer loop
       vertex -0.0562112 -0.095671 0.1
       vertex -0.0706752 -0.125 0.1
       vertex -0.0706752 -0.125 0
    endloop
  endfacet
  facet normal 0.946935 -0.321425 0
    outer loop
       vertex -0.0562112 -0.095671 0
       vertex -0.0457002 -0.064705 0
       vertex -0.0457002 -0.064705 0.1
    endloop
  endfacet
  facet normal 0.946935 -0.321425 0
    outer loop
       vertex -0.0457002 -0.064705 0.1
       vertex -0.0562112 -0.095671 0.1
       vertex -0.0562112 -0.095671 0
    endloop
  endfacet
  facet normal 0.980784 -0.195096 0
    outer loop
       vertex -0.0457002 -0.064705 0
       vertex -0.0393202 -0.0326315 0
       vertex -0.0393202 -0.0326315 0.1
    endloop
  endfacet
  facet normal 0.980784 -0.195096 0
    outer loop
       vertex -0.0393202 -0.0326315 0.1
       vertex -0.0457002 -0.064705 0.1
       vertex -0.0457002 -0.064705 0
    endloop
  endfacet
  facet normal 0.997858 -0.0654098 0
    outer loop
       vertex -0.0371812 -8.32665e-17 0.1
       vertex -0.0393202 -0.0326315 0.1
       vertex -0.0393202 -0.0326315 0
    endloop
  endfacet
  facet normal 0.997858 -0.0654098 -1.08928e-16
    outer loop
       vertex -0.0393202 -0.0326315 0
       vertex -0.0371812 8.32665e-17 0
       vertex -0.0371812 -8.32665e-17 0.1
    endloop
  endfacet
  facet normal 0.997858 0.0654098 0
    outer loop
       vertex -0.0371812 8.32665e-17 0
       vertex -0.0393202 0.0326315 0
       vertex -0.0393202 0.0326315 0.1
    endloop
  endfacet
  facet normal 0.997858 0.0654098 1.08928e-16
    outer loop
       vertex -0.0393202 0.0326315 0.1
       vertex -0.0371812 -8.32665e-17 0.1
       vertex -0.0371812 8.32665e-17 0
    endloop
  endfacet
  facet normal 0.980784 0.195096 0
    outer loop
       vertex -0.0393202 0.0326315 0
       vertex -0.0457002 0.064705 0
       vertex -0.0457002 0.064705 0.1
    endloop
  endfacet
  facet normal 0.980784 0.195096 0
    outer loop
       vertex -0.0457002 0.064705 0.1
       vertex -0.0393202 0.0326315 0.1
       vertex -0.0393202 0.0326315 0
    endloop
  endfacet
  facet normal 0.946935 0.321425 0
    outer loop
       vertex -0.0457002 0.064705 0
       vertex -0.0562112 0.095671 0
       vertex -0.0562112 0.095671 0.1
    endloop
  endfacet
  facet normal 0.946935 0.321425 0
    outer loop
       vertex -0.0562112 0.095671 0.1
       vertex -0.0457002 0.064705 0.1
       vertex -0.0457002 0.064705 0
    endloop
  endfacet
  facet normal 0.896866 0.442302 0
    outer loop
       vertex -0.0562112 0.095671 0
       vertex -0.0706752 0.125 0
       vertex -0.0706752 0.125 0.1
    endloop
  endfacet
  facet normal 0.896866 0.442302 0
    outer loop
       vertex -0.0706752 0.125 0.1
       vertex -0.0562112 0.095671 0.1
       vertex -0.0562112 0.095671 0
    endloop
  endfacet
  facet normal 0.831476 0.555561 0
    outer loop
       vertex -0.0706752 0.125 0
       vertex -0.0888432 0.152191 0
       vertex -0.0888432 0.152191 0.1
    endloop
  endfacet
  facet normal 0.831476 0.555561 0
    outer loop
       vertex -0.0888432 0.152191 0.1
       vertex -0.0706752 0.125 0.1
       vertex -0.0706752 0.125 0
    endloop
  endfacet
  facet normal 0.751817 0.659372 0
    outer loop
       vertex -0.0888432 0.152191 0
       vertex -0.110405 0.176776 0
       vertex -0.110405 0.176776 0.1
    endloop
  endfacet
  facet normal 0.751817 0.659372 0
    outer loop
       vertex -0.110405 0.176776 0.1
       vertex -0.0888432 0.152191 0.1
       vertex -0.0888432 0.152191 0
    endloop
  endfacet
  facet normal 0.659372 0.751817 0
    outer loop
       vertex -0.110405 0.176776 0
       vertex -0.13499 0.198338 0
       vertex -0.13499 0.198338 0.1
    endloop
  endfacet
  facet normal 0.659372 0.751817 0
    outer loop
       vertex -0.13499 0.198338 0.1
       vertex -0.110405 0.176776 0.1
       vertex -0.110405 0.176776 0
    endloop
  endfacet
  facet normal 0.555561 0.831476 0
    outer loop
       vertex -0.13499 0.198338 0
       vertex -0.162181 0.216506 0
       vertex -0.162181 0.216506 0.1
    endloop
  endfacet
  facet normal 0.555561 0.831476 0
    outer loop
       vertex -0.162181 0.216506 0.1
       vertex -0.13499 0.198338 0.1
       vertex -0.13499 0.198338 0
    endloop
  endfacet
  facet normal 0.442302 0.896866 0
    outer loop
       vertex -0.162181 0.216506 0
       vertex -0.19151 0.23097 0
       vertex -0.19151 0.23097 0.1
    endloop
  endfacet
  facet normal 0.442302 0.896866 0
    outer loop
       vertex -0.19151 0.23097 0.1
       vertex -0.162181 0.216506 0.1
       vertex -0.162181 0.216506 0
    endloop
  endfacet
  facet normal 0.321425 0.946935 0
    outer loop
       vertex -0.19151 0.23097 0
       vertex -0.222476 0.241481 0
       vertex -0.222476 0.241481 0.1
    endloop
  endfacet
  facet normal 0.321425 0.946935 0
    outer loop
       vertex -0.222476 0.241481 0.1
       vertex -0.19151 0.23097 0.1
       vertex -0.19151 0.23097 0
    endloop
  endfacet
  facet normal 0.195096 0.980784 0
    outer loop
       vertex -0.222476 0.241481 0
       vertex -0.25455 0.247861 0
       vertex -0.25455 0.247861 0.1
    endloop
  endfacet
  facet normal 0.195096 0.980784 0
    outer loop
       vertex -0.25455 0.247861 0.1
       vertex -0.222476 0.241481 0.1
       vertex -0.222476 0.241481 0
    endloop
  endfacet
  facet normal 0.0654098 0.997858 0
    outer loop
       vertex -0.287181 0.25 0.1
       vertex -0.25455 0.247861 0.1
       vertex -0.25455 0.247861 0
    endloop
  endfacet
  facet normal 0.0654098 0.997858 -1.45239e-16
    outer loop
       vertex -0.25455 0.247861 0
       vertex -0.287181 0.25 0
       vertex -0.287181 0.25 0.1
    endloop
  endfacet
  facet normal -0.0654098 0.997858 0
    outer loop
       vertex -0.287181 0.25 0
       vertex -0.319813 0.247861 0
       vertex -0.319813 0.247861 0.1
    endloop
  endfacet
  facet normal -0.0654098 0.997858 1.45239e-16
    outer loop
       vertex -0.319813 0.247861 0.1
       vertex -0.287181 0.25 0.1
       vertex -0.287181 0.25 0
    endloop
  endfacet
  facet normal -0.195096 0.980784 0
    outer loop
       vertex -0.319813 0.247861 0
       vertex -0.351886 0.241481 0
       vertex -0.351886 0.241481 0.1
    endloop
  endfacet
  facet normal -0.195096 0.980784 0
    outer loop
       vertex -0.351886 0.241481 0.1
       vertex -0.319813 0.247861 0.1
       vertex -0.319813 0.247861 0
    endloop
  endfacet
  facet normal -0.321425 0.946935 0
    outer loop
       vertex -0.351886 0.241481 0
       vertex -0.382852 0.23097 0
       vertex -0.382852 0.23097 0.1
    endloop
  endfacet
  facet normal -0.321425 0.946935 0
    outer loop
       vertex -0.382852 0.23097 0.1
       vertex -0.351886 0.241481 0.1
       vertex -0.351886 0.241481 0
    endloop
  endfacet
  facet normal -0.442302 0.896866 0
    outer loop
       vertex -0.382852 0.23097 0
       vertex -0.412181 0.216506 0
       vertex -0.412181 0.216506 0.1
    endloop
  endfacet
  facet normal -0.442302 0.896866 0
    outer loop
       vertex -0.412181 0.216506 0.1
       vertex -0.382852 0.23097 0.1
       vertex -0.382852 0.23097 0
    endloop
  endfacet
  facet normal -0.555561 0.831476 0
    outer loop
       vertex -0.412181 0.216506 0
       vertex -0.439372 0.198338 0
       vertex -0.439372 0.198338 0.1
    endloop
  endfacet
  facet normal -0.555561 0.831476 0
    outer loop
       vertex -0.439372 0.198338 0.1
       vertex -0.412181 0.216506 0.1
       vertex -0.412181 0.216506 0
    endloop
  endfacet
  facet normal -0.659372 0.751817 0
    outer loop
       vertex -0.439372 0.198338 0
       vertex -0.463957 0.176776 0
       vertex -0.463957 0.176776 0.1
    endloop
  endfacet
  facet normal -0.659372 0.751817 0
    outer loop
       vertex -0.463957 0.176776 0.1
       vertex -0.439372 0.198338 0.1
       vertex -0.439372 0.198338 0
    endloop
  endfacet
  facet normal -0.751817 0.659372 0
    outer loop
       vertex -0.463957 0.176776 0
       vertex -0.485519 0.152191 0
       vertex -0.485519 0.152191 0.1
    endloop
  endfacet
  facet normal -0.751817 0.659372 0
    outer loop
       vertex -0.485519 0.152191 0.1
       vertex -0.463957 0.176776 0.1
       vertex -0.463957 0.176776 0
    endloop
  endfacet
  facet normal -0.831476 0.555561 0
    outer loop
       vertex -0.485519 0.152191 0
       vertex -0.503687 0.125 0
       vertex -0.503687 0.125 0.1
    endloop
  endfacet
  facet normal -0.831476 0.555561 0
    outer loop
       vertex -0.503687 0.125 0.1
       vertex -0.485519 0.152191 0.1
       vertex -0.485519 0.152191 0
    endloop
  endfacet
  facet normal -0.896866 0.442302 0
    outer loop
       vertex -0.503687 0.125 0
       vertex -0.518151 0.095671 0
       vertex -0.518151 0.095671 0.1
    endloop
  endfacet
  facet normal -0.896866 0.442302 0
    outer loop
       vertex -0.518151 0.095671 0.1
       vertex -0.503687 0.125 0.1
       vertex -0.503687 0.125 0
    endloop
  endfacet
  facet normal -0.946935 0.321425 0
    outer loop
       vertex -0.518151 0.095671 0
       vertex -0.528662 0.064705 0
       vertex -0.528662 0.064705 0.1
    endloop
  endfacet
  facet normal -0.946935 0.321425 0
    outer loop
       vertex -0.528662 0.064705 0.1
       vertex -0.518151 0.095671 0.1
       vertex -0.518151 0.095671 0
    endloop
  endfacet
  facet normal -0.980784 0.195096 0
    outer loop
       vertex -0.528662 0.064705 0
       vertex -0.535042 0.0326315 0
       vertex -0.535042 0.0326315 0.1
    endloop
  endfacet
  facet normal -0.980784 0.195096 0
    outer loop
       vertex -0.535042 0.0326315 0.1
       vertex -0.528662 0.064705 0.1
       vertex -0.528662 0.064705 0
    endloop
  endfacet
  facet normal -0.997858 0.0654098 0
    outer loop
       vertex -0.537181 8.32665e-17 0.1
       vertex -0.535042 0.0326315 0.1
       vertex -0.535042 0.0326315 0
    endloop
  endfacet
  facet normal -0.997858 0.0654098 -1.08928e-16
    outer loop
       vertex -0.535042 0.0326315 0
       vertex -0.537181 -8.32665e-17 0
       vertex -0.537181 8.32665e-17 0.1
    endloop
  endfacet
  facet normal -0.997858 -0.0654098 0
    outer loop
       vertex -0.537181 -8.32665e-17 0
       vertex -0.535042 -0.0326315 0
       vertex -0.535042 -0.0326315 0.1
    endloop
  endfacet
  facet normal -0.997858 -0.0654098 1.08928e-16
    outer loop
       vertex -0.535042 -0.0326315 0.1
       vertex -0.537181 8.32665e-17 0.1
       vertex -0.537181 -8.32665e-17 0
    endloop
  endfacet
  facet normal -0.980784 -0.195096 0
    outer loop
       vertex -0.535042 -0.0326315 0
       vertex -0.528662 -0.064705 0
       vertex -0.528662 -0.064705 0.1
    endloop
  endfacet
  facet normal -0.980784 -0.195096 0
    outer loop
       vertex -0.528662 -0.064705 0.1
       vertex -0.535042 -0.0326315 0.1
       vertex -0.535042 -0.0326315 0
    endloop
  endfacet
  facet normal -0.946935 -0.321425 0
    outer loop
       vertex -0.528662 -0.064705 0
       vertex -0.518151 -0.095671 0
       vertex -0.518151 -0.095671 0.1
    endloop
  endfacet
  facet normal -0.946935 -0.321425 0
    outer loop
       vertex -0.518151 -0.095671 0.1
       vertex -0.528662 -0.064705 0.1
       vertex -0.528662 -0.064705 0
    endloop
  endfacet
  facet normal -0.896866 -0.442302 0
    outer loop
       vertex -0.518151 -0.095671 0
       vertex -0.503687 -0.125 0
       vertex -0.503687 -0.125 0.1
    endloop
  endfacet
  facet normal -0.896866 -0.442302 0
    outer loop
       vertex -0.503687 -0.125 0.1
       vertex -0.518151 -0.095671 0.1
       vertex -0.518151 -0.095671 0
    endloop
  endfacet
  facet normal -0.831476 -0.555561 0
    outer loop
       vertex -0.503687 -0.125 0
       vertex -0.485519 -0.152191 0
       vertex -0.485519 -0.152191 0.1
    endloop
  endfacet
  facet normal -0.831476 -0.555561 0
    outer loop
       vertex -0.485519 -0.152191 0.1
       vertex -0.503687 -0.125 0.1
       vertex -0.503687 -0.125 0
    endloop
  endfacet
  facet normal -0.751817 -0.659372 0
    outer loop
       vertex -0.485519 -0.152191 0
       vertex -0.463957 -0.176776 0
       vertex -0.463957 -0.176776 0.1
    endloop
  endfacet
  facet normal -0.751817 -0.659372 0
    outer loop
       vertex -0.463957 -0.176776 0.1
       vertex -0.485519 -0.152191 0.1
       vertex -0.485519 -0.152191 0
    endloop
  endfacet
  facet normal 0.659372 -0.751817 0
    outer loop
       vertex -0.110405 -0.176776 0
       vertex -0.110405 -0.176776 0.1
       vertex -0.13499 -0.198338 0.1
    endloop
  endfacet
  facet normal 0.659372 -0.751817 0
    outer loop
       vertex -0.13499 -0.198338 0.1
       vertex -0.13499 -0.198338 0
       vertex -0.110405 -0.176776 0
    endloop
  endfacet
  facet normal 0.555561 -0.831476 0
    outer loop
       vertex -0.13499 -0.198338 0
       vertex -0.13499 -0.198338 0.1
       vertex -0.162181 -0.216506 0.1
    endloop
  endfacet
  facet normal 0.555561 -0.831476 0
    outer loop
       vertex -0.162181 -0.216506 0.1
       vertex -0.162181 -0.216506 0
       vertex -0.13499 -0.198338 0
    endloop
  endfacet
  facet normal 0.442302 -0.896866 0
    outer loop
       vertex -0.162181 -0.216506 0
       vertex -0.162181 -0.216506 0.1
       vertex -0.19151 -0.23097 0.1
    endloop
  endfacet
  facet normal 0.442302 -0.896866 0
    outer loop
       vertex -0.19151 -0.23097 0.1
       vertex -0.19151 -0.23097 0
       vertex -0.162181 -0.216506 0
    endloop
  endfacet
  facet normal 0.321425 -0.946935 0
    outer loop
       vertex -0.19151 -0.23097 0
       vertex -0.19151 -0.23097 0.1
       vertex -0.222476 -0.241481 0.1
    endloop
  endfacet
  facet normal 0.321425 -0.946935 0
    outer loop
       vertex -0.222476 -0.241481 0.1
       vertex -0.222476 -0.241481 0
       vertex -0.19151 -0.23097 0
    endloop
  endfacet
  facet normal 0.195096 -0.980784 0
    outer loop
       vertex -0.222476 -0.241481 0
       vertex -0.222476 -0.241481 0.1
       vertex -0.25455 -0.247861 0.1
    endloop
  endfacet
  facet normal 0.195096 -0.980784 0
    outer loop
       vertex -0.25455 -0.247861 0.1
       vertex -0.25455 -0.247861 0
       vertex -0.222476 -0.241481 0
    endloop
  endfacet
  facet normal 0.0654098 -0.997858 0
    outer loop
       vertex -0.287181 -0.25 0
       vertex -0.25455 -0.247861 0
       vertex -0.25455 -0.247861 0.1
    endloop
  endfacet
  facet normal 0.0654098 -0.997858 1.45239e-16
    outer loop
       vertex -0.25455 -0.247861 0.1
       vertex -0.287181 -0.25 0.1
       vertex -0.287181 -0.25 0
    endloop
  endfacet
  facet normal -0.0654098 -0.997858 0
    outer loop
       vertex -0.287181 -0.25 0.1
       vertex -0.319813 -0.247861 0.1
       vertex -0.319813 -0.247861 0
    endloop
  endfacet
  facet normal -0.0654098 -0.997858 -1.45239e-16
    outer loop
       vertex -0.319813 -0.247861 0
       vertex -0.287181 -0.25 0
       vertex -0.287181 -0.25 0.1
    endloop
  endfacet
  facet normal -0.195096 -0.980784 0
    outer loop
       vertex -0.319813 -0.247861 0
       vertex -0.319813 -0.247861 0.1
       vertex -0.351886 -0.241481 0.1
    endloop
  endfacet
  facet normal -0.195096 -0.980784 -0
    outer loop
       vertex -0.351886 -0.241481 0.1
       vertex -0.351886 -0.241481 0
       vertex -0.319813 -0.247861 0
    endloop
  endfacet
  facet normal -0.321425 -0.946935 0
    outer loop
       vertex -0.351886 -0.241481 0
       vertex -0.351886 -0.241481 0.1
       vertex -0.382852 -0.23097 0.1
    endloop
  endfacet
  facet normal -0.321425 -0.946935 -0
    outer loop
       vertex -0.382852 -0.23097 0.1
       vertex -0.382852 -0.23097 0
       vertex -0.351886 -0.241481 0
    endloop
  endfacet
  facet normal -0.442302 -0.896866 0
    outer loop
       vertex -0.382852 -0.23097 0
       vertex -0.382852 -0.23097 0.1
       vertex -0.412181 -0.216506 0.1
    endloop
  endfacet
  facet normal -0.442302 -0.896866 -0
    outer loop
       vertex -0.412181 -0.216506 0.1
       vertex -0.412181 -0.216506 0
       vertex -0.382852 -0.23097 0
    endloop
  endfacet
  facet normal -0.555561 -0.831476 0
    outer loop
       vertex -0.412181 -0.216506 0
       vertex -0.412181 -0.216506 0.1
       vertex -0.439372 -0.198338 0.1
    endloop
  endfacet
  facet normal -0.555561 -0.831476 -0
    outer loop
       vertex -0.439372 -0.198338 0.1
       vertex -0.439372 -0.198338 0
       vertex -0.412181 -0.216506 0
    endloop
  endfacet
  facet normal -0.659372 -0.751817 0
    outer loop
       vertex -0.439372 -0.198338 0
       vertex -0.439372 -0.198338 0.1
       vertex -0.463957 -0.176776 0.1
    endloop
  endfacet
  facet normal -0.659372 -0.751817 -0
    outer loop
       vertex -0.463957 -0.176776 0.1
       vertex -0.463957 -0.176776 0
       vertex -0.439372 -0.198338 0
    endloop
  endfacet
endsolid cylinder
