solid cylinder
  facet normal 0.751817 -0.659372 0
    outer loop
       vertex 0.333432 -0.176776 0
       vertex 0.354994 -0.152191 0
       vertex 0.354994 -0.152191 0.1
    endloop
  endfacet
  facet normal 0.751817 -0.659372 0
    outer loop
       vertex 0.354994 -0.152191 0.1
       vertex 0.333432 -0.176776 0.1
       vertex 0.333432 -0.176776 0
    endloop
  endfacet
  facet normal 0.831476 -0.555561 0
    outer loop
       vertex 0.354994 -0.152191 0
       vertex 0.373162 -0.125 0
       vertex 0.373162 -0.125 0.1
    endloop
  endfacet
  facet normal 0.831476 -0.555561 0
    outer loop
       vertex 0.373162 -0.125 0.1
       vertex 0.354994 -0.152191 0.1
       vertex 0.354994 -0.152191 0
    endloop
  endfacet
  facet normal 0.896866 -0.442302 0
    outer loop
       vertex 0.373162 -0.125 0
       vertex 0.387626 -0.095671 0
       vertex 0.387626 -0.095671 0.1
    endloop
  endfacet
  facet normal 0.896866 -0.442302 0
    outer loop
       vertex 0.387626 -0.095671 0.1
       vertex 0.373162 -0.125 0.1
       vertex 0.373162 -0.125 0
    endloop
  endfacet
  facet normal 0.946935 -0.321425 0
    outer loop
       vertex 0.387626 -0.095671 0
       vertex 0.398137 -0.064705 0
       vertex 0.398137 -0.064705 0.1
    endloop
  endfacet
  facet normal 0.946935 -0.321425 0
    outer loop
       vertex 0.398137 -0.064705 0.1
       vertex 0.387626 -0.095671 0.1
       vertex 0.387626 -0.095671 0
    endloop
  endfacet
  facet normal 0.980784 -0.195096 0
    outer loop
       vertex 0.398137 -0.064705 0
       vertex 0.404517 -0.0326315 0
       vertex 0.404517 -0.0326315 0.1
    endloop
  endfacet
  facet normal 0.980784 -0.195096 0
    outer loop
       vertex 0.404517 -0.0326315 0.1
       vertex 0.398137 -0.064705 0.1
       vertex 0.398137 -0.064705 0
    endloop
  endfacet
  facet normal 0.997858 -0.0654098 0
    outer loop
       vertex 0.406656 -8.32665e-17 0.1
       vertex 0.404517 -0.0326315 0.1
       vertex 0.404517 -0.0326315 0
    endloop
  endfacet
  facet normal 0.997858 -0.0654098 -1.08928e-16
    outer loop
       vertex 0.404517 -0.0326315 0
       vertex 0.406656 8.32665e-17 0
       vertex 0.406656 -8.32665e-17 0.1
    endloop
  endfacet
  facet normal 0.997858 0.0654098 0
    outer loop
       vertex 0.406656 8.32665e-17 0
       vertex 0.404517 0.0326315 0
       vertex 0.404517 0.0326315 0.1
    endloop
  endfacet
  facet normal 0.997858 0.0654098 1.08928e-16
    outer loop
       vertex 0.404517 0.0326315 0.1
       vertex 0.406656 -8.32665e-17 0.1
       vertex 0.406656 8.32665e-17 0
    endloop
  endfacet
  facet normal 0.980784 0.195096 0
    outer loop
       vertex 0.404517 0.0326315 0
       vertex 0.398137 0.064705 0
       vertex 0.398137 0.064705 0.1
    endloop
  endfacet
  facet normal 0.980784 0.195096 0
    outer loop
       vertex 0.398137 0.064705 0.1
       vertex 0.404517 0.0326315 0.1
       vertex 0.404517 0.0326315 0
    endloop
  endfacet
  facet normal 0.946935 0.321425 0
    outer loop
       vertex 0.398137 0.064705 0
       vertex 0.387626 0.095671 0
       vertex 0.387626 0.095671 0.1
    endloop
  endfacet
  facet normal 0.946935 0.321425 0
    outer loop
       vertex 0.387626 0.095671 0.1
       vertex 0.398137 0.064705 0.1
       vertex 0.398137 0.064705 0
    endloop
  endfacet
  facet normal 0.896866 0.442302 0
    outer loop
       vertex 0.387626 0.095671 0
       vertex 0.373162 0.125 0
       vertex 0.373162 0.125 0.1
    endloop
  endfacet
  facet normal 0.896866 0.442302 0
    outer loop
       vertex 0.373162 0.125 0.1
       vertex 0.387626 0.095671 0.1
       vertex 0.387626 0.095671 0
    endloop
  endfacet
  facet normal 0.831476 0.555561 0
    outer loop
       vertex 0.373162 0.125 0
       vertex 0.354994 0.152191 0
       vertex 0.354994 0.152191 0.1
    endloop
  endfacet
  facet normal 0.831476 0.555561 0
    outer loop
       vertex 0.354994 0.152191 0.1
       vertex 0.373162 0.125 0.1
       vertex 0.373162 0.125 0
    endloop
  endfacet
  facet normal 0.751817 0.659372 0
    outer loop
       vertex 0.354994 0.152191 0
       vertex 0.333432 0.176776 0
       vertex 0.333432 0.176776 0.1
    endloop
  endfacet
  facet normal 0.751817 0.659372 0
    outer loop
       vertex 0.333432 0.176776 0.1
       vertex 0.354994 0.152191 0.1
       vertex 0.354994 0.152191 0
    endloop
  endfacet
  facet normal 0.659372 0.751817 0
    outer loop
       vertex 0.333432 0.176776 0
       vertex 0.308847 0.198338 0
       vertex 0.308847 0.198338 0.1
    endloop
  endfacet
  facet normal 0.659372 0.751817 0
    outer loop
       vertex 0.308847 0.198338 0.1
       vertex 0.333432 0.176776 0.1
       vertex 0.333432 0.176776 0
    endloop
  endfacet
  facet normal 0.555561 0.831476 0
    outer loop
       vertex 0.308847 0.198338 0
       vertex 0.281656 0.216506 0
       vertex 0.281656 0.216506 0.1
    endloop
  endfacet
  facet normal 0.555561 0.831476 0
    outer loop
       vertex 0.281656 0.216506 0.1
       vertex 0.308847 0.198338 0.1
       vertex 0.308847 0.198338 0
    endloop
  endfacet
  facet normal 0.442302 0.896866 0
    outer loop
       vertex 0.281656 0.216506 0
       vertex 0.252327 0.23097 0
       vertex 0.252327 0.23097 0.1
    endloop
  endfacet
  facet normal 0.442302 0.896866 0
    outer loop
       vertex 0.252327 0.23097 0.1
       vertex 0.281656 0.216506 0.1
       vertex 0.281656 0.216506 0
    endloop
  endfacet
  facet normal 0.321425 0.946935 0
    outer loop
       vertex 0.252327 0.23097 0
       vertex 0.221361 0.241481 0
       vertex 0.221361 0.241481 0.1
    endloop
  endfacet
  facet normal 0.321425 0.946935 0
    outer loop
       vertex 0.221361 0.241481 0.1
       vertex 0.252327 0.23097 0.1
       vertex 0.252327 0.23097 0
    endloop
  endfacet
  facet normal 0.195096 0.980784 0
    outer loop
       vertex 0.221361 0.241481 0
       vertex 0.189288 0.247861 0
       vertex 0.189288 0.247861 0.1
    endloop
  endfacet
  facet normal 0.195096 0.980784 0
    outer loop
       vertex 0.189288 0.247861 0.1
       vertex 0.221361 0.241481 0.1
       vertex 0.221361 0.241481 0
    endloop
  endfacet
  facet normal 0.0654098 0.997858 0
    outer loop
       vertex 0.156656 0.25 0.1
       vertex 0.189288 0.247861 0.1
       vertex 0.189288 0.247861 0
    endloop
  endfacet
  facet normal 0.0654098 0.997858 -1.0893e-16
    outer loop
       vertex 0.189288 0.247861 0
       vertex 0.156656 0.25 0
       vertex 0.156656 0.25 0.1
    endloop
  endfacet
  facet normal -0.0654098 0.997858 0
    outer loop
       vertex 0.156656 0.25 0
       vertex 0.124025 0.247861 0
       vertex 0.124025 0.247861 0.1
    endloop
  endfacet
  facet normal -0.0654098 0.997858 1.0893e-16
    outer loop
       vertex 0.124025 0.247861 0.1
       vertex 0.156656 0.25 0.1
       vertex 0.156656 0.25 0
    endloop
  endfacet
  facet normal -0.195096 0.980784 0
    outer loop
       vertex 0.124025 0.247861 0
       vertex 0.0919512 0.241481 0
       vertex 0.0919512 0.241481 0.1
    endloop
  endfacet
  facet normal -0.195096 0.980784 0
    outer loop
       vertex 0.0919512 0.241481 0.1
       vertex 0.124025 0.247861 0.1
       vertex 0.124025 0.247861 0
    endloop
  endfacet
  facet normal -0.321425 0.946935 0
    outer loop
       vertex 0.0919512 0.241481 0
       vertex 0.0609852 0.23097 0
       vertex 0.0609852 0.23097 0.1
    endloop
  endfacet
  facet normal -0.321425 0.946935 0
    outer loop
       vertex 0.0609852 0.23097 0.1
       vertex 0.0919512 0.241481 0.1
       vertex 0.0919512 0.241481 0
    endloop
  endfacet
  facet normal -0.442302 0.896866 0
    outer loop
       vertex 0.0609852 0.23097 0
       vertex 0.0316562 0.216506 0
       vertex 0.0316562 0.216506 0.1
    endloop
  endfacet
  facet normal -0.442302 0.896866 0
    outer loop
       vertex 0.0316562 0.216506 0.1
       vertex 0.0609852 0.23097 0.1
       vertex 0.0609852 0.23097 0
    endloop
  endfacet
  facet normal -0.555561 0.831476 0
    outer loop
       vertex 0.0316562 0.216506 0
       vertex 0.00446524 0.198338 0
       vertex 0.00446524 0.198338 0.1
    endloop
  endfacet
  facet normal -0.555561 0.831476 0
    outer loop
       vertex 0.00446524 0.198338 0.1
       vertex 0.0316562 0.216506 0.1
       vertex 0.0316562 0.216506 0
    endloop
  endfacet
  facet normal -0.659372 0.751817 0
    outer loop
       vertex 0.00446524 0.198338 0
       vertex -0.0201198 0.176776 0
       vertex -0.0201198 0.176776 0.1
    endloop
  endfacet
  facet normal -0.659372 0.751817 0
    outer loop
       vertex -0.0201198 0.176776 0.1
       vertex 0.00446524 0.198338 0.1
       vertex 0.00446524 0.198338 0
    endloop
  endfacet
  facet normal -0.751817 0.659372 0
    outer loop
       vertex -0.0201198 0.176776 0
       vertex -0.0416818 0.152191 0
       vertex -0.0416818 0.152191 0.1
    endloop
  endfacet
  facet normal -0.751817 0.659372 0
    outer loop
       vertex -0.0416818 0.152191 0.1
       vertex -0.0201198 0.176776 0.1
       vertex -0.0201198 0.176776 0
    endloop
  endfacet
  facet normal -0.831476 0.555561 0
    outer loop
       vertex -0.0416818 0.152191 0
       vertex -0.0598498 0.125 0
       vertex -0.0598498 0.125 0.1
    endloop
  endfacet
  facet normal -0.831476 0.555561 0
    outer loop
       vertex -0.0598498 0.125 0.1
       vertex -0.0416818 0.152191 0.1
       vertex -0.0416818 0.152191 0
    endloop
  endfacet
  facet normal -0.896866 0.442302 0
    outer loop
       vertex -0.0598498 0.125 0
       vertex -0.0743138 0.095671 0
       vertex -0.0743138 0.095671 0.1
    endloop
  endfacet
  facet normal -0.896866 0.442302 0
    outer loop
       vertex -0.0743138 0.095671 0.1
       vertex -0.0598498 0.125 0.1
       vertex -0.0598498 0.125 0
    endloop
  endfacet
  facet normal -0.946935 0.321425 0
    outer loop
       vertex -0.0743138 0.095671 0
       vertex -0.0848248 0.064705 0
       vertex -0.0848248 0.064705 0.1
    endloop
  endfacet
  facet normal -0.946935 0.321425 0
    outer loop
       vertex -0.0848248 0.064705 0.1
       vertex -0.0743138 0.095671 0.1
       vertex -0.0743138 0.095671 0
    endloop
  endfacet
  facet normal -0.980784 0.195096 0
    outer loop
       vertex -0.0848248 0.064705 0
       vertex -0.0912048 0.0326315 0
       vertex -0.0912048 0.0326315 0.1
    endloop
  endfacet
  facet normal -0.980784 0.195096 0
    outer loop
       vertex -0.0912048 0.0326315 0.1
       vertex -0.0848248 0.064705 0.1
       vertex -0.0848248 0.064705 0
    endloop
  endfacet
  facet normal -0.997858 0.0654098 0
    outer loop
       vertex -0.0933438 8.32665e-17 0.1
       vertex -0.0912048 0.0326315 0.1
       vertex -0.0912048 0.0326315 0
    endloop
  endfacet
  facet normal -0.997858 0.0654098 -1.08928e-16
    outer loop
       vertex -0.0912048 0.0326315 0
       vertex -0.0933438 -8.32665e-17 0
       vertex -0.0933438 8.32665e-17 0.1
    endloop
  endfacet
  facet normal -0.997858 -0.0654098 0
    outer loop
       vertex -0.0933438 -8.32665e-17 0
       vertex -0.0912048 -0.0326315 0
       vertex -0.0912048 -0.0326315 0.1
    endloop
  endfacet
  facet normal -0.997858 -0.0654098 1.08928e-16
    outer loop
       vertex -0.0912048 -0.0326315 0.1
       vertex -0.0933438 8.32665e-17 0.1
       vertex -0.0933438 -8.32665e-17 0
    endloop
  endfacet
  facet normal -0.980784 -0.195096 0
    outer loop
       vertex -0.0912048 -0.0326315 0
       vertex -0.0848248 -0.064705 0
       vertex -0.0848248 -0.064705 0.1
    endloop
  endfacet
  facet normal -0.980784 -0.195096 0
    outer loop
       vertex -0.0848248 -0.064705 0.1
       vertex -0.0912048 -0.0326315 0.1
       vertex -0.0912048 -0.0326315 0
    endloop
  endfacet
  facet normal -0.946935 -0.321425 0
    outer loop
       vertex -0.0848248 -0.064705 0
       vertex -0.0743138 -0.095671 0
       vertex -0.0743138 -0.095671 0.1
    endloop
  endfacet
  facet normal -0.946935 -0.321425 0
    outer loop
       vertex -0.0743138 -0.095671 0.1
       vertex -0.0848248 -0.064705 0.1
       vertex -0.0848248 -0.064705 0
    endloop
  endfacet
  facet normal -0.896866 -0.442302 0
    outer loop
       vertex -0.0743138 -0.095671 0
       vertex -0.0598498 -0.125 0
       vertex -0.0598498 -0.125 0.1
    endloop
  endfacet
  facet normal -0.896866 -0.442302 0
    outer loop
       vertex -0.0598498 -0.125 0.1
       vertex -0.0743138 -0.095671 0.1
       vertex -0.0743138 -0.095671 0
    endloop
  endfacet
  facet normal -0.831476 -0.555561 0
    outer loop
       vertex -0.0598498 -0.125 0
       vertex -0.0416818 -0.152191 0
       vertex -0.0416818 -0.152191 0.1
    endloop
  endfacet
  facet normal -0.831476 -0.555561 0
    outer loop
       vertex -0.0416818 -0.152191 0.1
       vertex -0.0598498 -0.125 0.1
       vertex -0.0598498 -0.125 0
    endloop
  endfacet
  facet normal -0.751817 -0.659372 0
    outer loop
       vertex -0.0416818 -0.152191 0
       vertex -0.0201198 -0.176776 0
       vertex -0.0201198 -0.176776 0.1
    endloop
  endfacet
  facet normal -0.751817 -0.659372 0
    outer loop
       vertex -0.0201198 -0.176776 0.1
       vertex -0.0416818 -0.152191 0.1
       vertex -0.0416818 -0.152191 0
    endloop
  endfacet
  facet normal 0.659372 -0.751817 0
    outer loop
       vertex 0.333432 -0.176776 0
       vertex 0.333432 -0.176776 0.1
       vertex 0.308847 -0.198338 0.1
    endloop
  endfacet
  facet normal 0.659372 -0.751817 0
    outer loop
       vertex 0.308847 -0.198338 0.1
       vertex 0.308847 -0.198338 0
       vertex 0.333432 -0.176776 0
    endloop
  endfacet
  facet normal 0.555561 -0.831476 0
    outer loop
       vertex 0.308847 -0.198338 0
       vertex 0.308847 -0.198338 0.1
       vertex 0.281656 -0.216506 0.1
    endloop
  endfacet
  facet normal 0.555561 -0.831476 0
    outer loop
       vertex 0.281656 -0.216506 0.1
       vertex 0.281656 -0.216506 0
       vertex 0.308847 -0.198338 0
    endloop
  endfacet
  facet normal 0.442302 -0.896866 0
    outer loop
       vertex 0.281656 -0.216506 0
       vertex 0.281656 -0.216506 0.1
       vertex 0.252327 -0.23097 0.1
    endloop
  endfacet
  facet normal 0.442302 -0.896866 0
    outer loop
       vertex 0.252327 -0.23097 0.1
       vertex 0.252327 -0.23097 0
       vertex 0.281656 -0.216506 0
    endloop
  endfacet
  facet normal 0.321425 -0.946935 0
    outer loop
       vertex 0.252327 -0.23097 0
       vertex 0.252327 -0.23097 0.1
       vertex 0.221361 -0.241481 0.1
    endloop
  endfacet
  facet normal 0.321425 -0.946935 0
    outer loop
       vertex 0.221361 -0.241481 0.1
       vertex 0.221361 -0.241481 0
       vertex 0.252327 -0.23097 0
    endloop
  endfacet
  facet normal 0.195096 -0.980784 0
    outer loop
       vertex 0.221361 -0.241481 0
       vertex 0.221361 -0.241481 0.1
       vertex 0.189288 -0.247861 0.1
    endloop
  endfacet
  facet normal 0.195096 -0.980784 0
    outer loop
       vertex 0.189288 -0.247861 0.1
       vertex 0.189288 -0.247861 0
       vertex 0.221361 -0.241481 0
    endloop
  endfacet
  facet normal 0.0654098 -0.997858 0
    outer loop
       vertex 0.156656 -0.25 0
       vertex 0.189288 -0.247861 0
       vertex 0.189288 -0.247861 0.1
    endloop
  endfacet
  facet normal 0.0654098 -0.997858 1.0893e-16
    outer loop
       vertex 0.189288 -0.247861 0.1
       vertex 0.156656 -0.25 0.1
       vertex 0.156656 -0.25 0
    endloop
  endfacet
  facet normal -0.0654098 -0.997858 0
    outer loop
       vertex 0.156656 -0.25 0.1
       vertex 0.124025 -0.247861 0.1
       vertex 0.124025 -0.247861 0
    endloop
  endfacet
  facet normal -0.0654098 -0.997858 -1.0893e-16
    outer loop
       vertex 0.124025 -0.247861 0
       vertex 0.156656 -0.25 0
       vertex 0.156656 -0.25 0.1
    endloop
  endfacet
  facet normal -0.195096 -0.980784 0
    outer loop
       vertex 0.124025 -0.247861 0
       vertex 0.124025 -0.247861 0.1
       vertex 0.0919512 -0.241481 0.1
    endloop
  endfacet
  facet normal -0.195096 -0.980784 -0
    outer loop
       vertex 0.0919512 -0.241481 0.1
       vertex 0.0919512 -0.241481 0
       vertex 0.124025 -0.247861 0
    endloop
  endfacet
  facet normal -0.321425 -0.946935 0
    outer loop
       vertex 0.0919512 -0.241481 0
       vertex 0.0919512 -0.241481 0.1
       vertex 0.0609852 -0.23097 0.1
    endloop
  endfacet
  facet normal -0.321425 -0.946935 -0
    outer loop
       vertex 0.0609852 -0.23097 0.1
       vertex 0.0609852 -0.23097 0
       vertex 0.0919512 -0.241481 0
    endloop
  endfacet
  facet normal -0.442302 -0.896866 0
    outer loop
       vertex 0.0609852 -0.23097 0
       vertex 0.0609852 -0.23097 0.1
       vertex 0.0316562 -0.216506 0.1
    endloop
  endfacet
  facet normal -0.442302 -0.896866 -0
    outer loop
       vertex 0.0316562 -0.216506 0.1
       vertex 0.0316562 -0.216506 0
       vertex 0.0609852 -0.23097 0
    endloop
  endfacet
  facet normal -0.555561 -0.831476 0
    outer loop
       vertex 0.0316562 -0.216506 0
       vertex 0.0316562 -0.216506 0.1
       vertex 0.00446524 -0.198338 0.1
    endloop
  endfacet
  facet normal -0.555561 -0.831476 -0
    outer loop
       vertex 0.00446524 -0.198338 0.1
       vertex 0.00446524 -0.198338 0
       vertex 0.0316562 -0.216506 0
    endloop
  endfacet
  facet normal -0.659372 -0.751817 0
    outer loop
       vertex 0.00446524 -0.198338 0
       vertex 0.00446524 -0.198338 0.1
       vertex -0.0201198 -0.176776 0.1
    endloop
  endfacet
  facet normal -0.659372 -0.751817 -0
    outer loop
       vertex -0.0201198 -0.176776 0.1
       vertex -0.0201198 -0.176776 0
       vertex 0.00446524 -0.198338 0
    endloop
  endfacet
endsolid cylinder
