solid cylinder
  facet normal 0.751817 -0.659372 0
    outer loop
       vertex -0.0230354 -0.176776 0
       vertex -0.00147345 -0.152191 0
       vertex -0.00147345 -0.152191 0.1
    endloop
  endfacet
  facet normal 0.751817 -0.659372 0
    outer loop
       vertex -0.00147345 -0.152191 0.1
       vertex -0.0230354 -0.176776 0.1
       vertex -0.0230354 -0.176776 0
    endloop
  endfacet
  facet normal 0.831476 -0.555561 0
    outer loop
       vertex -0.00147345 -0.152191 0
       vertex 0.0166946 -0.125 0
       vertex 0.0166946 -0.125 0.1
    endloop
  endfacet
  facet normal 0.831476 -0.555561 0
    outer loop
       vertex 0.0166946 -0.125 0.1
       vertex -0.00147345 -0.152191 0.1
       vertex -0.00147345 -0.152191 0
    endloop
  endfacet
  facet normal 0.896866 -0.442302 0
    outer loop
       vertex 0.0166946 -0.125 0
       vertex 0.0311586 -0.095671 0
       vertex 0.0311586 -0.095671 0.1
    endloop
  endfacet
  facet normal 0.896866 -0.442302 0
    outer loop
       vertex 0.0311586 -0.095671 0.1
       vertex 0.0166946 -0.125 0.1
       vertex 0.0166946 -0.125 0
    endloop
  endfacet
  facet normal 0.946935 -0.321425 0
    outer loop
       vertex 0.0311586 -0.095671 0
       vertex 0.0416696 -0.064705 0
       vertex 0.0416696 -0.064705 0.1
    endloop
  endfacet
  facet normal 0.946935 -0.321425 0
    outer loop
       vertex 0.0416696 -0.064705 0.1
       vertex 0.0311586 -0.095671 0.1
       vertex 0.0311586 -0.095671 0
    endloop
  endfacet
  facet normal 0.980784 -0.195096 0
    outer loop
       vertex 0.0416696 -0.064705 0
       vertex 0.0480496 -0.0326315 0
       vertex 0.0480496 -0.0326315 0.1
    endloop
  endfacet
  facet normal 0.980784 -0.195096 0
    outer loop
       vertex 0.0480496 -0.0326315 0.1
       vertex 0.0416696 -0.064705 0.1
       vertex 0.0416696 -0.064705 0
    endloop
  endfacet
  facet normal 0.997858 -0.0654098 0
    outer loop
       vertex 0.0501886 -8.32665e-17 0.1
       vertex 0.0480496 -0.0326315 0.1
       vertex 0.0480496 -0.0326315 0
    endloop
  endfacet
  facet normal 0.997858 -0.0654098 -1.08928e-16
    outer loop
       vertex 0.0480496 -0.0326315 0
       vertex 0.0501886 8.32665e-17 0
       vertex 0.0501886 -8.32665e-17 0.1
    endloop
  endfacet
  facet normal 0.997858 0.0654098 0
    outer loop
       vertex 0.0501886 8.32665e-17 0
       vertex 0.0480496 0.0326315 0
       vertex 0.0480496 0.0326315 0.1
    endloop
  endfacet
  facet normal 0.997858 0.0654098 1.08928e-16
    outer loop
       vertex 0.0480496 0.0326315 0.1
       vertex 0.0501886 -8.32665e-17 0.1
       vertex 0.0501886 8.32665e-17 0
    endloop
  endfacet
  facet normal 0.980784 0.195096 0
    outer loop
       vertex 0.0480496 0.0326315 0
       vertex 0.0416696 0.064705 0
       vertex 0.0416696 0.064705 0.1
    endloop
  endfacet
  facet normal 0.980784 0.195096 0
    outer loop
       vertex 0.0416696 0.064705 0.1
       vertex 0.0480496 0.0326315 0.1
       vertex 0.0480496 0.0326315 0
    endloop
  endfacet
  facet normal 0.946935 0.321425 0
    outer loop
       vertex 0.0416696 0.064705 0
       vertex 0.0311586 0.095671 0
       vertex 0.0311586 0.095671 0.1
    endloop
  endfacet
  facet normal 0.946935 0.321425 0
    outer loop
       vertex 0.0311586 0.095671 0.1
       vertex 0.0416696 0.064705 0.1
       vertex 0.0416696 0.064705 0
    endloop
  endfacet
  facet normal 0.896866 0.442302 0
    outer loop
       vertex 0.0311586 0.095671 0
       vertex 0.0166946 0.125 0
       vertex 0.0166946 0.125 0.1
    endloop
  endfacet
  facet normal 0.896866 0.442302 0
    outer loop
       vertex 0.0166946 0.125 0.1
       vertex 0.0311586 0.095671 0.1
       vertex 0.0311586 0.095671 0
    endloop
  endfacet
  facet normal 0.831476 0.555561 0
    outer loop
       vertex 0.0166946 0.125 0
       vertex -0.00147345 0.152191 0
       vertex -0.00147345 0.152191 0.1
    endloop
  endfacet
  facet normal 0.831476 0.555561 0
    outer loop
       vertex -0.00147345 0.152191 0.1
       vertex 0.0166946 0.125 0.1
       vertex 0.0166946 0.125 0
    endloop
  endfacet
  facet normal 0.751817 0.659372 0
    outer loop
       vertex -0.00147345 0.152191 0
       vertex -0.0230354 0.176776 0
       vertex -0.0230354 0.176776 0.1
    endloop
  endfacet
  facet normal 0.751817 0.659372 0
    outer loop
       vertex -0.0230354 0.176776 0.1
       vertex -0.00147345 0.152191 0.1
       vertex -0.00147345 0.152191 0
    endloop
  endfacet
  facet normal 0.659372 0.751817 0
    outer loop
       vertex -0.0230354 0.176776 0
       vertex -0.0476204 0.198338 0
       vertex -0.0476204 0.198338 0.1
    endloop
  endfacet
  facet normal 0.659372 0.751817 0
    outer loop
       vertex -0.0476204 0.198338 0.1
       vertex -0.0230354 0.176776 0.1
       vertex -0.0230354 0.176776 0
    endloop
  endfacet
  facet normal 0.555561 0.831476 0
    outer loop
       vertex -0.0476204 0.198338 0
       vertex -0.0748114 0.216506 0
       vertex -0.0748114 0.216506 0.1
    endloop
  endfacet
  facet normal 0.555561 0.831476 0
    outer loop
       vertex -0.0748114 0.216506 0.1
       vertex -0.0476204 0.198338 0.1
       vertex -0.0476204 0.198338 0
    endloop
  endfacet
  facet normal 0.442302 0.896866 0
    outer loop
       vertex -0.0748114 0.216506 0
       vertex -0.10414 0.23097 0
       vertex -0.10414 0.23097 0.1
    endloop
  endfacet
  facet normal 0.442302 0.896866 0
    outer loop
       vertex -0.10414 0.23097 0.1
       vertex -0.0748114 0.216506 0.1
       vertex -0.0748114 0.216506 0
    endloop
  endfacet
  facet normal 0.321425 0.946935 0
    outer loop
       vertex -0.10414 0.23097 0
       vertex -0.135106 0.241481 0
       vertex -0.135106 0.241481 0.1
    endloop
  endfacet
  facet normal 0.321425 0.946935 0
    outer loop
       vertex -0.135106 0.241481 0.1
       vertex -0.10414 0.23097 0.1
       vertex -0.10414 0.23097 0
    endloop
  endfacet
  facet normal 0.195096 0.980784 0
    outer loop
       vertex -0.135106 0.241481 0
       vertex -0.16718 0.247861 0
       vertex -0.16718 0.247861 0.1
    endloop
  endfacet
  facet normal 0.195096 0.980784 0
    outer loop
       vertex -0.16718 0.247861 0.1
       vertex -0.135106 0.241481 0.1
       vertex -0.135106 0.241481 0
    endloop
  endfacet
  facet normal 0.0654098 0.997858 0
    outer loop
       vertex -0.199811 0.25 0.1
       vertex -0.16718 0.247861 0.1
       vertex -0.16718 0.247861 0
    endloop
  endfacet
  facet normal 0.0654098 0.997858 -1.0893e-16
    outer loop
       vertex -0.16718 0.247861 0
       vertex -0.199811 0.25 0
       vertex -0.199811 0.25 0.1
    endloop
  endfacet
  facet normal -0.0654098 0.997858 0
    outer loop
       vertex -0.199811 0.25 0
       vertex -0.232443 0.247861 0
       vertex -0.232443 0.247861 0.1
    endloop
  endfacet
  facet normal -0.0654098 0.997858 1.0893e-16
    outer loop
       vertex -0.232443 0.247861 0.1
       vertex -0.199811 0.25 0.1
       vertex -0.199811 0.25 0
    endloop
  endfacet
  facet normal -0.195096 0.980784 0
    outer loop
       vertex -0.232443 0.247861 0
       vertex -0.264516 0.241481 0
       vertex -0.264516 0.241481 0.1
    endloop
  endfacet
  facet normal -0.195096 0.980784 0
    outer loop
       vertex -0.264516 0.241481 0.1
       vertex -0.232443 0.247861 0.1
       vertex -0.232443 0.247861 0
    endloop
  endfacet
  facet normal -0.321425 0.946935 0
    outer loop
       vertex -0.264516 0.241481 0
       vertex -0.295482 0.23097 0
       vertex -0.295482 0.23097 0.1
    endloop
  endfacet
  facet normal -0.321425 0.946935 0
    outer loop
       vertex -0.295482 0.23097 0.1
       vertex -0.264516 0.241481 0.1
       vertex -0.264516 0.241481 0
    endloop
  endfacet
  facet normal -0.442302 0.896866 0
    outer loop
       vertex -0.295482 0.23097 0
       vertex -0.324811 0.216506 0
       vertex -0.324811 0.216506 0.1
    endloop
  endfacet
  facet normal -0.442302 0.896866 0
    outer loop
       vertex -0.324811 0.216506 0.1
       vertex -0.295482 0.23097 0.1
       vertex -0.295482 0.23097 0
    endloop
  endfacet
  facet normal -0.555561 0.831476 0
    outer loop
       vertex -0.324811 0.216506 0
       vertex -0.352002 0.198338 0
       vertex -0.352002 0.198338 0.1
    endloop
  endfacet
  facet normal -0.555561 0.831476 0
    outer loop
       vertex -0.352002 0.198338 0.1
       vertex -0.324811 0.216506 0.1
       vertex -0.324811 0.216506 0
    endloop
  endfacet
  facet normal -0.659372 0.751817 0
    outer loop
       vertex -0.352002 0.198338 0
       vertex -0.376587 0.176776 0
       vertex -0.376587 0.176776 0.1
    endloop
  endfacet
  facet normal -0.659372 0.751817 0
    outer loop
       vertex -0.376587 0.176776 0.1
       vertex -0.352002 0.198338 0.1
       vertex -0.352002 0.198338 0
    endloop
  endfacet
  facet normal -0.751817 0.659372 0
    outer loop
       vertex -0.376587 0.176776 0
       vertex -0.398149 0.152191 0
       vertex -0.398149 0.152191 0.1
    endloop
  endfacet
  facet normal -0.751817 0.659372 0
    outer loop
       vertex -0.398149 0.152191 0.1
       vertex -0.376587 0.176776 0.1
       vertex -0.376587 0.176776 0
    endloop
  endfacet
  facet normal -0.831476 0.555561 0
    outer loop
       vertex -0.398149 0.152191 0
       vertex -0.416317 0.125 0
       vertex -0.416317 0.125 0.1
    endloop
  endfacet
  facet normal -0.831476 0.555561 0
    outer loop
       vertex -0.416317 0.125 0.1
       vertex -0.398149 0.152191 0.1
       vertex -0.398149 0.152191 0
    endloop
  endfacet
  facet normal -0.896866 0.442302 0
    outer loop
       vertex -0.416317 0.125 0
       vertex -0.430781 0.095671 0
       vertex -0.430781 0.095671 0.1
    endloop
  endfacet
  facet normal -0.896866 0.442302 0
    outer loop
       vertex -0.430781 0.095671 0.1
       vertex -0.416317 0.125 0.1
       vertex -0.416317 0.125 0
    endloop
  endfacet
  facet normal -0.946935 0.321425 0
    outer loop
       vertex -0.430781 0.095671 0
       vertex -0.441292 0.064705 0
       vertex -0.441292 0.064705 0.1
    endloop
  endfacet
  facet normal -0.946935 0.321425 0
    outer loop
       vertex -0.441292 0.064705 0.1
       vertex -0.430781 0.095671 0.1
       vertex -0.430781 0.095671 0
    endloop
  endfacet
  facet normal -0.980784 0.195096 0
    outer loop
       vertex -0.441292 0.064705 0
       vertex -0.447672 0.0326315 0
       vertex -0.447672 0.0326315 0.1
    endloop
  endfacet
  facet normal -0.980784 0.195096 0
    outer loop
       vertex -0.447672 0.0326315 0.1
       vertex -0.441292 0.064705 0.1
       vertex -0.441292 0.064705 0
    endloop
  endfacet
  facet normal -0.997858 0.0654098 0
    outer loop
       vertex -0.449811 8.32665e-17 0.1
       vertex -0.447672 0.0326315 0.1
       vertex -0.447672 0.0326315 0
    endloop
  endfacet
  facet normal -0.997858 0.0654098 -1.08928e-16
    outer loop
       vertex -0.447672 0.0326315 0
       vertex -0.449811 -8.32665e-17 0
       vertex -0.449811 8.32665e-17 0.1
    endloop
  endfacet
  facet normal -0.997858 -0.0654098 0
    outer loop
       vertex -0.449811 -8.32665e-17 0
       vertex -0.447672 -0.0326315 0
       vertex -0.447672 -0.0326315 0.1
    endloop
  endfacet
  facet normal -0.997858 -0.0654098 1.08928e-16
    outer loop
       vertex -0.447672 -0.0326315 0.1
       vertex -0.449811 8.32665e-17 0.1
       vertex -0.449811 -8.32665e-17 0
    endloop
  endfacet
  facet normal -0.980784 -0.195096 0
    outer loop
       vertex -0.447672 -0.0326315 0
       vertex -0.441292 -0.064705 0
       vertex -0.441292 -0.064705 0.1
    endloop
  endfacet
  facet normal -0.980784 -0.195096 0
    outer loop
       vertex -0.441292 -0.064705 0.1
       vertex -0.447672 -0.0326315 0.1
       vertex -0.447672 -0.0326315 0
    endloop
  endfacet
  facet normal -0.946935 -0.321425 0
    outer loop
       vertex -0.441292 -0.064705 0
       vertex -0.430781 -0.095671 0
       vertex -0.430781 -0.095671 0.1
    endloop
  endfacet
  facet normal -0.946935 -0.321425 0
    outer loop
       vertex -0.430781 -0.095671 0.1
       vertex -0.441292 -0.064705 0.1
       vertex -0.441292 -0.064705 0
    endloop
  endfacet
  facet normal -0.896866 -0.442302 0
    outer loop
       vertex -0.430781 -0.095671 0
       vertex -0.416317 -0.125 0
       vertex -0.416317 -0.125 0.1
    endloop
  endfacet
  facet normal -0.896866 -0.442302 0
    outer loop
       vertex -0.416317 -0.125 0.1
       vertex -0.430781 -0.095671 0.1
       vertex -0.430781 -0.095671 0
    endloop
  endfacet
  facet normal -0.831476 -0.555561 0
    outer loop
       vertex -0.416317 -0.125 0
       vertex -0.398149 -0.152191 0
       vertex -0.398149 -0.152191 0.1
    endloop
  endfacet
  facet normal -0.831476 -0.555561 0
    outer loop
       vertex -0.398149 -0.152191 0.1
       vertex -0.416317 -0.125 0.1
       vertex -0.416317 -0.125 0
    endloop
  endfacet
  facet normal -0.751817 -0.659372 0
    outer loop
       vertex -0.398149 -0.152191 0
       vertex -0.376587 -0.176776 0
       vertex -0.376587 -0.176776 0.1
    endloop
  endfacet
  facet normal -0.751817 -0.659372 0
    outer loop
       vertex -0.376587 -0.176776 0.1
       vertex -0.398149 -0.152191 0.1
       vertex -0.398149 -0.152191 0
    endloop
  endfacet
  facet normal 0.659372 -0.751817 0
    outer loop
       vertex -0.0230354 -0.176776 0
       vertex -0.0230354 -0.176776 0.1
       vertex -0.0476204 -0.198338 0.1
    endloop
  endfacet
  facet normal 0.659372 -0.751817 0
    outer loop
       vertex -0.0476204 -0.198338 0.1
       vertex -0.0476204 -0.198338 0
       vertex -0.0230354 -0.176776 0
    endloop
  endfacet
  facet normal 0.555561 -0.831476 0
    outer loop
       vertex -0.0476204 -0.198338 0
       vertex -0.0476204 -0.198338 0.1
       vertex -0.0748114 -0.216506 0.1
    endloop
  endfacet
  facet normal 0.555561 -0.831476 0
    outer loop
       vertex -0.0748114 -0.216506 0.1
       vertex -0.0748114 -0.216506 0
       vertex -0.0476204 -0.198338 0
    endloop
  endfacet
  facet normal 0.442302 -0.896866 0
    outer loop
       vertex -0.0748114 -0.216506 0
       vertex -0.0748114 -0.216506 0.1
       vertex -0.10414 -0.23097 0.1
    endloop
  endfacet
  facet normal 0.442302 -0.896866 0
    outer loop
       vertex -0.10414 -0.23097 0.1
       vertex -0.10414 -0.23097 0
       vertex -0.0748114 -0.216506 0
    endloop
  endfacet
  facet normal 0.321425 -0.946935 0
    outer loop
       vertex -0.10414 -0.23097 0
       vertex -0.10414 -0.23097 0.1
       vertex -0.135106 -0.241481 0.1
    endloop
  endfacet
  facet normal 0.321425 -0.946935 0
    outer loop
       vertex -0.135106 -0.241481 0.1
       vertex -0.135106 -0.241481 0
       vertex -0.10414 -0.23097 0
    endloop
  endfacet
  facet normal 0.195096 -0.980784 0
    outer loop
       vertex -0.135106 -0.241481 0
       vertex -0.135106 -0.241481 0.1
       vertex -0.16718 -0.247861 0.1
    endloop
  endfacet
  facet normal 0.195096 -0.980784 0
    outer loop
       vertex -0.16718 -0.247861 0.1
       vertex -0.16718 -0.247861 0
       vertex -0.135106 -0.241481 0
    endloop
  endfacet
  facet normal 0.0654098 -0.997858 0
    outer loop
       vertex -0.199811 -0.25 0
       vertex -0.16718 -0.247861 0
       vertex -0.16718 -0.247861 0.1
    endloop
  endfacet
  facet normal 0.0654098 -0.997858 1.0893e-16
    outer loop
       vertex -0.16718 -0.247861 0.1
       vertex -0.199811 -0.25 0.1
       vertex -0.199811 -0.25 0
    endloop
  endfacet
  facet normal -0.0654098 -0.997858 0
    outer loop
       vertex -0.199811 -0.25 0.1
       vertex -0.232443 -0.247861 0.1
       vertex -0.232443 -0.247861 0
    endloop
  endfacet
  facet normal -0.0654098 -0.997858 -1.0893e-16
    outer loop
       vertex -0.232443 -0.247861 0
       vertex -0.199811 -0.25 0
       vertex -0.199811 -0.25 0.1
    endloop
  endfacet
  facet normal -0.195096 -0.980784 0
    outer loop
       vertex -0.232443 -0.247861 0
       vertex -0.232443 -0.247861 0.1
       vertex -0.264516 -0.241481 0.1
    endloop
  endfacet
  facet normal -0.195096 -0.980784 -0
    outer loop
       vertex -0.264516 -0.241481 0.1
       vertex -0.264516 -0.241481 0
       vertex -0.232443 -0.247861 0
    endloop
  endfacet
  facet normal -0.321425 -0.946935 0
    outer loop
       vertex -0.264516 -0.241481 0
       vertex -0.264516 -0.241481 0.1
       vertex -0.295482 -0.23097 0.1
    endloop
  endfacet
  facet normal -0.321425 -0.946935 -0
    outer loop
       vertex -0.295482 -0.23097 0.1
       vertex -0.295482 -0.23097 0
       vertex -0.264516 -0.241481 0
    endloop
  endfacet
  facet normal -0.442302 -0.896866 0
    outer loop
       vertex -0.295482 -0.23097 0
       vertex -0.295482 -0.23097 0.1
       vertex -0.324811 -0.216506 0.1
    endloop
  endfacet
  facet normal -0.442302 -0.896866 -0
    outer loop
       vertex -0.324811 -0.216506 0.1
       vertex -0.324811 -0.216506 0
       vertex -0.295482 -0.23097 0
    endloop
  endfacet
  facet normal -0.555561 -0.831476 0
    outer loop
       vertex -0.324811 -0.216506 0
       vertex -0.324811 -0.216506 0.1
       vertex -0.352002 -0.198338 0.1
    endloop
  endfacet
  facet normal -0.555561 -0.831476 -0
    outer loop
       vertex -0.352002 -0.198338 0.1
       vertex -0.352002 -0.198338 0
       vertex -0.324811 -0.216506 0
    endloop
  endfacet
  facet normal -0.659372 -0.751817 0
    outer loop
       vertex -0.352002 -0.198338 0
       vertex -0.352002 -0.198338 0.1
       vertex -0.376587 -0.176776 0.1
    endloop
  endfacet
  facet normal -0.659372 -0.751817 -0
    outer loop
       vertex -0.376587 -0.176776 0.1
       vertex -0.376587 -0.176776 0
       vertex -0.352002 -0.198338 0
    endloop
  endfacet
endsolid cylinder
