solid cylinder
  facet normal 0.751817 -0.659372 0
    outer loop
       vertex 0.3249 -0.176776 0
       vertex 0.346462 -0.152191 0
       vertex 0.346462 -0.152191 0.1
    endloop
  endfacet
  facet normal 0.751817 -0.659372 0
    outer loop
       vertex 0.346462 -0.152191 0.1
       vertex 0.3249 -0.176776 0.1
       vertex 0.3249 -0.176776 0
    endloop
  endfacet
  facet normal 0.831476 -0.555561 0
    outer loop
       vertex 0.346462 -0.152191 0
       vertex 0.36463 -0.125 0
       vertex 0.36463 -0.125 0.1
    endloop
  endfacet
  facet normal 0.831476 -0.555561 0
    outer loop
       vertex 0.36463 -0.125 0.1
       vertex 0.346462 -0.152191 0.1
       vertex 0.346462 -0.152191 0
    endloop
  endfacet
  facet normal 0.896866 -0.442302 0
    outer loop
       vertex 0.36463 -0.125 0
       vertex 0.379094 -0.095671 0
       vertex 0.379094 -0.095671 0.1
    endloop
  endfacet
  facet normal 0.896866 -0.442302 0
    outer loop
       vertex 0.379094 -0.095671 0.1
       vertex 0.36463 -0.125 0.1
       vertex 0.36463 -0.125 0
    endloop
  endfacet
  facet normal 0.946935 -0.321425 0
    outer loop
       vertex 0.379094 -0.095671 0
       vertex 0.389605 -0.064705 0
       vertex 0.389605 -0.064705 0.1
    endloop
  endfacet
  facet normal 0.946935 -0.321425 0
    outer loop
       vertex 0.389605 -0.064705 0.1
       vertex 0.379094 -0.095671 0.1
       vertex 0.379094 -0.095671 0
    endloop
  endfacet
  facet normal 0.980784 -0.195096 0
    outer loop
       vertex 0.389605 -0.064705 0
       vertex 0.395985 -0.0326315 0
       vertex 0.395985 -0.0326315 0.1
    endloop
  endfacet
  facet normal 0.980784 -0.195096 0
    outer loop
       vertex 0.395985 -0.0326315 0.1
       vertex 0.389605 -0.064705 0.1
       vertex 0.389605 -0.064705 0
    endloop
  endfacet
  facet normal 0.997858 -0.0654098 0
    outer loop
       vertex 0.398124 -8.32665e-17 0.1
       vertex 0.395985 -0.0326315 0.1
       vertex 0.395985 -0.0326315 0
    endloop
  endfacet
  facet normal 0.997858 -0.0654098 -1.08928e-16
    outer loop
       vertex 0.395985 -0.0326315 0
       vertex 0.398124 8.32665e-17 0
       vertex 0.398124 -8.32665e-17 0.1
    endloop
  endfacet
  facet normal 0.997858 0.0654098 0
    outer loop
       vertex 0.398124 8.32665e-17 0
       vertex 0.395985 0.0326315 0
       vertex 0.395985 0.0326315 0.1
    endloop
  endfacet
  facet normal 0.997858 0.0654098 1.08928e-16
    outer loop
       vertex 0.395985 0.0326315 0.1
       vertex 0.398124 -8.32665e-17 0.1
       vertex 0.398124 8.32665e-17 0
    endloop
  endfacet
  facet normal 0.980784 0.195096 0
    outer loop
       vertex 0.395985 0.0326315 0
       vertex 0.389605 0.064705 0
       vertex 0.389605 0.064705 0.1
    endloop
  endfacet
  facet normal 0.980784 0.195096 0
    outer loop
       vertex 0.389605 0.064705 0.1
       vertex 0.395985 0.0326315 0.1
       vertex 0.395985 0.0326315 0
    endloop
  endfacet
  facet normal 0.946935 0.321425 0
    outer loop
       vertex 0.389605 0.064705 0
       vertex 0.379094 0.095671 0
       vertex 0.379094 0.095671 0.1
    endloop
  endfacet
  facet normal 0.946935 0.321425 0
    outer loop
       vertex 0.379094 0.095671 0.1
       vertex 0.389605 0.064705 0.1
       vertex 0.389605 0.064705 0
    endloop
  endfacet
  facet normal 0.896866 0.442302 0
    outer loop
       vertex 0.379094 0.095671 0
       vertex 0.36463 0.125 0
       vertex 0.36463 0.125 0.1
    endloop
  endfacet
  facet normal 0.896866 0.442302 0
    outer loop
       vertex 0.36463 0.125 0.1
       vertex 0.379094 0.095671 0.1
       vertex 0.379094 0.095671 0
    endloop
  endfacet
  facet normal 0.831476 0.555561 0
    outer loop
       vertex 0.36463 0.125 0
       vertex 0.346462 0.152191 0
       vertex 0.346462 0.152191 0.1
    endloop
  endfacet
  facet normal 0.831476 0.555561 0
    outer loop
       vertex 0.346462 0.152191 0.1
       vertex 0.36463 0.125 0.1
       vertex 0.36463 0.125 0
    endloop
  endfacet
  facet normal 0.751817 0.659372 0
    outer loop
       vertex 0.346462 0.152191 0
       vertex 0.3249 0.176776 0
       vertex 0.3249 0.176776 0.1
    endloop
  endfacet
  facet normal 0.751817 0.659372 0
    outer loop
       vertex 0.3249 0.176776 0.1
       vertex 0.346462 0.152191 0.1
       vertex 0.346462 0.152191 0
    endloop
  endfacet
  facet normal 0.659372 0.751817 0
    outer loop
       vertex 0.3249 0.176776 0
       vertex 0.300315 0.198338 0
       vertex 0.300315 0.198338 0.1
    endloop
  endfacet
  facet normal 0.659372 0.751817 0
    outer loop
       vertex 0.300315 0.198338 0.1
       vertex 0.3249 0.176776 0.1
       vertex 0.3249 0.176776 0
    endloop
  endfacet
  facet normal 0.555561 0.831476 0
    outer loop
       vertex 0.300315 0.198338 0
       vertex 0.273124 0.216506 0
       vertex 0.273124 0.216506 0.1
    endloop
  endfacet
  facet normal 0.555561 0.831476 0
    outer loop
       vertex 0.273124 0.216506 0.1
       vertex 0.300315 0.198338 0.1
       vertex 0.300315 0.198338 0
    endloop
  endfacet
  facet normal 0.442302 0.896866 0
    outer loop
       vertex 0.273124 0.216506 0
       vertex 0.243795 0.23097 0
       vertex 0.243795 0.23097 0.1
    endloop
  endfacet
  facet normal 0.442302 0.896866 0
    outer loop
       vertex 0.243795 0.23097 0.1
       vertex 0.273124 0.216506 0.1
       vertex 0.273124 0.216506 0
    endloop
  endfacet
  facet normal 0.321425 0.946935 0
    outer loop
       vertex 0.243795 0.23097 0
       vertex 0.212829 0.241481 0
       vertex 0.212829 0.241481 0.1
    endloop
  endfacet
  facet normal 0.321425 0.946935 0
    outer loop
       vertex 0.212829 0.241481 0.1
       vertex 0.243795 0.23097 0.1
       vertex 0.243795 0.23097 0
    endloop
  endfacet
  facet normal 0.195096 0.980784 0
    outer loop
       vertex 0.212829 0.241481 0
       vertex 0.180755 0.247861 0
       vertex 0.180755 0.247861 0.1
    endloop
  endfacet
  facet normal 0.195096 0.980784 0
    outer loop
       vertex 0.180755 0.247861 0.1
       vertex 0.212829 0.241481 0.1
       vertex 0.212829 0.241481 0
    endloop
  endfacet
  facet normal 0.0654098 0.997858 0
    outer loop
       vertex 0.148124 0.25 0.1
       vertex 0.180755 0.247861 0.1
       vertex 0.180755 0.247861 0
    endloop
  endfacet
  facet normal 0.0654098 0.997858 -1.0893e-16
    outer loop
       vertex 0.180755 0.247861 0
       vertex 0.148124 0.25 0
       vertex 0.148124 0.25 0.1
    endloop
  endfacet
  facet normal -0.0654098 0.997858 0
    outer loop
       vertex 0.148124 0.25 0
       vertex 0.115492 0.247861 0
       vertex 0.115492 0.247861 0.1
    endloop
  endfacet
  facet normal -0.0654098 0.997858 1.0893e-16
    outer loop
       vertex 0.115492 0.247861 0.1
       vertex 0.148124 0.25 0.1
       vertex 0.148124 0.25 0
    endloop
  endfacet
  facet normal -0.195096 0.980784 0
    outer loop
       vertex 0.115492 0.247861 0
       vertex 0.0834185 0.241481 0
       vertex 0.0834185 0.241481 0.1
    endloop
  endfacet
  facet normal -0.195096 0.980784 0
    outer loop
       vertex 0.0834185 0.241481 0.1
       vertex 0.115492 0.247861 0.1
       vertex 0.115492 0.247861 0
    endloop
  endfacet
  facet normal -0.321425 0.946935 0
    outer loop
       vertex 0.0834185 0.241481 0
       vertex 0.0524525 0.23097 0
       vertex 0.0524525 0.23097 0.1
    endloop
  endfacet
  facet normal -0.321425 0.946935 0
    outer loop
       vertex 0.0524525 0.23097 0.1
       vertex 0.0834185 0.241481 0.1
       vertex 0.0834185 0.241481 0
    endloop
  endfacet
  facet normal -0.442302 0.896866 0
    outer loop
       vertex 0.0524525 0.23097 0
       vertex 0.0231235 0.216506 0
       vertex 0.0231235 0.216506 0.1
    endloop
  endfacet
  facet normal -0.442302 0.896866 0
    outer loop
       vertex 0.0231235 0.216506 0.1
       vertex 0.0524525 0.23097 0.1
       vertex 0.0524525 0.23097 0
    endloop
  endfacet
  facet normal -0.555561 0.831476 0
    outer loop
       vertex 0.0231235 0.216506 0
       vertex -0.00406749 0.198338 0
       vertex -0.00406749 0.198338 0.1
    endloop
  endfacet
  facet normal -0.555561 0.831476 0
    outer loop
       vertex -0.00406749 0.198338 0.1
       vertex 0.0231235 0.216506 0.1
       vertex 0.0231235 0.216506 0
    endloop
  endfacet
  facet normal -0.659372 0.751817 0
    outer loop
       vertex -0.00406749 0.198338 0
       vertex -0.0286525 0.176776 0
       vertex -0.0286525 0.176776 0.1
    endloop
  endfacet
  facet normal -0.659372 0.751817 0
    outer loop
       vertex -0.0286525 0.176776 0.1
       vertex -0.00406749 0.198338 0.1
       vertex -0.00406749 0.198338 0
    endloop
  endfacet
  facet normal -0.751817 0.659372 0
    outer loop
       vertex -0.0286525 0.176776 0
       vertex -0.0502145 0.152191 0
       vertex -0.0502145 0.152191 0.1
    endloop
  endfacet
  facet normal -0.751817 0.659372 0
    outer loop
       vertex -0.0502145 0.152191 0.1
       vertex -0.0286525 0.176776 0.1
       vertex -0.0286525 0.176776 0
    endloop
  endfacet
  facet normal -0.831476 0.555561 0
    outer loop
       vertex -0.0502145 0.152191 0
       vertex -0.0683825 0.125 0
       vertex -0.0683825 0.125 0.1
    endloop
  endfacet
  facet normal -0.831476 0.555561 0
    outer loop
       vertex -0.0683825 0.125 0.1
       vertex -0.0502145 0.152191 0.1
       vertex -0.0502145 0.152191 0
    endloop
  endfacet
  facet normal -0.896866 0.442302 0
    outer loop
       vertex -0.0683825 0.125 0
       vertex -0.0828465 0.095671 0
       vertex -0.0828465 0.095671 0.1
    endloop
  endfacet
  facet normal -0.896866 0.442302 0
    outer loop
       vertex -0.0828465 0.095671 0.1
       vertex -0.0683825 0.125 0.1
       vertex -0.0683825 0.125 0
    endloop
  endfacet
  facet normal -0.946935 0.321425 0
    outer loop
       vertex -0.0828465 0.095671 0
       vertex -0.0933575 0.064705 0
       vertex -0.0933575 0.064705 0.1
    endloop
  endfacet
  facet normal -0.946935 0.321425 0
    outer loop
       vertex -0.0933575 0.064705 0.1
       vertex -0.0828465 0.095671 0.1
       vertex -0.0828465 0.095671 0
    endloop
  endfacet
  facet normal -0.980784 0.195096 0
    outer loop
       vertex -0.0933575 0.064705 0
       vertex -0.0997375 0.0326315 0
       vertex -0.0997375 0.0326315 0.1
    endloop
  endfacet
  facet normal -0.980784 0.195096 0
    outer loop
       vertex -0.0997375 0.0326315 0.1
       vertex -0.0933575 0.064705 0.1
       vertex -0.0933575 0.064705 0
    endloop
  endfacet
  facet normal -0.997858 0.0654098 0
    outer loop
       vertex -0.101876 8.32665e-17 0.1
       vertex -0.0997375 0.0326315 0.1
       vertex -0.0997375 0.0326315 0
    endloop
  endfacet
  facet normal -0.997858 0.0654098 -1.08928e-16
    outer loop
       vertex -0.0997375 0.0326315 0
       vertex -0.101876 -8.32665e-17 0
       vertex -0.101876 8.32665e-17 0.1
    endloop
  endfacet
  facet normal -0.997858 -0.0654098 0
    outer loop
       vertex -0.101876 -8.32665e-17 0
       vertex -0.0997375 -0.0326315 0
       vertex -0.0997375 -0.0326315 0.1
    endloop
  endfacet
  facet normal -0.997858 -0.0654098 1.08928e-16
    outer loop
       vertex -0.0997375 -0.0326315 0.1
       vertex -0.101876 8.32665e-17 0.1
       vertex -0.101876 -8.32665e-17 0
    endloop
  endfacet
  facet normal -0.980784 -0.195096 0
    outer loop
       vertex -0.0997375 -0.0326315 0
       vertex -0.0933575 -0.064705 0
       vertex -0.0933575 -0.064705 0.1
    endloop
  endfacet
  facet normal -0.980784 -0.195096 0
    outer loop
       vertex -0.0933575 -0.064705 0.1
       vertex -0.0997375 -0.0326315 0.1
       vertex -0.0997375 -0.0326315 0
    endloop
  endfacet
  facet normal -0.946935 -0.321425 0
    outer loop
       vertex -0.0933575 -0.064705 0
       vertex -0.0828465 -0.095671 0
       vertex -0.0828465 -0.095671 0.1
    endloop
  endfacet
  facet normal -0.946935 -0.321425 0
    outer loop
       vertex -0.0828465 -0.095671 0.1
       vertex -0.0933575 -0.064705 0.1
       vertex -0.0933575 -0.064705 0
    endloop
  endfacet
  facet normal -0.896866 -0.442302 0
    outer loop
       vertex -0.0828465 -0.095671 0
       vertex -0.0683825 -0.125 0
       vertex -0.0683825 -0.125 0.1
    endloop
  endfacet
  facet normal -0.896866 -0.442302 0
    outer loop
       vertex -0.0683825 -0.125 0.1
       vertex -0.0828465 -0.095671 0.1
       vertex -0.0828465 -0.095671 0
    endloop
  endfacet
  facet normal -0.831476 -0.555561 0
    outer loop
       vertex -0.0683825 -0.125 0
       vertex -0.0502145 -0.152191 0
       vertex -0.0502145 -0.152191 0.1
    endloop
  endfacet
  facet normal -0.831476 -0.555561 0
    outer loop
       vertex -0.0502145 -0.152191 0.1
       vertex -0.0683825 -0.125 0.1
       vertex -0.0683825 -0.125 0
    endloop
  endfacet
  facet normal -0.751817 -0.659372 0
    outer loop
       vertex -0.0502145 -0.152191 0
       vertex -0.0286525 -0.176776 0
       vertex -0.0286525 -0.176776 0.1
    endloop
  endfacet
  facet normal -0.751817 -0.659372 0
    outer loop
       vertex -0.0286525 -0.176776 0.1
       vertex -0.0502145 -0.152191 0.1
       vertex -0.0502145 -0.152191 0
    endloop
  endfacet
  facet normal 0.659372 -0.751817 0
    outer loop
       vertex 0.3249 -0.176776 0
       vertex 0.3249 -0.176776 0.1
       vertex 0.300315 -0.198338 0.1
    endloop
  endfacet
  facet normal 0.659372 -0.751817 0
    outer loop
       vertex 0.300315 -0.198338 0.1
       vertex 0.300315 -0.198338 0
       vertex 0.3249 -0.176776 0
    endloop
  endfacet
  facet normal 0.555561 -0.831476 0
    outer loop
       vertex 0.300315 -0.198338 0
       vertex 0.300315 -0.198338 0.1
       vertex 0.273124 -0.216506 0.1
    endloop
  endfacet
  facet normal 0.555561 -0.831476 0
    outer loop
       vertex 0.273124 -0.216506 0.1
       vertex 0.273124 -0.216506 0
       vertex 0.300315 -0.198338 0
    endloop
  endfacet
  facet normal 0.442302 -0.896866 0
    outer loop
       vertex 0.273124 -0.216506 0
       vertex 0.273124 -0.216506 0.1
       vertex 0.243795 -0.23097 0.1
    endloop
  endfacet
  facet normal 0.442302 -0.896866 0
    outer loop
       vertex 0.243795 -0.23097 0.1
       vertex 0.243795 -0.23097 0
       vertex 0.273124 -0.216506 0
    endloop
  endfacet
  facet normal 0.321425 -0.946935 0
    outer loop
       vertex 0.243795 -0.23097 0
       vertex 0.243795 -0.23097 0.1
       vertex 0.212829 -0.241481 0.1
    endloop
  endfacet
  facet normal 0.321425 -0.946935 0
    outer loop
       vertex 0.212829 -0.241481 0.1
       vertex 0.212829 -0.241481 0
       vertex 0.243795 -0.23097 0
    endloop
  endfacet
  facet normal 0.195096 -0.980784 0
    outer loop
       vertex 0.212829 -0.241481 0
       vertex 0.212829 -0.241481 0.1
       vertex 0.180755 -0.247861 0.1
    endloop
  endfacet
  facet normal 0.195096 -0.980784 0
    outer loop
       vertex 0.180755 -0.247861 0.1
       vertex 0.180755 -0.247861 0
       vertex 0.212829 -0.241481 0
    endloop
  endfacet
  facet normal 0.0654098 -0.997858 0
    outer loop
       vertex 0.148124 -0.25 0
       vertex 0.180755 -0.247861 0
       vertex 0.180755 -0.247861 0.1
    endloop
  endfacet
  facet normal 0.0654098 -0.997858 1.0893e-16
    outer loop
       vertex 0.180755 -0.247861 0.1
       vertex 0.148124 -0.25 0.1
       vertex 0.148124 -0.25 0
    endloop
  endfacet
  facet normal -0.0654098 -0.997858 0
    outer loop
       vertex 0.148124 -0.25 0.1
       vertex 0.115492 -0.247861 0.1
       vertex 0.115492 -0.247861 0
    endloop
  endfacet
  facet normal -0.0654098 -0.997858 -1.0893e-16
    outer loop
       vertex 0.115492 -0.247861 0
       vertex 0.148124 -0.25 0
       vertex 0.148124 -0.25 0.1
    endloop
  endfacet
  facet normal -0.195096 -0.980784 0
    outer loop
       vertex 0.115492 -0.247861 0
       vertex 0.115492 -0.247861 0.1
       vertex 0.0834185 -0.241481 0.1
    endloop
  endfacet
  facet normal -0.195096 -0.980784 -0
    outer loop
       vertex 0.0834185 -0.241481 0.1
       vertex 0.0834185 -0.241481 0
       vertex 0.115492 -0.247861 0
    endloop
  endfacet
  facet normal -0.321425 -0.946935 0
    outer loop
       vertex 0.0834185 -0.241481 0
       vertex 0.0834185 -0.241481 0.1
       vertex 0.0524525 -0.23097 0.1
    endloop
  endfacet
  facet normal -0.321425 -0.946935 -0
    outer loop
       vertex 0.0524525 -0.23097 0.1
       vertex 0.0524525 -0.23097 0
       vertex 0.0834185 -0.241481 0
    endloop
  endfacet
  facet normal -0.442302 -0.896866 0
    outer loop
       vertex 0.0524525 -0.23097 0
       vertex 0.0524525 -0.23097 0.1
       vertex 0.0231235 -0.216506 0.1
    endloop
  endfacet
  facet normal -0.442302 -0.896866 -0
    outer loop
       vertex 0.0231235 -0.216506 0.1
       vertex 0.0231235 -0.216506 0
       vertex 0.0524525 -0.23097 0
    endloop
  endfacet
  facet normal -0.555561 -0.831476 0
    outer loop
       vertex 0.0231235 -0.216506 0
       vertex 0.0231235 -0.216506 0.1
       vertex -0.00406749 -0.198338 0.1
    endloop
  endfacet
  facet normal -0.555561 -0.831476 -0
    outer loop
       vertex -0.00406749 -0.198338 0.1
       vertex -0.00406749 -0.198338 0
       vertex 0.0231235 -0.216506 0
    endloop
  endfacet
  facet normal -0.659372 -0.751817 0
    outer loop
       vertex -0.00406749 -0.198338 0
       vertex -0.00406749 -0.198338 0.1
       vertex -0.0286525 -0.176776 0.1
    endloop
  endfacet
  facet normal -0.659372 -0.751817 -0
    outer loop
       vertex -0.0286525 -0.176776 0.1
       vertex -0.0286525 -0.176776 0
       vertex -0.00406749 -0.198338 0
    endloop
  endfacet
endsolid cylinder
