solid cylinder
  facet normal 0.751817 -0.659372 0
    outer loop
       vertex 0.461319 -0.176776 0
       vertex 0.482881 -0.152191 0
       vertex 0.482881 -0.152191 0.1
    endloop
  endfacet
  facet normal 0.751817 -0.659372 0
    outer loop
       vertex 0.482881 -0.152191 0.1
       vertex 0.461319 -0.176776 0.1
       vertex 0.461319 -0.176776 0
    endloop
  endfacet
  facet normal 0.831476 -0.555561 0
    outer loop
       vertex 0.482881 -0.152191 0
       vertex 0.501049 -0.125 0
       vertex 0.501049 -0.125 0.1
    endloop
  endfacet
  facet normal 0.831476 -0.555561 0
    outer loop
       vertex 0.501049 -0.125 0.1
       vertex 0.482881 -0.152191 0.1
       vertex 0.482881 -0.152191 0
    endloop
  endfacet
  facet normal 0.896866 -0.442302 0
    outer loop
       vertex 0.501049 -0.125 0
       vertex 0.515513 -0.095671 0
       vertex 0.515513 -0.095671 0.1
    endloop
  endfacet
  facet normal 0.896866 -0.442302 0
    outer loop
       vertex 0.515513 -0.095671 0.1
       vertex 0.501049 -0.125 0.1
       vertex 0.501049 -0.125 0
    endloop
  endfacet
  facet normal 0.946935 -0.321425 0
    outer loop
       vertex 0.515513 -0.095671 0
       vertex 0.526024 -0.064705 0
       vertex 0.526024 -0.064705 0.1
    endloop
  endfacet
  facet normal 0.946935 -0.321425 0
    outer loop
       vertex 0.526024 -0.064705 0.1
       vertex 0.515513 -0.095671 0.1
       vertex 0.515513 -0.095671 0
    endloop
  endfacet
  facet normal 0.980784 -0.195096 0
    outer loop
       vertex 0.526024 -0.064705 0
       vertex 0.532404 -0.0326315 0
       vertex 0.532404 -0.0326315 0.1
    endloop
  endfacet
  facet normal 0.980784 -0.195096 0
    outer loop
       vertex 0.532404 -0.0326315 0.1
       vertex 0.526024 -0.064705 0.1
       vertex 0.526024 -0.064705 0
    endloop
  endfacet
  facet normal 0.997858 -0.0654098 0
    outer loop
       vertex 0.534543 -8.32665e-17 0.1
       vertex 0.532404 -0.0326315 0.1
       vertex 0.532404 -0.0326315 0
    endloop
  endfacet
  facet normal 0.997858 -0.0654098 -1.0893e-16
    outer loop
       vertex 0.532404 -0.0326315 0
       vertex 0.534543 8.32665e-17 0
       vertex 0.534543 -8.32665e-17 0.1
    endloop
  endfacet
  facet normal 0.997858 0.0654098 0
    outer loop
       vertex 0.534543 8.32665e-17 0
       vertex 0.532404 0.0326315 0
       vertex 0.532404 0.0326315 0.1
    endloop
  endfacet
  facet normal 0.997858 0.0654098 1.0893e-16
    outer loop
       vertex 0.532404 0.0326315 0.1
       vertex 0.534543 -8.32665e-17 0.1
       vertex 0.534543 8.32665e-17 0
    endloop
  endfacet
  facet normal 0.980784 0.195096 0
    outer loop
       vertex 0.532404 0.0326315 0
       vertex 0.526024 0.064705 0
       vertex 0.526024 0.064705 0.1
    endloop
  endfacet
  facet normal 0.980784 0.195096 0
    outer loop
       vertex 0.526024 0.064705 0.1
       vertex 0.532404 0.0326315 0.1
       vertex 0.532404 0.0326315 0
    endloop
  endfacet
  facet normal 0.946935 0.321425 0
    outer loop
       vertex 0.526024 0.064705 0
       vertex 0.515513 0.095671 0
       vertex 0.515513 0.095671 0.1
    endloop
  endfacet
  facet normal 0.946935 0.321425 0
    outer loop
       vertex 0.515513 0.095671 0.1
       vertex 0.526024 0.064705 0.1
       vertex 0.526024 0.064705 0
    endloop
  endfacet
  facet normal 0.896866 0.442302 0
    outer loop
       vertex 0.515513 0.095671 0
       vertex 0.501049 0.125 0
       vertex 0.501049 0.125 0.1
    endloop
  endfacet
  facet normal 0.896866 0.442302 0
    outer loop
       vertex 0.501049 0.125 0.1
       vertex 0.515513 0.095671 0.1
       vertex 0.515513 0.095671 0
    endloop
  endfacet
  facet normal 0.831476 0.555561 0
    outer loop
       vertex 0.501049 0.125 0
       vertex 0.482881 0.152191 0
       vertex 0.482881 0.152191 0.1
    endloop
  endfacet
  facet normal 0.831476 0.555561 0
    outer loop
       vertex 0.482881 0.152191 0.1
       vertex 0.501049 0.125 0.1
       vertex 0.501049 0.125 0
    endloop
  endfacet
  facet normal 0.751817 0.659372 0
    outer loop
       vertex 0.482881 0.152191 0
       vertex 0.461319 0.176776 0
       vertex 0.461319 0.176776 0.1
    endloop
  endfacet
  facet normal 0.751817 0.659372 0
    outer loop
       vertex 0.461319 0.176776 0.1
       vertex 0.482881 0.152191 0.1
       vertex 0.482881 0.152191 0
    endloop
  endfacet
  facet normal 0.659372 0.751817 0
    outer loop
       vertex 0.461319 0.176776 0
       vertex 0.436734 0.198338 0
       vertex 0.436734 0.198338 0.1
    endloop
  endfacet
  facet normal 0.659372 0.751817 0
    outer loop
       vertex 0.436734 0.198338 0.1
       vertex 0.461319 0.176776 0.1
       vertex 0.461319 0.176776 0
    endloop
  endfacet
  facet normal 0.555561 0.831476 0
    outer loop
       vertex 0.436734 0.198338 0
       vertex 0.409543 0.216506 0
       vertex 0.409543 0.216506 0.1
    endloop
  endfacet
  facet normal 0.555561 0.831476 0
    outer loop
       vertex 0.409543 0.216506 0.1
       vertex 0.436734 0.198338 0.1
       vertex 0.436734 0.198338 0
    endloop
  endfacet
  facet normal 0.442302 0.896866 0
    outer loop
       vertex 0.409543 0.216506 0
       vertex 0.380214 0.23097 0
       vertex 0.380214 0.23097 0.1
    endloop
  endfacet
  facet normal 0.442302 0.896866 0
    outer loop
       vertex 0.380214 0.23097 0.1
       vertex 0.409543 0.216506 0.1
       vertex 0.409543 0.216506 0
    endloop
  endfacet
  facet normal 0.321425 0.946935 0
    outer loop
       vertex 0.380214 0.23097 0
       vertex 0.349248 0.241481 0
       vertex 0.349248 0.241481 0.1
    endloop
  endfacet
  facet normal 0.321425 0.946935 0
    outer loop
       vertex 0.349248 0.241481 0.1
       vertex 0.380214 0.23097 0.1
       vertex 0.380214 0.23097 0
    endloop
  endfacet
  facet normal 0.195096 0.980784 0
    outer loop
       vertex 0.349248 0.241481 0
       vertex 0.317175 0.247861 0
       vertex 0.317175 0.247861 0.1
    endloop
  endfacet
  facet normal 0.195096 0.980784 0
    outer loop
       vertex 0.317175 0.247861 0.1
       vertex 0.349248 0.241481 0.1
       vertex 0.349248 0.241481 0
    endloop
  endfacet
  facet normal 0.0654098 0.997858 0
    outer loop
       vertex 0.284543 0.25 0.1
       vertex 0.317175 0.247861 0.1
       vertex 0.317175 0.247861 0
    endloop
  endfacet
  facet normal 0.0654098 0.997858 -7.26205e-17
    outer loop
       vertex 0.317175 0.247861 0
       vertex 0.284543 0.25 0
       vertex 0.284543 0.25 0.1
    endloop
  endfacet
  facet normal -0.0654098 0.997858 0
    outer loop
       vertex 0.284543 0.25 0
       vertex 0.251912 0.247861 0
       vertex 0.251912 0.247861 0.1
    endloop
  endfacet
  facet normal -0.0654098 0.997858 7.26205e-17
    outer loop
       vertex 0.251912 0.247861 0.1
       vertex 0.284543 0.25 0.1
       vertex 0.284543 0.25 0
    endloop
  endfacet
  facet normal -0.195096 0.980784 0
    outer loop
       vertex 0.251912 0.247861 0
       vertex 0.219838 0.241481 0
       vertex 0.219838 0.241481 0.1
    endloop
  endfacet
  facet normal -0.195096 0.980784 0
    outer loop
       vertex 0.219838 0.241481 0.1
       vertex 0.251912 0.247861 0.1
       vertex 0.251912 0.247861 0
    endloop
  endfacet
  facet normal -0.321425 0.946935 0
    outer loop
       vertex 0.219838 0.241481 0
       vertex 0.188872 0.23097 0
       vertex 0.188872 0.23097 0.1
    endloop
  endfacet
  facet normal -0.321425 0.946935 0
    outer loop
       vertex 0.188872 0.23097 0.1
       vertex 0.219838 0.241481 0.1
       vertex 0.219838 0.241481 0
    endloop
  endfacet
  facet normal -0.442302 0.896866 0
    outer loop
       vertex 0.188872 0.23097 0
       vertex 0.159543 0.216506 0
       vertex 0.159543 0.216506 0.1
    endloop
  endfacet
  facet normal -0.442302 0.896866 0
    outer loop
       vertex 0.159543 0.216506 0.1
       vertex 0.188872 0.23097 0.1
       vertex 0.188872 0.23097 0
    endloop
  endfacet
  facet normal -0.555561 0.831476 0
    outer loop
       vertex 0.159543 0.216506 0
       vertex 0.132352 0.198338 0
       vertex 0.132352 0.198338 0.1
    endloop
  endfacet
  facet normal -0.555561 0.831476 0
    outer loop
       vertex 0.132352 0.198338 0.1
       vertex 0.159543 0.216506 0.1
       vertex 0.159543 0.216506 0
    endloop
  endfacet
  facet normal -0.659372 0.751817 0
    outer loop
       vertex 0.132352 0.198338 0
       vertex 0.107767 0.176776 0
       vertex 0.107767 0.176776 0.1
    endloop
  endfacet
  facet normal -0.659372 0.751817 0
    outer loop
       vertex 0.107767 0.176776 0.1
       vertex 0.132352 0.198338 0.1
       vertex 0.132352 0.198338 0
    endloop
  endfacet
  facet normal -0.751817 0.659372 0
    outer loop
       vertex 0.107767 0.176776 0
       vertex 0.0862054 0.152191 0
       vertex 0.0862054 0.152191 0.1
    endloop
  endfacet
  facet normal -0.751817 0.659372 0
    outer loop
       vertex 0.0862054 0.152191 0.1
       vertex 0.107767 0.176776 0.1
       vertex 0.107767 0.176776 0
    endloop
  endfacet
  facet normal -0.831476 0.555561 0
    outer loop
       vertex 0.0862054 0.152191 0
       vertex 0.0680374 0.125 0
       vertex 0.0680374 0.125 0.1
    endloop
  endfacet
  facet normal -0.831476 0.555561 0
    outer loop
       vertex 0.0680374 0.125 0.1
       vertex 0.0862054 0.152191 0.1
       vertex 0.0862054 0.152191 0
    endloop
  endfacet
  facet normal -0.896866 0.442302 0
    outer loop
       vertex 0.0680374 0.125 0
       vertex 0.0535734 0.095671 0
       vertex 0.0535734 0.095671 0.1
    endloop
  endfacet
  facet normal -0.896866 0.442302 0
    outer loop
       vertex 0.0535734 0.095671 0.1
       vertex 0.0680374 0.125 0.1
       vertex 0.0680374 0.125 0
    endloop
  endfacet
  facet normal -0.946935 0.321425 0
    outer loop
       vertex 0.0535734 0.095671 0
       vertex 0.0430624 0.064705 0
       vertex 0.0430624 0.064705 0.1
    endloop
  endfacet
  facet normal -0.946935 0.321425 0
    outer loop
       vertex 0.0430624 0.064705 0.1
       vertex 0.0535734 0.095671 0.1
       vertex 0.0535734 0.095671 0
    endloop
  endfacet
  facet normal -0.980784 0.195096 0
    outer loop
       vertex 0.0430624 0.064705 0
       vertex 0.0366824 0.0326315 0
       vertex 0.0366824 0.0326315 0.1
    endloop
  endfacet
  facet normal -0.980784 0.195096 0
    outer loop
       vertex 0.0366824 0.0326315 0.1
       vertex 0.0430624 0.064705 0.1
       vertex 0.0430624 0.064705 0
    endloop
  endfacet
  facet normal -0.997858 0.0654098 0
    outer loop
       vertex 0.0345434 8.32665e-17 0.1
       vertex 0.0366824 0.0326315 0.1
       vertex 0.0366824 0.0326315 0
    endloop
  endfacet
  facet normal -0.997858 0.0654098 -1.08928e-16
    outer loop
       vertex 0.0366824 0.0326315 0
       vertex 0.0345434 -8.32665e-17 0
       vertex 0.0345434 8.32665e-17 0.1
    endloop
  endfacet
  facet normal -0.997858 -0.0654098 0
    outer loop
       vertex 0.0345434 -8.32665e-17 0
       vertex 0.0366824 -0.0326315 0
       vertex 0.0366824 -0.0326315 0.1
    endloop
  endfacet
  facet normal -0.997858 -0.0654098 1.08928e-16
    outer loop
       vertex 0.0366824 -0.0326315 0.1
       vertex 0.0345434 8.32665e-17 0.1
       vertex 0.0345434 -8.32665e-17 0
    endloop
  endfacet
  facet normal -0.980784 -0.195096 0
    outer loop
       vertex 0.0366824 -0.0326315 0
       vertex 0.0430624 -0.064705 0
       vertex 0.0430624 -0.064705 0.1
    endloop
  endfacet
  facet normal -0.980784 -0.195096 0
    outer loop
       vertex 0.0430624 -0.064705 0.1
       vertex 0.0366824 -0.0326315 0.1
       vertex 0.0366824 -0.0326315 0
    endloop
  endfacet
  facet normal -0.946935 -0.321425 0
    outer loop
       vertex 0.0430624 -0.064705 0
       vertex 0.0535734 -0.095671 0
       vertex 0.0535734 -0.095671 0.1
    endloop
  endfacet
  facet normal -0.946935 -0.321425 0
    outer loop
       vertex 0.0535734 -0.095671 0.1
       vertex 0.0430624 -0.064705 0.1
       vertex 0.0430624 -0.064705 0
    endloop
  endfacet
  facet normal -0.896866 -0.442302 0
    outer loop
       vertex 0.0535734 -0.095671 0
       vertex 0.0680374 -0.125 0
       vertex 0.0680374 -0.125 0.1
    endloop
  endfacet
  facet normal -0.896866 -0.442302 0
    outer loop
       vertex 0.0680374 -0.125 0.1
       vertex 0.0535734 -0.095671 0.1
       vertex 0.0535734 -0.095671 0
    endloop
  endfacet
  facet normal -0.831476 -0.555561 0
    outer loop
       vertex 0.0680374 -0.125 0
       vertex 0.0862054 -0.152191 0
       vertex 0.0862054 -0.152191 0.1
    endloop
  endfacet
  facet normal -0.831476 -0.555561 0
    outer loop
       vertex 0.0862054 -0.152191 0.1
       vertex 0.0680374 -0.125 0.1
       vertex 0.0680374 -0.125 0
    endloop
  endfacet
  facet normal -0.751817 -0.659372 0
    outer loop
       vertex 0.0862054 -0.152191 0
       vertex 0.107767 -0.176776 0
       vertex 0.107767 -0.176776 0.1
    endloop
  endfacet
  facet normal -0.751817 -0.659372 0
    outer loop
       vertex 0.107767 -0.176776 0.1
       vertex 0.0862054 -0.152191 0.1
       vertex 0.0862054 -0.152191 0
    endloop
  endfacet
  facet normal 0.659372 -0.751817 0
    outer loop
       vertex 0.461319 -0.176776 0
       vertex 0.461319 -0.176776 0.1
       vertex 0.436734 -0.198338 0.1
    endloop
  endfacet
  facet normal 0.659372 -0.751817 0
    outer loop
       vertex 0.436734 -0.198338 0.1
       vertex 0.436734 -0.198338 0
       vertex 0.461319 -0.176776 0
    endloop
  endfacet
  facet normal 0.555561 -0.831476 0
    outer loop
       vertex 0.436734 -0.198338 0
       vertex 0.436734 -0.198338 0.1
       vertex 0.409543 -0.216506 0.1
    endloop
  endfacet
  facet normal 0.555561 -0.831476 0
    outer loop
       vertex 0.409543 -0.216506 0.1
       vertex 0.409543 -0.216506 0
       vertex 0.436734 -0.198338 0
    endloop
  endfacet
  facet normal 0.442302 -0.896866 0
    outer loop
       vertex 0.409543 -0.216506 0
       vertex 0.409543 -0.216506 0.1
       vertex 0.380214 -0.23097 0.1
    endloop
  endfacet
  facet normal 0.442302 -0.896866 0
    outer loop
       vertex 0.380214 -0.23097 0.1
       vertex 0.380214 -0.23097 0
       vertex 0.409543 -0.216506 0
    endloop
  endfacet
  facet normal 0.321425 -0.946935 0
    outer loop
       vertex 0.380214 -0.23097 0
       vertex 0.380214 -0.23097 0.1
       vertex 0.349248 -0.241481 0.1
    endloop
  endfacet
  facet normal 0.321425 -0.946935 0
    outer loop
       vertex 0.349248 -0.241481 0.1
       vertex 0.349248 -0.241481 0
       vertex 0.380214 -0.23097 0
    endloop
  endfacet
  facet normal 0.195096 -0.980784 0
    outer loop
       vertex 0.349248 -0.241481 0
       vertex 0.349248 -0.241481 0.1
       vertex 0.317175 -0.247861 0.1
    endloop
  endfacet
  facet normal 0.195096 -0.980784 0
    outer loop
       vertex 0.317175 -0.247861 0.1
       vertex 0.317175 -0.247861 0
       vertex 0.349248 -0.241481 0
    endloop
  endfacet
  facet normal 0.0654098 -0.997858 0
    outer loop
       vertex 0.284543 -0.25 0
       vertex 0.317175 -0.247861 0
       vertex 0.317175 -0.247861 0.1
    endloop
  endfacet
  facet normal 0.0654098 -0.997858 7.26205e-17
    outer loop
       vertex 0.317175 -0.247861 0.1
       vertex 0.284543 -0.25 0.1
       vertex 0.284543 -0.25 0
    endloop
  endfacet
  facet normal -0.0654098 -0.997858 0
    outer loop
       vertex 0.284543 -0.25 0.1
       vertex 0.251912 -0.247861 0.1
       vertex 0.251912 -0.247861 0
    endloop
  endfacet
  facet normal -0.0654098 -0.997858 -7.26205e-17
    outer loop
       vertex 0.251912 -0.247861 0
       vertex 0.284543 -0.25 0
       vertex 0.284543 -0.25 0.1
    endloop
  endfacet
  facet normal -0.195096 -0.980784 0
    outer loop
       vertex 0.251912 -0.247861 0
       vertex 0.251912 -0.247861 0.1
       vertex 0.219838 -0.241481 0.1
    endloop
  endfacet
  facet normal -0.195096 -0.980784 -0
    outer loop
       vertex 0.219838 -0.241481 0.1
       vertex 0.219838 -0.241481 0
       vertex 0.251912 -0.247861 0
    endloop
  endfacet
  facet normal -0.321425 -0.946935 0
    outer loop
       vertex 0.219838 -0.241481 0
       vertex 0.219838 -0.241481 0.1
       vertex 0.188872 -0.23097 0.1
    endloop
  endfacet
  facet normal -0.321425 -0.946935 -0
    outer loop
       vertex 0.188872 -0.23097 0.1
       vertex 0.188872 -0.23097 0
       vertex 0.219838 -0.241481 0
    endloop
  endfacet
  facet normal -0.442302 -0.896866 0
    outer loop
       vertex 0.188872 -0.23097 0
       vertex 0.188872 -0.23097 0.1
       vertex 0.159543 -0.216506 0.1
    endloop
  endfacet
  facet normal -0.442302 -0.896866 -0
    outer loop
       vertex 0.159543 -0.216506 0.1
       vertex 0.159543 -0.216506 0
       vertex 0.188872 -0.23097 0
    endloop
  endfacet
  facet normal -0.555561 -0.831476 0
    outer loop
       vertex 0.159543 -0.216506 0
       vertex 0.159543 -0.216506 0.1
       vertex 0.132352 -0.198338 0.1
    endloop
  endfacet
  facet normal -0.555561 -0.831476 -0
    outer loop
       vertex 0.132352 -0.198338 0.1
       vertex 0.132352 -0.198338 0
       vertex 0.159543 -0.216506 0
    endloop
  endfacet
  facet normal -0.659372 -0.751817 0
    outer loop
       vertex 0.132352 -0.198338 0
       vertex 0.132352 -0.198338 0.1
       vertex 0.107767 -0.176776 0.1
    endloop
  endfacet
  facet normal -0.659372 -0.751817 -0
    outer loop
       vertex 0.107767 -0.176776 0.1
       vertex 0.107767 -0.176776 0
       vertex 0.132352 -0.198338 0
    endloop
  endfacet
endsolid cylinder
