solid cylinder
  facet normal 0.751817 -0.659372 0
    outer loop
       vertex -0.105105 -0.176776 0
       vertex -0.0835434 -0.152191 0
       vertex -0.0835434 -0.152191 0.1
    endloop
  endfacet
  facet normal 0.751817 -0.659372 0
    outer loop
       vertex -0.0835434 -0.152191 0.1
       vertex -0.105105 -0.176776 0.1
       vertex -0.105105 -0.176776 0
    endloop
  endfacet
  facet normal 0.831476 -0.555561 0
    outer loop
       vertex -0.0835434 -0.152191 0
       vertex -0.0653754 -0.125 0
       vertex -0.0653754 -0.125 0.1
    endloop
  endfacet
  facet normal 0.831476 -0.555561 0
    outer loop
       vertex -0.0653754 -0.125 0.1
       vertex -0.0835434 -0.152191 0.1
       vertex -0.0835434 -0.152191 0
    endloop
  endfacet
  facet normal 0.896866 -0.442302 0
    outer loop
       vertex -0.0653754 -0.125 0
       vertex -0.0509114 -0.095671 0
       vertex -0.0509114 -0.095671 0.1
    endloop
  endfacet
  facet normal 0.896866 -0.442302 0
    outer loop
       vertex -0.0509114 -0.095671 0.1
       vertex -0.0653754 -0.125 0.1
       vertex -0.0653754 -0.125 0
    endloop
  endfacet
  facet normal 0.946935 -0.321425 0
    outer loop
       vertex -0.0509114 -0.095671 0
       vertex -0.0404004 -0.064705 0
       vertex -0.0404004 -0.064705 0.1
    endloop
  endfacet
  facet normal 0.946935 -0.321425 0
    outer loop
       vertex -0.0404004 -0.064705 0.1
       vertex -0.0509114 -0.095671 0.1
       vertex -0.0509114 -0.095671 0
    endloop
  endfacet
  facet normal 0.980784 -0.195096 0
    outer loop
       vertex -0.0404004 -0.064705 0
       vertex -0.0340204 -0.0326315 0
       vertex -0.0340204 -0.0326315 0.1
    endloop
  endfacet
  facet normal 0.980784 -0.195096 0
    outer loop
       vertex -0.0340204 -0.0326315 0.1
       vertex -0.0404004 -0.064705 0.1
       vertex -0.0404004 -0.064705 0
    endloop
  endfacet
  facet normal 0.997858 -0.0654098 0
    outer loop
       vertex -0.0318814 -8.32665e-17 0.1
       vertex -0.0340204 -0.0326315 0.1
       vertex -0.0340204 -0.0326315 0
    endloop
  endfacet
  facet normal 0.997858 -0.0654098 -1.08928e-16
    outer loop
       vertex -0.0340204 -0.0326315 0
       vertex -0.0318814 8.32665e-17 0
       vertex -0.0318814 -8.32665e-17 0.1
    endloop
  endfacet
  facet normal 0.997858 0.0654098 0
    outer loop
       vertex -0.0318814 8.32665e-17 0
       vertex -0.0340204 0.0326315 0
       vertex -0.0340204 0.0326315 0.1
    endloop
  endfacet
  facet normal 0.997858 0.0654098 1.08928e-16
    outer loop
       vertex -0.0340204 0.0326315 0.1
       vertex -0.0318814 -8.32665e-17 0.1
       vertex -0.0318814 8.32665e-17 0
    endloop
  endfacet
  facet normal 0.980784 0.195096 0
    outer loop
       vertex -0.0340204 0.0326315 0
       vertex -0.0404004 0.064705 0
       vertex -0.0404004 0.064705 0.1
    endloop
  endfacet
  facet normal 0.980784 0.195096 0
    outer loop
       vertex -0.0404004 0.064705 0.1
       vertex -0.0340204 0.0326315 0.1
       vertex -0.0340204 0.0326315 0
    endloop
  endfacet
  facet normal 0.946935 0.321425 0
    outer loop
       vertex -0.0404004 0.064705 0
       vertex -0.0509114 0.095671 0
       vertex -0.0509114 0.095671 0.1
    endloop
  endfacet
  facet normal 0.946935 0.321425 0
    outer loop
       vertex -0.0509114 0.095671 0.1
       vertex -0.0404004 0.064705 0.1
       vertex -0.0404004 0.064705 0
    endloop
  endfacet
  facet normal 0.896866 0.442302 0
    outer loop
       vertex -0.0509114 0.095671 0
       vertex -0.0653754 0.125 0
       vertex -0.0653754 0.125 0.1
    endloop
  endfacet
  facet normal 0.896866 0.442302 0
    outer loop
       vertex -0.0653754 0.125 0.1
       vertex -0.0509114 0.095671 0.1
       vertex -0.0509114 0.095671 0
    endloop
  endfacet
  facet normal 0.831476 0.555561 0
    outer loop
       vertex -0.0653754 0.125 0
       vertex -0.0835434 0.152191 0
       vertex -0.0835434 0.152191 0.1
    endloop
  endfacet
  facet normal 0.831476 0.555561 0
    outer loop
       vertex -0.0835434 0.152191 0.1
       vertex -0.0653754 0.125 0.1
       vertex -0.0653754 0.125 0
    endloop
  endfacet
  facet normal 0.751817 0.659372 0
    outer loop
       vertex -0.0835434 0.152191 0
       vertex -0.105105 0.176776 0
       vertex -0.105105 0.176776 0.1
    endloop
  endfacet
  facet normal 0.751817 0.659372 0
    outer loop
       vertex -0.105105 0.176776 0.1
       vertex -0.0835434 0.152191 0.1
       vertex -0.0835434 0.152191 0
    endloop
  endfacet
  facet normal 0.659372 0.751817 0
    outer loop
       vertex -0.105105 0.176776 0
       vertex -0.12969 0.198338 0
       vertex -0.12969 0.198338 0.1
    endloop
  endfacet
  facet normal 0.659372 0.751817 0
    outer loop
       vertex -0.12969 0.198338 0.1
       vertex -0.105105 0.176776 0.1
       vertex -0.105105 0.176776 0
    endloop
  endfacet
  facet normal 0.555561 0.831476 0
    outer loop
       vertex -0.12969 0.198338 0
       vertex -0.156881 0.216506 0
       vertex -0.156881 0.216506 0.1
    endloop
  endfacet
  facet normal 0.555561 0.831476 0
    outer loop
       vertex -0.156881 0.216506 0.1
       vertex -0.12969 0.198338 0.1
       vertex -0.12969 0.198338 0
    endloop
  endfacet
  facet normal 0.442302 0.896866 0
    outer loop
       vertex -0.156881 0.216506 0
       vertex -0.18621 0.23097 0
       vertex -0.18621 0.23097 0.1
    endloop
  endfacet
  facet normal 0.442302 0.896866 0
    outer loop
       vertex -0.18621 0.23097 0.1
       vertex -0.156881 0.216506 0.1
       vertex -0.156881 0.216506 0
    endloop
  endfacet
  facet normal 0.321425 0.946935 0
    outer loop
       vertex -0.18621 0.23097 0
       vertex -0.217176 0.241481 0
       vertex -0.217176 0.241481 0.1
    endloop
  endfacet
  facet normal 0.321425 0.946935 0
    outer loop
       vertex -0.217176 0.241481 0.1
       vertex -0.18621 0.23097 0.1
       vertex -0.18621 0.23097 0
    endloop
  endfacet
  facet normal 0.195096 0.980784 0
    outer loop
       vertex -0.217176 0.241481 0
       vertex -0.24925 0.247861 0
       vertex -0.24925 0.247861 0.1
    endloop
  endfacet
  facet normal 0.195096 0.980784 0
    outer loop
       vertex -0.24925 0.247861 0.1
       vertex -0.217176 0.241481 0.1
       vertex -0.217176 0.241481 0
    endloop
  endfacet
  facet normal 0.0654098 0.997858 0
    outer loop
       vertex -0.281881 0.25 0.1
       vertex -0.24925 0.247861 0.1
       vertex -0.24925 0.247861 0
    endloop
  endfacet
  facet normal 0.0654098 0.997858 -7.26205e-17
    outer loop
       vertex -0.24925 0.247861 0
       vertex -0.281881 0.25 0
       vertex -0.281881 0.25 0.1
    endloop
  endfacet
  facet normal -0.0654098 0.997858 0
    outer loop
       vertex -0.281881 0.25 0
       vertex -0.314513 0.247861 0
       vertex -0.314513 0.247861 0.1
    endloop
  endfacet
  facet normal -0.0654098 0.997858 7.26205e-17
    outer loop
       vertex -0.314513 0.247861 0.1
       vertex -0.281881 0.25 0.1
       vertex -0.281881 0.25 0
    endloop
  endfacet
  facet normal -0.195096 0.980784 0
    outer loop
       vertex -0.314513 0.247861 0
       vertex -0.346586 0.241481 0
       vertex -0.346586 0.241481 0.1
    endloop
  endfacet
  facet normal -0.195096 0.980784 0
    outer loop
       vertex -0.346586 0.241481 0.1
       vertex -0.314513 0.247861 0.1
       vertex -0.314513 0.247861 0
    endloop
  endfacet
  facet normal -0.321425 0.946935 0
    outer loop
       vertex -0.346586 0.241481 0
       vertex -0.377552 0.23097 0
       vertex -0.377552 0.23097 0.1
    endloop
  endfacet
  facet normal -0.321425 0.946935 0
    outer loop
       vertex -0.377552 0.23097 0.1
       vertex -0.346586 0.241481 0.1
       vertex -0.346586 0.241481 0
    endloop
  endfacet
  facet normal -0.442302 0.896866 0
    outer loop
       vertex -0.377552 0.23097 0
       vertex -0.406881 0.216506 0
       vertex -0.406881 0.216506 0.1
    endloop
  endfacet
  facet normal -0.442302 0.896866 0
    outer loop
       vertex -0.406881 0.216506 0.1
       vertex -0.377552 0.23097 0.1
       vertex -0.377552 0.23097 0
    endloop
  endfacet
  facet normal -0.555561 0.831476 0
    outer loop
       vertex -0.406881 0.216506 0
       vertex -0.434072 0.198338 0
       vertex -0.434072 0.198338 0.1
    endloop
  endfacet
  facet normal -0.555561 0.831476 0
    outer loop
       vertex -0.434072 0.198338 0.1
       vertex -0.406881 0.216506 0.1
       vertex -0.406881 0.216506 0
    endloop
  endfacet
  facet normal -0.659372 0.751817 0
    outer loop
       vertex -0.434072 0.198338 0
       vertex -0.458657 0.176776 0
       vertex -0.458657 0.176776 0.1
    endloop
  endfacet
  facet normal -0.659372 0.751817 0
    outer loop
       vertex -0.458657 0.176776 0.1
       vertex -0.434072 0.198338 0.1
       vertex -0.434072 0.198338 0
    endloop
  endfacet
  facet normal -0.751817 0.659372 0
    outer loop
       vertex -0.458657 0.176776 0
       vertex -0.480219 0.152191 0
       vertex -0.480219 0.152191 0.1
    endloop
  endfacet
  facet normal -0.751817 0.659372 0
    outer loop
       vertex -0.480219 0.152191 0.1
       vertex -0.458657 0.176776 0.1
       vertex -0.458657 0.176776 0
    endloop
  endfacet
  facet normal -0.831476 0.555561 0
    outer loop
       vertex -0.480219 0.152191 0
       vertex -0.498387 0.125 0
       vertex -0.498387 0.125 0.1
    endloop
  endfacet
  facet normal -0.831476 0.555561 0
    outer loop
       vertex -0.498387 0.125 0.1
       vertex -0.480219 0.152191 0.1
       vertex -0.480219 0.152191 0
    endloop
  endfacet
  facet normal -0.896866 0.442302 0
    outer loop
       vertex -0.498387 0.125 0
       vertex -0.512851 0.095671 0
       vertex -0.512851 0.095671 0.1
    endloop
  endfacet
  facet normal -0.896866 0.442302 0
    outer loop
       vertex -0.512851 0.095671 0.1
       vertex -0.498387 0.125 0.1
       vertex -0.498387 0.125 0
    endloop
  endfacet
  facet normal -0.946935 0.321425 0
    outer loop
       vertex -0.512851 0.095671 0
       vertex -0.523362 0.064705 0
       vertex -0.523362 0.064705 0.1
    endloop
  endfacet
  facet normal -0.946935 0.321425 0
    outer loop
       vertex -0.523362 0.064705 0.1
       vertex -0.512851 0.095671 0.1
       vertex -0.512851 0.095671 0
    endloop
  endfacet
  facet normal -0.980784 0.195096 0
    outer loop
       vertex -0.523362 0.064705 0
       vertex -0.529742 0.0326315 0
       vertex -0.529742 0.0326315 0.1
    endloop
  endfacet
  facet normal -0.980784 0.195096 0
    outer loop
       vertex -0.529742 0.0326315 0.1
       vertex -0.523362 0.064705 0.1
       vertex -0.523362 0.064705 0
    endloop
  endfacet
  facet normal -0.997858 0.0654098 0
    outer loop
       vertex -0.531881 8.32665e-17 0.1
       vertex -0.529742 0.0326315 0.1
       vertex -0.529742 0.0326315 0
    endloop
  endfacet
  facet normal -0.997858 0.0654098 -1.0893e-16
    outer loop
       vertex -0.529742 0.0326315 0
       vertex -0.531881 -8.32665e-17 0
       vertex -0.531881 8.32665e-17 0.1
    endloop
  endfacet
  facet normal -0.997858 -0.0654098 0
    outer loop
       vertex -0.531881 -8.32665e-17 0
       vertex -0.529742 -0.0326315 0
       vertex -0.529742 -0.0326315 0.1
    endloop
  endfacet
  facet normal -0.997858 -0.0654098 1.0893e-16
    outer loop
       vertex -0.529742 -0.0326315 0.1
       vertex -0.531881 8.32665e-17 0.1
       vertex -0.531881 -8.32665e-17 0
    endloop
  endfacet
  facet normal -0.980784 -0.195096 0
    outer loop
       vertex -0.529742 -0.0326315 0
       vertex -0.523362 -0.064705 0
       vertex -0.523362 -0.064705 0.1
    endloop
  endfacet
  facet normal -0.980784 -0.195096 0
    outer loop
       vertex -0.523362 -0.064705 0.1
       vertex -0.529742 -0.0326315 0.1
       vertex -0.529742 -0.0326315 0
    endloop
  endfacet
  facet normal -0.946935 -0.321425 0
    outer loop
       vertex -0.523362 -0.064705 0
       vertex -0.512851 -0.095671 0
       vertex -0.512851 -0.095671 0.1
    endloop
  endfacet
  facet normal -0.946935 -0.321425 0
    outer loop
       vertex -0.512851 -0.095671 0.1
       vertex -0.523362 -0.064705 0.1
       vertex -0.523362 -0.064705 0
    endloop
  endfacet
  facet normal -0.896866 -0.442302 0
    outer loop
       vertex -0.512851 -0.095671 0
       vertex -0.498387 -0.125 0
       vertex -0.498387 -0.125 0.1
    endloop
  endfacet
  facet normal -0.896866 -0.442302 0
    outer loop
       vertex -0.498387 -0.125 0.1
       vertex -0.512851 -0.095671 0.1
       vertex -0.512851 -0.095671 0
    endloop
  endfacet
  facet normal -0.831476 -0.555561 0
    outer loop
       vertex -0.498387 -0.125 0
       vertex -0.480219 -0.152191 0
       vertex -0.480219 -0.152191 0.1
    endloop
  endfacet
  facet normal -0.831476 -0.555561 0
    outer loop
       vertex -0.480219 -0.152191 0.1
       vertex -0.498387 -0.125 0.1
       vertex -0.498387 -0.125 0
    endloop
  endfacet
  facet normal -0.751817 -0.659372 0
    outer loop
       vertex -0.480219 -0.152191 0
       vertex -0.458657 -0.176776 0
       vertex -0.458657 -0.176776 0.1
    endloop
  endfacet
  facet normal -0.751817 -0.659372 0
    outer loop
       vertex -0.458657 -0.176776 0.1
       vertex -0.480219 -0.152191 0.1
       vertex -0.480219 -0.152191 0
    endloop
  endfacet
  facet normal 0.659372 -0.751817 0
    outer loop
       vertex -0.105105 -0.176776 0
       vertex -0.105105 -0.176776 0.1
       vertex -0.12969 -0.198338 0.1
    endloop
  endfacet
  facet normal 0.659372 -0.751817 0
    outer loop
       vertex -0.12969 -0.198338 0.1
       vertex -0.12969 -0.198338 0
       vertex -0.105105 -0.176776 0
    endloop
  endfacet
  facet normal 0.555561 -0.831476 0
    outer loop
       vertex -0.12969 -0.198338 0
       vertex -0.12969 -0.198338 0.1
       vertex -0.156881 -0.216506 0.1
    endloop
  endfacet
  facet normal 0.555561 -0.831476 0
    outer loop
       vertex -0.156881 -0.216506 0.1
       vertex -0.156881 -0.216506 0
       vertex -0.12969 -0.198338 0
    endloop
  endfacet
  facet normal 0.442302 -0.896866 0
    outer loop
       vertex -0.156881 -0.216506 0
       vertex -0.156881 -0.216506 0.1
       vertex -0.18621 -0.23097 0.1
    endloop
  endfacet
  facet normal 0.442302 -0.896866 0
    outer loop
       vertex -0.18621 -0.23097 0.1
       vertex -0.18621 -0.23097 0
       vertex -0.156881 -0.216506 0
    endloop
  endfacet
  facet normal 0.321425 -0.946935 0
    outer loop
       vertex -0.18621 -0.23097 0
       vertex -0.18621 -0.23097 0.1
       vertex -0.217176 -0.241481 0.1
    endloop
  endfacet
  facet normal 0.321425 -0.946935 0
    outer loop
       vertex -0.217176 -0.241481 0.1
       vertex -0.217176 -0.241481 0
       vertex -0.18621 -0.23097 0
    endloop
  endfacet
  facet normal 0.195096 -0.980784 0
    outer loop
       vertex -0.217176 -0.241481 0
       vertex -0.217176 -0.241481 0.1
       vertex -0.24925 -0.247861 0.1
    endloop
  endfacet
  facet normal 0.195096 -0.980784 0
    outer loop
       vertex -0.24925 -0.247861 0.1
       vertex -0.24925 -0.247861 0
       vertex -0.217176 -0.241481 0
    endloop
  endfacet
  facet normal 0.0654098 -0.997858 0
    outer loop
       vertex -0.281881 -0.25 0
       vertex -0.24925 -0.247861 0
       vertex -0.24925 -0.247861 0.1
    endloop
  endfacet
  facet normal 0.0654098 -0.997858 7.26205e-17
    outer loop
       vertex -0.24925 -0.247861 0.1
       vertex -0.281881 -0.25 0.1
       vertex -0.281881 -0.25 0
    endloop
  endfacet
  facet normal -0.0654098 -0.997858 0
    outer loop
       vertex -0.281881 -0.25 0.1
       vertex -0.314513 -0.247861 0.1
       vertex -0.314513 -0.247861 0
    endloop
  endfacet
  facet normal -0.0654098 -0.997858 -7.26205e-17
    outer loop
       vertex -0.314513 -0.247861 0
       vertex -0.281881 -0.25 0
       vertex -0.281881 -0.25 0.1
    endloop
  endfacet
  facet normal -0.195096 -0.980784 0
    outer loop
       vertex -0.314513 -0.247861 0
       vertex -0.314513 -0.247861 0.1
       vertex -0.346586 -0.241481 0.1
    endloop
  endfacet
  facet normal -0.195096 -0.980784 -0
    outer loop
       vertex -0.346586 -0.241481 0.1
       vertex -0.346586 -0.241481 0
       vertex -0.314513 -0.247861 0
    endloop
  endfacet
  facet normal -0.321425 -0.946935 0
    outer loop
       vertex -0.346586 -0.241481 0
       vertex -0.346586 -0.241481 0.1
       vertex -0.377552 -0.23097 0.1
    endloop
  endfacet
  facet normal -0.321425 -0.946935 -0
    outer loop
       vertex -0.377552 -0.23097 0.1
       vertex -0.377552 -0.23097 0
       vertex -0.346586 -0.241481 0
    endloop
  endfacet
  facet normal -0.442302 -0.896866 0
    outer loop
       vertex -0.377552 -0.23097 0
       vertex -0.377552 -0.23097 0.1
       vertex -0.406881 -0.216506 0.1
    endloop
  endfacet
  facet normal -0.442302 -0.896866 -0
    outer loop
       vertex -0.406881 -0.216506 0.1
       vertex -0.406881 -0.216506 0
       vertex -0.377552 -0.23097 0
    endloop
  endfacet
  facet normal -0.555561 -0.831476 0
    outer loop
       vertex -0.406881 -0.216506 0
       vertex -0.406881 -0.216506 0.1
       vertex -0.434072 -0.198338 0.1
    endloop
  endfacet
  facet normal -0.555561 -0.831476 -0
    outer loop
       vertex -0.434072 -0.198338 0.1
       vertex -0.434072 -0.198338 0
       vertex -0.406881 -0.216506 0
    endloop
  endfacet
  facet normal -0.659372 -0.751817 0
    outer loop
       vertex -0.434072 -0.198338 0
       vertex -0.434072 -0.198338 0.1
       vertex -0.458657 -0.176776 0.1
    endloop
  endfacet
  facet normal -0.659372 -0.751817 -0
    outer loop
       vertex -0.458657 -0.176776 0.1
       vertex -0.458657 -0.176776 0
       vertex -0.434072 -0.198338 0
    endloop
  endfacet
endsolid cylinder
