solid cylinder
  facet normal 0.751817 -0.659372 0
    outer loop
       vertex 0.343835 -0.176776 0
       vertex 0.365397 -0.152191 0
       vertex 0.365397 -0.152191 0.1
    endloop
  endfacet
  facet normal 0.751817 -0.659372 0
    outer loop
       vertex 0.365397 -0.152191 0.1
       vertex 0.343835 -0.176776 0.1
       vertex 0.343835 -0.176776 0
    endloop
  endfacet
  facet normal 0.831476 -0.555561 0
    outer loop
       vertex 0.365397 -0.152191 0
       vertex 0.383565 -0.125 0
       vertex 0.383565 -0.125 0.1
    endloop
  endfacet
  facet normal 0.831476 -0.555561 0
    outer loop
       vertex 0.383565 -0.125 0.1
       vertex 0.365397 -0.152191 0.1
       vertex 0.365397 -0.152191 0
    endloop
  endfacet
  facet normal 0.896866 -0.442302 0
    outer loop
       vertex 0.383565 -0.125 0
       vertex 0.398029 -0.095671 0
       vertex 0.398029 -0.095671 0.1
    endloop
  endfacet
  facet normal 0.896866 -0.442302 0
    outer loop
       vertex 0.398029 -0.095671 0.1
       vertex 0.383565 -0.125 0.1
       vertex 0.383565 -0.125 0
    endloop
  endfacet
  facet normal 0.946935 -0.321425 0
    outer loop
       vertex 0.398029 -0.095671 0
       vertex 0.40854 -0.064705 0
       vertex 0.40854 -0.064705 0.1
    endloop
  endfacet
  facet normal 0.946935 -0.321425 0
    outer loop
       vertex 0.40854 -0.064705 0.1
       vertex 0.398029 -0.095671 0.1
       vertex 0.398029 -0.095671 0
    endloop
  endfacet
  facet normal 0.980784 -0.195096 0
    outer loop
       vertex 0.40854 -0.064705 0
       vertex 0.41492 -0.0326315 0
       vertex 0.41492 -0.0326315 0.1
    endloop
  endfacet
  facet normal 0.980784 -0.195096 0
    outer loop
       vertex 0.41492 -0.0326315 0.1
       vertex 0.40854 -0.064705 0.1
       vertex 0.40854 -0.064705 0
    endloop
  endfacet
  facet normal 0.997858 -0.0654098 0
    outer loop
       vertex 0.417059 -8.32665e-17 0.1
       vertex 0.41492 -0.0326315 0.1
       vertex 0.41492 -0.0326315 0
    endloop
  endfacet
  facet normal 0.997858 -0.0654098 -1.08928e-16
    outer loop
       vertex 0.41492 -0.0326315 0
       vertex 0.417059 8.32665e-17 0
       vertex 0.417059 -8.32665e-17 0.1
    endloop
  endfacet
  facet normal 0.997858 0.0654098 0
    outer loop
       vertex 0.417059 8.32665e-17 0
       vertex 0.41492 0.0326315 0
       vertex 0.41492 0.0326315 0.1
    endloop
  endfacet
  facet normal 0.997858 0.0654098 1.08928e-16
    outer loop
       vertex 0.41492 0.0326315 0.1
       vertex 0.417059 -8.32665e-17 0.1
       vertex 0.417059 8.32665e-17 0
    endloop
  endfacet
  facet normal 0.980784 0.195096 0
    outer loop
       vertex 0.41492 0.0326315 0
       vertex 0.40854 0.064705 0
       vertex 0.40854 0.064705 0.1
    endloop
  endfacet
  facet normal 0.980784 0.195096 0
    outer loop
       vertex 0.40854 0.064705 0.1
       vertex 0.41492 0.0326315 0.1
       vertex 0.41492 0.0326315 0
    endloop
  endfacet
  facet normal 0.946935 0.321425 0
    outer loop
       vertex 0.40854 0.064705 0
       vertex 0.398029 0.095671 0
       vertex 0.398029 0.095671 0.1
    endloop
  endfacet
  facet normal 0.946935 0.321425 0
    outer loop
       vertex 0.398029 0.095671 0.1
       vertex 0.40854 0.064705 0.1
       vertex 0.40854 0.064705 0
    endloop
  endfacet
  facet normal 0.896866 0.442302 0
    outer loop
       vertex 0.398029 0.095671 0
       vertex 0.383565 0.125 0
       vertex 0.383565 0.125 0.1
    endloop
  endfacet
  facet normal 0.896866 0.442302 0
    outer loop
       vertex 0.383565 0.125 0.1
       vertex 0.398029 0.095671 0.1
       vertex 0.398029 0.095671 0
    endloop
  endfacet
  facet normal 0.831476 0.555561 0
    outer loop
       vertex 0.383565 0.125 0
       vertex 0.365397 0.152191 0
       vertex 0.365397 0.152191 0.1
    endloop
  endfacet
  facet normal 0.831476 0.555561 0
    outer loop
       vertex 0.365397 0.152191 0.1
       vertex 0.383565 0.125 0.1
       vertex 0.383565 0.125 0
    endloop
  endfacet
  facet normal 0.751817 0.659372 0
    outer loop
       vertex 0.365397 0.152191 0
       vertex 0.343835 0.176776 0
       vertex 0.343835 0.176776 0.1
    endloop
  endfacet
  facet normal 0.751817 0.659372 0
    outer loop
       vertex 0.343835 0.176776 0.1
       vertex 0.365397 0.152191 0.1
       vertex 0.365397 0.152191 0
    endloop
  endfacet
  facet normal 0.659372 0.751817 0
    outer loop
       vertex 0.343835 0.176776 0
       vertex 0.31925 0.198338 0
       vertex 0.31925 0.198338 0.1
    endloop
  endfacet
  facet normal 0.659372 0.751817 0
    outer loop
       vertex 0.31925 0.198338 0.1
       vertex 0.343835 0.176776 0.1
       vertex 0.343835 0.176776 0
    endloop
  endfacet
  facet normal 0.555561 0.831476 0
    outer loop
       vertex 0.31925 0.198338 0
       vertex 0.292059 0.216506 0
       vertex 0.292059 0.216506 0.1
    endloop
  endfacet
  facet normal 0.555561 0.831476 0
    outer loop
       vertex 0.292059 0.216506 0.1
       vertex 0.31925 0.198338 0.1
       vertex 0.31925 0.198338 0
    endloop
  endfacet
  facet normal 0.442302 0.896866 0
    outer loop
       vertex 0.292059 0.216506 0
       vertex 0.26273 0.23097 0
       vertex 0.26273 0.23097 0.1
    endloop
  endfacet
  facet normal 0.442302 0.896866 0
    outer loop
       vertex 0.26273 0.23097 0.1
       vertex 0.292059 0.216506 0.1
       vertex 0.292059 0.216506 0
    endloop
  endfacet
  facet normal 0.321425 0.946935 0
    outer loop
       vertex 0.26273 0.23097 0
       vertex 0.231764 0.241481 0
       vertex 0.231764 0.241481 0.1
    endloop
  endfacet
  facet normal 0.321425 0.946935 0
    outer loop
       vertex 0.231764 0.241481 0.1
       vertex 0.26273 0.23097 0.1
       vertex 0.26273 0.23097 0
    endloop
  endfacet
  facet normal 0.195096 0.980784 0
    outer loop
       vertex 0.231764 0.241481 0
       vertex 0.19969 0.247861 0
       vertex 0.19969 0.247861 0.1
    endloop
  endfacet
  facet normal 0.195096 0.980784 0
    outer loop
       vertex 0.19969 0.247861 0.1
       vertex 0.231764 0.241481 0.1
       vertex 0.231764 0.241481 0
    endloop
  endfacet
  facet normal 0.0654098 0.997858 0
    outer loop
       vertex 0.167059 0.25 0.1
       vertex 0.19969 0.247861 0.1
       vertex 0.19969 0.247861 0
    endloop
  endfacet
  facet normal 0.0654098 0.997858 -1.0893e-16
    outer loop
       vertex 0.19969 0.247861 0
       vertex 0.167059 0.25 0
       vertex 0.167059 0.25 0.1
    endloop
  endfacet
  facet normal -0.0654098 0.997858 0
    outer loop
       vertex 0.167059 0.25 0
       vertex 0.134427 0.247861 0
       vertex 0.134427 0.247861 0.1
    endloop
  endfacet
  facet normal -0.0654098 0.997858 1.0893e-16
    outer loop
       vertex 0.134427 0.247861 0.1
       vertex 0.167059 0.25 0.1
       vertex 0.167059 0.25 0
    endloop
  endfacet
  facet normal -0.195096 0.980784 0
    outer loop
       vertex 0.134427 0.247861 0
       vertex 0.102354 0.241481 0
       vertex 0.102354 0.241481 0.1
    endloop
  endfacet
  facet normal -0.195096 0.980784 0
    outer loop
       vertex 0.102354 0.241481 0.1
       vertex 0.134427 0.247861 0.1
       vertex 0.134427 0.247861 0
    endloop
  endfacet
  facet normal -0.321425 0.946935 0
    outer loop
       vertex 0.102354 0.241481 0
       vertex 0.071388 0.23097 0
       vertex 0.071388 0.23097 0.1
    endloop
  endfacet
  facet normal -0.321425 0.946935 0
    outer loop
       vertex 0.071388 0.23097 0.1
       vertex 0.102354 0.241481 0.1
       vertex 0.102354 0.241481 0
    endloop
  endfacet
  facet normal -0.442302 0.896866 0
    outer loop
       vertex 0.071388 0.23097 0
       vertex 0.042059 0.216506 0
       vertex 0.042059 0.216506 0.1
    endloop
  endfacet
  facet normal -0.442302 0.896866 0
    outer loop
       vertex 0.042059 0.216506 0.1
       vertex 0.071388 0.23097 0.1
       vertex 0.071388 0.23097 0
    endloop
  endfacet
  facet normal -0.555561 0.831476 0
    outer loop
       vertex 0.042059 0.216506 0
       vertex 0.014868 0.198338 0
       vertex 0.014868 0.198338 0.1
    endloop
  endfacet
  facet normal -0.555561 0.831476 0
    outer loop
       vertex 0.014868 0.198338 0.1
       vertex 0.042059 0.216506 0.1
       vertex 0.042059 0.216506 0
    endloop
  endfacet
  facet normal -0.659372 0.751817 0
    outer loop
       vertex 0.014868 0.198338 0
       vertex -0.00971701 0.176776 0
       vertex -0.00971701 0.176776 0.1
    endloop
  endfacet
  facet normal -0.659372 0.751817 0
    outer loop
       vertex -0.00971701 0.176776 0.1
       vertex 0.014868 0.198338 0.1
       vertex 0.014868 0.198338 0
    endloop
  endfacet
  facet normal -0.751817 0.659372 0
    outer loop
       vertex -0.00971701 0.176776 0
       vertex -0.031279 0.152191 0
       vertex -0.031279 0.152191 0.1
    endloop
  endfacet
  facet normal -0.751817 0.659372 0
    outer loop
       vertex -0.031279 0.152191 0.1
       vertex -0.00971701 0.176776 0.1
       vertex -0.00971701 0.176776 0
    endloop
  endfacet
  facet normal -0.831476 0.555561 0
    outer loop
       vertex -0.031279 0.152191 0
       vertex -0.049447 0.125 0
       vertex -0.049447 0.125 0.1
    endloop
  endfacet
  facet normal -0.831476 0.555561 0
    outer loop
       vertex -0.049447 0.125 0.1
       vertex -0.031279 0.152191 0.1
       vertex -0.031279 0.152191 0
    endloop
  endfacet
  facet normal -0.896866 0.442302 0
    outer loop
       vertex -0.049447 0.125 0
       vertex -0.063911 0.095671 0
       vertex -0.063911 0.095671 0.1
    endloop
  endfacet
  facet normal -0.896866 0.442302 0
    outer loop
       vertex -0.063911 0.095671 0.1
       vertex -0.049447 0.125 0.1
       vertex -0.049447 0.125 0
    endloop
  endfacet
  facet normal -0.946935 0.321425 0
    outer loop
       vertex -0.063911 0.095671 0
       vertex -0.074422 0.064705 0
       vertex -0.074422 0.064705 0.1
    endloop
  endfacet
  facet normal -0.946935 0.321425 0
    outer loop
       vertex -0.074422 0.064705 0.1
       vertex -0.063911 0.095671 0.1
       vertex -0.063911 0.095671 0
    endloop
  endfacet
  facet normal -0.980784 0.195096 0
    outer loop
       vertex -0.074422 0.064705 0
       vertex -0.080802 0.0326315 0
       vertex -0.080802 0.0326315 0.1
    endloop
  endfacet
  facet normal -0.980784 0.195096 0
    outer loop
       vertex -0.080802 0.0326315 0.1
       vertex -0.074422 0.064705 0.1
       vertex -0.074422 0.064705 0
    endloop
  endfacet
  facet normal -0.997858 0.0654098 0
    outer loop
       vertex -0.082941 8.32665e-17 0.1
       vertex -0.080802 0.0326315 0.1
       vertex -0.080802 0.0326315 0
    endloop
  endfacet
  facet normal -0.997858 0.0654098 -1.08928e-16
    outer loop
       vertex -0.080802 0.0326315 0
       vertex -0.082941 -8.32665e-17 0
       vertex -0.082941 8.32665e-17 0.1
    endloop
  endfacet
  facet normal -0.997858 -0.0654098 0
    outer loop
       vertex -0.082941 -8.32665e-17 0
       vertex -0.080802 -0.0326315 0
       vertex -0.080802 -0.0326315 0.1
    endloop
  endfacet
  facet normal -0.997858 -0.0654098 1.08928e-16
    outer loop
       vertex -0.080802 -0.0326315 0.1
       vertex -0.082941 8.32665e-17 0.1
       vertex -0.082941 -8.32665e-17 0
    endloop
  endfacet
  facet normal -0.980784 -0.195096 0
    outer loop
       vertex -0.080802 -0.0326315 0
       vertex -0.074422 -0.064705 0
       vertex -0.074422 -0.064705 0.1
    endloop
  endfacet
  facet normal -0.980784 -0.195096 0
    outer loop
       vertex -0.074422 -0.064705 0.1
       vertex -0.080802 -0.0326315 0.1
       vertex -0.080802 -0.0326315 0
    endloop
  endfacet
  facet normal -0.946935 -0.321425 0
    outer loop
       vertex -0.074422 -0.064705 0
       vertex -0.063911 -0.095671 0
       vertex -0.063911 -0.095671 0.1
    endloop
  endfacet
  facet normal -0.946935 -0.321425 0
    outer loop
       vertex -0.063911 -0.095671 0.1
       vertex -0.074422 -0.064705 0.1
       vertex -0.074422 -0.064705 0
    endloop
  endfacet
  facet normal -0.896866 -0.442302 0
    outer loop
       vertex -0.063911 -0.095671 0
       vertex -0.049447 -0.125 0
       vertex -0.049447 -0.125 0.1
    endloop
  endfacet
  facet normal -0.896866 -0.442302 0
    outer loop
       vertex -0.049447 -0.125 0.1
       vertex -0.063911 -0.095671 0.1
       vertex -0.063911 -0.095671 0
    endloop
  endfacet
  facet normal -0.831476 -0.555561 0
    outer loop
       vertex -0.049447 -0.125 0
       vertex -0.031279 -0.152191 0
       vertex -0.031279 -0.152191 0.1
    endloop
  endfacet
  facet normal -0.831476 -0.555561 0
    outer loop
       vertex -0.031279 -0.152191 0.1
       vertex -0.049447 -0.125 0.1
       vertex -0.049447 -0.125 0
    endloop
  endfacet
  facet normal -0.751817 -0.659372 0
    outer loop
       vertex -0.031279 -0.152191 0
       vertex -0.00971701 -0.176776 0
       vertex -0.00971701 -0.176776 0.1
    endloop
  endfacet
  facet normal -0.751817 -0.659372 0
    outer loop
       vertex -0.00971701 -0.176776 0.1
       vertex -0.031279 -0.152191 0.1
       vertex -0.031279 -0.152191 0
    endloop
  endfacet
  facet normal 0.659372 -0.751817 0
    outer loop
       vertex 0.343835 -0.176776 0
       vertex 0.343835 -0.176776 0.1
       vertex 0.31925 -0.198338 0.1
    endloop
  endfacet
  facet normal 0.659372 -0.751817 0
    outer loop
       vertex 0.31925 -0.198338 0.1
       vertex 0.31925 -0.198338 0
       vertex 0.343835 -0.176776 0
    endloop
  endfacet
  facet normal 0.555561 -0.831476 0
    outer loop
       vertex 0.31925 -0.198338 0
       vertex 0.31925 -0.198338 0.1
       vertex 0.292059 -0.216506 0.1
    endloop
  endfacet
  facet normal 0.555561 -0.831476 0
    outer loop
       vertex 0.292059 -0.216506 0.1
       vertex 0.292059 -0.216506 0
       vertex 0.31925 -0.198338 0
    endloop
  endfacet
  facet normal 0.442302 -0.896866 0
    outer loop
       vertex 0.292059 -0.216506 0
       vertex 0.292059 -0.216506 0.1
       vertex 0.26273 -0.23097 0.1
    endloop
  endfacet
  facet normal 0.442302 -0.896866 0
    outer loop
       vertex 0.26273 -0.23097 0.1
       vertex 0.26273 -0.23097 0
       vertex 0.292059 -0.216506 0
    endloop
  endfacet
  facet normal 0.321425 -0.946935 0
    outer loop
       vertex 0.26273 -0.23097 0
       vertex 0.26273 -0.23097 0.1
       vertex 0.231764 -0.241481 0.1
    endloop
  endfacet
  facet normal 0.321425 -0.946935 0
    outer loop
       vertex 0.231764 -0.241481 0.1
       vertex 0.231764 -0.241481 0
       vertex 0.26273 -0.23097 0
    endloop
  endfacet
  facet normal 0.195096 -0.980784 0
    outer loop
       vertex 0.231764 -0.241481 0
       vertex 0.231764 -0.241481 0.1
       vertex 0.19969 -0.247861 0.1
    endloop
  endfacet
  facet normal 0.195096 -0.980784 0
    outer loop
       vertex 0.19969 -0.247861 0.1
       vertex 0.19969 -0.247861 0
       vertex 0.231764 -0.241481 0
    endloop
  endfacet
  facet normal 0.0654098 -0.997858 0
    outer loop
       vertex 0.167059 -0.25 0
       vertex 0.19969 -0.247861 0
       vertex 0.19969 -0.247861 0.1
    endloop
  endfacet
  facet normal 0.0654098 -0.997858 1.0893e-16
    outer loop
       vertex 0.19969 -0.247861 0.1
       vertex 0.167059 -0.25 0.1
       vertex 0.167059 -0.25 0
    endloop
  endfacet
  facet normal -0.0654098 -0.997858 0
    outer loop
       vertex 0.167059 -0.25 0.1
       vertex 0.134427 -0.247861 0.1
       vertex 0.134427 -0.247861 0
    endloop
  endfacet
  facet normal -0.0654098 -0.997858 -1.0893e-16
    outer loop
       vertex 0.134427 -0.247861 0
       vertex 0.167059 -0.25 0
       vertex 0.167059 -0.25 0.1
    endloop
  endfacet
  facet normal -0.195096 -0.980784 0
    outer loop
       vertex 0.134427 -0.247861 0
       vertex 0.134427 -0.247861 0.1
       vertex 0.102354 -0.241481 0.1
    endloop
  endfacet
  facet normal -0.195096 -0.980784 -0
    outer loop
       vertex 0.102354 -0.241481 0.1
       vertex 0.102354 -0.241481 0
       vertex 0.134427 -0.247861 0
    endloop
  endfacet
  facet normal -0.321425 -0.946935 0
    outer loop
       vertex 0.102354 -0.241481 0
       vertex 0.102354 -0.241481 0.1
       vertex 0.071388 -0.23097 0.1
    endloop
  endfacet
  facet normal -0.321425 -0.946935 -0
    outer loop
       vertex 0.071388 -0.23097 0.1
       vertex 0.071388 -0.23097 0
       vertex 0.102354 -0.241481 0
    endloop
  endfacet
  facet normal -0.442302 -0.896866 0
    outer loop
       vertex 0.071388 -0.23097 0
       vertex 0.071388 -0.23097 0.1
       vertex 0.042059 -0.216506 0.1
    endloop
  endfacet
  facet normal -0.442302 -0.896866 -0
    outer loop
       vertex 0.042059 -0.216506 0.1
       vertex 0.042059 -0.216506 0
       vertex 0.071388 -0.23097 0
    endloop
  endfacet
  facet normal -0.555561 -0.831476 0
    outer loop
       vertex 0.042059 -0.216506 0
       vertex 0.042059 -0.216506 0.1
       vertex 0.014868 -0.198338 0.1
    endloop
  endfacet
  facet normal -0.555561 -0.831476 -0
    outer loop
       vertex 0.014868 -0.198338 0.1
       vertex 0.014868 -0.198338 0
       vertex 0.042059 -0.216506 0
    endloop
  endfacet
  facet normal -0.659372 -0.751817 0
    outer loop
       vertex 0.014868 -0.198338 0
       vertex 0.014868 -0.198338 0.1
       vertex -0.00971701 -0.176776 0.1
    endloop
  endfacet
  facet normal -0.659372 -0.751817 -0
    outer loop
       vertex -0.00971701 -0.176776 0.1
       vertex -0.00971701 -0.176776 0
       vertex 0.014868 -0.198338 0
    endloop
  endfacet
endsolid cylinder
