solid cylinder
  facet normal 0.751817 -0.659372 0
    outer loop
       vertex 0.476517 -0.176776 0
       vertex 0.498079 -0.152191 0
       vertex 0.498079 -0.152191 0.1
    endloop
  endfacet
  facet normal 0.751817 -0.659372 0
    outer loop
       vertex 0.498079 -0.152191 0.1
       vertex 0.476517 -0.176776 0.1
       vertex 0.476517 -0.176776 0
    endloop
  endfacet
  facet normal 0.831476 -0.555561 0
    outer loop
       vertex 0.498079 -0.152191 0
       vertex 0.516247 -0.125 0
       vertex 0.516247 -0.125 0.1
    endloop
  endfacet
  facet normal 0.831476 -0.555561 0
    outer loop
       vertex 0.516247 -0.125 0.1
       vertex 0.498079 -0.152191 0.1
       vertex 0.498079 -0.152191 0
    endloop
  endfacet
  facet normal 0.896866 -0.442302 0
    outer loop
       vertex 0.516247 -0.125 0
       vertex 0.530711 -0.095671 0
       vertex 0.530711 -0.095671 0.1
    endloop
  endfacet
  facet normal 0.896866 -0.442302 0
    outer loop
       vertex 0.530711 -0.095671 0.1
       vertex 0.516247 -0.125 0.1
       vertex 0.516247 -0.125 0
    endloop
  endfacet
  facet normal 0.946935 -0.321425 0
    outer loop
       vertex 0.530711 -0.095671 0
       vertex 0.541222 -0.064705 0
       vertex 0.541222 -0.064705 0.1
    endloop
  endfacet
  facet normal 0.946935 -0.321425 0
    outer loop
       vertex 0.541222 -0.064705 0.1
       vertex 0.530711 -0.095671 0.1
       vertex 0.530711 -0.095671 0
    endloop
  endfacet
  facet normal 0.980784 -0.195096 0
    outer loop
       vertex 0.541222 -0.064705 0
       vertex 0.547602 -0.0326315 0
       vertex 0.547602 -0.0326315 0.1
    endloop
  endfacet
  facet normal 0.980784 -0.195096 0
    outer loop
       vertex 0.547602 -0.0326315 0.1
       vertex 0.541222 -0.064705 0.1
       vertex 0.541222 -0.064705 0
    endloop
  endfacet
  facet normal 0.997858 -0.0654098 0
    outer loop
       vertex 0.549741 -8.32665e-17 0.1
       vertex 0.547602 -0.0326315 0.1
       vertex 0.547602 -0.0326315 0
    endloop
  endfacet
  facet normal 0.997858 -0.0654098 -1.08928e-16
    outer loop
       vertex 0.547602 -0.0326315 0
       vertex 0.549741 8.32665e-17 0
       vertex 0.549741 -8.32665e-17 0.1
    endloop
  endfacet
  facet normal 0.997858 0.0654098 0
    outer loop
       vertex 0.549741 8.32665e-17 0
       vertex 0.547602 0.0326315 0
       vertex 0.547602 0.0326315 0.1
    endloop
  endfacet
  facet normal 0.997858 0.0654098 1.08928e-16
    outer loop
       vertex 0.547602 0.0326315 0.1
       vertex 0.549741 -8.32665e-17 0.1
       vertex 0.549741 8.32665e-17 0
    endloop
  endfacet
  facet normal 0.980784 0.195096 0
    outer loop
       vertex 0.547602 0.0326315 0
       vertex 0.541222 0.064705 0
       vertex 0.541222 0.064705 0.1
    endloop
  endfacet
  facet normal 0.980784 0.195096 0
    outer loop
       vertex 0.541222 0.064705 0.1
       vertex 0.547602 0.0326315 0.1
       vertex 0.547602 0.0326315 0
    endloop
  endfacet
  facet normal 0.946935 0.321425 0
    outer loop
       vertex 0.541222 0.064705 0
       vertex 0.530711 0.095671 0
       vertex 0.530711 0.095671 0.1
    endloop
  endfacet
  facet normal 0.946935 0.321425 0
    outer loop
       vertex 0.530711 0.095671 0.1
       vertex 0.541222 0.064705 0.1
       vertex 0.541222 0.064705 0
    endloop
  endfacet
  facet normal 0.896866 0.442302 0
    outer loop
       vertex 0.530711 0.095671 0
       vertex 0.516247 0.125 0
       vertex 0.516247 0.125 0.1
    endloop
  endfacet
  facet normal 0.896866 0.442302 0
    outer loop
       vertex 0.516247 0.125 0.1
       vertex 0.530711 0.095671 0.1
       vertex 0.530711 0.095671 0
    endloop
  endfacet
  facet normal 0.831476 0.555561 0
    outer loop
       vertex 0.516247 0.125 0
       vertex 0.498079 0.152191 0
       vertex 0.498079 0.152191 0.1
    endloop
  endfacet
  facet normal 0.831476 0.555561 0
    outer loop
       vertex 0.498079 0.152191 0.1
       vertex 0.516247 0.125 0.1
       vertex 0.516247 0.125 0
    endloop
  endfacet
  facet normal 0.751817 0.659372 0
    outer loop
       vertex 0.498079 0.152191 0
       vertex 0.476517 0.176776 0
       vertex 0.476517 0.176776 0.1
    endloop
  endfacet
  facet normal 0.751817 0.659372 0
    outer loop
       vertex 0.476517 0.176776 0.1
       vertex 0.498079 0.152191 0.1
       vertex 0.498079 0.152191 0
    endloop
  endfacet
  facet normal 0.659372 0.751817 0
    outer loop
       vertex 0.476517 0.176776 0
       vertex 0.451932 0.198338 0
       vertex 0.451932 0.198338 0.1
    endloop
  endfacet
  facet normal 0.659372 0.751817 0
    outer loop
       vertex 0.451932 0.198338 0.1
       vertex 0.476517 0.176776 0.1
       vertex 0.476517 0.176776 0
    endloop
  endfacet
  facet normal 0.555561 0.831476 0
    outer loop
       vertex 0.451932 0.198338 0
       vertex 0.424741 0.216506 0
       vertex 0.424741 0.216506 0.1
    endloop
  endfacet
  facet normal 0.555561 0.831476 0
    outer loop
       vertex 0.424741 0.216506 0.1
       vertex 0.451932 0.198338 0.1
       vertex 0.451932 0.198338 0
    endloop
  endfacet
  facet normal 0.442302 0.896866 0
    outer loop
       vertex 0.424741 0.216506 0
       vertex 0.395412 0.23097 0
       vertex 0.395412 0.23097 0.1
    endloop
  endfacet
  facet normal 0.442302 0.896866 0
    outer loop
       vertex 0.395412 0.23097 0.1
       vertex 0.424741 0.216506 0.1
       vertex 0.424741 0.216506 0
    endloop
  endfacet
  facet normal 0.321425 0.946935 0
    outer loop
       vertex 0.395412 0.23097 0
       vertex 0.364446 0.241481 0
       vertex 0.364446 0.241481 0.1
    endloop
  endfacet
  facet normal 0.321425 0.946935 0
    outer loop
       vertex 0.364446 0.241481 0.1
       vertex 0.395412 0.23097 0.1
       vertex 0.395412 0.23097 0
    endloop
  endfacet
  facet normal 0.195096 0.980784 0
    outer loop
       vertex 0.364446 0.241481 0
       vertex 0.332372 0.247861 0
       vertex 0.332372 0.247861 0.1
    endloop
  endfacet
  facet normal 0.195096 0.980784 0
    outer loop
       vertex 0.332372 0.247861 0.1
       vertex 0.364446 0.241481 0.1
       vertex 0.364446 0.241481 0
    endloop
  endfacet
  facet normal 0.0654098 0.997858 0
    outer loop
       vertex 0.299741 0.25 0.1
       vertex 0.332372 0.247861 0.1
       vertex 0.332372 0.247861 0
    endloop
  endfacet
  facet normal 0.0654098 0.997858 -1.45239e-16
    outer loop
       vertex 0.332372 0.247861 0
       vertex 0.299741 0.25 0
       vertex 0.299741 0.25 0.1
    endloop
  endfacet
  facet normal -0.0654098 0.997858 0
    outer loop
       vertex 0.299741 0.25 0
       vertex 0.267109 0.247861 0
       vertex 0.267109 0.247861 0.1
    endloop
  endfacet
  facet normal -0.0654098 0.997858 1.45239e-16
    outer loop
       vertex 0.267109 0.247861 0.1
       vertex 0.299741 0.25 0.1
       vertex 0.299741 0.25 0
    endloop
  endfacet
  facet normal -0.195096 0.980784 0
    outer loop
       vertex 0.267109 0.247861 0
       vertex 0.235036 0.241481 0
       vertex 0.235036 0.241481 0.1
    endloop
  endfacet
  facet normal -0.195096 0.980784 0
    outer loop
       vertex 0.235036 0.241481 0.1
       vertex 0.267109 0.247861 0.1
       vertex 0.267109 0.247861 0
    endloop
  endfacet
  facet normal -0.321425 0.946935 0
    outer loop
       vertex 0.235036 0.241481 0
       vertex 0.20407 0.23097 0
       vertex 0.20407 0.23097 0.1
    endloop
  endfacet
  facet normal -0.321425 0.946935 0
    outer loop
       vertex 0.20407 0.23097 0.1
       vertex 0.235036 0.241481 0.1
       vertex 0.235036 0.241481 0
    endloop
  endfacet
  facet normal -0.442302 0.896866 0
    outer loop
       vertex 0.20407 0.23097 0
       vertex 0.174741 0.216506 0
       vertex 0.174741 0.216506 0.1
    endloop
  endfacet
  facet normal -0.442302 0.896866 0
    outer loop
       vertex 0.174741 0.216506 0.1
       vertex 0.20407 0.23097 0.1
       vertex 0.20407 0.23097 0
    endloop
  endfacet
  facet normal -0.555561 0.831476 0
    outer loop
       vertex 0.174741 0.216506 0
       vertex 0.14755 0.198338 0
       vertex 0.14755 0.198338 0.1
    endloop
  endfacet
  facet normal -0.555561 0.831476 0
    outer loop
       vertex 0.14755 0.198338 0.1
       vertex 0.174741 0.216506 0.1
       vertex 0.174741 0.216506 0
    endloop
  endfacet
  facet normal -0.659372 0.751817 0
    outer loop
       vertex 0.14755 0.198338 0
       vertex 0.122965 0.176776 0
       vertex 0.122965 0.176776 0.1
    endloop
  endfacet
  facet normal -0.659372 0.751817 0
    outer loop
       vertex 0.122965 0.176776 0.1
       vertex 0.14755 0.198338 0.1
       vertex 0.14755 0.198338 0
    endloop
  endfacet
  facet normal -0.751817 0.659372 0
    outer loop
       vertex 0.122965 0.176776 0
       vertex 0.101403 0.152191 0
       vertex 0.101403 0.152191 0.1
    endloop
  endfacet
  facet normal -0.751817 0.659372 0
    outer loop
       vertex 0.101403 0.152191 0.1
       vertex 0.122965 0.176776 0.1
       vertex 0.122965 0.176776 0
    endloop
  endfacet
  facet normal -0.831476 0.555561 0
    outer loop
       vertex 0.101403 0.152191 0
       vertex 0.083235 0.125 0
       vertex 0.083235 0.125 0.1
    endloop
  endfacet
  facet normal -0.831476 0.555561 0
    outer loop
       vertex 0.083235 0.125 0.1
       vertex 0.101403 0.152191 0.1
       vertex 0.101403 0.152191 0
    endloop
  endfacet
  facet normal -0.896866 0.442302 0
    outer loop
       vertex 0.083235 0.125 0
       vertex 0.068771 0.095671 0
       vertex 0.068771 0.095671 0.1
    endloop
  endfacet
  facet normal -0.896866 0.442302 0
    outer loop
       vertex 0.068771 0.095671 0.1
       vertex 0.083235 0.125 0.1
       vertex 0.083235 0.125 0
    endloop
  endfacet
  facet normal -0.946935 0.321425 0
    outer loop
       vertex 0.068771 0.095671 0
       vertex 0.05826 0.064705 0
       vertex 0.05826 0.064705 0.1
    endloop
  endfacet
  facet normal -0.946935 0.321425 0
    outer loop
       vertex 0.05826 0.064705 0.1
       vertex 0.068771 0.095671 0.1
       vertex 0.068771 0.095671 0
    endloop
  endfacet
  facet normal -0.980784 0.195096 0
    outer loop
       vertex 0.05826 0.064705 0
       vertex 0.05188 0.0326315 0
       vertex 0.05188 0.0326315 0.1
    endloop
  endfacet
  facet normal -0.980784 0.195096 0
    outer loop
       vertex 0.05188 0.0326315 0.1
       vertex 0.05826 0.064705 0.1
       vertex 0.05826 0.064705 0
    endloop
  endfacet
  facet normal -0.997858 0.0654098 0
    outer loop
       vertex 0.049741 8.32665e-17 0.1
       vertex 0.05188 0.0326315 0.1
       vertex 0.05188 0.0326315 0
    endloop
  endfacet
  facet normal -0.997858 0.0654098 -1.08928e-16
    outer loop
       vertex 0.05188 0.0326315 0
       vertex 0.049741 -8.32665e-17 0
       vertex 0.049741 8.32665e-17 0.1
    endloop
  endfacet
  facet normal -0.997858 -0.0654098 0
    outer loop
       vertex 0.049741 -8.32665e-17 0
       vertex 0.05188 -0.0326315 0
       vertex 0.05188 -0.0326315 0.1
    endloop
  endfacet
  facet normal -0.997858 -0.0654098 1.08928e-16
    outer loop
       vertex 0.05188 -0.0326315 0.1
       vertex 0.049741 8.32665e-17 0.1
       vertex 0.049741 -8.32665e-17 0
    endloop
  endfacet
  facet normal -0.980784 -0.195096 0
    outer loop
       vertex 0.05188 -0.0326315 0
       vertex 0.05826 -0.064705 0
       vertex 0.05826 -0.064705 0.1
    endloop
  endfacet
  facet normal -0.980784 -0.195096 0
    outer loop
       vertex 0.05826 -0.064705 0.1
       vertex 0.05188 -0.0326315 0.1
       vertex 0.05188 -0.0326315 0
    endloop
  endfacet
  facet normal -0.946935 -0.321425 0
    outer loop
       vertex 0.05826 -0.064705 0
       vertex 0.068771 -0.095671 0
       vertex 0.068771 -0.095671 0.1
    endloop
  endfacet
  facet normal -0.946935 -0.321425 0
    outer loop
       vertex 0.068771 -0.095671 0.1
       vertex 0.05826 -0.064705 0.1
       vertex 0.05826 -0.064705 0
    endloop
  endfacet
  facet normal -0.896866 -0.442302 0
    outer loop
       vertex 0.068771 -0.095671 0
       vertex 0.083235 -0.125 0
       vertex 0.083235 -0.125 0.1
    endloop
  endfacet
  facet normal -0.896866 -0.442302 0
    outer loop
       vertex 0.083235 -0.125 0.1
       vertex 0.068771 -0.095671 0.1
       vertex 0.068771 -0.095671 0
    endloop
  endfacet
  facet normal -0.831476 -0.555561 0
    outer loop
       vertex 0.083235 -0.125 0
       vertex 0.101403 -0.152191 0
       vertex 0.101403 -0.152191 0.1
    endloop
  endfacet
  facet normal -0.831476 -0.555561 0
    outer loop
       vertex 0.101403 -0.152191 0.1
       vertex 0.083235 -0.125 0.1
       vertex 0.083235 -0.125 0
    endloop
  endfacet
  facet normal -0.751817 -0.659372 0
    outer loop
       vertex 0.101403 -0.152191 0
       vertex 0.122965 -0.176776 0
       vertex 0.122965 -0.176776 0.1
    endloop
  endfacet
  facet normal -0.751817 -0.659372 0
    outer loop
       vertex 0.122965 -0.176776 0.1
       vertex 0.101403 -0.152191 0.1
       vertex 0.101403 -0.152191 0
    endloop
  endfacet
  facet normal 0.659372 -0.751817 0
    outer loop
       vertex 0.476517 -0.176776 0
       vertex 0.476517 -0.176776 0.1
       vertex 0.451932 -0.198338 0.1
    endloop
  endfacet
  facet normal 0.659372 -0.751817 0
    outer loop
       vertex 0.451932 -0.198338 0.1
       vertex 0.451932 -0.198338 0
       vertex 0.476517 -0.176776 0
    endloop
  endfacet
  facet normal 0.555561 -0.831476 0
    outer loop
       vertex 0.451932 -0.198338 0
       vertex 0.451932 -0.198338 0.1
       vertex 0.424741 -0.216506 0.1
    endloop
  endfacet
  facet normal 0.555561 -0.831476 0
    outer loop
       vertex 0.424741 -0.216506 0.1
       vertex 0.424741 -0.216506 0
       vertex 0.451932 -0.198338 0
    endloop
  endfacet
  facet normal 0.442302 -0.896866 0
    outer loop
       vertex 0.424741 -0.216506 0
       vertex 0.424741 -0.216506 0.1
       vertex 0.395412 -0.23097 0.1
    endloop
  endfacet
  facet normal 0.442302 -0.896866 0
    outer loop
       vertex 0.395412 -0.23097 0.1
       vertex 0.395412 -0.23097 0
       vertex 0.424741 -0.216506 0
    endloop
  endfacet
  facet normal 0.321425 -0.946935 0
    outer loop
       vertex 0.395412 -0.23097 0
       vertex 0.395412 -0.23097 0.1
       vertex 0.364446 -0.241481 0.1
    endloop
  endfacet
  facet normal 0.321425 -0.946935 0
    outer loop
       vertex 0.364446 -0.241481 0.1
       vertex 0.364446 -0.241481 0
       vertex 0.395412 -0.23097 0
    endloop
  endfacet
  facet normal 0.195096 -0.980784 0
    outer loop
       vertex 0.364446 -0.241481 0
       vertex 0.364446 -0.241481 0.1
       vertex 0.332372 -0.247861 0.1
    endloop
  endfacet
  facet normal 0.195096 -0.980784 0
    outer loop
       vertex 0.332372 -0.247861 0.1
       vertex 0.332372 -0.247861 0
       vertex 0.364446 -0.241481 0
    endloop
  endfacet
  facet normal 0.0654098 -0.997858 0
    outer loop
       vertex 0.299741 -0.25 0
       vertex 0.332372 -0.247861 0
       vertex 0.332372 -0.247861 0.1
    endloop
  endfacet
  facet normal 0.0654098 -0.997858 1.45239e-16
    outer loop
       vertex 0.332372 -0.247861 0.1
       vertex 0.299741 -0.25 0.1
       vertex 0.299741 -0.25 0
    endloop
  endfacet
  facet normal -0.0654098 -0.997858 0
    outer loop
       vertex 0.299741 -0.25 0.1
       vertex 0.267109 -0.247861 0.1
       vertex 0.267109 -0.247861 0
    endloop
  endfacet
  facet normal -0.0654098 -0.997858 -1.45239e-16
    outer loop
       vertex 0.267109 -0.247861 0
       vertex 0.299741 -0.25 0
       vertex 0.299741 -0.25 0.1
    endloop
  endfacet
  facet normal -0.195096 -0.980784 0
    outer loop
       vertex 0.267109 -0.247861 0
       vertex 0.267109 -0.247861 0.1
       vertex 0.235036 -0.241481 0.1
    endloop
  endfacet
  facet normal -0.195096 -0.980784 -0
    outer loop
       vertex 0.235036 -0.241481 0.1
       vertex 0.235036 -0.241481 0
       vertex 0.267109 -0.247861 0
    endloop
  endfacet
  facet normal -0.321425 -0.946935 0
    outer loop
       vertex 0.235036 -0.241481 0
       vertex 0.235036 -0.241481 0.1
       vertex 0.20407 -0.23097 0.1
    endloop
  endfacet
  facet normal -0.321425 -0.946935 -0
    outer loop
       vertex 0.20407 -0.23097 0.1
       vertex 0.20407 -0.23097 0
       vertex 0.235036 -0.241481 0
    endloop
  endfacet
  facet normal -0.442302 -0.896866 0
    outer loop
       vertex 0.20407 -0.23097 0
       vertex 0.20407 -0.23097 0.1
       vertex 0.174741 -0.216506 0.1
    endloop
  endfacet
  facet normal -0.442302 -0.896866 -0
    outer loop
       vertex 0.174741 -0.216506 0.1
       vertex 0.174741 -0.216506 0
       vertex 0.20407 -0.23097 0
    endloop
  endfacet
  facet normal -0.555561 -0.831476 0
    outer loop
       vertex 0.174741 -0.216506 0
       vertex 0.174741 -0.216506 0.1
       vertex 0.14755 -0.198338 0.1
    endloop
  endfacet
  facet normal -0.555561 -0.831476 -0
    outer loop
       vertex 0.14755 -0.198338 0.1
       vertex 0.14755 -0.198338 0
       vertex 0.174741 -0.216506 0
    endloop
  endfacet
  facet normal -0.659372 -0.751817 0
    outer loop
       vertex 0.14755 -0.198338 0
       vertex 0.14755 -0.198338 0.1
       vertex 0.122965 -0.176776 0.1
    endloop
  endfacet
  facet normal -0.659372 -0.751817 -0
    outer loop
       vertex 0.122965 -0.176776 0.1
       vertex 0.122965 -0.176776 0
       vertex 0.14755 -0.198338 0
    endloop
  endfacet
endsolid cylinder
