solid cylinder
  facet normal 0.751817 -0.659372 0
    outer loop
       vertex -0.101423 -0.176776 0
       vertex -0.0798606 -0.152191 0
       vertex -0.0798606 -0.152191 0.1
    endloop
  endfacet
  facet normal 0.751817 -0.659372 0
    outer loop
       vertex -0.0798606 -0.152191 0.1
       vertex -0.101423 -0.176776 0.1
       vertex -0.101423 -0.176776 0
    endloop
  endfacet
  facet normal 0.831476 -0.555561 0
    outer loop
       vertex -0.0798606 -0.152191 0
       vertex -0.0616926 -0.125 0
       vertex -0.0616926 -0.125 0.1
    endloop
  endfacet
  facet normal 0.831476 -0.555561 0
    outer loop
       vertex -0.0616926 -0.125 0.1
       vertex -0.0798606 -0.152191 0.1
       vertex -0.0798606 -0.152191 0
    endloop
  endfacet
  facet normal 0.896866 -0.442302 0
    outer loop
       vertex -0.0616926 -0.125 0
       vertex -0.0472286 -0.095671 0
       vertex -0.0472286 -0.095671 0.1
    endloop
  endfacet
  facet normal 0.896866 -0.442302 0
    outer loop
       vertex -0.0472286 -0.095671 0.1
       vertex -0.0616926 -0.125 0.1
       vertex -0.0616926 -0.125 0
    endloop
  endfacet
  facet normal 0.946935 -0.321425 0
    outer loop
       vertex -0.0472286 -0.095671 0
       vertex -0.0367176 -0.064705 0
       vertex -0.0367176 -0.064705 0.1
    endloop
  endfacet
  facet normal 0.946935 -0.321425 0
    outer loop
       vertex -0.0367176 -0.064705 0.1
       vertex -0.0472286 -0.095671 0.1
       vertex -0.0472286 -0.095671 0
    endloop
  endfacet
  facet normal 0.980784 -0.195096 0
    outer loop
       vertex -0.0367176 -0.064705 0
       vertex -0.0303376 -0.0326315 0
       vertex -0.0303376 -0.0326315 0.1
    endloop
  endfacet
  facet normal 0.980784 -0.195096 0
    outer loop
       vertex -0.0303376 -0.0326315 0.1
       vertex -0.0367176 -0.064705 0.1
       vertex -0.0367176 -0.064705 0
    endloop
  endfacet
  facet normal 0.997858 -0.0654098 0
    outer loop
       vertex -0.0281986 -8.32665e-17 0.1
       vertex -0.0303376 -0.0326315 0.1
       vertex -0.0303376 -0.0326315 0
    endloop
  endfacet
  facet normal 0.997858 -0.0654098 -1.08928e-16
    outer loop
       vertex -0.0303376 -0.0326315 0
       vertex -0.0281986 8.32665e-17 0
       vertex -0.0281986 -8.32665e-17 0.1
    endloop
  endfacet
  facet normal 0.997858 0.0654098 0
    outer loop
       vertex -0.0281986 8.32665e-17 0
       vertex -0.0303376 0.0326315 0
       vertex -0.0303376 0.0326315 0.1
    endloop
  endfacet
  facet normal 0.997858 0.0654098 1.08928e-16
    outer loop
       vertex -0.0303376 0.0326315 0.1
       vertex -0.0281986 -8.32665e-17 0.1
       vertex -0.0281986 8.32665e-17 0
    endloop
  endfacet
  facet normal 0.980784 0.195096 0
    outer loop
       vertex -0.0303376 0.0326315 0
       vertex -0.0367176 0.064705 0
       vertex -0.0367176 0.064705 0.1
    endloop
  endfacet
  facet normal 0.980784 0.195096 0
    outer loop
       vertex -0.0367176 0.064705 0.1
       vertex -0.0303376 0.0326315 0.1
       vertex -0.0303376 0.0326315 0
    endloop
  endfacet
  facet normal 0.946935 0.321425 0
    outer loop
       vertex -0.0367176 0.064705 0
       vertex -0.0472286 0.095671 0
       vertex -0.0472286 0.095671 0.1
    endloop
  endfacet
  facet normal 0.946935 0.321425 0
    outer loop
       vertex -0.0472286 0.095671 0.1
       vertex -0.0367176 0.064705 0.1
       vertex -0.0367176 0.064705 0
    endloop
  endfacet
  facet normal 0.896866 0.442302 0
    outer loop
       vertex -0.0472286 0.095671 0
       vertex -0.0616926 0.125 0
       vertex -0.0616926 0.125 0.1
    endloop
  endfacet
  facet normal 0.896866 0.442302 0
    outer loop
       vertex -0.0616926 0.125 0.1
       vertex -0.0472286 0.095671 0.1
       vertex -0.0472286 0.095671 0
    endloop
  endfacet
  facet normal 0.831476 0.555561 0
    outer loop
       vertex -0.0616926 0.125 0
       vertex -0.0798606 0.152191 0
       vertex -0.0798606 0.152191 0.1
    endloop
  endfacet
  facet normal 0.831476 0.555561 0
    outer loop
       vertex -0.0798606 0.152191 0.1
       vertex -0.0616926 0.125 0.1
       vertex -0.0616926 0.125 0
    endloop
  endfacet
  facet normal 0.751817 0.659372 0
    outer loop
       vertex -0.0798606 0.152191 0
       vertex -0.101423 0.176776 0
       vertex -0.101423 0.176776 0.1
    endloop
  endfacet
  facet normal 0.751817 0.659372 0
    outer loop
       vertex -0.101423 0.176776 0.1
       vertex -0.0798606 0.152191 0.1
       vertex -0.0798606 0.152191 0
    endloop
  endfacet
  facet normal 0.659372 0.751817 0
    outer loop
       vertex -0.101423 0.176776 0
       vertex -0.126008 0.198338 0
       vertex -0.126008 0.198338 0.1
    endloop
  endfacet
  facet normal 0.659372 0.751817 0
    outer loop
       vertex -0.126008 0.198338 0.1
       vertex -0.101423 0.176776 0.1
       vertex -0.101423 0.176776 0
    endloop
  endfacet
  facet normal 0.555561 0.831476 0
    outer loop
       vertex -0.126008 0.198338 0
       vertex -0.153199 0.216506 0
       vertex -0.153199 0.216506 0.1
    endloop
  endfacet
  facet normal 0.555561 0.831476 0
    outer loop
       vertex -0.153199 0.216506 0.1
       vertex -0.126008 0.198338 0.1
       vertex -0.126008 0.198338 0
    endloop
  endfacet
  facet normal 0.442302 0.896866 0
    outer loop
       vertex -0.153199 0.216506 0
       vertex -0.182528 0.23097 0
       vertex -0.182528 0.23097 0.1
    endloop
  endfacet
  facet normal 0.442302 0.896866 0
    outer loop
       vertex -0.182528 0.23097 0.1
       vertex -0.153199 0.216506 0.1
       vertex -0.153199 0.216506 0
    endloop
  endfacet
  facet normal 0.321425 0.946935 0
    outer loop
       vertex -0.182528 0.23097 0
       vertex -0.213494 0.241481 0
       vertex -0.213494 0.241481 0.1
    endloop
  endfacet
  facet normal 0.321425 0.946935 0
    outer loop
       vertex -0.213494 0.241481 0.1
       vertex -0.182528 0.23097 0.1
       vertex -0.182528 0.23097 0
    endloop
  endfacet
  facet normal 0.195096 0.980784 0
    outer loop
       vertex -0.213494 0.241481 0
       vertex -0.245567 0.247861 0
       vertex -0.245567 0.247861 0.1
    endloop
  endfacet
  facet normal 0.195096 0.980784 0
    outer loop
       vertex -0.245567 0.247861 0.1
       vertex -0.213494 0.241481 0.1
       vertex -0.213494 0.241481 0
    endloop
  endfacet
  facet normal 0.0654098 0.997858 0
    outer loop
       vertex -0.278199 0.25 0.1
       vertex -0.245567 0.247861 0.1
       vertex -0.245567 0.247861 0
    endloop
  endfacet
  facet normal 0.0654098 0.997858 -1.45239e-16
    outer loop
       vertex -0.245567 0.247861 0
       vertex -0.278199 0.25 0
       vertex -0.278199 0.25 0.1
    endloop
  endfacet
  facet normal -0.0654098 0.997858 0
    outer loop
       vertex -0.278199 0.25 0
       vertex -0.31083 0.247861 0
       vertex -0.31083 0.247861 0.1
    endloop
  endfacet
  facet normal -0.0654098 0.997858 1.45239e-16
    outer loop
       vertex -0.31083 0.247861 0.1
       vertex -0.278199 0.25 0.1
       vertex -0.278199 0.25 0
    endloop
  endfacet
  facet normal -0.195096 0.980784 0
    outer loop
       vertex -0.31083 0.247861 0
       vertex -0.342904 0.241481 0
       vertex -0.342904 0.241481 0.1
    endloop
  endfacet
  facet normal -0.195096 0.980784 0
    outer loop
       vertex -0.342904 0.241481 0.1
       vertex -0.31083 0.247861 0.1
       vertex -0.31083 0.247861 0
    endloop
  endfacet
  facet normal -0.321425 0.946935 0
    outer loop
       vertex -0.342904 0.241481 0
       vertex -0.37387 0.23097 0
       vertex -0.37387 0.23097 0.1
    endloop
  endfacet
  facet normal -0.321425 0.946935 0
    outer loop
       vertex -0.37387 0.23097 0.1
       vertex -0.342904 0.241481 0.1
       vertex -0.342904 0.241481 0
    endloop
  endfacet
  facet normal -0.442302 0.896866 0
    outer loop
       vertex -0.37387 0.23097 0
       vertex -0.403199 0.216506 0
       vertex -0.403199 0.216506 0.1
    endloop
  endfacet
  facet normal -0.442302 0.896866 0
    outer loop
       vertex -0.403199 0.216506 0.1
       vertex -0.37387 0.23097 0.1
       vertex -0.37387 0.23097 0
    endloop
  endfacet
  facet normal -0.555561 0.831476 0
    outer loop
       vertex -0.403199 0.216506 0
       vertex -0.43039 0.198338 0
       vertex -0.43039 0.198338 0.1
    endloop
  endfacet
  facet normal -0.555561 0.831476 0
    outer loop
       vertex -0.43039 0.198338 0.1
       vertex -0.403199 0.216506 0.1
       vertex -0.403199 0.216506 0
    endloop
  endfacet
  facet normal -0.659372 0.751817 0
    outer loop
       vertex -0.43039 0.198338 0
       vertex -0.454975 0.176776 0
       vertex -0.454975 0.176776 0.1
    endloop
  endfacet
  facet normal -0.659372 0.751817 0
    outer loop
       vertex -0.454975 0.176776 0.1
       vertex -0.43039 0.198338 0.1
       vertex -0.43039 0.198338 0
    endloop
  endfacet
  facet normal -0.751817 0.659372 0
    outer loop
       vertex -0.454975 0.176776 0
       vertex -0.476537 0.152191 0
       vertex -0.476537 0.152191 0.1
    endloop
  endfacet
  facet normal -0.751817 0.659372 0
    outer loop
       vertex -0.476537 0.152191 0.1
       vertex -0.454975 0.176776 0.1
       vertex -0.454975 0.176776 0
    endloop
  endfacet
  facet normal -0.831476 0.555561 0
    outer loop
       vertex -0.476537 0.152191 0
       vertex -0.494705 0.125 0
       vertex -0.494705 0.125 0.1
    endloop
  endfacet
  facet normal -0.831476 0.555561 0
    outer loop
       vertex -0.494705 0.125 0.1
       vertex -0.476537 0.152191 0.1
       vertex -0.476537 0.152191 0
    endloop
  endfacet
  facet normal -0.896866 0.442302 0
    outer loop
       vertex -0.494705 0.125 0
       vertex -0.509169 0.095671 0
       vertex -0.509169 0.095671 0.1
    endloop
  endfacet
  facet normal -0.896866 0.442302 0
    outer loop
       vertex -0.509169 0.095671 0.1
       vertex -0.494705 0.125 0.1
       vertex -0.494705 0.125 0
    endloop
  endfacet
  facet normal -0.946935 0.321425 0
    outer loop
       vertex -0.509169 0.095671 0
       vertex -0.51968 0.064705 0
       vertex -0.51968 0.064705 0.1
    endloop
  endfacet
  facet normal -0.946935 0.321425 0
    outer loop
       vertex -0.51968 0.064705 0.1
       vertex -0.509169 0.095671 0.1
       vertex -0.509169 0.095671 0
    endloop
  endfacet
  facet normal -0.980784 0.195096 0
    outer loop
       vertex -0.51968 0.064705 0
       vertex -0.52606 0.0326315 0
       vertex -0.52606 0.0326315 0.1
    endloop
  endfacet
  facet normal -0.980784 0.195096 0
    outer loop
       vertex -0.52606 0.0326315 0.1
       vertex -0.51968 0.064705 0.1
       vertex -0.51968 0.064705 0
    endloop
  endfacet
  facet normal -0.997858 0.0654098 0
    outer loop
       vertex -0.528199 8.32665e-17 0.1
       vertex -0.52606 0.0326315 0.1
       vertex -0.52606 0.0326315 0
    endloop
  endfacet
  facet normal -0.997858 0.0654098 -1.08928e-16
    outer loop
       vertex -0.52606 0.0326315 0
       vertex -0.528199 -8.32665e-17 0
       vertex -0.528199 8.32665e-17 0.1
    endloop
  endfacet
  facet normal -0.997858 -0.0654098 0
    outer loop
       vertex -0.528199 -8.32665e-17 0
       vertex -0.52606 -0.0326315 0
       vertex -0.52606 -0.0326315 0.1
    endloop
  endfacet
  facet normal -0.997858 -0.0654098 1.08928e-16
    outer loop
       vertex -0.52606 -0.0326315 0.1
       vertex -0.528199 8.32665e-17 0.1
       vertex -0.528199 -8.32665e-17 0
    endloop
  endfacet
  facet normal -0.980784 -0.195096 0
    outer loop
       vertex -0.52606 -0.0326315 0
       vertex -0.51968 -0.064705 0
       vertex -0.51968 -0.064705 0.1
    endloop
  endfacet
  facet normal -0.980784 -0.195096 0
    outer loop
       vertex -0.51968 -0.064705 0.1
       vertex -0.52606 -0.0326315 0.1
       vertex -0.52606 -0.0326315 0
    endloop
  endfacet
  facet normal -0.946935 -0.321425 0
    outer loop
       vertex -0.51968 -0.064705 0
       vertex -0.509169 -0.095671 0
       vertex -0.509169 -0.095671 0.1
    endloop
  endfacet
  facet normal -0.946935 -0.321425 0
    outer loop
       vertex -0.509169 -0.095671 0.1
       vertex -0.51968 -0.064705 0.1
       vertex -0.51968 -0.064705 0
    endloop
  endfacet
  facet normal -0.896866 -0.442302 0
    outer loop
       vertex -0.509169 -0.095671 0
       vertex -0.494705 -0.125 0
       vertex -0.494705 -0.125 0.1
    endloop
  endfacet
  facet normal -0.896866 -0.442302 0
    outer loop
       vertex -0.494705 -0.125 0.1
       vertex -0.509169 -0.095671 0.1
       vertex -0.509169 -0.095671 0
    endloop
  endfacet
  facet normal -0.831476 -0.555561 0
    outer loop
       vertex -0.494705 -0.125 0
       vertex -0.476537 -0.152191 0
       vertex -0.476537 -0.152191 0.1
    endloop
  endfacet
  facet normal -0.831476 -0.555561 0
    outer loop
       vertex -0.476537 -0.152191 0.1
       vertex -0.494705 -0.125 0.1
       vertex -0.494705 -0.125 0
    endloop
  endfacet
  facet normal -0.751817 -0.659372 0
    outer loop
       vertex -0.476537 -0.152191 0
       vertex -0.454975 -0.176776 0
       vertex -0.454975 -0.176776 0.1
    endloop
  endfacet
  facet normal -0.751817 -0.659372 0
    outer loop
       vertex -0.454975 -0.176776 0.1
       vertex -0.476537 -0.152191 0.1
       vertex -0.476537 -0.152191 0
    endloop
  endfacet
  facet normal 0.659372 -0.751817 0
    outer loop
       vertex -0.101423 -0.176776 0
       vertex -0.101423 -0.176776 0.1
       vertex -0.126008 -0.198338 0.1
    endloop
  endfacet
  facet normal 0.659372 -0.751817 0
    outer loop
       vertex -0.126008 -0.198338 0.1
       vertex -0.126008 -0.198338 0
       vertex -0.101423 -0.176776 0
    endloop
  endfacet
  facet normal 0.555561 -0.831476 0
    outer loop
       vertex -0.126008 -0.198338 0
       vertex -0.126008 -0.198338 0.1
       vertex -0.153199 -0.216506 0.1
    endloop
  endfacet
  facet normal 0.555561 -0.831476 0
    outer loop
       vertex -0.153199 -0.216506 0.1
       vertex -0.153199 -0.216506 0
       vertex -0.126008 -0.198338 0
    endloop
  endfacet
  facet normal 0.442302 -0.896866 0
    outer loop
       vertex -0.153199 -0.216506 0
       vertex -0.153199 -0.216506 0.1
       vertex -0.182528 -0.23097 0.1
    endloop
  endfacet
  facet normal 0.442302 -0.896866 0
    outer loop
       vertex -0.182528 -0.23097 0.1
       vertex -0.182528 -0.23097 0
       vertex -0.153199 -0.216506 0
    endloop
  endfacet
  facet normal 0.321425 -0.946935 0
    outer loop
       vertex -0.182528 -0.23097 0
       vertex -0.182528 -0.23097 0.1
       vertex -0.213494 -0.241481 0.1
    endloop
  endfacet
  facet normal 0.321425 -0.946935 0
    outer loop
       vertex -0.213494 -0.241481 0.1
       vertex -0.213494 -0.241481 0
       vertex -0.182528 -0.23097 0
    endloop
  endfacet
  facet normal 0.195096 -0.980784 0
    outer loop
       vertex -0.213494 -0.241481 0
       vertex -0.213494 -0.241481 0.1
       vertex -0.245567 -0.247861 0.1
    endloop
  endfacet
  facet normal 0.195096 -0.980784 0
    outer loop
       vertex -0.245567 -0.247861 0.1
       vertex -0.245567 -0.247861 0
       vertex -0.213494 -0.241481 0
    endloop
  endfacet
  facet normal 0.0654098 -0.997858 0
    outer loop
       vertex -0.278199 -0.25 0
       vertex -0.245567 -0.247861 0
       vertex -0.245567 -0.247861 0.1
    endloop
  endfacet
  facet normal 0.0654098 -0.997858 1.45239e-16
    outer loop
       vertex -0.245567 -0.247861 0.1
       vertex -0.278199 -0.25 0.1
       vertex -0.278199 -0.25 0
    endloop
  endfacet
  facet normal -0.0654098 -0.997858 0
    outer loop
       vertex -0.278199 -0.25 0.1
       vertex -0.31083 -0.247861 0.1
       vertex -0.31083 -0.247861 0
    endloop
  endfacet
  facet normal -0.0654098 -0.997858 -1.45239e-16
    outer loop
       vertex -0.31083 -0.247861 0
       vertex -0.278199 -0.25 0
       vertex -0.278199 -0.25 0.1
    endloop
  endfacet
  facet normal -0.195096 -0.980784 0
    outer loop
       vertex -0.31083 -0.247861 0
       vertex -0.31083 -0.247861 0.1
       vertex -0.342904 -0.241481 0.1
    endloop
  endfacet
  facet normal -0.195096 -0.980784 -0
    outer loop
       vertex -0.342904 -0.241481 0.1
       vertex -0.342904 -0.241481 0
       vertex -0.31083 -0.247861 0
    endloop
  endfacet
  facet normal -0.321425 -0.946935 0
    outer loop
       vertex -0.342904 -0.241481 0
       vertex -0.342904 -0.241481 0.1
       vertex -0.37387 -0.23097 0.1
    endloop
  endfacet
  facet normal -0.321425 -0.946935 -0
    outer loop
       vertex -0.37387 -0.23097 0.1
       vertex -0.37387 -0.23097 0
       vertex -0.342904 -0.241481 0
    endloop
  endfacet
  facet normal -0.442302 -0.896866 0
    outer loop
       vertex -0.37387 -0.23097 0
       vertex -0.37387 -0.23097 0.1
       vertex -0.403199 -0.216506 0.1
    endloop
  endfacet
  facet normal -0.442302 -0.896866 -0
    outer loop
       vertex -0.403199 -0.216506 0.1
       vertex -0.403199 -0.216506 0
       vertex -0.37387 -0.23097 0
    endloop
  endfacet
  facet normal -0.555561 -0.831476 0
    outer loop
       vertex -0.403199 -0.216506 0
       vertex -0.403199 -0.216506 0.1
       vertex -0.43039 -0.198338 0.1
    endloop
  endfacet
  facet normal -0.555561 -0.831476 -0
    outer loop
       vertex -0.43039 -0.198338 0.1
       vertex -0.43039 -0.198338 0
       vertex -0.403199 -0.216506 0
    endloop
  endfacet
  facet normal -0.659372 -0.751817 0
    outer loop
       vertex -0.43039 -0.198338 0
       vertex -0.43039 -0.198338 0.1
       vertex -0.454975 -0.176776 0.1
    endloop
  endfacet
  facet normal -0.659372 -0.751817 -0
    outer loop
       vertex -0.454975 -0.176776 0.1
       vertex -0.454975 -0.176776 0
       vertex -0.43039 -0.198338 0
    endloop
  endfacet
endsolid cylinder
