solid cylinder
  facet normal 0.751817 -0.659372 0
    outer loop
       vertex 0.318346 -0.176776 0
       vertex 0.339908 -0.152191 0
       vertex 0.339908 -0.152191 0.1
    endloop
  endfacet
  facet normal 0.751817 -0.659372 0
    outer loop
       vertex 0.339908 -0.152191 0.1
       vertex 0.318346 -0.176776 0.1
       vertex 0.318346 -0.176776 0
    endloop
  endfacet
  facet normal 0.831476 -0.555561 0
    outer loop
       vertex 0.339908 -0.152191 0
       vertex 0.358076 -0.125 0
       vertex 0.358076 -0.125 0.1
    endloop
  endfacet
  facet normal 0.831476 -0.555561 0
    outer loop
       vertex 0.358076 -0.125 0.1
       vertex 0.339908 -0.152191 0.1
       vertex 0.339908 -0.152191 0
    endloop
  endfacet
  facet normal 0.896866 -0.442302 0
    outer loop
       vertex 0.358076 -0.125 0
       vertex 0.37254 -0.095671 0
       vertex 0.37254 -0.095671 0.1
    endloop
  endfacet
  facet normal 0.896866 -0.442302 0
    outer loop
       vertex 0.37254 -0.095671 0.1
       vertex 0.358076 -0.125 0.1
       vertex 0.358076 -0.125 0
    endloop
  endfacet
  facet normal 0.946935 -0.321425 0
    outer loop
       vertex 0.37254 -0.095671 0
       vertex 0.383051 -0.064705 0
       vertex 0.383051 -0.064705 0.1
    endloop
  endfacet
  facet normal 0.946935 -0.321425 0
    outer loop
       vertex 0.383051 -0.064705 0.1
       vertex 0.37254 -0.095671 0.1
       vertex 0.37254 -0.095671 0
    endloop
  endfacet
  facet normal 0.980784 -0.195096 0
    outer loop
       vertex 0.383051 -0.064705 0
       vertex 0.389431 -0.0326315 0
       vertex 0.389431 -0.0326315 0.1
    endloop
  endfacet
  facet normal 0.980784 -0.195096 0
    outer loop
       vertex 0.389431 -0.0326315 0.1
       vertex 0.383051 -0.064705 0.1
       vertex 0.383051 -0.064705 0
    endloop
  endfacet
  facet normal 0.997858 -0.0654098 0
    outer loop
       vertex 0.39157 -8.32665e-17 0.1
       vertex 0.389431 -0.0326315 0.1
       vertex 0.389431 -0.0326315 0
    endloop
  endfacet
  facet normal 0.997858 -0.0654098 -1.08928e-16
    outer loop
       vertex 0.389431 -0.0326315 0
       vertex 0.39157 8.32665e-17 0
       vertex 0.39157 -8.32665e-17 0.1
    endloop
  endfacet
  facet normal 0.997858 0.0654098 0
    outer loop
       vertex 0.39157 8.32665e-17 0
       vertex 0.389431 0.0326315 0
       vertex 0.389431 0.0326315 0.1
    endloop
  endfacet
  facet normal 0.997858 0.0654098 1.08928e-16
    outer loop
       vertex 0.389431 0.0326315 0.1
       vertex 0.39157 -8.32665e-17 0.1
       vertex 0.39157 8.32665e-17 0
    endloop
  endfacet
  facet normal 0.980784 0.195096 0
    outer loop
       vertex 0.389431 0.0326315 0
       vertex 0.383051 0.064705 0
       vertex 0.383051 0.064705 0.1
    endloop
  endfacet
  facet normal 0.980784 0.195096 0
    outer loop
       vertex 0.383051 0.064705 0.1
       vertex 0.389431 0.0326315 0.1
       vertex 0.389431 0.0326315 0
    endloop
  endfacet
  facet normal 0.946935 0.321425 0
    outer loop
       vertex 0.383051 0.064705 0
       vertex 0.37254 0.095671 0
       vertex 0.37254 0.095671 0.1
    endloop
  endfacet
  facet normal 0.946935 0.321425 0
    outer loop
       vertex 0.37254 0.095671 0.1
       vertex 0.383051 0.064705 0.1
       vertex 0.383051 0.064705 0
    endloop
  endfacet
  facet normal 0.896866 0.442302 0
    outer loop
       vertex 0.37254 0.095671 0
       vertex 0.358076 0.125 0
       vertex 0.358076 0.125 0.1
    endloop
  endfacet
  facet normal 0.896866 0.442302 0
    outer loop
       vertex 0.358076 0.125 0.1
       vertex 0.37254 0.095671 0.1
       vertex 0.37254 0.095671 0
    endloop
  endfacet
  facet normal 0.831476 0.555561 0
    outer loop
       vertex 0.358076 0.125 0
       vertex 0.339908 0.152191 0
       vertex 0.339908 0.152191 0.1
    endloop
  endfacet
  facet normal 0.831476 0.555561 0
    outer loop
       vertex 0.339908 0.152191 0.1
       vertex 0.358076 0.125 0.1
       vertex 0.358076 0.125 0
    endloop
  endfacet
  facet normal 0.751817 0.659372 0
    outer loop
       vertex 0.339908 0.152191 0
       vertex 0.318346 0.176776 0
       vertex 0.318346 0.176776 0.1
    endloop
  endfacet
  facet normal 0.751817 0.659372 0
    outer loop
       vertex 0.318346 0.176776 0.1
       vertex 0.339908 0.152191 0.1
       vertex 0.339908 0.152191 0
    endloop
  endfacet
  facet normal 0.659372 0.751817 0
    outer loop
       vertex 0.318346 0.176776 0
       vertex 0.293761 0.198338 0
       vertex 0.293761 0.198338 0.1
    endloop
  endfacet
  facet normal 0.659372 0.751817 0
    outer loop
       vertex 0.293761 0.198338 0.1
       vertex 0.318346 0.176776 0.1
       vertex 0.318346 0.176776 0
    endloop
  endfacet
  facet normal 0.555561 0.831476 0
    outer loop
       vertex 0.293761 0.198338 0
       vertex 0.26657 0.216506 0
       vertex 0.26657 0.216506 0.1
    endloop
  endfacet
  facet normal 0.555561 0.831476 0
    outer loop
       vertex 0.26657 0.216506 0.1
       vertex 0.293761 0.198338 0.1
       vertex 0.293761 0.198338 0
    endloop
  endfacet
  facet normal 0.442302 0.896866 0
    outer loop
       vertex 0.26657 0.216506 0
       vertex 0.237241 0.23097 0
       vertex 0.237241 0.23097 0.1
    endloop
  endfacet
  facet normal 0.442302 0.896866 0
    outer loop
       vertex 0.237241 0.23097 0.1
       vertex 0.26657 0.216506 0.1
       vertex 0.26657 0.216506 0
    endloop
  endfacet
  facet normal 0.321425 0.946935 0
    outer loop
       vertex 0.237241 0.23097 0
       vertex 0.206275 0.241481 0
       vertex 0.206275 0.241481 0.1
    endloop
  endfacet
  facet normal 0.321425 0.946935 0
    outer loop
       vertex 0.206275 0.241481 0.1
       vertex 0.237241 0.23097 0.1
       vertex 0.237241 0.23097 0
    endloop
  endfacet
  facet normal 0.195096 0.980784 0
    outer loop
       vertex 0.206275 0.241481 0
       vertex 0.174202 0.247861 0
       vertex 0.174202 0.247861 0.1
    endloop
  endfacet
  facet normal 0.195096 0.980784 0
    outer loop
       vertex 0.174202 0.247861 0.1
       vertex 0.206275 0.241481 0.1
       vertex 0.206275 0.241481 0
    endloop
  endfacet
  facet normal 0.0654098 0.997858 0
    outer loop
       vertex 0.14157 0.25 0.1
       vertex 0.174202 0.247861 0.1
       vertex 0.174202 0.247861 0
    endloop
  endfacet
  facet normal 0.0654098 0.997858 -1.0893e-16
    outer loop
       vertex 0.174202 0.247861 0
       vertex 0.14157 0.25 0
       vertex 0.14157 0.25 0.1
    endloop
  endfacet
  facet normal -0.0654098 0.997858 0
    outer loop
       vertex 0.14157 0.25 0
       vertex 0.108939 0.247861 0
       vertex 0.108939 0.247861 0.1
    endloop
  endfacet
  facet normal -0.0654098 0.997858 1.0893e-16
    outer loop
       vertex 0.108939 0.247861 0.1
       vertex 0.14157 0.25 0.1
       vertex 0.14157 0.25 0
    endloop
  endfacet
  facet normal -0.195096 0.980784 0
    outer loop
       vertex 0.108939 0.247861 0
       vertex 0.076865 0.241481 0
       vertex 0.076865 0.241481 0.1
    endloop
  endfacet
  facet normal -0.195096 0.980784 0
    outer loop
       vertex 0.076865 0.241481 0.1
       vertex 0.108939 0.247861 0.1
       vertex 0.108939 0.247861 0
    endloop
  endfacet
  facet normal -0.321425 0.946935 0
    outer loop
       vertex 0.076865 0.241481 0
       vertex 0.045899 0.23097 0
       vertex 0.045899 0.23097 0.1
    endloop
  endfacet
  facet normal -0.321425 0.946935 0
    outer loop
       vertex 0.045899 0.23097 0.1
       vertex 0.076865 0.241481 0.1
       vertex 0.076865 0.241481 0
    endloop
  endfacet
  facet normal -0.442302 0.896866 0
    outer loop
       vertex 0.045899 0.23097 0
       vertex 0.01657 0.216506 0
       vertex 0.01657 0.216506 0.1
    endloop
  endfacet
  facet normal -0.442302 0.896866 0
    outer loop
       vertex 0.01657 0.216506 0.1
       vertex 0.045899 0.23097 0.1
       vertex 0.045899 0.23097 0
    endloop
  endfacet
  facet normal -0.555561 0.831476 0
    outer loop
       vertex 0.01657 0.216506 0
       vertex -0.010621 0.198338 0
       vertex -0.010621 0.198338 0.1
    endloop
  endfacet
  facet normal -0.555561 0.831476 0
    outer loop
       vertex -0.010621 0.198338 0.1
       vertex 0.01657 0.216506 0.1
       vertex 0.01657 0.216506 0
    endloop
  endfacet
  facet normal -0.659372 0.751817 0
    outer loop
       vertex -0.010621 0.198338 0
       vertex -0.035206 0.176776 0
       vertex -0.035206 0.176776 0.1
    endloop
  endfacet
  facet normal -0.659372 0.751817 0
    outer loop
       vertex -0.035206 0.176776 0.1
       vertex -0.010621 0.198338 0.1
       vertex -0.010621 0.198338 0
    endloop
  endfacet
  facet normal -0.751817 0.659372 0
    outer loop
       vertex -0.035206 0.176776 0
       vertex -0.056768 0.152191 0
       vertex -0.056768 0.152191 0.1
    endloop
  endfacet
  facet normal -0.751817 0.659372 0
    outer loop
       vertex -0.056768 0.152191 0.1
       vertex -0.035206 0.176776 0.1
       vertex -0.035206 0.176776 0
    endloop
  endfacet
  facet normal -0.831476 0.555561 0
    outer loop
       vertex -0.056768 0.152191 0
       vertex -0.074936 0.125 0
       vertex -0.074936 0.125 0.1
    endloop
  endfacet
  facet normal -0.831476 0.555561 0
    outer loop
       vertex -0.074936 0.125 0.1
       vertex -0.056768 0.152191 0.1
       vertex -0.056768 0.152191 0
    endloop
  endfacet
  facet normal -0.896866 0.442302 0
    outer loop
       vertex -0.074936 0.125 0
       vertex -0.0894 0.095671 0
       vertex -0.0894 0.095671 0.1
    endloop
  endfacet
  facet normal -0.896866 0.442302 0
    outer loop
       vertex -0.0894 0.095671 0.1
       vertex -0.074936 0.125 0.1
       vertex -0.074936 0.125 0
    endloop
  endfacet
  facet normal -0.946935 0.321425 0
    outer loop
       vertex -0.0894 0.095671 0
       vertex -0.099911 0.064705 0
       vertex -0.099911 0.064705 0.1
    endloop
  endfacet
  facet normal -0.946935 0.321425 0
    outer loop
       vertex -0.099911 0.064705 0.1
       vertex -0.0894 0.095671 0.1
       vertex -0.0894 0.095671 0
    endloop
  endfacet
  facet normal -0.980784 0.195096 0
    outer loop
       vertex -0.099911 0.064705 0
       vertex -0.106291 0.0326315 0
       vertex -0.106291 0.0326315 0.1
    endloop
  endfacet
  facet normal -0.980784 0.195096 0
    outer loop
       vertex -0.106291 0.0326315 0.1
       vertex -0.099911 0.064705 0.1
       vertex -0.099911 0.064705 0
    endloop
  endfacet
  facet normal -0.997858 0.0654098 0
    outer loop
       vertex -0.10843 8.32665e-17 0.1
       vertex -0.106291 0.0326315 0.1
       vertex -0.106291 0.0326315 0
    endloop
  endfacet
  facet normal -0.997858 0.0654098 -1.08928e-16
    outer loop
       vertex -0.106291 0.0326315 0
       vertex -0.10843 -8.32665e-17 0
       vertex -0.10843 8.32665e-17 0.1
    endloop
  endfacet
  facet normal -0.997858 -0.0654098 0
    outer loop
       vertex -0.10843 -8.32665e-17 0
       vertex -0.106291 -0.0326315 0
       vertex -0.106291 -0.0326315 0.1
    endloop
  endfacet
  facet normal -0.997858 -0.0654098 1.08928e-16
    outer loop
       vertex -0.106291 -0.0326315 0.1
       vertex -0.10843 8.32665e-17 0.1
       vertex -0.10843 -8.32665e-17 0
    endloop
  endfacet
  facet normal -0.980784 -0.195096 0
    outer loop
       vertex -0.106291 -0.0326315 0
       vertex -0.099911 -0.064705 0
       vertex -0.099911 -0.064705 0.1
    endloop
  endfacet
  facet normal -0.980784 -0.195096 0
    outer loop
       vertex -0.099911 -0.064705 0.1
       vertex -0.106291 -0.0326315 0.1
       vertex -0.106291 -0.0326315 0
    endloop
  endfacet
  facet normal -0.946935 -0.321425 0
    outer loop
       vertex -0.099911 -0.064705 0
       vertex -0.0894 -0.095671 0
       vertex -0.0894 -0.095671 0.1
    endloop
  endfacet
  facet normal -0.946935 -0.321425 0
    outer loop
       vertex -0.0894 -0.095671 0.1
       vertex -0.099911 -0.064705 0.1
       vertex -0.099911 -0.064705 0
    endloop
  endfacet
  facet normal -0.896866 -0.442302 0
    outer loop
       vertex -0.0894 -0.095671 0
       vertex -0.074936 -0.125 0
       vertex -0.074936 -0.125 0.1
    endloop
  endfacet
  facet normal -0.896866 -0.442302 0
    outer loop
       vertex -0.074936 -0.125 0.1
       vertex -0.0894 -0.095671 0.1
       vertex -0.0894 -0.095671 0
    endloop
  endfacet
  facet normal -0.831476 -0.555561 0
    outer loop
       vertex -0.074936 -0.125 0
       vertex -0.056768 -0.152191 0
       vertex -0.056768 -0.152191 0.1
    endloop
  endfacet
  facet normal -0.831476 -0.555561 0
    outer loop
       vertex -0.056768 -0.152191 0.1
       vertex -0.074936 -0.125 0.1
       vertex -0.074936 -0.125 0
    endloop
  endfacet
  facet normal -0.751817 -0.659372 0
    outer loop
       vertex -0.056768 -0.152191 0
       vertex -0.035206 -0.176776 0
       vertex -0.035206 -0.176776 0.1
    endloop
  endfacet
  facet normal -0.751817 -0.659372 0
    outer loop
       vertex -0.035206 -0.176776 0.1
       vertex -0.056768 -0.152191 0.1
       vertex -0.056768 -0.152191 0
    endloop
  endfacet
  facet normal 0.659372 -0.751817 0
    outer loop
       vertex 0.318346 -0.176776 0
       vertex 0.318346 -0.176776 0.1
       vertex 0.293761 -0.198338 0.1
    endloop
  endfacet
  facet normal 0.659372 -0.751817 0
    outer loop
       vertex 0.293761 -0.198338 0.1
       vertex 0.293761 -0.198338 0
       vertex 0.318346 -0.176776 0
    endloop
  endfacet
  facet normal 0.555561 -0.831476 0
    outer loop
       vertex 0.293761 -0.198338 0
       vertex 0.293761 -0.198338 0.1
       vertex 0.26657 -0.216506 0.1
    endloop
  endfacet
  facet normal 0.555561 -0.831476 0
    outer loop
       vertex 0.26657 -0.216506 0.1
       vertex 0.26657 -0.216506 0
       vertex 0.293761 -0.198338 0
    endloop
  endfacet
  facet normal 0.442302 -0.896866 0
    outer loop
       vertex 0.26657 -0.216506 0
       vertex 0.26657 -0.216506 0.1
       vertex 0.237241 -0.23097 0.1
    endloop
  endfacet
  facet normal 0.442302 -0.896866 0
    outer loop
       vertex 0.237241 -0.23097 0.1
       vertex 0.237241 -0.23097 0
       vertex 0.26657 -0.216506 0
    endloop
  endfacet
  facet normal 0.321425 -0.946935 0
    outer loop
       vertex 0.237241 -0.23097 0
       vertex 0.237241 -0.23097 0.1
       vertex 0.206275 -0.241481 0.1
    endloop
  endfacet
  facet normal 0.321425 -0.946935 0
    outer loop
       vertex 0.206275 -0.241481 0.1
       vertex 0.206275 -0.241481 0
       vertex 0.237241 -0.23097 0
    endloop
  endfacet
  facet normal 0.195096 -0.980784 0
    outer loop
       vertex 0.206275 -0.241481 0
       vertex 0.206275 -0.241481 0.1
       vertex 0.174202 -0.247861 0.1
    endloop
  endfacet
  facet normal 0.195096 -0.980784 0
    outer loop
       vertex 0.174202 -0.247861 0.1
       vertex 0.174202 -0.247861 0
       vertex 0.206275 -0.241481 0
    endloop
  endfacet
  facet normal 0.0654098 -0.997858 0
    outer loop
       vertex 0.14157 -0.25 0
       vertex 0.174202 -0.247861 0
       vertex 0.174202 -0.247861 0.1
    endloop
  endfacet
  facet normal 0.0654098 -0.997858 1.0893e-16
    outer loop
       vertex 0.174202 -0.247861 0.1
       vertex 0.14157 -0.25 0.1
       vertex 0.14157 -0.25 0
    endloop
  endfacet
  facet normal -0.0654098 -0.997858 0
    outer loop
       vertex 0.14157 -0.25 0.1
       vertex 0.108939 -0.247861 0.1
       vertex 0.108939 -0.247861 0
    endloop
  endfacet
  facet normal -0.0654098 -0.997858 -1.0893e-16
    outer loop
       vertex 0.108939 -0.247861 0
       vertex 0.14157 -0.25 0
       vertex 0.14157 -0.25 0.1
    endloop
  endfacet
  facet normal -0.195096 -0.980784 0
    outer loop
       vertex 0.108939 -0.247861 0
       vertex 0.108939 -0.247861 0.1
       vertex 0.076865 -0.241481 0.1
    endloop
  endfacet
  facet normal -0.195096 -0.980784 -0
    outer loop
       vertex 0.076865 -0.241481 0.1
       vertex 0.076865 -0.241481 0
       vertex 0.108939 -0.247861 0
    endloop
  endfacet
  facet normal -0.321425 -0.946935 0
    outer loop
       vertex 0.076865 -0.241481 0
       vertex 0.076865 -0.241481 0.1
       vertex 0.045899 -0.23097 0.1
    endloop
  endfacet
  facet normal -0.321425 -0.946935 -0
    outer loop
       vertex 0.045899 -0.23097 0.1
       vertex 0.045899 -0.23097 0
       vertex 0.076865 -0.241481 0
    endloop
  endfacet
  facet normal -0.442302 -0.896866 0
    outer loop
       vertex 0.045899 -0.23097 0
       vertex 0.045899 -0.23097 0.1
       vertex 0.01657 -0.216506 0.1
    endloop
  endfacet
  facet normal -0.442302 -0.896866 -0
    outer loop
       vertex 0.01657 -0.216506 0.1
       vertex 0.01657 -0.216506 0
       vertex 0.045899 -0.23097 0
    endloop
  endfacet
  facet normal -0.555561 -0.831476 0
    outer loop
       vertex 0.01657 -0.216506 0
       vertex 0.01657 -0.216506 0.1
       vertex -0.010621 -0.198338 0.1
    endloop
  endfacet
  facet normal -0.555561 -0.831476 -0
    outer loop
       vertex -0.010621 -0.198338 0.1
       vertex -0.010621 -0.198338 0
       vertex 0.01657 -0.216506 0
    endloop
  endfacet
  facet normal -0.659372 -0.751817 0
    outer loop
       vertex -0.010621 -0.198338 0
       vertex -0.010621 -0.198338 0.1
       vertex -0.035206 -0.176776 0.1
    endloop
  endfacet
  facet normal -0.659372 -0.751817 -0
    outer loop
       vertex -0.035206 -0.176776 0.1
       vertex -0.035206 -0.176776 0
       vertex -0.010621 -0.198338 0
    endloop
  endfacet
endsolid cylinder
