solid cylinder
  facet normal 0.751817 -0.659372 0
    outer loop
       vertex 0.479 -0.176776 0
       vertex 0.500562 -0.152191 0
       vertex 0.500562 -0.152191 0.1
    endloop
  endfacet
  facet normal 0.751817 -0.659372 0
    outer loop
       vertex 0.500562 -0.152191 0.1
       vertex 0.479 -0.176776 0.1
       vertex 0.479 -0.176776 0
    endloop
  endfacet
  facet normal 0.831476 -0.555561 0
    outer loop
       vertex 0.500562 -0.152191 0
       vertex 0.51873 -0.125 0
       vertex 0.51873 -0.125 0.1
    endloop
  endfacet
  facet normal 0.831476 -0.555561 0
    outer loop
       vertex 0.51873 -0.125 0.1
       vertex 0.500562 -0.152191 0.1
       vertex 0.500562 -0.152191 0
    endloop
  endfacet
  facet normal 0.896866 -0.442302 0
    outer loop
       vertex 0.51873 -0.125 0
       vertex 0.533194 -0.095671 0
       vertex 0.533194 -0.095671 0.1
    endloop
  endfacet
  facet normal 0.896866 -0.442302 0
    outer loop
       vertex 0.533194 -0.095671 0.1
       vertex 0.51873 -0.125 0.1
       vertex 0.51873 -0.125 0
    endloop
  endfacet
  facet normal 0.946935 -0.321425 0
    outer loop
       vertex 0.533194 -0.095671 0
       vertex 0.543705 -0.064705 0
       vertex 0.543705 -0.064705 0.1
    endloop
  endfacet
  facet normal 0.946935 -0.321425 0
    outer loop
       vertex 0.543705 -0.064705 0.1
       vertex 0.533194 -0.095671 0.1
       vertex 0.533194 -0.095671 0
    endloop
  endfacet
  facet normal 0.980784 -0.195096 0
    outer loop
       vertex 0.543705 -0.064705 0
       vertex 0.550085 -0.0326315 0
       vertex 0.550085 -0.0326315 0.1
    endloop
  endfacet
  facet normal 0.980784 -0.195096 0
    outer loop
       vertex 0.550085 -0.0326315 0.1
       vertex 0.543705 -0.064705 0.1
       vertex 0.543705 -0.064705 0
    endloop
  endfacet
  facet normal 0.997858 -0.0654098 0
    outer loop
       vertex 0.552224 -8.32665e-17 0.1
       vertex 0.550085 -0.0326315 0.1
       vertex 0.550085 -0.0326315 0
    endloop
  endfacet
  facet normal 0.997858 -0.0654098 -1.0893e-16
    outer loop
       vertex 0.550085 -0.0326315 0
       vertex 0.552224 8.32665e-17 0
       vertex 0.552224 -8.32665e-17 0.1
    endloop
  endfacet
  facet normal 0.997858 0.0654098 0
    outer loop
       vertex 0.552224 8.32665e-17 0
       vertex 0.550085 0.0326315 0
       vertex 0.550085 0.0326315 0.1
    endloop
  endfacet
  facet normal 0.997858 0.0654098 1.0893e-16
    outer loop
       vertex 0.550085 0.0326315 0.1
       vertex 0.552224 -8.32665e-17 0.1
       vertex 0.552224 8.32665e-17 0
    endloop
  endfacet
  facet normal 0.980784 0.195096 0
    outer loop
       vertex 0.550085 0.0326315 0
       vertex 0.543705 0.064705 0
       vertex 0.543705 0.064705 0.1
    endloop
  endfacet
  facet normal 0.980784 0.195096 0
    outer loop
       vertex 0.543705 0.064705 0.1
       vertex 0.550085 0.0326315 0.1
       vertex 0.550085 0.0326315 0
    endloop
  endfacet
  facet normal 0.946935 0.321425 0
    outer loop
       vertex 0.543705 0.064705 0
       vertex 0.533194 0.095671 0
       vertex 0.533194 0.095671 0.1
    endloop
  endfacet
  facet normal 0.946935 0.321425 0
    outer loop
       vertex 0.533194 0.095671 0.1
       vertex 0.543705 0.064705 0.1
       vertex 0.543705 0.064705 0
    endloop
  endfacet
  facet normal 0.896866 0.442302 0
    outer loop
       vertex 0.533194 0.095671 0
       vertex 0.51873 0.125 0
       vertex 0.51873 0.125 0.1
    endloop
  endfacet
  facet normal 0.896866 0.442302 0
    outer loop
       vertex 0.51873 0.125 0.1
       vertex 0.533194 0.095671 0.1
       vertex 0.533194 0.095671 0
    endloop
  endfacet
  facet normal 0.831476 0.555561 0
    outer loop
       vertex 0.51873 0.125 0
       vertex 0.500562 0.152191 0
       vertex 0.500562 0.152191 0.1
    endloop
  endfacet
  facet normal 0.831476 0.555561 0
    outer loop
       vertex 0.500562 0.152191 0.1
       vertex 0.51873 0.125 0.1
       vertex 0.51873 0.125 0
    endloop
  endfacet
  facet normal 0.751817 0.659372 0
    outer loop
       vertex 0.500562 0.152191 0
       vertex 0.479 0.176776 0
       vertex 0.479 0.176776 0.1
    endloop
  endfacet
  facet normal 0.751817 0.659372 0
    outer loop
       vertex 0.479 0.176776 0.1
       vertex 0.500562 0.152191 0.1
       vertex 0.500562 0.152191 0
    endloop
  endfacet
  facet normal 0.659372 0.751817 0
    outer loop
       vertex 0.479 0.176776 0
       vertex 0.454415 0.198338 0
       vertex 0.454415 0.198338 0.1
    endloop
  endfacet
  facet normal 0.659372 0.751817 0
    outer loop
       vertex 0.454415 0.198338 0.1
       vertex 0.479 0.176776 0.1
       vertex 0.479 0.176776 0
    endloop
  endfacet
  facet normal 0.555561 0.831476 0
    outer loop
       vertex 0.454415 0.198338 0
       vertex 0.427224 0.216506 0
       vertex 0.427224 0.216506 0.1
    endloop
  endfacet
  facet normal 0.555561 0.831476 0
    outer loop
       vertex 0.427224 0.216506 0.1
       vertex 0.454415 0.198338 0.1
       vertex 0.454415 0.198338 0
    endloop
  endfacet
  facet normal 0.442302 0.896866 0
    outer loop
       vertex 0.427224 0.216506 0
       vertex 0.397895 0.23097 0
       vertex 0.397895 0.23097 0.1
    endloop
  endfacet
  facet normal 0.442302 0.896866 0
    outer loop
       vertex 0.397895 0.23097 0.1
       vertex 0.427224 0.216506 0.1
       vertex 0.427224 0.216506 0
    endloop
  endfacet
  facet normal 0.321425 0.946935 0
    outer loop
       vertex 0.397895 0.23097 0
       vertex 0.366929 0.241481 0
       vertex 0.366929 0.241481 0.1
    endloop
  endfacet
  facet normal 0.321425 0.946935 0
    outer loop
       vertex 0.366929 0.241481 0.1
       vertex 0.397895 0.23097 0.1
       vertex 0.397895 0.23097 0
    endloop
  endfacet
  facet normal 0.195096 0.980784 0
    outer loop
       vertex 0.366929 0.241481 0
       vertex 0.334856 0.247861 0
       vertex 0.334856 0.247861 0.1
    endloop
  endfacet
  facet normal 0.195096 0.980784 0
    outer loop
       vertex 0.334856 0.247861 0.1
       vertex 0.366929 0.241481 0.1
       vertex 0.366929 0.241481 0
    endloop
  endfacet
  facet normal 0.0654098 0.997858 0
    outer loop
       vertex 0.302224 0.25 0.1
       vertex 0.334856 0.247861 0.1
       vertex 0.334856 0.247861 0
    endloop
  endfacet
  facet normal 0.0654098 0.997858 -7.26205e-17
    outer loop
       vertex 0.334856 0.247861 0
       vertex 0.302224 0.25 0
       vertex 0.302224 0.25 0.1
    endloop
  endfacet
  facet normal -0.0654098 0.997858 0
    outer loop
       vertex 0.302224 0.25 0
       vertex 0.269593 0.247861 0
       vertex 0.269593 0.247861 0.1
    endloop
  endfacet
  facet normal -0.0654098 0.997858 7.26205e-17
    outer loop
       vertex 0.269593 0.247861 0.1
       vertex 0.302224 0.25 0.1
       vertex 0.302224 0.25 0
    endloop
  endfacet
  facet normal -0.195096 0.980784 0
    outer loop
       vertex 0.269593 0.247861 0
       vertex 0.237519 0.241481 0
       vertex 0.237519 0.241481 0.1
    endloop
  endfacet
  facet normal -0.195096 0.980784 0
    outer loop
       vertex 0.237519 0.241481 0.1
       vertex 0.269593 0.247861 0.1
       vertex 0.269593 0.247861 0
    endloop
  endfacet
  facet normal -0.321425 0.946935 0
    outer loop
       vertex 0.237519 0.241481 0
       vertex 0.206553 0.23097 0
       vertex 0.206553 0.23097 0.1
    endloop
  endfacet
  facet normal -0.321425 0.946935 0
    outer loop
       vertex 0.206553 0.23097 0.1
       vertex 0.237519 0.241481 0.1
       vertex 0.237519 0.241481 0
    endloop
  endfacet
  facet normal -0.442302 0.896866 0
    outer loop
       vertex 0.206553 0.23097 0
       vertex 0.177224 0.216506 0
       vertex 0.177224 0.216506 0.1
    endloop
  endfacet
  facet normal -0.442302 0.896866 0
    outer loop
       vertex 0.177224 0.216506 0.1
       vertex 0.206553 0.23097 0.1
       vertex 0.206553 0.23097 0
    endloop
  endfacet
  facet normal -0.555561 0.831476 0
    outer loop
       vertex 0.177224 0.216506 0
       vertex 0.150033 0.198338 0
       vertex 0.150033 0.198338 0.1
    endloop
  endfacet
  facet normal -0.555561 0.831476 0
    outer loop
       vertex 0.150033 0.198338 0.1
       vertex 0.177224 0.216506 0.1
       vertex 0.177224 0.216506 0
    endloop
  endfacet
  facet normal -0.659372 0.751817 0
    outer loop
       vertex 0.150033 0.198338 0
       vertex 0.125448 0.176776 0
       vertex 0.125448 0.176776 0.1
    endloop
  endfacet
  facet normal -0.659372 0.751817 0
    outer loop
       vertex 0.125448 0.176776 0.1
       vertex 0.150033 0.198338 0.1
       vertex 0.150033 0.198338 0
    endloop
  endfacet
  facet normal -0.751817 0.659372 0
    outer loop
       vertex 0.125448 0.176776 0
       vertex 0.103886 0.152191 0
       vertex 0.103886 0.152191 0.1
    endloop
  endfacet
  facet normal -0.751817 0.659372 0
    outer loop
       vertex 0.103886 0.152191 0.1
       vertex 0.125448 0.176776 0.1
       vertex 0.125448 0.176776 0
    endloop
  endfacet
  facet normal -0.831476 0.555561 0
    outer loop
       vertex 0.103886 0.152191 0
       vertex 0.0857184 0.125 0
       vertex 0.0857184 0.125 0.1
    endloop
  endfacet
  facet normal -0.831476 0.555561 0
    outer loop
       vertex 0.0857184 0.125 0.1
       vertex 0.103886 0.152191 0.1
       vertex 0.103886 0.152191 0
    endloop
  endfacet
  facet normal -0.896866 0.442302 0
    outer loop
       vertex 0.0857184 0.125 0
       vertex 0.0712544 0.095671 0
       vertex 0.0712544 0.095671 0.1
    endloop
  endfacet
  facet normal -0.896866 0.442302 0
    outer loop
       vertex 0.0712544 0.095671 0.1
       vertex 0.0857184 0.125 0.1
       vertex 0.0857184 0.125 0
    endloop
  endfacet
  facet normal -0.946935 0.321425 0
    outer loop
       vertex 0.0712544 0.095671 0
       vertex 0.0607434 0.064705 0
       vertex 0.0607434 0.064705 0.1
    endloop
  endfacet
  facet normal -0.946935 0.321425 0
    outer loop
       vertex 0.0607434 0.064705 0.1
       vertex 0.0712544 0.095671 0.1
       vertex 0.0712544 0.095671 0
    endloop
  endfacet
  facet normal -0.980784 0.195096 0
    outer loop
       vertex 0.0607434 0.064705 0
       vertex 0.0543634 0.0326315 0
       vertex 0.0543634 0.0326315 0.1
    endloop
  endfacet
  facet normal -0.980784 0.195096 0
    outer loop
       vertex 0.0543634 0.0326315 0.1
       vertex 0.0607434 0.064705 0.1
       vertex 0.0607434 0.064705 0
    endloop
  endfacet
  facet normal -0.997858 0.0654098 0
    outer loop
       vertex 0.0522244 8.32665e-17 0.1
       vertex 0.0543634 0.0326315 0.1
       vertex 0.0543634 0.0326315 0
    endloop
  endfacet
  facet normal -0.997858 0.0654098 -1.08928e-16
    outer loop
       vertex 0.0543634 0.0326315 0
       vertex 0.0522244 -8.32665e-17 0
       vertex 0.0522244 8.32665e-17 0.1
    endloop
  endfacet
  facet normal -0.997858 -0.0654098 0
    outer loop
       vertex 0.0522244 -8.32665e-17 0
       vertex 0.0543634 -0.0326315 0
       vertex 0.0543634 -0.0326315 0.1
    endloop
  endfacet
  facet normal -0.997858 -0.0654098 1.08928e-16
    outer loop
       vertex 0.0543634 -0.0326315 0.1
       vertex 0.0522244 8.32665e-17 0.1
       vertex 0.0522244 -8.32665e-17 0
    endloop
  endfacet
  facet normal -0.980784 -0.195096 0
    outer loop
       vertex 0.0543634 -0.0326315 0
       vertex 0.0607434 -0.064705 0
       vertex 0.0607434 -0.064705 0.1
    endloop
  endfacet
  facet normal -0.980784 -0.195096 0
    outer loop
       vertex 0.0607434 -0.064705 0.1
       vertex 0.0543634 -0.0326315 0.1
       vertex 0.0543634 -0.0326315 0
    endloop
  endfacet
  facet normal -0.946935 -0.321425 0
    outer loop
       vertex 0.0607434 -0.064705 0
       vertex 0.0712544 -0.095671 0
       vertex 0.0712544 -0.095671 0.1
    endloop
  endfacet
  facet normal -0.946935 -0.321425 0
    outer loop
       vertex 0.0712544 -0.095671 0.1
       vertex 0.0607434 -0.064705 0.1
       vertex 0.0607434 -0.064705 0
    endloop
  endfacet
  facet normal -0.896866 -0.442302 0
    outer loop
       vertex 0.0712544 -0.095671 0
       vertex 0.0857184 -0.125 0
       vertex 0.0857184 -0.125 0.1
    endloop
  endfacet
  facet normal -0.896866 -0.442302 0
    outer loop
       vertex 0.0857184 -0.125 0.1
       vertex 0.0712544 -0.095671 0.1
       vertex 0.0712544 -0.095671 0
    endloop
  endfacet
  facet normal -0.831476 -0.555561 0
    outer loop
       vertex 0.0857184 -0.125 0
       vertex 0.103886 -0.152191 0
       vertex 0.103886 -0.152191 0.1
    endloop
  endfacet
  facet normal -0.831476 -0.555561 0
    outer loop
       vertex 0.103886 -0.152191 0.1
       vertex 0.0857184 -0.125 0.1
       vertex 0.0857184 -0.125 0
    endloop
  endfacet
  facet normal -0.751817 -0.659372 0
    outer loop
       vertex 0.103886 -0.152191 0
       vertex 0.125448 -0.176776 0
       vertex 0.125448 -0.176776 0.1
    endloop
  endfacet
  facet normal -0.751817 -0.659372 0
    outer loop
       vertex 0.125448 -0.176776 0.1
       vertex 0.103886 -0.152191 0.1
       vertex 0.103886 -0.152191 0
    endloop
  endfacet
  facet normal 0.659372 -0.751817 0
    outer loop
       vertex 0.479 -0.176776 0
       vertex 0.479 -0.176776 0.1
       vertex 0.454415 -0.198338 0.1
    endloop
  endfacet
  facet normal 0.659372 -0.751817 0
    outer loop
       vertex 0.454415 -0.198338 0.1
       vertex 0.454415 -0.198338 0
       vertex 0.479 -0.176776 0
    endloop
  endfacet
  facet normal 0.555561 -0.831476 0
    outer loop
       vertex 0.454415 -0.198338 0
       vertex 0.454415 -0.198338 0.1
       vertex 0.427224 -0.216506 0.1
    endloop
  endfacet
  facet normal 0.555561 -0.831476 0
    outer loop
       vertex 0.427224 -0.216506 0.1
       vertex 0.427224 -0.216506 0
       vertex 0.454415 -0.198338 0
    endloop
  endfacet
  facet normal 0.442302 -0.896866 0
    outer loop
       vertex 0.427224 -0.216506 0
       vertex 0.427224 -0.216506 0.1
       vertex 0.397895 -0.23097 0.1
    endloop
  endfacet
  facet normal 0.442302 -0.896866 0
    outer loop
       vertex 0.397895 -0.23097 0.1
       vertex 0.397895 -0.23097 0
       vertex 0.427224 -0.216506 0
    endloop
  endfacet
  facet normal 0.321425 -0.946935 0
    outer loop
       vertex 0.397895 -0.23097 0
       vertex 0.397895 -0.23097 0.1
       vertex 0.366929 -0.241481 0.1
    endloop
  endfacet
  facet normal 0.321425 -0.946935 0
    outer loop
       vertex 0.366929 -0.241481 0.1
       vertex 0.366929 -0.241481 0
       vertex 0.397895 -0.23097 0
    endloop
  endfacet
  facet normal 0.195096 -0.980784 0
    outer loop
       vertex 0.366929 -0.241481 0
       vertex 0.366929 -0.241481 0.1
       vertex 0.334856 -0.247861 0.1
    endloop
  endfacet
  facet normal 0.195096 -0.980784 0
    outer loop
       vertex 0.334856 -0.247861 0.1
       vertex 0.334856 -0.247861 0
       vertex 0.366929 -0.241481 0
    endloop
  endfacet
  facet normal 0.0654098 -0.997858 0
    outer loop
       vertex 0.302224 -0.25 0
       vertex 0.334856 -0.247861 0
       vertex 0.334856 -0.247861 0.1
    endloop
  endfacet
  facet normal 0.0654098 -0.997858 7.26205e-17
    outer loop
       vertex 0.334856 -0.247861 0.1
       vertex 0.302224 -0.25 0.1
       vertex 0.302224 -0.25 0
    endloop
  endfacet
  facet normal -0.0654098 -0.997858 0
    outer loop
       vertex 0.302224 -0.25 0.1
       vertex 0.269593 -0.247861 0.1
       vertex 0.269593 -0.247861 0
    endloop
  endfacet
  facet normal -0.0654098 -0.997858 -7.26205e-17
    outer loop
       vertex 0.269593 -0.247861 0
       vertex 0.302224 -0.25 0
       vertex 0.302224 -0.25 0.1
    endloop
  endfacet
  facet normal -0.195096 -0.980784 0
    outer loop
       vertex 0.269593 -0.247861 0
       vertex 0.269593 -0.247861 0.1
       vertex 0.237519 -0.241481 0.1
    endloop
  endfacet
  facet normal -0.195096 -0.980784 -0
    outer loop
       vertex 0.237519 -0.241481 0.1
       vertex 0.237519 -0.241481 0
       vertex 0.269593 -0.247861 0
    endloop
  endfacet
  facet normal -0.321425 -0.946935 0
    outer loop
       vertex 0.237519 -0.241481 0
       vertex 0.237519 -0.241481 0.1
       vertex 0.206553 -0.23097 0.1
    endloop
  endfacet
  facet normal -0.321425 -0.946935 -0
    outer loop
       vertex 0.206553 -0.23097 0.1
       vertex 0.206553 -0.23097 0
       vertex 0.237519 -0.241481 0
    endloop
  endfacet
  facet normal -0.442302 -0.896866 0
    outer loop
       vertex 0.206553 -0.23097 0
       vertex 0.206553 -0.23097 0.1
       vertex 0.177224 -0.216506 0.1
    endloop
  endfacet
  facet normal -0.442302 -0.896866 -0
    outer loop
       vertex 0.177224 -0.216506 0.1
       vertex 0.177224 -0.216506 0
       vertex 0.206553 -0.23097 0
    endloop
  endfacet
  facet normal -0.555561 -0.831476 0
    outer loop
       vertex 0.177224 -0.216506 0
       vertex 0.177224 -0.216506 0.1
       vertex 0.150033 -0.198338 0.1
    endloop
  endfacet
  facet normal -0.555561 -0.831476 -0
    outer loop
       vertex 0.150033 -0.198338 0.1
       vertex 0.150033 -0.198338 0
       vertex 0.177224 -0.216506 0
    endloop
  endfacet
  facet normal -0.659372 -0.751817 0
    outer loop
       vertex 0.150033 -0.198338 0
       vertex 0.150033 -0.198338 0.1
       vertex 0.125448 -0.176776 0.1
    endloop
  endfacet
  facet normal -0.659372 -0.751817 -0
    outer loop
       vertex 0.125448 -0.176776 0.1
       vertex 0.125448 -0.176776 0
       vertex 0.150033 -0.198338 0
    endloop
  endfacet
endsolid cylinder
