solid cylinder
  facet normal 0.751817 -0.659372 0
    outer loop
       vertex 0.30918 -0.176776 0
       vertex 0.330742 -0.152191 0
       vertex 0.330742 -0.152191 0.1
    endloop
  endfacet
  facet normal 0.751817 -0.659372 0
    outer loop
       vertex 0.330742 -0.152191 0.1
       vertex 0.30918 -0.176776 0.1
       vertex 0.30918 -0.176776 0
    endloop
  endfacet
  facet normal 0.831476 -0.555561 0
    outer loop
       vertex 0.330742 -0.152191 0
       vertex 0.34891 -0.125 0
       vertex 0.34891 -0.125 0.1
    endloop
  endfacet
  facet normal 0.831476 -0.555561 0
    outer loop
       vertex 0.34891 -0.125 0.1
       vertex 0.330742 -0.152191 0.1
       vertex 0.330742 -0.152191 0
    endloop
  endfacet
  facet normal 0.896866 -0.442302 0
    outer loop
       vertex 0.34891 -0.125 0
       vertex 0.363374 -0.095671 0
       vertex 0.363374 -0.095671 0.1
    endloop
  endfacet
  facet normal 0.896866 -0.442302 0
    outer loop
       vertex 0.363374 -0.095671 0.1
       vertex 0.34891 -0.125 0.1
       vertex 0.34891 -0.125 0
    endloop
  endfacet
  facet normal 0.946935 -0.321425 0
    outer loop
       vertex 0.363374 -0.095671 0
       vertex 0.373885 -0.064705 0
       vertex 0.373885 -0.064705 0.1
    endloop
  endfacet
  facet normal 0.946935 -0.321425 0
    outer loop
       vertex 0.373885 -0.064705 0.1
       vertex 0.363374 -0.095671 0.1
       vertex 0.363374 -0.095671 0
    endloop
  endfacet
  facet normal 0.980784 -0.195096 0
    outer loop
       vertex 0.373885 -0.064705 0
       vertex 0.380265 -0.0326315 0
       vertex 0.380265 -0.0326315 0.1
    endloop
  endfacet
  facet normal 0.980784 -0.195096 0
    outer loop
       vertex 0.380265 -0.0326315 0.1
       vertex 0.373885 -0.064705 0.1
       vertex 0.373885 -0.064705 0
    endloop
  endfacet
  facet normal 0.997858 -0.0654098 0
    outer loop
       vertex 0.382404 -8.32665e-17 0.1
       vertex 0.380265 -0.0326315 0.1
       vertex 0.380265 -0.0326315 0
    endloop
  endfacet
  facet normal 0.997858 -0.0654098 -1.08928e-16
    outer loop
       vertex 0.380265 -0.0326315 0
       vertex 0.382404 8.32665e-17 0
       vertex 0.382404 -8.32665e-17 0.1
    endloop
  endfacet
  facet normal 0.997858 0.0654098 0
    outer loop
       vertex 0.382404 8.32665e-17 0
       vertex 0.380265 0.0326315 0
       vertex 0.380265 0.0326315 0.1
    endloop
  endfacet
  facet normal 0.997858 0.0654098 1.08928e-16
    outer loop
       vertex 0.380265 0.0326315 0.1
       vertex 0.382404 -8.32665e-17 0.1
       vertex 0.382404 8.32665e-17 0
    endloop
  endfacet
  facet normal 0.980784 0.195096 0
    outer loop
       vertex 0.380265 0.0326315 0
       vertex 0.373885 0.064705 0
       vertex 0.373885 0.064705 0.1
    endloop
  endfacet
  facet normal 0.980784 0.195096 0
    outer loop
       vertex 0.373885 0.064705 0.1
       vertex 0.380265 0.0326315 0.1
       vertex 0.380265 0.0326315 0
    endloop
  endfacet
  facet normal 0.946935 0.321425 0
    outer loop
       vertex 0.373885 0.064705 0
       vertex 0.363374 0.095671 0
       vertex 0.363374 0.095671 0.1
    endloop
  endfacet
  facet normal 0.946935 0.321425 0
    outer loop
       vertex 0.363374 0.095671 0.1
       vertex 0.373885 0.064705 0.1
       vertex 0.373885 0.064705 0
    endloop
  endfacet
  facet normal 0.896866 0.442302 0
    outer loop
       vertex 0.363374 0.095671 0
       vertex 0.34891 0.125 0
       vertex 0.34891 0.125 0.1
    endloop
  endfacet
  facet normal 0.896866 0.442302 0
    outer loop
       vertex 0.34891 0.125 0.1
       vertex 0.363374 0.095671 0.1
       vertex 0.363374 0.095671 0
    endloop
  endfacet
  facet normal 0.831476 0.555561 0
    outer loop
       vertex 0.34891 0.125 0
       vertex 0.330742 0.152191 0
       vertex 0.330742 0.152191 0.1
    endloop
  endfacet
  facet normal 0.831476 0.555561 0
    outer loop
       vertex 0.330742 0.152191 0.1
       vertex 0.34891 0.125 0.1
       vertex 0.34891 0.125 0
    endloop
  endfacet
  facet normal 0.751817 0.659372 0
    outer loop
       vertex 0.330742 0.152191 0
       vertex 0.30918 0.176776 0
       vertex 0.30918 0.176776 0.1
    endloop
  endfacet
  facet normal 0.751817 0.659372 0
    outer loop
       vertex 0.30918 0.176776 0.1
       vertex 0.330742 0.152191 0.1
       vertex 0.330742 0.152191 0
    endloop
  endfacet
  facet normal 0.659372 0.751817 0
    outer loop
       vertex 0.30918 0.176776 0
       vertex 0.284595 0.198338 0
       vertex 0.284595 0.198338 0.1
    endloop
  endfacet
  facet normal 0.659372 0.751817 0
    outer loop
       vertex 0.284595 0.198338 0.1
       vertex 0.30918 0.176776 0.1
       vertex 0.30918 0.176776 0
    endloop
  endfacet
  facet normal 0.555561 0.831476 0
    outer loop
       vertex 0.284595 0.198338 0
       vertex 0.257404 0.216506 0
       vertex 0.257404 0.216506 0.1
    endloop
  endfacet
  facet normal 0.555561 0.831476 0
    outer loop
       vertex 0.257404 0.216506 0.1
       vertex 0.284595 0.198338 0.1
       vertex 0.284595 0.198338 0
    endloop
  endfacet
  facet normal 0.442302 0.896866 0
    outer loop
       vertex 0.257404 0.216506 0
       vertex 0.228075 0.23097 0
       vertex 0.228075 0.23097 0.1
    endloop
  endfacet
  facet normal 0.442302 0.896866 0
    outer loop
       vertex 0.228075 0.23097 0.1
       vertex 0.257404 0.216506 0.1
       vertex 0.257404 0.216506 0
    endloop
  endfacet
  facet normal 0.321425 0.946935 0
    outer loop
       vertex 0.228075 0.23097 0
       vertex 0.197109 0.241481 0
       vertex 0.197109 0.241481 0.1
    endloop
  endfacet
  facet normal 0.321425 0.946935 0
    outer loop
       vertex 0.197109 0.241481 0.1
       vertex 0.228075 0.23097 0.1
       vertex 0.228075 0.23097 0
    endloop
  endfacet
  facet normal 0.195096 0.980784 0
    outer loop
       vertex 0.197109 0.241481 0
       vertex 0.165035 0.247861 0
       vertex 0.165035 0.247861 0.1
    endloop
  endfacet
  facet normal 0.195096 0.980784 0
    outer loop
       vertex 0.165035 0.247861 0.1
       vertex 0.197109 0.241481 0.1
       vertex 0.197109 0.241481 0
    endloop
  endfacet
  facet normal 0.0654098 0.997858 0
    outer loop
       vertex 0.132404 0.25 0.1
       vertex 0.165035 0.247861 0.1
       vertex 0.165035 0.247861 0
    endloop
  endfacet
  facet normal 0.0654098 0.997858 -1.0893e-16
    outer loop
       vertex 0.165035 0.247861 0
       vertex 0.132404 0.25 0
       vertex 0.132404 0.25 0.1
    endloop
  endfacet
  facet normal -0.0654098 0.997858 0
    outer loop
       vertex 0.132404 0.25 0
       vertex 0.0997724 0.247861 0
       vertex 0.0997724 0.247861 0.1
    endloop
  endfacet
  facet normal -0.0654098 0.997858 1.0893e-16
    outer loop
       vertex 0.0997724 0.247861 0.1
       vertex 0.132404 0.25 0.1
       vertex 0.132404 0.25 0
    endloop
  endfacet
  facet normal -0.195096 0.980784 0
    outer loop
       vertex 0.0997724 0.247861 0
       vertex 0.0676989 0.241481 0
       vertex 0.0676989 0.241481 0.1
    endloop
  endfacet
  facet normal -0.195096 0.980784 0
    outer loop
       vertex 0.0676989 0.241481 0.1
       vertex 0.0997724 0.247861 0.1
       vertex 0.0997724 0.247861 0
    endloop
  endfacet
  facet normal -0.321425 0.946935 0
    outer loop
       vertex 0.0676989 0.241481 0
       vertex 0.0367329 0.23097 0
       vertex 0.0367329 0.23097 0.1
    endloop
  endfacet
  facet normal -0.321425 0.946935 0
    outer loop
       vertex 0.0367329 0.23097 0.1
       vertex 0.0676989 0.241481 0.1
       vertex 0.0676989 0.241481 0
    endloop
  endfacet
  facet normal -0.442302 0.896866 0
    outer loop
       vertex 0.0367329 0.23097 0
       vertex 0.00740386 0.216506 0
       vertex 0.00740386 0.216506 0.1
    endloop
  endfacet
  facet normal -0.442302 0.896866 0
    outer loop
       vertex 0.00740386 0.216506 0.1
       vertex 0.0367329 0.23097 0.1
       vertex 0.0367329 0.23097 0
    endloop
  endfacet
  facet normal -0.555561 0.831476 0
    outer loop
       vertex 0.00740386 0.216506 0
       vertex -0.0197871 0.198338 0
       vertex -0.0197871 0.198338 0.1
    endloop
  endfacet
  facet normal -0.555561 0.831476 0
    outer loop
       vertex -0.0197871 0.198338 0.1
       vertex 0.00740386 0.216506 0.1
       vertex 0.00740386 0.216506 0
    endloop
  endfacet
  facet normal -0.659372 0.751817 0
    outer loop
       vertex -0.0197871 0.198338 0
       vertex -0.0443721 0.176776 0
       vertex -0.0443721 0.176776 0.1
    endloop
  endfacet
  facet normal -0.659372 0.751817 0
    outer loop
       vertex -0.0443721 0.176776 0.1
       vertex -0.0197871 0.198338 0.1
       vertex -0.0197871 0.198338 0
    endloop
  endfacet
  facet normal -0.751817 0.659372 0
    outer loop
       vertex -0.0443721 0.176776 0
       vertex -0.0659341 0.152191 0
       vertex -0.0659341 0.152191 0.1
    endloop
  endfacet
  facet normal -0.751817 0.659372 0
    outer loop
       vertex -0.0659341 0.152191 0.1
       vertex -0.0443721 0.176776 0.1
       vertex -0.0443721 0.176776 0
    endloop
  endfacet
  facet normal -0.831476 0.555561 0
    outer loop
       vertex -0.0659341 0.152191 0
       vertex -0.0841021 0.125 0
       vertex -0.0841021 0.125 0.1
    endloop
  endfacet
  facet normal -0.831476 0.555561 0
    outer loop
       vertex -0.0841021 0.125 0.1
       vertex -0.0659341 0.152191 0.1
       vertex -0.0659341 0.152191 0
    endloop
  endfacet
  facet normal -0.896866 0.442302 0
    outer loop
       vertex -0.0841021 0.125 0
       vertex -0.0985661 0.095671 0
       vertex -0.0985661 0.095671 0.1
    endloop
  endfacet
  facet normal -0.896866 0.442302 0
    outer loop
       vertex -0.0985661 0.095671 0.1
       vertex -0.0841021 0.125 0.1
       vertex -0.0841021 0.125 0
    endloop
  endfacet
  facet normal -0.946935 0.321425 0
    outer loop
       vertex -0.0985661 0.095671 0
       vertex -0.109077 0.064705 0
       vertex -0.109077 0.064705 0.1
    endloop
  endfacet
  facet normal -0.946935 0.321425 0
    outer loop
       vertex -0.109077 0.064705 0.1
       vertex -0.0985661 0.095671 0.1
       vertex -0.0985661 0.095671 0
    endloop
  endfacet
  facet normal -0.980784 0.195096 0
    outer loop
       vertex -0.109077 0.064705 0
       vertex -0.115457 0.0326315 0
       vertex -0.115457 0.0326315 0.1
    endloop
  endfacet
  facet normal -0.980784 0.195096 0
    outer loop
       vertex -0.115457 0.0326315 0.1
       vertex -0.109077 0.064705 0.1
       vertex -0.109077 0.064705 0
    endloop
  endfacet
  facet normal -0.997858 0.0654098 0
    outer loop
       vertex -0.117596 8.32665e-17 0.1
       vertex -0.115457 0.0326315 0.1
       vertex -0.115457 0.0326315 0
    endloop
  endfacet
  facet normal -0.997858 0.0654098 -1.08928e-16
    outer loop
       vertex -0.115457 0.0326315 0
       vertex -0.117596 -8.32665e-17 0
       vertex -0.117596 8.32665e-17 0.1
    endloop
  endfacet
  facet normal -0.997858 -0.0654098 0
    outer loop
       vertex -0.117596 -8.32665e-17 0
       vertex -0.115457 -0.0326315 0
       vertex -0.115457 -0.0326315 0.1
    endloop
  endfacet
  facet normal -0.997858 -0.0654098 1.08928e-16
    outer loop
       vertex -0.115457 -0.0326315 0.1
       vertex -0.117596 8.32665e-17 0.1
       vertex -0.117596 -8.32665e-17 0
    endloop
  endfacet
  facet normal -0.980784 -0.195096 0
    outer loop
       vertex -0.115457 -0.0326315 0
       vertex -0.109077 -0.064705 0
       vertex -0.109077 -0.064705 0.1
    endloop
  endfacet
  facet normal -0.980784 -0.195096 0
    outer loop
       vertex -0.109077 -0.064705 0.1
       vertex -0.115457 -0.0326315 0.1
       vertex -0.115457 -0.0326315 0
    endloop
  endfacet
  facet normal -0.946935 -0.321425 0
    outer loop
       vertex -0.109077 -0.064705 0
       vertex -0.0985661 -0.095671 0
       vertex -0.0985661 -0.095671 0.1
    endloop
  endfacet
  facet normal -0.946935 -0.321425 0
    outer loop
       vertex -0.0985661 -0.095671 0.1
       vertex -0.109077 -0.064705 0.1
       vertex -0.109077 -0.064705 0
    endloop
  endfacet
  facet normal -0.896866 -0.442302 0
    outer loop
       vertex -0.0985661 -0.095671 0
       vertex -0.0841021 -0.125 0
       vertex -0.0841021 -0.125 0.1
    endloop
  endfacet
  facet normal -0.896866 -0.442302 0
    outer loop
       vertex -0.0841021 -0.125 0.1
       vertex -0.0985661 -0.095671 0.1
       vertex -0.0985661 -0.095671 0
    endloop
  endfacet
  facet normal -0.831476 -0.555561 0
    outer loop
       vertex -0.0841021 -0.125 0
       vertex -0.0659341 -0.152191 0
       vertex -0.0659341 -0.152191 0.1
    endloop
  endfacet
  facet normal -0.831476 -0.555561 0
    outer loop
       vertex -0.0659341 -0.152191 0.1
       vertex -0.0841021 -0.125 0.1
       vertex -0.0841021 -0.125 0
    endloop
  endfacet
  facet normal -0.751817 -0.659372 0
    outer loop
       vertex -0.0659341 -0.152191 0
       vertex -0.0443721 -0.176776 0
       vertex -0.0443721 -0.176776 0.1
    endloop
  endfacet
  facet normal -0.751817 -0.659372 0
    outer loop
       vertex -0.0443721 -0.176776 0.1
       vertex -0.0659341 -0.152191 0.1
       vertex -0.0659341 -0.152191 0
    endloop
  endfacet
  facet normal 0.659372 -0.751817 0
    outer loop
       vertex 0.30918 -0.176776 0
       vertex 0.30918 -0.176776 0.1
       vertex 0.284595 -0.198338 0.1
    endloop
  endfacet
  facet normal 0.659372 -0.751817 0
    outer loop
       vertex 0.284595 -0.198338 0.1
       vertex 0.284595 -0.198338 0
       vertex 0.30918 -0.176776 0
    endloop
  endfacet
  facet normal 0.555561 -0.831476 0
    outer loop
       vertex 0.284595 -0.198338 0
       vertex 0.284595 -0.198338 0.1
       vertex 0.257404 -0.216506 0.1
    endloop
  endfacet
  facet normal 0.555561 -0.831476 0
    outer loop
       vertex 0.257404 -0.216506 0.1
       vertex 0.257404 -0.216506 0
       vertex 0.284595 -0.198338 0
    endloop
  endfacet
  facet normal 0.442302 -0.896866 0
    outer loop
       vertex 0.257404 -0.216506 0
       vertex 0.257404 -0.216506 0.1
       vertex 0.228075 -0.23097 0.1
    endloop
  endfacet
  facet normal 0.442302 -0.896866 0
    outer loop
       vertex 0.228075 -0.23097 0.1
       vertex 0.228075 -0.23097 0
       vertex 0.257404 -0.216506 0
    endloop
  endfacet
  facet normal 0.321425 -0.946935 0
    outer loop
       vertex 0.228075 -0.23097 0
       vertex 0.228075 -0.23097 0.1
       vertex 0.197109 -0.241481 0.1
    endloop
  endfacet
  facet normal 0.321425 -0.946935 0
    outer loop
       vertex 0.197109 -0.241481 0.1
       vertex 0.197109 -0.241481 0
       vertex 0.228075 -0.23097 0
    endloop
  endfacet
  facet normal 0.195096 -0.980784 0
    outer loop
       vertex 0.197109 -0.241481 0
       vertex 0.197109 -0.241481 0.1
       vertex 0.165035 -0.247861 0.1
    endloop
  endfacet
  facet normal 0.195096 -0.980784 0
    outer loop
       vertex 0.165035 -0.247861 0.1
       vertex 0.165035 -0.247861 0
       vertex 0.197109 -0.241481 0
    endloop
  endfacet
  facet normal 0.0654098 -0.997858 0
    outer loop
       vertex 0.132404 -0.25 0
       vertex 0.165035 -0.247861 0
       vertex 0.165035 -0.247861 0.1
    endloop
  endfacet
  facet normal 0.0654098 -0.997858 1.0893e-16
    outer loop
       vertex 0.165035 -0.247861 0.1
       vertex 0.132404 -0.25 0.1
       vertex 0.132404 -0.25 0
    endloop
  endfacet
  facet normal -0.0654098 -0.997858 0
    outer loop
       vertex 0.132404 -0.25 0.1
       vertex 0.0997724 -0.247861 0.1
       vertex 0.0997724 -0.247861 0
    endloop
  endfacet
  facet normal -0.0654098 -0.997858 -1.0893e-16
    outer loop
       vertex 0.0997724 -0.247861 0
       vertex 0.132404 -0.25 0
       vertex 0.132404 -0.25 0.1
    endloop
  endfacet
  facet normal -0.195096 -0.980784 0
    outer loop
       vertex 0.0997724 -0.247861 0
       vertex 0.0997724 -0.247861 0.1
       vertex 0.0676989 -0.241481 0.1
    endloop
  endfacet
  facet normal -0.195096 -0.980784 -0
    outer loop
       vertex 0.0676989 -0.241481 0.1
       vertex 0.0676989 -0.241481 0
       vertex 0.0997724 -0.247861 0
    endloop
  endfacet
  facet normal -0.321425 -0.946935 0
    outer loop
       vertex 0.0676989 -0.241481 0
       vertex 0.0676989 -0.241481 0.1
       vertex 0.0367329 -0.23097 0.1
    endloop
  endfacet
  facet normal -0.321425 -0.946935 -0
    outer loop
       vertex 0.0367329 -0.23097 0.1
       vertex 0.0367329 -0.23097 0
       vertex 0.0676989 -0.241481 0
    endloop
  endfacet
  facet normal -0.442302 -0.896866 0
    outer loop
       vertex 0.0367329 -0.23097 0
       vertex 0.0367329 -0.23097 0.1
       vertex 0.00740386 -0.216506 0.1
    endloop
  endfacet
  facet normal -0.442302 -0.896866 -0
    outer loop
       vertex 0.00740386 -0.216506 0.1
       vertex 0.00740386 -0.216506 0
       vertex 0.0367329 -0.23097 0
    endloop
  endfacet
  facet normal -0.555561 -0.831476 0
    outer loop
       vertex 0.00740386 -0.216506 0
       vertex 0.00740386 -0.216506 0.1
       vertex -0.0197871 -0.198338 0.1
    endloop
  endfacet
  facet normal -0.555561 -0.831476 -0
    outer loop
       vertex -0.0197871 -0.198338 0.1
       vertex -0.0197871 -0.198338 0
       vertex 0.00740386 -0.216506 0
    endloop
  endfacet
  facet normal -0.659372 -0.751817 0
    outer loop
       vertex -0.0197871 -0.198338 0
       vertex -0.0197871 -0.198338 0.1
       vertex -0.0443721 -0.176776 0.1
    endloop
  endfacet
  facet normal -0.659372 -0.751817 -0
    outer loop
       vertex -0.0443721 -0.176776 0.1
       vertex -0.0443721 -0.176776 0
       vertex -0.0197871 -0.198338 0
    endloop
  endfacet
endsolid cylinder
