solid cylinder
  facet normal 0.751817 -0.659372 0
    outer loop
       vertex 0.448958 -0.176776 0
       vertex 0.47052 -0.152191 0
       vertex 0.47052 -0.152191 0.1
    endloop
  endfacet
  facet normal 0.751817 -0.659372 0
    outer loop
       vertex 0.47052 -0.152191 0.1
       vertex 0.448958 -0.176776 0.1
       vertex 0.448958 -0.176776 0
    endloop
  endfacet
  facet normal 0.831476 -0.555561 0
    outer loop
       vertex 0.47052 -0.152191 0
       vertex 0.488688 -0.125 0
       vertex 0.488688 -0.125 0.1
    endloop
  endfacet
  facet normal 0.831476 -0.555561 0
    outer loop
       vertex 0.488688 -0.125 0.1
       vertex 0.47052 -0.152191 0.1
       vertex 0.47052 -0.152191 0
    endloop
  endfacet
  facet normal 0.896866 -0.442302 0
    outer loop
       vertex 0.488688 -0.125 0
       vertex 0.503152 -0.095671 0
       vertex 0.503152 -0.095671 0.1
    endloop
  endfacet
  facet normal 0.896866 -0.442302 0
    outer loop
       vertex 0.503152 -0.095671 0.1
       vertex 0.488688 -0.125 0.1
       vertex 0.488688 -0.125 0
    endloop
  endfacet
  facet normal 0.946935 -0.321425 0
    outer loop
       vertex 0.503152 -0.095671 0
       vertex 0.513663 -0.064705 0
       vertex 0.513663 -0.064705 0.1
    endloop
  endfacet
  facet normal 0.946935 -0.321425 0
    outer loop
       vertex 0.513663 -0.064705 0.1
       vertex 0.503152 -0.095671 0.1
       vertex 0.503152 -0.095671 0
    endloop
  endfacet
  facet normal 0.980784 -0.195096 0
    outer loop
       vertex 0.513663 -0.064705 0
       vertex 0.520043 -0.0326315 0
       vertex 0.520043 -0.0326315 0.1
    endloop
  endfacet
  facet normal 0.980784 -0.195096 0
    outer loop
       vertex 0.520043 -0.0326315 0.1
       vertex 0.513663 -0.064705 0.1
       vertex 0.513663 -0.064705 0
    endloop
  endfacet
  facet normal 0.997858 -0.0654098 0
    outer loop
       vertex 0.522182 -8.32665e-17 0.1
       vertex 0.520043 -0.0326315 0.1
       vertex 0.520043 -0.0326315 0
    endloop
  endfacet
  facet normal 0.997858 -0.0654098 -1.08928e-16
    outer loop
       vertex 0.520043 -0.0326315 0
       vertex 0.522182 8.32665e-17 0
       vertex 0.522182 -8.32665e-17 0.1
    endloop
  endfacet
  facet normal 0.997858 0.0654098 0
    outer loop
       vertex 0.522182 8.32665e-17 0
       vertex 0.520043 0.0326315 0
       vertex 0.520043 0.0326315 0.1
    endloop
  endfacet
  facet normal 0.997858 0.0654098 1.08928e-16
    outer loop
       vertex 0.520043 0.0326315 0.1
       vertex 0.522182 -8.32665e-17 0.1
       vertex 0.522182 8.32665e-17 0
    endloop
  endfacet
  facet normal 0.980784 0.195096 0
    outer loop
       vertex 0.520043 0.0326315 0
       vertex 0.513663 0.064705 0
       vertex 0.513663 0.064705 0.1
    endloop
  endfacet
  facet normal 0.980784 0.195096 0
    outer loop
       vertex 0.513663 0.064705 0.1
       vertex 0.520043 0.0326315 0.1
       vertex 0.520043 0.0326315 0
    endloop
  endfacet
  facet normal 0.946935 0.321425 0
    outer loop
       vertex 0.513663 0.064705 0
       vertex 0.503152 0.095671 0
       vertex 0.503152 0.095671 0.1
    endloop
  endfacet
  facet normal 0.946935 0.321425 0
    outer loop
       vertex 0.503152 0.095671 0.1
       vertex 0.513663 0.064705 0.1
       vertex 0.513663 0.064705 0
    endloop
  endfacet
  facet normal 0.896866 0.442302 0
    outer loop
       vertex 0.503152 0.095671 0
       vertex 0.488688 0.125 0
       vertex 0.488688 0.125 0.1
    endloop
  endfacet
  facet normal 0.896866 0.442302 0
    outer loop
       vertex 0.488688 0.125 0.1
       vertex 0.503152 0.095671 0.1
       vertex 0.503152 0.095671 0
    endloop
  endfacet
  facet normal 0.831476 0.555561 0
    outer loop
       vertex 0.488688 0.125 0
       vertex 0.47052 0.152191 0
       vertex 0.47052 0.152191 0.1
    endloop
  endfacet
  facet normal 0.831476 0.555561 0
    outer loop
       vertex 0.47052 0.152191 0.1
       vertex 0.488688 0.125 0.1
       vertex 0.488688 0.125 0
    endloop
  endfacet
  facet normal 0.751817 0.659372 0
    outer loop
       vertex 0.47052 0.152191 0
       vertex 0.448958 0.176776 0
       vertex 0.448958 0.176776 0.1
    endloop
  endfacet
  facet normal 0.751817 0.659372 0
    outer loop
       vertex 0.448958 0.176776 0.1
       vertex 0.47052 0.152191 0.1
       vertex 0.47052 0.152191 0
    endloop
  endfacet
  facet normal 0.659372 0.751817 0
    outer loop
       vertex 0.448958 0.176776 0
       vertex 0.424373 0.198338 0
       vertex 0.424373 0.198338 0.1
    endloop
  endfacet
  facet normal 0.659372 0.751817 0
    outer loop
       vertex 0.424373 0.198338 0.1
       vertex 0.448958 0.176776 0.1
       vertex 0.448958 0.176776 0
    endloop
  endfacet
  facet normal 0.555561 0.831476 0
    outer loop
       vertex 0.424373 0.198338 0
       vertex 0.397182 0.216506 0
       vertex 0.397182 0.216506 0.1
    endloop
  endfacet
  facet normal 0.555561 0.831476 0
    outer loop
       vertex 0.397182 0.216506 0.1
       vertex 0.424373 0.198338 0.1
       vertex 0.424373 0.198338 0
    endloop
  endfacet
  facet normal 0.442302 0.896866 0
    outer loop
       vertex 0.397182 0.216506 0
       vertex 0.367853 0.23097 0
       vertex 0.367853 0.23097 0.1
    endloop
  endfacet
  facet normal 0.442302 0.896866 0
    outer loop
       vertex 0.367853 0.23097 0.1
       vertex 0.397182 0.216506 0.1
       vertex 0.397182 0.216506 0
    endloop
  endfacet
  facet normal 0.321425 0.946935 0
    outer loop
       vertex 0.367853 0.23097 0
       vertex 0.336887 0.241481 0
       vertex 0.336887 0.241481 0.1
    endloop
  endfacet
  facet normal 0.321425 0.946935 0
    outer loop
       vertex 0.336887 0.241481 0.1
       vertex 0.367853 0.23097 0.1
       vertex 0.367853 0.23097 0
    endloop
  endfacet
  facet normal 0.195096 0.980784 0
    outer loop
       vertex 0.336887 0.241481 0
       vertex 0.304813 0.247861 0
       vertex 0.304813 0.247861 0.1
    endloop
  endfacet
  facet normal 0.195096 0.980784 0
    outer loop
       vertex 0.304813 0.247861 0.1
       vertex 0.336887 0.241481 0.1
       vertex 0.336887 0.241481 0
    endloop
  endfacet
  facet normal 0.0654098 0.997858 0
    outer loop
       vertex 0.272182 0.25 0.1
       vertex 0.304813 0.247861 0.1
       vertex 0.304813 0.247861 0
    endloop
  endfacet
  facet normal 0.0654098 0.997858 -1.45239e-16
    outer loop
       vertex 0.304813 0.247861 0
       vertex 0.272182 0.25 0
       vertex 0.272182 0.25 0.1
    endloop
  endfacet
  facet normal -0.0654098 0.997858 0
    outer loop
       vertex 0.272182 0.25 0
       vertex 0.23955 0.247861 0
       vertex 0.23955 0.247861 0.1
    endloop
  endfacet
  facet normal -0.0654098 0.997858 1.45239e-16
    outer loop
       vertex 0.23955 0.247861 0.1
       vertex 0.272182 0.25 0.1
       vertex 0.272182 0.25 0
    endloop
  endfacet
  facet normal -0.195096 0.980784 0
    outer loop
       vertex 0.23955 0.247861 0
       vertex 0.207477 0.241481 0
       vertex 0.207477 0.241481 0.1
    endloop
  endfacet
  facet normal -0.195096 0.980784 0
    outer loop
       vertex 0.207477 0.241481 0.1
       vertex 0.23955 0.247861 0.1
       vertex 0.23955 0.247861 0
    endloop
  endfacet
  facet normal -0.321425 0.946935 0
    outer loop
       vertex 0.207477 0.241481 0
       vertex 0.176511 0.23097 0
       vertex 0.176511 0.23097 0.1
    endloop
  endfacet
  facet normal -0.321425 0.946935 0
    outer loop
       vertex 0.176511 0.23097 0.1
       vertex 0.207477 0.241481 0.1
       vertex 0.207477 0.241481 0
    endloop
  endfacet
  facet normal -0.442302 0.896866 0
    outer loop
       vertex 0.176511 0.23097 0
       vertex 0.147182 0.216506 0
       vertex 0.147182 0.216506 0.1
    endloop
  endfacet
  facet normal -0.442302 0.896866 0
    outer loop
       vertex 0.147182 0.216506 0.1
       vertex 0.176511 0.23097 0.1
       vertex 0.176511 0.23097 0
    endloop
  endfacet
  facet normal -0.555561 0.831476 0
    outer loop
       vertex 0.147182 0.216506 0
       vertex 0.119991 0.198338 0
       vertex 0.119991 0.198338 0.1
    endloop
  endfacet
  facet normal -0.555561 0.831476 0
    outer loop
       vertex 0.119991 0.198338 0.1
       vertex 0.147182 0.216506 0.1
       vertex 0.147182 0.216506 0
    endloop
  endfacet
  facet normal -0.659372 0.751817 0
    outer loop
       vertex 0.119991 0.198338 0
       vertex 0.0954056 0.176776 0
       vertex 0.0954056 0.176776 0.1
    endloop
  endfacet
  facet normal -0.659372 0.751817 0
    outer loop
       vertex 0.0954056 0.176776 0.1
       vertex 0.119991 0.198338 0.1
       vertex 0.119991 0.198338 0
    endloop
  endfacet
  facet normal -0.751817 0.659372 0
    outer loop
       vertex 0.0954056 0.176776 0
       vertex 0.0738436 0.152191 0
       vertex 0.0738436 0.152191 0.1
    endloop
  endfacet
  facet normal -0.751817 0.659372 0
    outer loop
       vertex 0.0738436 0.152191 0.1
       vertex 0.0954056 0.176776 0.1
       vertex 0.0954056 0.176776 0
    endloop
  endfacet
  facet normal -0.831476 0.555561 0
    outer loop
       vertex 0.0738436 0.152191 0
       vertex 0.0556756 0.125 0
       vertex 0.0556756 0.125 0.1
    endloop
  endfacet
  facet normal -0.831476 0.555561 0
    outer loop
       vertex 0.0556756 0.125 0.1
       vertex 0.0738436 0.152191 0.1
       vertex 0.0738436 0.152191 0
    endloop
  endfacet
  facet normal -0.896866 0.442302 0
    outer loop
       vertex 0.0556756 0.125 0
       vertex 0.0412116 0.095671 0
       vertex 0.0412116 0.095671 0.1
    endloop
  endfacet
  facet normal -0.896866 0.442302 0
    outer loop
       vertex 0.0412116 0.095671 0.1
       vertex 0.0556756 0.125 0.1
       vertex 0.0556756 0.125 0
    endloop
  endfacet
  facet normal -0.946935 0.321425 0
    outer loop
       vertex 0.0412116 0.095671 0
       vertex 0.0307006 0.064705 0
       vertex 0.0307006 0.064705 0.1
    endloop
  endfacet
  facet normal -0.946935 0.321425 0
    outer loop
       vertex 0.0307006 0.064705 0.1
       vertex 0.0412116 0.095671 0.1
       vertex 0.0412116 0.095671 0
    endloop
  endfacet
  facet normal -0.980784 0.195096 0
    outer loop
       vertex 0.0307006 0.064705 0
       vertex 0.0243206 0.0326315 0
       vertex 0.0243206 0.0326315 0.1
    endloop
  endfacet
  facet normal -0.980784 0.195096 0
    outer loop
       vertex 0.0243206 0.0326315 0.1
       vertex 0.0307006 0.064705 0.1
       vertex 0.0307006 0.064705 0
    endloop
  endfacet
  facet normal -0.997858 0.0654098 0
    outer loop
       vertex 0.0221816 8.32665e-17 0.1
       vertex 0.0243206 0.0326315 0.1
       vertex 0.0243206 0.0326315 0
    endloop
  endfacet
  facet normal -0.997858 0.0654098 -1.08928e-16
    outer loop
       vertex 0.0243206 0.0326315 0
       vertex 0.0221816 -8.32665e-17 0
       vertex 0.0221816 8.32665e-17 0.1
    endloop
  endfacet
  facet normal -0.997858 -0.0654098 0
    outer loop
       vertex 0.0221816 -8.32665e-17 0
       vertex 0.0243206 -0.0326315 0
       vertex 0.0243206 -0.0326315 0.1
    endloop
  endfacet
  facet normal -0.997858 -0.0654098 1.08928e-16
    outer loop
       vertex 0.0243206 -0.0326315 0.1
       vertex 0.0221816 8.32665e-17 0.1
       vertex 0.0221816 -8.32665e-17 0
    endloop
  endfacet
  facet normal -0.980784 -0.195096 0
    outer loop
       vertex 0.0243206 -0.0326315 0
       vertex 0.0307006 -0.064705 0
       vertex 0.0307006 -0.064705 0.1
    endloop
  endfacet
  facet normal -0.980784 -0.195096 0
    outer loop
       vertex 0.0307006 -0.064705 0.1
       vertex 0.0243206 -0.0326315 0.1
       vertex 0.0243206 -0.0326315 0
    endloop
  endfacet
  facet normal -0.946935 -0.321425 0
    outer loop
       vertex 0.0307006 -0.064705 0
       vertex 0.0412116 -0.095671 0
       vertex 0.0412116 -0.095671 0.1
    endloop
  endfacet
  facet normal -0.946935 -0.321425 0
    outer loop
       vertex 0.0412116 -0.095671 0.1
       vertex 0.0307006 -0.064705 0.1
       vertex 0.0307006 -0.064705 0
    endloop
  endfacet
  facet normal -0.896866 -0.442302 0
    outer loop
       vertex 0.0412116 -0.095671 0
       vertex 0.0556756 -0.125 0
       vertex 0.0556756 -0.125 0.1
    endloop
  endfacet
  facet normal -0.896866 -0.442302 0
    outer loop
       vertex 0.0556756 -0.125 0.1
       vertex 0.0412116 -0.095671 0.1
       vertex 0.0412116 -0.095671 0
    endloop
  endfacet
  facet normal -0.831476 -0.555561 0
    outer loop
       vertex 0.0556756 -0.125 0
       vertex 0.0738436 -0.152191 0
       vertex 0.0738436 -0.152191 0.1
    endloop
  endfacet
  facet normal -0.831476 -0.555561 0
    outer loop
       vertex 0.0738436 -0.152191 0.1
       vertex 0.0556756 -0.125 0.1
       vertex 0.0556756 -0.125 0
    endloop
  endfacet
  facet normal -0.751817 -0.659372 0
    outer loop
       vertex 0.0738436 -0.152191 0
       vertex 0.0954056 -0.176776 0
       vertex 0.0954056 -0.176776 0.1
    endloop
  endfacet
  facet normal -0.751817 -0.659372 0
    outer loop
       vertex 0.0954056 -0.176776 0.1
       vertex 0.0738436 -0.152191 0.1
       vertex 0.0738436 -0.152191 0
    endloop
  endfacet
  facet normal 0.659372 -0.751817 0
    outer loop
       vertex 0.448958 -0.176776 0
       vertex 0.448958 -0.176776 0.1
       vertex 0.424373 -0.198338 0.1
    endloop
  endfacet
  facet normal 0.659372 -0.751817 0
    outer loop
       vertex 0.424373 -0.198338 0.1
       vertex 0.424373 -0.198338 0
       vertex 0.448958 -0.176776 0
    endloop
  endfacet
  facet normal 0.555561 -0.831476 0
    outer loop
       vertex 0.424373 -0.198338 0
       vertex 0.424373 -0.198338 0.1
       vertex 0.397182 -0.216506 0.1
    endloop
  endfacet
  facet normal 0.555561 -0.831476 0
    outer loop
       vertex 0.397182 -0.216506 0.1
       vertex 0.397182 -0.216506 0
       vertex 0.424373 -0.198338 0
    endloop
  endfacet
  facet normal 0.442302 -0.896866 0
    outer loop
       vertex 0.397182 -0.216506 0
       vertex 0.397182 -0.216506 0.1
       vertex 0.367853 -0.23097 0.1
    endloop
  endfacet
  facet normal 0.442302 -0.896866 0
    outer loop
       vertex 0.367853 -0.23097 0.1
       vertex 0.367853 -0.23097 0
       vertex 0.397182 -0.216506 0
    endloop
  endfacet
  facet normal 0.321425 -0.946935 0
    outer loop
       vertex 0.367853 -0.23097 0
       vertex 0.367853 -0.23097 0.1
       vertex 0.336887 -0.241481 0.1
    endloop
  endfacet
  facet normal 0.321425 -0.946935 0
    outer loop
       vertex 0.336887 -0.241481 0.1
       vertex 0.336887 -0.241481 0
       vertex 0.367853 -0.23097 0
    endloop
  endfacet
  facet normal 0.195096 -0.980784 0
    outer loop
       vertex 0.336887 -0.241481 0
       vertex 0.336887 -0.241481 0.1
       vertex 0.304813 -0.247861 0.1
    endloop
  endfacet
  facet normal 0.195096 -0.980784 0
    outer loop
       vertex 0.304813 -0.247861 0.1
       vertex 0.304813 -0.247861 0
       vertex 0.336887 -0.241481 0
    endloop
  endfacet
  facet normal 0.0654098 -0.997858 0
    outer loop
       vertex 0.272182 -0.25 0
       vertex 0.304813 -0.247861 0
       vertex 0.304813 -0.247861 0.1
    endloop
  endfacet
  facet normal 0.0654098 -0.997858 1.45239e-16
    outer loop
       vertex 0.304813 -0.247861 0.1
       vertex 0.272182 -0.25 0.1
       vertex 0.272182 -0.25 0
    endloop
  endfacet
  facet normal -0.0654098 -0.997858 0
    outer loop
       vertex 0.272182 -0.25 0.1
       vertex 0.23955 -0.247861 0.1
       vertex 0.23955 -0.247861 0
    endloop
  endfacet
  facet normal -0.0654098 -0.997858 -1.45239e-16
    outer loop
       vertex 0.23955 -0.247861 0
       vertex 0.272182 -0.25 0
       vertex 0.272182 -0.25 0.1
    endloop
  endfacet
  facet normal -0.195096 -0.980784 0
    outer loop
       vertex 0.23955 -0.247861 0
       vertex 0.23955 -0.247861 0.1
       vertex 0.207477 -0.241481 0.1
    endloop
  endfacet
  facet normal -0.195096 -0.980784 -0
    outer loop
       vertex 0.207477 -0.241481 0.1
       vertex 0.207477 -0.241481 0
       vertex 0.23955 -0.247861 0
    endloop
  endfacet
  facet normal -0.321425 -0.946935 0
    outer loop
       vertex 0.207477 -0.241481 0
       vertex 0.207477 -0.241481 0.1
       vertex 0.176511 -0.23097 0.1
    endloop
  endfacet
  facet normal -0.321425 -0.946935 -0
    outer loop
       vertex 0.176511 -0.23097 0.1
       vertex 0.176511 -0.23097 0
       vertex 0.207477 -0.241481 0
    endloop
  endfacet
  facet normal -0.442302 -0.896866 0
    outer loop
       vertex 0.176511 -0.23097 0
       vertex 0.176511 -0.23097 0.1
       vertex 0.147182 -0.216506 0.1
    endloop
  endfacet
  facet normal -0.442302 -0.896866 -0
    outer loop
       vertex 0.147182 -0.216506 0.1
       vertex 0.147182 -0.216506 0
       vertex 0.176511 -0.23097 0
    endloop
  endfacet
  facet normal -0.555561 -0.831476 0
    outer loop
       vertex 0.147182 -0.216506 0
       vertex 0.147182 -0.216506 0.1
       vertex 0.119991 -0.198338 0.1
    endloop
  endfacet
  facet normal -0.555561 -0.831476 -0
    outer loop
       vertex 0.119991 -0.198338 0.1
       vertex 0.119991 -0.198338 0
       vertex 0.147182 -0.216506 0
    endloop
  endfacet
  facet normal -0.659372 -0.751817 0
    outer loop
       vertex 0.119991 -0.198338 0
       vertex 0.119991 -0.198338 0.1
       vertex 0.0954056 -0.176776 0.1
    endloop
  endfacet
  facet normal -0.659372 -0.751817 -0
    outer loop
       vertex 0.0954056 -0.176776 0.1
       vertex 0.0954056 -0.176776 0
       vertex 0.119991 -0.198338 0
    endloop
  endfacet
endsolid cylinder
