solid cylinder
  facet normal 0.751817 -0.659372 0
    outer loop
       vertex 0.168816 -0.176776 0
       vertex 0.190378 -0.152191 0
       vertex 0.190378 -0.152191 0.1
    endloop
  endfacet
  facet normal 0.751817 -0.659372 0
    outer loop
       vertex 0.190378 -0.152191 0.1
       vertex 0.168816 -0.176776 0.1
       vertex 0.168816 -0.176776 0
    endloop
  endfacet
  facet normal 0.831476 -0.555561 0
    outer loop
       vertex 0.190378 -0.152191 0
       vertex 0.208546 -0.125 0
       vertex 0.208546 -0.125 0.1
    endloop
  endfacet
  facet normal 0.831476 -0.555561 0
    outer loop
       vertex 0.208546 -0.125 0.1
       vertex 0.190378 -0.152191 0.1
       vertex 0.190378 -0.152191 0
    endloop
  endfacet
  facet normal 0.896866 -0.442302 0
    outer loop
       vertex 0.208546 -0.125 0
       vertex 0.22301 -0.095671 0
       vertex 0.22301 -0.095671 0.1
    endloop
  endfacet
  facet normal 0.896866 -0.442302 0
    outer loop
       vertex 0.22301 -0.095671 0.1
       vertex 0.208546 -0.125 0.1
       vertex 0.208546 -0.125 0
    endloop
  endfacet
  facet normal 0.946935 -0.321425 0
    outer loop
       vertex 0.22301 -0.095671 0
       vertex 0.233521 -0.064705 0
       vertex 0.233521 -0.064705 0.1
    endloop
  endfacet
  facet normal 0.946935 -0.321425 0
    outer loop
       vertex 0.233521 -0.064705 0.1
       vertex 0.22301 -0.095671 0.1
       vertex 0.22301 -0.095671 0
    endloop
  endfacet
  facet normal 0.980784 -0.195096 0
    outer loop
       vertex 0.233521 -0.064705 0
       vertex 0.239901 -0.0326315 0
       vertex 0.239901 -0.0326315 0.1
    endloop
  endfacet
  facet normal 0.980784 -0.195096 0
    outer loop
       vertex 0.239901 -0.0326315 0.1
       vertex 0.233521 -0.064705 0.1
       vertex 0.233521 -0.064705 0
    endloop
  endfacet
  facet normal 0.997858 -0.0654098 0
    outer loop
       vertex 0.24204 -8.32665e-17 0.1
       vertex 0.239901 -0.0326315 0.1
       vertex 0.239901 -0.0326315 0
    endloop
  endfacet
  facet normal 0.997858 -0.0654098 -1.08928e-16
    outer loop
       vertex 0.239901 -0.0326315 0
       vertex 0.24204 8.32665e-17 0
       vertex 0.24204 -8.32665e-17 0.1
    endloop
  endfacet
  facet normal 0.997858 0.0654098 0
    outer loop
       vertex 0.24204 8.32665e-17 0
       vertex 0.239901 0.0326315 0
       vertex 0.239901 0.0326315 0.1
    endloop
  endfacet
  facet normal 0.997858 0.0654098 1.08928e-16
    outer loop
       vertex 0.239901 0.0326315 0.1
       vertex 0.24204 -8.32665e-17 0.1
       vertex 0.24204 8.32665e-17 0
    endloop
  endfacet
  facet normal 0.980784 0.195096 0
    outer loop
       vertex 0.239901 0.0326315 0
       vertex 0.233521 0.064705 0
       vertex 0.233521 0.064705 0.1
    endloop
  endfacet
  facet normal 0.980784 0.195096 0
    outer loop
       vertex 0.233521 0.064705 0.1
       vertex 0.239901 0.0326315 0.1
       vertex 0.239901 0.0326315 0
    endloop
  endfacet
  facet normal 0.946935 0.321425 0
    outer loop
       vertex 0.233521 0.064705 0
       vertex 0.22301 0.095671 0
       vertex 0.22301 0.095671 0.1
    endloop
  endfacet
  facet normal 0.946935 0.321425 0
    outer loop
       vertex 0.22301 0.095671 0.1
       vertex 0.233521 0.064705 0.1
       vertex 0.233521 0.064705 0
    endloop
  endfacet
  facet normal 0.896866 0.442302 0
    outer loop
       vertex 0.22301 0.095671 0
       vertex 0.208546 0.125 0
       vertex 0.208546 0.125 0.1
    endloop
  endfacet
  facet normal 0.896866 0.442302 0
    outer loop
       vertex 0.208546 0.125 0.1
       vertex 0.22301 0.095671 0.1
       vertex 0.22301 0.095671 0
    endloop
  endfacet
  facet normal 0.831476 0.555561 0
    outer loop
       vertex 0.208546 0.125 0
       vertex 0.190378 0.152191 0
       vertex 0.190378 0.152191 0.1
    endloop
  endfacet
  facet normal 0.831476 0.555561 0
    outer loop
       vertex 0.190378 0.152191 0.1
       vertex 0.208546 0.125 0.1
       vertex 0.208546 0.125 0
    endloop
  endfacet
  facet normal 0.751817 0.659372 0
    outer loop
       vertex 0.190378 0.152191 0
       vertex 0.168816 0.176776 0
       vertex 0.168816 0.176776 0.1
    endloop
  endfacet
  facet normal 0.751817 0.659372 0
    outer loop
       vertex 0.168816 0.176776 0.1
       vertex 0.190378 0.152191 0.1
       vertex 0.190378 0.152191 0
    endloop
  endfacet
  facet normal 0.659372 0.751817 0
    outer loop
       vertex 0.168816 0.176776 0
       vertex 0.144231 0.198338 0
       vertex 0.144231 0.198338 0.1
    endloop
  endfacet
  facet normal 0.659372 0.751817 0
    outer loop
       vertex 0.144231 0.198338 0.1
       vertex 0.168816 0.176776 0.1
       vertex 0.168816 0.176776 0
    endloop
  endfacet
  facet normal 0.555561 0.831476 0
    outer loop
       vertex 0.144231 0.198338 0
       vertex 0.11704 0.216506 0
       vertex 0.11704 0.216506 0.1
    endloop
  endfacet
  facet normal 0.555561 0.831476 0
    outer loop
       vertex 0.11704 0.216506 0.1
       vertex 0.144231 0.198338 0.1
       vertex 0.144231 0.198338 0
    endloop
  endfacet
  facet normal 0.442302 0.896866 0
    outer loop
       vertex 0.11704 0.216506 0
       vertex 0.0877105 0.23097 0
       vertex 0.0877105 0.23097 0.1
    endloop
  endfacet
  facet normal 0.442302 0.896866 0
    outer loop
       vertex 0.0877105 0.23097 0.1
       vertex 0.11704 0.216506 0.1
       vertex 0.11704 0.216506 0
    endloop
  endfacet
  facet normal 0.321425 0.946935 0
    outer loop
       vertex 0.0877105 0.23097 0
       vertex 0.0567445 0.241481 0
       vertex 0.0567445 0.241481 0.1
    endloop
  endfacet
  facet normal 0.321425 0.946935 0
    outer loop
       vertex 0.0567445 0.241481 0.1
       vertex 0.0877105 0.23097 0.1
       vertex 0.0877105 0.23097 0
    endloop
  endfacet
  facet normal 0.195096 0.980784 0
    outer loop
       vertex 0.0567445 0.241481 0
       vertex 0.024671 0.247861 0
       vertex 0.024671 0.247861 0.1
    endloop
  endfacet
  facet normal 0.195096 0.980784 0
    outer loop
       vertex 0.024671 0.247861 0.1
       vertex 0.0567445 0.241481 0.1
       vertex 0.0567445 0.241481 0
    endloop
  endfacet
  facet normal 0.0654098 0.997858 0
    outer loop
       vertex -0.00796047 0.25 0.1
       vertex 0.024671 0.247861 0.1
       vertex 0.024671 0.247861 0
    endloop
  endfacet
  facet normal 0.0654098 0.997858 -1.0893e-16
    outer loop
       vertex 0.024671 0.247861 0
       vertex -0.00796047 0.25 0
       vertex -0.00796047 0.25 0.1
    endloop
  endfacet
  facet normal -0.0654098 0.997858 0
    outer loop
       vertex -0.00796047 0.25 0
       vertex -0.040592 0.247861 0
       vertex -0.040592 0.247861 0.1
    endloop
  endfacet
  facet normal -0.0654098 0.997858 1.0893e-16
    outer loop
       vertex -0.040592 0.247861 0.1
       vertex -0.00796047 0.25 0.1
       vertex -0.00796047 0.25 0
    endloop
  endfacet
  facet normal -0.195096 0.980784 0
    outer loop
       vertex -0.040592 0.247861 0
       vertex -0.0726655 0.241481 0
       vertex -0.0726655 0.241481 0.1
    endloop
  endfacet
  facet normal -0.195096 0.980784 0
    outer loop
       vertex -0.0726655 0.241481 0.1
       vertex -0.040592 0.247861 0.1
       vertex -0.040592 0.247861 0
    endloop
  endfacet
  facet normal -0.321425 0.946935 0
    outer loop
       vertex -0.0726655 0.241481 0
       vertex -0.103631 0.23097 0
       vertex -0.103631 0.23097 0.1
    endloop
  endfacet
  facet normal -0.321425 0.946935 0
    outer loop
       vertex -0.103631 0.23097 0.1
       vertex -0.0726655 0.241481 0.1
       vertex -0.0726655 0.241481 0
    endloop
  endfacet
  facet normal -0.442302 0.896866 0
    outer loop
       vertex -0.103631 0.23097 0
       vertex -0.13296 0.216506 0
       vertex -0.13296 0.216506 0.1
    endloop
  endfacet
  facet normal -0.442302 0.896866 0
    outer loop
       vertex -0.13296 0.216506 0.1
       vertex -0.103631 0.23097 0.1
       vertex -0.103631 0.23097 0
    endloop
  endfacet
  facet normal -0.555561 0.831476 0
    outer loop
       vertex -0.13296 0.216506 0
       vertex -0.160151 0.198338 0
       vertex -0.160151 0.198338 0.1
    endloop
  endfacet
  facet normal -0.555561 0.831476 0
    outer loop
       vertex -0.160151 0.198338 0.1
       vertex -0.13296 0.216506 0.1
       vertex -0.13296 0.216506 0
    endloop
  endfacet
  facet normal -0.659372 0.751817 0
    outer loop
       vertex -0.160151 0.198338 0
       vertex -0.184736 0.176776 0
       vertex -0.184736 0.176776 0.1
    endloop
  endfacet
  facet normal -0.659372 0.751817 0
    outer loop
       vertex -0.184736 0.176776 0.1
       vertex -0.160151 0.198338 0.1
       vertex -0.160151 0.198338 0
    endloop
  endfacet
  facet normal -0.751817 0.659372 0
    outer loop
       vertex -0.184736 0.176776 0
       vertex -0.206298 0.152191 0
       vertex -0.206298 0.152191 0.1
    endloop
  endfacet
  facet normal -0.751817 0.659372 0
    outer loop
       vertex -0.206298 0.152191 0.1
       vertex -0.184736 0.176776 0.1
       vertex -0.184736 0.176776 0
    endloop
  endfacet
  facet normal -0.831476 0.555561 0
    outer loop
       vertex -0.206298 0.152191 0
       vertex -0.224466 0.125 0
       vertex -0.224466 0.125 0.1
    endloop
  endfacet
  facet normal -0.831476 0.555561 0
    outer loop
       vertex -0.224466 0.125 0.1
       vertex -0.206298 0.152191 0.1
       vertex -0.206298 0.152191 0
    endloop
  endfacet
  facet normal -0.896866 0.442302 0
    outer loop
       vertex -0.224466 0.125 0
       vertex -0.23893 0.095671 0
       vertex -0.23893 0.095671 0.1
    endloop
  endfacet
  facet normal -0.896866 0.442302 0
    outer loop
       vertex -0.23893 0.095671 0.1
       vertex -0.224466 0.125 0.1
       vertex -0.224466 0.125 0
    endloop
  endfacet
  facet normal -0.946935 0.321425 0
    outer loop
       vertex -0.23893 0.095671 0
       vertex -0.249441 0.064705 0
       vertex -0.249441 0.064705 0.1
    endloop
  endfacet
  facet normal -0.946935 0.321425 0
    outer loop
       vertex -0.249441 0.064705 0.1
       vertex -0.23893 0.095671 0.1
       vertex -0.23893 0.095671 0
    endloop
  endfacet
  facet normal -0.980784 0.195096 0
    outer loop
       vertex -0.249441 0.064705 0
       vertex -0.255821 0.0326315 0
       vertex -0.255821 0.0326315 0.1
    endloop
  endfacet
  facet normal -0.980784 0.195096 0
    outer loop
       vertex -0.255821 0.0326315 0.1
       vertex -0.249441 0.064705 0.1
       vertex -0.249441 0.064705 0
    endloop
  endfacet
  facet normal -0.997858 0.0654098 0
    outer loop
       vertex -0.25796 8.32665e-17 0.1
       vertex -0.255821 0.0326315 0.1
       vertex -0.255821 0.0326315 0
    endloop
  endfacet
  facet normal -0.997858 0.0654098 -1.08928e-16
    outer loop
       vertex -0.255821 0.0326315 0
       vertex -0.25796 -8.32665e-17 0
       vertex -0.25796 8.32665e-17 0.1
    endloop
  endfacet
  facet normal -0.997858 -0.0654098 0
    outer loop
       vertex -0.25796 -8.32665e-17 0
       vertex -0.255821 -0.0326315 0
       vertex -0.255821 -0.0326315 0.1
    endloop
  endfacet
  facet normal -0.997858 -0.0654098 1.08928e-16
    outer loop
       vertex -0.255821 -0.0326315 0.1
       vertex -0.25796 8.32665e-17 0.1
       vertex -0.25796 -8.32665e-17 0
    endloop
  endfacet
  facet normal -0.980784 -0.195096 0
    outer loop
       vertex -0.255821 -0.0326315 0
       vertex -0.249441 -0.064705 0
       vertex -0.249441 -0.064705 0.1
    endloop
  endfacet
  facet normal -0.980784 -0.195096 0
    outer loop
       vertex -0.249441 -0.064705 0.1
       vertex -0.255821 -0.0326315 0.1
       vertex -0.255821 -0.0326315 0
    endloop
  endfacet
  facet normal -0.946935 -0.321425 0
    outer loop
       vertex -0.249441 -0.064705 0
       vertex -0.23893 -0.095671 0
       vertex -0.23893 -0.095671 0.1
    endloop
  endfacet
  facet normal -0.946935 -0.321425 0
    outer loop
       vertex -0.23893 -0.095671 0.1
       vertex -0.249441 -0.064705 0.1
       vertex -0.249441 -0.064705 0
    endloop
  endfacet
  facet normal -0.896866 -0.442302 0
    outer loop
       vertex -0.23893 -0.095671 0
       vertex -0.224466 -0.125 0
       vertex -0.224466 -0.125 0.1
    endloop
  endfacet
  facet normal -0.896866 -0.442302 0
    outer loop
       vertex -0.224466 -0.125 0.1
       vertex -0.23893 -0.095671 0.1
       vertex -0.23893 -0.095671 0
    endloop
  endfacet
  facet normal -0.831476 -0.555561 0
    outer loop
       vertex -0.224466 -0.125 0
       vertex -0.206298 -0.152191 0
       vertex -0.206298 -0.152191 0.1
    endloop
  endfacet
  facet normal -0.831476 -0.555561 0
    outer loop
       vertex -0.206298 -0.152191 0.1
       vertex -0.224466 -0.125 0.1
       vertex -0.224466 -0.125 0
    endloop
  endfacet
  facet normal -0.751817 -0.659372 0
    outer loop
       vertex -0.206298 -0.152191 0
       vertex -0.184736 -0.176776 0
       vertex -0.184736 -0.176776 0.1
    endloop
  endfacet
  facet normal -0.751817 -0.659372 0
    outer loop
       vertex -0.184736 -0.176776 0.1
       vertex -0.206298 -0.152191 0.1
       vertex -0.206298 -0.152191 0
    endloop
  endfacet
  facet normal 0.659372 -0.751817 0
    outer loop
       vertex 0.168816 -0.176776 0
       vertex 0.168816 -0.176776 0.1
       vertex 0.144231 -0.198338 0.1
    endloop
  endfacet
  facet normal 0.659372 -0.751817 0
    outer loop
       vertex 0.144231 -0.198338 0.1
       vertex 0.144231 -0.198338 0
       vertex 0.168816 -0.176776 0
    endloop
  endfacet
  facet normal 0.555561 -0.831476 0
    outer loop
       vertex 0.144231 -0.198338 0
       vertex 0.144231 -0.198338 0.1
       vertex 0.11704 -0.216506 0.1
    endloop
  endfacet
  facet normal 0.555561 -0.831476 0
    outer loop
       vertex 0.11704 -0.216506 0.1
       vertex 0.11704 -0.216506 0
       vertex 0.144231 -0.198338 0
    endloop
  endfacet
  facet normal 0.442302 -0.896866 0
    outer loop
       vertex 0.11704 -0.216506 0
       vertex 0.11704 -0.216506 0.1
       vertex 0.0877105 -0.23097 0.1
    endloop
  endfacet
  facet normal 0.442302 -0.896866 0
    outer loop
       vertex 0.0877105 -0.23097 0.1
       vertex 0.0877105 -0.23097 0
       vertex 0.11704 -0.216506 0
    endloop
  endfacet
  facet normal 0.321425 -0.946935 0
    outer loop
       vertex 0.0877105 -0.23097 0
       vertex 0.0877105 -0.23097 0.1
       vertex 0.0567445 -0.241481 0.1
    endloop
  endfacet
  facet normal 0.321425 -0.946935 0
    outer loop
       vertex 0.0567445 -0.241481 0.1
       vertex 0.0567445 -0.241481 0
       vertex 0.0877105 -0.23097 0
    endloop
  endfacet
  facet normal 0.195096 -0.980784 0
    outer loop
       vertex 0.0567445 -0.241481 0
       vertex 0.0567445 -0.241481 0.1
       vertex 0.024671 -0.247861 0.1
    endloop
  endfacet
  facet normal 0.195096 -0.980784 0
    outer loop
       vertex 0.024671 -0.247861 0.1
       vertex 0.024671 -0.247861 0
       vertex 0.0567445 -0.241481 0
    endloop
  endfacet
  facet normal 0.0654098 -0.997858 0
    outer loop
       vertex -0.00796047 -0.25 0
       vertex 0.024671 -0.247861 0
       vertex 0.024671 -0.247861 0.1
    endloop
  endfacet
  facet normal 0.0654098 -0.997858 1.0893e-16
    outer loop
       vertex 0.024671 -0.247861 0.1
       vertex -0.00796047 -0.25 0.1
       vertex -0.00796047 -0.25 0
    endloop
  endfacet
  facet normal -0.0654098 -0.997858 0
    outer loop
       vertex -0.00796047 -0.25 0.1
       vertex -0.040592 -0.247861 0.1
       vertex -0.040592 -0.247861 0
    endloop
  endfacet
  facet normal -0.0654098 -0.997858 -1.0893e-16
    outer loop
       vertex -0.040592 -0.247861 0
       vertex -0.00796047 -0.25 0
       vertex -0.00796047 -0.25 0.1
    endloop
  endfacet
  facet normal -0.195096 -0.980784 0
    outer loop
       vertex -0.040592 -0.247861 0
       vertex -0.040592 -0.247861 0.1
       vertex -0.0726655 -0.241481 0.1
    endloop
  endfacet
  facet normal -0.195096 -0.980784 -0
    outer loop
       vertex -0.0726655 -0.241481 0.1
       vertex -0.0726655 -0.241481 0
       vertex -0.040592 -0.247861 0
    endloop
  endfacet
  facet normal -0.321425 -0.946935 0
    outer loop
       vertex -0.0726655 -0.241481 0
       vertex -0.0726655 -0.241481 0.1
       vertex -0.103631 -0.23097 0.1
    endloop
  endfacet
  facet normal -0.321425 -0.946935 -0
    outer loop
       vertex -0.103631 -0.23097 0.1
       vertex -0.103631 -0.23097 0
       vertex -0.0726655 -0.241481 0
    endloop
  endfacet
  facet normal -0.442302 -0.896866 0
    outer loop
       vertex -0.103631 -0.23097 0
       vertex -0.103631 -0.23097 0.1
       vertex -0.13296 -0.216506 0.1
    endloop
  endfacet
  facet normal -0.442302 -0.896866 -0
    outer loop
       vertex -0.13296 -0.216506 0.1
       vertex -0.13296 -0.216506 0
       vertex -0.103631 -0.23097 0
    endloop
  endfacet
  facet normal -0.555561 -0.831476 0
    outer loop
       vertex -0.13296 -0.216506 0
       vertex -0.13296 -0.216506 0.1
       vertex -0.160151 -0.198338 0.1
    endloop
  endfacet
  facet normal -0.555561 -0.831476 -0
    outer loop
       vertex -0.160151 -0.198338 0.1
       vertex -0.160151 -0.198338 0
       vertex -0.13296 -0.216506 0
    endloop
  endfacet
  facet normal -0.659372 -0.751817 0
    outer loop
       vertex -0.160151 -0.198338 0
       vertex -0.160151 -0.198338 0.1
       vertex -0.184736 -0.176776 0.1
    endloop
  endfacet
  facet normal -0.659372 -0.751817 -0
    outer loop
       vertex -0.184736 -0.176776 0.1
       vertex -0.184736 -0.176776 0
       vertex -0.160151 -0.198338 0
    endloop
  endfacet
endsolid cylinder
