solid cylinder
  facet normal 0.751817 -0.659372 0
    outer loop
       vertex 0.446804 -0.176776 0
       vertex 0.468366 -0.152191 0
       vertex 0.468366 -0.152191 0.1
    endloop
  endfacet
  facet normal 0.751817 -0.659372 0
    outer loop
       vertex 0.468366 -0.152191 0.1
       vertex 0.446804 -0.176776 0.1
       vertex 0.446804 -0.176776 0
    endloop
  endfacet
  facet normal 0.831476 -0.555561 0
    outer loop
       vertex 0.468366 -0.152191 0
       vertex 0.486534 -0.125 0
       vertex 0.486534 -0.125 0.1
    endloop
  endfacet
  facet normal 0.831476 -0.555561 0
    outer loop
       vertex 0.486534 -0.125 0.1
       vertex 0.468366 -0.152191 0.1
       vertex 0.468366 -0.152191 0
    endloop
  endfacet
  facet normal 0.896866 -0.442302 0
    outer loop
       vertex 0.486534 -0.125 0
       vertex 0.500998 -0.095671 0
       vertex 0.500998 -0.095671 0.1
    endloop
  endfacet
  facet normal 0.896866 -0.442302 0
    outer loop
       vertex 0.500998 -0.095671 0.1
       vertex 0.486534 -0.125 0.1
       vertex 0.486534 -0.125 0
    endloop
  endfacet
  facet normal 0.946935 -0.321425 0
    outer loop
       vertex 0.500998 -0.095671 0
       vertex 0.511509 -0.064705 0
       vertex 0.511509 -0.064705 0.1
    endloop
  endfacet
  facet normal 0.946935 -0.321425 0
    outer loop
       vertex 0.511509 -0.064705 0.1
       vertex 0.500998 -0.095671 0.1
       vertex 0.500998 -0.095671 0
    endloop
  endfacet
  facet normal 0.980784 -0.195096 0
    outer loop
       vertex 0.511509 -0.064705 0
       vertex 0.517889 -0.0326315 0
       vertex 0.517889 -0.0326315 0.1
    endloop
  endfacet
  facet normal 0.980784 -0.195096 0
    outer loop
       vertex 0.517889 -0.0326315 0.1
       vertex 0.511509 -0.064705 0.1
       vertex 0.511509 -0.064705 0
    endloop
  endfacet
  facet normal 0.997858 -0.0654098 0
    outer loop
       vertex 0.520028 -8.32665e-17 0.1
       vertex 0.517889 -0.0326315 0.1
       vertex 0.517889 -0.0326315 0
    endloop
  endfacet
  facet normal 0.997858 -0.0654098 -1.0893e-16
    outer loop
       vertex 0.517889 -0.0326315 0
       vertex 0.520028 8.32665e-17 0
       vertex 0.520028 -8.32665e-17 0.1
    endloop
  endfacet
  facet normal 0.997858 0.0654098 0
    outer loop
       vertex 0.520028 8.32665e-17 0
       vertex 0.517889 0.0326315 0
       vertex 0.517889 0.0326315 0.1
    endloop
  endfacet
  facet normal 0.997858 0.0654098 1.0893e-16
    outer loop
       vertex 0.517889 0.0326315 0.1
       vertex 0.520028 -8.32665e-17 0.1
       vertex 0.520028 8.32665e-17 0
    endloop
  endfacet
  facet normal 0.980784 0.195096 0
    outer loop
       vertex 0.517889 0.0326315 0
       vertex 0.511509 0.064705 0
       vertex 0.511509 0.064705 0.1
    endloop
  endfacet
  facet normal 0.980784 0.195096 0
    outer loop
       vertex 0.511509 0.064705 0.1
       vertex 0.517889 0.0326315 0.1
       vertex 0.517889 0.0326315 0
    endloop
  endfacet
  facet normal 0.946935 0.321425 0
    outer loop
       vertex 0.511509 0.064705 0
       vertex 0.500998 0.095671 0
       vertex 0.500998 0.095671 0.1
    endloop
  endfacet
  facet normal 0.946935 0.321425 0
    outer loop
       vertex 0.500998 0.095671 0.1
       vertex 0.511509 0.064705 0.1
       vertex 0.511509 0.064705 0
    endloop
  endfacet
  facet normal 0.896866 0.442302 0
    outer loop
       vertex 0.500998 0.095671 0
       vertex 0.486534 0.125 0
       vertex 0.486534 0.125 0.1
    endloop
  endfacet
  facet normal 0.896866 0.442302 0
    outer loop
       vertex 0.486534 0.125 0.1
       vertex 0.500998 0.095671 0.1
       vertex 0.500998 0.095671 0
    endloop
  endfacet
  facet normal 0.831476 0.555561 0
    outer loop
       vertex 0.486534 0.125 0
       vertex 0.468366 0.152191 0
       vertex 0.468366 0.152191 0.1
    endloop
  endfacet
  facet normal 0.831476 0.555561 0
    outer loop
       vertex 0.468366 0.152191 0.1
       vertex 0.486534 0.125 0.1
       vertex 0.486534 0.125 0
    endloop
  endfacet
  facet normal 0.751817 0.659372 0
    outer loop
       vertex 0.468366 0.152191 0
       vertex 0.446804 0.176776 0
       vertex 0.446804 0.176776 0.1
    endloop
  endfacet
  facet normal 0.751817 0.659372 0
    outer loop
       vertex 0.446804 0.176776 0.1
       vertex 0.468366 0.152191 0.1
       vertex 0.468366 0.152191 0
    endloop
  endfacet
  facet normal 0.659372 0.751817 0
    outer loop
       vertex 0.446804 0.176776 0
       vertex 0.422219 0.198338 0
       vertex 0.422219 0.198338 0.1
    endloop
  endfacet
  facet normal 0.659372 0.751817 0
    outer loop
       vertex 0.422219 0.198338 0.1
       vertex 0.446804 0.176776 0.1
       vertex 0.446804 0.176776 0
    endloop
  endfacet
  facet normal 0.555561 0.831476 0
    outer loop
       vertex 0.422219 0.198338 0
       vertex 0.395028 0.216506 0
       vertex 0.395028 0.216506 0.1
    endloop
  endfacet
  facet normal 0.555561 0.831476 0
    outer loop
       vertex 0.395028 0.216506 0.1
       vertex 0.422219 0.198338 0.1
       vertex 0.422219 0.198338 0
    endloop
  endfacet
  facet normal 0.442302 0.896866 0
    outer loop
       vertex 0.395028 0.216506 0
       vertex 0.365699 0.23097 0
       vertex 0.365699 0.23097 0.1
    endloop
  endfacet
  facet normal 0.442302 0.896866 0
    outer loop
       vertex 0.365699 0.23097 0.1
       vertex 0.395028 0.216506 0.1
       vertex 0.395028 0.216506 0
    endloop
  endfacet
  facet normal 0.321425 0.946935 0
    outer loop
       vertex 0.365699 0.23097 0
       vertex 0.334733 0.241481 0
       vertex 0.334733 0.241481 0.1
    endloop
  endfacet
  facet normal 0.321425 0.946935 0
    outer loop
       vertex 0.334733 0.241481 0.1
       vertex 0.365699 0.23097 0.1
       vertex 0.365699 0.23097 0
    endloop
  endfacet
  facet normal 0.195096 0.980784 0
    outer loop
       vertex 0.334733 0.241481 0
       vertex 0.302659 0.247861 0
       vertex 0.302659 0.247861 0.1
    endloop
  endfacet
  facet normal 0.195096 0.980784 0
    outer loop
       vertex 0.302659 0.247861 0.1
       vertex 0.334733 0.241481 0.1
       vertex 0.334733 0.241481 0
    endloop
  endfacet
  facet normal 0.0654098 0.997858 0
    outer loop
       vertex 0.270028 0.25 0.1
       vertex 0.302659 0.247861 0.1
       vertex 0.302659 0.247861 0
    endloop
  endfacet
  facet normal 0.0654098 0.997858 -7.26205e-17
    outer loop
       vertex 0.302659 0.247861 0
       vertex 0.270028 0.25 0
       vertex 0.270028 0.25 0.1
    endloop
  endfacet
  facet normal -0.0654098 0.997858 0
    outer loop
       vertex 0.270028 0.25 0
       vertex 0.237396 0.247861 0
       vertex 0.237396 0.247861 0.1
    endloop
  endfacet
  facet normal -0.0654098 0.997858 7.26205e-17
    outer loop
       vertex 0.237396 0.247861 0.1
       vertex 0.270028 0.25 0.1
       vertex 0.270028 0.25 0
    endloop
  endfacet
  facet normal -0.195096 0.980784 0
    outer loop
       vertex 0.237396 0.247861 0
       vertex 0.205323 0.241481 0
       vertex 0.205323 0.241481 0.1
    endloop
  endfacet
  facet normal -0.195096 0.980784 0
    outer loop
       vertex 0.205323 0.241481 0.1
       vertex 0.237396 0.247861 0.1
       vertex 0.237396 0.247861 0
    endloop
  endfacet
  facet normal -0.321425 0.946935 0
    outer loop
       vertex 0.205323 0.241481 0
       vertex 0.174357 0.23097 0
       vertex 0.174357 0.23097 0.1
    endloop
  endfacet
  facet normal -0.321425 0.946935 0
    outer loop
       vertex 0.174357 0.23097 0.1
       vertex 0.205323 0.241481 0.1
       vertex 0.205323 0.241481 0
    endloop
  endfacet
  facet normal -0.442302 0.896866 0
    outer loop
       vertex 0.174357 0.23097 0
       vertex 0.145028 0.216506 0
       vertex 0.145028 0.216506 0.1
    endloop
  endfacet
  facet normal -0.442302 0.896866 0
    outer loop
       vertex 0.145028 0.216506 0.1
       vertex 0.174357 0.23097 0.1
       vertex 0.174357 0.23097 0
    endloop
  endfacet
  facet normal -0.555561 0.831476 0
    outer loop
       vertex 0.145028 0.216506 0
       vertex 0.117837 0.198338 0
       vertex 0.117837 0.198338 0.1
    endloop
  endfacet
  facet normal -0.555561 0.831476 0
    outer loop
       vertex 0.117837 0.198338 0.1
       vertex 0.145028 0.216506 0.1
       vertex 0.145028 0.216506 0
    endloop
  endfacet
  facet normal -0.659372 0.751817 0
    outer loop
       vertex 0.117837 0.198338 0
       vertex 0.0932515 0.176776 0
       vertex 0.0932515 0.176776 0.1
    endloop
  endfacet
  facet normal -0.659372 0.751817 0
    outer loop
       vertex 0.0932515 0.176776 0.1
       vertex 0.117837 0.198338 0.1
       vertex 0.117837 0.198338 0
    endloop
  endfacet
  facet normal -0.751817 0.659372 0
    outer loop
       vertex 0.0932515 0.176776 0
       vertex 0.0716895 0.152191 0
       vertex 0.0716895 0.152191 0.1
    endloop
  endfacet
  facet normal -0.751817 0.659372 0
    outer loop
       vertex 0.0716895 0.152191 0.1
       vertex 0.0932515 0.176776 0.1
       vertex 0.0932515 0.176776 0
    endloop
  endfacet
  facet normal -0.831476 0.555561 0
    outer loop
       vertex 0.0716895 0.152191 0
       vertex 0.0535215 0.125 0
       vertex 0.0535215 0.125 0.1
    endloop
  endfacet
  facet normal -0.831476 0.555561 0
    outer loop
       vertex 0.0535215 0.125 0.1
       vertex 0.0716895 0.152191 0.1
       vertex 0.0716895 0.152191 0
    endloop
  endfacet
  facet normal -0.896866 0.442302 0
    outer loop
       vertex 0.0535215 0.125 0
       vertex 0.0390575 0.095671 0
       vertex 0.0390575 0.095671 0.1
    endloop
  endfacet
  facet normal -0.896866 0.442302 0
    outer loop
       vertex 0.0390575 0.095671 0.1
       vertex 0.0535215 0.125 0.1
       vertex 0.0535215 0.125 0
    endloop
  endfacet
  facet normal -0.946935 0.321425 0
    outer loop
       vertex 0.0390575 0.095671 0
       vertex 0.0285465 0.064705 0
       vertex 0.0285465 0.064705 0.1
    endloop
  endfacet
  facet normal -0.946935 0.321425 0
    outer loop
       vertex 0.0285465 0.064705 0.1
       vertex 0.0390575 0.095671 0.1
       vertex 0.0390575 0.095671 0
    endloop
  endfacet
  facet normal -0.980784 0.195096 0
    outer loop
       vertex 0.0285465 0.064705 0
       vertex 0.0221665 0.0326315 0
       vertex 0.0221665 0.0326315 0.1
    endloop
  endfacet
  facet normal -0.980784 0.195096 0
    outer loop
       vertex 0.0221665 0.0326315 0.1
       vertex 0.0285465 0.064705 0.1
       vertex 0.0285465 0.064705 0
    endloop
  endfacet
  facet normal -0.997858 0.0654098 0
    outer loop
       vertex 0.0200275 8.32665e-17 0.1
       vertex 0.0221665 0.0326315 0.1
       vertex 0.0221665 0.0326315 0
    endloop
  endfacet
  facet normal -0.997858 0.0654098 -1.08928e-16
    outer loop
       vertex 0.0221665 0.0326315 0
       vertex 0.0200275 -8.32665e-17 0
       vertex 0.0200275 8.32665e-17 0.1
    endloop
  endfacet
  facet normal -0.997858 -0.0654098 0
    outer loop
       vertex 0.0200275 -8.32665e-17 0
       vertex 0.0221665 -0.0326315 0
       vertex 0.0221665 -0.0326315 0.1
    endloop
  endfacet
  facet normal -0.997858 -0.0654098 1.08928e-16
    outer loop
       vertex 0.0221665 -0.0326315 0.1
       vertex 0.0200275 8.32665e-17 0.1
       vertex 0.0200275 -8.32665e-17 0
    endloop
  endfacet
  facet normal -0.980784 -0.195096 0
    outer loop
       vertex 0.0221665 -0.0326315 0
       vertex 0.0285465 -0.064705 0
       vertex 0.0285465 -0.064705 0.1
    endloop
  endfacet
  facet normal -0.980784 -0.195096 0
    outer loop
       vertex 0.0285465 -0.064705 0.1
       vertex 0.0221665 -0.0326315 0.1
       vertex 0.0221665 -0.0326315 0
    endloop
  endfacet
  facet normal -0.946935 -0.321425 0
    outer loop
       vertex 0.0285465 -0.064705 0
       vertex 0.0390575 -0.095671 0
       vertex 0.0390575 -0.095671 0.1
    endloop
  endfacet
  facet normal -0.946935 -0.321425 0
    outer loop
       vertex 0.0390575 -0.095671 0.1
       vertex 0.0285465 -0.064705 0.1
       vertex 0.0285465 -0.064705 0
    endloop
  endfacet
  facet normal -0.896866 -0.442302 0
    outer loop
       vertex 0.0390575 -0.095671 0
       vertex 0.0535215 -0.125 0
       vertex 0.0535215 -0.125 0.1
    endloop
  endfacet
  facet normal -0.896866 -0.442302 0
    outer loop
       vertex 0.0535215 -0.125 0.1
       vertex 0.0390575 -0.095671 0.1
       vertex 0.0390575 -0.095671 0
    endloop
  endfacet
  facet normal -0.831476 -0.555561 0
    outer loop
       vertex 0.0535215 -0.125 0
       vertex 0.0716895 -0.152191 0
       vertex 0.0716895 -0.152191 0.1
    endloop
  endfacet
  facet normal -0.831476 -0.555561 0
    outer loop
       vertex 0.0716895 -0.152191 0.1
       vertex 0.0535215 -0.125 0.1
       vertex 0.0535215 -0.125 0
    endloop
  endfacet
  facet normal -0.751817 -0.659372 0
    outer loop
       vertex 0.0716895 -0.152191 0
       vertex 0.0932515 -0.176776 0
       vertex 0.0932515 -0.176776 0.1
    endloop
  endfacet
  facet normal -0.751817 -0.659372 0
    outer loop
       vertex 0.0932515 -0.176776 0.1
       vertex 0.0716895 -0.152191 0.1
       vertex 0.0716895 -0.152191 0
    endloop
  endfacet
  facet normal 0.659372 -0.751817 0
    outer loop
       vertex 0.446804 -0.176776 0
       vertex 0.446804 -0.176776 0.1
       vertex 0.422219 -0.198338 0.1
    endloop
  endfacet
  facet normal 0.659372 -0.751817 0
    outer loop
       vertex 0.422219 -0.198338 0.1
       vertex 0.422219 -0.198338 0
       vertex 0.446804 -0.176776 0
    endloop
  endfacet
  facet normal 0.555561 -0.831476 0
    outer loop
       vertex 0.422219 -0.198338 0
       vertex 0.422219 -0.198338 0.1
       vertex 0.395028 -0.216506 0.1
    endloop
  endfacet
  facet normal 0.555561 -0.831476 0
    outer loop
       vertex 0.395028 -0.216506 0.1
       vertex 0.395028 -0.216506 0
       vertex 0.422219 -0.198338 0
    endloop
  endfacet
  facet normal 0.442302 -0.896866 0
    outer loop
       vertex 0.395028 -0.216506 0
       vertex 0.395028 -0.216506 0.1
       vertex 0.365699 -0.23097 0.1
    endloop
  endfacet
  facet normal 0.442302 -0.896866 0
    outer loop
       vertex 0.365699 -0.23097 0.1
       vertex 0.365699 -0.23097 0
       vertex 0.395028 -0.216506 0
    endloop
  endfacet
  facet normal 0.321425 -0.946935 0
    outer loop
       vertex 0.365699 -0.23097 0
       vertex 0.365699 -0.23097 0.1
       vertex 0.334733 -0.241481 0.1
    endloop
  endfacet
  facet normal 0.321425 -0.946935 0
    outer loop
       vertex 0.334733 -0.241481 0.1
       vertex 0.334733 -0.241481 0
       vertex 0.365699 -0.23097 0
    endloop
  endfacet
  facet normal 0.195096 -0.980784 0
    outer loop
       vertex 0.334733 -0.241481 0
       vertex 0.334733 -0.241481 0.1
       vertex 0.302659 -0.247861 0.1
    endloop
  endfacet
  facet normal 0.195096 -0.980784 0
    outer loop
       vertex 0.302659 -0.247861 0.1
       vertex 0.302659 -0.247861 0
       vertex 0.334733 -0.241481 0
    endloop
  endfacet
  facet normal 0.0654098 -0.997858 0
    outer loop
       vertex 0.270028 -0.25 0
       vertex 0.302659 -0.247861 0
       vertex 0.302659 -0.247861 0.1
    endloop
  endfacet
  facet normal 0.0654098 -0.997858 7.26205e-17
    outer loop
       vertex 0.302659 -0.247861 0.1
       vertex 0.270028 -0.25 0.1
       vertex 0.270028 -0.25 0
    endloop
  endfacet
  facet normal -0.0654098 -0.997858 0
    outer loop
       vertex 0.270028 -0.25 0.1
       vertex 0.237396 -0.247861 0.1
       vertex 0.237396 -0.247861 0
    endloop
  endfacet
  facet normal -0.0654098 -0.997858 -7.26205e-17
    outer loop
       vertex 0.237396 -0.247861 0
       vertex 0.270028 -0.25 0
       vertex 0.270028 -0.25 0.1
    endloop
  endfacet
  facet normal -0.195096 -0.980784 0
    outer loop
       vertex 0.237396 -0.247861 0
       vertex 0.237396 -0.247861 0.1
       vertex 0.205323 -0.241481 0.1
    endloop
  endfacet
  facet normal -0.195096 -0.980784 -0
    outer loop
       vertex 0.205323 -0.241481 0.1
       vertex 0.205323 -0.241481 0
       vertex 0.237396 -0.247861 0
    endloop
  endfacet
  facet normal -0.321425 -0.946935 0
    outer loop
       vertex 0.205323 -0.241481 0
       vertex 0.205323 -0.241481 0.1
       vertex 0.174357 -0.23097 0.1
    endloop
  endfacet
  facet normal -0.321425 -0.946935 -0
    outer loop
       vertex 0.174357 -0.23097 0.1
       vertex 0.174357 -0.23097 0
       vertex 0.205323 -0.241481 0
    endloop
  endfacet
  facet normal -0.442302 -0.896866 0
    outer loop
       vertex 0.174357 -0.23097 0
       vertex 0.174357 -0.23097 0.1
       vertex 0.145028 -0.216506 0.1
    endloop
  endfacet
  facet normal -0.442302 -0.896866 -0
    outer loop
       vertex 0.145028 -0.216506 0.1
       vertex 0.145028 -0.216506 0
       vertex 0.174357 -0.23097 0
    endloop
  endfacet
  facet normal -0.555561 -0.831476 0
    outer loop
       vertex 0.145028 -0.216506 0
       vertex 0.145028 -0.216506 0.1
       vertex 0.117837 -0.198338 0.1
    endloop
  endfacet
  facet normal -0.555561 -0.831476 -0
    outer loop
       vertex 0.117837 -0.198338 0.1
       vertex 0.117837 -0.198338 0
       vertex 0.145028 -0.216506 0
    endloop
  endfacet
  facet normal -0.659372 -0.751817 0
    outer loop
       vertex 0.117837 -0.198338 0
       vertex 0.117837 -0.198338 0.1
       vertex 0.0932515 -0.176776 0.1
    endloop
  endfacet
  facet normal -0.659372 -0.751817 -0
    outer loop
       vertex 0.0932515 -0.176776 0.1
       vertex 0.0932515 -0.176776 0
       vertex 0.117837 -0.198338 0
    endloop
  endfacet
endsolid cylinder
