solid cylinder
  facet normal 0.751817 -0.659372 0
    outer loop
       vertex 0.272914 -0.176776 0
       vertex 0.294476 -0.152191 0
       vertex 0.294476 -0.152191 0.1
    endloop
  endfacet
  facet normal 0.751817 -0.659372 0
    outer loop
       vertex 0.294476 -0.152191 0.1
       vertex 0.272914 -0.176776 0.1
       vertex 0.272914 -0.176776 0
    endloop
  endfacet
  facet normal 0.831476 -0.555561 0
    outer loop
       vertex 0.294476 -0.152191 0
       vertex 0.312644 -0.125 0
       vertex 0.312644 -0.125 0.1
    endloop
  endfacet
  facet normal 0.831476 -0.555561 0
    outer loop
       vertex 0.312644 -0.125 0.1
       vertex 0.294476 -0.152191 0.1
       vertex 0.294476 -0.152191 0
    endloop
  endfacet
  facet normal 0.896866 -0.442302 0
    outer loop
       vertex 0.312644 -0.125 0
       vertex 0.327108 -0.095671 0
       vertex 0.327108 -0.095671 0.1
    endloop
  endfacet
  facet normal 0.896866 -0.442302 0
    outer loop
       vertex 0.327108 -0.095671 0.1
       vertex 0.312644 -0.125 0.1
       vertex 0.312644 -0.125 0
    endloop
  endfacet
  facet normal 0.946935 -0.321425 0
    outer loop
       vertex 0.327108 -0.095671 0
       vertex 0.337619 -0.064705 0
       vertex 0.337619 -0.064705 0.1
    endloop
  endfacet
  facet normal 0.946935 -0.321425 0
    outer loop
       vertex 0.337619 -0.064705 0.1
       vertex 0.327108 -0.095671 0.1
       vertex 0.327108 -0.095671 0
    endloop
  endfacet
  facet normal 0.980784 -0.195096 0
    outer loop
       vertex 0.337619 -0.064705 0
       vertex 0.343999 -0.0326315 0
       vertex 0.343999 -0.0326315 0.1
    endloop
  endfacet
  facet normal 0.980784 -0.195096 0
    outer loop
       vertex 0.343999 -0.0326315 0.1
       vertex 0.337619 -0.064705 0.1
       vertex 0.337619 -0.064705 0
    endloop
  endfacet
  facet normal 0.997858 -0.0654098 0
    outer loop
       vertex 0.346138 -8.32665e-17 0.1
       vertex 0.343999 -0.0326315 0.1
       vertex 0.343999 -0.0326315 0
    endloop
  endfacet
  facet normal 0.997858 -0.0654098 -1.08928e-16
    outer loop
       vertex 0.343999 -0.0326315 0
       vertex 0.346138 8.32665e-17 0
       vertex 0.346138 -8.32665e-17 0.1
    endloop
  endfacet
  facet normal 0.997858 0.0654098 0
    outer loop
       vertex 0.346138 8.32665e-17 0
       vertex 0.343999 0.0326315 0
       vertex 0.343999 0.0326315 0.1
    endloop
  endfacet
  facet normal 0.997858 0.0654098 1.08928e-16
    outer loop
       vertex 0.343999 0.0326315 0.1
       vertex 0.346138 -8.32665e-17 0.1
       vertex 0.346138 8.32665e-17 0
    endloop
  endfacet
  facet normal 0.980784 0.195096 0
    outer loop
       vertex 0.343999 0.0326315 0
       vertex 0.337619 0.064705 0
       vertex 0.337619 0.064705 0.1
    endloop
  endfacet
  facet normal 0.980784 0.195096 0
    outer loop
       vertex 0.337619 0.064705 0.1
       vertex 0.343999 0.0326315 0.1
       vertex 0.343999 0.0326315 0
    endloop
  endfacet
  facet normal 0.946935 0.321425 0
    outer loop
       vertex 0.337619 0.064705 0
       vertex 0.327108 0.095671 0
       vertex 0.327108 0.095671 0.1
    endloop
  endfacet
  facet normal 0.946935 0.321425 0
    outer loop
       vertex 0.327108 0.095671 0.1
       vertex 0.337619 0.064705 0.1
       vertex 0.337619 0.064705 0
    endloop
  endfacet
  facet normal 0.896866 0.442302 0
    outer loop
       vertex 0.327108 0.095671 0
       vertex 0.312644 0.125 0
       vertex 0.312644 0.125 0.1
    endloop
  endfacet
  facet normal 0.896866 0.442302 0
    outer loop
       vertex 0.312644 0.125 0.1
       vertex 0.327108 0.095671 0.1
       vertex 0.327108 0.095671 0
    endloop
  endfacet
  facet normal 0.831476 0.555561 0
    outer loop
       vertex 0.312644 0.125 0
       vertex 0.294476 0.152191 0
       vertex 0.294476 0.152191 0.1
    endloop
  endfacet
  facet normal 0.831476 0.555561 0
    outer loop
       vertex 0.294476 0.152191 0.1
       vertex 0.312644 0.125 0.1
       vertex 0.312644 0.125 0
    endloop
  endfacet
  facet normal 0.751817 0.659372 0
    outer loop
       vertex 0.294476 0.152191 0
       vertex 0.272914 0.176776 0
       vertex 0.272914 0.176776 0.1
    endloop
  endfacet
  facet normal 0.751817 0.659372 0
    outer loop
       vertex 0.272914 0.176776 0.1
       vertex 0.294476 0.152191 0.1
       vertex 0.294476 0.152191 0
    endloop
  endfacet
  facet normal 0.659372 0.751817 0
    outer loop
       vertex 0.272914 0.176776 0
       vertex 0.248329 0.198338 0
       vertex 0.248329 0.198338 0.1
    endloop
  endfacet
  facet normal 0.659372 0.751817 0
    outer loop
       vertex 0.248329 0.198338 0.1
       vertex 0.272914 0.176776 0.1
       vertex 0.272914 0.176776 0
    endloop
  endfacet
  facet normal 0.555561 0.831476 0
    outer loop
       vertex 0.248329 0.198338 0
       vertex 0.221138 0.216506 0
       vertex 0.221138 0.216506 0.1
    endloop
  endfacet
  facet normal 0.555561 0.831476 0
    outer loop
       vertex 0.221138 0.216506 0.1
       vertex 0.248329 0.198338 0.1
       vertex 0.248329 0.198338 0
    endloop
  endfacet
  facet normal 0.442302 0.896866 0
    outer loop
       vertex 0.221138 0.216506 0
       vertex 0.191809 0.23097 0
       vertex 0.191809 0.23097 0.1
    endloop
  endfacet
  facet normal 0.442302 0.896866 0
    outer loop
       vertex 0.191809 0.23097 0.1
       vertex 0.221138 0.216506 0.1
       vertex 0.221138 0.216506 0
    endloop
  endfacet
  facet normal 0.321425 0.946935 0
    outer loop
       vertex 0.191809 0.23097 0
       vertex 0.160843 0.241481 0
       vertex 0.160843 0.241481 0.1
    endloop
  endfacet
  facet normal 0.321425 0.946935 0
    outer loop
       vertex 0.160843 0.241481 0.1
       vertex 0.191809 0.23097 0.1
       vertex 0.191809 0.23097 0
    endloop
  endfacet
  facet normal 0.195096 0.980784 0
    outer loop
       vertex 0.160843 0.241481 0
       vertex 0.12877 0.247861 0
       vertex 0.12877 0.247861 0.1
    endloop
  endfacet
  facet normal 0.195096 0.980784 0
    outer loop
       vertex 0.12877 0.247861 0.1
       vertex 0.160843 0.241481 0.1
       vertex 0.160843 0.241481 0
    endloop
  endfacet
  facet normal 0.0654098 0.997858 0
    outer loop
       vertex 0.0961382 0.25 0.1
       vertex 0.12877 0.247861 0.1
       vertex 0.12877 0.247861 0
    endloop
  endfacet
  facet normal 0.0654098 0.997858 -1.0893e-16
    outer loop
       vertex 0.12877 0.247861 0
       vertex 0.0961382 0.25 0
       vertex 0.0961382 0.25 0.1
    endloop
  endfacet
  facet normal -0.0654098 0.997858 0
    outer loop
       vertex 0.0961382 0.25 0
       vertex 0.0635067 0.247861 0
       vertex 0.0635067 0.247861 0.1
    endloop
  endfacet
  facet normal -0.0654098 0.997858 1.0893e-16
    outer loop
       vertex 0.0635067 0.247861 0.1
       vertex 0.0961382 0.25 0.1
       vertex 0.0961382 0.25 0
    endloop
  endfacet
  facet normal -0.195096 0.980784 0
    outer loop
       vertex 0.0635067 0.247861 0
       vertex 0.0314332 0.241481 0
       vertex 0.0314332 0.241481 0.1
    endloop
  endfacet
  facet normal -0.195096 0.980784 0
    outer loop
       vertex 0.0314332 0.241481 0.1
       vertex 0.0635067 0.247861 0.1
       vertex 0.0635067 0.247861 0
    endloop
  endfacet
  facet normal -0.321425 0.946935 0
    outer loop
       vertex 0.0314332 0.241481 0
       vertex 0.000467211 0.23097 0
       vertex 0.000467211 0.23097 0.1
    endloop
  endfacet
  facet normal -0.321425 0.946935 0
    outer loop
       vertex 0.000467211 0.23097 0.1
       vertex 0.0314332 0.241481 0.1
       vertex 0.0314332 0.241481 0
    endloop
  endfacet
  facet normal -0.442302 0.896866 0
    outer loop
       vertex 0.000467211 0.23097 0
       vertex -0.0288618 0.216506 0
       vertex -0.0288618 0.216506 0.1
    endloop
  endfacet
  facet normal -0.442302 0.896866 0
    outer loop
       vertex -0.0288618 0.216506 0.1
       vertex 0.000467211 0.23097 0.1
       vertex 0.000467211 0.23097 0
    endloop
  endfacet
  facet normal -0.555561 0.831476 0
    outer loop
       vertex -0.0288618 0.216506 0
       vertex -0.0560528 0.198338 0
       vertex -0.0560528 0.198338 0.1
    endloop
  endfacet
  facet normal -0.555561 0.831476 0
    outer loop
       vertex -0.0560528 0.198338 0.1
       vertex -0.0288618 0.216506 0.1
       vertex -0.0288618 0.216506 0
    endloop
  endfacet
  facet normal -0.659372 0.751817 0
    outer loop
       vertex -0.0560528 0.198338 0
       vertex -0.0806378 0.176776 0
       vertex -0.0806378 0.176776 0.1
    endloop
  endfacet
  facet normal -0.659372 0.751817 0
    outer loop
       vertex -0.0806378 0.176776 0.1
       vertex -0.0560528 0.198338 0.1
       vertex -0.0560528 0.198338 0
    endloop
  endfacet
  facet normal -0.751817 0.659372 0
    outer loop
       vertex -0.0806378 0.176776 0
       vertex -0.1022 0.152191 0
       vertex -0.1022 0.152191 0.1
    endloop
  endfacet
  facet normal -0.751817 0.659372 0
    outer loop
       vertex -0.1022 0.152191 0.1
       vertex -0.0806378 0.176776 0.1
       vertex -0.0806378 0.176776 0
    endloop
  endfacet
  facet normal -0.831476 0.555561 0
    outer loop
       vertex -0.1022 0.152191 0
       vertex -0.120368 0.125 0
       vertex -0.120368 0.125 0.1
    endloop
  endfacet
  facet normal -0.831476 0.555561 0
    outer loop
       vertex -0.120368 0.125 0.1
       vertex -0.1022 0.152191 0.1
       vertex -0.1022 0.152191 0
    endloop
  endfacet
  facet normal -0.896866 0.442302 0
    outer loop
       vertex -0.120368 0.125 0
       vertex -0.134832 0.095671 0
       vertex -0.134832 0.095671 0.1
    endloop
  endfacet
  facet normal -0.896866 0.442302 0
    outer loop
       vertex -0.134832 0.095671 0.1
       vertex -0.120368 0.125 0.1
       vertex -0.120368 0.125 0
    endloop
  endfacet
  facet normal -0.946935 0.321425 0
    outer loop
       vertex -0.134832 0.095671 0
       vertex -0.145343 0.064705 0
       vertex -0.145343 0.064705 0.1
    endloop
  endfacet
  facet normal -0.946935 0.321425 0
    outer loop
       vertex -0.145343 0.064705 0.1
       vertex -0.134832 0.095671 0.1
       vertex -0.134832 0.095671 0
    endloop
  endfacet
  facet normal -0.980784 0.195096 0
    outer loop
       vertex -0.145343 0.064705 0
       vertex -0.151723 0.0326315 0
       vertex -0.151723 0.0326315 0.1
    endloop
  endfacet
  facet normal -0.980784 0.195096 0
    outer loop
       vertex -0.151723 0.0326315 0.1
       vertex -0.145343 0.064705 0.1
       vertex -0.145343 0.064705 0
    endloop
  endfacet
  facet normal -0.997858 0.0654098 0
    outer loop
       vertex -0.153862 8.32665e-17 0.1
       vertex -0.151723 0.0326315 0.1
       vertex -0.151723 0.0326315 0
    endloop
  endfacet
  facet normal -0.997858 0.0654098 -1.08928e-16
    outer loop
       vertex -0.151723 0.0326315 0
       vertex -0.153862 -8.32665e-17 0
       vertex -0.153862 8.32665e-17 0.1
    endloop
  endfacet
  facet normal -0.997858 -0.0654098 0
    outer loop
       vertex -0.153862 -8.32665e-17 0
       vertex -0.151723 -0.0326315 0
       vertex -0.151723 -0.0326315 0.1
    endloop
  endfacet
  facet normal -0.997858 -0.0654098 1.08928e-16
    outer loop
       vertex -0.151723 -0.0326315 0.1
       vertex -0.153862 8.32665e-17 0.1
       vertex -0.153862 -8.32665e-17 0
    endloop
  endfacet
  facet normal -0.980784 -0.195096 0
    outer loop
       vertex -0.151723 -0.0326315 0
       vertex -0.145343 -0.064705 0
       vertex -0.145343 -0.064705 0.1
    endloop
  endfacet
  facet normal -0.980784 -0.195096 0
    outer loop
       vertex -0.145343 -0.064705 0.1
       vertex -0.151723 -0.0326315 0.1
       vertex -0.151723 -0.0326315 0
    endloop
  endfacet
  facet normal -0.946935 -0.321425 0
    outer loop
       vertex -0.145343 -0.064705 0
       vertex -0.134832 -0.095671 0
       vertex -0.134832 -0.095671 0.1
    endloop
  endfacet
  facet normal -0.946935 -0.321425 0
    outer loop
       vertex -0.134832 -0.095671 0.1
       vertex -0.145343 -0.064705 0.1
       vertex -0.145343 -0.064705 0
    endloop
  endfacet
  facet normal -0.896866 -0.442302 0
    outer loop
       vertex -0.134832 -0.095671 0
       vertex -0.120368 -0.125 0
       vertex -0.120368 -0.125 0.1
    endloop
  endfacet
  facet normal -0.896866 -0.442302 0
    outer loop
       vertex -0.120368 -0.125 0.1
       vertex -0.134832 -0.095671 0.1
       vertex -0.134832 -0.095671 0
    endloop
  endfacet
  facet normal -0.831476 -0.555561 0
    outer loop
       vertex -0.120368 -0.125 0
       vertex -0.1022 -0.152191 0
       vertex -0.1022 -0.152191 0.1
    endloop
  endfacet
  facet normal -0.831476 -0.555561 0
    outer loop
       vertex -0.1022 -0.152191 0.1
       vertex -0.120368 -0.125 0.1
       vertex -0.120368 -0.125 0
    endloop
  endfacet
  facet normal -0.751817 -0.659372 0
    outer loop
       vertex -0.1022 -0.152191 0
       vertex -0.0806378 -0.176776 0
       vertex -0.0806378 -0.176776 0.1
    endloop
  endfacet
  facet normal -0.751817 -0.659372 0
    outer loop
       vertex -0.0806378 -0.176776 0.1
       vertex -0.1022 -0.152191 0.1
       vertex -0.1022 -0.152191 0
    endloop
  endfacet
  facet normal 0.659372 -0.751817 0
    outer loop
       vertex 0.272914 -0.176776 0
       vertex 0.272914 -0.176776 0.1
       vertex 0.248329 -0.198338 0.1
    endloop
  endfacet
  facet normal 0.659372 -0.751817 0
    outer loop
       vertex 0.248329 -0.198338 0.1
       vertex 0.248329 -0.198338 0
       vertex 0.272914 -0.176776 0
    endloop
  endfacet
  facet normal 0.555561 -0.831476 0
    outer loop
       vertex 0.248329 -0.198338 0
       vertex 0.248329 -0.198338 0.1
       vertex 0.221138 -0.216506 0.1
    endloop
  endfacet
  facet normal 0.555561 -0.831476 0
    outer loop
       vertex 0.221138 -0.216506 0.1
       vertex 0.221138 -0.216506 0
       vertex 0.248329 -0.198338 0
    endloop
  endfacet
  facet normal 0.442302 -0.896866 0
    outer loop
       vertex 0.221138 -0.216506 0
       vertex 0.221138 -0.216506 0.1
       vertex 0.191809 -0.23097 0.1
    endloop
  endfacet
  facet normal 0.442302 -0.896866 0
    outer loop
       vertex 0.191809 -0.23097 0.1
       vertex 0.191809 -0.23097 0
       vertex 0.221138 -0.216506 0
    endloop
  endfacet
  facet normal 0.321425 -0.946935 0
    outer loop
       vertex 0.191809 -0.23097 0
       vertex 0.191809 -0.23097 0.1
       vertex 0.160843 -0.241481 0.1
    endloop
  endfacet
  facet normal 0.321425 -0.946935 0
    outer loop
       vertex 0.160843 -0.241481 0.1
       vertex 0.160843 -0.241481 0
       vertex 0.191809 -0.23097 0
    endloop
  endfacet
  facet normal 0.195096 -0.980784 0
    outer loop
       vertex 0.160843 -0.241481 0
       vertex 0.160843 -0.241481 0.1
       vertex 0.12877 -0.247861 0.1
    endloop
  endfacet
  facet normal 0.195096 -0.980784 0
    outer loop
       vertex 0.12877 -0.247861 0.1
       vertex 0.12877 -0.247861 0
       vertex 0.160843 -0.241481 0
    endloop
  endfacet
  facet normal 0.0654098 -0.997858 0
    outer loop
       vertex 0.0961382 -0.25 0
       vertex 0.12877 -0.247861 0
       vertex 0.12877 -0.247861 0.1
    endloop
  endfacet
  facet normal 0.0654098 -0.997858 1.0893e-16
    outer loop
       vertex 0.12877 -0.247861 0.1
       vertex 0.0961382 -0.25 0.1
       vertex 0.0961382 -0.25 0
    endloop
  endfacet
  facet normal -0.0654098 -0.997858 0
    outer loop
       vertex 0.0961382 -0.25 0.1
       vertex 0.0635067 -0.247861 0.1
       vertex 0.0635067 -0.247861 0
    endloop
  endfacet
  facet normal -0.0654098 -0.997858 -1.0893e-16
    outer loop
       vertex 0.0635067 -0.247861 0
       vertex 0.0961382 -0.25 0
       vertex 0.0961382 -0.25 0.1
    endloop
  endfacet
  facet normal -0.195096 -0.980784 0
    outer loop
       vertex 0.0635067 -0.247861 0
       vertex 0.0635067 -0.247861 0.1
       vertex 0.0314332 -0.241481 0.1
    endloop
  endfacet
  facet normal -0.195096 -0.980784 -0
    outer loop
       vertex 0.0314332 -0.241481 0.1
       vertex 0.0314332 -0.241481 0
       vertex 0.0635067 -0.247861 0
    endloop
  endfacet
  facet normal -0.321425 -0.946935 0
    outer loop
       vertex 0.0314332 -0.241481 0
       vertex 0.0314332 -0.241481 0.1
       vertex 0.000467211 -0.23097 0.1
    endloop
  endfacet
  facet normal -0.321425 -0.946935 -0
    outer loop
       vertex 0.000467211 -0.23097 0.1
       vertex 0.000467211 -0.23097 0
       vertex 0.0314332 -0.241481 0
    endloop
  endfacet
  facet normal -0.442302 -0.896866 0
    outer loop
       vertex 0.000467211 -0.23097 0
       vertex 0.000467211 -0.23097 0.1
       vertex -0.0288618 -0.216506 0.1
    endloop
  endfacet
  facet normal -0.442302 -0.896866 -0
    outer loop
       vertex -0.0288618 -0.216506 0.1
       vertex -0.0288618 -0.216506 0
       vertex 0.000467211 -0.23097 0
    endloop
  endfacet
  facet normal -0.555561 -0.831476 0
    outer loop
       vertex -0.0288618 -0.216506 0
       vertex -0.0288618 -0.216506 0.1
       vertex -0.0560528 -0.198338 0.1
    endloop
  endfacet
  facet normal -0.555561 -0.831476 -0
    outer loop
       vertex -0.0560528 -0.198338 0.1
       vertex -0.0560528 -0.198338 0
       vertex -0.0288618 -0.216506 0
    endloop
  endfacet
  facet normal -0.659372 -0.751817 0
    outer loop
       vertex -0.0560528 -0.198338 0
       vertex -0.0560528 -0.198338 0.1
       vertex -0.0806378 -0.176776 0.1
    endloop
  endfacet
  facet normal -0.659372 -0.751817 -0
    outer loop
       vertex -0.0806378 -0.176776 0.1
       vertex -0.0806378 -0.176776 0
       vertex -0.0560528 -0.198338 0
    endloop
  endfacet
endsolid cylinder
