solid cylinder
  facet normal 0.751817 -0.659372 0
    outer loop
       vertex 0.326965 -0.176776 0
       vertex 0.348527 -0.152191 0
       vertex 0.348527 -0.152191 0.1
    endloop
  endfacet
  facet normal 0.751817 -0.659372 0
    outer loop
       vertex 0.348527 -0.152191 0.1
       vertex 0.326965 -0.176776 0.1
       vertex 0.326965 -0.176776 0
    endloop
  endfacet
  facet normal 0.831476 -0.555561 0
    outer loop
       vertex 0.348527 -0.152191 0
       vertex 0.366695 -0.125 0
       vertex 0.366695 -0.125 0.1
    endloop
  endfacet
  facet normal 0.831476 -0.555561 0
    outer loop
       vertex 0.366695 -0.125 0.1
       vertex 0.348527 -0.152191 0.1
       vertex 0.348527 -0.152191 0
    endloop
  endfacet
  facet normal 0.896866 -0.442302 0
    outer loop
       vertex 0.366695 -0.125 0
       vertex 0.381159 -0.095671 0
       vertex 0.381159 -0.095671 0.1
    endloop
  endfacet
  facet normal 0.896866 -0.442302 0
    outer loop
       vertex 0.381159 -0.095671 0.1
       vertex 0.366695 -0.125 0.1
       vertex 0.366695 -0.125 0
    endloop
  endfacet
  facet normal 0.946935 -0.321425 0
    outer loop
       vertex 0.381159 -0.095671 0
       vertex 0.39167 -0.064705 0
       vertex 0.39167 -0.064705 0.1
    endloop
  endfacet
  facet normal 0.946935 -0.321425 0
    outer loop
       vertex 0.39167 -0.064705 0.1
       vertex 0.381159 -0.095671 0.1
       vertex 0.381159 -0.095671 0
    endloop
  endfacet
  facet normal 0.980784 -0.195096 0
    outer loop
       vertex 0.39167 -0.064705 0
       vertex 0.39805 -0.0326315 0
       vertex 0.39805 -0.0326315 0.1
    endloop
  endfacet
  facet normal 0.980784 -0.195096 0
    outer loop
       vertex 0.39805 -0.0326315 0.1
       vertex 0.39167 -0.064705 0.1
       vertex 0.39167 -0.064705 0
    endloop
  endfacet
  facet normal 0.997858 -0.0654098 0
    outer loop
       vertex 0.400189 -8.32665e-17 0.1
       vertex 0.39805 -0.0326315 0.1
       vertex 0.39805 -0.0326315 0
    endloop
  endfacet
  facet normal 0.997858 -0.0654098 -1.08928e-16
    outer loop
       vertex 0.39805 -0.0326315 0
       vertex 0.400189 8.32665e-17 0
       vertex 0.400189 -8.32665e-17 0.1
    endloop
  endfacet
  facet normal 0.997858 0.0654098 0
    outer loop
       vertex 0.400189 8.32665e-17 0
       vertex 0.39805 0.0326315 0
       vertex 0.39805 0.0326315 0.1
    endloop
  endfacet
  facet normal 0.997858 0.0654098 1.08928e-16
    outer loop
       vertex 0.39805 0.0326315 0.1
       vertex 0.400189 -8.32665e-17 0.1
       vertex 0.400189 8.32665e-17 0
    endloop
  endfacet
  facet normal 0.980784 0.195096 0
    outer loop
       vertex 0.39805 0.0326315 0
       vertex 0.39167 0.064705 0
       vertex 0.39167 0.064705 0.1
    endloop
  endfacet
  facet normal 0.980784 0.195096 0
    outer loop
       vertex 0.39167 0.064705 0.1
       vertex 0.39805 0.0326315 0.1
       vertex 0.39805 0.0326315 0
    endloop
  endfacet
  facet normal 0.946935 0.321425 0
    outer loop
       vertex 0.39167 0.064705 0
       vertex 0.381159 0.095671 0
       vertex 0.381159 0.095671 0.1
    endloop
  endfacet
  facet normal 0.946935 0.321425 0
    outer loop
       vertex 0.381159 0.095671 0.1
       vertex 0.39167 0.064705 0.1
       vertex 0.39167 0.064705 0
    endloop
  endfacet
  facet normal 0.896866 0.442302 0
    outer loop
       vertex 0.381159 0.095671 0
       vertex 0.366695 0.125 0
       vertex 0.366695 0.125 0.1
    endloop
  endfacet
  facet normal 0.896866 0.442302 0
    outer loop
       vertex 0.366695 0.125 0.1
       vertex 0.381159 0.095671 0.1
       vertex 0.381159 0.095671 0
    endloop
  endfacet
  facet normal 0.831476 0.555561 0
    outer loop
       vertex 0.366695 0.125 0
       vertex 0.348527 0.152191 0
       vertex 0.348527 0.152191 0.1
    endloop
  endfacet
  facet normal 0.831476 0.555561 0
    outer loop
       vertex 0.348527 0.152191 0.1
       vertex 0.366695 0.125 0.1
       vertex 0.366695 0.125 0
    endloop
  endfacet
  facet normal 0.751817 0.659372 0
    outer loop
       vertex 0.348527 0.152191 0
       vertex 0.326965 0.176776 0
       vertex 0.326965 0.176776 0.1
    endloop
  endfacet
  facet normal 0.751817 0.659372 0
    outer loop
       vertex 0.326965 0.176776 0.1
       vertex 0.348527 0.152191 0.1
       vertex 0.348527 0.152191 0
    endloop
  endfacet
  facet normal 0.659372 0.751817 0
    outer loop
       vertex 0.326965 0.176776 0
       vertex 0.30238 0.198338 0
       vertex 0.30238 0.198338 0.1
    endloop
  endfacet
  facet normal 0.659372 0.751817 0
    outer loop
       vertex 0.30238 0.198338 0.1
       vertex 0.326965 0.176776 0.1
       vertex 0.326965 0.176776 0
    endloop
  endfacet
  facet normal 0.555561 0.831476 0
    outer loop
       vertex 0.30238 0.198338 0
       vertex 0.275189 0.216506 0
       vertex 0.275189 0.216506 0.1
    endloop
  endfacet
  facet normal 0.555561 0.831476 0
    outer loop
       vertex 0.275189 0.216506 0.1
       vertex 0.30238 0.198338 0.1
       vertex 0.30238 0.198338 0
    endloop
  endfacet
  facet normal 0.442302 0.896866 0
    outer loop
       vertex 0.275189 0.216506 0
       vertex 0.24586 0.23097 0
       vertex 0.24586 0.23097 0.1
    endloop
  endfacet
  facet normal 0.442302 0.896866 0
    outer loop
       vertex 0.24586 0.23097 0.1
       vertex 0.275189 0.216506 0.1
       vertex 0.275189 0.216506 0
    endloop
  endfacet
  facet normal 0.321425 0.946935 0
    outer loop
       vertex 0.24586 0.23097 0
       vertex 0.214894 0.241481 0
       vertex 0.214894 0.241481 0.1
    endloop
  endfacet
  facet normal 0.321425 0.946935 0
    outer loop
       vertex 0.214894 0.241481 0.1
       vertex 0.24586 0.23097 0.1
       vertex 0.24586 0.23097 0
    endloop
  endfacet
  facet normal 0.195096 0.980784 0
    outer loop
       vertex 0.214894 0.241481 0
       vertex 0.18282 0.247861 0
       vertex 0.18282 0.247861 0.1
    endloop
  endfacet
  facet normal 0.195096 0.980784 0
    outer loop
       vertex 0.18282 0.247861 0.1
       vertex 0.214894 0.241481 0.1
       vertex 0.214894 0.241481 0
    endloop
  endfacet
  facet normal 0.0654098 0.997858 0
    outer loop
       vertex 0.150189 0.25 0.1
       vertex 0.18282 0.247861 0.1
       vertex 0.18282 0.247861 0
    endloop
  endfacet
  facet normal 0.0654098 0.997858 -1.0893e-16
    outer loop
       vertex 0.18282 0.247861 0
       vertex 0.150189 0.25 0
       vertex 0.150189 0.25 0.1
    endloop
  endfacet
  facet normal -0.0654098 0.997858 0
    outer loop
       vertex 0.150189 0.25 0
       vertex 0.117557 0.247861 0
       vertex 0.117557 0.247861 0.1
    endloop
  endfacet
  facet normal -0.0654098 0.997858 1.0893e-16
    outer loop
       vertex 0.117557 0.247861 0.1
       vertex 0.150189 0.25 0.1
       vertex 0.150189 0.25 0
    endloop
  endfacet
  facet normal -0.195096 0.980784 0
    outer loop
       vertex 0.117557 0.247861 0
       vertex 0.0854835 0.241481 0
       vertex 0.0854835 0.241481 0.1
    endloop
  endfacet
  facet normal -0.195096 0.980784 0
    outer loop
       vertex 0.0854835 0.241481 0.1
       vertex 0.117557 0.247861 0.1
       vertex 0.117557 0.247861 0
    endloop
  endfacet
  facet normal -0.321425 0.946935 0
    outer loop
       vertex 0.0854835 0.241481 0
       vertex 0.0545175 0.23097 0
       vertex 0.0545175 0.23097 0.1
    endloop
  endfacet
  facet normal -0.321425 0.946935 0
    outer loop
       vertex 0.0545175 0.23097 0.1
       vertex 0.0854835 0.241481 0.1
       vertex 0.0854835 0.241481 0
    endloop
  endfacet
  facet normal -0.442302 0.896866 0
    outer loop
       vertex 0.0545175 0.23097 0
       vertex 0.0251885 0.216506 0
       vertex 0.0251885 0.216506 0.1
    endloop
  endfacet
  facet normal -0.442302 0.896866 0
    outer loop
       vertex 0.0251885 0.216506 0.1
       vertex 0.0545175 0.23097 0.1
       vertex 0.0545175 0.23097 0
    endloop
  endfacet
  facet normal -0.555561 0.831476 0
    outer loop
       vertex 0.0251885 0.216506 0
       vertex -0.00200248 0.198338 0
       vertex -0.00200248 0.198338 0.1
    endloop
  endfacet
  facet normal -0.555561 0.831476 0
    outer loop
       vertex -0.00200248 0.198338 0.1
       vertex 0.0251885 0.216506 0.1
       vertex 0.0251885 0.216506 0
    endloop
  endfacet
  facet normal -0.659372 0.751817 0
    outer loop
       vertex -0.00200248 0.198338 0
       vertex -0.0265875 0.176776 0
       vertex -0.0265875 0.176776 0.1
    endloop
  endfacet
  facet normal -0.659372 0.751817 0
    outer loop
       vertex -0.0265875 0.176776 0.1
       vertex -0.00200248 0.198338 0.1
       vertex -0.00200248 0.198338 0
    endloop
  endfacet
  facet normal -0.751817 0.659372 0
    outer loop
       vertex -0.0265875 0.176776 0
       vertex -0.0481495 0.152191 0
       vertex -0.0481495 0.152191 0.1
    endloop
  endfacet
  facet normal -0.751817 0.659372 0
    outer loop
       vertex -0.0481495 0.152191 0.1
       vertex -0.0265875 0.176776 0.1
       vertex -0.0265875 0.176776 0
    endloop
  endfacet
  facet normal -0.831476 0.555561 0
    outer loop
       vertex -0.0481495 0.152191 0
       vertex -0.0663175 0.125 0
       vertex -0.0663175 0.125 0.1
    endloop
  endfacet
  facet normal -0.831476 0.555561 0
    outer loop
       vertex -0.0663175 0.125 0.1
       vertex -0.0481495 0.152191 0.1
       vertex -0.0481495 0.152191 0
    endloop
  endfacet
  facet normal -0.896866 0.442302 0
    outer loop
       vertex -0.0663175 0.125 0
       vertex -0.0807815 0.095671 0
       vertex -0.0807815 0.095671 0.1
    endloop
  endfacet
  facet normal -0.896866 0.442302 0
    outer loop
       vertex -0.0807815 0.095671 0.1
       vertex -0.0663175 0.125 0.1
       vertex -0.0663175 0.125 0
    endloop
  endfacet
  facet normal -0.946935 0.321425 0
    outer loop
       vertex -0.0807815 0.095671 0
       vertex -0.0912925 0.064705 0
       vertex -0.0912925 0.064705 0.1
    endloop
  endfacet
  facet normal -0.946935 0.321425 0
    outer loop
       vertex -0.0912925 0.064705 0.1
       vertex -0.0807815 0.095671 0.1
       vertex -0.0807815 0.095671 0
    endloop
  endfacet
  facet normal -0.980784 0.195096 0
    outer loop
       vertex -0.0912925 0.064705 0
       vertex -0.0976725 0.0326315 0
       vertex -0.0976725 0.0326315 0.1
    endloop
  endfacet
  facet normal -0.980784 0.195096 0
    outer loop
       vertex -0.0976725 0.0326315 0.1
       vertex -0.0912925 0.064705 0.1
       vertex -0.0912925 0.064705 0
    endloop
  endfacet
  facet normal -0.997858 0.0654098 0
    outer loop
       vertex -0.0998115 8.32665e-17 0.1
       vertex -0.0976725 0.0326315 0.1
       vertex -0.0976725 0.0326315 0
    endloop
  endfacet
  facet normal -0.997858 0.0654098 -1.08928e-16
    outer loop
       vertex -0.0976725 0.0326315 0
       vertex -0.0998115 -8.32665e-17 0
       vertex -0.0998115 8.32665e-17 0.1
    endloop
  endfacet
  facet normal -0.997858 -0.0654098 0
    outer loop
       vertex -0.0998115 -8.32665e-17 0
       vertex -0.0976725 -0.0326315 0
       vertex -0.0976725 -0.0326315 0.1
    endloop
  endfacet
  facet normal -0.997858 -0.0654098 1.08928e-16
    outer loop
       vertex -0.0976725 -0.0326315 0.1
       vertex -0.0998115 8.32665e-17 0.1
       vertex -0.0998115 -8.32665e-17 0
    endloop
  endfacet
  facet normal -0.980784 -0.195096 0
    outer loop
       vertex -0.0976725 -0.0326315 0
       vertex -0.0912925 -0.064705 0
       vertex -0.0912925 -0.064705 0.1
    endloop
  endfacet
  facet normal -0.980784 -0.195096 0
    outer loop
       vertex -0.0912925 -0.064705 0.1
       vertex -0.0976725 -0.0326315 0.1
       vertex -0.0976725 -0.0326315 0
    endloop
  endfacet
  facet normal -0.946935 -0.321425 0
    outer loop
       vertex -0.0912925 -0.064705 0
       vertex -0.0807815 -0.095671 0
       vertex -0.0807815 -0.095671 0.1
    endloop
  endfacet
  facet normal -0.946935 -0.321425 0
    outer loop
       vertex -0.0807815 -0.095671 0.1
       vertex -0.0912925 -0.064705 0.1
       vertex -0.0912925 -0.064705 0
    endloop
  endfacet
  facet normal -0.896866 -0.442302 0
    outer loop
       vertex -0.0807815 -0.095671 0
       vertex -0.0663175 -0.125 0
       vertex -0.0663175 -0.125 0.1
    endloop
  endfacet
  facet normal -0.896866 -0.442302 0
    outer loop
       vertex -0.0663175 -0.125 0.1
       vertex -0.0807815 -0.095671 0.1
       vertex -0.0807815 -0.095671 0
    endloop
  endfacet
  facet normal -0.831476 -0.555561 0
    outer loop
       vertex -0.0663175 -0.125 0
       vertex -0.0481495 -0.152191 0
       vertex -0.0481495 -0.152191 0.1
    endloop
  endfacet
  facet normal -0.831476 -0.555561 0
    outer loop
       vertex -0.0481495 -0.152191 0.1
       vertex -0.0663175 -0.125 0.1
       vertex -0.0663175 -0.125 0
    endloop
  endfacet
  facet normal -0.751817 -0.659372 0
    outer loop
       vertex -0.0481495 -0.152191 0
       vertex -0.0265875 -0.176776 0
       vertex -0.0265875 -0.176776 0.1
    endloop
  endfacet
  facet normal -0.751817 -0.659372 0
    outer loop
       vertex -0.0265875 -0.176776 0.1
       vertex -0.0481495 -0.152191 0.1
       vertex -0.0481495 -0.152191 0
    endloop
  endfacet
  facet normal 0.659372 -0.751817 0
    outer loop
       vertex 0.326965 -0.176776 0
       vertex 0.326965 -0.176776 0.1
       vertex 0.30238 -0.198338 0.1
    endloop
  endfacet
  facet normal 0.659372 -0.751817 0
    outer loop
       vertex 0.30238 -0.198338 0.1
       vertex 0.30238 -0.198338 0
       vertex 0.326965 -0.176776 0
    endloop
  endfacet
  facet normal 0.555561 -0.831476 0
    outer loop
       vertex 0.30238 -0.198338 0
       vertex 0.30238 -0.198338 0.1
       vertex 0.275189 -0.216506 0.1
    endloop
  endfacet
  facet normal 0.555561 -0.831476 0
    outer loop
       vertex 0.275189 -0.216506 0.1
       vertex 0.275189 -0.216506 0
       vertex 0.30238 -0.198338 0
    endloop
  endfacet
  facet normal 0.442302 -0.896866 0
    outer loop
       vertex 0.275189 -0.216506 0
       vertex 0.275189 -0.216506 0.1
       vertex 0.24586 -0.23097 0.1
    endloop
  endfacet
  facet normal 0.442302 -0.896866 0
    outer loop
       vertex 0.24586 -0.23097 0.1
       vertex 0.24586 -0.23097 0
       vertex 0.275189 -0.216506 0
    endloop
  endfacet
  facet normal 0.321425 -0.946935 0
    outer loop
       vertex 0.24586 -0.23097 0
       vertex 0.24586 -0.23097 0.1
       vertex 0.214894 -0.241481 0.1
    endloop
  endfacet
  facet normal 0.321425 -0.946935 0
    outer loop
       vertex 0.214894 -0.241481 0.1
       vertex 0.214894 -0.241481 0
       vertex 0.24586 -0.23097 0
    endloop
  endfacet
  facet normal 0.195096 -0.980784 0
    outer loop
       vertex 0.214894 -0.241481 0
       vertex 0.214894 -0.241481 0.1
       vertex 0.18282 -0.247861 0.1
    endloop
  endfacet
  facet normal 0.195096 -0.980784 0
    outer loop
       vertex 0.18282 -0.247861 0.1
       vertex 0.18282 -0.247861 0
       vertex 0.214894 -0.241481 0
    endloop
  endfacet
  facet normal 0.0654098 -0.997858 0
    outer loop
       vertex 0.150189 -0.25 0
       vertex 0.18282 -0.247861 0
       vertex 0.18282 -0.247861 0.1
    endloop
  endfacet
  facet normal 0.0654098 -0.997858 1.0893e-16
    outer loop
       vertex 0.18282 -0.247861 0.1
       vertex 0.150189 -0.25 0.1
       vertex 0.150189 -0.25 0
    endloop
  endfacet
  facet normal -0.0654098 -0.997858 0
    outer loop
       vertex 0.150189 -0.25 0.1
       vertex 0.117557 -0.247861 0.1
       vertex 0.117557 -0.247861 0
    endloop
  endfacet
  facet normal -0.0654098 -0.997858 -1.0893e-16
    outer loop
       vertex 0.117557 -0.247861 0
       vertex 0.150189 -0.25 0
       vertex 0.150189 -0.25 0.1
    endloop
  endfacet
  facet normal -0.195096 -0.980784 0
    outer loop
       vertex 0.117557 -0.247861 0
       vertex 0.117557 -0.247861 0.1
       vertex 0.0854835 -0.241481 0.1
    endloop
  endfacet
  facet normal -0.195096 -0.980784 -0
    outer loop
       vertex 0.0854835 -0.241481 0.1
       vertex 0.0854835 -0.241481 0
       vertex 0.117557 -0.247861 0
    endloop
  endfacet
  facet normal -0.321425 -0.946935 0
    outer loop
       vertex 0.0854835 -0.241481 0
       vertex 0.0854835 -0.241481 0.1
       vertex 0.0545175 -0.23097 0.1
    endloop
  endfacet
  facet normal -0.321425 -0.946935 -0
    outer loop
       vertex 0.0545175 -0.23097 0.1
       vertex 0.0545175 -0.23097 0
       vertex 0.0854835 -0.241481 0
    endloop
  endfacet
  facet normal -0.442302 -0.896866 0
    outer loop
       vertex 0.0545175 -0.23097 0
       vertex 0.0545175 -0.23097 0.1
       vertex 0.0251885 -0.216506 0.1
    endloop
  endfacet
  facet normal -0.442302 -0.896866 -0
    outer loop
       vertex 0.0251885 -0.216506 0.1
       vertex 0.0251885 -0.216506 0
       vertex 0.0545175 -0.23097 0
    endloop
  endfacet
  facet normal -0.555561 -0.831476 0
    outer loop
       vertex 0.0251885 -0.216506 0
       vertex 0.0251885 -0.216506 0.1
       vertex -0.00200248 -0.198338 0.1
    endloop
  endfacet
  facet normal -0.555561 -0.831476 -0
    outer loop
       vertex -0.00200248 -0.198338 0.1
       vertex -0.00200248 -0.198338 0
       vertex 0.0251885 -0.216506 0
    endloop
  endfacet
  facet normal -0.659372 -0.751817 0
    outer loop
       vertex -0.00200248 -0.198338 0
       vertex -0.00200248 -0.198338 0.1
       vertex -0.0265875 -0.176776 0.1
    endloop
  endfacet
  facet normal -0.659372 -0.751817 -0
    outer loop
       vertex -0.0265875 -0.176776 0.1
       vertex -0.0265875 -0.176776 0
       vertex -0.00200248 -0.198338 0
    endloop
  endfacet
endsolid cylinder
