solid cylinder
  facet normal 0.751817 -0.659372 0
    outer loop
       vertex 0.39671 -0.176776 0
       vertex 0.418272 -0.152191 0
       vertex 0.418272 -0.152191 0.1
    endloop
  endfacet
  facet normal 0.751817 -0.659372 0
    outer loop
       vertex 0.418272 -0.152191 0.1
       vertex 0.39671 -0.176776 0.1
       vertex 0.39671 -0.176776 0
    endloop
  endfacet
  facet normal 0.831476 -0.555561 0
    outer loop
       vertex 0.418272 -0.152191 0
       vertex 0.43644 -0.125 0
       vertex 0.43644 -0.125 0.1
    endloop
  endfacet
  facet normal 0.831476 -0.555561 0
    outer loop
       vertex 0.43644 -0.125 0.1
       vertex 0.418272 -0.152191 0.1
       vertex 0.418272 -0.152191 0
    endloop
  endfacet
  facet normal 0.896866 -0.442302 0
    outer loop
       vertex 0.43644 -0.125 0
       vertex 0.450904 -0.095671 0
       vertex 0.450904 -0.095671 0.1
    endloop
  endfacet
  facet normal 0.896866 -0.442302 0
    outer loop
       vertex 0.450904 -0.095671 0.1
       vertex 0.43644 -0.125 0.1
       vertex 0.43644 -0.125 0
    endloop
  endfacet
  facet normal 0.946935 -0.321425 0
    outer loop
       vertex 0.450904 -0.095671 0
       vertex 0.461415 -0.064705 0
       vertex 0.461415 -0.064705 0.1
    endloop
  endfacet
  facet normal 0.946935 -0.321425 0
    outer loop
       vertex 0.461415 -0.064705 0.1
       vertex 0.450904 -0.095671 0.1
       vertex 0.450904 -0.095671 0
    endloop
  endfacet
  facet normal 0.980784 -0.195096 0
    outer loop
       vertex 0.461415 -0.064705 0
       vertex 0.467795 -0.0326315 0
       vertex 0.467795 -0.0326315 0.1
    endloop
  endfacet
  facet normal 0.980784 -0.195096 0
    outer loop
       vertex 0.467795 -0.0326315 0.1
       vertex 0.461415 -0.064705 0.1
       vertex 0.461415 -0.064705 0
    endloop
  endfacet
  facet normal 0.997858 -0.0654098 0
    outer loop
       vertex 0.469934 -8.32665e-17 0.1
       vertex 0.467795 -0.0326315 0.1
       vertex 0.467795 -0.0326315 0
    endloop
  endfacet
  facet normal 0.997858 -0.0654098 -1.08928e-16
    outer loop
       vertex 0.467795 -0.0326315 0
       vertex 0.469934 8.32665e-17 0
       vertex 0.469934 -8.32665e-17 0.1
    endloop
  endfacet
  facet normal 0.997858 0.0654098 0
    outer loop
       vertex 0.469934 8.32665e-17 0
       vertex 0.467795 0.0326315 0
       vertex 0.467795 0.0326315 0.1
    endloop
  endfacet
  facet normal 0.997858 0.0654098 1.08928e-16
    outer loop
       vertex 0.467795 0.0326315 0.1
       vertex 0.469934 -8.32665e-17 0.1
       vertex 0.469934 8.32665e-17 0
    endloop
  endfacet
  facet normal 0.980784 0.195096 0
    outer loop
       vertex 0.467795 0.0326315 0
       vertex 0.461415 0.064705 0
       vertex 0.461415 0.064705 0.1
    endloop
  endfacet
  facet normal 0.980784 0.195096 0
    outer loop
       vertex 0.461415 0.064705 0.1
       vertex 0.467795 0.0326315 0.1
       vertex 0.467795 0.0326315 0
    endloop
  endfacet
  facet normal 0.946935 0.321425 0
    outer loop
       vertex 0.461415 0.064705 0
       vertex 0.450904 0.095671 0
       vertex 0.450904 0.095671 0.1
    endloop
  endfacet
  facet normal 0.946935 0.321425 0
    outer loop
       vertex 0.450904 0.095671 0.1
       vertex 0.461415 0.064705 0.1
       vertex 0.461415 0.064705 0
    endloop
  endfacet
  facet normal 0.896866 0.442302 0
    outer loop
       vertex 0.450904 0.095671 0
       vertex 0.43644 0.125 0
       vertex 0.43644 0.125 0.1
    endloop
  endfacet
  facet normal 0.896866 0.442302 0
    outer loop
       vertex 0.43644 0.125 0.1
       vertex 0.450904 0.095671 0.1
       vertex 0.450904 0.095671 0
    endloop
  endfacet
  facet normal 0.831476 0.555561 0
    outer loop
       vertex 0.43644 0.125 0
       vertex 0.418272 0.152191 0
       vertex 0.418272 0.152191 0.1
    endloop
  endfacet
  facet normal 0.831476 0.555561 0
    outer loop
       vertex 0.418272 0.152191 0.1
       vertex 0.43644 0.125 0.1
       vertex 0.43644 0.125 0
    endloop
  endfacet
  facet normal 0.751817 0.659372 0
    outer loop
       vertex 0.418272 0.152191 0
       vertex 0.39671 0.176776 0
       vertex 0.39671 0.176776 0.1
    endloop
  endfacet
  facet normal 0.751817 0.659372 0
    outer loop
       vertex 0.39671 0.176776 0.1
       vertex 0.418272 0.152191 0.1
       vertex 0.418272 0.152191 0
    endloop
  endfacet
  facet normal 0.659372 0.751817 0
    outer loop
       vertex 0.39671 0.176776 0
       vertex 0.372125 0.198338 0
       vertex 0.372125 0.198338 0.1
    endloop
  endfacet
  facet normal 0.659372 0.751817 0
    outer loop
       vertex 0.372125 0.198338 0.1
       vertex 0.39671 0.176776 0.1
       vertex 0.39671 0.176776 0
    endloop
  endfacet
  facet normal 0.555561 0.831476 0
    outer loop
       vertex 0.372125 0.198338 0
       vertex 0.344934 0.216506 0
       vertex 0.344934 0.216506 0.1
    endloop
  endfacet
  facet normal 0.555561 0.831476 0
    outer loop
       vertex 0.344934 0.216506 0.1
       vertex 0.372125 0.198338 0.1
       vertex 0.372125 0.198338 0
    endloop
  endfacet
  facet normal 0.442302 0.896866 0
    outer loop
       vertex 0.344934 0.216506 0
       vertex 0.315605 0.23097 0
       vertex 0.315605 0.23097 0.1
    endloop
  endfacet
  facet normal 0.442302 0.896866 0
    outer loop
       vertex 0.315605 0.23097 0.1
       vertex 0.344934 0.216506 0.1
       vertex 0.344934 0.216506 0
    endloop
  endfacet
  facet normal 0.321425 0.946935 0
    outer loop
       vertex 0.315605 0.23097 0
       vertex 0.284639 0.241481 0
       vertex 0.284639 0.241481 0.1
    endloop
  endfacet
  facet normal 0.321425 0.946935 0
    outer loop
       vertex 0.284639 0.241481 0.1
       vertex 0.315605 0.23097 0.1
       vertex 0.315605 0.23097 0
    endloop
  endfacet
  facet normal 0.195096 0.980784 0
    outer loop
       vertex 0.284639 0.241481 0
       vertex 0.252565 0.247861 0
       vertex 0.252565 0.247861 0.1
    endloop
  endfacet
  facet normal 0.195096 0.980784 0
    outer loop
       vertex 0.252565 0.247861 0.1
       vertex 0.284639 0.241481 0.1
       vertex 0.284639 0.241481 0
    endloop
  endfacet
  facet normal 0.0654098 0.997858 0
    outer loop
       vertex 0.219934 0.25 0.1
       vertex 0.252565 0.247861 0.1
       vertex 0.252565 0.247861 0
    endloop
  endfacet
  facet normal 0.0654098 0.997858 -1.0893e-16
    outer loop
       vertex 0.252565 0.247861 0
       vertex 0.219934 0.25 0
       vertex 0.219934 0.25 0.1
    endloop
  endfacet
  facet normal -0.0654098 0.997858 0
    outer loop
       vertex 0.219934 0.25 0
       vertex 0.187302 0.247861 0
       vertex 0.187302 0.247861 0.1
    endloop
  endfacet
  facet normal -0.0654098 0.997858 1.0893e-16
    outer loop
       vertex 0.187302 0.247861 0.1
       vertex 0.219934 0.25 0.1
       vertex 0.219934 0.25 0
    endloop
  endfacet
  facet normal -0.195096 0.980784 0
    outer loop
       vertex 0.187302 0.247861 0
       vertex 0.155229 0.241481 0
       vertex 0.155229 0.241481 0.1
    endloop
  endfacet
  facet normal -0.195096 0.980784 0
    outer loop
       vertex 0.155229 0.241481 0.1
       vertex 0.187302 0.247861 0.1
       vertex 0.187302 0.247861 0
    endloop
  endfacet
  facet normal -0.321425 0.946935 0
    outer loop
       vertex 0.155229 0.241481 0
       vertex 0.124263 0.23097 0
       vertex 0.124263 0.23097 0.1
    endloop
  endfacet
  facet normal -0.321425 0.946935 0
    outer loop
       vertex 0.124263 0.23097 0.1
       vertex 0.155229 0.241481 0.1
       vertex 0.155229 0.241481 0
    endloop
  endfacet
  facet normal -0.442302 0.896866 0
    outer loop
       vertex 0.124263 0.23097 0
       vertex 0.094934 0.216506 0
       vertex 0.094934 0.216506 0.1
    endloop
  endfacet
  facet normal -0.442302 0.896866 0
    outer loop
       vertex 0.094934 0.216506 0.1
       vertex 0.124263 0.23097 0.1
       vertex 0.124263 0.23097 0
    endloop
  endfacet
  facet normal -0.555561 0.831476 0
    outer loop
       vertex 0.094934 0.216506 0
       vertex 0.067743 0.198338 0
       vertex 0.067743 0.198338 0.1
    endloop
  endfacet
  facet normal -0.555561 0.831476 0
    outer loop
       vertex 0.067743 0.198338 0.1
       vertex 0.094934 0.216506 0.1
       vertex 0.094934 0.216506 0
    endloop
  endfacet
  facet normal -0.659372 0.751817 0
    outer loop
       vertex 0.067743 0.198338 0
       vertex 0.043158 0.176776 0
       vertex 0.043158 0.176776 0.1
    endloop
  endfacet
  facet normal -0.659372 0.751817 0
    outer loop
       vertex 0.043158 0.176776 0.1
       vertex 0.067743 0.198338 0.1
       vertex 0.067743 0.198338 0
    endloop
  endfacet
  facet normal -0.751817 0.659372 0
    outer loop
       vertex 0.043158 0.176776 0
       vertex 0.021596 0.152191 0
       vertex 0.021596 0.152191 0.1
    endloop
  endfacet
  facet normal -0.751817 0.659372 0
    outer loop
       vertex 0.021596 0.152191 0.1
       vertex 0.043158 0.176776 0.1
       vertex 0.043158 0.176776 0
    endloop
  endfacet
  facet normal -0.831476 0.555561 0
    outer loop
       vertex 0.021596 0.152191 0
       vertex 0.00342796 0.125 0
       vertex 0.00342796 0.125 0.1
    endloop
  endfacet
  facet normal -0.831476 0.555561 0
    outer loop
       vertex 0.00342796 0.125 0.1
       vertex 0.021596 0.152191 0.1
       vertex 0.021596 0.152191 0
    endloop
  endfacet
  facet normal -0.896866 0.442302 0
    outer loop
       vertex 0.00342796 0.125 0
       vertex -0.011036 0.095671 0
       vertex -0.011036 0.095671 0.1
    endloop
  endfacet
  facet normal -0.896866 0.442302 0
    outer loop
       vertex -0.011036 0.095671 0.1
       vertex 0.00342796 0.125 0.1
       vertex 0.00342796 0.125 0
    endloop
  endfacet
  facet normal -0.946935 0.321425 0
    outer loop
       vertex -0.011036 0.095671 0
       vertex -0.021547 0.064705 0
       vertex -0.021547 0.064705 0.1
    endloop
  endfacet
  facet normal -0.946935 0.321425 0
    outer loop
       vertex -0.021547 0.064705 0.1
       vertex -0.011036 0.095671 0.1
       vertex -0.011036 0.095671 0
    endloop
  endfacet
  facet normal -0.980784 0.195096 0
    outer loop
       vertex -0.021547 0.064705 0
       vertex -0.027927 0.0326315 0
       vertex -0.027927 0.0326315 0.1
    endloop
  endfacet
  facet normal -0.980784 0.195096 0
    outer loop
       vertex -0.027927 0.0326315 0.1
       vertex -0.021547 0.064705 0.1
       vertex -0.021547 0.064705 0
    endloop
  endfacet
  facet normal -0.997858 0.0654098 0
    outer loop
       vertex -0.030066 8.32665e-17 0.1
       vertex -0.027927 0.0326315 0.1
       vertex -0.027927 0.0326315 0
    endloop
  endfacet
  facet normal -0.997858 0.0654098 -1.08928e-16
    outer loop
       vertex -0.027927 0.0326315 0
       vertex -0.030066 -8.32665e-17 0
       vertex -0.030066 8.32665e-17 0.1
    endloop
  endfacet
  facet normal -0.997858 -0.0654098 0
    outer loop
       vertex -0.030066 -8.32665e-17 0
       vertex -0.027927 -0.0326315 0
       vertex -0.027927 -0.0326315 0.1
    endloop
  endfacet
  facet normal -0.997858 -0.0654098 1.08928e-16
    outer loop
       vertex -0.027927 -0.0326315 0.1
       vertex -0.030066 8.32665e-17 0.1
       vertex -0.030066 -8.32665e-17 0
    endloop
  endfacet
  facet normal -0.980784 -0.195096 0
    outer loop
       vertex -0.027927 -0.0326315 0
       vertex -0.021547 -0.064705 0
       vertex -0.021547 -0.064705 0.1
    endloop
  endfacet
  facet normal -0.980784 -0.195096 0
    outer loop
       vertex -0.021547 -0.064705 0.1
       vertex -0.027927 -0.0326315 0.1
       vertex -0.027927 -0.0326315 0
    endloop
  endfacet
  facet normal -0.946935 -0.321425 0
    outer loop
       vertex -0.021547 -0.064705 0
       vertex -0.011036 -0.095671 0
       vertex -0.011036 -0.095671 0.1
    endloop
  endfacet
  facet normal -0.946935 -0.321425 0
    outer loop
       vertex -0.011036 -0.095671 0.1
       vertex -0.021547 -0.064705 0.1
       vertex -0.021547 -0.064705 0
    endloop
  endfacet
  facet normal -0.896866 -0.442302 0
    outer loop
       vertex -0.011036 -0.095671 0
       vertex 0.00342796 -0.125 0
       vertex 0.00342796 -0.125 0.1
    endloop
  endfacet
  facet normal -0.896866 -0.442302 0
    outer loop
       vertex 0.00342796 -0.125 0.1
       vertex -0.011036 -0.095671 0.1
       vertex -0.011036 -0.095671 0
    endloop
  endfacet
  facet normal -0.831476 -0.555561 0
    outer loop
       vertex 0.00342796 -0.125 0
       vertex 0.021596 -0.152191 0
       vertex 0.021596 -0.152191 0.1
    endloop
  endfacet
  facet normal -0.831476 -0.555561 0
    outer loop
       vertex 0.021596 -0.152191 0.1
       vertex 0.00342796 -0.125 0.1
       vertex 0.00342796 -0.125 0
    endloop
  endfacet
  facet normal -0.751817 -0.659372 0
    outer loop
       vertex 0.021596 -0.152191 0
       vertex 0.043158 -0.176776 0
       vertex 0.043158 -0.176776 0.1
    endloop
  endfacet
  facet normal -0.751817 -0.659372 0
    outer loop
       vertex 0.043158 -0.176776 0.1
       vertex 0.021596 -0.152191 0.1
       vertex 0.021596 -0.152191 0
    endloop
  endfacet
  facet normal 0.659372 -0.751817 0
    outer loop
       vertex 0.39671 -0.176776 0
       vertex 0.39671 -0.176776 0.1
       vertex 0.372125 -0.198338 0.1
    endloop
  endfacet
  facet normal 0.659372 -0.751817 0
    outer loop
       vertex 0.372125 -0.198338 0.1
       vertex 0.372125 -0.198338 0
       vertex 0.39671 -0.176776 0
    endloop
  endfacet
  facet normal 0.555561 -0.831476 0
    outer loop
       vertex 0.372125 -0.198338 0
       vertex 0.372125 -0.198338 0.1
       vertex 0.344934 -0.216506 0.1
    endloop
  endfacet
  facet normal 0.555561 -0.831476 0
    outer loop
       vertex 0.344934 -0.216506 0.1
       vertex 0.344934 -0.216506 0
       vertex 0.372125 -0.198338 0
    endloop
  endfacet
  facet normal 0.442302 -0.896866 0
    outer loop
       vertex 0.344934 -0.216506 0
       vertex 0.344934 -0.216506 0.1
       vertex 0.315605 -0.23097 0.1
    endloop
  endfacet
  facet normal 0.442302 -0.896866 0
    outer loop
       vertex 0.315605 -0.23097 0.1
       vertex 0.315605 -0.23097 0
       vertex 0.344934 -0.216506 0
    endloop
  endfacet
  facet normal 0.321425 -0.946935 0
    outer loop
       vertex 0.315605 -0.23097 0
       vertex 0.315605 -0.23097 0.1
       vertex 0.284639 -0.241481 0.1
    endloop
  endfacet
  facet normal 0.321425 -0.946935 0
    outer loop
       vertex 0.284639 -0.241481 0.1
       vertex 0.284639 -0.241481 0
       vertex 0.315605 -0.23097 0
    endloop
  endfacet
  facet normal 0.195096 -0.980784 0
    outer loop
       vertex 0.284639 -0.241481 0
       vertex 0.284639 -0.241481 0.1
       vertex 0.252565 -0.247861 0.1
    endloop
  endfacet
  facet normal 0.195096 -0.980784 0
    outer loop
       vertex 0.252565 -0.247861 0.1
       vertex 0.252565 -0.247861 0
       vertex 0.284639 -0.241481 0
    endloop
  endfacet
  facet normal 0.0654098 -0.997858 0
    outer loop
       vertex 0.219934 -0.25 0
       vertex 0.252565 -0.247861 0
       vertex 0.252565 -0.247861 0.1
    endloop
  endfacet
  facet normal 0.0654098 -0.997858 1.0893e-16
    outer loop
       vertex 0.252565 -0.247861 0.1
       vertex 0.219934 -0.25 0.1
       vertex 0.219934 -0.25 0
    endloop
  endfacet
  facet normal -0.0654098 -0.997858 0
    outer loop
       vertex 0.219934 -0.25 0.1
       vertex 0.187302 -0.247861 0.1
       vertex 0.187302 -0.247861 0
    endloop
  endfacet
  facet normal -0.0654098 -0.997858 -1.0893e-16
    outer loop
       vertex 0.187302 -0.247861 0
       vertex 0.219934 -0.25 0
       vertex 0.219934 -0.25 0.1
    endloop
  endfacet
  facet normal -0.195096 -0.980784 0
    outer loop
       vertex 0.187302 -0.247861 0
       vertex 0.187302 -0.247861 0.1
       vertex 0.155229 -0.241481 0.1
    endloop
  endfacet
  facet normal -0.195096 -0.980784 -0
    outer loop
       vertex 0.155229 -0.241481 0.1
       vertex 0.155229 -0.241481 0
       vertex 0.187302 -0.247861 0
    endloop
  endfacet
  facet normal -0.321425 -0.946935 0
    outer loop
       vertex 0.155229 -0.241481 0
       vertex 0.155229 -0.241481 0.1
       vertex 0.124263 -0.23097 0.1
    endloop
  endfacet
  facet normal -0.321425 -0.946935 -0
    outer loop
       vertex 0.124263 -0.23097 0.1
       vertex 0.124263 -0.23097 0
       vertex 0.155229 -0.241481 0
    endloop
  endfacet
  facet normal -0.442302 -0.896866 0
    outer loop
       vertex 0.124263 -0.23097 0
       vertex 0.124263 -0.23097 0.1
       vertex 0.094934 -0.216506 0.1
    endloop
  endfacet
  facet normal -0.442302 -0.896866 -0
    outer loop
       vertex 0.094934 -0.216506 0.1
       vertex 0.094934 -0.216506 0
       vertex 0.124263 -0.23097 0
    endloop
  endfacet
  facet normal -0.555561 -0.831476 0
    outer loop
       vertex 0.094934 -0.216506 0
       vertex 0.094934 -0.216506 0.1
       vertex 0.067743 -0.198338 0.1
    endloop
  endfacet
  facet normal -0.555561 -0.831476 -0
    outer loop
       vertex 0.067743 -0.198338 0.1
       vertex 0.067743 -0.198338 0
       vertex 0.094934 -0.216506 0
    endloop
  endfacet
  facet normal -0.659372 -0.751817 0
    outer loop
       vertex 0.067743 -0.198338 0
       vertex 0.067743 -0.198338 0.1
       vertex 0.043158 -0.176776 0.1
    endloop
  endfacet
  facet normal -0.659372 -0.751817 -0
    outer loop
       vertex 0.043158 -0.176776 0.1
       vertex 0.043158 -0.176776 0
       vertex 0.067743 -0.198338 0
    endloop
  endfacet
endsolid cylinder
