solid cylinder
  facet normal 0.751817 -0.659372 0
    outer loop
       vertex 0.218229 -0.176776 0
       vertex 0.239791 -0.152191 0
       vertex 0.239791 -0.152191 0.1
    endloop
  endfacet
  facet normal 0.751817 -0.659372 0
    outer loop
       vertex 0.239791 -0.152191 0.1
       vertex 0.218229 -0.176776 0.1
       vertex 0.218229 -0.176776 0
    endloop
  endfacet
  facet normal 0.831476 -0.555561 0
    outer loop
       vertex 0.239791 -0.152191 0
       vertex 0.257959 -0.125 0
       vertex 0.257959 -0.125 0.1
    endloop
  endfacet
  facet normal 0.831476 -0.555561 0
    outer loop
       vertex 0.257959 -0.125 0.1
       vertex 0.239791 -0.152191 0.1
       vertex 0.239791 -0.152191 0
    endloop
  endfacet
  facet normal 0.896866 -0.442302 0
    outer loop
       vertex 0.257959 -0.125 0
       vertex 0.272423 -0.095671 0
       vertex 0.272423 -0.095671 0.1
    endloop
  endfacet
  facet normal 0.896866 -0.442302 0
    outer loop
       vertex 0.272423 -0.095671 0.1
       vertex 0.257959 -0.125 0.1
       vertex 0.257959 -0.125 0
    endloop
  endfacet
  facet normal 0.946935 -0.321425 0
    outer loop
       vertex 0.272423 -0.095671 0
       vertex 0.282934 -0.064705 0
       vertex 0.282934 -0.064705 0.1
    endloop
  endfacet
  facet normal 0.946935 -0.321425 0
    outer loop
       vertex 0.282934 -0.064705 0.1
       vertex 0.272423 -0.095671 0.1
       vertex 0.272423 -0.095671 0
    endloop
  endfacet
  facet normal 0.980784 -0.195096 0
    outer loop
       vertex 0.282934 -0.064705 0
       vertex 0.289314 -0.0326315 0
       vertex 0.289314 -0.0326315 0.1
    endloop
  endfacet
  facet normal 0.980784 -0.195096 0
    outer loop
       vertex 0.289314 -0.0326315 0.1
       vertex 0.282934 -0.064705 0.1
       vertex 0.282934 -0.064705 0
    endloop
  endfacet
  facet normal 0.997858 -0.0654098 0
    outer loop
       vertex 0.291453 -8.32665e-17 0.1
       vertex 0.289314 -0.0326315 0.1
       vertex 0.289314 -0.0326315 0
    endloop
  endfacet
  facet normal 0.997858 -0.0654098 -1.08928e-16
    outer loop
       vertex 0.289314 -0.0326315 0
       vertex 0.291453 8.32665e-17 0
       vertex 0.291453 -8.32665e-17 0.1
    endloop
  endfacet
  facet normal 0.997858 0.0654098 0
    outer loop
       vertex 0.291453 8.32665e-17 0
       vertex 0.289314 0.0326315 0
       vertex 0.289314 0.0326315 0.1
    endloop
  endfacet
  facet normal 0.997858 0.0654098 1.08928e-16
    outer loop
       vertex 0.289314 0.0326315 0.1
       vertex 0.291453 -8.32665e-17 0.1
       vertex 0.291453 8.32665e-17 0
    endloop
  endfacet
  facet normal 0.980784 0.195096 0
    outer loop
       vertex 0.289314 0.0326315 0
       vertex 0.282934 0.064705 0
       vertex 0.282934 0.064705 0.1
    endloop
  endfacet
  facet normal 0.980784 0.195096 0
    outer loop
       vertex 0.282934 0.064705 0.1
       vertex 0.289314 0.0326315 0.1
       vertex 0.289314 0.0326315 0
    endloop
  endfacet
  facet normal 0.946935 0.321425 0
    outer loop
       vertex 0.282934 0.064705 0
       vertex 0.272423 0.095671 0
       vertex 0.272423 0.095671 0.1
    endloop
  endfacet
  facet normal 0.946935 0.321425 0
    outer loop
       vertex 0.272423 0.095671 0.1
       vertex 0.282934 0.064705 0.1
       vertex 0.282934 0.064705 0
    endloop
  endfacet
  facet normal 0.896866 0.442302 0
    outer loop
       vertex 0.272423 0.095671 0
       vertex 0.257959 0.125 0
       vertex 0.257959 0.125 0.1
    endloop
  endfacet
  facet normal 0.896866 0.442302 0
    outer loop
       vertex 0.257959 0.125 0.1
       vertex 0.272423 0.095671 0.1
       vertex 0.272423 0.095671 0
    endloop
  endfacet
  facet normal 0.831476 0.555561 0
    outer loop
       vertex 0.257959 0.125 0
       vertex 0.239791 0.152191 0
       vertex 0.239791 0.152191 0.1
    endloop
  endfacet
  facet normal 0.831476 0.555561 0
    outer loop
       vertex 0.239791 0.152191 0.1
       vertex 0.257959 0.125 0.1
       vertex 0.257959 0.125 0
    endloop
  endfacet
  facet normal 0.751817 0.659372 0
    outer loop
       vertex 0.239791 0.152191 0
       vertex 0.218229 0.176776 0
       vertex 0.218229 0.176776 0.1
    endloop
  endfacet
  facet normal 0.751817 0.659372 0
    outer loop
       vertex 0.218229 0.176776 0.1
       vertex 0.239791 0.152191 0.1
       vertex 0.239791 0.152191 0
    endloop
  endfacet
  facet normal 0.659372 0.751817 0
    outer loop
       vertex 0.218229 0.176776 0
       vertex 0.193644 0.198338 0
       vertex 0.193644 0.198338 0.1
    endloop
  endfacet
  facet normal 0.659372 0.751817 0
    outer loop
       vertex 0.193644 0.198338 0.1
       vertex 0.218229 0.176776 0.1
       vertex 0.218229 0.176776 0
    endloop
  endfacet
  facet normal 0.555561 0.831476 0
    outer loop
       vertex 0.193644 0.198338 0
       vertex 0.166453 0.216506 0
       vertex 0.166453 0.216506 0.1
    endloop
  endfacet
  facet normal 0.555561 0.831476 0
    outer loop
       vertex 0.166453 0.216506 0.1
       vertex 0.193644 0.198338 0.1
       vertex 0.193644 0.198338 0
    endloop
  endfacet
  facet normal 0.442302 0.896866 0
    outer loop
       vertex 0.166453 0.216506 0
       vertex 0.137124 0.23097 0
       vertex 0.137124 0.23097 0.1
    endloop
  endfacet
  facet normal 0.442302 0.896866 0
    outer loop
       vertex 0.137124 0.23097 0.1
       vertex 0.166453 0.216506 0.1
       vertex 0.166453 0.216506 0
    endloop
  endfacet
  facet normal 0.321425 0.946935 0
    outer loop
       vertex 0.137124 0.23097 0
       vertex 0.106158 0.241481 0
       vertex 0.106158 0.241481 0.1
    endloop
  endfacet
  facet normal 0.321425 0.946935 0
    outer loop
       vertex 0.106158 0.241481 0.1
       vertex 0.137124 0.23097 0.1
       vertex 0.137124 0.23097 0
    endloop
  endfacet
  facet normal 0.195096 0.980784 0
    outer loop
       vertex 0.106158 0.241481 0
       vertex 0.0740842 0.247861 0
       vertex 0.0740842 0.247861 0.1
    endloop
  endfacet
  facet normal 0.195096 0.980784 0
    outer loop
       vertex 0.0740842 0.247861 0.1
       vertex 0.106158 0.241481 0.1
       vertex 0.106158 0.241481 0
    endloop
  endfacet
  facet normal 0.0654098 0.997858 0
    outer loop
       vertex 0.0414527 0.25 0.1
       vertex 0.0740842 0.247861 0.1
       vertex 0.0740842 0.247861 0
    endloop
  endfacet
  facet normal 0.0654098 0.997858 -1.08928e-16
    outer loop
       vertex 0.0740842 0.247861 0
       vertex 0.0414527 0.25 0
       vertex 0.0414527 0.25 0.1
    endloop
  endfacet
  facet normal -0.0654098 0.997858 0
    outer loop
       vertex 0.0414527 0.25 0
       vertex 0.0088212 0.247861 0
       vertex 0.0088212 0.247861 0.1
    endloop
  endfacet
  facet normal -0.0654098 0.997858 1.08928e-16
    outer loop
       vertex 0.0088212 0.247861 0.1
       vertex 0.0414527 0.25 0.1
       vertex 0.0414527 0.25 0
    endloop
  endfacet
  facet normal -0.195096 0.980784 0
    outer loop
       vertex 0.0088212 0.247861 0
       vertex -0.0232523 0.241481 0
       vertex -0.0232523 0.241481 0.1
    endloop
  endfacet
  facet normal -0.195096 0.980784 0
    outer loop
       vertex -0.0232523 0.241481 0.1
       vertex 0.0088212 0.247861 0.1
       vertex 0.0088212 0.247861 0
    endloop
  endfacet
  facet normal -0.321425 0.946935 0
    outer loop
       vertex -0.0232523 0.241481 0
       vertex -0.0542183 0.23097 0
       vertex -0.0542183 0.23097 0.1
    endloop
  endfacet
  facet normal -0.321425 0.946935 0
    outer loop
       vertex -0.0542183 0.23097 0.1
       vertex -0.0232523 0.241481 0.1
       vertex -0.0232523 0.241481 0
    endloop
  endfacet
  facet normal -0.442302 0.896866 0
    outer loop
       vertex -0.0542183 0.23097 0
       vertex -0.0835473 0.216506 0
       vertex -0.0835473 0.216506 0.1
    endloop
  endfacet
  facet normal -0.442302 0.896866 0
    outer loop
       vertex -0.0835473 0.216506 0.1
       vertex -0.0542183 0.23097 0.1
       vertex -0.0542183 0.23097 0
    endloop
  endfacet
  facet normal -0.555561 0.831476 0
    outer loop
       vertex -0.0835473 0.216506 0
       vertex -0.110738 0.198338 0
       vertex -0.110738 0.198338 0.1
    endloop
  endfacet
  facet normal -0.555561 0.831476 0
    outer loop
       vertex -0.110738 0.198338 0.1
       vertex -0.0835473 0.216506 0.1
       vertex -0.0835473 0.216506 0
    endloop
  endfacet
  facet normal -0.659372 0.751817 0
    outer loop
       vertex -0.110738 0.198338 0
       vertex -0.135323 0.176776 0
       vertex -0.135323 0.176776 0.1
    endloop
  endfacet
  facet normal -0.659372 0.751817 0
    outer loop
       vertex -0.135323 0.176776 0.1
       vertex -0.110738 0.198338 0.1
       vertex -0.110738 0.198338 0
    endloop
  endfacet
  facet normal -0.751817 0.659372 0
    outer loop
       vertex -0.135323 0.176776 0
       vertex -0.156885 0.152191 0
       vertex -0.156885 0.152191 0.1
    endloop
  endfacet
  facet normal -0.751817 0.659372 0
    outer loop
       vertex -0.156885 0.152191 0.1
       vertex -0.135323 0.176776 0.1
       vertex -0.135323 0.176776 0
    endloop
  endfacet
  facet normal -0.831476 0.555561 0
    outer loop
       vertex -0.156885 0.152191 0
       vertex -0.175053 0.125 0
       vertex -0.175053 0.125 0.1
    endloop
  endfacet
  facet normal -0.831476 0.555561 0
    outer loop
       vertex -0.175053 0.125 0.1
       vertex -0.156885 0.152191 0.1
       vertex -0.156885 0.152191 0
    endloop
  endfacet
  facet normal -0.896866 0.442302 0
    outer loop
       vertex -0.175053 0.125 0
       vertex -0.189517 0.095671 0
       vertex -0.189517 0.095671 0.1
    endloop
  endfacet
  facet normal -0.896866 0.442302 0
    outer loop
       vertex -0.189517 0.095671 0.1
       vertex -0.175053 0.125 0.1
       vertex -0.175053 0.125 0
    endloop
  endfacet
  facet normal -0.946935 0.321425 0
    outer loop
       vertex -0.189517 0.095671 0
       vertex -0.200028 0.064705 0
       vertex -0.200028 0.064705 0.1
    endloop
  endfacet
  facet normal -0.946935 0.321425 0
    outer loop
       vertex -0.200028 0.064705 0.1
       vertex -0.189517 0.095671 0.1
       vertex -0.189517 0.095671 0
    endloop
  endfacet
  facet normal -0.980784 0.195096 0
    outer loop
       vertex -0.200028 0.064705 0
       vertex -0.206408 0.0326315 0
       vertex -0.206408 0.0326315 0.1
    endloop
  endfacet
  facet normal -0.980784 0.195096 0
    outer loop
       vertex -0.206408 0.0326315 0.1
       vertex -0.200028 0.064705 0.1
       vertex -0.200028 0.064705 0
    endloop
  endfacet
  facet normal -0.997858 0.0654098 0
    outer loop
       vertex -0.208547 8.32665e-17 0.1
       vertex -0.206408 0.0326315 0.1
       vertex -0.206408 0.0326315 0
    endloop
  endfacet
  facet normal -0.997858 0.0654098 -1.08928e-16
    outer loop
       vertex -0.206408 0.0326315 0
       vertex -0.208547 -8.32665e-17 0
       vertex -0.208547 8.32665e-17 0.1
    endloop
  endfacet
  facet normal -0.997858 -0.0654098 0
    outer loop
       vertex -0.208547 -8.32665e-17 0
       vertex -0.206408 -0.0326315 0
       vertex -0.206408 -0.0326315 0.1
    endloop
  endfacet
  facet normal -0.997858 -0.0654098 1.08928e-16
    outer loop
       vertex -0.206408 -0.0326315 0.1
       vertex -0.208547 8.32665e-17 0.1
       vertex -0.208547 -8.32665e-17 0
    endloop
  endfacet
  facet normal -0.980784 -0.195096 0
    outer loop
       vertex -0.206408 -0.0326315 0
       vertex -0.200028 -0.064705 0
       vertex -0.200028 -0.064705 0.1
    endloop
  endfacet
  facet normal -0.980784 -0.195096 0
    outer loop
       vertex -0.200028 -0.064705 0.1
       vertex -0.206408 -0.0326315 0.1
       vertex -0.206408 -0.0326315 0
    endloop
  endfacet
  facet normal -0.946935 -0.321425 0
    outer loop
       vertex -0.200028 -0.064705 0
       vertex -0.189517 -0.095671 0
       vertex -0.189517 -0.095671 0.1
    endloop
  endfacet
  facet normal -0.946935 -0.321425 0
    outer loop
       vertex -0.189517 -0.095671 0.1
       vertex -0.200028 -0.064705 0.1
       vertex -0.200028 -0.064705 0
    endloop
  endfacet
  facet normal -0.896866 -0.442302 0
    outer loop
       vertex -0.189517 -0.095671 0
       vertex -0.175053 -0.125 0
       vertex -0.175053 -0.125 0.1
    endloop
  endfacet
  facet normal -0.896866 -0.442302 0
    outer loop
       vertex -0.175053 -0.125 0.1
       vertex -0.189517 -0.095671 0.1
       vertex -0.189517 -0.095671 0
    endloop
  endfacet
  facet normal -0.831476 -0.555561 0
    outer loop
       vertex -0.175053 -0.125 0
       vertex -0.156885 -0.152191 0
       vertex -0.156885 -0.152191 0.1
    endloop
  endfacet
  facet normal -0.831476 -0.555561 0
    outer loop
       vertex -0.156885 -0.152191 0.1
       vertex -0.175053 -0.125 0.1
       vertex -0.175053 -0.125 0
    endloop
  endfacet
  facet normal -0.751817 -0.659372 0
    outer loop
       vertex -0.156885 -0.152191 0
       vertex -0.135323 -0.176776 0
       vertex -0.135323 -0.176776 0.1
    endloop
  endfacet
  facet normal -0.751817 -0.659372 0
    outer loop
       vertex -0.135323 -0.176776 0.1
       vertex -0.156885 -0.152191 0.1
       vertex -0.156885 -0.152191 0
    endloop
  endfacet
  facet normal 0.659372 -0.751817 0
    outer loop
       vertex 0.218229 -0.176776 0
       vertex 0.218229 -0.176776 0.1
       vertex 0.193644 -0.198338 0.1
    endloop
  endfacet
  facet normal 0.659372 -0.751817 0
    outer loop
       vertex 0.193644 -0.198338 0.1
       vertex 0.193644 -0.198338 0
       vertex 0.218229 -0.176776 0
    endloop
  endfacet
  facet normal 0.555561 -0.831476 0
    outer loop
       vertex 0.193644 -0.198338 0
       vertex 0.193644 -0.198338 0.1
       vertex 0.166453 -0.216506 0.1
    endloop
  endfacet
  facet normal 0.555561 -0.831476 0
    outer loop
       vertex 0.166453 -0.216506 0.1
       vertex 0.166453 -0.216506 0
       vertex 0.193644 -0.198338 0
    endloop
  endfacet
  facet normal 0.442302 -0.896866 0
    outer loop
       vertex 0.166453 -0.216506 0
       vertex 0.166453 -0.216506 0.1
       vertex 0.137124 -0.23097 0.1
    endloop
  endfacet
  facet normal 0.442302 -0.896866 0
    outer loop
       vertex 0.137124 -0.23097 0.1
       vertex 0.137124 -0.23097 0
       vertex 0.166453 -0.216506 0
    endloop
  endfacet
  facet normal 0.321425 -0.946935 0
    outer loop
       vertex 0.137124 -0.23097 0
       vertex 0.137124 -0.23097 0.1
       vertex 0.106158 -0.241481 0.1
    endloop
  endfacet
  facet normal 0.321425 -0.946935 0
    outer loop
       vertex 0.106158 -0.241481 0.1
       vertex 0.106158 -0.241481 0
       vertex 0.137124 -0.23097 0
    endloop
  endfacet
  facet normal 0.195096 -0.980784 0
    outer loop
       vertex 0.106158 -0.241481 0
       vertex 0.106158 -0.241481 0.1
       vertex 0.0740842 -0.247861 0.1
    endloop
  endfacet
  facet normal 0.195096 -0.980784 0
    outer loop
       vertex 0.0740842 -0.247861 0.1
       vertex 0.0740842 -0.247861 0
       vertex 0.106158 -0.241481 0
    endloop
  endfacet
  facet normal 0.0654098 -0.997858 0
    outer loop
       vertex 0.0414527 -0.25 0
       vertex 0.0740842 -0.247861 0
       vertex 0.0740842 -0.247861 0.1
    endloop
  endfacet
  facet normal 0.0654098 -0.997858 1.08928e-16
    outer loop
       vertex 0.0740842 -0.247861 0.1
       vertex 0.0414527 -0.25 0.1
       vertex 0.0414527 -0.25 0
    endloop
  endfacet
  facet normal -0.0654098 -0.997858 0
    outer loop
       vertex 0.0414527 -0.25 0.1
       vertex 0.0088212 -0.247861 0.1
       vertex 0.0088212 -0.247861 0
    endloop
  endfacet
  facet normal -0.0654098 -0.997858 -1.08928e-16
    outer loop
       vertex 0.0088212 -0.247861 0
       vertex 0.0414527 -0.25 0
       vertex 0.0414527 -0.25 0.1
    endloop
  endfacet
  facet normal -0.195096 -0.980784 0
    outer loop
       vertex 0.0088212 -0.247861 0
       vertex 0.0088212 -0.247861 0.1
       vertex -0.0232523 -0.241481 0.1
    endloop
  endfacet
  facet normal -0.195096 -0.980784 -0
    outer loop
       vertex -0.0232523 -0.241481 0.1
       vertex -0.0232523 -0.241481 0
       vertex 0.0088212 -0.247861 0
    endloop
  endfacet
  facet normal -0.321425 -0.946935 0
    outer loop
       vertex -0.0232523 -0.241481 0
       vertex -0.0232523 -0.241481 0.1
       vertex -0.0542183 -0.23097 0.1
    endloop
  endfacet
  facet normal -0.321425 -0.946935 -0
    outer loop
       vertex -0.0542183 -0.23097 0.1
       vertex -0.0542183 -0.23097 0
       vertex -0.0232523 -0.241481 0
    endloop
  endfacet
  facet normal -0.442302 -0.896866 0
    outer loop
       vertex -0.0542183 -0.23097 0
       vertex -0.0542183 -0.23097 0.1
       vertex -0.0835473 -0.216506 0.1
    endloop
  endfacet
  facet normal -0.442302 -0.896866 -0
    outer loop
       vertex -0.0835473 -0.216506 0.1
       vertex -0.0835473 -0.216506 0
       vertex -0.0542183 -0.23097 0
    endloop
  endfacet
  facet normal -0.555561 -0.831476 0
    outer loop
       vertex -0.0835473 -0.216506 0
       vertex -0.0835473 -0.216506 0.1
       vertex -0.110738 -0.198338 0.1
    endloop
  endfacet
  facet normal -0.555561 -0.831476 -0
    outer loop
       vertex -0.110738 -0.198338 0.1
       vertex -0.110738 -0.198338 0
       vertex -0.0835473 -0.216506 0
    endloop
  endfacet
  facet normal -0.659372 -0.751817 0
    outer loop
       vertex -0.110738 -0.198338 0
       vertex -0.110738 -0.198338 0.1
       vertex -0.135323 -0.176776 0.1
    endloop
  endfacet
  facet normal -0.659372 -0.751817 -0
    outer loop
       vertex -0.135323 -0.176776 0.1
       vertex -0.135323 -0.176776 0
       vertex -0.110738 -0.198338 0
    endloop
  endfacet
endsolid cylinder
