solid cylinder
  facet normal 0.751817 -0.659372 0
    outer loop
       vertex -0.02478 -0.176776 0
       vertex -0.00321797 -0.152191 0
       vertex -0.00321797 -0.152191 0.1
    endloop
  endfacet
  facet normal 0.751817 -0.659372 0
    outer loop
       vertex -0.00321797 -0.152191 0.1
       vertex -0.02478 -0.176776 0.1
       vertex -0.02478 -0.176776 0
    endloop
  endfacet
  facet normal 0.831476 -0.555561 0
    outer loop
       vertex -0.00321797 -0.152191 0
       vertex 0.01495 -0.125 0
       vertex 0.01495 -0.125 0.1
    endloop
  endfacet
  facet normal 0.831476 -0.555561 0
    outer loop
       vertex 0.01495 -0.125 0.1
       vertex -0.00321797 -0.152191 0.1
       vertex -0.00321797 -0.152191 0
    endloop
  endfacet
  facet normal 0.896866 -0.442302 0
    outer loop
       vertex 0.01495 -0.125 0
       vertex 0.029414 -0.095671 0
       vertex 0.029414 -0.095671 0.1
    endloop
  endfacet
  facet normal 0.896866 -0.442302 0
    outer loop
       vertex 0.029414 -0.095671 0.1
       vertex 0.01495 -0.125 0.1
       vertex 0.01495 -0.125 0
    endloop
  endfacet
  facet normal 0.946935 -0.321425 0
    outer loop
       vertex 0.029414 -0.095671 0
       vertex 0.039925 -0.064705 0
       vertex 0.039925 -0.064705 0.1
    endloop
  endfacet
  facet normal 0.946935 -0.321425 0
    outer loop
       vertex 0.039925 -0.064705 0.1
       vertex 0.029414 -0.095671 0.1
       vertex 0.029414 -0.095671 0
    endloop
  endfacet
  facet normal 0.980784 -0.195096 0
    outer loop
       vertex 0.039925 -0.064705 0
       vertex 0.046305 -0.0326315 0
       vertex 0.046305 -0.0326315 0.1
    endloop
  endfacet
  facet normal 0.980784 -0.195096 0
    outer loop
       vertex 0.046305 -0.0326315 0.1
       vertex 0.039925 -0.064705 0.1
       vertex 0.039925 -0.064705 0
    endloop
  endfacet
  facet normal 0.997858 -0.0654098 0
    outer loop
       vertex 0.048444 -8.32665e-17 0.1
       vertex 0.046305 -0.0326315 0.1
       vertex 0.046305 -0.0326315 0
    endloop
  endfacet
  facet normal 0.997858 -0.0654098 -1.08928e-16
    outer loop
       vertex 0.046305 -0.0326315 0
       vertex 0.048444 8.32665e-17 0
       vertex 0.048444 -8.32665e-17 0.1
    endloop
  endfacet
  facet normal 0.997858 0.0654098 0
    outer loop
       vertex 0.048444 8.32665e-17 0
       vertex 0.046305 0.0326315 0
       vertex 0.046305 0.0326315 0.1
    endloop
  endfacet
  facet normal 0.997858 0.0654098 1.08928e-16
    outer loop
       vertex 0.046305 0.0326315 0.1
       vertex 0.048444 -8.32665e-17 0.1
       vertex 0.048444 8.32665e-17 0
    endloop
  endfacet
  facet normal 0.980784 0.195096 0
    outer loop
       vertex 0.046305 0.0326315 0
       vertex 0.039925 0.064705 0
       vertex 0.039925 0.064705 0.1
    endloop
  endfacet
  facet normal 0.980784 0.195096 0
    outer loop
       vertex 0.039925 0.064705 0.1
       vertex 0.046305 0.0326315 0.1
       vertex 0.046305 0.0326315 0
    endloop
  endfacet
  facet normal 0.946935 0.321425 0
    outer loop
       vertex 0.039925 0.064705 0
       vertex 0.029414 0.095671 0
       vertex 0.029414 0.095671 0.1
    endloop
  endfacet
  facet normal 0.946935 0.321425 0
    outer loop
       vertex 0.029414 0.095671 0.1
       vertex 0.039925 0.064705 0.1
       vertex 0.039925 0.064705 0
    endloop
  endfacet
  facet normal 0.896866 0.442302 0
    outer loop
       vertex 0.029414 0.095671 0
       vertex 0.01495 0.125 0
       vertex 0.01495 0.125 0.1
    endloop
  endfacet
  facet normal 0.896866 0.442302 0
    outer loop
       vertex 0.01495 0.125 0.1
       vertex 0.029414 0.095671 0.1
       vertex 0.029414 0.095671 0
    endloop
  endfacet
  facet normal 0.831476 0.555561 0
    outer loop
       vertex 0.01495 0.125 0
       vertex -0.00321797 0.152191 0
       vertex -0.00321797 0.152191 0.1
    endloop
  endfacet
  facet normal 0.831476 0.555561 0
    outer loop
       vertex -0.00321797 0.152191 0.1
       vertex 0.01495 0.125 0.1
       vertex 0.01495 0.125 0
    endloop
  endfacet
  facet normal 0.751817 0.659372 0
    outer loop
       vertex -0.00321797 0.152191 0
       vertex -0.02478 0.176776 0
       vertex -0.02478 0.176776 0.1
    endloop
  endfacet
  facet normal 0.751817 0.659372 0
    outer loop
       vertex -0.02478 0.176776 0.1
       vertex -0.00321797 0.152191 0.1
       vertex -0.00321797 0.152191 0
    endloop
  endfacet
  facet normal 0.659372 0.751817 0
    outer loop
       vertex -0.02478 0.176776 0
       vertex -0.049365 0.198338 0
       vertex -0.049365 0.198338 0.1
    endloop
  endfacet
  facet normal 0.659372 0.751817 0
    outer loop
       vertex -0.049365 0.198338 0.1
       vertex -0.02478 0.176776 0.1
       vertex -0.02478 0.176776 0
    endloop
  endfacet
  facet normal 0.555561 0.831476 0
    outer loop
       vertex -0.049365 0.198338 0
       vertex -0.076556 0.216506 0
       vertex -0.076556 0.216506 0.1
    endloop
  endfacet
  facet normal 0.555561 0.831476 0
    outer loop
       vertex -0.076556 0.216506 0.1
       vertex -0.049365 0.198338 0.1
       vertex -0.049365 0.198338 0
    endloop
  endfacet
  facet normal 0.442302 0.896866 0
    outer loop
       vertex -0.076556 0.216506 0
       vertex -0.105885 0.23097 0
       vertex -0.105885 0.23097 0.1
    endloop
  endfacet
  facet normal 0.442302 0.896866 0
    outer loop
       vertex -0.105885 0.23097 0.1
       vertex -0.076556 0.216506 0.1
       vertex -0.076556 0.216506 0
    endloop
  endfacet
  facet normal 0.321425 0.946935 0
    outer loop
       vertex -0.105885 0.23097 0
       vertex -0.136851 0.241481 0
       vertex -0.136851 0.241481 0.1
    endloop
  endfacet
  facet normal 0.321425 0.946935 0
    outer loop
       vertex -0.136851 0.241481 0.1
       vertex -0.105885 0.23097 0.1
       vertex -0.105885 0.23097 0
    endloop
  endfacet
  facet normal 0.195096 0.980784 0
    outer loop
       vertex -0.136851 0.241481 0
       vertex -0.168924 0.247861 0
       vertex -0.168924 0.247861 0.1
    endloop
  endfacet
  facet normal 0.195096 0.980784 0
    outer loop
       vertex -0.168924 0.247861 0.1
       vertex -0.136851 0.241481 0.1
       vertex -0.136851 0.241481 0
    endloop
  endfacet
  facet normal 0.0654098 0.997858 0
    outer loop
       vertex -0.201556 0.25 0.1
       vertex -0.168924 0.247861 0.1
       vertex -0.168924 0.247861 0
    endloop
  endfacet
  facet normal 0.0654098 0.997858 -1.0893e-16
    outer loop
       vertex -0.168924 0.247861 0
       vertex -0.201556 0.25 0
       vertex -0.201556 0.25 0.1
    endloop
  endfacet
  facet normal -0.0654098 0.997858 0
    outer loop
       vertex -0.201556 0.25 0
       vertex -0.234187 0.247861 0
       vertex -0.234187 0.247861 0.1
    endloop
  endfacet
  facet normal -0.0654098 0.997858 1.0893e-16
    outer loop
       vertex -0.234187 0.247861 0.1
       vertex -0.201556 0.25 0.1
       vertex -0.201556 0.25 0
    endloop
  endfacet
  facet normal -0.195096 0.980784 0
    outer loop
       vertex -0.234187 0.247861 0
       vertex -0.266261 0.241481 0
       vertex -0.266261 0.241481 0.1
    endloop
  endfacet
  facet normal -0.195096 0.980784 0
    outer loop
       vertex -0.266261 0.241481 0.1
       vertex -0.234187 0.247861 0.1
       vertex -0.234187 0.247861 0
    endloop
  endfacet
  facet normal -0.321425 0.946935 0
    outer loop
       vertex -0.266261 0.241481 0
       vertex -0.297227 0.23097 0
       vertex -0.297227 0.23097 0.1
    endloop
  endfacet
  facet normal -0.321425 0.946935 0
    outer loop
       vertex -0.297227 0.23097 0.1
       vertex -0.266261 0.241481 0.1
       vertex -0.266261 0.241481 0
    endloop
  endfacet
  facet normal -0.442302 0.896866 0
    outer loop
       vertex -0.297227 0.23097 0
       vertex -0.326556 0.216506 0
       vertex -0.326556 0.216506 0.1
    endloop
  endfacet
  facet normal -0.442302 0.896866 0
    outer loop
       vertex -0.326556 0.216506 0.1
       vertex -0.297227 0.23097 0.1
       vertex -0.297227 0.23097 0
    endloop
  endfacet
  facet normal -0.555561 0.831476 0
    outer loop
       vertex -0.326556 0.216506 0
       vertex -0.353747 0.198338 0
       vertex -0.353747 0.198338 0.1
    endloop
  endfacet
  facet normal -0.555561 0.831476 0
    outer loop
       vertex -0.353747 0.198338 0.1
       vertex -0.326556 0.216506 0.1
       vertex -0.326556 0.216506 0
    endloop
  endfacet
  facet normal -0.659372 0.751817 0
    outer loop
       vertex -0.353747 0.198338 0
       vertex -0.378332 0.176776 0
       vertex -0.378332 0.176776 0.1
    endloop
  endfacet
  facet normal -0.659372 0.751817 0
    outer loop
       vertex -0.378332 0.176776 0.1
       vertex -0.353747 0.198338 0.1
       vertex -0.353747 0.198338 0
    endloop
  endfacet
  facet normal -0.751817 0.659372 0
    outer loop
       vertex -0.378332 0.176776 0
       vertex -0.399894 0.152191 0
       vertex -0.399894 0.152191 0.1
    endloop
  endfacet
  facet normal -0.751817 0.659372 0
    outer loop
       vertex -0.399894 0.152191 0.1
       vertex -0.378332 0.176776 0.1
       vertex -0.378332 0.176776 0
    endloop
  endfacet
  facet normal -0.831476 0.555561 0
    outer loop
       vertex -0.399894 0.152191 0
       vertex -0.418062 0.125 0
       vertex -0.418062 0.125 0.1
    endloop
  endfacet
  facet normal -0.831476 0.555561 0
    outer loop
       vertex -0.418062 0.125 0.1
       vertex -0.399894 0.152191 0.1
       vertex -0.399894 0.152191 0
    endloop
  endfacet
  facet normal -0.896866 0.442302 0
    outer loop
       vertex -0.418062 0.125 0
       vertex -0.432526 0.095671 0
       vertex -0.432526 0.095671 0.1
    endloop
  endfacet
  facet normal -0.896866 0.442302 0
    outer loop
       vertex -0.432526 0.095671 0.1
       vertex -0.418062 0.125 0.1
       vertex -0.418062 0.125 0
    endloop
  endfacet
  facet normal -0.946935 0.321425 0
    outer loop
       vertex -0.432526 0.095671 0
       vertex -0.443037 0.064705 0
       vertex -0.443037 0.064705 0.1
    endloop
  endfacet
  facet normal -0.946935 0.321425 0
    outer loop
       vertex -0.443037 0.064705 0.1
       vertex -0.432526 0.095671 0.1
       vertex -0.432526 0.095671 0
    endloop
  endfacet
  facet normal -0.980784 0.195096 0
    outer loop
       vertex -0.443037 0.064705 0
       vertex -0.449417 0.0326315 0
       vertex -0.449417 0.0326315 0.1
    endloop
  endfacet
  facet normal -0.980784 0.195096 0
    outer loop
       vertex -0.449417 0.0326315 0.1
       vertex -0.443037 0.064705 0.1
       vertex -0.443037 0.064705 0
    endloop
  endfacet
  facet normal -0.997858 0.0654098 0
    outer loop
       vertex -0.451556 8.32665e-17 0.1
       vertex -0.449417 0.0326315 0.1
       vertex -0.449417 0.0326315 0
    endloop
  endfacet
  facet normal -0.997858 0.0654098 -1.08928e-16
    outer loop
       vertex -0.449417 0.0326315 0
       vertex -0.451556 -8.32665e-17 0
       vertex -0.451556 8.32665e-17 0.1
    endloop
  endfacet
  facet normal -0.997858 -0.0654098 0
    outer loop
       vertex -0.451556 -8.32665e-17 0
       vertex -0.449417 -0.0326315 0
       vertex -0.449417 -0.0326315 0.1
    endloop
  endfacet
  facet normal -0.997858 -0.0654098 1.08928e-16
    outer loop
       vertex -0.449417 -0.0326315 0.1
       vertex -0.451556 8.32665e-17 0.1
       vertex -0.451556 -8.32665e-17 0
    endloop
  endfacet
  facet normal -0.980784 -0.195096 0
    outer loop
       vertex -0.449417 -0.0326315 0
       vertex -0.443037 -0.064705 0
       vertex -0.443037 -0.064705 0.1
    endloop
  endfacet
  facet normal -0.980784 -0.195096 0
    outer loop
       vertex -0.443037 -0.064705 0.1
       vertex -0.449417 -0.0326315 0.1
       vertex -0.449417 -0.0326315 0
    endloop
  endfacet
  facet normal -0.946935 -0.321425 0
    outer loop
       vertex -0.443037 -0.064705 0
       vertex -0.432526 -0.095671 0
       vertex -0.432526 -0.095671 0.1
    endloop
  endfacet
  facet normal -0.946935 -0.321425 0
    outer loop
       vertex -0.432526 -0.095671 0.1
       vertex -0.443037 -0.064705 0.1
       vertex -0.443037 -0.064705 0
    endloop
  endfacet
  facet normal -0.896866 -0.442302 0
    outer loop
       vertex -0.432526 -0.095671 0
       vertex -0.418062 -0.125 0
       vertex -0.418062 -0.125 0.1
    endloop
  endfacet
  facet normal -0.896866 -0.442302 0
    outer loop
       vertex -0.418062 -0.125 0.1
       vertex -0.432526 -0.095671 0.1
       vertex -0.432526 -0.095671 0
    endloop
  endfacet
  facet normal -0.831476 -0.555561 0
    outer loop
       vertex -0.418062 -0.125 0
       vertex -0.399894 -0.152191 0
       vertex -0.399894 -0.152191 0.1
    endloop
  endfacet
  facet normal -0.831476 -0.555561 0
    outer loop
       vertex -0.399894 -0.152191 0.1
       vertex -0.418062 -0.125 0.1
       vertex -0.418062 -0.125 0
    endloop
  endfacet
  facet normal -0.751817 -0.659372 0
    outer loop
       vertex -0.399894 -0.152191 0
       vertex -0.378332 -0.176776 0
       vertex -0.378332 -0.176776 0.1
    endloop
  endfacet
  facet normal -0.751817 -0.659372 0
    outer loop
       vertex -0.378332 -0.176776 0.1
       vertex -0.399894 -0.152191 0.1
       vertex -0.399894 -0.152191 0
    endloop
  endfacet
  facet normal 0.659372 -0.751817 0
    outer loop
       vertex -0.02478 -0.176776 0
       vertex -0.02478 -0.176776 0.1
       vertex -0.049365 -0.198338 0.1
    endloop
  endfacet
  facet normal 0.659372 -0.751817 0
    outer loop
       vertex -0.049365 -0.198338 0.1
       vertex -0.049365 -0.198338 0
       vertex -0.02478 -0.176776 0
    endloop
  endfacet
  facet normal 0.555561 -0.831476 0
    outer loop
       vertex -0.049365 -0.198338 0
       vertex -0.049365 -0.198338 0.1
       vertex -0.076556 -0.216506 0.1
    endloop
  endfacet
  facet normal 0.555561 -0.831476 0
    outer loop
       vertex -0.076556 -0.216506 0.1
       vertex -0.076556 -0.216506 0
       vertex -0.049365 -0.198338 0
    endloop
  endfacet
  facet normal 0.442302 -0.896866 0
    outer loop
       vertex -0.076556 -0.216506 0
       vertex -0.076556 -0.216506 0.1
       vertex -0.105885 -0.23097 0.1
    endloop
  endfacet
  facet normal 0.442302 -0.896866 0
    outer loop
       vertex -0.105885 -0.23097 0.1
       vertex -0.105885 -0.23097 0
       vertex -0.076556 -0.216506 0
    endloop
  endfacet
  facet normal 0.321425 -0.946935 0
    outer loop
       vertex -0.105885 -0.23097 0
       vertex -0.105885 -0.23097 0.1
       vertex -0.136851 -0.241481 0.1
    endloop
  endfacet
  facet normal 0.321425 -0.946935 0
    outer loop
       vertex -0.136851 -0.241481 0.1
       vertex -0.136851 -0.241481 0
       vertex -0.105885 -0.23097 0
    endloop
  endfacet
  facet normal 0.195096 -0.980784 0
    outer loop
       vertex -0.136851 -0.241481 0
       vertex -0.136851 -0.241481 0.1
       vertex -0.168924 -0.247861 0.1
    endloop
  endfacet
  facet normal 0.195096 -0.980784 0
    outer loop
       vertex -0.168924 -0.247861 0.1
       vertex -0.168924 -0.247861 0
       vertex -0.136851 -0.241481 0
    endloop
  endfacet
  facet normal 0.0654098 -0.997858 0
    outer loop
       vertex -0.201556 -0.25 0
       vertex -0.168924 -0.247861 0
       vertex -0.168924 -0.247861 0.1
    endloop
  endfacet
  facet normal 0.0654098 -0.997858 1.0893e-16
    outer loop
       vertex -0.168924 -0.247861 0.1
       vertex -0.201556 -0.25 0.1
       vertex -0.201556 -0.25 0
    endloop
  endfacet
  facet normal -0.0654098 -0.997858 0
    outer loop
       vertex -0.201556 -0.25 0.1
       vertex -0.234187 -0.247861 0.1
       vertex -0.234187 -0.247861 0
    endloop
  endfacet
  facet normal -0.0654098 -0.997858 -1.0893e-16
    outer loop
       vertex -0.234187 -0.247861 0
       vertex -0.201556 -0.25 0
       vertex -0.201556 -0.25 0.1
    endloop
  endfacet
  facet normal -0.195096 -0.980784 0
    outer loop
       vertex -0.234187 -0.247861 0
       vertex -0.234187 -0.247861 0.1
       vertex -0.266261 -0.241481 0.1
    endloop
  endfacet
  facet normal -0.195096 -0.980784 -0
    outer loop
       vertex -0.266261 -0.241481 0.1
       vertex -0.266261 -0.241481 0
       vertex -0.234187 -0.247861 0
    endloop
  endfacet
  facet normal -0.321425 -0.946935 0
    outer loop
       vertex -0.266261 -0.241481 0
       vertex -0.266261 -0.241481 0.1
       vertex -0.297227 -0.23097 0.1
    endloop
  endfacet
  facet normal -0.321425 -0.946935 -0
    outer loop
       vertex -0.297227 -0.23097 0.1
       vertex -0.297227 -0.23097 0
       vertex -0.266261 -0.241481 0
    endloop
  endfacet
  facet normal -0.442302 -0.896866 0
    outer loop
       vertex -0.297227 -0.23097 0
       vertex -0.297227 -0.23097 0.1
       vertex -0.326556 -0.216506 0.1
    endloop
  endfacet
  facet normal -0.442302 -0.896866 -0
    outer loop
       vertex -0.326556 -0.216506 0.1
       vertex -0.326556 -0.216506 0
       vertex -0.297227 -0.23097 0
    endloop
  endfacet
  facet normal -0.555561 -0.831476 0
    outer loop
       vertex -0.326556 -0.216506 0
       vertex -0.326556 -0.216506 0.1
       vertex -0.353747 -0.198338 0.1
    endloop
  endfacet
  facet normal -0.555561 -0.831476 -0
    outer loop
       vertex -0.353747 -0.198338 0.1
       vertex -0.353747 -0.198338 0
       vertex -0.326556 -0.216506 0
    endloop
  endfacet
  facet normal -0.659372 -0.751817 0
    outer loop
       vertex -0.353747 -0.198338 0
       vertex -0.353747 -0.198338 0.1
       vertex -0.378332 -0.176776 0.1
    endloop
  endfacet
  facet normal -0.659372 -0.751817 -0
    outer loop
       vertex -0.378332 -0.176776 0.1
       vertex -0.378332 -0.176776 0
       vertex -0.353747 -0.198338 0
    endloop
  endfacet
endsolid cylinder
