solid cylinder
  facet normal 0.751817 -0.659372 0
    outer loop
       vertex 0.069263 -0.176776 0
       vertex 0.090825 -0.152191 0
       vertex 0.090825 -0.152191 0.1
    endloop
  endfacet
  facet normal 0.751817 -0.659372 0
    outer loop
       vertex 0.090825 -0.152191 0.1
       vertex 0.069263 -0.176776 0.1
       vertex 0.069263 -0.176776 0
    endloop
  endfacet
  facet normal 0.831476 -0.555561 0
    outer loop
       vertex 0.090825 -0.152191 0
       vertex 0.108993 -0.125 0
       vertex 0.108993 -0.125 0.1
    endloop
  endfacet
  facet normal 0.831476 -0.555561 0
    outer loop
       vertex 0.108993 -0.125 0.1
       vertex 0.090825 -0.152191 0.1
       vertex 0.090825 -0.152191 0
    endloop
  endfacet
  facet normal 0.896866 -0.442302 0
    outer loop
       vertex 0.108993 -0.125 0
       vertex 0.123457 -0.095671 0
       vertex 0.123457 -0.095671 0.1
    endloop
  endfacet
  facet normal 0.896866 -0.442302 0
    outer loop
       vertex 0.123457 -0.095671 0.1
       vertex 0.108993 -0.125 0.1
       vertex 0.108993 -0.125 0
    endloop
  endfacet
  facet normal 0.946935 -0.321425 0
    outer loop
       vertex 0.123457 -0.095671 0
       vertex 0.133968 -0.064705 0
       vertex 0.133968 -0.064705 0.1
    endloop
  endfacet
  facet normal 0.946935 -0.321425 0
    outer loop
       vertex 0.133968 -0.064705 0.1
       vertex 0.123457 -0.095671 0.1
       vertex 0.123457 -0.095671 0
    endloop
  endfacet
  facet normal 0.980784 -0.195096 0
    outer loop
       vertex 0.133968 -0.064705 0
       vertex 0.140348 -0.0326315 0
       vertex 0.140348 -0.0326315 0.1
    endloop
  endfacet
  facet normal 0.980784 -0.195096 0
    outer loop
       vertex 0.140348 -0.0326315 0.1
       vertex 0.133968 -0.064705 0.1
       vertex 0.133968 -0.064705 0
    endloop
  endfacet
  facet normal 0.997858 -0.0654098 0
    outer loop
       vertex 0.142487 -8.32665e-17 0.1
       vertex 0.140348 -0.0326315 0.1
       vertex 0.140348 -0.0326315 0
    endloop
  endfacet
  facet normal 0.997858 -0.0654098 -1.08928e-16
    outer loop
       vertex 0.140348 -0.0326315 0
       vertex 0.142487 8.32665e-17 0
       vertex 0.142487 -8.32665e-17 0.1
    endloop
  endfacet
  facet normal 0.997858 0.0654098 0
    outer loop
       vertex 0.142487 8.32665e-17 0
       vertex 0.140348 0.0326315 0
       vertex 0.140348 0.0326315 0.1
    endloop
  endfacet
  facet normal 0.997858 0.0654098 1.08928e-16
    outer loop
       vertex 0.140348 0.0326315 0.1
       vertex 0.142487 -8.32665e-17 0.1
       vertex 0.142487 8.32665e-17 0
    endloop
  endfacet
  facet normal 0.980784 0.195096 0
    outer loop
       vertex 0.140348 0.0326315 0
       vertex 0.133968 0.064705 0
       vertex 0.133968 0.064705 0.1
    endloop
  endfacet
  facet normal 0.980784 0.195096 0
    outer loop
       vertex 0.133968 0.064705 0.1
       vertex 0.140348 0.0326315 0.1
       vertex 0.140348 0.0326315 0
    endloop
  endfacet
  facet normal 0.946935 0.321425 0
    outer loop
       vertex 0.133968 0.064705 0
       vertex 0.123457 0.095671 0
       vertex 0.123457 0.095671 0.1
    endloop
  endfacet
  facet normal 0.946935 0.321425 0
    outer loop
       vertex 0.123457 0.095671 0.1
       vertex 0.133968 0.064705 0.1
       vertex 0.133968 0.064705 0
    endloop
  endfacet
  facet normal 0.896866 0.442302 0
    outer loop
       vertex 0.123457 0.095671 0
       vertex 0.108993 0.125 0
       vertex 0.108993 0.125 0.1
    endloop
  endfacet
  facet normal 0.896866 0.442302 0
    outer loop
       vertex 0.108993 0.125 0.1
       vertex 0.123457 0.095671 0.1
       vertex 0.123457 0.095671 0
    endloop
  endfacet
  facet normal 0.831476 0.555561 0
    outer loop
       vertex 0.108993 0.125 0
       vertex 0.090825 0.152191 0
       vertex 0.090825 0.152191 0.1
    endloop
  endfacet
  facet normal 0.831476 0.555561 0
    outer loop
       vertex 0.090825 0.152191 0.1
       vertex 0.108993 0.125 0.1
       vertex 0.108993 0.125 0
    endloop
  endfacet
  facet normal 0.751817 0.659372 0
    outer loop
       vertex 0.090825 0.152191 0
       vertex 0.069263 0.176776 0
       vertex 0.069263 0.176776 0.1
    endloop
  endfacet
  facet normal 0.751817 0.659372 0
    outer loop
       vertex 0.069263 0.176776 0.1
       vertex 0.090825 0.152191 0.1
       vertex 0.090825 0.152191 0
    endloop
  endfacet
  facet normal 0.659372 0.751817 0
    outer loop
       vertex 0.069263 0.176776 0
       vertex 0.044678 0.198338 0
       vertex 0.044678 0.198338 0.1
    endloop
  endfacet
  facet normal 0.659372 0.751817 0
    outer loop
       vertex 0.044678 0.198338 0.1
       vertex 0.069263 0.176776 0.1
       vertex 0.069263 0.176776 0
    endloop
  endfacet
  facet normal 0.555561 0.831476 0
    outer loop
       vertex 0.044678 0.198338 0
       vertex 0.017487 0.216506 0
       vertex 0.017487 0.216506 0.1
    endloop
  endfacet
  facet normal 0.555561 0.831476 0
    outer loop
       vertex 0.017487 0.216506 0.1
       vertex 0.044678 0.198338 0.1
       vertex 0.044678 0.198338 0
    endloop
  endfacet
  facet normal 0.442302 0.896866 0
    outer loop
       vertex 0.017487 0.216506 0
       vertex -0.011842 0.23097 0
       vertex -0.011842 0.23097 0.1
    endloop
  endfacet
  facet normal 0.442302 0.896866 0
    outer loop
       vertex -0.011842 0.23097 0.1
       vertex 0.017487 0.216506 0.1
       vertex 0.017487 0.216506 0
    endloop
  endfacet
  facet normal 0.321425 0.946935 0
    outer loop
       vertex -0.011842 0.23097 0
       vertex -0.042808 0.241481 0
       vertex -0.042808 0.241481 0.1
    endloop
  endfacet
  facet normal 0.321425 0.946935 0
    outer loop
       vertex -0.042808 0.241481 0.1
       vertex -0.011842 0.23097 0.1
       vertex -0.011842 0.23097 0
    endloop
  endfacet
  facet normal 0.195096 0.980784 0
    outer loop
       vertex -0.042808 0.241481 0
       vertex -0.0748815 0.247861 0
       vertex -0.0748815 0.247861 0.1
    endloop
  endfacet
  facet normal 0.195096 0.980784 0
    outer loop
       vertex -0.0748815 0.247861 0.1
       vertex -0.042808 0.241481 0.1
       vertex -0.042808 0.241481 0
    endloop
  endfacet
  facet normal 0.0654098 0.997858 0
    outer loop
       vertex -0.107513 0.25 0.1
       vertex -0.0748815 0.247861 0.1
       vertex -0.0748815 0.247861 0
    endloop
  endfacet
  facet normal 0.0654098 0.997858 -1.08928e-16
    outer loop
       vertex -0.0748815 0.247861 0
       vertex -0.107513 0.25 0
       vertex -0.107513 0.25 0.1
    endloop
  endfacet
  facet normal -0.0654098 0.997858 0
    outer loop
       vertex -0.107513 0.25 0
       vertex -0.140145 0.247861 0
       vertex -0.140145 0.247861 0.1
    endloop
  endfacet
  facet normal -0.0654098 0.997858 1.08928e-16
    outer loop
       vertex -0.140145 0.247861 0.1
       vertex -0.107513 0.25 0.1
       vertex -0.107513 0.25 0
    endloop
  endfacet
  facet normal -0.195096 0.980784 0
    outer loop
       vertex -0.140145 0.247861 0
       vertex -0.172218 0.241481 0
       vertex -0.172218 0.241481 0.1
    endloop
  endfacet
  facet normal -0.195096 0.980784 0
    outer loop
       vertex -0.172218 0.241481 0.1
       vertex -0.140145 0.247861 0.1
       vertex -0.140145 0.247861 0
    endloop
  endfacet
  facet normal -0.321425 0.946935 0
    outer loop
       vertex -0.172218 0.241481 0
       vertex -0.203184 0.23097 0
       vertex -0.203184 0.23097 0.1
    endloop
  endfacet
  facet normal -0.321425 0.946935 0
    outer loop
       vertex -0.203184 0.23097 0.1
       vertex -0.172218 0.241481 0.1
       vertex -0.172218 0.241481 0
    endloop
  endfacet
  facet normal -0.442302 0.896866 0
    outer loop
       vertex -0.203184 0.23097 0
       vertex -0.232513 0.216506 0
       vertex -0.232513 0.216506 0.1
    endloop
  endfacet
  facet normal -0.442302 0.896866 0
    outer loop
       vertex -0.232513 0.216506 0.1
       vertex -0.203184 0.23097 0.1
       vertex -0.203184 0.23097 0
    endloop
  endfacet
  facet normal -0.555561 0.831476 0
    outer loop
       vertex -0.232513 0.216506 0
       vertex -0.259704 0.198338 0
       vertex -0.259704 0.198338 0.1
    endloop
  endfacet
  facet normal -0.555561 0.831476 0
    outer loop
       vertex -0.259704 0.198338 0.1
       vertex -0.232513 0.216506 0.1
       vertex -0.232513 0.216506 0
    endloop
  endfacet
  facet normal -0.659372 0.751817 0
    outer loop
       vertex -0.259704 0.198338 0
       vertex -0.284289 0.176776 0
       vertex -0.284289 0.176776 0.1
    endloop
  endfacet
  facet normal -0.659372 0.751817 0
    outer loop
       vertex -0.284289 0.176776 0.1
       vertex -0.259704 0.198338 0.1
       vertex -0.259704 0.198338 0
    endloop
  endfacet
  facet normal -0.751817 0.659372 0
    outer loop
       vertex -0.284289 0.176776 0
       vertex -0.305851 0.152191 0
       vertex -0.305851 0.152191 0.1
    endloop
  endfacet
  facet normal -0.751817 0.659372 0
    outer loop
       vertex -0.305851 0.152191 0.1
       vertex -0.284289 0.176776 0.1
       vertex -0.284289 0.176776 0
    endloop
  endfacet
  facet normal -0.831476 0.555561 0
    outer loop
       vertex -0.305851 0.152191 0
       vertex -0.324019 0.125 0
       vertex -0.324019 0.125 0.1
    endloop
  endfacet
  facet normal -0.831476 0.555561 0
    outer loop
       vertex -0.324019 0.125 0.1
       vertex -0.305851 0.152191 0.1
       vertex -0.305851 0.152191 0
    endloop
  endfacet
  facet normal -0.896866 0.442302 0
    outer loop
       vertex -0.324019 0.125 0
       vertex -0.338483 0.095671 0
       vertex -0.338483 0.095671 0.1
    endloop
  endfacet
  facet normal -0.896866 0.442302 0
    outer loop
       vertex -0.338483 0.095671 0.1
       vertex -0.324019 0.125 0.1
       vertex -0.324019 0.125 0
    endloop
  endfacet
  facet normal -0.946935 0.321425 0
    outer loop
       vertex -0.338483 0.095671 0
       vertex -0.348994 0.064705 0
       vertex -0.348994 0.064705 0.1
    endloop
  endfacet
  facet normal -0.946935 0.321425 0
    outer loop
       vertex -0.348994 0.064705 0.1
       vertex -0.338483 0.095671 0.1
       vertex -0.338483 0.095671 0
    endloop
  endfacet
  facet normal -0.980784 0.195096 0
    outer loop
       vertex -0.348994 0.064705 0
       vertex -0.355374 0.0326315 0
       vertex -0.355374 0.0326315 0.1
    endloop
  endfacet
  facet normal -0.980784 0.195096 0
    outer loop
       vertex -0.355374 0.0326315 0.1
       vertex -0.348994 0.064705 0.1
       vertex -0.348994 0.064705 0
    endloop
  endfacet
  facet normal -0.997858 0.0654098 0
    outer loop
       vertex -0.357513 8.32665e-17 0.1
       vertex -0.355374 0.0326315 0.1
       vertex -0.355374 0.0326315 0
    endloop
  endfacet
  facet normal -0.997858 0.0654098 -1.08928e-16
    outer loop
       vertex -0.355374 0.0326315 0
       vertex -0.357513 -8.32665e-17 0
       vertex -0.357513 8.32665e-17 0.1
    endloop
  endfacet
  facet normal -0.997858 -0.0654098 0
    outer loop
       vertex -0.357513 -8.32665e-17 0
       vertex -0.355374 -0.0326315 0
       vertex -0.355374 -0.0326315 0.1
    endloop
  endfacet
  facet normal -0.997858 -0.0654098 1.08928e-16
    outer loop
       vertex -0.355374 -0.0326315 0.1
       vertex -0.357513 8.32665e-17 0.1
       vertex -0.357513 -8.32665e-17 0
    endloop
  endfacet
  facet normal -0.980784 -0.195096 0
    outer loop
       vertex -0.355374 -0.0326315 0
       vertex -0.348994 -0.064705 0
       vertex -0.348994 -0.064705 0.1
    endloop
  endfacet
  facet normal -0.980784 -0.195096 0
    outer loop
       vertex -0.348994 -0.064705 0.1
       vertex -0.355374 -0.0326315 0.1
       vertex -0.355374 -0.0326315 0
    endloop
  endfacet
  facet normal -0.946935 -0.321425 0
    outer loop
       vertex -0.348994 -0.064705 0
       vertex -0.338483 -0.095671 0
       vertex -0.338483 -0.095671 0.1
    endloop
  endfacet
  facet normal -0.946935 -0.321425 0
    outer loop
       vertex -0.338483 -0.095671 0.1
       vertex -0.348994 -0.064705 0.1
       vertex -0.348994 -0.064705 0
    endloop
  endfacet
  facet normal -0.896866 -0.442302 0
    outer loop
       vertex -0.338483 -0.095671 0
       vertex -0.324019 -0.125 0
       vertex -0.324019 -0.125 0.1
    endloop
  endfacet
  facet normal -0.896866 -0.442302 0
    outer loop
       vertex -0.324019 -0.125 0.1
       vertex -0.338483 -0.095671 0.1
       vertex -0.338483 -0.095671 0
    endloop
  endfacet
  facet normal -0.831476 -0.555561 0
    outer loop
       vertex -0.324019 -0.125 0
       vertex -0.305851 -0.152191 0
       vertex -0.305851 -0.152191 0.1
    endloop
  endfacet
  facet normal -0.831476 -0.555561 0
    outer loop
       vertex -0.305851 -0.152191 0.1
       vertex -0.324019 -0.125 0.1
       vertex -0.324019 -0.125 0
    endloop
  endfacet
  facet normal -0.751817 -0.659372 0
    outer loop
       vertex -0.305851 -0.152191 0
       vertex -0.284289 -0.176776 0
       vertex -0.284289 -0.176776 0.1
    endloop
  endfacet
  facet normal -0.751817 -0.659372 0
    outer loop
       vertex -0.284289 -0.176776 0.1
       vertex -0.305851 -0.152191 0.1
       vertex -0.305851 -0.152191 0
    endloop
  endfacet
  facet normal 0.659372 -0.751817 0
    outer loop
       vertex 0.069263 -0.176776 0
       vertex 0.069263 -0.176776 0.1
       vertex 0.044678 -0.198338 0.1
    endloop
  endfacet
  facet normal 0.659372 -0.751817 0
    outer loop
       vertex 0.044678 -0.198338 0.1
       vertex 0.044678 -0.198338 0
       vertex 0.069263 -0.176776 0
    endloop
  endfacet
  facet normal 0.555561 -0.831476 0
    outer loop
       vertex 0.044678 -0.198338 0
       vertex 0.044678 -0.198338 0.1
       vertex 0.017487 -0.216506 0.1
    endloop
  endfacet
  facet normal 0.555561 -0.831476 0
    outer loop
       vertex 0.017487 -0.216506 0.1
       vertex 0.017487 -0.216506 0
       vertex 0.044678 -0.198338 0
    endloop
  endfacet
  facet normal 0.442302 -0.896866 0
    outer loop
       vertex 0.017487 -0.216506 0
       vertex 0.017487 -0.216506 0.1
       vertex -0.011842 -0.23097 0.1
    endloop
  endfacet
  facet normal 0.442302 -0.896866 0
    outer loop
       vertex -0.011842 -0.23097 0.1
       vertex -0.011842 -0.23097 0
       vertex 0.017487 -0.216506 0
    endloop
  endfacet
  facet normal 0.321425 -0.946935 0
    outer loop
       vertex -0.011842 -0.23097 0
       vertex -0.011842 -0.23097 0.1
       vertex -0.042808 -0.241481 0.1
    endloop
  endfacet
  facet normal 0.321425 -0.946935 0
    outer loop
       vertex -0.042808 -0.241481 0.1
       vertex -0.042808 -0.241481 0
       vertex -0.011842 -0.23097 0
    endloop
  endfacet
  facet normal 0.195096 -0.980784 0
    outer loop
       vertex -0.042808 -0.241481 0
       vertex -0.042808 -0.241481 0.1
       vertex -0.0748815 -0.247861 0.1
    endloop
  endfacet
  facet normal 0.195096 -0.980784 0
    outer loop
       vertex -0.0748815 -0.247861 0.1
       vertex -0.0748815 -0.247861 0
       vertex -0.042808 -0.241481 0
    endloop
  endfacet
  facet normal 0.0654098 -0.997858 0
    outer loop
       vertex -0.107513 -0.25 0
       vertex -0.0748815 -0.247861 0
       vertex -0.0748815 -0.247861 0.1
    endloop
  endfacet
  facet normal 0.0654098 -0.997858 1.08928e-16
    outer loop
       vertex -0.0748815 -0.247861 0.1
       vertex -0.107513 -0.25 0.1
       vertex -0.107513 -0.25 0
    endloop
  endfacet
  facet normal -0.0654098 -0.997858 0
    outer loop
       vertex -0.107513 -0.25 0.1
       vertex -0.140145 -0.247861 0.1
       vertex -0.140145 -0.247861 0
    endloop
  endfacet
  facet normal -0.0654098 -0.997858 -1.08928e-16
    outer loop
       vertex -0.140145 -0.247861 0
       vertex -0.107513 -0.25 0
       vertex -0.107513 -0.25 0.1
    endloop
  endfacet
  facet normal -0.195096 -0.980784 0
    outer loop
       vertex -0.140145 -0.247861 0
       vertex -0.140145 -0.247861 0.1
       vertex -0.172218 -0.241481 0.1
    endloop
  endfacet
  facet normal -0.195096 -0.980784 -0
    outer loop
       vertex -0.172218 -0.241481 0.1
       vertex -0.172218 -0.241481 0
       vertex -0.140145 -0.247861 0
    endloop
  endfacet
  facet normal -0.321425 -0.946935 0
    outer loop
       vertex -0.172218 -0.241481 0
       vertex -0.172218 -0.241481 0.1
       vertex -0.203184 -0.23097 0.1
    endloop
  endfacet
  facet normal -0.321425 -0.946935 -0
    outer loop
       vertex -0.203184 -0.23097 0.1
       vertex -0.203184 -0.23097 0
       vertex -0.172218 -0.241481 0
    endloop
  endfacet
  facet normal -0.442302 -0.896866 0
    outer loop
       vertex -0.203184 -0.23097 0
       vertex -0.203184 -0.23097 0.1
       vertex -0.232513 -0.216506 0.1
    endloop
  endfacet
  facet normal -0.442302 -0.896866 -0
    outer loop
       vertex -0.232513 -0.216506 0.1
       vertex -0.232513 -0.216506 0
       vertex -0.203184 -0.23097 0
    endloop
  endfacet
  facet normal -0.555561 -0.831476 0
    outer loop
       vertex -0.232513 -0.216506 0
       vertex -0.232513 -0.216506 0.1
       vertex -0.259704 -0.198338 0.1
    endloop
  endfacet
  facet normal -0.555561 -0.831476 -0
    outer loop
       vertex -0.259704 -0.198338 0.1
       vertex -0.259704 -0.198338 0
       vertex -0.232513 -0.216506 0
    endloop
  endfacet
  facet normal -0.659372 -0.751817 0
    outer loop
       vertex -0.259704 -0.198338 0
       vertex -0.259704 -0.198338 0.1
       vertex -0.284289 -0.176776 0.1
    endloop
  endfacet
  facet normal -0.659372 -0.751817 -0
    outer loop
       vertex -0.284289 -0.176776 0.1
       vertex -0.284289 -0.176776 0
       vertex -0.259704 -0.198338 0
    endloop
  endfacet
endsolid cylinder
