solid cylinder
  facet normal 0.751817 -0.659372 0
    outer loop
       vertex -0.113932 -0.176776 0
       vertex -0.0923705 -0.152191 0
       vertex -0.0923705 -0.152191 0.1
    endloop
  endfacet
  facet normal 0.751817 -0.659372 0
    outer loop
       vertex -0.0923705 -0.152191 0.1
       vertex -0.113932 -0.176776 0.1
       vertex -0.113932 -0.176776 0
    endloop
  endfacet
  facet normal 0.831476 -0.555561 0
    outer loop
       vertex -0.0923705 -0.152191 0
       vertex -0.0742025 -0.125 0
       vertex -0.0742025 -0.125 0.1
    endloop
  endfacet
  facet normal 0.831476 -0.555561 0
    outer loop
       vertex -0.0742025 -0.125 0.1
       vertex -0.0923705 -0.152191 0.1
       vertex -0.0923705 -0.152191 0
    endloop
  endfacet
  facet normal 0.896866 -0.442302 0
    outer loop
       vertex -0.0742025 -0.125 0
       vertex -0.0597385 -0.095671 0
       vertex -0.0597385 -0.095671 0.1
    endloop
  endfacet
  facet normal 0.896866 -0.442302 0
    outer loop
       vertex -0.0597385 -0.095671 0.1
       vertex -0.0742025 -0.125 0.1
       vertex -0.0742025 -0.125 0
    endloop
  endfacet
  facet normal 0.946935 -0.321425 0
    outer loop
       vertex -0.0597385 -0.095671 0
       vertex -0.0492275 -0.064705 0
       vertex -0.0492275 -0.064705 0.1
    endloop
  endfacet
  facet normal 0.946935 -0.321425 0
    outer loop
       vertex -0.0492275 -0.064705 0.1
       vertex -0.0597385 -0.095671 0.1
       vertex -0.0597385 -0.095671 0
    endloop
  endfacet
  facet normal 0.980784 -0.195096 0
    outer loop
       vertex -0.0492275 -0.064705 0
       vertex -0.0428475 -0.0326315 0
       vertex -0.0428475 -0.0326315 0.1
    endloop
  endfacet
  facet normal 0.980784 -0.195096 0
    outer loop
       vertex -0.0428475 -0.0326315 0.1
       vertex -0.0492275 -0.064705 0.1
       vertex -0.0492275 -0.064705 0
    endloop
  endfacet
  facet normal 0.997858 -0.0654098 0
    outer loop
       vertex -0.0407085 -8.32665e-17 0.1
       vertex -0.0428475 -0.0326315 0.1
       vertex -0.0428475 -0.0326315 0
    endloop
  endfacet
  facet normal 0.997858 -0.0654098 -1.08928e-16
    outer loop
       vertex -0.0428475 -0.0326315 0
       vertex -0.0407085 8.32665e-17 0
       vertex -0.0407085 -8.32665e-17 0.1
    endloop
  endfacet
  facet normal 0.997858 0.0654098 0
    outer loop
       vertex -0.0407085 8.32665e-17 0
       vertex -0.0428475 0.0326315 0
       vertex -0.0428475 0.0326315 0.1
    endloop
  endfacet
  facet normal 0.997858 0.0654098 1.08928e-16
    outer loop
       vertex -0.0428475 0.0326315 0.1
       vertex -0.0407085 -8.32665e-17 0.1
       vertex -0.0407085 8.32665e-17 0
    endloop
  endfacet
  facet normal 0.980784 0.195096 0
    outer loop
       vertex -0.0428475 0.0326315 0
       vertex -0.0492275 0.064705 0
       vertex -0.0492275 0.064705 0.1
    endloop
  endfacet
  facet normal 0.980784 0.195096 0
    outer loop
       vertex -0.0492275 0.064705 0.1
       vertex -0.0428475 0.0326315 0.1
       vertex -0.0428475 0.0326315 0
    endloop
  endfacet
  facet normal 0.946935 0.321425 0
    outer loop
       vertex -0.0492275 0.064705 0
       vertex -0.0597385 0.095671 0
       vertex -0.0597385 0.095671 0.1
    endloop
  endfacet
  facet normal 0.946935 0.321425 0
    outer loop
       vertex -0.0597385 0.095671 0.1
       vertex -0.0492275 0.064705 0.1
       vertex -0.0492275 0.064705 0
    endloop
  endfacet
  facet normal 0.896866 0.442302 0
    outer loop
       vertex -0.0597385 0.095671 0
       vertex -0.0742025 0.125 0
       vertex -0.0742025 0.125 0.1
    endloop
  endfacet
  facet normal 0.896866 0.442302 0
    outer loop
       vertex -0.0742025 0.125 0.1
       vertex -0.0597385 0.095671 0.1
       vertex -0.0597385 0.095671 0
    endloop
  endfacet
  facet normal 0.831476 0.555561 0
    outer loop
       vertex -0.0742025 0.125 0
       vertex -0.0923705 0.152191 0
       vertex -0.0923705 0.152191 0.1
    endloop
  endfacet
  facet normal 0.831476 0.555561 0
    outer loop
       vertex -0.0923705 0.152191 0.1
       vertex -0.0742025 0.125 0.1
       vertex -0.0742025 0.125 0
    endloop
  endfacet
  facet normal 0.751817 0.659372 0
    outer loop
       vertex -0.0923705 0.152191 0
       vertex -0.113932 0.176776 0
       vertex -0.113932 0.176776 0.1
    endloop
  endfacet
  facet normal 0.751817 0.659372 0
    outer loop
       vertex -0.113932 0.176776 0.1
       vertex -0.0923705 0.152191 0.1
       vertex -0.0923705 0.152191 0
    endloop
  endfacet
  facet normal 0.659372 0.751817 0
    outer loop
       vertex -0.113932 0.176776 0
       vertex -0.138517 0.198338 0
       vertex -0.138517 0.198338 0.1
    endloop
  endfacet
  facet normal 0.659372 0.751817 0
    outer loop
       vertex -0.138517 0.198338 0.1
       vertex -0.113932 0.176776 0.1
       vertex -0.113932 0.176776 0
    endloop
  endfacet
  facet normal 0.555561 0.831476 0
    outer loop
       vertex -0.138517 0.198338 0
       vertex -0.165708 0.216506 0
       vertex -0.165708 0.216506 0.1
    endloop
  endfacet
  facet normal 0.555561 0.831476 0
    outer loop
       vertex -0.165708 0.216506 0.1
       vertex -0.138517 0.198338 0.1
       vertex -0.138517 0.198338 0
    endloop
  endfacet
  facet normal 0.442302 0.896866 0
    outer loop
       vertex -0.165708 0.216506 0
       vertex -0.195037 0.23097 0
       vertex -0.195037 0.23097 0.1
    endloop
  endfacet
  facet normal 0.442302 0.896866 0
    outer loop
       vertex -0.195037 0.23097 0.1
       vertex -0.165708 0.216506 0.1
       vertex -0.165708 0.216506 0
    endloop
  endfacet
  facet normal 0.321425 0.946935 0
    outer loop
       vertex -0.195037 0.23097 0
       vertex -0.226003 0.241481 0
       vertex -0.226003 0.241481 0.1
    endloop
  endfacet
  facet normal 0.321425 0.946935 0
    outer loop
       vertex -0.226003 0.241481 0.1
       vertex -0.195037 0.23097 0.1
       vertex -0.195037 0.23097 0
    endloop
  endfacet
  facet normal 0.195096 0.980784 0
    outer loop
       vertex -0.226003 0.241481 0
       vertex -0.258077 0.247861 0
       vertex -0.258077 0.247861 0.1
    endloop
  endfacet
  facet normal 0.195096 0.980784 0
    outer loop
       vertex -0.258077 0.247861 0.1
       vertex -0.226003 0.241481 0.1
       vertex -0.226003 0.241481 0
    endloop
  endfacet
  facet normal 0.0654098 0.997858 0
    outer loop
       vertex -0.290708 0.25 0.1
       vertex -0.258077 0.247861 0.1
       vertex -0.258077 0.247861 0
    endloop
  endfacet
  facet normal 0.0654098 0.997858 -7.26205e-17
    outer loop
       vertex -0.258077 0.247861 0
       vertex -0.290708 0.25 0
       vertex -0.290708 0.25 0.1
    endloop
  endfacet
  facet normal -0.0654098 0.997858 0
    outer loop
       vertex -0.290708 0.25 0
       vertex -0.32334 0.247861 0
       vertex -0.32334 0.247861 0.1
    endloop
  endfacet
  facet normal -0.0654098 0.997858 7.26205e-17
    outer loop
       vertex -0.32334 0.247861 0.1
       vertex -0.290708 0.25 0.1
       vertex -0.290708 0.25 0
    endloop
  endfacet
  facet normal -0.195096 0.980784 0
    outer loop
       vertex -0.32334 0.247861 0
       vertex -0.355413 0.241481 0
       vertex -0.355413 0.241481 0.1
    endloop
  endfacet
  facet normal -0.195096 0.980784 0
    outer loop
       vertex -0.355413 0.241481 0.1
       vertex -0.32334 0.247861 0.1
       vertex -0.32334 0.247861 0
    endloop
  endfacet
  facet normal -0.321425 0.946935 0
    outer loop
       vertex -0.355413 0.241481 0
       vertex -0.386379 0.23097 0
       vertex -0.386379 0.23097 0.1
    endloop
  endfacet
  facet normal -0.321425 0.946935 0
    outer loop
       vertex -0.386379 0.23097 0.1
       vertex -0.355413 0.241481 0.1
       vertex -0.355413 0.241481 0
    endloop
  endfacet
  facet normal -0.442302 0.896866 0
    outer loop
       vertex -0.386379 0.23097 0
       vertex -0.415708 0.216506 0
       vertex -0.415708 0.216506 0.1
    endloop
  endfacet
  facet normal -0.442302 0.896866 0
    outer loop
       vertex -0.415708 0.216506 0.1
       vertex -0.386379 0.23097 0.1
       vertex -0.386379 0.23097 0
    endloop
  endfacet
  facet normal -0.555561 0.831476 0
    outer loop
       vertex -0.415708 0.216506 0
       vertex -0.442899 0.198338 0
       vertex -0.442899 0.198338 0.1
    endloop
  endfacet
  facet normal -0.555561 0.831476 0
    outer loop
       vertex -0.442899 0.198338 0.1
       vertex -0.415708 0.216506 0.1
       vertex -0.415708 0.216506 0
    endloop
  endfacet
  facet normal -0.659372 0.751817 0
    outer loop
       vertex -0.442899 0.198338 0
       vertex -0.467484 0.176776 0
       vertex -0.467484 0.176776 0.1
    endloop
  endfacet
  facet normal -0.659372 0.751817 0
    outer loop
       vertex -0.467484 0.176776 0.1
       vertex -0.442899 0.198338 0.1
       vertex -0.442899 0.198338 0
    endloop
  endfacet
  facet normal -0.751817 0.659372 0
    outer loop
       vertex -0.467484 0.176776 0
       vertex -0.489046 0.152191 0
       vertex -0.489046 0.152191 0.1
    endloop
  endfacet
  facet normal -0.751817 0.659372 0
    outer loop
       vertex -0.489046 0.152191 0.1
       vertex -0.467484 0.176776 0.1
       vertex -0.467484 0.176776 0
    endloop
  endfacet
  facet normal -0.831476 0.555561 0
    outer loop
       vertex -0.489046 0.152191 0
       vertex -0.507214 0.125 0
       vertex -0.507214 0.125 0.1
    endloop
  endfacet
  facet normal -0.831476 0.555561 0
    outer loop
       vertex -0.507214 0.125 0.1
       vertex -0.489046 0.152191 0.1
       vertex -0.489046 0.152191 0
    endloop
  endfacet
  facet normal -0.896866 0.442302 0
    outer loop
       vertex -0.507214 0.125 0
       vertex -0.521678 0.095671 0
       vertex -0.521678 0.095671 0.1
    endloop
  endfacet
  facet normal -0.896866 0.442302 0
    outer loop
       vertex -0.521678 0.095671 0.1
       vertex -0.507214 0.125 0.1
       vertex -0.507214 0.125 0
    endloop
  endfacet
  facet normal -0.946935 0.321425 0
    outer loop
       vertex -0.521678 0.095671 0
       vertex -0.532189 0.064705 0
       vertex -0.532189 0.064705 0.1
    endloop
  endfacet
  facet normal -0.946935 0.321425 0
    outer loop
       vertex -0.532189 0.064705 0.1
       vertex -0.521678 0.095671 0.1
       vertex -0.521678 0.095671 0
    endloop
  endfacet
  facet normal -0.980784 0.195096 0
    outer loop
       vertex -0.532189 0.064705 0
       vertex -0.538569 0.0326315 0
       vertex -0.538569 0.0326315 0.1
    endloop
  endfacet
  facet normal -0.980784 0.195096 0
    outer loop
       vertex -0.538569 0.0326315 0.1
       vertex -0.532189 0.064705 0.1
       vertex -0.532189 0.064705 0
    endloop
  endfacet
  facet normal -0.997858 0.0654098 0
    outer loop
       vertex -0.540708 8.32665e-17 0.1
       vertex -0.538569 0.0326315 0.1
       vertex -0.538569 0.0326315 0
    endloop
  endfacet
  facet normal -0.997858 0.0654098 -1.0893e-16
    outer loop
       vertex -0.538569 0.0326315 0
       vertex -0.540708 -8.32665e-17 0
       vertex -0.540708 8.32665e-17 0.1
    endloop
  endfacet
  facet normal -0.997858 -0.0654098 0
    outer loop
       vertex -0.540708 -8.32665e-17 0
       vertex -0.538569 -0.0326315 0
       vertex -0.538569 -0.0326315 0.1
    endloop
  endfacet
  facet normal -0.997858 -0.0654098 1.0893e-16
    outer loop
       vertex -0.538569 -0.0326315 0.1
       vertex -0.540708 8.32665e-17 0.1
       vertex -0.540708 -8.32665e-17 0
    endloop
  endfacet
  facet normal -0.980784 -0.195096 0
    outer loop
       vertex -0.538569 -0.0326315 0
       vertex -0.532189 -0.064705 0
       vertex -0.532189 -0.064705 0.1
    endloop
  endfacet
  facet normal -0.980784 -0.195096 0
    outer loop
       vertex -0.532189 -0.064705 0.1
       vertex -0.538569 -0.0326315 0.1
       vertex -0.538569 -0.0326315 0
    endloop
  endfacet
  facet normal -0.946935 -0.321425 0
    outer loop
       vertex -0.532189 -0.064705 0
       vertex -0.521678 -0.095671 0
       vertex -0.521678 -0.095671 0.1
    endloop
  endfacet
  facet normal -0.946935 -0.321425 0
    outer loop
       vertex -0.521678 -0.095671 0.1
       vertex -0.532189 -0.064705 0.1
       vertex -0.532189 -0.064705 0
    endloop
  endfacet
  facet normal -0.896866 -0.442302 0
    outer loop
       vertex -0.521678 -0.095671 0
       vertex -0.507214 -0.125 0
       vertex -0.507214 -0.125 0.1
    endloop
  endfacet
  facet normal -0.896866 -0.442302 0
    outer loop
       vertex -0.507214 -0.125 0.1
       vertex -0.521678 -0.095671 0.1
       vertex -0.521678 -0.095671 0
    endloop
  endfacet
  facet normal -0.831476 -0.555561 0
    outer loop
       vertex -0.507214 -0.125 0
       vertex -0.489046 -0.152191 0
       vertex -0.489046 -0.152191 0.1
    endloop
  endfacet
  facet normal -0.831476 -0.555561 0
    outer loop
       vertex -0.489046 -0.152191 0.1
       vertex -0.507214 -0.125 0.1
       vertex -0.507214 -0.125 0
    endloop
  endfacet
  facet normal -0.751817 -0.659372 0
    outer loop
       vertex -0.489046 -0.152191 0
       vertex -0.467484 -0.176776 0
       vertex -0.467484 -0.176776 0.1
    endloop
  endfacet
  facet normal -0.751817 -0.659372 0
    outer loop
       vertex -0.467484 -0.176776 0.1
       vertex -0.489046 -0.152191 0.1
       vertex -0.489046 -0.152191 0
    endloop
  endfacet
  facet normal 0.659372 -0.751817 0
    outer loop
       vertex -0.113932 -0.176776 0
       vertex -0.113932 -0.176776 0.1
       vertex -0.138517 -0.198338 0.1
    endloop
  endfacet
  facet normal 0.659372 -0.751817 0
    outer loop
       vertex -0.138517 -0.198338 0.1
       vertex -0.138517 -0.198338 0
       vertex -0.113932 -0.176776 0
    endloop
  endfacet
  facet normal 0.555561 -0.831476 0
    outer loop
       vertex -0.138517 -0.198338 0
       vertex -0.138517 -0.198338 0.1
       vertex -0.165708 -0.216506 0.1
    endloop
  endfacet
  facet normal 0.555561 -0.831476 0
    outer loop
       vertex -0.165708 -0.216506 0.1
       vertex -0.165708 -0.216506 0
       vertex -0.138517 -0.198338 0
    endloop
  endfacet
  facet normal 0.442302 -0.896866 0
    outer loop
       vertex -0.165708 -0.216506 0
       vertex -0.165708 -0.216506 0.1
       vertex -0.195037 -0.23097 0.1
    endloop
  endfacet
  facet normal 0.442302 -0.896866 0
    outer loop
       vertex -0.195037 -0.23097 0.1
       vertex -0.195037 -0.23097 0
       vertex -0.165708 -0.216506 0
    endloop
  endfacet
  facet normal 0.321425 -0.946935 0
    outer loop
       vertex -0.195037 -0.23097 0
       vertex -0.195037 -0.23097 0.1
       vertex -0.226003 -0.241481 0.1
    endloop
  endfacet
  facet normal 0.321425 -0.946935 0
    outer loop
       vertex -0.226003 -0.241481 0.1
       vertex -0.226003 -0.241481 0
       vertex -0.195037 -0.23097 0
    endloop
  endfacet
  facet normal 0.195096 -0.980784 0
    outer loop
       vertex -0.226003 -0.241481 0
       vertex -0.226003 -0.241481 0.1
       vertex -0.258077 -0.247861 0.1
    endloop
  endfacet
  facet normal 0.195096 -0.980784 0
    outer loop
       vertex -0.258077 -0.247861 0.1
       vertex -0.258077 -0.247861 0
       vertex -0.226003 -0.241481 0
    endloop
  endfacet
  facet normal 0.0654098 -0.997858 0
    outer loop
       vertex -0.290708 -0.25 0
       vertex -0.258077 -0.247861 0
       vertex -0.258077 -0.247861 0.1
    endloop
  endfacet
  facet normal 0.0654098 -0.997858 7.26205e-17
    outer loop
       vertex -0.258077 -0.247861 0.1
       vertex -0.290708 -0.25 0.1
       vertex -0.290708 -0.25 0
    endloop
  endfacet
  facet normal -0.0654098 -0.997858 0
    outer loop
       vertex -0.290708 -0.25 0.1
       vertex -0.32334 -0.247861 0.1
       vertex -0.32334 -0.247861 0
    endloop
  endfacet
  facet normal -0.0654098 -0.997858 -7.26205e-17
    outer loop
       vertex -0.32334 -0.247861 0
       vertex -0.290708 -0.25 0
       vertex -0.290708 -0.25 0.1
    endloop
  endfacet
  facet normal -0.195096 -0.980784 0
    outer loop
       vertex -0.32334 -0.247861 0
       vertex -0.32334 -0.247861 0.1
       vertex -0.355413 -0.241481 0.1
    endloop
  endfacet
  facet normal -0.195096 -0.980784 -0
    outer loop
       vertex -0.355413 -0.241481 0.1
       vertex -0.355413 -0.241481 0
       vertex -0.32334 -0.247861 0
    endloop
  endfacet
  facet normal -0.321425 -0.946935 0
    outer loop
       vertex -0.355413 -0.241481 0
       vertex -0.355413 -0.241481 0.1
       vertex -0.386379 -0.23097 0.1
    endloop
  endfacet
  facet normal -0.321425 -0.946935 -0
    outer loop
       vertex -0.386379 -0.23097 0.1
       vertex -0.386379 -0.23097 0
       vertex -0.355413 -0.241481 0
    endloop
  endfacet
  facet normal -0.442302 -0.896866 0
    outer loop
       vertex -0.386379 -0.23097 0
       vertex -0.386379 -0.23097 0.1
       vertex -0.415708 -0.216506 0.1
    endloop
  endfacet
  facet normal -0.442302 -0.896866 -0
    outer loop
       vertex -0.415708 -0.216506 0.1
       vertex -0.415708 -0.216506 0
       vertex -0.386379 -0.23097 0
    endloop
  endfacet
  facet normal -0.555561 -0.831476 0
    outer loop
       vertex -0.415708 -0.216506 0
       vertex -0.415708 -0.216506 0.1
       vertex -0.442899 -0.198338 0.1
    endloop
  endfacet
  facet normal -0.555561 -0.831476 -0
    outer loop
       vertex -0.442899 -0.198338 0.1
       vertex -0.442899 -0.198338 0
       vertex -0.415708 -0.216506 0
    endloop
  endfacet
  facet normal -0.659372 -0.751817 0
    outer loop
       vertex -0.442899 -0.198338 0
       vertex -0.442899 -0.198338 0.1
       vertex -0.467484 -0.176776 0.1
    endloop
  endfacet
  facet normal -0.659372 -0.751817 -0
    outer loop
       vertex -0.467484 -0.176776 0.1
       vertex -0.467484 -0.176776 0
       vertex -0.442899 -0.198338 0
    endloop
  endfacet
endsolid cylinder
