solid cylinder
  facet normal 0.751817 -0.659372 0
    outer loop
       vertex 0.398189 -0.176776 0
       vertex 0.419751 -0.152191 0
       vertex 0.419751 -0.152191 0.1
    endloop
  endfacet
  facet normal 0.751817 -0.659372 0
    outer loop
       vertex 0.419751 -0.152191 0.1
       vertex 0.398189 -0.176776 0.1
       vertex 0.398189 -0.176776 0
    endloop
  endfacet
  facet normal 0.831476 -0.555561 0
    outer loop
       vertex 0.419751 -0.152191 0
       vertex 0.437919 -0.125 0
       vertex 0.437919 -0.125 0.1
    endloop
  endfacet
  facet normal 0.831476 -0.555561 0
    outer loop
       vertex 0.437919 -0.125 0.1
       vertex 0.419751 -0.152191 0.1
       vertex 0.419751 -0.152191 0
    endloop
  endfacet
  facet normal 0.896866 -0.442302 0
    outer loop
       vertex 0.437919 -0.125 0
       vertex 0.452383 -0.095671 0
       vertex 0.452383 -0.095671 0.1
    endloop
  endfacet
  facet normal 0.896866 -0.442302 0
    outer loop
       vertex 0.452383 -0.095671 0.1
       vertex 0.437919 -0.125 0.1
       vertex 0.437919 -0.125 0
    endloop
  endfacet
  facet normal 0.946935 -0.321425 0
    outer loop
       vertex 0.452383 -0.095671 0
       vertex 0.462894 -0.064705 0
       vertex 0.462894 -0.064705 0.1
    endloop
  endfacet
  facet normal 0.946935 -0.321425 0
    outer loop
       vertex 0.462894 -0.064705 0.1
       vertex 0.452383 -0.095671 0.1
       vertex 0.452383 -0.095671 0
    endloop
  endfacet
  facet normal 0.980784 -0.195096 0
    outer loop
       vertex 0.462894 -0.064705 0
       vertex 0.469274 -0.0326315 0
       vertex 0.469274 -0.0326315 0.1
    endloop
  endfacet
  facet normal 0.980784 -0.195096 0
    outer loop
       vertex 0.469274 -0.0326315 0.1
       vertex 0.462894 -0.064705 0.1
       vertex 0.462894 -0.064705 0
    endloop
  endfacet
  facet normal 0.997858 -0.0654098 0
    outer loop
       vertex 0.471413 -8.32665e-17 0.1
       vertex 0.469274 -0.0326315 0.1
       vertex 0.469274 -0.0326315 0
    endloop
  endfacet
  facet normal 0.997858 -0.0654098 -1.08928e-16
    outer loop
       vertex 0.469274 -0.0326315 0
       vertex 0.471413 8.32665e-17 0
       vertex 0.471413 -8.32665e-17 0.1
    endloop
  endfacet
  facet normal 0.997858 0.0654098 0
    outer loop
       vertex 0.471413 8.32665e-17 0
       vertex 0.469274 0.0326315 0
       vertex 0.469274 0.0326315 0.1
    endloop
  endfacet
  facet normal 0.997858 0.0654098 1.08928e-16
    outer loop
       vertex 0.469274 0.0326315 0.1
       vertex 0.471413 -8.32665e-17 0.1
       vertex 0.471413 8.32665e-17 0
    endloop
  endfacet
  facet normal 0.980784 0.195096 0
    outer loop
       vertex 0.469274 0.0326315 0
       vertex 0.462894 0.064705 0
       vertex 0.462894 0.064705 0.1
    endloop
  endfacet
  facet normal 0.980784 0.195096 0
    outer loop
       vertex 0.462894 0.064705 0.1
       vertex 0.469274 0.0326315 0.1
       vertex 0.469274 0.0326315 0
    endloop
  endfacet
  facet normal 0.946935 0.321425 0
    outer loop
       vertex 0.462894 0.064705 0
       vertex 0.452383 0.095671 0
       vertex 0.452383 0.095671 0.1
    endloop
  endfacet
  facet normal 0.946935 0.321425 0
    outer loop
       vertex 0.452383 0.095671 0.1
       vertex 0.462894 0.064705 0.1
       vertex 0.462894 0.064705 0
    endloop
  endfacet
  facet normal 0.896866 0.442302 0
    outer loop
       vertex 0.452383 0.095671 0
       vertex 0.437919 0.125 0
       vertex 0.437919 0.125 0.1
    endloop
  endfacet
  facet normal 0.896866 0.442302 0
    outer loop
       vertex 0.437919 0.125 0.1
       vertex 0.452383 0.095671 0.1
       vertex 0.452383 0.095671 0
    endloop
  endfacet
  facet normal 0.831476 0.555561 0
    outer loop
       vertex 0.437919 0.125 0
       vertex 0.419751 0.152191 0
       vertex 0.419751 0.152191 0.1
    endloop
  endfacet
  facet normal 0.831476 0.555561 0
    outer loop
       vertex 0.419751 0.152191 0.1
       vertex 0.437919 0.125 0.1
       vertex 0.437919 0.125 0
    endloop
  endfacet
  facet normal 0.751817 0.659372 0
    outer loop
       vertex 0.419751 0.152191 0
       vertex 0.398189 0.176776 0
       vertex 0.398189 0.176776 0.1
    endloop
  endfacet
  facet normal 0.751817 0.659372 0
    outer loop
       vertex 0.398189 0.176776 0.1
       vertex 0.419751 0.152191 0.1
       vertex 0.419751 0.152191 0
    endloop
  endfacet
  facet normal 0.659372 0.751817 0
    outer loop
       vertex 0.398189 0.176776 0
       vertex 0.373604 0.198338 0
       vertex 0.373604 0.198338 0.1
    endloop
  endfacet
  facet normal 0.659372 0.751817 0
    outer loop
       vertex 0.373604 0.198338 0.1
       vertex 0.398189 0.176776 0.1
       vertex 0.398189 0.176776 0
    endloop
  endfacet
  facet normal 0.555561 0.831476 0
    outer loop
       vertex 0.373604 0.198338 0
       vertex 0.346413 0.216506 0
       vertex 0.346413 0.216506 0.1
    endloop
  endfacet
  facet normal 0.555561 0.831476 0
    outer loop
       vertex 0.346413 0.216506 0.1
       vertex 0.373604 0.198338 0.1
       vertex 0.373604 0.198338 0
    endloop
  endfacet
  facet normal 0.442302 0.896866 0
    outer loop
       vertex 0.346413 0.216506 0
       vertex 0.317084 0.23097 0
       vertex 0.317084 0.23097 0.1
    endloop
  endfacet
  facet normal 0.442302 0.896866 0
    outer loop
       vertex 0.317084 0.23097 0.1
       vertex 0.346413 0.216506 0.1
       vertex 0.346413 0.216506 0
    endloop
  endfacet
  facet normal 0.321425 0.946935 0
    outer loop
       vertex 0.317084 0.23097 0
       vertex 0.286118 0.241481 0
       vertex 0.286118 0.241481 0.1
    endloop
  endfacet
  facet normal 0.321425 0.946935 0
    outer loop
       vertex 0.286118 0.241481 0.1
       vertex 0.317084 0.23097 0.1
       vertex 0.317084 0.23097 0
    endloop
  endfacet
  facet normal 0.195096 0.980784 0
    outer loop
       vertex 0.286118 0.241481 0
       vertex 0.254045 0.247861 0
       vertex 0.254045 0.247861 0.1
    endloop
  endfacet
  facet normal 0.195096 0.980784 0
    outer loop
       vertex 0.254045 0.247861 0.1
       vertex 0.286118 0.241481 0.1
       vertex 0.286118 0.241481 0
    endloop
  endfacet
  facet normal 0.0654098 0.997858 0
    outer loop
       vertex 0.221413 0.25 0.1
       vertex 0.254045 0.247861 0.1
       vertex 0.254045 0.247861 0
    endloop
  endfacet
  facet normal 0.0654098 0.997858 -1.0893e-16
    outer loop
       vertex 0.254045 0.247861 0
       vertex 0.221413 0.25 0
       vertex 0.221413 0.25 0.1
    endloop
  endfacet
  facet normal -0.0654098 0.997858 0
    outer loop
       vertex 0.221413 0.25 0
       vertex 0.188782 0.247861 0
       vertex 0.188782 0.247861 0.1
    endloop
  endfacet
  facet normal -0.0654098 0.997858 1.0893e-16
    outer loop
       vertex 0.188782 0.247861 0.1
       vertex 0.221413 0.25 0.1
       vertex 0.221413 0.25 0
    endloop
  endfacet
  facet normal -0.195096 0.980784 0
    outer loop
       vertex 0.188782 0.247861 0
       vertex 0.156708 0.241481 0
       vertex 0.156708 0.241481 0.1
    endloop
  endfacet
  facet normal -0.195096 0.980784 0
    outer loop
       vertex 0.156708 0.241481 0.1
       vertex 0.188782 0.247861 0.1
       vertex 0.188782 0.247861 0
    endloop
  endfacet
  facet normal -0.321425 0.946935 0
    outer loop
       vertex 0.156708 0.241481 0
       vertex 0.125742 0.23097 0
       vertex 0.125742 0.23097 0.1
    endloop
  endfacet
  facet normal -0.321425 0.946935 0
    outer loop
       vertex 0.125742 0.23097 0.1
       vertex 0.156708 0.241481 0.1
       vertex 0.156708 0.241481 0
    endloop
  endfacet
  facet normal -0.442302 0.896866 0
    outer loop
       vertex 0.125742 0.23097 0
       vertex 0.0964135 0.216506 0
       vertex 0.0964135 0.216506 0.1
    endloop
  endfacet
  facet normal -0.442302 0.896866 0
    outer loop
       vertex 0.0964135 0.216506 0.1
       vertex 0.125742 0.23097 0.1
       vertex 0.125742 0.23097 0
    endloop
  endfacet
  facet normal -0.555561 0.831476 0
    outer loop
       vertex 0.0964135 0.216506 0
       vertex 0.0692225 0.198338 0
       vertex 0.0692225 0.198338 0.1
    endloop
  endfacet
  facet normal -0.555561 0.831476 0
    outer loop
       vertex 0.0692225 0.198338 0.1
       vertex 0.0964135 0.216506 0.1
       vertex 0.0964135 0.216506 0
    endloop
  endfacet
  facet normal -0.659372 0.751817 0
    outer loop
       vertex 0.0692225 0.198338 0
       vertex 0.0446375 0.176776 0
       vertex 0.0446375 0.176776 0.1
    endloop
  endfacet
  facet normal -0.659372 0.751817 0
    outer loop
       vertex 0.0446375 0.176776 0.1
       vertex 0.0692225 0.198338 0.1
       vertex 0.0692225 0.198338 0
    endloop
  endfacet
  facet normal -0.751817 0.659372 0
    outer loop
       vertex 0.0446375 0.176776 0
       vertex 0.0230755 0.152191 0
       vertex 0.0230755 0.152191 0.1
    endloop
  endfacet
  facet normal -0.751817 0.659372 0
    outer loop
       vertex 0.0230755 0.152191 0.1
       vertex 0.0446375 0.176776 0.1
       vertex 0.0446375 0.176776 0
    endloop
  endfacet
  facet normal -0.831476 0.555561 0
    outer loop
       vertex 0.0230755 0.152191 0
       vertex 0.00490746 0.125 0
       vertex 0.00490746 0.125 0.1
    endloop
  endfacet
  facet normal -0.831476 0.555561 0
    outer loop
       vertex 0.00490746 0.125 0.1
       vertex 0.0230755 0.152191 0.1
       vertex 0.0230755 0.152191 0
    endloop
  endfacet
  facet normal -0.896866 0.442302 0
    outer loop
       vertex 0.00490746 0.125 0
       vertex -0.00955654 0.095671 0
       vertex -0.00955654 0.095671 0.1
    endloop
  endfacet
  facet normal -0.896866 0.442302 0
    outer loop
       vertex -0.00955654 0.095671 0.1
       vertex 0.00490746 0.125 0.1
       vertex 0.00490746 0.125 0
    endloop
  endfacet
  facet normal -0.946935 0.321425 0
    outer loop
       vertex -0.00955654 0.095671 0
       vertex -0.0200675 0.064705 0
       vertex -0.0200675 0.064705 0.1
    endloop
  endfacet
  facet normal -0.946935 0.321425 0
    outer loop
       vertex -0.0200675 0.064705 0.1
       vertex -0.00955654 0.095671 0.1
       vertex -0.00955654 0.095671 0
    endloop
  endfacet
  facet normal -0.980784 0.195096 0
    outer loop
       vertex -0.0200675 0.064705 0
       vertex -0.0264475 0.0326315 0
       vertex -0.0264475 0.0326315 0.1
    endloop
  endfacet
  facet normal -0.980784 0.195096 0
    outer loop
       vertex -0.0264475 0.0326315 0.1
       vertex -0.0200675 0.064705 0.1
       vertex -0.0200675 0.064705 0
    endloop
  endfacet
  facet normal -0.997858 0.0654098 0
    outer loop
       vertex -0.0285865 8.32665e-17 0.1
       vertex -0.0264475 0.0326315 0.1
       vertex -0.0264475 0.0326315 0
    endloop
  endfacet
  facet normal -0.997858 0.0654098 -1.08928e-16
    outer loop
       vertex -0.0264475 0.0326315 0
       vertex -0.0285865 -8.32665e-17 0
       vertex -0.0285865 8.32665e-17 0.1
    endloop
  endfacet
  facet normal -0.997858 -0.0654098 0
    outer loop
       vertex -0.0285865 -8.32665e-17 0
       vertex -0.0264475 -0.0326315 0
       vertex -0.0264475 -0.0326315 0.1
    endloop
  endfacet
  facet normal -0.997858 -0.0654098 1.08928e-16
    outer loop
       vertex -0.0264475 -0.0326315 0.1
       vertex -0.0285865 8.32665e-17 0.1
       vertex -0.0285865 -8.32665e-17 0
    endloop
  endfacet
  facet normal -0.980784 -0.195096 0
    outer loop
       vertex -0.0264475 -0.0326315 0
       vertex -0.0200675 -0.064705 0
       vertex -0.0200675 -0.064705 0.1
    endloop
  endfacet
  facet normal -0.980784 -0.195096 0
    outer loop
       vertex -0.0200675 -0.064705 0.1
       vertex -0.0264475 -0.0326315 0.1
       vertex -0.0264475 -0.0326315 0
    endloop
  endfacet
  facet normal -0.946935 -0.321425 0
    outer loop
       vertex -0.0200675 -0.064705 0
       vertex -0.00955654 -0.095671 0
       vertex -0.00955654 -0.095671 0.1
    endloop
  endfacet
  facet normal -0.946935 -0.321425 0
    outer loop
       vertex -0.00955654 -0.095671 0.1
       vertex -0.0200675 -0.064705 0.1
       vertex -0.0200675 -0.064705 0
    endloop
  endfacet
  facet normal -0.896866 -0.442302 0
    outer loop
       vertex -0.00955654 -0.095671 0
       vertex 0.00490746 -0.125 0
       vertex 0.00490746 -0.125 0.1
    endloop
  endfacet
  facet normal -0.896866 -0.442302 0
    outer loop
       vertex 0.00490746 -0.125 0.1
       vertex -0.00955654 -0.095671 0.1
       vertex -0.00955654 -0.095671 0
    endloop
  endfacet
  facet normal -0.831476 -0.555561 0
    outer loop
       vertex 0.00490746 -0.125 0
       vertex 0.0230755 -0.152191 0
       vertex 0.0230755 -0.152191 0.1
    endloop
  endfacet
  facet normal -0.831476 -0.555561 0
    outer loop
       vertex 0.0230755 -0.152191 0.1
       vertex 0.00490746 -0.125 0.1
       vertex 0.00490746 -0.125 0
    endloop
  endfacet
  facet normal -0.751817 -0.659372 0
    outer loop
       vertex 0.0230755 -0.152191 0
       vertex 0.0446375 -0.176776 0
       vertex 0.0446375 -0.176776 0.1
    endloop
  endfacet
  facet normal -0.751817 -0.659372 0
    outer loop
       vertex 0.0446375 -0.176776 0.1
       vertex 0.0230755 -0.152191 0.1
       vertex 0.0230755 -0.152191 0
    endloop
  endfacet
  facet normal 0.659372 -0.751817 0
    outer loop
       vertex 0.398189 -0.176776 0
       vertex 0.398189 -0.176776 0.1
       vertex 0.373604 -0.198338 0.1
    endloop
  endfacet
  facet normal 0.659372 -0.751817 0
    outer loop
       vertex 0.373604 -0.198338 0.1
       vertex 0.373604 -0.198338 0
       vertex 0.398189 -0.176776 0
    endloop
  endfacet
  facet normal 0.555561 -0.831476 0
    outer loop
       vertex 0.373604 -0.198338 0
       vertex 0.373604 -0.198338 0.1
       vertex 0.346413 -0.216506 0.1
    endloop
  endfacet
  facet normal 0.555561 -0.831476 0
    outer loop
       vertex 0.346413 -0.216506 0.1
       vertex 0.346413 -0.216506 0
       vertex 0.373604 -0.198338 0
    endloop
  endfacet
  facet normal 0.442302 -0.896866 0
    outer loop
       vertex 0.346413 -0.216506 0
       vertex 0.346413 -0.216506 0.1
       vertex 0.317084 -0.23097 0.1
    endloop
  endfacet
  facet normal 0.442302 -0.896866 0
    outer loop
       vertex 0.317084 -0.23097 0.1
       vertex 0.317084 -0.23097 0
       vertex 0.346413 -0.216506 0
    endloop
  endfacet
  facet normal 0.321425 -0.946935 0
    outer loop
       vertex 0.317084 -0.23097 0
       vertex 0.317084 -0.23097 0.1
       vertex 0.286118 -0.241481 0.1
    endloop
  endfacet
  facet normal 0.321425 -0.946935 0
    outer loop
       vertex 0.286118 -0.241481 0.1
       vertex 0.286118 -0.241481 0
       vertex 0.317084 -0.23097 0
    endloop
  endfacet
  facet normal 0.195096 -0.980784 0
    outer loop
       vertex 0.286118 -0.241481 0
       vertex 0.286118 -0.241481 0.1
       vertex 0.254045 -0.247861 0.1
    endloop
  endfacet
  facet normal 0.195096 -0.980784 0
    outer loop
       vertex 0.254045 -0.247861 0.1
       vertex 0.254045 -0.247861 0
       vertex 0.286118 -0.241481 0
    endloop
  endfacet
  facet normal 0.0654098 -0.997858 0
    outer loop
       vertex 0.221413 -0.25 0
       vertex 0.254045 -0.247861 0
       vertex 0.254045 -0.247861 0.1
    endloop
  endfacet
  facet normal 0.0654098 -0.997858 1.0893e-16
    outer loop
       vertex 0.254045 -0.247861 0.1
       vertex 0.221413 -0.25 0.1
       vertex 0.221413 -0.25 0
    endloop
  endfacet
  facet normal -0.0654098 -0.997858 0
    outer loop
       vertex 0.221413 -0.25 0.1
       vertex 0.188782 -0.247861 0.1
       vertex 0.188782 -0.247861 0
    endloop
  endfacet
  facet normal -0.0654098 -0.997858 -1.0893e-16
    outer loop
       vertex 0.188782 -0.247861 0
       vertex 0.221413 -0.25 0
       vertex 0.221413 -0.25 0.1
    endloop
  endfacet
  facet normal -0.195096 -0.980784 0
    outer loop
       vertex 0.188782 -0.247861 0
       vertex 0.188782 -0.247861 0.1
       vertex 0.156708 -0.241481 0.1
    endloop
  endfacet
  facet normal -0.195096 -0.980784 -0
    outer loop
       vertex 0.156708 -0.241481 0.1
       vertex 0.156708 -0.241481 0
       vertex 0.188782 -0.247861 0
    endloop
  endfacet
  facet normal -0.321425 -0.946935 0
    outer loop
       vertex 0.156708 -0.241481 0
       vertex 0.156708 -0.241481 0.1
       vertex 0.125742 -0.23097 0.1
    endloop
  endfacet
  facet normal -0.321425 -0.946935 -0
    outer loop
       vertex 0.125742 -0.23097 0.1
       vertex 0.125742 -0.23097 0
       vertex 0.156708 -0.241481 0
    endloop
  endfacet
  facet normal -0.442302 -0.896866 0
    outer loop
       vertex 0.125742 -0.23097 0
       vertex 0.125742 -0.23097 0.1
       vertex 0.0964135 -0.216506 0.1
    endloop
  endfacet
  facet normal -0.442302 -0.896866 -0
    outer loop
       vertex 0.0964135 -0.216506 0.1
       vertex 0.0964135 -0.216506 0
       vertex 0.125742 -0.23097 0
    endloop
  endfacet
  facet normal -0.555561 -0.831476 0
    outer loop
       vertex 0.0964135 -0.216506 0
       vertex 0.0964135 -0.216506 0.1
       vertex 0.0692225 -0.198338 0.1
    endloop
  endfacet
  facet normal -0.555561 -0.831476 -0
    outer loop
       vertex 0.0692225 -0.198338 0.1
       vertex 0.0692225 -0.198338 0
       vertex 0.0964135 -0.216506 0
    endloop
  endfacet
  facet normal -0.659372 -0.751817 0
    outer loop
       vertex 0.0692225 -0.198338 0
       vertex 0.0692225 -0.198338 0.1
       vertex 0.0446375 -0.176776 0.1
    endloop
  endfacet
  facet normal -0.659372 -0.751817 -0
    outer loop
       vertex 0.0446375 -0.176776 0.1
       vertex 0.0446375 -0.176776 0
       vertex 0.0692225 -0.198338 0
    endloop
  endfacet
endsolid cylinder
