solid cylinder
  facet normal 0.751817 -0.659372 0
    outer loop
       vertex 0.418521 -0.176776 0
       vertex 0.440083 -0.152191 0
       vertex 0.440083 -0.152191 0.1
    endloop
  endfacet
  facet normal 0.751817 -0.659372 0
    outer loop
       vertex 0.440083 -0.152191 0.1
       vertex 0.418521 -0.176776 0.1
       vertex 0.418521 -0.176776 0
    endloop
  endfacet
  facet normal 0.831476 -0.555561 0
    outer loop
       vertex 0.440083 -0.152191 0
       vertex 0.458251 -0.125 0
       vertex 0.458251 -0.125 0.1
    endloop
  endfacet
  facet normal 0.831476 -0.555561 0
    outer loop
       vertex 0.458251 -0.125 0.1
       vertex 0.440083 -0.152191 0.1
       vertex 0.440083 -0.152191 0
    endloop
  endfacet
  facet normal 0.896866 -0.442302 0
    outer loop
       vertex 0.458251 -0.125 0
       vertex 0.472715 -0.095671 0
       vertex 0.472715 -0.095671 0.1
    endloop
  endfacet
  facet normal 0.896866 -0.442302 0
    outer loop
       vertex 0.472715 -0.095671 0.1
       vertex 0.458251 -0.125 0.1
       vertex 0.458251 -0.125 0
    endloop
  endfacet
  facet normal 0.946935 -0.321425 0
    outer loop
       vertex 0.472715 -0.095671 0
       vertex 0.483226 -0.064705 0
       vertex 0.483226 -0.064705 0.1
    endloop
  endfacet
  facet normal 0.946935 -0.321425 0
    outer loop
       vertex 0.483226 -0.064705 0.1
       vertex 0.472715 -0.095671 0.1
       vertex 0.472715 -0.095671 0
    endloop
  endfacet
  facet normal 0.980784 -0.195096 0
    outer loop
       vertex 0.483226 -0.064705 0
       vertex 0.489606 -0.0326315 0
       vertex 0.489606 -0.0326315 0.1
    endloop
  endfacet
  facet normal 0.980784 -0.195096 0
    outer loop
       vertex 0.489606 -0.0326315 0.1
       vertex 0.483226 -0.064705 0.1
       vertex 0.483226 -0.064705 0
    endloop
  endfacet
  facet normal 0.997858 -0.0654098 0
    outer loop
       vertex 0.491745 -8.32665e-17 0.1
       vertex 0.489606 -0.0326315 0.1
       vertex 0.489606 -0.0326315 0
    endloop
  endfacet
  facet normal 0.997858 -0.0654098 -1.08928e-16
    outer loop
       vertex 0.489606 -0.0326315 0
       vertex 0.491745 8.32665e-17 0
       vertex 0.491745 -8.32665e-17 0.1
    endloop
  endfacet
  facet normal 0.997858 0.0654098 0
    outer loop
       vertex 0.491745 8.32665e-17 0
       vertex 0.489606 0.0326315 0
       vertex 0.489606 0.0326315 0.1
    endloop
  endfacet
  facet normal 0.997858 0.0654098 1.08928e-16
    outer loop
       vertex 0.489606 0.0326315 0.1
       vertex 0.491745 -8.32665e-17 0.1
       vertex 0.491745 8.32665e-17 0
    endloop
  endfacet
  facet normal 0.980784 0.195096 0
    outer loop
       vertex 0.489606 0.0326315 0
       vertex 0.483226 0.064705 0
       vertex 0.483226 0.064705 0.1
    endloop
  endfacet
  facet normal 0.980784 0.195096 0
    outer loop
       vertex 0.483226 0.064705 0.1
       vertex 0.489606 0.0326315 0.1
       vertex 0.489606 0.0326315 0
    endloop
  endfacet
  facet normal 0.946935 0.321425 0
    outer loop
       vertex 0.483226 0.064705 0
       vertex 0.472715 0.095671 0
       vertex 0.472715 0.095671 0.1
    endloop
  endfacet
  facet normal 0.946935 0.321425 0
    outer loop
       vertex 0.472715 0.095671 0.1
       vertex 0.483226 0.064705 0.1
       vertex 0.483226 0.064705 0
    endloop
  endfacet
  facet normal 0.896866 0.442302 0
    outer loop
       vertex 0.472715 0.095671 0
       vertex 0.458251 0.125 0
       vertex 0.458251 0.125 0.1
    endloop
  endfacet
  facet normal 0.896866 0.442302 0
    outer loop
       vertex 0.458251 0.125 0.1
       vertex 0.472715 0.095671 0.1
       vertex 0.472715 0.095671 0
    endloop
  endfacet
  facet normal 0.831476 0.555561 0
    outer loop
       vertex 0.458251 0.125 0
       vertex 0.440083 0.152191 0
       vertex 0.440083 0.152191 0.1
    endloop
  endfacet
  facet normal 0.831476 0.555561 0
    outer loop
       vertex 0.440083 0.152191 0.1
       vertex 0.458251 0.125 0.1
       vertex 0.458251 0.125 0
    endloop
  endfacet
  facet normal 0.751817 0.659372 0
    outer loop
       vertex 0.440083 0.152191 0
       vertex 0.418521 0.176776 0
       vertex 0.418521 0.176776 0.1
    endloop
  endfacet
  facet normal 0.751817 0.659372 0
    outer loop
       vertex 0.418521 0.176776 0.1
       vertex 0.440083 0.152191 0.1
       vertex 0.440083 0.152191 0
    endloop
  endfacet
  facet normal 0.659372 0.751817 0
    outer loop
       vertex 0.418521 0.176776 0
       vertex 0.393936 0.198338 0
       vertex 0.393936 0.198338 0.1
    endloop
  endfacet
  facet normal 0.659372 0.751817 0
    outer loop
       vertex 0.393936 0.198338 0.1
       vertex 0.418521 0.176776 0.1
       vertex 0.418521 0.176776 0
    endloop
  endfacet
  facet normal 0.555561 0.831476 0
    outer loop
       vertex 0.393936 0.198338 0
       vertex 0.366745 0.216506 0
       vertex 0.366745 0.216506 0.1
    endloop
  endfacet
  facet normal 0.555561 0.831476 0
    outer loop
       vertex 0.366745 0.216506 0.1
       vertex 0.393936 0.198338 0.1
       vertex 0.393936 0.198338 0
    endloop
  endfacet
  facet normal 0.442302 0.896866 0
    outer loop
       vertex 0.366745 0.216506 0
       vertex 0.337416 0.23097 0
       vertex 0.337416 0.23097 0.1
    endloop
  endfacet
  facet normal 0.442302 0.896866 0
    outer loop
       vertex 0.337416 0.23097 0.1
       vertex 0.366745 0.216506 0.1
       vertex 0.366745 0.216506 0
    endloop
  endfacet
  facet normal 0.321425 0.946935 0
    outer loop
       vertex 0.337416 0.23097 0
       vertex 0.30645 0.241481 0
       vertex 0.30645 0.241481 0.1
    endloop
  endfacet
  facet normal 0.321425 0.946935 0
    outer loop
       vertex 0.30645 0.241481 0.1
       vertex 0.337416 0.23097 0.1
       vertex 0.337416 0.23097 0
    endloop
  endfacet
  facet normal 0.195096 0.980784 0
    outer loop
       vertex 0.30645 0.241481 0
       vertex 0.274376 0.247861 0
       vertex 0.274376 0.247861 0.1
    endloop
  endfacet
  facet normal 0.195096 0.980784 0
    outer loop
       vertex 0.274376 0.247861 0.1
       vertex 0.30645 0.241481 0.1
       vertex 0.30645 0.241481 0
    endloop
  endfacet
  facet normal 0.0654098 0.997858 0
    outer loop
       vertex 0.241745 0.25 0.1
       vertex 0.274376 0.247861 0.1
       vertex 0.274376 0.247861 0
    endloop
  endfacet
  facet normal 0.0654098 0.997858 -1.0893e-16
    outer loop
       vertex 0.274376 0.247861 0
       vertex 0.241745 0.25 0
       vertex 0.241745 0.25 0.1
    endloop
  endfacet
  facet normal -0.0654098 0.997858 0
    outer loop
       vertex 0.241745 0.25 0
       vertex 0.209113 0.247861 0
       vertex 0.209113 0.247861 0.1
    endloop
  endfacet
  facet normal -0.0654098 0.997858 1.0893e-16
    outer loop
       vertex 0.209113 0.247861 0.1
       vertex 0.241745 0.25 0.1
       vertex 0.241745 0.25 0
    endloop
  endfacet
  facet normal -0.195096 0.980784 0
    outer loop
       vertex 0.209113 0.247861 0
       vertex 0.17704 0.241481 0
       vertex 0.17704 0.241481 0.1
    endloop
  endfacet
  facet normal -0.195096 0.980784 0
    outer loop
       vertex 0.17704 0.241481 0.1
       vertex 0.209113 0.247861 0.1
       vertex 0.209113 0.247861 0
    endloop
  endfacet
  facet normal -0.321425 0.946935 0
    outer loop
       vertex 0.17704 0.241481 0
       vertex 0.146074 0.23097 0
       vertex 0.146074 0.23097 0.1
    endloop
  endfacet
  facet normal -0.321425 0.946935 0
    outer loop
       vertex 0.146074 0.23097 0.1
       vertex 0.17704 0.241481 0.1
       vertex 0.17704 0.241481 0
    endloop
  endfacet
  facet normal -0.442302 0.896866 0
    outer loop
       vertex 0.146074 0.23097 0
       vertex 0.116745 0.216506 0
       vertex 0.116745 0.216506 0.1
    endloop
  endfacet
  facet normal -0.442302 0.896866 0
    outer loop
       vertex 0.116745 0.216506 0.1
       vertex 0.146074 0.23097 0.1
       vertex 0.146074 0.23097 0
    endloop
  endfacet
  facet normal -0.555561 0.831476 0
    outer loop
       vertex 0.116745 0.216506 0
       vertex 0.0895536 0.198338 0
       vertex 0.0895536 0.198338 0.1
    endloop
  endfacet
  facet normal -0.555561 0.831476 0
    outer loop
       vertex 0.0895536 0.198338 0.1
       vertex 0.116745 0.216506 0.1
       vertex 0.116745 0.216506 0
    endloop
  endfacet
  facet normal -0.659372 0.751817 0
    outer loop
       vertex 0.0895536 0.198338 0
       vertex 0.0649686 0.176776 0
       vertex 0.0649686 0.176776 0.1
    endloop
  endfacet
  facet normal -0.659372 0.751817 0
    outer loop
       vertex 0.0649686 0.176776 0.1
       vertex 0.0895536 0.198338 0.1
       vertex 0.0895536 0.198338 0
    endloop
  endfacet
  facet normal -0.751817 0.659372 0
    outer loop
       vertex 0.0649686 0.176776 0
       vertex 0.0434066 0.152191 0
       vertex 0.0434066 0.152191 0.1
    endloop
  endfacet
  facet normal -0.751817 0.659372 0
    outer loop
       vertex 0.0434066 0.152191 0.1
       vertex 0.0649686 0.176776 0.1
       vertex 0.0649686 0.176776 0
    endloop
  endfacet
  facet normal -0.831476 0.555561 0
    outer loop
       vertex 0.0434066 0.152191 0
       vertex 0.0252386 0.125 0
       vertex 0.0252386 0.125 0.1
    endloop
  endfacet
  facet normal -0.831476 0.555561 0
    outer loop
       vertex 0.0252386 0.125 0.1
       vertex 0.0434066 0.152191 0.1
       vertex 0.0434066 0.152191 0
    endloop
  endfacet
  facet normal -0.896866 0.442302 0
    outer loop
       vertex 0.0252386 0.125 0
       vertex 0.0107746 0.095671 0
       vertex 0.0107746 0.095671 0.1
    endloop
  endfacet
  facet normal -0.896866 0.442302 0
    outer loop
       vertex 0.0107746 0.095671 0.1
       vertex 0.0252386 0.125 0.1
       vertex 0.0252386 0.125 0
    endloop
  endfacet
  facet normal -0.946935 0.321425 0
    outer loop
       vertex 0.0107746 0.095671 0
       vertex 0.000263645 0.064705 0
       vertex 0.000263645 0.064705 0.1
    endloop
  endfacet
  facet normal -0.946935 0.321425 0
    outer loop
       vertex 0.000263645 0.064705 0.1
       vertex 0.0107746 0.095671 0.1
       vertex 0.0107746 0.095671 0
    endloop
  endfacet
  facet normal -0.980784 0.195096 0
    outer loop
       vertex 0.000263645 0.064705 0
       vertex -0.00611635 0.0326315 0
       vertex -0.00611635 0.0326315 0.1
    endloop
  endfacet
  facet normal -0.980784 0.195096 0
    outer loop
       vertex -0.00611635 0.0326315 0.1
       vertex 0.000263645 0.064705 0.1
       vertex 0.000263645 0.064705 0
    endloop
  endfacet
  facet normal -0.997858 0.0654098 0
    outer loop
       vertex -0.00825535 8.32665e-17 0.1
       vertex -0.00611635 0.0326315 0.1
       vertex -0.00611635 0.0326315 0
    endloop
  endfacet
  facet normal -0.997858 0.0654098 -1.08928e-16
    outer loop
       vertex -0.00611635 0.0326315 0
       vertex -0.00825535 -8.32665e-17 0
       vertex -0.00825535 8.32665e-17 0.1
    endloop
  endfacet
  facet normal -0.997858 -0.0654098 0
    outer loop
       vertex -0.00825535 -8.32665e-17 0
       vertex -0.00611635 -0.0326315 0
       vertex -0.00611635 -0.0326315 0.1
    endloop
  endfacet
  facet normal -0.997858 -0.0654098 1.08928e-16
    outer loop
       vertex -0.00611635 -0.0326315 0.1
       vertex -0.00825535 8.32665e-17 0.1
       vertex -0.00825535 -8.32665e-17 0
    endloop
  endfacet
  facet normal -0.980784 -0.195096 0
    outer loop
       vertex -0.00611635 -0.0326315 0
       vertex 0.000263645 -0.064705 0
       vertex 0.000263645 -0.064705 0.1
    endloop
  endfacet
  facet normal -0.980784 -0.195096 0
    outer loop
       vertex 0.000263645 -0.064705 0.1
       vertex -0.00611635 -0.0326315 0.1
       vertex -0.00611635 -0.0326315 0
    endloop
  endfacet
  facet normal -0.946935 -0.321425 0
    outer loop
       vertex 0.000263645 -0.064705 0
       vertex 0.0107746 -0.095671 0
       vertex 0.0107746 -0.095671 0.1
    endloop
  endfacet
  facet normal -0.946935 -0.321425 0
    outer loop
       vertex 0.0107746 -0.095671 0.1
       vertex 0.000263645 -0.064705 0.1
       vertex 0.000263645 -0.064705 0
    endloop
  endfacet
  facet normal -0.896866 -0.442302 0
    outer loop
       vertex 0.0107746 -0.095671 0
       vertex 0.0252386 -0.125 0
       vertex 0.0252386 -0.125 0.1
    endloop
  endfacet
  facet normal -0.896866 -0.442302 0
    outer loop
       vertex 0.0252386 -0.125 0.1
       vertex 0.0107746 -0.095671 0.1
       vertex 0.0107746 -0.095671 0
    endloop
  endfacet
  facet normal -0.831476 -0.555561 0
    outer loop
       vertex 0.0252386 -0.125 0
       vertex 0.0434066 -0.152191 0
       vertex 0.0434066 -0.152191 0.1
    endloop
  endfacet
  facet normal -0.831476 -0.555561 0
    outer loop
       vertex 0.0434066 -0.152191 0.1
       vertex 0.0252386 -0.125 0.1
       vertex 0.0252386 -0.125 0
    endloop
  endfacet
  facet normal -0.751817 -0.659372 0
    outer loop
       vertex 0.0434066 -0.152191 0
       vertex 0.0649686 -0.176776 0
       vertex 0.0649686 -0.176776 0.1
    endloop
  endfacet
  facet normal -0.751817 -0.659372 0
    outer loop
       vertex 0.0649686 -0.176776 0.1
       vertex 0.0434066 -0.152191 0.1
       vertex 0.0434066 -0.152191 0
    endloop
  endfacet
  facet normal 0.659372 -0.751817 0
    outer loop
       vertex 0.418521 -0.176776 0
       vertex 0.418521 -0.176776 0.1
       vertex 0.393936 -0.198338 0.1
    endloop
  endfacet
  facet normal 0.659372 -0.751817 0
    outer loop
       vertex 0.393936 -0.198338 0.1
       vertex 0.393936 -0.198338 0
       vertex 0.418521 -0.176776 0
    endloop
  endfacet
  facet normal 0.555561 -0.831476 0
    outer loop
       vertex 0.393936 -0.198338 0
       vertex 0.393936 -0.198338 0.1
       vertex 0.366745 -0.216506 0.1
    endloop
  endfacet
  facet normal 0.555561 -0.831476 0
    outer loop
       vertex 0.366745 -0.216506 0.1
       vertex 0.366745 -0.216506 0
       vertex 0.393936 -0.198338 0
    endloop
  endfacet
  facet normal 0.442302 -0.896866 0
    outer loop
       vertex 0.366745 -0.216506 0
       vertex 0.366745 -0.216506 0.1
       vertex 0.337416 -0.23097 0.1
    endloop
  endfacet
  facet normal 0.442302 -0.896866 0
    outer loop
       vertex 0.337416 -0.23097 0.1
       vertex 0.337416 -0.23097 0
       vertex 0.366745 -0.216506 0
    endloop
  endfacet
  facet normal 0.321425 -0.946935 0
    outer loop
       vertex 0.337416 -0.23097 0
       vertex 0.337416 -0.23097 0.1
       vertex 0.30645 -0.241481 0.1
    endloop
  endfacet
  facet normal 0.321425 -0.946935 0
    outer loop
       vertex 0.30645 -0.241481 0.1
       vertex 0.30645 -0.241481 0
       vertex 0.337416 -0.23097 0
    endloop
  endfacet
  facet normal 0.195096 -0.980784 0
    outer loop
       vertex 0.30645 -0.241481 0
       vertex 0.30645 -0.241481 0.1
       vertex 0.274376 -0.247861 0.1
    endloop
  endfacet
  facet normal 0.195096 -0.980784 0
    outer loop
       vertex 0.274376 -0.247861 0.1
       vertex 0.274376 -0.247861 0
       vertex 0.30645 -0.241481 0
    endloop
  endfacet
  facet normal 0.0654098 -0.997858 0
    outer loop
       vertex 0.241745 -0.25 0
       vertex 0.274376 -0.247861 0
       vertex 0.274376 -0.247861 0.1
    endloop
  endfacet
  facet normal 0.0654098 -0.997858 1.0893e-16
    outer loop
       vertex 0.274376 -0.247861 0.1
       vertex 0.241745 -0.25 0.1
       vertex 0.241745 -0.25 0
    endloop
  endfacet
  facet normal -0.0654098 -0.997858 0
    outer loop
       vertex 0.241745 -0.25 0.1
       vertex 0.209113 -0.247861 0.1
       vertex 0.209113 -0.247861 0
    endloop
  endfacet
  facet normal -0.0654098 -0.997858 -1.0893e-16
    outer loop
       vertex 0.209113 -0.247861 0
       vertex 0.241745 -0.25 0
       vertex 0.241745 -0.25 0.1
    endloop
  endfacet
  facet normal -0.195096 -0.980784 0
    outer loop
       vertex 0.209113 -0.247861 0
       vertex 0.209113 -0.247861 0.1
       vertex 0.17704 -0.241481 0.1
    endloop
  endfacet
  facet normal -0.195096 -0.980784 -0
    outer loop
       vertex 0.17704 -0.241481 0.1
       vertex 0.17704 -0.241481 0
       vertex 0.209113 -0.247861 0
    endloop
  endfacet
  facet normal -0.321425 -0.946935 0
    outer loop
       vertex 0.17704 -0.241481 0
       vertex 0.17704 -0.241481 0.1
       vertex 0.146074 -0.23097 0.1
    endloop
  endfacet
  facet normal -0.321425 -0.946935 -0
    outer loop
       vertex 0.146074 -0.23097 0.1
       vertex 0.146074 -0.23097 0
       vertex 0.17704 -0.241481 0
    endloop
  endfacet
  facet normal -0.442302 -0.896866 0
    outer loop
       vertex 0.146074 -0.23097 0
       vertex 0.146074 -0.23097 0.1
       vertex 0.116745 -0.216506 0.1
    endloop
  endfacet
  facet normal -0.442302 -0.896866 -0
    outer loop
       vertex 0.116745 -0.216506 0.1
       vertex 0.116745 -0.216506 0
       vertex 0.146074 -0.23097 0
    endloop
  endfacet
  facet normal -0.555561 -0.831476 0
    outer loop
       vertex 0.116745 -0.216506 0
       vertex 0.116745 -0.216506 0.1
       vertex 0.0895536 -0.198338 0.1
    endloop
  endfacet
  facet normal -0.555561 -0.831476 -0
    outer loop
       vertex 0.0895536 -0.198338 0.1
       vertex 0.0895536 -0.198338 0
       vertex 0.116745 -0.216506 0
    endloop
  endfacet
  facet normal -0.659372 -0.751817 0
    outer loop
       vertex 0.0895536 -0.198338 0
       vertex 0.0895536 -0.198338 0.1
       vertex 0.0649686 -0.176776 0.1
    endloop
  endfacet
  facet normal -0.659372 -0.751817 -0
    outer loop
       vertex 0.0649686 -0.176776 0.1
       vertex 0.0649686 -0.176776 0
       vertex 0.0895536 -0.198338 0
    endloop
  endfacet
endsolid cylinder
