solid cylinder
  facet normal 0.751817 -0.659372 0
    outer loop
       vertex 0.228757 -0.176776 0
       vertex 0.250319 -0.152191 0
       vertex 0.250319 -0.152191 0.1
    endloop
  endfacet
  facet normal 0.751817 -0.659372 0
    outer loop
       vertex 0.250319 -0.152191 0.1
       vertex 0.228757 -0.176776 0.1
       vertex 0.228757 -0.176776 0
    endloop
  endfacet
  facet normal 0.831476 -0.555561 0
    outer loop
       vertex 0.250319 -0.152191 0
       vertex 0.268487 -0.125 0
       vertex 0.268487 -0.125 0.1
    endloop
  endfacet
  facet normal 0.831476 -0.555561 0
    outer loop
       vertex 0.268487 -0.125 0.1
       vertex 0.250319 -0.152191 0.1
       vertex 0.250319 -0.152191 0
    endloop
  endfacet
  facet normal 0.896866 -0.442302 0
    outer loop
       vertex 0.268487 -0.125 0
       vertex 0.282951 -0.095671 0
       vertex 0.282951 -0.095671 0.1
    endloop
  endfacet
  facet normal 0.896866 -0.442302 0
    outer loop
       vertex 0.282951 -0.095671 0.1
       vertex 0.268487 -0.125 0.1
       vertex 0.268487 -0.125 0
    endloop
  endfacet
  facet normal 0.946935 -0.321425 0
    outer loop
       vertex 0.282951 -0.095671 0
       vertex 0.293462 -0.064705 0
       vertex 0.293462 -0.064705 0.1
    endloop
  endfacet
  facet normal 0.946935 -0.321425 0
    outer loop
       vertex 0.293462 -0.064705 0.1
       vertex 0.282951 -0.095671 0.1
       vertex 0.282951 -0.095671 0
    endloop
  endfacet
  facet normal 0.980784 -0.195096 0
    outer loop
       vertex 0.293462 -0.064705 0
       vertex 0.299842 -0.0326315 0
       vertex 0.299842 -0.0326315 0.1
    endloop
  endfacet
  facet normal 0.980784 -0.195096 0
    outer loop
       vertex 0.299842 -0.0326315 0.1
       vertex 0.293462 -0.064705 0.1
       vertex 0.293462 -0.064705 0
    endloop
  endfacet
  facet normal 0.997858 -0.0654098 0
    outer loop
       vertex 0.301981 -8.32665e-17 0.1
       vertex 0.299842 -0.0326315 0.1
       vertex 0.299842 -0.0326315 0
    endloop
  endfacet
  facet normal 0.997858 -0.0654098 -1.08928e-16
    outer loop
       vertex 0.299842 -0.0326315 0
       vertex 0.301981 8.32665e-17 0
       vertex 0.301981 -8.32665e-17 0.1
    endloop
  endfacet
  facet normal 0.997858 0.0654098 0
    outer loop
       vertex 0.301981 8.32665e-17 0
       vertex 0.299842 0.0326315 0
       vertex 0.299842 0.0326315 0.1
    endloop
  endfacet
  facet normal 0.997858 0.0654098 1.08928e-16
    outer loop
       vertex 0.299842 0.0326315 0.1
       vertex 0.301981 -8.32665e-17 0.1
       vertex 0.301981 8.32665e-17 0
    endloop
  endfacet
  facet normal 0.980784 0.195096 0
    outer loop
       vertex 0.299842 0.0326315 0
       vertex 0.293462 0.064705 0
       vertex 0.293462 0.064705 0.1
    endloop
  endfacet
  facet normal 0.980784 0.195096 0
    outer loop
       vertex 0.293462 0.064705 0.1
       vertex 0.299842 0.0326315 0.1
       vertex 0.299842 0.0326315 0
    endloop
  endfacet
  facet normal 0.946935 0.321425 0
    outer loop
       vertex 0.293462 0.064705 0
       vertex 0.282951 0.095671 0
       vertex 0.282951 0.095671 0.1
    endloop
  endfacet
  facet normal 0.946935 0.321425 0
    outer loop
       vertex 0.282951 0.095671 0.1
       vertex 0.293462 0.064705 0.1
       vertex 0.293462 0.064705 0
    endloop
  endfacet
  facet normal 0.896866 0.442302 0
    outer loop
       vertex 0.282951 0.095671 0
       vertex 0.268487 0.125 0
       vertex 0.268487 0.125 0.1
    endloop
  endfacet
  facet normal 0.896866 0.442302 0
    outer loop
       vertex 0.268487 0.125 0.1
       vertex 0.282951 0.095671 0.1
       vertex 0.282951 0.095671 0
    endloop
  endfacet
  facet normal 0.831476 0.555561 0
    outer loop
       vertex 0.268487 0.125 0
       vertex 0.250319 0.152191 0
       vertex 0.250319 0.152191 0.1
    endloop
  endfacet
  facet normal 0.831476 0.555561 0
    outer loop
       vertex 0.250319 0.152191 0.1
       vertex 0.268487 0.125 0.1
       vertex 0.268487 0.125 0
    endloop
  endfacet
  facet normal 0.751817 0.659372 0
    outer loop
       vertex 0.250319 0.152191 0
       vertex 0.228757 0.176776 0
       vertex 0.228757 0.176776 0.1
    endloop
  endfacet
  facet normal 0.751817 0.659372 0
    outer loop
       vertex 0.228757 0.176776 0.1
       vertex 0.250319 0.152191 0.1
       vertex 0.250319 0.152191 0
    endloop
  endfacet
  facet normal 0.659372 0.751817 0
    outer loop
       vertex 0.228757 0.176776 0
       vertex 0.204172 0.198338 0
       vertex 0.204172 0.198338 0.1
    endloop
  endfacet
  facet normal 0.659372 0.751817 0
    outer loop
       vertex 0.204172 0.198338 0.1
       vertex 0.228757 0.176776 0.1
       vertex 0.228757 0.176776 0
    endloop
  endfacet
  facet normal 0.555561 0.831476 0
    outer loop
       vertex 0.204172 0.198338 0
       vertex 0.176981 0.216506 0
       vertex 0.176981 0.216506 0.1
    endloop
  endfacet
  facet normal 0.555561 0.831476 0
    outer loop
       vertex 0.176981 0.216506 0.1
       vertex 0.204172 0.198338 0.1
       vertex 0.204172 0.198338 0
    endloop
  endfacet
  facet normal 0.442302 0.896866 0
    outer loop
       vertex 0.176981 0.216506 0
       vertex 0.147652 0.23097 0
       vertex 0.147652 0.23097 0.1
    endloop
  endfacet
  facet normal 0.442302 0.896866 0
    outer loop
       vertex 0.147652 0.23097 0.1
       vertex 0.176981 0.216506 0.1
       vertex 0.176981 0.216506 0
    endloop
  endfacet
  facet normal 0.321425 0.946935 0
    outer loop
       vertex 0.147652 0.23097 0
       vertex 0.116686 0.241481 0
       vertex 0.116686 0.241481 0.1
    endloop
  endfacet
  facet normal 0.321425 0.946935 0
    outer loop
       vertex 0.116686 0.241481 0.1
       vertex 0.147652 0.23097 0.1
       vertex 0.147652 0.23097 0
    endloop
  endfacet
  facet normal 0.195096 0.980784 0
    outer loop
       vertex 0.116686 0.241481 0
       vertex 0.0846123 0.247861 0
       vertex 0.0846123 0.247861 0.1
    endloop
  endfacet
  facet normal 0.195096 0.980784 0
    outer loop
       vertex 0.0846123 0.247861 0.1
       vertex 0.116686 0.241481 0.1
       vertex 0.116686 0.241481 0
    endloop
  endfacet
  facet normal 0.0654098 0.997858 0
    outer loop
       vertex 0.0519808 0.25 0.1
       vertex 0.0846123 0.247861 0.1
       vertex 0.0846123 0.247861 0
    endloop
  endfacet
  facet normal 0.0654098 0.997858 -1.08928e-16
    outer loop
       vertex 0.0846123 0.247861 0
       vertex 0.0519808 0.25 0
       vertex 0.0519808 0.25 0.1
    endloop
  endfacet
  facet normal -0.0654098 0.997858 0
    outer loop
       vertex 0.0519808 0.25 0
       vertex 0.0193493 0.247861 0
       vertex 0.0193493 0.247861 0.1
    endloop
  endfacet
  facet normal -0.0654098 0.997858 1.08928e-16
    outer loop
       vertex 0.0193493 0.247861 0.1
       vertex 0.0519808 0.25 0.1
       vertex 0.0519808 0.25 0
    endloop
  endfacet
  facet normal -0.195096 0.980784 0
    outer loop
       vertex 0.0193493 0.247861 0
       vertex -0.0127242 0.241481 0
       vertex -0.0127242 0.241481 0.1
    endloop
  endfacet
  facet normal -0.195096 0.980784 0
    outer loop
       vertex -0.0127242 0.241481 0.1
       vertex 0.0193493 0.247861 0.1
       vertex 0.0193493 0.247861 0
    endloop
  endfacet
  facet normal -0.321425 0.946935 0
    outer loop
       vertex -0.0127242 0.241481 0
       vertex -0.0436902 0.23097 0
       vertex -0.0436902 0.23097 0.1
    endloop
  endfacet
  facet normal -0.321425 0.946935 0
    outer loop
       vertex -0.0436902 0.23097 0.1
       vertex -0.0127242 0.241481 0.1
       vertex -0.0127242 0.241481 0
    endloop
  endfacet
  facet normal -0.442302 0.896866 0
    outer loop
       vertex -0.0436902 0.23097 0
       vertex -0.0730192 0.216506 0
       vertex -0.0730192 0.216506 0.1
    endloop
  endfacet
  facet normal -0.442302 0.896866 0
    outer loop
       vertex -0.0730192 0.216506 0.1
       vertex -0.0436902 0.23097 0.1
       vertex -0.0436902 0.23097 0
    endloop
  endfacet
  facet normal -0.555561 0.831476 0
    outer loop
       vertex -0.0730192 0.216506 0
       vertex -0.10021 0.198338 0
       vertex -0.10021 0.198338 0.1
    endloop
  endfacet
  facet normal -0.555561 0.831476 0
    outer loop
       vertex -0.10021 0.198338 0.1
       vertex -0.0730192 0.216506 0.1
       vertex -0.0730192 0.216506 0
    endloop
  endfacet
  facet normal -0.659372 0.751817 0
    outer loop
       vertex -0.10021 0.198338 0
       vertex -0.124795 0.176776 0
       vertex -0.124795 0.176776 0.1
    endloop
  endfacet
  facet normal -0.659372 0.751817 0
    outer loop
       vertex -0.124795 0.176776 0.1
       vertex -0.10021 0.198338 0.1
       vertex -0.10021 0.198338 0
    endloop
  endfacet
  facet normal -0.751817 0.659372 0
    outer loop
       vertex -0.124795 0.176776 0
       vertex -0.146357 0.152191 0
       vertex -0.146357 0.152191 0.1
    endloop
  endfacet
  facet normal -0.751817 0.659372 0
    outer loop
       vertex -0.146357 0.152191 0.1
       vertex -0.124795 0.176776 0.1
       vertex -0.124795 0.176776 0
    endloop
  endfacet
  facet normal -0.831476 0.555561 0
    outer loop
       vertex -0.146357 0.152191 0
       vertex -0.164525 0.125 0
       vertex -0.164525 0.125 0.1
    endloop
  endfacet
  facet normal -0.831476 0.555561 0
    outer loop
       vertex -0.164525 0.125 0.1
       vertex -0.146357 0.152191 0.1
       vertex -0.146357 0.152191 0
    endloop
  endfacet
  facet normal -0.896866 0.442302 0
    outer loop
       vertex -0.164525 0.125 0
       vertex -0.178989 0.095671 0
       vertex -0.178989 0.095671 0.1
    endloop
  endfacet
  facet normal -0.896866 0.442302 0
    outer loop
       vertex -0.178989 0.095671 0.1
       vertex -0.164525 0.125 0.1
       vertex -0.164525 0.125 0
    endloop
  endfacet
  facet normal -0.946935 0.321425 0
    outer loop
       vertex -0.178989 0.095671 0
       vertex -0.1895 0.064705 0
       vertex -0.1895 0.064705 0.1
    endloop
  endfacet
  facet normal -0.946935 0.321425 0
    outer loop
       vertex -0.1895 0.064705 0.1
       vertex -0.178989 0.095671 0.1
       vertex -0.178989 0.095671 0
    endloop
  endfacet
  facet normal -0.980784 0.195096 0
    outer loop
       vertex -0.1895 0.064705 0
       vertex -0.19588 0.0326315 0
       vertex -0.19588 0.0326315 0.1
    endloop
  endfacet
  facet normal -0.980784 0.195096 0
    outer loop
       vertex -0.19588 0.0326315 0.1
       vertex -0.1895 0.064705 0.1
       vertex -0.1895 0.064705 0
    endloop
  endfacet
  facet normal -0.997858 0.0654098 0
    outer loop
       vertex -0.198019 8.32665e-17 0.1
       vertex -0.19588 0.0326315 0.1
       vertex -0.19588 0.0326315 0
    endloop
  endfacet
  facet normal -0.997858 0.0654098 -1.08928e-16
    outer loop
       vertex -0.19588 0.0326315 0
       vertex -0.198019 -8.32665e-17 0
       vertex -0.198019 8.32665e-17 0.1
    endloop
  endfacet
  facet normal -0.997858 -0.0654098 0
    outer loop
       vertex -0.198019 -8.32665e-17 0
       vertex -0.19588 -0.0326315 0
       vertex -0.19588 -0.0326315 0.1
    endloop
  endfacet
  facet normal -0.997858 -0.0654098 1.08928e-16
    outer loop
       vertex -0.19588 -0.0326315 0.1
       vertex -0.198019 8.32665e-17 0.1
       vertex -0.198019 -8.32665e-17 0
    endloop
  endfacet
  facet normal -0.980784 -0.195096 0
    outer loop
       vertex -0.19588 -0.0326315 0
       vertex -0.1895 -0.064705 0
       vertex -0.1895 -0.064705 0.1
    endloop
  endfacet
  facet normal -0.980784 -0.195096 0
    outer loop
       vertex -0.1895 -0.064705 0.1
       vertex -0.19588 -0.0326315 0.1
       vertex -0.19588 -0.0326315 0
    endloop
  endfacet
  facet normal -0.946935 -0.321425 0
    outer loop
       vertex -0.1895 -0.064705 0
       vertex -0.178989 -0.095671 0
       vertex -0.178989 -0.095671 0.1
    endloop
  endfacet
  facet normal -0.946935 -0.321425 0
    outer loop
       vertex -0.178989 -0.095671 0.1
       vertex -0.1895 -0.064705 0.1
       vertex -0.1895 -0.064705 0
    endloop
  endfacet
  facet normal -0.896866 -0.442302 0
    outer loop
       vertex -0.178989 -0.095671 0
       vertex -0.164525 -0.125 0
       vertex -0.164525 -0.125 0.1
    endloop
  endfacet
  facet normal -0.896866 -0.442302 0
    outer loop
       vertex -0.164525 -0.125 0.1
       vertex -0.178989 -0.095671 0.1
       vertex -0.178989 -0.095671 0
    endloop
  endfacet
  facet normal -0.831476 -0.555561 0
    outer loop
       vertex -0.164525 -0.125 0
       vertex -0.146357 -0.152191 0
       vertex -0.146357 -0.152191 0.1
    endloop
  endfacet
  facet normal -0.831476 -0.555561 0
    outer loop
       vertex -0.146357 -0.152191 0.1
       vertex -0.164525 -0.125 0.1
       vertex -0.164525 -0.125 0
    endloop
  endfacet
  facet normal -0.751817 -0.659372 0
    outer loop
       vertex -0.146357 -0.152191 0
       vertex -0.124795 -0.176776 0
       vertex -0.124795 -0.176776 0.1
    endloop
  endfacet
  facet normal -0.751817 -0.659372 0
    outer loop
       vertex -0.124795 -0.176776 0.1
       vertex -0.146357 -0.152191 0.1
       vertex -0.146357 -0.152191 0
    endloop
  endfacet
  facet normal 0.659372 -0.751817 0
    outer loop
       vertex 0.228757 -0.176776 0
       vertex 0.228757 -0.176776 0.1
       vertex 0.204172 -0.198338 0.1
    endloop
  endfacet
  facet normal 0.659372 -0.751817 0
    outer loop
       vertex 0.204172 -0.198338 0.1
       vertex 0.204172 -0.198338 0
       vertex 0.228757 -0.176776 0
    endloop
  endfacet
  facet normal 0.555561 -0.831476 0
    outer loop
       vertex 0.204172 -0.198338 0
       vertex 0.204172 -0.198338 0.1
       vertex 0.176981 -0.216506 0.1
    endloop
  endfacet
  facet normal 0.555561 -0.831476 0
    outer loop
       vertex 0.176981 -0.216506 0.1
       vertex 0.176981 -0.216506 0
       vertex 0.204172 -0.198338 0
    endloop
  endfacet
  facet normal 0.442302 -0.896866 0
    outer loop
       vertex 0.176981 -0.216506 0
       vertex 0.176981 -0.216506 0.1
       vertex 0.147652 -0.23097 0.1
    endloop
  endfacet
  facet normal 0.442302 -0.896866 0
    outer loop
       vertex 0.147652 -0.23097 0.1
       vertex 0.147652 -0.23097 0
       vertex 0.176981 -0.216506 0
    endloop
  endfacet
  facet normal 0.321425 -0.946935 0
    outer loop
       vertex 0.147652 -0.23097 0
       vertex 0.147652 -0.23097 0.1
       vertex 0.116686 -0.241481 0.1
    endloop
  endfacet
  facet normal 0.321425 -0.946935 0
    outer loop
       vertex 0.116686 -0.241481 0.1
       vertex 0.116686 -0.241481 0
       vertex 0.147652 -0.23097 0
    endloop
  endfacet
  facet normal 0.195096 -0.980784 0
    outer loop
       vertex 0.116686 -0.241481 0
       vertex 0.116686 -0.241481 0.1
       vertex 0.0846123 -0.247861 0.1
    endloop
  endfacet
  facet normal 0.195096 -0.980784 0
    outer loop
       vertex 0.0846123 -0.247861 0.1
       vertex 0.0846123 -0.247861 0
       vertex 0.116686 -0.241481 0
    endloop
  endfacet
  facet normal 0.0654098 -0.997858 0
    outer loop
       vertex 0.0519808 -0.25 0
       vertex 0.0846123 -0.247861 0
       vertex 0.0846123 -0.247861 0.1
    endloop
  endfacet
  facet normal 0.0654098 -0.997858 1.08928e-16
    outer loop
       vertex 0.0846123 -0.247861 0.1
       vertex 0.0519808 -0.25 0.1
       vertex 0.0519808 -0.25 0
    endloop
  endfacet
  facet normal -0.0654098 -0.997858 0
    outer loop
       vertex 0.0519808 -0.25 0.1
       vertex 0.0193493 -0.247861 0.1
       vertex 0.0193493 -0.247861 0
    endloop
  endfacet
  facet normal -0.0654098 -0.997858 -1.08928e-16
    outer loop
       vertex 0.0193493 -0.247861 0
       vertex 0.0519808 -0.25 0
       vertex 0.0519808 -0.25 0.1
    endloop
  endfacet
  facet normal -0.195096 -0.980784 0
    outer loop
       vertex 0.0193493 -0.247861 0
       vertex 0.0193493 -0.247861 0.1
       vertex -0.0127242 -0.241481 0.1
    endloop
  endfacet
  facet normal -0.195096 -0.980784 -0
    outer loop
       vertex -0.0127242 -0.241481 0.1
       vertex -0.0127242 -0.241481 0
       vertex 0.0193493 -0.247861 0
    endloop
  endfacet
  facet normal -0.321425 -0.946935 0
    outer loop
       vertex -0.0127242 -0.241481 0
       vertex -0.0127242 -0.241481 0.1
       vertex -0.0436902 -0.23097 0.1
    endloop
  endfacet
  facet normal -0.321425 -0.946935 -0
    outer loop
       vertex -0.0436902 -0.23097 0.1
       vertex -0.0436902 -0.23097 0
       vertex -0.0127242 -0.241481 0
    endloop
  endfacet
  facet normal -0.442302 -0.896866 0
    outer loop
       vertex -0.0436902 -0.23097 0
       vertex -0.0436902 -0.23097 0.1
       vertex -0.0730192 -0.216506 0.1
    endloop
  endfacet
  facet normal -0.442302 -0.896866 -0
    outer loop
       vertex -0.0730192 -0.216506 0.1
       vertex -0.0730192 -0.216506 0
       vertex -0.0436902 -0.23097 0
    endloop
  endfacet
  facet normal -0.555561 -0.831476 0
    outer loop
       vertex -0.0730192 -0.216506 0
       vertex -0.0730192 -0.216506 0.1
       vertex -0.10021 -0.198338 0.1
    endloop
  endfacet
  facet normal -0.555561 -0.831476 -0
    outer loop
       vertex -0.10021 -0.198338 0.1
       vertex -0.10021 -0.198338 0
       vertex -0.0730192 -0.216506 0
    endloop
  endfacet
  facet normal -0.659372 -0.751817 0
    outer loop
       vertex -0.10021 -0.198338 0
       vertex -0.10021 -0.198338 0.1
       vertex -0.124795 -0.176776 0.1
    endloop
  endfacet
  facet normal -0.659372 -0.751817 -0
    outer loop
       vertex -0.124795 -0.176776 0.1
       vertex -0.124795 -0.176776 0
       vertex -0.10021 -0.198338 0
    endloop
  endfacet
endsolid cylinder
