solid cylinder
  facet normal 0.751817 -0.659372 0
    outer loop
       vertex 0.412036 -0.176776 0
       vertex 0.433598 -0.152191 0
       vertex 0.433598 -0.152191 0.1
    endloop
  endfacet
  facet normal 0.751817 -0.659372 0
    outer loop
       vertex 0.433598 -0.152191 0.1
       vertex 0.412036 -0.176776 0.1
       vertex 0.412036 -0.176776 0
    endloop
  endfacet
  facet normal 0.831476 -0.555561 0
    outer loop
       vertex 0.433598 -0.152191 0
       vertex 0.451766 -0.125 0
       vertex 0.451766 -0.125 0.1
    endloop
  endfacet
  facet normal 0.831476 -0.555561 0
    outer loop
       vertex 0.451766 -0.125 0.1
       vertex 0.433598 -0.152191 0.1
       vertex 0.433598 -0.152191 0
    endloop
  endfacet
  facet normal 0.896866 -0.442302 0
    outer loop
       vertex 0.451766 -0.125 0
       vertex 0.46623 -0.095671 0
       vertex 0.46623 -0.095671 0.1
    endloop
  endfacet
  facet normal 0.896866 -0.442302 0
    outer loop
       vertex 0.46623 -0.095671 0.1
       vertex 0.451766 -0.125 0.1
       vertex 0.451766 -0.125 0
    endloop
  endfacet
  facet normal 0.946935 -0.321425 0
    outer loop
       vertex 0.46623 -0.095671 0
       vertex 0.476741 -0.064705 0
       vertex 0.476741 -0.064705 0.1
    endloop
  endfacet
  facet normal 0.946935 -0.321425 0
    outer loop
       vertex 0.476741 -0.064705 0.1
       vertex 0.46623 -0.095671 0.1
       vertex 0.46623 -0.095671 0
    endloop
  endfacet
  facet normal 0.980784 -0.195096 0
    outer loop
       vertex 0.476741 -0.064705 0
       vertex 0.483121 -0.0326315 0
       vertex 0.483121 -0.0326315 0.1
    endloop
  endfacet
  facet normal 0.980784 -0.195096 0
    outer loop
       vertex 0.483121 -0.0326315 0.1
       vertex 0.476741 -0.064705 0.1
       vertex 0.476741 -0.064705 0
    endloop
  endfacet
  facet normal 0.997858 -0.0654098 0
    outer loop
       vertex 0.48526 -8.32665e-17 0.1
       vertex 0.483121 -0.0326315 0.1
       vertex 0.483121 -0.0326315 0
    endloop
  endfacet
  facet normal 0.997858 -0.0654098 -1.08928e-16
    outer loop
       vertex 0.483121 -0.0326315 0
       vertex 0.48526 8.32665e-17 0
       vertex 0.48526 -8.32665e-17 0.1
    endloop
  endfacet
  facet normal 0.997858 0.0654098 0
    outer loop
       vertex 0.48526 8.32665e-17 0
       vertex 0.483121 0.0326315 0
       vertex 0.483121 0.0326315 0.1
    endloop
  endfacet
  facet normal 0.997858 0.0654098 1.08928e-16
    outer loop
       vertex 0.483121 0.0326315 0.1
       vertex 0.48526 -8.32665e-17 0.1
       vertex 0.48526 8.32665e-17 0
    endloop
  endfacet
  facet normal 0.980784 0.195096 0
    outer loop
       vertex 0.483121 0.0326315 0
       vertex 0.476741 0.064705 0
       vertex 0.476741 0.064705 0.1
    endloop
  endfacet
  facet normal 0.980784 0.195096 0
    outer loop
       vertex 0.476741 0.064705 0.1
       vertex 0.483121 0.0326315 0.1
       vertex 0.483121 0.0326315 0
    endloop
  endfacet
  facet normal 0.946935 0.321425 0
    outer loop
       vertex 0.476741 0.064705 0
       vertex 0.46623 0.095671 0
       vertex 0.46623 0.095671 0.1
    endloop
  endfacet
  facet normal 0.946935 0.321425 0
    outer loop
       vertex 0.46623 0.095671 0.1
       vertex 0.476741 0.064705 0.1
       vertex 0.476741 0.064705 0
    endloop
  endfacet
  facet normal 0.896866 0.442302 0
    outer loop
       vertex 0.46623 0.095671 0
       vertex 0.451766 0.125 0
       vertex 0.451766 0.125 0.1
    endloop
  endfacet
  facet normal 0.896866 0.442302 0
    outer loop
       vertex 0.451766 0.125 0.1
       vertex 0.46623 0.095671 0.1
       vertex 0.46623 0.095671 0
    endloop
  endfacet
  facet normal 0.831476 0.555561 0
    outer loop
       vertex 0.451766 0.125 0
       vertex 0.433598 0.152191 0
       vertex 0.433598 0.152191 0.1
    endloop
  endfacet
  facet normal 0.831476 0.555561 0
    outer loop
       vertex 0.433598 0.152191 0.1
       vertex 0.451766 0.125 0.1
       vertex 0.451766 0.125 0
    endloop
  endfacet
  facet normal 0.751817 0.659372 0
    outer loop
       vertex 0.433598 0.152191 0
       vertex 0.412036 0.176776 0
       vertex 0.412036 0.176776 0.1
    endloop
  endfacet
  facet normal 0.751817 0.659372 0
    outer loop
       vertex 0.412036 0.176776 0.1
       vertex 0.433598 0.152191 0.1
       vertex 0.433598 0.152191 0
    endloop
  endfacet
  facet normal 0.659372 0.751817 0
    outer loop
       vertex 0.412036 0.176776 0
       vertex 0.387451 0.198338 0
       vertex 0.387451 0.198338 0.1
    endloop
  endfacet
  facet normal 0.659372 0.751817 0
    outer loop
       vertex 0.387451 0.198338 0.1
       vertex 0.412036 0.176776 0.1
       vertex 0.412036 0.176776 0
    endloop
  endfacet
  facet normal 0.555561 0.831476 0
    outer loop
       vertex 0.387451 0.198338 0
       vertex 0.36026 0.216506 0
       vertex 0.36026 0.216506 0.1
    endloop
  endfacet
  facet normal 0.555561 0.831476 0
    outer loop
       vertex 0.36026 0.216506 0.1
       vertex 0.387451 0.198338 0.1
       vertex 0.387451 0.198338 0
    endloop
  endfacet
  facet normal 0.442302 0.896866 0
    outer loop
       vertex 0.36026 0.216506 0
       vertex 0.330931 0.23097 0
       vertex 0.330931 0.23097 0.1
    endloop
  endfacet
  facet normal 0.442302 0.896866 0
    outer loop
       vertex 0.330931 0.23097 0.1
       vertex 0.36026 0.216506 0.1
       vertex 0.36026 0.216506 0
    endloop
  endfacet
  facet normal 0.321425 0.946935 0
    outer loop
       vertex 0.330931 0.23097 0
       vertex 0.299965 0.241481 0
       vertex 0.299965 0.241481 0.1
    endloop
  endfacet
  facet normal 0.321425 0.946935 0
    outer loop
       vertex 0.299965 0.241481 0.1
       vertex 0.330931 0.23097 0.1
       vertex 0.330931 0.23097 0
    endloop
  endfacet
  facet normal 0.195096 0.980784 0
    outer loop
       vertex 0.299965 0.241481 0
       vertex 0.267891 0.247861 0
       vertex 0.267891 0.247861 0.1
    endloop
  endfacet
  facet normal 0.195096 0.980784 0
    outer loop
       vertex 0.267891 0.247861 0.1
       vertex 0.299965 0.241481 0.1
       vertex 0.299965 0.241481 0
    endloop
  endfacet
  facet normal 0.0654098 0.997858 0
    outer loop
       vertex 0.23526 0.25 0.1
       vertex 0.267891 0.247861 0.1
       vertex 0.267891 0.247861 0
    endloop
  endfacet
  facet normal 0.0654098 0.997858 -1.0893e-16
    outer loop
       vertex 0.267891 0.247861 0
       vertex 0.23526 0.25 0
       vertex 0.23526 0.25 0.1
    endloop
  endfacet
  facet normal -0.0654098 0.997858 0
    outer loop
       vertex 0.23526 0.25 0
       vertex 0.202628 0.247861 0
       vertex 0.202628 0.247861 0.1
    endloop
  endfacet
  facet normal -0.0654098 0.997858 1.0893e-16
    outer loop
       vertex 0.202628 0.247861 0.1
       vertex 0.23526 0.25 0.1
       vertex 0.23526 0.25 0
    endloop
  endfacet
  facet normal -0.195096 0.980784 0
    outer loop
       vertex 0.202628 0.247861 0
       vertex 0.170555 0.241481 0
       vertex 0.170555 0.241481 0.1
    endloop
  endfacet
  facet normal -0.195096 0.980784 0
    outer loop
       vertex 0.170555 0.241481 0.1
       vertex 0.202628 0.247861 0.1
       vertex 0.202628 0.247861 0
    endloop
  endfacet
  facet normal -0.321425 0.946935 0
    outer loop
       vertex 0.170555 0.241481 0
       vertex 0.139589 0.23097 0
       vertex 0.139589 0.23097 0.1
    endloop
  endfacet
  facet normal -0.321425 0.946935 0
    outer loop
       vertex 0.139589 0.23097 0.1
       vertex 0.170555 0.241481 0.1
       vertex 0.170555 0.241481 0
    endloop
  endfacet
  facet normal -0.442302 0.896866 0
    outer loop
       vertex 0.139589 0.23097 0
       vertex 0.11026 0.216506 0
       vertex 0.11026 0.216506 0.1
    endloop
  endfacet
  facet normal -0.442302 0.896866 0
    outer loop
       vertex 0.11026 0.216506 0.1
       vertex 0.139589 0.23097 0.1
       vertex 0.139589 0.23097 0
    endloop
  endfacet
  facet normal -0.555561 0.831476 0
    outer loop
       vertex 0.11026 0.216506 0
       vertex 0.0830686 0.198338 0
       vertex 0.0830686 0.198338 0.1
    endloop
  endfacet
  facet normal -0.555561 0.831476 0
    outer loop
       vertex 0.0830686 0.198338 0.1
       vertex 0.11026 0.216506 0.1
       vertex 0.11026 0.216506 0
    endloop
  endfacet
  facet normal -0.659372 0.751817 0
    outer loop
       vertex 0.0830686 0.198338 0
       vertex 0.0584836 0.176776 0
       vertex 0.0584836 0.176776 0.1
    endloop
  endfacet
  facet normal -0.659372 0.751817 0
    outer loop
       vertex 0.0584836 0.176776 0.1
       vertex 0.0830686 0.198338 0.1
       vertex 0.0830686 0.198338 0
    endloop
  endfacet
  facet normal -0.751817 0.659372 0
    outer loop
       vertex 0.0584836 0.176776 0
       vertex 0.0369216 0.152191 0
       vertex 0.0369216 0.152191 0.1
    endloop
  endfacet
  facet normal -0.751817 0.659372 0
    outer loop
       vertex 0.0369216 0.152191 0.1
       vertex 0.0584836 0.176776 0.1
       vertex 0.0584836 0.176776 0
    endloop
  endfacet
  facet normal -0.831476 0.555561 0
    outer loop
       vertex 0.0369216 0.152191 0
       vertex 0.0187536 0.125 0
       vertex 0.0187536 0.125 0.1
    endloop
  endfacet
  facet normal -0.831476 0.555561 0
    outer loop
       vertex 0.0187536 0.125 0.1
       vertex 0.0369216 0.152191 0.1
       vertex 0.0369216 0.152191 0
    endloop
  endfacet
  facet normal -0.896866 0.442302 0
    outer loop
       vertex 0.0187536 0.125 0
       vertex 0.00428957 0.095671 0
       vertex 0.00428957 0.095671 0.1
    endloop
  endfacet
  facet normal -0.896866 0.442302 0
    outer loop
       vertex 0.00428957 0.095671 0.1
       vertex 0.0187536 0.125 0.1
       vertex 0.0187536 0.125 0
    endloop
  endfacet
  facet normal -0.946935 0.321425 0
    outer loop
       vertex 0.00428957 0.095671 0
       vertex -0.00622143 0.064705 0
       vertex -0.00622143 0.064705 0.1
    endloop
  endfacet
  facet normal -0.946935 0.321425 0
    outer loop
       vertex -0.00622143 0.064705 0.1
       vertex 0.00428957 0.095671 0.1
       vertex 0.00428957 0.095671 0
    endloop
  endfacet
  facet normal -0.980784 0.195096 0
    outer loop
       vertex -0.00622143 0.064705 0
       vertex -0.0126014 0.0326315 0
       vertex -0.0126014 0.0326315 0.1
    endloop
  endfacet
  facet normal -0.980784 0.195096 0
    outer loop
       vertex -0.0126014 0.0326315 0.1
       vertex -0.00622143 0.064705 0.1
       vertex -0.00622143 0.064705 0
    endloop
  endfacet
  facet normal -0.997858 0.0654098 0
    outer loop
       vertex -0.0147404 8.32665e-17 0.1
       vertex -0.0126014 0.0326315 0.1
       vertex -0.0126014 0.0326315 0
    endloop
  endfacet
  facet normal -0.997858 0.0654098 -1.08928e-16
    outer loop
       vertex -0.0126014 0.0326315 0
       vertex -0.0147404 -8.32665e-17 0
       vertex -0.0147404 8.32665e-17 0.1
    endloop
  endfacet
  facet normal -0.997858 -0.0654098 0
    outer loop
       vertex -0.0147404 -8.32665e-17 0
       vertex -0.0126014 -0.0326315 0
       vertex -0.0126014 -0.0326315 0.1
    endloop
  endfacet
  facet normal -0.997858 -0.0654098 1.08928e-16
    outer loop
       vertex -0.0126014 -0.0326315 0.1
       vertex -0.0147404 8.32665e-17 0.1
       vertex -0.0147404 -8.32665e-17 0
    endloop
  endfacet
  facet normal -0.980784 -0.195096 0
    outer loop
       vertex -0.0126014 -0.0326315 0
       vertex -0.00622143 -0.064705 0
       vertex -0.00622143 -0.064705 0.1
    endloop
  endfacet
  facet normal -0.980784 -0.195096 0
    outer loop
       vertex -0.00622143 -0.064705 0.1
       vertex -0.0126014 -0.0326315 0.1
       vertex -0.0126014 -0.0326315 0
    endloop
  endfacet
  facet normal -0.946935 -0.321425 0
    outer loop
       vertex -0.00622143 -0.064705 0
       vertex 0.00428957 -0.095671 0
       vertex 0.00428957 -0.095671 0.1
    endloop
  endfacet
  facet normal -0.946935 -0.321425 0
    outer loop
       vertex 0.00428957 -0.095671 0.1
       vertex -0.00622143 -0.064705 0.1
       vertex -0.00622143 -0.064705 0
    endloop
  endfacet
  facet normal -0.896866 -0.442302 0
    outer loop
       vertex 0.00428957 -0.095671 0
       vertex 0.0187536 -0.125 0
       vertex 0.0187536 -0.125 0.1
    endloop
  endfacet
  facet normal -0.896866 -0.442302 0
    outer loop
       vertex 0.0187536 -0.125 0.1
       vertex 0.00428957 -0.095671 0.1
       vertex 0.00428957 -0.095671 0
    endloop
  endfacet
  facet normal -0.831476 -0.555561 0
    outer loop
       vertex 0.0187536 -0.125 0
       vertex 0.0369216 -0.152191 0
       vertex 0.0369216 -0.152191 0.1
    endloop
  endfacet
  facet normal -0.831476 -0.555561 0
    outer loop
       vertex 0.0369216 -0.152191 0.1
       vertex 0.0187536 -0.125 0.1
       vertex 0.0187536 -0.125 0
    endloop
  endfacet
  facet normal -0.751817 -0.659372 0
    outer loop
       vertex 0.0369216 -0.152191 0
       vertex 0.0584836 -0.176776 0
       vertex 0.0584836 -0.176776 0.1
    endloop
  endfacet
  facet normal -0.751817 -0.659372 0
    outer loop
       vertex 0.0584836 -0.176776 0.1
       vertex 0.0369216 -0.152191 0.1
       vertex 0.0369216 -0.152191 0
    endloop
  endfacet
  facet normal 0.659372 -0.751817 0
    outer loop
       vertex 0.412036 -0.176776 0
       vertex 0.412036 -0.176776 0.1
       vertex 0.387451 -0.198338 0.1
    endloop
  endfacet
  facet normal 0.659372 -0.751817 0
    outer loop
       vertex 0.387451 -0.198338 0.1
       vertex 0.387451 -0.198338 0
       vertex 0.412036 -0.176776 0
    endloop
  endfacet
  facet normal 0.555561 -0.831476 0
    outer loop
       vertex 0.387451 -0.198338 0
       vertex 0.387451 -0.198338 0.1
       vertex 0.36026 -0.216506 0.1
    endloop
  endfacet
  facet normal 0.555561 -0.831476 0
    outer loop
       vertex 0.36026 -0.216506 0.1
       vertex 0.36026 -0.216506 0
       vertex 0.387451 -0.198338 0
    endloop
  endfacet
  facet normal 0.442302 -0.896866 0
    outer loop
       vertex 0.36026 -0.216506 0
       vertex 0.36026 -0.216506 0.1
       vertex 0.330931 -0.23097 0.1
    endloop
  endfacet
  facet normal 0.442302 -0.896866 0
    outer loop
       vertex 0.330931 -0.23097 0.1
       vertex 0.330931 -0.23097 0
       vertex 0.36026 -0.216506 0
    endloop
  endfacet
  facet normal 0.321425 -0.946935 0
    outer loop
       vertex 0.330931 -0.23097 0
       vertex 0.330931 -0.23097 0.1
       vertex 0.299965 -0.241481 0.1
    endloop
  endfacet
  facet normal 0.321425 -0.946935 0
    outer loop
       vertex 0.299965 -0.241481 0.1
       vertex 0.299965 -0.241481 0
       vertex 0.330931 -0.23097 0
    endloop
  endfacet
  facet normal 0.195096 -0.980784 0
    outer loop
       vertex 0.299965 -0.241481 0
       vertex 0.299965 -0.241481 0.1
       vertex 0.267891 -0.247861 0.1
    endloop
  endfacet
  facet normal 0.195096 -0.980784 0
    outer loop
       vertex 0.267891 -0.247861 0.1
       vertex 0.267891 -0.247861 0
       vertex 0.299965 -0.241481 0
    endloop
  endfacet
  facet normal 0.0654098 -0.997858 0
    outer loop
       vertex 0.23526 -0.25 0
       vertex 0.267891 -0.247861 0
       vertex 0.267891 -0.247861 0.1
    endloop
  endfacet
  facet normal 0.0654098 -0.997858 1.0893e-16
    outer loop
       vertex 0.267891 -0.247861 0.1
       vertex 0.23526 -0.25 0.1
       vertex 0.23526 -0.25 0
    endloop
  endfacet
  facet normal -0.0654098 -0.997858 0
    outer loop
       vertex 0.23526 -0.25 0.1
       vertex 0.202628 -0.247861 0.1
       vertex 0.202628 -0.247861 0
    endloop
  endfacet
  facet normal -0.0654098 -0.997858 -1.0893e-16
    outer loop
       vertex 0.202628 -0.247861 0
       vertex 0.23526 -0.25 0
       vertex 0.23526 -0.25 0.1
    endloop
  endfacet
  facet normal -0.195096 -0.980784 0
    outer loop
       vertex 0.202628 -0.247861 0
       vertex 0.202628 -0.247861 0.1
       vertex 0.170555 -0.241481 0.1
    endloop
  endfacet
  facet normal -0.195096 -0.980784 -0
    outer loop
       vertex 0.170555 -0.241481 0.1
       vertex 0.170555 -0.241481 0
       vertex 0.202628 -0.247861 0
    endloop
  endfacet
  facet normal -0.321425 -0.946935 0
    outer loop
       vertex 0.170555 -0.241481 0
       vertex 0.170555 -0.241481 0.1
       vertex 0.139589 -0.23097 0.1
    endloop
  endfacet
  facet normal -0.321425 -0.946935 -0
    outer loop
       vertex 0.139589 -0.23097 0.1
       vertex 0.139589 -0.23097 0
       vertex 0.170555 -0.241481 0
    endloop
  endfacet
  facet normal -0.442302 -0.896866 0
    outer loop
       vertex 0.139589 -0.23097 0
       vertex 0.139589 -0.23097 0.1
       vertex 0.11026 -0.216506 0.1
    endloop
  endfacet
  facet normal -0.442302 -0.896866 -0
    outer loop
       vertex 0.11026 -0.216506 0.1
       vertex 0.11026 -0.216506 0
       vertex 0.139589 -0.23097 0
    endloop
  endfacet
  facet normal -0.555561 -0.831476 0
    outer loop
       vertex 0.11026 -0.216506 0
       vertex 0.11026 -0.216506 0.1
       vertex 0.0830686 -0.198338 0.1
    endloop
  endfacet
  facet normal -0.555561 -0.831476 -0
    outer loop
       vertex 0.0830686 -0.198338 0.1
       vertex 0.0830686 -0.198338 0
       vertex 0.11026 -0.216506 0
    endloop
  endfacet
  facet normal -0.659372 -0.751817 0
    outer loop
       vertex 0.0830686 -0.198338 0
       vertex 0.0830686 -0.198338 0.1
       vertex 0.0584836 -0.176776 0.1
    endloop
  endfacet
  facet normal -0.659372 -0.751817 -0
    outer loop
       vertex 0.0584836 -0.176776 0.1
       vertex 0.0584836 -0.176776 0
       vertex 0.0830686 -0.198338 0
    endloop
  endfacet
endsolid cylinder
