solid cylinder
  facet normal 0.751817 -0.659372 0
    outer loop
       vertex 0.154187 -0.176776 0
       vertex 0.175749 -0.152191 0
       vertex 0.175749 -0.152191 0.1
    endloop
  endfacet
  facet normal 0.751817 -0.659372 0
    outer loop
       vertex 0.175749 -0.152191 0.1
       vertex 0.154187 -0.176776 0.1
       vertex 0.154187 -0.176776 0
    endloop
  endfacet
  facet normal 0.831476 -0.555561 0
    outer loop
       vertex 0.175749 -0.152191 0
       vertex 0.193917 -0.125 0
       vertex 0.193917 -0.125 0.1
    endloop
  endfacet
  facet normal 0.831476 -0.555561 0
    outer loop
       vertex 0.193917 -0.125 0.1
       vertex 0.175749 -0.152191 0.1
       vertex 0.175749 -0.152191 0
    endloop
  endfacet
  facet normal 0.896866 -0.442302 0
    outer loop
       vertex 0.193917 -0.125 0
       vertex 0.208381 -0.095671 0
       vertex 0.208381 -0.095671 0.1
    endloop
  endfacet
  facet normal 0.896866 -0.442302 0
    outer loop
       vertex 0.208381 -0.095671 0.1
       vertex 0.193917 -0.125 0.1
       vertex 0.193917 -0.125 0
    endloop
  endfacet
  facet normal 0.946935 -0.321425 0
    outer loop
       vertex 0.208381 -0.095671 0
       vertex 0.218892 -0.064705 0
       vertex 0.218892 -0.064705 0.1
    endloop
  endfacet
  facet normal 0.946935 -0.321425 0
    outer loop
       vertex 0.218892 -0.064705 0.1
       vertex 0.208381 -0.095671 0.1
       vertex 0.208381 -0.095671 0
    endloop
  endfacet
  facet normal 0.980784 -0.195096 0
    outer loop
       vertex 0.218892 -0.064705 0
       vertex 0.225272 -0.0326315 0
       vertex 0.225272 -0.0326315 0.1
    endloop
  endfacet
  facet normal 0.980784 -0.195096 0
    outer loop
       vertex 0.225272 -0.0326315 0.1
       vertex 0.218892 -0.064705 0.1
       vertex 0.218892 -0.064705 0
    endloop
  endfacet
  facet normal 0.997858 -0.0654098 0
    outer loop
       vertex 0.227411 -8.32665e-17 0.1
       vertex 0.225272 -0.0326315 0.1
       vertex 0.225272 -0.0326315 0
    endloop
  endfacet
  facet normal 0.997858 -0.0654098 -1.08928e-16
    outer loop
       vertex 0.225272 -0.0326315 0
       vertex 0.227411 8.32665e-17 0
       vertex 0.227411 -8.32665e-17 0.1
    endloop
  endfacet
  facet normal 0.997858 0.0654098 0
    outer loop
       vertex 0.227411 8.32665e-17 0
       vertex 0.225272 0.0326315 0
       vertex 0.225272 0.0326315 0.1
    endloop
  endfacet
  facet normal 0.997858 0.0654098 1.08928e-16
    outer loop
       vertex 0.225272 0.0326315 0.1
       vertex 0.227411 -8.32665e-17 0.1
       vertex 0.227411 8.32665e-17 0
    endloop
  endfacet
  facet normal 0.980784 0.195096 0
    outer loop
       vertex 0.225272 0.0326315 0
       vertex 0.218892 0.064705 0
       vertex 0.218892 0.064705 0.1
    endloop
  endfacet
  facet normal 0.980784 0.195096 0
    outer loop
       vertex 0.218892 0.064705 0.1
       vertex 0.225272 0.0326315 0.1
       vertex 0.225272 0.0326315 0
    endloop
  endfacet
  facet normal 0.946935 0.321425 0
    outer loop
       vertex 0.218892 0.064705 0
       vertex 0.208381 0.095671 0
       vertex 0.208381 0.095671 0.1
    endloop
  endfacet
  facet normal 0.946935 0.321425 0
    outer loop
       vertex 0.208381 0.095671 0.1
       vertex 0.218892 0.064705 0.1
       vertex 0.218892 0.064705 0
    endloop
  endfacet
  facet normal 0.896866 0.442302 0
    outer loop
       vertex 0.208381 0.095671 0
       vertex 0.193917 0.125 0
       vertex 0.193917 0.125 0.1
    endloop
  endfacet
  facet normal 0.896866 0.442302 0
    outer loop
       vertex 0.193917 0.125 0.1
       vertex 0.208381 0.095671 0.1
       vertex 0.208381 0.095671 0
    endloop
  endfacet
  facet normal 0.831476 0.555561 0
    outer loop
       vertex 0.193917 0.125 0
       vertex 0.175749 0.152191 0
       vertex 0.175749 0.152191 0.1
    endloop
  endfacet
  facet normal 0.831476 0.555561 0
    outer loop
       vertex 0.175749 0.152191 0.1
       vertex 0.193917 0.125 0.1
       vertex 0.193917 0.125 0
    endloop
  endfacet
  facet normal 0.751817 0.659372 0
    outer loop
       vertex 0.175749 0.152191 0
       vertex 0.154187 0.176776 0
       vertex 0.154187 0.176776 0.1
    endloop
  endfacet
  facet normal 0.751817 0.659372 0
    outer loop
       vertex 0.154187 0.176776 0.1
       vertex 0.175749 0.152191 0.1
       vertex 0.175749 0.152191 0
    endloop
  endfacet
  facet normal 0.659372 0.751817 0
    outer loop
       vertex 0.154187 0.176776 0
       vertex 0.129602 0.198338 0
       vertex 0.129602 0.198338 0.1
    endloop
  endfacet
  facet normal 0.659372 0.751817 0
    outer loop
       vertex 0.129602 0.198338 0.1
       vertex 0.154187 0.176776 0.1
       vertex 0.154187 0.176776 0
    endloop
  endfacet
  facet normal 0.555561 0.831476 0
    outer loop
       vertex 0.129602 0.198338 0
       vertex 0.102411 0.216506 0
       vertex 0.102411 0.216506 0.1
    endloop
  endfacet
  facet normal 0.555561 0.831476 0
    outer loop
       vertex 0.102411 0.216506 0.1
       vertex 0.129602 0.198338 0.1
       vertex 0.129602 0.198338 0
    endloop
  endfacet
  facet normal 0.442302 0.896866 0
    outer loop
       vertex 0.102411 0.216506 0
       vertex 0.0730819 0.23097 0
       vertex 0.0730819 0.23097 0.1
    endloop
  endfacet
  facet normal 0.442302 0.896866 0
    outer loop
       vertex 0.0730819 0.23097 0.1
       vertex 0.102411 0.216506 0.1
       vertex 0.102411 0.216506 0
    endloop
  endfacet
  facet normal 0.321425 0.946935 0
    outer loop
       vertex 0.0730819 0.23097 0
       vertex 0.0421159 0.241481 0
       vertex 0.0421159 0.241481 0.1
    endloop
  endfacet
  facet normal 0.321425 0.946935 0
    outer loop
       vertex 0.0421159 0.241481 0.1
       vertex 0.0730819 0.23097 0.1
       vertex 0.0730819 0.23097 0
    endloop
  endfacet
  facet normal 0.195096 0.980784 0
    outer loop
       vertex 0.0421159 0.241481 0
       vertex 0.0100424 0.247861 0
       vertex 0.0100424 0.247861 0.1
    endloop
  endfacet
  facet normal 0.195096 0.980784 0
    outer loop
       vertex 0.0100424 0.247861 0.1
       vertex 0.0421159 0.241481 0.1
       vertex 0.0421159 0.241481 0
    endloop
  endfacet
  facet normal 0.0654098 0.997858 0
    outer loop
       vertex -0.0225891 0.25 0.1
       vertex 0.0100424 0.247861 0.1
       vertex 0.0100424 0.247861 0
    endloop
  endfacet
  facet normal 0.0654098 0.997858 -1.08928e-16
    outer loop
       vertex 0.0100424 0.247861 0
       vertex -0.0225891 0.25 0
       vertex -0.0225891 0.25 0.1
    endloop
  endfacet
  facet normal -0.0654098 0.997858 0
    outer loop
       vertex -0.0225891 0.25 0
       vertex -0.0552206 0.247861 0
       vertex -0.0552206 0.247861 0.1
    endloop
  endfacet
  facet normal -0.0654098 0.997858 1.0893e-16
    outer loop
       vertex -0.0552206 0.247861 0.1
       vertex -0.0225891 0.25 0.1
       vertex -0.0225891 0.25 0
    endloop
  endfacet
  facet normal -0.195096 0.980784 0
    outer loop
       vertex -0.0552206 0.247861 0
       vertex -0.0872941 0.241481 0
       vertex -0.0872941 0.241481 0.1
    endloop
  endfacet
  facet normal -0.195096 0.980784 0
    outer loop
       vertex -0.0872941 0.241481 0.1
       vertex -0.0552206 0.247861 0.1
       vertex -0.0552206 0.247861 0
    endloop
  endfacet
  facet normal -0.321425 0.946935 0
    outer loop
       vertex -0.0872941 0.241481 0
       vertex -0.11826 0.23097 0
       vertex -0.11826 0.23097 0.1
    endloop
  endfacet
  facet normal -0.321425 0.946935 0
    outer loop
       vertex -0.11826 0.23097 0.1
       vertex -0.0872941 0.241481 0.1
       vertex -0.0872941 0.241481 0
    endloop
  endfacet
  facet normal -0.442302 0.896866 0
    outer loop
       vertex -0.11826 0.23097 0
       vertex -0.147589 0.216506 0
       vertex -0.147589 0.216506 0.1
    endloop
  endfacet
  facet normal -0.442302 0.896866 0
    outer loop
       vertex -0.147589 0.216506 0.1
       vertex -0.11826 0.23097 0.1
       vertex -0.11826 0.23097 0
    endloop
  endfacet
  facet normal -0.555561 0.831476 0
    outer loop
       vertex -0.147589 0.216506 0
       vertex -0.17478 0.198338 0
       vertex -0.17478 0.198338 0.1
    endloop
  endfacet
  facet normal -0.555561 0.831476 0
    outer loop
       vertex -0.17478 0.198338 0.1
       vertex -0.147589 0.216506 0.1
       vertex -0.147589 0.216506 0
    endloop
  endfacet
  facet normal -0.659372 0.751817 0
    outer loop
       vertex -0.17478 0.198338 0
       vertex -0.199365 0.176776 0
       vertex -0.199365 0.176776 0.1
    endloop
  endfacet
  facet normal -0.659372 0.751817 0
    outer loop
       vertex -0.199365 0.176776 0.1
       vertex -0.17478 0.198338 0.1
       vertex -0.17478 0.198338 0
    endloop
  endfacet
  facet normal -0.751817 0.659372 0
    outer loop
       vertex -0.199365 0.176776 0
       vertex -0.220927 0.152191 0
       vertex -0.220927 0.152191 0.1
    endloop
  endfacet
  facet normal -0.751817 0.659372 0
    outer loop
       vertex -0.220927 0.152191 0.1
       vertex -0.199365 0.176776 0.1
       vertex -0.199365 0.176776 0
    endloop
  endfacet
  facet normal -0.831476 0.555561 0
    outer loop
       vertex -0.220927 0.152191 0
       vertex -0.239095 0.125 0
       vertex -0.239095 0.125 0.1
    endloop
  endfacet
  facet normal -0.831476 0.555561 0
    outer loop
       vertex -0.239095 0.125 0.1
       vertex -0.220927 0.152191 0.1
       vertex -0.220927 0.152191 0
    endloop
  endfacet
  facet normal -0.896866 0.442302 0
    outer loop
       vertex -0.239095 0.125 0
       vertex -0.253559 0.095671 0
       vertex -0.253559 0.095671 0.1
    endloop
  endfacet
  facet normal -0.896866 0.442302 0
    outer loop
       vertex -0.253559 0.095671 0.1
       vertex -0.239095 0.125 0.1
       vertex -0.239095 0.125 0
    endloop
  endfacet
  facet normal -0.946935 0.321425 0
    outer loop
       vertex -0.253559 0.095671 0
       vertex -0.26407 0.064705 0
       vertex -0.26407 0.064705 0.1
    endloop
  endfacet
  facet normal -0.946935 0.321425 0
    outer loop
       vertex -0.26407 0.064705 0.1
       vertex -0.253559 0.095671 0.1
       vertex -0.253559 0.095671 0
    endloop
  endfacet
  facet normal -0.980784 0.195096 0
    outer loop
       vertex -0.26407 0.064705 0
       vertex -0.27045 0.0326315 0
       vertex -0.27045 0.0326315 0.1
    endloop
  endfacet
  facet normal -0.980784 0.195096 0
    outer loop
       vertex -0.27045 0.0326315 0.1
       vertex -0.26407 0.064705 0.1
       vertex -0.26407 0.064705 0
    endloop
  endfacet
  facet normal -0.997858 0.0654098 0
    outer loop
       vertex -0.272589 8.32665e-17 0.1
       vertex -0.27045 0.0326315 0.1
       vertex -0.27045 0.0326315 0
    endloop
  endfacet
  facet normal -0.997858 0.0654098 -1.08928e-16
    outer loop
       vertex -0.27045 0.0326315 0
       vertex -0.272589 -8.32665e-17 0
       vertex -0.272589 8.32665e-17 0.1
    endloop
  endfacet
  facet normal -0.997858 -0.0654098 0
    outer loop
       vertex -0.272589 -8.32665e-17 0
       vertex -0.27045 -0.0326315 0
       vertex -0.27045 -0.0326315 0.1
    endloop
  endfacet
  facet normal -0.997858 -0.0654098 1.08928e-16
    outer loop
       vertex -0.27045 -0.0326315 0.1
       vertex -0.272589 8.32665e-17 0.1
       vertex -0.272589 -8.32665e-17 0
    endloop
  endfacet
  facet normal -0.980784 -0.195096 0
    outer loop
       vertex -0.27045 -0.0326315 0
       vertex -0.26407 -0.064705 0
       vertex -0.26407 -0.064705 0.1
    endloop
  endfacet
  facet normal -0.980784 -0.195096 0
    outer loop
       vertex -0.26407 -0.064705 0.1
       vertex -0.27045 -0.0326315 0.1
       vertex -0.27045 -0.0326315 0
    endloop
  endfacet
  facet normal -0.946935 -0.321425 0
    outer loop
       vertex -0.26407 -0.064705 0
       vertex -0.253559 -0.095671 0
       vertex -0.253559 -0.095671 0.1
    endloop
  endfacet
  facet normal -0.946935 -0.321425 0
    outer loop
       vertex -0.253559 -0.095671 0.1
       vertex -0.26407 -0.064705 0.1
       vertex -0.26407 -0.064705 0
    endloop
  endfacet
  facet normal -0.896866 -0.442302 0
    outer loop
       vertex -0.253559 -0.095671 0
       vertex -0.239095 -0.125 0
       vertex -0.239095 -0.125 0.1
    endloop
  endfacet
  facet normal -0.896866 -0.442302 0
    outer loop
       vertex -0.239095 -0.125 0.1
       vertex -0.253559 -0.095671 0.1
       vertex -0.253559 -0.095671 0
    endloop
  endfacet
  facet normal -0.831476 -0.555561 0
    outer loop
       vertex -0.239095 -0.125 0
       vertex -0.220927 -0.152191 0
       vertex -0.220927 -0.152191 0.1
    endloop
  endfacet
  facet normal -0.831476 -0.555561 0
    outer loop
       vertex -0.220927 -0.152191 0.1
       vertex -0.239095 -0.125 0.1
       vertex -0.239095 -0.125 0
    endloop
  endfacet
  facet normal -0.751817 -0.659372 0
    outer loop
       vertex -0.220927 -0.152191 0
       vertex -0.199365 -0.176776 0
       vertex -0.199365 -0.176776 0.1
    endloop
  endfacet
  facet normal -0.751817 -0.659372 0
    outer loop
       vertex -0.199365 -0.176776 0.1
       vertex -0.220927 -0.152191 0.1
       vertex -0.220927 -0.152191 0
    endloop
  endfacet
  facet normal 0.659372 -0.751817 0
    outer loop
       vertex 0.154187 -0.176776 0
       vertex 0.154187 -0.176776 0.1
       vertex 0.129602 -0.198338 0.1
    endloop
  endfacet
  facet normal 0.659372 -0.751817 0
    outer loop
       vertex 0.129602 -0.198338 0.1
       vertex 0.129602 -0.198338 0
       vertex 0.154187 -0.176776 0
    endloop
  endfacet
  facet normal 0.555561 -0.831476 0
    outer loop
       vertex 0.129602 -0.198338 0
       vertex 0.129602 -0.198338 0.1
       vertex 0.102411 -0.216506 0.1
    endloop
  endfacet
  facet normal 0.555561 -0.831476 0
    outer loop
       vertex 0.102411 -0.216506 0.1
       vertex 0.102411 -0.216506 0
       vertex 0.129602 -0.198338 0
    endloop
  endfacet
  facet normal 0.442302 -0.896866 0
    outer loop
       vertex 0.102411 -0.216506 0
       vertex 0.102411 -0.216506 0.1
       vertex 0.0730819 -0.23097 0.1
    endloop
  endfacet
  facet normal 0.442302 -0.896866 0
    outer loop
       vertex 0.0730819 -0.23097 0.1
       vertex 0.0730819 -0.23097 0
       vertex 0.102411 -0.216506 0
    endloop
  endfacet
  facet normal 0.321425 -0.946935 0
    outer loop
       vertex 0.0730819 -0.23097 0
       vertex 0.0730819 -0.23097 0.1
       vertex 0.0421159 -0.241481 0.1
    endloop
  endfacet
  facet normal 0.321425 -0.946935 0
    outer loop
       vertex 0.0421159 -0.241481 0.1
       vertex 0.0421159 -0.241481 0
       vertex 0.0730819 -0.23097 0
    endloop
  endfacet
  facet normal 0.195096 -0.980784 0
    outer loop
       vertex 0.0421159 -0.241481 0
       vertex 0.0421159 -0.241481 0.1
       vertex 0.0100424 -0.247861 0.1
    endloop
  endfacet
  facet normal 0.195096 -0.980784 0
    outer loop
       vertex 0.0100424 -0.247861 0.1
       vertex 0.0100424 -0.247861 0
       vertex 0.0421159 -0.241481 0
    endloop
  endfacet
  facet normal 0.0654098 -0.997858 0
    outer loop
       vertex -0.0225891 -0.25 0
       vertex 0.0100424 -0.247861 0
       vertex 0.0100424 -0.247861 0.1
    endloop
  endfacet
  facet normal 0.0654098 -0.997858 1.08928e-16
    outer loop
       vertex 0.0100424 -0.247861 0.1
       vertex -0.0225891 -0.25 0.1
       vertex -0.0225891 -0.25 0
    endloop
  endfacet
  facet normal -0.0654098 -0.997858 0
    outer loop
       vertex -0.0225891 -0.25 0.1
       vertex -0.0552206 -0.247861 0.1
       vertex -0.0552206 -0.247861 0
    endloop
  endfacet
  facet normal -0.0654098 -0.997858 -1.0893e-16
    outer loop
       vertex -0.0552206 -0.247861 0
       vertex -0.0225891 -0.25 0
       vertex -0.0225891 -0.25 0.1
    endloop
  endfacet
  facet normal -0.195096 -0.980784 0
    outer loop
       vertex -0.0552206 -0.247861 0
       vertex -0.0552206 -0.247861 0.1
       vertex -0.0872941 -0.241481 0.1
    endloop
  endfacet
  facet normal -0.195096 -0.980784 -0
    outer loop
       vertex -0.0872941 -0.241481 0.1
       vertex -0.0872941 -0.241481 0
       vertex -0.0552206 -0.247861 0
    endloop
  endfacet
  facet normal -0.321425 -0.946935 0
    outer loop
       vertex -0.0872941 -0.241481 0
       vertex -0.0872941 -0.241481 0.1
       vertex -0.11826 -0.23097 0.1
    endloop
  endfacet
  facet normal -0.321425 -0.946935 -0
    outer loop
       vertex -0.11826 -0.23097 0.1
       vertex -0.11826 -0.23097 0
       vertex -0.0872941 -0.241481 0
    endloop
  endfacet
  facet normal -0.442302 -0.896866 0
    outer loop
       vertex -0.11826 -0.23097 0
       vertex -0.11826 -0.23097 0.1
       vertex -0.147589 -0.216506 0.1
    endloop
  endfacet
  facet normal -0.442302 -0.896866 -0
    outer loop
       vertex -0.147589 -0.216506 0.1
       vertex -0.147589 -0.216506 0
       vertex -0.11826 -0.23097 0
    endloop
  endfacet
  facet normal -0.555561 -0.831476 0
    outer loop
       vertex -0.147589 -0.216506 0
       vertex -0.147589 -0.216506 0.1
       vertex -0.17478 -0.198338 0.1
    endloop
  endfacet
  facet normal -0.555561 -0.831476 -0
    outer loop
       vertex -0.17478 -0.198338 0.1
       vertex -0.17478 -0.198338 0
       vertex -0.147589 -0.216506 0
    endloop
  endfacet
  facet normal -0.659372 -0.751817 0
    outer loop
       vertex -0.17478 -0.198338 0
       vertex -0.17478 -0.198338 0.1
       vertex -0.199365 -0.176776 0.1
    endloop
  endfacet
  facet normal -0.659372 -0.751817 -0
    outer loop
       vertex -0.199365 -0.176776 0.1
       vertex -0.199365 -0.176776 0
       vertex -0.17478 -0.198338 0
    endloop
  endfacet
endsolid cylinder
