solid cylinder
  facet normal 0.751817 -0.659372 0
    outer loop
       vertex 0.214083 -0.176776 0
       vertex 0.235645 -0.152191 0
       vertex 0.235645 -0.152191 0.1
    endloop
  endfacet
  facet normal 0.751817 -0.659372 0
    outer loop
       vertex 0.235645 -0.152191 0.1
       vertex 0.214083 -0.176776 0.1
       vertex 0.214083 -0.176776 0
    endloop
  endfacet
  facet normal 0.831476 -0.555561 0
    outer loop
       vertex 0.235645 -0.152191 0
       vertex 0.253813 -0.125 0
       vertex 0.253813 -0.125 0.1
    endloop
  endfacet
  facet normal 0.831476 -0.555561 0
    outer loop
       vertex 0.253813 -0.125 0.1
       vertex 0.235645 -0.152191 0.1
       vertex 0.235645 -0.152191 0
    endloop
  endfacet
  facet normal 0.896866 -0.442302 0
    outer loop
       vertex 0.253813 -0.125 0
       vertex 0.268277 -0.095671 0
       vertex 0.268277 -0.095671 0.1
    endloop
  endfacet
  facet normal 0.896866 -0.442302 0
    outer loop
       vertex 0.268277 -0.095671 0.1
       vertex 0.253813 -0.125 0.1
       vertex 0.253813 -0.125 0
    endloop
  endfacet
  facet normal 0.946935 -0.321425 0
    outer loop
       vertex 0.268277 -0.095671 0
       vertex 0.278788 -0.064705 0
       vertex 0.278788 -0.064705 0.1
    endloop
  endfacet
  facet normal 0.946935 -0.321425 0
    outer loop
       vertex 0.278788 -0.064705 0.1
       vertex 0.268277 -0.095671 0.1
       vertex 0.268277 -0.095671 0
    endloop
  endfacet
  facet normal 0.980784 -0.195096 0
    outer loop
       vertex 0.278788 -0.064705 0
       vertex 0.285168 -0.0326315 0
       vertex 0.285168 -0.0326315 0.1
    endloop
  endfacet
  facet normal 0.980784 -0.195096 0
    outer loop
       vertex 0.285168 -0.0326315 0.1
       vertex 0.278788 -0.064705 0.1
       vertex 0.278788 -0.064705 0
    endloop
  endfacet
  facet normal 0.997858 -0.0654098 0
    outer loop
       vertex 0.287307 -8.32665e-17 0.1
       vertex 0.285168 -0.0326315 0.1
       vertex 0.285168 -0.0326315 0
    endloop
  endfacet
  facet normal 0.997858 -0.0654098 -1.08928e-16
    outer loop
       vertex 0.285168 -0.0326315 0
       vertex 0.287307 8.32665e-17 0
       vertex 0.287307 -8.32665e-17 0.1
    endloop
  endfacet
  facet normal 0.997858 0.0654098 0
    outer loop
       vertex 0.287307 8.32665e-17 0
       vertex 0.285168 0.0326315 0
       vertex 0.285168 0.0326315 0.1
    endloop
  endfacet
  facet normal 0.997858 0.0654098 1.08928e-16
    outer loop
       vertex 0.285168 0.0326315 0.1
       vertex 0.287307 -8.32665e-17 0.1
       vertex 0.287307 8.32665e-17 0
    endloop
  endfacet
  facet normal 0.980784 0.195096 0
    outer loop
       vertex 0.285168 0.0326315 0
       vertex 0.278788 0.064705 0
       vertex 0.278788 0.064705 0.1
    endloop
  endfacet
  facet normal 0.980784 0.195096 0
    outer loop
       vertex 0.278788 0.064705 0.1
       vertex 0.285168 0.0326315 0.1
       vertex 0.285168 0.0326315 0
    endloop
  endfacet
  facet normal 0.946935 0.321425 0
    outer loop
       vertex 0.278788 0.064705 0
       vertex 0.268277 0.095671 0
       vertex 0.268277 0.095671 0.1
    endloop
  endfacet
  facet normal 0.946935 0.321425 0
    outer loop
       vertex 0.268277 0.095671 0.1
       vertex 0.278788 0.064705 0.1
       vertex 0.278788 0.064705 0
    endloop
  endfacet
  facet normal 0.896866 0.442302 0
    outer loop
       vertex 0.268277 0.095671 0
       vertex 0.253813 0.125 0
       vertex 0.253813 0.125 0.1
    endloop
  endfacet
  facet normal 0.896866 0.442302 0
    outer loop
       vertex 0.253813 0.125 0.1
       vertex 0.268277 0.095671 0.1
       vertex 0.268277 0.095671 0
    endloop
  endfacet
  facet normal 0.831476 0.555561 0
    outer loop
       vertex 0.253813 0.125 0
       vertex 0.235645 0.152191 0
       vertex 0.235645 0.152191 0.1
    endloop
  endfacet
  facet normal 0.831476 0.555561 0
    outer loop
       vertex 0.235645 0.152191 0.1
       vertex 0.253813 0.125 0.1
       vertex 0.253813 0.125 0
    endloop
  endfacet
  facet normal 0.751817 0.659372 0
    outer loop
       vertex 0.235645 0.152191 0
       vertex 0.214083 0.176776 0
       vertex 0.214083 0.176776 0.1
    endloop
  endfacet
  facet normal 0.751817 0.659372 0
    outer loop
       vertex 0.214083 0.176776 0.1
       vertex 0.235645 0.152191 0.1
       vertex 0.235645 0.152191 0
    endloop
  endfacet
  facet normal 0.659372 0.751817 0
    outer loop
       vertex 0.214083 0.176776 0
       vertex 0.189498 0.198338 0
       vertex 0.189498 0.198338 0.1
    endloop
  endfacet
  facet normal 0.659372 0.751817 0
    outer loop
       vertex 0.189498 0.198338 0.1
       vertex 0.214083 0.176776 0.1
       vertex 0.214083 0.176776 0
    endloop
  endfacet
  facet normal 0.555561 0.831476 0
    outer loop
       vertex 0.189498 0.198338 0
       vertex 0.162307 0.216506 0
       vertex 0.162307 0.216506 0.1
    endloop
  endfacet
  facet normal 0.555561 0.831476 0
    outer loop
       vertex 0.162307 0.216506 0.1
       vertex 0.189498 0.198338 0.1
       vertex 0.189498 0.198338 0
    endloop
  endfacet
  facet normal 0.442302 0.896866 0
    outer loop
       vertex 0.162307 0.216506 0
       vertex 0.132978 0.23097 0
       vertex 0.132978 0.23097 0.1
    endloop
  endfacet
  facet normal 0.442302 0.896866 0
    outer loop
       vertex 0.132978 0.23097 0.1
       vertex 0.162307 0.216506 0.1
       vertex 0.162307 0.216506 0
    endloop
  endfacet
  facet normal 0.321425 0.946935 0
    outer loop
       vertex 0.132978 0.23097 0
       vertex 0.102012 0.241481 0
       vertex 0.102012 0.241481 0.1
    endloop
  endfacet
  facet normal 0.321425 0.946935 0
    outer loop
       vertex 0.102012 0.241481 0.1
       vertex 0.132978 0.23097 0.1
       vertex 0.132978 0.23097 0
    endloop
  endfacet
  facet normal 0.195096 0.980784 0
    outer loop
       vertex 0.102012 0.241481 0
       vertex 0.0699381 0.247861 0
       vertex 0.0699381 0.247861 0.1
    endloop
  endfacet
  facet normal 0.195096 0.980784 0
    outer loop
       vertex 0.0699381 0.247861 0.1
       vertex 0.102012 0.241481 0.1
       vertex 0.102012 0.241481 0
    endloop
  endfacet
  facet normal 0.0654098 0.997858 0
    outer loop
       vertex 0.0373066 0.25 0.1
       vertex 0.0699381 0.247861 0.1
       vertex 0.0699381 0.247861 0
    endloop
  endfacet
  facet normal 0.0654098 0.997858 -1.08928e-16
    outer loop
       vertex 0.0699381 0.247861 0
       vertex 0.0373066 0.25 0
       vertex 0.0373066 0.25 0.1
    endloop
  endfacet
  facet normal -0.0654098 0.997858 0
    outer loop
       vertex 0.0373066 0.25 0
       vertex 0.00467515 0.247861 0
       vertex 0.00467515 0.247861 0.1
    endloop
  endfacet
  facet normal -0.0654098 0.997858 1.08928e-16
    outer loop
       vertex 0.00467515 0.247861 0.1
       vertex 0.0373066 0.25 0.1
       vertex 0.0373066 0.25 0
    endloop
  endfacet
  facet normal -0.195096 0.980784 0
    outer loop
       vertex 0.00467515 0.247861 0
       vertex -0.0273984 0.241481 0
       vertex -0.0273984 0.241481 0.1
    endloop
  endfacet
  facet normal -0.195096 0.980784 0
    outer loop
       vertex -0.0273984 0.241481 0.1
       vertex 0.00467515 0.247861 0.1
       vertex 0.00467515 0.247861 0
    endloop
  endfacet
  facet normal -0.321425 0.946935 0
    outer loop
       vertex -0.0273984 0.241481 0
       vertex -0.0583644 0.23097 0
       vertex -0.0583644 0.23097 0.1
    endloop
  endfacet
  facet normal -0.321425 0.946935 0
    outer loop
       vertex -0.0583644 0.23097 0.1
       vertex -0.0273984 0.241481 0.1
       vertex -0.0273984 0.241481 0
    endloop
  endfacet
  facet normal -0.442302 0.896866 0
    outer loop
       vertex -0.0583644 0.23097 0
       vertex -0.0876934 0.216506 0
       vertex -0.0876934 0.216506 0.1
    endloop
  endfacet
  facet normal -0.442302 0.896866 0
    outer loop
       vertex -0.0876934 0.216506 0.1
       vertex -0.0583644 0.23097 0.1
       vertex -0.0583644 0.23097 0
    endloop
  endfacet
  facet normal -0.555561 0.831476 0
    outer loop
       vertex -0.0876934 0.216506 0
       vertex -0.114884 0.198338 0
       vertex -0.114884 0.198338 0.1
    endloop
  endfacet
  facet normal -0.555561 0.831476 0
    outer loop
       vertex -0.114884 0.198338 0.1
       vertex -0.0876934 0.216506 0.1
       vertex -0.0876934 0.216506 0
    endloop
  endfacet
  facet normal -0.659372 0.751817 0
    outer loop
       vertex -0.114884 0.198338 0
       vertex -0.139469 0.176776 0
       vertex -0.139469 0.176776 0.1
    endloop
  endfacet
  facet normal -0.659372 0.751817 0
    outer loop
       vertex -0.139469 0.176776 0.1
       vertex -0.114884 0.198338 0.1
       vertex -0.114884 0.198338 0
    endloop
  endfacet
  facet normal -0.751817 0.659372 0
    outer loop
       vertex -0.139469 0.176776 0
       vertex -0.161031 0.152191 0
       vertex -0.161031 0.152191 0.1
    endloop
  endfacet
  facet normal -0.751817 0.659372 0
    outer loop
       vertex -0.161031 0.152191 0.1
       vertex -0.139469 0.176776 0.1
       vertex -0.139469 0.176776 0
    endloop
  endfacet
  facet normal -0.831476 0.555561 0
    outer loop
       vertex -0.161031 0.152191 0
       vertex -0.179199 0.125 0
       vertex -0.179199 0.125 0.1
    endloop
  endfacet
  facet normal -0.831476 0.555561 0
    outer loop
       vertex -0.179199 0.125 0.1
       vertex -0.161031 0.152191 0.1
       vertex -0.161031 0.152191 0
    endloop
  endfacet
  facet normal -0.896866 0.442302 0
    outer loop
       vertex -0.179199 0.125 0
       vertex -0.193663 0.095671 0
       vertex -0.193663 0.095671 0.1
    endloop
  endfacet
  facet normal -0.896866 0.442302 0
    outer loop
       vertex -0.193663 0.095671 0.1
       vertex -0.179199 0.125 0.1
       vertex -0.179199 0.125 0
    endloop
  endfacet
  facet normal -0.946935 0.321425 0
    outer loop
       vertex -0.193663 0.095671 0
       vertex -0.204174 0.064705 0
       vertex -0.204174 0.064705 0.1
    endloop
  endfacet
  facet normal -0.946935 0.321425 0
    outer loop
       vertex -0.204174 0.064705 0.1
       vertex -0.193663 0.095671 0.1
       vertex -0.193663 0.095671 0
    endloop
  endfacet
  facet normal -0.980784 0.195096 0
    outer loop
       vertex -0.204174 0.064705 0
       vertex -0.210554 0.0326315 0
       vertex -0.210554 0.0326315 0.1
    endloop
  endfacet
  facet normal -0.980784 0.195096 0
    outer loop
       vertex -0.210554 0.0326315 0.1
       vertex -0.204174 0.064705 0.1
       vertex -0.204174 0.064705 0
    endloop
  endfacet
  facet normal -0.997858 0.0654098 0
    outer loop
       vertex -0.212693 8.32665e-17 0.1
       vertex -0.210554 0.0326315 0.1
       vertex -0.210554 0.0326315 0
    endloop
  endfacet
  facet normal -0.997858 0.0654098 -1.08928e-16
    outer loop
       vertex -0.210554 0.0326315 0
       vertex -0.212693 -8.32665e-17 0
       vertex -0.212693 8.32665e-17 0.1
    endloop
  endfacet
  facet normal -0.997858 -0.0654098 0
    outer loop
       vertex -0.212693 -8.32665e-17 0
       vertex -0.210554 -0.0326315 0
       vertex -0.210554 -0.0326315 0.1
    endloop
  endfacet
  facet normal -0.997858 -0.0654098 1.08928e-16
    outer loop
       vertex -0.210554 -0.0326315 0.1
       vertex -0.212693 8.32665e-17 0.1
       vertex -0.212693 -8.32665e-17 0
    endloop
  endfacet
  facet normal -0.980784 -0.195096 0
    outer loop
       vertex -0.210554 -0.0326315 0
       vertex -0.204174 -0.064705 0
       vertex -0.204174 -0.064705 0.1
    endloop
  endfacet
  facet normal -0.980784 -0.195096 0
    outer loop
       vertex -0.204174 -0.064705 0.1
       vertex -0.210554 -0.0326315 0.1
       vertex -0.210554 -0.0326315 0
    endloop
  endfacet
  facet normal -0.946935 -0.321425 0
    outer loop
       vertex -0.204174 -0.064705 0
       vertex -0.193663 -0.095671 0
       vertex -0.193663 -0.095671 0.1
    endloop
  endfacet
  facet normal -0.946935 -0.321425 0
    outer loop
       vertex -0.193663 -0.095671 0.1
       vertex -0.204174 -0.064705 0.1
       vertex -0.204174 -0.064705 0
    endloop
  endfacet
  facet normal -0.896866 -0.442302 0
    outer loop
       vertex -0.193663 -0.095671 0
       vertex -0.179199 -0.125 0
       vertex -0.179199 -0.125 0.1
    endloop
  endfacet
  facet normal -0.896866 -0.442302 0
    outer loop
       vertex -0.179199 -0.125 0.1
       vertex -0.193663 -0.095671 0.1
       vertex -0.193663 -0.095671 0
    endloop
  endfacet
  facet normal -0.831476 -0.555561 0
    outer loop
       vertex -0.179199 -0.125 0
       vertex -0.161031 -0.152191 0
       vertex -0.161031 -0.152191 0.1
    endloop
  endfacet
  facet normal -0.831476 -0.555561 0
    outer loop
       vertex -0.161031 -0.152191 0.1
       vertex -0.179199 -0.125 0.1
       vertex -0.179199 -0.125 0
    endloop
  endfacet
  facet normal -0.751817 -0.659372 0
    outer loop
       vertex -0.161031 -0.152191 0
       vertex -0.139469 -0.176776 0
       vertex -0.139469 -0.176776 0.1
    endloop
  endfacet
  facet normal -0.751817 -0.659372 0
    outer loop
       vertex -0.139469 -0.176776 0.1
       vertex -0.161031 -0.152191 0.1
       vertex -0.161031 -0.152191 0
    endloop
  endfacet
  facet normal 0.659372 -0.751817 0
    outer loop
       vertex 0.214083 -0.176776 0
       vertex 0.214083 -0.176776 0.1
       vertex 0.189498 -0.198338 0.1
    endloop
  endfacet
  facet normal 0.659372 -0.751817 0
    outer loop
       vertex 0.189498 -0.198338 0.1
       vertex 0.189498 -0.198338 0
       vertex 0.214083 -0.176776 0
    endloop
  endfacet
  facet normal 0.555561 -0.831476 0
    outer loop
       vertex 0.189498 -0.198338 0
       vertex 0.189498 -0.198338 0.1
       vertex 0.162307 -0.216506 0.1
    endloop
  endfacet
  facet normal 0.555561 -0.831476 0
    outer loop
       vertex 0.162307 -0.216506 0.1
       vertex 0.162307 -0.216506 0
       vertex 0.189498 -0.198338 0
    endloop
  endfacet
  facet normal 0.442302 -0.896866 0
    outer loop
       vertex 0.162307 -0.216506 0
       vertex 0.162307 -0.216506 0.1
       vertex 0.132978 -0.23097 0.1
    endloop
  endfacet
  facet normal 0.442302 -0.896866 0
    outer loop
       vertex 0.132978 -0.23097 0.1
       vertex 0.132978 -0.23097 0
       vertex 0.162307 -0.216506 0
    endloop
  endfacet
  facet normal 0.321425 -0.946935 0
    outer loop
       vertex 0.132978 -0.23097 0
       vertex 0.132978 -0.23097 0.1
       vertex 0.102012 -0.241481 0.1
    endloop
  endfacet
  facet normal 0.321425 -0.946935 0
    outer loop
       vertex 0.102012 -0.241481 0.1
       vertex 0.102012 -0.241481 0
       vertex 0.132978 -0.23097 0
    endloop
  endfacet
  facet normal 0.195096 -0.980784 0
    outer loop
       vertex 0.102012 -0.241481 0
       vertex 0.102012 -0.241481 0.1
       vertex 0.0699381 -0.247861 0.1
    endloop
  endfacet
  facet normal 0.195096 -0.980784 0
    outer loop
       vertex 0.0699381 -0.247861 0.1
       vertex 0.0699381 -0.247861 0
       vertex 0.102012 -0.241481 0
    endloop
  endfacet
  facet normal 0.0654098 -0.997858 0
    outer loop
       vertex 0.0373066 -0.25 0
       vertex 0.0699381 -0.247861 0
       vertex 0.0699381 -0.247861 0.1
    endloop
  endfacet
  facet normal 0.0654098 -0.997858 1.08928e-16
    outer loop
       vertex 0.0699381 -0.247861 0.1
       vertex 0.0373066 -0.25 0.1
       vertex 0.0373066 -0.25 0
    endloop
  endfacet
  facet normal -0.0654098 -0.997858 0
    outer loop
       vertex 0.0373066 -0.25 0.1
       vertex 0.00467515 -0.247861 0.1
       vertex 0.00467515 -0.247861 0
    endloop
  endfacet
  facet normal -0.0654098 -0.997858 -1.08928e-16
    outer loop
       vertex 0.00467515 -0.247861 0
       vertex 0.0373066 -0.25 0
       vertex 0.0373066 -0.25 0.1
    endloop
  endfacet
  facet normal -0.195096 -0.980784 0
    outer loop
       vertex 0.00467515 -0.247861 0
       vertex 0.00467515 -0.247861 0.1
       vertex -0.0273984 -0.241481 0.1
    endloop
  endfacet
  facet normal -0.195096 -0.980784 -0
    outer loop
       vertex -0.0273984 -0.241481 0.1
       vertex -0.0273984 -0.241481 0
       vertex 0.00467515 -0.247861 0
    endloop
  endfacet
  facet normal -0.321425 -0.946935 0
    outer loop
       vertex -0.0273984 -0.241481 0
       vertex -0.0273984 -0.241481 0.1
       vertex -0.0583644 -0.23097 0.1
    endloop
  endfacet
  facet normal -0.321425 -0.946935 -0
    outer loop
       vertex -0.0583644 -0.23097 0.1
       vertex -0.0583644 -0.23097 0
       vertex -0.0273984 -0.241481 0
    endloop
  endfacet
  facet normal -0.442302 -0.896866 0
    outer loop
       vertex -0.0583644 -0.23097 0
       vertex -0.0583644 -0.23097 0.1
       vertex -0.0876934 -0.216506 0.1
    endloop
  endfacet
  facet normal -0.442302 -0.896866 -0
    outer loop
       vertex -0.0876934 -0.216506 0.1
       vertex -0.0876934 -0.216506 0
       vertex -0.0583644 -0.23097 0
    endloop
  endfacet
  facet normal -0.555561 -0.831476 0
    outer loop
       vertex -0.0876934 -0.216506 0
       vertex -0.0876934 -0.216506 0.1
       vertex -0.114884 -0.198338 0.1
    endloop
  endfacet
  facet normal -0.555561 -0.831476 -0
    outer loop
       vertex -0.114884 -0.198338 0.1
       vertex -0.114884 -0.198338 0
       vertex -0.0876934 -0.216506 0
    endloop
  endfacet
  facet normal -0.659372 -0.751817 0
    outer loop
       vertex -0.114884 -0.198338 0
       vertex -0.114884 -0.198338 0.1
       vertex -0.139469 -0.176776 0.1
    endloop
  endfacet
  facet normal -0.659372 -0.751817 -0
    outer loop
       vertex -0.139469 -0.176776 0.1
       vertex -0.139469 -0.176776 0
       vertex -0.114884 -0.198338 0
    endloop
  endfacet
endsolid cylinder
