solid cylinder
  facet normal 0.751817 -0.659372 0
    outer loop
       vertex -0.0858439 -0.176776 0
       vertex -0.0642819 -0.152191 0
       vertex -0.0642819 -0.152191 0.1
    endloop
  endfacet
  facet normal 0.751817 -0.659372 0
    outer loop
       vertex -0.0642819 -0.152191 0.1
       vertex -0.0858439 -0.176776 0.1
       vertex -0.0858439 -0.176776 0
    endloop
  endfacet
  facet normal 0.831476 -0.555561 0
    outer loop
       vertex -0.0642819 -0.152191 0
       vertex -0.0461139 -0.125 0
       vertex -0.0461139 -0.125 0.1
    endloop
  endfacet
  facet normal 0.831476 -0.555561 0
    outer loop
       vertex -0.0461139 -0.125 0.1
       vertex -0.0642819 -0.152191 0.1
       vertex -0.0642819 -0.152191 0
    endloop
  endfacet
  facet normal 0.896866 -0.442302 0
    outer loop
       vertex -0.0461139 -0.125 0
       vertex -0.0316499 -0.095671 0
       vertex -0.0316499 -0.095671 0.1
    endloop
  endfacet
  facet normal 0.896866 -0.442302 0
    outer loop
       vertex -0.0316499 -0.095671 0.1
       vertex -0.0461139 -0.125 0.1
       vertex -0.0461139 -0.125 0
    endloop
  endfacet
  facet normal 0.946935 -0.321425 0
    outer loop
       vertex -0.0316499 -0.095671 0
       vertex -0.0211389 -0.064705 0
       vertex -0.0211389 -0.064705 0.1
    endloop
  endfacet
  facet normal 0.946935 -0.321425 0
    outer loop
       vertex -0.0211389 -0.064705 0.1
       vertex -0.0316499 -0.095671 0.1
       vertex -0.0316499 -0.095671 0
    endloop
  endfacet
  facet normal 0.980784 -0.195096 0
    outer loop
       vertex -0.0211389 -0.064705 0
       vertex -0.0147589 -0.0326315 0
       vertex -0.0147589 -0.0326315 0.1
    endloop
  endfacet
  facet normal 0.980784 -0.195096 0
    outer loop
       vertex -0.0147589 -0.0326315 0.1
       vertex -0.0211389 -0.064705 0.1
       vertex -0.0211389 -0.064705 0
    endloop
  endfacet
  facet normal 0.997858 -0.0654098 0
    outer loop
       vertex -0.0126199 -8.32665e-17 0.1
       vertex -0.0147589 -0.0326315 0.1
       vertex -0.0147589 -0.0326315 0
    endloop
  endfacet
  facet normal 0.997858 -0.0654098 -1.08928e-16
    outer loop
       vertex -0.0147589 -0.0326315 0
       vertex -0.0126199 8.32665e-17 0
       vertex -0.0126199 -8.32665e-17 0.1
    endloop
  endfacet
  facet normal 0.997858 0.0654098 0
    outer loop
       vertex -0.0126199 8.32665e-17 0
       vertex -0.0147589 0.0326315 0
       vertex -0.0147589 0.0326315 0.1
    endloop
  endfacet
  facet normal 0.997858 0.0654098 1.08928e-16
    outer loop
       vertex -0.0147589 0.0326315 0.1
       vertex -0.0126199 -8.32665e-17 0.1
       vertex -0.0126199 8.32665e-17 0
    endloop
  endfacet
  facet normal 0.980784 0.195096 0
    outer loop
       vertex -0.0147589 0.0326315 0
       vertex -0.0211389 0.064705 0
       vertex -0.0211389 0.064705 0.1
    endloop
  endfacet
  facet normal 0.980784 0.195096 0
    outer loop
       vertex -0.0211389 0.064705 0.1
       vertex -0.0147589 0.0326315 0.1
       vertex -0.0147589 0.0326315 0
    endloop
  endfacet
  facet normal 0.946935 0.321425 0
    outer loop
       vertex -0.0211389 0.064705 0
       vertex -0.0316499 0.095671 0
       vertex -0.0316499 0.095671 0.1
    endloop
  endfacet
  facet normal 0.946935 0.321425 0
    outer loop
       vertex -0.0316499 0.095671 0.1
       vertex -0.0211389 0.064705 0.1
       vertex -0.0211389 0.064705 0
    endloop
  endfacet
  facet normal 0.896866 0.442302 0
    outer loop
       vertex -0.0316499 0.095671 0
       vertex -0.0461139 0.125 0
       vertex -0.0461139 0.125 0.1
    endloop
  endfacet
  facet normal 0.896866 0.442302 0
    outer loop
       vertex -0.0461139 0.125 0.1
       vertex -0.0316499 0.095671 0.1
       vertex -0.0316499 0.095671 0
    endloop
  endfacet
  facet normal 0.831476 0.555561 0
    outer loop
       vertex -0.0461139 0.125 0
       vertex -0.0642819 0.152191 0
       vertex -0.0642819 0.152191 0.1
    endloop
  endfacet
  facet normal 0.831476 0.555561 0
    outer loop
       vertex -0.0642819 0.152191 0.1
       vertex -0.0461139 0.125 0.1
       vertex -0.0461139 0.125 0
    endloop
  endfacet
  facet normal 0.751817 0.659372 0
    outer loop
       vertex -0.0642819 0.152191 0
       vertex -0.0858439 0.176776 0
       vertex -0.0858439 0.176776 0.1
    endloop
  endfacet
  facet normal 0.751817 0.659372 0
    outer loop
       vertex -0.0858439 0.176776 0.1
       vertex -0.0642819 0.152191 0.1
       vertex -0.0642819 0.152191 0
    endloop
  endfacet
  facet normal 0.659372 0.751817 0
    outer loop
       vertex -0.0858439 0.176776 0
       vertex -0.110429 0.198338 0
       vertex -0.110429 0.198338 0.1
    endloop
  endfacet
  facet normal 0.659372 0.751817 0
    outer loop
       vertex -0.110429 0.198338 0.1
       vertex -0.0858439 0.176776 0.1
       vertex -0.0858439 0.176776 0
    endloop
  endfacet
  facet normal 0.555561 0.831476 0
    outer loop
       vertex -0.110429 0.198338 0
       vertex -0.13762 0.216506 0
       vertex -0.13762 0.216506 0.1
    endloop
  endfacet
  facet normal 0.555561 0.831476 0
    outer loop
       vertex -0.13762 0.216506 0.1
       vertex -0.110429 0.198338 0.1
       vertex -0.110429 0.198338 0
    endloop
  endfacet
  facet normal 0.442302 0.896866 0
    outer loop
       vertex -0.13762 0.216506 0
       vertex -0.166949 0.23097 0
       vertex -0.166949 0.23097 0.1
    endloop
  endfacet
  facet normal 0.442302 0.896866 0
    outer loop
       vertex -0.166949 0.23097 0.1
       vertex -0.13762 0.216506 0.1
       vertex -0.13762 0.216506 0
    endloop
  endfacet
  facet normal 0.321425 0.946935 0
    outer loop
       vertex -0.166949 0.23097 0
       vertex -0.197915 0.241481 0
       vertex -0.197915 0.241481 0.1
    endloop
  endfacet
  facet normal 0.321425 0.946935 0
    outer loop
       vertex -0.197915 0.241481 0.1
       vertex -0.166949 0.23097 0.1
       vertex -0.166949 0.23097 0
    endloop
  endfacet
  facet normal 0.195096 0.980784 0
    outer loop
       vertex -0.197915 0.241481 0
       vertex -0.229988 0.247861 0
       vertex -0.229988 0.247861 0.1
    endloop
  endfacet
  facet normal 0.195096 0.980784 0
    outer loop
       vertex -0.229988 0.247861 0.1
       vertex -0.197915 0.241481 0.1
       vertex -0.197915 0.241481 0
    endloop
  endfacet
  facet normal 0.0654098 0.997858 0
    outer loop
       vertex -0.26262 0.25 0.1
       vertex -0.229988 0.247861 0.1
       vertex -0.229988 0.247861 0
    endloop
  endfacet
  facet normal 0.0654098 0.997858 -7.26205e-17
    outer loop
       vertex -0.229988 0.247861 0
       vertex -0.26262 0.25 0
       vertex -0.26262 0.25 0.1
    endloop
  endfacet
  facet normal -0.0654098 0.997858 0
    outer loop
       vertex -0.26262 0.25 0
       vertex -0.295251 0.247861 0
       vertex -0.295251 0.247861 0.1
    endloop
  endfacet
  facet normal -0.0654098 0.997858 7.26205e-17
    outer loop
       vertex -0.295251 0.247861 0.1
       vertex -0.26262 0.25 0.1
       vertex -0.26262 0.25 0
    endloop
  endfacet
  facet normal -0.195096 0.980784 0
    outer loop
       vertex -0.295251 0.247861 0
       vertex -0.327325 0.241481 0
       vertex -0.327325 0.241481 0.1
    endloop
  endfacet
  facet normal -0.195096 0.980784 0
    outer loop
       vertex -0.327325 0.241481 0.1
       vertex -0.295251 0.247861 0.1
       vertex -0.295251 0.247861 0
    endloop
  endfacet
  facet normal -0.321425 0.946935 0
    outer loop
       vertex -0.327325 0.241481 0
       vertex -0.358291 0.23097 0
       vertex -0.358291 0.23097 0.1
    endloop
  endfacet
  facet normal -0.321425 0.946935 0
    outer loop
       vertex -0.358291 0.23097 0.1
       vertex -0.327325 0.241481 0.1
       vertex -0.327325 0.241481 0
    endloop
  endfacet
  facet normal -0.442302 0.896866 0
    outer loop
       vertex -0.358291 0.23097 0
       vertex -0.38762 0.216506 0
       vertex -0.38762 0.216506 0.1
    endloop
  endfacet
  facet normal -0.442302 0.896866 0
    outer loop
       vertex -0.38762 0.216506 0.1
       vertex -0.358291 0.23097 0.1
       vertex -0.358291 0.23097 0
    endloop
  endfacet
  facet normal -0.555561 0.831476 0
    outer loop
       vertex -0.38762 0.216506 0
       vertex -0.414811 0.198338 0
       vertex -0.414811 0.198338 0.1
    endloop
  endfacet
  facet normal -0.555561 0.831476 0
    outer loop
       vertex -0.414811 0.198338 0.1
       vertex -0.38762 0.216506 0.1
       vertex -0.38762 0.216506 0
    endloop
  endfacet
  facet normal -0.659372 0.751817 0
    outer loop
       vertex -0.414811 0.198338 0
       vertex -0.439396 0.176776 0
       vertex -0.439396 0.176776 0.1
    endloop
  endfacet
  facet normal -0.659372 0.751817 0
    outer loop
       vertex -0.439396 0.176776 0.1
       vertex -0.414811 0.198338 0.1
       vertex -0.414811 0.198338 0
    endloop
  endfacet
  facet normal -0.751817 0.659372 0
    outer loop
       vertex -0.439396 0.176776 0
       vertex -0.460958 0.152191 0
       vertex -0.460958 0.152191 0.1
    endloop
  endfacet
  facet normal -0.751817 0.659372 0
    outer loop
       vertex -0.460958 0.152191 0.1
       vertex -0.439396 0.176776 0.1
       vertex -0.439396 0.176776 0
    endloop
  endfacet
  facet normal -0.831476 0.555561 0
    outer loop
       vertex -0.460958 0.152191 0
       vertex -0.479126 0.125 0
       vertex -0.479126 0.125 0.1
    endloop
  endfacet
  facet normal -0.831476 0.555561 0
    outer loop
       vertex -0.479126 0.125 0.1
       vertex -0.460958 0.152191 0.1
       vertex -0.460958 0.152191 0
    endloop
  endfacet
  facet normal -0.896866 0.442302 0
    outer loop
       vertex -0.479126 0.125 0
       vertex -0.49359 0.095671 0
       vertex -0.49359 0.095671 0.1
    endloop
  endfacet
  facet normal -0.896866 0.442302 0
    outer loop
       vertex -0.49359 0.095671 0.1
       vertex -0.479126 0.125 0.1
       vertex -0.479126 0.125 0
    endloop
  endfacet
  facet normal -0.946935 0.321425 0
    outer loop
       vertex -0.49359 0.095671 0
       vertex -0.504101 0.064705 0
       vertex -0.504101 0.064705 0.1
    endloop
  endfacet
  facet normal -0.946935 0.321425 0
    outer loop
       vertex -0.504101 0.064705 0.1
       vertex -0.49359 0.095671 0.1
       vertex -0.49359 0.095671 0
    endloop
  endfacet
  facet normal -0.980784 0.195096 0
    outer loop
       vertex -0.504101 0.064705 0
       vertex -0.510481 0.0326315 0
       vertex -0.510481 0.0326315 0.1
    endloop
  endfacet
  facet normal -0.980784 0.195096 0
    outer loop
       vertex -0.510481 0.0326315 0.1
       vertex -0.504101 0.064705 0.1
       vertex -0.504101 0.064705 0
    endloop
  endfacet
  facet normal -0.997858 0.0654098 0
    outer loop
       vertex -0.51262 8.32665e-17 0.1
       vertex -0.510481 0.0326315 0.1
       vertex -0.510481 0.0326315 0
    endloop
  endfacet
  facet normal -0.997858 0.0654098 -1.0893e-16
    outer loop
       vertex -0.510481 0.0326315 0
       vertex -0.51262 -8.32665e-17 0
       vertex -0.51262 8.32665e-17 0.1
    endloop
  endfacet
  facet normal -0.997858 -0.0654098 0
    outer loop
       vertex -0.51262 -8.32665e-17 0
       vertex -0.510481 -0.0326315 0
       vertex -0.510481 -0.0326315 0.1
    endloop
  endfacet
  facet normal -0.997858 -0.0654098 1.0893e-16
    outer loop
       vertex -0.510481 -0.0326315 0.1
       vertex -0.51262 8.32665e-17 0.1
       vertex -0.51262 -8.32665e-17 0
    endloop
  endfacet
  facet normal -0.980784 -0.195096 0
    outer loop
       vertex -0.510481 -0.0326315 0
       vertex -0.504101 -0.064705 0
       vertex -0.504101 -0.064705 0.1
    endloop
  endfacet
  facet normal -0.980784 -0.195096 0
    outer loop
       vertex -0.504101 -0.064705 0.1
       vertex -0.510481 -0.0326315 0.1
       vertex -0.510481 -0.0326315 0
    endloop
  endfacet
  facet normal -0.946935 -0.321425 0
    outer loop
       vertex -0.504101 -0.064705 0
       vertex -0.49359 -0.095671 0
       vertex -0.49359 -0.095671 0.1
    endloop
  endfacet
  facet normal -0.946935 -0.321425 0
    outer loop
       vertex -0.49359 -0.095671 0.1
       vertex -0.504101 -0.064705 0.1
       vertex -0.504101 -0.064705 0
    endloop
  endfacet
  facet normal -0.896866 -0.442302 0
    outer loop
       vertex -0.49359 -0.095671 0
       vertex -0.479126 -0.125 0
       vertex -0.479126 -0.125 0.1
    endloop
  endfacet
  facet normal -0.896866 -0.442302 0
    outer loop
       vertex -0.479126 -0.125 0.1
       vertex -0.49359 -0.095671 0.1
       vertex -0.49359 -0.095671 0
    endloop
  endfacet
  facet normal -0.831476 -0.555561 0
    outer loop
       vertex -0.479126 -0.125 0
       vertex -0.460958 -0.152191 0
       vertex -0.460958 -0.152191 0.1
    endloop
  endfacet
  facet normal -0.831476 -0.555561 0
    outer loop
       vertex -0.460958 -0.152191 0.1
       vertex -0.479126 -0.125 0.1
       vertex -0.479126 -0.125 0
    endloop
  endfacet
  facet normal -0.751817 -0.659372 0
    outer loop
       vertex -0.460958 -0.152191 0
       vertex -0.439396 -0.176776 0
       vertex -0.439396 -0.176776 0.1
    endloop
  endfacet
  facet normal -0.751817 -0.659372 0
    outer loop
       vertex -0.439396 -0.176776 0.1
       vertex -0.460958 -0.152191 0.1
       vertex -0.460958 -0.152191 0
    endloop
  endfacet
  facet normal 0.659372 -0.751817 0
    outer loop
       vertex -0.0858439 -0.176776 0
       vertex -0.0858439 -0.176776 0.1
       vertex -0.110429 -0.198338 0.1
    endloop
  endfacet
  facet normal 0.659372 -0.751817 0
    outer loop
       vertex -0.110429 -0.198338 0.1
       vertex -0.110429 -0.198338 0
       vertex -0.0858439 -0.176776 0
    endloop
  endfacet
  facet normal 0.555561 -0.831476 0
    outer loop
       vertex -0.110429 -0.198338 0
       vertex -0.110429 -0.198338 0.1
       vertex -0.13762 -0.216506 0.1
    endloop
  endfacet
  facet normal 0.555561 -0.831476 0
    outer loop
       vertex -0.13762 -0.216506 0.1
       vertex -0.13762 -0.216506 0
       vertex -0.110429 -0.198338 0
    endloop
  endfacet
  facet normal 0.442302 -0.896866 0
    outer loop
       vertex -0.13762 -0.216506 0
       vertex -0.13762 -0.216506 0.1
       vertex -0.166949 -0.23097 0.1
    endloop
  endfacet
  facet normal 0.442302 -0.896866 0
    outer loop
       vertex -0.166949 -0.23097 0.1
       vertex -0.166949 -0.23097 0
       vertex -0.13762 -0.216506 0
    endloop
  endfacet
  facet normal 0.321425 -0.946935 0
    outer loop
       vertex -0.166949 -0.23097 0
       vertex -0.166949 -0.23097 0.1
       vertex -0.197915 -0.241481 0.1
    endloop
  endfacet
  facet normal 0.321425 -0.946935 0
    outer loop
       vertex -0.197915 -0.241481 0.1
       vertex -0.197915 -0.241481 0
       vertex -0.166949 -0.23097 0
    endloop
  endfacet
  facet normal 0.195096 -0.980784 0
    outer loop
       vertex -0.197915 -0.241481 0
       vertex -0.197915 -0.241481 0.1
       vertex -0.229988 -0.247861 0.1
    endloop
  endfacet
  facet normal 0.195096 -0.980784 0
    outer loop
       vertex -0.229988 -0.247861 0.1
       vertex -0.229988 -0.247861 0
       vertex -0.197915 -0.241481 0
    endloop
  endfacet
  facet normal 0.0654098 -0.997858 0
    outer loop
       vertex -0.26262 -0.25 0
       vertex -0.229988 -0.247861 0
       vertex -0.229988 -0.247861 0.1
    endloop
  endfacet
  facet normal 0.0654098 -0.997858 7.26205e-17
    outer loop
       vertex -0.229988 -0.247861 0.1
       vertex -0.26262 -0.25 0.1
       vertex -0.26262 -0.25 0
    endloop
  endfacet
  facet normal -0.0654098 -0.997858 0
    outer loop
       vertex -0.26262 -0.25 0.1
       vertex -0.295251 -0.247861 0.1
       vertex -0.295251 -0.247861 0
    endloop
  endfacet
  facet normal -0.0654098 -0.997858 -7.26205e-17
    outer loop
       vertex -0.295251 -0.247861 0
       vertex -0.26262 -0.25 0
       vertex -0.26262 -0.25 0.1
    endloop
  endfacet
  facet normal -0.195096 -0.980784 0
    outer loop
       vertex -0.295251 -0.247861 0
       vertex -0.295251 -0.247861 0.1
       vertex -0.327325 -0.241481 0.1
    endloop
  endfacet
  facet normal -0.195096 -0.980784 -0
    outer loop
       vertex -0.327325 -0.241481 0.1
       vertex -0.327325 -0.241481 0
       vertex -0.295251 -0.247861 0
    endloop
  endfacet
  facet normal -0.321425 -0.946935 0
    outer loop
       vertex -0.327325 -0.241481 0
       vertex -0.327325 -0.241481 0.1
       vertex -0.358291 -0.23097 0.1
    endloop
  endfacet
  facet normal -0.321425 -0.946935 -0
    outer loop
       vertex -0.358291 -0.23097 0.1
       vertex -0.358291 -0.23097 0
       vertex -0.327325 -0.241481 0
    endloop
  endfacet
  facet normal -0.442302 -0.896866 0
    outer loop
       vertex -0.358291 -0.23097 0
       vertex -0.358291 -0.23097 0.1
       vertex -0.38762 -0.216506 0.1
    endloop
  endfacet
  facet normal -0.442302 -0.896866 -0
    outer loop
       vertex -0.38762 -0.216506 0.1
       vertex -0.38762 -0.216506 0
       vertex -0.358291 -0.23097 0
    endloop
  endfacet
  facet normal -0.555561 -0.831476 0
    outer loop
       vertex -0.38762 -0.216506 0
       vertex -0.38762 -0.216506 0.1
       vertex -0.414811 -0.198338 0.1
    endloop
  endfacet
  facet normal -0.555561 -0.831476 -0
    outer loop
       vertex -0.414811 -0.198338 0.1
       vertex -0.414811 -0.198338 0
       vertex -0.38762 -0.216506 0
    endloop
  endfacet
  facet normal -0.659372 -0.751817 0
    outer loop
       vertex -0.414811 -0.198338 0
       vertex -0.414811 -0.198338 0.1
       vertex -0.439396 -0.176776 0.1
    endloop
  endfacet
  facet normal -0.659372 -0.751817 -0
    outer loop
       vertex -0.439396 -0.176776 0.1
       vertex -0.439396 -0.176776 0
       vertex -0.414811 -0.198338 0
    endloop
  endfacet
endsolid cylinder
