solid cylinder
  facet normal 0.751817 -0.659372 0
    outer loop
       vertex 0.251558 -0.176776 0
       vertex 0.27312 -0.152191 0
       vertex 0.27312 -0.152191 0.1
    endloop
  endfacet
  facet normal 0.751817 -0.659372 0
    outer loop
       vertex 0.27312 -0.152191 0.1
       vertex 0.251558 -0.176776 0.1
       vertex 0.251558 -0.176776 0
    endloop
  endfacet
  facet normal 0.831476 -0.555561 0
    outer loop
       vertex 0.27312 -0.152191 0
       vertex 0.291288 -0.125 0
       vertex 0.291288 -0.125 0.1
    endloop
  endfacet
  facet normal 0.831476 -0.555561 0
    outer loop
       vertex 0.291288 -0.125 0.1
       vertex 0.27312 -0.152191 0.1
       vertex 0.27312 -0.152191 0
    endloop
  endfacet
  facet normal 0.896866 -0.442302 0
    outer loop
       vertex 0.291288 -0.125 0
       vertex 0.305752 -0.095671 0
       vertex 0.305752 -0.095671 0.1
    endloop
  endfacet
  facet normal 0.896866 -0.442302 0
    outer loop
       vertex 0.305752 -0.095671 0.1
       vertex 0.291288 -0.125 0.1
       vertex 0.291288 -0.125 0
    endloop
  endfacet
  facet normal 0.946935 -0.321425 0
    outer loop
       vertex 0.305752 -0.095671 0
       vertex 0.316263 -0.064705 0
       vertex 0.316263 -0.064705 0.1
    endloop
  endfacet
  facet normal 0.946935 -0.321425 0
    outer loop
       vertex 0.316263 -0.064705 0.1
       vertex 0.305752 -0.095671 0.1
       vertex 0.305752 -0.095671 0
    endloop
  endfacet
  facet normal 0.980784 -0.195096 0
    outer loop
       vertex 0.316263 -0.064705 0
       vertex 0.322643 -0.0326315 0
       vertex 0.322643 -0.0326315 0.1
    endloop
  endfacet
  facet normal 0.980784 -0.195096 0
    outer loop
       vertex 0.322643 -0.0326315 0.1
       vertex 0.316263 -0.064705 0.1
       vertex 0.316263 -0.064705 0
    endloop
  endfacet
  facet normal 0.997858 -0.0654098 0
    outer loop
       vertex 0.324782 -8.32665e-17 0.1
       vertex 0.322643 -0.0326315 0.1
       vertex 0.322643 -0.0326315 0
    endloop
  endfacet
  facet normal 0.997858 -0.0654098 -1.08928e-16
    outer loop
       vertex 0.322643 -0.0326315 0
       vertex 0.324782 8.32665e-17 0
       vertex 0.324782 -8.32665e-17 0.1
    endloop
  endfacet
  facet normal 0.997858 0.0654098 0
    outer loop
       vertex 0.324782 8.32665e-17 0
       vertex 0.322643 0.0326315 0
       vertex 0.322643 0.0326315 0.1
    endloop
  endfacet
  facet normal 0.997858 0.0654098 1.08928e-16
    outer loop
       vertex 0.322643 0.0326315 0.1
       vertex 0.324782 -8.32665e-17 0.1
       vertex 0.324782 8.32665e-17 0
    endloop
  endfacet
  facet normal 0.980784 0.195096 0
    outer loop
       vertex 0.322643 0.0326315 0
       vertex 0.316263 0.064705 0
       vertex 0.316263 0.064705 0.1
    endloop
  endfacet
  facet normal 0.980784 0.195096 0
    outer loop
       vertex 0.316263 0.064705 0.1
       vertex 0.322643 0.0326315 0.1
       vertex 0.322643 0.0326315 0
    endloop
  endfacet
  facet normal 0.946935 0.321425 0
    outer loop
       vertex 0.316263 0.064705 0
       vertex 0.305752 0.095671 0
       vertex 0.305752 0.095671 0.1
    endloop
  endfacet
  facet normal 0.946935 0.321425 0
    outer loop
       vertex 0.305752 0.095671 0.1
       vertex 0.316263 0.064705 0.1
       vertex 0.316263 0.064705 0
    endloop
  endfacet
  facet normal 0.896866 0.442302 0
    outer loop
       vertex 0.305752 0.095671 0
       vertex 0.291288 0.125 0
       vertex 0.291288 0.125 0.1
    endloop
  endfacet
  facet normal 0.896866 0.442302 0
    outer loop
       vertex 0.291288 0.125 0.1
       vertex 0.305752 0.095671 0.1
       vertex 0.305752 0.095671 0
    endloop
  endfacet
  facet normal 0.831476 0.555561 0
    outer loop
       vertex 0.291288 0.125 0
       vertex 0.27312 0.152191 0
       vertex 0.27312 0.152191 0.1
    endloop
  endfacet
  facet normal 0.831476 0.555561 0
    outer loop
       vertex 0.27312 0.152191 0.1
       vertex 0.291288 0.125 0.1
       vertex 0.291288 0.125 0
    endloop
  endfacet
  facet normal 0.751817 0.659372 0
    outer loop
       vertex 0.27312 0.152191 0
       vertex 0.251558 0.176776 0
       vertex 0.251558 0.176776 0.1
    endloop
  endfacet
  facet normal 0.751817 0.659372 0
    outer loop
       vertex 0.251558 0.176776 0.1
       vertex 0.27312 0.152191 0.1
       vertex 0.27312 0.152191 0
    endloop
  endfacet
  facet normal 0.659372 0.751817 0
    outer loop
       vertex 0.251558 0.176776 0
       vertex 0.226973 0.198338 0
       vertex 0.226973 0.198338 0.1
    endloop
  endfacet
  facet normal 0.659372 0.751817 0
    outer loop
       vertex 0.226973 0.198338 0.1
       vertex 0.251558 0.176776 0.1
       vertex 0.251558 0.176776 0
    endloop
  endfacet
  facet normal 0.555561 0.831476 0
    outer loop
       vertex 0.226973 0.198338 0
       vertex 0.199782 0.216506 0
       vertex 0.199782 0.216506 0.1
    endloop
  endfacet
  facet normal 0.555561 0.831476 0
    outer loop
       vertex 0.199782 0.216506 0.1
       vertex 0.226973 0.198338 0.1
       vertex 0.226973 0.198338 0
    endloop
  endfacet
  facet normal 0.442302 0.896866 0
    outer loop
       vertex 0.199782 0.216506 0
       vertex 0.170453 0.23097 0
       vertex 0.170453 0.23097 0.1
    endloop
  endfacet
  facet normal 0.442302 0.896866 0
    outer loop
       vertex 0.170453 0.23097 0.1
       vertex 0.199782 0.216506 0.1
       vertex 0.199782 0.216506 0
    endloop
  endfacet
  facet normal 0.321425 0.946935 0
    outer loop
       vertex 0.170453 0.23097 0
       vertex 0.139487 0.241481 0
       vertex 0.139487 0.241481 0.1
    endloop
  endfacet
  facet normal 0.321425 0.946935 0
    outer loop
       vertex 0.139487 0.241481 0.1
       vertex 0.170453 0.23097 0.1
       vertex 0.170453 0.23097 0
    endloop
  endfacet
  facet normal 0.195096 0.980784 0
    outer loop
       vertex 0.139487 0.241481 0
       vertex 0.107414 0.247861 0
       vertex 0.107414 0.247861 0.1
    endloop
  endfacet
  facet normal 0.195096 0.980784 0
    outer loop
       vertex 0.107414 0.247861 0.1
       vertex 0.139487 0.241481 0.1
       vertex 0.139487 0.241481 0
    endloop
  endfacet
  facet normal 0.0654098 0.997858 0
    outer loop
       vertex 0.074782 0.25 0.1
       vertex 0.107414 0.247861 0.1
       vertex 0.107414 0.247861 0
    endloop
  endfacet
  facet normal 0.0654098 0.997858 -1.0893e-16
    outer loop
       vertex 0.107414 0.247861 0
       vertex 0.074782 0.25 0
       vertex 0.074782 0.25 0.1
    endloop
  endfacet
  facet normal -0.0654098 0.997858 0
    outer loop
       vertex 0.074782 0.25 0
       vertex 0.0421505 0.247861 0
       vertex 0.0421505 0.247861 0.1
    endloop
  endfacet
  facet normal -0.0654098 0.997858 1.08928e-16
    outer loop
       vertex 0.0421505 0.247861 0.1
       vertex 0.074782 0.25 0.1
       vertex 0.074782 0.25 0
    endloop
  endfacet
  facet normal -0.195096 0.980784 0
    outer loop
       vertex 0.0421505 0.247861 0
       vertex 0.010077 0.241481 0
       vertex 0.010077 0.241481 0.1
    endloop
  endfacet
  facet normal -0.195096 0.980784 0
    outer loop
       vertex 0.010077 0.241481 0.1
       vertex 0.0421505 0.247861 0.1
       vertex 0.0421505 0.247861 0
    endloop
  endfacet
  facet normal -0.321425 0.946935 0
    outer loop
       vertex 0.010077 0.241481 0
       vertex -0.020889 0.23097 0
       vertex -0.020889 0.23097 0.1
    endloop
  endfacet
  facet normal -0.321425 0.946935 0
    outer loop
       vertex -0.020889 0.23097 0.1
       vertex 0.010077 0.241481 0.1
       vertex 0.010077 0.241481 0
    endloop
  endfacet
  facet normal -0.442302 0.896866 0
    outer loop
       vertex -0.020889 0.23097 0
       vertex -0.050218 0.216506 0
       vertex -0.050218 0.216506 0.1
    endloop
  endfacet
  facet normal -0.442302 0.896866 0
    outer loop
       vertex -0.050218 0.216506 0.1
       vertex -0.020889 0.23097 0.1
       vertex -0.020889 0.23097 0
    endloop
  endfacet
  facet normal -0.555561 0.831476 0
    outer loop
       vertex -0.050218 0.216506 0
       vertex -0.077409 0.198338 0
       vertex -0.077409 0.198338 0.1
    endloop
  endfacet
  facet normal -0.555561 0.831476 0
    outer loop
       vertex -0.077409 0.198338 0.1
       vertex -0.050218 0.216506 0.1
       vertex -0.050218 0.216506 0
    endloop
  endfacet
  facet normal -0.659372 0.751817 0
    outer loop
       vertex -0.077409 0.198338 0
       vertex -0.101994 0.176776 0
       vertex -0.101994 0.176776 0.1
    endloop
  endfacet
  facet normal -0.659372 0.751817 0
    outer loop
       vertex -0.101994 0.176776 0.1
       vertex -0.077409 0.198338 0.1
       vertex -0.077409 0.198338 0
    endloop
  endfacet
  facet normal -0.751817 0.659372 0
    outer loop
       vertex -0.101994 0.176776 0
       vertex -0.123556 0.152191 0
       vertex -0.123556 0.152191 0.1
    endloop
  endfacet
  facet normal -0.751817 0.659372 0
    outer loop
       vertex -0.123556 0.152191 0.1
       vertex -0.101994 0.176776 0.1
       vertex -0.101994 0.176776 0
    endloop
  endfacet
  facet normal -0.831476 0.555561 0
    outer loop
       vertex -0.123556 0.152191 0
       vertex -0.141724 0.125 0
       vertex -0.141724 0.125 0.1
    endloop
  endfacet
  facet normal -0.831476 0.555561 0
    outer loop
       vertex -0.141724 0.125 0.1
       vertex -0.123556 0.152191 0.1
       vertex -0.123556 0.152191 0
    endloop
  endfacet
  facet normal -0.896866 0.442302 0
    outer loop
       vertex -0.141724 0.125 0
       vertex -0.156188 0.095671 0
       vertex -0.156188 0.095671 0.1
    endloop
  endfacet
  facet normal -0.896866 0.442302 0
    outer loop
       vertex -0.156188 0.095671 0.1
       vertex -0.141724 0.125 0.1
       vertex -0.141724 0.125 0
    endloop
  endfacet
  facet normal -0.946935 0.321425 0
    outer loop
       vertex -0.156188 0.095671 0
       vertex -0.166699 0.064705 0
       vertex -0.166699 0.064705 0.1
    endloop
  endfacet
  facet normal -0.946935 0.321425 0
    outer loop
       vertex -0.166699 0.064705 0.1
       vertex -0.156188 0.095671 0.1
       vertex -0.156188 0.095671 0
    endloop
  endfacet
  facet normal -0.980784 0.195096 0
    outer loop
       vertex -0.166699 0.064705 0
       vertex -0.173079 0.0326315 0
       vertex -0.173079 0.0326315 0.1
    endloop
  endfacet
  facet normal -0.980784 0.195096 0
    outer loop
       vertex -0.173079 0.0326315 0.1
       vertex -0.166699 0.064705 0.1
       vertex -0.166699 0.064705 0
    endloop
  endfacet
  facet normal -0.997858 0.0654098 0
    outer loop
       vertex -0.175218 8.32665e-17 0.1
       vertex -0.173079 0.0326315 0.1
       vertex -0.173079 0.0326315 0
    endloop
  endfacet
  facet normal -0.997858 0.0654098 -1.08928e-16
    outer loop
       vertex -0.173079 0.0326315 0
       vertex -0.175218 -8.32665e-17 0
       vertex -0.175218 8.32665e-17 0.1
    endloop
  endfacet
  facet normal -0.997858 -0.0654098 0
    outer loop
       vertex -0.175218 -8.32665e-17 0
       vertex -0.173079 -0.0326315 0
       vertex -0.173079 -0.0326315 0.1
    endloop
  endfacet
  facet normal -0.997858 -0.0654098 1.08928e-16
    outer loop
       vertex -0.173079 -0.0326315 0.1
       vertex -0.175218 8.32665e-17 0.1
       vertex -0.175218 -8.32665e-17 0
    endloop
  endfacet
  facet normal -0.980784 -0.195096 0
    outer loop
       vertex -0.173079 -0.0326315 0
       vertex -0.166699 -0.064705 0
       vertex -0.166699 -0.064705 0.1
    endloop
  endfacet
  facet normal -0.980784 -0.195096 0
    outer loop
       vertex -0.166699 -0.064705 0.1
       vertex -0.173079 -0.0326315 0.1
       vertex -0.173079 -0.0326315 0
    endloop
  endfacet
  facet normal -0.946935 -0.321425 0
    outer loop
       vertex -0.166699 -0.064705 0
       vertex -0.156188 -0.095671 0
       vertex -0.156188 -0.095671 0.1
    endloop
  endfacet
  facet normal -0.946935 -0.321425 0
    outer loop
       vertex -0.156188 -0.095671 0.1
       vertex -0.166699 -0.064705 0.1
       vertex -0.166699 -0.064705 0
    endloop
  endfacet
  facet normal -0.896866 -0.442302 0
    outer loop
       vertex -0.156188 -0.095671 0
       vertex -0.141724 -0.125 0
       vertex -0.141724 -0.125 0.1
    endloop
  endfacet
  facet normal -0.896866 -0.442302 0
    outer loop
       vertex -0.141724 -0.125 0.1
       vertex -0.156188 -0.095671 0.1
       vertex -0.156188 -0.095671 0
    endloop
  endfacet
  facet normal -0.831476 -0.555561 0
    outer loop
       vertex -0.141724 -0.125 0
       vertex -0.123556 -0.152191 0
       vertex -0.123556 -0.152191 0.1
    endloop
  endfacet
  facet normal -0.831476 -0.555561 0
    outer loop
       vertex -0.123556 -0.152191 0.1
       vertex -0.141724 -0.125 0.1
       vertex -0.141724 -0.125 0
    endloop
  endfacet
  facet normal -0.751817 -0.659372 0
    outer loop
       vertex -0.123556 -0.152191 0
       vertex -0.101994 -0.176776 0
       vertex -0.101994 -0.176776 0.1
    endloop
  endfacet
  facet normal -0.751817 -0.659372 0
    outer loop
       vertex -0.101994 -0.176776 0.1
       vertex -0.123556 -0.152191 0.1
       vertex -0.123556 -0.152191 0
    endloop
  endfacet
  facet normal 0.659372 -0.751817 0
    outer loop
       vertex 0.251558 -0.176776 0
       vertex 0.251558 -0.176776 0.1
       vertex 0.226973 -0.198338 0.1
    endloop
  endfacet
  facet normal 0.659372 -0.751817 0
    outer loop
       vertex 0.226973 -0.198338 0.1
       vertex 0.226973 -0.198338 0
       vertex 0.251558 -0.176776 0
    endloop
  endfacet
  facet normal 0.555561 -0.831476 0
    outer loop
       vertex 0.226973 -0.198338 0
       vertex 0.226973 -0.198338 0.1
       vertex 0.199782 -0.216506 0.1
    endloop
  endfacet
  facet normal 0.555561 -0.831476 0
    outer loop
       vertex 0.199782 -0.216506 0.1
       vertex 0.199782 -0.216506 0
       vertex 0.226973 -0.198338 0
    endloop
  endfacet
  facet normal 0.442302 -0.896866 0
    outer loop
       vertex 0.199782 -0.216506 0
       vertex 0.199782 -0.216506 0.1
       vertex 0.170453 -0.23097 0.1
    endloop
  endfacet
  facet normal 0.442302 -0.896866 0
    outer loop
       vertex 0.170453 -0.23097 0.1
       vertex 0.170453 -0.23097 0
       vertex 0.199782 -0.216506 0
    endloop
  endfacet
  facet normal 0.321425 -0.946935 0
    outer loop
       vertex 0.170453 -0.23097 0
       vertex 0.170453 -0.23097 0.1
       vertex 0.139487 -0.241481 0.1
    endloop
  endfacet
  facet normal 0.321425 -0.946935 0
    outer loop
       vertex 0.139487 -0.241481 0.1
       vertex 0.139487 -0.241481 0
       vertex 0.170453 -0.23097 0
    endloop
  endfacet
  facet normal 0.195096 -0.980784 0
    outer loop
       vertex 0.139487 -0.241481 0
       vertex 0.139487 -0.241481 0.1
       vertex 0.107414 -0.247861 0.1
    endloop
  endfacet
  facet normal 0.195096 -0.980784 0
    outer loop
       vertex 0.107414 -0.247861 0.1
       vertex 0.107414 -0.247861 0
       vertex 0.139487 -0.241481 0
    endloop
  endfacet
  facet normal 0.0654098 -0.997858 0
    outer loop
       vertex 0.074782 -0.25 0
       vertex 0.107414 -0.247861 0
       vertex 0.107414 -0.247861 0.1
    endloop
  endfacet
  facet normal 0.0654098 -0.997858 1.0893e-16
    outer loop
       vertex 0.107414 -0.247861 0.1
       vertex 0.074782 -0.25 0.1
       vertex 0.074782 -0.25 0
    endloop
  endfacet
  facet normal -0.0654098 -0.997858 0
    outer loop
       vertex 0.074782 -0.25 0.1
       vertex 0.0421505 -0.247861 0.1
       vertex 0.0421505 -0.247861 0
    endloop
  endfacet
  facet normal -0.0654098 -0.997858 -1.08928e-16
    outer loop
       vertex 0.0421505 -0.247861 0
       vertex 0.074782 -0.25 0
       vertex 0.074782 -0.25 0.1
    endloop
  endfacet
  facet normal -0.195096 -0.980784 0
    outer loop
       vertex 0.0421505 -0.247861 0
       vertex 0.0421505 -0.247861 0.1
       vertex 0.010077 -0.241481 0.1
    endloop
  endfacet
  facet normal -0.195096 -0.980784 -0
    outer loop
       vertex 0.010077 -0.241481 0.1
       vertex 0.010077 -0.241481 0
       vertex 0.0421505 -0.247861 0
    endloop
  endfacet
  facet normal -0.321425 -0.946935 0
    outer loop
       vertex 0.010077 -0.241481 0
       vertex 0.010077 -0.241481 0.1
       vertex -0.020889 -0.23097 0.1
    endloop
  endfacet
  facet normal -0.321425 -0.946935 -0
    outer loop
       vertex -0.020889 -0.23097 0.1
       vertex -0.020889 -0.23097 0
       vertex 0.010077 -0.241481 0
    endloop
  endfacet
  facet normal -0.442302 -0.896866 0
    outer loop
       vertex -0.020889 -0.23097 0
       vertex -0.020889 -0.23097 0.1
       vertex -0.050218 -0.216506 0.1
    endloop
  endfacet
  facet normal -0.442302 -0.896866 -0
    outer loop
       vertex -0.050218 -0.216506 0.1
       vertex -0.050218 -0.216506 0
       vertex -0.020889 -0.23097 0
    endloop
  endfacet
  facet normal -0.555561 -0.831476 0
    outer loop
       vertex -0.050218 -0.216506 0
       vertex -0.050218 -0.216506 0.1
       vertex -0.077409 -0.198338 0.1
    endloop
  endfacet
  facet normal -0.555561 -0.831476 -0
    outer loop
       vertex -0.077409 -0.198338 0.1
       vertex -0.077409 -0.198338 0
       vertex -0.050218 -0.216506 0
    endloop
  endfacet
  facet normal -0.659372 -0.751817 0
    outer loop
       vertex -0.077409 -0.198338 0
       vertex -0.077409 -0.198338 0.1
       vertex -0.101994 -0.176776 0.1
    endloop
  endfacet
  facet normal -0.659372 -0.751817 -0
    outer loop
       vertex -0.101994 -0.176776 0.1
       vertex -0.101994 -0.176776 0
       vertex -0.077409 -0.198338 0
    endloop
  endfacet
endsolid cylinder
