solid cylinder
  facet normal 0.751817 -0.659372 0
    outer loop
       vertex 0.335822 -0.176776 0
       vertex 0.357384 -0.152191 0
       vertex 0.357384 -0.152191 0.1
    endloop
  endfacet
  facet normal 0.751817 -0.659372 0
    outer loop
       vertex 0.357384 -0.152191 0.1
       vertex 0.335822 -0.176776 0.1
       vertex 0.335822 -0.176776 0
    endloop
  endfacet
  facet normal 0.831476 -0.555561 0
    outer loop
       vertex 0.357384 -0.152191 0
       vertex 0.375552 -0.125 0
       vertex 0.375552 -0.125 0.1
    endloop
  endfacet
  facet normal 0.831476 -0.555561 0
    outer loop
       vertex 0.375552 -0.125 0.1
       vertex 0.357384 -0.152191 0.1
       vertex 0.357384 -0.152191 0
    endloop
  endfacet
  facet normal 0.896866 -0.442302 0
    outer loop
       vertex 0.375552 -0.125 0
       vertex 0.390016 -0.095671 0
       vertex 0.390016 -0.095671 0.1
    endloop
  endfacet
  facet normal 0.896866 -0.442302 0
    outer loop
       vertex 0.390016 -0.095671 0.1
       vertex 0.375552 -0.125 0.1
       vertex 0.375552 -0.125 0
    endloop
  endfacet
  facet normal 0.946935 -0.321425 0
    outer loop
       vertex 0.390016 -0.095671 0
       vertex 0.400527 -0.064705 0
       vertex 0.400527 -0.064705 0.1
    endloop
  endfacet
  facet normal 0.946935 -0.321425 0
    outer loop
       vertex 0.400527 -0.064705 0.1
       vertex 0.390016 -0.095671 0.1
       vertex 0.390016 -0.095671 0
    endloop
  endfacet
  facet normal 0.980784 -0.195096 0
    outer loop
       vertex 0.400527 -0.064705 0
       vertex 0.406907 -0.0326315 0
       vertex 0.406907 -0.0326315 0.1
    endloop
  endfacet
  facet normal 0.980784 -0.195096 0
    outer loop
       vertex 0.406907 -0.0326315 0.1
       vertex 0.400527 -0.064705 0.1
       vertex 0.400527 -0.064705 0
    endloop
  endfacet
  facet normal 0.997858 -0.0654098 0
    outer loop
       vertex 0.409046 -8.32665e-17 0.1
       vertex 0.406907 -0.0326315 0.1
       vertex 0.406907 -0.0326315 0
    endloop
  endfacet
  facet normal 0.997858 -0.0654098 -1.08928e-16
    outer loop
       vertex 0.406907 -0.0326315 0
       vertex 0.409046 8.32665e-17 0
       vertex 0.409046 -8.32665e-17 0.1
    endloop
  endfacet
  facet normal 0.997858 0.0654098 0
    outer loop
       vertex 0.409046 8.32665e-17 0
       vertex 0.406907 0.0326315 0
       vertex 0.406907 0.0326315 0.1
    endloop
  endfacet
  facet normal 0.997858 0.0654098 1.08928e-16
    outer loop
       vertex 0.406907 0.0326315 0.1
       vertex 0.409046 -8.32665e-17 0.1
       vertex 0.409046 8.32665e-17 0
    endloop
  endfacet
  facet normal 0.980784 0.195096 0
    outer loop
       vertex 0.406907 0.0326315 0
       vertex 0.400527 0.064705 0
       vertex 0.400527 0.064705 0.1
    endloop
  endfacet
  facet normal 0.980784 0.195096 0
    outer loop
       vertex 0.400527 0.064705 0.1
       vertex 0.406907 0.0326315 0.1
       vertex 0.406907 0.0326315 0
    endloop
  endfacet
  facet normal 0.946935 0.321425 0
    outer loop
       vertex 0.400527 0.064705 0
       vertex 0.390016 0.095671 0
       vertex 0.390016 0.095671 0.1
    endloop
  endfacet
  facet normal 0.946935 0.321425 0
    outer loop
       vertex 0.390016 0.095671 0.1
       vertex 0.400527 0.064705 0.1
       vertex 0.400527 0.064705 0
    endloop
  endfacet
  facet normal 0.896866 0.442302 0
    outer loop
       vertex 0.390016 0.095671 0
       vertex 0.375552 0.125 0
       vertex 0.375552 0.125 0.1
    endloop
  endfacet
  facet normal 0.896866 0.442302 0
    outer loop
       vertex 0.375552 0.125 0.1
       vertex 0.390016 0.095671 0.1
       vertex 0.390016 0.095671 0
    endloop
  endfacet
  facet normal 0.831476 0.555561 0
    outer loop
       vertex 0.375552 0.125 0
       vertex 0.357384 0.152191 0
       vertex 0.357384 0.152191 0.1
    endloop
  endfacet
  facet normal 0.831476 0.555561 0
    outer loop
       vertex 0.357384 0.152191 0.1
       vertex 0.375552 0.125 0.1
       vertex 0.375552 0.125 0
    endloop
  endfacet
  facet normal 0.751817 0.659372 0
    outer loop
       vertex 0.357384 0.152191 0
       vertex 0.335822 0.176776 0
       vertex 0.335822 0.176776 0.1
    endloop
  endfacet
  facet normal 0.751817 0.659372 0
    outer loop
       vertex 0.335822 0.176776 0.1
       vertex 0.357384 0.152191 0.1
       vertex 0.357384 0.152191 0
    endloop
  endfacet
  facet normal 0.659372 0.751817 0
    outer loop
       vertex 0.335822 0.176776 0
       vertex 0.311237 0.198338 0
       vertex 0.311237 0.198338 0.1
    endloop
  endfacet
  facet normal 0.659372 0.751817 0
    outer loop
       vertex 0.311237 0.198338 0.1
       vertex 0.335822 0.176776 0.1
       vertex 0.335822 0.176776 0
    endloop
  endfacet
  facet normal 0.555561 0.831476 0
    outer loop
       vertex 0.311237 0.198338 0
       vertex 0.284046 0.216506 0
       vertex 0.284046 0.216506 0.1
    endloop
  endfacet
  facet normal 0.555561 0.831476 0
    outer loop
       vertex 0.284046 0.216506 0.1
       vertex 0.311237 0.198338 0.1
       vertex 0.311237 0.198338 0
    endloop
  endfacet
  facet normal 0.442302 0.896866 0
    outer loop
       vertex 0.284046 0.216506 0
       vertex 0.254717 0.23097 0
       vertex 0.254717 0.23097 0.1
    endloop
  endfacet
  facet normal 0.442302 0.896866 0
    outer loop
       vertex 0.254717 0.23097 0.1
       vertex 0.284046 0.216506 0.1
       vertex 0.284046 0.216506 0
    endloop
  endfacet
  facet normal 0.321425 0.946935 0
    outer loop
       vertex 0.254717 0.23097 0
       vertex 0.223751 0.241481 0
       vertex 0.223751 0.241481 0.1
    endloop
  endfacet
  facet normal 0.321425 0.946935 0
    outer loop
       vertex 0.223751 0.241481 0.1
       vertex 0.254717 0.23097 0.1
       vertex 0.254717 0.23097 0
    endloop
  endfacet
  facet normal 0.195096 0.980784 0
    outer loop
       vertex 0.223751 0.241481 0
       vertex 0.191677 0.247861 0
       vertex 0.191677 0.247861 0.1
    endloop
  endfacet
  facet normal 0.195096 0.980784 0
    outer loop
       vertex 0.191677 0.247861 0.1
       vertex 0.223751 0.241481 0.1
       vertex 0.223751 0.241481 0
    endloop
  endfacet
  facet normal 0.0654098 0.997858 0
    outer loop
       vertex 0.159046 0.25 0.1
       vertex 0.191677 0.247861 0.1
       vertex 0.191677 0.247861 0
    endloop
  endfacet
  facet normal 0.0654098 0.997858 -1.0893e-16
    outer loop
       vertex 0.191677 0.247861 0
       vertex 0.159046 0.25 0
       vertex 0.159046 0.25 0.1
    endloop
  endfacet
  facet normal -0.0654098 0.997858 0
    outer loop
       vertex 0.159046 0.25 0
       vertex 0.126414 0.247861 0
       vertex 0.126414 0.247861 0.1
    endloop
  endfacet
  facet normal -0.0654098 0.997858 1.0893e-16
    outer loop
       vertex 0.126414 0.247861 0.1
       vertex 0.159046 0.25 0.1
       vertex 0.159046 0.25 0
    endloop
  endfacet
  facet normal -0.195096 0.980784 0
    outer loop
       vertex 0.126414 0.247861 0
       vertex 0.0943409 0.241481 0
       vertex 0.0943409 0.241481 0.1
    endloop
  endfacet
  facet normal -0.195096 0.980784 0
    outer loop
       vertex 0.0943409 0.241481 0.1
       vertex 0.126414 0.247861 0.1
       vertex 0.126414 0.247861 0
    endloop
  endfacet
  facet normal -0.321425 0.946935 0
    outer loop
       vertex 0.0943409 0.241481 0
       vertex 0.0633749 0.23097 0
       vertex 0.0633749 0.23097 0.1
    endloop
  endfacet
  facet normal -0.321425 0.946935 0
    outer loop
       vertex 0.0633749 0.23097 0.1
       vertex 0.0943409 0.241481 0.1
       vertex 0.0943409 0.241481 0
    endloop
  endfacet
  facet normal -0.442302 0.896866 0
    outer loop
       vertex 0.0633749 0.23097 0
       vertex 0.0340459 0.216506 0
       vertex 0.0340459 0.216506 0.1
    endloop
  endfacet
  facet normal -0.442302 0.896866 0
    outer loop
       vertex 0.0340459 0.216506 0.1
       vertex 0.0633749 0.23097 0.1
       vertex 0.0633749 0.23097 0
    endloop
  endfacet
  facet normal -0.555561 0.831476 0
    outer loop
       vertex 0.0340459 0.216506 0
       vertex 0.00685492 0.198338 0
       vertex 0.00685492 0.198338 0.1
    endloop
  endfacet
  facet normal -0.555561 0.831476 0
    outer loop
       vertex 0.00685492 0.198338 0.1
       vertex 0.0340459 0.216506 0.1
       vertex 0.0340459 0.216506 0
    endloop
  endfacet
  facet normal -0.659372 0.751817 0
    outer loop
       vertex 0.00685492 0.198338 0
       vertex -0.0177301 0.176776 0
       vertex -0.0177301 0.176776 0.1
    endloop
  endfacet
  facet normal -0.659372 0.751817 0
    outer loop
       vertex -0.0177301 0.176776 0.1
       vertex 0.00685492 0.198338 0.1
       vertex 0.00685492 0.198338 0
    endloop
  endfacet
  facet normal -0.751817 0.659372 0
    outer loop
       vertex -0.0177301 0.176776 0
       vertex -0.0392921 0.152191 0
       vertex -0.0392921 0.152191 0.1
    endloop
  endfacet
  facet normal -0.751817 0.659372 0
    outer loop
       vertex -0.0392921 0.152191 0.1
       vertex -0.0177301 0.176776 0.1
       vertex -0.0177301 0.176776 0
    endloop
  endfacet
  facet normal -0.831476 0.555561 0
    outer loop
       vertex -0.0392921 0.152191 0
       vertex -0.0574601 0.125 0
       vertex -0.0574601 0.125 0.1
    endloop
  endfacet
  facet normal -0.831476 0.555561 0
    outer loop
       vertex -0.0574601 0.125 0.1
       vertex -0.0392921 0.152191 0.1
       vertex -0.0392921 0.152191 0
    endloop
  endfacet
  facet normal -0.896866 0.442302 0
    outer loop
       vertex -0.0574601 0.125 0
       vertex -0.0719241 0.095671 0
       vertex -0.0719241 0.095671 0.1
    endloop
  endfacet
  facet normal -0.896866 0.442302 0
    outer loop
       vertex -0.0719241 0.095671 0.1
       vertex -0.0574601 0.125 0.1
       vertex -0.0574601 0.125 0
    endloop
  endfacet
  facet normal -0.946935 0.321425 0
    outer loop
       vertex -0.0719241 0.095671 0
       vertex -0.0824351 0.064705 0
       vertex -0.0824351 0.064705 0.1
    endloop
  endfacet
  facet normal -0.946935 0.321425 0
    outer loop
       vertex -0.0824351 0.064705 0.1
       vertex -0.0719241 0.095671 0.1
       vertex -0.0719241 0.095671 0
    endloop
  endfacet
  facet normal -0.980784 0.195096 0
    outer loop
       vertex -0.0824351 0.064705 0
       vertex -0.0888151 0.0326315 0
       vertex -0.0888151 0.0326315 0.1
    endloop
  endfacet
  facet normal -0.980784 0.195096 0
    outer loop
       vertex -0.0888151 0.0326315 0.1
       vertex -0.0824351 0.064705 0.1
       vertex -0.0824351 0.064705 0
    endloop
  endfacet
  facet normal -0.997858 0.0654098 0
    outer loop
       vertex -0.0909541 8.32665e-17 0.1
       vertex -0.0888151 0.0326315 0.1
       vertex -0.0888151 0.0326315 0
    endloop
  endfacet
  facet normal -0.997858 0.0654098 -1.08928e-16
    outer loop
       vertex -0.0888151 0.0326315 0
       vertex -0.0909541 -8.32665e-17 0
       vertex -0.0909541 8.32665e-17 0.1
    endloop
  endfacet
  facet normal -0.997858 -0.0654098 0
    outer loop
       vertex -0.0909541 -8.32665e-17 0
       vertex -0.0888151 -0.0326315 0
       vertex -0.0888151 -0.0326315 0.1
    endloop
  endfacet
  facet normal -0.997858 -0.0654098 1.08928e-16
    outer loop
       vertex -0.0888151 -0.0326315 0.1
       vertex -0.0909541 8.32665e-17 0.1
       vertex -0.0909541 -8.32665e-17 0
    endloop
  endfacet
  facet normal -0.980784 -0.195096 0
    outer loop
       vertex -0.0888151 -0.0326315 0
       vertex -0.0824351 -0.064705 0
       vertex -0.0824351 -0.064705 0.1
    endloop
  endfacet
  facet normal -0.980784 -0.195096 0
    outer loop
       vertex -0.0824351 -0.064705 0.1
       vertex -0.0888151 -0.0326315 0.1
       vertex -0.0888151 -0.0326315 0
    endloop
  endfacet
  facet normal -0.946935 -0.321425 0
    outer loop
       vertex -0.0824351 -0.064705 0
       vertex -0.0719241 -0.095671 0
       vertex -0.0719241 -0.095671 0.1
    endloop
  endfacet
  facet normal -0.946935 -0.321425 0
    outer loop
       vertex -0.0719241 -0.095671 0.1
       vertex -0.0824351 -0.064705 0.1
       vertex -0.0824351 -0.064705 0
    endloop
  endfacet
  facet normal -0.896866 -0.442302 0
    outer loop
       vertex -0.0719241 -0.095671 0
       vertex -0.0574601 -0.125 0
       vertex -0.0574601 -0.125 0.1
    endloop
  endfacet
  facet normal -0.896866 -0.442302 0
    outer loop
       vertex -0.0574601 -0.125 0.1
       vertex -0.0719241 -0.095671 0.1
       vertex -0.0719241 -0.095671 0
    endloop
  endfacet
  facet normal -0.831476 -0.555561 0
    outer loop
       vertex -0.0574601 -0.125 0
       vertex -0.0392921 -0.152191 0
       vertex -0.0392921 -0.152191 0.1
    endloop
  endfacet
  facet normal -0.831476 -0.555561 0
    outer loop
       vertex -0.0392921 -0.152191 0.1
       vertex -0.0574601 -0.125 0.1
       vertex -0.0574601 -0.125 0
    endloop
  endfacet
  facet normal -0.751817 -0.659372 0
    outer loop
       vertex -0.0392921 -0.152191 0
       vertex -0.0177301 -0.176776 0
       vertex -0.0177301 -0.176776 0.1
    endloop
  endfacet
  facet normal -0.751817 -0.659372 0
    outer loop
       vertex -0.0177301 -0.176776 0.1
       vertex -0.0392921 -0.152191 0.1
       vertex -0.0392921 -0.152191 0
    endloop
  endfacet
  facet normal 0.659372 -0.751817 0
    outer loop
       vertex 0.335822 -0.176776 0
       vertex 0.335822 -0.176776 0.1
       vertex 0.311237 -0.198338 0.1
    endloop
  endfacet
  facet normal 0.659372 -0.751817 0
    outer loop
       vertex 0.311237 -0.198338 0.1
       vertex 0.311237 -0.198338 0
       vertex 0.335822 -0.176776 0
    endloop
  endfacet
  facet normal 0.555561 -0.831476 0
    outer loop
       vertex 0.311237 -0.198338 0
       vertex 0.311237 -0.198338 0.1
       vertex 0.284046 -0.216506 0.1
    endloop
  endfacet
  facet normal 0.555561 -0.831476 0
    outer loop
       vertex 0.284046 -0.216506 0.1
       vertex 0.284046 -0.216506 0
       vertex 0.311237 -0.198338 0
    endloop
  endfacet
  facet normal 0.442302 -0.896866 0
    outer loop
       vertex 0.284046 -0.216506 0
       vertex 0.284046 -0.216506 0.1
       vertex 0.254717 -0.23097 0.1
    endloop
  endfacet
  facet normal 0.442302 -0.896866 0
    outer loop
       vertex 0.254717 -0.23097 0.1
       vertex 0.254717 -0.23097 0
       vertex 0.284046 -0.216506 0
    endloop
  endfacet
  facet normal 0.321425 -0.946935 0
    outer loop
       vertex 0.254717 -0.23097 0
       vertex 0.254717 -0.23097 0.1
       vertex 0.223751 -0.241481 0.1
    endloop
  endfacet
  facet normal 0.321425 -0.946935 0
    outer loop
       vertex 0.223751 -0.241481 0.1
       vertex 0.223751 -0.241481 0
       vertex 0.254717 -0.23097 0
    endloop
  endfacet
  facet normal 0.195096 -0.980784 0
    outer loop
       vertex 0.223751 -0.241481 0
       vertex 0.223751 -0.241481 0.1
       vertex 0.191677 -0.247861 0.1
    endloop
  endfacet
  facet normal 0.195096 -0.980784 0
    outer loop
       vertex 0.191677 -0.247861 0.1
       vertex 0.191677 -0.247861 0
       vertex 0.223751 -0.241481 0
    endloop
  endfacet
  facet normal 0.0654098 -0.997858 0
    outer loop
       vertex 0.159046 -0.25 0
       vertex 0.191677 -0.247861 0
       vertex 0.191677 -0.247861 0.1
    endloop
  endfacet
  facet normal 0.0654098 -0.997858 1.0893e-16
    outer loop
       vertex 0.191677 -0.247861 0.1
       vertex 0.159046 -0.25 0.1
       vertex 0.159046 -0.25 0
    endloop
  endfacet
  facet normal -0.0654098 -0.997858 0
    outer loop
       vertex 0.159046 -0.25 0.1
       vertex 0.126414 -0.247861 0.1
       vertex 0.126414 -0.247861 0
    endloop
  endfacet
  facet normal -0.0654098 -0.997858 -1.0893e-16
    outer loop
       vertex 0.126414 -0.247861 0
       vertex 0.159046 -0.25 0
       vertex 0.159046 -0.25 0.1
    endloop
  endfacet
  facet normal -0.195096 -0.980784 0
    outer loop
       vertex 0.126414 -0.247861 0
       vertex 0.126414 -0.247861 0.1
       vertex 0.0943409 -0.241481 0.1
    endloop
  endfacet
  facet normal -0.195096 -0.980784 -0
    outer loop
       vertex 0.0943409 -0.241481 0.1
       vertex 0.0943409 -0.241481 0
       vertex 0.126414 -0.247861 0
    endloop
  endfacet
  facet normal -0.321425 -0.946935 0
    outer loop
       vertex 0.0943409 -0.241481 0
       vertex 0.0943409 -0.241481 0.1
       vertex 0.0633749 -0.23097 0.1
    endloop
  endfacet
  facet normal -0.321425 -0.946935 -0
    outer loop
       vertex 0.0633749 -0.23097 0.1
       vertex 0.0633749 -0.23097 0
       vertex 0.0943409 -0.241481 0
    endloop
  endfacet
  facet normal -0.442302 -0.896866 0
    outer loop
       vertex 0.0633749 -0.23097 0
       vertex 0.0633749 -0.23097 0.1
       vertex 0.0340459 -0.216506 0.1
    endloop
  endfacet
  facet normal -0.442302 -0.896866 -0
    outer loop
       vertex 0.0340459 -0.216506 0.1
       vertex 0.0340459 -0.216506 0
       vertex 0.0633749 -0.23097 0
    endloop
  endfacet
  facet normal -0.555561 -0.831476 0
    outer loop
       vertex 0.0340459 -0.216506 0
       vertex 0.0340459 -0.216506 0.1
       vertex 0.00685492 -0.198338 0.1
    endloop
  endfacet
  facet normal -0.555561 -0.831476 -0
    outer loop
       vertex 0.00685492 -0.198338 0.1
       vertex 0.00685492 -0.198338 0
       vertex 0.0340459 -0.216506 0
    endloop
  endfacet
  facet normal -0.659372 -0.751817 0
    outer loop
       vertex 0.00685492 -0.198338 0
       vertex 0.00685492 -0.198338 0.1
       vertex -0.0177301 -0.176776 0.1
    endloop
  endfacet
  facet normal -0.659372 -0.751817 -0
    outer loop
       vertex -0.0177301 -0.176776 0.1
       vertex -0.0177301 -0.176776 0
       vertex 0.00685492 -0.198338 0
    endloop
  endfacet
endsolid cylinder
