solid cylinder
  facet normal 0.751817 -0.659372 0
    outer loop
       vertex 0.232071 -0.176776 0
       vertex 0.253633 -0.152191 0
       vertex 0.253633 -0.152191 0.1
    endloop
  endfacet
  facet normal 0.751817 -0.659372 0
    outer loop
       vertex 0.253633 -0.152191 0.1
       vertex 0.232071 -0.176776 0.1
       vertex 0.232071 -0.176776 0
    endloop
  endfacet
  facet normal 0.831476 -0.555561 0
    outer loop
       vertex 0.253633 -0.152191 0
       vertex 0.271801 -0.125 0
       vertex 0.271801 -0.125 0.1
    endloop
  endfacet
  facet normal 0.831476 -0.555561 0
    outer loop
       vertex 0.271801 -0.125 0.1
       vertex 0.253633 -0.152191 0.1
       vertex 0.253633 -0.152191 0
    endloop
  endfacet
  facet normal 0.896866 -0.442302 0
    outer loop
       vertex 0.271801 -0.125 0
       vertex 0.286265 -0.095671 0
       vertex 0.286265 -0.095671 0.1
    endloop
  endfacet
  facet normal 0.896866 -0.442302 0
    outer loop
       vertex 0.286265 -0.095671 0.1
       vertex 0.271801 -0.125 0.1
       vertex 0.271801 -0.125 0
    endloop
  endfacet
  facet normal 0.946935 -0.321425 0
    outer loop
       vertex 0.286265 -0.095671 0
       vertex 0.296776 -0.064705 0
       vertex 0.296776 -0.064705 0.1
    endloop
  endfacet
  facet normal 0.946935 -0.321425 0
    outer loop
       vertex 0.296776 -0.064705 0.1
       vertex 0.286265 -0.095671 0.1
       vertex 0.286265 -0.095671 0
    endloop
  endfacet
  facet normal 0.980784 -0.195096 0
    outer loop
       vertex 0.296776 -0.064705 0
       vertex 0.303156 -0.0326315 0
       vertex 0.303156 -0.0326315 0.1
    endloop
  endfacet
  facet normal 0.980784 -0.195096 0
    outer loop
       vertex 0.303156 -0.0326315 0.1
       vertex 0.296776 -0.064705 0.1
       vertex 0.296776 -0.064705 0
    endloop
  endfacet
  facet normal 0.997858 -0.0654098 0
    outer loop
       vertex 0.305295 -8.32665e-17 0.1
       vertex 0.303156 -0.0326315 0.1
       vertex 0.303156 -0.0326315 0
    endloop
  endfacet
  facet normal 0.997858 -0.0654098 -1.08928e-16
    outer loop
       vertex 0.303156 -0.0326315 0
       vertex 0.305295 8.32665e-17 0
       vertex 0.305295 -8.32665e-17 0.1
    endloop
  endfacet
  facet normal 0.997858 0.0654098 0
    outer loop
       vertex 0.305295 8.32665e-17 0
       vertex 0.303156 0.0326315 0
       vertex 0.303156 0.0326315 0.1
    endloop
  endfacet
  facet normal 0.997858 0.0654098 1.08928e-16
    outer loop
       vertex 0.303156 0.0326315 0.1
       vertex 0.305295 -8.32665e-17 0.1
       vertex 0.305295 8.32665e-17 0
    endloop
  endfacet
  facet normal 0.980784 0.195096 0
    outer loop
       vertex 0.303156 0.0326315 0
       vertex 0.296776 0.064705 0
       vertex 0.296776 0.064705 0.1
    endloop
  endfacet
  facet normal 0.980784 0.195096 0
    outer loop
       vertex 0.296776 0.064705 0.1
       vertex 0.303156 0.0326315 0.1
       vertex 0.303156 0.0326315 0
    endloop
  endfacet
  facet normal 0.946935 0.321425 0
    outer loop
       vertex 0.296776 0.064705 0
       vertex 0.286265 0.095671 0
       vertex 0.286265 0.095671 0.1
    endloop
  endfacet
  facet normal 0.946935 0.321425 0
    outer loop
       vertex 0.286265 0.095671 0.1
       vertex 0.296776 0.064705 0.1
       vertex 0.296776 0.064705 0
    endloop
  endfacet
  facet normal 0.896866 0.442302 0
    outer loop
       vertex 0.286265 0.095671 0
       vertex 0.271801 0.125 0
       vertex 0.271801 0.125 0.1
    endloop
  endfacet
  facet normal 0.896866 0.442302 0
    outer loop
       vertex 0.271801 0.125 0.1
       vertex 0.286265 0.095671 0.1
       vertex 0.286265 0.095671 0
    endloop
  endfacet
  facet normal 0.831476 0.555561 0
    outer loop
       vertex 0.271801 0.125 0
       vertex 0.253633 0.152191 0
       vertex 0.253633 0.152191 0.1
    endloop
  endfacet
  facet normal 0.831476 0.555561 0
    outer loop
       vertex 0.253633 0.152191 0.1
       vertex 0.271801 0.125 0.1
       vertex 0.271801 0.125 0
    endloop
  endfacet
  facet normal 0.751817 0.659372 0
    outer loop
       vertex 0.253633 0.152191 0
       vertex 0.232071 0.176776 0
       vertex 0.232071 0.176776 0.1
    endloop
  endfacet
  facet normal 0.751817 0.659372 0
    outer loop
       vertex 0.232071 0.176776 0.1
       vertex 0.253633 0.152191 0.1
       vertex 0.253633 0.152191 0
    endloop
  endfacet
  facet normal 0.659372 0.751817 0
    outer loop
       vertex 0.232071 0.176776 0
       vertex 0.207486 0.198338 0
       vertex 0.207486 0.198338 0.1
    endloop
  endfacet
  facet normal 0.659372 0.751817 0
    outer loop
       vertex 0.207486 0.198338 0.1
       vertex 0.232071 0.176776 0.1
       vertex 0.232071 0.176776 0
    endloop
  endfacet
  facet normal 0.555561 0.831476 0
    outer loop
       vertex 0.207486 0.198338 0
       vertex 0.180295 0.216506 0
       vertex 0.180295 0.216506 0.1
    endloop
  endfacet
  facet normal 0.555561 0.831476 0
    outer loop
       vertex 0.180295 0.216506 0.1
       vertex 0.207486 0.198338 0.1
       vertex 0.207486 0.198338 0
    endloop
  endfacet
  facet normal 0.442302 0.896866 0
    outer loop
       vertex 0.180295 0.216506 0
       vertex 0.150966 0.23097 0
       vertex 0.150966 0.23097 0.1
    endloop
  endfacet
  facet normal 0.442302 0.896866 0
    outer loop
       vertex 0.150966 0.23097 0.1
       vertex 0.180295 0.216506 0.1
       vertex 0.180295 0.216506 0
    endloop
  endfacet
  facet normal 0.321425 0.946935 0
    outer loop
       vertex 0.150966 0.23097 0
       vertex 0.12 0.241481 0
       vertex 0.12 0.241481 0.1
    endloop
  endfacet
  facet normal 0.321425 0.946935 0
    outer loop
       vertex 0.12 0.241481 0.1
       vertex 0.150966 0.23097 0.1
       vertex 0.150966 0.23097 0
    endloop
  endfacet
  facet normal 0.195096 0.980784 0
    outer loop
       vertex 0.12 0.241481 0
       vertex 0.0879268 0.247861 0
       vertex 0.0879268 0.247861 0.1
    endloop
  endfacet
  facet normal 0.195096 0.980784 0
    outer loop
       vertex 0.0879268 0.247861 0.1
       vertex 0.12 0.241481 0.1
       vertex 0.12 0.241481 0
    endloop
  endfacet
  facet normal 0.0654098 0.997858 0
    outer loop
       vertex 0.0552953 0.25 0.1
       vertex 0.0879268 0.247861 0.1
       vertex 0.0879268 0.247861 0
    endloop
  endfacet
  facet normal 0.0654098 0.997858 -1.0893e-16
    outer loop
       vertex 0.0879268 0.247861 0
       vertex 0.0552953 0.25 0
       vertex 0.0552953 0.25 0.1
    endloop
  endfacet
  facet normal -0.0654098 0.997858 0
    outer loop
       vertex 0.0552953 0.25 0
       vertex 0.0226638 0.247861 0
       vertex 0.0226638 0.247861 0.1
    endloop
  endfacet
  facet normal -0.0654098 0.997858 1.08928e-16
    outer loop
       vertex 0.0226638 0.247861 0.1
       vertex 0.0552953 0.25 0.1
       vertex 0.0552953 0.25 0
    endloop
  endfacet
  facet normal -0.195096 0.980784 0
    outer loop
       vertex 0.0226638 0.247861 0
       vertex -0.00940971 0.241481 0
       vertex -0.00940971 0.241481 0.1
    endloop
  endfacet
  facet normal -0.195096 0.980784 0
    outer loop
       vertex -0.00940971 0.241481 0.1
       vertex 0.0226638 0.247861 0.1
       vertex 0.0226638 0.247861 0
    endloop
  endfacet
  facet normal -0.321425 0.946935 0
    outer loop
       vertex -0.00940971 0.241481 0
       vertex -0.0403757 0.23097 0
       vertex -0.0403757 0.23097 0.1
    endloop
  endfacet
  facet normal -0.321425 0.946935 0
    outer loop
       vertex -0.0403757 0.23097 0.1
       vertex -0.00940971 0.241481 0.1
       vertex -0.00940971 0.241481 0
    endloop
  endfacet
  facet normal -0.442302 0.896866 0
    outer loop
       vertex -0.0403757 0.23097 0
       vertex -0.0697047 0.216506 0
       vertex -0.0697047 0.216506 0.1
    endloop
  endfacet
  facet normal -0.442302 0.896866 0
    outer loop
       vertex -0.0697047 0.216506 0.1
       vertex -0.0403757 0.23097 0.1
       vertex -0.0403757 0.23097 0
    endloop
  endfacet
  facet normal -0.555561 0.831476 0
    outer loop
       vertex -0.0697047 0.216506 0
       vertex -0.0968957 0.198338 0
       vertex -0.0968957 0.198338 0.1
    endloop
  endfacet
  facet normal -0.555561 0.831476 0
    outer loop
       vertex -0.0968957 0.198338 0.1
       vertex -0.0697047 0.216506 0.1
       vertex -0.0697047 0.216506 0
    endloop
  endfacet
  facet normal -0.659372 0.751817 0
    outer loop
       vertex -0.0968957 0.198338 0
       vertex -0.121481 0.176776 0
       vertex -0.121481 0.176776 0.1
    endloop
  endfacet
  facet normal -0.659372 0.751817 0
    outer loop
       vertex -0.121481 0.176776 0.1
       vertex -0.0968957 0.198338 0.1
       vertex -0.0968957 0.198338 0
    endloop
  endfacet
  facet normal -0.751817 0.659372 0
    outer loop
       vertex -0.121481 0.176776 0
       vertex -0.143043 0.152191 0
       vertex -0.143043 0.152191 0.1
    endloop
  endfacet
  facet normal -0.751817 0.659372 0
    outer loop
       vertex -0.143043 0.152191 0.1
       vertex -0.121481 0.176776 0.1
       vertex -0.121481 0.176776 0
    endloop
  endfacet
  facet normal -0.831476 0.555561 0
    outer loop
       vertex -0.143043 0.152191 0
       vertex -0.161211 0.125 0
       vertex -0.161211 0.125 0.1
    endloop
  endfacet
  facet normal -0.831476 0.555561 0
    outer loop
       vertex -0.161211 0.125 0.1
       vertex -0.143043 0.152191 0.1
       vertex -0.143043 0.152191 0
    endloop
  endfacet
  facet normal -0.896866 0.442302 0
    outer loop
       vertex -0.161211 0.125 0
       vertex -0.175675 0.095671 0
       vertex -0.175675 0.095671 0.1
    endloop
  endfacet
  facet normal -0.896866 0.442302 0
    outer loop
       vertex -0.175675 0.095671 0.1
       vertex -0.161211 0.125 0.1
       vertex -0.161211 0.125 0
    endloop
  endfacet
  facet normal -0.946935 0.321425 0
    outer loop
       vertex -0.175675 0.095671 0
       vertex -0.186186 0.064705 0
       vertex -0.186186 0.064705 0.1
    endloop
  endfacet
  facet normal -0.946935 0.321425 0
    outer loop
       vertex -0.186186 0.064705 0.1
       vertex -0.175675 0.095671 0.1
       vertex -0.175675 0.095671 0
    endloop
  endfacet
  facet normal -0.980784 0.195096 0
    outer loop
       vertex -0.186186 0.064705 0
       vertex -0.192566 0.0326315 0
       vertex -0.192566 0.0326315 0.1
    endloop
  endfacet
  facet normal -0.980784 0.195096 0
    outer loop
       vertex -0.192566 0.0326315 0.1
       vertex -0.186186 0.064705 0.1
       vertex -0.186186 0.064705 0
    endloop
  endfacet
  facet normal -0.997858 0.0654098 0
    outer loop
       vertex -0.194705 8.32665e-17 0.1
       vertex -0.192566 0.0326315 0.1
       vertex -0.192566 0.0326315 0
    endloop
  endfacet
  facet normal -0.997858 0.0654098 -1.08928e-16
    outer loop
       vertex -0.192566 0.0326315 0
       vertex -0.194705 -8.32665e-17 0
       vertex -0.194705 8.32665e-17 0.1
    endloop
  endfacet
  facet normal -0.997858 -0.0654098 0
    outer loop
       vertex -0.194705 -8.32665e-17 0
       vertex -0.192566 -0.0326315 0
       vertex -0.192566 -0.0326315 0.1
    endloop
  endfacet
  facet normal -0.997858 -0.0654098 1.08928e-16
    outer loop
       vertex -0.192566 -0.0326315 0.1
       vertex -0.194705 8.32665e-17 0.1
       vertex -0.194705 -8.32665e-17 0
    endloop
  endfacet
  facet normal -0.980784 -0.195096 0
    outer loop
       vertex -0.192566 -0.0326315 0
       vertex -0.186186 -0.064705 0
       vertex -0.186186 -0.064705 0.1
    endloop
  endfacet
  facet normal -0.980784 -0.195096 0
    outer loop
       vertex -0.186186 -0.064705 0.1
       vertex -0.192566 -0.0326315 0.1
       vertex -0.192566 -0.0326315 0
    endloop
  endfacet
  facet normal -0.946935 -0.321425 0
    outer loop
       vertex -0.186186 -0.064705 0
       vertex -0.175675 -0.095671 0
       vertex -0.175675 -0.095671 0.1
    endloop
  endfacet
  facet normal -0.946935 -0.321425 0
    outer loop
       vertex -0.175675 -0.095671 0.1
       vertex -0.186186 -0.064705 0.1
       vertex -0.186186 -0.064705 0
    endloop
  endfacet
  facet normal -0.896866 -0.442302 0
    outer loop
       vertex -0.175675 -0.095671 0
       vertex -0.161211 -0.125 0
       vertex -0.161211 -0.125 0.1
    endloop
  endfacet
  facet normal -0.896866 -0.442302 0
    outer loop
       vertex -0.161211 -0.125 0.1
       vertex -0.175675 -0.095671 0.1
       vertex -0.175675 -0.095671 0
    endloop
  endfacet
  facet normal -0.831476 -0.555561 0
    outer loop
       vertex -0.161211 -0.125 0
       vertex -0.143043 -0.152191 0
       vertex -0.143043 -0.152191 0.1
    endloop
  endfacet
  facet normal -0.831476 -0.555561 0
    outer loop
       vertex -0.143043 -0.152191 0.1
       vertex -0.161211 -0.125 0.1
       vertex -0.161211 -0.125 0
    endloop
  endfacet
  facet normal -0.751817 -0.659372 0
    outer loop
       vertex -0.143043 -0.152191 0
       vertex -0.121481 -0.176776 0
       vertex -0.121481 -0.176776 0.1
    endloop
  endfacet
  facet normal -0.751817 -0.659372 0
    outer loop
       vertex -0.121481 -0.176776 0.1
       vertex -0.143043 -0.152191 0.1
       vertex -0.143043 -0.152191 0
    endloop
  endfacet
  facet normal 0.659372 -0.751817 0
    outer loop
       vertex 0.232071 -0.176776 0
       vertex 0.232071 -0.176776 0.1
       vertex 0.207486 -0.198338 0.1
    endloop
  endfacet
  facet normal 0.659372 -0.751817 0
    outer loop
       vertex 0.207486 -0.198338 0.1
       vertex 0.207486 -0.198338 0
       vertex 0.232071 -0.176776 0
    endloop
  endfacet
  facet normal 0.555561 -0.831476 0
    outer loop
       vertex 0.207486 -0.198338 0
       vertex 0.207486 -0.198338 0.1
       vertex 0.180295 -0.216506 0.1
    endloop
  endfacet
  facet normal 0.555561 -0.831476 0
    outer loop
       vertex 0.180295 -0.216506 0.1
       vertex 0.180295 -0.216506 0
       vertex 0.207486 -0.198338 0
    endloop
  endfacet
  facet normal 0.442302 -0.896866 0
    outer loop
       vertex 0.180295 -0.216506 0
       vertex 0.180295 -0.216506 0.1
       vertex 0.150966 -0.23097 0.1
    endloop
  endfacet
  facet normal 0.442302 -0.896866 0
    outer loop
       vertex 0.150966 -0.23097 0.1
       vertex 0.150966 -0.23097 0
       vertex 0.180295 -0.216506 0
    endloop
  endfacet
  facet normal 0.321425 -0.946935 0
    outer loop
       vertex 0.150966 -0.23097 0
       vertex 0.150966 -0.23097 0.1
       vertex 0.12 -0.241481 0.1
    endloop
  endfacet
  facet normal 0.321425 -0.946935 0
    outer loop
       vertex 0.12 -0.241481 0.1
       vertex 0.12 -0.241481 0
       vertex 0.150966 -0.23097 0
    endloop
  endfacet
  facet normal 0.195096 -0.980784 0
    outer loop
       vertex 0.12 -0.241481 0
       vertex 0.12 -0.241481 0.1
       vertex 0.0879268 -0.247861 0.1
    endloop
  endfacet
  facet normal 0.195096 -0.980784 0
    outer loop
       vertex 0.0879268 -0.247861 0.1
       vertex 0.0879268 -0.247861 0
       vertex 0.12 -0.241481 0
    endloop
  endfacet
  facet normal 0.0654098 -0.997858 0
    outer loop
       vertex 0.0552953 -0.25 0
       vertex 0.0879268 -0.247861 0
       vertex 0.0879268 -0.247861 0.1
    endloop
  endfacet
  facet normal 0.0654098 -0.997858 1.0893e-16
    outer loop
       vertex 0.0879268 -0.247861 0.1
       vertex 0.0552953 -0.25 0.1
       vertex 0.0552953 -0.25 0
    endloop
  endfacet
  facet normal -0.0654098 -0.997858 0
    outer loop
       vertex 0.0552953 -0.25 0.1
       vertex 0.0226638 -0.247861 0.1
       vertex 0.0226638 -0.247861 0
    endloop
  endfacet
  facet normal -0.0654098 -0.997858 -1.08928e-16
    outer loop
       vertex 0.0226638 -0.247861 0
       vertex 0.0552953 -0.25 0
       vertex 0.0552953 -0.25 0.1
    endloop
  endfacet
  facet normal -0.195096 -0.980784 0
    outer loop
       vertex 0.0226638 -0.247861 0
       vertex 0.0226638 -0.247861 0.1
       vertex -0.00940971 -0.241481 0.1
    endloop
  endfacet
  facet normal -0.195096 -0.980784 -0
    outer loop
       vertex -0.00940971 -0.241481 0.1
       vertex -0.00940971 -0.241481 0
       vertex 0.0226638 -0.247861 0
    endloop
  endfacet
  facet normal -0.321425 -0.946935 0
    outer loop
       vertex -0.00940971 -0.241481 0
       vertex -0.00940971 -0.241481 0.1
       vertex -0.0403757 -0.23097 0.1
    endloop
  endfacet
  facet normal -0.321425 -0.946935 -0
    outer loop
       vertex -0.0403757 -0.23097 0.1
       vertex -0.0403757 -0.23097 0
       vertex -0.00940971 -0.241481 0
    endloop
  endfacet
  facet normal -0.442302 -0.896866 0
    outer loop
       vertex -0.0403757 -0.23097 0
       vertex -0.0403757 -0.23097 0.1
       vertex -0.0697047 -0.216506 0.1
    endloop
  endfacet
  facet normal -0.442302 -0.896866 -0
    outer loop
       vertex -0.0697047 -0.216506 0.1
       vertex -0.0697047 -0.216506 0
       vertex -0.0403757 -0.23097 0
    endloop
  endfacet
  facet normal -0.555561 -0.831476 0
    outer loop
       vertex -0.0697047 -0.216506 0
       vertex -0.0697047 -0.216506 0.1
       vertex -0.0968957 -0.198338 0.1
    endloop
  endfacet
  facet normal -0.555561 -0.831476 -0
    outer loop
       vertex -0.0968957 -0.198338 0.1
       vertex -0.0968957 -0.198338 0
       vertex -0.0697047 -0.216506 0
    endloop
  endfacet
  facet normal -0.659372 -0.751817 0
    outer loop
       vertex -0.0968957 -0.198338 0
       vertex -0.0968957 -0.198338 0.1
       vertex -0.121481 -0.176776 0.1
    endloop
  endfacet
  facet normal -0.659372 -0.751817 -0
    outer loop
       vertex -0.121481 -0.176776 0.1
       vertex -0.121481 -0.176776 0
       vertex -0.0968957 -0.198338 0
    endloop
  endfacet
endsolid cylinder
