solid cylinder
  facet normal 0.751817 -0.659372 0
    outer loop
       vertex 0.116689 -0.176776 0
       vertex 0.138251 -0.152191 0
       vertex 0.138251 -0.152191 0.1
    endloop
  endfacet
  facet normal 0.751817 -0.659372 0
    outer loop
       vertex 0.138251 -0.152191 0.1
       vertex 0.116689 -0.176776 0.1
       vertex 0.116689 -0.176776 0
    endloop
  endfacet
  facet normal 0.831476 -0.555561 0
    outer loop
       vertex 0.138251 -0.152191 0
       vertex 0.156419 -0.125 0
       vertex 0.156419 -0.125 0.1
    endloop
  endfacet
  facet normal 0.831476 -0.555561 0
    outer loop
       vertex 0.156419 -0.125 0.1
       vertex 0.138251 -0.152191 0.1
       vertex 0.138251 -0.152191 0
    endloop
  endfacet
  facet normal 0.896866 -0.442302 0
    outer loop
       vertex 0.156419 -0.125 0
       vertex 0.170883 -0.095671 0
       vertex 0.170883 -0.095671 0.1
    endloop
  endfacet
  facet normal 0.896866 -0.442302 0
    outer loop
       vertex 0.170883 -0.095671 0.1
       vertex 0.156419 -0.125 0.1
       vertex 0.156419 -0.125 0
    endloop
  endfacet
  facet normal 0.946935 -0.321425 0
    outer loop
       vertex 0.170883 -0.095671 0
       vertex 0.181394 -0.064705 0
       vertex 0.181394 -0.064705 0.1
    endloop
  endfacet
  facet normal 0.946935 -0.321425 0
    outer loop
       vertex 0.181394 -0.064705 0.1
       vertex 0.170883 -0.095671 0.1
       vertex 0.170883 -0.095671 0
    endloop
  endfacet
  facet normal 0.980784 -0.195096 0
    outer loop
       vertex 0.181394 -0.064705 0
       vertex 0.187774 -0.0326315 0
       vertex 0.187774 -0.0326315 0.1
    endloop
  endfacet
  facet normal 0.980784 -0.195096 0
    outer loop
       vertex 0.187774 -0.0326315 0.1
       vertex 0.181394 -0.064705 0.1
       vertex 0.181394 -0.064705 0
    endloop
  endfacet
  facet normal 0.997858 -0.0654098 0
    outer loop
       vertex 0.189913 -8.32665e-17 0.1
       vertex 0.187774 -0.0326315 0.1
       vertex 0.187774 -0.0326315 0
    endloop
  endfacet
  facet normal 0.997858 -0.0654098 -1.08928e-16
    outer loop
       vertex 0.187774 -0.0326315 0
       vertex 0.189913 8.32665e-17 0
       vertex 0.189913 -8.32665e-17 0.1
    endloop
  endfacet
  facet normal 0.997858 0.0654098 0
    outer loop
       vertex 0.189913 8.32665e-17 0
       vertex 0.187774 0.0326315 0
       vertex 0.187774 0.0326315 0.1
    endloop
  endfacet
  facet normal 0.997858 0.0654098 1.08928e-16
    outer loop
       vertex 0.187774 0.0326315 0.1
       vertex 0.189913 -8.32665e-17 0.1
       vertex 0.189913 8.32665e-17 0
    endloop
  endfacet
  facet normal 0.980784 0.195096 0
    outer loop
       vertex 0.187774 0.0326315 0
       vertex 0.181394 0.064705 0
       vertex 0.181394 0.064705 0.1
    endloop
  endfacet
  facet normal 0.980784 0.195096 0
    outer loop
       vertex 0.181394 0.064705 0.1
       vertex 0.187774 0.0326315 0.1
       vertex 0.187774 0.0326315 0
    endloop
  endfacet
  facet normal 0.946935 0.321425 0
    outer loop
       vertex 0.181394 0.064705 0
       vertex 0.170883 0.095671 0
       vertex 0.170883 0.095671 0.1
    endloop
  endfacet
  facet normal 0.946935 0.321425 0
    outer loop
       vertex 0.170883 0.095671 0.1
       vertex 0.181394 0.064705 0.1
       vertex 0.181394 0.064705 0
    endloop
  endfacet
  facet normal 0.896866 0.442302 0
    outer loop
       vertex 0.170883 0.095671 0
       vertex 0.156419 0.125 0
       vertex 0.156419 0.125 0.1
    endloop
  endfacet
  facet normal 0.896866 0.442302 0
    outer loop
       vertex 0.156419 0.125 0.1
       vertex 0.170883 0.095671 0.1
       vertex 0.170883 0.095671 0
    endloop
  endfacet
  facet normal 0.831476 0.555561 0
    outer loop
       vertex 0.156419 0.125 0
       vertex 0.138251 0.152191 0
       vertex 0.138251 0.152191 0.1
    endloop
  endfacet
  facet normal 0.831476 0.555561 0
    outer loop
       vertex 0.138251 0.152191 0.1
       vertex 0.156419 0.125 0.1
       vertex 0.156419 0.125 0
    endloop
  endfacet
  facet normal 0.751817 0.659372 0
    outer loop
       vertex 0.138251 0.152191 0
       vertex 0.116689 0.176776 0
       vertex 0.116689 0.176776 0.1
    endloop
  endfacet
  facet normal 0.751817 0.659372 0
    outer loop
       vertex 0.116689 0.176776 0.1
       vertex 0.138251 0.152191 0.1
       vertex 0.138251 0.152191 0
    endloop
  endfacet
  facet normal 0.659372 0.751817 0
    outer loop
       vertex 0.116689 0.176776 0
       vertex 0.0921044 0.198338 0
       vertex 0.0921044 0.198338 0.1
    endloop
  endfacet
  facet normal 0.659372 0.751817 0
    outer loop
       vertex 0.0921044 0.198338 0.1
       vertex 0.116689 0.176776 0.1
       vertex 0.116689 0.176776 0
    endloop
  endfacet
  facet normal 0.555561 0.831476 0
    outer loop
       vertex 0.0921044 0.198338 0
       vertex 0.0649134 0.216506 0
       vertex 0.0649134 0.216506 0.1
    endloop
  endfacet
  facet normal 0.555561 0.831476 0
    outer loop
       vertex 0.0649134 0.216506 0.1
       vertex 0.0921044 0.198338 0.1
       vertex 0.0921044 0.198338 0
    endloop
  endfacet
  facet normal 0.442302 0.896866 0
    outer loop
       vertex 0.0649134 0.216506 0
       vertex 0.0355844 0.23097 0
       vertex 0.0355844 0.23097 0.1
    endloop
  endfacet
  facet normal 0.442302 0.896866 0
    outer loop
       vertex 0.0355844 0.23097 0.1
       vertex 0.0649134 0.216506 0.1
       vertex 0.0649134 0.216506 0
    endloop
  endfacet
  facet normal 0.321425 0.946935 0
    outer loop
       vertex 0.0355844 0.23097 0
       vertex 0.00461839 0.241481 0
       vertex 0.00461839 0.241481 0.1
    endloop
  endfacet
  facet normal 0.321425 0.946935 0
    outer loop
       vertex 0.00461839 0.241481 0.1
       vertex 0.0355844 0.23097 0.1
       vertex 0.0355844 0.23097 0
    endloop
  endfacet
  facet normal 0.195096 0.980784 0
    outer loop
       vertex 0.00461839 0.241481 0
       vertex -0.0274551 0.247861 0
       vertex -0.0274551 0.247861 0.1
    endloop
  endfacet
  facet normal 0.195096 0.980784 0
    outer loop
       vertex -0.0274551 0.247861 0.1
       vertex 0.00461839 0.241481 0.1
       vertex 0.00461839 0.241481 0
    endloop
  endfacet
  facet normal 0.0654098 0.997858 0
    outer loop
       vertex -0.0600866 0.25 0.1
       vertex -0.0274551 0.247861 0.1
       vertex -0.0274551 0.247861 0
    endloop
  endfacet
  facet normal 0.0654098 0.997858 -1.08928e-16
    outer loop
       vertex -0.0274551 0.247861 0
       vertex -0.0600866 0.25 0
       vertex -0.0600866 0.25 0.1
    endloop
  endfacet
  facet normal -0.0654098 0.997858 0
    outer loop
       vertex -0.0600866 0.25 0
       vertex -0.0927181 0.247861 0
       vertex -0.0927181 0.247861 0.1
    endloop
  endfacet
  facet normal -0.0654098 0.997858 1.08928e-16
    outer loop
       vertex -0.0927181 0.247861 0.1
       vertex -0.0600866 0.25 0.1
       vertex -0.0600866 0.25 0
    endloop
  endfacet
  facet normal -0.195096 0.980784 0
    outer loop
       vertex -0.0927181 0.247861 0
       vertex -0.124792 0.241481 0
       vertex -0.124792 0.241481 0.1
    endloop
  endfacet
  facet normal -0.195096 0.980784 0
    outer loop
       vertex -0.124792 0.241481 0.1
       vertex -0.0927181 0.247861 0.1
       vertex -0.0927181 0.247861 0
    endloop
  endfacet
  facet normal -0.321425 0.946935 0
    outer loop
       vertex -0.124792 0.241481 0
       vertex -0.155758 0.23097 0
       vertex -0.155758 0.23097 0.1
    endloop
  endfacet
  facet normal -0.321425 0.946935 0
    outer loop
       vertex -0.155758 0.23097 0.1
       vertex -0.124792 0.241481 0.1
       vertex -0.124792 0.241481 0
    endloop
  endfacet
  facet normal -0.442302 0.896866 0
    outer loop
       vertex -0.155758 0.23097 0
       vertex -0.185087 0.216506 0
       vertex -0.185087 0.216506 0.1
    endloop
  endfacet
  facet normal -0.442302 0.896866 0
    outer loop
       vertex -0.185087 0.216506 0.1
       vertex -0.155758 0.23097 0.1
       vertex -0.155758 0.23097 0
    endloop
  endfacet
  facet normal -0.555561 0.831476 0
    outer loop
       vertex -0.185087 0.216506 0
       vertex -0.212278 0.198338 0
       vertex -0.212278 0.198338 0.1
    endloop
  endfacet
  facet normal -0.555561 0.831476 0
    outer loop
       vertex -0.212278 0.198338 0.1
       vertex -0.185087 0.216506 0.1
       vertex -0.185087 0.216506 0
    endloop
  endfacet
  facet normal -0.659372 0.751817 0
    outer loop
       vertex -0.212278 0.198338 0
       vertex -0.236863 0.176776 0
       vertex -0.236863 0.176776 0.1
    endloop
  endfacet
  facet normal -0.659372 0.751817 0
    outer loop
       vertex -0.236863 0.176776 0.1
       vertex -0.212278 0.198338 0.1
       vertex -0.212278 0.198338 0
    endloop
  endfacet
  facet normal -0.751817 0.659372 0
    outer loop
       vertex -0.236863 0.176776 0
       vertex -0.258425 0.152191 0
       vertex -0.258425 0.152191 0.1
    endloop
  endfacet
  facet normal -0.751817 0.659372 0
    outer loop
       vertex -0.258425 0.152191 0.1
       vertex -0.236863 0.176776 0.1
       vertex -0.236863 0.176776 0
    endloop
  endfacet
  facet normal -0.831476 0.555561 0
    outer loop
       vertex -0.258425 0.152191 0
       vertex -0.276593 0.125 0
       vertex -0.276593 0.125 0.1
    endloop
  endfacet
  facet normal -0.831476 0.555561 0
    outer loop
       vertex -0.276593 0.125 0.1
       vertex -0.258425 0.152191 0.1
       vertex -0.258425 0.152191 0
    endloop
  endfacet
  facet normal -0.896866 0.442302 0
    outer loop
       vertex -0.276593 0.125 0
       vertex -0.291057 0.095671 0
       vertex -0.291057 0.095671 0.1
    endloop
  endfacet
  facet normal -0.896866 0.442302 0
    outer loop
       vertex -0.291057 0.095671 0.1
       vertex -0.276593 0.125 0.1
       vertex -0.276593 0.125 0
    endloop
  endfacet
  facet normal -0.946935 0.321425 0
    outer loop
       vertex -0.291057 0.095671 0
       vertex -0.301568 0.064705 0
       vertex -0.301568 0.064705 0.1
    endloop
  endfacet
  facet normal -0.946935 0.321425 0
    outer loop
       vertex -0.301568 0.064705 0.1
       vertex -0.291057 0.095671 0.1
       vertex -0.291057 0.095671 0
    endloop
  endfacet
  facet normal -0.980784 0.195096 0
    outer loop
       vertex -0.301568 0.064705 0
       vertex -0.307948 0.0326315 0
       vertex -0.307948 0.0326315 0.1
    endloop
  endfacet
  facet normal -0.980784 0.195096 0
    outer loop
       vertex -0.307948 0.0326315 0.1
       vertex -0.301568 0.064705 0.1
       vertex -0.301568 0.064705 0
    endloop
  endfacet
  facet normal -0.997858 0.0654098 0
    outer loop
       vertex -0.310087 8.32665e-17 0.1
       vertex -0.307948 0.0326315 0.1
       vertex -0.307948 0.0326315 0
    endloop
  endfacet
  facet normal -0.997858 0.0654098 -1.08928e-16
    outer loop
       vertex -0.307948 0.0326315 0
       vertex -0.310087 -8.32665e-17 0
       vertex -0.310087 8.32665e-17 0.1
    endloop
  endfacet
  facet normal -0.997858 -0.0654098 0
    outer loop
       vertex -0.310087 -8.32665e-17 0
       vertex -0.307948 -0.0326315 0
       vertex -0.307948 -0.0326315 0.1
    endloop
  endfacet
  facet normal -0.997858 -0.0654098 1.08928e-16
    outer loop
       vertex -0.307948 -0.0326315 0.1
       vertex -0.310087 8.32665e-17 0.1
       vertex -0.310087 -8.32665e-17 0
    endloop
  endfacet
  facet normal -0.980784 -0.195096 0
    outer loop
       vertex -0.307948 -0.0326315 0
       vertex -0.301568 -0.064705 0
       vertex -0.301568 -0.064705 0.1
    endloop
  endfacet
  facet normal -0.980784 -0.195096 0
    outer loop
       vertex -0.301568 -0.064705 0.1
       vertex -0.307948 -0.0326315 0.1
       vertex -0.307948 -0.0326315 0
    endloop
  endfacet
  facet normal -0.946935 -0.321425 0
    outer loop
       vertex -0.301568 -0.064705 0
       vertex -0.291057 -0.095671 0
       vertex -0.291057 -0.095671 0.1
    endloop
  endfacet
  facet normal -0.946935 -0.321425 0
    outer loop
       vertex -0.291057 -0.095671 0.1
       vertex -0.301568 -0.064705 0.1
       vertex -0.301568 -0.064705 0
    endloop
  endfacet
  facet normal -0.896866 -0.442302 0
    outer loop
       vertex -0.291057 -0.095671 0
       vertex -0.276593 -0.125 0
       vertex -0.276593 -0.125 0.1
    endloop
  endfacet
  facet normal -0.896866 -0.442302 0
    outer loop
       vertex -0.276593 -0.125 0.1
       vertex -0.291057 -0.095671 0.1
       vertex -0.291057 -0.095671 0
    endloop
  endfacet
  facet normal -0.831476 -0.555561 0
    outer loop
       vertex -0.276593 -0.125 0
       vertex -0.258425 -0.152191 0
       vertex -0.258425 -0.152191 0.1
    endloop
  endfacet
  facet normal -0.831476 -0.555561 0
    outer loop
       vertex -0.258425 -0.152191 0.1
       vertex -0.276593 -0.125 0.1
       vertex -0.276593 -0.125 0
    endloop
  endfacet
  facet normal -0.751817 -0.659372 0
    outer loop
       vertex -0.258425 -0.152191 0
       vertex -0.236863 -0.176776 0
       vertex -0.236863 -0.176776 0.1
    endloop
  endfacet
  facet normal -0.751817 -0.659372 0
    outer loop
       vertex -0.236863 -0.176776 0.1
       vertex -0.258425 -0.152191 0.1
       vertex -0.258425 -0.152191 0
    endloop
  endfacet
  facet normal 0.659372 -0.751817 0
    outer loop
       vertex 0.116689 -0.176776 0
       vertex 0.116689 -0.176776 0.1
       vertex 0.0921044 -0.198338 0.1
    endloop
  endfacet
  facet normal 0.659372 -0.751817 0
    outer loop
       vertex 0.0921044 -0.198338 0.1
       vertex 0.0921044 -0.198338 0
       vertex 0.116689 -0.176776 0
    endloop
  endfacet
  facet normal 0.555561 -0.831476 0
    outer loop
       vertex 0.0921044 -0.198338 0
       vertex 0.0921044 -0.198338 0.1
       vertex 0.0649134 -0.216506 0.1
    endloop
  endfacet
  facet normal 0.555561 -0.831476 0
    outer loop
       vertex 0.0649134 -0.216506 0.1
       vertex 0.0649134 -0.216506 0
       vertex 0.0921044 -0.198338 0
    endloop
  endfacet
  facet normal 0.442302 -0.896866 0
    outer loop
       vertex 0.0649134 -0.216506 0
       vertex 0.0649134 -0.216506 0.1
       vertex 0.0355844 -0.23097 0.1
    endloop
  endfacet
  facet normal 0.442302 -0.896866 0
    outer loop
       vertex 0.0355844 -0.23097 0.1
       vertex 0.0355844 -0.23097 0
       vertex 0.0649134 -0.216506 0
    endloop
  endfacet
  facet normal 0.321425 -0.946935 0
    outer loop
       vertex 0.0355844 -0.23097 0
       vertex 0.0355844 -0.23097 0.1
       vertex 0.00461839 -0.241481 0.1
    endloop
  endfacet
  facet normal 0.321425 -0.946935 0
    outer loop
       vertex 0.00461839 -0.241481 0.1
       vertex 0.00461839 -0.241481 0
       vertex 0.0355844 -0.23097 0
    endloop
  endfacet
  facet normal 0.195096 -0.980784 0
    outer loop
       vertex 0.00461839 -0.241481 0
       vertex 0.00461839 -0.241481 0.1
       vertex -0.0274551 -0.247861 0.1
    endloop
  endfacet
  facet normal 0.195096 -0.980784 0
    outer loop
       vertex -0.0274551 -0.247861 0.1
       vertex -0.0274551 -0.247861 0
       vertex 0.00461839 -0.241481 0
    endloop
  endfacet
  facet normal 0.0654098 -0.997858 0
    outer loop
       vertex -0.0600866 -0.25 0
       vertex -0.0274551 -0.247861 0
       vertex -0.0274551 -0.247861 0.1
    endloop
  endfacet
  facet normal 0.0654098 -0.997858 1.08928e-16
    outer loop
       vertex -0.0274551 -0.247861 0.1
       vertex -0.0600866 -0.25 0.1
       vertex -0.0600866 -0.25 0
    endloop
  endfacet
  facet normal -0.0654098 -0.997858 0
    outer loop
       vertex -0.0600866 -0.25 0.1
       vertex -0.0927181 -0.247861 0.1
       vertex -0.0927181 -0.247861 0
    endloop
  endfacet
  facet normal -0.0654098 -0.997858 -1.08928e-16
    outer loop
       vertex -0.0927181 -0.247861 0
       vertex -0.0600866 -0.25 0
       vertex -0.0600866 -0.25 0.1
    endloop
  endfacet
  facet normal -0.195096 -0.980784 0
    outer loop
       vertex -0.0927181 -0.247861 0
       vertex -0.0927181 -0.247861 0.1
       vertex -0.124792 -0.241481 0.1
    endloop
  endfacet
  facet normal -0.195096 -0.980784 -0
    outer loop
       vertex -0.124792 -0.241481 0.1
       vertex -0.124792 -0.241481 0
       vertex -0.0927181 -0.247861 0
    endloop
  endfacet
  facet normal -0.321425 -0.946935 0
    outer loop
       vertex -0.124792 -0.241481 0
       vertex -0.124792 -0.241481 0.1
       vertex -0.155758 -0.23097 0.1
    endloop
  endfacet
  facet normal -0.321425 -0.946935 -0
    outer loop
       vertex -0.155758 -0.23097 0.1
       vertex -0.155758 -0.23097 0
       vertex -0.124792 -0.241481 0
    endloop
  endfacet
  facet normal -0.442302 -0.896866 0
    outer loop
       vertex -0.155758 -0.23097 0
       vertex -0.155758 -0.23097 0.1
       vertex -0.185087 -0.216506 0.1
    endloop
  endfacet
  facet normal -0.442302 -0.896866 -0
    outer loop
       vertex -0.185087 -0.216506 0.1
       vertex -0.185087 -0.216506 0
       vertex -0.155758 -0.23097 0
    endloop
  endfacet
  facet normal -0.555561 -0.831476 0
    outer loop
       vertex -0.185087 -0.216506 0
       vertex -0.185087 -0.216506 0.1
       vertex -0.212278 -0.198338 0.1
    endloop
  endfacet
  facet normal -0.555561 -0.831476 -0
    outer loop
       vertex -0.212278 -0.198338 0.1
       vertex -0.212278 -0.198338 0
       vertex -0.185087 -0.216506 0
    endloop
  endfacet
  facet normal -0.659372 -0.751817 0
    outer loop
       vertex -0.212278 -0.198338 0
       vertex -0.212278 -0.198338 0.1
       vertex -0.236863 -0.176776 0.1
    endloop
  endfacet
  facet normal -0.659372 -0.751817 -0
    outer loop
       vertex -0.236863 -0.176776 0.1
       vertex -0.236863 -0.176776 0
       vertex -0.212278 -0.198338 0
    endloop
  endfacet
endsolid cylinder
