solid cylinder
  facet normal 0.751817 -0.659372 0
    outer loop
       vertex 0.384909 -0.176776 0
       vertex 0.406471 -0.152191 0
       vertex 0.406471 -0.152191 0.1
    endloop
  endfacet
  facet normal 0.751817 -0.659372 0
    outer loop
       vertex 0.406471 -0.152191 0.1
       vertex 0.384909 -0.176776 0.1
       vertex 0.384909 -0.176776 0
    endloop
  endfacet
  facet normal 0.831476 -0.555561 0
    outer loop
       vertex 0.406471 -0.152191 0
       vertex 0.424639 -0.125 0
       vertex 0.424639 -0.125 0.1
    endloop
  endfacet
  facet normal 0.831476 -0.555561 0
    outer loop
       vertex 0.424639 -0.125 0.1
       vertex 0.406471 -0.152191 0.1
       vertex 0.406471 -0.152191 0
    endloop
  endfacet
  facet normal 0.896866 -0.442302 0
    outer loop
       vertex 0.424639 -0.125 0
       vertex 0.439103 -0.095671 0
       vertex 0.439103 -0.095671 0.1
    endloop
  endfacet
  facet normal 0.896866 -0.442302 0
    outer loop
       vertex 0.439103 -0.095671 0.1
       vertex 0.424639 -0.125 0.1
       vertex 0.424639 -0.125 0
    endloop
  endfacet
  facet normal 0.946935 -0.321425 0
    outer loop
       vertex 0.439103 -0.095671 0
       vertex 0.449614 -0.064705 0
       vertex 0.449614 -0.064705 0.1
    endloop
  endfacet
  facet normal 0.946935 -0.321425 0
    outer loop
       vertex 0.449614 -0.064705 0.1
       vertex 0.439103 -0.095671 0.1
       vertex 0.439103 -0.095671 0
    endloop
  endfacet
  facet normal 0.980784 -0.195096 0
    outer loop
       vertex 0.449614 -0.064705 0
       vertex 0.455994 -0.0326315 0
       vertex 0.455994 -0.0326315 0.1
    endloop
  endfacet
  facet normal 0.980784 -0.195096 0
    outer loop
       vertex 0.455994 -0.0326315 0.1
       vertex 0.449614 -0.064705 0.1
       vertex 0.449614 -0.064705 0
    endloop
  endfacet
  facet normal 0.997858 -0.0654098 0
    outer loop
       vertex 0.458133 -8.32665e-17 0.1
       vertex 0.455994 -0.0326315 0.1
       vertex 0.455994 -0.0326315 0
    endloop
  endfacet
  facet normal 0.997858 -0.0654098 -1.08928e-16
    outer loop
       vertex 0.455994 -0.0326315 0
       vertex 0.458133 8.32665e-17 0
       vertex 0.458133 -8.32665e-17 0.1
    endloop
  endfacet
  facet normal 0.997858 0.0654098 0
    outer loop
       vertex 0.458133 8.32665e-17 0
       vertex 0.455994 0.0326315 0
       vertex 0.455994 0.0326315 0.1
    endloop
  endfacet
  facet normal 0.997858 0.0654098 1.08928e-16
    outer loop
       vertex 0.455994 0.0326315 0.1
       vertex 0.458133 -8.32665e-17 0.1
       vertex 0.458133 8.32665e-17 0
    endloop
  endfacet
  facet normal 0.980784 0.195096 0
    outer loop
       vertex 0.455994 0.0326315 0
       vertex 0.449614 0.064705 0
       vertex 0.449614 0.064705 0.1
    endloop
  endfacet
  facet normal 0.980784 0.195096 0
    outer loop
       vertex 0.449614 0.064705 0.1
       vertex 0.455994 0.0326315 0.1
       vertex 0.455994 0.0326315 0
    endloop
  endfacet
  facet normal 0.946935 0.321425 0
    outer loop
       vertex 0.449614 0.064705 0
       vertex 0.439103 0.095671 0
       vertex 0.439103 0.095671 0.1
    endloop
  endfacet
  facet normal 0.946935 0.321425 0
    outer loop
       vertex 0.439103 0.095671 0.1
       vertex 0.449614 0.064705 0.1
       vertex 0.449614 0.064705 0
    endloop
  endfacet
  facet normal 0.896866 0.442302 0
    outer loop
       vertex 0.439103 0.095671 0
       vertex 0.424639 0.125 0
       vertex 0.424639 0.125 0.1
    endloop
  endfacet
  facet normal 0.896866 0.442302 0
    outer loop
       vertex 0.424639 0.125 0.1
       vertex 0.439103 0.095671 0.1
       vertex 0.439103 0.095671 0
    endloop
  endfacet
  facet normal 0.831476 0.555561 0
    outer loop
       vertex 0.424639 0.125 0
       vertex 0.406471 0.152191 0
       vertex 0.406471 0.152191 0.1
    endloop
  endfacet
  facet normal 0.831476 0.555561 0
    outer loop
       vertex 0.406471 0.152191 0.1
       vertex 0.424639 0.125 0.1
       vertex 0.424639 0.125 0
    endloop
  endfacet
  facet normal 0.751817 0.659372 0
    outer loop
       vertex 0.406471 0.152191 0
       vertex 0.384909 0.176776 0
       vertex 0.384909 0.176776 0.1
    endloop
  endfacet
  facet normal 0.751817 0.659372 0
    outer loop
       vertex 0.384909 0.176776 0.1
       vertex 0.406471 0.152191 0.1
       vertex 0.406471 0.152191 0
    endloop
  endfacet
  facet normal 0.659372 0.751817 0
    outer loop
       vertex 0.384909 0.176776 0
       vertex 0.360324 0.198338 0
       vertex 0.360324 0.198338 0.1
    endloop
  endfacet
  facet normal 0.659372 0.751817 0
    outer loop
       vertex 0.360324 0.198338 0.1
       vertex 0.384909 0.176776 0.1
       vertex 0.384909 0.176776 0
    endloop
  endfacet
  facet normal 0.555561 0.831476 0
    outer loop
       vertex 0.360324 0.198338 0
       vertex 0.333133 0.216506 0
       vertex 0.333133 0.216506 0.1
    endloop
  endfacet
  facet normal 0.555561 0.831476 0
    outer loop
       vertex 0.333133 0.216506 0.1
       vertex 0.360324 0.198338 0.1
       vertex 0.360324 0.198338 0
    endloop
  endfacet
  facet normal 0.442302 0.896866 0
    outer loop
       vertex 0.333133 0.216506 0
       vertex 0.303804 0.23097 0
       vertex 0.303804 0.23097 0.1
    endloop
  endfacet
  facet normal 0.442302 0.896866 0
    outer loop
       vertex 0.303804 0.23097 0.1
       vertex 0.333133 0.216506 0.1
       vertex 0.333133 0.216506 0
    endloop
  endfacet
  facet normal 0.321425 0.946935 0
    outer loop
       vertex 0.303804 0.23097 0
       vertex 0.272838 0.241481 0
       vertex 0.272838 0.241481 0.1
    endloop
  endfacet
  facet normal 0.321425 0.946935 0
    outer loop
       vertex 0.272838 0.241481 0.1
       vertex 0.303804 0.23097 0.1
       vertex 0.303804 0.23097 0
    endloop
  endfacet
  facet normal 0.195096 0.980784 0
    outer loop
       vertex 0.272838 0.241481 0
       vertex 0.240765 0.247861 0
       vertex 0.240765 0.247861 0.1
    endloop
  endfacet
  facet normal 0.195096 0.980784 0
    outer loop
       vertex 0.240765 0.247861 0.1
       vertex 0.272838 0.241481 0.1
       vertex 0.272838 0.241481 0
    endloop
  endfacet
  facet normal 0.0654098 0.997858 0
    outer loop
       vertex 0.208133 0.25 0.1
       vertex 0.240765 0.247861 0.1
       vertex 0.240765 0.247861 0
    endloop
  endfacet
  facet normal 0.0654098 0.997858 -1.0893e-16
    outer loop
       vertex 0.240765 0.247861 0
       vertex 0.208133 0.25 0
       vertex 0.208133 0.25 0.1
    endloop
  endfacet
  facet normal -0.0654098 0.997858 0
    outer loop
       vertex 0.208133 0.25 0
       vertex 0.175502 0.247861 0
       vertex 0.175502 0.247861 0.1
    endloop
  endfacet
  facet normal -0.0654098 0.997858 1.0893e-16
    outer loop
       vertex 0.175502 0.247861 0.1
       vertex 0.208133 0.25 0.1
       vertex 0.208133 0.25 0
    endloop
  endfacet
  facet normal -0.195096 0.980784 0
    outer loop
       vertex 0.175502 0.247861 0
       vertex 0.143428 0.241481 0
       vertex 0.143428 0.241481 0.1
    endloop
  endfacet
  facet normal -0.195096 0.980784 0
    outer loop
       vertex 0.143428 0.241481 0.1
       vertex 0.175502 0.247861 0.1
       vertex 0.175502 0.247861 0
    endloop
  endfacet
  facet normal -0.321425 0.946935 0
    outer loop
       vertex 0.143428 0.241481 0
       vertex 0.112462 0.23097 0
       vertex 0.112462 0.23097 0.1
    endloop
  endfacet
  facet normal -0.321425 0.946935 0
    outer loop
       vertex 0.112462 0.23097 0.1
       vertex 0.143428 0.241481 0.1
       vertex 0.143428 0.241481 0
    endloop
  endfacet
  facet normal -0.442302 0.896866 0
    outer loop
       vertex 0.112462 0.23097 0
       vertex 0.0831332 0.216506 0
       vertex 0.0831332 0.216506 0.1
    endloop
  endfacet
  facet normal -0.442302 0.896866 0
    outer loop
       vertex 0.0831332 0.216506 0.1
       vertex 0.112462 0.23097 0.1
       vertex 0.112462 0.23097 0
    endloop
  endfacet
  facet normal -0.555561 0.831476 0
    outer loop
       vertex 0.0831332 0.216506 0
       vertex 0.0559422 0.198338 0
       vertex 0.0559422 0.198338 0.1
    endloop
  endfacet
  facet normal -0.555561 0.831476 0
    outer loop
       vertex 0.0559422 0.198338 0.1
       vertex 0.0831332 0.216506 0.1
       vertex 0.0831332 0.216506 0
    endloop
  endfacet
  facet normal -0.659372 0.751817 0
    outer loop
       vertex 0.0559422 0.198338 0
       vertex 0.0313572 0.176776 0
       vertex 0.0313572 0.176776 0.1
    endloop
  endfacet
  facet normal -0.659372 0.751817 0
    outer loop
       vertex 0.0313572 0.176776 0.1
       vertex 0.0559422 0.198338 0.1
       vertex 0.0559422 0.198338 0
    endloop
  endfacet
  facet normal -0.751817 0.659372 0
    outer loop
       vertex 0.0313572 0.176776 0
       vertex 0.0097952 0.152191 0
       vertex 0.0097952 0.152191 0.1
    endloop
  endfacet
  facet normal -0.751817 0.659372 0
    outer loop
       vertex 0.0097952 0.152191 0.1
       vertex 0.0313572 0.176776 0.1
       vertex 0.0313572 0.176776 0
    endloop
  endfacet
  facet normal -0.831476 0.555561 0
    outer loop
       vertex 0.0097952 0.152191 0
       vertex -0.0083728 0.125 0
       vertex -0.0083728 0.125 0.1
    endloop
  endfacet
  facet normal -0.831476 0.555561 0
    outer loop
       vertex -0.0083728 0.125 0.1
       vertex 0.0097952 0.152191 0.1
       vertex 0.0097952 0.152191 0
    endloop
  endfacet
  facet normal -0.896866 0.442302 0
    outer loop
       vertex -0.0083728 0.125 0
       vertex -0.0228368 0.095671 0
       vertex -0.0228368 0.095671 0.1
    endloop
  endfacet
  facet normal -0.896866 0.442302 0
    outer loop
       vertex -0.0228368 0.095671 0.1
       vertex -0.0083728 0.125 0.1
       vertex -0.0083728 0.125 0
    endloop
  endfacet
  facet normal -0.946935 0.321425 0
    outer loop
       vertex -0.0228368 0.095671 0
       vertex -0.0333478 0.064705 0
       vertex -0.0333478 0.064705 0.1
    endloop
  endfacet
  facet normal -0.946935 0.321425 0
    outer loop
       vertex -0.0333478 0.064705 0.1
       vertex -0.0228368 0.095671 0.1
       vertex -0.0228368 0.095671 0
    endloop
  endfacet
  facet normal -0.980784 0.195096 0
    outer loop
       vertex -0.0333478 0.064705 0
       vertex -0.0397278 0.0326315 0
       vertex -0.0397278 0.0326315 0.1
    endloop
  endfacet
  facet normal -0.980784 0.195096 0
    outer loop
       vertex -0.0397278 0.0326315 0.1
       vertex -0.0333478 0.064705 0.1
       vertex -0.0333478 0.064705 0
    endloop
  endfacet
  facet normal -0.997858 0.0654098 0
    outer loop
       vertex -0.0418668 8.32665e-17 0.1
       vertex -0.0397278 0.0326315 0.1
       vertex -0.0397278 0.0326315 0
    endloop
  endfacet
  facet normal -0.997858 0.0654098 -1.08928e-16
    outer loop
       vertex -0.0397278 0.0326315 0
       vertex -0.0418668 -8.32665e-17 0
       vertex -0.0418668 8.32665e-17 0.1
    endloop
  endfacet
  facet normal -0.997858 -0.0654098 0
    outer loop
       vertex -0.0418668 -8.32665e-17 0
       vertex -0.0397278 -0.0326315 0
       vertex -0.0397278 -0.0326315 0.1
    endloop
  endfacet
  facet normal -0.997858 -0.0654098 1.08928e-16
    outer loop
       vertex -0.0397278 -0.0326315 0.1
       vertex -0.0418668 8.32665e-17 0.1
       vertex -0.0418668 -8.32665e-17 0
    endloop
  endfacet
  facet normal -0.980784 -0.195096 0
    outer loop
       vertex -0.0397278 -0.0326315 0
       vertex -0.0333478 -0.064705 0
       vertex -0.0333478 -0.064705 0.1
    endloop
  endfacet
  facet normal -0.980784 -0.195096 0
    outer loop
       vertex -0.0333478 -0.064705 0.1
       vertex -0.0397278 -0.0326315 0.1
       vertex -0.0397278 -0.0326315 0
    endloop
  endfacet
  facet normal -0.946935 -0.321425 0
    outer loop
       vertex -0.0333478 -0.064705 0
       vertex -0.0228368 -0.095671 0
       vertex -0.0228368 -0.095671 0.1
    endloop
  endfacet
  facet normal -0.946935 -0.321425 0
    outer loop
       vertex -0.0228368 -0.095671 0.1
       vertex -0.0333478 -0.064705 0.1
       vertex -0.0333478 -0.064705 0
    endloop
  endfacet
  facet normal -0.896866 -0.442302 0
    outer loop
       vertex -0.0228368 -0.095671 0
       vertex -0.0083728 -0.125 0
       vertex -0.0083728 -0.125 0.1
    endloop
  endfacet
  facet normal -0.896866 -0.442302 0
    outer loop
       vertex -0.0083728 -0.125 0.1
       vertex -0.0228368 -0.095671 0.1
       vertex -0.0228368 -0.095671 0
    endloop
  endfacet
  facet normal -0.831476 -0.555561 0
    outer loop
       vertex -0.0083728 -0.125 0
       vertex 0.0097952 -0.152191 0
       vertex 0.0097952 -0.152191 0.1
    endloop
  endfacet
  facet normal -0.831476 -0.555561 0
    outer loop
       vertex 0.0097952 -0.152191 0.1
       vertex -0.0083728 -0.125 0.1
       vertex -0.0083728 -0.125 0
    endloop
  endfacet
  facet normal -0.751817 -0.659372 0
    outer loop
       vertex 0.0097952 -0.152191 0
       vertex 0.0313572 -0.176776 0
       vertex 0.0313572 -0.176776 0.1
    endloop
  endfacet
  facet normal -0.751817 -0.659372 0
    outer loop
       vertex 0.0313572 -0.176776 0.1
       vertex 0.0097952 -0.152191 0.1
       vertex 0.0097952 -0.152191 0
    endloop
  endfacet
  facet normal 0.659372 -0.751817 0
    outer loop
       vertex 0.384909 -0.176776 0
       vertex 0.384909 -0.176776 0.1
       vertex 0.360324 -0.198338 0.1
    endloop
  endfacet
  facet normal 0.659372 -0.751817 0
    outer loop
       vertex 0.360324 -0.198338 0.1
       vertex 0.360324 -0.198338 0
       vertex 0.384909 -0.176776 0
    endloop
  endfacet
  facet normal 0.555561 -0.831476 0
    outer loop
       vertex 0.360324 -0.198338 0
       vertex 0.360324 -0.198338 0.1
       vertex 0.333133 -0.216506 0.1
    endloop
  endfacet
  facet normal 0.555561 -0.831476 0
    outer loop
       vertex 0.333133 -0.216506 0.1
       vertex 0.333133 -0.216506 0
       vertex 0.360324 -0.198338 0
    endloop
  endfacet
  facet normal 0.442302 -0.896866 0
    outer loop
       vertex 0.333133 -0.216506 0
       vertex 0.333133 -0.216506 0.1
       vertex 0.303804 -0.23097 0.1
    endloop
  endfacet
  facet normal 0.442302 -0.896866 0
    outer loop
       vertex 0.303804 -0.23097 0.1
       vertex 0.303804 -0.23097 0
       vertex 0.333133 -0.216506 0
    endloop
  endfacet
  facet normal 0.321425 -0.946935 0
    outer loop
       vertex 0.303804 -0.23097 0
       vertex 0.303804 -0.23097 0.1
       vertex 0.272838 -0.241481 0.1
    endloop
  endfacet
  facet normal 0.321425 -0.946935 0
    outer loop
       vertex 0.272838 -0.241481 0.1
       vertex 0.272838 -0.241481 0
       vertex 0.303804 -0.23097 0
    endloop
  endfacet
  facet normal 0.195096 -0.980784 0
    outer loop
       vertex 0.272838 -0.241481 0
       vertex 0.272838 -0.241481 0.1
       vertex 0.240765 -0.247861 0.1
    endloop
  endfacet
  facet normal 0.195096 -0.980784 0
    outer loop
       vertex 0.240765 -0.247861 0.1
       vertex 0.240765 -0.247861 0
       vertex 0.272838 -0.241481 0
    endloop
  endfacet
  facet normal 0.0654098 -0.997858 0
    outer loop
       vertex 0.208133 -0.25 0
       vertex 0.240765 -0.247861 0
       vertex 0.240765 -0.247861 0.1
    endloop
  endfacet
  facet normal 0.0654098 -0.997858 1.0893e-16
    outer loop
       vertex 0.240765 -0.247861 0.1
       vertex 0.208133 -0.25 0.1
       vertex 0.208133 -0.25 0
    endloop
  endfacet
  facet normal -0.0654098 -0.997858 0
    outer loop
       vertex 0.208133 -0.25 0.1
       vertex 0.175502 -0.247861 0.1
       vertex 0.175502 -0.247861 0
    endloop
  endfacet
  facet normal -0.0654098 -0.997858 -1.0893e-16
    outer loop
       vertex 0.175502 -0.247861 0
       vertex 0.208133 -0.25 0
       vertex 0.208133 -0.25 0.1
    endloop
  endfacet
  facet normal -0.195096 -0.980784 0
    outer loop
       vertex 0.175502 -0.247861 0
       vertex 0.175502 -0.247861 0.1
       vertex 0.143428 -0.241481 0.1
    endloop
  endfacet
  facet normal -0.195096 -0.980784 -0
    outer loop
       vertex 0.143428 -0.241481 0.1
       vertex 0.143428 -0.241481 0
       vertex 0.175502 -0.247861 0
    endloop
  endfacet
  facet normal -0.321425 -0.946935 0
    outer loop
       vertex 0.143428 -0.241481 0
       vertex 0.143428 -0.241481 0.1
       vertex 0.112462 -0.23097 0.1
    endloop
  endfacet
  facet normal -0.321425 -0.946935 -0
    outer loop
       vertex 0.112462 -0.23097 0.1
       vertex 0.112462 -0.23097 0
       vertex 0.143428 -0.241481 0
    endloop
  endfacet
  facet normal -0.442302 -0.896866 0
    outer loop
       vertex 0.112462 -0.23097 0
       vertex 0.112462 -0.23097 0.1
       vertex 0.0831332 -0.216506 0.1
    endloop
  endfacet
  facet normal -0.442302 -0.896866 -0
    outer loop
       vertex 0.0831332 -0.216506 0.1
       vertex 0.0831332 -0.216506 0
       vertex 0.112462 -0.23097 0
    endloop
  endfacet
  facet normal -0.555561 -0.831476 0
    outer loop
       vertex 0.0831332 -0.216506 0
       vertex 0.0831332 -0.216506 0.1
       vertex 0.0559422 -0.198338 0.1
    endloop
  endfacet
  facet normal -0.555561 -0.831476 -0
    outer loop
       vertex 0.0559422 -0.198338 0.1
       vertex 0.0559422 -0.198338 0
       vertex 0.0831332 -0.216506 0
    endloop
  endfacet
  facet normal -0.659372 -0.751817 0
    outer loop
       vertex 0.0559422 -0.198338 0
       vertex 0.0559422 -0.198338 0.1
       vertex 0.0313572 -0.176776 0.1
    endloop
  endfacet
  facet normal -0.659372 -0.751817 -0
    outer loop
       vertex 0.0313572 -0.176776 0.1
       vertex 0.0313572 -0.176776 0
       vertex 0.0559422 -0.198338 0
    endloop
  endfacet
endsolid cylinder
