solid cylinder
  facet normal 0.751817 -0.659372 0
    outer loop
       vertex -0.0484922 -0.176776 0
       vertex -0.0269302 -0.152191 0
       vertex -0.0269302 -0.152191 0.1
    endloop
  endfacet
  facet normal 0.751817 -0.659372 0
    outer loop
       vertex -0.0269302 -0.152191 0.1
       vertex -0.0484922 -0.176776 0.1
       vertex -0.0484922 -0.176776 0
    endloop
  endfacet
  facet normal 0.831476 -0.555561 0
    outer loop
       vertex -0.0269302 -0.152191 0
       vertex -0.00876222 -0.125 0
       vertex -0.00876222 -0.125 0.1
    endloop
  endfacet
  facet normal 0.831476 -0.555561 0
    outer loop
       vertex -0.00876222 -0.125 0.1
       vertex -0.0269302 -0.152191 0.1
       vertex -0.0269302 -0.152191 0
    endloop
  endfacet
  facet normal 0.896866 -0.442302 0
    outer loop
       vertex -0.00876222 -0.125 0
       vertex 0.00570178 -0.095671 0
       vertex 0.00570178 -0.095671 0.1
    endloop
  endfacet
  facet normal 0.896866 -0.442302 0
    outer loop
       vertex 0.00570178 -0.095671 0.1
       vertex -0.00876222 -0.125 0.1
       vertex -0.00876222 -0.125 0
    endloop
  endfacet
  facet normal 0.946935 -0.321425 0
    outer loop
       vertex 0.00570178 -0.095671 0
       vertex 0.0162128 -0.064705 0
       vertex 0.0162128 -0.064705 0.1
    endloop
  endfacet
  facet normal 0.946935 -0.321425 0
    outer loop
       vertex 0.0162128 -0.064705 0.1
       vertex 0.00570178 -0.095671 0.1
       vertex 0.00570178 -0.095671 0
    endloop
  endfacet
  facet normal 0.980784 -0.195096 0
    outer loop
       vertex 0.0162128 -0.064705 0
       vertex 0.0225928 -0.0326315 0
       vertex 0.0225928 -0.0326315 0.1
    endloop
  endfacet
  facet normal 0.980784 -0.195096 0
    outer loop
       vertex 0.0225928 -0.0326315 0.1
       vertex 0.0162128 -0.064705 0.1
       vertex 0.0162128 -0.064705 0
    endloop
  endfacet
  facet normal 0.997858 -0.0654098 0
    outer loop
       vertex 0.0247318 -8.32665e-17 0.1
       vertex 0.0225928 -0.0326315 0.1
       vertex 0.0225928 -0.0326315 0
    endloop
  endfacet
  facet normal 0.997858 -0.0654098 -1.08928e-16
    outer loop
       vertex 0.0225928 -0.0326315 0
       vertex 0.0247318 8.32665e-17 0
       vertex 0.0247318 -8.32665e-17 0.1
    endloop
  endfacet
  facet normal 0.997858 0.0654098 0
    outer loop
       vertex 0.0247318 8.32665e-17 0
       vertex 0.0225928 0.0326315 0
       vertex 0.0225928 0.0326315 0.1
    endloop
  endfacet
  facet normal 0.997858 0.0654098 1.08928e-16
    outer loop
       vertex 0.0225928 0.0326315 0.1
       vertex 0.0247318 -8.32665e-17 0.1
       vertex 0.0247318 8.32665e-17 0
    endloop
  endfacet
  facet normal 0.980784 0.195096 0
    outer loop
       vertex 0.0225928 0.0326315 0
       vertex 0.0162128 0.064705 0
       vertex 0.0162128 0.064705 0.1
    endloop
  endfacet
  facet normal 0.980784 0.195096 0
    outer loop
       vertex 0.0162128 0.064705 0.1
       vertex 0.0225928 0.0326315 0.1
       vertex 0.0225928 0.0326315 0
    endloop
  endfacet
  facet normal 0.946935 0.321425 0
    outer loop
       vertex 0.0162128 0.064705 0
       vertex 0.00570178 0.095671 0
       vertex 0.00570178 0.095671 0.1
    endloop
  endfacet
  facet normal 0.946935 0.321425 0
    outer loop
       vertex 0.00570178 0.095671 0.1
       vertex 0.0162128 0.064705 0.1
       vertex 0.0162128 0.064705 0
    endloop
  endfacet
  facet normal 0.896866 0.442302 0
    outer loop
       vertex 0.00570178 0.095671 0
       vertex -0.00876222 0.125 0
       vertex -0.00876222 0.125 0.1
    endloop
  endfacet
  facet normal 0.896866 0.442302 0
    outer loop
       vertex -0.00876222 0.125 0.1
       vertex 0.00570178 0.095671 0.1
       vertex 0.00570178 0.095671 0
    endloop
  endfacet
  facet normal 0.831476 0.555561 0
    outer loop
       vertex -0.00876222 0.125 0
       vertex -0.0269302 0.152191 0
       vertex -0.0269302 0.152191 0.1
    endloop
  endfacet
  facet normal 0.831476 0.555561 0
    outer loop
       vertex -0.0269302 0.152191 0.1
       vertex -0.00876222 0.125 0.1
       vertex -0.00876222 0.125 0
    endloop
  endfacet
  facet normal 0.751817 0.659372 0
    outer loop
       vertex -0.0269302 0.152191 0
       vertex -0.0484922 0.176776 0
       vertex -0.0484922 0.176776 0.1
    endloop
  endfacet
  facet normal 0.751817 0.659372 0
    outer loop
       vertex -0.0484922 0.176776 0.1
       vertex -0.0269302 0.152191 0.1
       vertex -0.0269302 0.152191 0
    endloop
  endfacet
  facet normal 0.659372 0.751817 0
    outer loop
       vertex -0.0484922 0.176776 0
       vertex -0.0730772 0.198338 0
       vertex -0.0730772 0.198338 0.1
    endloop
  endfacet
  facet normal 0.659372 0.751817 0
    outer loop
       vertex -0.0730772 0.198338 0.1
       vertex -0.0484922 0.176776 0.1
       vertex -0.0484922 0.176776 0
    endloop
  endfacet
  facet normal 0.555561 0.831476 0
    outer loop
       vertex -0.0730772 0.198338 0
       vertex -0.100268 0.216506 0
       vertex -0.100268 0.216506 0.1
    endloop
  endfacet
  facet normal 0.555561 0.831476 0
    outer loop
       vertex -0.100268 0.216506 0.1
       vertex -0.0730772 0.198338 0.1
       vertex -0.0730772 0.198338 0
    endloop
  endfacet
  facet normal 0.442302 0.896866 0
    outer loop
       vertex -0.100268 0.216506 0
       vertex -0.129597 0.23097 0
       vertex -0.129597 0.23097 0.1
    endloop
  endfacet
  facet normal 0.442302 0.896866 0
    outer loop
       vertex -0.129597 0.23097 0.1
       vertex -0.100268 0.216506 0.1
       vertex -0.100268 0.216506 0
    endloop
  endfacet
  facet normal 0.321425 0.946935 0
    outer loop
       vertex -0.129597 0.23097 0
       vertex -0.160563 0.241481 0
       vertex -0.160563 0.241481 0.1
    endloop
  endfacet
  facet normal 0.321425 0.946935 0
    outer loop
       vertex -0.160563 0.241481 0.1
       vertex -0.129597 0.23097 0.1
       vertex -0.129597 0.23097 0
    endloop
  endfacet
  facet normal 0.195096 0.980784 0
    outer loop
       vertex -0.160563 0.241481 0
       vertex -0.192637 0.247861 0
       vertex -0.192637 0.247861 0.1
    endloop
  endfacet
  facet normal 0.195096 0.980784 0
    outer loop
       vertex -0.192637 0.247861 0.1
       vertex -0.160563 0.241481 0.1
       vertex -0.160563 0.241481 0
    endloop
  endfacet
  facet normal 0.0654098 0.997858 0
    outer loop
       vertex -0.225268 0.25 0.1
       vertex -0.192637 0.247861 0.1
       vertex -0.192637 0.247861 0
    endloop
  endfacet
  facet normal 0.0654098 0.997858 -1.0893e-16
    outer loop
       vertex -0.192637 0.247861 0
       vertex -0.225268 0.25 0
       vertex -0.225268 0.25 0.1
    endloop
  endfacet
  facet normal -0.0654098 0.997858 0
    outer loop
       vertex -0.225268 0.25 0
       vertex -0.2579 0.247861 0
       vertex -0.2579 0.247861 0.1
    endloop
  endfacet
  facet normal -0.0654098 0.997858 1.0893e-16
    outer loop
       vertex -0.2579 0.247861 0.1
       vertex -0.225268 0.25 0.1
       vertex -0.225268 0.25 0
    endloop
  endfacet
  facet normal -0.195096 0.980784 0
    outer loop
       vertex -0.2579 0.247861 0
       vertex -0.289973 0.241481 0
       vertex -0.289973 0.241481 0.1
    endloop
  endfacet
  facet normal -0.195096 0.980784 0
    outer loop
       vertex -0.289973 0.241481 0.1
       vertex -0.2579 0.247861 0.1
       vertex -0.2579 0.247861 0
    endloop
  endfacet
  facet normal -0.321425 0.946935 0
    outer loop
       vertex -0.289973 0.241481 0
       vertex -0.320939 0.23097 0
       vertex -0.320939 0.23097 0.1
    endloop
  endfacet
  facet normal -0.321425 0.946935 0
    outer loop
       vertex -0.320939 0.23097 0.1
       vertex -0.289973 0.241481 0.1
       vertex -0.289973 0.241481 0
    endloop
  endfacet
  facet normal -0.442302 0.896866 0
    outer loop
       vertex -0.320939 0.23097 0
       vertex -0.350268 0.216506 0
       vertex -0.350268 0.216506 0.1
    endloop
  endfacet
  facet normal -0.442302 0.896866 0
    outer loop
       vertex -0.350268 0.216506 0.1
       vertex -0.320939 0.23097 0.1
       vertex -0.320939 0.23097 0
    endloop
  endfacet
  facet normal -0.555561 0.831476 0
    outer loop
       vertex -0.350268 0.216506 0
       vertex -0.377459 0.198338 0
       vertex -0.377459 0.198338 0.1
    endloop
  endfacet
  facet normal -0.555561 0.831476 0
    outer loop
       vertex -0.377459 0.198338 0.1
       vertex -0.350268 0.216506 0.1
       vertex -0.350268 0.216506 0
    endloop
  endfacet
  facet normal -0.659372 0.751817 0
    outer loop
       vertex -0.377459 0.198338 0
       vertex -0.402044 0.176776 0
       vertex -0.402044 0.176776 0.1
    endloop
  endfacet
  facet normal -0.659372 0.751817 0
    outer loop
       vertex -0.402044 0.176776 0.1
       vertex -0.377459 0.198338 0.1
       vertex -0.377459 0.198338 0
    endloop
  endfacet
  facet normal -0.751817 0.659372 0
    outer loop
       vertex -0.402044 0.176776 0
       vertex -0.423606 0.152191 0
       vertex -0.423606 0.152191 0.1
    endloop
  endfacet
  facet normal -0.751817 0.659372 0
    outer loop
       vertex -0.423606 0.152191 0.1
       vertex -0.402044 0.176776 0.1
       vertex -0.402044 0.176776 0
    endloop
  endfacet
  facet normal -0.831476 0.555561 0
    outer loop
       vertex -0.423606 0.152191 0
       vertex -0.441774 0.125 0
       vertex -0.441774 0.125 0.1
    endloop
  endfacet
  facet normal -0.831476 0.555561 0
    outer loop
       vertex -0.441774 0.125 0.1
       vertex -0.423606 0.152191 0.1
       vertex -0.423606 0.152191 0
    endloop
  endfacet
  facet normal -0.896866 0.442302 0
    outer loop
       vertex -0.441774 0.125 0
       vertex -0.456238 0.095671 0
       vertex -0.456238 0.095671 0.1
    endloop
  endfacet
  facet normal -0.896866 0.442302 0
    outer loop
       vertex -0.456238 0.095671 0.1
       vertex -0.441774 0.125 0.1
       vertex -0.441774 0.125 0
    endloop
  endfacet
  facet normal -0.946935 0.321425 0
    outer loop
       vertex -0.456238 0.095671 0
       vertex -0.466749 0.064705 0
       vertex -0.466749 0.064705 0.1
    endloop
  endfacet
  facet normal -0.946935 0.321425 0
    outer loop
       vertex -0.466749 0.064705 0.1
       vertex -0.456238 0.095671 0.1
       vertex -0.456238 0.095671 0
    endloop
  endfacet
  facet normal -0.980784 0.195096 0
    outer loop
       vertex -0.466749 0.064705 0
       vertex -0.473129 0.0326315 0
       vertex -0.473129 0.0326315 0.1
    endloop
  endfacet
  facet normal -0.980784 0.195096 0
    outer loop
       vertex -0.473129 0.0326315 0.1
       vertex -0.466749 0.064705 0.1
       vertex -0.466749 0.064705 0
    endloop
  endfacet
  facet normal -0.997858 0.0654098 0
    outer loop
       vertex -0.475268 8.32665e-17 0.1
       vertex -0.473129 0.0326315 0.1
       vertex -0.473129 0.0326315 0
    endloop
  endfacet
  facet normal -0.997858 0.0654098 -1.08928e-16
    outer loop
       vertex -0.473129 0.0326315 0
       vertex -0.475268 -8.32665e-17 0
       vertex -0.475268 8.32665e-17 0.1
    endloop
  endfacet
  facet normal -0.997858 -0.0654098 0
    outer loop
       vertex -0.475268 -8.32665e-17 0
       vertex -0.473129 -0.0326315 0
       vertex -0.473129 -0.0326315 0.1
    endloop
  endfacet
  facet normal -0.997858 -0.0654098 1.08928e-16
    outer loop
       vertex -0.473129 -0.0326315 0.1
       vertex -0.475268 8.32665e-17 0.1
       vertex -0.475268 -8.32665e-17 0
    endloop
  endfacet
  facet normal -0.980784 -0.195096 0
    outer loop
       vertex -0.473129 -0.0326315 0
       vertex -0.466749 -0.064705 0
       vertex -0.466749 -0.064705 0.1
    endloop
  endfacet
  facet normal -0.980784 -0.195096 0
    outer loop
       vertex -0.466749 -0.064705 0.1
       vertex -0.473129 -0.0326315 0.1
       vertex -0.473129 -0.0326315 0
    endloop
  endfacet
  facet normal -0.946935 -0.321425 0
    outer loop
       vertex -0.466749 -0.064705 0
       vertex -0.456238 -0.095671 0
       vertex -0.456238 -0.095671 0.1
    endloop
  endfacet
  facet normal -0.946935 -0.321425 0
    outer loop
       vertex -0.456238 -0.095671 0.1
       vertex -0.466749 -0.064705 0.1
       vertex -0.466749 -0.064705 0
    endloop
  endfacet
  facet normal -0.896866 -0.442302 0
    outer loop
       vertex -0.456238 -0.095671 0
       vertex -0.441774 -0.125 0
       vertex -0.441774 -0.125 0.1
    endloop
  endfacet
  facet normal -0.896866 -0.442302 0
    outer loop
       vertex -0.441774 -0.125 0.1
       vertex -0.456238 -0.095671 0.1
       vertex -0.456238 -0.095671 0
    endloop
  endfacet
  facet normal -0.831476 -0.555561 0
    outer loop
       vertex -0.441774 -0.125 0
       vertex -0.423606 -0.152191 0
       vertex -0.423606 -0.152191 0.1
    endloop
  endfacet
  facet normal -0.831476 -0.555561 0
    outer loop
       vertex -0.423606 -0.152191 0.1
       vertex -0.441774 -0.125 0.1
       vertex -0.441774 -0.125 0
    endloop
  endfacet
  facet normal -0.751817 -0.659372 0
    outer loop
       vertex -0.423606 -0.152191 0
       vertex -0.402044 -0.176776 0
       vertex -0.402044 -0.176776 0.1
    endloop
  endfacet
  facet normal -0.751817 -0.659372 0
    outer loop
       vertex -0.402044 -0.176776 0.1
       vertex -0.423606 -0.152191 0.1
       vertex -0.423606 -0.152191 0
    endloop
  endfacet
  facet normal 0.659372 -0.751817 0
    outer loop
       vertex -0.0484922 -0.176776 0
       vertex -0.0484922 -0.176776 0.1
       vertex -0.0730772 -0.198338 0.1
    endloop
  endfacet
  facet normal 0.659372 -0.751817 0
    outer loop
       vertex -0.0730772 -0.198338 0.1
       vertex -0.0730772 -0.198338 0
       vertex -0.0484922 -0.176776 0
    endloop
  endfacet
  facet normal 0.555561 -0.831476 0
    outer loop
       vertex -0.0730772 -0.198338 0
       vertex -0.0730772 -0.198338 0.1
       vertex -0.100268 -0.216506 0.1
    endloop
  endfacet
  facet normal 0.555561 -0.831476 0
    outer loop
       vertex -0.100268 -0.216506 0.1
       vertex -0.100268 -0.216506 0
       vertex -0.0730772 -0.198338 0
    endloop
  endfacet
  facet normal 0.442302 -0.896866 0
    outer loop
       vertex -0.100268 -0.216506 0
       vertex -0.100268 -0.216506 0.1
       vertex -0.129597 -0.23097 0.1
    endloop
  endfacet
  facet normal 0.442302 -0.896866 0
    outer loop
       vertex -0.129597 -0.23097 0.1
       vertex -0.129597 -0.23097 0
       vertex -0.100268 -0.216506 0
    endloop
  endfacet
  facet normal 0.321425 -0.946935 0
    outer loop
       vertex -0.129597 -0.23097 0
       vertex -0.129597 -0.23097 0.1
       vertex -0.160563 -0.241481 0.1
    endloop
  endfacet
  facet normal 0.321425 -0.946935 0
    outer loop
       vertex -0.160563 -0.241481 0.1
       vertex -0.160563 -0.241481 0
       vertex -0.129597 -0.23097 0
    endloop
  endfacet
  facet normal 0.195096 -0.980784 0
    outer loop
       vertex -0.160563 -0.241481 0
       vertex -0.160563 -0.241481 0.1
       vertex -0.192637 -0.247861 0.1
    endloop
  endfacet
  facet normal 0.195096 -0.980784 0
    outer loop
       vertex -0.192637 -0.247861 0.1
       vertex -0.192637 -0.247861 0
       vertex -0.160563 -0.241481 0
    endloop
  endfacet
  facet normal 0.0654098 -0.997858 0
    outer loop
       vertex -0.225268 -0.25 0
       vertex -0.192637 -0.247861 0
       vertex -0.192637 -0.247861 0.1
    endloop
  endfacet
  facet normal 0.0654098 -0.997858 1.0893e-16
    outer loop
       vertex -0.192637 -0.247861 0.1
       vertex -0.225268 -0.25 0.1
       vertex -0.225268 -0.25 0
    endloop
  endfacet
  facet normal -0.0654098 -0.997858 0
    outer loop
       vertex -0.225268 -0.25 0.1
       vertex -0.2579 -0.247861 0.1
       vertex -0.2579 -0.247861 0
    endloop
  endfacet
  facet normal -0.0654098 -0.997858 -1.0893e-16
    outer loop
       vertex -0.2579 -0.247861 0
       vertex -0.225268 -0.25 0
       vertex -0.225268 -0.25 0.1
    endloop
  endfacet
  facet normal -0.195096 -0.980784 0
    outer loop
       vertex -0.2579 -0.247861 0
       vertex -0.2579 -0.247861 0.1
       vertex -0.289973 -0.241481 0.1
    endloop
  endfacet
  facet normal -0.195096 -0.980784 -0
    outer loop
       vertex -0.289973 -0.241481 0.1
       vertex -0.289973 -0.241481 0
       vertex -0.2579 -0.247861 0
    endloop
  endfacet
  facet normal -0.321425 -0.946935 0
    outer loop
       vertex -0.289973 -0.241481 0
       vertex -0.289973 -0.241481 0.1
       vertex -0.320939 -0.23097 0.1
    endloop
  endfacet
  facet normal -0.321425 -0.946935 -0
    outer loop
       vertex -0.320939 -0.23097 0.1
       vertex -0.320939 -0.23097 0
       vertex -0.289973 -0.241481 0
    endloop
  endfacet
  facet normal -0.442302 -0.896866 0
    outer loop
       vertex -0.320939 -0.23097 0
       vertex -0.320939 -0.23097 0.1
       vertex -0.350268 -0.216506 0.1
    endloop
  endfacet
  facet normal -0.442302 -0.896866 -0
    outer loop
       vertex -0.350268 -0.216506 0.1
       vertex -0.350268 -0.216506 0
       vertex -0.320939 -0.23097 0
    endloop
  endfacet
  facet normal -0.555561 -0.831476 0
    outer loop
       vertex -0.350268 -0.216506 0
       vertex -0.350268 -0.216506 0.1
       vertex -0.377459 -0.198338 0.1
    endloop
  endfacet
  facet normal -0.555561 -0.831476 -0
    outer loop
       vertex -0.377459 -0.198338 0.1
       vertex -0.377459 -0.198338 0
       vertex -0.350268 -0.216506 0
    endloop
  endfacet
  facet normal -0.659372 -0.751817 0
    outer loop
       vertex -0.377459 -0.198338 0
       vertex -0.377459 -0.198338 0.1
       vertex -0.402044 -0.176776 0.1
    endloop
  endfacet
  facet normal -0.659372 -0.751817 -0
    outer loop
       vertex -0.402044 -0.176776 0.1
       vertex -0.402044 -0.176776 0
       vertex -0.377459 -0.198338 0
    endloop
  endfacet
endsolid cylinder
