solid cylinder
  facet normal 0.751817 -0.659372 0
    outer loop
       vertex 0.255377 -0.176776 0
       vertex 0.276939 -0.152191 0
       vertex 0.276939 -0.152191 0.1
    endloop
  endfacet
  facet normal 0.751817 -0.659372 0
    outer loop
       vertex 0.276939 -0.152191 0.1
       vertex 0.255377 -0.176776 0.1
       vertex 0.255377 -0.176776 0
    endloop
  endfacet
  facet normal 0.831476 -0.555561 0
    outer loop
       vertex 0.276939 -0.152191 0
       vertex 0.295107 -0.125 0
       vertex 0.295107 -0.125 0.1
    endloop
  endfacet
  facet normal 0.831476 -0.555561 0
    outer loop
       vertex 0.295107 -0.125 0.1
       vertex 0.276939 -0.152191 0.1
       vertex 0.276939 -0.152191 0
    endloop
  endfacet
  facet normal 0.896866 -0.442302 0
    outer loop
       vertex 0.295107 -0.125 0
       vertex 0.309571 -0.095671 0
       vertex 0.309571 -0.095671 0.1
    endloop
  endfacet
  facet normal 0.896866 -0.442302 0
    outer loop
       vertex 0.309571 -0.095671 0.1
       vertex 0.295107 -0.125 0.1
       vertex 0.295107 -0.125 0
    endloop
  endfacet
  facet normal 0.946935 -0.321425 0
    outer loop
       vertex 0.309571 -0.095671 0
       vertex 0.320082 -0.064705 0
       vertex 0.320082 -0.064705 0.1
    endloop
  endfacet
  facet normal 0.946935 -0.321425 0
    outer loop
       vertex 0.320082 -0.064705 0.1
       vertex 0.309571 -0.095671 0.1
       vertex 0.309571 -0.095671 0
    endloop
  endfacet
  facet normal 0.980784 -0.195096 0
    outer loop
       vertex 0.320082 -0.064705 0
       vertex 0.326462 -0.0326315 0
       vertex 0.326462 -0.0326315 0.1
    endloop
  endfacet
  facet normal 0.980784 -0.195096 0
    outer loop
       vertex 0.326462 -0.0326315 0.1
       vertex 0.320082 -0.064705 0.1
       vertex 0.320082 -0.064705 0
    endloop
  endfacet
  facet normal 0.997858 -0.0654098 0
    outer loop
       vertex 0.328601 -8.32665e-17 0.1
       vertex 0.326462 -0.0326315 0.1
       vertex 0.326462 -0.0326315 0
    endloop
  endfacet
  facet normal 0.997858 -0.0654098 -1.08928e-16
    outer loop
       vertex 0.326462 -0.0326315 0
       vertex 0.328601 8.32665e-17 0
       vertex 0.328601 -8.32665e-17 0.1
    endloop
  endfacet
  facet normal 0.997858 0.0654098 0
    outer loop
       vertex 0.328601 8.32665e-17 0
       vertex 0.326462 0.0326315 0
       vertex 0.326462 0.0326315 0.1
    endloop
  endfacet
  facet normal 0.997858 0.0654098 1.08928e-16
    outer loop
       vertex 0.326462 0.0326315 0.1
       vertex 0.328601 -8.32665e-17 0.1
       vertex 0.328601 8.32665e-17 0
    endloop
  endfacet
  facet normal 0.980784 0.195096 0
    outer loop
       vertex 0.326462 0.0326315 0
       vertex 0.320082 0.064705 0
       vertex 0.320082 0.064705 0.1
    endloop
  endfacet
  facet normal 0.980784 0.195096 0
    outer loop
       vertex 0.320082 0.064705 0.1
       vertex 0.326462 0.0326315 0.1
       vertex 0.326462 0.0326315 0
    endloop
  endfacet
  facet normal 0.946935 0.321425 0
    outer loop
       vertex 0.320082 0.064705 0
       vertex 0.309571 0.095671 0
       vertex 0.309571 0.095671 0.1
    endloop
  endfacet
  facet normal 0.946935 0.321425 0
    outer loop
       vertex 0.309571 0.095671 0.1
       vertex 0.320082 0.064705 0.1
       vertex 0.320082 0.064705 0
    endloop
  endfacet
  facet normal 0.896866 0.442302 0
    outer loop
       vertex 0.309571 0.095671 0
       vertex 0.295107 0.125 0
       vertex 0.295107 0.125 0.1
    endloop
  endfacet
  facet normal 0.896866 0.442302 0
    outer loop
       vertex 0.295107 0.125 0.1
       vertex 0.309571 0.095671 0.1
       vertex 0.309571 0.095671 0
    endloop
  endfacet
  facet normal 0.831476 0.555561 0
    outer loop
       vertex 0.295107 0.125 0
       vertex 0.276939 0.152191 0
       vertex 0.276939 0.152191 0.1
    endloop
  endfacet
  facet normal 0.831476 0.555561 0
    outer loop
       vertex 0.276939 0.152191 0.1
       vertex 0.295107 0.125 0.1
       vertex 0.295107 0.125 0
    endloop
  endfacet
  facet normal 0.751817 0.659372 0
    outer loop
       vertex 0.276939 0.152191 0
       vertex 0.255377 0.176776 0
       vertex 0.255377 0.176776 0.1
    endloop
  endfacet
  facet normal 0.751817 0.659372 0
    outer loop
       vertex 0.255377 0.176776 0.1
       vertex 0.276939 0.152191 0.1
       vertex 0.276939 0.152191 0
    endloop
  endfacet
  facet normal 0.659372 0.751817 0
    outer loop
       vertex 0.255377 0.176776 0
       vertex 0.230792 0.198338 0
       vertex 0.230792 0.198338 0.1
    endloop
  endfacet
  facet normal 0.659372 0.751817 0
    outer loop
       vertex 0.230792 0.198338 0.1
       vertex 0.255377 0.176776 0.1
       vertex 0.255377 0.176776 0
    endloop
  endfacet
  facet normal 0.555561 0.831476 0
    outer loop
       vertex 0.230792 0.198338 0
       vertex 0.203601 0.216506 0
       vertex 0.203601 0.216506 0.1
    endloop
  endfacet
  facet normal 0.555561 0.831476 0
    outer loop
       vertex 0.203601 0.216506 0.1
       vertex 0.230792 0.198338 0.1
       vertex 0.230792 0.198338 0
    endloop
  endfacet
  facet normal 0.442302 0.896866 0
    outer loop
       vertex 0.203601 0.216506 0
       vertex 0.174272 0.23097 0
       vertex 0.174272 0.23097 0.1
    endloop
  endfacet
  facet normal 0.442302 0.896866 0
    outer loop
       vertex 0.174272 0.23097 0.1
       vertex 0.203601 0.216506 0.1
       vertex 0.203601 0.216506 0
    endloop
  endfacet
  facet normal 0.321425 0.946935 0
    outer loop
       vertex 0.174272 0.23097 0
       vertex 0.143306 0.241481 0
       vertex 0.143306 0.241481 0.1
    endloop
  endfacet
  facet normal 0.321425 0.946935 0
    outer loop
       vertex 0.143306 0.241481 0.1
       vertex 0.174272 0.23097 0.1
       vertex 0.174272 0.23097 0
    endloop
  endfacet
  facet normal 0.195096 0.980784 0
    outer loop
       vertex 0.143306 0.241481 0
       vertex 0.111232 0.247861 0
       vertex 0.111232 0.247861 0.1
    endloop
  endfacet
  facet normal 0.195096 0.980784 0
    outer loop
       vertex 0.111232 0.247861 0.1
       vertex 0.143306 0.241481 0.1
       vertex 0.143306 0.241481 0
    endloop
  endfacet
  facet normal 0.0654098 0.997858 0
    outer loop
       vertex 0.0786007 0.25 0.1
       vertex 0.111232 0.247861 0.1
       vertex 0.111232 0.247861 0
    endloop
  endfacet
  facet normal 0.0654098 0.997858 -1.08928e-16
    outer loop
       vertex 0.111232 0.247861 0
       vertex 0.0786007 0.25 0
       vertex 0.0786007 0.25 0.1
    endloop
  endfacet
  facet normal -0.0654098 0.997858 0
    outer loop
       vertex 0.0786007 0.25 0
       vertex 0.0459692 0.247861 0
       vertex 0.0459692 0.247861 0.1
    endloop
  endfacet
  facet normal -0.0654098 0.997858 1.08928e-16
    outer loop
       vertex 0.0459692 0.247861 0.1
       vertex 0.0786007 0.25 0.1
       vertex 0.0786007 0.25 0
    endloop
  endfacet
  facet normal -0.195096 0.980784 0
    outer loop
       vertex 0.0459692 0.247861 0
       vertex 0.0138957 0.241481 0
       vertex 0.0138957 0.241481 0.1
    endloop
  endfacet
  facet normal -0.195096 0.980784 0
    outer loop
       vertex 0.0138957 0.241481 0.1
       vertex 0.0459692 0.247861 0.1
       vertex 0.0459692 0.247861 0
    endloop
  endfacet
  facet normal -0.321425 0.946935 0
    outer loop
       vertex 0.0138957 0.241481 0
       vertex -0.0170703 0.23097 0
       vertex -0.0170703 0.23097 0.1
    endloop
  endfacet
  facet normal -0.321425 0.946935 0
    outer loop
       vertex -0.0170703 0.23097 0.1
       vertex 0.0138957 0.241481 0.1
       vertex 0.0138957 0.241481 0
    endloop
  endfacet
  facet normal -0.442302 0.896866 0
    outer loop
       vertex -0.0170703 0.23097 0
       vertex -0.0463993 0.216506 0
       vertex -0.0463993 0.216506 0.1
    endloop
  endfacet
  facet normal -0.442302 0.896866 0
    outer loop
       vertex -0.0463993 0.216506 0.1
       vertex -0.0170703 0.23097 0.1
       vertex -0.0170703 0.23097 0
    endloop
  endfacet
  facet normal -0.555561 0.831476 0
    outer loop
       vertex -0.0463993 0.216506 0
       vertex -0.0735903 0.198338 0
       vertex -0.0735903 0.198338 0.1
    endloop
  endfacet
  facet normal -0.555561 0.831476 0
    outer loop
       vertex -0.0735903 0.198338 0.1
       vertex -0.0463993 0.216506 0.1
       vertex -0.0463993 0.216506 0
    endloop
  endfacet
  facet normal -0.659372 0.751817 0
    outer loop
       vertex -0.0735903 0.198338 0
       vertex -0.0981753 0.176776 0
       vertex -0.0981753 0.176776 0.1
    endloop
  endfacet
  facet normal -0.659372 0.751817 0
    outer loop
       vertex -0.0981753 0.176776 0.1
       vertex -0.0735903 0.198338 0.1
       vertex -0.0735903 0.198338 0
    endloop
  endfacet
  facet normal -0.751817 0.659372 0
    outer loop
       vertex -0.0981753 0.176776 0
       vertex -0.119737 0.152191 0
       vertex -0.119737 0.152191 0.1
    endloop
  endfacet
  facet normal -0.751817 0.659372 0
    outer loop
       vertex -0.119737 0.152191 0.1
       vertex -0.0981753 0.176776 0.1
       vertex -0.0981753 0.176776 0
    endloop
  endfacet
  facet normal -0.831476 0.555561 0
    outer loop
       vertex -0.119737 0.152191 0
       vertex -0.137905 0.125 0
       vertex -0.137905 0.125 0.1
    endloop
  endfacet
  facet normal -0.831476 0.555561 0
    outer loop
       vertex -0.137905 0.125 0.1
       vertex -0.119737 0.152191 0.1
       vertex -0.119737 0.152191 0
    endloop
  endfacet
  facet normal -0.896866 0.442302 0
    outer loop
       vertex -0.137905 0.125 0
       vertex -0.152369 0.095671 0
       vertex -0.152369 0.095671 0.1
    endloop
  endfacet
  facet normal -0.896866 0.442302 0
    outer loop
       vertex -0.152369 0.095671 0.1
       vertex -0.137905 0.125 0.1
       vertex -0.137905 0.125 0
    endloop
  endfacet
  facet normal -0.946935 0.321425 0
    outer loop
       vertex -0.152369 0.095671 0
       vertex -0.16288 0.064705 0
       vertex -0.16288 0.064705 0.1
    endloop
  endfacet
  facet normal -0.946935 0.321425 0
    outer loop
       vertex -0.16288 0.064705 0.1
       vertex -0.152369 0.095671 0.1
       vertex -0.152369 0.095671 0
    endloop
  endfacet
  facet normal -0.980784 0.195096 0
    outer loop
       vertex -0.16288 0.064705 0
       vertex -0.16926 0.0326315 0
       vertex -0.16926 0.0326315 0.1
    endloop
  endfacet
  facet normal -0.980784 0.195096 0
    outer loop
       vertex -0.16926 0.0326315 0.1
       vertex -0.16288 0.064705 0.1
       vertex -0.16288 0.064705 0
    endloop
  endfacet
  facet normal -0.997858 0.0654098 0
    outer loop
       vertex -0.171399 8.32665e-17 0.1
       vertex -0.16926 0.0326315 0.1
       vertex -0.16926 0.0326315 0
    endloop
  endfacet
  facet normal -0.997858 0.0654098 -1.08928e-16
    outer loop
       vertex -0.16926 0.0326315 0
       vertex -0.171399 -8.32665e-17 0
       vertex -0.171399 8.32665e-17 0.1
    endloop
  endfacet
  facet normal -0.997858 -0.0654098 0
    outer loop
       vertex -0.171399 -8.32665e-17 0
       vertex -0.16926 -0.0326315 0
       vertex -0.16926 -0.0326315 0.1
    endloop
  endfacet
  facet normal -0.997858 -0.0654098 1.08928e-16
    outer loop
       vertex -0.16926 -0.0326315 0.1
       vertex -0.171399 8.32665e-17 0.1
       vertex -0.171399 -8.32665e-17 0
    endloop
  endfacet
  facet normal -0.980784 -0.195096 0
    outer loop
       vertex -0.16926 -0.0326315 0
       vertex -0.16288 -0.064705 0
       vertex -0.16288 -0.064705 0.1
    endloop
  endfacet
  facet normal -0.980784 -0.195096 0
    outer loop
       vertex -0.16288 -0.064705 0.1
       vertex -0.16926 -0.0326315 0.1
       vertex -0.16926 -0.0326315 0
    endloop
  endfacet
  facet normal -0.946935 -0.321425 0
    outer loop
       vertex -0.16288 -0.064705 0
       vertex -0.152369 -0.095671 0
       vertex -0.152369 -0.095671 0.1
    endloop
  endfacet
  facet normal -0.946935 -0.321425 0
    outer loop
       vertex -0.152369 -0.095671 0.1
       vertex -0.16288 -0.064705 0.1
       vertex -0.16288 -0.064705 0
    endloop
  endfacet
  facet normal -0.896866 -0.442302 0
    outer loop
       vertex -0.152369 -0.095671 0
       vertex -0.137905 -0.125 0
       vertex -0.137905 -0.125 0.1
    endloop
  endfacet
  facet normal -0.896866 -0.442302 0
    outer loop
       vertex -0.137905 -0.125 0.1
       vertex -0.152369 -0.095671 0.1
       vertex -0.152369 -0.095671 0
    endloop
  endfacet
  facet normal -0.831476 -0.555561 0
    outer loop
       vertex -0.137905 -0.125 0
       vertex -0.119737 -0.152191 0
       vertex -0.119737 -0.152191 0.1
    endloop
  endfacet
  facet normal -0.831476 -0.555561 0
    outer loop
       vertex -0.119737 -0.152191 0.1
       vertex -0.137905 -0.125 0.1
       vertex -0.137905 -0.125 0
    endloop
  endfacet
  facet normal -0.751817 -0.659372 0
    outer loop
       vertex -0.119737 -0.152191 0
       vertex -0.0981753 -0.176776 0
       vertex -0.0981753 -0.176776 0.1
    endloop
  endfacet
  facet normal -0.751817 -0.659372 0
    outer loop
       vertex -0.0981753 -0.176776 0.1
       vertex -0.119737 -0.152191 0.1
       vertex -0.119737 -0.152191 0
    endloop
  endfacet
  facet normal 0.659372 -0.751817 0
    outer loop
       vertex 0.255377 -0.176776 0
       vertex 0.255377 -0.176776 0.1
       vertex 0.230792 -0.198338 0.1
    endloop
  endfacet
  facet normal 0.659372 -0.751817 0
    outer loop
       vertex 0.230792 -0.198338 0.1
       vertex 0.230792 -0.198338 0
       vertex 0.255377 -0.176776 0
    endloop
  endfacet
  facet normal 0.555561 -0.831476 0
    outer loop
       vertex 0.230792 -0.198338 0
       vertex 0.230792 -0.198338 0.1
       vertex 0.203601 -0.216506 0.1
    endloop
  endfacet
  facet normal 0.555561 -0.831476 0
    outer loop
       vertex 0.203601 -0.216506 0.1
       vertex 0.203601 -0.216506 0
       vertex 0.230792 -0.198338 0
    endloop
  endfacet
  facet normal 0.442302 -0.896866 0
    outer loop
       vertex 0.203601 -0.216506 0
       vertex 0.203601 -0.216506 0.1
       vertex 0.174272 -0.23097 0.1
    endloop
  endfacet
  facet normal 0.442302 -0.896866 0
    outer loop
       vertex 0.174272 -0.23097 0.1
       vertex 0.174272 -0.23097 0
       vertex 0.203601 -0.216506 0
    endloop
  endfacet
  facet normal 0.321425 -0.946935 0
    outer loop
       vertex 0.174272 -0.23097 0
       vertex 0.174272 -0.23097 0.1
       vertex 0.143306 -0.241481 0.1
    endloop
  endfacet
  facet normal 0.321425 -0.946935 0
    outer loop
       vertex 0.143306 -0.241481 0.1
       vertex 0.143306 -0.241481 0
       vertex 0.174272 -0.23097 0
    endloop
  endfacet
  facet normal 0.195096 -0.980784 0
    outer loop
       vertex 0.143306 -0.241481 0
       vertex 0.143306 -0.241481 0.1
       vertex 0.111232 -0.247861 0.1
    endloop
  endfacet
  facet normal 0.195096 -0.980784 0
    outer loop
       vertex 0.111232 -0.247861 0.1
       vertex 0.111232 -0.247861 0
       vertex 0.143306 -0.241481 0
    endloop
  endfacet
  facet normal 0.0654098 -0.997858 0
    outer loop
       vertex 0.0786007 -0.25 0
       vertex 0.111232 -0.247861 0
       vertex 0.111232 -0.247861 0.1
    endloop
  endfacet
  facet normal 0.0654098 -0.997858 1.08928e-16
    outer loop
       vertex 0.111232 -0.247861 0.1
       vertex 0.0786007 -0.25 0.1
       vertex 0.0786007 -0.25 0
    endloop
  endfacet
  facet normal -0.0654098 -0.997858 0
    outer loop
       vertex 0.0786007 -0.25 0.1
       vertex 0.0459692 -0.247861 0.1
       vertex 0.0459692 -0.247861 0
    endloop
  endfacet
  facet normal -0.0654098 -0.997858 -1.08928e-16
    outer loop
       vertex 0.0459692 -0.247861 0
       vertex 0.0786007 -0.25 0
       vertex 0.0786007 -0.25 0.1
    endloop
  endfacet
  facet normal -0.195096 -0.980784 0
    outer loop
       vertex 0.0459692 -0.247861 0
       vertex 0.0459692 -0.247861 0.1
       vertex 0.0138957 -0.241481 0.1
    endloop
  endfacet
  facet normal -0.195096 -0.980784 -0
    outer loop
       vertex 0.0138957 -0.241481 0.1
       vertex 0.0138957 -0.241481 0
       vertex 0.0459692 -0.247861 0
    endloop
  endfacet
  facet normal -0.321425 -0.946935 0
    outer loop
       vertex 0.0138957 -0.241481 0
       vertex 0.0138957 -0.241481 0.1
       vertex -0.0170703 -0.23097 0.1
    endloop
  endfacet
  facet normal -0.321425 -0.946935 -0
    outer loop
       vertex -0.0170703 -0.23097 0.1
       vertex -0.0170703 -0.23097 0
       vertex 0.0138957 -0.241481 0
    endloop
  endfacet
  facet normal -0.442302 -0.896866 0
    outer loop
       vertex -0.0170703 -0.23097 0
       vertex -0.0170703 -0.23097 0.1
       vertex -0.0463993 -0.216506 0.1
    endloop
  endfacet
  facet normal -0.442302 -0.896866 -0
    outer loop
       vertex -0.0463993 -0.216506 0.1
       vertex -0.0463993 -0.216506 0
       vertex -0.0170703 -0.23097 0
    endloop
  endfacet
  facet normal -0.555561 -0.831476 0
    outer loop
       vertex -0.0463993 -0.216506 0
       vertex -0.0463993 -0.216506 0.1
       vertex -0.0735903 -0.198338 0.1
    endloop
  endfacet
  facet normal -0.555561 -0.831476 -0
    outer loop
       vertex -0.0735903 -0.198338 0.1
       vertex -0.0735903 -0.198338 0
       vertex -0.0463993 -0.216506 0
    endloop
  endfacet
  facet normal -0.659372 -0.751817 0
    outer loop
       vertex -0.0735903 -0.198338 0
       vertex -0.0735903 -0.198338 0.1
       vertex -0.0981753 -0.176776 0.1
    endloop
  endfacet
  facet normal -0.659372 -0.751817 -0
    outer loop
       vertex -0.0981753 -0.176776 0.1
       vertex -0.0981753 -0.176776 0
       vertex -0.0735903 -0.198338 0
    endloop
  endfacet
endsolid cylinder
