solid cylinder
  facet normal 0.751817 -0.659372 0
    outer loop
       vertex 0.461098 -0.176776 0
       vertex 0.48266 -0.152191 0
       vertex 0.48266 -0.152191 0.1
    endloop
  endfacet
  facet normal 0.751817 -0.659372 0
    outer loop
       vertex 0.48266 -0.152191 0.1
       vertex 0.461098 -0.176776 0.1
       vertex 0.461098 -0.176776 0
    endloop
  endfacet
  facet normal 0.831476 -0.555561 0
    outer loop
       vertex 0.48266 -0.152191 0
       vertex 0.500828 -0.125 0
       vertex 0.500828 -0.125 0.1
    endloop
  endfacet
  facet normal 0.831476 -0.555561 0
    outer loop
       vertex 0.500828 -0.125 0.1
       vertex 0.48266 -0.152191 0.1
       vertex 0.48266 -0.152191 0
    endloop
  endfacet
  facet normal 0.896866 -0.442302 0
    outer loop
       vertex 0.500828 -0.125 0
       vertex 0.515292 -0.095671 0
       vertex 0.515292 -0.095671 0.1
    endloop
  endfacet
  facet normal 0.896866 -0.442302 0
    outer loop
       vertex 0.515292 -0.095671 0.1
       vertex 0.500828 -0.125 0.1
       vertex 0.500828 -0.125 0
    endloop
  endfacet
  facet normal 0.946935 -0.321425 0
    outer loop
       vertex 0.515292 -0.095671 0
       vertex 0.525803 -0.064705 0
       vertex 0.525803 -0.064705 0.1
    endloop
  endfacet
  facet normal 0.946935 -0.321425 0
    outer loop
       vertex 0.525803 -0.064705 0.1
       vertex 0.515292 -0.095671 0.1
       vertex 0.515292 -0.095671 0
    endloop
  endfacet
  facet normal 0.980784 -0.195096 0
    outer loop
       vertex 0.525803 -0.064705 0
       vertex 0.532183 -0.0326315 0
       vertex 0.532183 -0.0326315 0.1
    endloop
  endfacet
  facet normal 0.980784 -0.195096 0
    outer loop
       vertex 0.532183 -0.0326315 0.1
       vertex 0.525803 -0.064705 0.1
       vertex 0.525803 -0.064705 0
    endloop
  endfacet
  facet normal 0.997858 -0.0654098 0
    outer loop
       vertex 0.534322 -8.32665e-17 0.1
       vertex 0.532183 -0.0326315 0.1
       vertex 0.532183 -0.0326315 0
    endloop
  endfacet
  facet normal 0.997858 -0.0654098 -1.08928e-16
    outer loop
       vertex 0.532183 -0.0326315 0
       vertex 0.534322 8.32665e-17 0
       vertex 0.534322 -8.32665e-17 0.1
    endloop
  endfacet
  facet normal 0.997858 0.0654098 0
    outer loop
       vertex 0.534322 8.32665e-17 0
       vertex 0.532183 0.0326315 0
       vertex 0.532183 0.0326315 0.1
    endloop
  endfacet
  facet normal 0.997858 0.0654098 1.08928e-16
    outer loop
       vertex 0.532183 0.0326315 0.1
       vertex 0.534322 -8.32665e-17 0.1
       vertex 0.534322 8.32665e-17 0
    endloop
  endfacet
  facet normal 0.980784 0.195096 0
    outer loop
       vertex 0.532183 0.0326315 0
       vertex 0.525803 0.064705 0
       vertex 0.525803 0.064705 0.1
    endloop
  endfacet
  facet normal 0.980784 0.195096 0
    outer loop
       vertex 0.525803 0.064705 0.1
       vertex 0.532183 0.0326315 0.1
       vertex 0.532183 0.0326315 0
    endloop
  endfacet
  facet normal 0.946935 0.321425 0
    outer loop
       vertex 0.525803 0.064705 0
       vertex 0.515292 0.095671 0
       vertex 0.515292 0.095671 0.1
    endloop
  endfacet
  facet normal 0.946935 0.321425 0
    outer loop
       vertex 0.515292 0.095671 0.1
       vertex 0.525803 0.064705 0.1
       vertex 0.525803 0.064705 0
    endloop
  endfacet
  facet normal 0.896866 0.442302 0
    outer loop
       vertex 0.515292 0.095671 0
       vertex 0.500828 0.125 0
       vertex 0.500828 0.125 0.1
    endloop
  endfacet
  facet normal 0.896866 0.442302 0
    outer loop
       vertex 0.500828 0.125 0.1
       vertex 0.515292 0.095671 0.1
       vertex 0.515292 0.095671 0
    endloop
  endfacet
  facet normal 0.831476 0.555561 0
    outer loop
       vertex 0.500828 0.125 0
       vertex 0.48266 0.152191 0
       vertex 0.48266 0.152191 0.1
    endloop
  endfacet
  facet normal 0.831476 0.555561 0
    outer loop
       vertex 0.48266 0.152191 0.1
       vertex 0.500828 0.125 0.1
       vertex 0.500828 0.125 0
    endloop
  endfacet
  facet normal 0.751817 0.659372 0
    outer loop
       vertex 0.48266 0.152191 0
       vertex 0.461098 0.176776 0
       vertex 0.461098 0.176776 0.1
    endloop
  endfacet
  facet normal 0.751817 0.659372 0
    outer loop
       vertex 0.461098 0.176776 0.1
       vertex 0.48266 0.152191 0.1
       vertex 0.48266 0.152191 0
    endloop
  endfacet
  facet normal 0.659372 0.751817 0
    outer loop
       vertex 0.461098 0.176776 0
       vertex 0.436513 0.198338 0
       vertex 0.436513 0.198338 0.1
    endloop
  endfacet
  facet normal 0.659372 0.751817 0
    outer loop
       vertex 0.436513 0.198338 0.1
       vertex 0.461098 0.176776 0.1
       vertex 0.461098 0.176776 0
    endloop
  endfacet
  facet normal 0.555561 0.831476 0
    outer loop
       vertex 0.436513 0.198338 0
       vertex 0.409322 0.216506 0
       vertex 0.409322 0.216506 0.1
    endloop
  endfacet
  facet normal 0.555561 0.831476 0
    outer loop
       vertex 0.409322 0.216506 0.1
       vertex 0.436513 0.198338 0.1
       vertex 0.436513 0.198338 0
    endloop
  endfacet
  facet normal 0.442302 0.896866 0
    outer loop
       vertex 0.409322 0.216506 0
       vertex 0.379993 0.23097 0
       vertex 0.379993 0.23097 0.1
    endloop
  endfacet
  facet normal 0.442302 0.896866 0
    outer loop
       vertex 0.379993 0.23097 0.1
       vertex 0.409322 0.216506 0.1
       vertex 0.409322 0.216506 0
    endloop
  endfacet
  facet normal 0.321425 0.946935 0
    outer loop
       vertex 0.379993 0.23097 0
       vertex 0.349027 0.241481 0
       vertex 0.349027 0.241481 0.1
    endloop
  endfacet
  facet normal 0.321425 0.946935 0
    outer loop
       vertex 0.349027 0.241481 0.1
       vertex 0.379993 0.23097 0.1
       vertex 0.379993 0.23097 0
    endloop
  endfacet
  facet normal 0.195096 0.980784 0
    outer loop
       vertex 0.349027 0.241481 0
       vertex 0.316954 0.247861 0
       vertex 0.316954 0.247861 0.1
    endloop
  endfacet
  facet normal 0.195096 0.980784 0
    outer loop
       vertex 0.316954 0.247861 0.1
       vertex 0.349027 0.241481 0.1
       vertex 0.349027 0.241481 0
    endloop
  endfacet
  facet normal 0.0654098 0.997858 0
    outer loop
       vertex 0.284322 0.25 0.1
       vertex 0.316954 0.247861 0.1
       vertex 0.316954 0.247861 0
    endloop
  endfacet
  facet normal 0.0654098 0.997858 -1.45239e-16
    outer loop
       vertex 0.316954 0.247861 0
       vertex 0.284322 0.25 0
       vertex 0.284322 0.25 0.1
    endloop
  endfacet
  facet normal -0.0654098 0.997858 0
    outer loop
       vertex 0.284322 0.25 0
       vertex 0.251691 0.247861 0
       vertex 0.251691 0.247861 0.1
    endloop
  endfacet
  facet normal -0.0654098 0.997858 1.45239e-16
    outer loop
       vertex 0.251691 0.247861 0.1
       vertex 0.284322 0.25 0.1
       vertex 0.284322 0.25 0
    endloop
  endfacet
  facet normal -0.195096 0.980784 0
    outer loop
       vertex 0.251691 0.247861 0
       vertex 0.219617 0.241481 0
       vertex 0.219617 0.241481 0.1
    endloop
  endfacet
  facet normal -0.195096 0.980784 0
    outer loop
       vertex 0.219617 0.241481 0.1
       vertex 0.251691 0.247861 0.1
       vertex 0.251691 0.247861 0
    endloop
  endfacet
  facet normal -0.321425 0.946935 0
    outer loop
       vertex 0.219617 0.241481 0
       vertex 0.188651 0.23097 0
       vertex 0.188651 0.23097 0.1
    endloop
  endfacet
  facet normal -0.321425 0.946935 0
    outer loop
       vertex 0.188651 0.23097 0.1
       vertex 0.219617 0.241481 0.1
       vertex 0.219617 0.241481 0
    endloop
  endfacet
  facet normal -0.442302 0.896866 0
    outer loop
       vertex 0.188651 0.23097 0
       vertex 0.159322 0.216506 0
       vertex 0.159322 0.216506 0.1
    endloop
  endfacet
  facet normal -0.442302 0.896866 0
    outer loop
       vertex 0.159322 0.216506 0.1
       vertex 0.188651 0.23097 0.1
       vertex 0.188651 0.23097 0
    endloop
  endfacet
  facet normal -0.555561 0.831476 0
    outer loop
       vertex 0.159322 0.216506 0
       vertex 0.132131 0.198338 0
       vertex 0.132131 0.198338 0.1
    endloop
  endfacet
  facet normal -0.555561 0.831476 0
    outer loop
       vertex 0.132131 0.198338 0.1
       vertex 0.159322 0.216506 0.1
       vertex 0.159322 0.216506 0
    endloop
  endfacet
  facet normal -0.659372 0.751817 0
    outer loop
       vertex 0.132131 0.198338 0
       vertex 0.107546 0.176776 0
       vertex 0.107546 0.176776 0.1
    endloop
  endfacet
  facet normal -0.659372 0.751817 0
    outer loop
       vertex 0.107546 0.176776 0.1
       vertex 0.132131 0.198338 0.1
       vertex 0.132131 0.198338 0
    endloop
  endfacet
  facet normal -0.751817 0.659372 0
    outer loop
       vertex 0.107546 0.176776 0
       vertex 0.085984 0.152191 0
       vertex 0.085984 0.152191 0.1
    endloop
  endfacet
  facet normal -0.751817 0.659372 0
    outer loop
       vertex 0.085984 0.152191 0.1
       vertex 0.107546 0.176776 0.1
       vertex 0.107546 0.176776 0
    endloop
  endfacet
  facet normal -0.831476 0.555561 0
    outer loop
       vertex 0.085984 0.152191 0
       vertex 0.067816 0.125 0
       vertex 0.067816 0.125 0.1
    endloop
  endfacet
  facet normal -0.831476 0.555561 0
    outer loop
       vertex 0.067816 0.125 0.1
       vertex 0.085984 0.152191 0.1
       vertex 0.085984 0.152191 0
    endloop
  endfacet
  facet normal -0.896866 0.442302 0
    outer loop
       vertex 0.067816 0.125 0
       vertex 0.053352 0.095671 0
       vertex 0.053352 0.095671 0.1
    endloop
  endfacet
  facet normal -0.896866 0.442302 0
    outer loop
       vertex 0.053352 0.095671 0.1
       vertex 0.067816 0.125 0.1
       vertex 0.067816 0.125 0
    endloop
  endfacet
  facet normal -0.946935 0.321425 0
    outer loop
       vertex 0.053352 0.095671 0
       vertex 0.042841 0.064705 0
       vertex 0.042841 0.064705 0.1
    endloop
  endfacet
  facet normal -0.946935 0.321425 0
    outer loop
       vertex 0.042841 0.064705 0.1
       vertex 0.053352 0.095671 0.1
       vertex 0.053352 0.095671 0
    endloop
  endfacet
  facet normal -0.980784 0.195096 0
    outer loop
       vertex 0.042841 0.064705 0
       vertex 0.036461 0.0326315 0
       vertex 0.036461 0.0326315 0.1
    endloop
  endfacet
  facet normal -0.980784 0.195096 0
    outer loop
       vertex 0.036461 0.0326315 0.1
       vertex 0.042841 0.064705 0.1
       vertex 0.042841 0.064705 0
    endloop
  endfacet
  facet normal -0.997858 0.0654098 0
    outer loop
       vertex 0.034322 8.32665e-17 0.1
       vertex 0.036461 0.0326315 0.1
       vertex 0.036461 0.0326315 0
    endloop
  endfacet
  facet normal -0.997858 0.0654098 -1.08928e-16
    outer loop
       vertex 0.036461 0.0326315 0
       vertex 0.034322 -8.32665e-17 0
       vertex 0.034322 8.32665e-17 0.1
    endloop
  endfacet
  facet normal -0.997858 -0.0654098 0
    outer loop
       vertex 0.034322 -8.32665e-17 0
       vertex 0.036461 -0.0326315 0
       vertex 0.036461 -0.0326315 0.1
    endloop
  endfacet
  facet normal -0.997858 -0.0654098 1.08928e-16
    outer loop
       vertex 0.036461 -0.0326315 0.1
       vertex 0.034322 8.32665e-17 0.1
       vertex 0.034322 -8.32665e-17 0
    endloop
  endfacet
  facet normal -0.980784 -0.195096 0
    outer loop
       vertex 0.036461 -0.0326315 0
       vertex 0.042841 -0.064705 0
       vertex 0.042841 -0.064705 0.1
    endloop
  endfacet
  facet normal -0.980784 -0.195096 0
    outer loop
       vertex 0.042841 -0.064705 0.1
       vertex 0.036461 -0.0326315 0.1
       vertex 0.036461 -0.0326315 0
    endloop
  endfacet
  facet normal -0.946935 -0.321425 0
    outer loop
       vertex 0.042841 -0.064705 0
       vertex 0.053352 -0.095671 0
       vertex 0.053352 -0.095671 0.1
    endloop
  endfacet
  facet normal -0.946935 -0.321425 0
    outer loop
       vertex 0.053352 -0.095671 0.1
       vertex 0.042841 -0.064705 0.1
       vertex 0.042841 -0.064705 0
    endloop
  endfacet
  facet normal -0.896866 -0.442302 0
    outer loop
       vertex 0.053352 -0.095671 0
       vertex 0.067816 -0.125 0
       vertex 0.067816 -0.125 0.1
    endloop
  endfacet
  facet normal -0.896866 -0.442302 0
    outer loop
       vertex 0.067816 -0.125 0.1
       vertex 0.053352 -0.095671 0.1
       vertex 0.053352 -0.095671 0
    endloop
  endfacet
  facet normal -0.831476 -0.555561 0
    outer loop
       vertex 0.067816 -0.125 0
       vertex 0.085984 -0.152191 0
       vertex 0.085984 -0.152191 0.1
    endloop
  endfacet
  facet normal -0.831476 -0.555561 0
    outer loop
       vertex 0.085984 -0.152191 0.1
       vertex 0.067816 -0.125 0.1
       vertex 0.067816 -0.125 0
    endloop
  endfacet
  facet normal -0.751817 -0.659372 0
    outer loop
       vertex 0.085984 -0.152191 0
       vertex 0.107546 -0.176776 0
       vertex 0.107546 -0.176776 0.1
    endloop
  endfacet
  facet normal -0.751817 -0.659372 0
    outer loop
       vertex 0.107546 -0.176776 0.1
       vertex 0.085984 -0.152191 0.1
       vertex 0.085984 -0.152191 0
    endloop
  endfacet
  facet normal 0.659372 -0.751817 0
    outer loop
       vertex 0.461098 -0.176776 0
       vertex 0.461098 -0.176776 0.1
       vertex 0.436513 -0.198338 0.1
    endloop
  endfacet
  facet normal 0.659372 -0.751817 0
    outer loop
       vertex 0.436513 -0.198338 0.1
       vertex 0.436513 -0.198338 0
       vertex 0.461098 -0.176776 0
    endloop
  endfacet
  facet normal 0.555561 -0.831476 0
    outer loop
       vertex 0.436513 -0.198338 0
       vertex 0.436513 -0.198338 0.1
       vertex 0.409322 -0.216506 0.1
    endloop
  endfacet
  facet normal 0.555561 -0.831476 0
    outer loop
       vertex 0.409322 -0.216506 0.1
       vertex 0.409322 -0.216506 0
       vertex 0.436513 -0.198338 0
    endloop
  endfacet
  facet normal 0.442302 -0.896866 0
    outer loop
       vertex 0.409322 -0.216506 0
       vertex 0.409322 -0.216506 0.1
       vertex 0.379993 -0.23097 0.1
    endloop
  endfacet
  facet normal 0.442302 -0.896866 0
    outer loop
       vertex 0.379993 -0.23097 0.1
       vertex 0.379993 -0.23097 0
       vertex 0.409322 -0.216506 0
    endloop
  endfacet
  facet normal 0.321425 -0.946935 0
    outer loop
       vertex 0.379993 -0.23097 0
       vertex 0.379993 -0.23097 0.1
       vertex 0.349027 -0.241481 0.1
    endloop
  endfacet
  facet normal 0.321425 -0.946935 0
    outer loop
       vertex 0.349027 -0.241481 0.1
       vertex 0.349027 -0.241481 0
       vertex 0.379993 -0.23097 0
    endloop
  endfacet
  facet normal 0.195096 -0.980784 0
    outer loop
       vertex 0.349027 -0.241481 0
       vertex 0.349027 -0.241481 0.1
       vertex 0.316954 -0.247861 0.1
    endloop
  endfacet
  facet normal 0.195096 -0.980784 0
    outer loop
       vertex 0.316954 -0.247861 0.1
       vertex 0.316954 -0.247861 0
       vertex 0.349027 -0.241481 0
    endloop
  endfacet
  facet normal 0.0654098 -0.997858 0
    outer loop
       vertex 0.284322 -0.25 0
       vertex 0.316954 -0.247861 0
       vertex 0.316954 -0.247861 0.1
    endloop
  endfacet
  facet normal 0.0654098 -0.997858 1.45239e-16
    outer loop
       vertex 0.316954 -0.247861 0.1
       vertex 0.284322 -0.25 0.1
       vertex 0.284322 -0.25 0
    endloop
  endfacet
  facet normal -0.0654098 -0.997858 0
    outer loop
       vertex 0.284322 -0.25 0.1
       vertex 0.251691 -0.247861 0.1
       vertex 0.251691 -0.247861 0
    endloop
  endfacet
  facet normal -0.0654098 -0.997858 -1.45239e-16
    outer loop
       vertex 0.251691 -0.247861 0
       vertex 0.284322 -0.25 0
       vertex 0.284322 -0.25 0.1
    endloop
  endfacet
  facet normal -0.195096 -0.980784 0
    outer loop
       vertex 0.251691 -0.247861 0
       vertex 0.251691 -0.247861 0.1
       vertex 0.219617 -0.241481 0.1
    endloop
  endfacet
  facet normal -0.195096 -0.980784 -0
    outer loop
       vertex 0.219617 -0.241481 0.1
       vertex 0.219617 -0.241481 0
       vertex 0.251691 -0.247861 0
    endloop
  endfacet
  facet normal -0.321425 -0.946935 0
    outer loop
       vertex 0.219617 -0.241481 0
       vertex 0.219617 -0.241481 0.1
       vertex 0.188651 -0.23097 0.1
    endloop
  endfacet
  facet normal -0.321425 -0.946935 -0
    outer loop
       vertex 0.188651 -0.23097 0.1
       vertex 0.188651 -0.23097 0
       vertex 0.219617 -0.241481 0
    endloop
  endfacet
  facet normal -0.442302 -0.896866 0
    outer loop
       vertex 0.188651 -0.23097 0
       vertex 0.188651 -0.23097 0.1
       vertex 0.159322 -0.216506 0.1
    endloop
  endfacet
  facet normal -0.442302 -0.896866 -0
    outer loop
       vertex 0.159322 -0.216506 0.1
       vertex 0.159322 -0.216506 0
       vertex 0.188651 -0.23097 0
    endloop
  endfacet
  facet normal -0.555561 -0.831476 0
    outer loop
       vertex 0.159322 -0.216506 0
       vertex 0.159322 -0.216506 0.1
       vertex 0.132131 -0.198338 0.1
    endloop
  endfacet
  facet normal -0.555561 -0.831476 -0
    outer loop
       vertex 0.132131 -0.198338 0.1
       vertex 0.132131 -0.198338 0
       vertex 0.159322 -0.216506 0
    endloop
  endfacet
  facet normal -0.659372 -0.751817 0
    outer loop
       vertex 0.132131 -0.198338 0
       vertex 0.132131 -0.198338 0.1
       vertex 0.107546 -0.176776 0.1
    endloop
  endfacet
  facet normal -0.659372 -0.751817 -0
    outer loop
       vertex 0.107546 -0.176776 0.1
       vertex 0.107546 -0.176776 0
       vertex 0.132131 -0.198338 0
    endloop
  endfacet
endsolid cylinder
