solid cylinder
  facet normal 0.751817 -0.659372 0
    outer loop
       vertex 0.368291 -0.176776 0
       vertex 0.389853 -0.152191 0
       vertex 0.389853 -0.152191 0.1
    endloop
  endfacet
  facet normal 0.751817 -0.659372 0
    outer loop
       vertex 0.389853 -0.152191 0.1
       vertex 0.368291 -0.176776 0.1
       vertex 0.368291 -0.176776 0
    endloop
  endfacet
  facet normal 0.831476 -0.555561 0
    outer loop
       vertex 0.389853 -0.152191 0
       vertex 0.408021 -0.125 0
       vertex 0.408021 -0.125 0.1
    endloop
  endfacet
  facet normal 0.831476 -0.555561 0
    outer loop
       vertex 0.408021 -0.125 0.1
       vertex 0.389853 -0.152191 0.1
       vertex 0.389853 -0.152191 0
    endloop
  endfacet
  facet normal 0.896866 -0.442302 0
    outer loop
       vertex 0.408021 -0.125 0
       vertex 0.422485 -0.095671 0
       vertex 0.422485 -0.095671 0.1
    endloop
  endfacet
  facet normal 0.896866 -0.442302 0
    outer loop
       vertex 0.422485 -0.095671 0.1
       vertex 0.408021 -0.125 0.1
       vertex 0.408021 -0.125 0
    endloop
  endfacet
  facet normal 0.946935 -0.321425 0
    outer loop
       vertex 0.422485 -0.095671 0
       vertex 0.432996 -0.064705 0
       vertex 0.432996 -0.064705 0.1
    endloop
  endfacet
  facet normal 0.946935 -0.321425 0
    outer loop
       vertex 0.432996 -0.064705 0.1
       vertex 0.422485 -0.095671 0.1
       vertex 0.422485 -0.095671 0
    endloop
  endfacet
  facet normal 0.980784 -0.195096 0
    outer loop
       vertex 0.432996 -0.064705 0
       vertex 0.439376 -0.0326315 0
       vertex 0.439376 -0.0326315 0.1
    endloop
  endfacet
  facet normal 0.980784 -0.195096 0
    outer loop
       vertex 0.439376 -0.0326315 0.1
       vertex 0.432996 -0.064705 0.1
       vertex 0.432996 -0.064705 0
    endloop
  endfacet
  facet normal 0.997858 -0.0654098 0
    outer loop
       vertex 0.441515 -8.32665e-17 0.1
       vertex 0.439376 -0.0326315 0.1
       vertex 0.439376 -0.0326315 0
    endloop
  endfacet
  facet normal 0.997858 -0.0654098 -1.08928e-16
    outer loop
       vertex 0.439376 -0.0326315 0
       vertex 0.441515 8.32665e-17 0
       vertex 0.441515 -8.32665e-17 0.1
    endloop
  endfacet
  facet normal 0.997858 0.0654098 0
    outer loop
       vertex 0.441515 8.32665e-17 0
       vertex 0.439376 0.0326315 0
       vertex 0.439376 0.0326315 0.1
    endloop
  endfacet
  facet normal 0.997858 0.0654098 1.08928e-16
    outer loop
       vertex 0.439376 0.0326315 0.1
       vertex 0.441515 -8.32665e-17 0.1
       vertex 0.441515 8.32665e-17 0
    endloop
  endfacet
  facet normal 0.980784 0.195096 0
    outer loop
       vertex 0.439376 0.0326315 0
       vertex 0.432996 0.064705 0
       vertex 0.432996 0.064705 0.1
    endloop
  endfacet
  facet normal 0.980784 0.195096 0
    outer loop
       vertex 0.432996 0.064705 0.1
       vertex 0.439376 0.0326315 0.1
       vertex 0.439376 0.0326315 0
    endloop
  endfacet
  facet normal 0.946935 0.321425 0
    outer loop
       vertex 0.432996 0.064705 0
       vertex 0.422485 0.095671 0
       vertex 0.422485 0.095671 0.1
    endloop
  endfacet
  facet normal 0.946935 0.321425 0
    outer loop
       vertex 0.422485 0.095671 0.1
       vertex 0.432996 0.064705 0.1
       vertex 0.432996 0.064705 0
    endloop
  endfacet
  facet normal 0.896866 0.442302 0
    outer loop
       vertex 0.422485 0.095671 0
       vertex 0.408021 0.125 0
       vertex 0.408021 0.125 0.1
    endloop
  endfacet
  facet normal 0.896866 0.442302 0
    outer loop
       vertex 0.408021 0.125 0.1
       vertex 0.422485 0.095671 0.1
       vertex 0.422485 0.095671 0
    endloop
  endfacet
  facet normal 0.831476 0.555561 0
    outer loop
       vertex 0.408021 0.125 0
       vertex 0.389853 0.152191 0
       vertex 0.389853 0.152191 0.1
    endloop
  endfacet
  facet normal 0.831476 0.555561 0
    outer loop
       vertex 0.389853 0.152191 0.1
       vertex 0.408021 0.125 0.1
       vertex 0.408021 0.125 0
    endloop
  endfacet
  facet normal 0.751817 0.659372 0
    outer loop
       vertex 0.389853 0.152191 0
       vertex 0.368291 0.176776 0
       vertex 0.368291 0.176776 0.1
    endloop
  endfacet
  facet normal 0.751817 0.659372 0
    outer loop
       vertex 0.368291 0.176776 0.1
       vertex 0.389853 0.152191 0.1
       vertex 0.389853 0.152191 0
    endloop
  endfacet
  facet normal 0.659372 0.751817 0
    outer loop
       vertex 0.368291 0.176776 0
       vertex 0.343706 0.198338 0
       vertex 0.343706 0.198338 0.1
    endloop
  endfacet
  facet normal 0.659372 0.751817 0
    outer loop
       vertex 0.343706 0.198338 0.1
       vertex 0.368291 0.176776 0.1
       vertex 0.368291 0.176776 0
    endloop
  endfacet
  facet normal 0.555561 0.831476 0
    outer loop
       vertex 0.343706 0.198338 0
       vertex 0.316515 0.216506 0
       vertex 0.316515 0.216506 0.1
    endloop
  endfacet
  facet normal 0.555561 0.831476 0
    outer loop
       vertex 0.316515 0.216506 0.1
       vertex 0.343706 0.198338 0.1
       vertex 0.343706 0.198338 0
    endloop
  endfacet
  facet normal 0.442302 0.896866 0
    outer loop
       vertex 0.316515 0.216506 0
       vertex 0.287186 0.23097 0
       vertex 0.287186 0.23097 0.1
    endloop
  endfacet
  facet normal 0.442302 0.896866 0
    outer loop
       vertex 0.287186 0.23097 0.1
       vertex 0.316515 0.216506 0.1
       vertex 0.316515 0.216506 0
    endloop
  endfacet
  facet normal 0.321425 0.946935 0
    outer loop
       vertex 0.287186 0.23097 0
       vertex 0.25622 0.241481 0
       vertex 0.25622 0.241481 0.1
    endloop
  endfacet
  facet normal 0.321425 0.946935 0
    outer loop
       vertex 0.25622 0.241481 0.1
       vertex 0.287186 0.23097 0.1
       vertex 0.287186 0.23097 0
    endloop
  endfacet
  facet normal 0.195096 0.980784 0
    outer loop
       vertex 0.25622 0.241481 0
       vertex 0.224147 0.247861 0
       vertex 0.224147 0.247861 0.1
    endloop
  endfacet
  facet normal 0.195096 0.980784 0
    outer loop
       vertex 0.224147 0.247861 0.1
       vertex 0.25622 0.241481 0.1
       vertex 0.25622 0.241481 0
    endloop
  endfacet
  facet normal 0.0654098 0.997858 0
    outer loop
       vertex 0.191515 0.25 0.1
       vertex 0.224147 0.247861 0.1
       vertex 0.224147 0.247861 0
    endloop
  endfacet
  facet normal 0.0654098 0.997858 -1.0893e-16
    outer loop
       vertex 0.224147 0.247861 0
       vertex 0.191515 0.25 0
       vertex 0.191515 0.25 0.1
    endloop
  endfacet
  facet normal -0.0654098 0.997858 0
    outer loop
       vertex 0.191515 0.25 0
       vertex 0.158884 0.247861 0
       vertex 0.158884 0.247861 0.1
    endloop
  endfacet
  facet normal -0.0654098 0.997858 1.0893e-16
    outer loop
       vertex 0.158884 0.247861 0.1
       vertex 0.191515 0.25 0.1
       vertex 0.191515 0.25 0
    endloop
  endfacet
  facet normal -0.195096 0.980784 0
    outer loop
       vertex 0.158884 0.247861 0
       vertex 0.12681 0.241481 0
       vertex 0.12681 0.241481 0.1
    endloop
  endfacet
  facet normal -0.195096 0.980784 0
    outer loop
       vertex 0.12681 0.241481 0.1
       vertex 0.158884 0.247861 0.1
       vertex 0.158884 0.247861 0
    endloop
  endfacet
  facet normal -0.321425 0.946935 0
    outer loop
       vertex 0.12681 0.241481 0
       vertex 0.0958444 0.23097 0
       vertex 0.0958444 0.23097 0.1
    endloop
  endfacet
  facet normal -0.321425 0.946935 0
    outer loop
       vertex 0.0958444 0.23097 0.1
       vertex 0.12681 0.241481 0.1
       vertex 0.12681 0.241481 0
    endloop
  endfacet
  facet normal -0.442302 0.896866 0
    outer loop
       vertex 0.0958444 0.23097 0
       vertex 0.0665154 0.216506 0
       vertex 0.0665154 0.216506 0.1
    endloop
  endfacet
  facet normal -0.442302 0.896866 0
    outer loop
       vertex 0.0665154 0.216506 0.1
       vertex 0.0958444 0.23097 0.1
       vertex 0.0958444 0.23097 0
    endloop
  endfacet
  facet normal -0.555561 0.831476 0
    outer loop
       vertex 0.0665154 0.216506 0
       vertex 0.0393244 0.198338 0
       vertex 0.0393244 0.198338 0.1
    endloop
  endfacet
  facet normal -0.555561 0.831476 0
    outer loop
       vertex 0.0393244 0.198338 0.1
       vertex 0.0665154 0.216506 0.1
       vertex 0.0665154 0.216506 0
    endloop
  endfacet
  facet normal -0.659372 0.751817 0
    outer loop
       vertex 0.0393244 0.198338 0
       vertex 0.0147394 0.176776 0
       vertex 0.0147394 0.176776 0.1
    endloop
  endfacet
  facet normal -0.659372 0.751817 0
    outer loop
       vertex 0.0147394 0.176776 0.1
       vertex 0.0393244 0.198338 0.1
       vertex 0.0393244 0.198338 0
    endloop
  endfacet
  facet normal -0.751817 0.659372 0
    outer loop
       vertex 0.0147394 0.176776 0
       vertex -0.00682256 0.152191 0
       vertex -0.00682256 0.152191 0.1
    endloop
  endfacet
  facet normal -0.751817 0.659372 0
    outer loop
       vertex -0.00682256 0.152191 0.1
       vertex 0.0147394 0.176776 0.1
       vertex 0.0147394 0.176776 0
    endloop
  endfacet
  facet normal -0.831476 0.555561 0
    outer loop
       vertex -0.00682256 0.152191 0
       vertex -0.0249906 0.125 0
       vertex -0.0249906 0.125 0.1
    endloop
  endfacet
  facet normal -0.831476 0.555561 0
    outer loop
       vertex -0.0249906 0.125 0.1
       vertex -0.00682256 0.152191 0.1
       vertex -0.00682256 0.152191 0
    endloop
  endfacet
  facet normal -0.896866 0.442302 0
    outer loop
       vertex -0.0249906 0.125 0
       vertex -0.0394546 0.095671 0
       vertex -0.0394546 0.095671 0.1
    endloop
  endfacet
  facet normal -0.896866 0.442302 0
    outer loop
       vertex -0.0394546 0.095671 0.1
       vertex -0.0249906 0.125 0.1
       vertex -0.0249906 0.125 0
    endloop
  endfacet
  facet normal -0.946935 0.321425 0
    outer loop
       vertex -0.0394546 0.095671 0
       vertex -0.0499656 0.064705 0
       vertex -0.0499656 0.064705 0.1
    endloop
  endfacet
  facet normal -0.946935 0.321425 0
    outer loop
       vertex -0.0499656 0.064705 0.1
       vertex -0.0394546 0.095671 0.1
       vertex -0.0394546 0.095671 0
    endloop
  endfacet
  facet normal -0.980784 0.195096 0
    outer loop
       vertex -0.0499656 0.064705 0
       vertex -0.0563456 0.0326315 0
       vertex -0.0563456 0.0326315 0.1
    endloop
  endfacet
  facet normal -0.980784 0.195096 0
    outer loop
       vertex -0.0563456 0.0326315 0.1
       vertex -0.0499656 0.064705 0.1
       vertex -0.0499656 0.064705 0
    endloop
  endfacet
  facet normal -0.997858 0.0654098 0
    outer loop
       vertex -0.0584846 8.32665e-17 0.1
       vertex -0.0563456 0.0326315 0.1
       vertex -0.0563456 0.0326315 0
    endloop
  endfacet
  facet normal -0.997858 0.0654098 -1.08928e-16
    outer loop
       vertex -0.0563456 0.0326315 0
       vertex -0.0584846 -8.32665e-17 0
       vertex -0.0584846 8.32665e-17 0.1
    endloop
  endfacet
  facet normal -0.997858 -0.0654098 0
    outer loop
       vertex -0.0584846 -8.32665e-17 0
       vertex -0.0563456 -0.0326315 0
       vertex -0.0563456 -0.0326315 0.1
    endloop
  endfacet
  facet normal -0.997858 -0.0654098 1.08928e-16
    outer loop
       vertex -0.0563456 -0.0326315 0.1
       vertex -0.0584846 8.32665e-17 0.1
       vertex -0.0584846 -8.32665e-17 0
    endloop
  endfacet
  facet normal -0.980784 -0.195096 0
    outer loop
       vertex -0.0563456 -0.0326315 0
       vertex -0.0499656 -0.064705 0
       vertex -0.0499656 -0.064705 0.1
    endloop
  endfacet
  facet normal -0.980784 -0.195096 0
    outer loop
       vertex -0.0499656 -0.064705 0.1
       vertex -0.0563456 -0.0326315 0.1
       vertex -0.0563456 -0.0326315 0
    endloop
  endfacet
  facet normal -0.946935 -0.321425 0
    outer loop
       vertex -0.0499656 -0.064705 0
       vertex -0.0394546 -0.095671 0
       vertex -0.0394546 -0.095671 0.1
    endloop
  endfacet
  facet normal -0.946935 -0.321425 0
    outer loop
       vertex -0.0394546 -0.095671 0.1
       vertex -0.0499656 -0.064705 0.1
       vertex -0.0499656 -0.064705 0
    endloop
  endfacet
  facet normal -0.896866 -0.442302 0
    outer loop
       vertex -0.0394546 -0.095671 0
       vertex -0.0249906 -0.125 0
       vertex -0.0249906 -0.125 0.1
    endloop
  endfacet
  facet normal -0.896866 -0.442302 0
    outer loop
       vertex -0.0249906 -0.125 0.1
       vertex -0.0394546 -0.095671 0.1
       vertex -0.0394546 -0.095671 0
    endloop
  endfacet
  facet normal -0.831476 -0.555561 0
    outer loop
       vertex -0.0249906 -0.125 0
       vertex -0.00682256 -0.152191 0
       vertex -0.00682256 -0.152191 0.1
    endloop
  endfacet
  facet normal -0.831476 -0.555561 0
    outer loop
       vertex -0.00682256 -0.152191 0.1
       vertex -0.0249906 -0.125 0.1
       vertex -0.0249906 -0.125 0
    endloop
  endfacet
  facet normal -0.751817 -0.659372 0
    outer loop
       vertex -0.00682256 -0.152191 0
       vertex 0.0147394 -0.176776 0
       vertex 0.0147394 -0.176776 0.1
    endloop
  endfacet
  facet normal -0.751817 -0.659372 0
    outer loop
       vertex 0.0147394 -0.176776 0.1
       vertex -0.00682256 -0.152191 0.1
       vertex -0.00682256 -0.152191 0
    endloop
  endfacet
  facet normal 0.659372 -0.751817 0
    outer loop
       vertex 0.368291 -0.176776 0
       vertex 0.368291 -0.176776 0.1
       vertex 0.343706 -0.198338 0.1
    endloop
  endfacet
  facet normal 0.659372 -0.751817 0
    outer loop
       vertex 0.343706 -0.198338 0.1
       vertex 0.343706 -0.198338 0
       vertex 0.368291 -0.176776 0
    endloop
  endfacet
  facet normal 0.555561 -0.831476 0
    outer loop
       vertex 0.343706 -0.198338 0
       vertex 0.343706 -0.198338 0.1
       vertex 0.316515 -0.216506 0.1
    endloop
  endfacet
  facet normal 0.555561 -0.831476 0
    outer loop
       vertex 0.316515 -0.216506 0.1
       vertex 0.316515 -0.216506 0
       vertex 0.343706 -0.198338 0
    endloop
  endfacet
  facet normal 0.442302 -0.896866 0
    outer loop
       vertex 0.316515 -0.216506 0
       vertex 0.316515 -0.216506 0.1
       vertex 0.287186 -0.23097 0.1
    endloop
  endfacet
  facet normal 0.442302 -0.896866 0
    outer loop
       vertex 0.287186 -0.23097 0.1
       vertex 0.287186 -0.23097 0
       vertex 0.316515 -0.216506 0
    endloop
  endfacet
  facet normal 0.321425 -0.946935 0
    outer loop
       vertex 0.287186 -0.23097 0
       vertex 0.287186 -0.23097 0.1
       vertex 0.25622 -0.241481 0.1
    endloop
  endfacet
  facet normal 0.321425 -0.946935 0
    outer loop
       vertex 0.25622 -0.241481 0.1
       vertex 0.25622 -0.241481 0
       vertex 0.287186 -0.23097 0
    endloop
  endfacet
  facet normal 0.195096 -0.980784 0
    outer loop
       vertex 0.25622 -0.241481 0
       vertex 0.25622 -0.241481 0.1
       vertex 0.224147 -0.247861 0.1
    endloop
  endfacet
  facet normal 0.195096 -0.980784 0
    outer loop
       vertex 0.224147 -0.247861 0.1
       vertex 0.224147 -0.247861 0
       vertex 0.25622 -0.241481 0
    endloop
  endfacet
  facet normal 0.0654098 -0.997858 0
    outer loop
       vertex 0.191515 -0.25 0
       vertex 0.224147 -0.247861 0
       vertex 0.224147 -0.247861 0.1
    endloop
  endfacet
  facet normal 0.0654098 -0.997858 1.0893e-16
    outer loop
       vertex 0.224147 -0.247861 0.1
       vertex 0.191515 -0.25 0.1
       vertex 0.191515 -0.25 0
    endloop
  endfacet
  facet normal -0.0654098 -0.997858 0
    outer loop
       vertex 0.191515 -0.25 0.1
       vertex 0.158884 -0.247861 0.1
       vertex 0.158884 -0.247861 0
    endloop
  endfacet
  facet normal -0.0654098 -0.997858 -1.0893e-16
    outer loop
       vertex 0.158884 -0.247861 0
       vertex 0.191515 -0.25 0
       vertex 0.191515 -0.25 0.1
    endloop
  endfacet
  facet normal -0.195096 -0.980784 0
    outer loop
       vertex 0.158884 -0.247861 0
       vertex 0.158884 -0.247861 0.1
       vertex 0.12681 -0.241481 0.1
    endloop
  endfacet
  facet normal -0.195096 -0.980784 -0
    outer loop
       vertex 0.12681 -0.241481 0.1
       vertex 0.12681 -0.241481 0
       vertex 0.158884 -0.247861 0
    endloop
  endfacet
  facet normal -0.321425 -0.946935 0
    outer loop
       vertex 0.12681 -0.241481 0
       vertex 0.12681 -0.241481 0.1
       vertex 0.0958444 -0.23097 0.1
    endloop
  endfacet
  facet normal -0.321425 -0.946935 -0
    outer loop
       vertex 0.0958444 -0.23097 0.1
       vertex 0.0958444 -0.23097 0
       vertex 0.12681 -0.241481 0
    endloop
  endfacet
  facet normal -0.442302 -0.896866 0
    outer loop
       vertex 0.0958444 -0.23097 0
       vertex 0.0958444 -0.23097 0.1
       vertex 0.0665154 -0.216506 0.1
    endloop
  endfacet
  facet normal -0.442302 -0.896866 -0
    outer loop
       vertex 0.0665154 -0.216506 0.1
       vertex 0.0665154 -0.216506 0
       vertex 0.0958444 -0.23097 0
    endloop
  endfacet
  facet normal -0.555561 -0.831476 0
    outer loop
       vertex 0.0665154 -0.216506 0
       vertex 0.0665154 -0.216506 0.1
       vertex 0.0393244 -0.198338 0.1
    endloop
  endfacet
  facet normal -0.555561 -0.831476 -0
    outer loop
       vertex 0.0393244 -0.198338 0.1
       vertex 0.0393244 -0.198338 0
       vertex 0.0665154 -0.216506 0
    endloop
  endfacet
  facet normal -0.659372 -0.751817 0
    outer loop
       vertex 0.0393244 -0.198338 0
       vertex 0.0393244 -0.198338 0.1
       vertex 0.0147394 -0.176776 0.1
    endloop
  endfacet
  facet normal -0.659372 -0.751817 -0
    outer loop
       vertex 0.0147394 -0.176776 0.1
       vertex 0.0147394 -0.176776 0
       vertex 0.0393244 -0.198338 0
    endloop
  endfacet
endsolid cylinder
