solid cylinder
  facet normal 0.751817 -0.659372 0
    outer loop
       vertex 0.475467 -0.176776 0
       vertex 0.497029 -0.152191 0
       vertex 0.497029 -0.152191 0.1
    endloop
  endfacet
  facet normal 0.751817 -0.659372 0
    outer loop
       vertex 0.497029 -0.152191 0.1
       vertex 0.475467 -0.176776 0.1
       vertex 0.475467 -0.176776 0
    endloop
  endfacet
  facet normal 0.831476 -0.555561 0
    outer loop
       vertex 0.497029 -0.152191 0
       vertex 0.515197 -0.125 0
       vertex 0.515197 -0.125 0.1
    endloop
  endfacet
  facet normal 0.831476 -0.555561 0
    outer loop
       vertex 0.515197 -0.125 0.1
       vertex 0.497029 -0.152191 0.1
       vertex 0.497029 -0.152191 0
    endloop
  endfacet
  facet normal 0.896866 -0.442302 0
    outer loop
       vertex 0.515197 -0.125 0
       vertex 0.529661 -0.095671 0
       vertex 0.529661 -0.095671 0.1
    endloop
  endfacet
  facet normal 0.896866 -0.442302 0
    outer loop
       vertex 0.529661 -0.095671 0.1
       vertex 0.515197 -0.125 0.1
       vertex 0.515197 -0.125 0
    endloop
  endfacet
  facet normal 0.946935 -0.321425 0
    outer loop
       vertex 0.529661 -0.095671 0
       vertex 0.540172 -0.064705 0
       vertex 0.540172 -0.064705 0.1
    endloop
  endfacet
  facet normal 0.946935 -0.321425 0
    outer loop
       vertex 0.540172 -0.064705 0.1
       vertex 0.529661 -0.095671 0.1
       vertex 0.529661 -0.095671 0
    endloop
  endfacet
  facet normal 0.980784 -0.195096 0
    outer loop
       vertex 0.540172 -0.064705 0
       vertex 0.546552 -0.0326315 0
       vertex 0.546552 -0.0326315 0.1
    endloop
  endfacet
  facet normal 0.980784 -0.195096 0
    outer loop
       vertex 0.546552 -0.0326315 0.1
       vertex 0.540172 -0.064705 0.1
       vertex 0.540172 -0.064705 0
    endloop
  endfacet
  facet normal 0.997858 -0.0654098 0
    outer loop
       vertex 0.548691 -8.32665e-17 0.1
       vertex 0.546552 -0.0326315 0.1
       vertex 0.546552 -0.0326315 0
    endloop
  endfacet
  facet normal 0.997858 -0.0654098 -1.08928e-16
    outer loop
       vertex 0.546552 -0.0326315 0
       vertex 0.548691 8.32665e-17 0
       vertex 0.548691 -8.32665e-17 0.1
    endloop
  endfacet
  facet normal 0.997858 0.0654098 0
    outer loop
       vertex 0.548691 8.32665e-17 0
       vertex 0.546552 0.0326315 0
       vertex 0.546552 0.0326315 0.1
    endloop
  endfacet
  facet normal 0.997858 0.0654098 1.08928e-16
    outer loop
       vertex 0.546552 0.0326315 0.1
       vertex 0.548691 -8.32665e-17 0.1
       vertex 0.548691 8.32665e-17 0
    endloop
  endfacet
  facet normal 0.980784 0.195096 0
    outer loop
       vertex 0.546552 0.0326315 0
       vertex 0.540172 0.064705 0
       vertex 0.540172 0.064705 0.1
    endloop
  endfacet
  facet normal 0.980784 0.195096 0
    outer loop
       vertex 0.540172 0.064705 0.1
       vertex 0.546552 0.0326315 0.1
       vertex 0.546552 0.0326315 0
    endloop
  endfacet
  facet normal 0.946935 0.321425 0
    outer loop
       vertex 0.540172 0.064705 0
       vertex 0.529661 0.095671 0
       vertex 0.529661 0.095671 0.1
    endloop
  endfacet
  facet normal 0.946935 0.321425 0
    outer loop
       vertex 0.529661 0.095671 0.1
       vertex 0.540172 0.064705 0.1
       vertex 0.540172 0.064705 0
    endloop
  endfacet
  facet normal 0.896866 0.442302 0
    outer loop
       vertex 0.529661 0.095671 0
       vertex 0.515197 0.125 0
       vertex 0.515197 0.125 0.1
    endloop
  endfacet
  facet normal 0.896866 0.442302 0
    outer loop
       vertex 0.515197 0.125 0.1
       vertex 0.529661 0.095671 0.1
       vertex 0.529661 0.095671 0
    endloop
  endfacet
  facet normal 0.831476 0.555561 0
    outer loop
       vertex 0.515197 0.125 0
       vertex 0.497029 0.152191 0
       vertex 0.497029 0.152191 0.1
    endloop
  endfacet
  facet normal 0.831476 0.555561 0
    outer loop
       vertex 0.497029 0.152191 0.1
       vertex 0.515197 0.125 0.1
       vertex 0.515197 0.125 0
    endloop
  endfacet
  facet normal 0.751817 0.659372 0
    outer loop
       vertex 0.497029 0.152191 0
       vertex 0.475467 0.176776 0
       vertex 0.475467 0.176776 0.1
    endloop
  endfacet
  facet normal 0.751817 0.659372 0
    outer loop
       vertex 0.475467 0.176776 0.1
       vertex 0.497029 0.152191 0.1
       vertex 0.497029 0.152191 0
    endloop
  endfacet
  facet normal 0.659372 0.751817 0
    outer loop
       vertex 0.475467 0.176776 0
       vertex 0.450882 0.198338 0
       vertex 0.450882 0.198338 0.1
    endloop
  endfacet
  facet normal 0.659372 0.751817 0
    outer loop
       vertex 0.450882 0.198338 0.1
       vertex 0.475467 0.176776 0.1
       vertex 0.475467 0.176776 0
    endloop
  endfacet
  facet normal 0.555561 0.831476 0
    outer loop
       vertex 0.450882 0.198338 0
       vertex 0.423691 0.216506 0
       vertex 0.423691 0.216506 0.1
    endloop
  endfacet
  facet normal 0.555561 0.831476 0
    outer loop
       vertex 0.423691 0.216506 0.1
       vertex 0.450882 0.198338 0.1
       vertex 0.450882 0.198338 0
    endloop
  endfacet
  facet normal 0.442302 0.896866 0
    outer loop
       vertex 0.423691 0.216506 0
       vertex 0.394362 0.23097 0
       vertex 0.394362 0.23097 0.1
    endloop
  endfacet
  facet normal 0.442302 0.896866 0
    outer loop
       vertex 0.394362 0.23097 0.1
       vertex 0.423691 0.216506 0.1
       vertex 0.423691 0.216506 0
    endloop
  endfacet
  facet normal 0.321425 0.946935 0
    outer loop
       vertex 0.394362 0.23097 0
       vertex 0.363396 0.241481 0
       vertex 0.363396 0.241481 0.1
    endloop
  endfacet
  facet normal 0.321425 0.946935 0
    outer loop
       vertex 0.363396 0.241481 0.1
       vertex 0.394362 0.23097 0.1
       vertex 0.394362 0.23097 0
    endloop
  endfacet
  facet normal 0.195096 0.980784 0
    outer loop
       vertex 0.363396 0.241481 0
       vertex 0.331323 0.247861 0
       vertex 0.331323 0.247861 0.1
    endloop
  endfacet
  facet normal 0.195096 0.980784 0
    outer loop
       vertex 0.331323 0.247861 0.1
       vertex 0.363396 0.241481 0.1
       vertex 0.363396 0.241481 0
    endloop
  endfacet
  facet normal 0.0654098 0.997858 0
    outer loop
       vertex 0.298691 0.25 0.1
       vertex 0.331323 0.247861 0.1
       vertex 0.331323 0.247861 0
    endloop
  endfacet
  facet normal 0.0654098 0.997858 -1.45239e-16
    outer loop
       vertex 0.331323 0.247861 0
       vertex 0.298691 0.25 0
       vertex 0.298691 0.25 0.1
    endloop
  endfacet
  facet normal -0.0654098 0.997858 0
    outer loop
       vertex 0.298691 0.25 0
       vertex 0.26606 0.247861 0
       vertex 0.26606 0.247861 0.1
    endloop
  endfacet
  facet normal -0.0654098 0.997858 1.45239e-16
    outer loop
       vertex 0.26606 0.247861 0.1
       vertex 0.298691 0.25 0.1
       vertex 0.298691 0.25 0
    endloop
  endfacet
  facet normal -0.195096 0.980784 0
    outer loop
       vertex 0.26606 0.247861 0
       vertex 0.233986 0.241481 0
       vertex 0.233986 0.241481 0.1
    endloop
  endfacet
  facet normal -0.195096 0.980784 0
    outer loop
       vertex 0.233986 0.241481 0.1
       vertex 0.26606 0.247861 0.1
       vertex 0.26606 0.247861 0
    endloop
  endfacet
  facet normal -0.321425 0.946935 0
    outer loop
       vertex 0.233986 0.241481 0
       vertex 0.20302 0.23097 0
       vertex 0.20302 0.23097 0.1
    endloop
  endfacet
  facet normal -0.321425 0.946935 0
    outer loop
       vertex 0.20302 0.23097 0.1
       vertex 0.233986 0.241481 0.1
       vertex 0.233986 0.241481 0
    endloop
  endfacet
  facet normal -0.442302 0.896866 0
    outer loop
       vertex 0.20302 0.23097 0
       vertex 0.173691 0.216506 0
       vertex 0.173691 0.216506 0.1
    endloop
  endfacet
  facet normal -0.442302 0.896866 0
    outer loop
       vertex 0.173691 0.216506 0.1
       vertex 0.20302 0.23097 0.1
       vertex 0.20302 0.23097 0
    endloop
  endfacet
  facet normal -0.555561 0.831476 0
    outer loop
       vertex 0.173691 0.216506 0
       vertex 0.1465 0.198338 0
       vertex 0.1465 0.198338 0.1
    endloop
  endfacet
  facet normal -0.555561 0.831476 0
    outer loop
       vertex 0.1465 0.198338 0.1
       vertex 0.173691 0.216506 0.1
       vertex 0.173691 0.216506 0
    endloop
  endfacet
  facet normal -0.659372 0.751817 0
    outer loop
       vertex 0.1465 0.198338 0
       vertex 0.121915 0.176776 0
       vertex 0.121915 0.176776 0.1
    endloop
  endfacet
  facet normal -0.659372 0.751817 0
    outer loop
       vertex 0.121915 0.176776 0.1
       vertex 0.1465 0.198338 0.1
       vertex 0.1465 0.198338 0
    endloop
  endfacet
  facet normal -0.751817 0.659372 0
    outer loop
       vertex 0.121915 0.176776 0
       vertex 0.100353 0.152191 0
       vertex 0.100353 0.152191 0.1
    endloop
  endfacet
  facet normal -0.751817 0.659372 0
    outer loop
       vertex 0.100353 0.152191 0.1
       vertex 0.121915 0.176776 0.1
       vertex 0.121915 0.176776 0
    endloop
  endfacet
  facet normal -0.831476 0.555561 0
    outer loop
       vertex 0.100353 0.152191 0
       vertex 0.0821851 0.125 0
       vertex 0.0821851 0.125 0.1
    endloop
  endfacet
  facet normal -0.831476 0.555561 0
    outer loop
       vertex 0.0821851 0.125 0.1
       vertex 0.100353 0.152191 0.1
       vertex 0.100353 0.152191 0
    endloop
  endfacet
  facet normal -0.896866 0.442302 0
    outer loop
       vertex 0.0821851 0.125 0
       vertex 0.0677211 0.095671 0
       vertex 0.0677211 0.095671 0.1
    endloop
  endfacet
  facet normal -0.896866 0.442302 0
    outer loop
       vertex 0.0677211 0.095671 0.1
       vertex 0.0821851 0.125 0.1
       vertex 0.0821851 0.125 0
    endloop
  endfacet
  facet normal -0.946935 0.321425 0
    outer loop
       vertex 0.0677211 0.095671 0
       vertex 0.0572101 0.064705 0
       vertex 0.0572101 0.064705 0.1
    endloop
  endfacet
  facet normal -0.946935 0.321425 0
    outer loop
       vertex 0.0572101 0.064705 0.1
       vertex 0.0677211 0.095671 0.1
       vertex 0.0677211 0.095671 0
    endloop
  endfacet
  facet normal -0.980784 0.195096 0
    outer loop
       vertex 0.0572101 0.064705 0
       vertex 0.0508301 0.0326315 0
       vertex 0.0508301 0.0326315 0.1
    endloop
  endfacet
  facet normal -0.980784 0.195096 0
    outer loop
       vertex 0.0508301 0.0326315 0.1
       vertex 0.0572101 0.064705 0.1
       vertex 0.0572101 0.064705 0
    endloop
  endfacet
  facet normal -0.997858 0.0654098 0
    outer loop
       vertex 0.0486911 8.32665e-17 0.1
       vertex 0.0508301 0.0326315 0.1
       vertex 0.0508301 0.0326315 0
    endloop
  endfacet
  facet normal -0.997858 0.0654098 -1.08928e-16
    outer loop
       vertex 0.0508301 0.0326315 0
       vertex 0.0486911 -8.32665e-17 0
       vertex 0.0486911 8.32665e-17 0.1
    endloop
  endfacet
  facet normal -0.997858 -0.0654098 0
    outer loop
       vertex 0.0486911 -8.32665e-17 0
       vertex 0.0508301 -0.0326315 0
       vertex 0.0508301 -0.0326315 0.1
    endloop
  endfacet
  facet normal -0.997858 -0.0654098 1.08928e-16
    outer loop
       vertex 0.0508301 -0.0326315 0.1
       vertex 0.0486911 8.32665e-17 0.1
       vertex 0.0486911 -8.32665e-17 0
    endloop
  endfacet
  facet normal -0.980784 -0.195096 0
    outer loop
       vertex 0.0508301 -0.0326315 0
       vertex 0.0572101 -0.064705 0
       vertex 0.0572101 -0.064705 0.1
    endloop
  endfacet
  facet normal -0.980784 -0.195096 0
    outer loop
       vertex 0.0572101 -0.064705 0.1
       vertex 0.0508301 -0.0326315 0.1
       vertex 0.0508301 -0.0326315 0
    endloop
  endfacet
  facet normal -0.946935 -0.321425 0
    outer loop
       vertex 0.0572101 -0.064705 0
       vertex 0.0677211 -0.095671 0
       vertex 0.0677211 -0.095671 0.1
    endloop
  endfacet
  facet normal -0.946935 -0.321425 0
    outer loop
       vertex 0.0677211 -0.095671 0.1
       vertex 0.0572101 -0.064705 0.1
       vertex 0.0572101 -0.064705 0
    endloop
  endfacet
  facet normal -0.896866 -0.442302 0
    outer loop
       vertex 0.0677211 -0.095671 0
       vertex 0.0821851 -0.125 0
       vertex 0.0821851 -0.125 0.1
    endloop
  endfacet
  facet normal -0.896866 -0.442302 0
    outer loop
       vertex 0.0821851 -0.125 0.1
       vertex 0.0677211 -0.095671 0.1
       vertex 0.0677211 -0.095671 0
    endloop
  endfacet
  facet normal -0.831476 -0.555561 0
    outer loop
       vertex 0.0821851 -0.125 0
       vertex 0.100353 -0.152191 0
       vertex 0.100353 -0.152191 0.1
    endloop
  endfacet
  facet normal -0.831476 -0.555561 0
    outer loop
       vertex 0.100353 -0.152191 0.1
       vertex 0.0821851 -0.125 0.1
       vertex 0.0821851 -0.125 0
    endloop
  endfacet
  facet normal -0.751817 -0.659372 0
    outer loop
       vertex 0.100353 -0.152191 0
       vertex 0.121915 -0.176776 0
       vertex 0.121915 -0.176776 0.1
    endloop
  endfacet
  facet normal -0.751817 -0.659372 0
    outer loop
       vertex 0.121915 -0.176776 0.1
       vertex 0.100353 -0.152191 0.1
       vertex 0.100353 -0.152191 0
    endloop
  endfacet
  facet normal 0.659372 -0.751817 0
    outer loop
       vertex 0.475467 -0.176776 0
       vertex 0.475467 -0.176776 0.1
       vertex 0.450882 -0.198338 0.1
    endloop
  endfacet
  facet normal 0.659372 -0.751817 0
    outer loop
       vertex 0.450882 -0.198338 0.1
       vertex 0.450882 -0.198338 0
       vertex 0.475467 -0.176776 0
    endloop
  endfacet
  facet normal 0.555561 -0.831476 0
    outer loop
       vertex 0.450882 -0.198338 0
       vertex 0.450882 -0.198338 0.1
       vertex 0.423691 -0.216506 0.1
    endloop
  endfacet
  facet normal 0.555561 -0.831476 0
    outer loop
       vertex 0.423691 -0.216506 0.1
       vertex 0.423691 -0.216506 0
       vertex 0.450882 -0.198338 0
    endloop
  endfacet
  facet normal 0.442302 -0.896866 0
    outer loop
       vertex 0.423691 -0.216506 0
       vertex 0.423691 -0.216506 0.1
       vertex 0.394362 -0.23097 0.1
    endloop
  endfacet
  facet normal 0.442302 -0.896866 0
    outer loop
       vertex 0.394362 -0.23097 0.1
       vertex 0.394362 -0.23097 0
       vertex 0.423691 -0.216506 0
    endloop
  endfacet
  facet normal 0.321425 -0.946935 0
    outer loop
       vertex 0.394362 -0.23097 0
       vertex 0.394362 -0.23097 0.1
       vertex 0.363396 -0.241481 0.1
    endloop
  endfacet
  facet normal 0.321425 -0.946935 0
    outer loop
       vertex 0.363396 -0.241481 0.1
       vertex 0.363396 -0.241481 0
       vertex 0.394362 -0.23097 0
    endloop
  endfacet
  facet normal 0.195096 -0.980784 0
    outer loop
       vertex 0.363396 -0.241481 0
       vertex 0.363396 -0.241481 0.1
       vertex 0.331323 -0.247861 0.1
    endloop
  endfacet
  facet normal 0.195096 -0.980784 0
    outer loop
       vertex 0.331323 -0.247861 0.1
       vertex 0.331323 -0.247861 0
       vertex 0.363396 -0.241481 0
    endloop
  endfacet
  facet normal 0.0654098 -0.997858 0
    outer loop
       vertex 0.298691 -0.25 0
       vertex 0.331323 -0.247861 0
       vertex 0.331323 -0.247861 0.1
    endloop
  endfacet
  facet normal 0.0654098 -0.997858 1.45239e-16
    outer loop
       vertex 0.331323 -0.247861 0.1
       vertex 0.298691 -0.25 0.1
       vertex 0.298691 -0.25 0
    endloop
  endfacet
  facet normal -0.0654098 -0.997858 0
    outer loop
       vertex 0.298691 -0.25 0.1
       vertex 0.26606 -0.247861 0.1
       vertex 0.26606 -0.247861 0
    endloop
  endfacet
  facet normal -0.0654098 -0.997858 -1.45239e-16
    outer loop
       vertex 0.26606 -0.247861 0
       vertex 0.298691 -0.25 0
       vertex 0.298691 -0.25 0.1
    endloop
  endfacet
  facet normal -0.195096 -0.980784 0
    outer loop
       vertex 0.26606 -0.247861 0
       vertex 0.26606 -0.247861 0.1
       vertex 0.233986 -0.241481 0.1
    endloop
  endfacet
  facet normal -0.195096 -0.980784 -0
    outer loop
       vertex 0.233986 -0.241481 0.1
       vertex 0.233986 -0.241481 0
       vertex 0.26606 -0.247861 0
    endloop
  endfacet
  facet normal -0.321425 -0.946935 0
    outer loop
       vertex 0.233986 -0.241481 0
       vertex 0.233986 -0.241481 0.1
       vertex 0.20302 -0.23097 0.1
    endloop
  endfacet
  facet normal -0.321425 -0.946935 -0
    outer loop
       vertex 0.20302 -0.23097 0.1
       vertex 0.20302 -0.23097 0
       vertex 0.233986 -0.241481 0
    endloop
  endfacet
  facet normal -0.442302 -0.896866 0
    outer loop
       vertex 0.20302 -0.23097 0
       vertex 0.20302 -0.23097 0.1
       vertex 0.173691 -0.216506 0.1
    endloop
  endfacet
  facet normal -0.442302 -0.896866 -0
    outer loop
       vertex 0.173691 -0.216506 0.1
       vertex 0.173691 -0.216506 0
       vertex 0.20302 -0.23097 0
    endloop
  endfacet
  facet normal -0.555561 -0.831476 0
    outer loop
       vertex 0.173691 -0.216506 0
       vertex 0.173691 -0.216506 0.1
       vertex 0.1465 -0.198338 0.1
    endloop
  endfacet
  facet normal -0.555561 -0.831476 -0
    outer loop
       vertex 0.1465 -0.198338 0.1
       vertex 0.1465 -0.198338 0
       vertex 0.173691 -0.216506 0
    endloop
  endfacet
  facet normal -0.659372 -0.751817 0
    outer loop
       vertex 0.1465 -0.198338 0
       vertex 0.1465 -0.198338 0.1
       vertex 0.121915 -0.176776 0.1
    endloop
  endfacet
  facet normal -0.659372 -0.751817 -0
    outer loop
       vertex 0.121915 -0.176776 0.1
       vertex 0.121915 -0.176776 0
       vertex 0.1465 -0.198338 0
    endloop
  endfacet
endsolid cylinder
