solid cylinder
  facet normal 0.751817 -0.659372 0
    outer loop
       vertex -0.102632 -0.176776 0
       vertex -0.0810699 -0.152191 0
       vertex -0.0810699 -0.152191 0.1
    endloop
  endfacet
  facet normal 0.751817 -0.659372 0
    outer loop
       vertex -0.0810699 -0.152191 0.1
       vertex -0.102632 -0.176776 0.1
       vertex -0.102632 -0.176776 0
    endloop
  endfacet
  facet normal 0.831476 -0.555561 0
    outer loop
       vertex -0.0810699 -0.152191 0
       vertex -0.0629019 -0.125 0
       vertex -0.0629019 -0.125 0.1
    endloop
  endfacet
  facet normal 0.831476 -0.555561 0
    outer loop
       vertex -0.0629019 -0.125 0.1
       vertex -0.0810699 -0.152191 0.1
       vertex -0.0810699 -0.152191 0
    endloop
  endfacet
  facet normal 0.896866 -0.442302 0
    outer loop
       vertex -0.0629019 -0.125 0
       vertex -0.0484379 -0.095671 0
       vertex -0.0484379 -0.095671 0.1
    endloop
  endfacet
  facet normal 0.896866 -0.442302 0
    outer loop
       vertex -0.0484379 -0.095671 0.1
       vertex -0.0629019 -0.125 0.1
       vertex -0.0629019 -0.125 0
    endloop
  endfacet
  facet normal 0.946935 -0.321425 0
    outer loop
       vertex -0.0484379 -0.095671 0
       vertex -0.0379269 -0.064705 0
       vertex -0.0379269 -0.064705 0.1
    endloop
  endfacet
  facet normal 0.946935 -0.321425 0
    outer loop
       vertex -0.0379269 -0.064705 0.1
       vertex -0.0484379 -0.095671 0.1
       vertex -0.0484379 -0.095671 0
    endloop
  endfacet
  facet normal 0.980784 -0.195096 0
    outer loop
       vertex -0.0379269 -0.064705 0
       vertex -0.0315469 -0.0326315 0
       vertex -0.0315469 -0.0326315 0.1
    endloop
  endfacet
  facet normal 0.980784 -0.195096 0
    outer loop
       vertex -0.0315469 -0.0326315 0.1
       vertex -0.0379269 -0.064705 0.1
       vertex -0.0379269 -0.064705 0
    endloop
  endfacet
  facet normal 0.997858 -0.0654098 0
    outer loop
       vertex -0.0294079 -8.32665e-17 0.1
       vertex -0.0315469 -0.0326315 0.1
       vertex -0.0315469 -0.0326315 0
    endloop
  endfacet
  facet normal 0.997858 -0.0654098 -1.08928e-16
    outer loop
       vertex -0.0315469 -0.0326315 0
       vertex -0.0294079 8.32665e-17 0
       vertex -0.0294079 -8.32665e-17 0.1
    endloop
  endfacet
  facet normal 0.997858 0.0654098 0
    outer loop
       vertex -0.0294079 8.32665e-17 0
       vertex -0.0315469 0.0326315 0
       vertex -0.0315469 0.0326315 0.1
    endloop
  endfacet
  facet normal 0.997858 0.0654098 1.08928e-16
    outer loop
       vertex -0.0315469 0.0326315 0.1
       vertex -0.0294079 -8.32665e-17 0.1
       vertex -0.0294079 8.32665e-17 0
    endloop
  endfacet
  facet normal 0.980784 0.195096 0
    outer loop
       vertex -0.0315469 0.0326315 0
       vertex -0.0379269 0.064705 0
       vertex -0.0379269 0.064705 0.1
    endloop
  endfacet
  facet normal 0.980784 0.195096 0
    outer loop
       vertex -0.0379269 0.064705 0.1
       vertex -0.0315469 0.0326315 0.1
       vertex -0.0315469 0.0326315 0
    endloop
  endfacet
  facet normal 0.946935 0.321425 0
    outer loop
       vertex -0.0379269 0.064705 0
       vertex -0.0484379 0.095671 0
       vertex -0.0484379 0.095671 0.1
    endloop
  endfacet
  facet normal 0.946935 0.321425 0
    outer loop
       vertex -0.0484379 0.095671 0.1
       vertex -0.0379269 0.064705 0.1
       vertex -0.0379269 0.064705 0
    endloop
  endfacet
  facet normal 0.896866 0.442302 0
    outer loop
       vertex -0.0484379 0.095671 0
       vertex -0.0629019 0.125 0
       vertex -0.0629019 0.125 0.1
    endloop
  endfacet
  facet normal 0.896866 0.442302 0
    outer loop
       vertex -0.0629019 0.125 0.1
       vertex -0.0484379 0.095671 0.1
       vertex -0.0484379 0.095671 0
    endloop
  endfacet
  facet normal 0.831476 0.555561 0
    outer loop
       vertex -0.0629019 0.125 0
       vertex -0.0810699 0.152191 0
       vertex -0.0810699 0.152191 0.1
    endloop
  endfacet
  facet normal 0.831476 0.555561 0
    outer loop
       vertex -0.0810699 0.152191 0.1
       vertex -0.0629019 0.125 0.1
       vertex -0.0629019 0.125 0
    endloop
  endfacet
  facet normal 0.751817 0.659372 0
    outer loop
       vertex -0.0810699 0.152191 0
       vertex -0.102632 0.176776 0
       vertex -0.102632 0.176776 0.1
    endloop
  endfacet
  facet normal 0.751817 0.659372 0
    outer loop
       vertex -0.102632 0.176776 0.1
       vertex -0.0810699 0.152191 0.1
       vertex -0.0810699 0.152191 0
    endloop
  endfacet
  facet normal 0.659372 0.751817 0
    outer loop
       vertex -0.102632 0.176776 0
       vertex -0.127217 0.198338 0
       vertex -0.127217 0.198338 0.1
    endloop
  endfacet
  facet normal 0.659372 0.751817 0
    outer loop
       vertex -0.127217 0.198338 0.1
       vertex -0.102632 0.176776 0.1
       vertex -0.102632 0.176776 0
    endloop
  endfacet
  facet normal 0.555561 0.831476 0
    outer loop
       vertex -0.127217 0.198338 0
       vertex -0.154408 0.216506 0
       vertex -0.154408 0.216506 0.1
    endloop
  endfacet
  facet normal 0.555561 0.831476 0
    outer loop
       vertex -0.154408 0.216506 0.1
       vertex -0.127217 0.198338 0.1
       vertex -0.127217 0.198338 0
    endloop
  endfacet
  facet normal 0.442302 0.896866 0
    outer loop
       vertex -0.154408 0.216506 0
       vertex -0.183737 0.23097 0
       vertex -0.183737 0.23097 0.1
    endloop
  endfacet
  facet normal 0.442302 0.896866 0
    outer loop
       vertex -0.183737 0.23097 0.1
       vertex -0.154408 0.216506 0.1
       vertex -0.154408 0.216506 0
    endloop
  endfacet
  facet normal 0.321425 0.946935 0
    outer loop
       vertex -0.183737 0.23097 0
       vertex -0.214703 0.241481 0
       vertex -0.214703 0.241481 0.1
    endloop
  endfacet
  facet normal 0.321425 0.946935 0
    outer loop
       vertex -0.214703 0.241481 0.1
       vertex -0.183737 0.23097 0.1
       vertex -0.183737 0.23097 0
    endloop
  endfacet
  facet normal 0.195096 0.980784 0
    outer loop
       vertex -0.214703 0.241481 0
       vertex -0.246776 0.247861 0
       vertex -0.246776 0.247861 0.1
    endloop
  endfacet
  facet normal 0.195096 0.980784 0
    outer loop
       vertex -0.246776 0.247861 0.1
       vertex -0.214703 0.241481 0.1
       vertex -0.214703 0.241481 0
    endloop
  endfacet
  facet normal 0.0654098 0.997858 0
    outer loop
       vertex -0.279408 0.25 0.1
       vertex -0.246776 0.247861 0.1
       vertex -0.246776 0.247861 0
    endloop
  endfacet
  facet normal 0.0654098 0.997858 -7.26205e-17
    outer loop
       vertex -0.246776 0.247861 0
       vertex -0.279408 0.25 0
       vertex -0.279408 0.25 0.1
    endloop
  endfacet
  facet normal -0.0654098 0.997858 0
    outer loop
       vertex -0.279408 0.25 0
       vertex -0.312039 0.247861 0
       vertex -0.312039 0.247861 0.1
    endloop
  endfacet
  facet normal -0.0654098 0.997858 7.26205e-17
    outer loop
       vertex -0.312039 0.247861 0.1
       vertex -0.279408 0.25 0.1
       vertex -0.279408 0.25 0
    endloop
  endfacet
  facet normal -0.195096 0.980784 0
    outer loop
       vertex -0.312039 0.247861 0
       vertex -0.344113 0.241481 0
       vertex -0.344113 0.241481 0.1
    endloop
  endfacet
  facet normal -0.195096 0.980784 0
    outer loop
       vertex -0.344113 0.241481 0.1
       vertex -0.312039 0.247861 0.1
       vertex -0.312039 0.247861 0
    endloop
  endfacet
  facet normal -0.321425 0.946935 0
    outer loop
       vertex -0.344113 0.241481 0
       vertex -0.375079 0.23097 0
       vertex -0.375079 0.23097 0.1
    endloop
  endfacet
  facet normal -0.321425 0.946935 0
    outer loop
       vertex -0.375079 0.23097 0.1
       vertex -0.344113 0.241481 0.1
       vertex -0.344113 0.241481 0
    endloop
  endfacet
  facet normal -0.442302 0.896866 0
    outer loop
       vertex -0.375079 0.23097 0
       vertex -0.404408 0.216506 0
       vertex -0.404408 0.216506 0.1
    endloop
  endfacet
  facet normal -0.442302 0.896866 0
    outer loop
       vertex -0.404408 0.216506 0.1
       vertex -0.375079 0.23097 0.1
       vertex -0.375079 0.23097 0
    endloop
  endfacet
  facet normal -0.555561 0.831476 0
    outer loop
       vertex -0.404408 0.216506 0
       vertex -0.431599 0.198338 0
       vertex -0.431599 0.198338 0.1
    endloop
  endfacet
  facet normal -0.555561 0.831476 0
    outer loop
       vertex -0.431599 0.198338 0.1
       vertex -0.404408 0.216506 0.1
       vertex -0.404408 0.216506 0
    endloop
  endfacet
  facet normal -0.659372 0.751817 0
    outer loop
       vertex -0.431599 0.198338 0
       vertex -0.456184 0.176776 0
       vertex -0.456184 0.176776 0.1
    endloop
  endfacet
  facet normal -0.659372 0.751817 0
    outer loop
       vertex -0.456184 0.176776 0.1
       vertex -0.431599 0.198338 0.1
       vertex -0.431599 0.198338 0
    endloop
  endfacet
  facet normal -0.751817 0.659372 0
    outer loop
       vertex -0.456184 0.176776 0
       vertex -0.477746 0.152191 0
       vertex -0.477746 0.152191 0.1
    endloop
  endfacet
  facet normal -0.751817 0.659372 0
    outer loop
       vertex -0.477746 0.152191 0.1
       vertex -0.456184 0.176776 0.1
       vertex -0.456184 0.176776 0
    endloop
  endfacet
  facet normal -0.831476 0.555561 0
    outer loop
       vertex -0.477746 0.152191 0
       vertex -0.495914 0.125 0
       vertex -0.495914 0.125 0.1
    endloop
  endfacet
  facet normal -0.831476 0.555561 0
    outer loop
       vertex -0.495914 0.125 0.1
       vertex -0.477746 0.152191 0.1
       vertex -0.477746 0.152191 0
    endloop
  endfacet
  facet normal -0.896866 0.442302 0
    outer loop
       vertex -0.495914 0.125 0
       vertex -0.510378 0.095671 0
       vertex -0.510378 0.095671 0.1
    endloop
  endfacet
  facet normal -0.896866 0.442302 0
    outer loop
       vertex -0.510378 0.095671 0.1
       vertex -0.495914 0.125 0.1
       vertex -0.495914 0.125 0
    endloop
  endfacet
  facet normal -0.946935 0.321425 0
    outer loop
       vertex -0.510378 0.095671 0
       vertex -0.520889 0.064705 0
       vertex -0.520889 0.064705 0.1
    endloop
  endfacet
  facet normal -0.946935 0.321425 0
    outer loop
       vertex -0.520889 0.064705 0.1
       vertex -0.510378 0.095671 0.1
       vertex -0.510378 0.095671 0
    endloop
  endfacet
  facet normal -0.980784 0.195096 0
    outer loop
       vertex -0.520889 0.064705 0
       vertex -0.527269 0.0326315 0
       vertex -0.527269 0.0326315 0.1
    endloop
  endfacet
  facet normal -0.980784 0.195096 0
    outer loop
       vertex -0.527269 0.0326315 0.1
       vertex -0.520889 0.064705 0.1
       vertex -0.520889 0.064705 0
    endloop
  endfacet
  facet normal -0.997858 0.0654098 0
    outer loop
       vertex -0.529408 8.32665e-17 0.1
       vertex -0.527269 0.0326315 0.1
       vertex -0.527269 0.0326315 0
    endloop
  endfacet
  facet normal -0.997858 0.0654098 -1.0893e-16
    outer loop
       vertex -0.527269 0.0326315 0
       vertex -0.529408 -8.32665e-17 0
       vertex -0.529408 8.32665e-17 0.1
    endloop
  endfacet
  facet normal -0.997858 -0.0654098 0
    outer loop
       vertex -0.529408 -8.32665e-17 0
       vertex -0.527269 -0.0326315 0
       vertex -0.527269 -0.0326315 0.1
    endloop
  endfacet
  facet normal -0.997858 -0.0654098 1.0893e-16
    outer loop
       vertex -0.527269 -0.0326315 0.1
       vertex -0.529408 8.32665e-17 0.1
       vertex -0.529408 -8.32665e-17 0
    endloop
  endfacet
  facet normal -0.980784 -0.195096 0
    outer loop
       vertex -0.527269 -0.0326315 0
       vertex -0.520889 -0.064705 0
       vertex -0.520889 -0.064705 0.1
    endloop
  endfacet
  facet normal -0.980784 -0.195096 0
    outer loop
       vertex -0.520889 -0.064705 0.1
       vertex -0.527269 -0.0326315 0.1
       vertex -0.527269 -0.0326315 0
    endloop
  endfacet
  facet normal -0.946935 -0.321425 0
    outer loop
       vertex -0.520889 -0.064705 0
       vertex -0.510378 -0.095671 0
       vertex -0.510378 -0.095671 0.1
    endloop
  endfacet
  facet normal -0.946935 -0.321425 0
    outer loop
       vertex -0.510378 -0.095671 0.1
       vertex -0.520889 -0.064705 0.1
       vertex -0.520889 -0.064705 0
    endloop
  endfacet
  facet normal -0.896866 -0.442302 0
    outer loop
       vertex -0.510378 -0.095671 0
       vertex -0.495914 -0.125 0
       vertex -0.495914 -0.125 0.1
    endloop
  endfacet
  facet normal -0.896866 -0.442302 0
    outer loop
       vertex -0.495914 -0.125 0.1
       vertex -0.510378 -0.095671 0.1
       vertex -0.510378 -0.095671 0
    endloop
  endfacet
  facet normal -0.831476 -0.555561 0
    outer loop
       vertex -0.495914 -0.125 0
       vertex -0.477746 -0.152191 0
       vertex -0.477746 -0.152191 0.1
    endloop
  endfacet
  facet normal -0.831476 -0.555561 0
    outer loop
       vertex -0.477746 -0.152191 0.1
       vertex -0.495914 -0.125 0.1
       vertex -0.495914 -0.125 0
    endloop
  endfacet
  facet normal -0.751817 -0.659372 0
    outer loop
       vertex -0.477746 -0.152191 0
       vertex -0.456184 -0.176776 0
       vertex -0.456184 -0.176776 0.1
    endloop
  endfacet
  facet normal -0.751817 -0.659372 0
    outer loop
       vertex -0.456184 -0.176776 0.1
       vertex -0.477746 -0.152191 0.1
       vertex -0.477746 -0.152191 0
    endloop
  endfacet
  facet normal 0.659372 -0.751817 0
    outer loop
       vertex -0.102632 -0.176776 0
       vertex -0.102632 -0.176776 0.1
       vertex -0.127217 -0.198338 0.1
    endloop
  endfacet
  facet normal 0.659372 -0.751817 0
    outer loop
       vertex -0.127217 -0.198338 0.1
       vertex -0.127217 -0.198338 0
       vertex -0.102632 -0.176776 0
    endloop
  endfacet
  facet normal 0.555561 -0.831476 0
    outer loop
       vertex -0.127217 -0.198338 0
       vertex -0.127217 -0.198338 0.1
       vertex -0.154408 -0.216506 0.1
    endloop
  endfacet
  facet normal 0.555561 -0.831476 0
    outer loop
       vertex -0.154408 -0.216506 0.1
       vertex -0.154408 -0.216506 0
       vertex -0.127217 -0.198338 0
    endloop
  endfacet
  facet normal 0.442302 -0.896866 0
    outer loop
       vertex -0.154408 -0.216506 0
       vertex -0.154408 -0.216506 0.1
       vertex -0.183737 -0.23097 0.1
    endloop
  endfacet
  facet normal 0.442302 -0.896866 0
    outer loop
       vertex -0.183737 -0.23097 0.1
       vertex -0.183737 -0.23097 0
       vertex -0.154408 -0.216506 0
    endloop
  endfacet
  facet normal 0.321425 -0.946935 0
    outer loop
       vertex -0.183737 -0.23097 0
       vertex -0.183737 -0.23097 0.1
       vertex -0.214703 -0.241481 0.1
    endloop
  endfacet
  facet normal 0.321425 -0.946935 0
    outer loop
       vertex -0.214703 -0.241481 0.1
       vertex -0.214703 -0.241481 0
       vertex -0.183737 -0.23097 0
    endloop
  endfacet
  facet normal 0.195096 -0.980784 0
    outer loop
       vertex -0.214703 -0.241481 0
       vertex -0.214703 -0.241481 0.1
       vertex -0.246776 -0.247861 0.1
    endloop
  endfacet
  facet normal 0.195096 -0.980784 0
    outer loop
       vertex -0.246776 -0.247861 0.1
       vertex -0.246776 -0.247861 0
       vertex -0.214703 -0.241481 0
    endloop
  endfacet
  facet normal 0.0654098 -0.997858 0
    outer loop
       vertex -0.279408 -0.25 0
       vertex -0.246776 -0.247861 0
       vertex -0.246776 -0.247861 0.1
    endloop
  endfacet
  facet normal 0.0654098 -0.997858 7.26205e-17
    outer loop
       vertex -0.246776 -0.247861 0.1
       vertex -0.279408 -0.25 0.1
       vertex -0.279408 -0.25 0
    endloop
  endfacet
  facet normal -0.0654098 -0.997858 0
    outer loop
       vertex -0.279408 -0.25 0.1
       vertex -0.312039 -0.247861 0.1
       vertex -0.312039 -0.247861 0
    endloop
  endfacet
  facet normal -0.0654098 -0.997858 -7.26205e-17
    outer loop
       vertex -0.312039 -0.247861 0
       vertex -0.279408 -0.25 0
       vertex -0.279408 -0.25 0.1
    endloop
  endfacet
  facet normal -0.195096 -0.980784 0
    outer loop
       vertex -0.312039 -0.247861 0
       vertex -0.312039 -0.247861 0.1
       vertex -0.344113 -0.241481 0.1
    endloop
  endfacet
  facet normal -0.195096 -0.980784 -0
    outer loop
       vertex -0.344113 -0.241481 0.1
       vertex -0.344113 -0.241481 0
       vertex -0.312039 -0.247861 0
    endloop
  endfacet
  facet normal -0.321425 -0.946935 0
    outer loop
       vertex -0.344113 -0.241481 0
       vertex -0.344113 -0.241481 0.1
       vertex -0.375079 -0.23097 0.1
    endloop
  endfacet
  facet normal -0.321425 -0.946935 -0
    outer loop
       vertex -0.375079 -0.23097 0.1
       vertex -0.375079 -0.23097 0
       vertex -0.344113 -0.241481 0
    endloop
  endfacet
  facet normal -0.442302 -0.896866 0
    outer loop
       vertex -0.375079 -0.23097 0
       vertex -0.375079 -0.23097 0.1
       vertex -0.404408 -0.216506 0.1
    endloop
  endfacet
  facet normal -0.442302 -0.896866 -0
    outer loop
       vertex -0.404408 -0.216506 0.1
       vertex -0.404408 -0.216506 0
       vertex -0.375079 -0.23097 0
    endloop
  endfacet
  facet normal -0.555561 -0.831476 0
    outer loop
       vertex -0.404408 -0.216506 0
       vertex -0.404408 -0.216506 0.1
       vertex -0.431599 -0.198338 0.1
    endloop
  endfacet
  facet normal -0.555561 -0.831476 -0
    outer loop
       vertex -0.431599 -0.198338 0.1
       vertex -0.431599 -0.198338 0
       vertex -0.404408 -0.216506 0
    endloop
  endfacet
  facet normal -0.659372 -0.751817 0
    outer loop
       vertex -0.431599 -0.198338 0
       vertex -0.431599 -0.198338 0.1
       vertex -0.456184 -0.176776 0.1
    endloop
  endfacet
  facet normal -0.659372 -0.751817 -0
    outer loop
       vertex -0.456184 -0.176776 0.1
       vertex -0.456184 -0.176776 0
       vertex -0.431599 -0.198338 0
    endloop
  endfacet
endsolid cylinder
