solid cylinder
  facet normal 0.751817 -0.659372 0
    outer loop
       vertex 0.0208802 -0.176776 0
       vertex 0.0424422 -0.152191 0
       vertex 0.0424422 -0.152191 0.1
    endloop
  endfacet
  facet normal 0.751817 -0.659372 0
    outer loop
       vertex 0.0424422 -0.152191 0.1
       vertex 0.0208802 -0.176776 0.1
       vertex 0.0208802 -0.176776 0
    endloop
  endfacet
  facet normal 0.831476 -0.555561 0
    outer loop
       vertex 0.0424422 -0.152191 0
       vertex 0.0606102 -0.125 0
       vertex 0.0606102 -0.125 0.1
    endloop
  endfacet
  facet normal 0.831476 -0.555561 0
    outer loop
       vertex 0.0606102 -0.125 0.1
       vertex 0.0424422 -0.152191 0.1
       vertex 0.0424422 -0.152191 0
    endloop
  endfacet
  facet normal 0.896866 -0.442302 0
    outer loop
       vertex 0.0606102 -0.125 0
       vertex 0.0750742 -0.095671 0
       vertex 0.0750742 -0.095671 0.1
    endloop
  endfacet
  facet normal 0.896866 -0.442302 0
    outer loop
       vertex 0.0750742 -0.095671 0.1
       vertex 0.0606102 -0.125 0.1
       vertex 0.0606102 -0.125 0
    endloop
  endfacet
  facet normal 0.946935 -0.321425 0
    outer loop
       vertex 0.0750742 -0.095671 0
       vertex 0.0855852 -0.064705 0
       vertex 0.0855852 -0.064705 0.1
    endloop
  endfacet
  facet normal 0.946935 -0.321425 0
    outer loop
       vertex 0.0855852 -0.064705 0.1
       vertex 0.0750742 -0.095671 0.1
       vertex 0.0750742 -0.095671 0
    endloop
  endfacet
  facet normal 0.980784 -0.195096 0
    outer loop
       vertex 0.0855852 -0.064705 0
       vertex 0.0919652 -0.0326315 0
       vertex 0.0919652 -0.0326315 0.1
    endloop
  endfacet
  facet normal 0.980784 -0.195096 0
    outer loop
       vertex 0.0919652 -0.0326315 0.1
       vertex 0.0855852 -0.064705 0.1
       vertex 0.0855852 -0.064705 0
    endloop
  endfacet
  facet normal 0.997858 -0.0654098 0
    outer loop
       vertex 0.0941042 -8.32665e-17 0.1
       vertex 0.0919652 -0.0326315 0.1
       vertex 0.0919652 -0.0326315 0
    endloop
  endfacet
  facet normal 0.997858 -0.0654098 -1.08928e-16
    outer loop
       vertex 0.0919652 -0.0326315 0
       vertex 0.0941042 8.32665e-17 0
       vertex 0.0941042 -8.32665e-17 0.1
    endloop
  endfacet
  facet normal 0.997858 0.0654098 0
    outer loop
       vertex 0.0941042 8.32665e-17 0
       vertex 0.0919652 0.0326315 0
       vertex 0.0919652 0.0326315 0.1
    endloop
  endfacet
  facet normal 0.997858 0.0654098 1.08928e-16
    outer loop
       vertex 0.0919652 0.0326315 0.1
       vertex 0.0941042 -8.32665e-17 0.1
       vertex 0.0941042 8.32665e-17 0
    endloop
  endfacet
  facet normal 0.980784 0.195096 0
    outer loop
       vertex 0.0919652 0.0326315 0
       vertex 0.0855852 0.064705 0
       vertex 0.0855852 0.064705 0.1
    endloop
  endfacet
  facet normal 0.980784 0.195096 0
    outer loop
       vertex 0.0855852 0.064705 0.1
       vertex 0.0919652 0.0326315 0.1
       vertex 0.0919652 0.0326315 0
    endloop
  endfacet
  facet normal 0.946935 0.321425 0
    outer loop
       vertex 0.0855852 0.064705 0
       vertex 0.0750742 0.095671 0
       vertex 0.0750742 0.095671 0.1
    endloop
  endfacet
  facet normal 0.946935 0.321425 0
    outer loop
       vertex 0.0750742 0.095671 0.1
       vertex 0.0855852 0.064705 0.1
       vertex 0.0855852 0.064705 0
    endloop
  endfacet
  facet normal 0.896866 0.442302 0
    outer loop
       vertex 0.0750742 0.095671 0
       vertex 0.0606102 0.125 0
       vertex 0.0606102 0.125 0.1
    endloop
  endfacet
  facet normal 0.896866 0.442302 0
    outer loop
       vertex 0.0606102 0.125 0.1
       vertex 0.0750742 0.095671 0.1
       vertex 0.0750742 0.095671 0
    endloop
  endfacet
  facet normal 0.831476 0.555561 0
    outer loop
       vertex 0.0606102 0.125 0
       vertex 0.0424422 0.152191 0
       vertex 0.0424422 0.152191 0.1
    endloop
  endfacet
  facet normal 0.831476 0.555561 0
    outer loop
       vertex 0.0424422 0.152191 0.1
       vertex 0.0606102 0.125 0.1
       vertex 0.0606102 0.125 0
    endloop
  endfacet
  facet normal 0.751817 0.659372 0
    outer loop
       vertex 0.0424422 0.152191 0
       vertex 0.0208802 0.176776 0
       vertex 0.0208802 0.176776 0.1
    endloop
  endfacet
  facet normal 0.751817 0.659372 0
    outer loop
       vertex 0.0208802 0.176776 0.1
       vertex 0.0424422 0.152191 0.1
       vertex 0.0424422 0.152191 0
    endloop
  endfacet
  facet normal 0.659372 0.751817 0
    outer loop
       vertex 0.0208802 0.176776 0
       vertex -0.00370477 0.198338 0
       vertex -0.00370477 0.198338 0.1
    endloop
  endfacet
  facet normal 0.659372 0.751817 0
    outer loop
       vertex -0.00370477 0.198338 0.1
       vertex 0.0208802 0.176776 0.1
       vertex 0.0208802 0.176776 0
    endloop
  endfacet
  facet normal 0.555561 0.831476 0
    outer loop
       vertex -0.00370477 0.198338 0
       vertex -0.0308958 0.216506 0
       vertex -0.0308958 0.216506 0.1
    endloop
  endfacet
  facet normal 0.555561 0.831476 0
    outer loop
       vertex -0.0308958 0.216506 0.1
       vertex -0.00370477 0.198338 0.1
       vertex -0.00370477 0.198338 0
    endloop
  endfacet
  facet normal 0.442302 0.896866 0
    outer loop
       vertex -0.0308958 0.216506 0
       vertex -0.0602248 0.23097 0
       vertex -0.0602248 0.23097 0.1
    endloop
  endfacet
  facet normal 0.442302 0.896866 0
    outer loop
       vertex -0.0602248 0.23097 0.1
       vertex -0.0308958 0.216506 0.1
       vertex -0.0308958 0.216506 0
    endloop
  endfacet
  facet normal 0.321425 0.946935 0
    outer loop
       vertex -0.0602248 0.23097 0
       vertex -0.0911908 0.241481 0
       vertex -0.0911908 0.241481 0.1
    endloop
  endfacet
  facet normal 0.321425 0.946935 0
    outer loop
       vertex -0.0911908 0.241481 0.1
       vertex -0.0602248 0.23097 0.1
       vertex -0.0602248 0.23097 0
    endloop
  endfacet
  facet normal 0.195096 0.980784 0
    outer loop
       vertex -0.0911908 0.241481 0
       vertex -0.123264 0.247861 0
       vertex -0.123264 0.247861 0.1
    endloop
  endfacet
  facet normal 0.195096 0.980784 0
    outer loop
       vertex -0.123264 0.247861 0.1
       vertex -0.0911908 0.241481 0.1
       vertex -0.0911908 0.241481 0
    endloop
  endfacet
  facet normal 0.0654098 0.997858 0
    outer loop
       vertex -0.155896 0.25 0.1
       vertex -0.123264 0.247861 0.1
       vertex -0.123264 0.247861 0
    endloop
  endfacet
  facet normal 0.0654098 0.997858 -1.0893e-16
    outer loop
       vertex -0.123264 0.247861 0
       vertex -0.155896 0.25 0
       vertex -0.155896 0.25 0.1
    endloop
  endfacet
  facet normal -0.0654098 0.997858 0
    outer loop
       vertex -0.155896 0.25 0
       vertex -0.188527 0.247861 0
       vertex -0.188527 0.247861 0.1
    endloop
  endfacet
  facet normal -0.0654098 0.997858 1.0893e-16
    outer loop
       vertex -0.188527 0.247861 0.1
       vertex -0.155896 0.25 0.1
       vertex -0.155896 0.25 0
    endloop
  endfacet
  facet normal -0.195096 0.980784 0
    outer loop
       vertex -0.188527 0.247861 0
       vertex -0.220601 0.241481 0
       vertex -0.220601 0.241481 0.1
    endloop
  endfacet
  facet normal -0.195096 0.980784 0
    outer loop
       vertex -0.220601 0.241481 0.1
       vertex -0.188527 0.247861 0.1
       vertex -0.188527 0.247861 0
    endloop
  endfacet
  facet normal -0.321425 0.946935 0
    outer loop
       vertex -0.220601 0.241481 0
       vertex -0.251567 0.23097 0
       vertex -0.251567 0.23097 0.1
    endloop
  endfacet
  facet normal -0.321425 0.946935 0
    outer loop
       vertex -0.251567 0.23097 0.1
       vertex -0.220601 0.241481 0.1
       vertex -0.220601 0.241481 0
    endloop
  endfacet
  facet normal -0.442302 0.896866 0
    outer loop
       vertex -0.251567 0.23097 0
       vertex -0.280896 0.216506 0
       vertex -0.280896 0.216506 0.1
    endloop
  endfacet
  facet normal -0.442302 0.896866 0
    outer loop
       vertex -0.280896 0.216506 0.1
       vertex -0.251567 0.23097 0.1
       vertex -0.251567 0.23097 0
    endloop
  endfacet
  facet normal -0.555561 0.831476 0
    outer loop
       vertex -0.280896 0.216506 0
       vertex -0.308087 0.198338 0
       vertex -0.308087 0.198338 0.1
    endloop
  endfacet
  facet normal -0.555561 0.831476 0
    outer loop
       vertex -0.308087 0.198338 0.1
       vertex -0.280896 0.216506 0.1
       vertex -0.280896 0.216506 0
    endloop
  endfacet
  facet normal -0.659372 0.751817 0
    outer loop
       vertex -0.308087 0.198338 0
       vertex -0.332672 0.176776 0
       vertex -0.332672 0.176776 0.1
    endloop
  endfacet
  facet normal -0.659372 0.751817 0
    outer loop
       vertex -0.332672 0.176776 0.1
       vertex -0.308087 0.198338 0.1
       vertex -0.308087 0.198338 0
    endloop
  endfacet
  facet normal -0.751817 0.659372 0
    outer loop
       vertex -0.332672 0.176776 0
       vertex -0.354234 0.152191 0
       vertex -0.354234 0.152191 0.1
    endloop
  endfacet
  facet normal -0.751817 0.659372 0
    outer loop
       vertex -0.354234 0.152191 0.1
       vertex -0.332672 0.176776 0.1
       vertex -0.332672 0.176776 0
    endloop
  endfacet
  facet normal -0.831476 0.555561 0
    outer loop
       vertex -0.354234 0.152191 0
       vertex -0.372402 0.125 0
       vertex -0.372402 0.125 0.1
    endloop
  endfacet
  facet normal -0.831476 0.555561 0
    outer loop
       vertex -0.372402 0.125 0.1
       vertex -0.354234 0.152191 0.1
       vertex -0.354234 0.152191 0
    endloop
  endfacet
  facet normal -0.896866 0.442302 0
    outer loop
       vertex -0.372402 0.125 0
       vertex -0.386866 0.095671 0
       vertex -0.386866 0.095671 0.1
    endloop
  endfacet
  facet normal -0.896866 0.442302 0
    outer loop
       vertex -0.386866 0.095671 0.1
       vertex -0.372402 0.125 0.1
       vertex -0.372402 0.125 0
    endloop
  endfacet
  facet normal -0.946935 0.321425 0
    outer loop
       vertex -0.386866 0.095671 0
       vertex -0.397377 0.064705 0
       vertex -0.397377 0.064705 0.1
    endloop
  endfacet
  facet normal -0.946935 0.321425 0
    outer loop
       vertex -0.397377 0.064705 0.1
       vertex -0.386866 0.095671 0.1
       vertex -0.386866 0.095671 0
    endloop
  endfacet
  facet normal -0.980784 0.195096 0
    outer loop
       vertex -0.397377 0.064705 0
       vertex -0.403757 0.0326315 0
       vertex -0.403757 0.0326315 0.1
    endloop
  endfacet
  facet normal -0.980784 0.195096 0
    outer loop
       vertex -0.403757 0.0326315 0.1
       vertex -0.397377 0.064705 0.1
       vertex -0.397377 0.064705 0
    endloop
  endfacet
  facet normal -0.997858 0.0654098 0
    outer loop
       vertex -0.405896 8.32665e-17 0.1
       vertex -0.403757 0.0326315 0.1
       vertex -0.403757 0.0326315 0
    endloop
  endfacet
  facet normal -0.997858 0.0654098 -1.08928e-16
    outer loop
       vertex -0.403757 0.0326315 0
       vertex -0.405896 -8.32665e-17 0
       vertex -0.405896 8.32665e-17 0.1
    endloop
  endfacet
  facet normal -0.997858 -0.0654098 0
    outer loop
       vertex -0.405896 -8.32665e-17 0
       vertex -0.403757 -0.0326315 0
       vertex -0.403757 -0.0326315 0.1
    endloop
  endfacet
  facet normal -0.997858 -0.0654098 1.08928e-16
    outer loop
       vertex -0.403757 -0.0326315 0.1
       vertex -0.405896 8.32665e-17 0.1
       vertex -0.405896 -8.32665e-17 0
    endloop
  endfacet
  facet normal -0.980784 -0.195096 0
    outer loop
       vertex -0.403757 -0.0326315 0
       vertex -0.397377 -0.064705 0
       vertex -0.397377 -0.064705 0.1
    endloop
  endfacet
  facet normal -0.980784 -0.195096 0
    outer loop
       vertex -0.397377 -0.064705 0.1
       vertex -0.403757 -0.0326315 0.1
       vertex -0.403757 -0.0326315 0
    endloop
  endfacet
  facet normal -0.946935 -0.321425 0
    outer loop
       vertex -0.397377 -0.064705 0
       vertex -0.386866 -0.095671 0
       vertex -0.386866 -0.095671 0.1
    endloop
  endfacet
  facet normal -0.946935 -0.321425 0
    outer loop
       vertex -0.386866 -0.095671 0.1
       vertex -0.397377 -0.064705 0.1
       vertex -0.397377 -0.064705 0
    endloop
  endfacet
  facet normal -0.896866 -0.442302 0
    outer loop
       vertex -0.386866 -0.095671 0
       vertex -0.372402 -0.125 0
       vertex -0.372402 -0.125 0.1
    endloop
  endfacet
  facet normal -0.896866 -0.442302 0
    outer loop
       vertex -0.372402 -0.125 0.1
       vertex -0.386866 -0.095671 0.1
       vertex -0.386866 -0.095671 0
    endloop
  endfacet
  facet normal -0.831476 -0.555561 0
    outer loop
       vertex -0.372402 -0.125 0
       vertex -0.354234 -0.152191 0
       vertex -0.354234 -0.152191 0.1
    endloop
  endfacet
  facet normal -0.831476 -0.555561 0
    outer loop
       vertex -0.354234 -0.152191 0.1
       vertex -0.372402 -0.125 0.1
       vertex -0.372402 -0.125 0
    endloop
  endfacet
  facet normal -0.751817 -0.659372 0
    outer loop
       vertex -0.354234 -0.152191 0
       vertex -0.332672 -0.176776 0
       vertex -0.332672 -0.176776 0.1
    endloop
  endfacet
  facet normal -0.751817 -0.659372 0
    outer loop
       vertex -0.332672 -0.176776 0.1
       vertex -0.354234 -0.152191 0.1
       vertex -0.354234 -0.152191 0
    endloop
  endfacet
  facet normal 0.659372 -0.751817 0
    outer loop
       vertex 0.0208802 -0.176776 0
       vertex 0.0208802 -0.176776 0.1
       vertex -0.00370477 -0.198338 0.1
    endloop
  endfacet
  facet normal 0.659372 -0.751817 0
    outer loop
       vertex -0.00370477 -0.198338 0.1
       vertex -0.00370477 -0.198338 0
       vertex 0.0208802 -0.176776 0
    endloop
  endfacet
  facet normal 0.555561 -0.831476 0
    outer loop
       vertex -0.00370477 -0.198338 0
       vertex -0.00370477 -0.198338 0.1
       vertex -0.0308958 -0.216506 0.1
    endloop
  endfacet
  facet normal 0.555561 -0.831476 0
    outer loop
       vertex -0.0308958 -0.216506 0.1
       vertex -0.0308958 -0.216506 0
       vertex -0.00370477 -0.198338 0
    endloop
  endfacet
  facet normal 0.442302 -0.896866 0
    outer loop
       vertex -0.0308958 -0.216506 0
       vertex -0.0308958 -0.216506 0.1
       vertex -0.0602248 -0.23097 0.1
    endloop
  endfacet
  facet normal 0.442302 -0.896866 0
    outer loop
       vertex -0.0602248 -0.23097 0.1
       vertex -0.0602248 -0.23097 0
       vertex -0.0308958 -0.216506 0
    endloop
  endfacet
  facet normal 0.321425 -0.946935 0
    outer loop
       vertex -0.0602248 -0.23097 0
       vertex -0.0602248 -0.23097 0.1
       vertex -0.0911908 -0.241481 0.1
    endloop
  endfacet
  facet normal 0.321425 -0.946935 0
    outer loop
       vertex -0.0911908 -0.241481 0.1
       vertex -0.0911908 -0.241481 0
       vertex -0.0602248 -0.23097 0
    endloop
  endfacet
  facet normal 0.195096 -0.980784 0
    outer loop
       vertex -0.0911908 -0.241481 0
       vertex -0.0911908 -0.241481 0.1
       vertex -0.123264 -0.247861 0.1
    endloop
  endfacet
  facet normal 0.195096 -0.980784 0
    outer loop
       vertex -0.123264 -0.247861 0.1
       vertex -0.123264 -0.247861 0
       vertex -0.0911908 -0.241481 0
    endloop
  endfacet
  facet normal 0.0654098 -0.997858 0
    outer loop
       vertex -0.155896 -0.25 0
       vertex -0.123264 -0.247861 0
       vertex -0.123264 -0.247861 0.1
    endloop
  endfacet
  facet normal 0.0654098 -0.997858 1.0893e-16
    outer loop
       vertex -0.123264 -0.247861 0.1
       vertex -0.155896 -0.25 0.1
       vertex -0.155896 -0.25 0
    endloop
  endfacet
  facet normal -0.0654098 -0.997858 0
    outer loop
       vertex -0.155896 -0.25 0.1
       vertex -0.188527 -0.247861 0.1
       vertex -0.188527 -0.247861 0
    endloop
  endfacet
  facet normal -0.0654098 -0.997858 -1.0893e-16
    outer loop
       vertex -0.188527 -0.247861 0
       vertex -0.155896 -0.25 0
       vertex -0.155896 -0.25 0.1
    endloop
  endfacet
  facet normal -0.195096 -0.980784 0
    outer loop
       vertex -0.188527 -0.247861 0
       vertex -0.188527 -0.247861 0.1
       vertex -0.220601 -0.241481 0.1
    endloop
  endfacet
  facet normal -0.195096 -0.980784 -0
    outer loop
       vertex -0.220601 -0.241481 0.1
       vertex -0.220601 -0.241481 0
       vertex -0.188527 -0.247861 0
    endloop
  endfacet
  facet normal -0.321425 -0.946935 0
    outer loop
       vertex -0.220601 -0.241481 0
       vertex -0.220601 -0.241481 0.1
       vertex -0.251567 -0.23097 0.1
    endloop
  endfacet
  facet normal -0.321425 -0.946935 -0
    outer loop
       vertex -0.251567 -0.23097 0.1
       vertex -0.251567 -0.23097 0
       vertex -0.220601 -0.241481 0
    endloop
  endfacet
  facet normal -0.442302 -0.896866 0
    outer loop
       vertex -0.251567 -0.23097 0
       vertex -0.251567 -0.23097 0.1
       vertex -0.280896 -0.216506 0.1
    endloop
  endfacet
  facet normal -0.442302 -0.896866 -0
    outer loop
       vertex -0.280896 -0.216506 0.1
       vertex -0.280896 -0.216506 0
       vertex -0.251567 -0.23097 0
    endloop
  endfacet
  facet normal -0.555561 -0.831476 0
    outer loop
       vertex -0.280896 -0.216506 0
       vertex -0.280896 -0.216506 0.1
       vertex -0.308087 -0.198338 0.1
    endloop
  endfacet
  facet normal -0.555561 -0.831476 -0
    outer loop
       vertex -0.308087 -0.198338 0.1
       vertex -0.308087 -0.198338 0
       vertex -0.280896 -0.216506 0
    endloop
  endfacet
  facet normal -0.659372 -0.751817 0
    outer loop
       vertex -0.308087 -0.198338 0
       vertex -0.308087 -0.198338 0.1
       vertex -0.332672 -0.176776 0.1
    endloop
  endfacet
  facet normal -0.659372 -0.751817 -0
    outer loop
       vertex -0.332672 -0.176776 0.1
       vertex -0.332672 -0.176776 0
       vertex -0.308087 -0.198338 0
    endloop
  endfacet
endsolid cylinder
