solid cylinder
  facet normal 0.751817 -0.659372 0
    outer loop
       vertex -0.00730296 -0.176776 0
       vertex 0.014259 -0.152191 0
       vertex 0.014259 -0.152191 0.1
    endloop
  endfacet
  facet normal 0.751817 -0.659372 0
    outer loop
       vertex 0.014259 -0.152191 0.1
       vertex -0.00730296 -0.176776 0.1
       vertex -0.00730296 -0.176776 0
    endloop
  endfacet
  facet normal 0.831476 -0.555561 0
    outer loop
       vertex 0.014259 -0.152191 0
       vertex 0.032427 -0.125 0
       vertex 0.032427 -0.125 0.1
    endloop
  endfacet
  facet normal 0.831476 -0.555561 0
    outer loop
       vertex 0.032427 -0.125 0.1
       vertex 0.014259 -0.152191 0.1
       vertex 0.014259 -0.152191 0
    endloop
  endfacet
  facet normal 0.896866 -0.442302 0
    outer loop
       vertex 0.032427 -0.125 0
       vertex 0.046891 -0.095671 0
       vertex 0.046891 -0.095671 0.1
    endloop
  endfacet
  facet normal 0.896866 -0.442302 0
    outer loop
       vertex 0.046891 -0.095671 0.1
       vertex 0.032427 -0.125 0.1
       vertex 0.032427 -0.125 0
    endloop
  endfacet
  facet normal 0.946935 -0.321425 0
    outer loop
       vertex 0.046891 -0.095671 0
       vertex 0.057402 -0.064705 0
       vertex 0.057402 -0.064705 0.1
    endloop
  endfacet
  facet normal 0.946935 -0.321425 0
    outer loop
       vertex 0.057402 -0.064705 0.1
       vertex 0.046891 -0.095671 0.1
       vertex 0.046891 -0.095671 0
    endloop
  endfacet
  facet normal 0.980784 -0.195096 0
    outer loop
       vertex 0.057402 -0.064705 0
       vertex 0.063782 -0.0326315 0
       vertex 0.063782 -0.0326315 0.1
    endloop
  endfacet
  facet normal 0.980784 -0.195096 0
    outer loop
       vertex 0.063782 -0.0326315 0.1
       vertex 0.057402 -0.064705 0.1
       vertex 0.057402 -0.064705 0
    endloop
  endfacet
  facet normal 0.997858 -0.0654098 0
    outer loop
       vertex 0.065921 -8.32665e-17 0.1
       vertex 0.063782 -0.0326315 0.1
       vertex 0.063782 -0.0326315 0
    endloop
  endfacet
  facet normal 0.997858 -0.0654098 -1.08928e-16
    outer loop
       vertex 0.063782 -0.0326315 0
       vertex 0.065921 8.32665e-17 0
       vertex 0.065921 -8.32665e-17 0.1
    endloop
  endfacet
  facet normal 0.997858 0.0654098 0
    outer loop
       vertex 0.065921 8.32665e-17 0
       vertex 0.063782 0.0326315 0
       vertex 0.063782 0.0326315 0.1
    endloop
  endfacet
  facet normal 0.997858 0.0654098 1.08928e-16
    outer loop
       vertex 0.063782 0.0326315 0.1
       vertex 0.065921 -8.32665e-17 0.1
       vertex 0.065921 8.32665e-17 0
    endloop
  endfacet
  facet normal 0.980784 0.195096 0
    outer loop
       vertex 0.063782 0.0326315 0
       vertex 0.057402 0.064705 0
       vertex 0.057402 0.064705 0.1
    endloop
  endfacet
  facet normal 0.980784 0.195096 0
    outer loop
       vertex 0.057402 0.064705 0.1
       vertex 0.063782 0.0326315 0.1
       vertex 0.063782 0.0326315 0
    endloop
  endfacet
  facet normal 0.946935 0.321425 0
    outer loop
       vertex 0.057402 0.064705 0
       vertex 0.046891 0.095671 0
       vertex 0.046891 0.095671 0.1
    endloop
  endfacet
  facet normal 0.946935 0.321425 0
    outer loop
       vertex 0.046891 0.095671 0.1
       vertex 0.057402 0.064705 0.1
       vertex 0.057402 0.064705 0
    endloop
  endfacet
  facet normal 0.896866 0.442302 0
    outer loop
       vertex 0.046891 0.095671 0
       vertex 0.032427 0.125 0
       vertex 0.032427 0.125 0.1
    endloop
  endfacet
  facet normal 0.896866 0.442302 0
    outer loop
       vertex 0.032427 0.125 0.1
       vertex 0.046891 0.095671 0.1
       vertex 0.046891 0.095671 0
    endloop
  endfacet
  facet normal 0.831476 0.555561 0
    outer loop
       vertex 0.032427 0.125 0
       vertex 0.014259 0.152191 0
       vertex 0.014259 0.152191 0.1
    endloop
  endfacet
  facet normal 0.831476 0.555561 0
    outer loop
       vertex 0.014259 0.152191 0.1
       vertex 0.032427 0.125 0.1
       vertex 0.032427 0.125 0
    endloop
  endfacet
  facet normal 0.751817 0.659372 0
    outer loop
       vertex 0.014259 0.152191 0
       vertex -0.00730296 0.176776 0
       vertex -0.00730296 0.176776 0.1
    endloop
  endfacet
  facet normal 0.751817 0.659372 0
    outer loop
       vertex -0.00730296 0.176776 0.1
       vertex 0.014259 0.152191 0.1
       vertex 0.014259 0.152191 0
    endloop
  endfacet
  facet normal 0.659372 0.751817 0
    outer loop
       vertex -0.00730296 0.176776 0
       vertex -0.031888 0.198338 0
       vertex -0.031888 0.198338 0.1
    endloop
  endfacet
  facet normal 0.659372 0.751817 0
    outer loop
       vertex -0.031888 0.198338 0.1
       vertex -0.00730296 0.176776 0.1
       vertex -0.00730296 0.176776 0
    endloop
  endfacet
  facet normal 0.555561 0.831476 0
    outer loop
       vertex -0.031888 0.198338 0
       vertex -0.059079 0.216506 0
       vertex -0.059079 0.216506 0.1
    endloop
  endfacet
  facet normal 0.555561 0.831476 0
    outer loop
       vertex -0.059079 0.216506 0.1
       vertex -0.031888 0.198338 0.1
       vertex -0.031888 0.198338 0
    endloop
  endfacet
  facet normal 0.442302 0.896866 0
    outer loop
       vertex -0.059079 0.216506 0
       vertex -0.088408 0.23097 0
       vertex -0.088408 0.23097 0.1
    endloop
  endfacet
  facet normal 0.442302 0.896866 0
    outer loop
       vertex -0.088408 0.23097 0.1
       vertex -0.059079 0.216506 0.1
       vertex -0.059079 0.216506 0
    endloop
  endfacet
  facet normal 0.321425 0.946935 0
    outer loop
       vertex -0.088408 0.23097 0
       vertex -0.119374 0.241481 0
       vertex -0.119374 0.241481 0.1
    endloop
  endfacet
  facet normal 0.321425 0.946935 0
    outer loop
       vertex -0.119374 0.241481 0.1
       vertex -0.088408 0.23097 0.1
       vertex -0.088408 0.23097 0
    endloop
  endfacet
  facet normal 0.195096 0.980784 0
    outer loop
       vertex -0.119374 0.241481 0
       vertex -0.151447 0.247861 0
       vertex -0.151447 0.247861 0.1
    endloop
  endfacet
  facet normal 0.195096 0.980784 0
    outer loop
       vertex -0.151447 0.247861 0.1
       vertex -0.119374 0.241481 0.1
       vertex -0.119374 0.241481 0
    endloop
  endfacet
  facet normal 0.0654098 0.997858 0
    outer loop
       vertex -0.184079 0.25 0.1
       vertex -0.151447 0.247861 0.1
       vertex -0.151447 0.247861 0
    endloop
  endfacet
  facet normal 0.0654098 0.997858 -1.0893e-16
    outer loop
       vertex -0.151447 0.247861 0
       vertex -0.184079 0.25 0
       vertex -0.184079 0.25 0.1
    endloop
  endfacet
  facet normal -0.0654098 0.997858 0
    outer loop
       vertex -0.184079 0.25 0
       vertex -0.21671 0.247861 0
       vertex -0.21671 0.247861 0.1
    endloop
  endfacet
  facet normal -0.0654098 0.997858 1.0893e-16
    outer loop
       vertex -0.21671 0.247861 0.1
       vertex -0.184079 0.25 0.1
       vertex -0.184079 0.25 0
    endloop
  endfacet
  facet normal -0.195096 0.980784 0
    outer loop
       vertex -0.21671 0.247861 0
       vertex -0.248784 0.241481 0
       vertex -0.248784 0.241481 0.1
    endloop
  endfacet
  facet normal -0.195096 0.980784 0
    outer loop
       vertex -0.248784 0.241481 0.1
       vertex -0.21671 0.247861 0.1
       vertex -0.21671 0.247861 0
    endloop
  endfacet
  facet normal -0.321425 0.946935 0
    outer loop
       vertex -0.248784 0.241481 0
       vertex -0.27975 0.23097 0
       vertex -0.27975 0.23097 0.1
    endloop
  endfacet
  facet normal -0.321425 0.946935 0
    outer loop
       vertex -0.27975 0.23097 0.1
       vertex -0.248784 0.241481 0.1
       vertex -0.248784 0.241481 0
    endloop
  endfacet
  facet normal -0.442302 0.896866 0
    outer loop
       vertex -0.27975 0.23097 0
       vertex -0.309079 0.216506 0
       vertex -0.309079 0.216506 0.1
    endloop
  endfacet
  facet normal -0.442302 0.896866 0
    outer loop
       vertex -0.309079 0.216506 0.1
       vertex -0.27975 0.23097 0.1
       vertex -0.27975 0.23097 0
    endloop
  endfacet
  facet normal -0.555561 0.831476 0
    outer loop
       vertex -0.309079 0.216506 0
       vertex -0.33627 0.198338 0
       vertex -0.33627 0.198338 0.1
    endloop
  endfacet
  facet normal -0.555561 0.831476 0
    outer loop
       vertex -0.33627 0.198338 0.1
       vertex -0.309079 0.216506 0.1
       vertex -0.309079 0.216506 0
    endloop
  endfacet
  facet normal -0.659372 0.751817 0
    outer loop
       vertex -0.33627 0.198338 0
       vertex -0.360855 0.176776 0
       vertex -0.360855 0.176776 0.1
    endloop
  endfacet
  facet normal -0.659372 0.751817 0
    outer loop
       vertex -0.360855 0.176776 0.1
       vertex -0.33627 0.198338 0.1
       vertex -0.33627 0.198338 0
    endloop
  endfacet
  facet normal -0.751817 0.659372 0
    outer loop
       vertex -0.360855 0.176776 0
       vertex -0.382417 0.152191 0
       vertex -0.382417 0.152191 0.1
    endloop
  endfacet
  facet normal -0.751817 0.659372 0
    outer loop
       vertex -0.382417 0.152191 0.1
       vertex -0.360855 0.176776 0.1
       vertex -0.360855 0.176776 0
    endloop
  endfacet
  facet normal -0.831476 0.555561 0
    outer loop
       vertex -0.382417 0.152191 0
       vertex -0.400585 0.125 0
       vertex -0.400585 0.125 0.1
    endloop
  endfacet
  facet normal -0.831476 0.555561 0
    outer loop
       vertex -0.400585 0.125 0.1
       vertex -0.382417 0.152191 0.1
       vertex -0.382417 0.152191 0
    endloop
  endfacet
  facet normal -0.896866 0.442302 0
    outer loop
       vertex -0.400585 0.125 0
       vertex -0.415049 0.095671 0
       vertex -0.415049 0.095671 0.1
    endloop
  endfacet
  facet normal -0.896866 0.442302 0
    outer loop
       vertex -0.415049 0.095671 0.1
       vertex -0.400585 0.125 0.1
       vertex -0.400585 0.125 0
    endloop
  endfacet
  facet normal -0.946935 0.321425 0
    outer loop
       vertex -0.415049 0.095671 0
       vertex -0.42556 0.064705 0
       vertex -0.42556 0.064705 0.1
    endloop
  endfacet
  facet normal -0.946935 0.321425 0
    outer loop
       vertex -0.42556 0.064705 0.1
       vertex -0.415049 0.095671 0.1
       vertex -0.415049 0.095671 0
    endloop
  endfacet
  facet normal -0.980784 0.195096 0
    outer loop
       vertex -0.42556 0.064705 0
       vertex -0.43194 0.0326315 0
       vertex -0.43194 0.0326315 0.1
    endloop
  endfacet
  facet normal -0.980784 0.195096 0
    outer loop
       vertex -0.43194 0.0326315 0.1
       vertex -0.42556 0.064705 0.1
       vertex -0.42556 0.064705 0
    endloop
  endfacet
  facet normal -0.997858 0.0654098 0
    outer loop
       vertex -0.434079 8.32665e-17 0.1
       vertex -0.43194 0.0326315 0.1
       vertex -0.43194 0.0326315 0
    endloop
  endfacet
  facet normal -0.997858 0.0654098 -1.08928e-16
    outer loop
       vertex -0.43194 0.0326315 0
       vertex -0.434079 -8.32665e-17 0
       vertex -0.434079 8.32665e-17 0.1
    endloop
  endfacet
  facet normal -0.997858 -0.0654098 0
    outer loop
       vertex -0.434079 -8.32665e-17 0
       vertex -0.43194 -0.0326315 0
       vertex -0.43194 -0.0326315 0.1
    endloop
  endfacet
  facet normal -0.997858 -0.0654098 1.08928e-16
    outer loop
       vertex -0.43194 -0.0326315 0.1
       vertex -0.434079 8.32665e-17 0.1
       vertex -0.434079 -8.32665e-17 0
    endloop
  endfacet
  facet normal -0.980784 -0.195096 0
    outer loop
       vertex -0.43194 -0.0326315 0
       vertex -0.42556 -0.064705 0
       vertex -0.42556 -0.064705 0.1
    endloop
  endfacet
  facet normal -0.980784 -0.195096 0
    outer loop
       vertex -0.42556 -0.064705 0.1
       vertex -0.43194 -0.0326315 0.1
       vertex -0.43194 -0.0326315 0
    endloop
  endfacet
  facet normal -0.946935 -0.321425 0
    outer loop
       vertex -0.42556 -0.064705 0
       vertex -0.415049 -0.095671 0
       vertex -0.415049 -0.095671 0.1
    endloop
  endfacet
  facet normal -0.946935 -0.321425 0
    outer loop
       vertex -0.415049 -0.095671 0.1
       vertex -0.42556 -0.064705 0.1
       vertex -0.42556 -0.064705 0
    endloop
  endfacet
  facet normal -0.896866 -0.442302 0
    outer loop
       vertex -0.415049 -0.095671 0
       vertex -0.400585 -0.125 0
       vertex -0.400585 -0.125 0.1
    endloop
  endfacet
  facet normal -0.896866 -0.442302 0
    outer loop
       vertex -0.400585 -0.125 0.1
       vertex -0.415049 -0.095671 0.1
       vertex -0.415049 -0.095671 0
    endloop
  endfacet
  facet normal -0.831476 -0.555561 0
    outer loop
       vertex -0.400585 -0.125 0
       vertex -0.382417 -0.152191 0
       vertex -0.382417 -0.152191 0.1
    endloop
  endfacet
  facet normal -0.831476 -0.555561 0
    outer loop
       vertex -0.382417 -0.152191 0.1
       vertex -0.400585 -0.125 0.1
       vertex -0.400585 -0.125 0
    endloop
  endfacet
  facet normal -0.751817 -0.659372 0
    outer loop
       vertex -0.382417 -0.152191 0
       vertex -0.360855 -0.176776 0
       vertex -0.360855 -0.176776 0.1
    endloop
  endfacet
  facet normal -0.751817 -0.659372 0
    outer loop
       vertex -0.360855 -0.176776 0.1
       vertex -0.382417 -0.152191 0.1
       vertex -0.382417 -0.152191 0
    endloop
  endfacet
  facet normal 0.659372 -0.751817 0
    outer loop
       vertex -0.00730296 -0.176776 0
       vertex -0.00730296 -0.176776 0.1
       vertex -0.031888 -0.198338 0.1
    endloop
  endfacet
  facet normal 0.659372 -0.751817 0
    outer loop
       vertex -0.031888 -0.198338 0.1
       vertex -0.031888 -0.198338 0
       vertex -0.00730296 -0.176776 0
    endloop
  endfacet
  facet normal 0.555561 -0.831476 0
    outer loop
       vertex -0.031888 -0.198338 0
       vertex -0.031888 -0.198338 0.1
       vertex -0.059079 -0.216506 0.1
    endloop
  endfacet
  facet normal 0.555561 -0.831476 0
    outer loop
       vertex -0.059079 -0.216506 0.1
       vertex -0.059079 -0.216506 0
       vertex -0.031888 -0.198338 0
    endloop
  endfacet
  facet normal 0.442302 -0.896866 0
    outer loop
       vertex -0.059079 -0.216506 0
       vertex -0.059079 -0.216506 0.1
       vertex -0.088408 -0.23097 0.1
    endloop
  endfacet
  facet normal 0.442302 -0.896866 0
    outer loop
       vertex -0.088408 -0.23097 0.1
       vertex -0.088408 -0.23097 0
       vertex -0.059079 -0.216506 0
    endloop
  endfacet
  facet normal 0.321425 -0.946935 0
    outer loop
       vertex -0.088408 -0.23097 0
       vertex -0.088408 -0.23097 0.1
       vertex -0.119374 -0.241481 0.1
    endloop
  endfacet
  facet normal 0.321425 -0.946935 0
    outer loop
       vertex -0.119374 -0.241481 0.1
       vertex -0.119374 -0.241481 0
       vertex -0.088408 -0.23097 0
    endloop
  endfacet
  facet normal 0.195096 -0.980784 0
    outer loop
       vertex -0.119374 -0.241481 0
       vertex -0.119374 -0.241481 0.1
       vertex -0.151447 -0.247861 0.1
    endloop
  endfacet
  facet normal 0.195096 -0.980784 0
    outer loop
       vertex -0.151447 -0.247861 0.1
       vertex -0.151447 -0.247861 0
       vertex -0.119374 -0.241481 0
    endloop
  endfacet
  facet normal 0.0654098 -0.997858 0
    outer loop
       vertex -0.184079 -0.25 0
       vertex -0.151447 -0.247861 0
       vertex -0.151447 -0.247861 0.1
    endloop
  endfacet
  facet normal 0.0654098 -0.997858 1.0893e-16
    outer loop
       vertex -0.151447 -0.247861 0.1
       vertex -0.184079 -0.25 0.1
       vertex -0.184079 -0.25 0
    endloop
  endfacet
  facet normal -0.0654098 -0.997858 0
    outer loop
       vertex -0.184079 -0.25 0.1
       vertex -0.21671 -0.247861 0.1
       vertex -0.21671 -0.247861 0
    endloop
  endfacet
  facet normal -0.0654098 -0.997858 -1.0893e-16
    outer loop
       vertex -0.21671 -0.247861 0
       vertex -0.184079 -0.25 0
       vertex -0.184079 -0.25 0.1
    endloop
  endfacet
  facet normal -0.195096 -0.980784 0
    outer loop
       vertex -0.21671 -0.247861 0
       vertex -0.21671 -0.247861 0.1
       vertex -0.248784 -0.241481 0.1
    endloop
  endfacet
  facet normal -0.195096 -0.980784 -0
    outer loop
       vertex -0.248784 -0.241481 0.1
       vertex -0.248784 -0.241481 0
       vertex -0.21671 -0.247861 0
    endloop
  endfacet
  facet normal -0.321425 -0.946935 0
    outer loop
       vertex -0.248784 -0.241481 0
       vertex -0.248784 -0.241481 0.1
       vertex -0.27975 -0.23097 0.1
    endloop
  endfacet
  facet normal -0.321425 -0.946935 -0
    outer loop
       vertex -0.27975 -0.23097 0.1
       vertex -0.27975 -0.23097 0
       vertex -0.248784 -0.241481 0
    endloop
  endfacet
  facet normal -0.442302 -0.896866 0
    outer loop
       vertex -0.27975 -0.23097 0
       vertex -0.27975 -0.23097 0.1
       vertex -0.309079 -0.216506 0.1
    endloop
  endfacet
  facet normal -0.442302 -0.896866 -0
    outer loop
       vertex -0.309079 -0.216506 0.1
       vertex -0.309079 -0.216506 0
       vertex -0.27975 -0.23097 0
    endloop
  endfacet
  facet normal -0.555561 -0.831476 0
    outer loop
       vertex -0.309079 -0.216506 0
       vertex -0.309079 -0.216506 0.1
       vertex -0.33627 -0.198338 0.1
    endloop
  endfacet
  facet normal -0.555561 -0.831476 -0
    outer loop
       vertex -0.33627 -0.198338 0.1
       vertex -0.33627 -0.198338 0
       vertex -0.309079 -0.216506 0
    endloop
  endfacet
  facet normal -0.659372 -0.751817 0
    outer loop
       vertex -0.33627 -0.198338 0
       vertex -0.33627 -0.198338 0.1
       vertex -0.360855 -0.176776 0.1
    endloop
  endfacet
  facet normal -0.659372 -0.751817 -0
    outer loop
       vertex -0.360855 -0.176776 0.1
       vertex -0.360855 -0.176776 0
       vertex -0.33627 -0.198338 0
    endloop
  endfacet
endsolid cylinder
