solid cylinder
  facet normal 0.751817 -0.659372 0
    outer loop
       vertex 0.293536 -0.176776 0
       vertex 0.315098 -0.152191 0
       vertex 0.315098 -0.152191 0.1
    endloop
  endfacet
  facet normal 0.751817 -0.659372 0
    outer loop
       vertex 0.315098 -0.152191 0.1
       vertex 0.293536 -0.176776 0.1
       vertex 0.293536 -0.176776 0
    endloop
  endfacet
  facet normal 0.831476 -0.555561 0
    outer loop
       vertex 0.315098 -0.152191 0
       vertex 0.333266 -0.125 0
       vertex 0.333266 -0.125 0.1
    endloop
  endfacet
  facet normal 0.831476 -0.555561 0
    outer loop
       vertex 0.333266 -0.125 0.1
       vertex 0.315098 -0.152191 0.1
       vertex 0.315098 -0.152191 0
    endloop
  endfacet
  facet normal 0.896866 -0.442302 0
    outer loop
       vertex 0.333266 -0.125 0
       vertex 0.34773 -0.095671 0
       vertex 0.34773 -0.095671 0.1
    endloop
  endfacet
  facet normal 0.896866 -0.442302 0
    outer loop
       vertex 0.34773 -0.095671 0.1
       vertex 0.333266 -0.125 0.1
       vertex 0.333266 -0.125 0
    endloop
  endfacet
  facet normal 0.946935 -0.321425 0
    outer loop
       vertex 0.34773 -0.095671 0
       vertex 0.358241 -0.064705 0
       vertex 0.358241 -0.064705 0.1
    endloop
  endfacet
  facet normal 0.946935 -0.321425 0
    outer loop
       vertex 0.358241 -0.064705 0.1
       vertex 0.34773 -0.095671 0.1
       vertex 0.34773 -0.095671 0
    endloop
  endfacet
  facet normal 0.980784 -0.195096 0
    outer loop
       vertex 0.358241 -0.064705 0
       vertex 0.364621 -0.0326315 0
       vertex 0.364621 -0.0326315 0.1
    endloop
  endfacet
  facet normal 0.980784 -0.195096 0
    outer loop
       vertex 0.364621 -0.0326315 0.1
       vertex 0.358241 -0.064705 0.1
       vertex 0.358241 -0.064705 0
    endloop
  endfacet
  facet normal 0.997858 -0.0654098 0
    outer loop
       vertex 0.36676 -8.32665e-17 0.1
       vertex 0.364621 -0.0326315 0.1
       vertex 0.364621 -0.0326315 0
    endloop
  endfacet
  facet normal 0.997858 -0.0654098 -1.08928e-16
    outer loop
       vertex 0.364621 -0.0326315 0
       vertex 0.36676 8.32665e-17 0
       vertex 0.36676 -8.32665e-17 0.1
    endloop
  endfacet
  facet normal 0.997858 0.0654098 0
    outer loop
       vertex 0.36676 8.32665e-17 0
       vertex 0.364621 0.0326315 0
       vertex 0.364621 0.0326315 0.1
    endloop
  endfacet
  facet normal 0.997858 0.0654098 1.08928e-16
    outer loop
       vertex 0.364621 0.0326315 0.1
       vertex 0.36676 -8.32665e-17 0.1
       vertex 0.36676 8.32665e-17 0
    endloop
  endfacet
  facet normal 0.980784 0.195096 0
    outer loop
       vertex 0.364621 0.0326315 0
       vertex 0.358241 0.064705 0
       vertex 0.358241 0.064705 0.1
    endloop
  endfacet
  facet normal 0.980784 0.195096 0
    outer loop
       vertex 0.358241 0.064705 0.1
       vertex 0.364621 0.0326315 0.1
       vertex 0.364621 0.0326315 0
    endloop
  endfacet
  facet normal 0.946935 0.321425 0
    outer loop
       vertex 0.358241 0.064705 0
       vertex 0.34773 0.095671 0
       vertex 0.34773 0.095671 0.1
    endloop
  endfacet
  facet normal 0.946935 0.321425 0
    outer loop
       vertex 0.34773 0.095671 0.1
       vertex 0.358241 0.064705 0.1
       vertex 0.358241 0.064705 0
    endloop
  endfacet
  facet normal 0.896866 0.442302 0
    outer loop
       vertex 0.34773 0.095671 0
       vertex 0.333266 0.125 0
       vertex 0.333266 0.125 0.1
    endloop
  endfacet
  facet normal 0.896866 0.442302 0
    outer loop
       vertex 0.333266 0.125 0.1
       vertex 0.34773 0.095671 0.1
       vertex 0.34773 0.095671 0
    endloop
  endfacet
  facet normal 0.831476 0.555561 0
    outer loop
       vertex 0.333266 0.125 0
       vertex 0.315098 0.152191 0
       vertex 0.315098 0.152191 0.1
    endloop
  endfacet
  facet normal 0.831476 0.555561 0
    outer loop
       vertex 0.315098 0.152191 0.1
       vertex 0.333266 0.125 0.1
       vertex 0.333266 0.125 0
    endloop
  endfacet
  facet normal 0.751817 0.659372 0
    outer loop
       vertex 0.315098 0.152191 0
       vertex 0.293536 0.176776 0
       vertex 0.293536 0.176776 0.1
    endloop
  endfacet
  facet normal 0.751817 0.659372 0
    outer loop
       vertex 0.293536 0.176776 0.1
       vertex 0.315098 0.152191 0.1
       vertex 0.315098 0.152191 0
    endloop
  endfacet
  facet normal 0.659372 0.751817 0
    outer loop
       vertex 0.293536 0.176776 0
       vertex 0.268951 0.198338 0
       vertex 0.268951 0.198338 0.1
    endloop
  endfacet
  facet normal 0.659372 0.751817 0
    outer loop
       vertex 0.268951 0.198338 0.1
       vertex 0.293536 0.176776 0.1
       vertex 0.293536 0.176776 0
    endloop
  endfacet
  facet normal 0.555561 0.831476 0
    outer loop
       vertex 0.268951 0.198338 0
       vertex 0.24176 0.216506 0
       vertex 0.24176 0.216506 0.1
    endloop
  endfacet
  facet normal 0.555561 0.831476 0
    outer loop
       vertex 0.24176 0.216506 0.1
       vertex 0.268951 0.198338 0.1
       vertex 0.268951 0.198338 0
    endloop
  endfacet
  facet normal 0.442302 0.896866 0
    outer loop
       vertex 0.24176 0.216506 0
       vertex 0.212431 0.23097 0
       vertex 0.212431 0.23097 0.1
    endloop
  endfacet
  facet normal 0.442302 0.896866 0
    outer loop
       vertex 0.212431 0.23097 0.1
       vertex 0.24176 0.216506 0.1
       vertex 0.24176 0.216506 0
    endloop
  endfacet
  facet normal 0.321425 0.946935 0
    outer loop
       vertex 0.212431 0.23097 0
       vertex 0.181465 0.241481 0
       vertex 0.181465 0.241481 0.1
    endloop
  endfacet
  facet normal 0.321425 0.946935 0
    outer loop
       vertex 0.181465 0.241481 0.1
       vertex 0.212431 0.23097 0.1
       vertex 0.212431 0.23097 0
    endloop
  endfacet
  facet normal 0.195096 0.980784 0
    outer loop
       vertex 0.181465 0.241481 0
       vertex 0.149391 0.247861 0
       vertex 0.149391 0.247861 0.1
    endloop
  endfacet
  facet normal 0.195096 0.980784 0
    outer loop
       vertex 0.149391 0.247861 0.1
       vertex 0.181465 0.241481 0.1
       vertex 0.181465 0.241481 0
    endloop
  endfacet
  facet normal 0.0654098 0.997858 0
    outer loop
       vertex 0.11676 0.25 0.1
       vertex 0.149391 0.247861 0.1
       vertex 0.149391 0.247861 0
    endloop
  endfacet
  facet normal 0.0654098 0.997858 -1.0893e-16
    outer loop
       vertex 0.149391 0.247861 0
       vertex 0.11676 0.25 0
       vertex 0.11676 0.25 0.1
    endloop
  endfacet
  facet normal -0.0654098 0.997858 0
    outer loop
       vertex 0.11676 0.25 0
       vertex 0.0841282 0.247861 0
       vertex 0.0841282 0.247861 0.1
    endloop
  endfacet
  facet normal -0.0654098 0.997858 1.0893e-16
    outer loop
       vertex 0.0841282 0.247861 0.1
       vertex 0.11676 0.25 0.1
       vertex 0.11676 0.25 0
    endloop
  endfacet
  facet normal -0.195096 0.980784 0
    outer loop
       vertex 0.0841282 0.247861 0
       vertex 0.0520547 0.241481 0
       vertex 0.0520547 0.241481 0.1
    endloop
  endfacet
  facet normal -0.195096 0.980784 0
    outer loop
       vertex 0.0520547 0.241481 0.1
       vertex 0.0841282 0.247861 0.1
       vertex 0.0841282 0.247861 0
    endloop
  endfacet
  facet normal -0.321425 0.946935 0
    outer loop
       vertex 0.0520547 0.241481 0
       vertex 0.0210887 0.23097 0
       vertex 0.0210887 0.23097 0.1
    endloop
  endfacet
  facet normal -0.321425 0.946935 0
    outer loop
       vertex 0.0210887 0.23097 0.1
       vertex 0.0520547 0.241481 0.1
       vertex 0.0520547 0.241481 0
    endloop
  endfacet
  facet normal -0.442302 0.896866 0
    outer loop
       vertex 0.0210887 0.23097 0
       vertex -0.00824025 0.216506 0
       vertex -0.00824025 0.216506 0.1
    endloop
  endfacet
  facet normal -0.442302 0.896866 0
    outer loop
       vertex -0.00824025 0.216506 0.1
       vertex 0.0210887 0.23097 0.1
       vertex 0.0210887 0.23097 0
    endloop
  endfacet
  facet normal -0.555561 0.831476 0
    outer loop
       vertex -0.00824025 0.216506 0
       vertex -0.0354313 0.198338 0
       vertex -0.0354313 0.198338 0.1
    endloop
  endfacet
  facet normal -0.555561 0.831476 0
    outer loop
       vertex -0.0354313 0.198338 0.1
       vertex -0.00824025 0.216506 0.1
       vertex -0.00824025 0.216506 0
    endloop
  endfacet
  facet normal -0.659372 0.751817 0
    outer loop
       vertex -0.0354313 0.198338 0
       vertex -0.0600163 0.176776 0
       vertex -0.0600163 0.176776 0.1
    endloop
  endfacet
  facet normal -0.659372 0.751817 0
    outer loop
       vertex -0.0600163 0.176776 0.1
       vertex -0.0354313 0.198338 0.1
       vertex -0.0354313 0.198338 0
    endloop
  endfacet
  facet normal -0.751817 0.659372 0
    outer loop
       vertex -0.0600163 0.176776 0
       vertex -0.0815783 0.152191 0
       vertex -0.0815783 0.152191 0.1
    endloop
  endfacet
  facet normal -0.751817 0.659372 0
    outer loop
       vertex -0.0815783 0.152191 0.1
       vertex -0.0600163 0.176776 0.1
       vertex -0.0600163 0.176776 0
    endloop
  endfacet
  facet normal -0.831476 0.555561 0
    outer loop
       vertex -0.0815783 0.152191 0
       vertex -0.0997463 0.125 0
       vertex -0.0997463 0.125 0.1
    endloop
  endfacet
  facet normal -0.831476 0.555561 0
    outer loop
       vertex -0.0997463 0.125 0.1
       vertex -0.0815783 0.152191 0.1
       vertex -0.0815783 0.152191 0
    endloop
  endfacet
  facet normal -0.896866 0.442302 0
    outer loop
       vertex -0.0997463 0.125 0
       vertex -0.11421 0.095671 0
       vertex -0.11421 0.095671 0.1
    endloop
  endfacet
  facet normal -0.896866 0.442302 0
    outer loop
       vertex -0.11421 0.095671 0.1
       vertex -0.0997463 0.125 0.1
       vertex -0.0997463 0.125 0
    endloop
  endfacet
  facet normal -0.946935 0.321425 0
    outer loop
       vertex -0.11421 0.095671 0
       vertex -0.124721 0.064705 0
       vertex -0.124721 0.064705 0.1
    endloop
  endfacet
  facet normal -0.946935 0.321425 0
    outer loop
       vertex -0.124721 0.064705 0.1
       vertex -0.11421 0.095671 0.1
       vertex -0.11421 0.095671 0
    endloop
  endfacet
  facet normal -0.980784 0.195096 0
    outer loop
       vertex -0.124721 0.064705 0
       vertex -0.131101 0.0326315 0
       vertex -0.131101 0.0326315 0.1
    endloop
  endfacet
  facet normal -0.980784 0.195096 0
    outer loop
       vertex -0.131101 0.0326315 0.1
       vertex -0.124721 0.064705 0.1
       vertex -0.124721 0.064705 0
    endloop
  endfacet
  facet normal -0.997858 0.0654098 0
    outer loop
       vertex -0.13324 8.32665e-17 0.1
       vertex -0.131101 0.0326315 0.1
       vertex -0.131101 0.0326315 0
    endloop
  endfacet
  facet normal -0.997858 0.0654098 -1.08928e-16
    outer loop
       vertex -0.131101 0.0326315 0
       vertex -0.13324 -8.32665e-17 0
       vertex -0.13324 8.32665e-17 0.1
    endloop
  endfacet
  facet normal -0.997858 -0.0654098 0
    outer loop
       vertex -0.13324 -8.32665e-17 0
       vertex -0.131101 -0.0326315 0
       vertex -0.131101 -0.0326315 0.1
    endloop
  endfacet
  facet normal -0.997858 -0.0654098 1.08928e-16
    outer loop
       vertex -0.131101 -0.0326315 0.1
       vertex -0.13324 8.32665e-17 0.1
       vertex -0.13324 -8.32665e-17 0
    endloop
  endfacet
  facet normal -0.980784 -0.195096 0
    outer loop
       vertex -0.131101 -0.0326315 0
       vertex -0.124721 -0.064705 0
       vertex -0.124721 -0.064705 0.1
    endloop
  endfacet
  facet normal -0.980784 -0.195096 0
    outer loop
       vertex -0.124721 -0.064705 0.1
       vertex -0.131101 -0.0326315 0.1
       vertex -0.131101 -0.0326315 0
    endloop
  endfacet
  facet normal -0.946935 -0.321425 0
    outer loop
       vertex -0.124721 -0.064705 0
       vertex -0.11421 -0.095671 0
       vertex -0.11421 -0.095671 0.1
    endloop
  endfacet
  facet normal -0.946935 -0.321425 0
    outer loop
       vertex -0.11421 -0.095671 0.1
       vertex -0.124721 -0.064705 0.1
       vertex -0.124721 -0.064705 0
    endloop
  endfacet
  facet normal -0.896866 -0.442302 0
    outer loop
       vertex -0.11421 -0.095671 0
       vertex -0.0997463 -0.125 0
       vertex -0.0997463 -0.125 0.1
    endloop
  endfacet
  facet normal -0.896866 -0.442302 0
    outer loop
       vertex -0.0997463 -0.125 0.1
       vertex -0.11421 -0.095671 0.1
       vertex -0.11421 -0.095671 0
    endloop
  endfacet
  facet normal -0.831476 -0.555561 0
    outer loop
       vertex -0.0997463 -0.125 0
       vertex -0.0815783 -0.152191 0
       vertex -0.0815783 -0.152191 0.1
    endloop
  endfacet
  facet normal -0.831476 -0.555561 0
    outer loop
       vertex -0.0815783 -0.152191 0.1
       vertex -0.0997463 -0.125 0.1
       vertex -0.0997463 -0.125 0
    endloop
  endfacet
  facet normal -0.751817 -0.659372 0
    outer loop
       vertex -0.0815783 -0.152191 0
       vertex -0.0600163 -0.176776 0
       vertex -0.0600163 -0.176776 0.1
    endloop
  endfacet
  facet normal -0.751817 -0.659372 0
    outer loop
       vertex -0.0600163 -0.176776 0.1
       vertex -0.0815783 -0.152191 0.1
       vertex -0.0815783 -0.152191 0
    endloop
  endfacet
  facet normal 0.659372 -0.751817 0
    outer loop
       vertex 0.293536 -0.176776 0
       vertex 0.293536 -0.176776 0.1
       vertex 0.268951 -0.198338 0.1
    endloop
  endfacet
  facet normal 0.659372 -0.751817 0
    outer loop
       vertex 0.268951 -0.198338 0.1
       vertex 0.268951 -0.198338 0
       vertex 0.293536 -0.176776 0
    endloop
  endfacet
  facet normal 0.555561 -0.831476 0
    outer loop
       vertex 0.268951 -0.198338 0
       vertex 0.268951 -0.198338 0.1
       vertex 0.24176 -0.216506 0.1
    endloop
  endfacet
  facet normal 0.555561 -0.831476 0
    outer loop
       vertex 0.24176 -0.216506 0.1
       vertex 0.24176 -0.216506 0
       vertex 0.268951 -0.198338 0
    endloop
  endfacet
  facet normal 0.442302 -0.896866 0
    outer loop
       vertex 0.24176 -0.216506 0
       vertex 0.24176 -0.216506 0.1
       vertex 0.212431 -0.23097 0.1
    endloop
  endfacet
  facet normal 0.442302 -0.896866 0
    outer loop
       vertex 0.212431 -0.23097 0.1
       vertex 0.212431 -0.23097 0
       vertex 0.24176 -0.216506 0
    endloop
  endfacet
  facet normal 0.321425 -0.946935 0
    outer loop
       vertex 0.212431 -0.23097 0
       vertex 0.212431 -0.23097 0.1
       vertex 0.181465 -0.241481 0.1
    endloop
  endfacet
  facet normal 0.321425 -0.946935 0
    outer loop
       vertex 0.181465 -0.241481 0.1
       vertex 0.181465 -0.241481 0
       vertex 0.212431 -0.23097 0
    endloop
  endfacet
  facet normal 0.195096 -0.980784 0
    outer loop
       vertex 0.181465 -0.241481 0
       vertex 0.181465 -0.241481 0.1
       vertex 0.149391 -0.247861 0.1
    endloop
  endfacet
  facet normal 0.195096 -0.980784 0
    outer loop
       vertex 0.149391 -0.247861 0.1
       vertex 0.149391 -0.247861 0
       vertex 0.181465 -0.241481 0
    endloop
  endfacet
  facet normal 0.0654098 -0.997858 0
    outer loop
       vertex 0.11676 -0.25 0
       vertex 0.149391 -0.247861 0
       vertex 0.149391 -0.247861 0.1
    endloop
  endfacet
  facet normal 0.0654098 -0.997858 1.0893e-16
    outer loop
       vertex 0.149391 -0.247861 0.1
       vertex 0.11676 -0.25 0.1
       vertex 0.11676 -0.25 0
    endloop
  endfacet
  facet normal -0.0654098 -0.997858 0
    outer loop
       vertex 0.11676 -0.25 0.1
       vertex 0.0841282 -0.247861 0.1
       vertex 0.0841282 -0.247861 0
    endloop
  endfacet
  facet normal -0.0654098 -0.997858 -1.0893e-16
    outer loop
       vertex 0.0841282 -0.247861 0
       vertex 0.11676 -0.25 0
       vertex 0.11676 -0.25 0.1
    endloop
  endfacet
  facet normal -0.195096 -0.980784 0
    outer loop
       vertex 0.0841282 -0.247861 0
       vertex 0.0841282 -0.247861 0.1
       vertex 0.0520547 -0.241481 0.1
    endloop
  endfacet
  facet normal -0.195096 -0.980784 -0
    outer loop
       vertex 0.0520547 -0.241481 0.1
       vertex 0.0520547 -0.241481 0
       vertex 0.0841282 -0.247861 0
    endloop
  endfacet
  facet normal -0.321425 -0.946935 0
    outer loop
       vertex 0.0520547 -0.241481 0
       vertex 0.0520547 -0.241481 0.1
       vertex 0.0210887 -0.23097 0.1
    endloop
  endfacet
  facet normal -0.321425 -0.946935 -0
    outer loop
       vertex 0.0210887 -0.23097 0.1
       vertex 0.0210887 -0.23097 0
       vertex 0.0520547 -0.241481 0
    endloop
  endfacet
  facet normal -0.442302 -0.896866 0
    outer loop
       vertex 0.0210887 -0.23097 0
       vertex 0.0210887 -0.23097 0.1
       vertex -0.00824025 -0.216506 0.1
    endloop
  endfacet
  facet normal -0.442302 -0.896866 -0
    outer loop
       vertex -0.00824025 -0.216506 0.1
       vertex -0.00824025 -0.216506 0
       vertex 0.0210887 -0.23097 0
    endloop
  endfacet
  facet normal -0.555561 -0.831476 0
    outer loop
       vertex -0.00824025 -0.216506 0
       vertex -0.00824025 -0.216506 0.1
       vertex -0.0354313 -0.198338 0.1
    endloop
  endfacet
  facet normal -0.555561 -0.831476 -0
    outer loop
       vertex -0.0354313 -0.198338 0.1
       vertex -0.0354313 -0.198338 0
       vertex -0.00824025 -0.216506 0
    endloop
  endfacet
  facet normal -0.659372 -0.751817 0
    outer loop
       vertex -0.0354313 -0.198338 0
       vertex -0.0354313 -0.198338 0.1
       vertex -0.0600163 -0.176776 0.1
    endloop
  endfacet
  facet normal -0.659372 -0.751817 -0
    outer loop
       vertex -0.0600163 -0.176776 0.1
       vertex -0.0600163 -0.176776 0
       vertex -0.0354313 -0.198338 0
    endloop
  endfacet
endsolid cylinder
