solid cylinder
  facet normal 0.751817 -0.659372 0
    outer loop
       vertex -0.128996 -0.176776 0
       vertex -0.107434 -0.152191 0
       vertex -0.107434 -0.152191 0.1
    endloop
  endfacet
  facet normal 0.751817 -0.659372 0
    outer loop
       vertex -0.107434 -0.152191 0.1
       vertex -0.128996 -0.176776 0.1
       vertex -0.128996 -0.176776 0
    endloop
  endfacet
  facet normal 0.831476 -0.555561 0
    outer loop
       vertex -0.107434 -0.152191 0
       vertex -0.089266 -0.125 0
       vertex -0.089266 -0.125 0.1
    endloop
  endfacet
  facet normal 0.831476 -0.555561 0
    outer loop
       vertex -0.089266 -0.125 0.1
       vertex -0.107434 -0.152191 0.1
       vertex -0.107434 -0.152191 0
    endloop
  endfacet
  facet normal 0.896866 -0.442302 0
    outer loop
       vertex -0.089266 -0.125 0
       vertex -0.074802 -0.095671 0
       vertex -0.074802 -0.095671 0.1
    endloop
  endfacet
  facet normal 0.896866 -0.442302 0
    outer loop
       vertex -0.074802 -0.095671 0.1
       vertex -0.089266 -0.125 0.1
       vertex -0.089266 -0.125 0
    endloop
  endfacet
  facet normal 0.946935 -0.321425 0
    outer loop
       vertex -0.074802 -0.095671 0
       vertex -0.064291 -0.064705 0
       vertex -0.064291 -0.064705 0.1
    endloop
  endfacet
  facet normal 0.946935 -0.321425 0
    outer loop
       vertex -0.064291 -0.064705 0.1
       vertex -0.074802 -0.095671 0.1
       vertex -0.074802 -0.095671 0
    endloop
  endfacet
  facet normal 0.980784 -0.195096 0
    outer loop
       vertex -0.064291 -0.064705 0
       vertex -0.057911 -0.0326315 0
       vertex -0.057911 -0.0326315 0.1
    endloop
  endfacet
  facet normal 0.980784 -0.195096 0
    outer loop
       vertex -0.057911 -0.0326315 0.1
       vertex -0.064291 -0.064705 0.1
       vertex -0.064291 -0.064705 0
    endloop
  endfacet
  facet normal 0.997858 -0.0654098 0
    outer loop
       vertex -0.055772 -8.32665e-17 0.1
       vertex -0.057911 -0.0326315 0.1
       vertex -0.057911 -0.0326315 0
    endloop
  endfacet
  facet normal 0.997858 -0.0654098 -1.08928e-16
    outer loop
       vertex -0.057911 -0.0326315 0
       vertex -0.055772 8.32665e-17 0
       vertex -0.055772 -8.32665e-17 0.1
    endloop
  endfacet
  facet normal 0.997858 0.0654098 0
    outer loop
       vertex -0.055772 8.32665e-17 0
       vertex -0.057911 0.0326315 0
       vertex -0.057911 0.0326315 0.1
    endloop
  endfacet
  facet normal 0.997858 0.0654098 1.08928e-16
    outer loop
       vertex -0.057911 0.0326315 0.1
       vertex -0.055772 -8.32665e-17 0.1
       vertex -0.055772 8.32665e-17 0
    endloop
  endfacet
  facet normal 0.980784 0.195096 0
    outer loop
       vertex -0.057911 0.0326315 0
       vertex -0.064291 0.064705 0
       vertex -0.064291 0.064705 0.1
    endloop
  endfacet
  facet normal 0.980784 0.195096 0
    outer loop
       vertex -0.064291 0.064705 0.1
       vertex -0.057911 0.0326315 0.1
       vertex -0.057911 0.0326315 0
    endloop
  endfacet
  facet normal 0.946935 0.321425 0
    outer loop
       vertex -0.064291 0.064705 0
       vertex -0.074802 0.095671 0
       vertex -0.074802 0.095671 0.1
    endloop
  endfacet
  facet normal 0.946935 0.321425 0
    outer loop
       vertex -0.074802 0.095671 0.1
       vertex -0.064291 0.064705 0.1
       vertex -0.064291 0.064705 0
    endloop
  endfacet
  facet normal 0.896866 0.442302 0
    outer loop
       vertex -0.074802 0.095671 0
       vertex -0.089266 0.125 0
       vertex -0.089266 0.125 0.1
    endloop
  endfacet
  facet normal 0.896866 0.442302 0
    outer loop
       vertex -0.089266 0.125 0.1
       vertex -0.074802 0.095671 0.1
       vertex -0.074802 0.095671 0
    endloop
  endfacet
  facet normal 0.831476 0.555561 0
    outer loop
       vertex -0.089266 0.125 0
       vertex -0.107434 0.152191 0
       vertex -0.107434 0.152191 0.1
    endloop
  endfacet
  facet normal 0.831476 0.555561 0
    outer loop
       vertex -0.107434 0.152191 0.1
       vertex -0.089266 0.125 0.1
       vertex -0.089266 0.125 0
    endloop
  endfacet
  facet normal 0.751817 0.659372 0
    outer loop
       vertex -0.107434 0.152191 0
       vertex -0.128996 0.176776 0
       vertex -0.128996 0.176776 0.1
    endloop
  endfacet
  facet normal 0.751817 0.659372 0
    outer loop
       vertex -0.128996 0.176776 0.1
       vertex -0.107434 0.152191 0.1
       vertex -0.107434 0.152191 0
    endloop
  endfacet
  facet normal 0.659372 0.751817 0
    outer loop
       vertex -0.128996 0.176776 0
       vertex -0.153581 0.198338 0
       vertex -0.153581 0.198338 0.1
    endloop
  endfacet
  facet normal 0.659372 0.751817 0
    outer loop
       vertex -0.153581 0.198338 0.1
       vertex -0.128996 0.176776 0.1
       vertex -0.128996 0.176776 0
    endloop
  endfacet
  facet normal 0.555561 0.831476 0
    outer loop
       vertex -0.153581 0.198338 0
       vertex -0.180772 0.216506 0
       vertex -0.180772 0.216506 0.1
    endloop
  endfacet
  facet normal 0.555561 0.831476 0
    outer loop
       vertex -0.180772 0.216506 0.1
       vertex -0.153581 0.198338 0.1
       vertex -0.153581 0.198338 0
    endloop
  endfacet
  facet normal 0.442302 0.896866 0
    outer loop
       vertex -0.180772 0.216506 0
       vertex -0.210101 0.23097 0
       vertex -0.210101 0.23097 0.1
    endloop
  endfacet
  facet normal 0.442302 0.896866 0
    outer loop
       vertex -0.210101 0.23097 0.1
       vertex -0.180772 0.216506 0.1
       vertex -0.180772 0.216506 0
    endloop
  endfacet
  facet normal 0.321425 0.946935 0
    outer loop
       vertex -0.210101 0.23097 0
       vertex -0.241067 0.241481 0
       vertex -0.241067 0.241481 0.1
    endloop
  endfacet
  facet normal 0.321425 0.946935 0
    outer loop
       vertex -0.241067 0.241481 0.1
       vertex -0.210101 0.23097 0.1
       vertex -0.210101 0.23097 0
    endloop
  endfacet
  facet normal 0.195096 0.980784 0
    outer loop
       vertex -0.241067 0.241481 0
       vertex -0.273141 0.247861 0
       vertex -0.273141 0.247861 0.1
    endloop
  endfacet
  facet normal 0.195096 0.980784 0
    outer loop
       vertex -0.273141 0.247861 0.1
       vertex -0.241067 0.241481 0.1
       vertex -0.241067 0.241481 0
    endloop
  endfacet
  facet normal 0.0654098 0.997858 0
    outer loop
       vertex -0.305772 0.25 0.1
       vertex -0.273141 0.247861 0.1
       vertex -0.273141 0.247861 0
    endloop
  endfacet
  facet normal 0.0654098 0.997858 -1.45239e-16
    outer loop
       vertex -0.273141 0.247861 0
       vertex -0.305772 0.25 0
       vertex -0.305772 0.25 0.1
    endloop
  endfacet
  facet normal -0.0654098 0.997858 0
    outer loop
       vertex -0.305772 0.25 0
       vertex -0.338404 0.247861 0
       vertex -0.338404 0.247861 0.1
    endloop
  endfacet
  facet normal -0.0654098 0.997858 1.45239e-16
    outer loop
       vertex -0.338404 0.247861 0.1
       vertex -0.305772 0.25 0.1
       vertex -0.305772 0.25 0
    endloop
  endfacet
  facet normal -0.195096 0.980784 0
    outer loop
       vertex -0.338404 0.247861 0
       vertex -0.370477 0.241481 0
       vertex -0.370477 0.241481 0.1
    endloop
  endfacet
  facet normal -0.195096 0.980784 0
    outer loop
       vertex -0.370477 0.241481 0.1
       vertex -0.338404 0.247861 0.1
       vertex -0.338404 0.247861 0
    endloop
  endfacet
  facet normal -0.321425 0.946935 0
    outer loop
       vertex -0.370477 0.241481 0
       vertex -0.401443 0.23097 0
       vertex -0.401443 0.23097 0.1
    endloop
  endfacet
  facet normal -0.321425 0.946935 0
    outer loop
       vertex -0.401443 0.23097 0.1
       vertex -0.370477 0.241481 0.1
       vertex -0.370477 0.241481 0
    endloop
  endfacet
  facet normal -0.442302 0.896866 0
    outer loop
       vertex -0.401443 0.23097 0
       vertex -0.430772 0.216506 0
       vertex -0.430772 0.216506 0.1
    endloop
  endfacet
  facet normal -0.442302 0.896866 0
    outer loop
       vertex -0.430772 0.216506 0.1
       vertex -0.401443 0.23097 0.1
       vertex -0.401443 0.23097 0
    endloop
  endfacet
  facet normal -0.555561 0.831476 0
    outer loop
       vertex -0.430772 0.216506 0
       vertex -0.457963 0.198338 0
       vertex -0.457963 0.198338 0.1
    endloop
  endfacet
  facet normal -0.555561 0.831476 0
    outer loop
       vertex -0.457963 0.198338 0.1
       vertex -0.430772 0.216506 0.1
       vertex -0.430772 0.216506 0
    endloop
  endfacet
  facet normal -0.659372 0.751817 0
    outer loop
       vertex -0.457963 0.198338 0
       vertex -0.482548 0.176776 0
       vertex -0.482548 0.176776 0.1
    endloop
  endfacet
  facet normal -0.659372 0.751817 0
    outer loop
       vertex -0.482548 0.176776 0.1
       vertex -0.457963 0.198338 0.1
       vertex -0.457963 0.198338 0
    endloop
  endfacet
  facet normal -0.751817 0.659372 0
    outer loop
       vertex -0.482548 0.176776 0
       vertex -0.50411 0.152191 0
       vertex -0.50411 0.152191 0.1
    endloop
  endfacet
  facet normal -0.751817 0.659372 0
    outer loop
       vertex -0.50411 0.152191 0.1
       vertex -0.482548 0.176776 0.1
       vertex -0.482548 0.176776 0
    endloop
  endfacet
  facet normal -0.831476 0.555561 0
    outer loop
       vertex -0.50411 0.152191 0
       vertex -0.522278 0.125 0
       vertex -0.522278 0.125 0.1
    endloop
  endfacet
  facet normal -0.831476 0.555561 0
    outer loop
       vertex -0.522278 0.125 0.1
       vertex -0.50411 0.152191 0.1
       vertex -0.50411 0.152191 0
    endloop
  endfacet
  facet normal -0.896866 0.442302 0
    outer loop
       vertex -0.522278 0.125 0
       vertex -0.536742 0.095671 0
       vertex -0.536742 0.095671 0.1
    endloop
  endfacet
  facet normal -0.896866 0.442302 0
    outer loop
       vertex -0.536742 0.095671 0.1
       vertex -0.522278 0.125 0.1
       vertex -0.522278 0.125 0
    endloop
  endfacet
  facet normal -0.946935 0.321425 0
    outer loop
       vertex -0.536742 0.095671 0
       vertex -0.547253 0.064705 0
       vertex -0.547253 0.064705 0.1
    endloop
  endfacet
  facet normal -0.946935 0.321425 0
    outer loop
       vertex -0.547253 0.064705 0.1
       vertex -0.536742 0.095671 0.1
       vertex -0.536742 0.095671 0
    endloop
  endfacet
  facet normal -0.980784 0.195096 0
    outer loop
       vertex -0.547253 0.064705 0
       vertex -0.553633 0.0326315 0
       vertex -0.553633 0.0326315 0.1
    endloop
  endfacet
  facet normal -0.980784 0.195096 0
    outer loop
       vertex -0.553633 0.0326315 0.1
       vertex -0.547253 0.064705 0.1
       vertex -0.547253 0.064705 0
    endloop
  endfacet
  facet normal -0.997858 0.0654098 0
    outer loop
       vertex -0.555772 8.32665e-17 0.1
       vertex -0.553633 0.0326315 0.1
       vertex -0.553633 0.0326315 0
    endloop
  endfacet
  facet normal -0.997858 0.0654098 -1.08928e-16
    outer loop
       vertex -0.553633 0.0326315 0
       vertex -0.555772 -8.32665e-17 0
       vertex -0.555772 8.32665e-17 0.1
    endloop
  endfacet
  facet normal -0.997858 -0.0654098 0
    outer loop
       vertex -0.555772 -8.32665e-17 0
       vertex -0.553633 -0.0326315 0
       vertex -0.553633 -0.0326315 0.1
    endloop
  endfacet
  facet normal -0.997858 -0.0654098 1.08928e-16
    outer loop
       vertex -0.553633 -0.0326315 0.1
       vertex -0.555772 8.32665e-17 0.1
       vertex -0.555772 -8.32665e-17 0
    endloop
  endfacet
  facet normal -0.980784 -0.195096 0
    outer loop
       vertex -0.553633 -0.0326315 0
       vertex -0.547253 -0.064705 0
       vertex -0.547253 -0.064705 0.1
    endloop
  endfacet
  facet normal -0.980784 -0.195096 0
    outer loop
       vertex -0.547253 -0.064705 0.1
       vertex -0.553633 -0.0326315 0.1
       vertex -0.553633 -0.0326315 0
    endloop
  endfacet
  facet normal -0.946935 -0.321425 0
    outer loop
       vertex -0.547253 -0.064705 0
       vertex -0.536742 -0.095671 0
       vertex -0.536742 -0.095671 0.1
    endloop
  endfacet
  facet normal -0.946935 -0.321425 0
    outer loop
       vertex -0.536742 -0.095671 0.1
       vertex -0.547253 -0.064705 0.1
       vertex -0.547253 -0.064705 0
    endloop
  endfacet
  facet normal -0.896866 -0.442302 0
    outer loop
       vertex -0.536742 -0.095671 0
       vertex -0.522278 -0.125 0
       vertex -0.522278 -0.125 0.1
    endloop
  endfacet
  facet normal -0.896866 -0.442302 0
    outer loop
       vertex -0.522278 -0.125 0.1
       vertex -0.536742 -0.095671 0.1
       vertex -0.536742 -0.095671 0
    endloop
  endfacet
  facet normal -0.831476 -0.555561 0
    outer loop
       vertex -0.522278 -0.125 0
       vertex -0.50411 -0.152191 0
       vertex -0.50411 -0.152191 0.1
    endloop
  endfacet
  facet normal -0.831476 -0.555561 0
    outer loop
       vertex -0.50411 -0.152191 0.1
       vertex -0.522278 -0.125 0.1
       vertex -0.522278 -0.125 0
    endloop
  endfacet
  facet normal -0.751817 -0.659372 0
    outer loop
       vertex -0.50411 -0.152191 0
       vertex -0.482548 -0.176776 0
       vertex -0.482548 -0.176776 0.1
    endloop
  endfacet
  facet normal -0.751817 -0.659372 0
    outer loop
       vertex -0.482548 -0.176776 0.1
       vertex -0.50411 -0.152191 0.1
       vertex -0.50411 -0.152191 0
    endloop
  endfacet
  facet normal 0.659372 -0.751817 0
    outer loop
       vertex -0.128996 -0.176776 0
       vertex -0.128996 -0.176776 0.1
       vertex -0.153581 -0.198338 0.1
    endloop
  endfacet
  facet normal 0.659372 -0.751817 0
    outer loop
       vertex -0.153581 -0.198338 0.1
       vertex -0.153581 -0.198338 0
       vertex -0.128996 -0.176776 0
    endloop
  endfacet
  facet normal 0.555561 -0.831476 0
    outer loop
       vertex -0.153581 -0.198338 0
       vertex -0.153581 -0.198338 0.1
       vertex -0.180772 -0.216506 0.1
    endloop
  endfacet
  facet normal 0.555561 -0.831476 0
    outer loop
       vertex -0.180772 -0.216506 0.1
       vertex -0.180772 -0.216506 0
       vertex -0.153581 -0.198338 0
    endloop
  endfacet
  facet normal 0.442302 -0.896866 0
    outer loop
       vertex -0.180772 -0.216506 0
       vertex -0.180772 -0.216506 0.1
       vertex -0.210101 -0.23097 0.1
    endloop
  endfacet
  facet normal 0.442302 -0.896866 0
    outer loop
       vertex -0.210101 -0.23097 0.1
       vertex -0.210101 -0.23097 0
       vertex -0.180772 -0.216506 0
    endloop
  endfacet
  facet normal 0.321425 -0.946935 0
    outer loop
       vertex -0.210101 -0.23097 0
       vertex -0.210101 -0.23097 0.1
       vertex -0.241067 -0.241481 0.1
    endloop
  endfacet
  facet normal 0.321425 -0.946935 0
    outer loop
       vertex -0.241067 -0.241481 0.1
       vertex -0.241067 -0.241481 0
       vertex -0.210101 -0.23097 0
    endloop
  endfacet
  facet normal 0.195096 -0.980784 0
    outer loop
       vertex -0.241067 -0.241481 0
       vertex -0.241067 -0.241481 0.1
       vertex -0.273141 -0.247861 0.1
    endloop
  endfacet
  facet normal 0.195096 -0.980784 0
    outer loop
       vertex -0.273141 -0.247861 0.1
       vertex -0.273141 -0.247861 0
       vertex -0.241067 -0.241481 0
    endloop
  endfacet
  facet normal 0.0654098 -0.997858 0
    outer loop
       vertex -0.305772 -0.25 0
       vertex -0.273141 -0.247861 0
       vertex -0.273141 -0.247861 0.1
    endloop
  endfacet
  facet normal 0.0654098 -0.997858 1.45239e-16
    outer loop
       vertex -0.273141 -0.247861 0.1
       vertex -0.305772 -0.25 0.1
       vertex -0.305772 -0.25 0
    endloop
  endfacet
  facet normal -0.0654098 -0.997858 0
    outer loop
       vertex -0.305772 -0.25 0.1
       vertex -0.338404 -0.247861 0.1
       vertex -0.338404 -0.247861 0
    endloop
  endfacet
  facet normal -0.0654098 -0.997858 -1.45239e-16
    outer loop
       vertex -0.338404 -0.247861 0
       vertex -0.305772 -0.25 0
       vertex -0.305772 -0.25 0.1
    endloop
  endfacet
  facet normal -0.195096 -0.980784 0
    outer loop
       vertex -0.338404 -0.247861 0
       vertex -0.338404 -0.247861 0.1
       vertex -0.370477 -0.241481 0.1
    endloop
  endfacet
  facet normal -0.195096 -0.980784 -0
    outer loop
       vertex -0.370477 -0.241481 0.1
       vertex -0.370477 -0.241481 0
       vertex -0.338404 -0.247861 0
    endloop
  endfacet
  facet normal -0.321425 -0.946935 0
    outer loop
       vertex -0.370477 -0.241481 0
       vertex -0.370477 -0.241481 0.1
       vertex -0.401443 -0.23097 0.1
    endloop
  endfacet
  facet normal -0.321425 -0.946935 -0
    outer loop
       vertex -0.401443 -0.23097 0.1
       vertex -0.401443 -0.23097 0
       vertex -0.370477 -0.241481 0
    endloop
  endfacet
  facet normal -0.442302 -0.896866 0
    outer loop
       vertex -0.401443 -0.23097 0
       vertex -0.401443 -0.23097 0.1
       vertex -0.430772 -0.216506 0.1
    endloop
  endfacet
  facet normal -0.442302 -0.896866 -0
    outer loop
       vertex -0.430772 -0.216506 0.1
       vertex -0.430772 -0.216506 0
       vertex -0.401443 -0.23097 0
    endloop
  endfacet
  facet normal -0.555561 -0.831476 0
    outer loop
       vertex -0.430772 -0.216506 0
       vertex -0.430772 -0.216506 0.1
       vertex -0.457963 -0.198338 0.1
    endloop
  endfacet
  facet normal -0.555561 -0.831476 -0
    outer loop
       vertex -0.457963 -0.198338 0.1
       vertex -0.457963 -0.198338 0
       vertex -0.430772 -0.216506 0
    endloop
  endfacet
  facet normal -0.659372 -0.751817 0
    outer loop
       vertex -0.457963 -0.198338 0
       vertex -0.457963 -0.198338 0.1
       vertex -0.482548 -0.176776 0.1
    endloop
  endfacet
  facet normal -0.659372 -0.751817 -0
    outer loop
       vertex -0.482548 -0.176776 0.1
       vertex -0.482548 -0.176776 0
       vertex -0.457963 -0.198338 0
    endloop
  endfacet
endsolid cylinder
