solid cylinder
  facet normal 0.751817 -0.659372 0
    outer loop
       vertex 0.46904 -0.176776 0
       vertex 0.490602 -0.152191 0
       vertex 0.490602 -0.152191 0.1
    endloop
  endfacet
  facet normal 0.751817 -0.659372 0
    outer loop
       vertex 0.490602 -0.152191 0.1
       vertex 0.46904 -0.176776 0.1
       vertex 0.46904 -0.176776 0
    endloop
  endfacet
  facet normal 0.831476 -0.555561 0
    outer loop
       vertex 0.490602 -0.152191 0
       vertex 0.50877 -0.125 0
       vertex 0.50877 -0.125 0.1
    endloop
  endfacet
  facet normal 0.831476 -0.555561 0
    outer loop
       vertex 0.50877 -0.125 0.1
       vertex 0.490602 -0.152191 0.1
       vertex 0.490602 -0.152191 0
    endloop
  endfacet
  facet normal 0.896866 -0.442302 0
    outer loop
       vertex 0.50877 -0.125 0
       vertex 0.523234 -0.095671 0
       vertex 0.523234 -0.095671 0.1
    endloop
  endfacet
  facet normal 0.896866 -0.442302 0
    outer loop
       vertex 0.523234 -0.095671 0.1
       vertex 0.50877 -0.125 0.1
       vertex 0.50877 -0.125 0
    endloop
  endfacet
  facet normal 0.946935 -0.321425 0
    outer loop
       vertex 0.523234 -0.095671 0
       vertex 0.533745 -0.064705 0
       vertex 0.533745 -0.064705 0.1
    endloop
  endfacet
  facet normal 0.946935 -0.321425 0
    outer loop
       vertex 0.533745 -0.064705 0.1
       vertex 0.523234 -0.095671 0.1
       vertex 0.523234 -0.095671 0
    endloop
  endfacet
  facet normal 0.980784 -0.195096 0
    outer loop
       vertex 0.533745 -0.064705 0
       vertex 0.540125 -0.0326315 0
       vertex 0.540125 -0.0326315 0.1
    endloop
  endfacet
  facet normal 0.980784 -0.195096 0
    outer loop
       vertex 0.540125 -0.0326315 0.1
       vertex 0.533745 -0.064705 0.1
       vertex 0.533745 -0.064705 0
    endloop
  endfacet
  facet normal 0.997858 -0.0654098 0
    outer loop
       vertex 0.542264 -8.32665e-17 0.1
       vertex 0.540125 -0.0326315 0.1
       vertex 0.540125 -0.0326315 0
    endloop
  endfacet
  facet normal 0.997858 -0.0654098 -1.0893e-16
    outer loop
       vertex 0.540125 -0.0326315 0
       vertex 0.542264 8.32665e-17 0
       vertex 0.542264 -8.32665e-17 0.1
    endloop
  endfacet
  facet normal 0.997858 0.0654098 0
    outer loop
       vertex 0.542264 8.32665e-17 0
       vertex 0.540125 0.0326315 0
       vertex 0.540125 0.0326315 0.1
    endloop
  endfacet
  facet normal 0.997858 0.0654098 1.0893e-16
    outer loop
       vertex 0.540125 0.0326315 0.1
       vertex 0.542264 -8.32665e-17 0.1
       vertex 0.542264 8.32665e-17 0
    endloop
  endfacet
  facet normal 0.980784 0.195096 0
    outer loop
       vertex 0.540125 0.0326315 0
       vertex 0.533745 0.064705 0
       vertex 0.533745 0.064705 0.1
    endloop
  endfacet
  facet normal 0.980784 0.195096 0
    outer loop
       vertex 0.533745 0.064705 0.1
       vertex 0.540125 0.0326315 0.1
       vertex 0.540125 0.0326315 0
    endloop
  endfacet
  facet normal 0.946935 0.321425 0
    outer loop
       vertex 0.533745 0.064705 0
       vertex 0.523234 0.095671 0
       vertex 0.523234 0.095671 0.1
    endloop
  endfacet
  facet normal 0.946935 0.321425 0
    outer loop
       vertex 0.523234 0.095671 0.1
       vertex 0.533745 0.064705 0.1
       vertex 0.533745 0.064705 0
    endloop
  endfacet
  facet normal 0.896866 0.442302 0
    outer loop
       vertex 0.523234 0.095671 0
       vertex 0.50877 0.125 0
       vertex 0.50877 0.125 0.1
    endloop
  endfacet
  facet normal 0.896866 0.442302 0
    outer loop
       vertex 0.50877 0.125 0.1
       vertex 0.523234 0.095671 0.1
       vertex 0.523234 0.095671 0
    endloop
  endfacet
  facet normal 0.831476 0.555561 0
    outer loop
       vertex 0.50877 0.125 0
       vertex 0.490602 0.152191 0
       vertex 0.490602 0.152191 0.1
    endloop
  endfacet
  facet normal 0.831476 0.555561 0
    outer loop
       vertex 0.490602 0.152191 0.1
       vertex 0.50877 0.125 0.1
       vertex 0.50877 0.125 0
    endloop
  endfacet
  facet normal 0.751817 0.659372 0
    outer loop
       vertex 0.490602 0.152191 0
       vertex 0.46904 0.176776 0
       vertex 0.46904 0.176776 0.1
    endloop
  endfacet
  facet normal 0.751817 0.659372 0
    outer loop
       vertex 0.46904 0.176776 0.1
       vertex 0.490602 0.152191 0.1
       vertex 0.490602 0.152191 0
    endloop
  endfacet
  facet normal 0.659372 0.751817 0
    outer loop
       vertex 0.46904 0.176776 0
       vertex 0.444455 0.198338 0
       vertex 0.444455 0.198338 0.1
    endloop
  endfacet
  facet normal 0.659372 0.751817 0
    outer loop
       vertex 0.444455 0.198338 0.1
       vertex 0.46904 0.176776 0.1
       vertex 0.46904 0.176776 0
    endloop
  endfacet
  facet normal 0.555561 0.831476 0
    outer loop
       vertex 0.444455 0.198338 0
       vertex 0.417264 0.216506 0
       vertex 0.417264 0.216506 0.1
    endloop
  endfacet
  facet normal 0.555561 0.831476 0
    outer loop
       vertex 0.417264 0.216506 0.1
       vertex 0.444455 0.198338 0.1
       vertex 0.444455 0.198338 0
    endloop
  endfacet
  facet normal 0.442302 0.896866 0
    outer loop
       vertex 0.417264 0.216506 0
       vertex 0.387935 0.23097 0
       vertex 0.387935 0.23097 0.1
    endloop
  endfacet
  facet normal 0.442302 0.896866 0
    outer loop
       vertex 0.387935 0.23097 0.1
       vertex 0.417264 0.216506 0.1
       vertex 0.417264 0.216506 0
    endloop
  endfacet
  facet normal 0.321425 0.946935 0
    outer loop
       vertex 0.387935 0.23097 0
       vertex 0.356969 0.241481 0
       vertex 0.356969 0.241481 0.1
    endloop
  endfacet
  facet normal 0.321425 0.946935 0
    outer loop
       vertex 0.356969 0.241481 0.1
       vertex 0.387935 0.23097 0.1
       vertex 0.387935 0.23097 0
    endloop
  endfacet
  facet normal 0.195096 0.980784 0
    outer loop
       vertex 0.356969 0.241481 0
       vertex 0.324896 0.247861 0
       vertex 0.324896 0.247861 0.1
    endloop
  endfacet
  facet normal 0.195096 0.980784 0
    outer loop
       vertex 0.324896 0.247861 0.1
       vertex 0.356969 0.241481 0.1
       vertex 0.356969 0.241481 0
    endloop
  endfacet
  facet normal 0.0654098 0.997858 0
    outer loop
       vertex 0.292264 0.25 0.1
       vertex 0.324896 0.247861 0.1
       vertex 0.324896 0.247861 0
    endloop
  endfacet
  facet normal 0.0654098 0.997858 -7.26205e-17
    outer loop
       vertex 0.324896 0.247861 0
       vertex 0.292264 0.25 0
       vertex 0.292264 0.25 0.1
    endloop
  endfacet
  facet normal -0.0654098 0.997858 0
    outer loop
       vertex 0.292264 0.25 0
       vertex 0.259633 0.247861 0
       vertex 0.259633 0.247861 0.1
    endloop
  endfacet
  facet normal -0.0654098 0.997858 7.26205e-17
    outer loop
       vertex 0.259633 0.247861 0.1
       vertex 0.292264 0.25 0.1
       vertex 0.292264 0.25 0
    endloop
  endfacet
  facet normal -0.195096 0.980784 0
    outer loop
       vertex 0.259633 0.247861 0
       vertex 0.227559 0.241481 0
       vertex 0.227559 0.241481 0.1
    endloop
  endfacet
  facet normal -0.195096 0.980784 0
    outer loop
       vertex 0.227559 0.241481 0.1
       vertex 0.259633 0.247861 0.1
       vertex 0.259633 0.247861 0
    endloop
  endfacet
  facet normal -0.321425 0.946935 0
    outer loop
       vertex 0.227559 0.241481 0
       vertex 0.196593 0.23097 0
       vertex 0.196593 0.23097 0.1
    endloop
  endfacet
  facet normal -0.321425 0.946935 0
    outer loop
       vertex 0.196593 0.23097 0.1
       vertex 0.227559 0.241481 0.1
       vertex 0.227559 0.241481 0
    endloop
  endfacet
  facet normal -0.442302 0.896866 0
    outer loop
       vertex 0.196593 0.23097 0
       vertex 0.167264 0.216506 0
       vertex 0.167264 0.216506 0.1
    endloop
  endfacet
  facet normal -0.442302 0.896866 0
    outer loop
       vertex 0.167264 0.216506 0.1
       vertex 0.196593 0.23097 0.1
       vertex 0.196593 0.23097 0
    endloop
  endfacet
  facet normal -0.555561 0.831476 0
    outer loop
       vertex 0.167264 0.216506 0
       vertex 0.140073 0.198338 0
       vertex 0.140073 0.198338 0.1
    endloop
  endfacet
  facet normal -0.555561 0.831476 0
    outer loop
       vertex 0.140073 0.198338 0.1
       vertex 0.167264 0.216506 0.1
       vertex 0.167264 0.216506 0
    endloop
  endfacet
  facet normal -0.659372 0.751817 0
    outer loop
       vertex 0.140073 0.198338 0
       vertex 0.115488 0.176776 0
       vertex 0.115488 0.176776 0.1
    endloop
  endfacet
  facet normal -0.659372 0.751817 0
    outer loop
       vertex 0.115488 0.176776 0.1
       vertex 0.140073 0.198338 0.1
       vertex 0.140073 0.198338 0
    endloop
  endfacet
  facet normal -0.751817 0.659372 0
    outer loop
       vertex 0.115488 0.176776 0
       vertex 0.0939261 0.152191 0
       vertex 0.0939261 0.152191 0.1
    endloop
  endfacet
  facet normal -0.751817 0.659372 0
    outer loop
       vertex 0.0939261 0.152191 0.1
       vertex 0.115488 0.176776 0.1
       vertex 0.115488 0.176776 0
    endloop
  endfacet
  facet normal -0.831476 0.555561 0
    outer loop
       vertex 0.0939261 0.152191 0
       vertex 0.0757581 0.125 0
       vertex 0.0757581 0.125 0.1
    endloop
  endfacet
  facet normal -0.831476 0.555561 0
    outer loop
       vertex 0.0757581 0.125 0.1
       vertex 0.0939261 0.152191 0.1
       vertex 0.0939261 0.152191 0
    endloop
  endfacet
  facet normal -0.896866 0.442302 0
    outer loop
       vertex 0.0757581 0.125 0
       vertex 0.0612941 0.095671 0
       vertex 0.0612941 0.095671 0.1
    endloop
  endfacet
  facet normal -0.896866 0.442302 0
    outer loop
       vertex 0.0612941 0.095671 0.1
       vertex 0.0757581 0.125 0.1
       vertex 0.0757581 0.125 0
    endloop
  endfacet
  facet normal -0.946935 0.321425 0
    outer loop
       vertex 0.0612941 0.095671 0
       vertex 0.0507831 0.064705 0
       vertex 0.0507831 0.064705 0.1
    endloop
  endfacet
  facet normal -0.946935 0.321425 0
    outer loop
       vertex 0.0507831 0.064705 0.1
       vertex 0.0612941 0.095671 0.1
       vertex 0.0612941 0.095671 0
    endloop
  endfacet
  facet normal -0.980784 0.195096 0
    outer loop
       vertex 0.0507831 0.064705 0
       vertex 0.0444031 0.0326315 0
       vertex 0.0444031 0.0326315 0.1
    endloop
  endfacet
  facet normal -0.980784 0.195096 0
    outer loop
       vertex 0.0444031 0.0326315 0.1
       vertex 0.0507831 0.064705 0.1
       vertex 0.0507831 0.064705 0
    endloop
  endfacet
  facet normal -0.997858 0.0654098 0
    outer loop
       vertex 0.0422641 8.32665e-17 0.1
       vertex 0.0444031 0.0326315 0.1
       vertex 0.0444031 0.0326315 0
    endloop
  endfacet
  facet normal -0.997858 0.0654098 -1.08928e-16
    outer loop
       vertex 0.0444031 0.0326315 0
       vertex 0.0422641 -8.32665e-17 0
       vertex 0.0422641 8.32665e-17 0.1
    endloop
  endfacet
  facet normal -0.997858 -0.0654098 0
    outer loop
       vertex 0.0422641 -8.32665e-17 0
       vertex 0.0444031 -0.0326315 0
       vertex 0.0444031 -0.0326315 0.1
    endloop
  endfacet
  facet normal -0.997858 -0.0654098 1.08928e-16
    outer loop
       vertex 0.0444031 -0.0326315 0.1
       vertex 0.0422641 8.32665e-17 0.1
       vertex 0.0422641 -8.32665e-17 0
    endloop
  endfacet
  facet normal -0.980784 -0.195096 0
    outer loop
       vertex 0.0444031 -0.0326315 0
       vertex 0.0507831 -0.064705 0
       vertex 0.0507831 -0.064705 0.1
    endloop
  endfacet
  facet normal -0.980784 -0.195096 0
    outer loop
       vertex 0.0507831 -0.064705 0.1
       vertex 0.0444031 -0.0326315 0.1
       vertex 0.0444031 -0.0326315 0
    endloop
  endfacet
  facet normal -0.946935 -0.321425 0
    outer loop
       vertex 0.0507831 -0.064705 0
       vertex 0.0612941 -0.095671 0
       vertex 0.0612941 -0.095671 0.1
    endloop
  endfacet
  facet normal -0.946935 -0.321425 0
    outer loop
       vertex 0.0612941 -0.095671 0.1
       vertex 0.0507831 -0.064705 0.1
       vertex 0.0507831 -0.064705 0
    endloop
  endfacet
  facet normal -0.896866 -0.442302 0
    outer loop
       vertex 0.0612941 -0.095671 0
       vertex 0.0757581 -0.125 0
       vertex 0.0757581 -0.125 0.1
    endloop
  endfacet
  facet normal -0.896866 -0.442302 0
    outer loop
       vertex 0.0757581 -0.125 0.1
       vertex 0.0612941 -0.095671 0.1
       vertex 0.0612941 -0.095671 0
    endloop
  endfacet
  facet normal -0.831476 -0.555561 0
    outer loop
       vertex 0.0757581 -0.125 0
       vertex 0.0939261 -0.152191 0
       vertex 0.0939261 -0.152191 0.1
    endloop
  endfacet
  facet normal -0.831476 -0.555561 0
    outer loop
       vertex 0.0939261 -0.152191 0.1
       vertex 0.0757581 -0.125 0.1
       vertex 0.0757581 -0.125 0
    endloop
  endfacet
  facet normal -0.751817 -0.659372 0
    outer loop
       vertex 0.0939261 -0.152191 0
       vertex 0.115488 -0.176776 0
       vertex 0.115488 -0.176776 0.1
    endloop
  endfacet
  facet normal -0.751817 -0.659372 0
    outer loop
       vertex 0.115488 -0.176776 0.1
       vertex 0.0939261 -0.152191 0.1
       vertex 0.0939261 -0.152191 0
    endloop
  endfacet
  facet normal 0.659372 -0.751817 0
    outer loop
       vertex 0.46904 -0.176776 0
       vertex 0.46904 -0.176776 0.1
       vertex 0.444455 -0.198338 0.1
    endloop
  endfacet
  facet normal 0.659372 -0.751817 0
    outer loop
       vertex 0.444455 -0.198338 0.1
       vertex 0.444455 -0.198338 0
       vertex 0.46904 -0.176776 0
    endloop
  endfacet
  facet normal 0.555561 -0.831476 0
    outer loop
       vertex 0.444455 -0.198338 0
       vertex 0.444455 -0.198338 0.1
       vertex 0.417264 -0.216506 0.1
    endloop
  endfacet
  facet normal 0.555561 -0.831476 0
    outer loop
       vertex 0.417264 -0.216506 0.1
       vertex 0.417264 -0.216506 0
       vertex 0.444455 -0.198338 0
    endloop
  endfacet
  facet normal 0.442302 -0.896866 0
    outer loop
       vertex 0.417264 -0.216506 0
       vertex 0.417264 -0.216506 0.1
       vertex 0.387935 -0.23097 0.1
    endloop
  endfacet
  facet normal 0.442302 -0.896866 0
    outer loop
       vertex 0.387935 -0.23097 0.1
       vertex 0.387935 -0.23097 0
       vertex 0.417264 -0.216506 0
    endloop
  endfacet
  facet normal 0.321425 -0.946935 0
    outer loop
       vertex 0.387935 -0.23097 0
       vertex 0.387935 -0.23097 0.1
       vertex 0.356969 -0.241481 0.1
    endloop
  endfacet
  facet normal 0.321425 -0.946935 0
    outer loop
       vertex 0.356969 -0.241481 0.1
       vertex 0.356969 -0.241481 0
       vertex 0.387935 -0.23097 0
    endloop
  endfacet
  facet normal 0.195096 -0.980784 0
    outer loop
       vertex 0.356969 -0.241481 0
       vertex 0.356969 -0.241481 0.1
       vertex 0.324896 -0.247861 0.1
    endloop
  endfacet
  facet normal 0.195096 -0.980784 0
    outer loop
       vertex 0.324896 -0.247861 0.1
       vertex 0.324896 -0.247861 0
       vertex 0.356969 -0.241481 0
    endloop
  endfacet
  facet normal 0.0654098 -0.997858 0
    outer loop
       vertex 0.292264 -0.25 0
       vertex 0.324896 -0.247861 0
       vertex 0.324896 -0.247861 0.1
    endloop
  endfacet
  facet normal 0.0654098 -0.997858 7.26205e-17
    outer loop
       vertex 0.324896 -0.247861 0.1
       vertex 0.292264 -0.25 0.1
       vertex 0.292264 -0.25 0
    endloop
  endfacet
  facet normal -0.0654098 -0.997858 0
    outer loop
       vertex 0.292264 -0.25 0.1
       vertex 0.259633 -0.247861 0.1
       vertex 0.259633 -0.247861 0
    endloop
  endfacet
  facet normal -0.0654098 -0.997858 -7.26205e-17
    outer loop
       vertex 0.259633 -0.247861 0
       vertex 0.292264 -0.25 0
       vertex 0.292264 -0.25 0.1
    endloop
  endfacet
  facet normal -0.195096 -0.980784 0
    outer loop
       vertex 0.259633 -0.247861 0
       vertex 0.259633 -0.247861 0.1
       vertex 0.227559 -0.241481 0.1
    endloop
  endfacet
  facet normal -0.195096 -0.980784 -0
    outer loop
       vertex 0.227559 -0.241481 0.1
       vertex 0.227559 -0.241481 0
       vertex 0.259633 -0.247861 0
    endloop
  endfacet
  facet normal -0.321425 -0.946935 0
    outer loop
       vertex 0.227559 -0.241481 0
       vertex 0.227559 -0.241481 0.1
       vertex 0.196593 -0.23097 0.1
    endloop
  endfacet
  facet normal -0.321425 -0.946935 -0
    outer loop
       vertex 0.196593 -0.23097 0.1
       vertex 0.196593 -0.23097 0
       vertex 0.227559 -0.241481 0
    endloop
  endfacet
  facet normal -0.442302 -0.896866 0
    outer loop
       vertex 0.196593 -0.23097 0
       vertex 0.196593 -0.23097 0.1
       vertex 0.167264 -0.216506 0.1
    endloop
  endfacet
  facet normal -0.442302 -0.896866 -0
    outer loop
       vertex 0.167264 -0.216506 0.1
       vertex 0.167264 -0.216506 0
       vertex 0.196593 -0.23097 0
    endloop
  endfacet
  facet normal -0.555561 -0.831476 0
    outer loop
       vertex 0.167264 -0.216506 0
       vertex 0.167264 -0.216506 0.1
       vertex 0.140073 -0.198338 0.1
    endloop
  endfacet
  facet normal -0.555561 -0.831476 -0
    outer loop
       vertex 0.140073 -0.198338 0.1
       vertex 0.140073 -0.198338 0
       vertex 0.167264 -0.216506 0
    endloop
  endfacet
  facet normal -0.659372 -0.751817 0
    outer loop
       vertex 0.140073 -0.198338 0
       vertex 0.140073 -0.198338 0.1
       vertex 0.115488 -0.176776 0.1
    endloop
  endfacet
  facet normal -0.659372 -0.751817 -0
    outer loop
       vertex 0.115488 -0.176776 0.1
       vertex 0.115488 -0.176776 0
       vertex 0.140073 -0.198338 0
    endloop
  endfacet
endsolid cylinder
