solid cylinder
  facet normal 0.751817 -0.659372 0
    outer loop
       vertex 0.13311 -0.176776 0
       vertex 0.154672 -0.152191 0
       vertex 0.154672 -0.152191 0.1
    endloop
  endfacet
  facet normal 0.751817 -0.659372 0
    outer loop
       vertex 0.154672 -0.152191 0.1
       vertex 0.13311 -0.176776 0.1
       vertex 0.13311 -0.176776 0
    endloop
  endfacet
  facet normal 0.831476 -0.555561 0
    outer loop
       vertex 0.154672 -0.152191 0
       vertex 0.17284 -0.125 0
       vertex 0.17284 -0.125 0.1
    endloop
  endfacet
  facet normal 0.831476 -0.555561 0
    outer loop
       vertex 0.17284 -0.125 0.1
       vertex 0.154672 -0.152191 0.1
       vertex 0.154672 -0.152191 0
    endloop
  endfacet
  facet normal 0.896866 -0.442302 0
    outer loop
       vertex 0.17284 -0.125 0
       vertex 0.187304 -0.095671 0
       vertex 0.187304 -0.095671 0.1
    endloop
  endfacet
  facet normal 0.896866 -0.442302 0
    outer loop
       vertex 0.187304 -0.095671 0.1
       vertex 0.17284 -0.125 0.1
       vertex 0.17284 -0.125 0
    endloop
  endfacet
  facet normal 0.946935 -0.321425 0
    outer loop
       vertex 0.187304 -0.095671 0
       vertex 0.197815 -0.064705 0
       vertex 0.197815 -0.064705 0.1
    endloop
  endfacet
  facet normal 0.946935 -0.321425 0
    outer loop
       vertex 0.197815 -0.064705 0.1
       vertex 0.187304 -0.095671 0.1
       vertex 0.187304 -0.095671 0
    endloop
  endfacet
  facet normal 0.980784 -0.195096 0
    outer loop
       vertex 0.197815 -0.064705 0
       vertex 0.204195 -0.0326315 0
       vertex 0.204195 -0.0326315 0.1
    endloop
  endfacet
  facet normal 0.980784 -0.195096 0
    outer loop
       vertex 0.204195 -0.0326315 0.1
       vertex 0.197815 -0.064705 0.1
       vertex 0.197815 -0.064705 0
    endloop
  endfacet
  facet normal 0.997858 -0.0654098 0
    outer loop
       vertex 0.206334 -8.32665e-17 0.1
       vertex 0.204195 -0.0326315 0.1
       vertex 0.204195 -0.0326315 0
    endloop
  endfacet
  facet normal 0.997858 -0.0654098 -1.08928e-16
    outer loop
       vertex 0.204195 -0.0326315 0
       vertex 0.206334 8.32665e-17 0
       vertex 0.206334 -8.32665e-17 0.1
    endloop
  endfacet
  facet normal 0.997858 0.0654098 0
    outer loop
       vertex 0.206334 8.32665e-17 0
       vertex 0.204195 0.0326315 0
       vertex 0.204195 0.0326315 0.1
    endloop
  endfacet
  facet normal 0.997858 0.0654098 1.08928e-16
    outer loop
       vertex 0.204195 0.0326315 0.1
       vertex 0.206334 -8.32665e-17 0.1
       vertex 0.206334 8.32665e-17 0
    endloop
  endfacet
  facet normal 0.980784 0.195096 0
    outer loop
       vertex 0.204195 0.0326315 0
       vertex 0.197815 0.064705 0
       vertex 0.197815 0.064705 0.1
    endloop
  endfacet
  facet normal 0.980784 0.195096 0
    outer loop
       vertex 0.197815 0.064705 0.1
       vertex 0.204195 0.0326315 0.1
       vertex 0.204195 0.0326315 0
    endloop
  endfacet
  facet normal 0.946935 0.321425 0
    outer loop
       vertex 0.197815 0.064705 0
       vertex 0.187304 0.095671 0
       vertex 0.187304 0.095671 0.1
    endloop
  endfacet
  facet normal 0.946935 0.321425 0
    outer loop
       vertex 0.187304 0.095671 0.1
       vertex 0.197815 0.064705 0.1
       vertex 0.197815 0.064705 0
    endloop
  endfacet
  facet normal 0.896866 0.442302 0
    outer loop
       vertex 0.187304 0.095671 0
       vertex 0.17284 0.125 0
       vertex 0.17284 0.125 0.1
    endloop
  endfacet
  facet normal 0.896866 0.442302 0
    outer loop
       vertex 0.17284 0.125 0.1
       vertex 0.187304 0.095671 0.1
       vertex 0.187304 0.095671 0
    endloop
  endfacet
  facet normal 0.831476 0.555561 0
    outer loop
       vertex 0.17284 0.125 0
       vertex 0.154672 0.152191 0
       vertex 0.154672 0.152191 0.1
    endloop
  endfacet
  facet normal 0.831476 0.555561 0
    outer loop
       vertex 0.154672 0.152191 0.1
       vertex 0.17284 0.125 0.1
       vertex 0.17284 0.125 0
    endloop
  endfacet
  facet normal 0.751817 0.659372 0
    outer loop
       vertex 0.154672 0.152191 0
       vertex 0.13311 0.176776 0
       vertex 0.13311 0.176776 0.1
    endloop
  endfacet
  facet normal 0.751817 0.659372 0
    outer loop
       vertex 0.13311 0.176776 0.1
       vertex 0.154672 0.152191 0.1
       vertex 0.154672 0.152191 0
    endloop
  endfacet
  facet normal 0.659372 0.751817 0
    outer loop
       vertex 0.13311 0.176776 0
       vertex 0.108525 0.198338 0
       vertex 0.108525 0.198338 0.1
    endloop
  endfacet
  facet normal 0.659372 0.751817 0
    outer loop
       vertex 0.108525 0.198338 0.1
       vertex 0.13311 0.176776 0.1
       vertex 0.13311 0.176776 0
    endloop
  endfacet
  facet normal 0.555561 0.831476 0
    outer loop
       vertex 0.108525 0.198338 0
       vertex 0.0813344 0.216506 0
       vertex 0.0813344 0.216506 0.1
    endloop
  endfacet
  facet normal 0.555561 0.831476 0
    outer loop
       vertex 0.0813344 0.216506 0.1
       vertex 0.108525 0.198338 0.1
       vertex 0.108525 0.198338 0
    endloop
  endfacet
  facet normal 0.442302 0.896866 0
    outer loop
       vertex 0.0813344 0.216506 0
       vertex 0.0520054 0.23097 0
       vertex 0.0520054 0.23097 0.1
    endloop
  endfacet
  facet normal 0.442302 0.896866 0
    outer loop
       vertex 0.0520054 0.23097 0.1
       vertex 0.0813344 0.216506 0.1
       vertex 0.0813344 0.216506 0
    endloop
  endfacet
  facet normal 0.321425 0.946935 0
    outer loop
       vertex 0.0520054 0.23097 0
       vertex 0.0210394 0.241481 0
       vertex 0.0210394 0.241481 0.1
    endloop
  endfacet
  facet normal 0.321425 0.946935 0
    outer loop
       vertex 0.0210394 0.241481 0.1
       vertex 0.0520054 0.23097 0.1
       vertex 0.0520054 0.23097 0
    endloop
  endfacet
  facet normal 0.195096 0.980784 0
    outer loop
       vertex 0.0210394 0.241481 0
       vertex -0.0110341 0.247861 0
       vertex -0.0110341 0.247861 0.1
    endloop
  endfacet
  facet normal 0.195096 0.980784 0
    outer loop
       vertex -0.0110341 0.247861 0.1
       vertex 0.0210394 0.241481 0.1
       vertex 0.0210394 0.241481 0
    endloop
  endfacet
  facet normal 0.0654098 0.997858 0
    outer loop
       vertex -0.0436656 0.25 0.1
       vertex -0.0110341 0.247861 0.1
       vertex -0.0110341 0.247861 0
    endloop
  endfacet
  facet normal 0.0654098 0.997858 -1.08928e-16
    outer loop
       vertex -0.0110341 0.247861 0
       vertex -0.0436656 0.25 0
       vertex -0.0436656 0.25 0.1
    endloop
  endfacet
  facet normal -0.0654098 0.997858 0
    outer loop
       vertex -0.0436656 0.25 0
       vertex -0.0762971 0.247861 0
       vertex -0.0762971 0.247861 0.1
    endloop
  endfacet
  facet normal -0.0654098 0.997858 1.08928e-16
    outer loop
       vertex -0.0762971 0.247861 0.1
       vertex -0.0436656 0.25 0.1
       vertex -0.0436656 0.25 0
    endloop
  endfacet
  facet normal -0.195096 0.980784 0
    outer loop
       vertex -0.0762971 0.247861 0
       vertex -0.108371 0.241481 0
       vertex -0.108371 0.241481 0.1
    endloop
  endfacet
  facet normal -0.195096 0.980784 0
    outer loop
       vertex -0.108371 0.241481 0.1
       vertex -0.0762971 0.247861 0.1
       vertex -0.0762971 0.247861 0
    endloop
  endfacet
  facet normal -0.321425 0.946935 0
    outer loop
       vertex -0.108371 0.241481 0
       vertex -0.139337 0.23097 0
       vertex -0.139337 0.23097 0.1
    endloop
  endfacet
  facet normal -0.321425 0.946935 0
    outer loop
       vertex -0.139337 0.23097 0.1
       vertex -0.108371 0.241481 0.1
       vertex -0.108371 0.241481 0
    endloop
  endfacet
  facet normal -0.442302 0.896866 0
    outer loop
       vertex -0.139337 0.23097 0
       vertex -0.168666 0.216506 0
       vertex -0.168666 0.216506 0.1
    endloop
  endfacet
  facet normal -0.442302 0.896866 0
    outer loop
       vertex -0.168666 0.216506 0.1
       vertex -0.139337 0.23097 0.1
       vertex -0.139337 0.23097 0
    endloop
  endfacet
  facet normal -0.555561 0.831476 0
    outer loop
       vertex -0.168666 0.216506 0
       vertex -0.195857 0.198338 0
       vertex -0.195857 0.198338 0.1
    endloop
  endfacet
  facet normal -0.555561 0.831476 0
    outer loop
       vertex -0.195857 0.198338 0.1
       vertex -0.168666 0.216506 0.1
       vertex -0.168666 0.216506 0
    endloop
  endfacet
  facet normal -0.659372 0.751817 0
    outer loop
       vertex -0.195857 0.198338 0
       vertex -0.220442 0.176776 0
       vertex -0.220442 0.176776 0.1
    endloop
  endfacet
  facet normal -0.659372 0.751817 0
    outer loop
       vertex -0.220442 0.176776 0.1
       vertex -0.195857 0.198338 0.1
       vertex -0.195857 0.198338 0
    endloop
  endfacet
  facet normal -0.751817 0.659372 0
    outer loop
       vertex -0.220442 0.176776 0
       vertex -0.242004 0.152191 0
       vertex -0.242004 0.152191 0.1
    endloop
  endfacet
  facet normal -0.751817 0.659372 0
    outer loop
       vertex -0.242004 0.152191 0.1
       vertex -0.220442 0.176776 0.1
       vertex -0.220442 0.176776 0
    endloop
  endfacet
  facet normal -0.831476 0.555561 0
    outer loop
       vertex -0.242004 0.152191 0
       vertex -0.260172 0.125 0
       vertex -0.260172 0.125 0.1
    endloop
  endfacet
  facet normal -0.831476 0.555561 0
    outer loop
       vertex -0.260172 0.125 0.1
       vertex -0.242004 0.152191 0.1
       vertex -0.242004 0.152191 0
    endloop
  endfacet
  facet normal -0.896866 0.442302 0
    outer loop
       vertex -0.260172 0.125 0
       vertex -0.274636 0.095671 0
       vertex -0.274636 0.095671 0.1
    endloop
  endfacet
  facet normal -0.896866 0.442302 0
    outer loop
       vertex -0.274636 0.095671 0.1
       vertex -0.260172 0.125 0.1
       vertex -0.260172 0.125 0
    endloop
  endfacet
  facet normal -0.946935 0.321425 0
    outer loop
       vertex -0.274636 0.095671 0
       vertex -0.285147 0.064705 0
       vertex -0.285147 0.064705 0.1
    endloop
  endfacet
  facet normal -0.946935 0.321425 0
    outer loop
       vertex -0.285147 0.064705 0.1
       vertex -0.274636 0.095671 0.1
       vertex -0.274636 0.095671 0
    endloop
  endfacet
  facet normal -0.980784 0.195096 0
    outer loop
       vertex -0.285147 0.064705 0
       vertex -0.291527 0.0326315 0
       vertex -0.291527 0.0326315 0.1
    endloop
  endfacet
  facet normal -0.980784 0.195096 0
    outer loop
       vertex -0.291527 0.0326315 0.1
       vertex -0.285147 0.064705 0.1
       vertex -0.285147 0.064705 0
    endloop
  endfacet
  facet normal -0.997858 0.0654098 0
    outer loop
       vertex -0.293666 8.32665e-17 0.1
       vertex -0.291527 0.0326315 0.1
       vertex -0.291527 0.0326315 0
    endloop
  endfacet
  facet normal -0.997858 0.0654098 -1.08928e-16
    outer loop
       vertex -0.291527 0.0326315 0
       vertex -0.293666 -8.32665e-17 0
       vertex -0.293666 8.32665e-17 0.1
    endloop
  endfacet
  facet normal -0.997858 -0.0654098 0
    outer loop
       vertex -0.293666 -8.32665e-17 0
       vertex -0.291527 -0.0326315 0
       vertex -0.291527 -0.0326315 0.1
    endloop
  endfacet
  facet normal -0.997858 -0.0654098 1.08928e-16
    outer loop
       vertex -0.291527 -0.0326315 0.1
       vertex -0.293666 8.32665e-17 0.1
       vertex -0.293666 -8.32665e-17 0
    endloop
  endfacet
  facet normal -0.980784 -0.195096 0
    outer loop
       vertex -0.291527 -0.0326315 0
       vertex -0.285147 -0.064705 0
       vertex -0.285147 -0.064705 0.1
    endloop
  endfacet
  facet normal -0.980784 -0.195096 0
    outer loop
       vertex -0.285147 -0.064705 0.1
       vertex -0.291527 -0.0326315 0.1
       vertex -0.291527 -0.0326315 0
    endloop
  endfacet
  facet normal -0.946935 -0.321425 0
    outer loop
       vertex -0.285147 -0.064705 0
       vertex -0.274636 -0.095671 0
       vertex -0.274636 -0.095671 0.1
    endloop
  endfacet
  facet normal -0.946935 -0.321425 0
    outer loop
       vertex -0.274636 -0.095671 0.1
       vertex -0.285147 -0.064705 0.1
       vertex -0.285147 -0.064705 0
    endloop
  endfacet
  facet normal -0.896866 -0.442302 0
    outer loop
       vertex -0.274636 -0.095671 0
       vertex -0.260172 -0.125 0
       vertex -0.260172 -0.125 0.1
    endloop
  endfacet
  facet normal -0.896866 -0.442302 0
    outer loop
       vertex -0.260172 -0.125 0.1
       vertex -0.274636 -0.095671 0.1
       vertex -0.274636 -0.095671 0
    endloop
  endfacet
  facet normal -0.831476 -0.555561 0
    outer loop
       vertex -0.260172 -0.125 0
       vertex -0.242004 -0.152191 0
       vertex -0.242004 -0.152191 0.1
    endloop
  endfacet
  facet normal -0.831476 -0.555561 0
    outer loop
       vertex -0.242004 -0.152191 0.1
       vertex -0.260172 -0.125 0.1
       vertex -0.260172 -0.125 0
    endloop
  endfacet
  facet normal -0.751817 -0.659372 0
    outer loop
       vertex -0.242004 -0.152191 0
       vertex -0.220442 -0.176776 0
       vertex -0.220442 -0.176776 0.1
    endloop
  endfacet
  facet normal -0.751817 -0.659372 0
    outer loop
       vertex -0.220442 -0.176776 0.1
       vertex -0.242004 -0.152191 0.1
       vertex -0.242004 -0.152191 0
    endloop
  endfacet
  facet normal 0.659372 -0.751817 0
    outer loop
       vertex 0.13311 -0.176776 0
       vertex 0.13311 -0.176776 0.1
       vertex 0.108525 -0.198338 0.1
    endloop
  endfacet
  facet normal 0.659372 -0.751817 0
    outer loop
       vertex 0.108525 -0.198338 0.1
       vertex 0.108525 -0.198338 0
       vertex 0.13311 -0.176776 0
    endloop
  endfacet
  facet normal 0.555561 -0.831476 0
    outer loop
       vertex 0.108525 -0.198338 0
       vertex 0.108525 -0.198338 0.1
       vertex 0.0813344 -0.216506 0.1
    endloop
  endfacet
  facet normal 0.555561 -0.831476 0
    outer loop
       vertex 0.0813344 -0.216506 0.1
       vertex 0.0813344 -0.216506 0
       vertex 0.108525 -0.198338 0
    endloop
  endfacet
  facet normal 0.442302 -0.896866 0
    outer loop
       vertex 0.0813344 -0.216506 0
       vertex 0.0813344 -0.216506 0.1
       vertex 0.0520054 -0.23097 0.1
    endloop
  endfacet
  facet normal 0.442302 -0.896866 0
    outer loop
       vertex 0.0520054 -0.23097 0.1
       vertex 0.0520054 -0.23097 0
       vertex 0.0813344 -0.216506 0
    endloop
  endfacet
  facet normal 0.321425 -0.946935 0
    outer loop
       vertex 0.0520054 -0.23097 0
       vertex 0.0520054 -0.23097 0.1
       vertex 0.0210394 -0.241481 0.1
    endloop
  endfacet
  facet normal 0.321425 -0.946935 0
    outer loop
       vertex 0.0210394 -0.241481 0.1
       vertex 0.0210394 -0.241481 0
       vertex 0.0520054 -0.23097 0
    endloop
  endfacet
  facet normal 0.195096 -0.980784 0
    outer loop
       vertex 0.0210394 -0.241481 0
       vertex 0.0210394 -0.241481 0.1
       vertex -0.0110341 -0.247861 0.1
    endloop
  endfacet
  facet normal 0.195096 -0.980784 0
    outer loop
       vertex -0.0110341 -0.247861 0.1
       vertex -0.0110341 -0.247861 0
       vertex 0.0210394 -0.241481 0
    endloop
  endfacet
  facet normal 0.0654098 -0.997858 0
    outer loop
       vertex -0.0436656 -0.25 0
       vertex -0.0110341 -0.247861 0
       vertex -0.0110341 -0.247861 0.1
    endloop
  endfacet
  facet normal 0.0654098 -0.997858 1.08928e-16
    outer loop
       vertex -0.0110341 -0.247861 0.1
       vertex -0.0436656 -0.25 0.1
       vertex -0.0436656 -0.25 0
    endloop
  endfacet
  facet normal -0.0654098 -0.997858 0
    outer loop
       vertex -0.0436656 -0.25 0.1
       vertex -0.0762971 -0.247861 0.1
       vertex -0.0762971 -0.247861 0
    endloop
  endfacet
  facet normal -0.0654098 -0.997858 -1.08928e-16
    outer loop
       vertex -0.0762971 -0.247861 0
       vertex -0.0436656 -0.25 0
       vertex -0.0436656 -0.25 0.1
    endloop
  endfacet
  facet normal -0.195096 -0.980784 0
    outer loop
       vertex -0.0762971 -0.247861 0
       vertex -0.0762971 -0.247861 0.1
       vertex -0.108371 -0.241481 0.1
    endloop
  endfacet
  facet normal -0.195096 -0.980784 -0
    outer loop
       vertex -0.108371 -0.241481 0.1
       vertex -0.108371 -0.241481 0
       vertex -0.0762971 -0.247861 0
    endloop
  endfacet
  facet normal -0.321425 -0.946935 0
    outer loop
       vertex -0.108371 -0.241481 0
       vertex -0.108371 -0.241481 0.1
       vertex -0.139337 -0.23097 0.1
    endloop
  endfacet
  facet normal -0.321425 -0.946935 -0
    outer loop
       vertex -0.139337 -0.23097 0.1
       vertex -0.139337 -0.23097 0
       vertex -0.108371 -0.241481 0
    endloop
  endfacet
  facet normal -0.442302 -0.896866 0
    outer loop
       vertex -0.139337 -0.23097 0
       vertex -0.139337 -0.23097 0.1
       vertex -0.168666 -0.216506 0.1
    endloop
  endfacet
  facet normal -0.442302 -0.896866 -0
    outer loop
       vertex -0.168666 -0.216506 0.1
       vertex -0.168666 -0.216506 0
       vertex -0.139337 -0.23097 0
    endloop
  endfacet
  facet normal -0.555561 -0.831476 0
    outer loop
       vertex -0.168666 -0.216506 0
       vertex -0.168666 -0.216506 0.1
       vertex -0.195857 -0.198338 0.1
    endloop
  endfacet
  facet normal -0.555561 -0.831476 -0
    outer loop
       vertex -0.195857 -0.198338 0.1
       vertex -0.195857 -0.198338 0
       vertex -0.168666 -0.216506 0
    endloop
  endfacet
  facet normal -0.659372 -0.751817 0
    outer loop
       vertex -0.195857 -0.198338 0
       vertex -0.195857 -0.198338 0.1
       vertex -0.220442 -0.176776 0.1
    endloop
  endfacet
  facet normal -0.659372 -0.751817 -0
    outer loop
       vertex -0.220442 -0.176776 0.1
       vertex -0.220442 -0.176776 0
       vertex -0.195857 -0.198338 0
    endloop
  endfacet
endsolid cylinder
