solid cylinder
  facet normal 0.751817 -0.659372 0
    outer loop
       vertex 0.205028 -0.176776 0
       vertex 0.22659 -0.152191 0
       vertex 0.22659 -0.152191 0.1
    endloop
  endfacet
  facet normal 0.751817 -0.659372 0
    outer loop
       vertex 0.22659 -0.152191 0.1
       vertex 0.205028 -0.176776 0.1
       vertex 0.205028 -0.176776 0
    endloop
  endfacet
  facet normal 0.831476 -0.555561 0
    outer loop
       vertex 0.22659 -0.152191 0
       vertex 0.244758 -0.125 0
       vertex 0.244758 -0.125 0.1
    endloop
  endfacet
  facet normal 0.831476 -0.555561 0
    outer loop
       vertex 0.244758 -0.125 0.1
       vertex 0.22659 -0.152191 0.1
       vertex 0.22659 -0.152191 0
    endloop
  endfacet
  facet normal 0.896866 -0.442302 0
    outer loop
       vertex 0.244758 -0.125 0
       vertex 0.259222 -0.095671 0
       vertex 0.259222 -0.095671 0.1
    endloop
  endfacet
  facet normal 0.896866 -0.442302 0
    outer loop
       vertex 0.259222 -0.095671 0.1
       vertex 0.244758 -0.125 0.1
       vertex 0.244758 -0.125 0
    endloop
  endfacet
  facet normal 0.946935 -0.321425 0
    outer loop
       vertex 0.259222 -0.095671 0
       vertex 0.269733 -0.064705 0
       vertex 0.269733 -0.064705 0.1
    endloop
  endfacet
  facet normal 0.946935 -0.321425 0
    outer loop
       vertex 0.269733 -0.064705 0.1
       vertex 0.259222 -0.095671 0.1
       vertex 0.259222 -0.095671 0
    endloop
  endfacet
  facet normal 0.980784 -0.195096 0
    outer loop
       vertex 0.269733 -0.064705 0
       vertex 0.276113 -0.0326315 0
       vertex 0.276113 -0.0326315 0.1
    endloop
  endfacet
  facet normal 0.980784 -0.195096 0
    outer loop
       vertex 0.276113 -0.0326315 0.1
       vertex 0.269733 -0.064705 0.1
       vertex 0.269733 -0.064705 0
    endloop
  endfacet
  facet normal 0.997858 -0.0654098 0
    outer loop
       vertex 0.278252 -8.32665e-17 0.1
       vertex 0.276113 -0.0326315 0.1
       vertex 0.276113 -0.0326315 0
    endloop
  endfacet
  facet normal 0.997858 -0.0654098 -1.08928e-16
    outer loop
       vertex 0.276113 -0.0326315 0
       vertex 0.278252 8.32665e-17 0
       vertex 0.278252 -8.32665e-17 0.1
    endloop
  endfacet
  facet normal 0.997858 0.0654098 0
    outer loop
       vertex 0.278252 8.32665e-17 0
       vertex 0.276113 0.0326315 0
       vertex 0.276113 0.0326315 0.1
    endloop
  endfacet
  facet normal 0.997858 0.0654098 1.08928e-16
    outer loop
       vertex 0.276113 0.0326315 0.1
       vertex 0.278252 -8.32665e-17 0.1
       vertex 0.278252 8.32665e-17 0
    endloop
  endfacet
  facet normal 0.980784 0.195096 0
    outer loop
       vertex 0.276113 0.0326315 0
       vertex 0.269733 0.064705 0
       vertex 0.269733 0.064705 0.1
    endloop
  endfacet
  facet normal 0.980784 0.195096 0
    outer loop
       vertex 0.269733 0.064705 0.1
       vertex 0.276113 0.0326315 0.1
       vertex 0.276113 0.0326315 0
    endloop
  endfacet
  facet normal 0.946935 0.321425 0
    outer loop
       vertex 0.269733 0.064705 0
       vertex 0.259222 0.095671 0
       vertex 0.259222 0.095671 0.1
    endloop
  endfacet
  facet normal 0.946935 0.321425 0
    outer loop
       vertex 0.259222 0.095671 0.1
       vertex 0.269733 0.064705 0.1
       vertex 0.269733 0.064705 0
    endloop
  endfacet
  facet normal 0.896866 0.442302 0
    outer loop
       vertex 0.259222 0.095671 0
       vertex 0.244758 0.125 0
       vertex 0.244758 0.125 0.1
    endloop
  endfacet
  facet normal 0.896866 0.442302 0
    outer loop
       vertex 0.244758 0.125 0.1
       vertex 0.259222 0.095671 0.1
       vertex 0.259222 0.095671 0
    endloop
  endfacet
  facet normal 0.831476 0.555561 0
    outer loop
       vertex 0.244758 0.125 0
       vertex 0.22659 0.152191 0
       vertex 0.22659 0.152191 0.1
    endloop
  endfacet
  facet normal 0.831476 0.555561 0
    outer loop
       vertex 0.22659 0.152191 0.1
       vertex 0.244758 0.125 0.1
       vertex 0.244758 0.125 0
    endloop
  endfacet
  facet normal 0.751817 0.659372 0
    outer loop
       vertex 0.22659 0.152191 0
       vertex 0.205028 0.176776 0
       vertex 0.205028 0.176776 0.1
    endloop
  endfacet
  facet normal 0.751817 0.659372 0
    outer loop
       vertex 0.205028 0.176776 0.1
       vertex 0.22659 0.152191 0.1
       vertex 0.22659 0.152191 0
    endloop
  endfacet
  facet normal 0.659372 0.751817 0
    outer loop
       vertex 0.205028 0.176776 0
       vertex 0.180443 0.198338 0
       vertex 0.180443 0.198338 0.1
    endloop
  endfacet
  facet normal 0.659372 0.751817 0
    outer loop
       vertex 0.180443 0.198338 0.1
       vertex 0.205028 0.176776 0.1
       vertex 0.205028 0.176776 0
    endloop
  endfacet
  facet normal 0.555561 0.831476 0
    outer loop
       vertex 0.180443 0.198338 0
       vertex 0.153252 0.216506 0
       vertex 0.153252 0.216506 0.1
    endloop
  endfacet
  facet normal 0.555561 0.831476 0
    outer loop
       vertex 0.153252 0.216506 0.1
       vertex 0.180443 0.198338 0.1
       vertex 0.180443 0.198338 0
    endloop
  endfacet
  facet normal 0.442302 0.896866 0
    outer loop
       vertex 0.153252 0.216506 0
       vertex 0.123923 0.23097 0
       vertex 0.123923 0.23097 0.1
    endloop
  endfacet
  facet normal 0.442302 0.896866 0
    outer loop
       vertex 0.123923 0.23097 0.1
       vertex 0.153252 0.216506 0.1
       vertex 0.153252 0.216506 0
    endloop
  endfacet
  facet normal 0.321425 0.946935 0
    outer loop
       vertex 0.123923 0.23097 0
       vertex 0.0929568 0.241481 0
       vertex 0.0929568 0.241481 0.1
    endloop
  endfacet
  facet normal 0.321425 0.946935 0
    outer loop
       vertex 0.0929568 0.241481 0.1
       vertex 0.123923 0.23097 0.1
       vertex 0.123923 0.23097 0
    endloop
  endfacet
  facet normal 0.195096 0.980784 0
    outer loop
       vertex 0.0929568 0.241481 0
       vertex 0.0608833 0.247861 0
       vertex 0.0608833 0.247861 0.1
    endloop
  endfacet
  facet normal 0.195096 0.980784 0
    outer loop
       vertex 0.0608833 0.247861 0.1
       vertex 0.0929568 0.241481 0.1
       vertex 0.0929568 0.241481 0
    endloop
  endfacet
  facet normal 0.0654098 0.997858 0
    outer loop
       vertex 0.0282518 0.25 0.1
       vertex 0.0608833 0.247861 0.1
       vertex 0.0608833 0.247861 0
    endloop
  endfacet
  facet normal 0.0654098 0.997858 -1.08928e-16
    outer loop
       vertex 0.0608833 0.247861 0
       vertex 0.0282518 0.25 0
       vertex 0.0282518 0.25 0.1
    endloop
  endfacet
  facet normal -0.0654098 0.997858 0
    outer loop
       vertex 0.0282518 0.25 0
       vertex -0.00437969 0.247861 0
       vertex -0.00437969 0.247861 0.1
    endloop
  endfacet
  facet normal -0.0654098 0.997858 1.08928e-16
    outer loop
       vertex -0.00437969 0.247861 0.1
       vertex 0.0282518 0.25 0.1
       vertex 0.0282518 0.25 0
    endloop
  endfacet
  facet normal -0.195096 0.980784 0
    outer loop
       vertex -0.00437969 0.247861 0
       vertex -0.0364532 0.241481 0
       vertex -0.0364532 0.241481 0.1
    endloop
  endfacet
  facet normal -0.195096 0.980784 0
    outer loop
       vertex -0.0364532 0.241481 0.1
       vertex -0.00437969 0.247861 0.1
       vertex -0.00437969 0.247861 0
    endloop
  endfacet
  facet normal -0.321425 0.946935 0
    outer loop
       vertex -0.0364532 0.241481 0
       vertex -0.0674192 0.23097 0
       vertex -0.0674192 0.23097 0.1
    endloop
  endfacet
  facet normal -0.321425 0.946935 0
    outer loop
       vertex -0.0674192 0.23097 0.1
       vertex -0.0364532 0.241481 0.1
       vertex -0.0364532 0.241481 0
    endloop
  endfacet
  facet normal -0.442302 0.896866 0
    outer loop
       vertex -0.0674192 0.23097 0
       vertex -0.0967482 0.216506 0
       vertex -0.0967482 0.216506 0.1
    endloop
  endfacet
  facet normal -0.442302 0.896866 0
    outer loop
       vertex -0.0967482 0.216506 0.1
       vertex -0.0674192 0.23097 0.1
       vertex -0.0674192 0.23097 0
    endloop
  endfacet
  facet normal -0.555561 0.831476 0
    outer loop
       vertex -0.0967482 0.216506 0
       vertex -0.123939 0.198338 0
       vertex -0.123939 0.198338 0.1
    endloop
  endfacet
  facet normal -0.555561 0.831476 0
    outer loop
       vertex -0.123939 0.198338 0.1
       vertex -0.0967482 0.216506 0.1
       vertex -0.0967482 0.216506 0
    endloop
  endfacet
  facet normal -0.659372 0.751817 0
    outer loop
       vertex -0.123939 0.198338 0
       vertex -0.148524 0.176776 0
       vertex -0.148524 0.176776 0.1
    endloop
  endfacet
  facet normal -0.659372 0.751817 0
    outer loop
       vertex -0.148524 0.176776 0.1
       vertex -0.123939 0.198338 0.1
       vertex -0.123939 0.198338 0
    endloop
  endfacet
  facet normal -0.751817 0.659372 0
    outer loop
       vertex -0.148524 0.176776 0
       vertex -0.170086 0.152191 0
       vertex -0.170086 0.152191 0.1
    endloop
  endfacet
  facet normal -0.751817 0.659372 0
    outer loop
       vertex -0.170086 0.152191 0.1
       vertex -0.148524 0.176776 0.1
       vertex -0.148524 0.176776 0
    endloop
  endfacet
  facet normal -0.831476 0.555561 0
    outer loop
       vertex -0.170086 0.152191 0
       vertex -0.188254 0.125 0
       vertex -0.188254 0.125 0.1
    endloop
  endfacet
  facet normal -0.831476 0.555561 0
    outer loop
       vertex -0.188254 0.125 0.1
       vertex -0.170086 0.152191 0.1
       vertex -0.170086 0.152191 0
    endloop
  endfacet
  facet normal -0.896866 0.442302 0
    outer loop
       vertex -0.188254 0.125 0
       vertex -0.202718 0.095671 0
       vertex -0.202718 0.095671 0.1
    endloop
  endfacet
  facet normal -0.896866 0.442302 0
    outer loop
       vertex -0.202718 0.095671 0.1
       vertex -0.188254 0.125 0.1
       vertex -0.188254 0.125 0
    endloop
  endfacet
  facet normal -0.946935 0.321425 0
    outer loop
       vertex -0.202718 0.095671 0
       vertex -0.213229 0.064705 0
       vertex -0.213229 0.064705 0.1
    endloop
  endfacet
  facet normal -0.946935 0.321425 0
    outer loop
       vertex -0.213229 0.064705 0.1
       vertex -0.202718 0.095671 0.1
       vertex -0.202718 0.095671 0
    endloop
  endfacet
  facet normal -0.980784 0.195096 0
    outer loop
       vertex -0.213229 0.064705 0
       vertex -0.219609 0.0326315 0
       vertex -0.219609 0.0326315 0.1
    endloop
  endfacet
  facet normal -0.980784 0.195096 0
    outer loop
       vertex -0.219609 0.0326315 0.1
       vertex -0.213229 0.064705 0.1
       vertex -0.213229 0.064705 0
    endloop
  endfacet
  facet normal -0.997858 0.0654098 0
    outer loop
       vertex -0.221748 8.32665e-17 0.1
       vertex -0.219609 0.0326315 0.1
       vertex -0.219609 0.0326315 0
    endloop
  endfacet
  facet normal -0.997858 0.0654098 -1.08928e-16
    outer loop
       vertex -0.219609 0.0326315 0
       vertex -0.221748 -8.32665e-17 0
       vertex -0.221748 8.32665e-17 0.1
    endloop
  endfacet
  facet normal -0.997858 -0.0654098 0
    outer loop
       vertex -0.221748 -8.32665e-17 0
       vertex -0.219609 -0.0326315 0
       vertex -0.219609 -0.0326315 0.1
    endloop
  endfacet
  facet normal -0.997858 -0.0654098 1.08928e-16
    outer loop
       vertex -0.219609 -0.0326315 0.1
       vertex -0.221748 8.32665e-17 0.1
       vertex -0.221748 -8.32665e-17 0
    endloop
  endfacet
  facet normal -0.980784 -0.195096 0
    outer loop
       vertex -0.219609 -0.0326315 0
       vertex -0.213229 -0.064705 0
       vertex -0.213229 -0.064705 0.1
    endloop
  endfacet
  facet normal -0.980784 -0.195096 0
    outer loop
       vertex -0.213229 -0.064705 0.1
       vertex -0.219609 -0.0326315 0.1
       vertex -0.219609 -0.0326315 0
    endloop
  endfacet
  facet normal -0.946935 -0.321425 0
    outer loop
       vertex -0.213229 -0.064705 0
       vertex -0.202718 -0.095671 0
       vertex -0.202718 -0.095671 0.1
    endloop
  endfacet
  facet normal -0.946935 -0.321425 0
    outer loop
       vertex -0.202718 -0.095671 0.1
       vertex -0.213229 -0.064705 0.1
       vertex -0.213229 -0.064705 0
    endloop
  endfacet
  facet normal -0.896866 -0.442302 0
    outer loop
       vertex -0.202718 -0.095671 0
       vertex -0.188254 -0.125 0
       vertex -0.188254 -0.125 0.1
    endloop
  endfacet
  facet normal -0.896866 -0.442302 0
    outer loop
       vertex -0.188254 -0.125 0.1
       vertex -0.202718 -0.095671 0.1
       vertex -0.202718 -0.095671 0
    endloop
  endfacet
  facet normal -0.831476 -0.555561 0
    outer loop
       vertex -0.188254 -0.125 0
       vertex -0.170086 -0.152191 0
       vertex -0.170086 -0.152191 0.1
    endloop
  endfacet
  facet normal -0.831476 -0.555561 0
    outer loop
       vertex -0.170086 -0.152191 0.1
       vertex -0.188254 -0.125 0.1
       vertex -0.188254 -0.125 0
    endloop
  endfacet
  facet normal -0.751817 -0.659372 0
    outer loop
       vertex -0.170086 -0.152191 0
       vertex -0.148524 -0.176776 0
       vertex -0.148524 -0.176776 0.1
    endloop
  endfacet
  facet normal -0.751817 -0.659372 0
    outer loop
       vertex -0.148524 -0.176776 0.1
       vertex -0.170086 -0.152191 0.1
       vertex -0.170086 -0.152191 0
    endloop
  endfacet
  facet normal 0.659372 -0.751817 0
    outer loop
       vertex 0.205028 -0.176776 0
       vertex 0.205028 -0.176776 0.1
       vertex 0.180443 -0.198338 0.1
    endloop
  endfacet
  facet normal 0.659372 -0.751817 0
    outer loop
       vertex 0.180443 -0.198338 0.1
       vertex 0.180443 -0.198338 0
       vertex 0.205028 -0.176776 0
    endloop
  endfacet
  facet normal 0.555561 -0.831476 0
    outer loop
       vertex 0.180443 -0.198338 0
       vertex 0.180443 -0.198338 0.1
       vertex 0.153252 -0.216506 0.1
    endloop
  endfacet
  facet normal 0.555561 -0.831476 0
    outer loop
       vertex 0.153252 -0.216506 0.1
       vertex 0.153252 -0.216506 0
       vertex 0.180443 -0.198338 0
    endloop
  endfacet
  facet normal 0.442302 -0.896866 0
    outer loop
       vertex 0.153252 -0.216506 0
       vertex 0.153252 -0.216506 0.1
       vertex 0.123923 -0.23097 0.1
    endloop
  endfacet
  facet normal 0.442302 -0.896866 0
    outer loop
       vertex 0.123923 -0.23097 0.1
       vertex 0.123923 -0.23097 0
       vertex 0.153252 -0.216506 0
    endloop
  endfacet
  facet normal 0.321425 -0.946935 0
    outer loop
       vertex 0.123923 -0.23097 0
       vertex 0.123923 -0.23097 0.1
       vertex 0.0929568 -0.241481 0.1
    endloop
  endfacet
  facet normal 0.321425 -0.946935 0
    outer loop
       vertex 0.0929568 -0.241481 0.1
       vertex 0.0929568 -0.241481 0
       vertex 0.123923 -0.23097 0
    endloop
  endfacet
  facet normal 0.195096 -0.980784 0
    outer loop
       vertex 0.0929568 -0.241481 0
       vertex 0.0929568 -0.241481 0.1
       vertex 0.0608833 -0.247861 0.1
    endloop
  endfacet
  facet normal 0.195096 -0.980784 0
    outer loop
       vertex 0.0608833 -0.247861 0.1
       vertex 0.0608833 -0.247861 0
       vertex 0.0929568 -0.241481 0
    endloop
  endfacet
  facet normal 0.0654098 -0.997858 0
    outer loop
       vertex 0.0282518 -0.25 0
       vertex 0.0608833 -0.247861 0
       vertex 0.0608833 -0.247861 0.1
    endloop
  endfacet
  facet normal 0.0654098 -0.997858 1.08928e-16
    outer loop
       vertex 0.0608833 -0.247861 0.1
       vertex 0.0282518 -0.25 0.1
       vertex 0.0282518 -0.25 0
    endloop
  endfacet
  facet normal -0.0654098 -0.997858 0
    outer loop
       vertex 0.0282518 -0.25 0.1
       vertex -0.00437969 -0.247861 0.1
       vertex -0.00437969 -0.247861 0
    endloop
  endfacet
  facet normal -0.0654098 -0.997858 -1.08928e-16
    outer loop
       vertex -0.00437969 -0.247861 0
       vertex 0.0282518 -0.25 0
       vertex 0.0282518 -0.25 0.1
    endloop
  endfacet
  facet normal -0.195096 -0.980784 0
    outer loop
       vertex -0.00437969 -0.247861 0
       vertex -0.00437969 -0.247861 0.1
       vertex -0.0364532 -0.241481 0.1
    endloop
  endfacet
  facet normal -0.195096 -0.980784 -0
    outer loop
       vertex -0.0364532 -0.241481 0.1
       vertex -0.0364532 -0.241481 0
       vertex -0.00437969 -0.247861 0
    endloop
  endfacet
  facet normal -0.321425 -0.946935 0
    outer loop
       vertex -0.0364532 -0.241481 0
       vertex -0.0364532 -0.241481 0.1
       vertex -0.0674192 -0.23097 0.1
    endloop
  endfacet
  facet normal -0.321425 -0.946935 -0
    outer loop
       vertex -0.0674192 -0.23097 0.1
       vertex -0.0674192 -0.23097 0
       vertex -0.0364532 -0.241481 0
    endloop
  endfacet
  facet normal -0.442302 -0.896866 0
    outer loop
       vertex -0.0674192 -0.23097 0
       vertex -0.0674192 -0.23097 0.1
       vertex -0.0967482 -0.216506 0.1
    endloop
  endfacet
  facet normal -0.442302 -0.896866 -0
    outer loop
       vertex -0.0967482 -0.216506 0.1
       vertex -0.0967482 -0.216506 0
       vertex -0.0674192 -0.23097 0
    endloop
  endfacet
  facet normal -0.555561 -0.831476 0
    outer loop
       vertex -0.0967482 -0.216506 0
       vertex -0.0967482 -0.216506 0.1
       vertex -0.123939 -0.198338 0.1
    endloop
  endfacet
  facet normal -0.555561 -0.831476 -0
    outer loop
       vertex -0.123939 -0.198338 0.1
       vertex -0.123939 -0.198338 0
       vertex -0.0967482 -0.216506 0
    endloop
  endfacet
  facet normal -0.659372 -0.751817 0
    outer loop
       vertex -0.123939 -0.198338 0
       vertex -0.123939 -0.198338 0.1
       vertex -0.148524 -0.176776 0.1
    endloop
  endfacet
  facet normal -0.659372 -0.751817 -0
    outer loop
       vertex -0.148524 -0.176776 0.1
       vertex -0.148524 -0.176776 0
       vertex -0.123939 -0.198338 0
    endloop
  endfacet
endsolid cylinder
