solid cylinder
  facet normal 0.751817 -0.659372 0
    outer loop
       vertex 0.356405 -0.176776 0
       vertex 0.377967 -0.152191 0
       vertex 0.377967 -0.152191 0.1
    endloop
  endfacet
  facet normal 0.751817 -0.659372 0
    outer loop
       vertex 0.377967 -0.152191 0.1
       vertex 0.356405 -0.176776 0.1
       vertex 0.356405 -0.176776 0
    endloop
  endfacet
  facet normal 0.831476 -0.555561 0
    outer loop
       vertex 0.377967 -0.152191 0
       vertex 0.396135 -0.125 0
       vertex 0.396135 -0.125 0.1
    endloop
  endfacet
  facet normal 0.831476 -0.555561 0
    outer loop
       vertex 0.396135 -0.125 0.1
       vertex 0.377967 -0.152191 0.1
       vertex 0.377967 -0.152191 0
    endloop
  endfacet
  facet normal 0.896866 -0.442302 0
    outer loop
       vertex 0.396135 -0.125 0
       vertex 0.410599 -0.095671 0
       vertex 0.410599 -0.095671 0.1
    endloop
  endfacet
  facet normal 0.896866 -0.442302 0
    outer loop
       vertex 0.410599 -0.095671 0.1
       vertex 0.396135 -0.125 0.1
       vertex 0.396135 -0.125 0
    endloop
  endfacet
  facet normal 0.946935 -0.321425 0
    outer loop
       vertex 0.410599 -0.095671 0
       vertex 0.42111 -0.064705 0
       vertex 0.42111 -0.064705 0.1
    endloop
  endfacet
  facet normal 0.946935 -0.321425 0
    outer loop
       vertex 0.42111 -0.064705 0.1
       vertex 0.410599 -0.095671 0.1
       vertex 0.410599 -0.095671 0
    endloop
  endfacet
  facet normal 0.980784 -0.195096 0
    outer loop
       vertex 0.42111 -0.064705 0
       vertex 0.42749 -0.0326315 0
       vertex 0.42749 -0.0326315 0.1
    endloop
  endfacet
  facet normal 0.980784 -0.195096 0
    outer loop
       vertex 0.42749 -0.0326315 0.1
       vertex 0.42111 -0.064705 0.1
       vertex 0.42111 -0.064705 0
    endloop
  endfacet
  facet normal 0.997858 -0.0654098 0
    outer loop
       vertex 0.429629 -8.32665e-17 0.1
       vertex 0.42749 -0.0326315 0.1
       vertex 0.42749 -0.0326315 0
    endloop
  endfacet
  facet normal 0.997858 -0.0654098 -1.08928e-16
    outer loop
       vertex 0.42749 -0.0326315 0
       vertex 0.429629 8.32665e-17 0
       vertex 0.429629 -8.32665e-17 0.1
    endloop
  endfacet
  facet normal 0.997858 0.0654098 0
    outer loop
       vertex 0.429629 8.32665e-17 0
       vertex 0.42749 0.0326315 0
       vertex 0.42749 0.0326315 0.1
    endloop
  endfacet
  facet normal 0.997858 0.0654098 1.08928e-16
    outer loop
       vertex 0.42749 0.0326315 0.1
       vertex 0.429629 -8.32665e-17 0.1
       vertex 0.429629 8.32665e-17 0
    endloop
  endfacet
  facet normal 0.980784 0.195096 0
    outer loop
       vertex 0.42749 0.0326315 0
       vertex 0.42111 0.064705 0
       vertex 0.42111 0.064705 0.1
    endloop
  endfacet
  facet normal 0.980784 0.195096 0
    outer loop
       vertex 0.42111 0.064705 0.1
       vertex 0.42749 0.0326315 0.1
       vertex 0.42749 0.0326315 0
    endloop
  endfacet
  facet normal 0.946935 0.321425 0
    outer loop
       vertex 0.42111 0.064705 0
       vertex 0.410599 0.095671 0
       vertex 0.410599 0.095671 0.1
    endloop
  endfacet
  facet normal 0.946935 0.321425 0
    outer loop
       vertex 0.410599 0.095671 0.1
       vertex 0.42111 0.064705 0.1
       vertex 0.42111 0.064705 0
    endloop
  endfacet
  facet normal 0.896866 0.442302 0
    outer loop
       vertex 0.410599 0.095671 0
       vertex 0.396135 0.125 0
       vertex 0.396135 0.125 0.1
    endloop
  endfacet
  facet normal 0.896866 0.442302 0
    outer loop
       vertex 0.396135 0.125 0.1
       vertex 0.410599 0.095671 0.1
       vertex 0.410599 0.095671 0
    endloop
  endfacet
  facet normal 0.831476 0.555561 0
    outer loop
       vertex 0.396135 0.125 0
       vertex 0.377967 0.152191 0
       vertex 0.377967 0.152191 0.1
    endloop
  endfacet
  facet normal 0.831476 0.555561 0
    outer loop
       vertex 0.377967 0.152191 0.1
       vertex 0.396135 0.125 0.1
       vertex 0.396135 0.125 0
    endloop
  endfacet
  facet normal 0.751817 0.659372 0
    outer loop
       vertex 0.377967 0.152191 0
       vertex 0.356405 0.176776 0
       vertex 0.356405 0.176776 0.1
    endloop
  endfacet
  facet normal 0.751817 0.659372 0
    outer loop
       vertex 0.356405 0.176776 0.1
       vertex 0.377967 0.152191 0.1
       vertex 0.377967 0.152191 0
    endloop
  endfacet
  facet normal 0.659372 0.751817 0
    outer loop
       vertex 0.356405 0.176776 0
       vertex 0.33182 0.198338 0
       vertex 0.33182 0.198338 0.1
    endloop
  endfacet
  facet normal 0.659372 0.751817 0
    outer loop
       vertex 0.33182 0.198338 0.1
       vertex 0.356405 0.176776 0.1
       vertex 0.356405 0.176776 0
    endloop
  endfacet
  facet normal 0.555561 0.831476 0
    outer loop
       vertex 0.33182 0.198338 0
       vertex 0.304629 0.216506 0
       vertex 0.304629 0.216506 0.1
    endloop
  endfacet
  facet normal 0.555561 0.831476 0
    outer loop
       vertex 0.304629 0.216506 0.1
       vertex 0.33182 0.198338 0.1
       vertex 0.33182 0.198338 0
    endloop
  endfacet
  facet normal 0.442302 0.896866 0
    outer loop
       vertex 0.304629 0.216506 0
       vertex 0.2753 0.23097 0
       vertex 0.2753 0.23097 0.1
    endloop
  endfacet
  facet normal 0.442302 0.896866 0
    outer loop
       vertex 0.2753 0.23097 0.1
       vertex 0.304629 0.216506 0.1
       vertex 0.304629 0.216506 0
    endloop
  endfacet
  facet normal 0.321425 0.946935 0
    outer loop
       vertex 0.2753 0.23097 0
       vertex 0.244334 0.241481 0
       vertex 0.244334 0.241481 0.1
    endloop
  endfacet
  facet normal 0.321425 0.946935 0
    outer loop
       vertex 0.244334 0.241481 0.1
       vertex 0.2753 0.23097 0.1
       vertex 0.2753 0.23097 0
    endloop
  endfacet
  facet normal 0.195096 0.980784 0
    outer loop
       vertex 0.244334 0.241481 0
       vertex 0.212261 0.247861 0
       vertex 0.212261 0.247861 0.1
    endloop
  endfacet
  facet normal 0.195096 0.980784 0
    outer loop
       vertex 0.212261 0.247861 0.1
       vertex 0.244334 0.241481 0.1
       vertex 0.244334 0.241481 0
    endloop
  endfacet
  facet normal 0.0654098 0.997858 0
    outer loop
       vertex 0.179629 0.25 0.1
       vertex 0.212261 0.247861 0.1
       vertex 0.212261 0.247861 0
    endloop
  endfacet
  facet normal 0.0654098 0.997858 -1.0893e-16
    outer loop
       vertex 0.212261 0.247861 0
       vertex 0.179629 0.25 0
       vertex 0.179629 0.25 0.1
    endloop
  endfacet
  facet normal -0.0654098 0.997858 0
    outer loop
       vertex 0.179629 0.25 0
       vertex 0.146998 0.247861 0
       vertex 0.146998 0.247861 0.1
    endloop
  endfacet
  facet normal -0.0654098 0.997858 1.0893e-16
    outer loop
       vertex 0.146998 0.247861 0.1
       vertex 0.179629 0.25 0.1
       vertex 0.179629 0.25 0
    endloop
  endfacet
  facet normal -0.195096 0.980784 0
    outer loop
       vertex 0.146998 0.247861 0
       vertex 0.114924 0.241481 0
       vertex 0.114924 0.241481 0.1
    endloop
  endfacet
  facet normal -0.195096 0.980784 0
    outer loop
       vertex 0.114924 0.241481 0.1
       vertex 0.146998 0.247861 0.1
       vertex 0.146998 0.247861 0
    endloop
  endfacet
  facet normal -0.321425 0.946935 0
    outer loop
       vertex 0.114924 0.241481 0
       vertex 0.0839583 0.23097 0
       vertex 0.0839583 0.23097 0.1
    endloop
  endfacet
  facet normal -0.321425 0.946935 0
    outer loop
       vertex 0.0839583 0.23097 0.1
       vertex 0.114924 0.241481 0.1
       vertex 0.114924 0.241481 0
    endloop
  endfacet
  facet normal -0.442302 0.896866 0
    outer loop
       vertex 0.0839583 0.23097 0
       vertex 0.0546293 0.216506 0
       vertex 0.0546293 0.216506 0.1
    endloop
  endfacet
  facet normal -0.442302 0.896866 0
    outer loop
       vertex 0.0546293 0.216506 0.1
       vertex 0.0839583 0.23097 0.1
       vertex 0.0839583 0.23097 0
    endloop
  endfacet
  facet normal -0.555561 0.831476 0
    outer loop
       vertex 0.0546293 0.216506 0
       vertex 0.0274383 0.198338 0
       vertex 0.0274383 0.198338 0.1
    endloop
  endfacet
  facet normal -0.555561 0.831476 0
    outer loop
       vertex 0.0274383 0.198338 0.1
       vertex 0.0546293 0.216506 0.1
       vertex 0.0546293 0.216506 0
    endloop
  endfacet
  facet normal -0.659372 0.751817 0
    outer loop
       vertex 0.0274383 0.198338 0
       vertex 0.00285329 0.176776 0
       vertex 0.00285329 0.176776 0.1
    endloop
  endfacet
  facet normal -0.659372 0.751817 0
    outer loop
       vertex 0.00285329 0.176776 0.1
       vertex 0.0274383 0.198338 0.1
       vertex 0.0274383 0.198338 0
    endloop
  endfacet
  facet normal -0.751817 0.659372 0
    outer loop
       vertex 0.00285329 0.176776 0
       vertex -0.0187087 0.152191 0
       vertex -0.0187087 0.152191 0.1
    endloop
  endfacet
  facet normal -0.751817 0.659372 0
    outer loop
       vertex -0.0187087 0.152191 0.1
       vertex 0.00285329 0.176776 0.1
       vertex 0.00285329 0.176776 0
    endloop
  endfacet
  facet normal -0.831476 0.555561 0
    outer loop
       vertex -0.0187087 0.152191 0
       vertex -0.0368767 0.125 0
       vertex -0.0368767 0.125 0.1
    endloop
  endfacet
  facet normal -0.831476 0.555561 0
    outer loop
       vertex -0.0368767 0.125 0.1
       vertex -0.0187087 0.152191 0.1
       vertex -0.0187087 0.152191 0
    endloop
  endfacet
  facet normal -0.896866 0.442302 0
    outer loop
       vertex -0.0368767 0.125 0
       vertex -0.0513407 0.095671 0
       vertex -0.0513407 0.095671 0.1
    endloop
  endfacet
  facet normal -0.896866 0.442302 0
    outer loop
       vertex -0.0513407 0.095671 0.1
       vertex -0.0368767 0.125 0.1
       vertex -0.0368767 0.125 0
    endloop
  endfacet
  facet normal -0.946935 0.321425 0
    outer loop
       vertex -0.0513407 0.095671 0
       vertex -0.0618517 0.064705 0
       vertex -0.0618517 0.064705 0.1
    endloop
  endfacet
  facet normal -0.946935 0.321425 0
    outer loop
       vertex -0.0618517 0.064705 0.1
       vertex -0.0513407 0.095671 0.1
       vertex -0.0513407 0.095671 0
    endloop
  endfacet
  facet normal -0.980784 0.195096 0
    outer loop
       vertex -0.0618517 0.064705 0
       vertex -0.0682317 0.0326315 0
       vertex -0.0682317 0.0326315 0.1
    endloop
  endfacet
  facet normal -0.980784 0.195096 0
    outer loop
       vertex -0.0682317 0.0326315 0.1
       vertex -0.0618517 0.064705 0.1
       vertex -0.0618517 0.064705 0
    endloop
  endfacet
  facet normal -0.997858 0.0654098 0
    outer loop
       vertex -0.0703707 8.32665e-17 0.1
       vertex -0.0682317 0.0326315 0.1
       vertex -0.0682317 0.0326315 0
    endloop
  endfacet
  facet normal -0.997858 0.0654098 -1.08928e-16
    outer loop
       vertex -0.0682317 0.0326315 0
       vertex -0.0703707 -8.32665e-17 0
       vertex -0.0703707 8.32665e-17 0.1
    endloop
  endfacet
  facet normal -0.997858 -0.0654098 0
    outer loop
       vertex -0.0703707 -8.32665e-17 0
       vertex -0.0682317 -0.0326315 0
       vertex -0.0682317 -0.0326315 0.1
    endloop
  endfacet
  facet normal -0.997858 -0.0654098 1.08928e-16
    outer loop
       vertex -0.0682317 -0.0326315 0.1
       vertex -0.0703707 8.32665e-17 0.1
       vertex -0.0703707 -8.32665e-17 0
    endloop
  endfacet
  facet normal -0.980784 -0.195096 0
    outer loop
       vertex -0.0682317 -0.0326315 0
       vertex -0.0618517 -0.064705 0
       vertex -0.0618517 -0.064705 0.1
    endloop
  endfacet
  facet normal -0.980784 -0.195096 0
    outer loop
       vertex -0.0618517 -0.064705 0.1
       vertex -0.0682317 -0.0326315 0.1
       vertex -0.0682317 -0.0326315 0
    endloop
  endfacet
  facet normal -0.946935 -0.321425 0
    outer loop
       vertex -0.0618517 -0.064705 0
       vertex -0.0513407 -0.095671 0
       vertex -0.0513407 -0.095671 0.1
    endloop
  endfacet
  facet normal -0.946935 -0.321425 0
    outer loop
       vertex -0.0513407 -0.095671 0.1
       vertex -0.0618517 -0.064705 0.1
       vertex -0.0618517 -0.064705 0
    endloop
  endfacet
  facet normal -0.896866 -0.442302 0
    outer loop
       vertex -0.0513407 -0.095671 0
       vertex -0.0368767 -0.125 0
       vertex -0.0368767 -0.125 0.1
    endloop
  endfacet
  facet normal -0.896866 -0.442302 0
    outer loop
       vertex -0.0368767 -0.125 0.1
       vertex -0.0513407 -0.095671 0.1
       vertex -0.0513407 -0.095671 0
    endloop
  endfacet
  facet normal -0.831476 -0.555561 0
    outer loop
       vertex -0.0368767 -0.125 0
       vertex -0.0187087 -0.152191 0
       vertex -0.0187087 -0.152191 0.1
    endloop
  endfacet
  facet normal -0.831476 -0.555561 0
    outer loop
       vertex -0.0187087 -0.152191 0.1
       vertex -0.0368767 -0.125 0.1
       vertex -0.0368767 -0.125 0
    endloop
  endfacet
  facet normal -0.751817 -0.659372 0
    outer loop
       vertex -0.0187087 -0.152191 0
       vertex 0.00285329 -0.176776 0
       vertex 0.00285329 -0.176776 0.1
    endloop
  endfacet
  facet normal -0.751817 -0.659372 0
    outer loop
       vertex 0.00285329 -0.176776 0.1
       vertex -0.0187087 -0.152191 0.1
       vertex -0.0187087 -0.152191 0
    endloop
  endfacet
  facet normal 0.659372 -0.751817 0
    outer loop
       vertex 0.356405 -0.176776 0
       vertex 0.356405 -0.176776 0.1
       vertex 0.33182 -0.198338 0.1
    endloop
  endfacet
  facet normal 0.659372 -0.751817 0
    outer loop
       vertex 0.33182 -0.198338 0.1
       vertex 0.33182 -0.198338 0
       vertex 0.356405 -0.176776 0
    endloop
  endfacet
  facet normal 0.555561 -0.831476 0
    outer loop
       vertex 0.33182 -0.198338 0
       vertex 0.33182 -0.198338 0.1
       vertex 0.304629 -0.216506 0.1
    endloop
  endfacet
  facet normal 0.555561 -0.831476 0
    outer loop
       vertex 0.304629 -0.216506 0.1
       vertex 0.304629 -0.216506 0
       vertex 0.33182 -0.198338 0
    endloop
  endfacet
  facet normal 0.442302 -0.896866 0
    outer loop
       vertex 0.304629 -0.216506 0
       vertex 0.304629 -0.216506 0.1
       vertex 0.2753 -0.23097 0.1
    endloop
  endfacet
  facet normal 0.442302 -0.896866 0
    outer loop
       vertex 0.2753 -0.23097 0.1
       vertex 0.2753 -0.23097 0
       vertex 0.304629 -0.216506 0
    endloop
  endfacet
  facet normal 0.321425 -0.946935 0
    outer loop
       vertex 0.2753 -0.23097 0
       vertex 0.2753 -0.23097 0.1
       vertex 0.244334 -0.241481 0.1
    endloop
  endfacet
  facet normal 0.321425 -0.946935 0
    outer loop
       vertex 0.244334 -0.241481 0.1
       vertex 0.244334 -0.241481 0
       vertex 0.2753 -0.23097 0
    endloop
  endfacet
  facet normal 0.195096 -0.980784 0
    outer loop
       vertex 0.244334 -0.241481 0
       vertex 0.244334 -0.241481 0.1
       vertex 0.212261 -0.247861 0.1
    endloop
  endfacet
  facet normal 0.195096 -0.980784 0
    outer loop
       vertex 0.212261 -0.247861 0.1
       vertex 0.212261 -0.247861 0
       vertex 0.244334 -0.241481 0
    endloop
  endfacet
  facet normal 0.0654098 -0.997858 0
    outer loop
       vertex 0.179629 -0.25 0
       vertex 0.212261 -0.247861 0
       vertex 0.212261 -0.247861 0.1
    endloop
  endfacet
  facet normal 0.0654098 -0.997858 1.0893e-16
    outer loop
       vertex 0.212261 -0.247861 0.1
       vertex 0.179629 -0.25 0.1
       vertex 0.179629 -0.25 0
    endloop
  endfacet
  facet normal -0.0654098 -0.997858 0
    outer loop
       vertex 0.179629 -0.25 0.1
       vertex 0.146998 -0.247861 0.1
       vertex 0.146998 -0.247861 0
    endloop
  endfacet
  facet normal -0.0654098 -0.997858 -1.0893e-16
    outer loop
       vertex 0.146998 -0.247861 0
       vertex 0.179629 -0.25 0
       vertex 0.179629 -0.25 0.1
    endloop
  endfacet
  facet normal -0.195096 -0.980784 0
    outer loop
       vertex 0.146998 -0.247861 0
       vertex 0.146998 -0.247861 0.1
       vertex 0.114924 -0.241481 0.1
    endloop
  endfacet
  facet normal -0.195096 -0.980784 -0
    outer loop
       vertex 0.114924 -0.241481 0.1
       vertex 0.114924 -0.241481 0
       vertex 0.146998 -0.247861 0
    endloop
  endfacet
  facet normal -0.321425 -0.946935 0
    outer loop
       vertex 0.114924 -0.241481 0
       vertex 0.114924 -0.241481 0.1
       vertex 0.0839583 -0.23097 0.1
    endloop
  endfacet
  facet normal -0.321425 -0.946935 -0
    outer loop
       vertex 0.0839583 -0.23097 0.1
       vertex 0.0839583 -0.23097 0
       vertex 0.114924 -0.241481 0
    endloop
  endfacet
  facet normal -0.442302 -0.896866 0
    outer loop
       vertex 0.0839583 -0.23097 0
       vertex 0.0839583 -0.23097 0.1
       vertex 0.0546293 -0.216506 0.1
    endloop
  endfacet
  facet normal -0.442302 -0.896866 -0
    outer loop
       vertex 0.0546293 -0.216506 0.1
       vertex 0.0546293 -0.216506 0
       vertex 0.0839583 -0.23097 0
    endloop
  endfacet
  facet normal -0.555561 -0.831476 0
    outer loop
       vertex 0.0546293 -0.216506 0
       vertex 0.0546293 -0.216506 0.1
       vertex 0.0274383 -0.198338 0.1
    endloop
  endfacet
  facet normal -0.555561 -0.831476 -0
    outer loop
       vertex 0.0274383 -0.198338 0.1
       vertex 0.0274383 -0.198338 0
       vertex 0.0546293 -0.216506 0
    endloop
  endfacet
  facet normal -0.659372 -0.751817 0
    outer loop
       vertex 0.0274383 -0.198338 0
       vertex 0.0274383 -0.198338 0.1
       vertex 0.00285329 -0.176776 0.1
    endloop
  endfacet
  facet normal -0.659372 -0.751817 -0
    outer loop
       vertex 0.00285329 -0.176776 0.1
       vertex 0.00285329 -0.176776 0
       vertex 0.0274383 -0.198338 0
    endloop
  endfacet
endsolid cylinder
