solid cylinder
  facet normal 0.751817 -0.659372 0
    outer loop
       vertex 0.435276 -0.176776 0
       vertex 0.456838 -0.152191 0
       vertex 0.456838 -0.152191 0.1
    endloop
  endfacet
  facet normal 0.751817 -0.659372 0
    outer loop
       vertex 0.456838 -0.152191 0.1
       vertex 0.435276 -0.176776 0.1
       vertex 0.435276 -0.176776 0
    endloop
  endfacet
  facet normal 0.831476 -0.555561 0
    outer loop
       vertex 0.456838 -0.152191 0
       vertex 0.475006 -0.125 0
       vertex 0.475006 -0.125 0.1
    endloop
  endfacet
  facet normal 0.831476 -0.555561 0
    outer loop
       vertex 0.475006 -0.125 0.1
       vertex 0.456838 -0.152191 0.1
       vertex 0.456838 -0.152191 0
    endloop
  endfacet
  facet normal 0.896866 -0.442302 0
    outer loop
       vertex 0.475006 -0.125 0
       vertex 0.48947 -0.095671 0
       vertex 0.48947 -0.095671 0.1
    endloop
  endfacet
  facet normal 0.896866 -0.442302 0
    outer loop
       vertex 0.48947 -0.095671 0.1
       vertex 0.475006 -0.125 0.1
       vertex 0.475006 -0.125 0
    endloop
  endfacet
  facet normal 0.946935 -0.321425 0
    outer loop
       vertex 0.48947 -0.095671 0
       vertex 0.499981 -0.064705 0
       vertex 0.499981 -0.064705 0.1
    endloop
  endfacet
  facet normal 0.946935 -0.321425 0
    outer loop
       vertex 0.499981 -0.064705 0.1
       vertex 0.48947 -0.095671 0.1
       vertex 0.48947 -0.095671 0
    endloop
  endfacet
  facet normal 0.980784 -0.195096 0
    outer loop
       vertex 0.499981 -0.064705 0
       vertex 0.506361 -0.0326315 0
       vertex 0.506361 -0.0326315 0.1
    endloop
  endfacet
  facet normal 0.980784 -0.195096 0
    outer loop
       vertex 0.506361 -0.0326315 0.1
       vertex 0.499981 -0.064705 0.1
       vertex 0.499981 -0.064705 0
    endloop
  endfacet
  facet normal 0.997858 -0.0654098 0
    outer loop
       vertex 0.5085 -8.32665e-17 0.1
       vertex 0.506361 -0.0326315 0.1
       vertex 0.506361 -0.0326315 0
    endloop
  endfacet
  facet normal 0.997858 -0.0654098 -1.08928e-16
    outer loop
       vertex 0.506361 -0.0326315 0
       vertex 0.5085 8.32665e-17 0
       vertex 0.5085 -8.32665e-17 0.1
    endloop
  endfacet
  facet normal 0.997858 0.0654098 0
    outer loop
       vertex 0.5085 8.32665e-17 0
       vertex 0.506361 0.0326315 0
       vertex 0.506361 0.0326315 0.1
    endloop
  endfacet
  facet normal 0.997858 0.0654098 1.08928e-16
    outer loop
       vertex 0.506361 0.0326315 0.1
       vertex 0.5085 -8.32665e-17 0.1
       vertex 0.5085 8.32665e-17 0
    endloop
  endfacet
  facet normal 0.980784 0.195096 0
    outer loop
       vertex 0.506361 0.0326315 0
       vertex 0.499981 0.064705 0
       vertex 0.499981 0.064705 0.1
    endloop
  endfacet
  facet normal 0.980784 0.195096 0
    outer loop
       vertex 0.499981 0.064705 0.1
       vertex 0.506361 0.0326315 0.1
       vertex 0.506361 0.0326315 0
    endloop
  endfacet
  facet normal 0.946935 0.321425 0
    outer loop
       vertex 0.499981 0.064705 0
       vertex 0.48947 0.095671 0
       vertex 0.48947 0.095671 0.1
    endloop
  endfacet
  facet normal 0.946935 0.321425 0
    outer loop
       vertex 0.48947 0.095671 0.1
       vertex 0.499981 0.064705 0.1
       vertex 0.499981 0.064705 0
    endloop
  endfacet
  facet normal 0.896866 0.442302 0
    outer loop
       vertex 0.48947 0.095671 0
       vertex 0.475006 0.125 0
       vertex 0.475006 0.125 0.1
    endloop
  endfacet
  facet normal 0.896866 0.442302 0
    outer loop
       vertex 0.475006 0.125 0.1
       vertex 0.48947 0.095671 0.1
       vertex 0.48947 0.095671 0
    endloop
  endfacet
  facet normal 0.831476 0.555561 0
    outer loop
       vertex 0.475006 0.125 0
       vertex 0.456838 0.152191 0
       vertex 0.456838 0.152191 0.1
    endloop
  endfacet
  facet normal 0.831476 0.555561 0
    outer loop
       vertex 0.456838 0.152191 0.1
       vertex 0.475006 0.125 0.1
       vertex 0.475006 0.125 0
    endloop
  endfacet
  facet normal 0.751817 0.659372 0
    outer loop
       vertex 0.456838 0.152191 0
       vertex 0.435276 0.176776 0
       vertex 0.435276 0.176776 0.1
    endloop
  endfacet
  facet normal 0.751817 0.659372 0
    outer loop
       vertex 0.435276 0.176776 0.1
       vertex 0.456838 0.152191 0.1
       vertex 0.456838 0.152191 0
    endloop
  endfacet
  facet normal 0.659372 0.751817 0
    outer loop
       vertex 0.435276 0.176776 0
       vertex 0.410691 0.198338 0
       vertex 0.410691 0.198338 0.1
    endloop
  endfacet
  facet normal 0.659372 0.751817 0
    outer loop
       vertex 0.410691 0.198338 0.1
       vertex 0.435276 0.176776 0.1
       vertex 0.435276 0.176776 0
    endloop
  endfacet
  facet normal 0.555561 0.831476 0
    outer loop
       vertex 0.410691 0.198338 0
       vertex 0.3835 0.216506 0
       vertex 0.3835 0.216506 0.1
    endloop
  endfacet
  facet normal 0.555561 0.831476 0
    outer loop
       vertex 0.3835 0.216506 0.1
       vertex 0.410691 0.198338 0.1
       vertex 0.410691 0.198338 0
    endloop
  endfacet
  facet normal 0.442302 0.896866 0
    outer loop
       vertex 0.3835 0.216506 0
       vertex 0.354171 0.23097 0
       vertex 0.354171 0.23097 0.1
    endloop
  endfacet
  facet normal 0.442302 0.896866 0
    outer loop
       vertex 0.354171 0.23097 0.1
       vertex 0.3835 0.216506 0.1
       vertex 0.3835 0.216506 0
    endloop
  endfacet
  facet normal 0.321425 0.946935 0
    outer loop
       vertex 0.354171 0.23097 0
       vertex 0.323205 0.241481 0
       vertex 0.323205 0.241481 0.1
    endloop
  endfacet
  facet normal 0.321425 0.946935 0
    outer loop
       vertex 0.323205 0.241481 0.1
       vertex 0.354171 0.23097 0.1
       vertex 0.354171 0.23097 0
    endloop
  endfacet
  facet normal 0.195096 0.980784 0
    outer loop
       vertex 0.323205 0.241481 0
       vertex 0.291132 0.247861 0
       vertex 0.291132 0.247861 0.1
    endloop
  endfacet
  facet normal 0.195096 0.980784 0
    outer loop
       vertex 0.291132 0.247861 0.1
       vertex 0.323205 0.241481 0.1
       vertex 0.323205 0.241481 0
    endloop
  endfacet
  facet normal 0.0654098 0.997858 0
    outer loop
       vertex 0.2585 0.25 0.1
       vertex 0.291132 0.247861 0.1
       vertex 0.291132 0.247861 0
    endloop
  endfacet
  facet normal 0.0654098 0.997858 -1.45239e-16
    outer loop
       vertex 0.291132 0.247861 0
       vertex 0.2585 0.25 0
       vertex 0.2585 0.25 0.1
    endloop
  endfacet
  facet normal -0.0654098 0.997858 0
    outer loop
       vertex 0.2585 0.25 0
       vertex 0.225869 0.247861 0
       vertex 0.225869 0.247861 0.1
    endloop
  endfacet
  facet normal -0.0654098 0.997858 1.45239e-16
    outer loop
       vertex 0.225869 0.247861 0.1
       vertex 0.2585 0.25 0.1
       vertex 0.2585 0.25 0
    endloop
  endfacet
  facet normal -0.195096 0.980784 0
    outer loop
       vertex 0.225869 0.247861 0
       vertex 0.193795 0.241481 0
       vertex 0.193795 0.241481 0.1
    endloop
  endfacet
  facet normal -0.195096 0.980784 0
    outer loop
       vertex 0.193795 0.241481 0.1
       vertex 0.225869 0.247861 0.1
       vertex 0.225869 0.247861 0
    endloop
  endfacet
  facet normal -0.321425 0.946935 0
    outer loop
       vertex 0.193795 0.241481 0
       vertex 0.162829 0.23097 0
       vertex 0.162829 0.23097 0.1
    endloop
  endfacet
  facet normal -0.321425 0.946935 0
    outer loop
       vertex 0.162829 0.23097 0.1
       vertex 0.193795 0.241481 0.1
       vertex 0.193795 0.241481 0
    endloop
  endfacet
  facet normal -0.442302 0.896866 0
    outer loop
       vertex 0.162829 0.23097 0
       vertex 0.1335 0.216506 0
       vertex 0.1335 0.216506 0.1
    endloop
  endfacet
  facet normal -0.442302 0.896866 0
    outer loop
       vertex 0.1335 0.216506 0.1
       vertex 0.162829 0.23097 0.1
       vertex 0.162829 0.23097 0
    endloop
  endfacet
  facet normal -0.555561 0.831476 0
    outer loop
       vertex 0.1335 0.216506 0
       vertex 0.106309 0.198338 0
       vertex 0.106309 0.198338 0.1
    endloop
  endfacet
  facet normal -0.555561 0.831476 0
    outer loop
       vertex 0.106309 0.198338 0.1
       vertex 0.1335 0.216506 0.1
       vertex 0.1335 0.216506 0
    endloop
  endfacet
  facet normal -0.659372 0.751817 0
    outer loop
       vertex 0.106309 0.198338 0
       vertex 0.0817242 0.176776 0
       vertex 0.0817242 0.176776 0.1
    endloop
  endfacet
  facet normal -0.659372 0.751817 0
    outer loop
       vertex 0.0817242 0.176776 0.1
       vertex 0.106309 0.198338 0.1
       vertex 0.106309 0.198338 0
    endloop
  endfacet
  facet normal -0.751817 0.659372 0
    outer loop
       vertex 0.0817242 0.176776 0
       vertex 0.0601622 0.152191 0
       vertex 0.0601622 0.152191 0.1
    endloop
  endfacet
  facet normal -0.751817 0.659372 0
    outer loop
       vertex 0.0601622 0.152191 0.1
       vertex 0.0817242 0.176776 0.1
       vertex 0.0817242 0.176776 0
    endloop
  endfacet
  facet normal -0.831476 0.555561 0
    outer loop
       vertex 0.0601622 0.152191 0
       vertex 0.0419942 0.125 0
       vertex 0.0419942 0.125 0.1
    endloop
  endfacet
  facet normal -0.831476 0.555561 0
    outer loop
       vertex 0.0419942 0.125 0.1
       vertex 0.0601622 0.152191 0.1
       vertex 0.0601622 0.152191 0
    endloop
  endfacet
  facet normal -0.896866 0.442302 0
    outer loop
       vertex 0.0419942 0.125 0
       vertex 0.0275302 0.095671 0
       vertex 0.0275302 0.095671 0.1
    endloop
  endfacet
  facet normal -0.896866 0.442302 0
    outer loop
       vertex 0.0275302 0.095671 0.1
       vertex 0.0419942 0.125 0.1
       vertex 0.0419942 0.125 0
    endloop
  endfacet
  facet normal -0.946935 0.321425 0
    outer loop
       vertex 0.0275302 0.095671 0
       vertex 0.0170192 0.064705 0
       vertex 0.0170192 0.064705 0.1
    endloop
  endfacet
  facet normal -0.946935 0.321425 0
    outer loop
       vertex 0.0170192 0.064705 0.1
       vertex 0.0275302 0.095671 0.1
       vertex 0.0275302 0.095671 0
    endloop
  endfacet
  facet normal -0.980784 0.195096 0
    outer loop
       vertex 0.0170192 0.064705 0
       vertex 0.0106392 0.0326315 0
       vertex 0.0106392 0.0326315 0.1
    endloop
  endfacet
  facet normal -0.980784 0.195096 0
    outer loop
       vertex 0.0106392 0.0326315 0.1
       vertex 0.0170192 0.064705 0.1
       vertex 0.0170192 0.064705 0
    endloop
  endfacet
  facet normal -0.997858 0.0654098 0
    outer loop
       vertex 0.00850018 8.32665e-17 0.1
       vertex 0.0106392 0.0326315 0.1
       vertex 0.0106392 0.0326315 0
    endloop
  endfacet
  facet normal -0.997858 0.0654098 -1.08928e-16
    outer loop
       vertex 0.0106392 0.0326315 0
       vertex 0.00850018 -8.32665e-17 0
       vertex 0.00850018 8.32665e-17 0.1
    endloop
  endfacet
  facet normal -0.997858 -0.0654098 0
    outer loop
       vertex 0.00850018 -8.32665e-17 0
       vertex 0.0106392 -0.0326315 0
       vertex 0.0106392 -0.0326315 0.1
    endloop
  endfacet
  facet normal -0.997858 -0.0654098 1.08928e-16
    outer loop
       vertex 0.0106392 -0.0326315 0.1
       vertex 0.00850018 8.32665e-17 0.1
       vertex 0.00850018 -8.32665e-17 0
    endloop
  endfacet
  facet normal -0.980784 -0.195096 0
    outer loop
       vertex 0.0106392 -0.0326315 0
       vertex 0.0170192 -0.064705 0
       vertex 0.0170192 -0.064705 0.1
    endloop
  endfacet
  facet normal -0.980784 -0.195096 0
    outer loop
       vertex 0.0170192 -0.064705 0.1
       vertex 0.0106392 -0.0326315 0.1
       vertex 0.0106392 -0.0326315 0
    endloop
  endfacet
  facet normal -0.946935 -0.321425 0
    outer loop
       vertex 0.0170192 -0.064705 0
       vertex 0.0275302 -0.095671 0
       vertex 0.0275302 -0.095671 0.1
    endloop
  endfacet
  facet normal -0.946935 -0.321425 0
    outer loop
       vertex 0.0275302 -0.095671 0.1
       vertex 0.0170192 -0.064705 0.1
       vertex 0.0170192 -0.064705 0
    endloop
  endfacet
  facet normal -0.896866 -0.442302 0
    outer loop
       vertex 0.0275302 -0.095671 0
       vertex 0.0419942 -0.125 0
       vertex 0.0419942 -0.125 0.1
    endloop
  endfacet
  facet normal -0.896866 -0.442302 0
    outer loop
       vertex 0.0419942 -0.125 0.1
       vertex 0.0275302 -0.095671 0.1
       vertex 0.0275302 -0.095671 0
    endloop
  endfacet
  facet normal -0.831476 -0.555561 0
    outer loop
       vertex 0.0419942 -0.125 0
       vertex 0.0601622 -0.152191 0
       vertex 0.0601622 -0.152191 0.1
    endloop
  endfacet
  facet normal -0.831476 -0.555561 0
    outer loop
       vertex 0.0601622 -0.152191 0.1
       vertex 0.0419942 -0.125 0.1
       vertex 0.0419942 -0.125 0
    endloop
  endfacet
  facet normal -0.751817 -0.659372 0
    outer loop
       vertex 0.0601622 -0.152191 0
       vertex 0.0817242 -0.176776 0
       vertex 0.0817242 -0.176776 0.1
    endloop
  endfacet
  facet normal -0.751817 -0.659372 0
    outer loop
       vertex 0.0817242 -0.176776 0.1
       vertex 0.0601622 -0.152191 0.1
       vertex 0.0601622 -0.152191 0
    endloop
  endfacet
  facet normal 0.659372 -0.751817 0
    outer loop
       vertex 0.435276 -0.176776 0
       vertex 0.435276 -0.176776 0.1
       vertex 0.410691 -0.198338 0.1
    endloop
  endfacet
  facet normal 0.659372 -0.751817 0
    outer loop
       vertex 0.410691 -0.198338 0.1
       vertex 0.410691 -0.198338 0
       vertex 0.435276 -0.176776 0
    endloop
  endfacet
  facet normal 0.555561 -0.831476 0
    outer loop
       vertex 0.410691 -0.198338 0
       vertex 0.410691 -0.198338 0.1
       vertex 0.3835 -0.216506 0.1
    endloop
  endfacet
  facet normal 0.555561 -0.831476 0
    outer loop
       vertex 0.3835 -0.216506 0.1
       vertex 0.3835 -0.216506 0
       vertex 0.410691 -0.198338 0
    endloop
  endfacet
  facet normal 0.442302 -0.896866 0
    outer loop
       vertex 0.3835 -0.216506 0
       vertex 0.3835 -0.216506 0.1
       vertex 0.354171 -0.23097 0.1
    endloop
  endfacet
  facet normal 0.442302 -0.896866 0
    outer loop
       vertex 0.354171 -0.23097 0.1
       vertex 0.354171 -0.23097 0
       vertex 0.3835 -0.216506 0
    endloop
  endfacet
  facet normal 0.321425 -0.946935 0
    outer loop
       vertex 0.354171 -0.23097 0
       vertex 0.354171 -0.23097 0.1
       vertex 0.323205 -0.241481 0.1
    endloop
  endfacet
  facet normal 0.321425 -0.946935 0
    outer loop
       vertex 0.323205 -0.241481 0.1
       vertex 0.323205 -0.241481 0
       vertex 0.354171 -0.23097 0
    endloop
  endfacet
  facet normal 0.195096 -0.980784 0
    outer loop
       vertex 0.323205 -0.241481 0
       vertex 0.323205 -0.241481 0.1
       vertex 0.291132 -0.247861 0.1
    endloop
  endfacet
  facet normal 0.195096 -0.980784 0
    outer loop
       vertex 0.291132 -0.247861 0.1
       vertex 0.291132 -0.247861 0
       vertex 0.323205 -0.241481 0
    endloop
  endfacet
  facet normal 0.0654098 -0.997858 0
    outer loop
       vertex 0.2585 -0.25 0
       vertex 0.291132 -0.247861 0
       vertex 0.291132 -0.247861 0.1
    endloop
  endfacet
  facet normal 0.0654098 -0.997858 1.45239e-16
    outer loop
       vertex 0.291132 -0.247861 0.1
       vertex 0.2585 -0.25 0.1
       vertex 0.2585 -0.25 0
    endloop
  endfacet
  facet normal -0.0654098 -0.997858 0
    outer loop
       vertex 0.2585 -0.25 0.1
       vertex 0.225869 -0.247861 0.1
       vertex 0.225869 -0.247861 0
    endloop
  endfacet
  facet normal -0.0654098 -0.997858 -1.45239e-16
    outer loop
       vertex 0.225869 -0.247861 0
       vertex 0.2585 -0.25 0
       vertex 0.2585 -0.25 0.1
    endloop
  endfacet
  facet normal -0.195096 -0.980784 0
    outer loop
       vertex 0.225869 -0.247861 0
       vertex 0.225869 -0.247861 0.1
       vertex 0.193795 -0.241481 0.1
    endloop
  endfacet
  facet normal -0.195096 -0.980784 -0
    outer loop
       vertex 0.193795 -0.241481 0.1
       vertex 0.193795 -0.241481 0
       vertex 0.225869 -0.247861 0
    endloop
  endfacet
  facet normal -0.321425 -0.946935 0
    outer loop
       vertex 0.193795 -0.241481 0
       vertex 0.193795 -0.241481 0.1
       vertex 0.162829 -0.23097 0.1
    endloop
  endfacet
  facet normal -0.321425 -0.946935 -0
    outer loop
       vertex 0.162829 -0.23097 0.1
       vertex 0.162829 -0.23097 0
       vertex 0.193795 -0.241481 0
    endloop
  endfacet
  facet normal -0.442302 -0.896866 0
    outer loop
       vertex 0.162829 -0.23097 0
       vertex 0.162829 -0.23097 0.1
       vertex 0.1335 -0.216506 0.1
    endloop
  endfacet
  facet normal -0.442302 -0.896866 -0
    outer loop
       vertex 0.1335 -0.216506 0.1
       vertex 0.1335 -0.216506 0
       vertex 0.162829 -0.23097 0
    endloop
  endfacet
  facet normal -0.555561 -0.831476 0
    outer loop
       vertex 0.1335 -0.216506 0
       vertex 0.1335 -0.216506 0.1
       vertex 0.106309 -0.198338 0.1
    endloop
  endfacet
  facet normal -0.555561 -0.831476 -0
    outer loop
       vertex 0.106309 -0.198338 0.1
       vertex 0.106309 -0.198338 0
       vertex 0.1335 -0.216506 0
    endloop
  endfacet
  facet normal -0.659372 -0.751817 0
    outer loop
       vertex 0.106309 -0.198338 0
       vertex 0.106309 -0.198338 0.1
       vertex 0.0817242 -0.176776 0.1
    endloop
  endfacet
  facet normal -0.659372 -0.751817 -0
    outer loop
       vertex 0.0817242 -0.176776 0.1
       vertex 0.0817242 -0.176776 0
       vertex 0.106309 -0.198338 0
    endloop
  endfacet
endsolid cylinder
