solid cylinder
  facet normal 0.751817 -0.659372 0
    outer loop
       vertex 0.456571 -0.176776 0
       vertex 0.478133 -0.152191 0
       vertex 0.478133 -0.152191 0.1
    endloop
  endfacet
  facet normal 0.751817 -0.659372 0
    outer loop
       vertex 0.478133 -0.152191 0.1
       vertex 0.456571 -0.176776 0.1
       vertex 0.456571 -0.176776 0
    endloop
  endfacet
  facet normal 0.831476 -0.555561 0
    outer loop
       vertex 0.478133 -0.152191 0
       vertex 0.496301 -0.125 0
       vertex 0.496301 -0.125 0.1
    endloop
  endfacet
  facet normal 0.831476 -0.555561 0
    outer loop
       vertex 0.496301 -0.125 0.1
       vertex 0.478133 -0.152191 0.1
       vertex 0.478133 -0.152191 0
    endloop
  endfacet
  facet normal 0.896866 -0.442302 0
    outer loop
       vertex 0.496301 -0.125 0
       vertex 0.510765 -0.095671 0
       vertex 0.510765 -0.095671 0.1
    endloop
  endfacet
  facet normal 0.896866 -0.442302 0
    outer loop
       vertex 0.510765 -0.095671 0.1
       vertex 0.496301 -0.125 0.1
       vertex 0.496301 -0.125 0
    endloop
  endfacet
  facet normal 0.946935 -0.321425 0
    outer loop
       vertex 0.510765 -0.095671 0
       vertex 0.521276 -0.064705 0
       vertex 0.521276 -0.064705 0.1
    endloop
  endfacet
  facet normal 0.946935 -0.321425 0
    outer loop
       vertex 0.521276 -0.064705 0.1
       vertex 0.510765 -0.095671 0.1
       vertex 0.510765 -0.095671 0
    endloop
  endfacet
  facet normal 0.980784 -0.195096 0
    outer loop
       vertex 0.521276 -0.064705 0
       vertex 0.527656 -0.0326315 0
       vertex 0.527656 -0.0326315 0.1
    endloop
  endfacet
  facet normal 0.980784 -0.195096 0
    outer loop
       vertex 0.527656 -0.0326315 0.1
       vertex 0.521276 -0.064705 0.1
       vertex 0.521276 -0.064705 0
    endloop
  endfacet
  facet normal 0.997858 -0.0654098 0
    outer loop
       vertex 0.529795 -8.32665e-17 0.1
       vertex 0.527656 -0.0326315 0.1
       vertex 0.527656 -0.0326315 0
    endloop
  endfacet
  facet normal 0.997858 -0.0654098 -1.0893e-16
    outer loop
       vertex 0.527656 -0.0326315 0
       vertex 0.529795 8.32665e-17 0
       vertex 0.529795 -8.32665e-17 0.1
    endloop
  endfacet
  facet normal 0.997858 0.0654098 0
    outer loop
       vertex 0.529795 8.32665e-17 0
       vertex 0.527656 0.0326315 0
       vertex 0.527656 0.0326315 0.1
    endloop
  endfacet
  facet normal 0.997858 0.0654098 1.0893e-16
    outer loop
       vertex 0.527656 0.0326315 0.1
       vertex 0.529795 -8.32665e-17 0.1
       vertex 0.529795 8.32665e-17 0
    endloop
  endfacet
  facet normal 0.980784 0.195096 0
    outer loop
       vertex 0.527656 0.0326315 0
       vertex 0.521276 0.064705 0
       vertex 0.521276 0.064705 0.1
    endloop
  endfacet
  facet normal 0.980784 0.195096 0
    outer loop
       vertex 0.521276 0.064705 0.1
       vertex 0.527656 0.0326315 0.1
       vertex 0.527656 0.0326315 0
    endloop
  endfacet
  facet normal 0.946935 0.321425 0
    outer loop
       vertex 0.521276 0.064705 0
       vertex 0.510765 0.095671 0
       vertex 0.510765 0.095671 0.1
    endloop
  endfacet
  facet normal 0.946935 0.321425 0
    outer loop
       vertex 0.510765 0.095671 0.1
       vertex 0.521276 0.064705 0.1
       vertex 0.521276 0.064705 0
    endloop
  endfacet
  facet normal 0.896866 0.442302 0
    outer loop
       vertex 0.510765 0.095671 0
       vertex 0.496301 0.125 0
       vertex 0.496301 0.125 0.1
    endloop
  endfacet
  facet normal 0.896866 0.442302 0
    outer loop
       vertex 0.496301 0.125 0.1
       vertex 0.510765 0.095671 0.1
       vertex 0.510765 0.095671 0
    endloop
  endfacet
  facet normal 0.831476 0.555561 0
    outer loop
       vertex 0.496301 0.125 0
       vertex 0.478133 0.152191 0
       vertex 0.478133 0.152191 0.1
    endloop
  endfacet
  facet normal 0.831476 0.555561 0
    outer loop
       vertex 0.478133 0.152191 0.1
       vertex 0.496301 0.125 0.1
       vertex 0.496301 0.125 0
    endloop
  endfacet
  facet normal 0.751817 0.659372 0
    outer loop
       vertex 0.478133 0.152191 0
       vertex 0.456571 0.176776 0
       vertex 0.456571 0.176776 0.1
    endloop
  endfacet
  facet normal 0.751817 0.659372 0
    outer loop
       vertex 0.456571 0.176776 0.1
       vertex 0.478133 0.152191 0.1
       vertex 0.478133 0.152191 0
    endloop
  endfacet
  facet normal 0.659372 0.751817 0
    outer loop
       vertex 0.456571 0.176776 0
       vertex 0.431986 0.198338 0
       vertex 0.431986 0.198338 0.1
    endloop
  endfacet
  facet normal 0.659372 0.751817 0
    outer loop
       vertex 0.431986 0.198338 0.1
       vertex 0.456571 0.176776 0.1
       vertex 0.456571 0.176776 0
    endloop
  endfacet
  facet normal 0.555561 0.831476 0
    outer loop
       vertex 0.431986 0.198338 0
       vertex 0.404795 0.216506 0
       vertex 0.404795 0.216506 0.1
    endloop
  endfacet
  facet normal 0.555561 0.831476 0
    outer loop
       vertex 0.404795 0.216506 0.1
       vertex 0.431986 0.198338 0.1
       vertex 0.431986 0.198338 0
    endloop
  endfacet
  facet normal 0.442302 0.896866 0
    outer loop
       vertex 0.404795 0.216506 0
       vertex 0.375466 0.23097 0
       vertex 0.375466 0.23097 0.1
    endloop
  endfacet
  facet normal 0.442302 0.896866 0
    outer loop
       vertex 0.375466 0.23097 0.1
       vertex 0.404795 0.216506 0.1
       vertex 0.404795 0.216506 0
    endloop
  endfacet
  facet normal 0.321425 0.946935 0
    outer loop
       vertex 0.375466 0.23097 0
       vertex 0.3445 0.241481 0
       vertex 0.3445 0.241481 0.1
    endloop
  endfacet
  facet normal 0.321425 0.946935 0
    outer loop
       vertex 0.3445 0.241481 0.1
       vertex 0.375466 0.23097 0.1
       vertex 0.375466 0.23097 0
    endloop
  endfacet
  facet normal 0.195096 0.980784 0
    outer loop
       vertex 0.3445 0.241481 0
       vertex 0.312426 0.247861 0
       vertex 0.312426 0.247861 0.1
    endloop
  endfacet
  facet normal 0.195096 0.980784 0
    outer loop
       vertex 0.312426 0.247861 0.1
       vertex 0.3445 0.241481 0.1
       vertex 0.3445 0.241481 0
    endloop
  endfacet
  facet normal 0.0654098 0.997858 0
    outer loop
       vertex 0.279795 0.25 0.1
       vertex 0.312426 0.247861 0.1
       vertex 0.312426 0.247861 0
    endloop
  endfacet
  facet normal 0.0654098 0.997858 -7.26205e-17
    outer loop
       vertex 0.312426 0.247861 0
       vertex 0.279795 0.25 0
       vertex 0.279795 0.25 0.1
    endloop
  endfacet
  facet normal -0.0654098 0.997858 0
    outer loop
       vertex 0.279795 0.25 0
       vertex 0.247163 0.247861 0
       vertex 0.247163 0.247861 0.1
    endloop
  endfacet
  facet normal -0.0654098 0.997858 7.26205e-17
    outer loop
       vertex 0.247163 0.247861 0.1
       vertex 0.279795 0.25 0.1
       vertex 0.279795 0.25 0
    endloop
  endfacet
  facet normal -0.195096 0.980784 0
    outer loop
       vertex 0.247163 0.247861 0
       vertex 0.21509 0.241481 0
       vertex 0.21509 0.241481 0.1
    endloop
  endfacet
  facet normal -0.195096 0.980784 0
    outer loop
       vertex 0.21509 0.241481 0.1
       vertex 0.247163 0.247861 0.1
       vertex 0.247163 0.247861 0
    endloop
  endfacet
  facet normal -0.321425 0.946935 0
    outer loop
       vertex 0.21509 0.241481 0
       vertex 0.184124 0.23097 0
       vertex 0.184124 0.23097 0.1
    endloop
  endfacet
  facet normal -0.321425 0.946935 0
    outer loop
       vertex 0.184124 0.23097 0.1
       vertex 0.21509 0.241481 0.1
       vertex 0.21509 0.241481 0
    endloop
  endfacet
  facet normal -0.442302 0.896866 0
    outer loop
       vertex 0.184124 0.23097 0
       vertex 0.154795 0.216506 0
       vertex 0.154795 0.216506 0.1
    endloop
  endfacet
  facet normal -0.442302 0.896866 0
    outer loop
       vertex 0.154795 0.216506 0.1
       vertex 0.184124 0.23097 0.1
       vertex 0.184124 0.23097 0
    endloop
  endfacet
  facet normal -0.555561 0.831476 0
    outer loop
       vertex 0.154795 0.216506 0
       vertex 0.127604 0.198338 0
       vertex 0.127604 0.198338 0.1
    endloop
  endfacet
  facet normal -0.555561 0.831476 0
    outer loop
       vertex 0.127604 0.198338 0.1
       vertex 0.154795 0.216506 0.1
       vertex 0.154795 0.216506 0
    endloop
  endfacet
  facet normal -0.659372 0.751817 0
    outer loop
       vertex 0.127604 0.198338 0
       vertex 0.103019 0.176776 0
       vertex 0.103019 0.176776 0.1
    endloop
  endfacet
  facet normal -0.659372 0.751817 0
    outer loop
       vertex 0.103019 0.176776 0.1
       vertex 0.127604 0.198338 0.1
       vertex 0.127604 0.198338 0
    endloop
  endfacet
  facet normal -0.751817 0.659372 0
    outer loop
       vertex 0.103019 0.176776 0
       vertex 0.0814569 0.152191 0
       vertex 0.0814569 0.152191 0.1
    endloop
  endfacet
  facet normal -0.751817 0.659372 0
    outer loop
       vertex 0.0814569 0.152191 0.1
       vertex 0.103019 0.176776 0.1
       vertex 0.103019 0.176776 0
    endloop
  endfacet
  facet normal -0.831476 0.555561 0
    outer loop
       vertex 0.0814569 0.152191 0
       vertex 0.0632889 0.125 0
       vertex 0.0632889 0.125 0.1
    endloop
  endfacet
  facet normal -0.831476 0.555561 0
    outer loop
       vertex 0.0632889 0.125 0.1
       vertex 0.0814569 0.152191 0.1
       vertex 0.0814569 0.152191 0
    endloop
  endfacet
  facet normal -0.896866 0.442302 0
    outer loop
       vertex 0.0632889 0.125 0
       vertex 0.0488249 0.095671 0
       vertex 0.0488249 0.095671 0.1
    endloop
  endfacet
  facet normal -0.896866 0.442302 0
    outer loop
       vertex 0.0488249 0.095671 0.1
       vertex 0.0632889 0.125 0.1
       vertex 0.0632889 0.125 0
    endloop
  endfacet
  facet normal -0.946935 0.321425 0
    outer loop
       vertex 0.0488249 0.095671 0
       vertex 0.0383139 0.064705 0
       vertex 0.0383139 0.064705 0.1
    endloop
  endfacet
  facet normal -0.946935 0.321425 0
    outer loop
       vertex 0.0383139 0.064705 0.1
       vertex 0.0488249 0.095671 0.1
       vertex 0.0488249 0.095671 0
    endloop
  endfacet
  facet normal -0.980784 0.195096 0
    outer loop
       vertex 0.0383139 0.064705 0
       vertex 0.0319339 0.0326315 0
       vertex 0.0319339 0.0326315 0.1
    endloop
  endfacet
  facet normal -0.980784 0.195096 0
    outer loop
       vertex 0.0319339 0.0326315 0.1
       vertex 0.0383139 0.064705 0.1
       vertex 0.0383139 0.064705 0
    endloop
  endfacet
  facet normal -0.997858 0.0654098 0
    outer loop
       vertex 0.0297949 8.32665e-17 0.1
       vertex 0.0319339 0.0326315 0.1
       vertex 0.0319339 0.0326315 0
    endloop
  endfacet
  facet normal -0.997858 0.0654098 -1.08928e-16
    outer loop
       vertex 0.0319339 0.0326315 0
       vertex 0.0297949 -8.32665e-17 0
       vertex 0.0297949 8.32665e-17 0.1
    endloop
  endfacet
  facet normal -0.997858 -0.0654098 0
    outer loop
       vertex 0.0297949 -8.32665e-17 0
       vertex 0.0319339 -0.0326315 0
       vertex 0.0319339 -0.0326315 0.1
    endloop
  endfacet
  facet normal -0.997858 -0.0654098 1.08928e-16
    outer loop
       vertex 0.0319339 -0.0326315 0.1
       vertex 0.0297949 8.32665e-17 0.1
       vertex 0.0297949 -8.32665e-17 0
    endloop
  endfacet
  facet normal -0.980784 -0.195096 0
    outer loop
       vertex 0.0319339 -0.0326315 0
       vertex 0.0383139 -0.064705 0
       vertex 0.0383139 -0.064705 0.1
    endloop
  endfacet
  facet normal -0.980784 -0.195096 0
    outer loop
       vertex 0.0383139 -0.064705 0.1
       vertex 0.0319339 -0.0326315 0.1
       vertex 0.0319339 -0.0326315 0
    endloop
  endfacet
  facet normal -0.946935 -0.321425 0
    outer loop
       vertex 0.0383139 -0.064705 0
       vertex 0.0488249 -0.095671 0
       vertex 0.0488249 -0.095671 0.1
    endloop
  endfacet
  facet normal -0.946935 -0.321425 0
    outer loop
       vertex 0.0488249 -0.095671 0.1
       vertex 0.0383139 -0.064705 0.1
       vertex 0.0383139 -0.064705 0
    endloop
  endfacet
  facet normal -0.896866 -0.442302 0
    outer loop
       vertex 0.0488249 -0.095671 0
       vertex 0.0632889 -0.125 0
       vertex 0.0632889 -0.125 0.1
    endloop
  endfacet
  facet normal -0.896866 -0.442302 0
    outer loop
       vertex 0.0632889 -0.125 0.1
       vertex 0.0488249 -0.095671 0.1
       vertex 0.0488249 -0.095671 0
    endloop
  endfacet
  facet normal -0.831476 -0.555561 0
    outer loop
       vertex 0.0632889 -0.125 0
       vertex 0.0814569 -0.152191 0
       vertex 0.0814569 -0.152191 0.1
    endloop
  endfacet
  facet normal -0.831476 -0.555561 0
    outer loop
       vertex 0.0814569 -0.152191 0.1
       vertex 0.0632889 -0.125 0.1
       vertex 0.0632889 -0.125 0
    endloop
  endfacet
  facet normal -0.751817 -0.659372 0
    outer loop
       vertex 0.0814569 -0.152191 0
       vertex 0.103019 -0.176776 0
       vertex 0.103019 -0.176776 0.1
    endloop
  endfacet
  facet normal -0.751817 -0.659372 0
    outer loop
       vertex 0.103019 -0.176776 0.1
       vertex 0.0814569 -0.152191 0.1
       vertex 0.0814569 -0.152191 0
    endloop
  endfacet
  facet normal 0.659372 -0.751817 0
    outer loop
       vertex 0.456571 -0.176776 0
       vertex 0.456571 -0.176776 0.1
       vertex 0.431986 -0.198338 0.1
    endloop
  endfacet
  facet normal 0.659372 -0.751817 0
    outer loop
       vertex 0.431986 -0.198338 0.1
       vertex 0.431986 -0.198338 0
       vertex 0.456571 -0.176776 0
    endloop
  endfacet
  facet normal 0.555561 -0.831476 0
    outer loop
       vertex 0.431986 -0.198338 0
       vertex 0.431986 -0.198338 0.1
       vertex 0.404795 -0.216506 0.1
    endloop
  endfacet
  facet normal 0.555561 -0.831476 0
    outer loop
       vertex 0.404795 -0.216506 0.1
       vertex 0.404795 -0.216506 0
       vertex 0.431986 -0.198338 0
    endloop
  endfacet
  facet normal 0.442302 -0.896866 0
    outer loop
       vertex 0.404795 -0.216506 0
       vertex 0.404795 -0.216506 0.1
       vertex 0.375466 -0.23097 0.1
    endloop
  endfacet
  facet normal 0.442302 -0.896866 0
    outer loop
       vertex 0.375466 -0.23097 0.1
       vertex 0.375466 -0.23097 0
       vertex 0.404795 -0.216506 0
    endloop
  endfacet
  facet normal 0.321425 -0.946935 0
    outer loop
       vertex 0.375466 -0.23097 0
       vertex 0.375466 -0.23097 0.1
       vertex 0.3445 -0.241481 0.1
    endloop
  endfacet
  facet normal 0.321425 -0.946935 0
    outer loop
       vertex 0.3445 -0.241481 0.1
       vertex 0.3445 -0.241481 0
       vertex 0.375466 -0.23097 0
    endloop
  endfacet
  facet normal 0.195096 -0.980784 0
    outer loop
       vertex 0.3445 -0.241481 0
       vertex 0.3445 -0.241481 0.1
       vertex 0.312426 -0.247861 0.1
    endloop
  endfacet
  facet normal 0.195096 -0.980784 0
    outer loop
       vertex 0.312426 -0.247861 0.1
       vertex 0.312426 -0.247861 0
       vertex 0.3445 -0.241481 0
    endloop
  endfacet
  facet normal 0.0654098 -0.997858 0
    outer loop
       vertex 0.279795 -0.25 0
       vertex 0.312426 -0.247861 0
       vertex 0.312426 -0.247861 0.1
    endloop
  endfacet
  facet normal 0.0654098 -0.997858 7.26205e-17
    outer loop
       vertex 0.312426 -0.247861 0.1
       vertex 0.279795 -0.25 0.1
       vertex 0.279795 -0.25 0
    endloop
  endfacet
  facet normal -0.0654098 -0.997858 0
    outer loop
       vertex 0.279795 -0.25 0.1
       vertex 0.247163 -0.247861 0.1
       vertex 0.247163 -0.247861 0
    endloop
  endfacet
  facet normal -0.0654098 -0.997858 -7.26205e-17
    outer loop
       vertex 0.247163 -0.247861 0
       vertex 0.279795 -0.25 0
       vertex 0.279795 -0.25 0.1
    endloop
  endfacet
  facet normal -0.195096 -0.980784 0
    outer loop
       vertex 0.247163 -0.247861 0
       vertex 0.247163 -0.247861 0.1
       vertex 0.21509 -0.241481 0.1
    endloop
  endfacet
  facet normal -0.195096 -0.980784 -0
    outer loop
       vertex 0.21509 -0.241481 0.1
       vertex 0.21509 -0.241481 0
       vertex 0.247163 -0.247861 0
    endloop
  endfacet
  facet normal -0.321425 -0.946935 0
    outer loop
       vertex 0.21509 -0.241481 0
       vertex 0.21509 -0.241481 0.1
       vertex 0.184124 -0.23097 0.1
    endloop
  endfacet
  facet normal -0.321425 -0.946935 -0
    outer loop
       vertex 0.184124 -0.23097 0.1
       vertex 0.184124 -0.23097 0
       vertex 0.21509 -0.241481 0
    endloop
  endfacet
  facet normal -0.442302 -0.896866 0
    outer loop
       vertex 0.184124 -0.23097 0
       vertex 0.184124 -0.23097 0.1
       vertex 0.154795 -0.216506 0.1
    endloop
  endfacet
  facet normal -0.442302 -0.896866 -0
    outer loop
       vertex 0.154795 -0.216506 0.1
       vertex 0.154795 -0.216506 0
       vertex 0.184124 -0.23097 0
    endloop
  endfacet
  facet normal -0.555561 -0.831476 0
    outer loop
       vertex 0.154795 -0.216506 0
       vertex 0.154795 -0.216506 0.1
       vertex 0.127604 -0.198338 0.1
    endloop
  endfacet
  facet normal -0.555561 -0.831476 -0
    outer loop
       vertex 0.127604 -0.198338 0.1
       vertex 0.127604 -0.198338 0
       vertex 0.154795 -0.216506 0
    endloop
  endfacet
  facet normal -0.659372 -0.751817 0
    outer loop
       vertex 0.127604 -0.198338 0
       vertex 0.127604 -0.198338 0.1
       vertex 0.103019 -0.176776 0.1
    endloop
  endfacet
  facet normal -0.659372 -0.751817 -0
    outer loop
       vertex 0.103019 -0.176776 0.1
       vertex 0.103019 -0.176776 0
       vertex 0.127604 -0.198338 0
    endloop
  endfacet
endsolid cylinder
