solid cylinder
  facet normal 0.751817 -0.659372 0
    outer loop
       vertex 0.424476 -0.176776 0
       vertex 0.446038 -0.152191 0
       vertex 0.446038 -0.152191 0.1
    endloop
  endfacet
  facet normal 0.751817 -0.659372 0
    outer loop
       vertex 0.446038 -0.152191 0.1
       vertex 0.424476 -0.176776 0.1
       vertex 0.424476 -0.176776 0
    endloop
  endfacet
  facet normal 0.831476 -0.555561 0
    outer loop
       vertex 0.446038 -0.152191 0
       vertex 0.464206 -0.125 0
       vertex 0.464206 -0.125 0.1
    endloop
  endfacet
  facet normal 0.831476 -0.555561 0
    outer loop
       vertex 0.464206 -0.125 0.1
       vertex 0.446038 -0.152191 0.1
       vertex 0.446038 -0.152191 0
    endloop
  endfacet
  facet normal 0.896866 -0.442302 0
    outer loop
       vertex 0.464206 -0.125 0
       vertex 0.47867 -0.095671 0
       vertex 0.47867 -0.095671 0.1
    endloop
  endfacet
  facet normal 0.896866 -0.442302 0
    outer loop
       vertex 0.47867 -0.095671 0.1
       vertex 0.464206 -0.125 0.1
       vertex 0.464206 -0.125 0
    endloop
  endfacet
  facet normal 0.946935 -0.321425 0
    outer loop
       vertex 0.47867 -0.095671 0
       vertex 0.489181 -0.064705 0
       vertex 0.489181 -0.064705 0.1
    endloop
  endfacet
  facet normal 0.946935 -0.321425 0
    outer loop
       vertex 0.489181 -0.064705 0.1
       vertex 0.47867 -0.095671 0.1
       vertex 0.47867 -0.095671 0
    endloop
  endfacet
  facet normal 0.980784 -0.195096 0
    outer loop
       vertex 0.489181 -0.064705 0
       vertex 0.495561 -0.0326315 0
       vertex 0.495561 -0.0326315 0.1
    endloop
  endfacet
  facet normal 0.980784 -0.195096 0
    outer loop
       vertex 0.495561 -0.0326315 0.1
       vertex 0.489181 -0.064705 0.1
       vertex 0.489181 -0.064705 0
    endloop
  endfacet
  facet normal 0.997858 -0.0654098 0
    outer loop
       vertex 0.4977 -8.32665e-17 0.1
       vertex 0.495561 -0.0326315 0.1
       vertex 0.495561 -0.0326315 0
    endloop
  endfacet
  facet normal 0.997858 -0.0654098 -1.08928e-16
    outer loop
       vertex 0.495561 -0.0326315 0
       vertex 0.4977 8.32665e-17 0
       vertex 0.4977 -8.32665e-17 0.1
    endloop
  endfacet
  facet normal 0.997858 0.0654098 0
    outer loop
       vertex 0.4977 8.32665e-17 0
       vertex 0.495561 0.0326315 0
       vertex 0.495561 0.0326315 0.1
    endloop
  endfacet
  facet normal 0.997858 0.0654098 1.08928e-16
    outer loop
       vertex 0.495561 0.0326315 0.1
       vertex 0.4977 -8.32665e-17 0.1
       vertex 0.4977 8.32665e-17 0
    endloop
  endfacet
  facet normal 0.980784 0.195096 0
    outer loop
       vertex 0.495561 0.0326315 0
       vertex 0.489181 0.064705 0
       vertex 0.489181 0.064705 0.1
    endloop
  endfacet
  facet normal 0.980784 0.195096 0
    outer loop
       vertex 0.489181 0.064705 0.1
       vertex 0.495561 0.0326315 0.1
       vertex 0.495561 0.0326315 0
    endloop
  endfacet
  facet normal 0.946935 0.321425 0
    outer loop
       vertex 0.489181 0.064705 0
       vertex 0.47867 0.095671 0
       vertex 0.47867 0.095671 0.1
    endloop
  endfacet
  facet normal 0.946935 0.321425 0
    outer loop
       vertex 0.47867 0.095671 0.1
       vertex 0.489181 0.064705 0.1
       vertex 0.489181 0.064705 0
    endloop
  endfacet
  facet normal 0.896866 0.442302 0
    outer loop
       vertex 0.47867 0.095671 0
       vertex 0.464206 0.125 0
       vertex 0.464206 0.125 0.1
    endloop
  endfacet
  facet normal 0.896866 0.442302 0
    outer loop
       vertex 0.464206 0.125 0.1
       vertex 0.47867 0.095671 0.1
       vertex 0.47867 0.095671 0
    endloop
  endfacet
  facet normal 0.831476 0.555561 0
    outer loop
       vertex 0.464206 0.125 0
       vertex 0.446038 0.152191 0
       vertex 0.446038 0.152191 0.1
    endloop
  endfacet
  facet normal 0.831476 0.555561 0
    outer loop
       vertex 0.446038 0.152191 0.1
       vertex 0.464206 0.125 0.1
       vertex 0.464206 0.125 0
    endloop
  endfacet
  facet normal 0.751817 0.659372 0
    outer loop
       vertex 0.446038 0.152191 0
       vertex 0.424476 0.176776 0
       vertex 0.424476 0.176776 0.1
    endloop
  endfacet
  facet normal 0.751817 0.659372 0
    outer loop
       vertex 0.424476 0.176776 0.1
       vertex 0.446038 0.152191 0.1
       vertex 0.446038 0.152191 0
    endloop
  endfacet
  facet normal 0.659372 0.751817 0
    outer loop
       vertex 0.424476 0.176776 0
       vertex 0.399891 0.198338 0
       vertex 0.399891 0.198338 0.1
    endloop
  endfacet
  facet normal 0.659372 0.751817 0
    outer loop
       vertex 0.399891 0.198338 0.1
       vertex 0.424476 0.176776 0.1
       vertex 0.424476 0.176776 0
    endloop
  endfacet
  facet normal 0.555561 0.831476 0
    outer loop
       vertex 0.399891 0.198338 0
       vertex 0.3727 0.216506 0
       vertex 0.3727 0.216506 0.1
    endloop
  endfacet
  facet normal 0.555561 0.831476 0
    outer loop
       vertex 0.3727 0.216506 0.1
       vertex 0.399891 0.198338 0.1
       vertex 0.399891 0.198338 0
    endloop
  endfacet
  facet normal 0.442302 0.896866 0
    outer loop
       vertex 0.3727 0.216506 0
       vertex 0.343371 0.23097 0
       vertex 0.343371 0.23097 0.1
    endloop
  endfacet
  facet normal 0.442302 0.896866 0
    outer loop
       vertex 0.343371 0.23097 0.1
       vertex 0.3727 0.216506 0.1
       vertex 0.3727 0.216506 0
    endloop
  endfacet
  facet normal 0.321425 0.946935 0
    outer loop
       vertex 0.343371 0.23097 0
       vertex 0.312405 0.241481 0
       vertex 0.312405 0.241481 0.1
    endloop
  endfacet
  facet normal 0.321425 0.946935 0
    outer loop
       vertex 0.312405 0.241481 0.1
       vertex 0.343371 0.23097 0.1
       vertex 0.343371 0.23097 0
    endloop
  endfacet
  facet normal 0.195096 0.980784 0
    outer loop
       vertex 0.312405 0.241481 0
       vertex 0.280332 0.247861 0
       vertex 0.280332 0.247861 0.1
    endloop
  endfacet
  facet normal 0.195096 0.980784 0
    outer loop
       vertex 0.280332 0.247861 0.1
       vertex 0.312405 0.241481 0.1
       vertex 0.312405 0.241481 0
    endloop
  endfacet
  facet normal 0.0654098 0.997858 0
    outer loop
       vertex 0.2477 0.25 0.1
       vertex 0.280332 0.247861 0.1
       vertex 0.280332 0.247861 0
    endloop
  endfacet
  facet normal 0.0654098 0.997858 -1.0893e-16
    outer loop
       vertex 0.280332 0.247861 0
       vertex 0.2477 0.25 0
       vertex 0.2477 0.25 0.1
    endloop
  endfacet
  facet normal -0.0654098 0.997858 0
    outer loop
       vertex 0.2477 0.25 0
       vertex 0.215069 0.247861 0
       vertex 0.215069 0.247861 0.1
    endloop
  endfacet
  facet normal -0.0654098 0.997858 1.0893e-16
    outer loop
       vertex 0.215069 0.247861 0.1
       vertex 0.2477 0.25 0.1
       vertex 0.2477 0.25 0
    endloop
  endfacet
  facet normal -0.195096 0.980784 0
    outer loop
       vertex 0.215069 0.247861 0
       vertex 0.182995 0.241481 0
       vertex 0.182995 0.241481 0.1
    endloop
  endfacet
  facet normal -0.195096 0.980784 0
    outer loop
       vertex 0.182995 0.241481 0.1
       vertex 0.215069 0.247861 0.1
       vertex 0.215069 0.247861 0
    endloop
  endfacet
  facet normal -0.321425 0.946935 0
    outer loop
       vertex 0.182995 0.241481 0
       vertex 0.152029 0.23097 0
       vertex 0.152029 0.23097 0.1
    endloop
  endfacet
  facet normal -0.321425 0.946935 0
    outer loop
       vertex 0.152029 0.23097 0.1
       vertex 0.182995 0.241481 0.1
       vertex 0.182995 0.241481 0
    endloop
  endfacet
  facet normal -0.442302 0.896866 0
    outer loop
       vertex 0.152029 0.23097 0
       vertex 0.1227 0.216506 0
       vertex 0.1227 0.216506 0.1
    endloop
  endfacet
  facet normal -0.442302 0.896866 0
    outer loop
       vertex 0.1227 0.216506 0.1
       vertex 0.152029 0.23097 0.1
       vertex 0.152029 0.23097 0
    endloop
  endfacet
  facet normal -0.555561 0.831476 0
    outer loop
       vertex 0.1227 0.216506 0
       vertex 0.0955094 0.198338 0
       vertex 0.0955094 0.198338 0.1
    endloop
  endfacet
  facet normal -0.555561 0.831476 0
    outer loop
       vertex 0.0955094 0.198338 0.1
       vertex 0.1227 0.216506 0.1
       vertex 0.1227 0.216506 0
    endloop
  endfacet
  facet normal -0.659372 0.751817 0
    outer loop
       vertex 0.0955094 0.198338 0
       vertex 0.0709244 0.176776 0
       vertex 0.0709244 0.176776 0.1
    endloop
  endfacet
  facet normal -0.659372 0.751817 0
    outer loop
       vertex 0.0709244 0.176776 0.1
       vertex 0.0955094 0.198338 0.1
       vertex 0.0955094 0.198338 0
    endloop
  endfacet
  facet normal -0.751817 0.659372 0
    outer loop
       vertex 0.0709244 0.176776 0
       vertex 0.0493624 0.152191 0
       vertex 0.0493624 0.152191 0.1
    endloop
  endfacet
  facet normal -0.751817 0.659372 0
    outer loop
       vertex 0.0493624 0.152191 0.1
       vertex 0.0709244 0.176776 0.1
       vertex 0.0709244 0.176776 0
    endloop
  endfacet
  facet normal -0.831476 0.555561 0
    outer loop
       vertex 0.0493624 0.152191 0
       vertex 0.0311944 0.125 0
       vertex 0.0311944 0.125 0.1
    endloop
  endfacet
  facet normal -0.831476 0.555561 0
    outer loop
       vertex 0.0311944 0.125 0.1
       vertex 0.0493624 0.152191 0.1
       vertex 0.0493624 0.152191 0
    endloop
  endfacet
  facet normal -0.896866 0.442302 0
    outer loop
       vertex 0.0311944 0.125 0
       vertex 0.0167304 0.095671 0
       vertex 0.0167304 0.095671 0.1
    endloop
  endfacet
  facet normal -0.896866 0.442302 0
    outer loop
       vertex 0.0167304 0.095671 0.1
       vertex 0.0311944 0.125 0.1
       vertex 0.0311944 0.125 0
    endloop
  endfacet
  facet normal -0.946935 0.321425 0
    outer loop
       vertex 0.0167304 0.095671 0
       vertex 0.0062194 0.064705 0
       vertex 0.0062194 0.064705 0.1
    endloop
  endfacet
  facet normal -0.946935 0.321425 0
    outer loop
       vertex 0.0062194 0.064705 0.1
       vertex 0.0167304 0.095671 0.1
       vertex 0.0167304 0.095671 0
    endloop
  endfacet
  facet normal -0.980784 0.195096 0
    outer loop
       vertex 0.0062194 0.064705 0
       vertex -0.000160604 0.0326315 0
       vertex -0.000160604 0.0326315 0.1
    endloop
  endfacet
  facet normal -0.980784 0.195096 0
    outer loop
       vertex -0.000160604 0.0326315 0.1
       vertex 0.0062194 0.064705 0.1
       vertex 0.0062194 0.064705 0
    endloop
  endfacet
  facet normal -0.997858 0.0654098 0
    outer loop
       vertex -0.0022996 8.32665e-17 0.1
       vertex -0.000160604 0.0326315 0.1
       vertex -0.000160604 0.0326315 0
    endloop
  endfacet
  facet normal -0.997858 0.0654098 -1.08928e-16
    outer loop
       vertex -0.000160604 0.0326315 0
       vertex -0.0022996 -8.32665e-17 0
       vertex -0.0022996 8.32665e-17 0.1
    endloop
  endfacet
  facet normal -0.997858 -0.0654098 0
    outer loop
       vertex -0.0022996 -8.32665e-17 0
       vertex -0.000160604 -0.0326315 0
       vertex -0.000160604 -0.0326315 0.1
    endloop
  endfacet
  facet normal -0.997858 -0.0654098 1.08928e-16
    outer loop
       vertex -0.000160604 -0.0326315 0.1
       vertex -0.0022996 8.32665e-17 0.1
       vertex -0.0022996 -8.32665e-17 0
    endloop
  endfacet
  facet normal -0.980784 -0.195096 0
    outer loop
       vertex -0.000160604 -0.0326315 0
       vertex 0.0062194 -0.064705 0
       vertex 0.0062194 -0.064705 0.1
    endloop
  endfacet
  facet normal -0.980784 -0.195096 0
    outer loop
       vertex 0.0062194 -0.064705 0.1
       vertex -0.000160604 -0.0326315 0.1
       vertex -0.000160604 -0.0326315 0
    endloop
  endfacet
  facet normal -0.946935 -0.321425 0
    outer loop
       vertex 0.0062194 -0.064705 0
       vertex 0.0167304 -0.095671 0
       vertex 0.0167304 -0.095671 0.1
    endloop
  endfacet
  facet normal -0.946935 -0.321425 0
    outer loop
       vertex 0.0167304 -0.095671 0.1
       vertex 0.0062194 -0.064705 0.1
       vertex 0.0062194 -0.064705 0
    endloop
  endfacet
  facet normal -0.896866 -0.442302 0
    outer loop
       vertex 0.0167304 -0.095671 0
       vertex 0.0311944 -0.125 0
       vertex 0.0311944 -0.125 0.1
    endloop
  endfacet
  facet normal -0.896866 -0.442302 0
    outer loop
       vertex 0.0311944 -0.125 0.1
       vertex 0.0167304 -0.095671 0.1
       vertex 0.0167304 -0.095671 0
    endloop
  endfacet
  facet normal -0.831476 -0.555561 0
    outer loop
       vertex 0.0311944 -0.125 0
       vertex 0.0493624 -0.152191 0
       vertex 0.0493624 -0.152191 0.1
    endloop
  endfacet
  facet normal -0.831476 -0.555561 0
    outer loop
       vertex 0.0493624 -0.152191 0.1
       vertex 0.0311944 -0.125 0.1
       vertex 0.0311944 -0.125 0
    endloop
  endfacet
  facet normal -0.751817 -0.659372 0
    outer loop
       vertex 0.0493624 -0.152191 0
       vertex 0.0709244 -0.176776 0
       vertex 0.0709244 -0.176776 0.1
    endloop
  endfacet
  facet normal -0.751817 -0.659372 0
    outer loop
       vertex 0.0709244 -0.176776 0.1
       vertex 0.0493624 -0.152191 0.1
       vertex 0.0493624 -0.152191 0
    endloop
  endfacet
  facet normal 0.659372 -0.751817 0
    outer loop
       vertex 0.424476 -0.176776 0
       vertex 0.424476 -0.176776 0.1
       vertex 0.399891 -0.198338 0.1
    endloop
  endfacet
  facet normal 0.659372 -0.751817 0
    outer loop
       vertex 0.399891 -0.198338 0.1
       vertex 0.399891 -0.198338 0
       vertex 0.424476 -0.176776 0
    endloop
  endfacet
  facet normal 0.555561 -0.831476 0
    outer loop
       vertex 0.399891 -0.198338 0
       vertex 0.399891 -0.198338 0.1
       vertex 0.3727 -0.216506 0.1
    endloop
  endfacet
  facet normal 0.555561 -0.831476 0
    outer loop
       vertex 0.3727 -0.216506 0.1
       vertex 0.3727 -0.216506 0
       vertex 0.399891 -0.198338 0
    endloop
  endfacet
  facet normal 0.442302 -0.896866 0
    outer loop
       vertex 0.3727 -0.216506 0
       vertex 0.3727 -0.216506 0.1
       vertex 0.343371 -0.23097 0.1
    endloop
  endfacet
  facet normal 0.442302 -0.896866 0
    outer loop
       vertex 0.343371 -0.23097 0.1
       vertex 0.343371 -0.23097 0
       vertex 0.3727 -0.216506 0
    endloop
  endfacet
  facet normal 0.321425 -0.946935 0
    outer loop
       vertex 0.343371 -0.23097 0
       vertex 0.343371 -0.23097 0.1
       vertex 0.312405 -0.241481 0.1
    endloop
  endfacet
  facet normal 0.321425 -0.946935 0
    outer loop
       vertex 0.312405 -0.241481 0.1
       vertex 0.312405 -0.241481 0
       vertex 0.343371 -0.23097 0
    endloop
  endfacet
  facet normal 0.195096 -0.980784 0
    outer loop
       vertex 0.312405 -0.241481 0
       vertex 0.312405 -0.241481 0.1
       vertex 0.280332 -0.247861 0.1
    endloop
  endfacet
  facet normal 0.195096 -0.980784 0
    outer loop
       vertex 0.280332 -0.247861 0.1
       vertex 0.280332 -0.247861 0
       vertex 0.312405 -0.241481 0
    endloop
  endfacet
  facet normal 0.0654098 -0.997858 0
    outer loop
       vertex 0.2477 -0.25 0
       vertex 0.280332 -0.247861 0
       vertex 0.280332 -0.247861 0.1
    endloop
  endfacet
  facet normal 0.0654098 -0.997858 1.0893e-16
    outer loop
       vertex 0.280332 -0.247861 0.1
       vertex 0.2477 -0.25 0.1
       vertex 0.2477 -0.25 0
    endloop
  endfacet
  facet normal -0.0654098 -0.997858 0
    outer loop
       vertex 0.2477 -0.25 0.1
       vertex 0.215069 -0.247861 0.1
       vertex 0.215069 -0.247861 0
    endloop
  endfacet
  facet normal -0.0654098 -0.997858 -1.0893e-16
    outer loop
       vertex 0.215069 -0.247861 0
       vertex 0.2477 -0.25 0
       vertex 0.2477 -0.25 0.1
    endloop
  endfacet
  facet normal -0.195096 -0.980784 0
    outer loop
       vertex 0.215069 -0.247861 0
       vertex 0.215069 -0.247861 0.1
       vertex 0.182995 -0.241481 0.1
    endloop
  endfacet
  facet normal -0.195096 -0.980784 -0
    outer loop
       vertex 0.182995 -0.241481 0.1
       vertex 0.182995 -0.241481 0
       vertex 0.215069 -0.247861 0
    endloop
  endfacet
  facet normal -0.321425 -0.946935 0
    outer loop
       vertex 0.182995 -0.241481 0
       vertex 0.182995 -0.241481 0.1
       vertex 0.152029 -0.23097 0.1
    endloop
  endfacet
  facet normal -0.321425 -0.946935 -0
    outer loop
       vertex 0.152029 -0.23097 0.1
       vertex 0.152029 -0.23097 0
       vertex 0.182995 -0.241481 0
    endloop
  endfacet
  facet normal -0.442302 -0.896866 0
    outer loop
       vertex 0.152029 -0.23097 0
       vertex 0.152029 -0.23097 0.1
       vertex 0.1227 -0.216506 0.1
    endloop
  endfacet
  facet normal -0.442302 -0.896866 -0
    outer loop
       vertex 0.1227 -0.216506 0.1
       vertex 0.1227 -0.216506 0
       vertex 0.152029 -0.23097 0
    endloop
  endfacet
  facet normal -0.555561 -0.831476 0
    outer loop
       vertex 0.1227 -0.216506 0
       vertex 0.1227 -0.216506 0.1
       vertex 0.0955094 -0.198338 0.1
    endloop
  endfacet
  facet normal -0.555561 -0.831476 -0
    outer loop
       vertex 0.0955094 -0.198338 0.1
       vertex 0.0955094 -0.198338 0
       vertex 0.1227 -0.216506 0
    endloop
  endfacet
  facet normal -0.659372 -0.751817 0
    outer loop
       vertex 0.0955094 -0.198338 0
       vertex 0.0955094 -0.198338 0.1
       vertex 0.0709244 -0.176776 0.1
    endloop
  endfacet
  facet normal -0.659372 -0.751817 -0
    outer loop
       vertex 0.0709244 -0.176776 0.1
       vertex 0.0709244 -0.176776 0
       vertex 0.0955094 -0.198338 0
    endloop
  endfacet
endsolid cylinder
