solid cylinder
  facet normal 0.751817 -0.659372 0
    outer loop
       vertex 0.3753 -0.176776 0
       vertex 0.396862 -0.152191 0
       vertex 0.396862 -0.152191 0.1
    endloop
  endfacet
  facet normal 0.751817 -0.659372 0
    outer loop
       vertex 0.396862 -0.152191 0.1
       vertex 0.3753 -0.176776 0.1
       vertex 0.3753 -0.176776 0
    endloop
  endfacet
  facet normal 0.831476 -0.555561 0
    outer loop
       vertex 0.396862 -0.152191 0
       vertex 0.41503 -0.125 0
       vertex 0.41503 -0.125 0.1
    endloop
  endfacet
  facet normal 0.831476 -0.555561 0
    outer loop
       vertex 0.41503 -0.125 0.1
       vertex 0.396862 -0.152191 0.1
       vertex 0.396862 -0.152191 0
    endloop
  endfacet
  facet normal 0.896866 -0.442302 0
    outer loop
       vertex 0.41503 -0.125 0
       vertex 0.429494 -0.095671 0
       vertex 0.429494 -0.095671 0.1
    endloop
  endfacet
  facet normal 0.896866 -0.442302 0
    outer loop
       vertex 0.429494 -0.095671 0.1
       vertex 0.41503 -0.125 0.1
       vertex 0.41503 -0.125 0
    endloop
  endfacet
  facet normal 0.946935 -0.321425 0
    outer loop
       vertex 0.429494 -0.095671 0
       vertex 0.440005 -0.064705 0
       vertex 0.440005 -0.064705 0.1
    endloop
  endfacet
  facet normal 0.946935 -0.321425 0
    outer loop
       vertex 0.440005 -0.064705 0.1
       vertex 0.429494 -0.095671 0.1
       vertex 0.429494 -0.095671 0
    endloop
  endfacet
  facet normal 0.980784 -0.195096 0
    outer loop
       vertex 0.440005 -0.064705 0
       vertex 0.446385 -0.0326315 0
       vertex 0.446385 -0.0326315 0.1
    endloop
  endfacet
  facet normal 0.980784 -0.195096 0
    outer loop
       vertex 0.446385 -0.0326315 0.1
       vertex 0.440005 -0.064705 0.1
       vertex 0.440005 -0.064705 0
    endloop
  endfacet
  facet normal 0.997858 -0.0654098 0
    outer loop
       vertex 0.448524 -8.32665e-17 0.1
       vertex 0.446385 -0.0326315 0.1
       vertex 0.446385 -0.0326315 0
    endloop
  endfacet
  facet normal 0.997858 -0.0654098 -1.08928e-16
    outer loop
       vertex 0.446385 -0.0326315 0
       vertex 0.448524 8.32665e-17 0
       vertex 0.448524 -8.32665e-17 0.1
    endloop
  endfacet
  facet normal 0.997858 0.0654098 0
    outer loop
       vertex 0.448524 8.32665e-17 0
       vertex 0.446385 0.0326315 0
       vertex 0.446385 0.0326315 0.1
    endloop
  endfacet
  facet normal 0.997858 0.0654098 1.08928e-16
    outer loop
       vertex 0.446385 0.0326315 0.1
       vertex 0.448524 -8.32665e-17 0.1
       vertex 0.448524 8.32665e-17 0
    endloop
  endfacet
  facet normal 0.980784 0.195096 0
    outer loop
       vertex 0.446385 0.0326315 0
       vertex 0.440005 0.064705 0
       vertex 0.440005 0.064705 0.1
    endloop
  endfacet
  facet normal 0.980784 0.195096 0
    outer loop
       vertex 0.440005 0.064705 0.1
       vertex 0.446385 0.0326315 0.1
       vertex 0.446385 0.0326315 0
    endloop
  endfacet
  facet normal 0.946935 0.321425 0
    outer loop
       vertex 0.440005 0.064705 0
       vertex 0.429494 0.095671 0
       vertex 0.429494 0.095671 0.1
    endloop
  endfacet
  facet normal 0.946935 0.321425 0
    outer loop
       vertex 0.429494 0.095671 0.1
       vertex 0.440005 0.064705 0.1
       vertex 0.440005 0.064705 0
    endloop
  endfacet
  facet normal 0.896866 0.442302 0
    outer loop
       vertex 0.429494 0.095671 0
       vertex 0.41503 0.125 0
       vertex 0.41503 0.125 0.1
    endloop
  endfacet
  facet normal 0.896866 0.442302 0
    outer loop
       vertex 0.41503 0.125 0.1
       vertex 0.429494 0.095671 0.1
       vertex 0.429494 0.095671 0
    endloop
  endfacet
  facet normal 0.831476 0.555561 0
    outer loop
       vertex 0.41503 0.125 0
       vertex 0.396862 0.152191 0
       vertex 0.396862 0.152191 0.1
    endloop
  endfacet
  facet normal 0.831476 0.555561 0
    outer loop
       vertex 0.396862 0.152191 0.1
       vertex 0.41503 0.125 0.1
       vertex 0.41503 0.125 0
    endloop
  endfacet
  facet normal 0.751817 0.659372 0
    outer loop
       vertex 0.396862 0.152191 0
       vertex 0.3753 0.176776 0
       vertex 0.3753 0.176776 0.1
    endloop
  endfacet
  facet normal 0.751817 0.659372 0
    outer loop
       vertex 0.3753 0.176776 0.1
       vertex 0.396862 0.152191 0.1
       vertex 0.396862 0.152191 0
    endloop
  endfacet
  facet normal 0.659372 0.751817 0
    outer loop
       vertex 0.3753 0.176776 0
       vertex 0.350715 0.198338 0
       vertex 0.350715 0.198338 0.1
    endloop
  endfacet
  facet normal 0.659372 0.751817 0
    outer loop
       vertex 0.350715 0.198338 0.1
       vertex 0.3753 0.176776 0.1
       vertex 0.3753 0.176776 0
    endloop
  endfacet
  facet normal 0.555561 0.831476 0
    outer loop
       vertex 0.350715 0.198338 0
       vertex 0.323524 0.216506 0
       vertex 0.323524 0.216506 0.1
    endloop
  endfacet
  facet normal 0.555561 0.831476 0
    outer loop
       vertex 0.323524 0.216506 0.1
       vertex 0.350715 0.198338 0.1
       vertex 0.350715 0.198338 0
    endloop
  endfacet
  facet normal 0.442302 0.896866 0
    outer loop
       vertex 0.323524 0.216506 0
       vertex 0.294195 0.23097 0
       vertex 0.294195 0.23097 0.1
    endloop
  endfacet
  facet normal 0.442302 0.896866 0
    outer loop
       vertex 0.294195 0.23097 0.1
       vertex 0.323524 0.216506 0.1
       vertex 0.323524 0.216506 0
    endloop
  endfacet
  facet normal 0.321425 0.946935 0
    outer loop
       vertex 0.294195 0.23097 0
       vertex 0.263229 0.241481 0
       vertex 0.263229 0.241481 0.1
    endloop
  endfacet
  facet normal 0.321425 0.946935 0
    outer loop
       vertex 0.263229 0.241481 0.1
       vertex 0.294195 0.23097 0.1
       vertex 0.294195 0.23097 0
    endloop
  endfacet
  facet normal 0.195096 0.980784 0
    outer loop
       vertex 0.263229 0.241481 0
       vertex 0.231155 0.247861 0
       vertex 0.231155 0.247861 0.1
    endloop
  endfacet
  facet normal 0.195096 0.980784 0
    outer loop
       vertex 0.231155 0.247861 0.1
       vertex 0.263229 0.241481 0.1
       vertex 0.263229 0.241481 0
    endloop
  endfacet
  facet normal 0.0654098 0.997858 0
    outer loop
       vertex 0.198524 0.25 0.1
       vertex 0.231155 0.247861 0.1
       vertex 0.231155 0.247861 0
    endloop
  endfacet
  facet normal 0.0654098 0.997858 -1.0893e-16
    outer loop
       vertex 0.231155 0.247861 0
       vertex 0.198524 0.25 0
       vertex 0.198524 0.25 0.1
    endloop
  endfacet
  facet normal -0.0654098 0.997858 0
    outer loop
       vertex 0.198524 0.25 0
       vertex 0.165892 0.247861 0
       vertex 0.165892 0.247861 0.1
    endloop
  endfacet
  facet normal -0.0654098 0.997858 1.0893e-16
    outer loop
       vertex 0.165892 0.247861 0.1
       vertex 0.198524 0.25 0.1
       vertex 0.198524 0.25 0
    endloop
  endfacet
  facet normal -0.195096 0.980784 0
    outer loop
       vertex 0.165892 0.247861 0
       vertex 0.133819 0.241481 0
       vertex 0.133819 0.241481 0.1
    endloop
  endfacet
  facet normal -0.195096 0.980784 0
    outer loop
       vertex 0.133819 0.241481 0.1
       vertex 0.165892 0.247861 0.1
       vertex 0.165892 0.247861 0
    endloop
  endfacet
  facet normal -0.321425 0.946935 0
    outer loop
       vertex 0.133819 0.241481 0
       vertex 0.102853 0.23097 0
       vertex 0.102853 0.23097 0.1
    endloop
  endfacet
  facet normal -0.321425 0.946935 0
    outer loop
       vertex 0.102853 0.23097 0.1
       vertex 0.133819 0.241481 0.1
       vertex 0.133819 0.241481 0
    endloop
  endfacet
  facet normal -0.442302 0.896866 0
    outer loop
       vertex 0.102853 0.23097 0
       vertex 0.0735236 0.216506 0
       vertex 0.0735236 0.216506 0.1
    endloop
  endfacet
  facet normal -0.442302 0.896866 0
    outer loop
       vertex 0.0735236 0.216506 0.1
       vertex 0.102853 0.23097 0.1
       vertex 0.102853 0.23097 0
    endloop
  endfacet
  facet normal -0.555561 0.831476 0
    outer loop
       vertex 0.0735236 0.216506 0
       vertex 0.0463326 0.198338 0
       vertex 0.0463326 0.198338 0.1
    endloop
  endfacet
  facet normal -0.555561 0.831476 0
    outer loop
       vertex 0.0463326 0.198338 0.1
       vertex 0.0735236 0.216506 0.1
       vertex 0.0735236 0.216506 0
    endloop
  endfacet
  facet normal -0.659372 0.751817 0
    outer loop
       vertex 0.0463326 0.198338 0
       vertex 0.0217476 0.176776 0
       vertex 0.0217476 0.176776 0.1
    endloop
  endfacet
  facet normal -0.659372 0.751817 0
    outer loop
       vertex 0.0217476 0.176776 0.1
       vertex 0.0463326 0.198338 0.1
       vertex 0.0463326 0.198338 0
    endloop
  endfacet
  facet normal -0.751817 0.659372 0
    outer loop
       vertex 0.0217476 0.176776 0
       vertex 0.000185632 0.152191 0
       vertex 0.000185632 0.152191 0.1
    endloop
  endfacet
  facet normal -0.751817 0.659372 0
    outer loop
       vertex 0.000185632 0.152191 0.1
       vertex 0.0217476 0.176776 0.1
       vertex 0.0217476 0.176776 0
    endloop
  endfacet
  facet normal -0.831476 0.555561 0
    outer loop
       vertex 0.000185632 0.152191 0
       vertex -0.0179824 0.125 0
       vertex -0.0179824 0.125 0.1
    endloop
  endfacet
  facet normal -0.831476 0.555561 0
    outer loop
       vertex -0.0179824 0.125 0.1
       vertex 0.000185632 0.152191 0.1
       vertex 0.000185632 0.152191 0
    endloop
  endfacet
  facet normal -0.896866 0.442302 0
    outer loop
       vertex -0.0179824 0.125 0
       vertex -0.0324464 0.095671 0
       vertex -0.0324464 0.095671 0.1
    endloop
  endfacet
  facet normal -0.896866 0.442302 0
    outer loop
       vertex -0.0324464 0.095671 0.1
       vertex -0.0179824 0.125 0.1
       vertex -0.0179824 0.125 0
    endloop
  endfacet
  facet normal -0.946935 0.321425 0
    outer loop
       vertex -0.0324464 0.095671 0
       vertex -0.0429574 0.064705 0
       vertex -0.0429574 0.064705 0.1
    endloop
  endfacet
  facet normal -0.946935 0.321425 0
    outer loop
       vertex -0.0429574 0.064705 0.1
       vertex -0.0324464 0.095671 0.1
       vertex -0.0324464 0.095671 0
    endloop
  endfacet
  facet normal -0.980784 0.195096 0
    outer loop
       vertex -0.0429574 0.064705 0
       vertex -0.0493374 0.0326315 0
       vertex -0.0493374 0.0326315 0.1
    endloop
  endfacet
  facet normal -0.980784 0.195096 0
    outer loop
       vertex -0.0493374 0.0326315 0.1
       vertex -0.0429574 0.064705 0.1
       vertex -0.0429574 0.064705 0
    endloop
  endfacet
  facet normal -0.997858 0.0654098 0
    outer loop
       vertex -0.0514764 8.32665e-17 0.1
       vertex -0.0493374 0.0326315 0.1
       vertex -0.0493374 0.0326315 0
    endloop
  endfacet
  facet normal -0.997858 0.0654098 -1.08928e-16
    outer loop
       vertex -0.0493374 0.0326315 0
       vertex -0.0514764 -8.32665e-17 0
       vertex -0.0514764 8.32665e-17 0.1
    endloop
  endfacet
  facet normal -0.997858 -0.0654098 0
    outer loop
       vertex -0.0514764 -8.32665e-17 0
       vertex -0.0493374 -0.0326315 0
       vertex -0.0493374 -0.0326315 0.1
    endloop
  endfacet
  facet normal -0.997858 -0.0654098 1.08928e-16
    outer loop
       vertex -0.0493374 -0.0326315 0.1
       vertex -0.0514764 8.32665e-17 0.1
       vertex -0.0514764 -8.32665e-17 0
    endloop
  endfacet
  facet normal -0.980784 -0.195096 0
    outer loop
       vertex -0.0493374 -0.0326315 0
       vertex -0.0429574 -0.064705 0
       vertex -0.0429574 -0.064705 0.1
    endloop
  endfacet
  facet normal -0.980784 -0.195096 0
    outer loop
       vertex -0.0429574 -0.064705 0.1
       vertex -0.0493374 -0.0326315 0.1
       vertex -0.0493374 -0.0326315 0
    endloop
  endfacet
  facet normal -0.946935 -0.321425 0
    outer loop
       vertex -0.0429574 -0.064705 0
       vertex -0.0324464 -0.095671 0
       vertex -0.0324464 -0.095671 0.1
    endloop
  endfacet
  facet normal -0.946935 -0.321425 0
    outer loop
       vertex -0.0324464 -0.095671 0.1
       vertex -0.0429574 -0.064705 0.1
       vertex -0.0429574 -0.064705 0
    endloop
  endfacet
  facet normal -0.896866 -0.442302 0
    outer loop
       vertex -0.0324464 -0.095671 0
       vertex -0.0179824 -0.125 0
       vertex -0.0179824 -0.125 0.1
    endloop
  endfacet
  facet normal -0.896866 -0.442302 0
    outer loop
       vertex -0.0179824 -0.125 0.1
       vertex -0.0324464 -0.095671 0.1
       vertex -0.0324464 -0.095671 0
    endloop
  endfacet
  facet normal -0.831476 -0.555561 0
    outer loop
       vertex -0.0179824 -0.125 0
       vertex 0.000185632 -0.152191 0
       vertex 0.000185632 -0.152191 0.1
    endloop
  endfacet
  facet normal -0.831476 -0.555561 0
    outer loop
       vertex 0.000185632 -0.152191 0.1
       vertex -0.0179824 -0.125 0.1
       vertex -0.0179824 -0.125 0
    endloop
  endfacet
  facet normal -0.751817 -0.659372 0
    outer loop
       vertex 0.000185632 -0.152191 0
       vertex 0.0217476 -0.176776 0
       vertex 0.0217476 -0.176776 0.1
    endloop
  endfacet
  facet normal -0.751817 -0.659372 0
    outer loop
       vertex 0.0217476 -0.176776 0.1
       vertex 0.000185632 -0.152191 0.1
       vertex 0.000185632 -0.152191 0
    endloop
  endfacet
  facet normal 0.659372 -0.751817 0
    outer loop
       vertex 0.3753 -0.176776 0
       vertex 0.3753 -0.176776 0.1
       vertex 0.350715 -0.198338 0.1
    endloop
  endfacet
  facet normal 0.659372 -0.751817 0
    outer loop
       vertex 0.350715 -0.198338 0.1
       vertex 0.350715 -0.198338 0
       vertex 0.3753 -0.176776 0
    endloop
  endfacet
  facet normal 0.555561 -0.831476 0
    outer loop
       vertex 0.350715 -0.198338 0
       vertex 0.350715 -0.198338 0.1
       vertex 0.323524 -0.216506 0.1
    endloop
  endfacet
  facet normal 0.555561 -0.831476 0
    outer loop
       vertex 0.323524 -0.216506 0.1
       vertex 0.323524 -0.216506 0
       vertex 0.350715 -0.198338 0
    endloop
  endfacet
  facet normal 0.442302 -0.896866 0
    outer loop
       vertex 0.323524 -0.216506 0
       vertex 0.323524 -0.216506 0.1
       vertex 0.294195 -0.23097 0.1
    endloop
  endfacet
  facet normal 0.442302 -0.896866 0
    outer loop
       vertex 0.294195 -0.23097 0.1
       vertex 0.294195 -0.23097 0
       vertex 0.323524 -0.216506 0
    endloop
  endfacet
  facet normal 0.321425 -0.946935 0
    outer loop
       vertex 0.294195 -0.23097 0
       vertex 0.294195 -0.23097 0.1
       vertex 0.263229 -0.241481 0.1
    endloop
  endfacet
  facet normal 0.321425 -0.946935 0
    outer loop
       vertex 0.263229 -0.241481 0.1
       vertex 0.263229 -0.241481 0
       vertex 0.294195 -0.23097 0
    endloop
  endfacet
  facet normal 0.195096 -0.980784 0
    outer loop
       vertex 0.263229 -0.241481 0
       vertex 0.263229 -0.241481 0.1
       vertex 0.231155 -0.247861 0.1
    endloop
  endfacet
  facet normal 0.195096 -0.980784 0
    outer loop
       vertex 0.231155 -0.247861 0.1
       vertex 0.231155 -0.247861 0
       vertex 0.263229 -0.241481 0
    endloop
  endfacet
  facet normal 0.0654098 -0.997858 0
    outer loop
       vertex 0.198524 -0.25 0
       vertex 0.231155 -0.247861 0
       vertex 0.231155 -0.247861 0.1
    endloop
  endfacet
  facet normal 0.0654098 -0.997858 1.0893e-16
    outer loop
       vertex 0.231155 -0.247861 0.1
       vertex 0.198524 -0.25 0.1
       vertex 0.198524 -0.25 0
    endloop
  endfacet
  facet normal -0.0654098 -0.997858 0
    outer loop
       vertex 0.198524 -0.25 0.1
       vertex 0.165892 -0.247861 0.1
       vertex 0.165892 -0.247861 0
    endloop
  endfacet
  facet normal -0.0654098 -0.997858 -1.0893e-16
    outer loop
       vertex 0.165892 -0.247861 0
       vertex 0.198524 -0.25 0
       vertex 0.198524 -0.25 0.1
    endloop
  endfacet
  facet normal -0.195096 -0.980784 0
    outer loop
       vertex 0.165892 -0.247861 0
       vertex 0.165892 -0.247861 0.1
       vertex 0.133819 -0.241481 0.1
    endloop
  endfacet
  facet normal -0.195096 -0.980784 -0
    outer loop
       vertex 0.133819 -0.241481 0.1
       vertex 0.133819 -0.241481 0
       vertex 0.165892 -0.247861 0
    endloop
  endfacet
  facet normal -0.321425 -0.946935 0
    outer loop
       vertex 0.133819 -0.241481 0
       vertex 0.133819 -0.241481 0.1
       vertex 0.102853 -0.23097 0.1
    endloop
  endfacet
  facet normal -0.321425 -0.946935 -0
    outer loop
       vertex 0.102853 -0.23097 0.1
       vertex 0.102853 -0.23097 0
       vertex 0.133819 -0.241481 0
    endloop
  endfacet
  facet normal -0.442302 -0.896866 0
    outer loop
       vertex 0.102853 -0.23097 0
       vertex 0.102853 -0.23097 0.1
       vertex 0.0735236 -0.216506 0.1
    endloop
  endfacet
  facet normal -0.442302 -0.896866 -0
    outer loop
       vertex 0.0735236 -0.216506 0.1
       vertex 0.0735236 -0.216506 0
       vertex 0.102853 -0.23097 0
    endloop
  endfacet
  facet normal -0.555561 -0.831476 0
    outer loop
       vertex 0.0735236 -0.216506 0
       vertex 0.0735236 -0.216506 0.1
       vertex 0.0463326 -0.198338 0.1
    endloop
  endfacet
  facet normal -0.555561 -0.831476 -0
    outer loop
       vertex 0.0463326 -0.198338 0.1
       vertex 0.0463326 -0.198338 0
       vertex 0.0735236 -0.216506 0
    endloop
  endfacet
  facet normal -0.659372 -0.751817 0
    outer loop
       vertex 0.0463326 -0.198338 0
       vertex 0.0463326 -0.198338 0.1
       vertex 0.0217476 -0.176776 0.1
    endloop
  endfacet
  facet normal -0.659372 -0.751817 -0
    outer loop
       vertex 0.0217476 -0.176776 0.1
       vertex 0.0217476 -0.176776 0
       vertex 0.0463326 -0.198338 0
    endloop
  endfacet
endsolid cylinder
