solid cylinder
  facet normal 0.751817 -0.659372 0
    outer loop
       vertex 0.441936 -0.176776 0
       vertex 0.463498 -0.152191 0
       vertex 0.463498 -0.152191 0.1
    endloop
  endfacet
  facet normal 0.751817 -0.659372 0
    outer loop
       vertex 0.463498 -0.152191 0.1
       vertex 0.441936 -0.176776 0.1
       vertex 0.441936 -0.176776 0
    endloop
  endfacet
  facet normal 0.831476 -0.555561 0
    outer loop
       vertex 0.463498 -0.152191 0
       vertex 0.481666 -0.125 0
       vertex 0.481666 -0.125 0.1
    endloop
  endfacet
  facet normal 0.831476 -0.555561 0
    outer loop
       vertex 0.481666 -0.125 0.1
       vertex 0.463498 -0.152191 0.1
       vertex 0.463498 -0.152191 0
    endloop
  endfacet
  facet normal 0.896866 -0.442302 0
    outer loop
       vertex 0.481666 -0.125 0
       vertex 0.49613 -0.095671 0
       vertex 0.49613 -0.095671 0.1
    endloop
  endfacet
  facet normal 0.896866 -0.442302 0
    outer loop
       vertex 0.49613 -0.095671 0.1
       vertex 0.481666 -0.125 0.1
       vertex 0.481666 -0.125 0
    endloop
  endfacet
  facet normal 0.946935 -0.321425 0
    outer loop
       vertex 0.49613 -0.095671 0
       vertex 0.506641 -0.064705 0
       vertex 0.506641 -0.064705 0.1
    endloop
  endfacet
  facet normal 0.946935 -0.321425 0
    outer loop
       vertex 0.506641 -0.064705 0.1
       vertex 0.49613 -0.095671 0.1
       vertex 0.49613 -0.095671 0
    endloop
  endfacet
  facet normal 0.980784 -0.195096 0
    outer loop
       vertex 0.506641 -0.064705 0
       vertex 0.513021 -0.0326315 0
       vertex 0.513021 -0.0326315 0.1
    endloop
  endfacet
  facet normal 0.980784 -0.195096 0
    outer loop
       vertex 0.513021 -0.0326315 0.1
       vertex 0.506641 -0.064705 0.1
       vertex 0.506641 -0.064705 0
    endloop
  endfacet
  facet normal 0.997858 -0.0654098 0
    outer loop
       vertex 0.51516 -8.32665e-17 0.1
       vertex 0.513021 -0.0326315 0.1
       vertex 0.513021 -0.0326315 0
    endloop
  endfacet
  facet normal 0.997858 -0.0654098 -1.08928e-16
    outer loop
       vertex 0.513021 -0.0326315 0
       vertex 0.51516 8.32665e-17 0
       vertex 0.51516 -8.32665e-17 0.1
    endloop
  endfacet
  facet normal 0.997858 0.0654098 0
    outer loop
       vertex 0.51516 8.32665e-17 0
       vertex 0.513021 0.0326315 0
       vertex 0.513021 0.0326315 0.1
    endloop
  endfacet
  facet normal 0.997858 0.0654098 1.08928e-16
    outer loop
       vertex 0.513021 0.0326315 0.1
       vertex 0.51516 -8.32665e-17 0.1
       vertex 0.51516 8.32665e-17 0
    endloop
  endfacet
  facet normal 0.980784 0.195096 0
    outer loop
       vertex 0.513021 0.0326315 0
       vertex 0.506641 0.064705 0
       vertex 0.506641 0.064705 0.1
    endloop
  endfacet
  facet normal 0.980784 0.195096 0
    outer loop
       vertex 0.506641 0.064705 0.1
       vertex 0.513021 0.0326315 0.1
       vertex 0.513021 0.0326315 0
    endloop
  endfacet
  facet normal 0.946935 0.321425 0
    outer loop
       vertex 0.506641 0.064705 0
       vertex 0.49613 0.095671 0
       vertex 0.49613 0.095671 0.1
    endloop
  endfacet
  facet normal 0.946935 0.321425 0
    outer loop
       vertex 0.49613 0.095671 0.1
       vertex 0.506641 0.064705 0.1
       vertex 0.506641 0.064705 0
    endloop
  endfacet
  facet normal 0.896866 0.442302 0
    outer loop
       vertex 0.49613 0.095671 0
       vertex 0.481666 0.125 0
       vertex 0.481666 0.125 0.1
    endloop
  endfacet
  facet normal 0.896866 0.442302 0
    outer loop
       vertex 0.481666 0.125 0.1
       vertex 0.49613 0.095671 0.1
       vertex 0.49613 0.095671 0
    endloop
  endfacet
  facet normal 0.831476 0.555561 0
    outer loop
       vertex 0.481666 0.125 0
       vertex 0.463498 0.152191 0
       vertex 0.463498 0.152191 0.1
    endloop
  endfacet
  facet normal 0.831476 0.555561 0
    outer loop
       vertex 0.463498 0.152191 0.1
       vertex 0.481666 0.125 0.1
       vertex 0.481666 0.125 0
    endloop
  endfacet
  facet normal 0.751817 0.659372 0
    outer loop
       vertex 0.463498 0.152191 0
       vertex 0.441936 0.176776 0
       vertex 0.441936 0.176776 0.1
    endloop
  endfacet
  facet normal 0.751817 0.659372 0
    outer loop
       vertex 0.441936 0.176776 0.1
       vertex 0.463498 0.152191 0.1
       vertex 0.463498 0.152191 0
    endloop
  endfacet
  facet normal 0.659372 0.751817 0
    outer loop
       vertex 0.441936 0.176776 0
       vertex 0.417351 0.198338 0
       vertex 0.417351 0.198338 0.1
    endloop
  endfacet
  facet normal 0.659372 0.751817 0
    outer loop
       vertex 0.417351 0.198338 0.1
       vertex 0.441936 0.176776 0.1
       vertex 0.441936 0.176776 0
    endloop
  endfacet
  facet normal 0.555561 0.831476 0
    outer loop
       vertex 0.417351 0.198338 0
       vertex 0.39016 0.216506 0
       vertex 0.39016 0.216506 0.1
    endloop
  endfacet
  facet normal 0.555561 0.831476 0
    outer loop
       vertex 0.39016 0.216506 0.1
       vertex 0.417351 0.198338 0.1
       vertex 0.417351 0.198338 0
    endloop
  endfacet
  facet normal 0.442302 0.896866 0
    outer loop
       vertex 0.39016 0.216506 0
       vertex 0.360831 0.23097 0
       vertex 0.360831 0.23097 0.1
    endloop
  endfacet
  facet normal 0.442302 0.896866 0
    outer loop
       vertex 0.360831 0.23097 0.1
       vertex 0.39016 0.216506 0.1
       vertex 0.39016 0.216506 0
    endloop
  endfacet
  facet normal 0.321425 0.946935 0
    outer loop
       vertex 0.360831 0.23097 0
       vertex 0.329865 0.241481 0
       vertex 0.329865 0.241481 0.1
    endloop
  endfacet
  facet normal 0.321425 0.946935 0
    outer loop
       vertex 0.329865 0.241481 0.1
       vertex 0.360831 0.23097 0.1
       vertex 0.360831 0.23097 0
    endloop
  endfacet
  facet normal 0.195096 0.980784 0
    outer loop
       vertex 0.329865 0.241481 0
       vertex 0.297791 0.247861 0
       vertex 0.297791 0.247861 0.1
    endloop
  endfacet
  facet normal 0.195096 0.980784 0
    outer loop
       vertex 0.297791 0.247861 0.1
       vertex 0.329865 0.241481 0.1
       vertex 0.329865 0.241481 0
    endloop
  endfacet
  facet normal 0.0654098 0.997858 0
    outer loop
       vertex 0.26516 0.25 0.1
       vertex 0.297791 0.247861 0.1
       vertex 0.297791 0.247861 0
    endloop
  endfacet
  facet normal 0.0654098 0.997858 -1.45239e-16
    outer loop
       vertex 0.297791 0.247861 0
       vertex 0.26516 0.25 0
       vertex 0.26516 0.25 0.1
    endloop
  endfacet
  facet normal -0.0654098 0.997858 0
    outer loop
       vertex 0.26516 0.25 0
       vertex 0.232528 0.247861 0
       vertex 0.232528 0.247861 0.1
    endloop
  endfacet
  facet normal -0.0654098 0.997858 1.45239e-16
    outer loop
       vertex 0.232528 0.247861 0.1
       vertex 0.26516 0.25 0.1
       vertex 0.26516 0.25 0
    endloop
  endfacet
  facet normal -0.195096 0.980784 0
    outer loop
       vertex 0.232528 0.247861 0
       vertex 0.200455 0.241481 0
       vertex 0.200455 0.241481 0.1
    endloop
  endfacet
  facet normal -0.195096 0.980784 0
    outer loop
       vertex 0.200455 0.241481 0.1
       vertex 0.232528 0.247861 0.1
       vertex 0.232528 0.247861 0
    endloop
  endfacet
  facet normal -0.321425 0.946935 0
    outer loop
       vertex 0.200455 0.241481 0
       vertex 0.169489 0.23097 0
       vertex 0.169489 0.23097 0.1
    endloop
  endfacet
  facet normal -0.321425 0.946935 0
    outer loop
       vertex 0.169489 0.23097 0.1
       vertex 0.200455 0.241481 0.1
       vertex 0.200455 0.241481 0
    endloop
  endfacet
  facet normal -0.442302 0.896866 0
    outer loop
       vertex 0.169489 0.23097 0
       vertex 0.14016 0.216506 0
       vertex 0.14016 0.216506 0.1
    endloop
  endfacet
  facet normal -0.442302 0.896866 0
    outer loop
       vertex 0.14016 0.216506 0.1
       vertex 0.169489 0.23097 0.1
       vertex 0.169489 0.23097 0
    endloop
  endfacet
  facet normal -0.555561 0.831476 0
    outer loop
       vertex 0.14016 0.216506 0
       vertex 0.112969 0.198338 0
       vertex 0.112969 0.198338 0.1
    endloop
  endfacet
  facet normal -0.555561 0.831476 0
    outer loop
       vertex 0.112969 0.198338 0.1
       vertex 0.14016 0.216506 0.1
       vertex 0.14016 0.216506 0
    endloop
  endfacet
  facet normal -0.659372 0.751817 0
    outer loop
       vertex 0.112969 0.198338 0
       vertex 0.0883838 0.176776 0
       vertex 0.0883838 0.176776 0.1
    endloop
  endfacet
  facet normal -0.659372 0.751817 0
    outer loop
       vertex 0.0883838 0.176776 0.1
       vertex 0.112969 0.198338 0.1
       vertex 0.112969 0.198338 0
    endloop
  endfacet
  facet normal -0.751817 0.659372 0
    outer loop
       vertex 0.0883838 0.176776 0
       vertex 0.0668218 0.152191 0
       vertex 0.0668218 0.152191 0.1
    endloop
  endfacet
  facet normal -0.751817 0.659372 0
    outer loop
       vertex 0.0668218 0.152191 0.1
       vertex 0.0883838 0.176776 0.1
       vertex 0.0883838 0.176776 0
    endloop
  endfacet
  facet normal -0.831476 0.555561 0
    outer loop
       vertex 0.0668218 0.152191 0
       vertex 0.0486538 0.125 0
       vertex 0.0486538 0.125 0.1
    endloop
  endfacet
  facet normal -0.831476 0.555561 0
    outer loop
       vertex 0.0486538 0.125 0.1
       vertex 0.0668218 0.152191 0.1
       vertex 0.0668218 0.152191 0
    endloop
  endfacet
  facet normal -0.896866 0.442302 0
    outer loop
       vertex 0.0486538 0.125 0
       vertex 0.0341898 0.095671 0
       vertex 0.0341898 0.095671 0.1
    endloop
  endfacet
  facet normal -0.896866 0.442302 0
    outer loop
       vertex 0.0341898 0.095671 0.1
       vertex 0.0486538 0.125 0.1
       vertex 0.0486538 0.125 0
    endloop
  endfacet
  facet normal -0.946935 0.321425 0
    outer loop
       vertex 0.0341898 0.095671 0
       vertex 0.0236788 0.064705 0
       vertex 0.0236788 0.064705 0.1
    endloop
  endfacet
  facet normal -0.946935 0.321425 0
    outer loop
       vertex 0.0236788 0.064705 0.1
       vertex 0.0341898 0.095671 0.1
       vertex 0.0341898 0.095671 0
    endloop
  endfacet
  facet normal -0.980784 0.195096 0
    outer loop
       vertex 0.0236788 0.064705 0
       vertex 0.0172988 0.0326315 0
       vertex 0.0172988 0.0326315 0.1
    endloop
  endfacet
  facet normal -0.980784 0.195096 0
    outer loop
       vertex 0.0172988 0.0326315 0.1
       vertex 0.0236788 0.064705 0.1
       vertex 0.0236788 0.064705 0
    endloop
  endfacet
  facet normal -0.997858 0.0654098 0
    outer loop
       vertex 0.0151598 8.32665e-17 0.1
       vertex 0.0172988 0.0326315 0.1
       vertex 0.0172988 0.0326315 0
    endloop
  endfacet
  facet normal -0.997858 0.0654098 -1.08928e-16
    outer loop
       vertex 0.0172988 0.0326315 0
       vertex 0.0151598 -8.32665e-17 0
       vertex 0.0151598 8.32665e-17 0.1
    endloop
  endfacet
  facet normal -0.997858 -0.0654098 0
    outer loop
       vertex 0.0151598 -8.32665e-17 0
       vertex 0.0172988 -0.0326315 0
       vertex 0.0172988 -0.0326315 0.1
    endloop
  endfacet
  facet normal -0.997858 -0.0654098 1.08928e-16
    outer loop
       vertex 0.0172988 -0.0326315 0.1
       vertex 0.0151598 8.32665e-17 0.1
       vertex 0.0151598 -8.32665e-17 0
    endloop
  endfacet
  facet normal -0.980784 -0.195096 0
    outer loop
       vertex 0.0172988 -0.0326315 0
       vertex 0.0236788 -0.064705 0
       vertex 0.0236788 -0.064705 0.1
    endloop
  endfacet
  facet normal -0.980784 -0.195096 0
    outer loop
       vertex 0.0236788 -0.064705 0.1
       vertex 0.0172988 -0.0326315 0.1
       vertex 0.0172988 -0.0326315 0
    endloop
  endfacet
  facet normal -0.946935 -0.321425 0
    outer loop
       vertex 0.0236788 -0.064705 0
       vertex 0.0341898 -0.095671 0
       vertex 0.0341898 -0.095671 0.1
    endloop
  endfacet
  facet normal -0.946935 -0.321425 0
    outer loop
       vertex 0.0341898 -0.095671 0.1
       vertex 0.0236788 -0.064705 0.1
       vertex 0.0236788 -0.064705 0
    endloop
  endfacet
  facet normal -0.896866 -0.442302 0
    outer loop
       vertex 0.0341898 -0.095671 0
       vertex 0.0486538 -0.125 0
       vertex 0.0486538 -0.125 0.1
    endloop
  endfacet
  facet normal -0.896866 -0.442302 0
    outer loop
       vertex 0.0486538 -0.125 0.1
       vertex 0.0341898 -0.095671 0.1
       vertex 0.0341898 -0.095671 0
    endloop
  endfacet
  facet normal -0.831476 -0.555561 0
    outer loop
       vertex 0.0486538 -0.125 0
       vertex 0.0668218 -0.152191 0
       vertex 0.0668218 -0.152191 0.1
    endloop
  endfacet
  facet normal -0.831476 -0.555561 0
    outer loop
       vertex 0.0668218 -0.152191 0.1
       vertex 0.0486538 -0.125 0.1
       vertex 0.0486538 -0.125 0
    endloop
  endfacet
  facet normal -0.751817 -0.659372 0
    outer loop
       vertex 0.0668218 -0.152191 0
       vertex 0.0883838 -0.176776 0
       vertex 0.0883838 -0.176776 0.1
    endloop
  endfacet
  facet normal -0.751817 -0.659372 0
    outer loop
       vertex 0.0883838 -0.176776 0.1
       vertex 0.0668218 -0.152191 0.1
       vertex 0.0668218 -0.152191 0
    endloop
  endfacet
  facet normal 0.659372 -0.751817 0
    outer loop
       vertex 0.441936 -0.176776 0
       vertex 0.441936 -0.176776 0.1
       vertex 0.417351 -0.198338 0.1
    endloop
  endfacet
  facet normal 0.659372 -0.751817 0
    outer loop
       vertex 0.417351 -0.198338 0.1
       vertex 0.417351 -0.198338 0
       vertex 0.441936 -0.176776 0
    endloop
  endfacet
  facet normal 0.555561 -0.831476 0
    outer loop
       vertex 0.417351 -0.198338 0
       vertex 0.417351 -0.198338 0.1
       vertex 0.39016 -0.216506 0.1
    endloop
  endfacet
  facet normal 0.555561 -0.831476 0
    outer loop
       vertex 0.39016 -0.216506 0.1
       vertex 0.39016 -0.216506 0
       vertex 0.417351 -0.198338 0
    endloop
  endfacet
  facet normal 0.442302 -0.896866 0
    outer loop
       vertex 0.39016 -0.216506 0
       vertex 0.39016 -0.216506 0.1
       vertex 0.360831 -0.23097 0.1
    endloop
  endfacet
  facet normal 0.442302 -0.896866 0
    outer loop
       vertex 0.360831 -0.23097 0.1
       vertex 0.360831 -0.23097 0
       vertex 0.39016 -0.216506 0
    endloop
  endfacet
  facet normal 0.321425 -0.946935 0
    outer loop
       vertex 0.360831 -0.23097 0
       vertex 0.360831 -0.23097 0.1
       vertex 0.329865 -0.241481 0.1
    endloop
  endfacet
  facet normal 0.321425 -0.946935 0
    outer loop
       vertex 0.329865 -0.241481 0.1
       vertex 0.329865 -0.241481 0
       vertex 0.360831 -0.23097 0
    endloop
  endfacet
  facet normal 0.195096 -0.980784 0
    outer loop
       vertex 0.329865 -0.241481 0
       vertex 0.329865 -0.241481 0.1
       vertex 0.297791 -0.247861 0.1
    endloop
  endfacet
  facet normal 0.195096 -0.980784 0
    outer loop
       vertex 0.297791 -0.247861 0.1
       vertex 0.297791 -0.247861 0
       vertex 0.329865 -0.241481 0
    endloop
  endfacet
  facet normal 0.0654098 -0.997858 0
    outer loop
       vertex 0.26516 -0.25 0
       vertex 0.297791 -0.247861 0
       vertex 0.297791 -0.247861 0.1
    endloop
  endfacet
  facet normal 0.0654098 -0.997858 1.45239e-16
    outer loop
       vertex 0.297791 -0.247861 0.1
       vertex 0.26516 -0.25 0.1
       vertex 0.26516 -0.25 0
    endloop
  endfacet
  facet normal -0.0654098 -0.997858 0
    outer loop
       vertex 0.26516 -0.25 0.1
       vertex 0.232528 -0.247861 0.1
       vertex 0.232528 -0.247861 0
    endloop
  endfacet
  facet normal -0.0654098 -0.997858 -1.45239e-16
    outer loop
       vertex 0.232528 -0.247861 0
       vertex 0.26516 -0.25 0
       vertex 0.26516 -0.25 0.1
    endloop
  endfacet
  facet normal -0.195096 -0.980784 0
    outer loop
       vertex 0.232528 -0.247861 0
       vertex 0.232528 -0.247861 0.1
       vertex 0.200455 -0.241481 0.1
    endloop
  endfacet
  facet normal -0.195096 -0.980784 -0
    outer loop
       vertex 0.200455 -0.241481 0.1
       vertex 0.200455 -0.241481 0
       vertex 0.232528 -0.247861 0
    endloop
  endfacet
  facet normal -0.321425 -0.946935 0
    outer loop
       vertex 0.200455 -0.241481 0
       vertex 0.200455 -0.241481 0.1
       vertex 0.169489 -0.23097 0.1
    endloop
  endfacet
  facet normal -0.321425 -0.946935 -0
    outer loop
       vertex 0.169489 -0.23097 0.1
       vertex 0.169489 -0.23097 0
       vertex 0.200455 -0.241481 0
    endloop
  endfacet
  facet normal -0.442302 -0.896866 0
    outer loop
       vertex 0.169489 -0.23097 0
       vertex 0.169489 -0.23097 0.1
       vertex 0.14016 -0.216506 0.1
    endloop
  endfacet
  facet normal -0.442302 -0.896866 -0
    outer loop
       vertex 0.14016 -0.216506 0.1
       vertex 0.14016 -0.216506 0
       vertex 0.169489 -0.23097 0
    endloop
  endfacet
  facet normal -0.555561 -0.831476 0
    outer loop
       vertex 0.14016 -0.216506 0
       vertex 0.14016 -0.216506 0.1
       vertex 0.112969 -0.198338 0.1
    endloop
  endfacet
  facet normal -0.555561 -0.831476 -0
    outer loop
       vertex 0.112969 -0.198338 0.1
       vertex 0.112969 -0.198338 0
       vertex 0.14016 -0.216506 0
    endloop
  endfacet
  facet normal -0.659372 -0.751817 0
    outer loop
       vertex 0.112969 -0.198338 0
       vertex 0.112969 -0.198338 0.1
       vertex 0.0883838 -0.176776 0.1
    endloop
  endfacet
  facet normal -0.659372 -0.751817 -0
    outer loop
       vertex 0.0883838 -0.176776 0.1
       vertex 0.0883838 -0.176776 0
       vertex 0.112969 -0.198338 0
    endloop
  endfacet
endsolid cylinder
