solid cylinder
  facet normal 0.751817 -0.659372 0
    outer loop
       vertex 0.271779 -0.176776 0
       vertex 0.293341 -0.152191 0
       vertex 0.293341 -0.152191 0.1
    endloop
  endfacet
  facet normal 0.751817 -0.659372 0
    outer loop
       vertex 0.293341 -0.152191 0.1
       vertex 0.271779 -0.176776 0.1
       vertex 0.271779 -0.176776 0
    endloop
  endfacet
  facet normal 0.831476 -0.555561 0
    outer loop
       vertex 0.293341 -0.152191 0
       vertex 0.311509 -0.125 0
       vertex 0.311509 -0.125 0.1
    endloop
  endfacet
  facet normal 0.831476 -0.555561 0
    outer loop
       vertex 0.311509 -0.125 0.1
       vertex 0.293341 -0.152191 0.1
       vertex 0.293341 -0.152191 0
    endloop
  endfacet
  facet normal 0.896866 -0.442302 0
    outer loop
       vertex 0.311509 -0.125 0
       vertex 0.325973 -0.095671 0
       vertex 0.325973 -0.095671 0.1
    endloop
  endfacet
  facet normal 0.896866 -0.442302 0
    outer loop
       vertex 0.325973 -0.095671 0.1
       vertex 0.311509 -0.125 0.1
       vertex 0.311509 -0.125 0
    endloop
  endfacet
  facet normal 0.946935 -0.321425 0
    outer loop
       vertex 0.325973 -0.095671 0
       vertex 0.336484 -0.064705 0
       vertex 0.336484 -0.064705 0.1
    endloop
  endfacet
  facet normal 0.946935 -0.321425 0
    outer loop
       vertex 0.336484 -0.064705 0.1
       vertex 0.325973 -0.095671 0.1
       vertex 0.325973 -0.095671 0
    endloop
  endfacet
  facet normal 0.980784 -0.195096 0
    outer loop
       vertex 0.336484 -0.064705 0
       vertex 0.342864 -0.0326315 0
       vertex 0.342864 -0.0326315 0.1
    endloop
  endfacet
  facet normal 0.980784 -0.195096 0
    outer loop
       vertex 0.342864 -0.0326315 0.1
       vertex 0.336484 -0.064705 0.1
       vertex 0.336484 -0.064705 0
    endloop
  endfacet
  facet normal 0.997858 -0.0654098 0
    outer loop
       vertex 0.345003 -8.32665e-17 0.1
       vertex 0.342864 -0.0326315 0.1
       vertex 0.342864 -0.0326315 0
    endloop
  endfacet
  facet normal 0.997858 -0.0654098 -1.08928e-16
    outer loop
       vertex 0.342864 -0.0326315 0
       vertex 0.345003 8.32665e-17 0
       vertex 0.345003 -8.32665e-17 0.1
    endloop
  endfacet
  facet normal 0.997858 0.0654098 0
    outer loop
       vertex 0.345003 8.32665e-17 0
       vertex 0.342864 0.0326315 0
       vertex 0.342864 0.0326315 0.1
    endloop
  endfacet
  facet normal 0.997858 0.0654098 1.08928e-16
    outer loop
       vertex 0.342864 0.0326315 0.1
       vertex 0.345003 -8.32665e-17 0.1
       vertex 0.345003 8.32665e-17 0
    endloop
  endfacet
  facet normal 0.980784 0.195096 0
    outer loop
       vertex 0.342864 0.0326315 0
       vertex 0.336484 0.064705 0
       vertex 0.336484 0.064705 0.1
    endloop
  endfacet
  facet normal 0.980784 0.195096 0
    outer loop
       vertex 0.336484 0.064705 0.1
       vertex 0.342864 0.0326315 0.1
       vertex 0.342864 0.0326315 0
    endloop
  endfacet
  facet normal 0.946935 0.321425 0
    outer loop
       vertex 0.336484 0.064705 0
       vertex 0.325973 0.095671 0
       vertex 0.325973 0.095671 0.1
    endloop
  endfacet
  facet normal 0.946935 0.321425 0
    outer loop
       vertex 0.325973 0.095671 0.1
       vertex 0.336484 0.064705 0.1
       vertex 0.336484 0.064705 0
    endloop
  endfacet
  facet normal 0.896866 0.442302 0
    outer loop
       vertex 0.325973 0.095671 0
       vertex 0.311509 0.125 0
       vertex 0.311509 0.125 0.1
    endloop
  endfacet
  facet normal 0.896866 0.442302 0
    outer loop
       vertex 0.311509 0.125 0.1
       vertex 0.325973 0.095671 0.1
       vertex 0.325973 0.095671 0
    endloop
  endfacet
  facet normal 0.831476 0.555561 0
    outer loop
       vertex 0.311509 0.125 0
       vertex 0.293341 0.152191 0
       vertex 0.293341 0.152191 0.1
    endloop
  endfacet
  facet normal 0.831476 0.555561 0
    outer loop
       vertex 0.293341 0.152191 0.1
       vertex 0.311509 0.125 0.1
       vertex 0.311509 0.125 0
    endloop
  endfacet
  facet normal 0.751817 0.659372 0
    outer loop
       vertex 0.293341 0.152191 0
       vertex 0.271779 0.176776 0
       vertex 0.271779 0.176776 0.1
    endloop
  endfacet
  facet normal 0.751817 0.659372 0
    outer loop
       vertex 0.271779 0.176776 0.1
       vertex 0.293341 0.152191 0.1
       vertex 0.293341 0.152191 0
    endloop
  endfacet
  facet normal 0.659372 0.751817 0
    outer loop
       vertex 0.271779 0.176776 0
       vertex 0.247194 0.198338 0
       vertex 0.247194 0.198338 0.1
    endloop
  endfacet
  facet normal 0.659372 0.751817 0
    outer loop
       vertex 0.247194 0.198338 0.1
       vertex 0.271779 0.176776 0.1
       vertex 0.271779 0.176776 0
    endloop
  endfacet
  facet normal 0.555561 0.831476 0
    outer loop
       vertex 0.247194 0.198338 0
       vertex 0.220003 0.216506 0
       vertex 0.220003 0.216506 0.1
    endloop
  endfacet
  facet normal 0.555561 0.831476 0
    outer loop
       vertex 0.220003 0.216506 0.1
       vertex 0.247194 0.198338 0.1
       vertex 0.247194 0.198338 0
    endloop
  endfacet
  facet normal 0.442302 0.896866 0
    outer loop
       vertex 0.220003 0.216506 0
       vertex 0.190674 0.23097 0
       vertex 0.190674 0.23097 0.1
    endloop
  endfacet
  facet normal 0.442302 0.896866 0
    outer loop
       vertex 0.190674 0.23097 0.1
       vertex 0.220003 0.216506 0.1
       vertex 0.220003 0.216506 0
    endloop
  endfacet
  facet normal 0.321425 0.946935 0
    outer loop
       vertex 0.190674 0.23097 0
       vertex 0.159708 0.241481 0
       vertex 0.159708 0.241481 0.1
    endloop
  endfacet
  facet normal 0.321425 0.946935 0
    outer loop
       vertex 0.159708 0.241481 0.1
       vertex 0.190674 0.23097 0.1
       vertex 0.190674 0.23097 0
    endloop
  endfacet
  facet normal 0.195096 0.980784 0
    outer loop
       vertex 0.159708 0.241481 0
       vertex 0.127635 0.247861 0
       vertex 0.127635 0.247861 0.1
    endloop
  endfacet
  facet normal 0.195096 0.980784 0
    outer loop
       vertex 0.127635 0.247861 0.1
       vertex 0.159708 0.241481 0.1
       vertex 0.159708 0.241481 0
    endloop
  endfacet
  facet normal 0.0654098 0.997858 0
    outer loop
       vertex 0.0950035 0.25 0.1
       vertex 0.127635 0.247861 0.1
       vertex 0.127635 0.247861 0
    endloop
  endfacet
  facet normal 0.0654098 0.997858 -1.0893e-16
    outer loop
       vertex 0.127635 0.247861 0
       vertex 0.0950035 0.25 0
       vertex 0.0950035 0.25 0.1
    endloop
  endfacet
  facet normal -0.0654098 0.997858 0
    outer loop
       vertex 0.0950035 0.25 0
       vertex 0.062372 0.247861 0
       vertex 0.062372 0.247861 0.1
    endloop
  endfacet
  facet normal -0.0654098 0.997858 1.08928e-16
    outer loop
       vertex 0.062372 0.247861 0.1
       vertex 0.0950035 0.25 0.1
       vertex 0.0950035 0.25 0
    endloop
  endfacet
  facet normal -0.195096 0.980784 0
    outer loop
       vertex 0.062372 0.247861 0
       vertex 0.0302985 0.241481 0
       vertex 0.0302985 0.241481 0.1
    endloop
  endfacet
  facet normal -0.195096 0.980784 0
    outer loop
       vertex 0.0302985 0.241481 0.1
       vertex 0.062372 0.247861 0.1
       vertex 0.062372 0.247861 0
    endloop
  endfacet
  facet normal -0.321425 0.946935 0
    outer loop
       vertex 0.0302985 0.241481 0
       vertex -0.000667539 0.23097 0
       vertex -0.000667539 0.23097 0.1
    endloop
  endfacet
  facet normal -0.321425 0.946935 0
    outer loop
       vertex -0.000667539 0.23097 0.1
       vertex 0.0302985 0.241481 0.1
       vertex 0.0302985 0.241481 0
    endloop
  endfacet
  facet normal -0.442302 0.896866 0
    outer loop
       vertex -0.000667539 0.23097 0
       vertex -0.0299965 0.216506 0
       vertex -0.0299965 0.216506 0.1
    endloop
  endfacet
  facet normal -0.442302 0.896866 0
    outer loop
       vertex -0.0299965 0.216506 0.1
       vertex -0.000667539 0.23097 0.1
       vertex -0.000667539 0.23097 0
    endloop
  endfacet
  facet normal -0.555561 0.831476 0
    outer loop
       vertex -0.0299965 0.216506 0
       vertex -0.0571875 0.198338 0
       vertex -0.0571875 0.198338 0.1
    endloop
  endfacet
  facet normal -0.555561 0.831476 0
    outer loop
       vertex -0.0571875 0.198338 0.1
       vertex -0.0299965 0.216506 0.1
       vertex -0.0299965 0.216506 0
    endloop
  endfacet
  facet normal -0.659372 0.751817 0
    outer loop
       vertex -0.0571875 0.198338 0
       vertex -0.0817725 0.176776 0
       vertex -0.0817725 0.176776 0.1
    endloop
  endfacet
  facet normal -0.659372 0.751817 0
    outer loop
       vertex -0.0817725 0.176776 0.1
       vertex -0.0571875 0.198338 0.1
       vertex -0.0571875 0.198338 0
    endloop
  endfacet
  facet normal -0.751817 0.659372 0
    outer loop
       vertex -0.0817725 0.176776 0
       vertex -0.103335 0.152191 0
       vertex -0.103335 0.152191 0.1
    endloop
  endfacet
  facet normal -0.751817 0.659372 0
    outer loop
       vertex -0.103335 0.152191 0.1
       vertex -0.0817725 0.176776 0.1
       vertex -0.0817725 0.176776 0
    endloop
  endfacet
  facet normal -0.831476 0.555561 0
    outer loop
       vertex -0.103335 0.152191 0
       vertex -0.121503 0.125 0
       vertex -0.121503 0.125 0.1
    endloop
  endfacet
  facet normal -0.831476 0.555561 0
    outer loop
       vertex -0.121503 0.125 0.1
       vertex -0.103335 0.152191 0.1
       vertex -0.103335 0.152191 0
    endloop
  endfacet
  facet normal -0.896866 0.442302 0
    outer loop
       vertex -0.121503 0.125 0
       vertex -0.135967 0.095671 0
       vertex -0.135967 0.095671 0.1
    endloop
  endfacet
  facet normal -0.896866 0.442302 0
    outer loop
       vertex -0.135967 0.095671 0.1
       vertex -0.121503 0.125 0.1
       vertex -0.121503 0.125 0
    endloop
  endfacet
  facet normal -0.946935 0.321425 0
    outer loop
       vertex -0.135967 0.095671 0
       vertex -0.146478 0.064705 0
       vertex -0.146478 0.064705 0.1
    endloop
  endfacet
  facet normal -0.946935 0.321425 0
    outer loop
       vertex -0.146478 0.064705 0.1
       vertex -0.135967 0.095671 0.1
       vertex -0.135967 0.095671 0
    endloop
  endfacet
  facet normal -0.980784 0.195096 0
    outer loop
       vertex -0.146478 0.064705 0
       vertex -0.152858 0.0326315 0
       vertex -0.152858 0.0326315 0.1
    endloop
  endfacet
  facet normal -0.980784 0.195096 0
    outer loop
       vertex -0.152858 0.0326315 0.1
       vertex -0.146478 0.064705 0.1
       vertex -0.146478 0.064705 0
    endloop
  endfacet
  facet normal -0.997858 0.0654098 0
    outer loop
       vertex -0.154997 8.32665e-17 0.1
       vertex -0.152858 0.0326315 0.1
       vertex -0.152858 0.0326315 0
    endloop
  endfacet
  facet normal -0.997858 0.0654098 -1.08928e-16
    outer loop
       vertex -0.152858 0.0326315 0
       vertex -0.154997 -8.32665e-17 0
       vertex -0.154997 8.32665e-17 0.1
    endloop
  endfacet
  facet normal -0.997858 -0.0654098 0
    outer loop
       vertex -0.154997 -8.32665e-17 0
       vertex -0.152858 -0.0326315 0
       vertex -0.152858 -0.0326315 0.1
    endloop
  endfacet
  facet normal -0.997858 -0.0654098 1.08928e-16
    outer loop
       vertex -0.152858 -0.0326315 0.1
       vertex -0.154997 8.32665e-17 0.1
       vertex -0.154997 -8.32665e-17 0
    endloop
  endfacet
  facet normal -0.980784 -0.195096 0
    outer loop
       vertex -0.152858 -0.0326315 0
       vertex -0.146478 -0.064705 0
       vertex -0.146478 -0.064705 0.1
    endloop
  endfacet
  facet normal -0.980784 -0.195096 0
    outer loop
       vertex -0.146478 -0.064705 0.1
       vertex -0.152858 -0.0326315 0.1
       vertex -0.152858 -0.0326315 0
    endloop
  endfacet
  facet normal -0.946935 -0.321425 0
    outer loop
       vertex -0.146478 -0.064705 0
       vertex -0.135967 -0.095671 0
       vertex -0.135967 -0.095671 0.1
    endloop
  endfacet
  facet normal -0.946935 -0.321425 0
    outer loop
       vertex -0.135967 -0.095671 0.1
       vertex -0.146478 -0.064705 0.1
       vertex -0.146478 -0.064705 0
    endloop
  endfacet
  facet normal -0.896866 -0.442302 0
    outer loop
       vertex -0.135967 -0.095671 0
       vertex -0.121503 -0.125 0
       vertex -0.121503 -0.125 0.1
    endloop
  endfacet
  facet normal -0.896866 -0.442302 0
    outer loop
       vertex -0.121503 -0.125 0.1
       vertex -0.135967 -0.095671 0.1
       vertex -0.135967 -0.095671 0
    endloop
  endfacet
  facet normal -0.831476 -0.555561 0
    outer loop
       vertex -0.121503 -0.125 0
       vertex -0.103335 -0.152191 0
       vertex -0.103335 -0.152191 0.1
    endloop
  endfacet
  facet normal -0.831476 -0.555561 0
    outer loop
       vertex -0.103335 -0.152191 0.1
       vertex -0.121503 -0.125 0.1
       vertex -0.121503 -0.125 0
    endloop
  endfacet
  facet normal -0.751817 -0.659372 0
    outer loop
       vertex -0.103335 -0.152191 0
       vertex -0.0817725 -0.176776 0
       vertex -0.0817725 -0.176776 0.1
    endloop
  endfacet
  facet normal -0.751817 -0.659372 0
    outer loop
       vertex -0.0817725 -0.176776 0.1
       vertex -0.103335 -0.152191 0.1
       vertex -0.103335 -0.152191 0
    endloop
  endfacet
  facet normal 0.659372 -0.751817 0
    outer loop
       vertex 0.271779 -0.176776 0
       vertex 0.271779 -0.176776 0.1
       vertex 0.247194 -0.198338 0.1
    endloop
  endfacet
  facet normal 0.659372 -0.751817 0
    outer loop
       vertex 0.247194 -0.198338 0.1
       vertex 0.247194 -0.198338 0
       vertex 0.271779 -0.176776 0
    endloop
  endfacet
  facet normal 0.555561 -0.831476 0
    outer loop
       vertex 0.247194 -0.198338 0
       vertex 0.247194 -0.198338 0.1
       vertex 0.220003 -0.216506 0.1
    endloop
  endfacet
  facet normal 0.555561 -0.831476 0
    outer loop
       vertex 0.220003 -0.216506 0.1
       vertex 0.220003 -0.216506 0
       vertex 0.247194 -0.198338 0
    endloop
  endfacet
  facet normal 0.442302 -0.896866 0
    outer loop
       vertex 0.220003 -0.216506 0
       vertex 0.220003 -0.216506 0.1
       vertex 0.190674 -0.23097 0.1
    endloop
  endfacet
  facet normal 0.442302 -0.896866 0
    outer loop
       vertex 0.190674 -0.23097 0.1
       vertex 0.190674 -0.23097 0
       vertex 0.220003 -0.216506 0
    endloop
  endfacet
  facet normal 0.321425 -0.946935 0
    outer loop
       vertex 0.190674 -0.23097 0
       vertex 0.190674 -0.23097 0.1
       vertex 0.159708 -0.241481 0.1
    endloop
  endfacet
  facet normal 0.321425 -0.946935 0
    outer loop
       vertex 0.159708 -0.241481 0.1
       vertex 0.159708 -0.241481 0
       vertex 0.190674 -0.23097 0
    endloop
  endfacet
  facet normal 0.195096 -0.980784 0
    outer loop
       vertex 0.159708 -0.241481 0
       vertex 0.159708 -0.241481 0.1
       vertex 0.127635 -0.247861 0.1
    endloop
  endfacet
  facet normal 0.195096 -0.980784 0
    outer loop
       vertex 0.127635 -0.247861 0.1
       vertex 0.127635 -0.247861 0
       vertex 0.159708 -0.241481 0
    endloop
  endfacet
  facet normal 0.0654098 -0.997858 0
    outer loop
       vertex 0.0950035 -0.25 0
       vertex 0.127635 -0.247861 0
       vertex 0.127635 -0.247861 0.1
    endloop
  endfacet
  facet normal 0.0654098 -0.997858 1.0893e-16
    outer loop
       vertex 0.127635 -0.247861 0.1
       vertex 0.0950035 -0.25 0.1
       vertex 0.0950035 -0.25 0
    endloop
  endfacet
  facet normal -0.0654098 -0.997858 0
    outer loop
       vertex 0.0950035 -0.25 0.1
       vertex 0.062372 -0.247861 0.1
       vertex 0.062372 -0.247861 0
    endloop
  endfacet
  facet normal -0.0654098 -0.997858 -1.08928e-16
    outer loop
       vertex 0.062372 -0.247861 0
       vertex 0.0950035 -0.25 0
       vertex 0.0950035 -0.25 0.1
    endloop
  endfacet
  facet normal -0.195096 -0.980784 0
    outer loop
       vertex 0.062372 -0.247861 0
       vertex 0.062372 -0.247861 0.1
       vertex 0.0302985 -0.241481 0.1
    endloop
  endfacet
  facet normal -0.195096 -0.980784 -0
    outer loop
       vertex 0.0302985 -0.241481 0.1
       vertex 0.0302985 -0.241481 0
       vertex 0.062372 -0.247861 0
    endloop
  endfacet
  facet normal -0.321425 -0.946935 0
    outer loop
       vertex 0.0302985 -0.241481 0
       vertex 0.0302985 -0.241481 0.1
       vertex -0.000667539 -0.23097 0.1
    endloop
  endfacet
  facet normal -0.321425 -0.946935 -0
    outer loop
       vertex -0.000667539 -0.23097 0.1
       vertex -0.000667539 -0.23097 0
       vertex 0.0302985 -0.241481 0
    endloop
  endfacet
  facet normal -0.442302 -0.896866 0
    outer loop
       vertex -0.000667539 -0.23097 0
       vertex -0.000667539 -0.23097 0.1
       vertex -0.0299965 -0.216506 0.1
    endloop
  endfacet
  facet normal -0.442302 -0.896866 -0
    outer loop
       vertex -0.0299965 -0.216506 0.1
       vertex -0.0299965 -0.216506 0
       vertex -0.000667539 -0.23097 0
    endloop
  endfacet
  facet normal -0.555561 -0.831476 0
    outer loop
       vertex -0.0299965 -0.216506 0
       vertex -0.0299965 -0.216506 0.1
       vertex -0.0571875 -0.198338 0.1
    endloop
  endfacet
  facet normal -0.555561 -0.831476 -0
    outer loop
       vertex -0.0571875 -0.198338 0.1
       vertex -0.0571875 -0.198338 0
       vertex -0.0299965 -0.216506 0
    endloop
  endfacet
  facet normal -0.659372 -0.751817 0
    outer loop
       vertex -0.0571875 -0.198338 0
       vertex -0.0571875 -0.198338 0.1
       vertex -0.0817725 -0.176776 0.1
    endloop
  endfacet
  facet normal -0.659372 -0.751817 -0
    outer loop
       vertex -0.0817725 -0.176776 0.1
       vertex -0.0817725 -0.176776 0
       vertex -0.0571875 -0.198338 0
    endloop
  endfacet
endsolid cylinder
