solid cylinder
  facet normal 0.751817 -0.659372 0
    outer loop
       vertex -0.0381629 -0.176776 0
       vertex -0.0166009 -0.152191 0
       vertex -0.0166009 -0.152191 0.1
    endloop
  endfacet
  facet normal 0.751817 -0.659372 0
    outer loop
       vertex -0.0166009 -0.152191 0.1
       vertex -0.0381629 -0.176776 0.1
       vertex -0.0381629 -0.176776 0
    endloop
  endfacet
  facet normal 0.831476 -0.555561 0
    outer loop
       vertex -0.0166009 -0.152191 0
       vertex 0.00156715 -0.125 0
       vertex 0.00156715 -0.125 0.1
    endloop
  endfacet
  facet normal 0.831476 -0.555561 0
    outer loop
       vertex 0.00156715 -0.125 0.1
       vertex -0.0166009 -0.152191 0.1
       vertex -0.0166009 -0.152191 0
    endloop
  endfacet
  facet normal 0.896866 -0.442302 0
    outer loop
       vertex 0.00156715 -0.125 0
       vertex 0.0160311 -0.095671 0
       vertex 0.0160311 -0.095671 0.1
    endloop
  endfacet
  facet normal 0.896866 -0.442302 0
    outer loop
       vertex 0.0160311 -0.095671 0.1
       vertex 0.00156715 -0.125 0.1
       vertex 0.00156715 -0.125 0
    endloop
  endfacet
  facet normal 0.946935 -0.321425 0
    outer loop
       vertex 0.0160311 -0.095671 0
       vertex 0.0265421 -0.064705 0
       vertex 0.0265421 -0.064705 0.1
    endloop
  endfacet
  facet normal 0.946935 -0.321425 0
    outer loop
       vertex 0.0265421 -0.064705 0.1
       vertex 0.0160311 -0.095671 0.1
       vertex 0.0160311 -0.095671 0
    endloop
  endfacet
  facet normal 0.980784 -0.195096 0
    outer loop
       vertex 0.0265421 -0.064705 0
       vertex 0.0329221 -0.0326315 0
       vertex 0.0329221 -0.0326315 0.1
    endloop
  endfacet
  facet normal 0.980784 -0.195096 0
    outer loop
       vertex 0.0329221 -0.0326315 0.1
       vertex 0.0265421 -0.064705 0.1
       vertex 0.0265421 -0.064705 0
    endloop
  endfacet
  facet normal 0.997858 -0.0654098 0
    outer loop
       vertex 0.0350611 -8.32665e-17 0.1
       vertex 0.0329221 -0.0326315 0.1
       vertex 0.0329221 -0.0326315 0
    endloop
  endfacet
  facet normal 0.997858 -0.0654098 -1.08928e-16
    outer loop
       vertex 0.0329221 -0.0326315 0
       vertex 0.0350611 8.32665e-17 0
       vertex 0.0350611 -8.32665e-17 0.1
    endloop
  endfacet
  facet normal 0.997858 0.0654098 0
    outer loop
       vertex 0.0350611 8.32665e-17 0
       vertex 0.0329221 0.0326315 0
       vertex 0.0329221 0.0326315 0.1
    endloop
  endfacet
  facet normal 0.997858 0.0654098 1.08928e-16
    outer loop
       vertex 0.0329221 0.0326315 0.1
       vertex 0.0350611 -8.32665e-17 0.1
       vertex 0.0350611 8.32665e-17 0
    endloop
  endfacet
  facet normal 0.980784 0.195096 0
    outer loop
       vertex 0.0329221 0.0326315 0
       vertex 0.0265421 0.064705 0
       vertex 0.0265421 0.064705 0.1
    endloop
  endfacet
  facet normal 0.980784 0.195096 0
    outer loop
       vertex 0.0265421 0.064705 0.1
       vertex 0.0329221 0.0326315 0.1
       vertex 0.0329221 0.0326315 0
    endloop
  endfacet
  facet normal 0.946935 0.321425 0
    outer loop
       vertex 0.0265421 0.064705 0
       vertex 0.0160311 0.095671 0
       vertex 0.0160311 0.095671 0.1
    endloop
  endfacet
  facet normal 0.946935 0.321425 0
    outer loop
       vertex 0.0160311 0.095671 0.1
       vertex 0.0265421 0.064705 0.1
       vertex 0.0265421 0.064705 0
    endloop
  endfacet
  facet normal 0.896866 0.442302 0
    outer loop
       vertex 0.0160311 0.095671 0
       vertex 0.00156715 0.125 0
       vertex 0.00156715 0.125 0.1
    endloop
  endfacet
  facet normal 0.896866 0.442302 0
    outer loop
       vertex 0.00156715 0.125 0.1
       vertex 0.0160311 0.095671 0.1
       vertex 0.0160311 0.095671 0
    endloop
  endfacet
  facet normal 0.831476 0.555561 0
    outer loop
       vertex 0.00156715 0.125 0
       vertex -0.0166009 0.152191 0
       vertex -0.0166009 0.152191 0.1
    endloop
  endfacet
  facet normal 0.831476 0.555561 0
    outer loop
       vertex -0.0166009 0.152191 0.1
       vertex 0.00156715 0.125 0.1
       vertex 0.00156715 0.125 0
    endloop
  endfacet
  facet normal 0.751817 0.659372 0
    outer loop
       vertex -0.0166009 0.152191 0
       vertex -0.0381629 0.176776 0
       vertex -0.0381629 0.176776 0.1
    endloop
  endfacet
  facet normal 0.751817 0.659372 0
    outer loop
       vertex -0.0381629 0.176776 0.1
       vertex -0.0166009 0.152191 0.1
       vertex -0.0166009 0.152191 0
    endloop
  endfacet
  facet normal 0.659372 0.751817 0
    outer loop
       vertex -0.0381629 0.176776 0
       vertex -0.0627479 0.198338 0
       vertex -0.0627479 0.198338 0.1
    endloop
  endfacet
  facet normal 0.659372 0.751817 0
    outer loop
       vertex -0.0627479 0.198338 0.1
       vertex -0.0381629 0.176776 0.1
       vertex -0.0381629 0.176776 0
    endloop
  endfacet
  facet normal 0.555561 0.831476 0
    outer loop
       vertex -0.0627479 0.198338 0
       vertex -0.0899389 0.216506 0
       vertex -0.0899389 0.216506 0.1
    endloop
  endfacet
  facet normal 0.555561 0.831476 0
    outer loop
       vertex -0.0899389 0.216506 0.1
       vertex -0.0627479 0.198338 0.1
       vertex -0.0627479 0.198338 0
    endloop
  endfacet
  facet normal 0.442302 0.896866 0
    outer loop
       vertex -0.0899389 0.216506 0
       vertex -0.119268 0.23097 0
       vertex -0.119268 0.23097 0.1
    endloop
  endfacet
  facet normal 0.442302 0.896866 0
    outer loop
       vertex -0.119268 0.23097 0.1
       vertex -0.0899389 0.216506 0.1
       vertex -0.0899389 0.216506 0
    endloop
  endfacet
  facet normal 0.321425 0.946935 0
    outer loop
       vertex -0.119268 0.23097 0
       vertex -0.150234 0.241481 0
       vertex -0.150234 0.241481 0.1
    endloop
  endfacet
  facet normal 0.321425 0.946935 0
    outer loop
       vertex -0.150234 0.241481 0.1
       vertex -0.119268 0.23097 0.1
       vertex -0.119268 0.23097 0
    endloop
  endfacet
  facet normal 0.195096 0.980784 0
    outer loop
       vertex -0.150234 0.241481 0
       vertex -0.182307 0.247861 0
       vertex -0.182307 0.247861 0.1
    endloop
  endfacet
  facet normal 0.195096 0.980784 0
    outer loop
       vertex -0.182307 0.247861 0.1
       vertex -0.150234 0.241481 0.1
       vertex -0.150234 0.241481 0
    endloop
  endfacet
  facet normal 0.0654098 0.997858 0
    outer loop
       vertex -0.214939 0.25 0.1
       vertex -0.182307 0.247861 0.1
       vertex -0.182307 0.247861 0
    endloop
  endfacet
  facet normal 0.0654098 0.997858 -1.0893e-16
    outer loop
       vertex -0.182307 0.247861 0
       vertex -0.214939 0.25 0
       vertex -0.214939 0.25 0.1
    endloop
  endfacet
  facet normal -0.0654098 0.997858 0
    outer loop
       vertex -0.214939 0.25 0
       vertex -0.24757 0.247861 0
       vertex -0.24757 0.247861 0.1
    endloop
  endfacet
  facet normal -0.0654098 0.997858 1.0893e-16
    outer loop
       vertex -0.24757 0.247861 0.1
       vertex -0.214939 0.25 0.1
       vertex -0.214939 0.25 0
    endloop
  endfacet
  facet normal -0.195096 0.980784 0
    outer loop
       vertex -0.24757 0.247861 0
       vertex -0.279644 0.241481 0
       vertex -0.279644 0.241481 0.1
    endloop
  endfacet
  facet normal -0.195096 0.980784 0
    outer loop
       vertex -0.279644 0.241481 0.1
       vertex -0.24757 0.247861 0.1
       vertex -0.24757 0.247861 0
    endloop
  endfacet
  facet normal -0.321425 0.946935 0
    outer loop
       vertex -0.279644 0.241481 0
       vertex -0.31061 0.23097 0
       vertex -0.31061 0.23097 0.1
    endloop
  endfacet
  facet normal -0.321425 0.946935 0
    outer loop
       vertex -0.31061 0.23097 0.1
       vertex -0.279644 0.241481 0.1
       vertex -0.279644 0.241481 0
    endloop
  endfacet
  facet normal -0.442302 0.896866 0
    outer loop
       vertex -0.31061 0.23097 0
       vertex -0.339939 0.216506 0
       vertex -0.339939 0.216506 0.1
    endloop
  endfacet
  facet normal -0.442302 0.896866 0
    outer loop
       vertex -0.339939 0.216506 0.1
       vertex -0.31061 0.23097 0.1
       vertex -0.31061 0.23097 0
    endloop
  endfacet
  facet normal -0.555561 0.831476 0
    outer loop
       vertex -0.339939 0.216506 0
       vertex -0.36713 0.198338 0
       vertex -0.36713 0.198338 0.1
    endloop
  endfacet
  facet normal -0.555561 0.831476 0
    outer loop
       vertex -0.36713 0.198338 0.1
       vertex -0.339939 0.216506 0.1
       vertex -0.339939 0.216506 0
    endloop
  endfacet
  facet normal -0.659372 0.751817 0
    outer loop
       vertex -0.36713 0.198338 0
       vertex -0.391715 0.176776 0
       vertex -0.391715 0.176776 0.1
    endloop
  endfacet
  facet normal -0.659372 0.751817 0
    outer loop
       vertex -0.391715 0.176776 0.1
       vertex -0.36713 0.198338 0.1
       vertex -0.36713 0.198338 0
    endloop
  endfacet
  facet normal -0.751817 0.659372 0
    outer loop
       vertex -0.391715 0.176776 0
       vertex -0.413277 0.152191 0
       vertex -0.413277 0.152191 0.1
    endloop
  endfacet
  facet normal -0.751817 0.659372 0
    outer loop
       vertex -0.413277 0.152191 0.1
       vertex -0.391715 0.176776 0.1
       vertex -0.391715 0.176776 0
    endloop
  endfacet
  facet normal -0.831476 0.555561 0
    outer loop
       vertex -0.413277 0.152191 0
       vertex -0.431445 0.125 0
       vertex -0.431445 0.125 0.1
    endloop
  endfacet
  facet normal -0.831476 0.555561 0
    outer loop
       vertex -0.431445 0.125 0.1
       vertex -0.413277 0.152191 0.1
       vertex -0.413277 0.152191 0
    endloop
  endfacet
  facet normal -0.896866 0.442302 0
    outer loop
       vertex -0.431445 0.125 0
       vertex -0.445909 0.095671 0
       vertex -0.445909 0.095671 0.1
    endloop
  endfacet
  facet normal -0.896866 0.442302 0
    outer loop
       vertex -0.445909 0.095671 0.1
       vertex -0.431445 0.125 0.1
       vertex -0.431445 0.125 0
    endloop
  endfacet
  facet normal -0.946935 0.321425 0
    outer loop
       vertex -0.445909 0.095671 0
       vertex -0.45642 0.064705 0
       vertex -0.45642 0.064705 0.1
    endloop
  endfacet
  facet normal -0.946935 0.321425 0
    outer loop
       vertex -0.45642 0.064705 0.1
       vertex -0.445909 0.095671 0.1
       vertex -0.445909 0.095671 0
    endloop
  endfacet
  facet normal -0.980784 0.195096 0
    outer loop
       vertex -0.45642 0.064705 0
       vertex -0.4628 0.0326315 0
       vertex -0.4628 0.0326315 0.1
    endloop
  endfacet
  facet normal -0.980784 0.195096 0
    outer loop
       vertex -0.4628 0.0326315 0.1
       vertex -0.45642 0.064705 0.1
       vertex -0.45642 0.064705 0
    endloop
  endfacet
  facet normal -0.997858 0.0654098 0
    outer loop
       vertex -0.464939 8.32665e-17 0.1
       vertex -0.4628 0.0326315 0.1
       vertex -0.4628 0.0326315 0
    endloop
  endfacet
  facet normal -0.997858 0.0654098 -1.08928e-16
    outer loop
       vertex -0.4628 0.0326315 0
       vertex -0.464939 -8.32665e-17 0
       vertex -0.464939 8.32665e-17 0.1
    endloop
  endfacet
  facet normal -0.997858 -0.0654098 0
    outer loop
       vertex -0.464939 -8.32665e-17 0
       vertex -0.4628 -0.0326315 0
       vertex -0.4628 -0.0326315 0.1
    endloop
  endfacet
  facet normal -0.997858 -0.0654098 1.08928e-16
    outer loop
       vertex -0.4628 -0.0326315 0.1
       vertex -0.464939 8.32665e-17 0.1
       vertex -0.464939 -8.32665e-17 0
    endloop
  endfacet
  facet normal -0.980784 -0.195096 0
    outer loop
       vertex -0.4628 -0.0326315 0
       vertex -0.45642 -0.064705 0
       vertex -0.45642 -0.064705 0.1
    endloop
  endfacet
  facet normal -0.980784 -0.195096 0
    outer loop
       vertex -0.45642 -0.064705 0.1
       vertex -0.4628 -0.0326315 0.1
       vertex -0.4628 -0.0326315 0
    endloop
  endfacet
  facet normal -0.946935 -0.321425 0
    outer loop
       vertex -0.45642 -0.064705 0
       vertex -0.445909 -0.095671 0
       vertex -0.445909 -0.095671 0.1
    endloop
  endfacet
  facet normal -0.946935 -0.321425 0
    outer loop
       vertex -0.445909 -0.095671 0.1
       vertex -0.45642 -0.064705 0.1
       vertex -0.45642 -0.064705 0
    endloop
  endfacet
  facet normal -0.896866 -0.442302 0
    outer loop
       vertex -0.445909 -0.095671 0
       vertex -0.431445 -0.125 0
       vertex -0.431445 -0.125 0.1
    endloop
  endfacet
  facet normal -0.896866 -0.442302 0
    outer loop
       vertex -0.431445 -0.125 0.1
       vertex -0.445909 -0.095671 0.1
       vertex -0.445909 -0.095671 0
    endloop
  endfacet
  facet normal -0.831476 -0.555561 0
    outer loop
       vertex -0.431445 -0.125 0
       vertex -0.413277 -0.152191 0
       vertex -0.413277 -0.152191 0.1
    endloop
  endfacet
  facet normal -0.831476 -0.555561 0
    outer loop
       vertex -0.413277 -0.152191 0.1
       vertex -0.431445 -0.125 0.1
       vertex -0.431445 -0.125 0
    endloop
  endfacet
  facet normal -0.751817 -0.659372 0
    outer loop
       vertex -0.413277 -0.152191 0
       vertex -0.391715 -0.176776 0
       vertex -0.391715 -0.176776 0.1
    endloop
  endfacet
  facet normal -0.751817 -0.659372 0
    outer loop
       vertex -0.391715 -0.176776 0.1
       vertex -0.413277 -0.152191 0.1
       vertex -0.413277 -0.152191 0
    endloop
  endfacet
  facet normal 0.659372 -0.751817 0
    outer loop
       vertex -0.0381629 -0.176776 0
       vertex -0.0381629 -0.176776 0.1
       vertex -0.0627479 -0.198338 0.1
    endloop
  endfacet
  facet normal 0.659372 -0.751817 0
    outer loop
       vertex -0.0627479 -0.198338 0.1
       vertex -0.0627479 -0.198338 0
       vertex -0.0381629 -0.176776 0
    endloop
  endfacet
  facet normal 0.555561 -0.831476 0
    outer loop
       vertex -0.0627479 -0.198338 0
       vertex -0.0627479 -0.198338 0.1
       vertex -0.0899389 -0.216506 0.1
    endloop
  endfacet
  facet normal 0.555561 -0.831476 0
    outer loop
       vertex -0.0899389 -0.216506 0.1
       vertex -0.0899389 -0.216506 0
       vertex -0.0627479 -0.198338 0
    endloop
  endfacet
  facet normal 0.442302 -0.896866 0
    outer loop
       vertex -0.0899389 -0.216506 0
       vertex -0.0899389 -0.216506 0.1
       vertex -0.119268 -0.23097 0.1
    endloop
  endfacet
  facet normal 0.442302 -0.896866 0
    outer loop
       vertex -0.119268 -0.23097 0.1
       vertex -0.119268 -0.23097 0
       vertex -0.0899389 -0.216506 0
    endloop
  endfacet
  facet normal 0.321425 -0.946935 0
    outer loop
       vertex -0.119268 -0.23097 0
       vertex -0.119268 -0.23097 0.1
       vertex -0.150234 -0.241481 0.1
    endloop
  endfacet
  facet normal 0.321425 -0.946935 0
    outer loop
       vertex -0.150234 -0.241481 0.1
       vertex -0.150234 -0.241481 0
       vertex -0.119268 -0.23097 0
    endloop
  endfacet
  facet normal 0.195096 -0.980784 0
    outer loop
       vertex -0.150234 -0.241481 0
       vertex -0.150234 -0.241481 0.1
       vertex -0.182307 -0.247861 0.1
    endloop
  endfacet
  facet normal 0.195096 -0.980784 0
    outer loop
       vertex -0.182307 -0.247861 0.1
       vertex -0.182307 -0.247861 0
       vertex -0.150234 -0.241481 0
    endloop
  endfacet
  facet normal 0.0654098 -0.997858 0
    outer loop
       vertex -0.214939 -0.25 0
       vertex -0.182307 -0.247861 0
       vertex -0.182307 -0.247861 0.1
    endloop
  endfacet
  facet normal 0.0654098 -0.997858 1.0893e-16
    outer loop
       vertex -0.182307 -0.247861 0.1
       vertex -0.214939 -0.25 0.1
       vertex -0.214939 -0.25 0
    endloop
  endfacet
  facet normal -0.0654098 -0.997858 0
    outer loop
       vertex -0.214939 -0.25 0.1
       vertex -0.24757 -0.247861 0.1
       vertex -0.24757 -0.247861 0
    endloop
  endfacet
  facet normal -0.0654098 -0.997858 -1.0893e-16
    outer loop
       vertex -0.24757 -0.247861 0
       vertex -0.214939 -0.25 0
       vertex -0.214939 -0.25 0.1
    endloop
  endfacet
  facet normal -0.195096 -0.980784 0
    outer loop
       vertex -0.24757 -0.247861 0
       vertex -0.24757 -0.247861 0.1
       vertex -0.279644 -0.241481 0.1
    endloop
  endfacet
  facet normal -0.195096 -0.980784 -0
    outer loop
       vertex -0.279644 -0.241481 0.1
       vertex -0.279644 -0.241481 0
       vertex -0.24757 -0.247861 0
    endloop
  endfacet
  facet normal -0.321425 -0.946935 0
    outer loop
       vertex -0.279644 -0.241481 0
       vertex -0.279644 -0.241481 0.1
       vertex -0.31061 -0.23097 0.1
    endloop
  endfacet
  facet normal -0.321425 -0.946935 -0
    outer loop
       vertex -0.31061 -0.23097 0.1
       vertex -0.31061 -0.23097 0
       vertex -0.279644 -0.241481 0
    endloop
  endfacet
  facet normal -0.442302 -0.896866 0
    outer loop
       vertex -0.31061 -0.23097 0
       vertex -0.31061 -0.23097 0.1
       vertex -0.339939 -0.216506 0.1
    endloop
  endfacet
  facet normal -0.442302 -0.896866 -0
    outer loop
       vertex -0.339939 -0.216506 0.1
       vertex -0.339939 -0.216506 0
       vertex -0.31061 -0.23097 0
    endloop
  endfacet
  facet normal -0.555561 -0.831476 0
    outer loop
       vertex -0.339939 -0.216506 0
       vertex -0.339939 -0.216506 0.1
       vertex -0.36713 -0.198338 0.1
    endloop
  endfacet
  facet normal -0.555561 -0.831476 -0
    outer loop
       vertex -0.36713 -0.198338 0.1
       vertex -0.36713 -0.198338 0
       vertex -0.339939 -0.216506 0
    endloop
  endfacet
  facet normal -0.659372 -0.751817 0
    outer loop
       vertex -0.36713 -0.198338 0
       vertex -0.36713 -0.198338 0.1
       vertex -0.391715 -0.176776 0.1
    endloop
  endfacet
  facet normal -0.659372 -0.751817 -0
    outer loop
       vertex -0.391715 -0.176776 0.1
       vertex -0.391715 -0.176776 0
       vertex -0.36713 -0.198338 0
    endloop
  endfacet
endsolid cylinder
