solid cylinder
  facet normal 0.751817 -0.659372 0
    outer loop
       vertex 0.360533 -0.176776 0
       vertex 0.382095 -0.152191 0
       vertex 0.382095 -0.152191 0.1
    endloop
  endfacet
  facet normal 0.751817 -0.659372 0
    outer loop
       vertex 0.382095 -0.152191 0.1
       vertex 0.360533 -0.176776 0.1
       vertex 0.360533 -0.176776 0
    endloop
  endfacet
  facet normal 0.831476 -0.555561 0
    outer loop
       vertex 0.382095 -0.152191 0
       vertex 0.400263 -0.125 0
       vertex 0.400263 -0.125 0.1
    endloop
  endfacet
  facet normal 0.831476 -0.555561 0
    outer loop
       vertex 0.400263 -0.125 0.1
       vertex 0.382095 -0.152191 0.1
       vertex 0.382095 -0.152191 0
    endloop
  endfacet
  facet normal 0.896866 -0.442302 0
    outer loop
       vertex 0.400263 -0.125 0
       vertex 0.414727 -0.095671 0
       vertex 0.414727 -0.095671 0.1
    endloop
  endfacet
  facet normal 0.896866 -0.442302 0
    outer loop
       vertex 0.414727 -0.095671 0.1
       vertex 0.400263 -0.125 0.1
       vertex 0.400263 -0.125 0
    endloop
  endfacet
  facet normal 0.946935 -0.321425 0
    outer loop
       vertex 0.414727 -0.095671 0
       vertex 0.425238 -0.064705 0
       vertex 0.425238 -0.064705 0.1
    endloop
  endfacet
  facet normal 0.946935 -0.321425 0
    outer loop
       vertex 0.425238 -0.064705 0.1
       vertex 0.414727 -0.095671 0.1
       vertex 0.414727 -0.095671 0
    endloop
  endfacet
  facet normal 0.980784 -0.195096 0
    outer loop
       vertex 0.425238 -0.064705 0
       vertex 0.431618 -0.0326315 0
       vertex 0.431618 -0.0326315 0.1
    endloop
  endfacet
  facet normal 0.980784 -0.195096 0
    outer loop
       vertex 0.431618 -0.0326315 0.1
       vertex 0.425238 -0.064705 0.1
       vertex 0.425238 -0.064705 0
    endloop
  endfacet
  facet normal 0.997858 -0.0654098 0
    outer loop
       vertex 0.433757 -8.32665e-17 0.1
       vertex 0.431618 -0.0326315 0.1
       vertex 0.431618 -0.0326315 0
    endloop
  endfacet
  facet normal 0.997858 -0.0654098 -1.08928e-16
    outer loop
       vertex 0.431618 -0.0326315 0
       vertex 0.433757 8.32665e-17 0
       vertex 0.433757 -8.32665e-17 0.1
    endloop
  endfacet
  facet normal 0.997858 0.0654098 0
    outer loop
       vertex 0.433757 8.32665e-17 0
       vertex 0.431618 0.0326315 0
       vertex 0.431618 0.0326315 0.1
    endloop
  endfacet
  facet normal 0.997858 0.0654098 1.08928e-16
    outer loop
       vertex 0.431618 0.0326315 0.1
       vertex 0.433757 -8.32665e-17 0.1
       vertex 0.433757 8.32665e-17 0
    endloop
  endfacet
  facet normal 0.980784 0.195096 0
    outer loop
       vertex 0.431618 0.0326315 0
       vertex 0.425238 0.064705 0
       vertex 0.425238 0.064705 0.1
    endloop
  endfacet
  facet normal 0.980784 0.195096 0
    outer loop
       vertex 0.425238 0.064705 0.1
       vertex 0.431618 0.0326315 0.1
       vertex 0.431618 0.0326315 0
    endloop
  endfacet
  facet normal 0.946935 0.321425 0
    outer loop
       vertex 0.425238 0.064705 0
       vertex 0.414727 0.095671 0
       vertex 0.414727 0.095671 0.1
    endloop
  endfacet
  facet normal 0.946935 0.321425 0
    outer loop
       vertex 0.414727 0.095671 0.1
       vertex 0.425238 0.064705 0.1
       vertex 0.425238 0.064705 0
    endloop
  endfacet
  facet normal 0.896866 0.442302 0
    outer loop
       vertex 0.414727 0.095671 0
       vertex 0.400263 0.125 0
       vertex 0.400263 0.125 0.1
    endloop
  endfacet
  facet normal 0.896866 0.442302 0
    outer loop
       vertex 0.400263 0.125 0.1
       vertex 0.414727 0.095671 0.1
       vertex 0.414727 0.095671 0
    endloop
  endfacet
  facet normal 0.831476 0.555561 0
    outer loop
       vertex 0.400263 0.125 0
       vertex 0.382095 0.152191 0
       vertex 0.382095 0.152191 0.1
    endloop
  endfacet
  facet normal 0.831476 0.555561 0
    outer loop
       vertex 0.382095 0.152191 0.1
       vertex 0.400263 0.125 0.1
       vertex 0.400263 0.125 0
    endloop
  endfacet
  facet normal 0.751817 0.659372 0
    outer loop
       vertex 0.382095 0.152191 0
       vertex 0.360533 0.176776 0
       vertex 0.360533 0.176776 0.1
    endloop
  endfacet
  facet normal 0.751817 0.659372 0
    outer loop
       vertex 0.360533 0.176776 0.1
       vertex 0.382095 0.152191 0.1
       vertex 0.382095 0.152191 0
    endloop
  endfacet
  facet normal 0.659372 0.751817 0
    outer loop
       vertex 0.360533 0.176776 0
       vertex 0.335948 0.198338 0
       vertex 0.335948 0.198338 0.1
    endloop
  endfacet
  facet normal 0.659372 0.751817 0
    outer loop
       vertex 0.335948 0.198338 0.1
       vertex 0.360533 0.176776 0.1
       vertex 0.360533 0.176776 0
    endloop
  endfacet
  facet normal 0.555561 0.831476 0
    outer loop
       vertex 0.335948 0.198338 0
       vertex 0.308757 0.216506 0
       vertex 0.308757 0.216506 0.1
    endloop
  endfacet
  facet normal 0.555561 0.831476 0
    outer loop
       vertex 0.308757 0.216506 0.1
       vertex 0.335948 0.198338 0.1
       vertex 0.335948 0.198338 0
    endloop
  endfacet
  facet normal 0.442302 0.896866 0
    outer loop
       vertex 0.308757 0.216506 0
       vertex 0.279428 0.23097 0
       vertex 0.279428 0.23097 0.1
    endloop
  endfacet
  facet normal 0.442302 0.896866 0
    outer loop
       vertex 0.279428 0.23097 0.1
       vertex 0.308757 0.216506 0.1
       vertex 0.308757 0.216506 0
    endloop
  endfacet
  facet normal 0.321425 0.946935 0
    outer loop
       vertex 0.279428 0.23097 0
       vertex 0.248462 0.241481 0
       vertex 0.248462 0.241481 0.1
    endloop
  endfacet
  facet normal 0.321425 0.946935 0
    outer loop
       vertex 0.248462 0.241481 0.1
       vertex 0.279428 0.23097 0.1
       vertex 0.279428 0.23097 0
    endloop
  endfacet
  facet normal 0.195096 0.980784 0
    outer loop
       vertex 0.248462 0.241481 0
       vertex 0.216389 0.247861 0
       vertex 0.216389 0.247861 0.1
    endloop
  endfacet
  facet normal 0.195096 0.980784 0
    outer loop
       vertex 0.216389 0.247861 0.1
       vertex 0.248462 0.241481 0.1
       vertex 0.248462 0.241481 0
    endloop
  endfacet
  facet normal 0.0654098 0.997858 0
    outer loop
       vertex 0.183757 0.25 0.1
       vertex 0.216389 0.247861 0.1
       vertex 0.216389 0.247861 0
    endloop
  endfacet
  facet normal 0.0654098 0.997858 -1.0893e-16
    outer loop
       vertex 0.216389 0.247861 0
       vertex 0.183757 0.25 0
       vertex 0.183757 0.25 0.1
    endloop
  endfacet
  facet normal -0.0654098 0.997858 0
    outer loop
       vertex 0.183757 0.25 0
       vertex 0.151126 0.247861 0
       vertex 0.151126 0.247861 0.1
    endloop
  endfacet
  facet normal -0.0654098 0.997858 1.0893e-16
    outer loop
       vertex 0.151126 0.247861 0.1
       vertex 0.183757 0.25 0.1
       vertex 0.183757 0.25 0
    endloop
  endfacet
  facet normal -0.195096 0.980784 0
    outer loop
       vertex 0.151126 0.247861 0
       vertex 0.119052 0.241481 0
       vertex 0.119052 0.241481 0.1
    endloop
  endfacet
  facet normal -0.195096 0.980784 0
    outer loop
       vertex 0.119052 0.241481 0.1
       vertex 0.151126 0.247861 0.1
       vertex 0.151126 0.247861 0
    endloop
  endfacet
  facet normal -0.321425 0.946935 0
    outer loop
       vertex 0.119052 0.241481 0
       vertex 0.0880865 0.23097 0
       vertex 0.0880865 0.23097 0.1
    endloop
  endfacet
  facet normal -0.321425 0.946935 0
    outer loop
       vertex 0.0880865 0.23097 0.1
       vertex 0.119052 0.241481 0.1
       vertex 0.119052 0.241481 0
    endloop
  endfacet
  facet normal -0.442302 0.896866 0
    outer loop
       vertex 0.0880865 0.23097 0
       vertex 0.0587575 0.216506 0
       vertex 0.0587575 0.216506 0.1
    endloop
  endfacet
  facet normal -0.442302 0.896866 0
    outer loop
       vertex 0.0587575 0.216506 0.1
       vertex 0.0880865 0.23097 0.1
       vertex 0.0880865 0.23097 0
    endloop
  endfacet
  facet normal -0.555561 0.831476 0
    outer loop
       vertex 0.0587575 0.216506 0
       vertex 0.0315665 0.198338 0
       vertex 0.0315665 0.198338 0.1
    endloop
  endfacet
  facet normal -0.555561 0.831476 0
    outer loop
       vertex 0.0315665 0.198338 0.1
       vertex 0.0587575 0.216506 0.1
       vertex 0.0587575 0.216506 0
    endloop
  endfacet
  facet normal -0.659372 0.751817 0
    outer loop
       vertex 0.0315665 0.198338 0
       vertex 0.00698148 0.176776 0
       vertex 0.00698148 0.176776 0.1
    endloop
  endfacet
  facet normal -0.659372 0.751817 0
    outer loop
       vertex 0.00698148 0.176776 0.1
       vertex 0.0315665 0.198338 0.1
       vertex 0.0315665 0.198338 0
    endloop
  endfacet
  facet normal -0.751817 0.659372 0
    outer loop
       vertex 0.00698148 0.176776 0
       vertex -0.0145805 0.152191 0
       vertex -0.0145805 0.152191 0.1
    endloop
  endfacet
  facet normal -0.751817 0.659372 0
    outer loop
       vertex -0.0145805 0.152191 0.1
       vertex 0.00698148 0.176776 0.1
       vertex 0.00698148 0.176776 0
    endloop
  endfacet
  facet normal -0.831476 0.555561 0
    outer loop
       vertex -0.0145805 0.152191 0
       vertex -0.0327485 0.125 0
       vertex -0.0327485 0.125 0.1
    endloop
  endfacet
  facet normal -0.831476 0.555561 0
    outer loop
       vertex -0.0327485 0.125 0.1
       vertex -0.0145805 0.152191 0.1
       vertex -0.0145805 0.152191 0
    endloop
  endfacet
  facet normal -0.896866 0.442302 0
    outer loop
       vertex -0.0327485 0.125 0
       vertex -0.0472125 0.095671 0
       vertex -0.0472125 0.095671 0.1
    endloop
  endfacet
  facet normal -0.896866 0.442302 0
    outer loop
       vertex -0.0472125 0.095671 0.1
       vertex -0.0327485 0.125 0.1
       vertex -0.0327485 0.125 0
    endloop
  endfacet
  facet normal -0.946935 0.321425 0
    outer loop
       vertex -0.0472125 0.095671 0
       vertex -0.0577235 0.064705 0
       vertex -0.0577235 0.064705 0.1
    endloop
  endfacet
  facet normal -0.946935 0.321425 0
    outer loop
       vertex -0.0577235 0.064705 0.1
       vertex -0.0472125 0.095671 0.1
       vertex -0.0472125 0.095671 0
    endloop
  endfacet
  facet normal -0.980784 0.195096 0
    outer loop
       vertex -0.0577235 0.064705 0
       vertex -0.0641035 0.0326315 0
       vertex -0.0641035 0.0326315 0.1
    endloop
  endfacet
  facet normal -0.980784 0.195096 0
    outer loop
       vertex -0.0641035 0.0326315 0.1
       vertex -0.0577235 0.064705 0.1
       vertex -0.0577235 0.064705 0
    endloop
  endfacet
  facet normal -0.997858 0.0654098 0
    outer loop
       vertex -0.0662425 8.32665e-17 0.1
       vertex -0.0641035 0.0326315 0.1
       vertex -0.0641035 0.0326315 0
    endloop
  endfacet
  facet normal -0.997858 0.0654098 -1.08928e-16
    outer loop
       vertex -0.0641035 0.0326315 0
       vertex -0.0662425 -8.32665e-17 0
       vertex -0.0662425 8.32665e-17 0.1
    endloop
  endfacet
  facet normal -0.997858 -0.0654098 0
    outer loop
       vertex -0.0662425 -8.32665e-17 0
       vertex -0.0641035 -0.0326315 0
       vertex -0.0641035 -0.0326315 0.1
    endloop
  endfacet
  facet normal -0.997858 -0.0654098 1.08928e-16
    outer loop
       vertex -0.0641035 -0.0326315 0.1
       vertex -0.0662425 8.32665e-17 0.1
       vertex -0.0662425 -8.32665e-17 0
    endloop
  endfacet
  facet normal -0.980784 -0.195096 0
    outer loop
       vertex -0.0641035 -0.0326315 0
       vertex -0.0577235 -0.064705 0
       vertex -0.0577235 -0.064705 0.1
    endloop
  endfacet
  facet normal -0.980784 -0.195096 0
    outer loop
       vertex -0.0577235 -0.064705 0.1
       vertex -0.0641035 -0.0326315 0.1
       vertex -0.0641035 -0.0326315 0
    endloop
  endfacet
  facet normal -0.946935 -0.321425 0
    outer loop
       vertex -0.0577235 -0.064705 0
       vertex -0.0472125 -0.095671 0
       vertex -0.0472125 -0.095671 0.1
    endloop
  endfacet
  facet normal -0.946935 -0.321425 0
    outer loop
       vertex -0.0472125 -0.095671 0.1
       vertex -0.0577235 -0.064705 0.1
       vertex -0.0577235 -0.064705 0
    endloop
  endfacet
  facet normal -0.896866 -0.442302 0
    outer loop
       vertex -0.0472125 -0.095671 0
       vertex -0.0327485 -0.125 0
       vertex -0.0327485 -0.125 0.1
    endloop
  endfacet
  facet normal -0.896866 -0.442302 0
    outer loop
       vertex -0.0327485 -0.125 0.1
       vertex -0.0472125 -0.095671 0.1
       vertex -0.0472125 -0.095671 0
    endloop
  endfacet
  facet normal -0.831476 -0.555561 0
    outer loop
       vertex -0.0327485 -0.125 0
       vertex -0.0145805 -0.152191 0
       vertex -0.0145805 -0.152191 0.1
    endloop
  endfacet
  facet normal -0.831476 -0.555561 0
    outer loop
       vertex -0.0145805 -0.152191 0.1
       vertex -0.0327485 -0.125 0.1
       vertex -0.0327485 -0.125 0
    endloop
  endfacet
  facet normal -0.751817 -0.659372 0
    outer loop
       vertex -0.0145805 -0.152191 0
       vertex 0.00698148 -0.176776 0
       vertex 0.00698148 -0.176776 0.1
    endloop
  endfacet
  facet normal -0.751817 -0.659372 0
    outer loop
       vertex 0.00698148 -0.176776 0.1
       vertex -0.0145805 -0.152191 0.1
       vertex -0.0145805 -0.152191 0
    endloop
  endfacet
  facet normal 0.659372 -0.751817 0
    outer loop
       vertex 0.360533 -0.176776 0
       vertex 0.360533 -0.176776 0.1
       vertex 0.335948 -0.198338 0.1
    endloop
  endfacet
  facet normal 0.659372 -0.751817 0
    outer loop
       vertex 0.335948 -0.198338 0.1
       vertex 0.335948 -0.198338 0
       vertex 0.360533 -0.176776 0
    endloop
  endfacet
  facet normal 0.555561 -0.831476 0
    outer loop
       vertex 0.335948 -0.198338 0
       vertex 0.335948 -0.198338 0.1
       vertex 0.308757 -0.216506 0.1
    endloop
  endfacet
  facet normal 0.555561 -0.831476 0
    outer loop
       vertex 0.308757 -0.216506 0.1
       vertex 0.308757 -0.216506 0
       vertex 0.335948 -0.198338 0
    endloop
  endfacet
  facet normal 0.442302 -0.896866 0
    outer loop
       vertex 0.308757 -0.216506 0
       vertex 0.308757 -0.216506 0.1
       vertex 0.279428 -0.23097 0.1
    endloop
  endfacet
  facet normal 0.442302 -0.896866 0
    outer loop
       vertex 0.279428 -0.23097 0.1
       vertex 0.279428 -0.23097 0
       vertex 0.308757 -0.216506 0
    endloop
  endfacet
  facet normal 0.321425 -0.946935 0
    outer loop
       vertex 0.279428 -0.23097 0
       vertex 0.279428 -0.23097 0.1
       vertex 0.248462 -0.241481 0.1
    endloop
  endfacet
  facet normal 0.321425 -0.946935 0
    outer loop
       vertex 0.248462 -0.241481 0.1
       vertex 0.248462 -0.241481 0
       vertex 0.279428 -0.23097 0
    endloop
  endfacet
  facet normal 0.195096 -0.980784 0
    outer loop
       vertex 0.248462 -0.241481 0
       vertex 0.248462 -0.241481 0.1
       vertex 0.216389 -0.247861 0.1
    endloop
  endfacet
  facet normal 0.195096 -0.980784 0
    outer loop
       vertex 0.216389 -0.247861 0.1
       vertex 0.216389 -0.247861 0
       vertex 0.248462 -0.241481 0
    endloop
  endfacet
  facet normal 0.0654098 -0.997858 0
    outer loop
       vertex 0.183757 -0.25 0
       vertex 0.216389 -0.247861 0
       vertex 0.216389 -0.247861 0.1
    endloop
  endfacet
  facet normal 0.0654098 -0.997858 1.0893e-16
    outer loop
       vertex 0.216389 -0.247861 0.1
       vertex 0.183757 -0.25 0.1
       vertex 0.183757 -0.25 0
    endloop
  endfacet
  facet normal -0.0654098 -0.997858 0
    outer loop
       vertex 0.183757 -0.25 0.1
       vertex 0.151126 -0.247861 0.1
       vertex 0.151126 -0.247861 0
    endloop
  endfacet
  facet normal -0.0654098 -0.997858 -1.0893e-16
    outer loop
       vertex 0.151126 -0.247861 0
       vertex 0.183757 -0.25 0
       vertex 0.183757 -0.25 0.1
    endloop
  endfacet
  facet normal -0.195096 -0.980784 0
    outer loop
       vertex 0.151126 -0.247861 0
       vertex 0.151126 -0.247861 0.1
       vertex 0.119052 -0.241481 0.1
    endloop
  endfacet
  facet normal -0.195096 -0.980784 -0
    outer loop
       vertex 0.119052 -0.241481 0.1
       vertex 0.119052 -0.241481 0
       vertex 0.151126 -0.247861 0
    endloop
  endfacet
  facet normal -0.321425 -0.946935 0
    outer loop
       vertex 0.119052 -0.241481 0
       vertex 0.119052 -0.241481 0.1
       vertex 0.0880865 -0.23097 0.1
    endloop
  endfacet
  facet normal -0.321425 -0.946935 -0
    outer loop
       vertex 0.0880865 -0.23097 0.1
       vertex 0.0880865 -0.23097 0
       vertex 0.119052 -0.241481 0
    endloop
  endfacet
  facet normal -0.442302 -0.896866 0
    outer loop
       vertex 0.0880865 -0.23097 0
       vertex 0.0880865 -0.23097 0.1
       vertex 0.0587575 -0.216506 0.1
    endloop
  endfacet
  facet normal -0.442302 -0.896866 -0
    outer loop
       vertex 0.0587575 -0.216506 0.1
       vertex 0.0587575 -0.216506 0
       vertex 0.0880865 -0.23097 0
    endloop
  endfacet
  facet normal -0.555561 -0.831476 0
    outer loop
       vertex 0.0587575 -0.216506 0
       vertex 0.0587575 -0.216506 0.1
       vertex 0.0315665 -0.198338 0.1
    endloop
  endfacet
  facet normal -0.555561 -0.831476 -0
    outer loop
       vertex 0.0315665 -0.198338 0.1
       vertex 0.0315665 -0.198338 0
       vertex 0.0587575 -0.216506 0
    endloop
  endfacet
  facet normal -0.659372 -0.751817 0
    outer loop
       vertex 0.0315665 -0.198338 0
       vertex 0.0315665 -0.198338 0.1
       vertex 0.00698148 -0.176776 0.1
    endloop
  endfacet
  facet normal -0.659372 -0.751817 -0
    outer loop
       vertex 0.00698148 -0.176776 0.1
       vertex 0.00698148 -0.176776 0
       vertex 0.0315665 -0.198338 0
    endloop
  endfacet
endsolid cylinder
