solid cylinder
  facet normal 0.751817 -0.659372 0
    outer loop
       vertex 0.299393 -0.176776 0
       vertex 0.320955 -0.152191 0
       vertex 0.320955 -0.152191 0.1
    endloop
  endfacet
  facet normal 0.751817 -0.659372 0
    outer loop
       vertex 0.320955 -0.152191 0.1
       vertex 0.299393 -0.176776 0.1
       vertex 0.299393 -0.176776 0
    endloop
  endfacet
  facet normal 0.831476 -0.555561 0
    outer loop
       vertex 0.320955 -0.152191 0
       vertex 0.339123 -0.125 0
       vertex 0.339123 -0.125 0.1
    endloop
  endfacet
  facet normal 0.831476 -0.555561 0
    outer loop
       vertex 0.339123 -0.125 0.1
       vertex 0.320955 -0.152191 0.1
       vertex 0.320955 -0.152191 0
    endloop
  endfacet
  facet normal 0.896866 -0.442302 0
    outer loop
       vertex 0.339123 -0.125 0
       vertex 0.353587 -0.095671 0
       vertex 0.353587 -0.095671 0.1
    endloop
  endfacet
  facet normal 0.896866 -0.442302 0
    outer loop
       vertex 0.353587 -0.095671 0.1
       vertex 0.339123 -0.125 0.1
       vertex 0.339123 -0.125 0
    endloop
  endfacet
  facet normal 0.946935 -0.321425 0
    outer loop
       vertex 0.353587 -0.095671 0
       vertex 0.364098 -0.064705 0
       vertex 0.364098 -0.064705 0.1
    endloop
  endfacet
  facet normal 0.946935 -0.321425 0
    outer loop
       vertex 0.364098 -0.064705 0.1
       vertex 0.353587 -0.095671 0.1
       vertex 0.353587 -0.095671 0
    endloop
  endfacet
  facet normal 0.980784 -0.195096 0
    outer loop
       vertex 0.364098 -0.064705 0
       vertex 0.370478 -0.0326315 0
       vertex 0.370478 -0.0326315 0.1
    endloop
  endfacet
  facet normal 0.980784 -0.195096 0
    outer loop
       vertex 0.370478 -0.0326315 0.1
       vertex 0.364098 -0.064705 0.1
       vertex 0.364098 -0.064705 0
    endloop
  endfacet
  facet normal 0.997858 -0.0654098 0
    outer loop
       vertex 0.372617 -8.32665e-17 0.1
       vertex 0.370478 -0.0326315 0.1
       vertex 0.370478 -0.0326315 0
    endloop
  endfacet
  facet normal 0.997858 -0.0654098 -1.08928e-16
    outer loop
       vertex 0.370478 -0.0326315 0
       vertex 0.372617 8.32665e-17 0
       vertex 0.372617 -8.32665e-17 0.1
    endloop
  endfacet
  facet normal 0.997858 0.0654098 0
    outer loop
       vertex 0.372617 8.32665e-17 0
       vertex 0.370478 0.0326315 0
       vertex 0.370478 0.0326315 0.1
    endloop
  endfacet
  facet normal 0.997858 0.0654098 1.08928e-16
    outer loop
       vertex 0.370478 0.0326315 0.1
       vertex 0.372617 -8.32665e-17 0.1
       vertex 0.372617 8.32665e-17 0
    endloop
  endfacet
  facet normal 0.980784 0.195096 0
    outer loop
       vertex 0.370478 0.0326315 0
       vertex 0.364098 0.064705 0
       vertex 0.364098 0.064705 0.1
    endloop
  endfacet
  facet normal 0.980784 0.195096 0
    outer loop
       vertex 0.364098 0.064705 0.1
       vertex 0.370478 0.0326315 0.1
       vertex 0.370478 0.0326315 0
    endloop
  endfacet
  facet normal 0.946935 0.321425 0
    outer loop
       vertex 0.364098 0.064705 0
       vertex 0.353587 0.095671 0
       vertex 0.353587 0.095671 0.1
    endloop
  endfacet
  facet normal 0.946935 0.321425 0
    outer loop
       vertex 0.353587 0.095671 0.1
       vertex 0.364098 0.064705 0.1
       vertex 0.364098 0.064705 0
    endloop
  endfacet
  facet normal 0.896866 0.442302 0
    outer loop
       vertex 0.353587 0.095671 0
       vertex 0.339123 0.125 0
       vertex 0.339123 0.125 0.1
    endloop
  endfacet
  facet normal 0.896866 0.442302 0
    outer loop
       vertex 0.339123 0.125 0.1
       vertex 0.353587 0.095671 0.1
       vertex 0.353587 0.095671 0
    endloop
  endfacet
  facet normal 0.831476 0.555561 0
    outer loop
       vertex 0.339123 0.125 0
       vertex 0.320955 0.152191 0
       vertex 0.320955 0.152191 0.1
    endloop
  endfacet
  facet normal 0.831476 0.555561 0
    outer loop
       vertex 0.320955 0.152191 0.1
       vertex 0.339123 0.125 0.1
       vertex 0.339123 0.125 0
    endloop
  endfacet
  facet normal 0.751817 0.659372 0
    outer loop
       vertex 0.320955 0.152191 0
       vertex 0.299393 0.176776 0
       vertex 0.299393 0.176776 0.1
    endloop
  endfacet
  facet normal 0.751817 0.659372 0
    outer loop
       vertex 0.299393 0.176776 0.1
       vertex 0.320955 0.152191 0.1
       vertex 0.320955 0.152191 0
    endloop
  endfacet
  facet normal 0.659372 0.751817 0
    outer loop
       vertex 0.299393 0.176776 0
       vertex 0.274808 0.198338 0
       vertex 0.274808 0.198338 0.1
    endloop
  endfacet
  facet normal 0.659372 0.751817 0
    outer loop
       vertex 0.274808 0.198338 0.1
       vertex 0.299393 0.176776 0.1
       vertex 0.299393 0.176776 0
    endloop
  endfacet
  facet normal 0.555561 0.831476 0
    outer loop
       vertex 0.274808 0.198338 0
       vertex 0.247617 0.216506 0
       vertex 0.247617 0.216506 0.1
    endloop
  endfacet
  facet normal 0.555561 0.831476 0
    outer loop
       vertex 0.247617 0.216506 0.1
       vertex 0.274808 0.198338 0.1
       vertex 0.274808 0.198338 0
    endloop
  endfacet
  facet normal 0.442302 0.896866 0
    outer loop
       vertex 0.247617 0.216506 0
       vertex 0.218288 0.23097 0
       vertex 0.218288 0.23097 0.1
    endloop
  endfacet
  facet normal 0.442302 0.896866 0
    outer loop
       vertex 0.218288 0.23097 0.1
       vertex 0.247617 0.216506 0.1
       vertex 0.247617 0.216506 0
    endloop
  endfacet
  facet normal 0.321425 0.946935 0
    outer loop
       vertex 0.218288 0.23097 0
       vertex 0.187322 0.241481 0
       vertex 0.187322 0.241481 0.1
    endloop
  endfacet
  facet normal 0.321425 0.946935 0
    outer loop
       vertex 0.187322 0.241481 0.1
       vertex 0.218288 0.23097 0.1
       vertex 0.218288 0.23097 0
    endloop
  endfacet
  facet normal 0.195096 0.980784 0
    outer loop
       vertex 0.187322 0.241481 0
       vertex 0.155249 0.247861 0
       vertex 0.155249 0.247861 0.1
    endloop
  endfacet
  facet normal 0.195096 0.980784 0
    outer loop
       vertex 0.155249 0.247861 0.1
       vertex 0.187322 0.241481 0.1
       vertex 0.187322 0.241481 0
    endloop
  endfacet
  facet normal 0.0654098 0.997858 0
    outer loop
       vertex 0.122617 0.25 0.1
       vertex 0.155249 0.247861 0.1
       vertex 0.155249 0.247861 0
    endloop
  endfacet
  facet normal 0.0654098 0.997858 -1.0893e-16
    outer loop
       vertex 0.155249 0.247861 0
       vertex 0.122617 0.25 0
       vertex 0.122617 0.25 0.1
    endloop
  endfacet
  facet normal -0.0654098 0.997858 0
    outer loop
       vertex 0.122617 0.25 0
       vertex 0.0899856 0.247861 0
       vertex 0.0899856 0.247861 0.1
    endloop
  endfacet
  facet normal -0.0654098 0.997858 1.0893e-16
    outer loop
       vertex 0.0899856 0.247861 0.1
       vertex 0.122617 0.25 0.1
       vertex 0.122617 0.25 0
    endloop
  endfacet
  facet normal -0.195096 0.980784 0
    outer loop
       vertex 0.0899856 0.247861 0
       vertex 0.0579121 0.241481 0
       vertex 0.0579121 0.241481 0.1
    endloop
  endfacet
  facet normal -0.195096 0.980784 0
    outer loop
       vertex 0.0579121 0.241481 0.1
       vertex 0.0899856 0.247861 0.1
       vertex 0.0899856 0.247861 0
    endloop
  endfacet
  facet normal -0.321425 0.946935 0
    outer loop
       vertex 0.0579121 0.241481 0
       vertex 0.0269461 0.23097 0
       vertex 0.0269461 0.23097 0.1
    endloop
  endfacet
  facet normal -0.321425 0.946935 0
    outer loop
       vertex 0.0269461 0.23097 0.1
       vertex 0.0579121 0.241481 0.1
       vertex 0.0579121 0.241481 0
    endloop
  endfacet
  facet normal -0.442302 0.896866 0
    outer loop
       vertex 0.0269461 0.23097 0
       vertex -0.00238289 0.216506 0
       vertex -0.00238289 0.216506 0.1
    endloop
  endfacet
  facet normal -0.442302 0.896866 0
    outer loop
       vertex -0.00238289 0.216506 0.1
       vertex 0.0269461 0.23097 0.1
       vertex 0.0269461 0.23097 0
    endloop
  endfacet
  facet normal -0.555561 0.831476 0
    outer loop
       vertex -0.00238289 0.216506 0
       vertex -0.0295739 0.198338 0
       vertex -0.0295739 0.198338 0.1
    endloop
  endfacet
  facet normal -0.555561 0.831476 0
    outer loop
       vertex -0.0295739 0.198338 0.1
       vertex -0.00238289 0.216506 0.1
       vertex -0.00238289 0.216506 0
    endloop
  endfacet
  facet normal -0.659372 0.751817 0
    outer loop
       vertex -0.0295739 0.198338 0
       vertex -0.0541589 0.176776 0
       vertex -0.0541589 0.176776 0.1
    endloop
  endfacet
  facet normal -0.659372 0.751817 0
    outer loop
       vertex -0.0541589 0.176776 0.1
       vertex -0.0295739 0.198338 0.1
       vertex -0.0295739 0.198338 0
    endloop
  endfacet
  facet normal -0.751817 0.659372 0
    outer loop
       vertex -0.0541589 0.176776 0
       vertex -0.0757209 0.152191 0
       vertex -0.0757209 0.152191 0.1
    endloop
  endfacet
  facet normal -0.751817 0.659372 0
    outer loop
       vertex -0.0757209 0.152191 0.1
       vertex -0.0541589 0.176776 0.1
       vertex -0.0541589 0.176776 0
    endloop
  endfacet
  facet normal -0.831476 0.555561 0
    outer loop
       vertex -0.0757209 0.152191 0
       vertex -0.0938889 0.125 0
       vertex -0.0938889 0.125 0.1
    endloop
  endfacet
  facet normal -0.831476 0.555561 0
    outer loop
       vertex -0.0938889 0.125 0.1
       vertex -0.0757209 0.152191 0.1
       vertex -0.0757209 0.152191 0
    endloop
  endfacet
  facet normal -0.896866 0.442302 0
    outer loop
       vertex -0.0938889 0.125 0
       vertex -0.108353 0.095671 0
       vertex -0.108353 0.095671 0.1
    endloop
  endfacet
  facet normal -0.896866 0.442302 0
    outer loop
       vertex -0.108353 0.095671 0.1
       vertex -0.0938889 0.125 0.1
       vertex -0.0938889 0.125 0
    endloop
  endfacet
  facet normal -0.946935 0.321425 0
    outer loop
       vertex -0.108353 0.095671 0
       vertex -0.118864 0.064705 0
       vertex -0.118864 0.064705 0.1
    endloop
  endfacet
  facet normal -0.946935 0.321425 0
    outer loop
       vertex -0.118864 0.064705 0.1
       vertex -0.108353 0.095671 0.1
       vertex -0.108353 0.095671 0
    endloop
  endfacet
  facet normal -0.980784 0.195096 0
    outer loop
       vertex -0.118864 0.064705 0
       vertex -0.125244 0.0326315 0
       vertex -0.125244 0.0326315 0.1
    endloop
  endfacet
  facet normal -0.980784 0.195096 0
    outer loop
       vertex -0.125244 0.0326315 0.1
       vertex -0.118864 0.064705 0.1
       vertex -0.118864 0.064705 0
    endloop
  endfacet
  facet normal -0.997858 0.0654098 0
    outer loop
       vertex -0.127383 8.32665e-17 0.1
       vertex -0.125244 0.0326315 0.1
       vertex -0.125244 0.0326315 0
    endloop
  endfacet
  facet normal -0.997858 0.0654098 -1.08928e-16
    outer loop
       vertex -0.125244 0.0326315 0
       vertex -0.127383 -8.32665e-17 0
       vertex -0.127383 8.32665e-17 0.1
    endloop
  endfacet
  facet normal -0.997858 -0.0654098 0
    outer loop
       vertex -0.127383 -8.32665e-17 0
       vertex -0.125244 -0.0326315 0
       vertex -0.125244 -0.0326315 0.1
    endloop
  endfacet
  facet normal -0.997858 -0.0654098 1.08928e-16
    outer loop
       vertex -0.125244 -0.0326315 0.1
       vertex -0.127383 8.32665e-17 0.1
       vertex -0.127383 -8.32665e-17 0
    endloop
  endfacet
  facet normal -0.980784 -0.195096 0
    outer loop
       vertex -0.125244 -0.0326315 0
       vertex -0.118864 -0.064705 0
       vertex -0.118864 -0.064705 0.1
    endloop
  endfacet
  facet normal -0.980784 -0.195096 0
    outer loop
       vertex -0.118864 -0.064705 0.1
       vertex -0.125244 -0.0326315 0.1
       vertex -0.125244 -0.0326315 0
    endloop
  endfacet
  facet normal -0.946935 -0.321425 0
    outer loop
       vertex -0.118864 -0.064705 0
       vertex -0.108353 -0.095671 0
       vertex -0.108353 -0.095671 0.1
    endloop
  endfacet
  facet normal -0.946935 -0.321425 0
    outer loop
       vertex -0.108353 -0.095671 0.1
       vertex -0.118864 -0.064705 0.1
       vertex -0.118864 -0.064705 0
    endloop
  endfacet
  facet normal -0.896866 -0.442302 0
    outer loop
       vertex -0.108353 -0.095671 0
       vertex -0.0938889 -0.125 0
       vertex -0.0938889 -0.125 0.1
    endloop
  endfacet
  facet normal -0.896866 -0.442302 0
    outer loop
       vertex -0.0938889 -0.125 0.1
       vertex -0.108353 -0.095671 0.1
       vertex -0.108353 -0.095671 0
    endloop
  endfacet
  facet normal -0.831476 -0.555561 0
    outer loop
       vertex -0.0938889 -0.125 0
       vertex -0.0757209 -0.152191 0
       vertex -0.0757209 -0.152191 0.1
    endloop
  endfacet
  facet normal -0.831476 -0.555561 0
    outer loop
       vertex -0.0757209 -0.152191 0.1
       vertex -0.0938889 -0.125 0.1
       vertex -0.0938889 -0.125 0
    endloop
  endfacet
  facet normal -0.751817 -0.659372 0
    outer loop
       vertex -0.0757209 -0.152191 0
       vertex -0.0541589 -0.176776 0
       vertex -0.0541589 -0.176776 0.1
    endloop
  endfacet
  facet normal -0.751817 -0.659372 0
    outer loop
       vertex -0.0541589 -0.176776 0.1
       vertex -0.0757209 -0.152191 0.1
       vertex -0.0757209 -0.152191 0
    endloop
  endfacet
  facet normal 0.659372 -0.751817 0
    outer loop
       vertex 0.299393 -0.176776 0
       vertex 0.299393 -0.176776 0.1
       vertex 0.274808 -0.198338 0.1
    endloop
  endfacet
  facet normal 0.659372 -0.751817 0
    outer loop
       vertex 0.274808 -0.198338 0.1
       vertex 0.274808 -0.198338 0
       vertex 0.299393 -0.176776 0
    endloop
  endfacet
  facet normal 0.555561 -0.831476 0
    outer loop
       vertex 0.274808 -0.198338 0
       vertex 0.274808 -0.198338 0.1
       vertex 0.247617 -0.216506 0.1
    endloop
  endfacet
  facet normal 0.555561 -0.831476 0
    outer loop
       vertex 0.247617 -0.216506 0.1
       vertex 0.247617 -0.216506 0
       vertex 0.274808 -0.198338 0
    endloop
  endfacet
  facet normal 0.442302 -0.896866 0
    outer loop
       vertex 0.247617 -0.216506 0
       vertex 0.247617 -0.216506 0.1
       vertex 0.218288 -0.23097 0.1
    endloop
  endfacet
  facet normal 0.442302 -0.896866 0
    outer loop
       vertex 0.218288 -0.23097 0.1
       vertex 0.218288 -0.23097 0
       vertex 0.247617 -0.216506 0
    endloop
  endfacet
  facet normal 0.321425 -0.946935 0
    outer loop
       vertex 0.218288 -0.23097 0
       vertex 0.218288 -0.23097 0.1
       vertex 0.187322 -0.241481 0.1
    endloop
  endfacet
  facet normal 0.321425 -0.946935 0
    outer loop
       vertex 0.187322 -0.241481 0.1
       vertex 0.187322 -0.241481 0
       vertex 0.218288 -0.23097 0
    endloop
  endfacet
  facet normal 0.195096 -0.980784 0
    outer loop
       vertex 0.187322 -0.241481 0
       vertex 0.187322 -0.241481 0.1
       vertex 0.155249 -0.247861 0.1
    endloop
  endfacet
  facet normal 0.195096 -0.980784 0
    outer loop
       vertex 0.155249 -0.247861 0.1
       vertex 0.155249 -0.247861 0
       vertex 0.187322 -0.241481 0
    endloop
  endfacet
  facet normal 0.0654098 -0.997858 0
    outer loop
       vertex 0.122617 -0.25 0
       vertex 0.155249 -0.247861 0
       vertex 0.155249 -0.247861 0.1
    endloop
  endfacet
  facet normal 0.0654098 -0.997858 1.0893e-16
    outer loop
       vertex 0.155249 -0.247861 0.1
       vertex 0.122617 -0.25 0.1
       vertex 0.122617 -0.25 0
    endloop
  endfacet
  facet normal -0.0654098 -0.997858 0
    outer loop
       vertex 0.122617 -0.25 0.1
       vertex 0.0899856 -0.247861 0.1
       vertex 0.0899856 -0.247861 0
    endloop
  endfacet
  facet normal -0.0654098 -0.997858 -1.0893e-16
    outer loop
       vertex 0.0899856 -0.247861 0
       vertex 0.122617 -0.25 0
       vertex 0.122617 -0.25 0.1
    endloop
  endfacet
  facet normal -0.195096 -0.980784 0
    outer loop
       vertex 0.0899856 -0.247861 0
       vertex 0.0899856 -0.247861 0.1
       vertex 0.0579121 -0.241481 0.1
    endloop
  endfacet
  facet normal -0.195096 -0.980784 -0
    outer loop
       vertex 0.0579121 -0.241481 0.1
       vertex 0.0579121 -0.241481 0
       vertex 0.0899856 -0.247861 0
    endloop
  endfacet
  facet normal -0.321425 -0.946935 0
    outer loop
       vertex 0.0579121 -0.241481 0
       vertex 0.0579121 -0.241481 0.1
       vertex 0.0269461 -0.23097 0.1
    endloop
  endfacet
  facet normal -0.321425 -0.946935 -0
    outer loop
       vertex 0.0269461 -0.23097 0.1
       vertex 0.0269461 -0.23097 0
       vertex 0.0579121 -0.241481 0
    endloop
  endfacet
  facet normal -0.442302 -0.896866 0
    outer loop
       vertex 0.0269461 -0.23097 0
       vertex 0.0269461 -0.23097 0.1
       vertex -0.00238289 -0.216506 0.1
    endloop
  endfacet
  facet normal -0.442302 -0.896866 -0
    outer loop
       vertex -0.00238289 -0.216506 0.1
       vertex -0.00238289 -0.216506 0
       vertex 0.0269461 -0.23097 0
    endloop
  endfacet
  facet normal -0.555561 -0.831476 0
    outer loop
       vertex -0.00238289 -0.216506 0
       vertex -0.00238289 -0.216506 0.1
       vertex -0.0295739 -0.198338 0.1
    endloop
  endfacet
  facet normal -0.555561 -0.831476 -0
    outer loop
       vertex -0.0295739 -0.198338 0.1
       vertex -0.0295739 -0.198338 0
       vertex -0.00238289 -0.216506 0
    endloop
  endfacet
  facet normal -0.659372 -0.751817 0
    outer loop
       vertex -0.0295739 -0.198338 0
       vertex -0.0295739 -0.198338 0.1
       vertex -0.0541589 -0.176776 0.1
    endloop
  endfacet
  facet normal -0.659372 -0.751817 -0
    outer loop
       vertex -0.0541589 -0.176776 0.1
       vertex -0.0541589 -0.176776 0
       vertex -0.0295739 -0.198338 0
    endloop
  endfacet
endsolid cylinder
