solid cylinder
  facet normal 0.751817 -0.659372 0
    outer loop
       vertex 0.0618453 -0.176776 0
       vertex 0.0834073 -0.152191 0
       vertex 0.0834073 -0.152191 0.1
    endloop
  endfacet
  facet normal 0.751817 -0.659372 0
    outer loop
       vertex 0.0834073 -0.152191 0.1
       vertex 0.0618453 -0.176776 0.1
       vertex 0.0618453 -0.176776 0
    endloop
  endfacet
  facet normal 0.831476 -0.555561 0
    outer loop
       vertex 0.0834073 -0.152191 0
       vertex 0.101575 -0.125 0
       vertex 0.101575 -0.125 0.1
    endloop
  endfacet
  facet normal 0.831476 -0.555561 0
    outer loop
       vertex 0.101575 -0.125 0.1
       vertex 0.0834073 -0.152191 0.1
       vertex 0.0834073 -0.152191 0
    endloop
  endfacet
  facet normal 0.896866 -0.442302 0
    outer loop
       vertex 0.101575 -0.125 0
       vertex 0.116039 -0.095671 0
       vertex 0.116039 -0.095671 0.1
    endloop
  endfacet
  facet normal 0.896866 -0.442302 0
    outer loop
       vertex 0.116039 -0.095671 0.1
       vertex 0.101575 -0.125 0.1
       vertex 0.101575 -0.125 0
    endloop
  endfacet
  facet normal 0.946935 -0.321425 0
    outer loop
       vertex 0.116039 -0.095671 0
       vertex 0.12655 -0.064705 0
       vertex 0.12655 -0.064705 0.1
    endloop
  endfacet
  facet normal 0.946935 -0.321425 0
    outer loop
       vertex 0.12655 -0.064705 0.1
       vertex 0.116039 -0.095671 0.1
       vertex 0.116039 -0.095671 0
    endloop
  endfacet
  facet normal 0.980784 -0.195096 0
    outer loop
       vertex 0.12655 -0.064705 0
       vertex 0.13293 -0.0326315 0
       vertex 0.13293 -0.0326315 0.1
    endloop
  endfacet
  facet normal 0.980784 -0.195096 0
    outer loop
       vertex 0.13293 -0.0326315 0.1
       vertex 0.12655 -0.064705 0.1
       vertex 0.12655 -0.064705 0
    endloop
  endfacet
  facet normal 0.997858 -0.0654098 0
    outer loop
       vertex 0.135069 -8.32665e-17 0.1
       vertex 0.13293 -0.0326315 0.1
       vertex 0.13293 -0.0326315 0
    endloop
  endfacet
  facet normal 0.997858 -0.0654098 -1.08928e-16
    outer loop
       vertex 0.13293 -0.0326315 0
       vertex 0.135069 8.32665e-17 0
       vertex 0.135069 -8.32665e-17 0.1
    endloop
  endfacet
  facet normal 0.997858 0.0654098 0
    outer loop
       vertex 0.135069 8.32665e-17 0
       vertex 0.13293 0.0326315 0
       vertex 0.13293 0.0326315 0.1
    endloop
  endfacet
  facet normal 0.997858 0.0654098 1.08928e-16
    outer loop
       vertex 0.13293 0.0326315 0.1
       vertex 0.135069 -8.32665e-17 0.1
       vertex 0.135069 8.32665e-17 0
    endloop
  endfacet
  facet normal 0.980784 0.195096 0
    outer loop
       vertex 0.13293 0.0326315 0
       vertex 0.12655 0.064705 0
       vertex 0.12655 0.064705 0.1
    endloop
  endfacet
  facet normal 0.980784 0.195096 0
    outer loop
       vertex 0.12655 0.064705 0.1
       vertex 0.13293 0.0326315 0.1
       vertex 0.13293 0.0326315 0
    endloop
  endfacet
  facet normal 0.946935 0.321425 0
    outer loop
       vertex 0.12655 0.064705 0
       vertex 0.116039 0.095671 0
       vertex 0.116039 0.095671 0.1
    endloop
  endfacet
  facet normal 0.946935 0.321425 0
    outer loop
       vertex 0.116039 0.095671 0.1
       vertex 0.12655 0.064705 0.1
       vertex 0.12655 0.064705 0
    endloop
  endfacet
  facet normal 0.896866 0.442302 0
    outer loop
       vertex 0.116039 0.095671 0
       vertex 0.101575 0.125 0
       vertex 0.101575 0.125 0.1
    endloop
  endfacet
  facet normal 0.896866 0.442302 0
    outer loop
       vertex 0.101575 0.125 0.1
       vertex 0.116039 0.095671 0.1
       vertex 0.116039 0.095671 0
    endloop
  endfacet
  facet normal 0.831476 0.555561 0
    outer loop
       vertex 0.101575 0.125 0
       vertex 0.0834073 0.152191 0
       vertex 0.0834073 0.152191 0.1
    endloop
  endfacet
  facet normal 0.831476 0.555561 0
    outer loop
       vertex 0.0834073 0.152191 0.1
       vertex 0.101575 0.125 0.1
       vertex 0.101575 0.125 0
    endloop
  endfacet
  facet normal 0.751817 0.659372 0
    outer loop
       vertex 0.0834073 0.152191 0
       vertex 0.0618453 0.176776 0
       vertex 0.0618453 0.176776 0.1
    endloop
  endfacet
  facet normal 0.751817 0.659372 0
    outer loop
       vertex 0.0618453 0.176776 0.1
       vertex 0.0834073 0.152191 0.1
       vertex 0.0834073 0.152191 0
    endloop
  endfacet
  facet normal 0.659372 0.751817 0
    outer loop
       vertex 0.0618453 0.176776 0
       vertex 0.0372603 0.198338 0
       vertex 0.0372603 0.198338 0.1
    endloop
  endfacet
  facet normal 0.659372 0.751817 0
    outer loop
       vertex 0.0372603 0.198338 0.1
       vertex 0.0618453 0.176776 0.1
       vertex 0.0618453 0.176776 0
    endloop
  endfacet
  facet normal 0.555561 0.831476 0
    outer loop
       vertex 0.0372603 0.198338 0
       vertex 0.0100693 0.216506 0
       vertex 0.0100693 0.216506 0.1
    endloop
  endfacet
  facet normal 0.555561 0.831476 0
    outer loop
       vertex 0.0100693 0.216506 0.1
       vertex 0.0372603 0.198338 0.1
       vertex 0.0372603 0.198338 0
    endloop
  endfacet
  facet normal 0.442302 0.896866 0
    outer loop
       vertex 0.0100693 0.216506 0
       vertex -0.0192597 0.23097 0
       vertex -0.0192597 0.23097 0.1
    endloop
  endfacet
  facet normal 0.442302 0.896866 0
    outer loop
       vertex -0.0192597 0.23097 0.1
       vertex 0.0100693 0.216506 0.1
       vertex 0.0100693 0.216506 0
    endloop
  endfacet
  facet normal 0.321425 0.946935 0
    outer loop
       vertex -0.0192597 0.23097 0
       vertex -0.0502257 0.241481 0
       vertex -0.0502257 0.241481 0.1
    endloop
  endfacet
  facet normal 0.321425 0.946935 0
    outer loop
       vertex -0.0502257 0.241481 0.1
       vertex -0.0192597 0.23097 0.1
       vertex -0.0192597 0.23097 0
    endloop
  endfacet
  facet normal 0.195096 0.980784 0
    outer loop
       vertex -0.0502257 0.241481 0
       vertex -0.0822992 0.247861 0
       vertex -0.0822992 0.247861 0.1
    endloop
  endfacet
  facet normal 0.195096 0.980784 0
    outer loop
       vertex -0.0822992 0.247861 0.1
       vertex -0.0502257 0.241481 0.1
       vertex -0.0502257 0.241481 0
    endloop
  endfacet
  facet normal 0.0654098 0.997858 0
    outer loop
       vertex -0.114931 0.25 0.1
       vertex -0.0822992 0.247861 0.1
       vertex -0.0822992 0.247861 0
    endloop
  endfacet
  facet normal 0.0654098 0.997858 -1.08928e-16
    outer loop
       vertex -0.0822992 0.247861 0
       vertex -0.114931 0.25 0
       vertex -0.114931 0.25 0.1
    endloop
  endfacet
  facet normal -0.0654098 0.997858 0
    outer loop
       vertex -0.114931 0.25 0
       vertex -0.147562 0.247861 0
       vertex -0.147562 0.247861 0.1
    endloop
  endfacet
  facet normal -0.0654098 0.997858 1.08928e-16
    outer loop
       vertex -0.147562 0.247861 0.1
       vertex -0.114931 0.25 0.1
       vertex -0.114931 0.25 0
    endloop
  endfacet
  facet normal -0.195096 0.980784 0
    outer loop
       vertex -0.147562 0.247861 0
       vertex -0.179636 0.241481 0
       vertex -0.179636 0.241481 0.1
    endloop
  endfacet
  facet normal -0.195096 0.980784 0
    outer loop
       vertex -0.179636 0.241481 0.1
       vertex -0.147562 0.247861 0.1
       vertex -0.147562 0.247861 0
    endloop
  endfacet
  facet normal -0.321425 0.946935 0
    outer loop
       vertex -0.179636 0.241481 0
       vertex -0.210602 0.23097 0
       vertex -0.210602 0.23097 0.1
    endloop
  endfacet
  facet normal -0.321425 0.946935 0
    outer loop
       vertex -0.210602 0.23097 0.1
       vertex -0.179636 0.241481 0.1
       vertex -0.179636 0.241481 0
    endloop
  endfacet
  facet normal -0.442302 0.896866 0
    outer loop
       vertex -0.210602 0.23097 0
       vertex -0.239931 0.216506 0
       vertex -0.239931 0.216506 0.1
    endloop
  endfacet
  facet normal -0.442302 0.896866 0
    outer loop
       vertex -0.239931 0.216506 0.1
       vertex -0.210602 0.23097 0.1
       vertex -0.210602 0.23097 0
    endloop
  endfacet
  facet normal -0.555561 0.831476 0
    outer loop
       vertex -0.239931 0.216506 0
       vertex -0.267122 0.198338 0
       vertex -0.267122 0.198338 0.1
    endloop
  endfacet
  facet normal -0.555561 0.831476 0
    outer loop
       vertex -0.267122 0.198338 0.1
       vertex -0.239931 0.216506 0.1
       vertex -0.239931 0.216506 0
    endloop
  endfacet
  facet normal -0.659372 0.751817 0
    outer loop
       vertex -0.267122 0.198338 0
       vertex -0.291707 0.176776 0
       vertex -0.291707 0.176776 0.1
    endloop
  endfacet
  facet normal -0.659372 0.751817 0
    outer loop
       vertex -0.291707 0.176776 0.1
       vertex -0.267122 0.198338 0.1
       vertex -0.267122 0.198338 0
    endloop
  endfacet
  facet normal -0.751817 0.659372 0
    outer loop
       vertex -0.291707 0.176776 0
       vertex -0.313269 0.152191 0
       vertex -0.313269 0.152191 0.1
    endloop
  endfacet
  facet normal -0.751817 0.659372 0
    outer loop
       vertex -0.313269 0.152191 0.1
       vertex -0.291707 0.176776 0.1
       vertex -0.291707 0.176776 0
    endloop
  endfacet
  facet normal -0.831476 0.555561 0
    outer loop
       vertex -0.313269 0.152191 0
       vertex -0.331437 0.125 0
       vertex -0.331437 0.125 0.1
    endloop
  endfacet
  facet normal -0.831476 0.555561 0
    outer loop
       vertex -0.331437 0.125 0.1
       vertex -0.313269 0.152191 0.1
       vertex -0.313269 0.152191 0
    endloop
  endfacet
  facet normal -0.896866 0.442302 0
    outer loop
       vertex -0.331437 0.125 0
       vertex -0.345901 0.095671 0
       vertex -0.345901 0.095671 0.1
    endloop
  endfacet
  facet normal -0.896866 0.442302 0
    outer loop
       vertex -0.345901 0.095671 0.1
       vertex -0.331437 0.125 0.1
       vertex -0.331437 0.125 0
    endloop
  endfacet
  facet normal -0.946935 0.321425 0
    outer loop
       vertex -0.345901 0.095671 0
       vertex -0.356412 0.064705 0
       vertex -0.356412 0.064705 0.1
    endloop
  endfacet
  facet normal -0.946935 0.321425 0
    outer loop
       vertex -0.356412 0.064705 0.1
       vertex -0.345901 0.095671 0.1
       vertex -0.345901 0.095671 0
    endloop
  endfacet
  facet normal -0.980784 0.195096 0
    outer loop
       vertex -0.356412 0.064705 0
       vertex -0.362792 0.0326315 0
       vertex -0.362792 0.0326315 0.1
    endloop
  endfacet
  facet normal -0.980784 0.195096 0
    outer loop
       vertex -0.362792 0.0326315 0.1
       vertex -0.356412 0.064705 0.1
       vertex -0.356412 0.064705 0
    endloop
  endfacet
  facet normal -0.997858 0.0654098 0
    outer loop
       vertex -0.364931 8.32665e-17 0.1
       vertex -0.362792 0.0326315 0.1
       vertex -0.362792 0.0326315 0
    endloop
  endfacet
  facet normal -0.997858 0.0654098 -1.08928e-16
    outer loop
       vertex -0.362792 0.0326315 0
       vertex -0.364931 -8.32665e-17 0
       vertex -0.364931 8.32665e-17 0.1
    endloop
  endfacet
  facet normal -0.997858 -0.0654098 0
    outer loop
       vertex -0.364931 -8.32665e-17 0
       vertex -0.362792 -0.0326315 0
       vertex -0.362792 -0.0326315 0.1
    endloop
  endfacet
  facet normal -0.997858 -0.0654098 1.08928e-16
    outer loop
       vertex -0.362792 -0.0326315 0.1
       vertex -0.364931 8.32665e-17 0.1
       vertex -0.364931 -8.32665e-17 0
    endloop
  endfacet
  facet normal -0.980784 -0.195096 0
    outer loop
       vertex -0.362792 -0.0326315 0
       vertex -0.356412 -0.064705 0
       vertex -0.356412 -0.064705 0.1
    endloop
  endfacet
  facet normal -0.980784 -0.195096 0
    outer loop
       vertex -0.356412 -0.064705 0.1
       vertex -0.362792 -0.0326315 0.1
       vertex -0.362792 -0.0326315 0
    endloop
  endfacet
  facet normal -0.946935 -0.321425 0
    outer loop
       vertex -0.356412 -0.064705 0
       vertex -0.345901 -0.095671 0
       vertex -0.345901 -0.095671 0.1
    endloop
  endfacet
  facet normal -0.946935 -0.321425 0
    outer loop
       vertex -0.345901 -0.095671 0.1
       vertex -0.356412 -0.064705 0.1
       vertex -0.356412 -0.064705 0
    endloop
  endfacet
  facet normal -0.896866 -0.442302 0
    outer loop
       vertex -0.345901 -0.095671 0
       vertex -0.331437 -0.125 0
       vertex -0.331437 -0.125 0.1
    endloop
  endfacet
  facet normal -0.896866 -0.442302 0
    outer loop
       vertex -0.331437 -0.125 0.1
       vertex -0.345901 -0.095671 0.1
       vertex -0.345901 -0.095671 0
    endloop
  endfacet
  facet normal -0.831476 -0.555561 0
    outer loop
       vertex -0.331437 -0.125 0
       vertex -0.313269 -0.152191 0
       vertex -0.313269 -0.152191 0.1
    endloop
  endfacet
  facet normal -0.831476 -0.555561 0
    outer loop
       vertex -0.313269 -0.152191 0.1
       vertex -0.331437 -0.125 0.1
       vertex -0.331437 -0.125 0
    endloop
  endfacet
  facet normal -0.751817 -0.659372 0
    outer loop
       vertex -0.313269 -0.152191 0
       vertex -0.291707 -0.176776 0
       vertex -0.291707 -0.176776 0.1
    endloop
  endfacet
  facet normal -0.751817 -0.659372 0
    outer loop
       vertex -0.291707 -0.176776 0.1
       vertex -0.313269 -0.152191 0.1
       vertex -0.313269 -0.152191 0
    endloop
  endfacet
  facet normal 0.659372 -0.751817 0
    outer loop
       vertex 0.0618453 -0.176776 0
       vertex 0.0618453 -0.176776 0.1
       vertex 0.0372603 -0.198338 0.1
    endloop
  endfacet
  facet normal 0.659372 -0.751817 0
    outer loop
       vertex 0.0372603 -0.198338 0.1
       vertex 0.0372603 -0.198338 0
       vertex 0.0618453 -0.176776 0
    endloop
  endfacet
  facet normal 0.555561 -0.831476 0
    outer loop
       vertex 0.0372603 -0.198338 0
       vertex 0.0372603 -0.198338 0.1
       vertex 0.0100693 -0.216506 0.1
    endloop
  endfacet
  facet normal 0.555561 -0.831476 0
    outer loop
       vertex 0.0100693 -0.216506 0.1
       vertex 0.0100693 -0.216506 0
       vertex 0.0372603 -0.198338 0
    endloop
  endfacet
  facet normal 0.442302 -0.896866 0
    outer loop
       vertex 0.0100693 -0.216506 0
       vertex 0.0100693 -0.216506 0.1
       vertex -0.0192597 -0.23097 0.1
    endloop
  endfacet
  facet normal 0.442302 -0.896866 0
    outer loop
       vertex -0.0192597 -0.23097 0.1
       vertex -0.0192597 -0.23097 0
       vertex 0.0100693 -0.216506 0
    endloop
  endfacet
  facet normal 0.321425 -0.946935 0
    outer loop
       vertex -0.0192597 -0.23097 0
       vertex -0.0192597 -0.23097 0.1
       vertex -0.0502257 -0.241481 0.1
    endloop
  endfacet
  facet normal 0.321425 -0.946935 0
    outer loop
       vertex -0.0502257 -0.241481 0.1
       vertex -0.0502257 -0.241481 0
       vertex -0.0192597 -0.23097 0
    endloop
  endfacet
  facet normal 0.195096 -0.980784 0
    outer loop
       vertex -0.0502257 -0.241481 0
       vertex -0.0502257 -0.241481 0.1
       vertex -0.0822992 -0.247861 0.1
    endloop
  endfacet
  facet normal 0.195096 -0.980784 0
    outer loop
       vertex -0.0822992 -0.247861 0.1
       vertex -0.0822992 -0.247861 0
       vertex -0.0502257 -0.241481 0
    endloop
  endfacet
  facet normal 0.0654098 -0.997858 0
    outer loop
       vertex -0.114931 -0.25 0
       vertex -0.0822992 -0.247861 0
       vertex -0.0822992 -0.247861 0.1
    endloop
  endfacet
  facet normal 0.0654098 -0.997858 1.08928e-16
    outer loop
       vertex -0.0822992 -0.247861 0.1
       vertex -0.114931 -0.25 0.1
       vertex -0.114931 -0.25 0
    endloop
  endfacet
  facet normal -0.0654098 -0.997858 0
    outer loop
       vertex -0.114931 -0.25 0.1
       vertex -0.147562 -0.247861 0.1
       vertex -0.147562 -0.247861 0
    endloop
  endfacet
  facet normal -0.0654098 -0.997858 -1.08928e-16
    outer loop
       vertex -0.147562 -0.247861 0
       vertex -0.114931 -0.25 0
       vertex -0.114931 -0.25 0.1
    endloop
  endfacet
  facet normal -0.195096 -0.980784 0
    outer loop
       vertex -0.147562 -0.247861 0
       vertex -0.147562 -0.247861 0.1
       vertex -0.179636 -0.241481 0.1
    endloop
  endfacet
  facet normal -0.195096 -0.980784 -0
    outer loop
       vertex -0.179636 -0.241481 0.1
       vertex -0.179636 -0.241481 0
       vertex -0.147562 -0.247861 0
    endloop
  endfacet
  facet normal -0.321425 -0.946935 0
    outer loop
       vertex -0.179636 -0.241481 0
       vertex -0.179636 -0.241481 0.1
       vertex -0.210602 -0.23097 0.1
    endloop
  endfacet
  facet normal -0.321425 -0.946935 -0
    outer loop
       vertex -0.210602 -0.23097 0.1
       vertex -0.210602 -0.23097 0
       vertex -0.179636 -0.241481 0
    endloop
  endfacet
  facet normal -0.442302 -0.896866 0
    outer loop
       vertex -0.210602 -0.23097 0
       vertex -0.210602 -0.23097 0.1
       vertex -0.239931 -0.216506 0.1
    endloop
  endfacet
  facet normal -0.442302 -0.896866 -0
    outer loop
       vertex -0.239931 -0.216506 0.1
       vertex -0.239931 -0.216506 0
       vertex -0.210602 -0.23097 0
    endloop
  endfacet
  facet normal -0.555561 -0.831476 0
    outer loop
       vertex -0.239931 -0.216506 0
       vertex -0.239931 -0.216506 0.1
       vertex -0.267122 -0.198338 0.1
    endloop
  endfacet
  facet normal -0.555561 -0.831476 -0
    outer loop
       vertex -0.267122 -0.198338 0.1
       vertex -0.267122 -0.198338 0
       vertex -0.239931 -0.216506 0
    endloop
  endfacet
  facet normal -0.659372 -0.751817 0
    outer loop
       vertex -0.267122 -0.198338 0
       vertex -0.267122 -0.198338 0.1
       vertex -0.291707 -0.176776 0.1
    endloop
  endfacet
  facet normal -0.659372 -0.751817 -0
    outer loop
       vertex -0.291707 -0.176776 0.1
       vertex -0.291707 -0.176776 0
       vertex -0.267122 -0.198338 0
    endloop
  endfacet
endsolid cylinder
