solid cylinder
  facet normal 0.751817 -0.659372 0
    outer loop
       vertex 0.377636 -0.176776 0
       vertex 0.399198 -0.152191 0
       vertex 0.399198 -0.152191 0.1
    endloop
  endfacet
  facet normal 0.751817 -0.659372 0
    outer loop
       vertex 0.399198 -0.152191 0.1
       vertex 0.377636 -0.176776 0.1
       vertex 0.377636 -0.176776 0
    endloop
  endfacet
  facet normal 0.831476 -0.555561 0
    outer loop
       vertex 0.399198 -0.152191 0
       vertex 0.417366 -0.125 0
       vertex 0.417366 -0.125 0.1
    endloop
  endfacet
  facet normal 0.831476 -0.555561 0
    outer loop
       vertex 0.417366 -0.125 0.1
       vertex 0.399198 -0.152191 0.1
       vertex 0.399198 -0.152191 0
    endloop
  endfacet
  facet normal 0.896866 -0.442302 0
    outer loop
       vertex 0.417366 -0.125 0
       vertex 0.43183 -0.095671 0
       vertex 0.43183 -0.095671 0.1
    endloop
  endfacet
  facet normal 0.896866 -0.442302 0
    outer loop
       vertex 0.43183 -0.095671 0.1
       vertex 0.417366 -0.125 0.1
       vertex 0.417366 -0.125 0
    endloop
  endfacet
  facet normal 0.946935 -0.321425 0
    outer loop
       vertex 0.43183 -0.095671 0
       vertex 0.442341 -0.064705 0
       vertex 0.442341 -0.064705 0.1
    endloop
  endfacet
  facet normal 0.946935 -0.321425 0
    outer loop
       vertex 0.442341 -0.064705 0.1
       vertex 0.43183 -0.095671 0.1
       vertex 0.43183 -0.095671 0
    endloop
  endfacet
  facet normal 0.980784 -0.195096 0
    outer loop
       vertex 0.442341 -0.064705 0
       vertex 0.448721 -0.0326315 0
       vertex 0.448721 -0.0326315 0.1
    endloop
  endfacet
  facet normal 0.980784 -0.195096 0
    outer loop
       vertex 0.448721 -0.0326315 0.1
       vertex 0.442341 -0.064705 0.1
       vertex 0.442341 -0.064705 0
    endloop
  endfacet
  facet normal 0.997858 -0.0654098 0
    outer loop
       vertex 0.45086 -8.32665e-17 0.1
       vertex 0.448721 -0.0326315 0.1
       vertex 0.448721 -0.0326315 0
    endloop
  endfacet
  facet normal 0.997858 -0.0654098 -1.08928e-16
    outer loop
       vertex 0.448721 -0.0326315 0
       vertex 0.45086 8.32665e-17 0
       vertex 0.45086 -8.32665e-17 0.1
    endloop
  endfacet
  facet normal 0.997858 0.0654098 0
    outer loop
       vertex 0.45086 8.32665e-17 0
       vertex 0.448721 0.0326315 0
       vertex 0.448721 0.0326315 0.1
    endloop
  endfacet
  facet normal 0.997858 0.0654098 1.08928e-16
    outer loop
       vertex 0.448721 0.0326315 0.1
       vertex 0.45086 -8.32665e-17 0.1
       vertex 0.45086 8.32665e-17 0
    endloop
  endfacet
  facet normal 0.980784 0.195096 0
    outer loop
       vertex 0.448721 0.0326315 0
       vertex 0.442341 0.064705 0
       vertex 0.442341 0.064705 0.1
    endloop
  endfacet
  facet normal 0.980784 0.195096 0
    outer loop
       vertex 0.442341 0.064705 0.1
       vertex 0.448721 0.0326315 0.1
       vertex 0.448721 0.0326315 0
    endloop
  endfacet
  facet normal 0.946935 0.321425 0
    outer loop
       vertex 0.442341 0.064705 0
       vertex 0.43183 0.095671 0
       vertex 0.43183 0.095671 0.1
    endloop
  endfacet
  facet normal 0.946935 0.321425 0
    outer loop
       vertex 0.43183 0.095671 0.1
       vertex 0.442341 0.064705 0.1
       vertex 0.442341 0.064705 0
    endloop
  endfacet
  facet normal 0.896866 0.442302 0
    outer loop
       vertex 0.43183 0.095671 0
       vertex 0.417366 0.125 0
       vertex 0.417366 0.125 0.1
    endloop
  endfacet
  facet normal 0.896866 0.442302 0
    outer loop
       vertex 0.417366 0.125 0.1
       vertex 0.43183 0.095671 0.1
       vertex 0.43183 0.095671 0
    endloop
  endfacet
  facet normal 0.831476 0.555561 0
    outer loop
       vertex 0.417366 0.125 0
       vertex 0.399198 0.152191 0
       vertex 0.399198 0.152191 0.1
    endloop
  endfacet
  facet normal 0.831476 0.555561 0
    outer loop
       vertex 0.399198 0.152191 0.1
       vertex 0.417366 0.125 0.1
       vertex 0.417366 0.125 0
    endloop
  endfacet
  facet normal 0.751817 0.659372 0
    outer loop
       vertex 0.399198 0.152191 0
       vertex 0.377636 0.176776 0
       vertex 0.377636 0.176776 0.1
    endloop
  endfacet
  facet normal 0.751817 0.659372 0
    outer loop
       vertex 0.377636 0.176776 0.1
       vertex 0.399198 0.152191 0.1
       vertex 0.399198 0.152191 0
    endloop
  endfacet
  facet normal 0.659372 0.751817 0
    outer loop
       vertex 0.377636 0.176776 0
       vertex 0.353051 0.198338 0
       vertex 0.353051 0.198338 0.1
    endloop
  endfacet
  facet normal 0.659372 0.751817 0
    outer loop
       vertex 0.353051 0.198338 0.1
       vertex 0.377636 0.176776 0.1
       vertex 0.377636 0.176776 0
    endloop
  endfacet
  facet normal 0.555561 0.831476 0
    outer loop
       vertex 0.353051 0.198338 0
       vertex 0.32586 0.216506 0
       vertex 0.32586 0.216506 0.1
    endloop
  endfacet
  facet normal 0.555561 0.831476 0
    outer loop
       vertex 0.32586 0.216506 0.1
       vertex 0.353051 0.198338 0.1
       vertex 0.353051 0.198338 0
    endloop
  endfacet
  facet normal 0.442302 0.896866 0
    outer loop
       vertex 0.32586 0.216506 0
       vertex 0.296531 0.23097 0
       vertex 0.296531 0.23097 0.1
    endloop
  endfacet
  facet normal 0.442302 0.896866 0
    outer loop
       vertex 0.296531 0.23097 0.1
       vertex 0.32586 0.216506 0.1
       vertex 0.32586 0.216506 0
    endloop
  endfacet
  facet normal 0.321425 0.946935 0
    outer loop
       vertex 0.296531 0.23097 0
       vertex 0.265565 0.241481 0
       vertex 0.265565 0.241481 0.1
    endloop
  endfacet
  facet normal 0.321425 0.946935 0
    outer loop
       vertex 0.265565 0.241481 0.1
       vertex 0.296531 0.23097 0.1
       vertex 0.296531 0.23097 0
    endloop
  endfacet
  facet normal 0.195096 0.980784 0
    outer loop
       vertex 0.265565 0.241481 0
       vertex 0.233491 0.247861 0
       vertex 0.233491 0.247861 0.1
    endloop
  endfacet
  facet normal 0.195096 0.980784 0
    outer loop
       vertex 0.233491 0.247861 0.1
       vertex 0.265565 0.241481 0.1
       vertex 0.265565 0.241481 0
    endloop
  endfacet
  facet normal 0.0654098 0.997858 0
    outer loop
       vertex 0.20086 0.25 0.1
       vertex 0.233491 0.247861 0.1
       vertex 0.233491 0.247861 0
    endloop
  endfacet
  facet normal 0.0654098 0.997858 -1.0893e-16
    outer loop
       vertex 0.233491 0.247861 0
       vertex 0.20086 0.25 0
       vertex 0.20086 0.25 0.1
    endloop
  endfacet
  facet normal -0.0654098 0.997858 0
    outer loop
       vertex 0.20086 0.25 0
       vertex 0.168228 0.247861 0
       vertex 0.168228 0.247861 0.1
    endloop
  endfacet
  facet normal -0.0654098 0.997858 1.0893e-16
    outer loop
       vertex 0.168228 0.247861 0.1
       vertex 0.20086 0.25 0.1
       vertex 0.20086 0.25 0
    endloop
  endfacet
  facet normal -0.195096 0.980784 0
    outer loop
       vertex 0.168228 0.247861 0
       vertex 0.136155 0.241481 0
       vertex 0.136155 0.241481 0.1
    endloop
  endfacet
  facet normal -0.195096 0.980784 0
    outer loop
       vertex 0.136155 0.241481 0.1
       vertex 0.168228 0.247861 0.1
       vertex 0.168228 0.247861 0
    endloop
  endfacet
  facet normal -0.321425 0.946935 0
    outer loop
       vertex 0.136155 0.241481 0
       vertex 0.105189 0.23097 0
       vertex 0.105189 0.23097 0.1
    endloop
  endfacet
  facet normal -0.321425 0.946935 0
    outer loop
       vertex 0.105189 0.23097 0.1
       vertex 0.136155 0.241481 0.1
       vertex 0.136155 0.241481 0
    endloop
  endfacet
  facet normal -0.442302 0.896866 0
    outer loop
       vertex 0.105189 0.23097 0
       vertex 0.0758599 0.216506 0
       vertex 0.0758599 0.216506 0.1
    endloop
  endfacet
  facet normal -0.442302 0.896866 0
    outer loop
       vertex 0.0758599 0.216506 0.1
       vertex 0.105189 0.23097 0.1
       vertex 0.105189 0.23097 0
    endloop
  endfacet
  facet normal -0.555561 0.831476 0
    outer loop
       vertex 0.0758599 0.216506 0
       vertex 0.0486689 0.198338 0
       vertex 0.0486689 0.198338 0.1
    endloop
  endfacet
  facet normal -0.555561 0.831476 0
    outer loop
       vertex 0.0486689 0.198338 0.1
       vertex 0.0758599 0.216506 0.1
       vertex 0.0758599 0.216506 0
    endloop
  endfacet
  facet normal -0.659372 0.751817 0
    outer loop
       vertex 0.0486689 0.198338 0
       vertex 0.0240839 0.176776 0
       vertex 0.0240839 0.176776 0.1
    endloop
  endfacet
  facet normal -0.659372 0.751817 0
    outer loop
       vertex 0.0240839 0.176776 0.1
       vertex 0.0486689 0.198338 0.1
       vertex 0.0486689 0.198338 0
    endloop
  endfacet
  facet normal -0.751817 0.659372 0
    outer loop
       vertex 0.0240839 0.176776 0
       vertex 0.00252188 0.152191 0
       vertex 0.00252188 0.152191 0.1
    endloop
  endfacet
  facet normal -0.751817 0.659372 0
    outer loop
       vertex 0.00252188 0.152191 0.1
       vertex 0.0240839 0.176776 0.1
       vertex 0.0240839 0.176776 0
    endloop
  endfacet
  facet normal -0.831476 0.555561 0
    outer loop
       vertex 0.00252188 0.152191 0
       vertex -0.0156461 0.125 0
       vertex -0.0156461 0.125 0.1
    endloop
  endfacet
  facet normal -0.831476 0.555561 0
    outer loop
       vertex -0.0156461 0.125 0.1
       vertex 0.00252188 0.152191 0.1
       vertex 0.00252188 0.152191 0
    endloop
  endfacet
  facet normal -0.896866 0.442302 0
    outer loop
       vertex -0.0156461 0.125 0
       vertex -0.0301101 0.095671 0
       vertex -0.0301101 0.095671 0.1
    endloop
  endfacet
  facet normal -0.896866 0.442302 0
    outer loop
       vertex -0.0301101 0.095671 0.1
       vertex -0.0156461 0.125 0.1
       vertex -0.0156461 0.125 0
    endloop
  endfacet
  facet normal -0.946935 0.321425 0
    outer loop
       vertex -0.0301101 0.095671 0
       vertex -0.0406211 0.064705 0
       vertex -0.0406211 0.064705 0.1
    endloop
  endfacet
  facet normal -0.946935 0.321425 0
    outer loop
       vertex -0.0406211 0.064705 0.1
       vertex -0.0301101 0.095671 0.1
       vertex -0.0301101 0.095671 0
    endloop
  endfacet
  facet normal -0.980784 0.195096 0
    outer loop
       vertex -0.0406211 0.064705 0
       vertex -0.0470011 0.0326315 0
       vertex -0.0470011 0.0326315 0.1
    endloop
  endfacet
  facet normal -0.980784 0.195096 0
    outer loop
       vertex -0.0470011 0.0326315 0.1
       vertex -0.0406211 0.064705 0.1
       vertex -0.0406211 0.064705 0
    endloop
  endfacet
  facet normal -0.997858 0.0654098 0
    outer loop
       vertex -0.0491401 8.32665e-17 0.1
       vertex -0.0470011 0.0326315 0.1
       vertex -0.0470011 0.0326315 0
    endloop
  endfacet
  facet normal -0.997858 0.0654098 -1.08928e-16
    outer loop
       vertex -0.0470011 0.0326315 0
       vertex -0.0491401 -8.32665e-17 0
       vertex -0.0491401 8.32665e-17 0.1
    endloop
  endfacet
  facet normal -0.997858 -0.0654098 0
    outer loop
       vertex -0.0491401 -8.32665e-17 0
       vertex -0.0470011 -0.0326315 0
       vertex -0.0470011 -0.0326315 0.1
    endloop
  endfacet
  facet normal -0.997858 -0.0654098 1.08928e-16
    outer loop
       vertex -0.0470011 -0.0326315 0.1
       vertex -0.0491401 8.32665e-17 0.1
       vertex -0.0491401 -8.32665e-17 0
    endloop
  endfacet
  facet normal -0.980784 -0.195096 0
    outer loop
       vertex -0.0470011 -0.0326315 0
       vertex -0.0406211 -0.064705 0
       vertex -0.0406211 -0.064705 0.1
    endloop
  endfacet
  facet normal -0.980784 -0.195096 0
    outer loop
       vertex -0.0406211 -0.064705 0.1
       vertex -0.0470011 -0.0326315 0.1
       vertex -0.0470011 -0.0326315 0
    endloop
  endfacet
  facet normal -0.946935 -0.321425 0
    outer loop
       vertex -0.0406211 -0.064705 0
       vertex -0.0301101 -0.095671 0
       vertex -0.0301101 -0.095671 0.1
    endloop
  endfacet
  facet normal -0.946935 -0.321425 0
    outer loop
       vertex -0.0301101 -0.095671 0.1
       vertex -0.0406211 -0.064705 0.1
       vertex -0.0406211 -0.064705 0
    endloop
  endfacet
  facet normal -0.896866 -0.442302 0
    outer loop
       vertex -0.0301101 -0.095671 0
       vertex -0.0156461 -0.125 0
       vertex -0.0156461 -0.125 0.1
    endloop
  endfacet
  facet normal -0.896866 -0.442302 0
    outer loop
       vertex -0.0156461 -0.125 0.1
       vertex -0.0301101 -0.095671 0.1
       vertex -0.0301101 -0.095671 0
    endloop
  endfacet
  facet normal -0.831476 -0.555561 0
    outer loop
       vertex -0.0156461 -0.125 0
       vertex 0.00252188 -0.152191 0
       vertex 0.00252188 -0.152191 0.1
    endloop
  endfacet
  facet normal -0.831476 -0.555561 0
    outer loop
       vertex 0.00252188 -0.152191 0.1
       vertex -0.0156461 -0.125 0.1
       vertex -0.0156461 -0.125 0
    endloop
  endfacet
  facet normal -0.751817 -0.659372 0
    outer loop
       vertex 0.00252188 -0.152191 0
       vertex 0.0240839 -0.176776 0
       vertex 0.0240839 -0.176776 0.1
    endloop
  endfacet
  facet normal -0.751817 -0.659372 0
    outer loop
       vertex 0.0240839 -0.176776 0.1
       vertex 0.00252188 -0.152191 0.1
       vertex 0.00252188 -0.152191 0
    endloop
  endfacet
  facet normal 0.659372 -0.751817 0
    outer loop
       vertex 0.377636 -0.176776 0
       vertex 0.377636 -0.176776 0.1
       vertex 0.353051 -0.198338 0.1
    endloop
  endfacet
  facet normal 0.659372 -0.751817 0
    outer loop
       vertex 0.353051 -0.198338 0.1
       vertex 0.353051 -0.198338 0
       vertex 0.377636 -0.176776 0
    endloop
  endfacet
  facet normal 0.555561 -0.831476 0
    outer loop
       vertex 0.353051 -0.198338 0
       vertex 0.353051 -0.198338 0.1
       vertex 0.32586 -0.216506 0.1
    endloop
  endfacet
  facet normal 0.555561 -0.831476 0
    outer loop
       vertex 0.32586 -0.216506 0.1
       vertex 0.32586 -0.216506 0
       vertex 0.353051 -0.198338 0
    endloop
  endfacet
  facet normal 0.442302 -0.896866 0
    outer loop
       vertex 0.32586 -0.216506 0
       vertex 0.32586 -0.216506 0.1
       vertex 0.296531 -0.23097 0.1
    endloop
  endfacet
  facet normal 0.442302 -0.896866 0
    outer loop
       vertex 0.296531 -0.23097 0.1
       vertex 0.296531 -0.23097 0
       vertex 0.32586 -0.216506 0
    endloop
  endfacet
  facet normal 0.321425 -0.946935 0
    outer loop
       vertex 0.296531 -0.23097 0
       vertex 0.296531 -0.23097 0.1
       vertex 0.265565 -0.241481 0.1
    endloop
  endfacet
  facet normal 0.321425 -0.946935 0
    outer loop
       vertex 0.265565 -0.241481 0.1
       vertex 0.265565 -0.241481 0
       vertex 0.296531 -0.23097 0
    endloop
  endfacet
  facet normal 0.195096 -0.980784 0
    outer loop
       vertex 0.265565 -0.241481 0
       vertex 0.265565 -0.241481 0.1
       vertex 0.233491 -0.247861 0.1
    endloop
  endfacet
  facet normal 0.195096 -0.980784 0
    outer loop
       vertex 0.233491 -0.247861 0.1
       vertex 0.233491 -0.247861 0
       vertex 0.265565 -0.241481 0
    endloop
  endfacet
  facet normal 0.0654098 -0.997858 0
    outer loop
       vertex 0.20086 -0.25 0
       vertex 0.233491 -0.247861 0
       vertex 0.233491 -0.247861 0.1
    endloop
  endfacet
  facet normal 0.0654098 -0.997858 1.0893e-16
    outer loop
       vertex 0.233491 -0.247861 0.1
       vertex 0.20086 -0.25 0.1
       vertex 0.20086 -0.25 0
    endloop
  endfacet
  facet normal -0.0654098 -0.997858 0
    outer loop
       vertex 0.20086 -0.25 0.1
       vertex 0.168228 -0.247861 0.1
       vertex 0.168228 -0.247861 0
    endloop
  endfacet
  facet normal -0.0654098 -0.997858 -1.0893e-16
    outer loop
       vertex 0.168228 -0.247861 0
       vertex 0.20086 -0.25 0
       vertex 0.20086 -0.25 0.1
    endloop
  endfacet
  facet normal -0.195096 -0.980784 0
    outer loop
       vertex 0.168228 -0.247861 0
       vertex 0.168228 -0.247861 0.1
       vertex 0.136155 -0.241481 0.1
    endloop
  endfacet
  facet normal -0.195096 -0.980784 -0
    outer loop
       vertex 0.136155 -0.241481 0.1
       vertex 0.136155 -0.241481 0
       vertex 0.168228 -0.247861 0
    endloop
  endfacet
  facet normal -0.321425 -0.946935 0
    outer loop
       vertex 0.136155 -0.241481 0
       vertex 0.136155 -0.241481 0.1
       vertex 0.105189 -0.23097 0.1
    endloop
  endfacet
  facet normal -0.321425 -0.946935 -0
    outer loop
       vertex 0.105189 -0.23097 0.1
       vertex 0.105189 -0.23097 0
       vertex 0.136155 -0.241481 0
    endloop
  endfacet
  facet normal -0.442302 -0.896866 0
    outer loop
       vertex 0.105189 -0.23097 0
       vertex 0.105189 -0.23097 0.1
       vertex 0.0758599 -0.216506 0.1
    endloop
  endfacet
  facet normal -0.442302 -0.896866 -0
    outer loop
       vertex 0.0758599 -0.216506 0.1
       vertex 0.0758599 -0.216506 0
       vertex 0.105189 -0.23097 0
    endloop
  endfacet
  facet normal -0.555561 -0.831476 0
    outer loop
       vertex 0.0758599 -0.216506 0
       vertex 0.0758599 -0.216506 0.1
       vertex 0.0486689 -0.198338 0.1
    endloop
  endfacet
  facet normal -0.555561 -0.831476 -0
    outer loop
       vertex 0.0486689 -0.198338 0.1
       vertex 0.0486689 -0.198338 0
       vertex 0.0758599 -0.216506 0
    endloop
  endfacet
  facet normal -0.659372 -0.751817 0
    outer loop
       vertex 0.0486689 -0.198338 0
       vertex 0.0486689 -0.198338 0.1
       vertex 0.0240839 -0.176776 0.1
    endloop
  endfacet
  facet normal -0.659372 -0.751817 -0
    outer loop
       vertex 0.0240839 -0.176776 0.1
       vertex 0.0240839 -0.176776 0
       vertex 0.0486689 -0.198338 0
    endloop
  endfacet
endsolid cylinder
