solid cylinder
  facet normal 0.751817 -0.659372 0
    outer loop
       vertex 0.215598 -0.176776 0
       vertex 0.23716 -0.152191 0
       vertex 0.23716 -0.152191 0.1
    endloop
  endfacet
  facet normal 0.751817 -0.659372 0
    outer loop
       vertex 0.23716 -0.152191 0.1
       vertex 0.215598 -0.176776 0.1
       vertex 0.215598 -0.176776 0
    endloop
  endfacet
  facet normal 0.831476 -0.555561 0
    outer loop
       vertex 0.23716 -0.152191 0
       vertex 0.255328 -0.125 0
       vertex 0.255328 -0.125 0.1
    endloop
  endfacet
  facet normal 0.831476 -0.555561 0
    outer loop
       vertex 0.255328 -0.125 0.1
       vertex 0.23716 -0.152191 0.1
       vertex 0.23716 -0.152191 0
    endloop
  endfacet
  facet normal 0.896866 -0.442302 0
    outer loop
       vertex 0.255328 -0.125 0
       vertex 0.269792 -0.095671 0
       vertex 0.269792 -0.095671 0.1
    endloop
  endfacet
  facet normal 0.896866 -0.442302 0
    outer loop
       vertex 0.269792 -0.095671 0.1
       vertex 0.255328 -0.125 0.1
       vertex 0.255328 -0.125 0
    endloop
  endfacet
  facet normal 0.946935 -0.321425 0
    outer loop
       vertex 0.269792 -0.095671 0
       vertex 0.280303 -0.064705 0
       vertex 0.280303 -0.064705 0.1
    endloop
  endfacet
  facet normal 0.946935 -0.321425 0
    outer loop
       vertex 0.280303 -0.064705 0.1
       vertex 0.269792 -0.095671 0.1
       vertex 0.269792 -0.095671 0
    endloop
  endfacet
  facet normal 0.980784 -0.195096 0
    outer loop
       vertex 0.280303 -0.064705 0
       vertex 0.286683 -0.0326315 0
       vertex 0.286683 -0.0326315 0.1
    endloop
  endfacet
  facet normal 0.980784 -0.195096 0
    outer loop
       vertex 0.286683 -0.0326315 0.1
       vertex 0.280303 -0.064705 0.1
       vertex 0.280303 -0.064705 0
    endloop
  endfacet
  facet normal 0.997858 -0.0654098 0
    outer loop
       vertex 0.288822 -8.32665e-17 0.1
       vertex 0.286683 -0.0326315 0.1
       vertex 0.286683 -0.0326315 0
    endloop
  endfacet
  facet normal 0.997858 -0.0654098 -1.08928e-16
    outer loop
       vertex 0.286683 -0.0326315 0
       vertex 0.288822 8.32665e-17 0
       vertex 0.288822 -8.32665e-17 0.1
    endloop
  endfacet
  facet normal 0.997858 0.0654098 0
    outer loop
       vertex 0.288822 8.32665e-17 0
       vertex 0.286683 0.0326315 0
       vertex 0.286683 0.0326315 0.1
    endloop
  endfacet
  facet normal 0.997858 0.0654098 1.08928e-16
    outer loop
       vertex 0.286683 0.0326315 0.1
       vertex 0.288822 -8.32665e-17 0.1
       vertex 0.288822 8.32665e-17 0
    endloop
  endfacet
  facet normal 0.980784 0.195096 0
    outer loop
       vertex 0.286683 0.0326315 0
       vertex 0.280303 0.064705 0
       vertex 0.280303 0.064705 0.1
    endloop
  endfacet
  facet normal 0.980784 0.195096 0
    outer loop
       vertex 0.280303 0.064705 0.1
       vertex 0.286683 0.0326315 0.1
       vertex 0.286683 0.0326315 0
    endloop
  endfacet
  facet normal 0.946935 0.321425 0
    outer loop
       vertex 0.280303 0.064705 0
       vertex 0.269792 0.095671 0
       vertex 0.269792 0.095671 0.1
    endloop
  endfacet
  facet normal 0.946935 0.321425 0
    outer loop
       vertex 0.269792 0.095671 0.1
       vertex 0.280303 0.064705 0.1
       vertex 0.280303 0.064705 0
    endloop
  endfacet
  facet normal 0.896866 0.442302 0
    outer loop
       vertex 0.269792 0.095671 0
       vertex 0.255328 0.125 0
       vertex 0.255328 0.125 0.1
    endloop
  endfacet
  facet normal 0.896866 0.442302 0
    outer loop
       vertex 0.255328 0.125 0.1
       vertex 0.269792 0.095671 0.1
       vertex 0.269792 0.095671 0
    endloop
  endfacet
  facet normal 0.831476 0.555561 0
    outer loop
       vertex 0.255328 0.125 0
       vertex 0.23716 0.152191 0
       vertex 0.23716 0.152191 0.1
    endloop
  endfacet
  facet normal 0.831476 0.555561 0
    outer loop
       vertex 0.23716 0.152191 0.1
       vertex 0.255328 0.125 0.1
       vertex 0.255328 0.125 0
    endloop
  endfacet
  facet normal 0.751817 0.659372 0
    outer loop
       vertex 0.23716 0.152191 0
       vertex 0.215598 0.176776 0
       vertex 0.215598 0.176776 0.1
    endloop
  endfacet
  facet normal 0.751817 0.659372 0
    outer loop
       vertex 0.215598 0.176776 0.1
       vertex 0.23716 0.152191 0.1
       vertex 0.23716 0.152191 0
    endloop
  endfacet
  facet normal 0.659372 0.751817 0
    outer loop
       vertex 0.215598 0.176776 0
       vertex 0.191013 0.198338 0
       vertex 0.191013 0.198338 0.1
    endloop
  endfacet
  facet normal 0.659372 0.751817 0
    outer loop
       vertex 0.191013 0.198338 0.1
       vertex 0.215598 0.176776 0.1
       vertex 0.215598 0.176776 0
    endloop
  endfacet
  facet normal 0.555561 0.831476 0
    outer loop
       vertex 0.191013 0.198338 0
       vertex 0.163822 0.216506 0
       vertex 0.163822 0.216506 0.1
    endloop
  endfacet
  facet normal 0.555561 0.831476 0
    outer loop
       vertex 0.163822 0.216506 0.1
       vertex 0.191013 0.198338 0.1
       vertex 0.191013 0.198338 0
    endloop
  endfacet
  facet normal 0.442302 0.896866 0
    outer loop
       vertex 0.163822 0.216506 0
       vertex 0.134493 0.23097 0
       vertex 0.134493 0.23097 0.1
    endloop
  endfacet
  facet normal 0.442302 0.896866 0
    outer loop
       vertex 0.134493 0.23097 0.1
       vertex 0.163822 0.216506 0.1
       vertex 0.163822 0.216506 0
    endloop
  endfacet
  facet normal 0.321425 0.946935 0
    outer loop
       vertex 0.134493 0.23097 0
       vertex 0.103527 0.241481 0
       vertex 0.103527 0.241481 0.1
    endloop
  endfacet
  facet normal 0.321425 0.946935 0
    outer loop
       vertex 0.103527 0.241481 0.1
       vertex 0.134493 0.23097 0.1
       vertex 0.134493 0.23097 0
    endloop
  endfacet
  facet normal 0.195096 0.980784 0
    outer loop
       vertex 0.103527 0.241481 0
       vertex 0.0714539 0.247861 0
       vertex 0.0714539 0.247861 0.1
    endloop
  endfacet
  facet normal 0.195096 0.980784 0
    outer loop
       vertex 0.0714539 0.247861 0.1
       vertex 0.103527 0.241481 0.1
       vertex 0.103527 0.241481 0
    endloop
  endfacet
  facet normal 0.0654098 0.997858 0
    outer loop
       vertex 0.0388224 0.25 0.1
       vertex 0.0714539 0.247861 0.1
       vertex 0.0714539 0.247861 0
    endloop
  endfacet
  facet normal 0.0654098 0.997858 -1.08928e-16
    outer loop
       vertex 0.0714539 0.247861 0
       vertex 0.0388224 0.25 0
       vertex 0.0388224 0.25 0.1
    endloop
  endfacet
  facet normal -0.0654098 0.997858 0
    outer loop
       vertex 0.0388224 0.25 0
       vertex 0.00619093 0.247861 0
       vertex 0.00619093 0.247861 0.1
    endloop
  endfacet
  facet normal -0.0654098 0.997858 1.08928e-16
    outer loop
       vertex 0.00619093 0.247861 0.1
       vertex 0.0388224 0.25 0.1
       vertex 0.0388224 0.25 0
    endloop
  endfacet
  facet normal -0.195096 0.980784 0
    outer loop
       vertex 0.00619093 0.247861 0
       vertex -0.0258826 0.241481 0
       vertex -0.0258826 0.241481 0.1
    endloop
  endfacet
  facet normal -0.195096 0.980784 0
    outer loop
       vertex -0.0258826 0.241481 0.1
       vertex 0.00619093 0.247861 0.1
       vertex 0.00619093 0.247861 0
    endloop
  endfacet
  facet normal -0.321425 0.946935 0
    outer loop
       vertex -0.0258826 0.241481 0
       vertex -0.0568486 0.23097 0
       vertex -0.0568486 0.23097 0.1
    endloop
  endfacet
  facet normal -0.321425 0.946935 0
    outer loop
       vertex -0.0568486 0.23097 0.1
       vertex -0.0258826 0.241481 0.1
       vertex -0.0258826 0.241481 0
    endloop
  endfacet
  facet normal -0.442302 0.896866 0
    outer loop
       vertex -0.0568486 0.23097 0
       vertex -0.0861776 0.216506 0
       vertex -0.0861776 0.216506 0.1
    endloop
  endfacet
  facet normal -0.442302 0.896866 0
    outer loop
       vertex -0.0861776 0.216506 0.1
       vertex -0.0568486 0.23097 0.1
       vertex -0.0568486 0.23097 0
    endloop
  endfacet
  facet normal -0.555561 0.831476 0
    outer loop
       vertex -0.0861776 0.216506 0
       vertex -0.113369 0.198338 0
       vertex -0.113369 0.198338 0.1
    endloop
  endfacet
  facet normal -0.555561 0.831476 0
    outer loop
       vertex -0.113369 0.198338 0.1
       vertex -0.0861776 0.216506 0.1
       vertex -0.0861776 0.216506 0
    endloop
  endfacet
  facet normal -0.659372 0.751817 0
    outer loop
       vertex -0.113369 0.198338 0
       vertex -0.137954 0.176776 0
       vertex -0.137954 0.176776 0.1
    endloop
  endfacet
  facet normal -0.659372 0.751817 0
    outer loop
       vertex -0.137954 0.176776 0.1
       vertex -0.113369 0.198338 0.1
       vertex -0.113369 0.198338 0
    endloop
  endfacet
  facet normal -0.751817 0.659372 0
    outer loop
       vertex -0.137954 0.176776 0
       vertex -0.159516 0.152191 0
       vertex -0.159516 0.152191 0.1
    endloop
  endfacet
  facet normal -0.751817 0.659372 0
    outer loop
       vertex -0.159516 0.152191 0.1
       vertex -0.137954 0.176776 0.1
       vertex -0.137954 0.176776 0
    endloop
  endfacet
  facet normal -0.831476 0.555561 0
    outer loop
       vertex -0.159516 0.152191 0
       vertex -0.177684 0.125 0
       vertex -0.177684 0.125 0.1
    endloop
  endfacet
  facet normal -0.831476 0.555561 0
    outer loop
       vertex -0.177684 0.125 0.1
       vertex -0.159516 0.152191 0.1
       vertex -0.159516 0.152191 0
    endloop
  endfacet
  facet normal -0.896866 0.442302 0
    outer loop
       vertex -0.177684 0.125 0
       vertex -0.192148 0.095671 0
       vertex -0.192148 0.095671 0.1
    endloop
  endfacet
  facet normal -0.896866 0.442302 0
    outer loop
       vertex -0.192148 0.095671 0.1
       vertex -0.177684 0.125 0.1
       vertex -0.177684 0.125 0
    endloop
  endfacet
  facet normal -0.946935 0.321425 0
    outer loop
       vertex -0.192148 0.095671 0
       vertex -0.202659 0.064705 0
       vertex -0.202659 0.064705 0.1
    endloop
  endfacet
  facet normal -0.946935 0.321425 0
    outer loop
       vertex -0.202659 0.064705 0.1
       vertex -0.192148 0.095671 0.1
       vertex -0.192148 0.095671 0
    endloop
  endfacet
  facet normal -0.980784 0.195096 0
    outer loop
       vertex -0.202659 0.064705 0
       vertex -0.209039 0.0326315 0
       vertex -0.209039 0.0326315 0.1
    endloop
  endfacet
  facet normal -0.980784 0.195096 0
    outer loop
       vertex -0.209039 0.0326315 0.1
       vertex -0.202659 0.064705 0.1
       vertex -0.202659 0.064705 0
    endloop
  endfacet
  facet normal -0.997858 0.0654098 0
    outer loop
       vertex -0.211178 8.32665e-17 0.1
       vertex -0.209039 0.0326315 0.1
       vertex -0.209039 0.0326315 0
    endloop
  endfacet
  facet normal -0.997858 0.0654098 -1.08928e-16
    outer loop
       vertex -0.209039 0.0326315 0
       vertex -0.211178 -8.32665e-17 0
       vertex -0.211178 8.32665e-17 0.1
    endloop
  endfacet
  facet normal -0.997858 -0.0654098 0
    outer loop
       vertex -0.211178 -8.32665e-17 0
       vertex -0.209039 -0.0326315 0
       vertex -0.209039 -0.0326315 0.1
    endloop
  endfacet
  facet normal -0.997858 -0.0654098 1.08928e-16
    outer loop
       vertex -0.209039 -0.0326315 0.1
       vertex -0.211178 8.32665e-17 0.1
       vertex -0.211178 -8.32665e-17 0
    endloop
  endfacet
  facet normal -0.980784 -0.195096 0
    outer loop
       vertex -0.209039 -0.0326315 0
       vertex -0.202659 -0.064705 0
       vertex -0.202659 -0.064705 0.1
    endloop
  endfacet
  facet normal -0.980784 -0.195096 0
    outer loop
       vertex -0.202659 -0.064705 0.1
       vertex -0.209039 -0.0326315 0.1
       vertex -0.209039 -0.0326315 0
    endloop
  endfacet
  facet normal -0.946935 -0.321425 0
    outer loop
       vertex -0.202659 -0.064705 0
       vertex -0.192148 -0.095671 0
       vertex -0.192148 -0.095671 0.1
    endloop
  endfacet
  facet normal -0.946935 -0.321425 0
    outer loop
       vertex -0.192148 -0.095671 0.1
       vertex -0.202659 -0.064705 0.1
       vertex -0.202659 -0.064705 0
    endloop
  endfacet
  facet normal -0.896866 -0.442302 0
    outer loop
       vertex -0.192148 -0.095671 0
       vertex -0.177684 -0.125 0
       vertex -0.177684 -0.125 0.1
    endloop
  endfacet
  facet normal -0.896866 -0.442302 0
    outer loop
       vertex -0.177684 -0.125 0.1
       vertex -0.192148 -0.095671 0.1
       vertex -0.192148 -0.095671 0
    endloop
  endfacet
  facet normal -0.831476 -0.555561 0
    outer loop
       vertex -0.177684 -0.125 0
       vertex -0.159516 -0.152191 0
       vertex -0.159516 -0.152191 0.1
    endloop
  endfacet
  facet normal -0.831476 -0.555561 0
    outer loop
       vertex -0.159516 -0.152191 0.1
       vertex -0.177684 -0.125 0.1
       vertex -0.177684 -0.125 0
    endloop
  endfacet
  facet normal -0.751817 -0.659372 0
    outer loop
       vertex -0.159516 -0.152191 0
       vertex -0.137954 -0.176776 0
       vertex -0.137954 -0.176776 0.1
    endloop
  endfacet
  facet normal -0.751817 -0.659372 0
    outer loop
       vertex -0.137954 -0.176776 0.1
       vertex -0.159516 -0.152191 0.1
       vertex -0.159516 -0.152191 0
    endloop
  endfacet
  facet normal 0.659372 -0.751817 0
    outer loop
       vertex 0.215598 -0.176776 0
       vertex 0.215598 -0.176776 0.1
       vertex 0.191013 -0.198338 0.1
    endloop
  endfacet
  facet normal 0.659372 -0.751817 0
    outer loop
       vertex 0.191013 -0.198338 0.1
       vertex 0.191013 -0.198338 0
       vertex 0.215598 -0.176776 0
    endloop
  endfacet
  facet normal 0.555561 -0.831476 0
    outer loop
       vertex 0.191013 -0.198338 0
       vertex 0.191013 -0.198338 0.1
       vertex 0.163822 -0.216506 0.1
    endloop
  endfacet
  facet normal 0.555561 -0.831476 0
    outer loop
       vertex 0.163822 -0.216506 0.1
       vertex 0.163822 -0.216506 0
       vertex 0.191013 -0.198338 0
    endloop
  endfacet
  facet normal 0.442302 -0.896866 0
    outer loop
       vertex 0.163822 -0.216506 0
       vertex 0.163822 -0.216506 0.1
       vertex 0.134493 -0.23097 0.1
    endloop
  endfacet
  facet normal 0.442302 -0.896866 0
    outer loop
       vertex 0.134493 -0.23097 0.1
       vertex 0.134493 -0.23097 0
       vertex 0.163822 -0.216506 0
    endloop
  endfacet
  facet normal 0.321425 -0.946935 0
    outer loop
       vertex 0.134493 -0.23097 0
       vertex 0.134493 -0.23097 0.1
       vertex 0.103527 -0.241481 0.1
    endloop
  endfacet
  facet normal 0.321425 -0.946935 0
    outer loop
       vertex 0.103527 -0.241481 0.1
       vertex 0.103527 -0.241481 0
       vertex 0.134493 -0.23097 0
    endloop
  endfacet
  facet normal 0.195096 -0.980784 0
    outer loop
       vertex 0.103527 -0.241481 0
       vertex 0.103527 -0.241481 0.1
       vertex 0.0714539 -0.247861 0.1
    endloop
  endfacet
  facet normal 0.195096 -0.980784 0
    outer loop
       vertex 0.0714539 -0.247861 0.1
       vertex 0.0714539 -0.247861 0
       vertex 0.103527 -0.241481 0
    endloop
  endfacet
  facet normal 0.0654098 -0.997858 0
    outer loop
       vertex 0.0388224 -0.25 0
       vertex 0.0714539 -0.247861 0
       vertex 0.0714539 -0.247861 0.1
    endloop
  endfacet
  facet normal 0.0654098 -0.997858 1.08928e-16
    outer loop
       vertex 0.0714539 -0.247861 0.1
       vertex 0.0388224 -0.25 0.1
       vertex 0.0388224 -0.25 0
    endloop
  endfacet
  facet normal -0.0654098 -0.997858 0
    outer loop
       vertex 0.0388224 -0.25 0.1
       vertex 0.00619093 -0.247861 0.1
       vertex 0.00619093 -0.247861 0
    endloop
  endfacet
  facet normal -0.0654098 -0.997858 -1.08928e-16
    outer loop
       vertex 0.00619093 -0.247861 0
       vertex 0.0388224 -0.25 0
       vertex 0.0388224 -0.25 0.1
    endloop
  endfacet
  facet normal -0.195096 -0.980784 0
    outer loop
       vertex 0.00619093 -0.247861 0
       vertex 0.00619093 -0.247861 0.1
       vertex -0.0258826 -0.241481 0.1
    endloop
  endfacet
  facet normal -0.195096 -0.980784 -0
    outer loop
       vertex -0.0258826 -0.241481 0.1
       vertex -0.0258826 -0.241481 0
       vertex 0.00619093 -0.247861 0
    endloop
  endfacet
  facet normal -0.321425 -0.946935 0
    outer loop
       vertex -0.0258826 -0.241481 0
       vertex -0.0258826 -0.241481 0.1
       vertex -0.0568486 -0.23097 0.1
    endloop
  endfacet
  facet normal -0.321425 -0.946935 -0
    outer loop
       vertex -0.0568486 -0.23097 0.1
       vertex -0.0568486 -0.23097 0
       vertex -0.0258826 -0.241481 0
    endloop
  endfacet
  facet normal -0.442302 -0.896866 0
    outer loop
       vertex -0.0568486 -0.23097 0
       vertex -0.0568486 -0.23097 0.1
       vertex -0.0861776 -0.216506 0.1
    endloop
  endfacet
  facet normal -0.442302 -0.896866 -0
    outer loop
       vertex -0.0861776 -0.216506 0.1
       vertex -0.0861776 -0.216506 0
       vertex -0.0568486 -0.23097 0
    endloop
  endfacet
  facet normal -0.555561 -0.831476 0
    outer loop
       vertex -0.0861776 -0.216506 0
       vertex -0.0861776 -0.216506 0.1
       vertex -0.113369 -0.198338 0.1
    endloop
  endfacet
  facet normal -0.555561 -0.831476 -0
    outer loop
       vertex -0.113369 -0.198338 0.1
       vertex -0.113369 -0.198338 0
       vertex -0.0861776 -0.216506 0
    endloop
  endfacet
  facet normal -0.659372 -0.751817 0
    outer loop
       vertex -0.113369 -0.198338 0
       vertex -0.113369 -0.198338 0.1
       vertex -0.137954 -0.176776 0.1
    endloop
  endfacet
  facet normal -0.659372 -0.751817 -0
    outer loop
       vertex -0.137954 -0.176776 0.1
       vertex -0.137954 -0.176776 0
       vertex -0.113369 -0.198338 0
    endloop
  endfacet
endsolid cylinder
