solid cylinder
  facet normal 0.751817 -0.659372 0
    outer loop
       vertex 0.466471 -0.176776 0
       vertex 0.488033 -0.152191 0
       vertex 0.488033 -0.152191 0.1
    endloop
  endfacet
  facet normal 0.751817 -0.659372 0
    outer loop
       vertex 0.488033 -0.152191 0.1
       vertex 0.466471 -0.176776 0.1
       vertex 0.466471 -0.176776 0
    endloop
  endfacet
  facet normal 0.831476 -0.555561 0
    outer loop
       vertex 0.488033 -0.152191 0
       vertex 0.506201 -0.125 0
       vertex 0.506201 -0.125 0.1
    endloop
  endfacet
  facet normal 0.831476 -0.555561 0
    outer loop
       vertex 0.506201 -0.125 0.1
       vertex 0.488033 -0.152191 0.1
       vertex 0.488033 -0.152191 0
    endloop
  endfacet
  facet normal 0.896866 -0.442302 0
    outer loop
       vertex 0.506201 -0.125 0
       vertex 0.520665 -0.095671 0
       vertex 0.520665 -0.095671 0.1
    endloop
  endfacet
  facet normal 0.896866 -0.442302 0
    outer loop
       vertex 0.520665 -0.095671 0.1
       vertex 0.506201 -0.125 0.1
       vertex 0.506201 -0.125 0
    endloop
  endfacet
  facet normal 0.946935 -0.321425 0
    outer loop
       vertex 0.520665 -0.095671 0
       vertex 0.531176 -0.064705 0
       vertex 0.531176 -0.064705 0.1
    endloop
  endfacet
  facet normal 0.946935 -0.321425 0
    outer loop
       vertex 0.531176 -0.064705 0.1
       vertex 0.520665 -0.095671 0.1
       vertex 0.520665 -0.095671 0
    endloop
  endfacet
  facet normal 0.980784 -0.195096 0
    outer loop
       vertex 0.531176 -0.064705 0
       vertex 0.537556 -0.0326315 0
       vertex 0.537556 -0.0326315 0.1
    endloop
  endfacet
  facet normal 0.980784 -0.195096 0
    outer loop
       vertex 0.537556 -0.0326315 0.1
       vertex 0.531176 -0.064705 0.1
       vertex 0.531176 -0.064705 0
    endloop
  endfacet
  facet normal 0.997858 -0.0654098 0
    outer loop
       vertex 0.539695 -8.32665e-17 0.1
       vertex 0.537556 -0.0326315 0.1
       vertex 0.537556 -0.0326315 0
    endloop
  endfacet
  facet normal 0.997858 -0.0654098 -1.0893e-16
    outer loop
       vertex 0.537556 -0.0326315 0
       vertex 0.539695 8.32665e-17 0
       vertex 0.539695 -8.32665e-17 0.1
    endloop
  endfacet
  facet normal 0.997858 0.0654098 0
    outer loop
       vertex 0.539695 8.32665e-17 0
       vertex 0.537556 0.0326315 0
       vertex 0.537556 0.0326315 0.1
    endloop
  endfacet
  facet normal 0.997858 0.0654098 1.0893e-16
    outer loop
       vertex 0.537556 0.0326315 0.1
       vertex 0.539695 -8.32665e-17 0.1
       vertex 0.539695 8.32665e-17 0
    endloop
  endfacet
  facet normal 0.980784 0.195096 0
    outer loop
       vertex 0.537556 0.0326315 0
       vertex 0.531176 0.064705 0
       vertex 0.531176 0.064705 0.1
    endloop
  endfacet
  facet normal 0.980784 0.195096 0
    outer loop
       vertex 0.531176 0.064705 0.1
       vertex 0.537556 0.0326315 0.1
       vertex 0.537556 0.0326315 0
    endloop
  endfacet
  facet normal 0.946935 0.321425 0
    outer loop
       vertex 0.531176 0.064705 0
       vertex 0.520665 0.095671 0
       vertex 0.520665 0.095671 0.1
    endloop
  endfacet
  facet normal 0.946935 0.321425 0
    outer loop
       vertex 0.520665 0.095671 0.1
       vertex 0.531176 0.064705 0.1
       vertex 0.531176 0.064705 0
    endloop
  endfacet
  facet normal 0.896866 0.442302 0
    outer loop
       vertex 0.520665 0.095671 0
       vertex 0.506201 0.125 0
       vertex 0.506201 0.125 0.1
    endloop
  endfacet
  facet normal 0.896866 0.442302 0
    outer loop
       vertex 0.506201 0.125 0.1
       vertex 0.520665 0.095671 0.1
       vertex 0.520665 0.095671 0
    endloop
  endfacet
  facet normal 0.831476 0.555561 0
    outer loop
       vertex 0.506201 0.125 0
       vertex 0.488033 0.152191 0
       vertex 0.488033 0.152191 0.1
    endloop
  endfacet
  facet normal 0.831476 0.555561 0
    outer loop
       vertex 0.488033 0.152191 0.1
       vertex 0.506201 0.125 0.1
       vertex 0.506201 0.125 0
    endloop
  endfacet
  facet normal 0.751817 0.659372 0
    outer loop
       vertex 0.488033 0.152191 0
       vertex 0.466471 0.176776 0
       vertex 0.466471 0.176776 0.1
    endloop
  endfacet
  facet normal 0.751817 0.659372 0
    outer loop
       vertex 0.466471 0.176776 0.1
       vertex 0.488033 0.152191 0.1
       vertex 0.488033 0.152191 0
    endloop
  endfacet
  facet normal 0.659372 0.751817 0
    outer loop
       vertex 0.466471 0.176776 0
       vertex 0.441886 0.198338 0
       vertex 0.441886 0.198338 0.1
    endloop
  endfacet
  facet normal 0.659372 0.751817 0
    outer loop
       vertex 0.441886 0.198338 0.1
       vertex 0.466471 0.176776 0.1
       vertex 0.466471 0.176776 0
    endloop
  endfacet
  facet normal 0.555561 0.831476 0
    outer loop
       vertex 0.441886 0.198338 0
       vertex 0.414695 0.216506 0
       vertex 0.414695 0.216506 0.1
    endloop
  endfacet
  facet normal 0.555561 0.831476 0
    outer loop
       vertex 0.414695 0.216506 0.1
       vertex 0.441886 0.198338 0.1
       vertex 0.441886 0.198338 0
    endloop
  endfacet
  facet normal 0.442302 0.896866 0
    outer loop
       vertex 0.414695 0.216506 0
       vertex 0.385366 0.23097 0
       vertex 0.385366 0.23097 0.1
    endloop
  endfacet
  facet normal 0.442302 0.896866 0
    outer loop
       vertex 0.385366 0.23097 0.1
       vertex 0.414695 0.216506 0.1
       vertex 0.414695 0.216506 0
    endloop
  endfacet
  facet normal 0.321425 0.946935 0
    outer loop
       vertex 0.385366 0.23097 0
       vertex 0.3544 0.241481 0
       vertex 0.3544 0.241481 0.1
    endloop
  endfacet
  facet normal 0.321425 0.946935 0
    outer loop
       vertex 0.3544 0.241481 0.1
       vertex 0.385366 0.23097 0.1
       vertex 0.385366 0.23097 0
    endloop
  endfacet
  facet normal 0.195096 0.980784 0
    outer loop
       vertex 0.3544 0.241481 0
       vertex 0.322326 0.247861 0
       vertex 0.322326 0.247861 0.1
    endloop
  endfacet
  facet normal 0.195096 0.980784 0
    outer loop
       vertex 0.322326 0.247861 0.1
       vertex 0.3544 0.241481 0.1
       vertex 0.3544 0.241481 0
    endloop
  endfacet
  facet normal 0.0654098 0.997858 0
    outer loop
       vertex 0.289695 0.25 0.1
       vertex 0.322326 0.247861 0.1
       vertex 0.322326 0.247861 0
    endloop
  endfacet
  facet normal 0.0654098 0.997858 -7.26205e-17
    outer loop
       vertex 0.322326 0.247861 0
       vertex 0.289695 0.25 0
       vertex 0.289695 0.25 0.1
    endloop
  endfacet
  facet normal -0.0654098 0.997858 0
    outer loop
       vertex 0.289695 0.25 0
       vertex 0.257063 0.247861 0
       vertex 0.257063 0.247861 0.1
    endloop
  endfacet
  facet normal -0.0654098 0.997858 7.26205e-17
    outer loop
       vertex 0.257063 0.247861 0.1
       vertex 0.289695 0.25 0.1
       vertex 0.289695 0.25 0
    endloop
  endfacet
  facet normal -0.195096 0.980784 0
    outer loop
       vertex 0.257063 0.247861 0
       vertex 0.22499 0.241481 0
       vertex 0.22499 0.241481 0.1
    endloop
  endfacet
  facet normal -0.195096 0.980784 0
    outer loop
       vertex 0.22499 0.241481 0.1
       vertex 0.257063 0.247861 0.1
       vertex 0.257063 0.247861 0
    endloop
  endfacet
  facet normal -0.321425 0.946935 0
    outer loop
       vertex 0.22499 0.241481 0
       vertex 0.194024 0.23097 0
       vertex 0.194024 0.23097 0.1
    endloop
  endfacet
  facet normal -0.321425 0.946935 0
    outer loop
       vertex 0.194024 0.23097 0.1
       vertex 0.22499 0.241481 0.1
       vertex 0.22499 0.241481 0
    endloop
  endfacet
  facet normal -0.442302 0.896866 0
    outer loop
       vertex 0.194024 0.23097 0
       vertex 0.164695 0.216506 0
       vertex 0.164695 0.216506 0.1
    endloop
  endfacet
  facet normal -0.442302 0.896866 0
    outer loop
       vertex 0.164695 0.216506 0.1
       vertex 0.194024 0.23097 0.1
       vertex 0.194024 0.23097 0
    endloop
  endfacet
  facet normal -0.555561 0.831476 0
    outer loop
       vertex 0.164695 0.216506 0
       vertex 0.137504 0.198338 0
       vertex 0.137504 0.198338 0.1
    endloop
  endfacet
  facet normal -0.555561 0.831476 0
    outer loop
       vertex 0.137504 0.198338 0.1
       vertex 0.164695 0.216506 0.1
       vertex 0.164695 0.216506 0
    endloop
  endfacet
  facet normal -0.659372 0.751817 0
    outer loop
       vertex 0.137504 0.198338 0
       vertex 0.112919 0.176776 0
       vertex 0.112919 0.176776 0.1
    endloop
  endfacet
  facet normal -0.659372 0.751817 0
    outer loop
       vertex 0.112919 0.176776 0.1
       vertex 0.137504 0.198338 0.1
       vertex 0.137504 0.198338 0
    endloop
  endfacet
  facet normal -0.751817 0.659372 0
    outer loop
       vertex 0.112919 0.176776 0
       vertex 0.0913568 0.152191 0
       vertex 0.0913568 0.152191 0.1
    endloop
  endfacet
  facet normal -0.751817 0.659372 0
    outer loop
       vertex 0.0913568 0.152191 0.1
       vertex 0.112919 0.176776 0.1
       vertex 0.112919 0.176776 0
    endloop
  endfacet
  facet normal -0.831476 0.555561 0
    outer loop
       vertex 0.0913568 0.152191 0
       vertex 0.0731888 0.125 0
       vertex 0.0731888 0.125 0.1
    endloop
  endfacet
  facet normal -0.831476 0.555561 0
    outer loop
       vertex 0.0731888 0.125 0.1
       vertex 0.0913568 0.152191 0.1
       vertex 0.0913568 0.152191 0
    endloop
  endfacet
  facet normal -0.896866 0.442302 0
    outer loop
       vertex 0.0731888 0.125 0
       vertex 0.0587248 0.095671 0
       vertex 0.0587248 0.095671 0.1
    endloop
  endfacet
  facet normal -0.896866 0.442302 0
    outer loop
       vertex 0.0587248 0.095671 0.1
       vertex 0.0731888 0.125 0.1
       vertex 0.0731888 0.125 0
    endloop
  endfacet
  facet normal -0.946935 0.321425 0
    outer loop
       vertex 0.0587248 0.095671 0
       vertex 0.0482138 0.064705 0
       vertex 0.0482138 0.064705 0.1
    endloop
  endfacet
  facet normal -0.946935 0.321425 0
    outer loop
       vertex 0.0482138 0.064705 0.1
       vertex 0.0587248 0.095671 0.1
       vertex 0.0587248 0.095671 0
    endloop
  endfacet
  facet normal -0.980784 0.195096 0
    outer loop
       vertex 0.0482138 0.064705 0
       vertex 0.0418338 0.0326315 0
       vertex 0.0418338 0.0326315 0.1
    endloop
  endfacet
  facet normal -0.980784 0.195096 0
    outer loop
       vertex 0.0418338 0.0326315 0.1
       vertex 0.0482138 0.064705 0.1
       vertex 0.0482138 0.064705 0
    endloop
  endfacet
  facet normal -0.997858 0.0654098 0
    outer loop
       vertex 0.0396948 8.32665e-17 0.1
       vertex 0.0418338 0.0326315 0.1
       vertex 0.0418338 0.0326315 0
    endloop
  endfacet
  facet normal -0.997858 0.0654098 -1.08928e-16
    outer loop
       vertex 0.0418338 0.0326315 0
       vertex 0.0396948 -8.32665e-17 0
       vertex 0.0396948 8.32665e-17 0.1
    endloop
  endfacet
  facet normal -0.997858 -0.0654098 0
    outer loop
       vertex 0.0396948 -8.32665e-17 0
       vertex 0.0418338 -0.0326315 0
       vertex 0.0418338 -0.0326315 0.1
    endloop
  endfacet
  facet normal -0.997858 -0.0654098 1.08928e-16
    outer loop
       vertex 0.0418338 -0.0326315 0.1
       vertex 0.0396948 8.32665e-17 0.1
       vertex 0.0396948 -8.32665e-17 0
    endloop
  endfacet
  facet normal -0.980784 -0.195096 0
    outer loop
       vertex 0.0418338 -0.0326315 0
       vertex 0.0482138 -0.064705 0
       vertex 0.0482138 -0.064705 0.1
    endloop
  endfacet
  facet normal -0.980784 -0.195096 0
    outer loop
       vertex 0.0482138 -0.064705 0.1
       vertex 0.0418338 -0.0326315 0.1
       vertex 0.0418338 -0.0326315 0
    endloop
  endfacet
  facet normal -0.946935 -0.321425 0
    outer loop
       vertex 0.0482138 -0.064705 0
       vertex 0.0587248 -0.095671 0
       vertex 0.0587248 -0.095671 0.1
    endloop
  endfacet
  facet normal -0.946935 -0.321425 0
    outer loop
       vertex 0.0587248 -0.095671 0.1
       vertex 0.0482138 -0.064705 0.1
       vertex 0.0482138 -0.064705 0
    endloop
  endfacet
  facet normal -0.896866 -0.442302 0
    outer loop
       vertex 0.0587248 -0.095671 0
       vertex 0.0731888 -0.125 0
       vertex 0.0731888 -0.125 0.1
    endloop
  endfacet
  facet normal -0.896866 -0.442302 0
    outer loop
       vertex 0.0731888 -0.125 0.1
       vertex 0.0587248 -0.095671 0.1
       vertex 0.0587248 -0.095671 0
    endloop
  endfacet
  facet normal -0.831476 -0.555561 0
    outer loop
       vertex 0.0731888 -0.125 0
       vertex 0.0913568 -0.152191 0
       vertex 0.0913568 -0.152191 0.1
    endloop
  endfacet
  facet normal -0.831476 -0.555561 0
    outer loop
       vertex 0.0913568 -0.152191 0.1
       vertex 0.0731888 -0.125 0.1
       vertex 0.0731888 -0.125 0
    endloop
  endfacet
  facet normal -0.751817 -0.659372 0
    outer loop
       vertex 0.0913568 -0.152191 0
       vertex 0.112919 -0.176776 0
       vertex 0.112919 -0.176776 0.1
    endloop
  endfacet
  facet normal -0.751817 -0.659372 0
    outer loop
       vertex 0.112919 -0.176776 0.1
       vertex 0.0913568 -0.152191 0.1
       vertex 0.0913568 -0.152191 0
    endloop
  endfacet
  facet normal 0.659372 -0.751817 0
    outer loop
       vertex 0.466471 -0.176776 0
       vertex 0.466471 -0.176776 0.1
       vertex 0.441886 -0.198338 0.1
    endloop
  endfacet
  facet normal 0.659372 -0.751817 0
    outer loop
       vertex 0.441886 -0.198338 0.1
       vertex 0.441886 -0.198338 0
       vertex 0.466471 -0.176776 0
    endloop
  endfacet
  facet normal 0.555561 -0.831476 0
    outer loop
       vertex 0.441886 -0.198338 0
       vertex 0.441886 -0.198338 0.1
       vertex 0.414695 -0.216506 0.1
    endloop
  endfacet
  facet normal 0.555561 -0.831476 0
    outer loop
       vertex 0.414695 -0.216506 0.1
       vertex 0.414695 -0.216506 0
       vertex 0.441886 -0.198338 0
    endloop
  endfacet
  facet normal 0.442302 -0.896866 0
    outer loop
       vertex 0.414695 -0.216506 0
       vertex 0.414695 -0.216506 0.1
       vertex 0.385366 -0.23097 0.1
    endloop
  endfacet
  facet normal 0.442302 -0.896866 0
    outer loop
       vertex 0.385366 -0.23097 0.1
       vertex 0.385366 -0.23097 0
       vertex 0.414695 -0.216506 0
    endloop
  endfacet
  facet normal 0.321425 -0.946935 0
    outer loop
       vertex 0.385366 -0.23097 0
       vertex 0.385366 -0.23097 0.1
       vertex 0.3544 -0.241481 0.1
    endloop
  endfacet
  facet normal 0.321425 -0.946935 0
    outer loop
       vertex 0.3544 -0.241481 0.1
       vertex 0.3544 -0.241481 0
       vertex 0.385366 -0.23097 0
    endloop
  endfacet
  facet normal 0.195096 -0.980784 0
    outer loop
       vertex 0.3544 -0.241481 0
       vertex 0.3544 -0.241481 0.1
       vertex 0.322326 -0.247861 0.1
    endloop
  endfacet
  facet normal 0.195096 -0.980784 0
    outer loop
       vertex 0.322326 -0.247861 0.1
       vertex 0.322326 -0.247861 0
       vertex 0.3544 -0.241481 0
    endloop
  endfacet
  facet normal 0.0654098 -0.997858 0
    outer loop
       vertex 0.289695 -0.25 0
       vertex 0.322326 -0.247861 0
       vertex 0.322326 -0.247861 0.1
    endloop
  endfacet
  facet normal 0.0654098 -0.997858 7.26205e-17
    outer loop
       vertex 0.322326 -0.247861 0.1
       vertex 0.289695 -0.25 0.1
       vertex 0.289695 -0.25 0
    endloop
  endfacet
  facet normal -0.0654098 -0.997858 0
    outer loop
       vertex 0.289695 -0.25 0.1
       vertex 0.257063 -0.247861 0.1
       vertex 0.257063 -0.247861 0
    endloop
  endfacet
  facet normal -0.0654098 -0.997858 -7.26205e-17
    outer loop
       vertex 0.257063 -0.247861 0
       vertex 0.289695 -0.25 0
       vertex 0.289695 -0.25 0.1
    endloop
  endfacet
  facet normal -0.195096 -0.980784 0
    outer loop
       vertex 0.257063 -0.247861 0
       vertex 0.257063 -0.247861 0.1
       vertex 0.22499 -0.241481 0.1
    endloop
  endfacet
  facet normal -0.195096 -0.980784 -0
    outer loop
       vertex 0.22499 -0.241481 0.1
       vertex 0.22499 -0.241481 0
       vertex 0.257063 -0.247861 0
    endloop
  endfacet
  facet normal -0.321425 -0.946935 0
    outer loop
       vertex 0.22499 -0.241481 0
       vertex 0.22499 -0.241481 0.1
       vertex 0.194024 -0.23097 0.1
    endloop
  endfacet
  facet normal -0.321425 -0.946935 -0
    outer loop
       vertex 0.194024 -0.23097 0.1
       vertex 0.194024 -0.23097 0
       vertex 0.22499 -0.241481 0
    endloop
  endfacet
  facet normal -0.442302 -0.896866 0
    outer loop
       vertex 0.194024 -0.23097 0
       vertex 0.194024 -0.23097 0.1
       vertex 0.164695 -0.216506 0.1
    endloop
  endfacet
  facet normal -0.442302 -0.896866 -0
    outer loop
       vertex 0.164695 -0.216506 0.1
       vertex 0.164695 -0.216506 0
       vertex 0.194024 -0.23097 0
    endloop
  endfacet
  facet normal -0.555561 -0.831476 0
    outer loop
       vertex 0.164695 -0.216506 0
       vertex 0.164695 -0.216506 0.1
       vertex 0.137504 -0.198338 0.1
    endloop
  endfacet
  facet normal -0.555561 -0.831476 -0
    outer loop
       vertex 0.137504 -0.198338 0.1
       vertex 0.137504 -0.198338 0
       vertex 0.164695 -0.216506 0
    endloop
  endfacet
  facet normal -0.659372 -0.751817 0
    outer loop
       vertex 0.137504 -0.198338 0
       vertex 0.137504 -0.198338 0.1
       vertex 0.112919 -0.176776 0.1
    endloop
  endfacet
  facet normal -0.659372 -0.751817 -0
    outer loop
       vertex 0.112919 -0.176776 0.1
       vertex 0.112919 -0.176776 0
       vertex 0.137504 -0.198338 0
    endloop
  endfacet
endsolid cylinder
