solid cylinder
  facet normal 0.751817 -0.659372 0
    outer loop
       vertex 0.207839 -0.176776 0
       vertex 0.229401 -0.152191 0
       vertex 0.229401 -0.152191 0.1
    endloop
  endfacet
  facet normal 0.751817 -0.659372 0
    outer loop
       vertex 0.229401 -0.152191 0.1
       vertex 0.207839 -0.176776 0.1
       vertex 0.207839 -0.176776 0
    endloop
  endfacet
  facet normal 0.831476 -0.555561 0
    outer loop
       vertex 0.229401 -0.152191 0
       vertex 0.247569 -0.125 0
       vertex 0.247569 -0.125 0.1
    endloop
  endfacet
  facet normal 0.831476 -0.555561 0
    outer loop
       vertex 0.247569 -0.125 0.1
       vertex 0.229401 -0.152191 0.1
       vertex 0.229401 -0.152191 0
    endloop
  endfacet
  facet normal 0.896866 -0.442302 0
    outer loop
       vertex 0.247569 -0.125 0
       vertex 0.262033 -0.095671 0
       vertex 0.262033 -0.095671 0.1
    endloop
  endfacet
  facet normal 0.896866 -0.442302 0
    outer loop
       vertex 0.262033 -0.095671 0.1
       vertex 0.247569 -0.125 0.1
       vertex 0.247569 -0.125 0
    endloop
  endfacet
  facet normal 0.946935 -0.321425 0
    outer loop
       vertex 0.262033 -0.095671 0
       vertex 0.272544 -0.064705 0
       vertex 0.272544 -0.064705 0.1
    endloop
  endfacet
  facet normal 0.946935 -0.321425 0
    outer loop
       vertex 0.272544 -0.064705 0.1
       vertex 0.262033 -0.095671 0.1
       vertex 0.262033 -0.095671 0
    endloop
  endfacet
  facet normal 0.980784 -0.195096 0
    outer loop
       vertex 0.272544 -0.064705 0
       vertex 0.278924 -0.0326315 0
       vertex 0.278924 -0.0326315 0.1
    endloop
  endfacet
  facet normal 0.980784 -0.195096 0
    outer loop
       vertex 0.278924 -0.0326315 0.1
       vertex 0.272544 -0.064705 0.1
       vertex 0.272544 -0.064705 0
    endloop
  endfacet
  facet normal 0.997858 -0.0654098 0
    outer loop
       vertex 0.281063 -8.32665e-17 0.1
       vertex 0.278924 -0.0326315 0.1
       vertex 0.278924 -0.0326315 0
    endloop
  endfacet
  facet normal 0.997858 -0.0654098 -1.08928e-16
    outer loop
       vertex 0.278924 -0.0326315 0
       vertex 0.281063 8.32665e-17 0
       vertex 0.281063 -8.32665e-17 0.1
    endloop
  endfacet
  facet normal 0.997858 0.0654098 0
    outer loop
       vertex 0.281063 8.32665e-17 0
       vertex 0.278924 0.0326315 0
       vertex 0.278924 0.0326315 0.1
    endloop
  endfacet
  facet normal 0.997858 0.0654098 1.08928e-16
    outer loop
       vertex 0.278924 0.0326315 0.1
       vertex 0.281063 -8.32665e-17 0.1
       vertex 0.281063 8.32665e-17 0
    endloop
  endfacet
  facet normal 0.980784 0.195096 0
    outer loop
       vertex 0.278924 0.0326315 0
       vertex 0.272544 0.064705 0
       vertex 0.272544 0.064705 0.1
    endloop
  endfacet
  facet normal 0.980784 0.195096 0
    outer loop
       vertex 0.272544 0.064705 0.1
       vertex 0.278924 0.0326315 0.1
       vertex 0.278924 0.0326315 0
    endloop
  endfacet
  facet normal 0.946935 0.321425 0
    outer loop
       vertex 0.272544 0.064705 0
       vertex 0.262033 0.095671 0
       vertex 0.262033 0.095671 0.1
    endloop
  endfacet
  facet normal 0.946935 0.321425 0
    outer loop
       vertex 0.262033 0.095671 0.1
       vertex 0.272544 0.064705 0.1
       vertex 0.272544 0.064705 0
    endloop
  endfacet
  facet normal 0.896866 0.442302 0
    outer loop
       vertex 0.262033 0.095671 0
       vertex 0.247569 0.125 0
       vertex 0.247569 0.125 0.1
    endloop
  endfacet
  facet normal 0.896866 0.442302 0
    outer loop
       vertex 0.247569 0.125 0.1
       vertex 0.262033 0.095671 0.1
       vertex 0.262033 0.095671 0
    endloop
  endfacet
  facet normal 0.831476 0.555561 0
    outer loop
       vertex 0.247569 0.125 0
       vertex 0.229401 0.152191 0
       vertex 0.229401 0.152191 0.1
    endloop
  endfacet
  facet normal 0.831476 0.555561 0
    outer loop
       vertex 0.229401 0.152191 0.1
       vertex 0.247569 0.125 0.1
       vertex 0.247569 0.125 0
    endloop
  endfacet
  facet normal 0.751817 0.659372 0
    outer loop
       vertex 0.229401 0.152191 0
       vertex 0.207839 0.176776 0
       vertex 0.207839 0.176776 0.1
    endloop
  endfacet
  facet normal 0.751817 0.659372 0
    outer loop
       vertex 0.207839 0.176776 0.1
       vertex 0.229401 0.152191 0.1
       vertex 0.229401 0.152191 0
    endloop
  endfacet
  facet normal 0.659372 0.751817 0
    outer loop
       vertex 0.207839 0.176776 0
       vertex 0.183254 0.198338 0
       vertex 0.183254 0.198338 0.1
    endloop
  endfacet
  facet normal 0.659372 0.751817 0
    outer loop
       vertex 0.183254 0.198338 0.1
       vertex 0.207839 0.176776 0.1
       vertex 0.207839 0.176776 0
    endloop
  endfacet
  facet normal 0.555561 0.831476 0
    outer loop
       vertex 0.183254 0.198338 0
       vertex 0.156063 0.216506 0
       vertex 0.156063 0.216506 0.1
    endloop
  endfacet
  facet normal 0.555561 0.831476 0
    outer loop
       vertex 0.156063 0.216506 0.1
       vertex 0.183254 0.198338 0.1
       vertex 0.183254 0.198338 0
    endloop
  endfacet
  facet normal 0.442302 0.896866 0
    outer loop
       vertex 0.156063 0.216506 0
       vertex 0.126734 0.23097 0
       vertex 0.126734 0.23097 0.1
    endloop
  endfacet
  facet normal 0.442302 0.896866 0
    outer loop
       vertex 0.126734 0.23097 0.1
       vertex 0.156063 0.216506 0.1
       vertex 0.156063 0.216506 0
    endloop
  endfacet
  facet normal 0.321425 0.946935 0
    outer loop
       vertex 0.126734 0.23097 0
       vertex 0.0957681 0.241481 0
       vertex 0.0957681 0.241481 0.1
    endloop
  endfacet
  facet normal 0.321425 0.946935 0
    outer loop
       vertex 0.0957681 0.241481 0.1
       vertex 0.126734 0.23097 0.1
       vertex 0.126734 0.23097 0
    endloop
  endfacet
  facet normal 0.195096 0.980784 0
    outer loop
       vertex 0.0957681 0.241481 0
       vertex 0.0636946 0.247861 0
       vertex 0.0636946 0.247861 0.1
    endloop
  endfacet
  facet normal 0.195096 0.980784 0
    outer loop
       vertex 0.0636946 0.247861 0.1
       vertex 0.0957681 0.241481 0.1
       vertex 0.0957681 0.241481 0
    endloop
  endfacet
  facet normal 0.0654098 0.997858 0
    outer loop
       vertex 0.0310631 0.25 0.1
       vertex 0.0636946 0.247861 0.1
       vertex 0.0636946 0.247861 0
    endloop
  endfacet
  facet normal 0.0654098 0.997858 -1.0893e-16
    outer loop
       vertex 0.0636946 0.247861 0
       vertex 0.0310631 0.25 0
       vertex 0.0310631 0.25 0.1
    endloop
  endfacet
  facet normal -0.0654098 0.997858 0
    outer loop
       vertex 0.0310631 0.25 0
       vertex -0.0015684 0.247861 0
       vertex -0.0015684 0.247861 0.1
    endloop
  endfacet
  facet normal -0.0654098 0.997858 1.08928e-16
    outer loop
       vertex -0.0015684 0.247861 0.1
       vertex 0.0310631 0.25 0.1
       vertex 0.0310631 0.25 0
    endloop
  endfacet
  facet normal -0.195096 0.980784 0
    outer loop
       vertex -0.0015684 0.247861 0
       vertex -0.0336419 0.241481 0
       vertex -0.0336419 0.241481 0.1
    endloop
  endfacet
  facet normal -0.195096 0.980784 0
    outer loop
       vertex -0.0336419 0.241481 0.1
       vertex -0.0015684 0.247861 0.1
       vertex -0.0015684 0.247861 0
    endloop
  endfacet
  facet normal -0.321425 0.946935 0
    outer loop
       vertex -0.0336419 0.241481 0
       vertex -0.0646079 0.23097 0
       vertex -0.0646079 0.23097 0.1
    endloop
  endfacet
  facet normal -0.321425 0.946935 0
    outer loop
       vertex -0.0646079 0.23097 0.1
       vertex -0.0336419 0.241481 0.1
       vertex -0.0336419 0.241481 0
    endloop
  endfacet
  facet normal -0.442302 0.896866 0
    outer loop
       vertex -0.0646079 0.23097 0
       vertex -0.0939369 0.216506 0
       vertex -0.0939369 0.216506 0.1
    endloop
  endfacet
  facet normal -0.442302 0.896866 0
    outer loop
       vertex -0.0939369 0.216506 0.1
       vertex -0.0646079 0.23097 0.1
       vertex -0.0646079 0.23097 0
    endloop
  endfacet
  facet normal -0.555561 0.831476 0
    outer loop
       vertex -0.0939369 0.216506 0
       vertex -0.121128 0.198338 0
       vertex -0.121128 0.198338 0.1
    endloop
  endfacet
  facet normal -0.555561 0.831476 0
    outer loop
       vertex -0.121128 0.198338 0.1
       vertex -0.0939369 0.216506 0.1
       vertex -0.0939369 0.216506 0
    endloop
  endfacet
  facet normal -0.659372 0.751817 0
    outer loop
       vertex -0.121128 0.198338 0
       vertex -0.145713 0.176776 0
       vertex -0.145713 0.176776 0.1
    endloop
  endfacet
  facet normal -0.659372 0.751817 0
    outer loop
       vertex -0.145713 0.176776 0.1
       vertex -0.121128 0.198338 0.1
       vertex -0.121128 0.198338 0
    endloop
  endfacet
  facet normal -0.751817 0.659372 0
    outer loop
       vertex -0.145713 0.176776 0
       vertex -0.167275 0.152191 0
       vertex -0.167275 0.152191 0.1
    endloop
  endfacet
  facet normal -0.751817 0.659372 0
    outer loop
       vertex -0.167275 0.152191 0.1
       vertex -0.145713 0.176776 0.1
       vertex -0.145713 0.176776 0
    endloop
  endfacet
  facet normal -0.831476 0.555561 0
    outer loop
       vertex -0.167275 0.152191 0
       vertex -0.185443 0.125 0
       vertex -0.185443 0.125 0.1
    endloop
  endfacet
  facet normal -0.831476 0.555561 0
    outer loop
       vertex -0.185443 0.125 0.1
       vertex -0.167275 0.152191 0.1
       vertex -0.167275 0.152191 0
    endloop
  endfacet
  facet normal -0.896866 0.442302 0
    outer loop
       vertex -0.185443 0.125 0
       vertex -0.199907 0.095671 0
       vertex -0.199907 0.095671 0.1
    endloop
  endfacet
  facet normal -0.896866 0.442302 0
    outer loop
       vertex -0.199907 0.095671 0.1
       vertex -0.185443 0.125 0.1
       vertex -0.185443 0.125 0
    endloop
  endfacet
  facet normal -0.946935 0.321425 0
    outer loop
       vertex -0.199907 0.095671 0
       vertex -0.210418 0.064705 0
       vertex -0.210418 0.064705 0.1
    endloop
  endfacet
  facet normal -0.946935 0.321425 0
    outer loop
       vertex -0.210418 0.064705 0.1
       vertex -0.199907 0.095671 0.1
       vertex -0.199907 0.095671 0
    endloop
  endfacet
  facet normal -0.980784 0.195096 0
    outer loop
       vertex -0.210418 0.064705 0
       vertex -0.216798 0.0326315 0
       vertex -0.216798 0.0326315 0.1
    endloop
  endfacet
  facet normal -0.980784 0.195096 0
    outer loop
       vertex -0.216798 0.0326315 0.1
       vertex -0.210418 0.064705 0.1
       vertex -0.210418 0.064705 0
    endloop
  endfacet
  facet normal -0.997858 0.0654098 0
    outer loop
       vertex -0.218937 8.32665e-17 0.1
       vertex -0.216798 0.0326315 0.1
       vertex -0.216798 0.0326315 0
    endloop
  endfacet
  facet normal -0.997858 0.0654098 -1.08928e-16
    outer loop
       vertex -0.216798 0.0326315 0
       vertex -0.218937 -8.32665e-17 0
       vertex -0.218937 8.32665e-17 0.1
    endloop
  endfacet
  facet normal -0.997858 -0.0654098 0
    outer loop
       vertex -0.218937 -8.32665e-17 0
       vertex -0.216798 -0.0326315 0
       vertex -0.216798 -0.0326315 0.1
    endloop
  endfacet
  facet normal -0.997858 -0.0654098 1.08928e-16
    outer loop
       vertex -0.216798 -0.0326315 0.1
       vertex -0.218937 8.32665e-17 0.1
       vertex -0.218937 -8.32665e-17 0
    endloop
  endfacet
  facet normal -0.980784 -0.195096 0
    outer loop
       vertex -0.216798 -0.0326315 0
       vertex -0.210418 -0.064705 0
       vertex -0.210418 -0.064705 0.1
    endloop
  endfacet
  facet normal -0.980784 -0.195096 0
    outer loop
       vertex -0.210418 -0.064705 0.1
       vertex -0.216798 -0.0326315 0.1
       vertex -0.216798 -0.0326315 0
    endloop
  endfacet
  facet normal -0.946935 -0.321425 0
    outer loop
       vertex -0.210418 -0.064705 0
       vertex -0.199907 -0.095671 0
       vertex -0.199907 -0.095671 0.1
    endloop
  endfacet
  facet normal -0.946935 -0.321425 0
    outer loop
       vertex -0.199907 -0.095671 0.1
       vertex -0.210418 -0.064705 0.1
       vertex -0.210418 -0.064705 0
    endloop
  endfacet
  facet normal -0.896866 -0.442302 0
    outer loop
       vertex -0.199907 -0.095671 0
       vertex -0.185443 -0.125 0
       vertex -0.185443 -0.125 0.1
    endloop
  endfacet
  facet normal -0.896866 -0.442302 0
    outer loop
       vertex -0.185443 -0.125 0.1
       vertex -0.199907 -0.095671 0.1
       vertex -0.199907 -0.095671 0
    endloop
  endfacet
  facet normal -0.831476 -0.555561 0
    outer loop
       vertex -0.185443 -0.125 0
       vertex -0.167275 -0.152191 0
       vertex -0.167275 -0.152191 0.1
    endloop
  endfacet
  facet normal -0.831476 -0.555561 0
    outer loop
       vertex -0.167275 -0.152191 0.1
       vertex -0.185443 -0.125 0.1
       vertex -0.185443 -0.125 0
    endloop
  endfacet
  facet normal -0.751817 -0.659372 0
    outer loop
       vertex -0.167275 -0.152191 0
       vertex -0.145713 -0.176776 0
       vertex -0.145713 -0.176776 0.1
    endloop
  endfacet
  facet normal -0.751817 -0.659372 0
    outer loop
       vertex -0.145713 -0.176776 0.1
       vertex -0.167275 -0.152191 0.1
       vertex -0.167275 -0.152191 0
    endloop
  endfacet
  facet normal 0.659372 -0.751817 0
    outer loop
       vertex 0.207839 -0.176776 0
       vertex 0.207839 -0.176776 0.1
       vertex 0.183254 -0.198338 0.1
    endloop
  endfacet
  facet normal 0.659372 -0.751817 0
    outer loop
       vertex 0.183254 -0.198338 0.1
       vertex 0.183254 -0.198338 0
       vertex 0.207839 -0.176776 0
    endloop
  endfacet
  facet normal 0.555561 -0.831476 0
    outer loop
       vertex 0.183254 -0.198338 0
       vertex 0.183254 -0.198338 0.1
       vertex 0.156063 -0.216506 0.1
    endloop
  endfacet
  facet normal 0.555561 -0.831476 0
    outer loop
       vertex 0.156063 -0.216506 0.1
       vertex 0.156063 -0.216506 0
       vertex 0.183254 -0.198338 0
    endloop
  endfacet
  facet normal 0.442302 -0.896866 0
    outer loop
       vertex 0.156063 -0.216506 0
       vertex 0.156063 -0.216506 0.1
       vertex 0.126734 -0.23097 0.1
    endloop
  endfacet
  facet normal 0.442302 -0.896866 0
    outer loop
       vertex 0.126734 -0.23097 0.1
       vertex 0.126734 -0.23097 0
       vertex 0.156063 -0.216506 0
    endloop
  endfacet
  facet normal 0.321425 -0.946935 0
    outer loop
       vertex 0.126734 -0.23097 0
       vertex 0.126734 -0.23097 0.1
       vertex 0.0957681 -0.241481 0.1
    endloop
  endfacet
  facet normal 0.321425 -0.946935 0
    outer loop
       vertex 0.0957681 -0.241481 0.1
       vertex 0.0957681 -0.241481 0
       vertex 0.126734 -0.23097 0
    endloop
  endfacet
  facet normal 0.195096 -0.980784 0
    outer loop
       vertex 0.0957681 -0.241481 0
       vertex 0.0957681 -0.241481 0.1
       vertex 0.0636946 -0.247861 0.1
    endloop
  endfacet
  facet normal 0.195096 -0.980784 0
    outer loop
       vertex 0.0636946 -0.247861 0.1
       vertex 0.0636946 -0.247861 0
       vertex 0.0957681 -0.241481 0
    endloop
  endfacet
  facet normal 0.0654098 -0.997858 0
    outer loop
       vertex 0.0310631 -0.25 0
       vertex 0.0636946 -0.247861 0
       vertex 0.0636946 -0.247861 0.1
    endloop
  endfacet
  facet normal 0.0654098 -0.997858 1.0893e-16
    outer loop
       vertex 0.0636946 -0.247861 0.1
       vertex 0.0310631 -0.25 0.1
       vertex 0.0310631 -0.25 0
    endloop
  endfacet
  facet normal -0.0654098 -0.997858 0
    outer loop
       vertex 0.0310631 -0.25 0.1
       vertex -0.0015684 -0.247861 0.1
       vertex -0.0015684 -0.247861 0
    endloop
  endfacet
  facet normal -0.0654098 -0.997858 -1.08928e-16
    outer loop
       vertex -0.0015684 -0.247861 0
       vertex 0.0310631 -0.25 0
       vertex 0.0310631 -0.25 0.1
    endloop
  endfacet
  facet normal -0.195096 -0.980784 0
    outer loop
       vertex -0.0015684 -0.247861 0
       vertex -0.0015684 -0.247861 0.1
       vertex -0.0336419 -0.241481 0.1
    endloop
  endfacet
  facet normal -0.195096 -0.980784 -0
    outer loop
       vertex -0.0336419 -0.241481 0.1
       vertex -0.0336419 -0.241481 0
       vertex -0.0015684 -0.247861 0
    endloop
  endfacet
  facet normal -0.321425 -0.946935 0
    outer loop
       vertex -0.0336419 -0.241481 0
       vertex -0.0336419 -0.241481 0.1
       vertex -0.0646079 -0.23097 0.1
    endloop
  endfacet
  facet normal -0.321425 -0.946935 -0
    outer loop
       vertex -0.0646079 -0.23097 0.1
       vertex -0.0646079 -0.23097 0
       vertex -0.0336419 -0.241481 0
    endloop
  endfacet
  facet normal -0.442302 -0.896866 0
    outer loop
       vertex -0.0646079 -0.23097 0
       vertex -0.0646079 -0.23097 0.1
       vertex -0.0939369 -0.216506 0.1
    endloop
  endfacet
  facet normal -0.442302 -0.896866 -0
    outer loop
       vertex -0.0939369 -0.216506 0.1
       vertex -0.0939369 -0.216506 0
       vertex -0.0646079 -0.23097 0
    endloop
  endfacet
  facet normal -0.555561 -0.831476 0
    outer loop
       vertex -0.0939369 -0.216506 0
       vertex -0.0939369 -0.216506 0.1
       vertex -0.121128 -0.198338 0.1
    endloop
  endfacet
  facet normal -0.555561 -0.831476 -0
    outer loop
       vertex -0.121128 -0.198338 0.1
       vertex -0.121128 -0.198338 0
       vertex -0.0939369 -0.216506 0
    endloop
  endfacet
  facet normal -0.659372 -0.751817 0
    outer loop
       vertex -0.121128 -0.198338 0
       vertex -0.121128 -0.198338 0.1
       vertex -0.145713 -0.176776 0.1
    endloop
  endfacet
  facet normal -0.659372 -0.751817 -0
    outer loop
       vertex -0.145713 -0.176776 0.1
       vertex -0.145713 -0.176776 0
       vertex -0.121128 -0.198338 0
    endloop
  endfacet
endsolid cylinder
