solid cylinder
  facet normal 0.751817 -0.659372 0
    outer loop
       vertex 0.166825 -0.176776 0
       vertex 0.188387 -0.152191 0
       vertex 0.188387 -0.152191 0.1
    endloop
  endfacet
  facet normal 0.751817 -0.659372 0
    outer loop
       vertex 0.188387 -0.152191 0.1
       vertex 0.166825 -0.176776 0.1
       vertex 0.166825 -0.176776 0
    endloop
  endfacet
  facet normal 0.831476 -0.555561 0
    outer loop
       vertex 0.188387 -0.152191 0
       vertex 0.206555 -0.125 0
       vertex 0.206555 -0.125 0.1
    endloop
  endfacet
  facet normal 0.831476 -0.555561 0
    outer loop
       vertex 0.206555 -0.125 0.1
       vertex 0.188387 -0.152191 0.1
       vertex 0.188387 -0.152191 0
    endloop
  endfacet
  facet normal 0.896866 -0.442302 0
    outer loop
       vertex 0.206555 -0.125 0
       vertex 0.221019 -0.095671 0
       vertex 0.221019 -0.095671 0.1
    endloop
  endfacet
  facet normal 0.896866 -0.442302 0
    outer loop
       vertex 0.221019 -0.095671 0.1
       vertex 0.206555 -0.125 0.1
       vertex 0.206555 -0.125 0
    endloop
  endfacet
  facet normal 0.946935 -0.321425 0
    outer loop
       vertex 0.221019 -0.095671 0
       vertex 0.23153 -0.064705 0
       vertex 0.23153 -0.064705 0.1
    endloop
  endfacet
  facet normal 0.946935 -0.321425 0
    outer loop
       vertex 0.23153 -0.064705 0.1
       vertex 0.221019 -0.095671 0.1
       vertex 0.221019 -0.095671 0
    endloop
  endfacet
  facet normal 0.980784 -0.195096 0
    outer loop
       vertex 0.23153 -0.064705 0
       vertex 0.23791 -0.0326315 0
       vertex 0.23791 -0.0326315 0.1
    endloop
  endfacet
  facet normal 0.980784 -0.195096 0
    outer loop
       vertex 0.23791 -0.0326315 0.1
       vertex 0.23153 -0.064705 0.1
       vertex 0.23153 -0.064705 0
    endloop
  endfacet
  facet normal 0.997858 -0.0654098 0
    outer loop
       vertex 0.240049 -8.32665e-17 0.1
       vertex 0.23791 -0.0326315 0.1
       vertex 0.23791 -0.0326315 0
    endloop
  endfacet
  facet normal 0.997858 -0.0654098 -1.08928e-16
    outer loop
       vertex 0.23791 -0.0326315 0
       vertex 0.240049 8.32665e-17 0
       vertex 0.240049 -8.32665e-17 0.1
    endloop
  endfacet
  facet normal 0.997858 0.0654098 0
    outer loop
       vertex 0.240049 8.32665e-17 0
       vertex 0.23791 0.0326315 0
       vertex 0.23791 0.0326315 0.1
    endloop
  endfacet
  facet normal 0.997858 0.0654098 1.08928e-16
    outer loop
       vertex 0.23791 0.0326315 0.1
       vertex 0.240049 -8.32665e-17 0.1
       vertex 0.240049 8.32665e-17 0
    endloop
  endfacet
  facet normal 0.980784 0.195096 0
    outer loop
       vertex 0.23791 0.0326315 0
       vertex 0.23153 0.064705 0
       vertex 0.23153 0.064705 0.1
    endloop
  endfacet
  facet normal 0.980784 0.195096 0
    outer loop
       vertex 0.23153 0.064705 0.1
       vertex 0.23791 0.0326315 0.1
       vertex 0.23791 0.0326315 0
    endloop
  endfacet
  facet normal 0.946935 0.321425 0
    outer loop
       vertex 0.23153 0.064705 0
       vertex 0.221019 0.095671 0
       vertex 0.221019 0.095671 0.1
    endloop
  endfacet
  facet normal 0.946935 0.321425 0
    outer loop
       vertex 0.221019 0.095671 0.1
       vertex 0.23153 0.064705 0.1
       vertex 0.23153 0.064705 0
    endloop
  endfacet
  facet normal 0.896866 0.442302 0
    outer loop
       vertex 0.221019 0.095671 0
       vertex 0.206555 0.125 0
       vertex 0.206555 0.125 0.1
    endloop
  endfacet
  facet normal 0.896866 0.442302 0
    outer loop
       vertex 0.206555 0.125 0.1
       vertex 0.221019 0.095671 0.1
       vertex 0.221019 0.095671 0
    endloop
  endfacet
  facet normal 0.831476 0.555561 0
    outer loop
       vertex 0.206555 0.125 0
       vertex 0.188387 0.152191 0
       vertex 0.188387 0.152191 0.1
    endloop
  endfacet
  facet normal 0.831476 0.555561 0
    outer loop
       vertex 0.188387 0.152191 0.1
       vertex 0.206555 0.125 0.1
       vertex 0.206555 0.125 0
    endloop
  endfacet
  facet normal 0.751817 0.659372 0
    outer loop
       vertex 0.188387 0.152191 0
       vertex 0.166825 0.176776 0
       vertex 0.166825 0.176776 0.1
    endloop
  endfacet
  facet normal 0.751817 0.659372 0
    outer loop
       vertex 0.166825 0.176776 0.1
       vertex 0.188387 0.152191 0.1
       vertex 0.188387 0.152191 0
    endloop
  endfacet
  facet normal 0.659372 0.751817 0
    outer loop
       vertex 0.166825 0.176776 0
       vertex 0.14224 0.198338 0
       vertex 0.14224 0.198338 0.1
    endloop
  endfacet
  facet normal 0.659372 0.751817 0
    outer loop
       vertex 0.14224 0.198338 0.1
       vertex 0.166825 0.176776 0.1
       vertex 0.166825 0.176776 0
    endloop
  endfacet
  facet normal 0.555561 0.831476 0
    outer loop
       vertex 0.14224 0.198338 0
       vertex 0.115049 0.216506 0
       vertex 0.115049 0.216506 0.1
    endloop
  endfacet
  facet normal 0.555561 0.831476 0
    outer loop
       vertex 0.115049 0.216506 0.1
       vertex 0.14224 0.198338 0.1
       vertex 0.14224 0.198338 0
    endloop
  endfacet
  facet normal 0.442302 0.896866 0
    outer loop
       vertex 0.115049 0.216506 0
       vertex 0.0857204 0.23097 0
       vertex 0.0857204 0.23097 0.1
    endloop
  endfacet
  facet normal 0.442302 0.896866 0
    outer loop
       vertex 0.0857204 0.23097 0.1
       vertex 0.115049 0.216506 0.1
       vertex 0.115049 0.216506 0
    endloop
  endfacet
  facet normal 0.321425 0.946935 0
    outer loop
       vertex 0.0857204 0.23097 0
       vertex 0.0547544 0.241481 0
       vertex 0.0547544 0.241481 0.1
    endloop
  endfacet
  facet normal 0.321425 0.946935 0
    outer loop
       vertex 0.0547544 0.241481 0.1
       vertex 0.0857204 0.23097 0.1
       vertex 0.0857204 0.23097 0
    endloop
  endfacet
  facet normal 0.195096 0.980784 0
    outer loop
       vertex 0.0547544 0.241481 0
       vertex 0.0226809 0.247861 0
       vertex 0.0226809 0.247861 0.1
    endloop
  endfacet
  facet normal 0.195096 0.980784 0
    outer loop
       vertex 0.0226809 0.247861 0.1
       vertex 0.0547544 0.241481 0.1
       vertex 0.0547544 0.241481 0
    endloop
  endfacet
  facet normal 0.0654098 0.997858 0
    outer loop
       vertex -0.00995058 0.25 0.1
       vertex 0.0226809 0.247861 0.1
       vertex 0.0226809 0.247861 0
    endloop
  endfacet
  facet normal 0.0654098 0.997858 -1.08928e-16
    outer loop
       vertex 0.0226809 0.247861 0
       vertex -0.00995058 0.25 0
       vertex -0.00995058 0.25 0.1
    endloop
  endfacet
  facet normal -0.0654098 0.997858 0
    outer loop
       vertex -0.00995058 0.25 0
       vertex -0.0425821 0.247861 0
       vertex -0.0425821 0.247861 0.1
    endloop
  endfacet
  facet normal -0.0654098 0.997858 1.08928e-16
    outer loop
       vertex -0.0425821 0.247861 0.1
       vertex -0.00995058 0.25 0.1
       vertex -0.00995058 0.25 0
    endloop
  endfacet
  facet normal -0.195096 0.980784 0
    outer loop
       vertex -0.0425821 0.247861 0
       vertex -0.0746556 0.241481 0
       vertex -0.0746556 0.241481 0.1
    endloop
  endfacet
  facet normal -0.195096 0.980784 0
    outer loop
       vertex -0.0746556 0.241481 0.1
       vertex -0.0425821 0.247861 0.1
       vertex -0.0425821 0.247861 0
    endloop
  endfacet
  facet normal -0.321425 0.946935 0
    outer loop
       vertex -0.0746556 0.241481 0
       vertex -0.105622 0.23097 0
       vertex -0.105622 0.23097 0.1
    endloop
  endfacet
  facet normal -0.321425 0.946935 0
    outer loop
       vertex -0.105622 0.23097 0.1
       vertex -0.0746556 0.241481 0.1
       vertex -0.0746556 0.241481 0
    endloop
  endfacet
  facet normal -0.442302 0.896866 0
    outer loop
       vertex -0.105622 0.23097 0
       vertex -0.134951 0.216506 0
       vertex -0.134951 0.216506 0.1
    endloop
  endfacet
  facet normal -0.442302 0.896866 0
    outer loop
       vertex -0.134951 0.216506 0.1
       vertex -0.105622 0.23097 0.1
       vertex -0.105622 0.23097 0
    endloop
  endfacet
  facet normal -0.555561 0.831476 0
    outer loop
       vertex -0.134951 0.216506 0
       vertex -0.162142 0.198338 0
       vertex -0.162142 0.198338 0.1
    endloop
  endfacet
  facet normal -0.555561 0.831476 0
    outer loop
       vertex -0.162142 0.198338 0.1
       vertex -0.134951 0.216506 0.1
       vertex -0.134951 0.216506 0
    endloop
  endfacet
  facet normal -0.659372 0.751817 0
    outer loop
       vertex -0.162142 0.198338 0
       vertex -0.186727 0.176776 0
       vertex -0.186727 0.176776 0.1
    endloop
  endfacet
  facet normal -0.659372 0.751817 0
    outer loop
       vertex -0.186727 0.176776 0.1
       vertex -0.162142 0.198338 0.1
       vertex -0.162142 0.198338 0
    endloop
  endfacet
  facet normal -0.751817 0.659372 0
    outer loop
       vertex -0.186727 0.176776 0
       vertex -0.208289 0.152191 0
       vertex -0.208289 0.152191 0.1
    endloop
  endfacet
  facet normal -0.751817 0.659372 0
    outer loop
       vertex -0.208289 0.152191 0.1
       vertex -0.186727 0.176776 0.1
       vertex -0.186727 0.176776 0
    endloop
  endfacet
  facet normal -0.831476 0.555561 0
    outer loop
       vertex -0.208289 0.152191 0
       vertex -0.226457 0.125 0
       vertex -0.226457 0.125 0.1
    endloop
  endfacet
  facet normal -0.831476 0.555561 0
    outer loop
       vertex -0.226457 0.125 0.1
       vertex -0.208289 0.152191 0.1
       vertex -0.208289 0.152191 0
    endloop
  endfacet
  facet normal -0.896866 0.442302 0
    outer loop
       vertex -0.226457 0.125 0
       vertex -0.240921 0.095671 0
       vertex -0.240921 0.095671 0.1
    endloop
  endfacet
  facet normal -0.896866 0.442302 0
    outer loop
       vertex -0.240921 0.095671 0.1
       vertex -0.226457 0.125 0.1
       vertex -0.226457 0.125 0
    endloop
  endfacet
  facet normal -0.946935 0.321425 0
    outer loop
       vertex -0.240921 0.095671 0
       vertex -0.251432 0.064705 0
       vertex -0.251432 0.064705 0.1
    endloop
  endfacet
  facet normal -0.946935 0.321425 0
    outer loop
       vertex -0.251432 0.064705 0.1
       vertex -0.240921 0.095671 0.1
       vertex -0.240921 0.095671 0
    endloop
  endfacet
  facet normal -0.980784 0.195096 0
    outer loop
       vertex -0.251432 0.064705 0
       vertex -0.257812 0.0326315 0
       vertex -0.257812 0.0326315 0.1
    endloop
  endfacet
  facet normal -0.980784 0.195096 0
    outer loop
       vertex -0.257812 0.0326315 0.1
       vertex -0.251432 0.064705 0.1
       vertex -0.251432 0.064705 0
    endloop
  endfacet
  facet normal -0.997858 0.0654098 0
    outer loop
       vertex -0.259951 8.32665e-17 0.1
       vertex -0.257812 0.0326315 0.1
       vertex -0.257812 0.0326315 0
    endloop
  endfacet
  facet normal -0.997858 0.0654098 -1.08928e-16
    outer loop
       vertex -0.257812 0.0326315 0
       vertex -0.259951 -8.32665e-17 0
       vertex -0.259951 8.32665e-17 0.1
    endloop
  endfacet
  facet normal -0.997858 -0.0654098 0
    outer loop
       vertex -0.259951 -8.32665e-17 0
       vertex -0.257812 -0.0326315 0
       vertex -0.257812 -0.0326315 0.1
    endloop
  endfacet
  facet normal -0.997858 -0.0654098 1.08928e-16
    outer loop
       vertex -0.257812 -0.0326315 0.1
       vertex -0.259951 8.32665e-17 0.1
       vertex -0.259951 -8.32665e-17 0
    endloop
  endfacet
  facet normal -0.980784 -0.195096 0
    outer loop
       vertex -0.257812 -0.0326315 0
       vertex -0.251432 -0.064705 0
       vertex -0.251432 -0.064705 0.1
    endloop
  endfacet
  facet normal -0.980784 -0.195096 0
    outer loop
       vertex -0.251432 -0.064705 0.1
       vertex -0.257812 -0.0326315 0.1
       vertex -0.257812 -0.0326315 0
    endloop
  endfacet
  facet normal -0.946935 -0.321425 0
    outer loop
       vertex -0.251432 -0.064705 0
       vertex -0.240921 -0.095671 0
       vertex -0.240921 -0.095671 0.1
    endloop
  endfacet
  facet normal -0.946935 -0.321425 0
    outer loop
       vertex -0.240921 -0.095671 0.1
       vertex -0.251432 -0.064705 0.1
       vertex -0.251432 -0.064705 0
    endloop
  endfacet
  facet normal -0.896866 -0.442302 0
    outer loop
       vertex -0.240921 -0.095671 0
       vertex -0.226457 -0.125 0
       vertex -0.226457 -0.125 0.1
    endloop
  endfacet
  facet normal -0.896866 -0.442302 0
    outer loop
       vertex -0.226457 -0.125 0.1
       vertex -0.240921 -0.095671 0.1
       vertex -0.240921 -0.095671 0
    endloop
  endfacet
  facet normal -0.831476 -0.555561 0
    outer loop
       vertex -0.226457 -0.125 0
       vertex -0.208289 -0.152191 0
       vertex -0.208289 -0.152191 0.1
    endloop
  endfacet
  facet normal -0.831476 -0.555561 0
    outer loop
       vertex -0.208289 -0.152191 0.1
       vertex -0.226457 -0.125 0.1
       vertex -0.226457 -0.125 0
    endloop
  endfacet
  facet normal -0.751817 -0.659372 0
    outer loop
       vertex -0.208289 -0.152191 0
       vertex -0.186727 -0.176776 0
       vertex -0.186727 -0.176776 0.1
    endloop
  endfacet
  facet normal -0.751817 -0.659372 0
    outer loop
       vertex -0.186727 -0.176776 0.1
       vertex -0.208289 -0.152191 0.1
       vertex -0.208289 -0.152191 0
    endloop
  endfacet
  facet normal 0.659372 -0.751817 0
    outer loop
       vertex 0.166825 -0.176776 0
       vertex 0.166825 -0.176776 0.1
       vertex 0.14224 -0.198338 0.1
    endloop
  endfacet
  facet normal 0.659372 -0.751817 0
    outer loop
       vertex 0.14224 -0.198338 0.1
       vertex 0.14224 -0.198338 0
       vertex 0.166825 -0.176776 0
    endloop
  endfacet
  facet normal 0.555561 -0.831476 0
    outer loop
       vertex 0.14224 -0.198338 0
       vertex 0.14224 -0.198338 0.1
       vertex 0.115049 -0.216506 0.1
    endloop
  endfacet
  facet normal 0.555561 -0.831476 0
    outer loop
       vertex 0.115049 -0.216506 0.1
       vertex 0.115049 -0.216506 0
       vertex 0.14224 -0.198338 0
    endloop
  endfacet
  facet normal 0.442302 -0.896866 0
    outer loop
       vertex 0.115049 -0.216506 0
       vertex 0.115049 -0.216506 0.1
       vertex 0.0857204 -0.23097 0.1
    endloop
  endfacet
  facet normal 0.442302 -0.896866 0
    outer loop
       vertex 0.0857204 -0.23097 0.1
       vertex 0.0857204 -0.23097 0
       vertex 0.115049 -0.216506 0
    endloop
  endfacet
  facet normal 0.321425 -0.946935 0
    outer loop
       vertex 0.0857204 -0.23097 0
       vertex 0.0857204 -0.23097 0.1
       vertex 0.0547544 -0.241481 0.1
    endloop
  endfacet
  facet normal 0.321425 -0.946935 0
    outer loop
       vertex 0.0547544 -0.241481 0.1
       vertex 0.0547544 -0.241481 0
       vertex 0.0857204 -0.23097 0
    endloop
  endfacet
  facet normal 0.195096 -0.980784 0
    outer loop
       vertex 0.0547544 -0.241481 0
       vertex 0.0547544 -0.241481 0.1
       vertex 0.0226809 -0.247861 0.1
    endloop
  endfacet
  facet normal 0.195096 -0.980784 0
    outer loop
       vertex 0.0226809 -0.247861 0.1
       vertex 0.0226809 -0.247861 0
       vertex 0.0547544 -0.241481 0
    endloop
  endfacet
  facet normal 0.0654098 -0.997858 0
    outer loop
       vertex -0.00995058 -0.25 0
       vertex 0.0226809 -0.247861 0
       vertex 0.0226809 -0.247861 0.1
    endloop
  endfacet
  facet normal 0.0654098 -0.997858 1.08928e-16
    outer loop
       vertex 0.0226809 -0.247861 0.1
       vertex -0.00995058 -0.25 0.1
       vertex -0.00995058 -0.25 0
    endloop
  endfacet
  facet normal -0.0654098 -0.997858 0
    outer loop
       vertex -0.00995058 -0.25 0.1
       vertex -0.0425821 -0.247861 0.1
       vertex -0.0425821 -0.247861 0
    endloop
  endfacet
  facet normal -0.0654098 -0.997858 -1.08928e-16
    outer loop
       vertex -0.0425821 -0.247861 0
       vertex -0.00995058 -0.25 0
       vertex -0.00995058 -0.25 0.1
    endloop
  endfacet
  facet normal -0.195096 -0.980784 0
    outer loop
       vertex -0.0425821 -0.247861 0
       vertex -0.0425821 -0.247861 0.1
       vertex -0.0746556 -0.241481 0.1
    endloop
  endfacet
  facet normal -0.195096 -0.980784 -0
    outer loop
       vertex -0.0746556 -0.241481 0.1
       vertex -0.0746556 -0.241481 0
       vertex -0.0425821 -0.247861 0
    endloop
  endfacet
  facet normal -0.321425 -0.946935 0
    outer loop
       vertex -0.0746556 -0.241481 0
       vertex -0.0746556 -0.241481 0.1
       vertex -0.105622 -0.23097 0.1
    endloop
  endfacet
  facet normal -0.321425 -0.946935 -0
    outer loop
       vertex -0.105622 -0.23097 0.1
       vertex -0.105622 -0.23097 0
       vertex -0.0746556 -0.241481 0
    endloop
  endfacet
  facet normal -0.442302 -0.896866 0
    outer loop
       vertex -0.105622 -0.23097 0
       vertex -0.105622 -0.23097 0.1
       vertex -0.134951 -0.216506 0.1
    endloop
  endfacet
  facet normal -0.442302 -0.896866 -0
    outer loop
       vertex -0.134951 -0.216506 0.1
       vertex -0.134951 -0.216506 0
       vertex -0.105622 -0.23097 0
    endloop
  endfacet
  facet normal -0.555561 -0.831476 0
    outer loop
       vertex -0.134951 -0.216506 0
       vertex -0.134951 -0.216506 0.1
       vertex -0.162142 -0.198338 0.1
    endloop
  endfacet
  facet normal -0.555561 -0.831476 -0
    outer loop
       vertex -0.162142 -0.198338 0.1
       vertex -0.162142 -0.198338 0
       vertex -0.134951 -0.216506 0
    endloop
  endfacet
  facet normal -0.659372 -0.751817 0
    outer loop
       vertex -0.162142 -0.198338 0
       vertex -0.162142 -0.198338 0.1
       vertex -0.186727 -0.176776 0.1
    endloop
  endfacet
  facet normal -0.659372 -0.751817 -0
    outer loop
       vertex -0.186727 -0.176776 0.1
       vertex -0.186727 -0.176776 0
       vertex -0.162142 -0.198338 0
    endloop
  endfacet
endsolid cylinder
