solid cylinder
  facet normal 0.751817 -0.659372 0
    outer loop
       vertex 0.34947 -0.176776 0
       vertex 0.371032 -0.152191 0
       vertex 0.371032 -0.152191 0.1
    endloop
  endfacet
  facet normal 0.751817 -0.659372 0
    outer loop
       vertex 0.371032 -0.152191 0.1
       vertex 0.34947 -0.176776 0.1
       vertex 0.34947 -0.176776 0
    endloop
  endfacet
  facet normal 0.831476 -0.555561 0
    outer loop
       vertex 0.371032 -0.152191 0
       vertex 0.3892 -0.125 0
       vertex 0.3892 -0.125 0.1
    endloop
  endfacet
  facet normal 0.831476 -0.555561 0
    outer loop
       vertex 0.3892 -0.125 0.1
       vertex 0.371032 -0.152191 0.1
       vertex 0.371032 -0.152191 0
    endloop
  endfacet
  facet normal 0.896866 -0.442302 0
    outer loop
       vertex 0.3892 -0.125 0
       vertex 0.403664 -0.095671 0
       vertex 0.403664 -0.095671 0.1
    endloop
  endfacet
  facet normal 0.896866 -0.442302 0
    outer loop
       vertex 0.403664 -0.095671 0.1
       vertex 0.3892 -0.125 0.1
       vertex 0.3892 -0.125 0
    endloop
  endfacet
  facet normal 0.946935 -0.321425 0
    outer loop
       vertex 0.403664 -0.095671 0
       vertex 0.414175 -0.064705 0
       vertex 0.414175 -0.064705 0.1
    endloop
  endfacet
  facet normal 0.946935 -0.321425 0
    outer loop
       vertex 0.414175 -0.064705 0.1
       vertex 0.403664 -0.095671 0.1
       vertex 0.403664 -0.095671 0
    endloop
  endfacet
  facet normal 0.980784 -0.195096 0
    outer loop
       vertex 0.414175 -0.064705 0
       vertex 0.420555 -0.0326315 0
       vertex 0.420555 -0.0326315 0.1
    endloop
  endfacet
  facet normal 0.980784 -0.195096 0
    outer loop
       vertex 0.420555 -0.0326315 0.1
       vertex 0.414175 -0.064705 0.1
       vertex 0.414175 -0.064705 0
    endloop
  endfacet
  facet normal 0.997858 -0.0654098 0
    outer loop
       vertex 0.422694 -8.32665e-17 0.1
       vertex 0.420555 -0.0326315 0.1
       vertex 0.420555 -0.0326315 0
    endloop
  endfacet
  facet normal 0.997858 -0.0654098 -1.08928e-16
    outer loop
       vertex 0.420555 -0.0326315 0
       vertex 0.422694 8.32665e-17 0
       vertex 0.422694 -8.32665e-17 0.1
    endloop
  endfacet
  facet normal 0.997858 0.0654098 0
    outer loop
       vertex 0.422694 8.32665e-17 0
       vertex 0.420555 0.0326315 0
       vertex 0.420555 0.0326315 0.1
    endloop
  endfacet
  facet normal 0.997858 0.0654098 1.08928e-16
    outer loop
       vertex 0.420555 0.0326315 0.1
       vertex 0.422694 -8.32665e-17 0.1
       vertex 0.422694 8.32665e-17 0
    endloop
  endfacet
  facet normal 0.980784 0.195096 0
    outer loop
       vertex 0.420555 0.0326315 0
       vertex 0.414175 0.064705 0
       vertex 0.414175 0.064705 0.1
    endloop
  endfacet
  facet normal 0.980784 0.195096 0
    outer loop
       vertex 0.414175 0.064705 0.1
       vertex 0.420555 0.0326315 0.1
       vertex 0.420555 0.0326315 0
    endloop
  endfacet
  facet normal 0.946935 0.321425 0
    outer loop
       vertex 0.414175 0.064705 0
       vertex 0.403664 0.095671 0
       vertex 0.403664 0.095671 0.1
    endloop
  endfacet
  facet normal 0.946935 0.321425 0
    outer loop
       vertex 0.403664 0.095671 0.1
       vertex 0.414175 0.064705 0.1
       vertex 0.414175 0.064705 0
    endloop
  endfacet
  facet normal 0.896866 0.442302 0
    outer loop
       vertex 0.403664 0.095671 0
       vertex 0.3892 0.125 0
       vertex 0.3892 0.125 0.1
    endloop
  endfacet
  facet normal 0.896866 0.442302 0
    outer loop
       vertex 0.3892 0.125 0.1
       vertex 0.403664 0.095671 0.1
       vertex 0.403664 0.095671 0
    endloop
  endfacet
  facet normal 0.831476 0.555561 0
    outer loop
       vertex 0.3892 0.125 0
       vertex 0.371032 0.152191 0
       vertex 0.371032 0.152191 0.1
    endloop
  endfacet
  facet normal 0.831476 0.555561 0
    outer loop
       vertex 0.371032 0.152191 0.1
       vertex 0.3892 0.125 0.1
       vertex 0.3892 0.125 0
    endloop
  endfacet
  facet normal 0.751817 0.659372 0
    outer loop
       vertex 0.371032 0.152191 0
       vertex 0.34947 0.176776 0
       vertex 0.34947 0.176776 0.1
    endloop
  endfacet
  facet normal 0.751817 0.659372 0
    outer loop
       vertex 0.34947 0.176776 0.1
       vertex 0.371032 0.152191 0.1
       vertex 0.371032 0.152191 0
    endloop
  endfacet
  facet normal 0.659372 0.751817 0
    outer loop
       vertex 0.34947 0.176776 0
       vertex 0.324885 0.198338 0
       vertex 0.324885 0.198338 0.1
    endloop
  endfacet
  facet normal 0.659372 0.751817 0
    outer loop
       vertex 0.324885 0.198338 0.1
       vertex 0.34947 0.176776 0.1
       vertex 0.34947 0.176776 0
    endloop
  endfacet
  facet normal 0.555561 0.831476 0
    outer loop
       vertex 0.324885 0.198338 0
       vertex 0.297694 0.216506 0
       vertex 0.297694 0.216506 0.1
    endloop
  endfacet
  facet normal 0.555561 0.831476 0
    outer loop
       vertex 0.297694 0.216506 0.1
       vertex 0.324885 0.198338 0.1
       vertex 0.324885 0.198338 0
    endloop
  endfacet
  facet normal 0.442302 0.896866 0
    outer loop
       vertex 0.297694 0.216506 0
       vertex 0.268365 0.23097 0
       vertex 0.268365 0.23097 0.1
    endloop
  endfacet
  facet normal 0.442302 0.896866 0
    outer loop
       vertex 0.268365 0.23097 0.1
       vertex 0.297694 0.216506 0.1
       vertex 0.297694 0.216506 0
    endloop
  endfacet
  facet normal 0.321425 0.946935 0
    outer loop
       vertex 0.268365 0.23097 0
       vertex 0.237399 0.241481 0
       vertex 0.237399 0.241481 0.1
    endloop
  endfacet
  facet normal 0.321425 0.946935 0
    outer loop
       vertex 0.237399 0.241481 0.1
       vertex 0.268365 0.23097 0.1
       vertex 0.268365 0.23097 0
    endloop
  endfacet
  facet normal 0.195096 0.980784 0
    outer loop
       vertex 0.237399 0.241481 0
       vertex 0.205326 0.247861 0
       vertex 0.205326 0.247861 0.1
    endloop
  endfacet
  facet normal 0.195096 0.980784 0
    outer loop
       vertex 0.205326 0.247861 0.1
       vertex 0.237399 0.241481 0.1
       vertex 0.237399 0.241481 0
    endloop
  endfacet
  facet normal 0.0654098 0.997858 0
    outer loop
       vertex 0.172694 0.25 0.1
       vertex 0.205326 0.247861 0.1
       vertex 0.205326 0.247861 0
    endloop
  endfacet
  facet normal 0.0654098 0.997858 -1.0893e-16
    outer loop
       vertex 0.205326 0.247861 0
       vertex 0.172694 0.25 0
       vertex 0.172694 0.25 0.1
    endloop
  endfacet
  facet normal -0.0654098 0.997858 0
    outer loop
       vertex 0.172694 0.25 0
       vertex 0.140063 0.247861 0
       vertex 0.140063 0.247861 0.1
    endloop
  endfacet
  facet normal -0.0654098 0.997858 1.0893e-16
    outer loop
       vertex 0.140063 0.247861 0.1
       vertex 0.172694 0.25 0.1
       vertex 0.172694 0.25 0
    endloop
  endfacet
  facet normal -0.195096 0.980784 0
    outer loop
       vertex 0.140063 0.247861 0
       vertex 0.107989 0.241481 0
       vertex 0.107989 0.241481 0.1
    endloop
  endfacet
  facet normal -0.195096 0.980784 0
    outer loop
       vertex 0.107989 0.241481 0.1
       vertex 0.140063 0.247861 0.1
       vertex 0.140063 0.247861 0
    endloop
  endfacet
  facet normal -0.321425 0.946935 0
    outer loop
       vertex 0.107989 0.241481 0
       vertex 0.0770234 0.23097 0
       vertex 0.0770234 0.23097 0.1
    endloop
  endfacet
  facet normal -0.321425 0.946935 0
    outer loop
       vertex 0.0770234 0.23097 0.1
       vertex 0.107989 0.241481 0.1
       vertex 0.107989 0.241481 0
    endloop
  endfacet
  facet normal -0.442302 0.896866 0
    outer loop
       vertex 0.0770234 0.23097 0
       vertex 0.0476944 0.216506 0
       vertex 0.0476944 0.216506 0.1
    endloop
  endfacet
  facet normal -0.442302 0.896866 0
    outer loop
       vertex 0.0476944 0.216506 0.1
       vertex 0.0770234 0.23097 0.1
       vertex 0.0770234 0.23097 0
    endloop
  endfacet
  facet normal -0.555561 0.831476 0
    outer loop
       vertex 0.0476944 0.216506 0
       vertex 0.0205034 0.198338 0
       vertex 0.0205034 0.198338 0.1
    endloop
  endfacet
  facet normal -0.555561 0.831476 0
    outer loop
       vertex 0.0205034 0.198338 0.1
       vertex 0.0476944 0.216506 0.1
       vertex 0.0476944 0.216506 0
    endloop
  endfacet
  facet normal -0.659372 0.751817 0
    outer loop
       vertex 0.0205034 0.198338 0
       vertex -0.0040816 0.176776 0
       vertex -0.0040816 0.176776 0.1
    endloop
  endfacet
  facet normal -0.659372 0.751817 0
    outer loop
       vertex -0.0040816 0.176776 0.1
       vertex 0.0205034 0.198338 0.1
       vertex 0.0205034 0.198338 0
    endloop
  endfacet
  facet normal -0.751817 0.659372 0
    outer loop
       vertex -0.0040816 0.176776 0
       vertex -0.0256436 0.152191 0
       vertex -0.0256436 0.152191 0.1
    endloop
  endfacet
  facet normal -0.751817 0.659372 0
    outer loop
       vertex -0.0256436 0.152191 0.1
       vertex -0.0040816 0.176776 0.1
       vertex -0.0040816 0.176776 0
    endloop
  endfacet
  facet normal -0.831476 0.555561 0
    outer loop
       vertex -0.0256436 0.152191 0
       vertex -0.0438116 0.125 0
       vertex -0.0438116 0.125 0.1
    endloop
  endfacet
  facet normal -0.831476 0.555561 0
    outer loop
       vertex -0.0438116 0.125 0.1
       vertex -0.0256436 0.152191 0.1
       vertex -0.0256436 0.152191 0
    endloop
  endfacet
  facet normal -0.896866 0.442302 0
    outer loop
       vertex -0.0438116 0.125 0
       vertex -0.0582756 0.095671 0
       vertex -0.0582756 0.095671 0.1
    endloop
  endfacet
  facet normal -0.896866 0.442302 0
    outer loop
       vertex -0.0582756 0.095671 0.1
       vertex -0.0438116 0.125 0.1
       vertex -0.0438116 0.125 0
    endloop
  endfacet
  facet normal -0.946935 0.321425 0
    outer loop
       vertex -0.0582756 0.095671 0
       vertex -0.0687866 0.064705 0
       vertex -0.0687866 0.064705 0.1
    endloop
  endfacet
  facet normal -0.946935 0.321425 0
    outer loop
       vertex -0.0687866 0.064705 0.1
       vertex -0.0582756 0.095671 0.1
       vertex -0.0582756 0.095671 0
    endloop
  endfacet
  facet normal -0.980784 0.195096 0
    outer loop
       vertex -0.0687866 0.064705 0
       vertex -0.0751666 0.0326315 0
       vertex -0.0751666 0.0326315 0.1
    endloop
  endfacet
  facet normal -0.980784 0.195096 0
    outer loop
       vertex -0.0751666 0.0326315 0.1
       vertex -0.0687866 0.064705 0.1
       vertex -0.0687866 0.064705 0
    endloop
  endfacet
  facet normal -0.997858 0.0654098 0
    outer loop
       vertex -0.0773056 8.32665e-17 0.1
       vertex -0.0751666 0.0326315 0.1
       vertex -0.0751666 0.0326315 0
    endloop
  endfacet
  facet normal -0.997858 0.0654098 -1.08928e-16
    outer loop
       vertex -0.0751666 0.0326315 0
       vertex -0.0773056 -8.32665e-17 0
       vertex -0.0773056 8.32665e-17 0.1
    endloop
  endfacet
  facet normal -0.997858 -0.0654098 0
    outer loop
       vertex -0.0773056 -8.32665e-17 0
       vertex -0.0751666 -0.0326315 0
       vertex -0.0751666 -0.0326315 0.1
    endloop
  endfacet
  facet normal -0.997858 -0.0654098 1.08928e-16
    outer loop
       vertex -0.0751666 -0.0326315 0.1
       vertex -0.0773056 8.32665e-17 0.1
       vertex -0.0773056 -8.32665e-17 0
    endloop
  endfacet
  facet normal -0.980784 -0.195096 0
    outer loop
       vertex -0.0751666 -0.0326315 0
       vertex -0.0687866 -0.064705 0
       vertex -0.0687866 -0.064705 0.1
    endloop
  endfacet
  facet normal -0.980784 -0.195096 0
    outer loop
       vertex -0.0687866 -0.064705 0.1
       vertex -0.0751666 -0.0326315 0.1
       vertex -0.0751666 -0.0326315 0
    endloop
  endfacet
  facet normal -0.946935 -0.321425 0
    outer loop
       vertex -0.0687866 -0.064705 0
       vertex -0.0582756 -0.095671 0
       vertex -0.0582756 -0.095671 0.1
    endloop
  endfacet
  facet normal -0.946935 -0.321425 0
    outer loop
       vertex -0.0582756 -0.095671 0.1
       vertex -0.0687866 -0.064705 0.1
       vertex -0.0687866 -0.064705 0
    endloop
  endfacet
  facet normal -0.896866 -0.442302 0
    outer loop
       vertex -0.0582756 -0.095671 0
       vertex -0.0438116 -0.125 0
       vertex -0.0438116 -0.125 0.1
    endloop
  endfacet
  facet normal -0.896866 -0.442302 0
    outer loop
       vertex -0.0438116 -0.125 0.1
       vertex -0.0582756 -0.095671 0.1
       vertex -0.0582756 -0.095671 0
    endloop
  endfacet
  facet normal -0.831476 -0.555561 0
    outer loop
       vertex -0.0438116 -0.125 0
       vertex -0.0256436 -0.152191 0
       vertex -0.0256436 -0.152191 0.1
    endloop
  endfacet
  facet normal -0.831476 -0.555561 0
    outer loop
       vertex -0.0256436 -0.152191 0.1
       vertex -0.0438116 -0.125 0.1
       vertex -0.0438116 -0.125 0
    endloop
  endfacet
  facet normal -0.751817 -0.659372 0
    outer loop
       vertex -0.0256436 -0.152191 0
       vertex -0.0040816 -0.176776 0
       vertex -0.0040816 -0.176776 0.1
    endloop
  endfacet
  facet normal -0.751817 -0.659372 0
    outer loop
       vertex -0.0040816 -0.176776 0.1
       vertex -0.0256436 -0.152191 0.1
       vertex -0.0256436 -0.152191 0
    endloop
  endfacet
  facet normal 0.659372 -0.751817 0
    outer loop
       vertex 0.34947 -0.176776 0
       vertex 0.34947 -0.176776 0.1
       vertex 0.324885 -0.198338 0.1
    endloop
  endfacet
  facet normal 0.659372 -0.751817 0
    outer loop
       vertex 0.324885 -0.198338 0.1
       vertex 0.324885 -0.198338 0
       vertex 0.34947 -0.176776 0
    endloop
  endfacet
  facet normal 0.555561 -0.831476 0
    outer loop
       vertex 0.324885 -0.198338 0
       vertex 0.324885 -0.198338 0.1
       vertex 0.297694 -0.216506 0.1
    endloop
  endfacet
  facet normal 0.555561 -0.831476 0
    outer loop
       vertex 0.297694 -0.216506 0.1
       vertex 0.297694 -0.216506 0
       vertex 0.324885 -0.198338 0
    endloop
  endfacet
  facet normal 0.442302 -0.896866 0
    outer loop
       vertex 0.297694 -0.216506 0
       vertex 0.297694 -0.216506 0.1
       vertex 0.268365 -0.23097 0.1
    endloop
  endfacet
  facet normal 0.442302 -0.896866 0
    outer loop
       vertex 0.268365 -0.23097 0.1
       vertex 0.268365 -0.23097 0
       vertex 0.297694 -0.216506 0
    endloop
  endfacet
  facet normal 0.321425 -0.946935 0
    outer loop
       vertex 0.268365 -0.23097 0
       vertex 0.268365 -0.23097 0.1
       vertex 0.237399 -0.241481 0.1
    endloop
  endfacet
  facet normal 0.321425 -0.946935 0
    outer loop
       vertex 0.237399 -0.241481 0.1
       vertex 0.237399 -0.241481 0
       vertex 0.268365 -0.23097 0
    endloop
  endfacet
  facet normal 0.195096 -0.980784 0
    outer loop
       vertex 0.237399 -0.241481 0
       vertex 0.237399 -0.241481 0.1
       vertex 0.205326 -0.247861 0.1
    endloop
  endfacet
  facet normal 0.195096 -0.980784 0
    outer loop
       vertex 0.205326 -0.247861 0.1
       vertex 0.205326 -0.247861 0
       vertex 0.237399 -0.241481 0
    endloop
  endfacet
  facet normal 0.0654098 -0.997858 0
    outer loop
       vertex 0.172694 -0.25 0
       vertex 0.205326 -0.247861 0
       vertex 0.205326 -0.247861 0.1
    endloop
  endfacet
  facet normal 0.0654098 -0.997858 1.0893e-16
    outer loop
       vertex 0.205326 -0.247861 0.1
       vertex 0.172694 -0.25 0.1
       vertex 0.172694 -0.25 0
    endloop
  endfacet
  facet normal -0.0654098 -0.997858 0
    outer loop
       vertex 0.172694 -0.25 0.1
       vertex 0.140063 -0.247861 0.1
       vertex 0.140063 -0.247861 0
    endloop
  endfacet
  facet normal -0.0654098 -0.997858 -1.0893e-16
    outer loop
       vertex 0.140063 -0.247861 0
       vertex 0.172694 -0.25 0
       vertex 0.172694 -0.25 0.1
    endloop
  endfacet
  facet normal -0.195096 -0.980784 0
    outer loop
       vertex 0.140063 -0.247861 0
       vertex 0.140063 -0.247861 0.1
       vertex 0.107989 -0.241481 0.1
    endloop
  endfacet
  facet normal -0.195096 -0.980784 -0
    outer loop
       vertex 0.107989 -0.241481 0.1
       vertex 0.107989 -0.241481 0
       vertex 0.140063 -0.247861 0
    endloop
  endfacet
  facet normal -0.321425 -0.946935 0
    outer loop
       vertex 0.107989 -0.241481 0
       vertex 0.107989 -0.241481 0.1
       vertex 0.0770234 -0.23097 0.1
    endloop
  endfacet
  facet normal -0.321425 -0.946935 -0
    outer loop
       vertex 0.0770234 -0.23097 0.1
       vertex 0.0770234 -0.23097 0
       vertex 0.107989 -0.241481 0
    endloop
  endfacet
  facet normal -0.442302 -0.896866 0
    outer loop
       vertex 0.0770234 -0.23097 0
       vertex 0.0770234 -0.23097 0.1
       vertex 0.0476944 -0.216506 0.1
    endloop
  endfacet
  facet normal -0.442302 -0.896866 -0
    outer loop
       vertex 0.0476944 -0.216506 0.1
       vertex 0.0476944 -0.216506 0
       vertex 0.0770234 -0.23097 0
    endloop
  endfacet
  facet normal -0.555561 -0.831476 0
    outer loop
       vertex 0.0476944 -0.216506 0
       vertex 0.0476944 -0.216506 0.1
       vertex 0.0205034 -0.198338 0.1
    endloop
  endfacet
  facet normal -0.555561 -0.831476 -0
    outer loop
       vertex 0.0205034 -0.198338 0.1
       vertex 0.0205034 -0.198338 0
       vertex 0.0476944 -0.216506 0
    endloop
  endfacet
  facet normal -0.659372 -0.751817 0
    outer loop
       vertex 0.0205034 -0.198338 0
       vertex 0.0205034 -0.198338 0.1
       vertex -0.0040816 -0.176776 0.1
    endloop
  endfacet
  facet normal -0.659372 -0.751817 -0
    outer loop
       vertex -0.0040816 -0.176776 0.1
       vertex -0.0040816 -0.176776 0
       vertex 0.0205034 -0.198338 0
    endloop
  endfacet
endsolid cylinder
