solid cylinder
  facet normal 0.751817 -0.659372 0
    outer loop
       vertex 0.213777 -0.176776 0
       vertex 0.235339 -0.152191 0
       vertex 0.235339 -0.152191 0.1
    endloop
  endfacet
  facet normal 0.751817 -0.659372 0
    outer loop
       vertex 0.235339 -0.152191 0.1
       vertex 0.213777 -0.176776 0.1
       vertex 0.213777 -0.176776 0
    endloop
  endfacet
  facet normal 0.831476 -0.555561 0
    outer loop
       vertex 0.235339 -0.152191 0
       vertex 0.253507 -0.125 0
       vertex 0.253507 -0.125 0.1
    endloop
  endfacet
  facet normal 0.831476 -0.555561 0
    outer loop
       vertex 0.253507 -0.125 0.1
       vertex 0.235339 -0.152191 0.1
       vertex 0.235339 -0.152191 0
    endloop
  endfacet
  facet normal 0.896866 -0.442302 0
    outer loop
       vertex 0.253507 -0.125 0
       vertex 0.267971 -0.095671 0
       vertex 0.267971 -0.095671 0.1
    endloop
  endfacet
  facet normal 0.896866 -0.442302 0
    outer loop
       vertex 0.267971 -0.095671 0.1
       vertex 0.253507 -0.125 0.1
       vertex 0.253507 -0.125 0
    endloop
  endfacet
  facet normal 0.946935 -0.321425 0
    outer loop
       vertex 0.267971 -0.095671 0
       vertex 0.278482 -0.064705 0
       vertex 0.278482 -0.064705 0.1
    endloop
  endfacet
  facet normal 0.946935 -0.321425 0
    outer loop
       vertex 0.278482 -0.064705 0.1
       vertex 0.267971 -0.095671 0.1
       vertex 0.267971 -0.095671 0
    endloop
  endfacet
  facet normal 0.980784 -0.195096 0
    outer loop
       vertex 0.278482 -0.064705 0
       vertex 0.284862 -0.0326315 0
       vertex 0.284862 -0.0326315 0.1
    endloop
  endfacet
  facet normal 0.980784 -0.195096 0
    outer loop
       vertex 0.284862 -0.0326315 0.1
       vertex 0.278482 -0.064705 0.1
       vertex 0.278482 -0.064705 0
    endloop
  endfacet
  facet normal 0.997858 -0.0654098 0
    outer loop
       vertex 0.287001 -8.32665e-17 0.1
       vertex 0.284862 -0.0326315 0.1
       vertex 0.284862 -0.0326315 0
    endloop
  endfacet
  facet normal 0.997858 -0.0654098 -1.08928e-16
    outer loop
       vertex 0.284862 -0.0326315 0
       vertex 0.287001 8.32665e-17 0
       vertex 0.287001 -8.32665e-17 0.1
    endloop
  endfacet
  facet normal 0.997858 0.0654098 0
    outer loop
       vertex 0.287001 8.32665e-17 0
       vertex 0.284862 0.0326315 0
       vertex 0.284862 0.0326315 0.1
    endloop
  endfacet
  facet normal 0.997858 0.0654098 1.08928e-16
    outer loop
       vertex 0.284862 0.0326315 0.1
       vertex 0.287001 -8.32665e-17 0.1
       vertex 0.287001 8.32665e-17 0
    endloop
  endfacet
  facet normal 0.980784 0.195096 0
    outer loop
       vertex 0.284862 0.0326315 0
       vertex 0.278482 0.064705 0
       vertex 0.278482 0.064705 0.1
    endloop
  endfacet
  facet normal 0.980784 0.195096 0
    outer loop
       vertex 0.278482 0.064705 0.1
       vertex 0.284862 0.0326315 0.1
       vertex 0.284862 0.0326315 0
    endloop
  endfacet
  facet normal 0.946935 0.321425 0
    outer loop
       vertex 0.278482 0.064705 0
       vertex 0.267971 0.095671 0
       vertex 0.267971 0.095671 0.1
    endloop
  endfacet
  facet normal 0.946935 0.321425 0
    outer loop
       vertex 0.267971 0.095671 0.1
       vertex 0.278482 0.064705 0.1
       vertex 0.278482 0.064705 0
    endloop
  endfacet
  facet normal 0.896866 0.442302 0
    outer loop
       vertex 0.267971 0.095671 0
       vertex 0.253507 0.125 0
       vertex 0.253507 0.125 0.1
    endloop
  endfacet
  facet normal 0.896866 0.442302 0
    outer loop
       vertex 0.253507 0.125 0.1
       vertex 0.267971 0.095671 0.1
       vertex 0.267971 0.095671 0
    endloop
  endfacet
  facet normal 0.831476 0.555561 0
    outer loop
       vertex 0.253507 0.125 0
       vertex 0.235339 0.152191 0
       vertex 0.235339 0.152191 0.1
    endloop
  endfacet
  facet normal 0.831476 0.555561 0
    outer loop
       vertex 0.235339 0.152191 0.1
       vertex 0.253507 0.125 0.1
       vertex 0.253507 0.125 0
    endloop
  endfacet
  facet normal 0.751817 0.659372 0
    outer loop
       vertex 0.235339 0.152191 0
       vertex 0.213777 0.176776 0
       vertex 0.213777 0.176776 0.1
    endloop
  endfacet
  facet normal 0.751817 0.659372 0
    outer loop
       vertex 0.213777 0.176776 0.1
       vertex 0.235339 0.152191 0.1
       vertex 0.235339 0.152191 0
    endloop
  endfacet
  facet normal 0.659372 0.751817 0
    outer loop
       vertex 0.213777 0.176776 0
       vertex 0.189192 0.198338 0
       vertex 0.189192 0.198338 0.1
    endloop
  endfacet
  facet normal 0.659372 0.751817 0
    outer loop
       vertex 0.189192 0.198338 0.1
       vertex 0.213777 0.176776 0.1
       vertex 0.213777 0.176776 0
    endloop
  endfacet
  facet normal 0.555561 0.831476 0
    outer loop
       vertex 0.189192 0.198338 0
       vertex 0.162001 0.216506 0
       vertex 0.162001 0.216506 0.1
    endloop
  endfacet
  facet normal 0.555561 0.831476 0
    outer loop
       vertex 0.162001 0.216506 0.1
       vertex 0.189192 0.198338 0.1
       vertex 0.189192 0.198338 0
    endloop
  endfacet
  facet normal 0.442302 0.896866 0
    outer loop
       vertex 0.162001 0.216506 0
       vertex 0.132672 0.23097 0
       vertex 0.132672 0.23097 0.1
    endloop
  endfacet
  facet normal 0.442302 0.896866 0
    outer loop
       vertex 0.132672 0.23097 0.1
       vertex 0.162001 0.216506 0.1
       vertex 0.162001 0.216506 0
    endloop
  endfacet
  facet normal 0.321425 0.946935 0
    outer loop
       vertex 0.132672 0.23097 0
       vertex 0.101706 0.241481 0
       vertex 0.101706 0.241481 0.1
    endloop
  endfacet
  facet normal 0.321425 0.946935 0
    outer loop
       vertex 0.101706 0.241481 0.1
       vertex 0.132672 0.23097 0.1
       vertex 0.132672 0.23097 0
    endloop
  endfacet
  facet normal 0.195096 0.980784 0
    outer loop
       vertex 0.101706 0.241481 0
       vertex 0.0696324 0.247861 0
       vertex 0.0696324 0.247861 0.1
    endloop
  endfacet
  facet normal 0.195096 0.980784 0
    outer loop
       vertex 0.0696324 0.247861 0.1
       vertex 0.101706 0.241481 0.1
       vertex 0.101706 0.241481 0
    endloop
  endfacet
  facet normal 0.0654098 0.997858 0
    outer loop
       vertex 0.0370009 0.25 0.1
       vertex 0.0696324 0.247861 0.1
       vertex 0.0696324 0.247861 0
    endloop
  endfacet
  facet normal 0.0654098 0.997858 -1.08928e-16
    outer loop
       vertex 0.0696324 0.247861 0
       vertex 0.0370009 0.25 0
       vertex 0.0370009 0.25 0.1
    endloop
  endfacet
  facet normal -0.0654098 0.997858 0
    outer loop
       vertex 0.0370009 0.25 0
       vertex 0.00436935 0.247861 0
       vertex 0.00436935 0.247861 0.1
    endloop
  endfacet
  facet normal -0.0654098 0.997858 1.08928e-16
    outer loop
       vertex 0.00436935 0.247861 0.1
       vertex 0.0370009 0.25 0.1
       vertex 0.0370009 0.25 0
    endloop
  endfacet
  facet normal -0.195096 0.980784 0
    outer loop
       vertex 0.00436935 0.247861 0
       vertex -0.0277041 0.241481 0
       vertex -0.0277041 0.241481 0.1
    endloop
  endfacet
  facet normal -0.195096 0.980784 0
    outer loop
       vertex -0.0277041 0.241481 0.1
       vertex 0.00436935 0.247861 0.1
       vertex 0.00436935 0.247861 0
    endloop
  endfacet
  facet normal -0.321425 0.946935 0
    outer loop
       vertex -0.0277041 0.241481 0
       vertex -0.0586701 0.23097 0
       vertex -0.0586701 0.23097 0.1
    endloop
  endfacet
  facet normal -0.321425 0.946935 0
    outer loop
       vertex -0.0586701 0.23097 0.1
       vertex -0.0277041 0.241481 0.1
       vertex -0.0277041 0.241481 0
    endloop
  endfacet
  facet normal -0.442302 0.896866 0
    outer loop
       vertex -0.0586701 0.23097 0
       vertex -0.0879991 0.216506 0
       vertex -0.0879991 0.216506 0.1
    endloop
  endfacet
  facet normal -0.442302 0.896866 0
    outer loop
       vertex -0.0879991 0.216506 0.1
       vertex -0.0586701 0.23097 0.1
       vertex -0.0586701 0.23097 0
    endloop
  endfacet
  facet normal -0.555561 0.831476 0
    outer loop
       vertex -0.0879991 0.216506 0
       vertex -0.11519 0.198338 0
       vertex -0.11519 0.198338 0.1
    endloop
  endfacet
  facet normal -0.555561 0.831476 0
    outer loop
       vertex -0.11519 0.198338 0.1
       vertex -0.0879991 0.216506 0.1
       vertex -0.0879991 0.216506 0
    endloop
  endfacet
  facet normal -0.659372 0.751817 0
    outer loop
       vertex -0.11519 0.198338 0
       vertex -0.139775 0.176776 0
       vertex -0.139775 0.176776 0.1
    endloop
  endfacet
  facet normal -0.659372 0.751817 0
    outer loop
       vertex -0.139775 0.176776 0.1
       vertex -0.11519 0.198338 0.1
       vertex -0.11519 0.198338 0
    endloop
  endfacet
  facet normal -0.751817 0.659372 0
    outer loop
       vertex -0.139775 0.176776 0
       vertex -0.161337 0.152191 0
       vertex -0.161337 0.152191 0.1
    endloop
  endfacet
  facet normal -0.751817 0.659372 0
    outer loop
       vertex -0.161337 0.152191 0.1
       vertex -0.139775 0.176776 0.1
       vertex -0.139775 0.176776 0
    endloop
  endfacet
  facet normal -0.831476 0.555561 0
    outer loop
       vertex -0.161337 0.152191 0
       vertex -0.179505 0.125 0
       vertex -0.179505 0.125 0.1
    endloop
  endfacet
  facet normal -0.831476 0.555561 0
    outer loop
       vertex -0.179505 0.125 0.1
       vertex -0.161337 0.152191 0.1
       vertex -0.161337 0.152191 0
    endloop
  endfacet
  facet normal -0.896866 0.442302 0
    outer loop
       vertex -0.179505 0.125 0
       vertex -0.193969 0.095671 0
       vertex -0.193969 0.095671 0.1
    endloop
  endfacet
  facet normal -0.896866 0.442302 0
    outer loop
       vertex -0.193969 0.095671 0.1
       vertex -0.179505 0.125 0.1
       vertex -0.179505 0.125 0
    endloop
  endfacet
  facet normal -0.946935 0.321425 0
    outer loop
       vertex -0.193969 0.095671 0
       vertex -0.20448 0.064705 0
       vertex -0.20448 0.064705 0.1
    endloop
  endfacet
  facet normal -0.946935 0.321425 0
    outer loop
       vertex -0.20448 0.064705 0.1
       vertex -0.193969 0.095671 0.1
       vertex -0.193969 0.095671 0
    endloop
  endfacet
  facet normal -0.980784 0.195096 0
    outer loop
       vertex -0.20448 0.064705 0
       vertex -0.21086 0.0326315 0
       vertex -0.21086 0.0326315 0.1
    endloop
  endfacet
  facet normal -0.980784 0.195096 0
    outer loop
       vertex -0.21086 0.0326315 0.1
       vertex -0.20448 0.064705 0.1
       vertex -0.20448 0.064705 0
    endloop
  endfacet
  facet normal -0.997858 0.0654098 0
    outer loop
       vertex -0.212999 8.32665e-17 0.1
       vertex -0.21086 0.0326315 0.1
       vertex -0.21086 0.0326315 0
    endloop
  endfacet
  facet normal -0.997858 0.0654098 -1.08928e-16
    outer loop
       vertex -0.21086 0.0326315 0
       vertex -0.212999 -8.32665e-17 0
       vertex -0.212999 8.32665e-17 0.1
    endloop
  endfacet
  facet normal -0.997858 -0.0654098 0
    outer loop
       vertex -0.212999 -8.32665e-17 0
       vertex -0.21086 -0.0326315 0
       vertex -0.21086 -0.0326315 0.1
    endloop
  endfacet
  facet normal -0.997858 -0.0654098 1.08928e-16
    outer loop
       vertex -0.21086 -0.0326315 0.1
       vertex -0.212999 8.32665e-17 0.1
       vertex -0.212999 -8.32665e-17 0
    endloop
  endfacet
  facet normal -0.980784 -0.195096 0
    outer loop
       vertex -0.21086 -0.0326315 0
       vertex -0.20448 -0.064705 0
       vertex -0.20448 -0.064705 0.1
    endloop
  endfacet
  facet normal -0.980784 -0.195096 0
    outer loop
       vertex -0.20448 -0.064705 0.1
       vertex -0.21086 -0.0326315 0.1
       vertex -0.21086 -0.0326315 0
    endloop
  endfacet
  facet normal -0.946935 -0.321425 0
    outer loop
       vertex -0.20448 -0.064705 0
       vertex -0.193969 -0.095671 0
       vertex -0.193969 -0.095671 0.1
    endloop
  endfacet
  facet normal -0.946935 -0.321425 0
    outer loop
       vertex -0.193969 -0.095671 0.1
       vertex -0.20448 -0.064705 0.1
       vertex -0.20448 -0.064705 0
    endloop
  endfacet
  facet normal -0.896866 -0.442302 0
    outer loop
       vertex -0.193969 -0.095671 0
       vertex -0.179505 -0.125 0
       vertex -0.179505 -0.125 0.1
    endloop
  endfacet
  facet normal -0.896866 -0.442302 0
    outer loop
       vertex -0.179505 -0.125 0.1
       vertex -0.193969 -0.095671 0.1
       vertex -0.193969 -0.095671 0
    endloop
  endfacet
  facet normal -0.831476 -0.555561 0
    outer loop
       vertex -0.179505 -0.125 0
       vertex -0.161337 -0.152191 0
       vertex -0.161337 -0.152191 0.1
    endloop
  endfacet
  facet normal -0.831476 -0.555561 0
    outer loop
       vertex -0.161337 -0.152191 0.1
       vertex -0.179505 -0.125 0.1
       vertex -0.179505 -0.125 0
    endloop
  endfacet
  facet normal -0.751817 -0.659372 0
    outer loop
       vertex -0.161337 -0.152191 0
       vertex -0.139775 -0.176776 0
       vertex -0.139775 -0.176776 0.1
    endloop
  endfacet
  facet normal -0.751817 -0.659372 0
    outer loop
       vertex -0.139775 -0.176776 0.1
       vertex -0.161337 -0.152191 0.1
       vertex -0.161337 -0.152191 0
    endloop
  endfacet
  facet normal 0.659372 -0.751817 0
    outer loop
       vertex 0.213777 -0.176776 0
       vertex 0.213777 -0.176776 0.1
       vertex 0.189192 -0.198338 0.1
    endloop
  endfacet
  facet normal 0.659372 -0.751817 0
    outer loop
       vertex 0.189192 -0.198338 0.1
       vertex 0.189192 -0.198338 0
       vertex 0.213777 -0.176776 0
    endloop
  endfacet
  facet normal 0.555561 -0.831476 0
    outer loop
       vertex 0.189192 -0.198338 0
       vertex 0.189192 -0.198338 0.1
       vertex 0.162001 -0.216506 0.1
    endloop
  endfacet
  facet normal 0.555561 -0.831476 0
    outer loop
       vertex 0.162001 -0.216506 0.1
       vertex 0.162001 -0.216506 0
       vertex 0.189192 -0.198338 0
    endloop
  endfacet
  facet normal 0.442302 -0.896866 0
    outer loop
       vertex 0.162001 -0.216506 0
       vertex 0.162001 -0.216506 0.1
       vertex 0.132672 -0.23097 0.1
    endloop
  endfacet
  facet normal 0.442302 -0.896866 0
    outer loop
       vertex 0.132672 -0.23097 0.1
       vertex 0.132672 -0.23097 0
       vertex 0.162001 -0.216506 0
    endloop
  endfacet
  facet normal 0.321425 -0.946935 0
    outer loop
       vertex 0.132672 -0.23097 0
       vertex 0.132672 -0.23097 0.1
       vertex 0.101706 -0.241481 0.1
    endloop
  endfacet
  facet normal 0.321425 -0.946935 0
    outer loop
       vertex 0.101706 -0.241481 0.1
       vertex 0.101706 -0.241481 0
       vertex 0.132672 -0.23097 0
    endloop
  endfacet
  facet normal 0.195096 -0.980784 0
    outer loop
       vertex 0.101706 -0.241481 0
       vertex 0.101706 -0.241481 0.1
       vertex 0.0696324 -0.247861 0.1
    endloop
  endfacet
  facet normal 0.195096 -0.980784 0
    outer loop
       vertex 0.0696324 -0.247861 0.1
       vertex 0.0696324 -0.247861 0
       vertex 0.101706 -0.241481 0
    endloop
  endfacet
  facet normal 0.0654098 -0.997858 0
    outer loop
       vertex 0.0370009 -0.25 0
       vertex 0.0696324 -0.247861 0
       vertex 0.0696324 -0.247861 0.1
    endloop
  endfacet
  facet normal 0.0654098 -0.997858 1.08928e-16
    outer loop
       vertex 0.0696324 -0.247861 0.1
       vertex 0.0370009 -0.25 0.1
       vertex 0.0370009 -0.25 0
    endloop
  endfacet
  facet normal -0.0654098 -0.997858 0
    outer loop
       vertex 0.0370009 -0.25 0.1
       vertex 0.00436935 -0.247861 0.1
       vertex 0.00436935 -0.247861 0
    endloop
  endfacet
  facet normal -0.0654098 -0.997858 -1.08928e-16
    outer loop
       vertex 0.00436935 -0.247861 0
       vertex 0.0370009 -0.25 0
       vertex 0.0370009 -0.25 0.1
    endloop
  endfacet
  facet normal -0.195096 -0.980784 0
    outer loop
       vertex 0.00436935 -0.247861 0
       vertex 0.00436935 -0.247861 0.1
       vertex -0.0277041 -0.241481 0.1
    endloop
  endfacet
  facet normal -0.195096 -0.980784 -0
    outer loop
       vertex -0.0277041 -0.241481 0.1
       vertex -0.0277041 -0.241481 0
       vertex 0.00436935 -0.247861 0
    endloop
  endfacet
  facet normal -0.321425 -0.946935 0
    outer loop
       vertex -0.0277041 -0.241481 0
       vertex -0.0277041 -0.241481 0.1
       vertex -0.0586701 -0.23097 0.1
    endloop
  endfacet
  facet normal -0.321425 -0.946935 -0
    outer loop
       vertex -0.0586701 -0.23097 0.1
       vertex -0.0586701 -0.23097 0
       vertex -0.0277041 -0.241481 0
    endloop
  endfacet
  facet normal -0.442302 -0.896866 0
    outer loop
       vertex -0.0586701 -0.23097 0
       vertex -0.0586701 -0.23097 0.1
       vertex -0.0879991 -0.216506 0.1
    endloop
  endfacet
  facet normal -0.442302 -0.896866 -0
    outer loop
       vertex -0.0879991 -0.216506 0.1
       vertex -0.0879991 -0.216506 0
       vertex -0.0586701 -0.23097 0
    endloop
  endfacet
  facet normal -0.555561 -0.831476 0
    outer loop
       vertex -0.0879991 -0.216506 0
       vertex -0.0879991 -0.216506 0.1
       vertex -0.11519 -0.198338 0.1
    endloop
  endfacet
  facet normal -0.555561 -0.831476 -0
    outer loop
       vertex -0.11519 -0.198338 0.1
       vertex -0.11519 -0.198338 0
       vertex -0.0879991 -0.216506 0
    endloop
  endfacet
  facet normal -0.659372 -0.751817 0
    outer loop
       vertex -0.11519 -0.198338 0
       vertex -0.11519 -0.198338 0.1
       vertex -0.139775 -0.176776 0.1
    endloop
  endfacet
  facet normal -0.659372 -0.751817 -0
    outer loop
       vertex -0.139775 -0.176776 0.1
       vertex -0.139775 -0.176776 0
       vertex -0.11519 -0.198338 0
    endloop
  endfacet
endsolid cylinder
