solid cylinder
  facet normal 0.751817 -0.659372 0
    outer loop
       vertex -0.0937264 -0.176776 0
       vertex -0.0721644 -0.152191 0
       vertex -0.0721644 -0.152191 0.1
    endloop
  endfacet
  facet normal 0.751817 -0.659372 0
    outer loop
       vertex -0.0721644 -0.152191 0.1
       vertex -0.0937264 -0.176776 0.1
       vertex -0.0937264 -0.176776 0
    endloop
  endfacet
  facet normal 0.831476 -0.555561 0
    outer loop
       vertex -0.0721644 -0.152191 0
       vertex -0.0539964 -0.125 0
       vertex -0.0539964 -0.125 0.1
    endloop
  endfacet
  facet normal 0.831476 -0.555561 0
    outer loop
       vertex -0.0539964 -0.125 0.1
       vertex -0.0721644 -0.152191 0.1
       vertex -0.0721644 -0.152191 0
    endloop
  endfacet
  facet normal 0.896866 -0.442302 0
    outer loop
       vertex -0.0539964 -0.125 0
       vertex -0.0395324 -0.095671 0
       vertex -0.0395324 -0.095671 0.1
    endloop
  endfacet
  facet normal 0.896866 -0.442302 0
    outer loop
       vertex -0.0395324 -0.095671 0.1
       vertex -0.0539964 -0.125 0.1
       vertex -0.0539964 -0.125 0
    endloop
  endfacet
  facet normal 0.946935 -0.321425 0
    outer loop
       vertex -0.0395324 -0.095671 0
       vertex -0.0290214 -0.064705 0
       vertex -0.0290214 -0.064705 0.1
    endloop
  endfacet
  facet normal 0.946935 -0.321425 0
    outer loop
       vertex -0.0290214 -0.064705 0.1
       vertex -0.0395324 -0.095671 0.1
       vertex -0.0395324 -0.095671 0
    endloop
  endfacet
  facet normal 0.980784 -0.195096 0
    outer loop
       vertex -0.0290214 -0.064705 0
       vertex -0.0226414 -0.0326315 0
       vertex -0.0226414 -0.0326315 0.1
    endloop
  endfacet
  facet normal 0.980784 -0.195096 0
    outer loop
       vertex -0.0226414 -0.0326315 0.1
       vertex -0.0290214 -0.064705 0.1
       vertex -0.0290214 -0.064705 0
    endloop
  endfacet
  facet normal 0.997858 -0.0654098 0
    outer loop
       vertex -0.0205024 -8.32665e-17 0.1
       vertex -0.0226414 -0.0326315 0.1
       vertex -0.0226414 -0.0326315 0
    endloop
  endfacet
  facet normal 0.997858 -0.0654098 -1.08928e-16
    outer loop
       vertex -0.0226414 -0.0326315 0
       vertex -0.0205024 8.32665e-17 0
       vertex -0.0205024 -8.32665e-17 0.1
    endloop
  endfacet
  facet normal 0.997858 0.0654098 0
    outer loop
       vertex -0.0205024 8.32665e-17 0
       vertex -0.0226414 0.0326315 0
       vertex -0.0226414 0.0326315 0.1
    endloop
  endfacet
  facet normal 0.997858 0.0654098 1.08928e-16
    outer loop
       vertex -0.0226414 0.0326315 0.1
       vertex -0.0205024 -8.32665e-17 0.1
       vertex -0.0205024 8.32665e-17 0
    endloop
  endfacet
  facet normal 0.980784 0.195096 0
    outer loop
       vertex -0.0226414 0.0326315 0
       vertex -0.0290214 0.064705 0
       vertex -0.0290214 0.064705 0.1
    endloop
  endfacet
  facet normal 0.980784 0.195096 0
    outer loop
       vertex -0.0290214 0.064705 0.1
       vertex -0.0226414 0.0326315 0.1
       vertex -0.0226414 0.0326315 0
    endloop
  endfacet
  facet normal 0.946935 0.321425 0
    outer loop
       vertex -0.0290214 0.064705 0
       vertex -0.0395324 0.095671 0
       vertex -0.0395324 0.095671 0.1
    endloop
  endfacet
  facet normal 0.946935 0.321425 0
    outer loop
       vertex -0.0395324 0.095671 0.1
       vertex -0.0290214 0.064705 0.1
       vertex -0.0290214 0.064705 0
    endloop
  endfacet
  facet normal 0.896866 0.442302 0
    outer loop
       vertex -0.0395324 0.095671 0
       vertex -0.0539964 0.125 0
       vertex -0.0539964 0.125 0.1
    endloop
  endfacet
  facet normal 0.896866 0.442302 0
    outer loop
       vertex -0.0539964 0.125 0.1
       vertex -0.0395324 0.095671 0.1
       vertex -0.0395324 0.095671 0
    endloop
  endfacet
  facet normal 0.831476 0.555561 0
    outer loop
       vertex -0.0539964 0.125 0
       vertex -0.0721644 0.152191 0
       vertex -0.0721644 0.152191 0.1
    endloop
  endfacet
  facet normal 0.831476 0.555561 0
    outer loop
       vertex -0.0721644 0.152191 0.1
       vertex -0.0539964 0.125 0.1
       vertex -0.0539964 0.125 0
    endloop
  endfacet
  facet normal 0.751817 0.659372 0
    outer loop
       vertex -0.0721644 0.152191 0
       vertex -0.0937264 0.176776 0
       vertex -0.0937264 0.176776 0.1
    endloop
  endfacet
  facet normal 0.751817 0.659372 0
    outer loop
       vertex -0.0937264 0.176776 0.1
       vertex -0.0721644 0.152191 0.1
       vertex -0.0721644 0.152191 0
    endloop
  endfacet
  facet normal 0.659372 0.751817 0
    outer loop
       vertex -0.0937264 0.176776 0
       vertex -0.118311 0.198338 0
       vertex -0.118311 0.198338 0.1
    endloop
  endfacet
  facet normal 0.659372 0.751817 0
    outer loop
       vertex -0.118311 0.198338 0.1
       vertex -0.0937264 0.176776 0.1
       vertex -0.0937264 0.176776 0
    endloop
  endfacet
  facet normal 0.555561 0.831476 0
    outer loop
       vertex -0.118311 0.198338 0
       vertex -0.145502 0.216506 0
       vertex -0.145502 0.216506 0.1
    endloop
  endfacet
  facet normal 0.555561 0.831476 0
    outer loop
       vertex -0.145502 0.216506 0.1
       vertex -0.118311 0.198338 0.1
       vertex -0.118311 0.198338 0
    endloop
  endfacet
  facet normal 0.442302 0.896866 0
    outer loop
       vertex -0.145502 0.216506 0
       vertex -0.174831 0.23097 0
       vertex -0.174831 0.23097 0.1
    endloop
  endfacet
  facet normal 0.442302 0.896866 0
    outer loop
       vertex -0.174831 0.23097 0.1
       vertex -0.145502 0.216506 0.1
       vertex -0.145502 0.216506 0
    endloop
  endfacet
  facet normal 0.321425 0.946935 0
    outer loop
       vertex -0.174831 0.23097 0
       vertex -0.205797 0.241481 0
       vertex -0.205797 0.241481 0.1
    endloop
  endfacet
  facet normal 0.321425 0.946935 0
    outer loop
       vertex -0.205797 0.241481 0.1
       vertex -0.174831 0.23097 0.1
       vertex -0.174831 0.23097 0
    endloop
  endfacet
  facet normal 0.195096 0.980784 0
    outer loop
       vertex -0.205797 0.241481 0
       vertex -0.237871 0.247861 0
       vertex -0.237871 0.247861 0.1
    endloop
  endfacet
  facet normal 0.195096 0.980784 0
    outer loop
       vertex -0.237871 0.247861 0.1
       vertex -0.205797 0.241481 0.1
       vertex -0.205797 0.241481 0
    endloop
  endfacet
  facet normal 0.0654098 0.997858 0
    outer loop
       vertex -0.270502 0.25 0.1
       vertex -0.237871 0.247861 0.1
       vertex -0.237871 0.247861 0
    endloop
  endfacet
  facet normal 0.0654098 0.997858 -1.45239e-16
    outer loop
       vertex -0.237871 0.247861 0
       vertex -0.270502 0.25 0
       vertex -0.270502 0.25 0.1
    endloop
  endfacet
  facet normal -0.0654098 0.997858 0
    outer loop
       vertex -0.270502 0.25 0
       vertex -0.303134 0.247861 0
       vertex -0.303134 0.247861 0.1
    endloop
  endfacet
  facet normal -0.0654098 0.997858 1.45239e-16
    outer loop
       vertex -0.303134 0.247861 0.1
       vertex -0.270502 0.25 0.1
       vertex -0.270502 0.25 0
    endloop
  endfacet
  facet normal -0.195096 0.980784 0
    outer loop
       vertex -0.303134 0.247861 0
       vertex -0.335207 0.241481 0
       vertex -0.335207 0.241481 0.1
    endloop
  endfacet
  facet normal -0.195096 0.980784 0
    outer loop
       vertex -0.335207 0.241481 0.1
       vertex -0.303134 0.247861 0.1
       vertex -0.303134 0.247861 0
    endloop
  endfacet
  facet normal -0.321425 0.946935 0
    outer loop
       vertex -0.335207 0.241481 0
       vertex -0.366173 0.23097 0
       vertex -0.366173 0.23097 0.1
    endloop
  endfacet
  facet normal -0.321425 0.946935 0
    outer loop
       vertex -0.366173 0.23097 0.1
       vertex -0.335207 0.241481 0.1
       vertex -0.335207 0.241481 0
    endloop
  endfacet
  facet normal -0.442302 0.896866 0
    outer loop
       vertex -0.366173 0.23097 0
       vertex -0.395502 0.216506 0
       vertex -0.395502 0.216506 0.1
    endloop
  endfacet
  facet normal -0.442302 0.896866 0
    outer loop
       vertex -0.395502 0.216506 0.1
       vertex -0.366173 0.23097 0.1
       vertex -0.366173 0.23097 0
    endloop
  endfacet
  facet normal -0.555561 0.831476 0
    outer loop
       vertex -0.395502 0.216506 0
       vertex -0.422693 0.198338 0
       vertex -0.422693 0.198338 0.1
    endloop
  endfacet
  facet normal -0.555561 0.831476 0
    outer loop
       vertex -0.422693 0.198338 0.1
       vertex -0.395502 0.216506 0.1
       vertex -0.395502 0.216506 0
    endloop
  endfacet
  facet normal -0.659372 0.751817 0
    outer loop
       vertex -0.422693 0.198338 0
       vertex -0.447278 0.176776 0
       vertex -0.447278 0.176776 0.1
    endloop
  endfacet
  facet normal -0.659372 0.751817 0
    outer loop
       vertex -0.447278 0.176776 0.1
       vertex -0.422693 0.198338 0.1
       vertex -0.422693 0.198338 0
    endloop
  endfacet
  facet normal -0.751817 0.659372 0
    outer loop
       vertex -0.447278 0.176776 0
       vertex -0.46884 0.152191 0
       vertex -0.46884 0.152191 0.1
    endloop
  endfacet
  facet normal -0.751817 0.659372 0
    outer loop
       vertex -0.46884 0.152191 0.1
       vertex -0.447278 0.176776 0.1
       vertex -0.447278 0.176776 0
    endloop
  endfacet
  facet normal -0.831476 0.555561 0
    outer loop
       vertex -0.46884 0.152191 0
       vertex -0.487008 0.125 0
       vertex -0.487008 0.125 0.1
    endloop
  endfacet
  facet normal -0.831476 0.555561 0
    outer loop
       vertex -0.487008 0.125 0.1
       vertex -0.46884 0.152191 0.1
       vertex -0.46884 0.152191 0
    endloop
  endfacet
  facet normal -0.896866 0.442302 0
    outer loop
       vertex -0.487008 0.125 0
       vertex -0.501472 0.095671 0
       vertex -0.501472 0.095671 0.1
    endloop
  endfacet
  facet normal -0.896866 0.442302 0
    outer loop
       vertex -0.501472 0.095671 0.1
       vertex -0.487008 0.125 0.1
       vertex -0.487008 0.125 0
    endloop
  endfacet
  facet normal -0.946935 0.321425 0
    outer loop
       vertex -0.501472 0.095671 0
       vertex -0.511983 0.064705 0
       vertex -0.511983 0.064705 0.1
    endloop
  endfacet
  facet normal -0.946935 0.321425 0
    outer loop
       vertex -0.511983 0.064705 0.1
       vertex -0.501472 0.095671 0.1
       vertex -0.501472 0.095671 0
    endloop
  endfacet
  facet normal -0.980784 0.195096 0
    outer loop
       vertex -0.511983 0.064705 0
       vertex -0.518363 0.0326315 0
       vertex -0.518363 0.0326315 0.1
    endloop
  endfacet
  facet normal -0.980784 0.195096 0
    outer loop
       vertex -0.518363 0.0326315 0.1
       vertex -0.511983 0.064705 0.1
       vertex -0.511983 0.064705 0
    endloop
  endfacet
  facet normal -0.997858 0.0654098 0
    outer loop
       vertex -0.520502 8.32665e-17 0.1
       vertex -0.518363 0.0326315 0.1
       vertex -0.518363 0.0326315 0
    endloop
  endfacet
  facet normal -0.997858 0.0654098 -1.08928e-16
    outer loop
       vertex -0.518363 0.0326315 0
       vertex -0.520502 -8.32665e-17 0
       vertex -0.520502 8.32665e-17 0.1
    endloop
  endfacet
  facet normal -0.997858 -0.0654098 0
    outer loop
       vertex -0.520502 -8.32665e-17 0
       vertex -0.518363 -0.0326315 0
       vertex -0.518363 -0.0326315 0.1
    endloop
  endfacet
  facet normal -0.997858 -0.0654098 1.08928e-16
    outer loop
       vertex -0.518363 -0.0326315 0.1
       vertex -0.520502 8.32665e-17 0.1
       vertex -0.520502 -8.32665e-17 0
    endloop
  endfacet
  facet normal -0.980784 -0.195096 0
    outer loop
       vertex -0.518363 -0.0326315 0
       vertex -0.511983 -0.064705 0
       vertex -0.511983 -0.064705 0.1
    endloop
  endfacet
  facet normal -0.980784 -0.195096 0
    outer loop
       vertex -0.511983 -0.064705 0.1
       vertex -0.518363 -0.0326315 0.1
       vertex -0.518363 -0.0326315 0
    endloop
  endfacet
  facet normal -0.946935 -0.321425 0
    outer loop
       vertex -0.511983 -0.064705 0
       vertex -0.501472 -0.095671 0
       vertex -0.501472 -0.095671 0.1
    endloop
  endfacet
  facet normal -0.946935 -0.321425 0
    outer loop
       vertex -0.501472 -0.095671 0.1
       vertex -0.511983 -0.064705 0.1
       vertex -0.511983 -0.064705 0
    endloop
  endfacet
  facet normal -0.896866 -0.442302 0
    outer loop
       vertex -0.501472 -0.095671 0
       vertex -0.487008 -0.125 0
       vertex -0.487008 -0.125 0.1
    endloop
  endfacet
  facet normal -0.896866 -0.442302 0
    outer loop
       vertex -0.487008 -0.125 0.1
       vertex -0.501472 -0.095671 0.1
       vertex -0.501472 -0.095671 0
    endloop
  endfacet
  facet normal -0.831476 -0.555561 0
    outer loop
       vertex -0.487008 -0.125 0
       vertex -0.46884 -0.152191 0
       vertex -0.46884 -0.152191 0.1
    endloop
  endfacet
  facet normal -0.831476 -0.555561 0
    outer loop
       vertex -0.46884 -0.152191 0.1
       vertex -0.487008 -0.125 0.1
       vertex -0.487008 -0.125 0
    endloop
  endfacet
  facet normal -0.751817 -0.659372 0
    outer loop
       vertex -0.46884 -0.152191 0
       vertex -0.447278 -0.176776 0
       vertex -0.447278 -0.176776 0.1
    endloop
  endfacet
  facet normal -0.751817 -0.659372 0
    outer loop
       vertex -0.447278 -0.176776 0.1
       vertex -0.46884 -0.152191 0.1
       vertex -0.46884 -0.152191 0
    endloop
  endfacet
  facet normal 0.659372 -0.751817 0
    outer loop
       vertex -0.0937264 -0.176776 0
       vertex -0.0937264 -0.176776 0.1
       vertex -0.118311 -0.198338 0.1
    endloop
  endfacet
  facet normal 0.659372 -0.751817 0
    outer loop
       vertex -0.118311 -0.198338 0.1
       vertex -0.118311 -0.198338 0
       vertex -0.0937264 -0.176776 0
    endloop
  endfacet
  facet normal 0.555561 -0.831476 0
    outer loop
       vertex -0.118311 -0.198338 0
       vertex -0.118311 -0.198338 0.1
       vertex -0.145502 -0.216506 0.1
    endloop
  endfacet
  facet normal 0.555561 -0.831476 0
    outer loop
       vertex -0.145502 -0.216506 0.1
       vertex -0.145502 -0.216506 0
       vertex -0.118311 -0.198338 0
    endloop
  endfacet
  facet normal 0.442302 -0.896866 0
    outer loop
       vertex -0.145502 -0.216506 0
       vertex -0.145502 -0.216506 0.1
       vertex -0.174831 -0.23097 0.1
    endloop
  endfacet
  facet normal 0.442302 -0.896866 0
    outer loop
       vertex -0.174831 -0.23097 0.1
       vertex -0.174831 -0.23097 0
       vertex -0.145502 -0.216506 0
    endloop
  endfacet
  facet normal 0.321425 -0.946935 0
    outer loop
       vertex -0.174831 -0.23097 0
       vertex -0.174831 -0.23097 0.1
       vertex -0.205797 -0.241481 0.1
    endloop
  endfacet
  facet normal 0.321425 -0.946935 0
    outer loop
       vertex -0.205797 -0.241481 0.1
       vertex -0.205797 -0.241481 0
       vertex -0.174831 -0.23097 0
    endloop
  endfacet
  facet normal 0.195096 -0.980784 0
    outer loop
       vertex -0.205797 -0.241481 0
       vertex -0.205797 -0.241481 0.1
       vertex -0.237871 -0.247861 0.1
    endloop
  endfacet
  facet normal 0.195096 -0.980784 0
    outer loop
       vertex -0.237871 -0.247861 0.1
       vertex -0.237871 -0.247861 0
       vertex -0.205797 -0.241481 0
    endloop
  endfacet
  facet normal 0.0654098 -0.997858 0
    outer loop
       vertex -0.270502 -0.25 0
       vertex -0.237871 -0.247861 0
       vertex -0.237871 -0.247861 0.1
    endloop
  endfacet
  facet normal 0.0654098 -0.997858 1.45239e-16
    outer loop
       vertex -0.237871 -0.247861 0.1
       vertex -0.270502 -0.25 0.1
       vertex -0.270502 -0.25 0
    endloop
  endfacet
  facet normal -0.0654098 -0.997858 0
    outer loop
       vertex -0.270502 -0.25 0.1
       vertex -0.303134 -0.247861 0.1
       vertex -0.303134 -0.247861 0
    endloop
  endfacet
  facet normal -0.0654098 -0.997858 -1.45239e-16
    outer loop
       vertex -0.303134 -0.247861 0
       vertex -0.270502 -0.25 0
       vertex -0.270502 -0.25 0.1
    endloop
  endfacet
  facet normal -0.195096 -0.980784 0
    outer loop
       vertex -0.303134 -0.247861 0
       vertex -0.303134 -0.247861 0.1
       vertex -0.335207 -0.241481 0.1
    endloop
  endfacet
  facet normal -0.195096 -0.980784 -0
    outer loop
       vertex -0.335207 -0.241481 0.1
       vertex -0.335207 -0.241481 0
       vertex -0.303134 -0.247861 0
    endloop
  endfacet
  facet normal -0.321425 -0.946935 0
    outer loop
       vertex -0.335207 -0.241481 0
       vertex -0.335207 -0.241481 0.1
       vertex -0.366173 -0.23097 0.1
    endloop
  endfacet
  facet normal -0.321425 -0.946935 -0
    outer loop
       vertex -0.366173 -0.23097 0.1
       vertex -0.366173 -0.23097 0
       vertex -0.335207 -0.241481 0
    endloop
  endfacet
  facet normal -0.442302 -0.896866 0
    outer loop
       vertex -0.366173 -0.23097 0
       vertex -0.366173 -0.23097 0.1
       vertex -0.395502 -0.216506 0.1
    endloop
  endfacet
  facet normal -0.442302 -0.896866 -0
    outer loop
       vertex -0.395502 -0.216506 0.1
       vertex -0.395502 -0.216506 0
       vertex -0.366173 -0.23097 0
    endloop
  endfacet
  facet normal -0.555561 -0.831476 0
    outer loop
       vertex -0.395502 -0.216506 0
       vertex -0.395502 -0.216506 0.1
       vertex -0.422693 -0.198338 0.1
    endloop
  endfacet
  facet normal -0.555561 -0.831476 -0
    outer loop
       vertex -0.422693 -0.198338 0.1
       vertex -0.422693 -0.198338 0
       vertex -0.395502 -0.216506 0
    endloop
  endfacet
  facet normal -0.659372 -0.751817 0
    outer loop
       vertex -0.422693 -0.198338 0
       vertex -0.422693 -0.198338 0.1
       vertex -0.447278 -0.176776 0.1
    endloop
  endfacet
  facet normal -0.659372 -0.751817 -0
    outer loop
       vertex -0.447278 -0.176776 0.1
       vertex -0.447278 -0.176776 0
       vertex -0.422693 -0.198338 0
    endloop
  endfacet
endsolid cylinder
