solid cylinder
  facet normal 0.751817 -0.659372 0
    outer loop
       vertex 0.201215 -0.176776 0
       vertex 0.222777 -0.152191 0
       vertex 0.222777 -0.152191 0.1
    endloop
  endfacet
  facet normal 0.751817 -0.659372 0
    outer loop
       vertex 0.222777 -0.152191 0.1
       vertex 0.201215 -0.176776 0.1
       vertex 0.201215 -0.176776 0
    endloop
  endfacet
  facet normal 0.831476 -0.555561 0
    outer loop
       vertex 0.222777 -0.152191 0
       vertex 0.240945 -0.125 0
       vertex 0.240945 -0.125 0.1
    endloop
  endfacet
  facet normal 0.831476 -0.555561 0
    outer loop
       vertex 0.240945 -0.125 0.1
       vertex 0.222777 -0.152191 0.1
       vertex 0.222777 -0.152191 0
    endloop
  endfacet
  facet normal 0.896866 -0.442302 0
    outer loop
       vertex 0.240945 -0.125 0
       vertex 0.255409 -0.095671 0
       vertex 0.255409 -0.095671 0.1
    endloop
  endfacet
  facet normal 0.896866 -0.442302 0
    outer loop
       vertex 0.255409 -0.095671 0.1
       vertex 0.240945 -0.125 0.1
       vertex 0.240945 -0.125 0
    endloop
  endfacet
  facet normal 0.946935 -0.321425 0
    outer loop
       vertex 0.255409 -0.095671 0
       vertex 0.26592 -0.064705 0
       vertex 0.26592 -0.064705 0.1
    endloop
  endfacet
  facet normal 0.946935 -0.321425 0
    outer loop
       vertex 0.26592 -0.064705 0.1
       vertex 0.255409 -0.095671 0.1
       vertex 0.255409 -0.095671 0
    endloop
  endfacet
  facet normal 0.980784 -0.195096 0
    outer loop
       vertex 0.26592 -0.064705 0
       vertex 0.2723 -0.0326315 0
       vertex 0.2723 -0.0326315 0.1
    endloop
  endfacet
  facet normal 0.980784 -0.195096 0
    outer loop
       vertex 0.2723 -0.0326315 0.1
       vertex 0.26592 -0.064705 0.1
       vertex 0.26592 -0.064705 0
    endloop
  endfacet
  facet normal 0.997858 -0.0654098 0
    outer loop
       vertex 0.274439 -8.32665e-17 0.1
       vertex 0.2723 -0.0326315 0.1
       vertex 0.2723 -0.0326315 0
    endloop
  endfacet
  facet normal 0.997858 -0.0654098 -1.08928e-16
    outer loop
       vertex 0.2723 -0.0326315 0
       vertex 0.274439 8.32665e-17 0
       vertex 0.274439 -8.32665e-17 0.1
    endloop
  endfacet
  facet normal 0.997858 0.0654098 0
    outer loop
       vertex 0.274439 8.32665e-17 0
       vertex 0.2723 0.0326315 0
       vertex 0.2723 0.0326315 0.1
    endloop
  endfacet
  facet normal 0.997858 0.0654098 1.08928e-16
    outer loop
       vertex 0.2723 0.0326315 0.1
       vertex 0.274439 -8.32665e-17 0.1
       vertex 0.274439 8.32665e-17 0
    endloop
  endfacet
  facet normal 0.980784 0.195096 0
    outer loop
       vertex 0.2723 0.0326315 0
       vertex 0.26592 0.064705 0
       vertex 0.26592 0.064705 0.1
    endloop
  endfacet
  facet normal 0.980784 0.195096 0
    outer loop
       vertex 0.26592 0.064705 0.1
       vertex 0.2723 0.0326315 0.1
       vertex 0.2723 0.0326315 0
    endloop
  endfacet
  facet normal 0.946935 0.321425 0
    outer loop
       vertex 0.26592 0.064705 0
       vertex 0.255409 0.095671 0
       vertex 0.255409 0.095671 0.1
    endloop
  endfacet
  facet normal 0.946935 0.321425 0
    outer loop
       vertex 0.255409 0.095671 0.1
       vertex 0.26592 0.064705 0.1
       vertex 0.26592 0.064705 0
    endloop
  endfacet
  facet normal 0.896866 0.442302 0
    outer loop
       vertex 0.255409 0.095671 0
       vertex 0.240945 0.125 0
       vertex 0.240945 0.125 0.1
    endloop
  endfacet
  facet normal 0.896866 0.442302 0
    outer loop
       vertex 0.240945 0.125 0.1
       vertex 0.255409 0.095671 0.1
       vertex 0.255409 0.095671 0
    endloop
  endfacet
  facet normal 0.831476 0.555561 0
    outer loop
       vertex 0.240945 0.125 0
       vertex 0.222777 0.152191 0
       vertex 0.222777 0.152191 0.1
    endloop
  endfacet
  facet normal 0.831476 0.555561 0
    outer loop
       vertex 0.222777 0.152191 0.1
       vertex 0.240945 0.125 0.1
       vertex 0.240945 0.125 0
    endloop
  endfacet
  facet normal 0.751817 0.659372 0
    outer loop
       vertex 0.222777 0.152191 0
       vertex 0.201215 0.176776 0
       vertex 0.201215 0.176776 0.1
    endloop
  endfacet
  facet normal 0.751817 0.659372 0
    outer loop
       vertex 0.201215 0.176776 0.1
       vertex 0.222777 0.152191 0.1
       vertex 0.222777 0.152191 0
    endloop
  endfacet
  facet normal 0.659372 0.751817 0
    outer loop
       vertex 0.201215 0.176776 0
       vertex 0.17663 0.198338 0
       vertex 0.17663 0.198338 0.1
    endloop
  endfacet
  facet normal 0.659372 0.751817 0
    outer loop
       vertex 0.17663 0.198338 0.1
       vertex 0.201215 0.176776 0.1
       vertex 0.201215 0.176776 0
    endloop
  endfacet
  facet normal 0.555561 0.831476 0
    outer loop
       vertex 0.17663 0.198338 0
       vertex 0.149439 0.216506 0
       vertex 0.149439 0.216506 0.1
    endloop
  endfacet
  facet normal 0.555561 0.831476 0
    outer loop
       vertex 0.149439 0.216506 0.1
       vertex 0.17663 0.198338 0.1
       vertex 0.17663 0.198338 0
    endloop
  endfacet
  facet normal 0.442302 0.896866 0
    outer loop
       vertex 0.149439 0.216506 0
       vertex 0.12011 0.23097 0
       vertex 0.12011 0.23097 0.1
    endloop
  endfacet
  facet normal 0.442302 0.896866 0
    outer loop
       vertex 0.12011 0.23097 0.1
       vertex 0.149439 0.216506 0.1
       vertex 0.149439 0.216506 0
    endloop
  endfacet
  facet normal 0.321425 0.946935 0
    outer loop
       vertex 0.12011 0.23097 0
       vertex 0.0891442 0.241481 0
       vertex 0.0891442 0.241481 0.1
    endloop
  endfacet
  facet normal 0.321425 0.946935 0
    outer loop
       vertex 0.0891442 0.241481 0.1
       vertex 0.12011 0.23097 0.1
       vertex 0.12011 0.23097 0
    endloop
  endfacet
  facet normal 0.195096 0.980784 0
    outer loop
       vertex 0.0891442 0.241481 0
       vertex 0.0570707 0.247861 0
       vertex 0.0570707 0.247861 0.1
    endloop
  endfacet
  facet normal 0.195096 0.980784 0
    outer loop
       vertex 0.0570707 0.247861 0.1
       vertex 0.0891442 0.241481 0.1
       vertex 0.0891442 0.241481 0
    endloop
  endfacet
  facet normal 0.0654098 0.997858 0
    outer loop
       vertex 0.0244392 0.25 0.1
       vertex 0.0570707 0.247861 0.1
       vertex 0.0570707 0.247861 0
    endloop
  endfacet
  facet normal 0.0654098 0.997858 -1.0893e-16
    outer loop
       vertex 0.0570707 0.247861 0
       vertex 0.0244392 0.25 0
       vertex 0.0244392 0.25 0.1
    endloop
  endfacet
  facet normal -0.0654098 0.997858 0
    outer loop
       vertex 0.0244392 0.25 0
       vertex -0.00819233 0.247861 0
       vertex -0.00819233 0.247861 0.1
    endloop
  endfacet
  facet normal -0.0654098 0.997858 1.08928e-16
    outer loop
       vertex -0.00819233 0.247861 0.1
       vertex 0.0244392 0.25 0.1
       vertex 0.0244392 0.25 0
    endloop
  endfacet
  facet normal -0.195096 0.980784 0
    outer loop
       vertex -0.00819233 0.247861 0
       vertex -0.0402658 0.241481 0
       vertex -0.0402658 0.241481 0.1
    endloop
  endfacet
  facet normal -0.195096 0.980784 0
    outer loop
       vertex -0.0402658 0.241481 0.1
       vertex -0.00819233 0.247861 0.1
       vertex -0.00819233 0.247861 0
    endloop
  endfacet
  facet normal -0.321425 0.946935 0
    outer loop
       vertex -0.0402658 0.241481 0
       vertex -0.0712318 0.23097 0
       vertex -0.0712318 0.23097 0.1
    endloop
  endfacet
  facet normal -0.321425 0.946935 0
    outer loop
       vertex -0.0712318 0.23097 0.1
       vertex -0.0402658 0.241481 0.1
       vertex -0.0402658 0.241481 0
    endloop
  endfacet
  facet normal -0.442302 0.896866 0
    outer loop
       vertex -0.0712318 0.23097 0
       vertex -0.100561 0.216506 0
       vertex -0.100561 0.216506 0.1
    endloop
  endfacet
  facet normal -0.442302 0.896866 0
    outer loop
       vertex -0.100561 0.216506 0.1
       vertex -0.0712318 0.23097 0.1
       vertex -0.0712318 0.23097 0
    endloop
  endfacet
  facet normal -0.555561 0.831476 0
    outer loop
       vertex -0.100561 0.216506 0
       vertex -0.127752 0.198338 0
       vertex -0.127752 0.198338 0.1
    endloop
  endfacet
  facet normal -0.555561 0.831476 0
    outer loop
       vertex -0.127752 0.198338 0.1
       vertex -0.100561 0.216506 0.1
       vertex -0.100561 0.216506 0
    endloop
  endfacet
  facet normal -0.659372 0.751817 0
    outer loop
       vertex -0.127752 0.198338 0
       vertex -0.152337 0.176776 0
       vertex -0.152337 0.176776 0.1
    endloop
  endfacet
  facet normal -0.659372 0.751817 0
    outer loop
       vertex -0.152337 0.176776 0.1
       vertex -0.127752 0.198338 0.1
       vertex -0.127752 0.198338 0
    endloop
  endfacet
  facet normal -0.751817 0.659372 0
    outer loop
       vertex -0.152337 0.176776 0
       vertex -0.173899 0.152191 0
       vertex -0.173899 0.152191 0.1
    endloop
  endfacet
  facet normal -0.751817 0.659372 0
    outer loop
       vertex -0.173899 0.152191 0.1
       vertex -0.152337 0.176776 0.1
       vertex -0.152337 0.176776 0
    endloop
  endfacet
  facet normal -0.831476 0.555561 0
    outer loop
       vertex -0.173899 0.152191 0
       vertex -0.192067 0.125 0
       vertex -0.192067 0.125 0.1
    endloop
  endfacet
  facet normal -0.831476 0.555561 0
    outer loop
       vertex -0.192067 0.125 0.1
       vertex -0.173899 0.152191 0.1
       vertex -0.173899 0.152191 0
    endloop
  endfacet
  facet normal -0.896866 0.442302 0
    outer loop
       vertex -0.192067 0.125 0
       vertex -0.206531 0.095671 0
       vertex -0.206531 0.095671 0.1
    endloop
  endfacet
  facet normal -0.896866 0.442302 0
    outer loop
       vertex -0.206531 0.095671 0.1
       vertex -0.192067 0.125 0.1
       vertex -0.192067 0.125 0
    endloop
  endfacet
  facet normal -0.946935 0.321425 0
    outer loop
       vertex -0.206531 0.095671 0
       vertex -0.217042 0.064705 0
       vertex -0.217042 0.064705 0.1
    endloop
  endfacet
  facet normal -0.946935 0.321425 0
    outer loop
       vertex -0.217042 0.064705 0.1
       vertex -0.206531 0.095671 0.1
       vertex -0.206531 0.095671 0
    endloop
  endfacet
  facet normal -0.980784 0.195096 0
    outer loop
       vertex -0.217042 0.064705 0
       vertex -0.223422 0.0326315 0
       vertex -0.223422 0.0326315 0.1
    endloop
  endfacet
  facet normal -0.980784 0.195096 0
    outer loop
       vertex -0.223422 0.0326315 0.1
       vertex -0.217042 0.064705 0.1
       vertex -0.217042 0.064705 0
    endloop
  endfacet
  facet normal -0.997858 0.0654098 0
    outer loop
       vertex -0.225561 8.32665e-17 0.1
       vertex -0.223422 0.0326315 0.1
       vertex -0.223422 0.0326315 0
    endloop
  endfacet
  facet normal -0.997858 0.0654098 -1.08928e-16
    outer loop
       vertex -0.223422 0.0326315 0
       vertex -0.225561 -8.32665e-17 0
       vertex -0.225561 8.32665e-17 0.1
    endloop
  endfacet
  facet normal -0.997858 -0.0654098 0
    outer loop
       vertex -0.225561 -8.32665e-17 0
       vertex -0.223422 -0.0326315 0
       vertex -0.223422 -0.0326315 0.1
    endloop
  endfacet
  facet normal -0.997858 -0.0654098 1.08928e-16
    outer loop
       vertex -0.223422 -0.0326315 0.1
       vertex -0.225561 8.32665e-17 0.1
       vertex -0.225561 -8.32665e-17 0
    endloop
  endfacet
  facet normal -0.980784 -0.195096 0
    outer loop
       vertex -0.223422 -0.0326315 0
       vertex -0.217042 -0.064705 0
       vertex -0.217042 -0.064705 0.1
    endloop
  endfacet
  facet normal -0.980784 -0.195096 0
    outer loop
       vertex -0.217042 -0.064705 0.1
       vertex -0.223422 -0.0326315 0.1
       vertex -0.223422 -0.0326315 0
    endloop
  endfacet
  facet normal -0.946935 -0.321425 0
    outer loop
       vertex -0.217042 -0.064705 0
       vertex -0.206531 -0.095671 0
       vertex -0.206531 -0.095671 0.1
    endloop
  endfacet
  facet normal -0.946935 -0.321425 0
    outer loop
       vertex -0.206531 -0.095671 0.1
       vertex -0.217042 -0.064705 0.1
       vertex -0.217042 -0.064705 0
    endloop
  endfacet
  facet normal -0.896866 -0.442302 0
    outer loop
       vertex -0.206531 -0.095671 0
       vertex -0.192067 -0.125 0
       vertex -0.192067 -0.125 0.1
    endloop
  endfacet
  facet normal -0.896866 -0.442302 0
    outer loop
       vertex -0.192067 -0.125 0.1
       vertex -0.206531 -0.095671 0.1
       vertex -0.206531 -0.095671 0
    endloop
  endfacet
  facet normal -0.831476 -0.555561 0
    outer loop
       vertex -0.192067 -0.125 0
       vertex -0.173899 -0.152191 0
       vertex -0.173899 -0.152191 0.1
    endloop
  endfacet
  facet normal -0.831476 -0.555561 0
    outer loop
       vertex -0.173899 -0.152191 0.1
       vertex -0.192067 -0.125 0.1
       vertex -0.192067 -0.125 0
    endloop
  endfacet
  facet normal -0.751817 -0.659372 0
    outer loop
       vertex -0.173899 -0.152191 0
       vertex -0.152337 -0.176776 0
       vertex -0.152337 -0.176776 0.1
    endloop
  endfacet
  facet normal -0.751817 -0.659372 0
    outer loop
       vertex -0.152337 -0.176776 0.1
       vertex -0.173899 -0.152191 0.1
       vertex -0.173899 -0.152191 0
    endloop
  endfacet
  facet normal 0.659372 -0.751817 0
    outer loop
       vertex 0.201215 -0.176776 0
       vertex 0.201215 -0.176776 0.1
       vertex 0.17663 -0.198338 0.1
    endloop
  endfacet
  facet normal 0.659372 -0.751817 0
    outer loop
       vertex 0.17663 -0.198338 0.1
       vertex 0.17663 -0.198338 0
       vertex 0.201215 -0.176776 0
    endloop
  endfacet
  facet normal 0.555561 -0.831476 0
    outer loop
       vertex 0.17663 -0.198338 0
       vertex 0.17663 -0.198338 0.1
       vertex 0.149439 -0.216506 0.1
    endloop
  endfacet
  facet normal 0.555561 -0.831476 0
    outer loop
       vertex 0.149439 -0.216506 0.1
       vertex 0.149439 -0.216506 0
       vertex 0.17663 -0.198338 0
    endloop
  endfacet
  facet normal 0.442302 -0.896866 0
    outer loop
       vertex 0.149439 -0.216506 0
       vertex 0.149439 -0.216506 0.1
       vertex 0.12011 -0.23097 0.1
    endloop
  endfacet
  facet normal 0.442302 -0.896866 0
    outer loop
       vertex 0.12011 -0.23097 0.1
       vertex 0.12011 -0.23097 0
       vertex 0.149439 -0.216506 0
    endloop
  endfacet
  facet normal 0.321425 -0.946935 0
    outer loop
       vertex 0.12011 -0.23097 0
       vertex 0.12011 -0.23097 0.1
       vertex 0.0891442 -0.241481 0.1
    endloop
  endfacet
  facet normal 0.321425 -0.946935 0
    outer loop
       vertex 0.0891442 -0.241481 0.1
       vertex 0.0891442 -0.241481 0
       vertex 0.12011 -0.23097 0
    endloop
  endfacet
  facet normal 0.195096 -0.980784 0
    outer loop
       vertex 0.0891442 -0.241481 0
       vertex 0.0891442 -0.241481 0.1
       vertex 0.0570707 -0.247861 0.1
    endloop
  endfacet
  facet normal 0.195096 -0.980784 0
    outer loop
       vertex 0.0570707 -0.247861 0.1
       vertex 0.0570707 -0.247861 0
       vertex 0.0891442 -0.241481 0
    endloop
  endfacet
  facet normal 0.0654098 -0.997858 0
    outer loop
       vertex 0.0244392 -0.25 0
       vertex 0.0570707 -0.247861 0
       vertex 0.0570707 -0.247861 0.1
    endloop
  endfacet
  facet normal 0.0654098 -0.997858 1.0893e-16
    outer loop
       vertex 0.0570707 -0.247861 0.1
       vertex 0.0244392 -0.25 0.1
       vertex 0.0244392 -0.25 0
    endloop
  endfacet
  facet normal -0.0654098 -0.997858 0
    outer loop
       vertex 0.0244392 -0.25 0.1
       vertex -0.00819233 -0.247861 0.1
       vertex -0.00819233 -0.247861 0
    endloop
  endfacet
  facet normal -0.0654098 -0.997858 -1.08928e-16
    outer loop
       vertex -0.00819233 -0.247861 0
       vertex 0.0244392 -0.25 0
       vertex 0.0244392 -0.25 0.1
    endloop
  endfacet
  facet normal -0.195096 -0.980784 0
    outer loop
       vertex -0.00819233 -0.247861 0
       vertex -0.00819233 -0.247861 0.1
       vertex -0.0402658 -0.241481 0.1
    endloop
  endfacet
  facet normal -0.195096 -0.980784 -0
    outer loop
       vertex -0.0402658 -0.241481 0.1
       vertex -0.0402658 -0.241481 0
       vertex -0.00819233 -0.247861 0
    endloop
  endfacet
  facet normal -0.321425 -0.946935 0
    outer loop
       vertex -0.0402658 -0.241481 0
       vertex -0.0402658 -0.241481 0.1
       vertex -0.0712318 -0.23097 0.1
    endloop
  endfacet
  facet normal -0.321425 -0.946935 -0
    outer loop
       vertex -0.0712318 -0.23097 0.1
       vertex -0.0712318 -0.23097 0
       vertex -0.0402658 -0.241481 0
    endloop
  endfacet
  facet normal -0.442302 -0.896866 0
    outer loop
       vertex -0.0712318 -0.23097 0
       vertex -0.0712318 -0.23097 0.1
       vertex -0.100561 -0.216506 0.1
    endloop
  endfacet
  facet normal -0.442302 -0.896866 -0
    outer loop
       vertex -0.100561 -0.216506 0.1
       vertex -0.100561 -0.216506 0
       vertex -0.0712318 -0.23097 0
    endloop
  endfacet
  facet normal -0.555561 -0.831476 0
    outer loop
       vertex -0.100561 -0.216506 0
       vertex -0.100561 -0.216506 0.1
       vertex -0.127752 -0.198338 0.1
    endloop
  endfacet
  facet normal -0.555561 -0.831476 -0
    outer loop
       vertex -0.127752 -0.198338 0.1
       vertex -0.127752 -0.198338 0
       vertex -0.100561 -0.216506 0
    endloop
  endfacet
  facet normal -0.659372 -0.751817 0
    outer loop
       vertex -0.127752 -0.198338 0
       vertex -0.127752 -0.198338 0.1
       vertex -0.152337 -0.176776 0.1
    endloop
  endfacet
  facet normal -0.659372 -0.751817 -0
    outer loop
       vertex -0.152337 -0.176776 0.1
       vertex -0.152337 -0.176776 0
       vertex -0.127752 -0.198338 0
    endloop
  endfacet
endsolid cylinder
