solid cylinder
  facet normal 0.751817 -0.659372 0
    outer loop
       vertex 0.485834 -0.176776 0
       vertex 0.507396 -0.152191 0
       vertex 0.507396 -0.152191 0.1
    endloop
  endfacet
  facet normal 0.751817 -0.659372 0
    outer loop
       vertex 0.507396 -0.152191 0.1
       vertex 0.485834 -0.176776 0.1
       vertex 0.485834 -0.176776 0
    endloop
  endfacet
  facet normal 0.831476 -0.555561 0
    outer loop
       vertex 0.507396 -0.152191 0
       vertex 0.525564 -0.125 0
       vertex 0.525564 -0.125 0.1
    endloop
  endfacet
  facet normal 0.831476 -0.555561 0
    outer loop
       vertex 0.525564 -0.125 0.1
       vertex 0.507396 -0.152191 0.1
       vertex 0.507396 -0.152191 0
    endloop
  endfacet
  facet normal 0.896866 -0.442302 0
    outer loop
       vertex 0.525564 -0.125 0
       vertex 0.540028 -0.095671 0
       vertex 0.540028 -0.095671 0.1
    endloop
  endfacet
  facet normal 0.896866 -0.442302 0
    outer loop
       vertex 0.540028 -0.095671 0.1
       vertex 0.525564 -0.125 0.1
       vertex 0.525564 -0.125 0
    endloop
  endfacet
  facet normal 0.946935 -0.321425 0
    outer loop
       vertex 0.540028 -0.095671 0
       vertex 0.550539 -0.064705 0
       vertex 0.550539 -0.064705 0.1
    endloop
  endfacet
  facet normal 0.946935 -0.321425 0
    outer loop
       vertex 0.550539 -0.064705 0.1
       vertex 0.540028 -0.095671 0.1
       vertex 0.540028 -0.095671 0
    endloop
  endfacet
  facet normal 0.980784 -0.195096 0
    outer loop
       vertex 0.550539 -0.064705 0
       vertex 0.556919 -0.0326315 0
       vertex 0.556919 -0.0326315 0.1
    endloop
  endfacet
  facet normal 0.980784 -0.195096 0
    outer loop
       vertex 0.556919 -0.0326315 0.1
       vertex 0.550539 -0.064705 0.1
       vertex 0.550539 -0.064705 0
    endloop
  endfacet
  facet normal 0.997858 -0.0654098 0
    outer loop
       vertex 0.559058 -8.32665e-17 0.1
       vertex 0.556919 -0.0326315 0.1
       vertex 0.556919 -0.0326315 0
    endloop
  endfacet
  facet normal 0.997858 -0.0654098 -1.08928e-16
    outer loop
       vertex 0.556919 -0.0326315 0
       vertex 0.559058 8.32665e-17 0
       vertex 0.559058 -8.32665e-17 0.1
    endloop
  endfacet
  facet normal 0.997858 0.0654098 0
    outer loop
       vertex 0.559058 8.32665e-17 0
       vertex 0.556919 0.0326315 0
       vertex 0.556919 0.0326315 0.1
    endloop
  endfacet
  facet normal 0.997858 0.0654098 1.08928e-16
    outer loop
       vertex 0.556919 0.0326315 0.1
       vertex 0.559058 -8.32665e-17 0.1
       vertex 0.559058 8.32665e-17 0
    endloop
  endfacet
  facet normal 0.980784 0.195096 0
    outer loop
       vertex 0.556919 0.0326315 0
       vertex 0.550539 0.064705 0
       vertex 0.550539 0.064705 0.1
    endloop
  endfacet
  facet normal 0.980784 0.195096 0
    outer loop
       vertex 0.550539 0.064705 0.1
       vertex 0.556919 0.0326315 0.1
       vertex 0.556919 0.0326315 0
    endloop
  endfacet
  facet normal 0.946935 0.321425 0
    outer loop
       vertex 0.550539 0.064705 0
       vertex 0.540028 0.095671 0
       vertex 0.540028 0.095671 0.1
    endloop
  endfacet
  facet normal 0.946935 0.321425 0
    outer loop
       vertex 0.540028 0.095671 0.1
       vertex 0.550539 0.064705 0.1
       vertex 0.550539 0.064705 0
    endloop
  endfacet
  facet normal 0.896866 0.442302 0
    outer loop
       vertex 0.540028 0.095671 0
       vertex 0.525564 0.125 0
       vertex 0.525564 0.125 0.1
    endloop
  endfacet
  facet normal 0.896866 0.442302 0
    outer loop
       vertex 0.525564 0.125 0.1
       vertex 0.540028 0.095671 0.1
       vertex 0.540028 0.095671 0
    endloop
  endfacet
  facet normal 0.831476 0.555561 0
    outer loop
       vertex 0.525564 0.125 0
       vertex 0.507396 0.152191 0
       vertex 0.507396 0.152191 0.1
    endloop
  endfacet
  facet normal 0.831476 0.555561 0
    outer loop
       vertex 0.507396 0.152191 0.1
       vertex 0.525564 0.125 0.1
       vertex 0.525564 0.125 0
    endloop
  endfacet
  facet normal 0.751817 0.659372 0
    outer loop
       vertex 0.507396 0.152191 0
       vertex 0.485834 0.176776 0
       vertex 0.485834 0.176776 0.1
    endloop
  endfacet
  facet normal 0.751817 0.659372 0
    outer loop
       vertex 0.485834 0.176776 0.1
       vertex 0.507396 0.152191 0.1
       vertex 0.507396 0.152191 0
    endloop
  endfacet
  facet normal 0.659372 0.751817 0
    outer loop
       vertex 0.485834 0.176776 0
       vertex 0.461249 0.198338 0
       vertex 0.461249 0.198338 0.1
    endloop
  endfacet
  facet normal 0.659372 0.751817 0
    outer loop
       vertex 0.461249 0.198338 0.1
       vertex 0.485834 0.176776 0.1
       vertex 0.485834 0.176776 0
    endloop
  endfacet
  facet normal 0.555561 0.831476 0
    outer loop
       vertex 0.461249 0.198338 0
       vertex 0.434058 0.216506 0
       vertex 0.434058 0.216506 0.1
    endloop
  endfacet
  facet normal 0.555561 0.831476 0
    outer loop
       vertex 0.434058 0.216506 0.1
       vertex 0.461249 0.198338 0.1
       vertex 0.461249 0.198338 0
    endloop
  endfacet
  facet normal 0.442302 0.896866 0
    outer loop
       vertex 0.434058 0.216506 0
       vertex 0.404729 0.23097 0
       vertex 0.404729 0.23097 0.1
    endloop
  endfacet
  facet normal 0.442302 0.896866 0
    outer loop
       vertex 0.404729 0.23097 0.1
       vertex 0.434058 0.216506 0.1
       vertex 0.434058 0.216506 0
    endloop
  endfacet
  facet normal 0.321425 0.946935 0
    outer loop
       vertex 0.404729 0.23097 0
       vertex 0.373763 0.241481 0
       vertex 0.373763 0.241481 0.1
    endloop
  endfacet
  facet normal 0.321425 0.946935 0
    outer loop
       vertex 0.373763 0.241481 0.1
       vertex 0.404729 0.23097 0.1
       vertex 0.404729 0.23097 0
    endloop
  endfacet
  facet normal 0.195096 0.980784 0
    outer loop
       vertex 0.373763 0.241481 0
       vertex 0.341689 0.247861 0
       vertex 0.341689 0.247861 0.1
    endloop
  endfacet
  facet normal 0.195096 0.980784 0
    outer loop
       vertex 0.341689 0.247861 0.1
       vertex 0.373763 0.241481 0.1
       vertex 0.373763 0.241481 0
    endloop
  endfacet
  facet normal 0.0654098 0.997858 0
    outer loop
       vertex 0.309058 0.25 0.1
       vertex 0.341689 0.247861 0.1
       vertex 0.341689 0.247861 0
    endloop
  endfacet
  facet normal 0.0654098 0.997858 -1.45239e-16
    outer loop
       vertex 0.341689 0.247861 0
       vertex 0.309058 0.25 0
       vertex 0.309058 0.25 0.1
    endloop
  endfacet
  facet normal -0.0654098 0.997858 0
    outer loop
       vertex 0.309058 0.25 0
       vertex 0.276426 0.247861 0
       vertex 0.276426 0.247861 0.1
    endloop
  endfacet
  facet normal -0.0654098 0.997858 1.45239e-16
    outer loop
       vertex 0.276426 0.247861 0.1
       vertex 0.309058 0.25 0.1
       vertex 0.309058 0.25 0
    endloop
  endfacet
  facet normal -0.195096 0.980784 0
    outer loop
       vertex 0.276426 0.247861 0
       vertex 0.244353 0.241481 0
       vertex 0.244353 0.241481 0.1
    endloop
  endfacet
  facet normal -0.195096 0.980784 0
    outer loop
       vertex 0.244353 0.241481 0.1
       vertex 0.276426 0.247861 0.1
       vertex 0.276426 0.247861 0
    endloop
  endfacet
  facet normal -0.321425 0.946935 0
    outer loop
       vertex 0.244353 0.241481 0
       vertex 0.213387 0.23097 0
       vertex 0.213387 0.23097 0.1
    endloop
  endfacet
  facet normal -0.321425 0.946935 0
    outer loop
       vertex 0.213387 0.23097 0.1
       vertex 0.244353 0.241481 0.1
       vertex 0.244353 0.241481 0
    endloop
  endfacet
  facet normal -0.442302 0.896866 0
    outer loop
       vertex 0.213387 0.23097 0
       vertex 0.184058 0.216506 0
       vertex 0.184058 0.216506 0.1
    endloop
  endfacet
  facet normal -0.442302 0.896866 0
    outer loop
       vertex 0.184058 0.216506 0.1
       vertex 0.213387 0.23097 0.1
       vertex 0.213387 0.23097 0
    endloop
  endfacet
  facet normal -0.555561 0.831476 0
    outer loop
       vertex 0.184058 0.216506 0
       vertex 0.156867 0.198338 0
       vertex 0.156867 0.198338 0.1
    endloop
  endfacet
  facet normal -0.555561 0.831476 0
    outer loop
       vertex 0.156867 0.198338 0.1
       vertex 0.184058 0.216506 0.1
       vertex 0.184058 0.216506 0
    endloop
  endfacet
  facet normal -0.659372 0.751817 0
    outer loop
       vertex 0.156867 0.198338 0
       vertex 0.132282 0.176776 0
       vertex 0.132282 0.176776 0.1
    endloop
  endfacet
  facet normal -0.659372 0.751817 0
    outer loop
       vertex 0.132282 0.176776 0.1
       vertex 0.156867 0.198338 0.1
       vertex 0.156867 0.198338 0
    endloop
  endfacet
  facet normal -0.751817 0.659372 0
    outer loop
       vertex 0.132282 0.176776 0
       vertex 0.11072 0.152191 0
       vertex 0.11072 0.152191 0.1
    endloop
  endfacet
  facet normal -0.751817 0.659372 0
    outer loop
       vertex 0.11072 0.152191 0.1
       vertex 0.132282 0.176776 0.1
       vertex 0.132282 0.176776 0
    endloop
  endfacet
  facet normal -0.831476 0.555561 0
    outer loop
       vertex 0.11072 0.152191 0
       vertex 0.0925517 0.125 0
       vertex 0.0925517 0.125 0.1
    endloop
  endfacet
  facet normal -0.831476 0.555561 0
    outer loop
       vertex 0.0925517 0.125 0.1
       vertex 0.11072 0.152191 0.1
       vertex 0.11072 0.152191 0
    endloop
  endfacet
  facet normal -0.896866 0.442302 0
    outer loop
       vertex 0.0925517 0.125 0
       vertex 0.0780877 0.095671 0
       vertex 0.0780877 0.095671 0.1
    endloop
  endfacet
  facet normal -0.896866 0.442302 0
    outer loop
       vertex 0.0780877 0.095671 0.1
       vertex 0.0925517 0.125 0.1
       vertex 0.0925517 0.125 0
    endloop
  endfacet
  facet normal -0.946935 0.321425 0
    outer loop
       vertex 0.0780877 0.095671 0
       vertex 0.0675767 0.064705 0
       vertex 0.0675767 0.064705 0.1
    endloop
  endfacet
  facet normal -0.946935 0.321425 0
    outer loop
       vertex 0.0675767 0.064705 0.1
       vertex 0.0780877 0.095671 0.1
       vertex 0.0780877 0.095671 0
    endloop
  endfacet
  facet normal -0.980784 0.195096 0
    outer loop
       vertex 0.0675767 0.064705 0
       vertex 0.0611967 0.0326315 0
       vertex 0.0611967 0.0326315 0.1
    endloop
  endfacet
  facet normal -0.980784 0.195096 0
    outer loop
       vertex 0.0611967 0.0326315 0.1
       vertex 0.0675767 0.064705 0.1
       vertex 0.0675767 0.064705 0
    endloop
  endfacet
  facet normal -0.997858 0.0654098 0
    outer loop
       vertex 0.0590577 8.32665e-17 0.1
       vertex 0.0611967 0.0326315 0.1
       vertex 0.0611967 0.0326315 0
    endloop
  endfacet
  facet normal -0.997858 0.0654098 -1.08928e-16
    outer loop
       vertex 0.0611967 0.0326315 0
       vertex 0.0590577 -8.32665e-17 0
       vertex 0.0590577 8.32665e-17 0.1
    endloop
  endfacet
  facet normal -0.997858 -0.0654098 0
    outer loop
       vertex 0.0590577 -8.32665e-17 0
       vertex 0.0611967 -0.0326315 0
       vertex 0.0611967 -0.0326315 0.1
    endloop
  endfacet
  facet normal -0.997858 -0.0654098 1.08928e-16
    outer loop
       vertex 0.0611967 -0.0326315 0.1
       vertex 0.0590577 8.32665e-17 0.1
       vertex 0.0590577 -8.32665e-17 0
    endloop
  endfacet
  facet normal -0.980784 -0.195096 0
    outer loop
       vertex 0.0611967 -0.0326315 0
       vertex 0.0675767 -0.064705 0
       vertex 0.0675767 -0.064705 0.1
    endloop
  endfacet
  facet normal -0.980784 -0.195096 0
    outer loop
       vertex 0.0675767 -0.064705 0.1
       vertex 0.0611967 -0.0326315 0.1
       vertex 0.0611967 -0.0326315 0
    endloop
  endfacet
  facet normal -0.946935 -0.321425 0
    outer loop
       vertex 0.0675767 -0.064705 0
       vertex 0.0780877 -0.095671 0
       vertex 0.0780877 -0.095671 0.1
    endloop
  endfacet
  facet normal -0.946935 -0.321425 0
    outer loop
       vertex 0.0780877 -0.095671 0.1
       vertex 0.0675767 -0.064705 0.1
       vertex 0.0675767 -0.064705 0
    endloop
  endfacet
  facet normal -0.896866 -0.442302 0
    outer loop
       vertex 0.0780877 -0.095671 0
       vertex 0.0925517 -0.125 0
       vertex 0.0925517 -0.125 0.1
    endloop
  endfacet
  facet normal -0.896866 -0.442302 0
    outer loop
       vertex 0.0925517 -0.125 0.1
       vertex 0.0780877 -0.095671 0.1
       vertex 0.0780877 -0.095671 0
    endloop
  endfacet
  facet normal -0.831476 -0.555561 0
    outer loop
       vertex 0.0925517 -0.125 0
       vertex 0.11072 -0.152191 0
       vertex 0.11072 -0.152191 0.1
    endloop
  endfacet
  facet normal -0.831476 -0.555561 0
    outer loop
       vertex 0.11072 -0.152191 0.1
       vertex 0.0925517 -0.125 0.1
       vertex 0.0925517 -0.125 0
    endloop
  endfacet
  facet normal -0.751817 -0.659372 0
    outer loop
       vertex 0.11072 -0.152191 0
       vertex 0.132282 -0.176776 0
       vertex 0.132282 -0.176776 0.1
    endloop
  endfacet
  facet normal -0.751817 -0.659372 0
    outer loop
       vertex 0.132282 -0.176776 0.1
       vertex 0.11072 -0.152191 0.1
       vertex 0.11072 -0.152191 0
    endloop
  endfacet
  facet normal 0.659372 -0.751817 0
    outer loop
       vertex 0.485834 -0.176776 0
       vertex 0.485834 -0.176776 0.1
       vertex 0.461249 -0.198338 0.1
    endloop
  endfacet
  facet normal 0.659372 -0.751817 0
    outer loop
       vertex 0.461249 -0.198338 0.1
       vertex 0.461249 -0.198338 0
       vertex 0.485834 -0.176776 0
    endloop
  endfacet
  facet normal 0.555561 -0.831476 0
    outer loop
       vertex 0.461249 -0.198338 0
       vertex 0.461249 -0.198338 0.1
       vertex 0.434058 -0.216506 0.1
    endloop
  endfacet
  facet normal 0.555561 -0.831476 0
    outer loop
       vertex 0.434058 -0.216506 0.1
       vertex 0.434058 -0.216506 0
       vertex 0.461249 -0.198338 0
    endloop
  endfacet
  facet normal 0.442302 -0.896866 0
    outer loop
       vertex 0.434058 -0.216506 0
       vertex 0.434058 -0.216506 0.1
       vertex 0.404729 -0.23097 0.1
    endloop
  endfacet
  facet normal 0.442302 -0.896866 0
    outer loop
       vertex 0.404729 -0.23097 0.1
       vertex 0.404729 -0.23097 0
       vertex 0.434058 -0.216506 0
    endloop
  endfacet
  facet normal 0.321425 -0.946935 0
    outer loop
       vertex 0.404729 -0.23097 0
       vertex 0.404729 -0.23097 0.1
       vertex 0.373763 -0.241481 0.1
    endloop
  endfacet
  facet normal 0.321425 -0.946935 0
    outer loop
       vertex 0.373763 -0.241481 0.1
       vertex 0.373763 -0.241481 0
       vertex 0.404729 -0.23097 0
    endloop
  endfacet
  facet normal 0.195096 -0.980784 0
    outer loop
       vertex 0.373763 -0.241481 0
       vertex 0.373763 -0.241481 0.1
       vertex 0.341689 -0.247861 0.1
    endloop
  endfacet
  facet normal 0.195096 -0.980784 0
    outer loop
       vertex 0.341689 -0.247861 0.1
       vertex 0.341689 -0.247861 0
       vertex 0.373763 -0.241481 0
    endloop
  endfacet
  facet normal 0.0654098 -0.997858 0
    outer loop
       vertex 0.309058 -0.25 0
       vertex 0.341689 -0.247861 0
       vertex 0.341689 -0.247861 0.1
    endloop
  endfacet
  facet normal 0.0654098 -0.997858 1.45239e-16
    outer loop
       vertex 0.341689 -0.247861 0.1
       vertex 0.309058 -0.25 0.1
       vertex 0.309058 -0.25 0
    endloop
  endfacet
  facet normal -0.0654098 -0.997858 0
    outer loop
       vertex 0.309058 -0.25 0.1
       vertex 0.276426 -0.247861 0.1
       vertex 0.276426 -0.247861 0
    endloop
  endfacet
  facet normal -0.0654098 -0.997858 -1.45239e-16
    outer loop
       vertex 0.276426 -0.247861 0
       vertex 0.309058 -0.25 0
       vertex 0.309058 -0.25 0.1
    endloop
  endfacet
  facet normal -0.195096 -0.980784 0
    outer loop
       vertex 0.276426 -0.247861 0
       vertex 0.276426 -0.247861 0.1
       vertex 0.244353 -0.241481 0.1
    endloop
  endfacet
  facet normal -0.195096 -0.980784 -0
    outer loop
       vertex 0.244353 -0.241481 0.1
       vertex 0.244353 -0.241481 0
       vertex 0.276426 -0.247861 0
    endloop
  endfacet
  facet normal -0.321425 -0.946935 0
    outer loop
       vertex 0.244353 -0.241481 0
       vertex 0.244353 -0.241481 0.1
       vertex 0.213387 -0.23097 0.1
    endloop
  endfacet
  facet normal -0.321425 -0.946935 -0
    outer loop
       vertex 0.213387 -0.23097 0.1
       vertex 0.213387 -0.23097 0
       vertex 0.244353 -0.241481 0
    endloop
  endfacet
  facet normal -0.442302 -0.896866 0
    outer loop
       vertex 0.213387 -0.23097 0
       vertex 0.213387 -0.23097 0.1
       vertex 0.184058 -0.216506 0.1
    endloop
  endfacet
  facet normal -0.442302 -0.896866 -0
    outer loop
       vertex 0.184058 -0.216506 0.1
       vertex 0.184058 -0.216506 0
       vertex 0.213387 -0.23097 0
    endloop
  endfacet
  facet normal -0.555561 -0.831476 0
    outer loop
       vertex 0.184058 -0.216506 0
       vertex 0.184058 -0.216506 0.1
       vertex 0.156867 -0.198338 0.1
    endloop
  endfacet
  facet normal -0.555561 -0.831476 -0
    outer loop
       vertex 0.156867 -0.198338 0.1
       vertex 0.156867 -0.198338 0
       vertex 0.184058 -0.216506 0
    endloop
  endfacet
  facet normal -0.659372 -0.751817 0
    outer loop
       vertex 0.156867 -0.198338 0
       vertex 0.156867 -0.198338 0.1
       vertex 0.132282 -0.176776 0.1
    endloop
  endfacet
  facet normal -0.659372 -0.751817 -0
    outer loop
       vertex 0.132282 -0.176776 0.1
       vertex 0.132282 -0.176776 0
       vertex 0.156867 -0.198338 0
    endloop
  endfacet
endsolid cylinder
