solid cylinder
  facet normal 0.751817 -0.659372 0
    outer loop
       vertex 0.00969869 -0.176776 0
       vertex 0.0312607 -0.152191 0
       vertex 0.0312607 -0.152191 0.1
    endloop
  endfacet
  facet normal 0.751817 -0.659372 0
    outer loop
       vertex 0.0312607 -0.152191 0.1
       vertex 0.00969869 -0.176776 0.1
       vertex 0.00969869 -0.176776 0
    endloop
  endfacet
  facet normal 0.831476 -0.555561 0
    outer loop
       vertex 0.0312607 -0.152191 0
       vertex 0.0494287 -0.125 0
       vertex 0.0494287 -0.125 0.1
    endloop
  endfacet
  facet normal 0.831476 -0.555561 0
    outer loop
       vertex 0.0494287 -0.125 0.1
       vertex 0.0312607 -0.152191 0.1
       vertex 0.0312607 -0.152191 0
    endloop
  endfacet
  facet normal 0.896866 -0.442302 0
    outer loop
       vertex 0.0494287 -0.125 0
       vertex 0.0638927 -0.095671 0
       vertex 0.0638927 -0.095671 0.1
    endloop
  endfacet
  facet normal 0.896866 -0.442302 0
    outer loop
       vertex 0.0638927 -0.095671 0.1
       vertex 0.0494287 -0.125 0.1
       vertex 0.0494287 -0.125 0
    endloop
  endfacet
  facet normal 0.946935 -0.321425 0
    outer loop
       vertex 0.0638927 -0.095671 0
       vertex 0.0744037 -0.064705 0
       vertex 0.0744037 -0.064705 0.1
    endloop
  endfacet
  facet normal 0.946935 -0.321425 0
    outer loop
       vertex 0.0744037 -0.064705 0.1
       vertex 0.0638927 -0.095671 0.1
       vertex 0.0638927 -0.095671 0
    endloop
  endfacet
  facet normal 0.980784 -0.195096 0
    outer loop
       vertex 0.0744037 -0.064705 0
       vertex 0.0807837 -0.0326315 0
       vertex 0.0807837 -0.0326315 0.1
    endloop
  endfacet
  facet normal 0.980784 -0.195096 0
    outer loop
       vertex 0.0807837 -0.0326315 0.1
       vertex 0.0744037 -0.064705 0.1
       vertex 0.0744037 -0.064705 0
    endloop
  endfacet
  facet normal 0.997858 -0.0654098 0
    outer loop
       vertex 0.0829227 -8.32665e-17 0.1
       vertex 0.0807837 -0.0326315 0.1
       vertex 0.0807837 -0.0326315 0
    endloop
  endfacet
  facet normal 0.997858 -0.0654098 -1.08928e-16
    outer loop
       vertex 0.0807837 -0.0326315 0
       vertex 0.0829227 8.32665e-17 0
       vertex 0.0829227 -8.32665e-17 0.1
    endloop
  endfacet
  facet normal 0.997858 0.0654098 0
    outer loop
       vertex 0.0829227 8.32665e-17 0
       vertex 0.0807837 0.0326315 0
       vertex 0.0807837 0.0326315 0.1
    endloop
  endfacet
  facet normal 0.997858 0.0654098 1.08928e-16
    outer loop
       vertex 0.0807837 0.0326315 0.1
       vertex 0.0829227 -8.32665e-17 0.1
       vertex 0.0829227 8.32665e-17 0
    endloop
  endfacet
  facet normal 0.980784 0.195096 0
    outer loop
       vertex 0.0807837 0.0326315 0
       vertex 0.0744037 0.064705 0
       vertex 0.0744037 0.064705 0.1
    endloop
  endfacet
  facet normal 0.980784 0.195096 0
    outer loop
       vertex 0.0744037 0.064705 0.1
       vertex 0.0807837 0.0326315 0.1
       vertex 0.0807837 0.0326315 0
    endloop
  endfacet
  facet normal 0.946935 0.321425 0
    outer loop
       vertex 0.0744037 0.064705 0
       vertex 0.0638927 0.095671 0
       vertex 0.0638927 0.095671 0.1
    endloop
  endfacet
  facet normal 0.946935 0.321425 0
    outer loop
       vertex 0.0638927 0.095671 0.1
       vertex 0.0744037 0.064705 0.1
       vertex 0.0744037 0.064705 0
    endloop
  endfacet
  facet normal 0.896866 0.442302 0
    outer loop
       vertex 0.0638927 0.095671 0
       vertex 0.0494287 0.125 0
       vertex 0.0494287 0.125 0.1
    endloop
  endfacet
  facet normal 0.896866 0.442302 0
    outer loop
       vertex 0.0494287 0.125 0.1
       vertex 0.0638927 0.095671 0.1
       vertex 0.0638927 0.095671 0
    endloop
  endfacet
  facet normal 0.831476 0.555561 0
    outer loop
       vertex 0.0494287 0.125 0
       vertex 0.0312607 0.152191 0
       vertex 0.0312607 0.152191 0.1
    endloop
  endfacet
  facet normal 0.831476 0.555561 0
    outer loop
       vertex 0.0312607 0.152191 0.1
       vertex 0.0494287 0.125 0.1
       vertex 0.0494287 0.125 0
    endloop
  endfacet
  facet normal 0.751817 0.659372 0
    outer loop
       vertex 0.0312607 0.152191 0
       vertex 0.00969869 0.176776 0
       vertex 0.00969869 0.176776 0.1
    endloop
  endfacet
  facet normal 0.751817 0.659372 0
    outer loop
       vertex 0.00969869 0.176776 0.1
       vertex 0.0312607 0.152191 0.1
       vertex 0.0312607 0.152191 0
    endloop
  endfacet
  facet normal 0.659372 0.751817 0
    outer loop
       vertex 0.00969869 0.176776 0
       vertex -0.0148863 0.198338 0
       vertex -0.0148863 0.198338 0.1
    endloop
  endfacet
  facet normal 0.659372 0.751817 0
    outer loop
       vertex -0.0148863 0.198338 0.1
       vertex 0.00969869 0.176776 0.1
       vertex 0.00969869 0.176776 0
    endloop
  endfacet
  facet normal 0.555561 0.831476 0
    outer loop
       vertex -0.0148863 0.198338 0
       vertex -0.0420773 0.216506 0
       vertex -0.0420773 0.216506 0.1
    endloop
  endfacet
  facet normal 0.555561 0.831476 0
    outer loop
       vertex -0.0420773 0.216506 0.1
       vertex -0.0148863 0.198338 0.1
       vertex -0.0148863 0.198338 0
    endloop
  endfacet
  facet normal 0.442302 0.896866 0
    outer loop
       vertex -0.0420773 0.216506 0
       vertex -0.0714063 0.23097 0
       vertex -0.0714063 0.23097 0.1
    endloop
  endfacet
  facet normal 0.442302 0.896866 0
    outer loop
       vertex -0.0714063 0.23097 0.1
       vertex -0.0420773 0.216506 0.1
       vertex -0.0420773 0.216506 0
    endloop
  endfacet
  facet normal 0.321425 0.946935 0
    outer loop
       vertex -0.0714063 0.23097 0
       vertex -0.102372 0.241481 0
       vertex -0.102372 0.241481 0.1
    endloop
  endfacet
  facet normal 0.321425 0.946935 0
    outer loop
       vertex -0.102372 0.241481 0.1
       vertex -0.0714063 0.23097 0.1
       vertex -0.0714063 0.23097 0
    endloop
  endfacet
  facet normal 0.195096 0.980784 0
    outer loop
       vertex -0.102372 0.241481 0
       vertex -0.134446 0.247861 0
       vertex -0.134446 0.247861 0.1
    endloop
  endfacet
  facet normal 0.195096 0.980784 0
    outer loop
       vertex -0.134446 0.247861 0.1
       vertex -0.102372 0.241481 0.1
       vertex -0.102372 0.241481 0
    endloop
  endfacet
  facet normal 0.0654098 0.997858 0
    outer loop
       vertex -0.167077 0.25 0.1
       vertex -0.134446 0.247861 0.1
       vertex -0.134446 0.247861 0
    endloop
  endfacet
  facet normal 0.0654098 0.997858 -1.0893e-16
    outer loop
       vertex -0.134446 0.247861 0
       vertex -0.167077 0.25 0
       vertex -0.167077 0.25 0.1
    endloop
  endfacet
  facet normal -0.0654098 0.997858 0
    outer loop
       vertex -0.167077 0.25 0
       vertex -0.199709 0.247861 0
       vertex -0.199709 0.247861 0.1
    endloop
  endfacet
  facet normal -0.0654098 0.997858 1.0893e-16
    outer loop
       vertex -0.199709 0.247861 0.1
       vertex -0.167077 0.25 0.1
       vertex -0.167077 0.25 0
    endloop
  endfacet
  facet normal -0.195096 0.980784 0
    outer loop
       vertex -0.199709 0.247861 0
       vertex -0.231782 0.241481 0
       vertex -0.231782 0.241481 0.1
    endloop
  endfacet
  facet normal -0.195096 0.980784 0
    outer loop
       vertex -0.231782 0.241481 0.1
       vertex -0.199709 0.247861 0.1
       vertex -0.199709 0.247861 0
    endloop
  endfacet
  facet normal -0.321425 0.946935 0
    outer loop
       vertex -0.231782 0.241481 0
       vertex -0.262748 0.23097 0
       vertex -0.262748 0.23097 0.1
    endloop
  endfacet
  facet normal -0.321425 0.946935 0
    outer loop
       vertex -0.262748 0.23097 0.1
       vertex -0.231782 0.241481 0.1
       vertex -0.231782 0.241481 0
    endloop
  endfacet
  facet normal -0.442302 0.896866 0
    outer loop
       vertex -0.262748 0.23097 0
       vertex -0.292077 0.216506 0
       vertex -0.292077 0.216506 0.1
    endloop
  endfacet
  facet normal -0.442302 0.896866 0
    outer loop
       vertex -0.292077 0.216506 0.1
       vertex -0.262748 0.23097 0.1
       vertex -0.262748 0.23097 0
    endloop
  endfacet
  facet normal -0.555561 0.831476 0
    outer loop
       vertex -0.292077 0.216506 0
       vertex -0.319268 0.198338 0
       vertex -0.319268 0.198338 0.1
    endloop
  endfacet
  facet normal -0.555561 0.831476 0
    outer loop
       vertex -0.319268 0.198338 0.1
       vertex -0.292077 0.216506 0.1
       vertex -0.292077 0.216506 0
    endloop
  endfacet
  facet normal -0.659372 0.751817 0
    outer loop
       vertex -0.319268 0.198338 0
       vertex -0.343853 0.176776 0
       vertex -0.343853 0.176776 0.1
    endloop
  endfacet
  facet normal -0.659372 0.751817 0
    outer loop
       vertex -0.343853 0.176776 0.1
       vertex -0.319268 0.198338 0.1
       vertex -0.319268 0.198338 0
    endloop
  endfacet
  facet normal -0.751817 0.659372 0
    outer loop
       vertex -0.343853 0.176776 0
       vertex -0.365415 0.152191 0
       vertex -0.365415 0.152191 0.1
    endloop
  endfacet
  facet normal -0.751817 0.659372 0
    outer loop
       vertex -0.365415 0.152191 0.1
       vertex -0.343853 0.176776 0.1
       vertex -0.343853 0.176776 0
    endloop
  endfacet
  facet normal -0.831476 0.555561 0
    outer loop
       vertex -0.365415 0.152191 0
       vertex -0.383583 0.125 0
       vertex -0.383583 0.125 0.1
    endloop
  endfacet
  facet normal -0.831476 0.555561 0
    outer loop
       vertex -0.383583 0.125 0.1
       vertex -0.365415 0.152191 0.1
       vertex -0.365415 0.152191 0
    endloop
  endfacet
  facet normal -0.896866 0.442302 0
    outer loop
       vertex -0.383583 0.125 0
       vertex -0.398047 0.095671 0
       vertex -0.398047 0.095671 0.1
    endloop
  endfacet
  facet normal -0.896866 0.442302 0
    outer loop
       vertex -0.398047 0.095671 0.1
       vertex -0.383583 0.125 0.1
       vertex -0.383583 0.125 0
    endloop
  endfacet
  facet normal -0.946935 0.321425 0
    outer loop
       vertex -0.398047 0.095671 0
       vertex -0.408558 0.064705 0
       vertex -0.408558 0.064705 0.1
    endloop
  endfacet
  facet normal -0.946935 0.321425 0
    outer loop
       vertex -0.408558 0.064705 0.1
       vertex -0.398047 0.095671 0.1
       vertex -0.398047 0.095671 0
    endloop
  endfacet
  facet normal -0.980784 0.195096 0
    outer loop
       vertex -0.408558 0.064705 0
       vertex -0.414938 0.0326315 0
       vertex -0.414938 0.0326315 0.1
    endloop
  endfacet
  facet normal -0.980784 0.195096 0
    outer loop
       vertex -0.414938 0.0326315 0.1
       vertex -0.408558 0.064705 0.1
       vertex -0.408558 0.064705 0
    endloop
  endfacet
  facet normal -0.997858 0.0654098 0
    outer loop
       vertex -0.417077 8.32665e-17 0.1
       vertex -0.414938 0.0326315 0.1
       vertex -0.414938 0.0326315 0
    endloop
  endfacet
  facet normal -0.997858 0.0654098 -1.08928e-16
    outer loop
       vertex -0.414938 0.0326315 0
       vertex -0.417077 -8.32665e-17 0
       vertex -0.417077 8.32665e-17 0.1
    endloop
  endfacet
  facet normal -0.997858 -0.0654098 0
    outer loop
       vertex -0.417077 -8.32665e-17 0
       vertex -0.414938 -0.0326315 0
       vertex -0.414938 -0.0326315 0.1
    endloop
  endfacet
  facet normal -0.997858 -0.0654098 1.08928e-16
    outer loop
       vertex -0.414938 -0.0326315 0.1
       vertex -0.417077 8.32665e-17 0.1
       vertex -0.417077 -8.32665e-17 0
    endloop
  endfacet
  facet normal -0.980784 -0.195096 0
    outer loop
       vertex -0.414938 -0.0326315 0
       vertex -0.408558 -0.064705 0
       vertex -0.408558 -0.064705 0.1
    endloop
  endfacet
  facet normal -0.980784 -0.195096 0
    outer loop
       vertex -0.408558 -0.064705 0.1
       vertex -0.414938 -0.0326315 0.1
       vertex -0.414938 -0.0326315 0
    endloop
  endfacet
  facet normal -0.946935 -0.321425 0
    outer loop
       vertex -0.408558 -0.064705 0
       vertex -0.398047 -0.095671 0
       vertex -0.398047 -0.095671 0.1
    endloop
  endfacet
  facet normal -0.946935 -0.321425 0
    outer loop
       vertex -0.398047 -0.095671 0.1
       vertex -0.408558 -0.064705 0.1
       vertex -0.408558 -0.064705 0
    endloop
  endfacet
  facet normal -0.896866 -0.442302 0
    outer loop
       vertex -0.398047 -0.095671 0
       vertex -0.383583 -0.125 0
       vertex -0.383583 -0.125 0.1
    endloop
  endfacet
  facet normal -0.896866 -0.442302 0
    outer loop
       vertex -0.383583 -0.125 0.1
       vertex -0.398047 -0.095671 0.1
       vertex -0.398047 -0.095671 0
    endloop
  endfacet
  facet normal -0.831476 -0.555561 0
    outer loop
       vertex -0.383583 -0.125 0
       vertex -0.365415 -0.152191 0
       vertex -0.365415 -0.152191 0.1
    endloop
  endfacet
  facet normal -0.831476 -0.555561 0
    outer loop
       vertex -0.365415 -0.152191 0.1
       vertex -0.383583 -0.125 0.1
       vertex -0.383583 -0.125 0
    endloop
  endfacet
  facet normal -0.751817 -0.659372 0
    outer loop
       vertex -0.365415 -0.152191 0
       vertex -0.343853 -0.176776 0
       vertex -0.343853 -0.176776 0.1
    endloop
  endfacet
  facet normal -0.751817 -0.659372 0
    outer loop
       vertex -0.343853 -0.176776 0.1
       vertex -0.365415 -0.152191 0.1
       vertex -0.365415 -0.152191 0
    endloop
  endfacet
  facet normal 0.659372 -0.751817 0
    outer loop
       vertex 0.00969869 -0.176776 0
       vertex 0.00969869 -0.176776 0.1
       vertex -0.0148863 -0.198338 0.1
    endloop
  endfacet
  facet normal 0.659372 -0.751817 0
    outer loop
       vertex -0.0148863 -0.198338 0.1
       vertex -0.0148863 -0.198338 0
       vertex 0.00969869 -0.176776 0
    endloop
  endfacet
  facet normal 0.555561 -0.831476 0
    outer loop
       vertex -0.0148863 -0.198338 0
       vertex -0.0148863 -0.198338 0.1
       vertex -0.0420773 -0.216506 0.1
    endloop
  endfacet
  facet normal 0.555561 -0.831476 0
    outer loop
       vertex -0.0420773 -0.216506 0.1
       vertex -0.0420773 -0.216506 0
       vertex -0.0148863 -0.198338 0
    endloop
  endfacet
  facet normal 0.442302 -0.896866 0
    outer loop
       vertex -0.0420773 -0.216506 0
       vertex -0.0420773 -0.216506 0.1
       vertex -0.0714063 -0.23097 0.1
    endloop
  endfacet
  facet normal 0.442302 -0.896866 0
    outer loop
       vertex -0.0714063 -0.23097 0.1
       vertex -0.0714063 -0.23097 0
       vertex -0.0420773 -0.216506 0
    endloop
  endfacet
  facet normal 0.321425 -0.946935 0
    outer loop
       vertex -0.0714063 -0.23097 0
       vertex -0.0714063 -0.23097 0.1
       vertex -0.102372 -0.241481 0.1
    endloop
  endfacet
  facet normal 0.321425 -0.946935 0
    outer loop
       vertex -0.102372 -0.241481 0.1
       vertex -0.102372 -0.241481 0
       vertex -0.0714063 -0.23097 0
    endloop
  endfacet
  facet normal 0.195096 -0.980784 0
    outer loop
       vertex -0.102372 -0.241481 0
       vertex -0.102372 -0.241481 0.1
       vertex -0.134446 -0.247861 0.1
    endloop
  endfacet
  facet normal 0.195096 -0.980784 0
    outer loop
       vertex -0.134446 -0.247861 0.1
       vertex -0.134446 -0.247861 0
       vertex -0.102372 -0.241481 0
    endloop
  endfacet
  facet normal 0.0654098 -0.997858 0
    outer loop
       vertex -0.167077 -0.25 0
       vertex -0.134446 -0.247861 0
       vertex -0.134446 -0.247861 0.1
    endloop
  endfacet
  facet normal 0.0654098 -0.997858 1.0893e-16
    outer loop
       vertex -0.134446 -0.247861 0.1
       vertex -0.167077 -0.25 0.1
       vertex -0.167077 -0.25 0
    endloop
  endfacet
  facet normal -0.0654098 -0.997858 0
    outer loop
       vertex -0.167077 -0.25 0.1
       vertex -0.199709 -0.247861 0.1
       vertex -0.199709 -0.247861 0
    endloop
  endfacet
  facet normal -0.0654098 -0.997858 -1.0893e-16
    outer loop
       vertex -0.199709 -0.247861 0
       vertex -0.167077 -0.25 0
       vertex -0.167077 -0.25 0.1
    endloop
  endfacet
  facet normal -0.195096 -0.980784 0
    outer loop
       vertex -0.199709 -0.247861 0
       vertex -0.199709 -0.247861 0.1
       vertex -0.231782 -0.241481 0.1
    endloop
  endfacet
  facet normal -0.195096 -0.980784 -0
    outer loop
       vertex -0.231782 -0.241481 0.1
       vertex -0.231782 -0.241481 0
       vertex -0.199709 -0.247861 0
    endloop
  endfacet
  facet normal -0.321425 -0.946935 0
    outer loop
       vertex -0.231782 -0.241481 0
       vertex -0.231782 -0.241481 0.1
       vertex -0.262748 -0.23097 0.1
    endloop
  endfacet
  facet normal -0.321425 -0.946935 -0
    outer loop
       vertex -0.262748 -0.23097 0.1
       vertex -0.262748 -0.23097 0
       vertex -0.231782 -0.241481 0
    endloop
  endfacet
  facet normal -0.442302 -0.896866 0
    outer loop
       vertex -0.262748 -0.23097 0
       vertex -0.262748 -0.23097 0.1
       vertex -0.292077 -0.216506 0.1
    endloop
  endfacet
  facet normal -0.442302 -0.896866 -0
    outer loop
       vertex -0.292077 -0.216506 0.1
       vertex -0.292077 -0.216506 0
       vertex -0.262748 -0.23097 0
    endloop
  endfacet
  facet normal -0.555561 -0.831476 0
    outer loop
       vertex -0.292077 -0.216506 0
       vertex -0.292077 -0.216506 0.1
       vertex -0.319268 -0.198338 0.1
    endloop
  endfacet
  facet normal -0.555561 -0.831476 -0
    outer loop
       vertex -0.319268 -0.198338 0.1
       vertex -0.319268 -0.198338 0
       vertex -0.292077 -0.216506 0
    endloop
  endfacet
  facet normal -0.659372 -0.751817 0
    outer loop
       vertex -0.319268 -0.198338 0
       vertex -0.319268 -0.198338 0.1
       vertex -0.343853 -0.176776 0.1
    endloop
  endfacet
  facet normal -0.659372 -0.751817 -0
    outer loop
       vertex -0.343853 -0.176776 0.1
       vertex -0.343853 -0.176776 0
       vertex -0.319268 -0.198338 0
    endloop
  endfacet
endsolid cylinder
