solid cylinder
  facet normal 0.751817 -0.659372 0
    outer loop
       vertex 0.158675 -0.176776 0
       vertex 0.180237 -0.152191 0
       vertex 0.180237 -0.152191 0.1
    endloop
  endfacet
  facet normal 0.751817 -0.659372 0
    outer loop
       vertex 0.180237 -0.152191 0.1
       vertex 0.158675 -0.176776 0.1
       vertex 0.158675 -0.176776 0
    endloop
  endfacet
  facet normal 0.831476 -0.555561 0
    outer loop
       vertex 0.180237 -0.152191 0
       vertex 0.198405 -0.125 0
       vertex 0.198405 -0.125 0.1
    endloop
  endfacet
  facet normal 0.831476 -0.555561 0
    outer loop
       vertex 0.198405 -0.125 0.1
       vertex 0.180237 -0.152191 0.1
       vertex 0.180237 -0.152191 0
    endloop
  endfacet
  facet normal 0.896866 -0.442302 0
    outer loop
       vertex 0.198405 -0.125 0
       vertex 0.212869 -0.095671 0
       vertex 0.212869 -0.095671 0.1
    endloop
  endfacet
  facet normal 0.896866 -0.442302 0
    outer loop
       vertex 0.212869 -0.095671 0.1
       vertex 0.198405 -0.125 0.1
       vertex 0.198405 -0.125 0
    endloop
  endfacet
  facet normal 0.946935 -0.321425 0
    outer loop
       vertex 0.212869 -0.095671 0
       vertex 0.22338 -0.064705 0
       vertex 0.22338 -0.064705 0.1
    endloop
  endfacet
  facet normal 0.946935 -0.321425 0
    outer loop
       vertex 0.22338 -0.064705 0.1
       vertex 0.212869 -0.095671 0.1
       vertex 0.212869 -0.095671 0
    endloop
  endfacet
  facet normal 0.980784 -0.195096 0
    outer loop
       vertex 0.22338 -0.064705 0
       vertex 0.22976 -0.0326315 0
       vertex 0.22976 -0.0326315 0.1
    endloop
  endfacet
  facet normal 0.980784 -0.195096 0
    outer loop
       vertex 0.22976 -0.0326315 0.1
       vertex 0.22338 -0.064705 0.1
       vertex 0.22338 -0.064705 0
    endloop
  endfacet
  facet normal 0.997858 -0.0654098 0
    outer loop
       vertex 0.231899 -8.32665e-17 0.1
       vertex 0.22976 -0.0326315 0.1
       vertex 0.22976 -0.0326315 0
    endloop
  endfacet
  facet normal 0.997858 -0.0654098 -1.08928e-16
    outer loop
       vertex 0.22976 -0.0326315 0
       vertex 0.231899 8.32665e-17 0
       vertex 0.231899 -8.32665e-17 0.1
    endloop
  endfacet
  facet normal 0.997858 0.0654098 0
    outer loop
       vertex 0.231899 8.32665e-17 0
       vertex 0.22976 0.0326315 0
       vertex 0.22976 0.0326315 0.1
    endloop
  endfacet
  facet normal 0.997858 0.0654098 1.08928e-16
    outer loop
       vertex 0.22976 0.0326315 0.1
       vertex 0.231899 -8.32665e-17 0.1
       vertex 0.231899 8.32665e-17 0
    endloop
  endfacet
  facet normal 0.980784 0.195096 0
    outer loop
       vertex 0.22976 0.0326315 0
       vertex 0.22338 0.064705 0
       vertex 0.22338 0.064705 0.1
    endloop
  endfacet
  facet normal 0.980784 0.195096 0
    outer loop
       vertex 0.22338 0.064705 0.1
       vertex 0.22976 0.0326315 0.1
       vertex 0.22976 0.0326315 0
    endloop
  endfacet
  facet normal 0.946935 0.321425 0
    outer loop
       vertex 0.22338 0.064705 0
       vertex 0.212869 0.095671 0
       vertex 0.212869 0.095671 0.1
    endloop
  endfacet
  facet normal 0.946935 0.321425 0
    outer loop
       vertex 0.212869 0.095671 0.1
       vertex 0.22338 0.064705 0.1
       vertex 0.22338 0.064705 0
    endloop
  endfacet
  facet normal 0.896866 0.442302 0
    outer loop
       vertex 0.212869 0.095671 0
       vertex 0.198405 0.125 0
       vertex 0.198405 0.125 0.1
    endloop
  endfacet
  facet normal 0.896866 0.442302 0
    outer loop
       vertex 0.198405 0.125 0.1
       vertex 0.212869 0.095671 0.1
       vertex 0.212869 0.095671 0
    endloop
  endfacet
  facet normal 0.831476 0.555561 0
    outer loop
       vertex 0.198405 0.125 0
       vertex 0.180237 0.152191 0
       vertex 0.180237 0.152191 0.1
    endloop
  endfacet
  facet normal 0.831476 0.555561 0
    outer loop
       vertex 0.180237 0.152191 0.1
       vertex 0.198405 0.125 0.1
       vertex 0.198405 0.125 0
    endloop
  endfacet
  facet normal 0.751817 0.659372 0
    outer loop
       vertex 0.180237 0.152191 0
       vertex 0.158675 0.176776 0
       vertex 0.158675 0.176776 0.1
    endloop
  endfacet
  facet normal 0.751817 0.659372 0
    outer loop
       vertex 0.158675 0.176776 0.1
       vertex 0.180237 0.152191 0.1
       vertex 0.180237 0.152191 0
    endloop
  endfacet
  facet normal 0.659372 0.751817 0
    outer loop
       vertex 0.158675 0.176776 0
       vertex 0.13409 0.198338 0
       vertex 0.13409 0.198338 0.1
    endloop
  endfacet
  facet normal 0.659372 0.751817 0
    outer loop
       vertex 0.13409 0.198338 0.1
       vertex 0.158675 0.176776 0.1
       vertex 0.158675 0.176776 0
    endloop
  endfacet
  facet normal 0.555561 0.831476 0
    outer loop
       vertex 0.13409 0.198338 0
       vertex 0.106899 0.216506 0
       vertex 0.106899 0.216506 0.1
    endloop
  endfacet
  facet normal 0.555561 0.831476 0
    outer loop
       vertex 0.106899 0.216506 0.1
       vertex 0.13409 0.198338 0.1
       vertex 0.13409 0.198338 0
    endloop
  endfacet
  facet normal 0.442302 0.896866 0
    outer loop
       vertex 0.106899 0.216506 0
       vertex 0.07757 0.23097 0
       vertex 0.07757 0.23097 0.1
    endloop
  endfacet
  facet normal 0.442302 0.896866 0
    outer loop
       vertex 0.07757 0.23097 0.1
       vertex 0.106899 0.216506 0.1
       vertex 0.106899 0.216506 0
    endloop
  endfacet
  facet normal 0.321425 0.946935 0
    outer loop
       vertex 0.07757 0.23097 0
       vertex 0.046604 0.241481 0
       vertex 0.046604 0.241481 0.1
    endloop
  endfacet
  facet normal 0.321425 0.946935 0
    outer loop
       vertex 0.046604 0.241481 0.1
       vertex 0.07757 0.23097 0.1
       vertex 0.07757 0.23097 0
    endloop
  endfacet
  facet normal 0.195096 0.980784 0
    outer loop
       vertex 0.046604 0.241481 0
       vertex 0.0145305 0.247861 0
       vertex 0.0145305 0.247861 0.1
    endloop
  endfacet
  facet normal 0.195096 0.980784 0
    outer loop
       vertex 0.0145305 0.247861 0.1
       vertex 0.046604 0.241481 0.1
       vertex 0.046604 0.241481 0
    endloop
  endfacet
  facet normal 0.0654098 0.997858 0
    outer loop
       vertex -0.018101 0.25 0.1
       vertex 0.0145305 0.247861 0.1
       vertex 0.0145305 0.247861 0
    endloop
  endfacet
  facet normal 0.0654098 0.997858 -1.08928e-16
    outer loop
       vertex 0.0145305 0.247861 0
       vertex -0.018101 0.25 0
       vertex -0.018101 0.25 0.1
    endloop
  endfacet
  facet normal -0.0654098 0.997858 0
    outer loop
       vertex -0.018101 0.25 0
       vertex -0.0507325 0.247861 0
       vertex -0.0507325 0.247861 0.1
    endloop
  endfacet
  facet normal -0.0654098 0.997858 1.08928e-16
    outer loop
       vertex -0.0507325 0.247861 0.1
       vertex -0.018101 0.25 0.1
       vertex -0.018101 0.25 0
    endloop
  endfacet
  facet normal -0.195096 0.980784 0
    outer loop
       vertex -0.0507325 0.247861 0
       vertex -0.082806 0.241481 0
       vertex -0.082806 0.241481 0.1
    endloop
  endfacet
  facet normal -0.195096 0.980784 0
    outer loop
       vertex -0.082806 0.241481 0.1
       vertex -0.0507325 0.247861 0.1
       vertex -0.0507325 0.247861 0
    endloop
  endfacet
  facet normal -0.321425 0.946935 0
    outer loop
       vertex -0.082806 0.241481 0
       vertex -0.113772 0.23097 0
       vertex -0.113772 0.23097 0.1
    endloop
  endfacet
  facet normal -0.321425 0.946935 0
    outer loop
       vertex -0.113772 0.23097 0.1
       vertex -0.082806 0.241481 0.1
       vertex -0.082806 0.241481 0
    endloop
  endfacet
  facet normal -0.442302 0.896866 0
    outer loop
       vertex -0.113772 0.23097 0
       vertex -0.143101 0.216506 0
       vertex -0.143101 0.216506 0.1
    endloop
  endfacet
  facet normal -0.442302 0.896866 0
    outer loop
       vertex -0.143101 0.216506 0.1
       vertex -0.113772 0.23097 0.1
       vertex -0.113772 0.23097 0
    endloop
  endfacet
  facet normal -0.555561 0.831476 0
    outer loop
       vertex -0.143101 0.216506 0
       vertex -0.170292 0.198338 0
       vertex -0.170292 0.198338 0.1
    endloop
  endfacet
  facet normal -0.555561 0.831476 0
    outer loop
       vertex -0.170292 0.198338 0.1
       vertex -0.143101 0.216506 0.1
       vertex -0.143101 0.216506 0
    endloop
  endfacet
  facet normal -0.659372 0.751817 0
    outer loop
       vertex -0.170292 0.198338 0
       vertex -0.194877 0.176776 0
       vertex -0.194877 0.176776 0.1
    endloop
  endfacet
  facet normal -0.659372 0.751817 0
    outer loop
       vertex -0.194877 0.176776 0.1
       vertex -0.170292 0.198338 0.1
       vertex -0.170292 0.198338 0
    endloop
  endfacet
  facet normal -0.751817 0.659372 0
    outer loop
       vertex -0.194877 0.176776 0
       vertex -0.216439 0.152191 0
       vertex -0.216439 0.152191 0.1
    endloop
  endfacet
  facet normal -0.751817 0.659372 0
    outer loop
       vertex -0.216439 0.152191 0.1
       vertex -0.194877 0.176776 0.1
       vertex -0.194877 0.176776 0
    endloop
  endfacet
  facet normal -0.831476 0.555561 0
    outer loop
       vertex -0.216439 0.152191 0
       vertex -0.234607 0.125 0
       vertex -0.234607 0.125 0.1
    endloop
  endfacet
  facet normal -0.831476 0.555561 0
    outer loop
       vertex -0.234607 0.125 0.1
       vertex -0.216439 0.152191 0.1
       vertex -0.216439 0.152191 0
    endloop
  endfacet
  facet normal -0.896866 0.442302 0
    outer loop
       vertex -0.234607 0.125 0
       vertex -0.249071 0.095671 0
       vertex -0.249071 0.095671 0.1
    endloop
  endfacet
  facet normal -0.896866 0.442302 0
    outer loop
       vertex -0.249071 0.095671 0.1
       vertex -0.234607 0.125 0.1
       vertex -0.234607 0.125 0
    endloop
  endfacet
  facet normal -0.946935 0.321425 0
    outer loop
       vertex -0.249071 0.095671 0
       vertex -0.259582 0.064705 0
       vertex -0.259582 0.064705 0.1
    endloop
  endfacet
  facet normal -0.946935 0.321425 0
    outer loop
       vertex -0.259582 0.064705 0.1
       vertex -0.249071 0.095671 0.1
       vertex -0.249071 0.095671 0
    endloop
  endfacet
  facet normal -0.980784 0.195096 0
    outer loop
       vertex -0.259582 0.064705 0
       vertex -0.265962 0.0326315 0
       vertex -0.265962 0.0326315 0.1
    endloop
  endfacet
  facet normal -0.980784 0.195096 0
    outer loop
       vertex -0.265962 0.0326315 0.1
       vertex -0.259582 0.064705 0.1
       vertex -0.259582 0.064705 0
    endloop
  endfacet
  facet normal -0.997858 0.0654098 0
    outer loop
       vertex -0.268101 8.32665e-17 0.1
       vertex -0.265962 0.0326315 0.1
       vertex -0.265962 0.0326315 0
    endloop
  endfacet
  facet normal -0.997858 0.0654098 -1.08928e-16
    outer loop
       vertex -0.265962 0.0326315 0
       vertex -0.268101 -8.32665e-17 0
       vertex -0.268101 8.32665e-17 0.1
    endloop
  endfacet
  facet normal -0.997858 -0.0654098 0
    outer loop
       vertex -0.268101 -8.32665e-17 0
       vertex -0.265962 -0.0326315 0
       vertex -0.265962 -0.0326315 0.1
    endloop
  endfacet
  facet normal -0.997858 -0.0654098 1.08928e-16
    outer loop
       vertex -0.265962 -0.0326315 0.1
       vertex -0.268101 8.32665e-17 0.1
       vertex -0.268101 -8.32665e-17 0
    endloop
  endfacet
  facet normal -0.980784 -0.195096 0
    outer loop
       vertex -0.265962 -0.0326315 0
       vertex -0.259582 -0.064705 0
       vertex -0.259582 -0.064705 0.1
    endloop
  endfacet
  facet normal -0.980784 -0.195096 0
    outer loop
       vertex -0.259582 -0.064705 0.1
       vertex -0.265962 -0.0326315 0.1
       vertex -0.265962 -0.0326315 0
    endloop
  endfacet
  facet normal -0.946935 -0.321425 0
    outer loop
       vertex -0.259582 -0.064705 0
       vertex -0.249071 -0.095671 0
       vertex -0.249071 -0.095671 0.1
    endloop
  endfacet
  facet normal -0.946935 -0.321425 0
    outer loop
       vertex -0.249071 -0.095671 0.1
       vertex -0.259582 -0.064705 0.1
       vertex -0.259582 -0.064705 0
    endloop
  endfacet
  facet normal -0.896866 -0.442302 0
    outer loop
       vertex -0.249071 -0.095671 0
       vertex -0.234607 -0.125 0
       vertex -0.234607 -0.125 0.1
    endloop
  endfacet
  facet normal -0.896866 -0.442302 0
    outer loop
       vertex -0.234607 -0.125 0.1
       vertex -0.249071 -0.095671 0.1
       vertex -0.249071 -0.095671 0
    endloop
  endfacet
  facet normal -0.831476 -0.555561 0
    outer loop
       vertex -0.234607 -0.125 0
       vertex -0.216439 -0.152191 0
       vertex -0.216439 -0.152191 0.1
    endloop
  endfacet
  facet normal -0.831476 -0.555561 0
    outer loop
       vertex -0.216439 -0.152191 0.1
       vertex -0.234607 -0.125 0.1
       vertex -0.234607 -0.125 0
    endloop
  endfacet
  facet normal -0.751817 -0.659372 0
    outer loop
       vertex -0.216439 -0.152191 0
       vertex -0.194877 -0.176776 0
       vertex -0.194877 -0.176776 0.1
    endloop
  endfacet
  facet normal -0.751817 -0.659372 0
    outer loop
       vertex -0.194877 -0.176776 0.1
       vertex -0.216439 -0.152191 0.1
       vertex -0.216439 -0.152191 0
    endloop
  endfacet
  facet normal 0.659372 -0.751817 0
    outer loop
       vertex 0.158675 -0.176776 0
       vertex 0.158675 -0.176776 0.1
       vertex 0.13409 -0.198338 0.1
    endloop
  endfacet
  facet normal 0.659372 -0.751817 0
    outer loop
       vertex 0.13409 -0.198338 0.1
       vertex 0.13409 -0.198338 0
       vertex 0.158675 -0.176776 0
    endloop
  endfacet
  facet normal 0.555561 -0.831476 0
    outer loop
       vertex 0.13409 -0.198338 0
       vertex 0.13409 -0.198338 0.1
       vertex 0.106899 -0.216506 0.1
    endloop
  endfacet
  facet normal 0.555561 -0.831476 0
    outer loop
       vertex 0.106899 -0.216506 0.1
       vertex 0.106899 -0.216506 0
       vertex 0.13409 -0.198338 0
    endloop
  endfacet
  facet normal 0.442302 -0.896866 0
    outer loop
       vertex 0.106899 -0.216506 0
       vertex 0.106899 -0.216506 0.1
       vertex 0.07757 -0.23097 0.1
    endloop
  endfacet
  facet normal 0.442302 -0.896866 0
    outer loop
       vertex 0.07757 -0.23097 0.1
       vertex 0.07757 -0.23097 0
       vertex 0.106899 -0.216506 0
    endloop
  endfacet
  facet normal 0.321425 -0.946935 0
    outer loop
       vertex 0.07757 -0.23097 0
       vertex 0.07757 -0.23097 0.1
       vertex 0.046604 -0.241481 0.1
    endloop
  endfacet
  facet normal 0.321425 -0.946935 0
    outer loop
       vertex 0.046604 -0.241481 0.1
       vertex 0.046604 -0.241481 0
       vertex 0.07757 -0.23097 0
    endloop
  endfacet
  facet normal 0.195096 -0.980784 0
    outer loop
       vertex 0.046604 -0.241481 0
       vertex 0.046604 -0.241481 0.1
       vertex 0.0145305 -0.247861 0.1
    endloop
  endfacet
  facet normal 0.195096 -0.980784 0
    outer loop
       vertex 0.0145305 -0.247861 0.1
       vertex 0.0145305 -0.247861 0
       vertex 0.046604 -0.241481 0
    endloop
  endfacet
  facet normal 0.0654098 -0.997858 0
    outer loop
       vertex -0.018101 -0.25 0
       vertex 0.0145305 -0.247861 0
       vertex 0.0145305 -0.247861 0.1
    endloop
  endfacet
  facet normal 0.0654098 -0.997858 1.08928e-16
    outer loop
       vertex 0.0145305 -0.247861 0.1
       vertex -0.018101 -0.25 0.1
       vertex -0.018101 -0.25 0
    endloop
  endfacet
  facet normal -0.0654098 -0.997858 0
    outer loop
       vertex -0.018101 -0.25 0.1
       vertex -0.0507325 -0.247861 0.1
       vertex -0.0507325 -0.247861 0
    endloop
  endfacet
  facet normal -0.0654098 -0.997858 -1.08928e-16
    outer loop
       vertex -0.0507325 -0.247861 0
       vertex -0.018101 -0.25 0
       vertex -0.018101 -0.25 0.1
    endloop
  endfacet
  facet normal -0.195096 -0.980784 0
    outer loop
       vertex -0.0507325 -0.247861 0
       vertex -0.0507325 -0.247861 0.1
       vertex -0.082806 -0.241481 0.1
    endloop
  endfacet
  facet normal -0.195096 -0.980784 -0
    outer loop
       vertex -0.082806 -0.241481 0.1
       vertex -0.082806 -0.241481 0
       vertex -0.0507325 -0.247861 0
    endloop
  endfacet
  facet normal -0.321425 -0.946935 0
    outer loop
       vertex -0.082806 -0.241481 0
       vertex -0.082806 -0.241481 0.1
       vertex -0.113772 -0.23097 0.1
    endloop
  endfacet
  facet normal -0.321425 -0.946935 -0
    outer loop
       vertex -0.113772 -0.23097 0.1
       vertex -0.113772 -0.23097 0
       vertex -0.082806 -0.241481 0
    endloop
  endfacet
  facet normal -0.442302 -0.896866 0
    outer loop
       vertex -0.113772 -0.23097 0
       vertex -0.113772 -0.23097 0.1
       vertex -0.143101 -0.216506 0.1
    endloop
  endfacet
  facet normal -0.442302 -0.896866 -0
    outer loop
       vertex -0.143101 -0.216506 0.1
       vertex -0.143101 -0.216506 0
       vertex -0.113772 -0.23097 0
    endloop
  endfacet
  facet normal -0.555561 -0.831476 0
    outer loop
       vertex -0.143101 -0.216506 0
       vertex -0.143101 -0.216506 0.1
       vertex -0.170292 -0.198338 0.1
    endloop
  endfacet
  facet normal -0.555561 -0.831476 -0
    outer loop
       vertex -0.170292 -0.198338 0.1
       vertex -0.170292 -0.198338 0
       vertex -0.143101 -0.216506 0
    endloop
  endfacet
  facet normal -0.659372 -0.751817 0
    outer loop
       vertex -0.170292 -0.198338 0
       vertex -0.170292 -0.198338 0.1
       vertex -0.194877 -0.176776 0.1
    endloop
  endfacet
  facet normal -0.659372 -0.751817 -0
    outer loop
       vertex -0.194877 -0.176776 0.1
       vertex -0.194877 -0.176776 0
       vertex -0.170292 -0.198338 0
    endloop
  endfacet
endsolid cylinder
