solid cylinder
  facet normal 0.751817 -0.659372 0
    outer loop
       vertex 0.10007 -0.176776 0
       vertex 0.121632 -0.152191 0
       vertex 0.121632 -0.152191 0.1
    endloop
  endfacet
  facet normal 0.751817 -0.659372 0
    outer loop
       vertex 0.121632 -0.152191 0.1
       vertex 0.10007 -0.176776 0.1
       vertex 0.10007 -0.176776 0
    endloop
  endfacet
  facet normal 0.831476 -0.555561 0
    outer loop
       vertex 0.121632 -0.152191 0
       vertex 0.1398 -0.125 0
       vertex 0.1398 -0.125 0.1
    endloop
  endfacet
  facet normal 0.831476 -0.555561 0
    outer loop
       vertex 0.1398 -0.125 0.1
       vertex 0.121632 -0.152191 0.1
       vertex 0.121632 -0.152191 0
    endloop
  endfacet
  facet normal 0.896866 -0.442302 0
    outer loop
       vertex 0.1398 -0.125 0
       vertex 0.154264 -0.095671 0
       vertex 0.154264 -0.095671 0.1
    endloop
  endfacet
  facet normal 0.896866 -0.442302 0
    outer loop
       vertex 0.154264 -0.095671 0.1
       vertex 0.1398 -0.125 0.1
       vertex 0.1398 -0.125 0
    endloop
  endfacet
  facet normal 0.946935 -0.321425 0
    outer loop
       vertex 0.154264 -0.095671 0
       vertex 0.164775 -0.064705 0
       vertex 0.164775 -0.064705 0.1
    endloop
  endfacet
  facet normal 0.946935 -0.321425 0
    outer loop
       vertex 0.164775 -0.064705 0.1
       vertex 0.154264 -0.095671 0.1
       vertex 0.154264 -0.095671 0
    endloop
  endfacet
  facet normal 0.980784 -0.195096 0
    outer loop
       vertex 0.164775 -0.064705 0
       vertex 0.171155 -0.0326315 0
       vertex 0.171155 -0.0326315 0.1
    endloop
  endfacet
  facet normal 0.980784 -0.195096 0
    outer loop
       vertex 0.171155 -0.0326315 0.1
       vertex 0.164775 -0.064705 0.1
       vertex 0.164775 -0.064705 0
    endloop
  endfacet
  facet normal 0.997858 -0.0654098 0
    outer loop
       vertex 0.173294 -8.32665e-17 0.1
       vertex 0.171155 -0.0326315 0.1
       vertex 0.171155 -0.0326315 0
    endloop
  endfacet
  facet normal 0.997858 -0.0654098 -1.08928e-16
    outer loop
       vertex 0.171155 -0.0326315 0
       vertex 0.173294 8.32665e-17 0
       vertex 0.173294 -8.32665e-17 0.1
    endloop
  endfacet
  facet normal 0.997858 0.0654098 0
    outer loop
       vertex 0.173294 8.32665e-17 0
       vertex 0.171155 0.0326315 0
       vertex 0.171155 0.0326315 0.1
    endloop
  endfacet
  facet normal 0.997858 0.0654098 1.08928e-16
    outer loop
       vertex 0.171155 0.0326315 0.1
       vertex 0.173294 -8.32665e-17 0.1
       vertex 0.173294 8.32665e-17 0
    endloop
  endfacet
  facet normal 0.980784 0.195096 0
    outer loop
       vertex 0.171155 0.0326315 0
       vertex 0.164775 0.064705 0
       vertex 0.164775 0.064705 0.1
    endloop
  endfacet
  facet normal 0.980784 0.195096 0
    outer loop
       vertex 0.164775 0.064705 0.1
       vertex 0.171155 0.0326315 0.1
       vertex 0.171155 0.0326315 0
    endloop
  endfacet
  facet normal 0.946935 0.321425 0
    outer loop
       vertex 0.164775 0.064705 0
       vertex 0.154264 0.095671 0
       vertex 0.154264 0.095671 0.1
    endloop
  endfacet
  facet normal 0.946935 0.321425 0
    outer loop
       vertex 0.154264 0.095671 0.1
       vertex 0.164775 0.064705 0.1
       vertex 0.164775 0.064705 0
    endloop
  endfacet
  facet normal 0.896866 0.442302 0
    outer loop
       vertex 0.154264 0.095671 0
       vertex 0.1398 0.125 0
       vertex 0.1398 0.125 0.1
    endloop
  endfacet
  facet normal 0.896866 0.442302 0
    outer loop
       vertex 0.1398 0.125 0.1
       vertex 0.154264 0.095671 0.1
       vertex 0.154264 0.095671 0
    endloop
  endfacet
  facet normal 0.831476 0.555561 0
    outer loop
       vertex 0.1398 0.125 0
       vertex 0.121632 0.152191 0
       vertex 0.121632 0.152191 0.1
    endloop
  endfacet
  facet normal 0.831476 0.555561 0
    outer loop
       vertex 0.121632 0.152191 0.1
       vertex 0.1398 0.125 0.1
       vertex 0.1398 0.125 0
    endloop
  endfacet
  facet normal 0.751817 0.659372 0
    outer loop
       vertex 0.121632 0.152191 0
       vertex 0.10007 0.176776 0
       vertex 0.10007 0.176776 0.1
    endloop
  endfacet
  facet normal 0.751817 0.659372 0
    outer loop
       vertex 0.10007 0.176776 0.1
       vertex 0.121632 0.152191 0.1
       vertex 0.121632 0.152191 0
    endloop
  endfacet
  facet normal 0.659372 0.751817 0
    outer loop
       vertex 0.10007 0.176776 0
       vertex 0.0754846 0.198338 0
       vertex 0.0754846 0.198338 0.1
    endloop
  endfacet
  facet normal 0.659372 0.751817 0
    outer loop
       vertex 0.0754846 0.198338 0.1
       vertex 0.10007 0.176776 0.1
       vertex 0.10007 0.176776 0
    endloop
  endfacet
  facet normal 0.555561 0.831476 0
    outer loop
       vertex 0.0754846 0.198338 0
       vertex 0.0482936 0.216506 0
       vertex 0.0482936 0.216506 0.1
    endloop
  endfacet
  facet normal 0.555561 0.831476 0
    outer loop
       vertex 0.0482936 0.216506 0.1
       vertex 0.0754846 0.198338 0.1
       vertex 0.0754846 0.198338 0
    endloop
  endfacet
  facet normal 0.442302 0.896866 0
    outer loop
       vertex 0.0482936 0.216506 0
       vertex 0.0189646 0.23097 0
       vertex 0.0189646 0.23097 0.1
    endloop
  endfacet
  facet normal 0.442302 0.896866 0
    outer loop
       vertex 0.0189646 0.23097 0.1
       vertex 0.0482936 0.216506 0.1
       vertex 0.0482936 0.216506 0
    endloop
  endfacet
  facet normal 0.321425 0.946935 0
    outer loop
       vertex 0.0189646 0.23097 0
       vertex -0.0120014 0.241481 0
       vertex -0.0120014 0.241481 0.1
    endloop
  endfacet
  facet normal 0.321425 0.946935 0
    outer loop
       vertex -0.0120014 0.241481 0.1
       vertex 0.0189646 0.23097 0.1
       vertex 0.0189646 0.23097 0
    endloop
  endfacet
  facet normal 0.195096 0.980784 0
    outer loop
       vertex -0.0120014 0.241481 0
       vertex -0.0440749 0.247861 0
       vertex -0.0440749 0.247861 0.1
    endloop
  endfacet
  facet normal 0.195096 0.980784 0
    outer loop
       vertex -0.0440749 0.247861 0.1
       vertex -0.0120014 0.241481 0.1
       vertex -0.0120014 0.241481 0
    endloop
  endfacet
  facet normal 0.0654098 0.997858 0
    outer loop
       vertex -0.0767064 0.25 0.1
       vertex -0.0440749 0.247861 0.1
       vertex -0.0440749 0.247861 0
    endloop
  endfacet
  facet normal 0.0654098 0.997858 -1.08928e-16
    outer loop
       vertex -0.0440749 0.247861 0
       vertex -0.0767064 0.25 0
       vertex -0.0767064 0.25 0.1
    endloop
  endfacet
  facet normal -0.0654098 0.997858 0
    outer loop
       vertex -0.0767064 0.25 0
       vertex -0.109338 0.247861 0
       vertex -0.109338 0.247861 0.1
    endloop
  endfacet
  facet normal -0.0654098 0.997858 1.08928e-16
    outer loop
       vertex -0.109338 0.247861 0.1
       vertex -0.0767064 0.25 0.1
       vertex -0.0767064 0.25 0
    endloop
  endfacet
  facet normal -0.195096 0.980784 0
    outer loop
       vertex -0.109338 0.247861 0
       vertex -0.141411 0.241481 0
       vertex -0.141411 0.241481 0.1
    endloop
  endfacet
  facet normal -0.195096 0.980784 0
    outer loop
       vertex -0.141411 0.241481 0.1
       vertex -0.109338 0.247861 0.1
       vertex -0.109338 0.247861 0
    endloop
  endfacet
  facet normal -0.321425 0.946935 0
    outer loop
       vertex -0.141411 0.241481 0
       vertex -0.172377 0.23097 0
       vertex -0.172377 0.23097 0.1
    endloop
  endfacet
  facet normal -0.321425 0.946935 0
    outer loop
       vertex -0.172377 0.23097 0.1
       vertex -0.141411 0.241481 0.1
       vertex -0.141411 0.241481 0
    endloop
  endfacet
  facet normal -0.442302 0.896866 0
    outer loop
       vertex -0.172377 0.23097 0
       vertex -0.201706 0.216506 0
       vertex -0.201706 0.216506 0.1
    endloop
  endfacet
  facet normal -0.442302 0.896866 0
    outer loop
       vertex -0.201706 0.216506 0.1
       vertex -0.172377 0.23097 0.1
       vertex -0.172377 0.23097 0
    endloop
  endfacet
  facet normal -0.555561 0.831476 0
    outer loop
       vertex -0.201706 0.216506 0
       vertex -0.228897 0.198338 0
       vertex -0.228897 0.198338 0.1
    endloop
  endfacet
  facet normal -0.555561 0.831476 0
    outer loop
       vertex -0.228897 0.198338 0.1
       vertex -0.201706 0.216506 0.1
       vertex -0.201706 0.216506 0
    endloop
  endfacet
  facet normal -0.659372 0.751817 0
    outer loop
       vertex -0.228897 0.198338 0
       vertex -0.253482 0.176776 0
       vertex -0.253482 0.176776 0.1
    endloop
  endfacet
  facet normal -0.659372 0.751817 0
    outer loop
       vertex -0.253482 0.176776 0.1
       vertex -0.228897 0.198338 0.1
       vertex -0.228897 0.198338 0
    endloop
  endfacet
  facet normal -0.751817 0.659372 0
    outer loop
       vertex -0.253482 0.176776 0
       vertex -0.275044 0.152191 0
       vertex -0.275044 0.152191 0.1
    endloop
  endfacet
  facet normal -0.751817 0.659372 0
    outer loop
       vertex -0.275044 0.152191 0.1
       vertex -0.253482 0.176776 0.1
       vertex -0.253482 0.176776 0
    endloop
  endfacet
  facet normal -0.831476 0.555561 0
    outer loop
       vertex -0.275044 0.152191 0
       vertex -0.293212 0.125 0
       vertex -0.293212 0.125 0.1
    endloop
  endfacet
  facet normal -0.831476 0.555561 0
    outer loop
       vertex -0.293212 0.125 0.1
       vertex -0.275044 0.152191 0.1
       vertex -0.275044 0.152191 0
    endloop
  endfacet
  facet normal -0.896866 0.442302 0
    outer loop
       vertex -0.293212 0.125 0
       vertex -0.307676 0.095671 0
       vertex -0.307676 0.095671 0.1
    endloop
  endfacet
  facet normal -0.896866 0.442302 0
    outer loop
       vertex -0.307676 0.095671 0.1
       vertex -0.293212 0.125 0.1
       vertex -0.293212 0.125 0
    endloop
  endfacet
  facet normal -0.946935 0.321425 0
    outer loop
       vertex -0.307676 0.095671 0
       vertex -0.318187 0.064705 0
       vertex -0.318187 0.064705 0.1
    endloop
  endfacet
  facet normal -0.946935 0.321425 0
    outer loop
       vertex -0.318187 0.064705 0.1
       vertex -0.307676 0.095671 0.1
       vertex -0.307676 0.095671 0
    endloop
  endfacet
  facet normal -0.980784 0.195096 0
    outer loop
       vertex -0.318187 0.064705 0
       vertex -0.324567 0.0326315 0
       vertex -0.324567 0.0326315 0.1
    endloop
  endfacet
  facet normal -0.980784 0.195096 0
    outer loop
       vertex -0.324567 0.0326315 0.1
       vertex -0.318187 0.064705 0.1
       vertex -0.318187 0.064705 0
    endloop
  endfacet
  facet normal -0.997858 0.0654098 0
    outer loop
       vertex -0.326706 8.32665e-17 0.1
       vertex -0.324567 0.0326315 0.1
       vertex -0.324567 0.0326315 0
    endloop
  endfacet
  facet normal -0.997858 0.0654098 -1.08928e-16
    outer loop
       vertex -0.324567 0.0326315 0
       vertex -0.326706 -8.32665e-17 0
       vertex -0.326706 8.32665e-17 0.1
    endloop
  endfacet
  facet normal -0.997858 -0.0654098 0
    outer loop
       vertex -0.326706 -8.32665e-17 0
       vertex -0.324567 -0.0326315 0
       vertex -0.324567 -0.0326315 0.1
    endloop
  endfacet
  facet normal -0.997858 -0.0654098 1.08928e-16
    outer loop
       vertex -0.324567 -0.0326315 0.1
       vertex -0.326706 8.32665e-17 0.1
       vertex -0.326706 -8.32665e-17 0
    endloop
  endfacet
  facet normal -0.980784 -0.195096 0
    outer loop
       vertex -0.324567 -0.0326315 0
       vertex -0.318187 -0.064705 0
       vertex -0.318187 -0.064705 0.1
    endloop
  endfacet
  facet normal -0.980784 -0.195096 0
    outer loop
       vertex -0.318187 -0.064705 0.1
       vertex -0.324567 -0.0326315 0.1
       vertex -0.324567 -0.0326315 0
    endloop
  endfacet
  facet normal -0.946935 -0.321425 0
    outer loop
       vertex -0.318187 -0.064705 0
       vertex -0.307676 -0.095671 0
       vertex -0.307676 -0.095671 0.1
    endloop
  endfacet
  facet normal -0.946935 -0.321425 0
    outer loop
       vertex -0.307676 -0.095671 0.1
       vertex -0.318187 -0.064705 0.1
       vertex -0.318187 -0.064705 0
    endloop
  endfacet
  facet normal -0.896866 -0.442302 0
    outer loop
       vertex -0.307676 -0.095671 0
       vertex -0.293212 -0.125 0
       vertex -0.293212 -0.125 0.1
    endloop
  endfacet
  facet normal -0.896866 -0.442302 0
    outer loop
       vertex -0.293212 -0.125 0.1
       vertex -0.307676 -0.095671 0.1
       vertex -0.307676 -0.095671 0
    endloop
  endfacet
  facet normal -0.831476 -0.555561 0
    outer loop
       vertex -0.293212 -0.125 0
       vertex -0.275044 -0.152191 0
       vertex -0.275044 -0.152191 0.1
    endloop
  endfacet
  facet normal -0.831476 -0.555561 0
    outer loop
       vertex -0.275044 -0.152191 0.1
       vertex -0.293212 -0.125 0.1
       vertex -0.293212 -0.125 0
    endloop
  endfacet
  facet normal -0.751817 -0.659372 0
    outer loop
       vertex -0.275044 -0.152191 0
       vertex -0.253482 -0.176776 0
       vertex -0.253482 -0.176776 0.1
    endloop
  endfacet
  facet normal -0.751817 -0.659372 0
    outer loop
       vertex -0.253482 -0.176776 0.1
       vertex -0.275044 -0.152191 0.1
       vertex -0.275044 -0.152191 0
    endloop
  endfacet
  facet normal 0.659372 -0.751817 0
    outer loop
       vertex 0.10007 -0.176776 0
       vertex 0.10007 -0.176776 0.1
       vertex 0.0754846 -0.198338 0.1
    endloop
  endfacet
  facet normal 0.659372 -0.751817 0
    outer loop
       vertex 0.0754846 -0.198338 0.1
       vertex 0.0754846 -0.198338 0
       vertex 0.10007 -0.176776 0
    endloop
  endfacet
  facet normal 0.555561 -0.831476 0
    outer loop
       vertex 0.0754846 -0.198338 0
       vertex 0.0754846 -0.198338 0.1
       vertex 0.0482936 -0.216506 0.1
    endloop
  endfacet
  facet normal 0.555561 -0.831476 0
    outer loop
       vertex 0.0482936 -0.216506 0.1
       vertex 0.0482936 -0.216506 0
       vertex 0.0754846 -0.198338 0
    endloop
  endfacet
  facet normal 0.442302 -0.896866 0
    outer loop
       vertex 0.0482936 -0.216506 0
       vertex 0.0482936 -0.216506 0.1
       vertex 0.0189646 -0.23097 0.1
    endloop
  endfacet
  facet normal 0.442302 -0.896866 0
    outer loop
       vertex 0.0189646 -0.23097 0.1
       vertex 0.0189646 -0.23097 0
       vertex 0.0482936 -0.216506 0
    endloop
  endfacet
  facet normal 0.321425 -0.946935 0
    outer loop
       vertex 0.0189646 -0.23097 0
       vertex 0.0189646 -0.23097 0.1
       vertex -0.0120014 -0.241481 0.1
    endloop
  endfacet
  facet normal 0.321425 -0.946935 0
    outer loop
       vertex -0.0120014 -0.241481 0.1
       vertex -0.0120014 -0.241481 0
       vertex 0.0189646 -0.23097 0
    endloop
  endfacet
  facet normal 0.195096 -0.980784 0
    outer loop
       vertex -0.0120014 -0.241481 0
       vertex -0.0120014 -0.241481 0.1
       vertex -0.0440749 -0.247861 0.1
    endloop
  endfacet
  facet normal 0.195096 -0.980784 0
    outer loop
       vertex -0.0440749 -0.247861 0.1
       vertex -0.0440749 -0.247861 0
       vertex -0.0120014 -0.241481 0
    endloop
  endfacet
  facet normal 0.0654098 -0.997858 0
    outer loop
       vertex -0.0767064 -0.25 0
       vertex -0.0440749 -0.247861 0
       vertex -0.0440749 -0.247861 0.1
    endloop
  endfacet
  facet normal 0.0654098 -0.997858 1.08928e-16
    outer loop
       vertex -0.0440749 -0.247861 0.1
       vertex -0.0767064 -0.25 0.1
       vertex -0.0767064 -0.25 0
    endloop
  endfacet
  facet normal -0.0654098 -0.997858 0
    outer loop
       vertex -0.0767064 -0.25 0.1
       vertex -0.109338 -0.247861 0.1
       vertex -0.109338 -0.247861 0
    endloop
  endfacet
  facet normal -0.0654098 -0.997858 -1.08928e-16
    outer loop
       vertex -0.109338 -0.247861 0
       vertex -0.0767064 -0.25 0
       vertex -0.0767064 -0.25 0.1
    endloop
  endfacet
  facet normal -0.195096 -0.980784 0
    outer loop
       vertex -0.109338 -0.247861 0
       vertex -0.109338 -0.247861 0.1
       vertex -0.141411 -0.241481 0.1
    endloop
  endfacet
  facet normal -0.195096 -0.980784 -0
    outer loop
       vertex -0.141411 -0.241481 0.1
       vertex -0.141411 -0.241481 0
       vertex -0.109338 -0.247861 0
    endloop
  endfacet
  facet normal -0.321425 -0.946935 0
    outer loop
       vertex -0.141411 -0.241481 0
       vertex -0.141411 -0.241481 0.1
       vertex -0.172377 -0.23097 0.1
    endloop
  endfacet
  facet normal -0.321425 -0.946935 -0
    outer loop
       vertex -0.172377 -0.23097 0.1
       vertex -0.172377 -0.23097 0
       vertex -0.141411 -0.241481 0
    endloop
  endfacet
  facet normal -0.442302 -0.896866 0
    outer loop
       vertex -0.172377 -0.23097 0
       vertex -0.172377 -0.23097 0.1
       vertex -0.201706 -0.216506 0.1
    endloop
  endfacet
  facet normal -0.442302 -0.896866 -0
    outer loop
       vertex -0.201706 -0.216506 0.1
       vertex -0.201706 -0.216506 0
       vertex -0.172377 -0.23097 0
    endloop
  endfacet
  facet normal -0.555561 -0.831476 0
    outer loop
       vertex -0.201706 -0.216506 0
       vertex -0.201706 -0.216506 0.1
       vertex -0.228897 -0.198338 0.1
    endloop
  endfacet
  facet normal -0.555561 -0.831476 -0
    outer loop
       vertex -0.228897 -0.198338 0.1
       vertex -0.228897 -0.198338 0
       vertex -0.201706 -0.216506 0
    endloop
  endfacet
  facet normal -0.659372 -0.751817 0
    outer loop
       vertex -0.228897 -0.198338 0
       vertex -0.228897 -0.198338 0.1
       vertex -0.253482 -0.176776 0.1
    endloop
  endfacet
  facet normal -0.659372 -0.751817 -0
    outer loop
       vertex -0.253482 -0.176776 0.1
       vertex -0.253482 -0.176776 0
       vertex -0.228897 -0.198338 0
    endloop
  endfacet
endsolid cylinder
