solid cylinder
  facet normal 0.751817 -0.659372 0
    outer loop
       vertex 0.43237 -0.176776 0
       vertex 0.453932 -0.152191 0
       vertex 0.453932 -0.152191 0.1
    endloop
  endfacet
  facet normal 0.751817 -0.659372 0
    outer loop
       vertex 0.453932 -0.152191 0.1
       vertex 0.43237 -0.176776 0.1
       vertex 0.43237 -0.176776 0
    endloop
  endfacet
  facet normal 0.831476 -0.555561 0
    outer loop
       vertex 0.453932 -0.152191 0
       vertex 0.4721 -0.125 0
       vertex 0.4721 -0.125 0.1
    endloop
  endfacet
  facet normal 0.831476 -0.555561 0
    outer loop
       vertex 0.4721 -0.125 0.1
       vertex 0.453932 -0.152191 0.1
       vertex 0.453932 -0.152191 0
    endloop
  endfacet
  facet normal 0.896866 -0.442302 0
    outer loop
       vertex 0.4721 -0.125 0
       vertex 0.486564 -0.095671 0
       vertex 0.486564 -0.095671 0.1
    endloop
  endfacet
  facet normal 0.896866 -0.442302 0
    outer loop
       vertex 0.486564 -0.095671 0.1
       vertex 0.4721 -0.125 0.1
       vertex 0.4721 -0.125 0
    endloop
  endfacet
  facet normal 0.946935 -0.321425 0
    outer loop
       vertex 0.486564 -0.095671 0
       vertex 0.497075 -0.064705 0
       vertex 0.497075 -0.064705 0.1
    endloop
  endfacet
  facet normal 0.946935 -0.321425 0
    outer loop
       vertex 0.497075 -0.064705 0.1
       vertex 0.486564 -0.095671 0.1
       vertex 0.486564 -0.095671 0
    endloop
  endfacet
  facet normal 0.980784 -0.195096 0
    outer loop
       vertex 0.497075 -0.064705 0
       vertex 0.503455 -0.0326315 0
       vertex 0.503455 -0.0326315 0.1
    endloop
  endfacet
  facet normal 0.980784 -0.195096 0
    outer loop
       vertex 0.503455 -0.0326315 0.1
       vertex 0.497075 -0.064705 0.1
       vertex 0.497075 -0.064705 0
    endloop
  endfacet
  facet normal 0.997858 -0.0654098 0
    outer loop
       vertex 0.505594 -8.32665e-17 0.1
       vertex 0.503455 -0.0326315 0.1
       vertex 0.503455 -0.0326315 0
    endloop
  endfacet
  facet normal 0.997858 -0.0654098 -1.08928e-16
    outer loop
       vertex 0.503455 -0.0326315 0
       vertex 0.505594 8.32665e-17 0
       vertex 0.505594 -8.32665e-17 0.1
    endloop
  endfacet
  facet normal 0.997858 0.0654098 0
    outer loop
       vertex 0.505594 8.32665e-17 0
       vertex 0.503455 0.0326315 0
       vertex 0.503455 0.0326315 0.1
    endloop
  endfacet
  facet normal 0.997858 0.0654098 1.08928e-16
    outer loop
       vertex 0.503455 0.0326315 0.1
       vertex 0.505594 -8.32665e-17 0.1
       vertex 0.505594 8.32665e-17 0
    endloop
  endfacet
  facet normal 0.980784 0.195096 0
    outer loop
       vertex 0.503455 0.0326315 0
       vertex 0.497075 0.064705 0
       vertex 0.497075 0.064705 0.1
    endloop
  endfacet
  facet normal 0.980784 0.195096 0
    outer loop
       vertex 0.497075 0.064705 0.1
       vertex 0.503455 0.0326315 0.1
       vertex 0.503455 0.0326315 0
    endloop
  endfacet
  facet normal 0.946935 0.321425 0
    outer loop
       vertex 0.497075 0.064705 0
       vertex 0.486564 0.095671 0
       vertex 0.486564 0.095671 0.1
    endloop
  endfacet
  facet normal 0.946935 0.321425 0
    outer loop
       vertex 0.486564 0.095671 0.1
       vertex 0.497075 0.064705 0.1
       vertex 0.497075 0.064705 0
    endloop
  endfacet
  facet normal 0.896866 0.442302 0
    outer loop
       vertex 0.486564 0.095671 0
       vertex 0.4721 0.125 0
       vertex 0.4721 0.125 0.1
    endloop
  endfacet
  facet normal 0.896866 0.442302 0
    outer loop
       vertex 0.4721 0.125 0.1
       vertex 0.486564 0.095671 0.1
       vertex 0.486564 0.095671 0
    endloop
  endfacet
  facet normal 0.831476 0.555561 0
    outer loop
       vertex 0.4721 0.125 0
       vertex 0.453932 0.152191 0
       vertex 0.453932 0.152191 0.1
    endloop
  endfacet
  facet normal 0.831476 0.555561 0
    outer loop
       vertex 0.453932 0.152191 0.1
       vertex 0.4721 0.125 0.1
       vertex 0.4721 0.125 0
    endloop
  endfacet
  facet normal 0.751817 0.659372 0
    outer loop
       vertex 0.453932 0.152191 0
       vertex 0.43237 0.176776 0
       vertex 0.43237 0.176776 0.1
    endloop
  endfacet
  facet normal 0.751817 0.659372 0
    outer loop
       vertex 0.43237 0.176776 0.1
       vertex 0.453932 0.152191 0.1
       vertex 0.453932 0.152191 0
    endloop
  endfacet
  facet normal 0.659372 0.751817 0
    outer loop
       vertex 0.43237 0.176776 0
       vertex 0.407785 0.198338 0
       vertex 0.407785 0.198338 0.1
    endloop
  endfacet
  facet normal 0.659372 0.751817 0
    outer loop
       vertex 0.407785 0.198338 0.1
       vertex 0.43237 0.176776 0.1
       vertex 0.43237 0.176776 0
    endloop
  endfacet
  facet normal 0.555561 0.831476 0
    outer loop
       vertex 0.407785 0.198338 0
       vertex 0.380594 0.216506 0
       vertex 0.380594 0.216506 0.1
    endloop
  endfacet
  facet normal 0.555561 0.831476 0
    outer loop
       vertex 0.380594 0.216506 0.1
       vertex 0.407785 0.198338 0.1
       vertex 0.407785 0.198338 0
    endloop
  endfacet
  facet normal 0.442302 0.896866 0
    outer loop
       vertex 0.380594 0.216506 0
       vertex 0.351265 0.23097 0
       vertex 0.351265 0.23097 0.1
    endloop
  endfacet
  facet normal 0.442302 0.896866 0
    outer loop
       vertex 0.351265 0.23097 0.1
       vertex 0.380594 0.216506 0.1
       vertex 0.380594 0.216506 0
    endloop
  endfacet
  facet normal 0.321425 0.946935 0
    outer loop
       vertex 0.351265 0.23097 0
       vertex 0.320299 0.241481 0
       vertex 0.320299 0.241481 0.1
    endloop
  endfacet
  facet normal 0.321425 0.946935 0
    outer loop
       vertex 0.320299 0.241481 0.1
       vertex 0.351265 0.23097 0.1
       vertex 0.351265 0.23097 0
    endloop
  endfacet
  facet normal 0.195096 0.980784 0
    outer loop
       vertex 0.320299 0.241481 0
       vertex 0.288226 0.247861 0
       vertex 0.288226 0.247861 0.1
    endloop
  endfacet
  facet normal 0.195096 0.980784 0
    outer loop
       vertex 0.288226 0.247861 0.1
       vertex 0.320299 0.241481 0.1
       vertex 0.320299 0.241481 0
    endloop
  endfacet
  facet normal 0.0654098 0.997858 0
    outer loop
       vertex 0.255594 0.25 0.1
       vertex 0.288226 0.247861 0.1
       vertex 0.288226 0.247861 0
    endloop
  endfacet
  facet normal 0.0654098 0.997858 -1.45239e-16
    outer loop
       vertex 0.288226 0.247861 0
       vertex 0.255594 0.25 0
       vertex 0.255594 0.25 0.1
    endloop
  endfacet
  facet normal -0.0654098 0.997858 0
    outer loop
       vertex 0.255594 0.25 0
       vertex 0.222963 0.247861 0
       vertex 0.222963 0.247861 0.1
    endloop
  endfacet
  facet normal -0.0654098 0.997858 1.45239e-16
    outer loop
       vertex 0.222963 0.247861 0.1
       vertex 0.255594 0.25 0.1
       vertex 0.255594 0.25 0
    endloop
  endfacet
  facet normal -0.195096 0.980784 0
    outer loop
       vertex 0.222963 0.247861 0
       vertex 0.190889 0.241481 0
       vertex 0.190889 0.241481 0.1
    endloop
  endfacet
  facet normal -0.195096 0.980784 0
    outer loop
       vertex 0.190889 0.241481 0.1
       vertex 0.222963 0.247861 0.1
       vertex 0.222963 0.247861 0
    endloop
  endfacet
  facet normal -0.321425 0.946935 0
    outer loop
       vertex 0.190889 0.241481 0
       vertex 0.159923 0.23097 0
       vertex 0.159923 0.23097 0.1
    endloop
  endfacet
  facet normal -0.321425 0.946935 0
    outer loop
       vertex 0.159923 0.23097 0.1
       vertex 0.190889 0.241481 0.1
       vertex 0.190889 0.241481 0
    endloop
  endfacet
  facet normal -0.442302 0.896866 0
    outer loop
       vertex 0.159923 0.23097 0
       vertex 0.130594 0.216506 0
       vertex 0.130594 0.216506 0.1
    endloop
  endfacet
  facet normal -0.442302 0.896866 0
    outer loop
       vertex 0.130594 0.216506 0.1
       vertex 0.159923 0.23097 0.1
       vertex 0.159923 0.23097 0
    endloop
  endfacet
  facet normal -0.555561 0.831476 0
    outer loop
       vertex 0.130594 0.216506 0
       vertex 0.103403 0.198338 0
       vertex 0.103403 0.198338 0.1
    endloop
  endfacet
  facet normal -0.555561 0.831476 0
    outer loop
       vertex 0.103403 0.198338 0.1
       vertex 0.130594 0.216506 0.1
       vertex 0.130594 0.216506 0
    endloop
  endfacet
  facet normal -0.659372 0.751817 0
    outer loop
       vertex 0.103403 0.198338 0
       vertex 0.0788182 0.176776 0
       vertex 0.0788182 0.176776 0.1
    endloop
  endfacet
  facet normal -0.659372 0.751817 0
    outer loop
       vertex 0.0788182 0.176776 0.1
       vertex 0.103403 0.198338 0.1
       vertex 0.103403 0.198338 0
    endloop
  endfacet
  facet normal -0.751817 0.659372 0
    outer loop
       vertex 0.0788182 0.176776 0
       vertex 0.0572562 0.152191 0
       vertex 0.0572562 0.152191 0.1
    endloop
  endfacet
  facet normal -0.751817 0.659372 0
    outer loop
       vertex 0.0572562 0.152191 0.1
       vertex 0.0788182 0.176776 0.1
       vertex 0.0788182 0.176776 0
    endloop
  endfacet
  facet normal -0.831476 0.555561 0
    outer loop
       vertex 0.0572562 0.152191 0
       vertex 0.0390882 0.125 0
       vertex 0.0390882 0.125 0.1
    endloop
  endfacet
  facet normal -0.831476 0.555561 0
    outer loop
       vertex 0.0390882 0.125 0.1
       vertex 0.0572562 0.152191 0.1
       vertex 0.0572562 0.152191 0
    endloop
  endfacet
  facet normal -0.896866 0.442302 0
    outer loop
       vertex 0.0390882 0.125 0
       vertex 0.0246242 0.095671 0
       vertex 0.0246242 0.095671 0.1
    endloop
  endfacet
  facet normal -0.896866 0.442302 0
    outer loop
       vertex 0.0246242 0.095671 0.1
       vertex 0.0390882 0.125 0.1
       vertex 0.0390882 0.125 0
    endloop
  endfacet
  facet normal -0.946935 0.321425 0
    outer loop
       vertex 0.0246242 0.095671 0
       vertex 0.0141132 0.064705 0
       vertex 0.0141132 0.064705 0.1
    endloop
  endfacet
  facet normal -0.946935 0.321425 0
    outer loop
       vertex 0.0141132 0.064705 0.1
       vertex 0.0246242 0.095671 0.1
       vertex 0.0246242 0.095671 0
    endloop
  endfacet
  facet normal -0.980784 0.195096 0
    outer loop
       vertex 0.0141132 0.064705 0
       vertex 0.00773321 0.0326315 0
       vertex 0.00773321 0.0326315 0.1
    endloop
  endfacet
  facet normal -0.980784 0.195096 0
    outer loop
       vertex 0.00773321 0.0326315 0.1
       vertex 0.0141132 0.064705 0.1
       vertex 0.0141132 0.064705 0
    endloop
  endfacet
  facet normal -0.997858 0.0654098 0
    outer loop
       vertex 0.00559421 8.32665e-17 0.1
       vertex 0.00773321 0.0326315 0.1
       vertex 0.00773321 0.0326315 0
    endloop
  endfacet
  facet normal -0.997858 0.0654098 -1.08928e-16
    outer loop
       vertex 0.00773321 0.0326315 0
       vertex 0.00559421 -8.32665e-17 0
       vertex 0.00559421 8.32665e-17 0.1
    endloop
  endfacet
  facet normal -0.997858 -0.0654098 0
    outer loop
       vertex 0.00559421 -8.32665e-17 0
       vertex 0.00773321 -0.0326315 0
       vertex 0.00773321 -0.0326315 0.1
    endloop
  endfacet
  facet normal -0.997858 -0.0654098 1.08928e-16
    outer loop
       vertex 0.00773321 -0.0326315 0.1
       vertex 0.00559421 8.32665e-17 0.1
       vertex 0.00559421 -8.32665e-17 0
    endloop
  endfacet
  facet normal -0.980784 -0.195096 0
    outer loop
       vertex 0.00773321 -0.0326315 0
       vertex 0.0141132 -0.064705 0
       vertex 0.0141132 -0.064705 0.1
    endloop
  endfacet
  facet normal -0.980784 -0.195096 0
    outer loop
       vertex 0.0141132 -0.064705 0.1
       vertex 0.00773321 -0.0326315 0.1
       vertex 0.00773321 -0.0326315 0
    endloop
  endfacet
  facet normal -0.946935 -0.321425 0
    outer loop
       vertex 0.0141132 -0.064705 0
       vertex 0.0246242 -0.095671 0
       vertex 0.0246242 -0.095671 0.1
    endloop
  endfacet
  facet normal -0.946935 -0.321425 0
    outer loop
       vertex 0.0246242 -0.095671 0.1
       vertex 0.0141132 -0.064705 0.1
       vertex 0.0141132 -0.064705 0
    endloop
  endfacet
  facet normal -0.896866 -0.442302 0
    outer loop
       vertex 0.0246242 -0.095671 0
       vertex 0.0390882 -0.125 0
       vertex 0.0390882 -0.125 0.1
    endloop
  endfacet
  facet normal -0.896866 -0.442302 0
    outer loop
       vertex 0.0390882 -0.125 0.1
       vertex 0.0246242 -0.095671 0.1
       vertex 0.0246242 -0.095671 0
    endloop
  endfacet
  facet normal -0.831476 -0.555561 0
    outer loop
       vertex 0.0390882 -0.125 0
       vertex 0.0572562 -0.152191 0
       vertex 0.0572562 -0.152191 0.1
    endloop
  endfacet
  facet normal -0.831476 -0.555561 0
    outer loop
       vertex 0.0572562 -0.152191 0.1
       vertex 0.0390882 -0.125 0.1
       vertex 0.0390882 -0.125 0
    endloop
  endfacet
  facet normal -0.751817 -0.659372 0
    outer loop
       vertex 0.0572562 -0.152191 0
       vertex 0.0788182 -0.176776 0
       vertex 0.0788182 -0.176776 0.1
    endloop
  endfacet
  facet normal -0.751817 -0.659372 0
    outer loop
       vertex 0.0788182 -0.176776 0.1
       vertex 0.0572562 -0.152191 0.1
       vertex 0.0572562 -0.152191 0
    endloop
  endfacet
  facet normal 0.659372 -0.751817 0
    outer loop
       vertex 0.43237 -0.176776 0
       vertex 0.43237 -0.176776 0.1
       vertex 0.407785 -0.198338 0.1
    endloop
  endfacet
  facet normal 0.659372 -0.751817 0
    outer loop
       vertex 0.407785 -0.198338 0.1
       vertex 0.407785 -0.198338 0
       vertex 0.43237 -0.176776 0
    endloop
  endfacet
  facet normal 0.555561 -0.831476 0
    outer loop
       vertex 0.407785 -0.198338 0
       vertex 0.407785 -0.198338 0.1
       vertex 0.380594 -0.216506 0.1
    endloop
  endfacet
  facet normal 0.555561 -0.831476 0
    outer loop
       vertex 0.380594 -0.216506 0.1
       vertex 0.380594 -0.216506 0
       vertex 0.407785 -0.198338 0
    endloop
  endfacet
  facet normal 0.442302 -0.896866 0
    outer loop
       vertex 0.380594 -0.216506 0
       vertex 0.380594 -0.216506 0.1
       vertex 0.351265 -0.23097 0.1
    endloop
  endfacet
  facet normal 0.442302 -0.896866 0
    outer loop
       vertex 0.351265 -0.23097 0.1
       vertex 0.351265 -0.23097 0
       vertex 0.380594 -0.216506 0
    endloop
  endfacet
  facet normal 0.321425 -0.946935 0
    outer loop
       vertex 0.351265 -0.23097 0
       vertex 0.351265 -0.23097 0.1
       vertex 0.320299 -0.241481 0.1
    endloop
  endfacet
  facet normal 0.321425 -0.946935 0
    outer loop
       vertex 0.320299 -0.241481 0.1
       vertex 0.320299 -0.241481 0
       vertex 0.351265 -0.23097 0
    endloop
  endfacet
  facet normal 0.195096 -0.980784 0
    outer loop
       vertex 0.320299 -0.241481 0
       vertex 0.320299 -0.241481 0.1
       vertex 0.288226 -0.247861 0.1
    endloop
  endfacet
  facet normal 0.195096 -0.980784 0
    outer loop
       vertex 0.288226 -0.247861 0.1
       vertex 0.288226 -0.247861 0
       vertex 0.320299 -0.241481 0
    endloop
  endfacet
  facet normal 0.0654098 -0.997858 0
    outer loop
       vertex 0.255594 -0.25 0
       vertex 0.288226 -0.247861 0
       vertex 0.288226 -0.247861 0.1
    endloop
  endfacet
  facet normal 0.0654098 -0.997858 1.45239e-16
    outer loop
       vertex 0.288226 -0.247861 0.1
       vertex 0.255594 -0.25 0.1
       vertex 0.255594 -0.25 0
    endloop
  endfacet
  facet normal -0.0654098 -0.997858 0
    outer loop
       vertex 0.255594 -0.25 0.1
       vertex 0.222963 -0.247861 0.1
       vertex 0.222963 -0.247861 0
    endloop
  endfacet
  facet normal -0.0654098 -0.997858 -1.45239e-16
    outer loop
       vertex 0.222963 -0.247861 0
       vertex 0.255594 -0.25 0
       vertex 0.255594 -0.25 0.1
    endloop
  endfacet
  facet normal -0.195096 -0.980784 0
    outer loop
       vertex 0.222963 -0.247861 0
       vertex 0.222963 -0.247861 0.1
       vertex 0.190889 -0.241481 0.1
    endloop
  endfacet
  facet normal -0.195096 -0.980784 -0
    outer loop
       vertex 0.190889 -0.241481 0.1
       vertex 0.190889 -0.241481 0
       vertex 0.222963 -0.247861 0
    endloop
  endfacet
  facet normal -0.321425 -0.946935 0
    outer loop
       vertex 0.190889 -0.241481 0
       vertex 0.190889 -0.241481 0.1
       vertex 0.159923 -0.23097 0.1
    endloop
  endfacet
  facet normal -0.321425 -0.946935 -0
    outer loop
       vertex 0.159923 -0.23097 0.1
       vertex 0.159923 -0.23097 0
       vertex 0.190889 -0.241481 0
    endloop
  endfacet
  facet normal -0.442302 -0.896866 0
    outer loop
       vertex 0.159923 -0.23097 0
       vertex 0.159923 -0.23097 0.1
       vertex 0.130594 -0.216506 0.1
    endloop
  endfacet
  facet normal -0.442302 -0.896866 -0
    outer loop
       vertex 0.130594 -0.216506 0.1
       vertex 0.130594 -0.216506 0
       vertex 0.159923 -0.23097 0
    endloop
  endfacet
  facet normal -0.555561 -0.831476 0
    outer loop
       vertex 0.130594 -0.216506 0
       vertex 0.130594 -0.216506 0.1
       vertex 0.103403 -0.198338 0.1
    endloop
  endfacet
  facet normal -0.555561 -0.831476 -0
    outer loop
       vertex 0.103403 -0.198338 0.1
       vertex 0.103403 -0.198338 0
       vertex 0.130594 -0.216506 0
    endloop
  endfacet
  facet normal -0.659372 -0.751817 0
    outer loop
       vertex 0.103403 -0.198338 0
       vertex 0.103403 -0.198338 0.1
       vertex 0.0788182 -0.176776 0.1
    endloop
  endfacet
  facet normal -0.659372 -0.751817 -0
    outer loop
       vertex 0.0788182 -0.176776 0.1
       vertex 0.0788182 -0.176776 0
       vertex 0.103403 -0.198338 0
    endloop
  endfacet
endsolid cylinder
