solid cylinder
  facet normal 0.751817 -0.659372 0
    outer loop
       vertex 0.370999 -0.176776 0
       vertex 0.392561 -0.152191 0
       vertex 0.392561 -0.152191 0.1
    endloop
  endfacet
  facet normal 0.751817 -0.659372 0
    outer loop
       vertex 0.392561 -0.152191 0.1
       vertex 0.370999 -0.176776 0.1
       vertex 0.370999 -0.176776 0
    endloop
  endfacet
  facet normal 0.831476 -0.555561 0
    outer loop
       vertex 0.392561 -0.152191 0
       vertex 0.410729 -0.125 0
       vertex 0.410729 -0.125 0.1
    endloop
  endfacet
  facet normal 0.831476 -0.555561 0
    outer loop
       vertex 0.410729 -0.125 0.1
       vertex 0.392561 -0.152191 0.1
       vertex 0.392561 -0.152191 0
    endloop
  endfacet
  facet normal 0.896866 -0.442302 0
    outer loop
       vertex 0.410729 -0.125 0
       vertex 0.425193 -0.095671 0
       vertex 0.425193 -0.095671 0.1
    endloop
  endfacet
  facet normal 0.896866 -0.442302 0
    outer loop
       vertex 0.425193 -0.095671 0.1
       vertex 0.410729 -0.125 0.1
       vertex 0.410729 -0.125 0
    endloop
  endfacet
  facet normal 0.946935 -0.321425 0
    outer loop
       vertex 0.425193 -0.095671 0
       vertex 0.435704 -0.064705 0
       vertex 0.435704 -0.064705 0.1
    endloop
  endfacet
  facet normal 0.946935 -0.321425 0
    outer loop
       vertex 0.435704 -0.064705 0.1
       vertex 0.425193 -0.095671 0.1
       vertex 0.425193 -0.095671 0
    endloop
  endfacet
  facet normal 0.980784 -0.195096 0
    outer loop
       vertex 0.435704 -0.064705 0
       vertex 0.442084 -0.0326315 0
       vertex 0.442084 -0.0326315 0.1
    endloop
  endfacet
  facet normal 0.980784 -0.195096 0
    outer loop
       vertex 0.442084 -0.0326315 0.1
       vertex 0.435704 -0.064705 0.1
       vertex 0.435704 -0.064705 0
    endloop
  endfacet
  facet normal 0.997858 -0.0654098 0
    outer loop
       vertex 0.444223 -8.32665e-17 0.1
       vertex 0.442084 -0.0326315 0.1
       vertex 0.442084 -0.0326315 0
    endloop
  endfacet
  facet normal 0.997858 -0.0654098 -1.08928e-16
    outer loop
       vertex 0.442084 -0.0326315 0
       vertex 0.444223 8.32665e-17 0
       vertex 0.444223 -8.32665e-17 0.1
    endloop
  endfacet
  facet normal 0.997858 0.0654098 0
    outer loop
       vertex 0.444223 8.32665e-17 0
       vertex 0.442084 0.0326315 0
       vertex 0.442084 0.0326315 0.1
    endloop
  endfacet
  facet normal 0.997858 0.0654098 1.08928e-16
    outer loop
       vertex 0.442084 0.0326315 0.1
       vertex 0.444223 -8.32665e-17 0.1
       vertex 0.444223 8.32665e-17 0
    endloop
  endfacet
  facet normal 0.980784 0.195096 0
    outer loop
       vertex 0.442084 0.0326315 0
       vertex 0.435704 0.064705 0
       vertex 0.435704 0.064705 0.1
    endloop
  endfacet
  facet normal 0.980784 0.195096 0
    outer loop
       vertex 0.435704 0.064705 0.1
       vertex 0.442084 0.0326315 0.1
       vertex 0.442084 0.0326315 0
    endloop
  endfacet
  facet normal 0.946935 0.321425 0
    outer loop
       vertex 0.435704 0.064705 0
       vertex 0.425193 0.095671 0
       vertex 0.425193 0.095671 0.1
    endloop
  endfacet
  facet normal 0.946935 0.321425 0
    outer loop
       vertex 0.425193 0.095671 0.1
       vertex 0.435704 0.064705 0.1
       vertex 0.435704 0.064705 0
    endloop
  endfacet
  facet normal 0.896866 0.442302 0
    outer loop
       vertex 0.425193 0.095671 0
       vertex 0.410729 0.125 0
       vertex 0.410729 0.125 0.1
    endloop
  endfacet
  facet normal 0.896866 0.442302 0
    outer loop
       vertex 0.410729 0.125 0.1
       vertex 0.425193 0.095671 0.1
       vertex 0.425193 0.095671 0
    endloop
  endfacet
  facet normal 0.831476 0.555561 0
    outer loop
       vertex 0.410729 0.125 0
       vertex 0.392561 0.152191 0
       vertex 0.392561 0.152191 0.1
    endloop
  endfacet
  facet normal 0.831476 0.555561 0
    outer loop
       vertex 0.392561 0.152191 0.1
       vertex 0.410729 0.125 0.1
       vertex 0.410729 0.125 0
    endloop
  endfacet
  facet normal 0.751817 0.659372 0
    outer loop
       vertex 0.392561 0.152191 0
       vertex 0.370999 0.176776 0
       vertex 0.370999 0.176776 0.1
    endloop
  endfacet
  facet normal 0.751817 0.659372 0
    outer loop
       vertex 0.370999 0.176776 0.1
       vertex 0.392561 0.152191 0.1
       vertex 0.392561 0.152191 0
    endloop
  endfacet
  facet normal 0.659372 0.751817 0
    outer loop
       vertex 0.370999 0.176776 0
       vertex 0.346414 0.198338 0
       vertex 0.346414 0.198338 0.1
    endloop
  endfacet
  facet normal 0.659372 0.751817 0
    outer loop
       vertex 0.346414 0.198338 0.1
       vertex 0.370999 0.176776 0.1
       vertex 0.370999 0.176776 0
    endloop
  endfacet
  facet normal 0.555561 0.831476 0
    outer loop
       vertex 0.346414 0.198338 0
       vertex 0.319223 0.216506 0
       vertex 0.319223 0.216506 0.1
    endloop
  endfacet
  facet normal 0.555561 0.831476 0
    outer loop
       vertex 0.319223 0.216506 0.1
       vertex 0.346414 0.198338 0.1
       vertex 0.346414 0.198338 0
    endloop
  endfacet
  facet normal 0.442302 0.896866 0
    outer loop
       vertex 0.319223 0.216506 0
       vertex 0.289894 0.23097 0
       vertex 0.289894 0.23097 0.1
    endloop
  endfacet
  facet normal 0.442302 0.896866 0
    outer loop
       vertex 0.289894 0.23097 0.1
       vertex 0.319223 0.216506 0.1
       vertex 0.319223 0.216506 0
    endloop
  endfacet
  facet normal 0.321425 0.946935 0
    outer loop
       vertex 0.289894 0.23097 0
       vertex 0.258928 0.241481 0
       vertex 0.258928 0.241481 0.1
    endloop
  endfacet
  facet normal 0.321425 0.946935 0
    outer loop
       vertex 0.258928 0.241481 0.1
       vertex 0.289894 0.23097 0.1
       vertex 0.289894 0.23097 0
    endloop
  endfacet
  facet normal 0.195096 0.980784 0
    outer loop
       vertex 0.258928 0.241481 0
       vertex 0.226854 0.247861 0
       vertex 0.226854 0.247861 0.1
    endloop
  endfacet
  facet normal 0.195096 0.980784 0
    outer loop
       vertex 0.226854 0.247861 0.1
       vertex 0.258928 0.241481 0.1
       vertex 0.258928 0.241481 0
    endloop
  endfacet
  facet normal 0.0654098 0.997858 0
    outer loop
       vertex 0.194223 0.25 0.1
       vertex 0.226854 0.247861 0.1
       vertex 0.226854 0.247861 0
    endloop
  endfacet
  facet normal 0.0654098 0.997858 -1.0893e-16
    outer loop
       vertex 0.226854 0.247861 0
       vertex 0.194223 0.25 0
       vertex 0.194223 0.25 0.1
    endloop
  endfacet
  facet normal -0.0654098 0.997858 0
    outer loop
       vertex 0.194223 0.25 0
       vertex 0.161591 0.247861 0
       vertex 0.161591 0.247861 0.1
    endloop
  endfacet
  facet normal -0.0654098 0.997858 1.0893e-16
    outer loop
       vertex 0.161591 0.247861 0.1
       vertex 0.194223 0.25 0.1
       vertex 0.194223 0.25 0
    endloop
  endfacet
  facet normal -0.195096 0.980784 0
    outer loop
       vertex 0.161591 0.247861 0
       vertex 0.129518 0.241481 0
       vertex 0.129518 0.241481 0.1
    endloop
  endfacet
  facet normal -0.195096 0.980784 0
    outer loop
       vertex 0.129518 0.241481 0.1
       vertex 0.161591 0.247861 0.1
       vertex 0.161591 0.247861 0
    endloop
  endfacet
  facet normal -0.321425 0.946935 0
    outer loop
       vertex 0.129518 0.241481 0
       vertex 0.0985517 0.23097 0
       vertex 0.0985517 0.23097 0.1
    endloop
  endfacet
  facet normal -0.321425 0.946935 0
    outer loop
       vertex 0.0985517 0.23097 0.1
       vertex 0.129518 0.241481 0.1
       vertex 0.129518 0.241481 0
    endloop
  endfacet
  facet normal -0.442302 0.896866 0
    outer loop
       vertex 0.0985517 0.23097 0
       vertex 0.0692227 0.216506 0
       vertex 0.0692227 0.216506 0.1
    endloop
  endfacet
  facet normal -0.442302 0.896866 0
    outer loop
       vertex 0.0692227 0.216506 0.1
       vertex 0.0985517 0.23097 0.1
       vertex 0.0985517 0.23097 0
    endloop
  endfacet
  facet normal -0.555561 0.831476 0
    outer loop
       vertex 0.0692227 0.216506 0
       vertex 0.0420317 0.198338 0
       vertex 0.0420317 0.198338 0.1
    endloop
  endfacet
  facet normal -0.555561 0.831476 0
    outer loop
       vertex 0.0420317 0.198338 0.1
       vertex 0.0692227 0.216506 0.1
       vertex 0.0692227 0.216506 0
    endloop
  endfacet
  facet normal -0.659372 0.751817 0
    outer loop
       vertex 0.0420317 0.198338 0
       vertex 0.0174467 0.176776 0
       vertex 0.0174467 0.176776 0.1
    endloop
  endfacet
  facet normal -0.659372 0.751817 0
    outer loop
       vertex 0.0174467 0.176776 0.1
       vertex 0.0420317 0.198338 0.1
       vertex 0.0420317 0.198338 0
    endloop
  endfacet
  facet normal -0.751817 0.659372 0
    outer loop
       vertex 0.0174467 0.176776 0
       vertex -0.00411534 0.152191 0
       vertex -0.00411534 0.152191 0.1
    endloop
  endfacet
  facet normal -0.751817 0.659372 0
    outer loop
       vertex -0.00411534 0.152191 0.1
       vertex 0.0174467 0.176776 0.1
       vertex 0.0174467 0.176776 0
    endloop
  endfacet
  facet normal -0.831476 0.555561 0
    outer loop
       vertex -0.00411534 0.152191 0
       vertex -0.0222833 0.125 0
       vertex -0.0222833 0.125 0.1
    endloop
  endfacet
  facet normal -0.831476 0.555561 0
    outer loop
       vertex -0.0222833 0.125 0.1
       vertex -0.00411534 0.152191 0.1
       vertex -0.00411534 0.152191 0
    endloop
  endfacet
  facet normal -0.896866 0.442302 0
    outer loop
       vertex -0.0222833 0.125 0
       vertex -0.0367473 0.095671 0
       vertex -0.0367473 0.095671 0.1
    endloop
  endfacet
  facet normal -0.896866 0.442302 0
    outer loop
       vertex -0.0367473 0.095671 0.1
       vertex -0.0222833 0.125 0.1
       vertex -0.0222833 0.125 0
    endloop
  endfacet
  facet normal -0.946935 0.321425 0
    outer loop
       vertex -0.0367473 0.095671 0
       vertex -0.0472583 0.064705 0
       vertex -0.0472583 0.064705 0.1
    endloop
  endfacet
  facet normal -0.946935 0.321425 0
    outer loop
       vertex -0.0472583 0.064705 0.1
       vertex -0.0367473 0.095671 0.1
       vertex -0.0367473 0.095671 0
    endloop
  endfacet
  facet normal -0.980784 0.195096 0
    outer loop
       vertex -0.0472583 0.064705 0
       vertex -0.0536383 0.0326315 0
       vertex -0.0536383 0.0326315 0.1
    endloop
  endfacet
  facet normal -0.980784 0.195096 0
    outer loop
       vertex -0.0536383 0.0326315 0.1
       vertex -0.0472583 0.064705 0.1
       vertex -0.0472583 0.064705 0
    endloop
  endfacet
  facet normal -0.997858 0.0654098 0
    outer loop
       vertex -0.0557773 8.32665e-17 0.1
       vertex -0.0536383 0.0326315 0.1
       vertex -0.0536383 0.0326315 0
    endloop
  endfacet
  facet normal -0.997858 0.0654098 -1.08928e-16
    outer loop
       vertex -0.0536383 0.0326315 0
       vertex -0.0557773 -8.32665e-17 0
       vertex -0.0557773 8.32665e-17 0.1
    endloop
  endfacet
  facet normal -0.997858 -0.0654098 0
    outer loop
       vertex -0.0557773 -8.32665e-17 0
       vertex -0.0536383 -0.0326315 0
       vertex -0.0536383 -0.0326315 0.1
    endloop
  endfacet
  facet normal -0.997858 -0.0654098 1.08928e-16
    outer loop
       vertex -0.0536383 -0.0326315 0.1
       vertex -0.0557773 8.32665e-17 0.1
       vertex -0.0557773 -8.32665e-17 0
    endloop
  endfacet
  facet normal -0.980784 -0.195096 0
    outer loop
       vertex -0.0536383 -0.0326315 0
       vertex -0.0472583 -0.064705 0
       vertex -0.0472583 -0.064705 0.1
    endloop
  endfacet
  facet normal -0.980784 -0.195096 0
    outer loop
       vertex -0.0472583 -0.064705 0.1
       vertex -0.0536383 -0.0326315 0.1
       vertex -0.0536383 -0.0326315 0
    endloop
  endfacet
  facet normal -0.946935 -0.321425 0
    outer loop
       vertex -0.0472583 -0.064705 0
       vertex -0.0367473 -0.095671 0
       vertex -0.0367473 -0.095671 0.1
    endloop
  endfacet
  facet normal -0.946935 -0.321425 0
    outer loop
       vertex -0.0367473 -0.095671 0.1
       vertex -0.0472583 -0.064705 0.1
       vertex -0.0472583 -0.064705 0
    endloop
  endfacet
  facet normal -0.896866 -0.442302 0
    outer loop
       vertex -0.0367473 -0.095671 0
       vertex -0.0222833 -0.125 0
       vertex -0.0222833 -0.125 0.1
    endloop
  endfacet
  facet normal -0.896866 -0.442302 0
    outer loop
       vertex -0.0222833 -0.125 0.1
       vertex -0.0367473 -0.095671 0.1
       vertex -0.0367473 -0.095671 0
    endloop
  endfacet
  facet normal -0.831476 -0.555561 0
    outer loop
       vertex -0.0222833 -0.125 0
       vertex -0.00411534 -0.152191 0
       vertex -0.00411534 -0.152191 0.1
    endloop
  endfacet
  facet normal -0.831476 -0.555561 0
    outer loop
       vertex -0.00411534 -0.152191 0.1
       vertex -0.0222833 -0.125 0.1
       vertex -0.0222833 -0.125 0
    endloop
  endfacet
  facet normal -0.751817 -0.659372 0
    outer loop
       vertex -0.00411534 -0.152191 0
       vertex 0.0174467 -0.176776 0
       vertex 0.0174467 -0.176776 0.1
    endloop
  endfacet
  facet normal -0.751817 -0.659372 0
    outer loop
       vertex 0.0174467 -0.176776 0.1
       vertex -0.00411534 -0.152191 0.1
       vertex -0.00411534 -0.152191 0
    endloop
  endfacet
  facet normal 0.659372 -0.751817 0
    outer loop
       vertex 0.370999 -0.176776 0
       vertex 0.370999 -0.176776 0.1
       vertex 0.346414 -0.198338 0.1
    endloop
  endfacet
  facet normal 0.659372 -0.751817 0
    outer loop
       vertex 0.346414 -0.198338 0.1
       vertex 0.346414 -0.198338 0
       vertex 0.370999 -0.176776 0
    endloop
  endfacet
  facet normal 0.555561 -0.831476 0
    outer loop
       vertex 0.346414 -0.198338 0
       vertex 0.346414 -0.198338 0.1
       vertex 0.319223 -0.216506 0.1
    endloop
  endfacet
  facet normal 0.555561 -0.831476 0
    outer loop
       vertex 0.319223 -0.216506 0.1
       vertex 0.319223 -0.216506 0
       vertex 0.346414 -0.198338 0
    endloop
  endfacet
  facet normal 0.442302 -0.896866 0
    outer loop
       vertex 0.319223 -0.216506 0
       vertex 0.319223 -0.216506 0.1
       vertex 0.289894 -0.23097 0.1
    endloop
  endfacet
  facet normal 0.442302 -0.896866 0
    outer loop
       vertex 0.289894 -0.23097 0.1
       vertex 0.289894 -0.23097 0
       vertex 0.319223 -0.216506 0
    endloop
  endfacet
  facet normal 0.321425 -0.946935 0
    outer loop
       vertex 0.289894 -0.23097 0
       vertex 0.289894 -0.23097 0.1
       vertex 0.258928 -0.241481 0.1
    endloop
  endfacet
  facet normal 0.321425 -0.946935 0
    outer loop
       vertex 0.258928 -0.241481 0.1
       vertex 0.258928 -0.241481 0
       vertex 0.289894 -0.23097 0
    endloop
  endfacet
  facet normal 0.195096 -0.980784 0
    outer loop
       vertex 0.258928 -0.241481 0
       vertex 0.258928 -0.241481 0.1
       vertex 0.226854 -0.247861 0.1
    endloop
  endfacet
  facet normal 0.195096 -0.980784 0
    outer loop
       vertex 0.226854 -0.247861 0.1
       vertex 0.226854 -0.247861 0
       vertex 0.258928 -0.241481 0
    endloop
  endfacet
  facet normal 0.0654098 -0.997858 0
    outer loop
       vertex 0.194223 -0.25 0
       vertex 0.226854 -0.247861 0
       vertex 0.226854 -0.247861 0.1
    endloop
  endfacet
  facet normal 0.0654098 -0.997858 1.0893e-16
    outer loop
       vertex 0.226854 -0.247861 0.1
       vertex 0.194223 -0.25 0.1
       vertex 0.194223 -0.25 0
    endloop
  endfacet
  facet normal -0.0654098 -0.997858 0
    outer loop
       vertex 0.194223 -0.25 0.1
       vertex 0.161591 -0.247861 0.1
       vertex 0.161591 -0.247861 0
    endloop
  endfacet
  facet normal -0.0654098 -0.997858 -1.0893e-16
    outer loop
       vertex 0.161591 -0.247861 0
       vertex 0.194223 -0.25 0
       vertex 0.194223 -0.25 0.1
    endloop
  endfacet
  facet normal -0.195096 -0.980784 0
    outer loop
       vertex 0.161591 -0.247861 0
       vertex 0.161591 -0.247861 0.1
       vertex 0.129518 -0.241481 0.1
    endloop
  endfacet
  facet normal -0.195096 -0.980784 -0
    outer loop
       vertex 0.129518 -0.241481 0.1
       vertex 0.129518 -0.241481 0
       vertex 0.161591 -0.247861 0
    endloop
  endfacet
  facet normal -0.321425 -0.946935 0
    outer loop
       vertex 0.129518 -0.241481 0
       vertex 0.129518 -0.241481 0.1
       vertex 0.0985517 -0.23097 0.1
    endloop
  endfacet
  facet normal -0.321425 -0.946935 -0
    outer loop
       vertex 0.0985517 -0.23097 0.1
       vertex 0.0985517 -0.23097 0
       vertex 0.129518 -0.241481 0
    endloop
  endfacet
  facet normal -0.442302 -0.896866 0
    outer loop
       vertex 0.0985517 -0.23097 0
       vertex 0.0985517 -0.23097 0.1
       vertex 0.0692227 -0.216506 0.1
    endloop
  endfacet
  facet normal -0.442302 -0.896866 -0
    outer loop
       vertex 0.0692227 -0.216506 0.1
       vertex 0.0692227 -0.216506 0
       vertex 0.0985517 -0.23097 0
    endloop
  endfacet
  facet normal -0.555561 -0.831476 0
    outer loop
       vertex 0.0692227 -0.216506 0
       vertex 0.0692227 -0.216506 0.1
       vertex 0.0420317 -0.198338 0.1
    endloop
  endfacet
  facet normal -0.555561 -0.831476 -0
    outer loop
       vertex 0.0420317 -0.198338 0.1
       vertex 0.0420317 -0.198338 0
       vertex 0.0692227 -0.216506 0
    endloop
  endfacet
  facet normal -0.659372 -0.751817 0
    outer loop
       vertex 0.0420317 -0.198338 0
       vertex 0.0420317 -0.198338 0.1
       vertex 0.0174467 -0.176776 0.1
    endloop
  endfacet
  facet normal -0.659372 -0.751817 -0
    outer loop
       vertex 0.0174467 -0.176776 0.1
       vertex 0.0174467 -0.176776 0
       vertex 0.0420317 -0.198338 0
    endloop
  endfacet
endsolid cylinder
