solid cylinder
  facet normal 0.751817 -0.659372 0
    outer loop
       vertex 0.383345 -0.176776 0
       vertex 0.404907 -0.152191 0
       vertex 0.404907 -0.152191 0.1
    endloop
  endfacet
  facet normal 0.751817 -0.659372 0
    outer loop
       vertex 0.404907 -0.152191 0.1
       vertex 0.383345 -0.176776 0.1
       vertex 0.383345 -0.176776 0
    endloop
  endfacet
  facet normal 0.831476 -0.555561 0
    outer loop
       vertex 0.404907 -0.152191 0
       vertex 0.423075 -0.125 0
       vertex 0.423075 -0.125 0.1
    endloop
  endfacet
  facet normal 0.831476 -0.555561 0
    outer loop
       vertex 0.423075 -0.125 0.1
       vertex 0.404907 -0.152191 0.1
       vertex 0.404907 -0.152191 0
    endloop
  endfacet
  facet normal 0.896866 -0.442302 0
    outer loop
       vertex 0.423075 -0.125 0
       vertex 0.437539 -0.095671 0
       vertex 0.437539 -0.095671 0.1
    endloop
  endfacet
  facet normal 0.896866 -0.442302 0
    outer loop
       vertex 0.437539 -0.095671 0.1
       vertex 0.423075 -0.125 0.1
       vertex 0.423075 -0.125 0
    endloop
  endfacet
  facet normal 0.946935 -0.321425 0
    outer loop
       vertex 0.437539 -0.095671 0
       vertex 0.44805 -0.064705 0
       vertex 0.44805 -0.064705 0.1
    endloop
  endfacet
  facet normal 0.946935 -0.321425 0
    outer loop
       vertex 0.44805 -0.064705 0.1
       vertex 0.437539 -0.095671 0.1
       vertex 0.437539 -0.095671 0
    endloop
  endfacet
  facet normal 0.980784 -0.195096 0
    outer loop
       vertex 0.44805 -0.064705 0
       vertex 0.45443 -0.0326315 0
       vertex 0.45443 -0.0326315 0.1
    endloop
  endfacet
  facet normal 0.980784 -0.195096 0
    outer loop
       vertex 0.45443 -0.0326315 0.1
       vertex 0.44805 -0.064705 0.1
       vertex 0.44805 -0.064705 0
    endloop
  endfacet
  facet normal 0.997858 -0.0654098 0
    outer loop
       vertex 0.456569 -8.32665e-17 0.1
       vertex 0.45443 -0.0326315 0.1
       vertex 0.45443 -0.0326315 0
    endloop
  endfacet
  facet normal 0.997858 -0.0654098 -1.08928e-16
    outer loop
       vertex 0.45443 -0.0326315 0
       vertex 0.456569 8.32665e-17 0
       vertex 0.456569 -8.32665e-17 0.1
    endloop
  endfacet
  facet normal 0.997858 0.0654098 0
    outer loop
       vertex 0.456569 8.32665e-17 0
       vertex 0.45443 0.0326315 0
       vertex 0.45443 0.0326315 0.1
    endloop
  endfacet
  facet normal 0.997858 0.0654098 1.08928e-16
    outer loop
       vertex 0.45443 0.0326315 0.1
       vertex 0.456569 -8.32665e-17 0.1
       vertex 0.456569 8.32665e-17 0
    endloop
  endfacet
  facet normal 0.980784 0.195096 0
    outer loop
       vertex 0.45443 0.0326315 0
       vertex 0.44805 0.064705 0
       vertex 0.44805 0.064705 0.1
    endloop
  endfacet
  facet normal 0.980784 0.195096 0
    outer loop
       vertex 0.44805 0.064705 0.1
       vertex 0.45443 0.0326315 0.1
       vertex 0.45443 0.0326315 0
    endloop
  endfacet
  facet normal 0.946935 0.321425 0
    outer loop
       vertex 0.44805 0.064705 0
       vertex 0.437539 0.095671 0
       vertex 0.437539 0.095671 0.1
    endloop
  endfacet
  facet normal 0.946935 0.321425 0
    outer loop
       vertex 0.437539 0.095671 0.1
       vertex 0.44805 0.064705 0.1
       vertex 0.44805 0.064705 0
    endloop
  endfacet
  facet normal 0.896866 0.442302 0
    outer loop
       vertex 0.437539 0.095671 0
       vertex 0.423075 0.125 0
       vertex 0.423075 0.125 0.1
    endloop
  endfacet
  facet normal 0.896866 0.442302 0
    outer loop
       vertex 0.423075 0.125 0.1
       vertex 0.437539 0.095671 0.1
       vertex 0.437539 0.095671 0
    endloop
  endfacet
  facet normal 0.831476 0.555561 0
    outer loop
       vertex 0.423075 0.125 0
       vertex 0.404907 0.152191 0
       vertex 0.404907 0.152191 0.1
    endloop
  endfacet
  facet normal 0.831476 0.555561 0
    outer loop
       vertex 0.404907 0.152191 0.1
       vertex 0.423075 0.125 0.1
       vertex 0.423075 0.125 0
    endloop
  endfacet
  facet normal 0.751817 0.659372 0
    outer loop
       vertex 0.404907 0.152191 0
       vertex 0.383345 0.176776 0
       vertex 0.383345 0.176776 0.1
    endloop
  endfacet
  facet normal 0.751817 0.659372 0
    outer loop
       vertex 0.383345 0.176776 0.1
       vertex 0.404907 0.152191 0.1
       vertex 0.404907 0.152191 0
    endloop
  endfacet
  facet normal 0.659372 0.751817 0
    outer loop
       vertex 0.383345 0.176776 0
       vertex 0.35876 0.198338 0
       vertex 0.35876 0.198338 0.1
    endloop
  endfacet
  facet normal 0.659372 0.751817 0
    outer loop
       vertex 0.35876 0.198338 0.1
       vertex 0.383345 0.176776 0.1
       vertex 0.383345 0.176776 0
    endloop
  endfacet
  facet normal 0.555561 0.831476 0
    outer loop
       vertex 0.35876 0.198338 0
       vertex 0.331569 0.216506 0
       vertex 0.331569 0.216506 0.1
    endloop
  endfacet
  facet normal 0.555561 0.831476 0
    outer loop
       vertex 0.331569 0.216506 0.1
       vertex 0.35876 0.198338 0.1
       vertex 0.35876 0.198338 0
    endloop
  endfacet
  facet normal 0.442302 0.896866 0
    outer loop
       vertex 0.331569 0.216506 0
       vertex 0.30224 0.23097 0
       vertex 0.30224 0.23097 0.1
    endloop
  endfacet
  facet normal 0.442302 0.896866 0
    outer loop
       vertex 0.30224 0.23097 0.1
       vertex 0.331569 0.216506 0.1
       vertex 0.331569 0.216506 0
    endloop
  endfacet
  facet normal 0.321425 0.946935 0
    outer loop
       vertex 0.30224 0.23097 0
       vertex 0.271274 0.241481 0
       vertex 0.271274 0.241481 0.1
    endloop
  endfacet
  facet normal 0.321425 0.946935 0
    outer loop
       vertex 0.271274 0.241481 0.1
       vertex 0.30224 0.23097 0.1
       vertex 0.30224 0.23097 0
    endloop
  endfacet
  facet normal 0.195096 0.980784 0
    outer loop
       vertex 0.271274 0.241481 0
       vertex 0.239201 0.247861 0
       vertex 0.239201 0.247861 0.1
    endloop
  endfacet
  facet normal 0.195096 0.980784 0
    outer loop
       vertex 0.239201 0.247861 0.1
       vertex 0.271274 0.241481 0.1
       vertex 0.271274 0.241481 0
    endloop
  endfacet
  facet normal 0.0654098 0.997858 0
    outer loop
       vertex 0.206569 0.25 0.1
       vertex 0.239201 0.247861 0.1
       vertex 0.239201 0.247861 0
    endloop
  endfacet
  facet normal 0.0654098 0.997858 -1.0893e-16
    outer loop
       vertex 0.239201 0.247861 0
       vertex 0.206569 0.25 0
       vertex 0.206569 0.25 0.1
    endloop
  endfacet
  facet normal -0.0654098 0.997858 0
    outer loop
       vertex 0.206569 0.25 0
       vertex 0.173938 0.247861 0
       vertex 0.173938 0.247861 0.1
    endloop
  endfacet
  facet normal -0.0654098 0.997858 1.0893e-16
    outer loop
       vertex 0.173938 0.247861 0.1
       vertex 0.206569 0.25 0.1
       vertex 0.206569 0.25 0
    endloop
  endfacet
  facet normal -0.195096 0.980784 0
    outer loop
       vertex 0.173938 0.247861 0
       vertex 0.141864 0.241481 0
       vertex 0.141864 0.241481 0.1
    endloop
  endfacet
  facet normal -0.195096 0.980784 0
    outer loop
       vertex 0.141864 0.241481 0.1
       vertex 0.173938 0.247861 0.1
       vertex 0.173938 0.247861 0
    endloop
  endfacet
  facet normal -0.321425 0.946935 0
    outer loop
       vertex 0.141864 0.241481 0
       vertex 0.110898 0.23097 0
       vertex 0.110898 0.23097 0.1
    endloop
  endfacet
  facet normal -0.321425 0.946935 0
    outer loop
       vertex 0.110898 0.23097 0.1
       vertex 0.141864 0.241481 0.1
       vertex 0.141864 0.241481 0
    endloop
  endfacet
  facet normal -0.442302 0.896866 0
    outer loop
       vertex 0.110898 0.23097 0
       vertex 0.0815694 0.216506 0
       vertex 0.0815694 0.216506 0.1
    endloop
  endfacet
  facet normal -0.442302 0.896866 0
    outer loop
       vertex 0.0815694 0.216506 0.1
       vertex 0.110898 0.23097 0.1
       vertex 0.110898 0.23097 0
    endloop
  endfacet
  facet normal -0.555561 0.831476 0
    outer loop
       vertex 0.0815694 0.216506 0
       vertex 0.0543784 0.198338 0
       vertex 0.0543784 0.198338 0.1
    endloop
  endfacet
  facet normal -0.555561 0.831476 0
    outer loop
       vertex 0.0543784 0.198338 0.1
       vertex 0.0815694 0.216506 0.1
       vertex 0.0815694 0.216506 0
    endloop
  endfacet
  facet normal -0.659372 0.751817 0
    outer loop
       vertex 0.0543784 0.198338 0
       vertex 0.0297934 0.176776 0
       vertex 0.0297934 0.176776 0.1
    endloop
  endfacet
  facet normal -0.659372 0.751817 0
    outer loop
       vertex 0.0297934 0.176776 0.1
       vertex 0.0543784 0.198338 0.1
       vertex 0.0543784 0.198338 0
    endloop
  endfacet
  facet normal -0.751817 0.659372 0
    outer loop
       vertex 0.0297934 0.176776 0
       vertex 0.00823137 0.152191 0
       vertex 0.00823137 0.152191 0.1
    endloop
  endfacet
  facet normal -0.751817 0.659372 0
    outer loop
       vertex 0.00823137 0.152191 0.1
       vertex 0.0297934 0.176776 0.1
       vertex 0.0297934 0.176776 0
    endloop
  endfacet
  facet normal -0.831476 0.555561 0
    outer loop
       vertex 0.00823137 0.152191 0
       vertex -0.00993663 0.125 0
       vertex -0.00993663 0.125 0.1
    endloop
  endfacet
  facet normal -0.831476 0.555561 0
    outer loop
       vertex -0.00993663 0.125 0.1
       vertex 0.00823137 0.152191 0.1
       vertex 0.00823137 0.152191 0
    endloop
  endfacet
  facet normal -0.896866 0.442302 0
    outer loop
       vertex -0.00993663 0.125 0
       vertex -0.0244006 0.095671 0
       vertex -0.0244006 0.095671 0.1
    endloop
  endfacet
  facet normal -0.896866 0.442302 0
    outer loop
       vertex -0.0244006 0.095671 0.1
       vertex -0.00993663 0.125 0.1
       vertex -0.00993663 0.125 0
    endloop
  endfacet
  facet normal -0.946935 0.321425 0
    outer loop
       vertex -0.0244006 0.095671 0
       vertex -0.0349116 0.064705 0
       vertex -0.0349116 0.064705 0.1
    endloop
  endfacet
  facet normal -0.946935 0.321425 0
    outer loop
       vertex -0.0349116 0.064705 0.1
       vertex -0.0244006 0.095671 0.1
       vertex -0.0244006 0.095671 0
    endloop
  endfacet
  facet normal -0.980784 0.195096 0
    outer loop
       vertex -0.0349116 0.064705 0
       vertex -0.0412916 0.0326315 0
       vertex -0.0412916 0.0326315 0.1
    endloop
  endfacet
  facet normal -0.980784 0.195096 0
    outer loop
       vertex -0.0412916 0.0326315 0.1
       vertex -0.0349116 0.064705 0.1
       vertex -0.0349116 0.064705 0
    endloop
  endfacet
  facet normal -0.997858 0.0654098 0
    outer loop
       vertex -0.0434306 8.32665e-17 0.1
       vertex -0.0412916 0.0326315 0.1
       vertex -0.0412916 0.0326315 0
    endloop
  endfacet
  facet normal -0.997858 0.0654098 -1.08928e-16
    outer loop
       vertex -0.0412916 0.0326315 0
       vertex -0.0434306 -8.32665e-17 0
       vertex -0.0434306 8.32665e-17 0.1
    endloop
  endfacet
  facet normal -0.997858 -0.0654098 0
    outer loop
       vertex -0.0434306 -8.32665e-17 0
       vertex -0.0412916 -0.0326315 0
       vertex -0.0412916 -0.0326315 0.1
    endloop
  endfacet
  facet normal -0.997858 -0.0654098 1.08928e-16
    outer loop
       vertex -0.0412916 -0.0326315 0.1
       vertex -0.0434306 8.32665e-17 0.1
       vertex -0.0434306 -8.32665e-17 0
    endloop
  endfacet
  facet normal -0.980784 -0.195096 0
    outer loop
       vertex -0.0412916 -0.0326315 0
       vertex -0.0349116 -0.064705 0
       vertex -0.0349116 -0.064705 0.1
    endloop
  endfacet
  facet normal -0.980784 -0.195096 0
    outer loop
       vertex -0.0349116 -0.064705 0.1
       vertex -0.0412916 -0.0326315 0.1
       vertex -0.0412916 -0.0326315 0
    endloop
  endfacet
  facet normal -0.946935 -0.321425 0
    outer loop
       vertex -0.0349116 -0.064705 0
       vertex -0.0244006 -0.095671 0
       vertex -0.0244006 -0.095671 0.1
    endloop
  endfacet
  facet normal -0.946935 -0.321425 0
    outer loop
       vertex -0.0244006 -0.095671 0.1
       vertex -0.0349116 -0.064705 0.1
       vertex -0.0349116 -0.064705 0
    endloop
  endfacet
  facet normal -0.896866 -0.442302 0
    outer loop
       vertex -0.0244006 -0.095671 0
       vertex -0.00993663 -0.125 0
       vertex -0.00993663 -0.125 0.1
    endloop
  endfacet
  facet normal -0.896866 -0.442302 0
    outer loop
       vertex -0.00993663 -0.125 0.1
       vertex -0.0244006 -0.095671 0.1
       vertex -0.0244006 -0.095671 0
    endloop
  endfacet
  facet normal -0.831476 -0.555561 0
    outer loop
       vertex -0.00993663 -0.125 0
       vertex 0.00823137 -0.152191 0
       vertex 0.00823137 -0.152191 0.1
    endloop
  endfacet
  facet normal -0.831476 -0.555561 0
    outer loop
       vertex 0.00823137 -0.152191 0.1
       vertex -0.00993663 -0.125 0.1
       vertex -0.00993663 -0.125 0
    endloop
  endfacet
  facet normal -0.751817 -0.659372 0
    outer loop
       vertex 0.00823137 -0.152191 0
       vertex 0.0297934 -0.176776 0
       vertex 0.0297934 -0.176776 0.1
    endloop
  endfacet
  facet normal -0.751817 -0.659372 0
    outer loop
       vertex 0.0297934 -0.176776 0.1
       vertex 0.00823137 -0.152191 0.1
       vertex 0.00823137 -0.152191 0
    endloop
  endfacet
  facet normal 0.659372 -0.751817 0
    outer loop
       vertex 0.383345 -0.176776 0
       vertex 0.383345 -0.176776 0.1
       vertex 0.35876 -0.198338 0.1
    endloop
  endfacet
  facet normal 0.659372 -0.751817 0
    outer loop
       vertex 0.35876 -0.198338 0.1
       vertex 0.35876 -0.198338 0
       vertex 0.383345 -0.176776 0
    endloop
  endfacet
  facet normal 0.555561 -0.831476 0
    outer loop
       vertex 0.35876 -0.198338 0
       vertex 0.35876 -0.198338 0.1
       vertex 0.331569 -0.216506 0.1
    endloop
  endfacet
  facet normal 0.555561 -0.831476 0
    outer loop
       vertex 0.331569 -0.216506 0.1
       vertex 0.331569 -0.216506 0
       vertex 0.35876 -0.198338 0
    endloop
  endfacet
  facet normal 0.442302 -0.896866 0
    outer loop
       vertex 0.331569 -0.216506 0
       vertex 0.331569 -0.216506 0.1
       vertex 0.30224 -0.23097 0.1
    endloop
  endfacet
  facet normal 0.442302 -0.896866 0
    outer loop
       vertex 0.30224 -0.23097 0.1
       vertex 0.30224 -0.23097 0
       vertex 0.331569 -0.216506 0
    endloop
  endfacet
  facet normal 0.321425 -0.946935 0
    outer loop
       vertex 0.30224 -0.23097 0
       vertex 0.30224 -0.23097 0.1
       vertex 0.271274 -0.241481 0.1
    endloop
  endfacet
  facet normal 0.321425 -0.946935 0
    outer loop
       vertex 0.271274 -0.241481 0.1
       vertex 0.271274 -0.241481 0
       vertex 0.30224 -0.23097 0
    endloop
  endfacet
  facet normal 0.195096 -0.980784 0
    outer loop
       vertex 0.271274 -0.241481 0
       vertex 0.271274 -0.241481 0.1
       vertex 0.239201 -0.247861 0.1
    endloop
  endfacet
  facet normal 0.195096 -0.980784 0
    outer loop
       vertex 0.239201 -0.247861 0.1
       vertex 0.239201 -0.247861 0
       vertex 0.271274 -0.241481 0
    endloop
  endfacet
  facet normal 0.0654098 -0.997858 0
    outer loop
       vertex 0.206569 -0.25 0
       vertex 0.239201 -0.247861 0
       vertex 0.239201 -0.247861 0.1
    endloop
  endfacet
  facet normal 0.0654098 -0.997858 1.0893e-16
    outer loop
       vertex 0.239201 -0.247861 0.1
       vertex 0.206569 -0.25 0.1
       vertex 0.206569 -0.25 0
    endloop
  endfacet
  facet normal -0.0654098 -0.997858 0
    outer loop
       vertex 0.206569 -0.25 0.1
       vertex 0.173938 -0.247861 0.1
       vertex 0.173938 -0.247861 0
    endloop
  endfacet
  facet normal -0.0654098 -0.997858 -1.0893e-16
    outer loop
       vertex 0.173938 -0.247861 0
       vertex 0.206569 -0.25 0
       vertex 0.206569 -0.25 0.1
    endloop
  endfacet
  facet normal -0.195096 -0.980784 0
    outer loop
       vertex 0.173938 -0.247861 0
       vertex 0.173938 -0.247861 0.1
       vertex 0.141864 -0.241481 0.1
    endloop
  endfacet
  facet normal -0.195096 -0.980784 -0
    outer loop
       vertex 0.141864 -0.241481 0.1
       vertex 0.141864 -0.241481 0
       vertex 0.173938 -0.247861 0
    endloop
  endfacet
  facet normal -0.321425 -0.946935 0
    outer loop
       vertex 0.141864 -0.241481 0
       vertex 0.141864 -0.241481 0.1
       vertex 0.110898 -0.23097 0.1
    endloop
  endfacet
  facet normal -0.321425 -0.946935 -0
    outer loop
       vertex 0.110898 -0.23097 0.1
       vertex 0.110898 -0.23097 0
       vertex 0.141864 -0.241481 0
    endloop
  endfacet
  facet normal -0.442302 -0.896866 0
    outer loop
       vertex 0.110898 -0.23097 0
       vertex 0.110898 -0.23097 0.1
       vertex 0.0815694 -0.216506 0.1
    endloop
  endfacet
  facet normal -0.442302 -0.896866 -0
    outer loop
       vertex 0.0815694 -0.216506 0.1
       vertex 0.0815694 -0.216506 0
       vertex 0.110898 -0.23097 0
    endloop
  endfacet
  facet normal -0.555561 -0.831476 0
    outer loop
       vertex 0.0815694 -0.216506 0
       vertex 0.0815694 -0.216506 0.1
       vertex 0.0543784 -0.198338 0.1
    endloop
  endfacet
  facet normal -0.555561 -0.831476 -0
    outer loop
       vertex 0.0543784 -0.198338 0.1
       vertex 0.0543784 -0.198338 0
       vertex 0.0815694 -0.216506 0
    endloop
  endfacet
  facet normal -0.659372 -0.751817 0
    outer loop
       vertex 0.0543784 -0.198338 0
       vertex 0.0543784 -0.198338 0.1
       vertex 0.0297934 -0.176776 0.1
    endloop
  endfacet
  facet normal -0.659372 -0.751817 -0
    outer loop
       vertex 0.0297934 -0.176776 0.1
       vertex 0.0297934 -0.176776 0
       vertex 0.0543784 -0.198338 0
    endloop
  endfacet
endsolid cylinder
