solid cylinder
  facet normal 0.751817 -0.659372 0
    outer loop
       vertex 0.319135 -0.176776 0
       vertex 0.340697 -0.152191 0
       vertex 0.340697 -0.152191 0.1
    endloop
  endfacet
  facet normal 0.751817 -0.659372 0
    outer loop
       vertex 0.340697 -0.152191 0.1
       vertex 0.319135 -0.176776 0.1
       vertex 0.319135 -0.176776 0
    endloop
  endfacet
  facet normal 0.831476 -0.555561 0
    outer loop
       vertex 0.340697 -0.152191 0
       vertex 0.358865 -0.125 0
       vertex 0.358865 -0.125 0.1
    endloop
  endfacet
  facet normal 0.831476 -0.555561 0
    outer loop
       vertex 0.358865 -0.125 0.1
       vertex 0.340697 -0.152191 0.1
       vertex 0.340697 -0.152191 0
    endloop
  endfacet
  facet normal 0.896866 -0.442302 0
    outer loop
       vertex 0.358865 -0.125 0
       vertex 0.373329 -0.095671 0
       vertex 0.373329 -0.095671 0.1
    endloop
  endfacet
  facet normal 0.896866 -0.442302 0
    outer loop
       vertex 0.373329 -0.095671 0.1
       vertex 0.358865 -0.125 0.1
       vertex 0.358865 -0.125 0
    endloop
  endfacet
  facet normal 0.946935 -0.321425 0
    outer loop
       vertex 0.373329 -0.095671 0
       vertex 0.38384 -0.064705 0
       vertex 0.38384 -0.064705 0.1
    endloop
  endfacet
  facet normal 0.946935 -0.321425 0
    outer loop
       vertex 0.38384 -0.064705 0.1
       vertex 0.373329 -0.095671 0.1
       vertex 0.373329 -0.095671 0
    endloop
  endfacet
  facet normal 0.980784 -0.195096 0
    outer loop
       vertex 0.38384 -0.064705 0
       vertex 0.39022 -0.0326315 0
       vertex 0.39022 -0.0326315 0.1
    endloop
  endfacet
  facet normal 0.980784 -0.195096 0
    outer loop
       vertex 0.39022 -0.0326315 0.1
       vertex 0.38384 -0.064705 0.1
       vertex 0.38384 -0.064705 0
    endloop
  endfacet
  facet normal 0.997858 -0.0654098 0
    outer loop
       vertex 0.392359 -8.32665e-17 0.1
       vertex 0.39022 -0.0326315 0.1
       vertex 0.39022 -0.0326315 0
    endloop
  endfacet
  facet normal 0.997858 -0.0654098 -1.08928e-16
    outer loop
       vertex 0.39022 -0.0326315 0
       vertex 0.392359 8.32665e-17 0
       vertex 0.392359 -8.32665e-17 0.1
    endloop
  endfacet
  facet normal 0.997858 0.0654098 0
    outer loop
       vertex 0.392359 8.32665e-17 0
       vertex 0.39022 0.0326315 0
       vertex 0.39022 0.0326315 0.1
    endloop
  endfacet
  facet normal 0.997858 0.0654098 1.08928e-16
    outer loop
       vertex 0.39022 0.0326315 0.1
       vertex 0.392359 -8.32665e-17 0.1
       vertex 0.392359 8.32665e-17 0
    endloop
  endfacet
  facet normal 0.980784 0.195096 0
    outer loop
       vertex 0.39022 0.0326315 0
       vertex 0.38384 0.064705 0
       vertex 0.38384 0.064705 0.1
    endloop
  endfacet
  facet normal 0.980784 0.195096 0
    outer loop
       vertex 0.38384 0.064705 0.1
       vertex 0.39022 0.0326315 0.1
       vertex 0.39022 0.0326315 0
    endloop
  endfacet
  facet normal 0.946935 0.321425 0
    outer loop
       vertex 0.38384 0.064705 0
       vertex 0.373329 0.095671 0
       vertex 0.373329 0.095671 0.1
    endloop
  endfacet
  facet normal 0.946935 0.321425 0
    outer loop
       vertex 0.373329 0.095671 0.1
       vertex 0.38384 0.064705 0.1
       vertex 0.38384 0.064705 0
    endloop
  endfacet
  facet normal 0.896866 0.442302 0
    outer loop
       vertex 0.373329 0.095671 0
       vertex 0.358865 0.125 0
       vertex 0.358865 0.125 0.1
    endloop
  endfacet
  facet normal 0.896866 0.442302 0
    outer loop
       vertex 0.358865 0.125 0.1
       vertex 0.373329 0.095671 0.1
       vertex 0.373329 0.095671 0
    endloop
  endfacet
  facet normal 0.831476 0.555561 0
    outer loop
       vertex 0.358865 0.125 0
       vertex 0.340697 0.152191 0
       vertex 0.340697 0.152191 0.1
    endloop
  endfacet
  facet normal 0.831476 0.555561 0
    outer loop
       vertex 0.340697 0.152191 0.1
       vertex 0.358865 0.125 0.1
       vertex 0.358865 0.125 0
    endloop
  endfacet
  facet normal 0.751817 0.659372 0
    outer loop
       vertex 0.340697 0.152191 0
       vertex 0.319135 0.176776 0
       vertex 0.319135 0.176776 0.1
    endloop
  endfacet
  facet normal 0.751817 0.659372 0
    outer loop
       vertex 0.319135 0.176776 0.1
       vertex 0.340697 0.152191 0.1
       vertex 0.340697 0.152191 0
    endloop
  endfacet
  facet normal 0.659372 0.751817 0
    outer loop
       vertex 0.319135 0.176776 0
       vertex 0.29455 0.198338 0
       vertex 0.29455 0.198338 0.1
    endloop
  endfacet
  facet normal 0.659372 0.751817 0
    outer loop
       vertex 0.29455 0.198338 0.1
       vertex 0.319135 0.176776 0.1
       vertex 0.319135 0.176776 0
    endloop
  endfacet
  facet normal 0.555561 0.831476 0
    outer loop
       vertex 0.29455 0.198338 0
       vertex 0.267359 0.216506 0
       vertex 0.267359 0.216506 0.1
    endloop
  endfacet
  facet normal 0.555561 0.831476 0
    outer loop
       vertex 0.267359 0.216506 0.1
       vertex 0.29455 0.198338 0.1
       vertex 0.29455 0.198338 0
    endloop
  endfacet
  facet normal 0.442302 0.896866 0
    outer loop
       vertex 0.267359 0.216506 0
       vertex 0.23803 0.23097 0
       vertex 0.23803 0.23097 0.1
    endloop
  endfacet
  facet normal 0.442302 0.896866 0
    outer loop
       vertex 0.23803 0.23097 0.1
       vertex 0.267359 0.216506 0.1
       vertex 0.267359 0.216506 0
    endloop
  endfacet
  facet normal 0.321425 0.946935 0
    outer loop
       vertex 0.23803 0.23097 0
       vertex 0.207064 0.241481 0
       vertex 0.207064 0.241481 0.1
    endloop
  endfacet
  facet normal 0.321425 0.946935 0
    outer loop
       vertex 0.207064 0.241481 0.1
       vertex 0.23803 0.23097 0.1
       vertex 0.23803 0.23097 0
    endloop
  endfacet
  facet normal 0.195096 0.980784 0
    outer loop
       vertex 0.207064 0.241481 0
       vertex 0.174991 0.247861 0
       vertex 0.174991 0.247861 0.1
    endloop
  endfacet
  facet normal 0.195096 0.980784 0
    outer loop
       vertex 0.174991 0.247861 0.1
       vertex 0.207064 0.241481 0.1
       vertex 0.207064 0.241481 0
    endloop
  endfacet
  facet normal 0.0654098 0.997858 0
    outer loop
       vertex 0.142359 0.25 0.1
       vertex 0.174991 0.247861 0.1
       vertex 0.174991 0.247861 0
    endloop
  endfacet
  facet normal 0.0654098 0.997858 -1.0893e-16
    outer loop
       vertex 0.174991 0.247861 0
       vertex 0.142359 0.25 0
       vertex 0.142359 0.25 0.1
    endloop
  endfacet
  facet normal -0.0654098 0.997858 0
    outer loop
       vertex 0.142359 0.25 0
       vertex 0.109728 0.247861 0
       vertex 0.109728 0.247861 0.1
    endloop
  endfacet
  facet normal -0.0654098 0.997858 1.0893e-16
    outer loop
       vertex 0.109728 0.247861 0.1
       vertex 0.142359 0.25 0.1
       vertex 0.142359 0.25 0
    endloop
  endfacet
  facet normal -0.195096 0.980784 0
    outer loop
       vertex 0.109728 0.247861 0
       vertex 0.0776542 0.241481 0
       vertex 0.0776542 0.241481 0.1
    endloop
  endfacet
  facet normal -0.195096 0.980784 0
    outer loop
       vertex 0.0776542 0.241481 0.1
       vertex 0.109728 0.247861 0.1
       vertex 0.109728 0.247861 0
    endloop
  endfacet
  facet normal -0.321425 0.946935 0
    outer loop
       vertex 0.0776542 0.241481 0
       vertex 0.0466882 0.23097 0
       vertex 0.0466882 0.23097 0.1
    endloop
  endfacet
  facet normal -0.321425 0.946935 0
    outer loop
       vertex 0.0466882 0.23097 0.1
       vertex 0.0776542 0.241481 0.1
       vertex 0.0776542 0.241481 0
    endloop
  endfacet
  facet normal -0.442302 0.896866 0
    outer loop
       vertex 0.0466882 0.23097 0
       vertex 0.0173592 0.216506 0
       vertex 0.0173592 0.216506 0.1
    endloop
  endfacet
  facet normal -0.442302 0.896866 0
    outer loop
       vertex 0.0173592 0.216506 0.1
       vertex 0.0466882 0.23097 0.1
       vertex 0.0466882 0.23097 0
    endloop
  endfacet
  facet normal -0.555561 0.831476 0
    outer loop
       vertex 0.0173592 0.216506 0
       vertex -0.00983181 0.198338 0
       vertex -0.00983181 0.198338 0.1
    endloop
  endfacet
  facet normal -0.555561 0.831476 0
    outer loop
       vertex -0.00983181 0.198338 0.1
       vertex 0.0173592 0.216506 0.1
       vertex 0.0173592 0.216506 0
    endloop
  endfacet
  facet normal -0.659372 0.751817 0
    outer loop
       vertex -0.00983181 0.198338 0
       vertex -0.0344168 0.176776 0
       vertex -0.0344168 0.176776 0.1
    endloop
  endfacet
  facet normal -0.659372 0.751817 0
    outer loop
       vertex -0.0344168 0.176776 0.1
       vertex -0.00983181 0.198338 0.1
       vertex -0.00983181 0.198338 0
    endloop
  endfacet
  facet normal -0.751817 0.659372 0
    outer loop
       vertex -0.0344168 0.176776 0
       vertex -0.0559788 0.152191 0
       vertex -0.0559788 0.152191 0.1
    endloop
  endfacet
  facet normal -0.751817 0.659372 0
    outer loop
       vertex -0.0559788 0.152191 0.1
       vertex -0.0344168 0.176776 0.1
       vertex -0.0344168 0.176776 0
    endloop
  endfacet
  facet normal -0.831476 0.555561 0
    outer loop
       vertex -0.0559788 0.152191 0
       vertex -0.0741468 0.125 0
       vertex -0.0741468 0.125 0.1
    endloop
  endfacet
  facet normal -0.831476 0.555561 0
    outer loop
       vertex -0.0741468 0.125 0.1
       vertex -0.0559788 0.152191 0.1
       vertex -0.0559788 0.152191 0
    endloop
  endfacet
  facet normal -0.896866 0.442302 0
    outer loop
       vertex -0.0741468 0.125 0
       vertex -0.0886108 0.095671 0
       vertex -0.0886108 0.095671 0.1
    endloop
  endfacet
  facet normal -0.896866 0.442302 0
    outer loop
       vertex -0.0886108 0.095671 0.1
       vertex -0.0741468 0.125 0.1
       vertex -0.0741468 0.125 0
    endloop
  endfacet
  facet normal -0.946935 0.321425 0
    outer loop
       vertex -0.0886108 0.095671 0
       vertex -0.0991218 0.064705 0
       vertex -0.0991218 0.064705 0.1
    endloop
  endfacet
  facet normal -0.946935 0.321425 0
    outer loop
       vertex -0.0991218 0.064705 0.1
       vertex -0.0886108 0.095671 0.1
       vertex -0.0886108 0.095671 0
    endloop
  endfacet
  facet normal -0.980784 0.195096 0
    outer loop
       vertex -0.0991218 0.064705 0
       vertex -0.105502 0.0326315 0
       vertex -0.105502 0.0326315 0.1
    endloop
  endfacet
  facet normal -0.980784 0.195096 0
    outer loop
       vertex -0.105502 0.0326315 0.1
       vertex -0.0991218 0.064705 0.1
       vertex -0.0991218 0.064705 0
    endloop
  endfacet
  facet normal -0.997858 0.0654098 0
    outer loop
       vertex -0.107641 8.32665e-17 0.1
       vertex -0.105502 0.0326315 0.1
       vertex -0.105502 0.0326315 0
    endloop
  endfacet
  facet normal -0.997858 0.0654098 -1.08928e-16
    outer loop
       vertex -0.105502 0.0326315 0
       vertex -0.107641 -8.32665e-17 0
       vertex -0.107641 8.32665e-17 0.1
    endloop
  endfacet
  facet normal -0.997858 -0.0654098 0
    outer loop
       vertex -0.107641 -8.32665e-17 0
       vertex -0.105502 -0.0326315 0
       vertex -0.105502 -0.0326315 0.1
    endloop
  endfacet
  facet normal -0.997858 -0.0654098 1.08928e-16
    outer loop
       vertex -0.105502 -0.0326315 0.1
       vertex -0.107641 8.32665e-17 0.1
       vertex -0.107641 -8.32665e-17 0
    endloop
  endfacet
  facet normal -0.980784 -0.195096 0
    outer loop
       vertex -0.105502 -0.0326315 0
       vertex -0.0991218 -0.064705 0
       vertex -0.0991218 -0.064705 0.1
    endloop
  endfacet
  facet normal -0.980784 -0.195096 0
    outer loop
       vertex -0.0991218 -0.064705 0.1
       vertex -0.105502 -0.0326315 0.1
       vertex -0.105502 -0.0326315 0
    endloop
  endfacet
  facet normal -0.946935 -0.321425 0
    outer loop
       vertex -0.0991218 -0.064705 0
       vertex -0.0886108 -0.095671 0
       vertex -0.0886108 -0.095671 0.1
    endloop
  endfacet
  facet normal -0.946935 -0.321425 0
    outer loop
       vertex -0.0886108 -0.095671 0.1
       vertex -0.0991218 -0.064705 0.1
       vertex -0.0991218 -0.064705 0
    endloop
  endfacet
  facet normal -0.896866 -0.442302 0
    outer loop
       vertex -0.0886108 -0.095671 0
       vertex -0.0741468 -0.125 0
       vertex -0.0741468 -0.125 0.1
    endloop
  endfacet
  facet normal -0.896866 -0.442302 0
    outer loop
       vertex -0.0741468 -0.125 0.1
       vertex -0.0886108 -0.095671 0.1
       vertex -0.0886108 -0.095671 0
    endloop
  endfacet
  facet normal -0.831476 -0.555561 0
    outer loop
       vertex -0.0741468 -0.125 0
       vertex -0.0559788 -0.152191 0
       vertex -0.0559788 -0.152191 0.1
    endloop
  endfacet
  facet normal -0.831476 -0.555561 0
    outer loop
       vertex -0.0559788 -0.152191 0.1
       vertex -0.0741468 -0.125 0.1
       vertex -0.0741468 -0.125 0
    endloop
  endfacet
  facet normal -0.751817 -0.659372 0
    outer loop
       vertex -0.0559788 -0.152191 0
       vertex -0.0344168 -0.176776 0
       vertex -0.0344168 -0.176776 0.1
    endloop
  endfacet
  facet normal -0.751817 -0.659372 0
    outer loop
       vertex -0.0344168 -0.176776 0.1
       vertex -0.0559788 -0.152191 0.1
       vertex -0.0559788 -0.152191 0
    endloop
  endfacet
  facet normal 0.659372 -0.751817 0
    outer loop
       vertex 0.319135 -0.176776 0
       vertex 0.319135 -0.176776 0.1
       vertex 0.29455 -0.198338 0.1
    endloop
  endfacet
  facet normal 0.659372 -0.751817 0
    outer loop
       vertex 0.29455 -0.198338 0.1
       vertex 0.29455 -0.198338 0
       vertex 0.319135 -0.176776 0
    endloop
  endfacet
  facet normal 0.555561 -0.831476 0
    outer loop
       vertex 0.29455 -0.198338 0
       vertex 0.29455 -0.198338 0.1
       vertex 0.267359 -0.216506 0.1
    endloop
  endfacet
  facet normal 0.555561 -0.831476 0
    outer loop
       vertex 0.267359 -0.216506 0.1
       vertex 0.267359 -0.216506 0
       vertex 0.29455 -0.198338 0
    endloop
  endfacet
  facet normal 0.442302 -0.896866 0
    outer loop
       vertex 0.267359 -0.216506 0
       vertex 0.267359 -0.216506 0.1
       vertex 0.23803 -0.23097 0.1
    endloop
  endfacet
  facet normal 0.442302 -0.896866 0
    outer loop
       vertex 0.23803 -0.23097 0.1
       vertex 0.23803 -0.23097 0
       vertex 0.267359 -0.216506 0
    endloop
  endfacet
  facet normal 0.321425 -0.946935 0
    outer loop
       vertex 0.23803 -0.23097 0
       vertex 0.23803 -0.23097 0.1
       vertex 0.207064 -0.241481 0.1
    endloop
  endfacet
  facet normal 0.321425 -0.946935 0
    outer loop
       vertex 0.207064 -0.241481 0.1
       vertex 0.207064 -0.241481 0
       vertex 0.23803 -0.23097 0
    endloop
  endfacet
  facet normal 0.195096 -0.980784 0
    outer loop
       vertex 0.207064 -0.241481 0
       vertex 0.207064 -0.241481 0.1
       vertex 0.174991 -0.247861 0.1
    endloop
  endfacet
  facet normal 0.195096 -0.980784 0
    outer loop
       vertex 0.174991 -0.247861 0.1
       vertex 0.174991 -0.247861 0
       vertex 0.207064 -0.241481 0
    endloop
  endfacet
  facet normal 0.0654098 -0.997858 0
    outer loop
       vertex 0.142359 -0.25 0
       vertex 0.174991 -0.247861 0
       vertex 0.174991 -0.247861 0.1
    endloop
  endfacet
  facet normal 0.0654098 -0.997858 1.0893e-16
    outer loop
       vertex 0.174991 -0.247861 0.1
       vertex 0.142359 -0.25 0.1
       vertex 0.142359 -0.25 0
    endloop
  endfacet
  facet normal -0.0654098 -0.997858 0
    outer loop
       vertex 0.142359 -0.25 0.1
       vertex 0.109728 -0.247861 0.1
       vertex 0.109728 -0.247861 0
    endloop
  endfacet
  facet normal -0.0654098 -0.997858 -1.0893e-16
    outer loop
       vertex 0.109728 -0.247861 0
       vertex 0.142359 -0.25 0
       vertex 0.142359 -0.25 0.1
    endloop
  endfacet
  facet normal -0.195096 -0.980784 0
    outer loop
       vertex 0.109728 -0.247861 0
       vertex 0.109728 -0.247861 0.1
       vertex 0.0776542 -0.241481 0.1
    endloop
  endfacet
  facet normal -0.195096 -0.980784 -0
    outer loop
       vertex 0.0776542 -0.241481 0.1
       vertex 0.0776542 -0.241481 0
       vertex 0.109728 -0.247861 0
    endloop
  endfacet
  facet normal -0.321425 -0.946935 0
    outer loop
       vertex 0.0776542 -0.241481 0
       vertex 0.0776542 -0.241481 0.1
       vertex 0.0466882 -0.23097 0.1
    endloop
  endfacet
  facet normal -0.321425 -0.946935 -0
    outer loop
       vertex 0.0466882 -0.23097 0.1
       vertex 0.0466882 -0.23097 0
       vertex 0.0776542 -0.241481 0
    endloop
  endfacet
  facet normal -0.442302 -0.896866 0
    outer loop
       vertex 0.0466882 -0.23097 0
       vertex 0.0466882 -0.23097 0.1
       vertex 0.0173592 -0.216506 0.1
    endloop
  endfacet
  facet normal -0.442302 -0.896866 -0
    outer loop
       vertex 0.0173592 -0.216506 0.1
       vertex 0.0173592 -0.216506 0
       vertex 0.0466882 -0.23097 0
    endloop
  endfacet
  facet normal -0.555561 -0.831476 0
    outer loop
       vertex 0.0173592 -0.216506 0
       vertex 0.0173592 -0.216506 0.1
       vertex -0.00983181 -0.198338 0.1
    endloop
  endfacet
  facet normal -0.555561 -0.831476 -0
    outer loop
       vertex -0.00983181 -0.198338 0.1
       vertex -0.00983181 -0.198338 0
       vertex 0.0173592 -0.216506 0
    endloop
  endfacet
  facet normal -0.659372 -0.751817 0
    outer loop
       vertex -0.00983181 -0.198338 0
       vertex -0.00983181 -0.198338 0.1
       vertex -0.0344168 -0.176776 0.1
    endloop
  endfacet
  facet normal -0.659372 -0.751817 -0
    outer loop
       vertex -0.0344168 -0.176776 0.1
       vertex -0.0344168 -0.176776 0
       vertex -0.00983181 -0.198338 0
    endloop
  endfacet
endsolid cylinder
