solid cylinder
  facet normal 0.751817 -0.659372 0
    outer loop
       vertex 0.272304 -0.176776 0
       vertex 0.293866 -0.152191 0
       vertex 0.293866 -0.152191 0.1
    endloop
  endfacet
  facet normal 0.751817 -0.659372 0
    outer loop
       vertex 0.293866 -0.152191 0.1
       vertex 0.272304 -0.176776 0.1
       vertex 0.272304 -0.176776 0
    endloop
  endfacet
  facet normal 0.831476 -0.555561 0
    outer loop
       vertex 0.293866 -0.152191 0
       vertex 0.312034 -0.125 0
       vertex 0.312034 -0.125 0.1
    endloop
  endfacet
  facet normal 0.831476 -0.555561 0
    outer loop
       vertex 0.312034 -0.125 0.1
       vertex 0.293866 -0.152191 0.1
       vertex 0.293866 -0.152191 0
    endloop
  endfacet
  facet normal 0.896866 -0.442302 0
    outer loop
       vertex 0.312034 -0.125 0
       vertex 0.326498 -0.095671 0
       vertex 0.326498 -0.095671 0.1
    endloop
  endfacet
  facet normal 0.896866 -0.442302 0
    outer loop
       vertex 0.326498 -0.095671 0.1
       vertex 0.312034 -0.125 0.1
       vertex 0.312034 -0.125 0
    endloop
  endfacet
  facet normal 0.946935 -0.321425 0
    outer loop
       vertex 0.326498 -0.095671 0
       vertex 0.337009 -0.064705 0
       vertex 0.337009 -0.064705 0.1
    endloop
  endfacet
  facet normal 0.946935 -0.321425 0
    outer loop
       vertex 0.337009 -0.064705 0.1
       vertex 0.326498 -0.095671 0.1
       vertex 0.326498 -0.095671 0
    endloop
  endfacet
  facet normal 0.980784 -0.195096 0
    outer loop
       vertex 0.337009 -0.064705 0
       vertex 0.343389 -0.0326315 0
       vertex 0.343389 -0.0326315 0.1
    endloop
  endfacet
  facet normal 0.980784 -0.195096 0
    outer loop
       vertex 0.343389 -0.0326315 0.1
       vertex 0.337009 -0.064705 0.1
       vertex 0.337009 -0.064705 0
    endloop
  endfacet
  facet normal 0.997858 -0.0654098 0
    outer loop
       vertex 0.345528 -8.32665e-17 0.1
       vertex 0.343389 -0.0326315 0.1
       vertex 0.343389 -0.0326315 0
    endloop
  endfacet
  facet normal 0.997858 -0.0654098 -1.08928e-16
    outer loop
       vertex 0.343389 -0.0326315 0
       vertex 0.345528 8.32665e-17 0
       vertex 0.345528 -8.32665e-17 0.1
    endloop
  endfacet
  facet normal 0.997858 0.0654098 0
    outer loop
       vertex 0.345528 8.32665e-17 0
       vertex 0.343389 0.0326315 0
       vertex 0.343389 0.0326315 0.1
    endloop
  endfacet
  facet normal 0.997858 0.0654098 1.08928e-16
    outer loop
       vertex 0.343389 0.0326315 0.1
       vertex 0.345528 -8.32665e-17 0.1
       vertex 0.345528 8.32665e-17 0
    endloop
  endfacet
  facet normal 0.980784 0.195096 0
    outer loop
       vertex 0.343389 0.0326315 0
       vertex 0.337009 0.064705 0
       vertex 0.337009 0.064705 0.1
    endloop
  endfacet
  facet normal 0.980784 0.195096 0
    outer loop
       vertex 0.337009 0.064705 0.1
       vertex 0.343389 0.0326315 0.1
       vertex 0.343389 0.0326315 0
    endloop
  endfacet
  facet normal 0.946935 0.321425 0
    outer loop
       vertex 0.337009 0.064705 0
       vertex 0.326498 0.095671 0
       vertex 0.326498 0.095671 0.1
    endloop
  endfacet
  facet normal 0.946935 0.321425 0
    outer loop
       vertex 0.326498 0.095671 0.1
       vertex 0.337009 0.064705 0.1
       vertex 0.337009 0.064705 0
    endloop
  endfacet
  facet normal 0.896866 0.442302 0
    outer loop
       vertex 0.326498 0.095671 0
       vertex 0.312034 0.125 0
       vertex 0.312034 0.125 0.1
    endloop
  endfacet
  facet normal 0.896866 0.442302 0
    outer loop
       vertex 0.312034 0.125 0.1
       vertex 0.326498 0.095671 0.1
       vertex 0.326498 0.095671 0
    endloop
  endfacet
  facet normal 0.831476 0.555561 0
    outer loop
       vertex 0.312034 0.125 0
       vertex 0.293866 0.152191 0
       vertex 0.293866 0.152191 0.1
    endloop
  endfacet
  facet normal 0.831476 0.555561 0
    outer loop
       vertex 0.293866 0.152191 0.1
       vertex 0.312034 0.125 0.1
       vertex 0.312034 0.125 0
    endloop
  endfacet
  facet normal 0.751817 0.659372 0
    outer loop
       vertex 0.293866 0.152191 0
       vertex 0.272304 0.176776 0
       vertex 0.272304 0.176776 0.1
    endloop
  endfacet
  facet normal 0.751817 0.659372 0
    outer loop
       vertex 0.272304 0.176776 0.1
       vertex 0.293866 0.152191 0.1
       vertex 0.293866 0.152191 0
    endloop
  endfacet
  facet normal 0.659372 0.751817 0
    outer loop
       vertex 0.272304 0.176776 0
       vertex 0.247719 0.198338 0
       vertex 0.247719 0.198338 0.1
    endloop
  endfacet
  facet normal 0.659372 0.751817 0
    outer loop
       vertex 0.247719 0.198338 0.1
       vertex 0.272304 0.176776 0.1
       vertex 0.272304 0.176776 0
    endloop
  endfacet
  facet normal 0.555561 0.831476 0
    outer loop
       vertex 0.247719 0.198338 0
       vertex 0.220528 0.216506 0
       vertex 0.220528 0.216506 0.1
    endloop
  endfacet
  facet normal 0.555561 0.831476 0
    outer loop
       vertex 0.220528 0.216506 0.1
       vertex 0.247719 0.198338 0.1
       vertex 0.247719 0.198338 0
    endloop
  endfacet
  facet normal 0.442302 0.896866 0
    outer loop
       vertex 0.220528 0.216506 0
       vertex 0.191199 0.23097 0
       vertex 0.191199 0.23097 0.1
    endloop
  endfacet
  facet normal 0.442302 0.896866 0
    outer loop
       vertex 0.191199 0.23097 0.1
       vertex 0.220528 0.216506 0.1
       vertex 0.220528 0.216506 0
    endloop
  endfacet
  facet normal 0.321425 0.946935 0
    outer loop
       vertex 0.191199 0.23097 0
       vertex 0.160233 0.241481 0
       vertex 0.160233 0.241481 0.1
    endloop
  endfacet
  facet normal 0.321425 0.946935 0
    outer loop
       vertex 0.160233 0.241481 0.1
       vertex 0.191199 0.23097 0.1
       vertex 0.191199 0.23097 0
    endloop
  endfacet
  facet normal 0.195096 0.980784 0
    outer loop
       vertex 0.160233 0.241481 0
       vertex 0.128159 0.247861 0
       vertex 0.128159 0.247861 0.1
    endloop
  endfacet
  facet normal 0.195096 0.980784 0
    outer loop
       vertex 0.128159 0.247861 0.1
       vertex 0.160233 0.241481 0.1
       vertex 0.160233 0.241481 0
    endloop
  endfacet
  facet normal 0.0654098 0.997858 0
    outer loop
       vertex 0.095528 0.25 0.1
       vertex 0.128159 0.247861 0.1
       vertex 0.128159 0.247861 0
    endloop
  endfacet
  facet normal 0.0654098 0.997858 -1.0893e-16
    outer loop
       vertex 0.128159 0.247861 0
       vertex 0.095528 0.25 0
       vertex 0.095528 0.25 0.1
    endloop
  endfacet
  facet normal -0.0654098 0.997858 0
    outer loop
       vertex 0.095528 0.25 0
       vertex 0.0628965 0.247861 0
       vertex 0.0628965 0.247861 0.1
    endloop
  endfacet
  facet normal -0.0654098 0.997858 1.0893e-16
    outer loop
       vertex 0.0628965 0.247861 0.1
       vertex 0.095528 0.25 0.1
       vertex 0.095528 0.25 0
    endloop
  endfacet
  facet normal -0.195096 0.980784 0
    outer loop
       vertex 0.0628965 0.247861 0
       vertex 0.030823 0.241481 0
       vertex 0.030823 0.241481 0.1
    endloop
  endfacet
  facet normal -0.195096 0.980784 0
    outer loop
       vertex 0.030823 0.241481 0.1
       vertex 0.0628965 0.247861 0.1
       vertex 0.0628965 0.247861 0
    endloop
  endfacet
  facet normal -0.321425 0.946935 0
    outer loop
       vertex 0.030823 0.241481 0
       vertex -0.000143046 0.23097 0
       vertex -0.000143046 0.23097 0.1
    endloop
  endfacet
  facet normal -0.321425 0.946935 0
    outer loop
       vertex -0.000143046 0.23097 0.1
       vertex 0.030823 0.241481 0.1
       vertex 0.030823 0.241481 0
    endloop
  endfacet
  facet normal -0.442302 0.896866 0
    outer loop
       vertex -0.000143046 0.23097 0
       vertex -0.029472 0.216506 0
       vertex -0.029472 0.216506 0.1
    endloop
  endfacet
  facet normal -0.442302 0.896866 0
    outer loop
       vertex -0.029472 0.216506 0.1
       vertex -0.000143046 0.23097 0.1
       vertex -0.000143046 0.23097 0
    endloop
  endfacet
  facet normal -0.555561 0.831476 0
    outer loop
       vertex -0.029472 0.216506 0
       vertex -0.056663 0.198338 0
       vertex -0.056663 0.198338 0.1
    endloop
  endfacet
  facet normal -0.555561 0.831476 0
    outer loop
       vertex -0.056663 0.198338 0.1
       vertex -0.029472 0.216506 0.1
       vertex -0.029472 0.216506 0
    endloop
  endfacet
  facet normal -0.659372 0.751817 0
    outer loop
       vertex -0.056663 0.198338 0
       vertex -0.081248 0.176776 0
       vertex -0.081248 0.176776 0.1
    endloop
  endfacet
  facet normal -0.659372 0.751817 0
    outer loop
       vertex -0.081248 0.176776 0.1
       vertex -0.056663 0.198338 0.1
       vertex -0.056663 0.198338 0
    endloop
  endfacet
  facet normal -0.751817 0.659372 0
    outer loop
       vertex -0.081248 0.176776 0
       vertex -0.10281 0.152191 0
       vertex -0.10281 0.152191 0.1
    endloop
  endfacet
  facet normal -0.751817 0.659372 0
    outer loop
       vertex -0.10281 0.152191 0.1
       vertex -0.081248 0.176776 0.1
       vertex -0.081248 0.176776 0
    endloop
  endfacet
  facet normal -0.831476 0.555561 0
    outer loop
       vertex -0.10281 0.152191 0
       vertex -0.120978 0.125 0
       vertex -0.120978 0.125 0.1
    endloop
  endfacet
  facet normal -0.831476 0.555561 0
    outer loop
       vertex -0.120978 0.125 0.1
       vertex -0.10281 0.152191 0.1
       vertex -0.10281 0.152191 0
    endloop
  endfacet
  facet normal -0.896866 0.442302 0
    outer loop
       vertex -0.120978 0.125 0
       vertex -0.135442 0.095671 0
       vertex -0.135442 0.095671 0.1
    endloop
  endfacet
  facet normal -0.896866 0.442302 0
    outer loop
       vertex -0.135442 0.095671 0.1
       vertex -0.120978 0.125 0.1
       vertex -0.120978 0.125 0
    endloop
  endfacet
  facet normal -0.946935 0.321425 0
    outer loop
       vertex -0.135442 0.095671 0
       vertex -0.145953 0.064705 0
       vertex -0.145953 0.064705 0.1
    endloop
  endfacet
  facet normal -0.946935 0.321425 0
    outer loop
       vertex -0.145953 0.064705 0.1
       vertex -0.135442 0.095671 0.1
       vertex -0.135442 0.095671 0
    endloop
  endfacet
  facet normal -0.980784 0.195096 0
    outer loop
       vertex -0.145953 0.064705 0
       vertex -0.152333 0.0326315 0
       vertex -0.152333 0.0326315 0.1
    endloop
  endfacet
  facet normal -0.980784 0.195096 0
    outer loop
       vertex -0.152333 0.0326315 0.1
       vertex -0.145953 0.064705 0.1
       vertex -0.145953 0.064705 0
    endloop
  endfacet
  facet normal -0.997858 0.0654098 0
    outer loop
       vertex -0.154472 8.32665e-17 0.1
       vertex -0.152333 0.0326315 0.1
       vertex -0.152333 0.0326315 0
    endloop
  endfacet
  facet normal -0.997858 0.0654098 -1.08928e-16
    outer loop
       vertex -0.152333 0.0326315 0
       vertex -0.154472 -8.32665e-17 0
       vertex -0.154472 8.32665e-17 0.1
    endloop
  endfacet
  facet normal -0.997858 -0.0654098 0
    outer loop
       vertex -0.154472 -8.32665e-17 0
       vertex -0.152333 -0.0326315 0
       vertex -0.152333 -0.0326315 0.1
    endloop
  endfacet
  facet normal -0.997858 -0.0654098 1.08928e-16
    outer loop
       vertex -0.152333 -0.0326315 0.1
       vertex -0.154472 8.32665e-17 0.1
       vertex -0.154472 -8.32665e-17 0
    endloop
  endfacet
  facet normal -0.980784 -0.195096 0
    outer loop
       vertex -0.152333 -0.0326315 0
       vertex -0.145953 -0.064705 0
       vertex -0.145953 -0.064705 0.1
    endloop
  endfacet
  facet normal -0.980784 -0.195096 0
    outer loop
       vertex -0.145953 -0.064705 0.1
       vertex -0.152333 -0.0326315 0.1
       vertex -0.152333 -0.0326315 0
    endloop
  endfacet
  facet normal -0.946935 -0.321425 0
    outer loop
       vertex -0.145953 -0.064705 0
       vertex -0.135442 -0.095671 0
       vertex -0.135442 -0.095671 0.1
    endloop
  endfacet
  facet normal -0.946935 -0.321425 0
    outer loop
       vertex -0.135442 -0.095671 0.1
       vertex -0.145953 -0.064705 0.1
       vertex -0.145953 -0.064705 0
    endloop
  endfacet
  facet normal -0.896866 -0.442302 0
    outer loop
       vertex -0.135442 -0.095671 0
       vertex -0.120978 -0.125 0
       vertex -0.120978 -0.125 0.1
    endloop
  endfacet
  facet normal -0.896866 -0.442302 0
    outer loop
       vertex -0.120978 -0.125 0.1
       vertex -0.135442 -0.095671 0.1
       vertex -0.135442 -0.095671 0
    endloop
  endfacet
  facet normal -0.831476 -0.555561 0
    outer loop
       vertex -0.120978 -0.125 0
       vertex -0.10281 -0.152191 0
       vertex -0.10281 -0.152191 0.1
    endloop
  endfacet
  facet normal -0.831476 -0.555561 0
    outer loop
       vertex -0.10281 -0.152191 0.1
       vertex -0.120978 -0.125 0.1
       vertex -0.120978 -0.125 0
    endloop
  endfacet
  facet normal -0.751817 -0.659372 0
    outer loop
       vertex -0.10281 -0.152191 0
       vertex -0.081248 -0.176776 0
       vertex -0.081248 -0.176776 0.1
    endloop
  endfacet
  facet normal -0.751817 -0.659372 0
    outer loop
       vertex -0.081248 -0.176776 0.1
       vertex -0.10281 -0.152191 0.1
       vertex -0.10281 -0.152191 0
    endloop
  endfacet
  facet normal 0.659372 -0.751817 0
    outer loop
       vertex 0.272304 -0.176776 0
       vertex 0.272304 -0.176776 0.1
       vertex 0.247719 -0.198338 0.1
    endloop
  endfacet
  facet normal 0.659372 -0.751817 0
    outer loop
       vertex 0.247719 -0.198338 0.1
       vertex 0.247719 -0.198338 0
       vertex 0.272304 -0.176776 0
    endloop
  endfacet
  facet normal 0.555561 -0.831476 0
    outer loop
       vertex 0.247719 -0.198338 0
       vertex 0.247719 -0.198338 0.1
       vertex 0.220528 -0.216506 0.1
    endloop
  endfacet
  facet normal 0.555561 -0.831476 0
    outer loop
       vertex 0.220528 -0.216506 0.1
       vertex 0.220528 -0.216506 0
       vertex 0.247719 -0.198338 0
    endloop
  endfacet
  facet normal 0.442302 -0.896866 0
    outer loop
       vertex 0.220528 -0.216506 0
       vertex 0.220528 -0.216506 0.1
       vertex 0.191199 -0.23097 0.1
    endloop
  endfacet
  facet normal 0.442302 -0.896866 0
    outer loop
       vertex 0.191199 -0.23097 0.1
       vertex 0.191199 -0.23097 0
       vertex 0.220528 -0.216506 0
    endloop
  endfacet
  facet normal 0.321425 -0.946935 0
    outer loop
       vertex 0.191199 -0.23097 0
       vertex 0.191199 -0.23097 0.1
       vertex 0.160233 -0.241481 0.1
    endloop
  endfacet
  facet normal 0.321425 -0.946935 0
    outer loop
       vertex 0.160233 -0.241481 0.1
       vertex 0.160233 -0.241481 0
       vertex 0.191199 -0.23097 0
    endloop
  endfacet
  facet normal 0.195096 -0.980784 0
    outer loop
       vertex 0.160233 -0.241481 0
       vertex 0.160233 -0.241481 0.1
       vertex 0.128159 -0.247861 0.1
    endloop
  endfacet
  facet normal 0.195096 -0.980784 0
    outer loop
       vertex 0.128159 -0.247861 0.1
       vertex 0.128159 -0.247861 0
       vertex 0.160233 -0.241481 0
    endloop
  endfacet
  facet normal 0.0654098 -0.997858 0
    outer loop
       vertex 0.095528 -0.25 0
       vertex 0.128159 -0.247861 0
       vertex 0.128159 -0.247861 0.1
    endloop
  endfacet
  facet normal 0.0654098 -0.997858 1.0893e-16
    outer loop
       vertex 0.128159 -0.247861 0.1
       vertex 0.095528 -0.25 0.1
       vertex 0.095528 -0.25 0
    endloop
  endfacet
  facet normal -0.0654098 -0.997858 0
    outer loop
       vertex 0.095528 -0.25 0.1
       vertex 0.0628965 -0.247861 0.1
       vertex 0.0628965 -0.247861 0
    endloop
  endfacet
  facet normal -0.0654098 -0.997858 -1.0893e-16
    outer loop
       vertex 0.0628965 -0.247861 0
       vertex 0.095528 -0.25 0
       vertex 0.095528 -0.25 0.1
    endloop
  endfacet
  facet normal -0.195096 -0.980784 0
    outer loop
       vertex 0.0628965 -0.247861 0
       vertex 0.0628965 -0.247861 0.1
       vertex 0.030823 -0.241481 0.1
    endloop
  endfacet
  facet normal -0.195096 -0.980784 -0
    outer loop
       vertex 0.030823 -0.241481 0.1
       vertex 0.030823 -0.241481 0
       vertex 0.0628965 -0.247861 0
    endloop
  endfacet
  facet normal -0.321425 -0.946935 0
    outer loop
       vertex 0.030823 -0.241481 0
       vertex 0.030823 -0.241481 0.1
       vertex -0.000143046 -0.23097 0.1
    endloop
  endfacet
  facet normal -0.321425 -0.946935 -0
    outer loop
       vertex -0.000143046 -0.23097 0.1
       vertex -0.000143046 -0.23097 0
       vertex 0.030823 -0.241481 0
    endloop
  endfacet
  facet normal -0.442302 -0.896866 0
    outer loop
       vertex -0.000143046 -0.23097 0
       vertex -0.000143046 -0.23097 0.1
       vertex -0.029472 -0.216506 0.1
    endloop
  endfacet
  facet normal -0.442302 -0.896866 -0
    outer loop
       vertex -0.029472 -0.216506 0.1
       vertex -0.029472 -0.216506 0
       vertex -0.000143046 -0.23097 0
    endloop
  endfacet
  facet normal -0.555561 -0.831476 0
    outer loop
       vertex -0.029472 -0.216506 0
       vertex -0.029472 -0.216506 0.1
       vertex -0.056663 -0.198338 0.1
    endloop
  endfacet
  facet normal -0.555561 -0.831476 -0
    outer loop
       vertex -0.056663 -0.198338 0.1
       vertex -0.056663 -0.198338 0
       vertex -0.029472 -0.216506 0
    endloop
  endfacet
  facet normal -0.659372 -0.751817 0
    outer loop
       vertex -0.056663 -0.198338 0
       vertex -0.056663 -0.198338 0.1
       vertex -0.081248 -0.176776 0.1
    endloop
  endfacet
  facet normal -0.659372 -0.751817 -0
    outer loop
       vertex -0.081248 -0.176776 0.1
       vertex -0.081248 -0.176776 0
       vertex -0.056663 -0.198338 0
    endloop
  endfacet
endsolid cylinder
