solid cylinder
  facet normal 0.751817 -0.659372 0
    outer loop
       vertex 0.48661 -0.176776 0
       vertex 0.508172 -0.152191 0
       vertex 0.508172 -0.152191 0.1
    endloop
  endfacet
  facet normal 0.751817 -0.659372 0
    outer loop
       vertex 0.508172 -0.152191 0.1
       vertex 0.48661 -0.176776 0.1
       vertex 0.48661 -0.176776 0
    endloop
  endfacet
  facet normal 0.831476 -0.555561 0
    outer loop
       vertex 0.508172 -0.152191 0
       vertex 0.52634 -0.125 0
       vertex 0.52634 -0.125 0.1
    endloop
  endfacet
  facet normal 0.831476 -0.555561 0
    outer loop
       vertex 0.52634 -0.125 0.1
       vertex 0.508172 -0.152191 0.1
       vertex 0.508172 -0.152191 0
    endloop
  endfacet
  facet normal 0.896866 -0.442302 0
    outer loop
       vertex 0.52634 -0.125 0
       vertex 0.540804 -0.095671 0
       vertex 0.540804 -0.095671 0.1
    endloop
  endfacet
  facet normal 0.896866 -0.442302 0
    outer loop
       vertex 0.540804 -0.095671 0.1
       vertex 0.52634 -0.125 0.1
       vertex 0.52634 -0.125 0
    endloop
  endfacet
  facet normal 0.946935 -0.321425 0
    outer loop
       vertex 0.540804 -0.095671 0
       vertex 0.551315 -0.064705 0
       vertex 0.551315 -0.064705 0.1
    endloop
  endfacet
  facet normal 0.946935 -0.321425 0
    outer loop
       vertex 0.551315 -0.064705 0.1
       vertex 0.540804 -0.095671 0.1
       vertex 0.540804 -0.095671 0
    endloop
  endfacet
  facet normal 0.980784 -0.195096 0
    outer loop
       vertex 0.551315 -0.064705 0
       vertex 0.557695 -0.0326315 0
       vertex 0.557695 -0.0326315 0.1
    endloop
  endfacet
  facet normal 0.980784 -0.195096 0
    outer loop
       vertex 0.557695 -0.0326315 0.1
       vertex 0.551315 -0.064705 0.1
       vertex 0.551315 -0.064705 0
    endloop
  endfacet
  facet normal 0.997858 -0.0654098 0
    outer loop
       vertex 0.559834 -8.32665e-17 0.1
       vertex 0.557695 -0.0326315 0.1
       vertex 0.557695 -0.0326315 0
    endloop
  endfacet
  facet normal 0.997858 -0.0654098 -1.0893e-16
    outer loop
       vertex 0.557695 -0.0326315 0
       vertex 0.559834 8.32665e-17 0
       vertex 0.559834 -8.32665e-17 0.1
    endloop
  endfacet
  facet normal 0.997858 0.0654098 0
    outer loop
       vertex 0.559834 8.32665e-17 0
       vertex 0.557695 0.0326315 0
       vertex 0.557695 0.0326315 0.1
    endloop
  endfacet
  facet normal 0.997858 0.0654098 1.0893e-16
    outer loop
       vertex 0.557695 0.0326315 0.1
       vertex 0.559834 -8.32665e-17 0.1
       vertex 0.559834 8.32665e-17 0
    endloop
  endfacet
  facet normal 0.980784 0.195096 0
    outer loop
       vertex 0.557695 0.0326315 0
       vertex 0.551315 0.064705 0
       vertex 0.551315 0.064705 0.1
    endloop
  endfacet
  facet normal 0.980784 0.195096 0
    outer loop
       vertex 0.551315 0.064705 0.1
       vertex 0.557695 0.0326315 0.1
       vertex 0.557695 0.0326315 0
    endloop
  endfacet
  facet normal 0.946935 0.321425 0
    outer loop
       vertex 0.551315 0.064705 0
       vertex 0.540804 0.095671 0
       vertex 0.540804 0.095671 0.1
    endloop
  endfacet
  facet normal 0.946935 0.321425 0
    outer loop
       vertex 0.540804 0.095671 0.1
       vertex 0.551315 0.064705 0.1
       vertex 0.551315 0.064705 0
    endloop
  endfacet
  facet normal 0.896866 0.442302 0
    outer loop
       vertex 0.540804 0.095671 0
       vertex 0.52634 0.125 0
       vertex 0.52634 0.125 0.1
    endloop
  endfacet
  facet normal 0.896866 0.442302 0
    outer loop
       vertex 0.52634 0.125 0.1
       vertex 0.540804 0.095671 0.1
       vertex 0.540804 0.095671 0
    endloop
  endfacet
  facet normal 0.831476 0.555561 0
    outer loop
       vertex 0.52634 0.125 0
       vertex 0.508172 0.152191 0
       vertex 0.508172 0.152191 0.1
    endloop
  endfacet
  facet normal 0.831476 0.555561 0
    outer loop
       vertex 0.508172 0.152191 0.1
       vertex 0.52634 0.125 0.1
       vertex 0.52634 0.125 0
    endloop
  endfacet
  facet normal 0.751817 0.659372 0
    outer loop
       vertex 0.508172 0.152191 0
       vertex 0.48661 0.176776 0
       vertex 0.48661 0.176776 0.1
    endloop
  endfacet
  facet normal 0.751817 0.659372 0
    outer loop
       vertex 0.48661 0.176776 0.1
       vertex 0.508172 0.152191 0.1
       vertex 0.508172 0.152191 0
    endloop
  endfacet
  facet normal 0.659372 0.751817 0
    outer loop
       vertex 0.48661 0.176776 0
       vertex 0.462025 0.198338 0
       vertex 0.462025 0.198338 0.1
    endloop
  endfacet
  facet normal 0.659372 0.751817 0
    outer loop
       vertex 0.462025 0.198338 0.1
       vertex 0.48661 0.176776 0.1
       vertex 0.48661 0.176776 0
    endloop
  endfacet
  facet normal 0.555561 0.831476 0
    outer loop
       vertex 0.462025 0.198338 0
       vertex 0.434834 0.216506 0
       vertex 0.434834 0.216506 0.1
    endloop
  endfacet
  facet normal 0.555561 0.831476 0
    outer loop
       vertex 0.434834 0.216506 0.1
       vertex 0.462025 0.198338 0.1
       vertex 0.462025 0.198338 0
    endloop
  endfacet
  facet normal 0.442302 0.896866 0
    outer loop
       vertex 0.434834 0.216506 0
       vertex 0.405505 0.23097 0
       vertex 0.405505 0.23097 0.1
    endloop
  endfacet
  facet normal 0.442302 0.896866 0
    outer loop
       vertex 0.405505 0.23097 0.1
       vertex 0.434834 0.216506 0.1
       vertex 0.434834 0.216506 0
    endloop
  endfacet
  facet normal 0.321425 0.946935 0
    outer loop
       vertex 0.405505 0.23097 0
       vertex 0.374539 0.241481 0
       vertex 0.374539 0.241481 0.1
    endloop
  endfacet
  facet normal 0.321425 0.946935 0
    outer loop
       vertex 0.374539 0.241481 0.1
       vertex 0.405505 0.23097 0.1
       vertex 0.405505 0.23097 0
    endloop
  endfacet
  facet normal 0.195096 0.980784 0
    outer loop
       vertex 0.374539 0.241481 0
       vertex 0.342466 0.247861 0
       vertex 0.342466 0.247861 0.1
    endloop
  endfacet
  facet normal 0.195096 0.980784 0
    outer loop
       vertex 0.342466 0.247861 0.1
       vertex 0.374539 0.241481 0.1
       vertex 0.374539 0.241481 0
    endloop
  endfacet
  facet normal 0.0654098 0.997858 0
    outer loop
       vertex 0.309834 0.25 0.1
       vertex 0.342466 0.247861 0.1
       vertex 0.342466 0.247861 0
    endloop
  endfacet
  facet normal 0.0654098 0.997858 -7.26205e-17
    outer loop
       vertex 0.342466 0.247861 0
       vertex 0.309834 0.25 0
       vertex 0.309834 0.25 0.1
    endloop
  endfacet
  facet normal -0.0654098 0.997858 0
    outer loop
       vertex 0.309834 0.25 0
       vertex 0.277203 0.247861 0
       vertex 0.277203 0.247861 0.1
    endloop
  endfacet
  facet normal -0.0654098 0.997858 7.26205e-17
    outer loop
       vertex 0.277203 0.247861 0.1
       vertex 0.309834 0.25 0.1
       vertex 0.309834 0.25 0
    endloop
  endfacet
  facet normal -0.195096 0.980784 0
    outer loop
       vertex 0.277203 0.247861 0
       vertex 0.245129 0.241481 0
       vertex 0.245129 0.241481 0.1
    endloop
  endfacet
  facet normal -0.195096 0.980784 0
    outer loop
       vertex 0.245129 0.241481 0.1
       vertex 0.277203 0.247861 0.1
       vertex 0.277203 0.247861 0
    endloop
  endfacet
  facet normal -0.321425 0.946935 0
    outer loop
       vertex 0.245129 0.241481 0
       vertex 0.214163 0.23097 0
       vertex 0.214163 0.23097 0.1
    endloop
  endfacet
  facet normal -0.321425 0.946935 0
    outer loop
       vertex 0.214163 0.23097 0.1
       vertex 0.245129 0.241481 0.1
       vertex 0.245129 0.241481 0
    endloop
  endfacet
  facet normal -0.442302 0.896866 0
    outer loop
       vertex 0.214163 0.23097 0
       vertex 0.184834 0.216506 0
       vertex 0.184834 0.216506 0.1
    endloop
  endfacet
  facet normal -0.442302 0.896866 0
    outer loop
       vertex 0.184834 0.216506 0.1
       vertex 0.214163 0.23097 0.1
       vertex 0.214163 0.23097 0
    endloop
  endfacet
  facet normal -0.555561 0.831476 0
    outer loop
       vertex 0.184834 0.216506 0
       vertex 0.157643 0.198338 0
       vertex 0.157643 0.198338 0.1
    endloop
  endfacet
  facet normal -0.555561 0.831476 0
    outer loop
       vertex 0.157643 0.198338 0.1
       vertex 0.184834 0.216506 0.1
       vertex 0.184834 0.216506 0
    endloop
  endfacet
  facet normal -0.659372 0.751817 0
    outer loop
       vertex 0.157643 0.198338 0
       vertex 0.133058 0.176776 0
       vertex 0.133058 0.176776 0.1
    endloop
  endfacet
  facet normal -0.659372 0.751817 0
    outer loop
       vertex 0.133058 0.176776 0.1
       vertex 0.157643 0.198338 0.1
       vertex 0.157643 0.198338 0
    endloop
  endfacet
  facet normal -0.751817 0.659372 0
    outer loop
       vertex 0.133058 0.176776 0
       vertex 0.111496 0.152191 0
       vertex 0.111496 0.152191 0.1
    endloop
  endfacet
  facet normal -0.751817 0.659372 0
    outer loop
       vertex 0.111496 0.152191 0.1
       vertex 0.133058 0.176776 0.1
       vertex 0.133058 0.176776 0
    endloop
  endfacet
  facet normal -0.831476 0.555561 0
    outer loop
       vertex 0.111496 0.152191 0
       vertex 0.0933281 0.125 0
       vertex 0.0933281 0.125 0.1
    endloop
  endfacet
  facet normal -0.831476 0.555561 0
    outer loop
       vertex 0.0933281 0.125 0.1
       vertex 0.111496 0.152191 0.1
       vertex 0.111496 0.152191 0
    endloop
  endfacet
  facet normal -0.896866 0.442302 0
    outer loop
       vertex 0.0933281 0.125 0
       vertex 0.0788641 0.095671 0
       vertex 0.0788641 0.095671 0.1
    endloop
  endfacet
  facet normal -0.896866 0.442302 0
    outer loop
       vertex 0.0788641 0.095671 0.1
       vertex 0.0933281 0.125 0.1
       vertex 0.0933281 0.125 0
    endloop
  endfacet
  facet normal -0.946935 0.321425 0
    outer loop
       vertex 0.0788641 0.095671 0
       vertex 0.0683531 0.064705 0
       vertex 0.0683531 0.064705 0.1
    endloop
  endfacet
  facet normal -0.946935 0.321425 0
    outer loop
       vertex 0.0683531 0.064705 0.1
       vertex 0.0788641 0.095671 0.1
       vertex 0.0788641 0.095671 0
    endloop
  endfacet
  facet normal -0.980784 0.195096 0
    outer loop
       vertex 0.0683531 0.064705 0
       vertex 0.0619731 0.0326315 0
       vertex 0.0619731 0.0326315 0.1
    endloop
  endfacet
  facet normal -0.980784 0.195096 0
    outer loop
       vertex 0.0619731 0.0326315 0.1
       vertex 0.0683531 0.064705 0.1
       vertex 0.0683531 0.064705 0
    endloop
  endfacet
  facet normal -0.997858 0.0654098 0
    outer loop
       vertex 0.0598341 8.32665e-17 0.1
       vertex 0.0619731 0.0326315 0.1
       vertex 0.0619731 0.0326315 0
    endloop
  endfacet
  facet normal -0.997858 0.0654098 -1.08928e-16
    outer loop
       vertex 0.0619731 0.0326315 0
       vertex 0.0598341 -8.32665e-17 0
       vertex 0.0598341 8.32665e-17 0.1
    endloop
  endfacet
  facet normal -0.997858 -0.0654098 0
    outer loop
       vertex 0.0598341 -8.32665e-17 0
       vertex 0.0619731 -0.0326315 0
       vertex 0.0619731 -0.0326315 0.1
    endloop
  endfacet
  facet normal -0.997858 -0.0654098 1.08928e-16
    outer loop
       vertex 0.0619731 -0.0326315 0.1
       vertex 0.0598341 8.32665e-17 0.1
       vertex 0.0598341 -8.32665e-17 0
    endloop
  endfacet
  facet normal -0.980784 -0.195096 0
    outer loop
       vertex 0.0619731 -0.0326315 0
       vertex 0.0683531 -0.064705 0
       vertex 0.0683531 -0.064705 0.1
    endloop
  endfacet
  facet normal -0.980784 -0.195096 0
    outer loop
       vertex 0.0683531 -0.064705 0.1
       vertex 0.0619731 -0.0326315 0.1
       vertex 0.0619731 -0.0326315 0
    endloop
  endfacet
  facet normal -0.946935 -0.321425 0
    outer loop
       vertex 0.0683531 -0.064705 0
       vertex 0.0788641 -0.095671 0
       vertex 0.0788641 -0.095671 0.1
    endloop
  endfacet
  facet normal -0.946935 -0.321425 0
    outer loop
       vertex 0.0788641 -0.095671 0.1
       vertex 0.0683531 -0.064705 0.1
       vertex 0.0683531 -0.064705 0
    endloop
  endfacet
  facet normal -0.896866 -0.442302 0
    outer loop
       vertex 0.0788641 -0.095671 0
       vertex 0.0933281 -0.125 0
       vertex 0.0933281 -0.125 0.1
    endloop
  endfacet
  facet normal -0.896866 -0.442302 0
    outer loop
       vertex 0.0933281 -0.125 0.1
       vertex 0.0788641 -0.095671 0.1
       vertex 0.0788641 -0.095671 0
    endloop
  endfacet
  facet normal -0.831476 -0.555561 0
    outer loop
       vertex 0.0933281 -0.125 0
       vertex 0.111496 -0.152191 0
       vertex 0.111496 -0.152191 0.1
    endloop
  endfacet
  facet normal -0.831476 -0.555561 0
    outer loop
       vertex 0.111496 -0.152191 0.1
       vertex 0.0933281 -0.125 0.1
       vertex 0.0933281 -0.125 0
    endloop
  endfacet
  facet normal -0.751817 -0.659372 0
    outer loop
       vertex 0.111496 -0.152191 0
       vertex 0.133058 -0.176776 0
       vertex 0.133058 -0.176776 0.1
    endloop
  endfacet
  facet normal -0.751817 -0.659372 0
    outer loop
       vertex 0.133058 -0.176776 0.1
       vertex 0.111496 -0.152191 0.1
       vertex 0.111496 -0.152191 0
    endloop
  endfacet
  facet normal 0.659372 -0.751817 0
    outer loop
       vertex 0.48661 -0.176776 0
       vertex 0.48661 -0.176776 0.1
       vertex 0.462025 -0.198338 0.1
    endloop
  endfacet
  facet normal 0.659372 -0.751817 0
    outer loop
       vertex 0.462025 -0.198338 0.1
       vertex 0.462025 -0.198338 0
       vertex 0.48661 -0.176776 0
    endloop
  endfacet
  facet normal 0.555561 -0.831476 0
    outer loop
       vertex 0.462025 -0.198338 0
       vertex 0.462025 -0.198338 0.1
       vertex 0.434834 -0.216506 0.1
    endloop
  endfacet
  facet normal 0.555561 -0.831476 0
    outer loop
       vertex 0.434834 -0.216506 0.1
       vertex 0.434834 -0.216506 0
       vertex 0.462025 -0.198338 0
    endloop
  endfacet
  facet normal 0.442302 -0.896866 0
    outer loop
       vertex 0.434834 -0.216506 0
       vertex 0.434834 -0.216506 0.1
       vertex 0.405505 -0.23097 0.1
    endloop
  endfacet
  facet normal 0.442302 -0.896866 0
    outer loop
       vertex 0.405505 -0.23097 0.1
       vertex 0.405505 -0.23097 0
       vertex 0.434834 -0.216506 0
    endloop
  endfacet
  facet normal 0.321425 -0.946935 0
    outer loop
       vertex 0.405505 -0.23097 0
       vertex 0.405505 -0.23097 0.1
       vertex 0.374539 -0.241481 0.1
    endloop
  endfacet
  facet normal 0.321425 -0.946935 0
    outer loop
       vertex 0.374539 -0.241481 0.1
       vertex 0.374539 -0.241481 0
       vertex 0.405505 -0.23097 0
    endloop
  endfacet
  facet normal 0.195096 -0.980784 0
    outer loop
       vertex 0.374539 -0.241481 0
       vertex 0.374539 -0.241481 0.1
       vertex 0.342466 -0.247861 0.1
    endloop
  endfacet
  facet normal 0.195096 -0.980784 0
    outer loop
       vertex 0.342466 -0.247861 0.1
       vertex 0.342466 -0.247861 0
       vertex 0.374539 -0.241481 0
    endloop
  endfacet
  facet normal 0.0654098 -0.997858 0
    outer loop
       vertex 0.309834 -0.25 0
       vertex 0.342466 -0.247861 0
       vertex 0.342466 -0.247861 0.1
    endloop
  endfacet
  facet normal 0.0654098 -0.997858 7.26205e-17
    outer loop
       vertex 0.342466 -0.247861 0.1
       vertex 0.309834 -0.25 0.1
       vertex 0.309834 -0.25 0
    endloop
  endfacet
  facet normal -0.0654098 -0.997858 0
    outer loop
       vertex 0.309834 -0.25 0.1
       vertex 0.277203 -0.247861 0.1
       vertex 0.277203 -0.247861 0
    endloop
  endfacet
  facet normal -0.0654098 -0.997858 -7.26205e-17
    outer loop
       vertex 0.277203 -0.247861 0
       vertex 0.309834 -0.25 0
       vertex 0.309834 -0.25 0.1
    endloop
  endfacet
  facet normal -0.195096 -0.980784 0
    outer loop
       vertex 0.277203 -0.247861 0
       vertex 0.277203 -0.247861 0.1
       vertex 0.245129 -0.241481 0.1
    endloop
  endfacet
  facet normal -0.195096 -0.980784 -0
    outer loop
       vertex 0.245129 -0.241481 0.1
       vertex 0.245129 -0.241481 0
       vertex 0.277203 -0.247861 0
    endloop
  endfacet
  facet normal -0.321425 -0.946935 0
    outer loop
       vertex 0.245129 -0.241481 0
       vertex 0.245129 -0.241481 0.1
       vertex 0.214163 -0.23097 0.1
    endloop
  endfacet
  facet normal -0.321425 -0.946935 -0
    outer loop
       vertex 0.214163 -0.23097 0.1
       vertex 0.214163 -0.23097 0
       vertex 0.245129 -0.241481 0
    endloop
  endfacet
  facet normal -0.442302 -0.896866 0
    outer loop
       vertex 0.214163 -0.23097 0
       vertex 0.214163 -0.23097 0.1
       vertex 0.184834 -0.216506 0.1
    endloop
  endfacet
  facet normal -0.442302 -0.896866 -0
    outer loop
       vertex 0.184834 -0.216506 0.1
       vertex 0.184834 -0.216506 0
       vertex 0.214163 -0.23097 0
    endloop
  endfacet
  facet normal -0.555561 -0.831476 0
    outer loop
       vertex 0.184834 -0.216506 0
       vertex 0.184834 -0.216506 0.1
       vertex 0.157643 -0.198338 0.1
    endloop
  endfacet
  facet normal -0.555561 -0.831476 -0
    outer loop
       vertex 0.157643 -0.198338 0.1
       vertex 0.157643 -0.198338 0
       vertex 0.184834 -0.216506 0
    endloop
  endfacet
  facet normal -0.659372 -0.751817 0
    outer loop
       vertex 0.157643 -0.198338 0
       vertex 0.157643 -0.198338 0.1
       vertex 0.133058 -0.176776 0.1
    endloop
  endfacet
  facet normal -0.659372 -0.751817 -0
    outer loop
       vertex 0.133058 -0.176776 0.1
       vertex 0.133058 -0.176776 0
       vertex 0.157643 -0.198338 0
    endloop
  endfacet
endsolid cylinder
