solid cylinder
  facet normal 0.751817 -0.659372 0
    outer loop
       vertex -0.0249361 -0.176776 0
       vertex -0.00337407 -0.152191 0
       vertex -0.00337407 -0.152191 0.1
    endloop
  endfacet
  facet normal 0.751817 -0.659372 0
    outer loop
       vertex -0.00337407 -0.152191 0.1
       vertex -0.0249361 -0.176776 0.1
       vertex -0.0249361 -0.176776 0
    endloop
  endfacet
  facet normal 0.831476 -0.555561 0
    outer loop
       vertex -0.00337407 -0.152191 0
       vertex 0.0147939 -0.125 0
       vertex 0.0147939 -0.125 0.1
    endloop
  endfacet
  facet normal 0.831476 -0.555561 0
    outer loop
       vertex 0.0147939 -0.125 0.1
       vertex -0.00337407 -0.152191 0.1
       vertex -0.00337407 -0.152191 0
    endloop
  endfacet
  facet normal 0.896866 -0.442302 0
    outer loop
       vertex 0.0147939 -0.125 0
       vertex 0.0292579 -0.095671 0
       vertex 0.0292579 -0.095671 0.1
    endloop
  endfacet
  facet normal 0.896866 -0.442302 0
    outer loop
       vertex 0.0292579 -0.095671 0.1
       vertex 0.0147939 -0.125 0.1
       vertex 0.0147939 -0.125 0
    endloop
  endfacet
  facet normal 0.946935 -0.321425 0
    outer loop
       vertex 0.0292579 -0.095671 0
       vertex 0.0397689 -0.064705 0
       vertex 0.0397689 -0.064705 0.1
    endloop
  endfacet
  facet normal 0.946935 -0.321425 0
    outer loop
       vertex 0.0397689 -0.064705 0.1
       vertex 0.0292579 -0.095671 0.1
       vertex 0.0292579 -0.095671 0
    endloop
  endfacet
  facet normal 0.980784 -0.195096 0
    outer loop
       vertex 0.0397689 -0.064705 0
       vertex 0.0461489 -0.0326315 0
       vertex 0.0461489 -0.0326315 0.1
    endloop
  endfacet
  facet normal 0.980784 -0.195096 0
    outer loop
       vertex 0.0461489 -0.0326315 0.1
       vertex 0.0397689 -0.064705 0.1
       vertex 0.0397689 -0.064705 0
    endloop
  endfacet
  facet normal 0.997858 -0.0654098 0
    outer loop
       vertex 0.0482879 -8.32665e-17 0.1
       vertex 0.0461489 -0.0326315 0.1
       vertex 0.0461489 -0.0326315 0
    endloop
  endfacet
  facet normal 0.997858 -0.0654098 -1.08928e-16
    outer loop
       vertex 0.0461489 -0.0326315 0
       vertex 0.0482879 8.32665e-17 0
       vertex 0.0482879 -8.32665e-17 0.1
    endloop
  endfacet
  facet normal 0.997858 0.0654098 0
    outer loop
       vertex 0.0482879 8.32665e-17 0
       vertex 0.0461489 0.0326315 0
       vertex 0.0461489 0.0326315 0.1
    endloop
  endfacet
  facet normal 0.997858 0.0654098 1.08928e-16
    outer loop
       vertex 0.0461489 0.0326315 0.1
       vertex 0.0482879 -8.32665e-17 0.1
       vertex 0.0482879 8.32665e-17 0
    endloop
  endfacet
  facet normal 0.980784 0.195096 0
    outer loop
       vertex 0.0461489 0.0326315 0
       vertex 0.0397689 0.064705 0
       vertex 0.0397689 0.064705 0.1
    endloop
  endfacet
  facet normal 0.980784 0.195096 0
    outer loop
       vertex 0.0397689 0.064705 0.1
       vertex 0.0461489 0.0326315 0.1
       vertex 0.0461489 0.0326315 0
    endloop
  endfacet
  facet normal 0.946935 0.321425 0
    outer loop
       vertex 0.0397689 0.064705 0
       vertex 0.0292579 0.095671 0
       vertex 0.0292579 0.095671 0.1
    endloop
  endfacet
  facet normal 0.946935 0.321425 0
    outer loop
       vertex 0.0292579 0.095671 0.1
       vertex 0.0397689 0.064705 0.1
       vertex 0.0397689 0.064705 0
    endloop
  endfacet
  facet normal 0.896866 0.442302 0
    outer loop
       vertex 0.0292579 0.095671 0
       vertex 0.0147939 0.125 0
       vertex 0.0147939 0.125 0.1
    endloop
  endfacet
  facet normal 0.896866 0.442302 0
    outer loop
       vertex 0.0147939 0.125 0.1
       vertex 0.0292579 0.095671 0.1
       vertex 0.0292579 0.095671 0
    endloop
  endfacet
  facet normal 0.831476 0.555561 0
    outer loop
       vertex 0.0147939 0.125 0
       vertex -0.00337407 0.152191 0
       vertex -0.00337407 0.152191 0.1
    endloop
  endfacet
  facet normal 0.831476 0.555561 0
    outer loop
       vertex -0.00337407 0.152191 0.1
       vertex 0.0147939 0.125 0.1
       vertex 0.0147939 0.125 0
    endloop
  endfacet
  facet normal 0.751817 0.659372 0
    outer loop
       vertex -0.00337407 0.152191 0
       vertex -0.0249361 0.176776 0
       vertex -0.0249361 0.176776 0.1
    endloop
  endfacet
  facet normal 0.751817 0.659372 0
    outer loop
       vertex -0.0249361 0.176776 0.1
       vertex -0.00337407 0.152191 0.1
       vertex -0.00337407 0.152191 0
    endloop
  endfacet
  facet normal 0.659372 0.751817 0
    outer loop
       vertex -0.0249361 0.176776 0
       vertex -0.0495211 0.198338 0
       vertex -0.0495211 0.198338 0.1
    endloop
  endfacet
  facet normal 0.659372 0.751817 0
    outer loop
       vertex -0.0495211 0.198338 0.1
       vertex -0.0249361 0.176776 0.1
       vertex -0.0249361 0.176776 0
    endloop
  endfacet
  facet normal 0.555561 0.831476 0
    outer loop
       vertex -0.0495211 0.198338 0
       vertex -0.0767121 0.216506 0
       vertex -0.0767121 0.216506 0.1
    endloop
  endfacet
  facet normal 0.555561 0.831476 0
    outer loop
       vertex -0.0767121 0.216506 0.1
       vertex -0.0495211 0.198338 0.1
       vertex -0.0495211 0.198338 0
    endloop
  endfacet
  facet normal 0.442302 0.896866 0
    outer loop
       vertex -0.0767121 0.216506 0
       vertex -0.106041 0.23097 0
       vertex -0.106041 0.23097 0.1
    endloop
  endfacet
  facet normal 0.442302 0.896866 0
    outer loop
       vertex -0.106041 0.23097 0.1
       vertex -0.0767121 0.216506 0.1
       vertex -0.0767121 0.216506 0
    endloop
  endfacet
  facet normal 0.321425 0.946935 0
    outer loop
       vertex -0.106041 0.23097 0
       vertex -0.137007 0.241481 0
       vertex -0.137007 0.241481 0.1
    endloop
  endfacet
  facet normal 0.321425 0.946935 0
    outer loop
       vertex -0.137007 0.241481 0.1
       vertex -0.106041 0.23097 0.1
       vertex -0.106041 0.23097 0
    endloop
  endfacet
  facet normal 0.195096 0.980784 0
    outer loop
       vertex -0.137007 0.241481 0
       vertex -0.169081 0.247861 0
       vertex -0.169081 0.247861 0.1
    endloop
  endfacet
  facet normal 0.195096 0.980784 0
    outer loop
       vertex -0.169081 0.247861 0.1
       vertex -0.137007 0.241481 0.1
       vertex -0.137007 0.241481 0
    endloop
  endfacet
  facet normal 0.0654098 0.997858 0
    outer loop
       vertex -0.201712 0.25 0.1
       vertex -0.169081 0.247861 0.1
       vertex -0.169081 0.247861 0
    endloop
  endfacet
  facet normal 0.0654098 0.997858 -1.0893e-16
    outer loop
       vertex -0.169081 0.247861 0
       vertex -0.201712 0.25 0
       vertex -0.201712 0.25 0.1
    endloop
  endfacet
  facet normal -0.0654098 0.997858 0
    outer loop
       vertex -0.201712 0.25 0
       vertex -0.234344 0.247861 0
       vertex -0.234344 0.247861 0.1
    endloop
  endfacet
  facet normal -0.0654098 0.997858 1.0893e-16
    outer loop
       vertex -0.234344 0.247861 0.1
       vertex -0.201712 0.25 0.1
       vertex -0.201712 0.25 0
    endloop
  endfacet
  facet normal -0.195096 0.980784 0
    outer loop
       vertex -0.234344 0.247861 0
       vertex -0.266417 0.241481 0
       vertex -0.266417 0.241481 0.1
    endloop
  endfacet
  facet normal -0.195096 0.980784 0
    outer loop
       vertex -0.266417 0.241481 0.1
       vertex -0.234344 0.247861 0.1
       vertex -0.234344 0.247861 0
    endloop
  endfacet
  facet normal -0.321425 0.946935 0
    outer loop
       vertex -0.266417 0.241481 0
       vertex -0.297383 0.23097 0
       vertex -0.297383 0.23097 0.1
    endloop
  endfacet
  facet normal -0.321425 0.946935 0
    outer loop
       vertex -0.297383 0.23097 0.1
       vertex -0.266417 0.241481 0.1
       vertex -0.266417 0.241481 0
    endloop
  endfacet
  facet normal -0.442302 0.896866 0
    outer loop
       vertex -0.297383 0.23097 0
       vertex -0.326712 0.216506 0
       vertex -0.326712 0.216506 0.1
    endloop
  endfacet
  facet normal -0.442302 0.896866 0
    outer loop
       vertex -0.326712 0.216506 0.1
       vertex -0.297383 0.23097 0.1
       vertex -0.297383 0.23097 0
    endloop
  endfacet
  facet normal -0.555561 0.831476 0
    outer loop
       vertex -0.326712 0.216506 0
       vertex -0.353903 0.198338 0
       vertex -0.353903 0.198338 0.1
    endloop
  endfacet
  facet normal -0.555561 0.831476 0
    outer loop
       vertex -0.353903 0.198338 0.1
       vertex -0.326712 0.216506 0.1
       vertex -0.326712 0.216506 0
    endloop
  endfacet
  facet normal -0.659372 0.751817 0
    outer loop
       vertex -0.353903 0.198338 0
       vertex -0.378488 0.176776 0
       vertex -0.378488 0.176776 0.1
    endloop
  endfacet
  facet normal -0.659372 0.751817 0
    outer loop
       vertex -0.378488 0.176776 0.1
       vertex -0.353903 0.198338 0.1
       vertex -0.353903 0.198338 0
    endloop
  endfacet
  facet normal -0.751817 0.659372 0
    outer loop
       vertex -0.378488 0.176776 0
       vertex -0.40005 0.152191 0
       vertex -0.40005 0.152191 0.1
    endloop
  endfacet
  facet normal -0.751817 0.659372 0
    outer loop
       vertex -0.40005 0.152191 0.1
       vertex -0.378488 0.176776 0.1
       vertex -0.378488 0.176776 0
    endloop
  endfacet
  facet normal -0.831476 0.555561 0
    outer loop
       vertex -0.40005 0.152191 0
       vertex -0.418218 0.125 0
       vertex -0.418218 0.125 0.1
    endloop
  endfacet
  facet normal -0.831476 0.555561 0
    outer loop
       vertex -0.418218 0.125 0.1
       vertex -0.40005 0.152191 0.1
       vertex -0.40005 0.152191 0
    endloop
  endfacet
  facet normal -0.896866 0.442302 0
    outer loop
       vertex -0.418218 0.125 0
       vertex -0.432682 0.095671 0
       vertex -0.432682 0.095671 0.1
    endloop
  endfacet
  facet normal -0.896866 0.442302 0
    outer loop
       vertex -0.432682 0.095671 0.1
       vertex -0.418218 0.125 0.1
       vertex -0.418218 0.125 0
    endloop
  endfacet
  facet normal -0.946935 0.321425 0
    outer loop
       vertex -0.432682 0.095671 0
       vertex -0.443193 0.064705 0
       vertex -0.443193 0.064705 0.1
    endloop
  endfacet
  facet normal -0.946935 0.321425 0
    outer loop
       vertex -0.443193 0.064705 0.1
       vertex -0.432682 0.095671 0.1
       vertex -0.432682 0.095671 0
    endloop
  endfacet
  facet normal -0.980784 0.195096 0
    outer loop
       vertex -0.443193 0.064705 0
       vertex -0.449573 0.0326315 0
       vertex -0.449573 0.0326315 0.1
    endloop
  endfacet
  facet normal -0.980784 0.195096 0
    outer loop
       vertex -0.449573 0.0326315 0.1
       vertex -0.443193 0.064705 0.1
       vertex -0.443193 0.064705 0
    endloop
  endfacet
  facet normal -0.997858 0.0654098 0
    outer loop
       vertex -0.451712 8.32665e-17 0.1
       vertex -0.449573 0.0326315 0.1
       vertex -0.449573 0.0326315 0
    endloop
  endfacet
  facet normal -0.997858 0.0654098 -1.08928e-16
    outer loop
       vertex -0.449573 0.0326315 0
       vertex -0.451712 -8.32665e-17 0
       vertex -0.451712 8.32665e-17 0.1
    endloop
  endfacet
  facet normal -0.997858 -0.0654098 0
    outer loop
       vertex -0.451712 -8.32665e-17 0
       vertex -0.449573 -0.0326315 0
       vertex -0.449573 -0.0326315 0.1
    endloop
  endfacet
  facet normal -0.997858 -0.0654098 1.08928e-16
    outer loop
       vertex -0.449573 -0.0326315 0.1
       vertex -0.451712 8.32665e-17 0.1
       vertex -0.451712 -8.32665e-17 0
    endloop
  endfacet
  facet normal -0.980784 -0.195096 0
    outer loop
       vertex -0.449573 -0.0326315 0
       vertex -0.443193 -0.064705 0
       vertex -0.443193 -0.064705 0.1
    endloop
  endfacet
  facet normal -0.980784 -0.195096 0
    outer loop
       vertex -0.443193 -0.064705 0.1
       vertex -0.449573 -0.0326315 0.1
       vertex -0.449573 -0.0326315 0
    endloop
  endfacet
  facet normal -0.946935 -0.321425 0
    outer loop
       vertex -0.443193 -0.064705 0
       vertex -0.432682 -0.095671 0
       vertex -0.432682 -0.095671 0.1
    endloop
  endfacet
  facet normal -0.946935 -0.321425 0
    outer loop
       vertex -0.432682 -0.095671 0.1
       vertex -0.443193 -0.064705 0.1
       vertex -0.443193 -0.064705 0
    endloop
  endfacet
  facet normal -0.896866 -0.442302 0
    outer loop
       vertex -0.432682 -0.095671 0
       vertex -0.418218 -0.125 0
       vertex -0.418218 -0.125 0.1
    endloop
  endfacet
  facet normal -0.896866 -0.442302 0
    outer loop
       vertex -0.418218 -0.125 0.1
       vertex -0.432682 -0.095671 0.1
       vertex -0.432682 -0.095671 0
    endloop
  endfacet
  facet normal -0.831476 -0.555561 0
    outer loop
       vertex -0.418218 -0.125 0
       vertex -0.40005 -0.152191 0
       vertex -0.40005 -0.152191 0.1
    endloop
  endfacet
  facet normal -0.831476 -0.555561 0
    outer loop
       vertex -0.40005 -0.152191 0.1
       vertex -0.418218 -0.125 0.1
       vertex -0.418218 -0.125 0
    endloop
  endfacet
  facet normal -0.751817 -0.659372 0
    outer loop
       vertex -0.40005 -0.152191 0
       vertex -0.378488 -0.176776 0
       vertex -0.378488 -0.176776 0.1
    endloop
  endfacet
  facet normal -0.751817 -0.659372 0
    outer loop
       vertex -0.378488 -0.176776 0.1
       vertex -0.40005 -0.152191 0.1
       vertex -0.40005 -0.152191 0
    endloop
  endfacet
  facet normal 0.659372 -0.751817 0
    outer loop
       vertex -0.0249361 -0.176776 0
       vertex -0.0249361 -0.176776 0.1
       vertex -0.0495211 -0.198338 0.1
    endloop
  endfacet
  facet normal 0.659372 -0.751817 0
    outer loop
       vertex -0.0495211 -0.198338 0.1
       vertex -0.0495211 -0.198338 0
       vertex -0.0249361 -0.176776 0
    endloop
  endfacet
  facet normal 0.555561 -0.831476 0
    outer loop
       vertex -0.0495211 -0.198338 0
       vertex -0.0495211 -0.198338 0.1
       vertex -0.0767121 -0.216506 0.1
    endloop
  endfacet
  facet normal 0.555561 -0.831476 0
    outer loop
       vertex -0.0767121 -0.216506 0.1
       vertex -0.0767121 -0.216506 0
       vertex -0.0495211 -0.198338 0
    endloop
  endfacet
  facet normal 0.442302 -0.896866 0
    outer loop
       vertex -0.0767121 -0.216506 0
       vertex -0.0767121 -0.216506 0.1
       vertex -0.106041 -0.23097 0.1
    endloop
  endfacet
  facet normal 0.442302 -0.896866 0
    outer loop
       vertex -0.106041 -0.23097 0.1
       vertex -0.106041 -0.23097 0
       vertex -0.0767121 -0.216506 0
    endloop
  endfacet
  facet normal 0.321425 -0.946935 0
    outer loop
       vertex -0.106041 -0.23097 0
       vertex -0.106041 -0.23097 0.1
       vertex -0.137007 -0.241481 0.1
    endloop
  endfacet
  facet normal 0.321425 -0.946935 0
    outer loop
       vertex -0.137007 -0.241481 0.1
       vertex -0.137007 -0.241481 0
       vertex -0.106041 -0.23097 0
    endloop
  endfacet
  facet normal 0.195096 -0.980784 0
    outer loop
       vertex -0.137007 -0.241481 0
       vertex -0.137007 -0.241481 0.1
       vertex -0.169081 -0.247861 0.1
    endloop
  endfacet
  facet normal 0.195096 -0.980784 0
    outer loop
       vertex -0.169081 -0.247861 0.1
       vertex -0.169081 -0.247861 0
       vertex -0.137007 -0.241481 0
    endloop
  endfacet
  facet normal 0.0654098 -0.997858 0
    outer loop
       vertex -0.201712 -0.25 0
       vertex -0.169081 -0.247861 0
       vertex -0.169081 -0.247861 0.1
    endloop
  endfacet
  facet normal 0.0654098 -0.997858 1.0893e-16
    outer loop
       vertex -0.169081 -0.247861 0.1
       vertex -0.201712 -0.25 0.1
       vertex -0.201712 -0.25 0
    endloop
  endfacet
  facet normal -0.0654098 -0.997858 0
    outer loop
       vertex -0.201712 -0.25 0.1
       vertex -0.234344 -0.247861 0.1
       vertex -0.234344 -0.247861 0
    endloop
  endfacet
  facet normal -0.0654098 -0.997858 -1.0893e-16
    outer loop
       vertex -0.234344 -0.247861 0
       vertex -0.201712 -0.25 0
       vertex -0.201712 -0.25 0.1
    endloop
  endfacet
  facet normal -0.195096 -0.980784 0
    outer loop
       vertex -0.234344 -0.247861 0
       vertex -0.234344 -0.247861 0.1
       vertex -0.266417 -0.241481 0.1
    endloop
  endfacet
  facet normal -0.195096 -0.980784 -0
    outer loop
       vertex -0.266417 -0.241481 0.1
       vertex -0.266417 -0.241481 0
       vertex -0.234344 -0.247861 0
    endloop
  endfacet
  facet normal -0.321425 -0.946935 0
    outer loop
       vertex -0.266417 -0.241481 0
       vertex -0.266417 -0.241481 0.1
       vertex -0.297383 -0.23097 0.1
    endloop
  endfacet
  facet normal -0.321425 -0.946935 -0
    outer loop
       vertex -0.297383 -0.23097 0.1
       vertex -0.297383 -0.23097 0
       vertex -0.266417 -0.241481 0
    endloop
  endfacet
  facet normal -0.442302 -0.896866 0
    outer loop
       vertex -0.297383 -0.23097 0
       vertex -0.297383 -0.23097 0.1
       vertex -0.326712 -0.216506 0.1
    endloop
  endfacet
  facet normal -0.442302 -0.896866 -0
    outer loop
       vertex -0.326712 -0.216506 0.1
       vertex -0.326712 -0.216506 0
       vertex -0.297383 -0.23097 0
    endloop
  endfacet
  facet normal -0.555561 -0.831476 0
    outer loop
       vertex -0.326712 -0.216506 0
       vertex -0.326712 -0.216506 0.1
       vertex -0.353903 -0.198338 0.1
    endloop
  endfacet
  facet normal -0.555561 -0.831476 -0
    outer loop
       vertex -0.353903 -0.198338 0.1
       vertex -0.353903 -0.198338 0
       vertex -0.326712 -0.216506 0
    endloop
  endfacet
  facet normal -0.659372 -0.751817 0
    outer loop
       vertex -0.353903 -0.198338 0
       vertex -0.353903 -0.198338 0.1
       vertex -0.378488 -0.176776 0.1
    endloop
  endfacet
  facet normal -0.659372 -0.751817 -0
    outer loop
       vertex -0.378488 -0.176776 0.1
       vertex -0.378488 -0.176776 0
       vertex -0.353903 -0.198338 0
    endloop
  endfacet
endsolid cylinder
