solid cylinder
  facet normal 0.751817 -0.659372 0
    outer loop
       vertex 0.0102058 -0.176776 0
       vertex 0.0317678 -0.152191 0
       vertex 0.0317678 -0.152191 0.1
    endloop
  endfacet
  facet normal 0.751817 -0.659372 0
    outer loop
       vertex 0.0317678 -0.152191 0.1
       vertex 0.0102058 -0.176776 0.1
       vertex 0.0102058 -0.176776 0
    endloop
  endfacet
  facet normal 0.831476 -0.555561 0
    outer loop
       vertex 0.0317678 -0.152191 0
       vertex 0.0499358 -0.125 0
       vertex 0.0499358 -0.125 0.1
    endloop
  endfacet
  facet normal 0.831476 -0.555561 0
    outer loop
       vertex 0.0499358 -0.125 0.1
       vertex 0.0317678 -0.152191 0.1
       vertex 0.0317678 -0.152191 0
    endloop
  endfacet
  facet normal 0.896866 -0.442302 0
    outer loop
       vertex 0.0499358 -0.125 0
       vertex 0.0643998 -0.095671 0
       vertex 0.0643998 -0.095671 0.1
    endloop
  endfacet
  facet normal 0.896866 -0.442302 0
    outer loop
       vertex 0.0643998 -0.095671 0.1
       vertex 0.0499358 -0.125 0.1
       vertex 0.0499358 -0.125 0
    endloop
  endfacet
  facet normal 0.946935 -0.321425 0
    outer loop
       vertex 0.0643998 -0.095671 0
       vertex 0.0749108 -0.064705 0
       vertex 0.0749108 -0.064705 0.1
    endloop
  endfacet
  facet normal 0.946935 -0.321425 0
    outer loop
       vertex 0.0749108 -0.064705 0.1
       vertex 0.0643998 -0.095671 0.1
       vertex 0.0643998 -0.095671 0
    endloop
  endfacet
  facet normal 0.980784 -0.195096 0
    outer loop
       vertex 0.0749108 -0.064705 0
       vertex 0.0812908 -0.0326315 0
       vertex 0.0812908 -0.0326315 0.1
    endloop
  endfacet
  facet normal 0.980784 -0.195096 0
    outer loop
       vertex 0.0812908 -0.0326315 0.1
       vertex 0.0749108 -0.064705 0.1
       vertex 0.0749108 -0.064705 0
    endloop
  endfacet
  facet normal 0.997858 -0.0654098 0
    outer loop
       vertex 0.0834298 -8.32665e-17 0.1
       vertex 0.0812908 -0.0326315 0.1
       vertex 0.0812908 -0.0326315 0
    endloop
  endfacet
  facet normal 0.997858 -0.0654098 -1.08928e-16
    outer loop
       vertex 0.0812908 -0.0326315 0
       vertex 0.0834298 8.32665e-17 0
       vertex 0.0834298 -8.32665e-17 0.1
    endloop
  endfacet
  facet normal 0.997858 0.0654098 0
    outer loop
       vertex 0.0834298 8.32665e-17 0
       vertex 0.0812908 0.0326315 0
       vertex 0.0812908 0.0326315 0.1
    endloop
  endfacet
  facet normal 0.997858 0.0654098 1.08928e-16
    outer loop
       vertex 0.0812908 0.0326315 0.1
       vertex 0.0834298 -8.32665e-17 0.1
       vertex 0.0834298 8.32665e-17 0
    endloop
  endfacet
  facet normal 0.980784 0.195096 0
    outer loop
       vertex 0.0812908 0.0326315 0
       vertex 0.0749108 0.064705 0
       vertex 0.0749108 0.064705 0.1
    endloop
  endfacet
  facet normal 0.980784 0.195096 0
    outer loop
       vertex 0.0749108 0.064705 0.1
       vertex 0.0812908 0.0326315 0.1
       vertex 0.0812908 0.0326315 0
    endloop
  endfacet
  facet normal 0.946935 0.321425 0
    outer loop
       vertex 0.0749108 0.064705 0
       vertex 0.0643998 0.095671 0
       vertex 0.0643998 0.095671 0.1
    endloop
  endfacet
  facet normal 0.946935 0.321425 0
    outer loop
       vertex 0.0643998 0.095671 0.1
       vertex 0.0749108 0.064705 0.1
       vertex 0.0749108 0.064705 0
    endloop
  endfacet
  facet normal 0.896866 0.442302 0
    outer loop
       vertex 0.0643998 0.095671 0
       vertex 0.0499358 0.125 0
       vertex 0.0499358 0.125 0.1
    endloop
  endfacet
  facet normal 0.896866 0.442302 0
    outer loop
       vertex 0.0499358 0.125 0.1
       vertex 0.0643998 0.095671 0.1
       vertex 0.0643998 0.095671 0
    endloop
  endfacet
  facet normal 0.831476 0.555561 0
    outer loop
       vertex 0.0499358 0.125 0
       vertex 0.0317678 0.152191 0
       vertex 0.0317678 0.152191 0.1
    endloop
  endfacet
  facet normal 0.831476 0.555561 0
    outer loop
       vertex 0.0317678 0.152191 0.1
       vertex 0.0499358 0.125 0.1
       vertex 0.0499358 0.125 0
    endloop
  endfacet
  facet normal 0.751817 0.659372 0
    outer loop
       vertex 0.0317678 0.152191 0
       vertex 0.0102058 0.176776 0
       vertex 0.0102058 0.176776 0.1
    endloop
  endfacet
  facet normal 0.751817 0.659372 0
    outer loop
       vertex 0.0102058 0.176776 0.1
       vertex 0.0317678 0.152191 0.1
       vertex 0.0317678 0.152191 0
    endloop
  endfacet
  facet normal 0.659372 0.751817 0
    outer loop
       vertex 0.0102058 0.176776 0
       vertex -0.0143792 0.198338 0
       vertex -0.0143792 0.198338 0.1
    endloop
  endfacet
  facet normal 0.659372 0.751817 0
    outer loop
       vertex -0.0143792 0.198338 0.1
       vertex 0.0102058 0.176776 0.1
       vertex 0.0102058 0.176776 0
    endloop
  endfacet
  facet normal 0.555561 0.831476 0
    outer loop
       vertex -0.0143792 0.198338 0
       vertex -0.0415702 0.216506 0
       vertex -0.0415702 0.216506 0.1
    endloop
  endfacet
  facet normal 0.555561 0.831476 0
    outer loop
       vertex -0.0415702 0.216506 0.1
       vertex -0.0143792 0.198338 0.1
       vertex -0.0143792 0.198338 0
    endloop
  endfacet
  facet normal 0.442302 0.896866 0
    outer loop
       vertex -0.0415702 0.216506 0
       vertex -0.0708992 0.23097 0
       vertex -0.0708992 0.23097 0.1
    endloop
  endfacet
  facet normal 0.442302 0.896866 0
    outer loop
       vertex -0.0708992 0.23097 0.1
       vertex -0.0415702 0.216506 0.1
       vertex -0.0415702 0.216506 0
    endloop
  endfacet
  facet normal 0.321425 0.946935 0
    outer loop
       vertex -0.0708992 0.23097 0
       vertex -0.101865 0.241481 0
       vertex -0.101865 0.241481 0.1
    endloop
  endfacet
  facet normal 0.321425 0.946935 0
    outer loop
       vertex -0.101865 0.241481 0.1
       vertex -0.0708992 0.23097 0.1
       vertex -0.0708992 0.23097 0
    endloop
  endfacet
  facet normal 0.195096 0.980784 0
    outer loop
       vertex -0.101865 0.241481 0
       vertex -0.133939 0.247861 0
       vertex -0.133939 0.247861 0.1
    endloop
  endfacet
  facet normal 0.195096 0.980784 0
    outer loop
       vertex -0.133939 0.247861 0.1
       vertex -0.101865 0.241481 0.1
       vertex -0.101865 0.241481 0
    endloop
  endfacet
  facet normal 0.0654098 0.997858 0
    outer loop
       vertex -0.16657 0.25 0.1
       vertex -0.133939 0.247861 0.1
       vertex -0.133939 0.247861 0
    endloop
  endfacet
  facet normal 0.0654098 0.997858 -1.0893e-16
    outer loop
       vertex -0.133939 0.247861 0
       vertex -0.16657 0.25 0
       vertex -0.16657 0.25 0.1
    endloop
  endfacet
  facet normal -0.0654098 0.997858 0
    outer loop
       vertex -0.16657 0.25 0
       vertex -0.199202 0.247861 0
       vertex -0.199202 0.247861 0.1
    endloop
  endfacet
  facet normal -0.0654098 0.997858 1.0893e-16
    outer loop
       vertex -0.199202 0.247861 0.1
       vertex -0.16657 0.25 0.1
       vertex -0.16657 0.25 0
    endloop
  endfacet
  facet normal -0.195096 0.980784 0
    outer loop
       vertex -0.199202 0.247861 0
       vertex -0.231275 0.241481 0
       vertex -0.231275 0.241481 0.1
    endloop
  endfacet
  facet normal -0.195096 0.980784 0
    outer loop
       vertex -0.231275 0.241481 0.1
       vertex -0.199202 0.247861 0.1
       vertex -0.199202 0.247861 0
    endloop
  endfacet
  facet normal -0.321425 0.946935 0
    outer loop
       vertex -0.231275 0.241481 0
       vertex -0.262241 0.23097 0
       vertex -0.262241 0.23097 0.1
    endloop
  endfacet
  facet normal -0.321425 0.946935 0
    outer loop
       vertex -0.262241 0.23097 0.1
       vertex -0.231275 0.241481 0.1
       vertex -0.231275 0.241481 0
    endloop
  endfacet
  facet normal -0.442302 0.896866 0
    outer loop
       vertex -0.262241 0.23097 0
       vertex -0.29157 0.216506 0
       vertex -0.29157 0.216506 0.1
    endloop
  endfacet
  facet normal -0.442302 0.896866 0
    outer loop
       vertex -0.29157 0.216506 0.1
       vertex -0.262241 0.23097 0.1
       vertex -0.262241 0.23097 0
    endloop
  endfacet
  facet normal -0.555561 0.831476 0
    outer loop
       vertex -0.29157 0.216506 0
       vertex -0.318761 0.198338 0
       vertex -0.318761 0.198338 0.1
    endloop
  endfacet
  facet normal -0.555561 0.831476 0
    outer loop
       vertex -0.318761 0.198338 0.1
       vertex -0.29157 0.216506 0.1
       vertex -0.29157 0.216506 0
    endloop
  endfacet
  facet normal -0.659372 0.751817 0
    outer loop
       vertex -0.318761 0.198338 0
       vertex -0.343346 0.176776 0
       vertex -0.343346 0.176776 0.1
    endloop
  endfacet
  facet normal -0.659372 0.751817 0
    outer loop
       vertex -0.343346 0.176776 0.1
       vertex -0.318761 0.198338 0.1
       vertex -0.318761 0.198338 0
    endloop
  endfacet
  facet normal -0.751817 0.659372 0
    outer loop
       vertex -0.343346 0.176776 0
       vertex -0.364908 0.152191 0
       vertex -0.364908 0.152191 0.1
    endloop
  endfacet
  facet normal -0.751817 0.659372 0
    outer loop
       vertex -0.364908 0.152191 0.1
       vertex -0.343346 0.176776 0.1
       vertex -0.343346 0.176776 0
    endloop
  endfacet
  facet normal -0.831476 0.555561 0
    outer loop
       vertex -0.364908 0.152191 0
       vertex -0.383076 0.125 0
       vertex -0.383076 0.125 0.1
    endloop
  endfacet
  facet normal -0.831476 0.555561 0
    outer loop
       vertex -0.383076 0.125 0.1
       vertex -0.364908 0.152191 0.1
       vertex -0.364908 0.152191 0
    endloop
  endfacet
  facet normal -0.896866 0.442302 0
    outer loop
       vertex -0.383076 0.125 0
       vertex -0.39754 0.095671 0
       vertex -0.39754 0.095671 0.1
    endloop
  endfacet
  facet normal -0.896866 0.442302 0
    outer loop
       vertex -0.39754 0.095671 0.1
       vertex -0.383076 0.125 0.1
       vertex -0.383076 0.125 0
    endloop
  endfacet
  facet normal -0.946935 0.321425 0
    outer loop
       vertex -0.39754 0.095671 0
       vertex -0.408051 0.064705 0
       vertex -0.408051 0.064705 0.1
    endloop
  endfacet
  facet normal -0.946935 0.321425 0
    outer loop
       vertex -0.408051 0.064705 0.1
       vertex -0.39754 0.095671 0.1
       vertex -0.39754 0.095671 0
    endloop
  endfacet
  facet normal -0.980784 0.195096 0
    outer loop
       vertex -0.408051 0.064705 0
       vertex -0.414431 0.0326315 0
       vertex -0.414431 0.0326315 0.1
    endloop
  endfacet
  facet normal -0.980784 0.195096 0
    outer loop
       vertex -0.414431 0.0326315 0.1
       vertex -0.408051 0.064705 0.1
       vertex -0.408051 0.064705 0
    endloop
  endfacet
  facet normal -0.997858 0.0654098 0
    outer loop
       vertex -0.41657 8.32665e-17 0.1
       vertex -0.414431 0.0326315 0.1
       vertex -0.414431 0.0326315 0
    endloop
  endfacet
  facet normal -0.997858 0.0654098 -1.08928e-16
    outer loop
       vertex -0.414431 0.0326315 0
       vertex -0.41657 -8.32665e-17 0
       vertex -0.41657 8.32665e-17 0.1
    endloop
  endfacet
  facet normal -0.997858 -0.0654098 0
    outer loop
       vertex -0.41657 -8.32665e-17 0
       vertex -0.414431 -0.0326315 0
       vertex -0.414431 -0.0326315 0.1
    endloop
  endfacet
  facet normal -0.997858 -0.0654098 1.08928e-16
    outer loop
       vertex -0.414431 -0.0326315 0.1
       vertex -0.41657 8.32665e-17 0.1
       vertex -0.41657 -8.32665e-17 0
    endloop
  endfacet
  facet normal -0.980784 -0.195096 0
    outer loop
       vertex -0.414431 -0.0326315 0
       vertex -0.408051 -0.064705 0
       vertex -0.408051 -0.064705 0.1
    endloop
  endfacet
  facet normal -0.980784 -0.195096 0
    outer loop
       vertex -0.408051 -0.064705 0.1
       vertex -0.414431 -0.0326315 0.1
       vertex -0.414431 -0.0326315 0
    endloop
  endfacet
  facet normal -0.946935 -0.321425 0
    outer loop
       vertex -0.408051 -0.064705 0
       vertex -0.39754 -0.095671 0
       vertex -0.39754 -0.095671 0.1
    endloop
  endfacet
  facet normal -0.946935 -0.321425 0
    outer loop
       vertex -0.39754 -0.095671 0.1
       vertex -0.408051 -0.064705 0.1
       vertex -0.408051 -0.064705 0
    endloop
  endfacet
  facet normal -0.896866 -0.442302 0
    outer loop
       vertex -0.39754 -0.095671 0
       vertex -0.383076 -0.125 0
       vertex -0.383076 -0.125 0.1
    endloop
  endfacet
  facet normal -0.896866 -0.442302 0
    outer loop
       vertex -0.383076 -0.125 0.1
       vertex -0.39754 -0.095671 0.1
       vertex -0.39754 -0.095671 0
    endloop
  endfacet
  facet normal -0.831476 -0.555561 0
    outer loop
       vertex -0.383076 -0.125 0
       vertex -0.364908 -0.152191 0
       vertex -0.364908 -0.152191 0.1
    endloop
  endfacet
  facet normal -0.831476 -0.555561 0
    outer loop
       vertex -0.364908 -0.152191 0.1
       vertex -0.383076 -0.125 0.1
       vertex -0.383076 -0.125 0
    endloop
  endfacet
  facet normal -0.751817 -0.659372 0
    outer loop
       vertex -0.364908 -0.152191 0
       vertex -0.343346 -0.176776 0
       vertex -0.343346 -0.176776 0.1
    endloop
  endfacet
  facet normal -0.751817 -0.659372 0
    outer loop
       vertex -0.343346 -0.176776 0.1
       vertex -0.364908 -0.152191 0.1
       vertex -0.364908 -0.152191 0
    endloop
  endfacet
  facet normal 0.659372 -0.751817 0
    outer loop
       vertex 0.0102058 -0.176776 0
       vertex 0.0102058 -0.176776 0.1
       vertex -0.0143792 -0.198338 0.1
    endloop
  endfacet
  facet normal 0.659372 -0.751817 0
    outer loop
       vertex -0.0143792 -0.198338 0.1
       vertex -0.0143792 -0.198338 0
       vertex 0.0102058 -0.176776 0
    endloop
  endfacet
  facet normal 0.555561 -0.831476 0
    outer loop
       vertex -0.0143792 -0.198338 0
       vertex -0.0143792 -0.198338 0.1
       vertex -0.0415702 -0.216506 0.1
    endloop
  endfacet
  facet normal 0.555561 -0.831476 0
    outer loop
       vertex -0.0415702 -0.216506 0.1
       vertex -0.0415702 -0.216506 0
       vertex -0.0143792 -0.198338 0
    endloop
  endfacet
  facet normal 0.442302 -0.896866 0
    outer loop
       vertex -0.0415702 -0.216506 0
       vertex -0.0415702 -0.216506 0.1
       vertex -0.0708992 -0.23097 0.1
    endloop
  endfacet
  facet normal 0.442302 -0.896866 0
    outer loop
       vertex -0.0708992 -0.23097 0.1
       vertex -0.0708992 -0.23097 0
       vertex -0.0415702 -0.216506 0
    endloop
  endfacet
  facet normal 0.321425 -0.946935 0
    outer loop
       vertex -0.0708992 -0.23097 0
       vertex -0.0708992 -0.23097 0.1
       vertex -0.101865 -0.241481 0.1
    endloop
  endfacet
  facet normal 0.321425 -0.946935 0
    outer loop
       vertex -0.101865 -0.241481 0.1
       vertex -0.101865 -0.241481 0
       vertex -0.0708992 -0.23097 0
    endloop
  endfacet
  facet normal 0.195096 -0.980784 0
    outer loop
       vertex -0.101865 -0.241481 0
       vertex -0.101865 -0.241481 0.1
       vertex -0.133939 -0.247861 0.1
    endloop
  endfacet
  facet normal 0.195096 -0.980784 0
    outer loop
       vertex -0.133939 -0.247861 0.1
       vertex -0.133939 -0.247861 0
       vertex -0.101865 -0.241481 0
    endloop
  endfacet
  facet normal 0.0654098 -0.997858 0
    outer loop
       vertex -0.16657 -0.25 0
       vertex -0.133939 -0.247861 0
       vertex -0.133939 -0.247861 0.1
    endloop
  endfacet
  facet normal 0.0654098 -0.997858 1.0893e-16
    outer loop
       vertex -0.133939 -0.247861 0.1
       vertex -0.16657 -0.25 0.1
       vertex -0.16657 -0.25 0
    endloop
  endfacet
  facet normal -0.0654098 -0.997858 0
    outer loop
       vertex -0.16657 -0.25 0.1
       vertex -0.199202 -0.247861 0.1
       vertex -0.199202 -0.247861 0
    endloop
  endfacet
  facet normal -0.0654098 -0.997858 -1.0893e-16
    outer loop
       vertex -0.199202 -0.247861 0
       vertex -0.16657 -0.25 0
       vertex -0.16657 -0.25 0.1
    endloop
  endfacet
  facet normal -0.195096 -0.980784 0
    outer loop
       vertex -0.199202 -0.247861 0
       vertex -0.199202 -0.247861 0.1
       vertex -0.231275 -0.241481 0.1
    endloop
  endfacet
  facet normal -0.195096 -0.980784 -0
    outer loop
       vertex -0.231275 -0.241481 0.1
       vertex -0.231275 -0.241481 0
       vertex -0.199202 -0.247861 0
    endloop
  endfacet
  facet normal -0.321425 -0.946935 0
    outer loop
       vertex -0.231275 -0.241481 0
       vertex -0.231275 -0.241481 0.1
       vertex -0.262241 -0.23097 0.1
    endloop
  endfacet
  facet normal -0.321425 -0.946935 -0
    outer loop
       vertex -0.262241 -0.23097 0.1
       vertex -0.262241 -0.23097 0
       vertex -0.231275 -0.241481 0
    endloop
  endfacet
  facet normal -0.442302 -0.896866 0
    outer loop
       vertex -0.262241 -0.23097 0
       vertex -0.262241 -0.23097 0.1
       vertex -0.29157 -0.216506 0.1
    endloop
  endfacet
  facet normal -0.442302 -0.896866 -0
    outer loop
       vertex -0.29157 -0.216506 0.1
       vertex -0.29157 -0.216506 0
       vertex -0.262241 -0.23097 0
    endloop
  endfacet
  facet normal -0.555561 -0.831476 0
    outer loop
       vertex -0.29157 -0.216506 0
       vertex -0.29157 -0.216506 0.1
       vertex -0.318761 -0.198338 0.1
    endloop
  endfacet
  facet normal -0.555561 -0.831476 -0
    outer loop
       vertex -0.318761 -0.198338 0.1
       vertex -0.318761 -0.198338 0
       vertex -0.29157 -0.216506 0
    endloop
  endfacet
  facet normal -0.659372 -0.751817 0
    outer loop
       vertex -0.318761 -0.198338 0
       vertex -0.318761 -0.198338 0.1
       vertex -0.343346 -0.176776 0.1
    endloop
  endfacet
  facet normal -0.659372 -0.751817 -0
    outer loop
       vertex -0.343346 -0.176776 0.1
       vertex -0.343346 -0.176776 0
       vertex -0.318761 -0.198338 0
    endloop
  endfacet
endsolid cylinder
