solid cylinder
  facet normal 0.751817 -0.659372 0
    outer loop
       vertex -0.0490347 -0.176776 0
       vertex -0.0274727 -0.152191 0
       vertex -0.0274727 -0.152191 0.1
    endloop
  endfacet
  facet normal 0.751817 -0.659372 0
    outer loop
       vertex -0.0274727 -0.152191 0.1
       vertex -0.0490347 -0.176776 0.1
       vertex -0.0490347 -0.176776 0
    endloop
  endfacet
  facet normal 0.831476 -0.555561 0
    outer loop
       vertex -0.0274727 -0.152191 0
       vertex -0.00930469 -0.125 0
       vertex -0.00930469 -0.125 0.1
    endloop
  endfacet
  facet normal 0.831476 -0.555561 0
    outer loop
       vertex -0.00930469 -0.125 0.1
       vertex -0.0274727 -0.152191 0.1
       vertex -0.0274727 -0.152191 0
    endloop
  endfacet
  facet normal 0.896866 -0.442302 0
    outer loop
       vertex -0.00930469 -0.125 0
       vertex 0.00515931 -0.095671 0
       vertex 0.00515931 -0.095671 0.1
    endloop
  endfacet
  facet normal 0.896866 -0.442302 0
    outer loop
       vertex 0.00515931 -0.095671 0.1
       vertex -0.00930469 -0.125 0.1
       vertex -0.00930469 -0.125 0
    endloop
  endfacet
  facet normal 0.946935 -0.321425 0
    outer loop
       vertex 0.00515931 -0.095671 0
       vertex 0.0156703 -0.064705 0
       vertex 0.0156703 -0.064705 0.1
    endloop
  endfacet
  facet normal 0.946935 -0.321425 0
    outer loop
       vertex 0.0156703 -0.064705 0.1
       vertex 0.00515931 -0.095671 0.1
       vertex 0.00515931 -0.095671 0
    endloop
  endfacet
  facet normal 0.980784 -0.195096 0
    outer loop
       vertex 0.0156703 -0.064705 0
       vertex 0.0220503 -0.0326315 0
       vertex 0.0220503 -0.0326315 0.1
    endloop
  endfacet
  facet normal 0.980784 -0.195096 0
    outer loop
       vertex 0.0220503 -0.0326315 0.1
       vertex 0.0156703 -0.064705 0.1
       vertex 0.0156703 -0.064705 0
    endloop
  endfacet
  facet normal 0.997858 -0.0654098 0
    outer loop
       vertex 0.0241893 -8.32665e-17 0.1
       vertex 0.0220503 -0.0326315 0.1
       vertex 0.0220503 -0.0326315 0
    endloop
  endfacet
  facet normal 0.997858 -0.0654098 -1.08928e-16
    outer loop
       vertex 0.0220503 -0.0326315 0
       vertex 0.0241893 8.32665e-17 0
       vertex 0.0241893 -8.32665e-17 0.1
    endloop
  endfacet
  facet normal 0.997858 0.0654098 0
    outer loop
       vertex 0.0241893 8.32665e-17 0
       vertex 0.0220503 0.0326315 0
       vertex 0.0220503 0.0326315 0.1
    endloop
  endfacet
  facet normal 0.997858 0.0654098 1.08928e-16
    outer loop
       vertex 0.0220503 0.0326315 0.1
       vertex 0.0241893 -8.32665e-17 0.1
       vertex 0.0241893 8.32665e-17 0
    endloop
  endfacet
  facet normal 0.980784 0.195096 0
    outer loop
       vertex 0.0220503 0.0326315 0
       vertex 0.0156703 0.064705 0
       vertex 0.0156703 0.064705 0.1
    endloop
  endfacet
  facet normal 0.980784 0.195096 0
    outer loop
       vertex 0.0156703 0.064705 0.1
       vertex 0.0220503 0.0326315 0.1
       vertex 0.0220503 0.0326315 0
    endloop
  endfacet
  facet normal 0.946935 0.321425 0
    outer loop
       vertex 0.0156703 0.064705 0
       vertex 0.00515931 0.095671 0
       vertex 0.00515931 0.095671 0.1
    endloop
  endfacet
  facet normal 0.946935 0.321425 0
    outer loop
       vertex 0.00515931 0.095671 0.1
       vertex 0.0156703 0.064705 0.1
       vertex 0.0156703 0.064705 0
    endloop
  endfacet
  facet normal 0.896866 0.442302 0
    outer loop
       vertex 0.00515931 0.095671 0
       vertex -0.00930469 0.125 0
       vertex -0.00930469 0.125 0.1
    endloop
  endfacet
  facet normal 0.896866 0.442302 0
    outer loop
       vertex -0.00930469 0.125 0.1
       vertex 0.00515931 0.095671 0.1
       vertex 0.00515931 0.095671 0
    endloop
  endfacet
  facet normal 0.831476 0.555561 0
    outer loop
       vertex -0.00930469 0.125 0
       vertex -0.0274727 0.152191 0
       vertex -0.0274727 0.152191 0.1
    endloop
  endfacet
  facet normal 0.831476 0.555561 0
    outer loop
       vertex -0.0274727 0.152191 0.1
       vertex -0.00930469 0.125 0.1
       vertex -0.00930469 0.125 0
    endloop
  endfacet
  facet normal 0.751817 0.659372 0
    outer loop
       vertex -0.0274727 0.152191 0
       vertex -0.0490347 0.176776 0
       vertex -0.0490347 0.176776 0.1
    endloop
  endfacet
  facet normal 0.751817 0.659372 0
    outer loop
       vertex -0.0490347 0.176776 0.1
       vertex -0.0274727 0.152191 0.1
       vertex -0.0274727 0.152191 0
    endloop
  endfacet
  facet normal 0.659372 0.751817 0
    outer loop
       vertex -0.0490347 0.176776 0
       vertex -0.0736197 0.198338 0
       vertex -0.0736197 0.198338 0.1
    endloop
  endfacet
  facet normal 0.659372 0.751817 0
    outer loop
       vertex -0.0736197 0.198338 0.1
       vertex -0.0490347 0.176776 0.1
       vertex -0.0490347 0.176776 0
    endloop
  endfacet
  facet normal 0.555561 0.831476 0
    outer loop
       vertex -0.0736197 0.198338 0
       vertex -0.100811 0.216506 0
       vertex -0.100811 0.216506 0.1
    endloop
  endfacet
  facet normal 0.555561 0.831476 0
    outer loop
       vertex -0.100811 0.216506 0.1
       vertex -0.0736197 0.198338 0.1
       vertex -0.0736197 0.198338 0
    endloop
  endfacet
  facet normal 0.442302 0.896866 0
    outer loop
       vertex -0.100811 0.216506 0
       vertex -0.13014 0.23097 0
       vertex -0.13014 0.23097 0.1
    endloop
  endfacet
  facet normal 0.442302 0.896866 0
    outer loop
       vertex -0.13014 0.23097 0.1
       vertex -0.100811 0.216506 0.1
       vertex -0.100811 0.216506 0
    endloop
  endfacet
  facet normal 0.321425 0.946935 0
    outer loop
       vertex -0.13014 0.23097 0
       vertex -0.161106 0.241481 0
       vertex -0.161106 0.241481 0.1
    endloop
  endfacet
  facet normal 0.321425 0.946935 0
    outer loop
       vertex -0.161106 0.241481 0.1
       vertex -0.13014 0.23097 0.1
       vertex -0.13014 0.23097 0
    endloop
  endfacet
  facet normal 0.195096 0.980784 0
    outer loop
       vertex -0.161106 0.241481 0
       vertex -0.193179 0.247861 0
       vertex -0.193179 0.247861 0.1
    endloop
  endfacet
  facet normal 0.195096 0.980784 0
    outer loop
       vertex -0.193179 0.247861 0.1
       vertex -0.161106 0.241481 0.1
       vertex -0.161106 0.241481 0
    endloop
  endfacet
  facet normal 0.0654098 0.997858 0
    outer loop
       vertex -0.225811 0.25 0.1
       vertex -0.193179 0.247861 0.1
       vertex -0.193179 0.247861 0
    endloop
  endfacet
  facet normal 0.0654098 0.997858 -1.0893e-16
    outer loop
       vertex -0.193179 0.247861 0
       vertex -0.225811 0.25 0
       vertex -0.225811 0.25 0.1
    endloop
  endfacet
  facet normal -0.0654098 0.997858 0
    outer loop
       vertex -0.225811 0.25 0
       vertex -0.258442 0.247861 0
       vertex -0.258442 0.247861 0.1
    endloop
  endfacet
  facet normal -0.0654098 0.997858 1.0893e-16
    outer loop
       vertex -0.258442 0.247861 0.1
       vertex -0.225811 0.25 0.1
       vertex -0.225811 0.25 0
    endloop
  endfacet
  facet normal -0.195096 0.980784 0
    outer loop
       vertex -0.258442 0.247861 0
       vertex -0.290516 0.241481 0
       vertex -0.290516 0.241481 0.1
    endloop
  endfacet
  facet normal -0.195096 0.980784 0
    outer loop
       vertex -0.290516 0.241481 0.1
       vertex -0.258442 0.247861 0.1
       vertex -0.258442 0.247861 0
    endloop
  endfacet
  facet normal -0.321425 0.946935 0
    outer loop
       vertex -0.290516 0.241481 0
       vertex -0.321482 0.23097 0
       vertex -0.321482 0.23097 0.1
    endloop
  endfacet
  facet normal -0.321425 0.946935 0
    outer loop
       vertex -0.321482 0.23097 0.1
       vertex -0.290516 0.241481 0.1
       vertex -0.290516 0.241481 0
    endloop
  endfacet
  facet normal -0.442302 0.896866 0
    outer loop
       vertex -0.321482 0.23097 0
       vertex -0.350811 0.216506 0
       vertex -0.350811 0.216506 0.1
    endloop
  endfacet
  facet normal -0.442302 0.896866 0
    outer loop
       vertex -0.350811 0.216506 0.1
       vertex -0.321482 0.23097 0.1
       vertex -0.321482 0.23097 0
    endloop
  endfacet
  facet normal -0.555561 0.831476 0
    outer loop
       vertex -0.350811 0.216506 0
       vertex -0.378002 0.198338 0
       vertex -0.378002 0.198338 0.1
    endloop
  endfacet
  facet normal -0.555561 0.831476 0
    outer loop
       vertex -0.378002 0.198338 0.1
       vertex -0.350811 0.216506 0.1
       vertex -0.350811 0.216506 0
    endloop
  endfacet
  facet normal -0.659372 0.751817 0
    outer loop
       vertex -0.378002 0.198338 0
       vertex -0.402587 0.176776 0
       vertex -0.402587 0.176776 0.1
    endloop
  endfacet
  facet normal -0.659372 0.751817 0
    outer loop
       vertex -0.402587 0.176776 0.1
       vertex -0.378002 0.198338 0.1
       vertex -0.378002 0.198338 0
    endloop
  endfacet
  facet normal -0.751817 0.659372 0
    outer loop
       vertex -0.402587 0.176776 0
       vertex -0.424149 0.152191 0
       vertex -0.424149 0.152191 0.1
    endloop
  endfacet
  facet normal -0.751817 0.659372 0
    outer loop
       vertex -0.424149 0.152191 0.1
       vertex -0.402587 0.176776 0.1
       vertex -0.402587 0.176776 0
    endloop
  endfacet
  facet normal -0.831476 0.555561 0
    outer loop
       vertex -0.424149 0.152191 0
       vertex -0.442317 0.125 0
       vertex -0.442317 0.125 0.1
    endloop
  endfacet
  facet normal -0.831476 0.555561 0
    outer loop
       vertex -0.442317 0.125 0.1
       vertex -0.424149 0.152191 0.1
       vertex -0.424149 0.152191 0
    endloop
  endfacet
  facet normal -0.896866 0.442302 0
    outer loop
       vertex -0.442317 0.125 0
       vertex -0.456781 0.095671 0
       vertex -0.456781 0.095671 0.1
    endloop
  endfacet
  facet normal -0.896866 0.442302 0
    outer loop
       vertex -0.456781 0.095671 0.1
       vertex -0.442317 0.125 0.1
       vertex -0.442317 0.125 0
    endloop
  endfacet
  facet normal -0.946935 0.321425 0
    outer loop
       vertex -0.456781 0.095671 0
       vertex -0.467292 0.064705 0
       vertex -0.467292 0.064705 0.1
    endloop
  endfacet
  facet normal -0.946935 0.321425 0
    outer loop
       vertex -0.467292 0.064705 0.1
       vertex -0.456781 0.095671 0.1
       vertex -0.456781 0.095671 0
    endloop
  endfacet
  facet normal -0.980784 0.195096 0
    outer loop
       vertex -0.467292 0.064705 0
       vertex -0.473672 0.0326315 0
       vertex -0.473672 0.0326315 0.1
    endloop
  endfacet
  facet normal -0.980784 0.195096 0
    outer loop
       vertex -0.473672 0.0326315 0.1
       vertex -0.467292 0.064705 0.1
       vertex -0.467292 0.064705 0
    endloop
  endfacet
  facet normal -0.997858 0.0654098 0
    outer loop
       vertex -0.475811 8.32665e-17 0.1
       vertex -0.473672 0.0326315 0.1
       vertex -0.473672 0.0326315 0
    endloop
  endfacet
  facet normal -0.997858 0.0654098 -1.08928e-16
    outer loop
       vertex -0.473672 0.0326315 0
       vertex -0.475811 -8.32665e-17 0
       vertex -0.475811 8.32665e-17 0.1
    endloop
  endfacet
  facet normal -0.997858 -0.0654098 0
    outer loop
       vertex -0.475811 -8.32665e-17 0
       vertex -0.473672 -0.0326315 0
       vertex -0.473672 -0.0326315 0.1
    endloop
  endfacet
  facet normal -0.997858 -0.0654098 1.08928e-16
    outer loop
       vertex -0.473672 -0.0326315 0.1
       vertex -0.475811 8.32665e-17 0.1
       vertex -0.475811 -8.32665e-17 0
    endloop
  endfacet
  facet normal -0.980784 -0.195096 0
    outer loop
       vertex -0.473672 -0.0326315 0
       vertex -0.467292 -0.064705 0
       vertex -0.467292 -0.064705 0.1
    endloop
  endfacet
  facet normal -0.980784 -0.195096 0
    outer loop
       vertex -0.467292 -0.064705 0.1
       vertex -0.473672 -0.0326315 0.1
       vertex -0.473672 -0.0326315 0
    endloop
  endfacet
  facet normal -0.946935 -0.321425 0
    outer loop
       vertex -0.467292 -0.064705 0
       vertex -0.456781 -0.095671 0
       vertex -0.456781 -0.095671 0.1
    endloop
  endfacet
  facet normal -0.946935 -0.321425 0
    outer loop
       vertex -0.456781 -0.095671 0.1
       vertex -0.467292 -0.064705 0.1
       vertex -0.467292 -0.064705 0
    endloop
  endfacet
  facet normal -0.896866 -0.442302 0
    outer loop
       vertex -0.456781 -0.095671 0
       vertex -0.442317 -0.125 0
       vertex -0.442317 -0.125 0.1
    endloop
  endfacet
  facet normal -0.896866 -0.442302 0
    outer loop
       vertex -0.442317 -0.125 0.1
       vertex -0.456781 -0.095671 0.1
       vertex -0.456781 -0.095671 0
    endloop
  endfacet
  facet normal -0.831476 -0.555561 0
    outer loop
       vertex -0.442317 -0.125 0
       vertex -0.424149 -0.152191 0
       vertex -0.424149 -0.152191 0.1
    endloop
  endfacet
  facet normal -0.831476 -0.555561 0
    outer loop
       vertex -0.424149 -0.152191 0.1
       vertex -0.442317 -0.125 0.1
       vertex -0.442317 -0.125 0
    endloop
  endfacet
  facet normal -0.751817 -0.659372 0
    outer loop
       vertex -0.424149 -0.152191 0
       vertex -0.402587 -0.176776 0
       vertex -0.402587 -0.176776 0.1
    endloop
  endfacet
  facet normal -0.751817 -0.659372 0
    outer loop
       vertex -0.402587 -0.176776 0.1
       vertex -0.424149 -0.152191 0.1
       vertex -0.424149 -0.152191 0
    endloop
  endfacet
  facet normal 0.659372 -0.751817 0
    outer loop
       vertex -0.0490347 -0.176776 0
       vertex -0.0490347 -0.176776 0.1
       vertex -0.0736197 -0.198338 0.1
    endloop
  endfacet
  facet normal 0.659372 -0.751817 0
    outer loop
       vertex -0.0736197 -0.198338 0.1
       vertex -0.0736197 -0.198338 0
       vertex -0.0490347 -0.176776 0
    endloop
  endfacet
  facet normal 0.555561 -0.831476 0
    outer loop
       vertex -0.0736197 -0.198338 0
       vertex -0.0736197 -0.198338 0.1
       vertex -0.100811 -0.216506 0.1
    endloop
  endfacet
  facet normal 0.555561 -0.831476 0
    outer loop
       vertex -0.100811 -0.216506 0.1
       vertex -0.100811 -0.216506 0
       vertex -0.0736197 -0.198338 0
    endloop
  endfacet
  facet normal 0.442302 -0.896866 0
    outer loop
       vertex -0.100811 -0.216506 0
       vertex -0.100811 -0.216506 0.1
       vertex -0.13014 -0.23097 0.1
    endloop
  endfacet
  facet normal 0.442302 -0.896866 0
    outer loop
       vertex -0.13014 -0.23097 0.1
       vertex -0.13014 -0.23097 0
       vertex -0.100811 -0.216506 0
    endloop
  endfacet
  facet normal 0.321425 -0.946935 0
    outer loop
       vertex -0.13014 -0.23097 0
       vertex -0.13014 -0.23097 0.1
       vertex -0.161106 -0.241481 0.1
    endloop
  endfacet
  facet normal 0.321425 -0.946935 0
    outer loop
       vertex -0.161106 -0.241481 0.1
       vertex -0.161106 -0.241481 0
       vertex -0.13014 -0.23097 0
    endloop
  endfacet
  facet normal 0.195096 -0.980784 0
    outer loop
       vertex -0.161106 -0.241481 0
       vertex -0.161106 -0.241481 0.1
       vertex -0.193179 -0.247861 0.1
    endloop
  endfacet
  facet normal 0.195096 -0.980784 0
    outer loop
       vertex -0.193179 -0.247861 0.1
       vertex -0.193179 -0.247861 0
       vertex -0.161106 -0.241481 0
    endloop
  endfacet
  facet normal 0.0654098 -0.997858 0
    outer loop
       vertex -0.225811 -0.25 0
       vertex -0.193179 -0.247861 0
       vertex -0.193179 -0.247861 0.1
    endloop
  endfacet
  facet normal 0.0654098 -0.997858 1.0893e-16
    outer loop
       vertex -0.193179 -0.247861 0.1
       vertex -0.225811 -0.25 0.1
       vertex -0.225811 -0.25 0
    endloop
  endfacet
  facet normal -0.0654098 -0.997858 0
    outer loop
       vertex -0.225811 -0.25 0.1
       vertex -0.258442 -0.247861 0.1
       vertex -0.258442 -0.247861 0
    endloop
  endfacet
  facet normal -0.0654098 -0.997858 -1.0893e-16
    outer loop
       vertex -0.258442 -0.247861 0
       vertex -0.225811 -0.25 0
       vertex -0.225811 -0.25 0.1
    endloop
  endfacet
  facet normal -0.195096 -0.980784 0
    outer loop
       vertex -0.258442 -0.247861 0
       vertex -0.258442 -0.247861 0.1
       vertex -0.290516 -0.241481 0.1
    endloop
  endfacet
  facet normal -0.195096 -0.980784 -0
    outer loop
       vertex -0.290516 -0.241481 0.1
       vertex -0.290516 -0.241481 0
       vertex -0.258442 -0.247861 0
    endloop
  endfacet
  facet normal -0.321425 -0.946935 0
    outer loop
       vertex -0.290516 -0.241481 0
       vertex -0.290516 -0.241481 0.1
       vertex -0.321482 -0.23097 0.1
    endloop
  endfacet
  facet normal -0.321425 -0.946935 -0
    outer loop
       vertex -0.321482 -0.23097 0.1
       vertex -0.321482 -0.23097 0
       vertex -0.290516 -0.241481 0
    endloop
  endfacet
  facet normal -0.442302 -0.896866 0
    outer loop
       vertex -0.321482 -0.23097 0
       vertex -0.321482 -0.23097 0.1
       vertex -0.350811 -0.216506 0.1
    endloop
  endfacet
  facet normal -0.442302 -0.896866 -0
    outer loop
       vertex -0.350811 -0.216506 0.1
       vertex -0.350811 -0.216506 0
       vertex -0.321482 -0.23097 0
    endloop
  endfacet
  facet normal -0.555561 -0.831476 0
    outer loop
       vertex -0.350811 -0.216506 0
       vertex -0.350811 -0.216506 0.1
       vertex -0.378002 -0.198338 0.1
    endloop
  endfacet
  facet normal -0.555561 -0.831476 -0
    outer loop
       vertex -0.378002 -0.198338 0.1
       vertex -0.378002 -0.198338 0
       vertex -0.350811 -0.216506 0
    endloop
  endfacet
  facet normal -0.659372 -0.751817 0
    outer loop
       vertex -0.378002 -0.198338 0
       vertex -0.378002 -0.198338 0.1
       vertex -0.402587 -0.176776 0.1
    endloop
  endfacet
  facet normal -0.659372 -0.751817 -0
    outer loop
       vertex -0.402587 -0.176776 0.1
       vertex -0.402587 -0.176776 0
       vertex -0.378002 -0.198338 0
    endloop
  endfacet
endsolid cylinder
