solid cylinder
  facet normal 0.751817 -0.659372 0
    outer loop
       vertex 0.255629 -0.176776 0
       vertex 0.277191 -0.152191 0
       vertex 0.277191 -0.152191 0.1
    endloop
  endfacet
  facet normal 0.751817 -0.659372 0
    outer loop
       vertex 0.277191 -0.152191 0.1
       vertex 0.255629 -0.176776 0.1
       vertex 0.255629 -0.176776 0
    endloop
  endfacet
  facet normal 0.831476 -0.555561 0
    outer loop
       vertex 0.277191 -0.152191 0
       vertex 0.295359 -0.125 0
       vertex 0.295359 -0.125 0.1
    endloop
  endfacet
  facet normal 0.831476 -0.555561 0
    outer loop
       vertex 0.295359 -0.125 0.1
       vertex 0.277191 -0.152191 0.1
       vertex 0.277191 -0.152191 0
    endloop
  endfacet
  facet normal 0.896866 -0.442302 0
    outer loop
       vertex 0.295359 -0.125 0
       vertex 0.309823 -0.095671 0
       vertex 0.309823 -0.095671 0.1
    endloop
  endfacet
  facet normal 0.896866 -0.442302 0
    outer loop
       vertex 0.309823 -0.095671 0.1
       vertex 0.295359 -0.125 0.1
       vertex 0.295359 -0.125 0
    endloop
  endfacet
  facet normal 0.946935 -0.321425 0
    outer loop
       vertex 0.309823 -0.095671 0
       vertex 0.320334 -0.064705 0
       vertex 0.320334 -0.064705 0.1
    endloop
  endfacet
  facet normal 0.946935 -0.321425 0
    outer loop
       vertex 0.320334 -0.064705 0.1
       vertex 0.309823 -0.095671 0.1
       vertex 0.309823 -0.095671 0
    endloop
  endfacet
  facet normal 0.980784 -0.195096 0
    outer loop
       vertex 0.320334 -0.064705 0
       vertex 0.326714 -0.0326315 0
       vertex 0.326714 -0.0326315 0.1
    endloop
  endfacet
  facet normal 0.980784 -0.195096 0
    outer loop
       vertex 0.326714 -0.0326315 0.1
       vertex 0.320334 -0.064705 0.1
       vertex 0.320334 -0.064705 0
    endloop
  endfacet
  facet normal 0.997858 -0.0654098 0
    outer loop
       vertex 0.328853 -8.32665e-17 0.1
       vertex 0.326714 -0.0326315 0.1
       vertex 0.326714 -0.0326315 0
    endloop
  endfacet
  facet normal 0.997858 -0.0654098 -1.08928e-16
    outer loop
       vertex 0.326714 -0.0326315 0
       vertex 0.328853 8.32665e-17 0
       vertex 0.328853 -8.32665e-17 0.1
    endloop
  endfacet
  facet normal 0.997858 0.0654098 0
    outer loop
       vertex 0.328853 8.32665e-17 0
       vertex 0.326714 0.0326315 0
       vertex 0.326714 0.0326315 0.1
    endloop
  endfacet
  facet normal 0.997858 0.0654098 1.08928e-16
    outer loop
       vertex 0.326714 0.0326315 0.1
       vertex 0.328853 -8.32665e-17 0.1
       vertex 0.328853 8.32665e-17 0
    endloop
  endfacet
  facet normal 0.980784 0.195096 0
    outer loop
       vertex 0.326714 0.0326315 0
       vertex 0.320334 0.064705 0
       vertex 0.320334 0.064705 0.1
    endloop
  endfacet
  facet normal 0.980784 0.195096 0
    outer loop
       vertex 0.320334 0.064705 0.1
       vertex 0.326714 0.0326315 0.1
       vertex 0.326714 0.0326315 0
    endloop
  endfacet
  facet normal 0.946935 0.321425 0
    outer loop
       vertex 0.320334 0.064705 0
       vertex 0.309823 0.095671 0
       vertex 0.309823 0.095671 0.1
    endloop
  endfacet
  facet normal 0.946935 0.321425 0
    outer loop
       vertex 0.309823 0.095671 0.1
       vertex 0.320334 0.064705 0.1
       vertex 0.320334 0.064705 0
    endloop
  endfacet
  facet normal 0.896866 0.442302 0
    outer loop
       vertex 0.309823 0.095671 0
       vertex 0.295359 0.125 0
       vertex 0.295359 0.125 0.1
    endloop
  endfacet
  facet normal 0.896866 0.442302 0
    outer loop
       vertex 0.295359 0.125 0.1
       vertex 0.309823 0.095671 0.1
       vertex 0.309823 0.095671 0
    endloop
  endfacet
  facet normal 0.831476 0.555561 0
    outer loop
       vertex 0.295359 0.125 0
       vertex 0.277191 0.152191 0
       vertex 0.277191 0.152191 0.1
    endloop
  endfacet
  facet normal 0.831476 0.555561 0
    outer loop
       vertex 0.277191 0.152191 0.1
       vertex 0.295359 0.125 0.1
       vertex 0.295359 0.125 0
    endloop
  endfacet
  facet normal 0.751817 0.659372 0
    outer loop
       vertex 0.277191 0.152191 0
       vertex 0.255629 0.176776 0
       vertex 0.255629 0.176776 0.1
    endloop
  endfacet
  facet normal 0.751817 0.659372 0
    outer loop
       vertex 0.255629 0.176776 0.1
       vertex 0.277191 0.152191 0.1
       vertex 0.277191 0.152191 0
    endloop
  endfacet
  facet normal 0.659372 0.751817 0
    outer loop
       vertex 0.255629 0.176776 0
       vertex 0.231044 0.198338 0
       vertex 0.231044 0.198338 0.1
    endloop
  endfacet
  facet normal 0.659372 0.751817 0
    outer loop
       vertex 0.231044 0.198338 0.1
       vertex 0.255629 0.176776 0.1
       vertex 0.255629 0.176776 0
    endloop
  endfacet
  facet normal 0.555561 0.831476 0
    outer loop
       vertex 0.231044 0.198338 0
       vertex 0.203853 0.216506 0
       vertex 0.203853 0.216506 0.1
    endloop
  endfacet
  facet normal 0.555561 0.831476 0
    outer loop
       vertex 0.203853 0.216506 0.1
       vertex 0.231044 0.198338 0.1
       vertex 0.231044 0.198338 0
    endloop
  endfacet
  facet normal 0.442302 0.896866 0
    outer loop
       vertex 0.203853 0.216506 0
       vertex 0.174524 0.23097 0
       vertex 0.174524 0.23097 0.1
    endloop
  endfacet
  facet normal 0.442302 0.896866 0
    outer loop
       vertex 0.174524 0.23097 0.1
       vertex 0.203853 0.216506 0.1
       vertex 0.203853 0.216506 0
    endloop
  endfacet
  facet normal 0.321425 0.946935 0
    outer loop
       vertex 0.174524 0.23097 0
       vertex 0.143558 0.241481 0
       vertex 0.143558 0.241481 0.1
    endloop
  endfacet
  facet normal 0.321425 0.946935 0
    outer loop
       vertex 0.143558 0.241481 0.1
       vertex 0.174524 0.23097 0.1
       vertex 0.174524 0.23097 0
    endloop
  endfacet
  facet normal 0.195096 0.980784 0
    outer loop
       vertex 0.143558 0.241481 0
       vertex 0.111484 0.247861 0
       vertex 0.111484 0.247861 0.1
    endloop
  endfacet
  facet normal 0.195096 0.980784 0
    outer loop
       vertex 0.111484 0.247861 0.1
       vertex 0.143558 0.241481 0.1
       vertex 0.143558 0.241481 0
    endloop
  endfacet
  facet normal 0.0654098 0.997858 0
    outer loop
       vertex 0.078853 0.25 0.1
       vertex 0.111484 0.247861 0.1
       vertex 0.111484 0.247861 0
    endloop
  endfacet
  facet normal 0.0654098 0.997858 -1.0893e-16
    outer loop
       vertex 0.111484 0.247861 0
       vertex 0.078853 0.25 0
       vertex 0.078853 0.25 0.1
    endloop
  endfacet
  facet normal -0.0654098 0.997858 0
    outer loop
       vertex 0.078853 0.25 0
       vertex 0.0462215 0.247861 0
       vertex 0.0462215 0.247861 0.1
    endloop
  endfacet
  facet normal -0.0654098 0.997858 1.08928e-16
    outer loop
       vertex 0.0462215 0.247861 0.1
       vertex 0.078853 0.25 0.1
       vertex 0.078853 0.25 0
    endloop
  endfacet
  facet normal -0.195096 0.980784 0
    outer loop
       vertex 0.0462215 0.247861 0
       vertex 0.014148 0.241481 0
       vertex 0.014148 0.241481 0.1
    endloop
  endfacet
  facet normal -0.195096 0.980784 0
    outer loop
       vertex 0.014148 0.241481 0.1
       vertex 0.0462215 0.247861 0.1
       vertex 0.0462215 0.247861 0
    endloop
  endfacet
  facet normal -0.321425 0.946935 0
    outer loop
       vertex 0.014148 0.241481 0
       vertex -0.016818 0.23097 0
       vertex -0.016818 0.23097 0.1
    endloop
  endfacet
  facet normal -0.321425 0.946935 0
    outer loop
       vertex -0.016818 0.23097 0.1
       vertex 0.014148 0.241481 0.1
       vertex 0.014148 0.241481 0
    endloop
  endfacet
  facet normal -0.442302 0.896866 0
    outer loop
       vertex -0.016818 0.23097 0
       vertex -0.046147 0.216506 0
       vertex -0.046147 0.216506 0.1
    endloop
  endfacet
  facet normal -0.442302 0.896866 0
    outer loop
       vertex -0.046147 0.216506 0.1
       vertex -0.016818 0.23097 0.1
       vertex -0.016818 0.23097 0
    endloop
  endfacet
  facet normal -0.555561 0.831476 0
    outer loop
       vertex -0.046147 0.216506 0
       vertex -0.073338 0.198338 0
       vertex -0.073338 0.198338 0.1
    endloop
  endfacet
  facet normal -0.555561 0.831476 0
    outer loop
       vertex -0.073338 0.198338 0.1
       vertex -0.046147 0.216506 0.1
       vertex -0.046147 0.216506 0
    endloop
  endfacet
  facet normal -0.659372 0.751817 0
    outer loop
       vertex -0.073338 0.198338 0
       vertex -0.097923 0.176776 0
       vertex -0.097923 0.176776 0.1
    endloop
  endfacet
  facet normal -0.659372 0.751817 0
    outer loop
       vertex -0.097923 0.176776 0.1
       vertex -0.073338 0.198338 0.1
       vertex -0.073338 0.198338 0
    endloop
  endfacet
  facet normal -0.751817 0.659372 0
    outer loop
       vertex -0.097923 0.176776 0
       vertex -0.119485 0.152191 0
       vertex -0.119485 0.152191 0.1
    endloop
  endfacet
  facet normal -0.751817 0.659372 0
    outer loop
       vertex -0.119485 0.152191 0.1
       vertex -0.097923 0.176776 0.1
       vertex -0.097923 0.176776 0
    endloop
  endfacet
  facet normal -0.831476 0.555561 0
    outer loop
       vertex -0.119485 0.152191 0
       vertex -0.137653 0.125 0
       vertex -0.137653 0.125 0.1
    endloop
  endfacet
  facet normal -0.831476 0.555561 0
    outer loop
       vertex -0.137653 0.125 0.1
       vertex -0.119485 0.152191 0.1
       vertex -0.119485 0.152191 0
    endloop
  endfacet
  facet normal -0.896866 0.442302 0
    outer loop
       vertex -0.137653 0.125 0
       vertex -0.152117 0.095671 0
       vertex -0.152117 0.095671 0.1
    endloop
  endfacet
  facet normal -0.896866 0.442302 0
    outer loop
       vertex -0.152117 0.095671 0.1
       vertex -0.137653 0.125 0.1
       vertex -0.137653 0.125 0
    endloop
  endfacet
  facet normal -0.946935 0.321425 0
    outer loop
       vertex -0.152117 0.095671 0
       vertex -0.162628 0.064705 0
       vertex -0.162628 0.064705 0.1
    endloop
  endfacet
  facet normal -0.946935 0.321425 0
    outer loop
       vertex -0.162628 0.064705 0.1
       vertex -0.152117 0.095671 0.1
       vertex -0.152117 0.095671 0
    endloop
  endfacet
  facet normal -0.980784 0.195096 0
    outer loop
       vertex -0.162628 0.064705 0
       vertex -0.169008 0.0326315 0
       vertex -0.169008 0.0326315 0.1
    endloop
  endfacet
  facet normal -0.980784 0.195096 0
    outer loop
       vertex -0.169008 0.0326315 0.1
       vertex -0.162628 0.064705 0.1
       vertex -0.162628 0.064705 0
    endloop
  endfacet
  facet normal -0.997858 0.0654098 0
    outer loop
       vertex -0.171147 8.32665e-17 0.1
       vertex -0.169008 0.0326315 0.1
       vertex -0.169008 0.0326315 0
    endloop
  endfacet
  facet normal -0.997858 0.0654098 -1.08928e-16
    outer loop
       vertex -0.169008 0.0326315 0
       vertex -0.171147 -8.32665e-17 0
       vertex -0.171147 8.32665e-17 0.1
    endloop
  endfacet
  facet normal -0.997858 -0.0654098 0
    outer loop
       vertex -0.171147 -8.32665e-17 0
       vertex -0.169008 -0.0326315 0
       vertex -0.169008 -0.0326315 0.1
    endloop
  endfacet
  facet normal -0.997858 -0.0654098 1.08928e-16
    outer loop
       vertex -0.169008 -0.0326315 0.1
       vertex -0.171147 8.32665e-17 0.1
       vertex -0.171147 -8.32665e-17 0
    endloop
  endfacet
  facet normal -0.980784 -0.195096 0
    outer loop
       vertex -0.169008 -0.0326315 0
       vertex -0.162628 -0.064705 0
       vertex -0.162628 -0.064705 0.1
    endloop
  endfacet
  facet normal -0.980784 -0.195096 0
    outer loop
       vertex -0.162628 -0.064705 0.1
       vertex -0.169008 -0.0326315 0.1
       vertex -0.169008 -0.0326315 0
    endloop
  endfacet
  facet normal -0.946935 -0.321425 0
    outer loop
       vertex -0.162628 -0.064705 0
       vertex -0.152117 -0.095671 0
       vertex -0.152117 -0.095671 0.1
    endloop
  endfacet
  facet normal -0.946935 -0.321425 0
    outer loop
       vertex -0.152117 -0.095671 0.1
       vertex -0.162628 -0.064705 0.1
       vertex -0.162628 -0.064705 0
    endloop
  endfacet
  facet normal -0.896866 -0.442302 0
    outer loop
       vertex -0.152117 -0.095671 0
       vertex -0.137653 -0.125 0
       vertex -0.137653 -0.125 0.1
    endloop
  endfacet
  facet normal -0.896866 -0.442302 0
    outer loop
       vertex -0.137653 -0.125 0.1
       vertex -0.152117 -0.095671 0.1
       vertex -0.152117 -0.095671 0
    endloop
  endfacet
  facet normal -0.831476 -0.555561 0
    outer loop
       vertex -0.137653 -0.125 0
       vertex -0.119485 -0.152191 0
       vertex -0.119485 -0.152191 0.1
    endloop
  endfacet
  facet normal -0.831476 -0.555561 0
    outer loop
       vertex -0.119485 -0.152191 0.1
       vertex -0.137653 -0.125 0.1
       vertex -0.137653 -0.125 0
    endloop
  endfacet
  facet normal -0.751817 -0.659372 0
    outer loop
       vertex -0.119485 -0.152191 0
       vertex -0.097923 -0.176776 0
       vertex -0.097923 -0.176776 0.1
    endloop
  endfacet
  facet normal -0.751817 -0.659372 0
    outer loop
       vertex -0.097923 -0.176776 0.1
       vertex -0.119485 -0.152191 0.1
       vertex -0.119485 -0.152191 0
    endloop
  endfacet
  facet normal 0.659372 -0.751817 0
    outer loop
       vertex 0.255629 -0.176776 0
       vertex 0.255629 -0.176776 0.1
       vertex 0.231044 -0.198338 0.1
    endloop
  endfacet
  facet normal 0.659372 -0.751817 0
    outer loop
       vertex 0.231044 -0.198338 0.1
       vertex 0.231044 -0.198338 0
       vertex 0.255629 -0.176776 0
    endloop
  endfacet
  facet normal 0.555561 -0.831476 0
    outer loop
       vertex 0.231044 -0.198338 0
       vertex 0.231044 -0.198338 0.1
       vertex 0.203853 -0.216506 0.1
    endloop
  endfacet
  facet normal 0.555561 -0.831476 0
    outer loop
       vertex 0.203853 -0.216506 0.1
       vertex 0.203853 -0.216506 0
       vertex 0.231044 -0.198338 0
    endloop
  endfacet
  facet normal 0.442302 -0.896866 0
    outer loop
       vertex 0.203853 -0.216506 0
       vertex 0.203853 -0.216506 0.1
       vertex 0.174524 -0.23097 0.1
    endloop
  endfacet
  facet normal 0.442302 -0.896866 0
    outer loop
       vertex 0.174524 -0.23097 0.1
       vertex 0.174524 -0.23097 0
       vertex 0.203853 -0.216506 0
    endloop
  endfacet
  facet normal 0.321425 -0.946935 0
    outer loop
       vertex 0.174524 -0.23097 0
       vertex 0.174524 -0.23097 0.1
       vertex 0.143558 -0.241481 0.1
    endloop
  endfacet
  facet normal 0.321425 -0.946935 0
    outer loop
       vertex 0.143558 -0.241481 0.1
       vertex 0.143558 -0.241481 0
       vertex 0.174524 -0.23097 0
    endloop
  endfacet
  facet normal 0.195096 -0.980784 0
    outer loop
       vertex 0.143558 -0.241481 0
       vertex 0.143558 -0.241481 0.1
       vertex 0.111484 -0.247861 0.1
    endloop
  endfacet
  facet normal 0.195096 -0.980784 0
    outer loop
       vertex 0.111484 -0.247861 0.1
       vertex 0.111484 -0.247861 0
       vertex 0.143558 -0.241481 0
    endloop
  endfacet
  facet normal 0.0654098 -0.997858 0
    outer loop
       vertex 0.078853 -0.25 0
       vertex 0.111484 -0.247861 0
       vertex 0.111484 -0.247861 0.1
    endloop
  endfacet
  facet normal 0.0654098 -0.997858 1.0893e-16
    outer loop
       vertex 0.111484 -0.247861 0.1
       vertex 0.078853 -0.25 0.1
       vertex 0.078853 -0.25 0
    endloop
  endfacet
  facet normal -0.0654098 -0.997858 0
    outer loop
       vertex 0.078853 -0.25 0.1
       vertex 0.0462215 -0.247861 0.1
       vertex 0.0462215 -0.247861 0
    endloop
  endfacet
  facet normal -0.0654098 -0.997858 -1.08928e-16
    outer loop
       vertex 0.0462215 -0.247861 0
       vertex 0.078853 -0.25 0
       vertex 0.078853 -0.25 0.1
    endloop
  endfacet
  facet normal -0.195096 -0.980784 0
    outer loop
       vertex 0.0462215 -0.247861 0
       vertex 0.0462215 -0.247861 0.1
       vertex 0.014148 -0.241481 0.1
    endloop
  endfacet
  facet normal -0.195096 -0.980784 -0
    outer loop
       vertex 0.014148 -0.241481 0.1
       vertex 0.014148 -0.241481 0
       vertex 0.0462215 -0.247861 0
    endloop
  endfacet
  facet normal -0.321425 -0.946935 0
    outer loop
       vertex 0.014148 -0.241481 0
       vertex 0.014148 -0.241481 0.1
       vertex -0.016818 -0.23097 0.1
    endloop
  endfacet
  facet normal -0.321425 -0.946935 -0
    outer loop
       vertex -0.016818 -0.23097 0.1
       vertex -0.016818 -0.23097 0
       vertex 0.014148 -0.241481 0
    endloop
  endfacet
  facet normal -0.442302 -0.896866 0
    outer loop
       vertex -0.016818 -0.23097 0
       vertex -0.016818 -0.23097 0.1
       vertex -0.046147 -0.216506 0.1
    endloop
  endfacet
  facet normal -0.442302 -0.896866 -0
    outer loop
       vertex -0.046147 -0.216506 0.1
       vertex -0.046147 -0.216506 0
       vertex -0.016818 -0.23097 0
    endloop
  endfacet
  facet normal -0.555561 -0.831476 0
    outer loop
       vertex -0.046147 -0.216506 0
       vertex -0.046147 -0.216506 0.1
       vertex -0.073338 -0.198338 0.1
    endloop
  endfacet
  facet normal -0.555561 -0.831476 -0
    outer loop
       vertex -0.073338 -0.198338 0.1
       vertex -0.073338 -0.198338 0
       vertex -0.046147 -0.216506 0
    endloop
  endfacet
  facet normal -0.659372 -0.751817 0
    outer loop
       vertex -0.073338 -0.198338 0
       vertex -0.073338 -0.198338 0.1
       vertex -0.097923 -0.176776 0.1
    endloop
  endfacet
  facet normal -0.659372 -0.751817 -0
    outer loop
       vertex -0.097923 -0.176776 0.1
       vertex -0.097923 -0.176776 0
       vertex -0.073338 -0.198338 0
    endloop
  endfacet
endsolid cylinder
