solid cylinder
  facet normal 0.751817 -0.659372 0
    outer loop
       vertex -0.0176876 -0.176776 0
       vertex 0.00387437 -0.152191 0
       vertex 0.00387437 -0.152191 0.1
    endloop
  endfacet
  facet normal 0.751817 -0.659372 0
    outer loop
       vertex 0.00387437 -0.152191 0.1
       vertex -0.0176876 -0.176776 0.1
       vertex -0.0176876 -0.176776 0
    endloop
  endfacet
  facet normal 0.831476 -0.555561 0
    outer loop
       vertex 0.00387437 -0.152191 0
       vertex 0.0220424 -0.125 0
       vertex 0.0220424 -0.125 0.1
    endloop
  endfacet
  facet normal 0.831476 -0.555561 0
    outer loop
       vertex 0.0220424 -0.125 0.1
       vertex 0.00387437 -0.152191 0.1
       vertex 0.00387437 -0.152191 0
    endloop
  endfacet
  facet normal 0.896866 -0.442302 0
    outer loop
       vertex 0.0220424 -0.125 0
       vertex 0.0365064 -0.095671 0
       vertex 0.0365064 -0.095671 0.1
    endloop
  endfacet
  facet normal 0.896866 -0.442302 0
    outer loop
       vertex 0.0365064 -0.095671 0.1
       vertex 0.0220424 -0.125 0.1
       vertex 0.0220424 -0.125 0
    endloop
  endfacet
  facet normal 0.946935 -0.321425 0
    outer loop
       vertex 0.0365064 -0.095671 0
       vertex 0.0470174 -0.064705 0
       vertex 0.0470174 -0.064705 0.1
    endloop
  endfacet
  facet normal 0.946935 -0.321425 0
    outer loop
       vertex 0.0470174 -0.064705 0.1
       vertex 0.0365064 -0.095671 0.1
       vertex 0.0365064 -0.095671 0
    endloop
  endfacet
  facet normal 0.980784 -0.195096 0
    outer loop
       vertex 0.0470174 -0.064705 0
       vertex 0.0533974 -0.0326315 0
       vertex 0.0533974 -0.0326315 0.1
    endloop
  endfacet
  facet normal 0.980784 -0.195096 0
    outer loop
       vertex 0.0533974 -0.0326315 0.1
       vertex 0.0470174 -0.064705 0.1
       vertex 0.0470174 -0.064705 0
    endloop
  endfacet
  facet normal 0.997858 -0.0654098 0
    outer loop
       vertex 0.0555364 -8.32665e-17 0.1
       vertex 0.0533974 -0.0326315 0.1
       vertex 0.0533974 -0.0326315 0
    endloop
  endfacet
  facet normal 0.997858 -0.0654098 -1.08928e-16
    outer loop
       vertex 0.0533974 -0.0326315 0
       vertex 0.0555364 8.32665e-17 0
       vertex 0.0555364 -8.32665e-17 0.1
    endloop
  endfacet
  facet normal 0.997858 0.0654098 0
    outer loop
       vertex 0.0555364 8.32665e-17 0
       vertex 0.0533974 0.0326315 0
       vertex 0.0533974 0.0326315 0.1
    endloop
  endfacet
  facet normal 0.997858 0.0654098 1.08928e-16
    outer loop
       vertex 0.0533974 0.0326315 0.1
       vertex 0.0555364 -8.32665e-17 0.1
       vertex 0.0555364 8.32665e-17 0
    endloop
  endfacet
  facet normal 0.980784 0.195096 0
    outer loop
       vertex 0.0533974 0.0326315 0
       vertex 0.0470174 0.064705 0
       vertex 0.0470174 0.064705 0.1
    endloop
  endfacet
  facet normal 0.980784 0.195096 0
    outer loop
       vertex 0.0470174 0.064705 0.1
       vertex 0.0533974 0.0326315 0.1
       vertex 0.0533974 0.0326315 0
    endloop
  endfacet
  facet normal 0.946935 0.321425 0
    outer loop
       vertex 0.0470174 0.064705 0
       vertex 0.0365064 0.095671 0
       vertex 0.0365064 0.095671 0.1
    endloop
  endfacet
  facet normal 0.946935 0.321425 0
    outer loop
       vertex 0.0365064 0.095671 0.1
       vertex 0.0470174 0.064705 0.1
       vertex 0.0470174 0.064705 0
    endloop
  endfacet
  facet normal 0.896866 0.442302 0
    outer loop
       vertex 0.0365064 0.095671 0
       vertex 0.0220424 0.125 0
       vertex 0.0220424 0.125 0.1
    endloop
  endfacet
  facet normal 0.896866 0.442302 0
    outer loop
       vertex 0.0220424 0.125 0.1
       vertex 0.0365064 0.095671 0.1
       vertex 0.0365064 0.095671 0
    endloop
  endfacet
  facet normal 0.831476 0.555561 0
    outer loop
       vertex 0.0220424 0.125 0
       vertex 0.00387437 0.152191 0
       vertex 0.00387437 0.152191 0.1
    endloop
  endfacet
  facet normal 0.831476 0.555561 0
    outer loop
       vertex 0.00387437 0.152191 0.1
       vertex 0.0220424 0.125 0.1
       vertex 0.0220424 0.125 0
    endloop
  endfacet
  facet normal 0.751817 0.659372 0
    outer loop
       vertex 0.00387437 0.152191 0
       vertex -0.0176876 0.176776 0
       vertex -0.0176876 0.176776 0.1
    endloop
  endfacet
  facet normal 0.751817 0.659372 0
    outer loop
       vertex -0.0176876 0.176776 0.1
       vertex 0.00387437 0.152191 0.1
       vertex 0.00387437 0.152191 0
    endloop
  endfacet
  facet normal 0.659372 0.751817 0
    outer loop
       vertex -0.0176876 0.176776 0
       vertex -0.0422726 0.198338 0
       vertex -0.0422726 0.198338 0.1
    endloop
  endfacet
  facet normal 0.659372 0.751817 0
    outer loop
       vertex -0.0422726 0.198338 0.1
       vertex -0.0176876 0.176776 0.1
       vertex -0.0176876 0.176776 0
    endloop
  endfacet
  facet normal 0.555561 0.831476 0
    outer loop
       vertex -0.0422726 0.198338 0
       vertex -0.0694636 0.216506 0
       vertex -0.0694636 0.216506 0.1
    endloop
  endfacet
  facet normal 0.555561 0.831476 0
    outer loop
       vertex -0.0694636 0.216506 0.1
       vertex -0.0422726 0.198338 0.1
       vertex -0.0422726 0.198338 0
    endloop
  endfacet
  facet normal 0.442302 0.896866 0
    outer loop
       vertex -0.0694636 0.216506 0
       vertex -0.0987926 0.23097 0
       vertex -0.0987926 0.23097 0.1
    endloop
  endfacet
  facet normal 0.442302 0.896866 0
    outer loop
       vertex -0.0987926 0.23097 0.1
       vertex -0.0694636 0.216506 0.1
       vertex -0.0694636 0.216506 0
    endloop
  endfacet
  facet normal 0.321425 0.946935 0
    outer loop
       vertex -0.0987926 0.23097 0
       vertex -0.129759 0.241481 0
       vertex -0.129759 0.241481 0.1
    endloop
  endfacet
  facet normal 0.321425 0.946935 0
    outer loop
       vertex -0.129759 0.241481 0.1
       vertex -0.0987926 0.23097 0.1
       vertex -0.0987926 0.23097 0
    endloop
  endfacet
  facet normal 0.195096 0.980784 0
    outer loop
       vertex -0.129759 0.241481 0
       vertex -0.161832 0.247861 0
       vertex -0.161832 0.247861 0.1
    endloop
  endfacet
  facet normal 0.195096 0.980784 0
    outer loop
       vertex -0.161832 0.247861 0.1
       vertex -0.129759 0.241481 0.1
       vertex -0.129759 0.241481 0
    endloop
  endfacet
  facet normal 0.0654098 0.997858 0
    outer loop
       vertex -0.194464 0.25 0.1
       vertex -0.161832 0.247861 0.1
       vertex -0.161832 0.247861 0
    endloop
  endfacet
  facet normal 0.0654098 0.997858 -1.0893e-16
    outer loop
       vertex -0.161832 0.247861 0
       vertex -0.194464 0.25 0
       vertex -0.194464 0.25 0.1
    endloop
  endfacet
  facet normal -0.0654098 0.997858 0
    outer loop
       vertex -0.194464 0.25 0
       vertex -0.227095 0.247861 0
       vertex -0.227095 0.247861 0.1
    endloop
  endfacet
  facet normal -0.0654098 0.997858 1.0893e-16
    outer loop
       vertex -0.227095 0.247861 0.1
       vertex -0.194464 0.25 0.1
       vertex -0.194464 0.25 0
    endloop
  endfacet
  facet normal -0.195096 0.980784 0
    outer loop
       vertex -0.227095 0.247861 0
       vertex -0.259169 0.241481 0
       vertex -0.259169 0.241481 0.1
    endloop
  endfacet
  facet normal -0.195096 0.980784 0
    outer loop
       vertex -0.259169 0.241481 0.1
       vertex -0.227095 0.247861 0.1
       vertex -0.227095 0.247861 0
    endloop
  endfacet
  facet normal -0.321425 0.946935 0
    outer loop
       vertex -0.259169 0.241481 0
       vertex -0.290135 0.23097 0
       vertex -0.290135 0.23097 0.1
    endloop
  endfacet
  facet normal -0.321425 0.946935 0
    outer loop
       vertex -0.290135 0.23097 0.1
       vertex -0.259169 0.241481 0.1
       vertex -0.259169 0.241481 0
    endloop
  endfacet
  facet normal -0.442302 0.896866 0
    outer loop
       vertex -0.290135 0.23097 0
       vertex -0.319464 0.216506 0
       vertex -0.319464 0.216506 0.1
    endloop
  endfacet
  facet normal -0.442302 0.896866 0
    outer loop
       vertex -0.319464 0.216506 0.1
       vertex -0.290135 0.23097 0.1
       vertex -0.290135 0.23097 0
    endloop
  endfacet
  facet normal -0.555561 0.831476 0
    outer loop
       vertex -0.319464 0.216506 0
       vertex -0.346655 0.198338 0
       vertex -0.346655 0.198338 0.1
    endloop
  endfacet
  facet normal -0.555561 0.831476 0
    outer loop
       vertex -0.346655 0.198338 0.1
       vertex -0.319464 0.216506 0.1
       vertex -0.319464 0.216506 0
    endloop
  endfacet
  facet normal -0.659372 0.751817 0
    outer loop
       vertex -0.346655 0.198338 0
       vertex -0.37124 0.176776 0
       vertex -0.37124 0.176776 0.1
    endloop
  endfacet
  facet normal -0.659372 0.751817 0
    outer loop
       vertex -0.37124 0.176776 0.1
       vertex -0.346655 0.198338 0.1
       vertex -0.346655 0.198338 0
    endloop
  endfacet
  facet normal -0.751817 0.659372 0
    outer loop
       vertex -0.37124 0.176776 0
       vertex -0.392802 0.152191 0
       vertex -0.392802 0.152191 0.1
    endloop
  endfacet
  facet normal -0.751817 0.659372 0
    outer loop
       vertex -0.392802 0.152191 0.1
       vertex -0.37124 0.176776 0.1
       vertex -0.37124 0.176776 0
    endloop
  endfacet
  facet normal -0.831476 0.555561 0
    outer loop
       vertex -0.392802 0.152191 0
       vertex -0.41097 0.125 0
       vertex -0.41097 0.125 0.1
    endloop
  endfacet
  facet normal -0.831476 0.555561 0
    outer loop
       vertex -0.41097 0.125 0.1
       vertex -0.392802 0.152191 0.1
       vertex -0.392802 0.152191 0
    endloop
  endfacet
  facet normal -0.896866 0.442302 0
    outer loop
       vertex -0.41097 0.125 0
       vertex -0.425434 0.095671 0
       vertex -0.425434 0.095671 0.1
    endloop
  endfacet
  facet normal -0.896866 0.442302 0
    outer loop
       vertex -0.425434 0.095671 0.1
       vertex -0.41097 0.125 0.1
       vertex -0.41097 0.125 0
    endloop
  endfacet
  facet normal -0.946935 0.321425 0
    outer loop
       vertex -0.425434 0.095671 0
       vertex -0.435945 0.064705 0
       vertex -0.435945 0.064705 0.1
    endloop
  endfacet
  facet normal -0.946935 0.321425 0
    outer loop
       vertex -0.435945 0.064705 0.1
       vertex -0.425434 0.095671 0.1
       vertex -0.425434 0.095671 0
    endloop
  endfacet
  facet normal -0.980784 0.195096 0
    outer loop
       vertex -0.435945 0.064705 0
       vertex -0.442325 0.0326315 0
       vertex -0.442325 0.0326315 0.1
    endloop
  endfacet
  facet normal -0.980784 0.195096 0
    outer loop
       vertex -0.442325 0.0326315 0.1
       vertex -0.435945 0.064705 0.1
       vertex -0.435945 0.064705 0
    endloop
  endfacet
  facet normal -0.997858 0.0654098 0
    outer loop
       vertex -0.444464 8.32665e-17 0.1
       vertex -0.442325 0.0326315 0.1
       vertex -0.442325 0.0326315 0
    endloop
  endfacet
  facet normal -0.997858 0.0654098 -1.08928e-16
    outer loop
       vertex -0.442325 0.0326315 0
       vertex -0.444464 -8.32665e-17 0
       vertex -0.444464 8.32665e-17 0.1
    endloop
  endfacet
  facet normal -0.997858 -0.0654098 0
    outer loop
       vertex -0.444464 -8.32665e-17 0
       vertex -0.442325 -0.0326315 0
       vertex -0.442325 -0.0326315 0.1
    endloop
  endfacet
  facet normal -0.997858 -0.0654098 1.08928e-16
    outer loop
       vertex -0.442325 -0.0326315 0.1
       vertex -0.444464 8.32665e-17 0.1
       vertex -0.444464 -8.32665e-17 0
    endloop
  endfacet
  facet normal -0.980784 -0.195096 0
    outer loop
       vertex -0.442325 -0.0326315 0
       vertex -0.435945 -0.064705 0
       vertex -0.435945 -0.064705 0.1
    endloop
  endfacet
  facet normal -0.980784 -0.195096 0
    outer loop
       vertex -0.435945 -0.064705 0.1
       vertex -0.442325 -0.0326315 0.1
       vertex -0.442325 -0.0326315 0
    endloop
  endfacet
  facet normal -0.946935 -0.321425 0
    outer loop
       vertex -0.435945 -0.064705 0
       vertex -0.425434 -0.095671 0
       vertex -0.425434 -0.095671 0.1
    endloop
  endfacet
  facet normal -0.946935 -0.321425 0
    outer loop
       vertex -0.425434 -0.095671 0.1
       vertex -0.435945 -0.064705 0.1
       vertex -0.435945 -0.064705 0
    endloop
  endfacet
  facet normal -0.896866 -0.442302 0
    outer loop
       vertex -0.425434 -0.095671 0
       vertex -0.41097 -0.125 0
       vertex -0.41097 -0.125 0.1
    endloop
  endfacet
  facet normal -0.896866 -0.442302 0
    outer loop
       vertex -0.41097 -0.125 0.1
       vertex -0.425434 -0.095671 0.1
       vertex -0.425434 -0.095671 0
    endloop
  endfacet
  facet normal -0.831476 -0.555561 0
    outer loop
       vertex -0.41097 -0.125 0
       vertex -0.392802 -0.152191 0
       vertex -0.392802 -0.152191 0.1
    endloop
  endfacet
  facet normal -0.831476 -0.555561 0
    outer loop
       vertex -0.392802 -0.152191 0.1
       vertex -0.41097 -0.125 0.1
       vertex -0.41097 -0.125 0
    endloop
  endfacet
  facet normal -0.751817 -0.659372 0
    outer loop
       vertex -0.392802 -0.152191 0
       vertex -0.37124 -0.176776 0
       vertex -0.37124 -0.176776 0.1
    endloop
  endfacet
  facet normal -0.751817 -0.659372 0
    outer loop
       vertex -0.37124 -0.176776 0.1
       vertex -0.392802 -0.152191 0.1
       vertex -0.392802 -0.152191 0
    endloop
  endfacet
  facet normal 0.659372 -0.751817 0
    outer loop
       vertex -0.0176876 -0.176776 0
       vertex -0.0176876 -0.176776 0.1
       vertex -0.0422726 -0.198338 0.1
    endloop
  endfacet
  facet normal 0.659372 -0.751817 0
    outer loop
       vertex -0.0422726 -0.198338 0.1
       vertex -0.0422726 -0.198338 0
       vertex -0.0176876 -0.176776 0
    endloop
  endfacet
  facet normal 0.555561 -0.831476 0
    outer loop
       vertex -0.0422726 -0.198338 0
       vertex -0.0422726 -0.198338 0.1
       vertex -0.0694636 -0.216506 0.1
    endloop
  endfacet
  facet normal 0.555561 -0.831476 0
    outer loop
       vertex -0.0694636 -0.216506 0.1
       vertex -0.0694636 -0.216506 0
       vertex -0.0422726 -0.198338 0
    endloop
  endfacet
  facet normal 0.442302 -0.896866 0
    outer loop
       vertex -0.0694636 -0.216506 0
       vertex -0.0694636 -0.216506 0.1
       vertex -0.0987926 -0.23097 0.1
    endloop
  endfacet
  facet normal 0.442302 -0.896866 0
    outer loop
       vertex -0.0987926 -0.23097 0.1
       vertex -0.0987926 -0.23097 0
       vertex -0.0694636 -0.216506 0
    endloop
  endfacet
  facet normal 0.321425 -0.946935 0
    outer loop
       vertex -0.0987926 -0.23097 0
       vertex -0.0987926 -0.23097 0.1
       vertex -0.129759 -0.241481 0.1
    endloop
  endfacet
  facet normal 0.321425 -0.946935 0
    outer loop
       vertex -0.129759 -0.241481 0.1
       vertex -0.129759 -0.241481 0
       vertex -0.0987926 -0.23097 0
    endloop
  endfacet
  facet normal 0.195096 -0.980784 0
    outer loop
       vertex -0.129759 -0.241481 0
       vertex -0.129759 -0.241481 0.1
       vertex -0.161832 -0.247861 0.1
    endloop
  endfacet
  facet normal 0.195096 -0.980784 0
    outer loop
       vertex -0.161832 -0.247861 0.1
       vertex -0.161832 -0.247861 0
       vertex -0.129759 -0.241481 0
    endloop
  endfacet
  facet normal 0.0654098 -0.997858 0
    outer loop
       vertex -0.194464 -0.25 0
       vertex -0.161832 -0.247861 0
       vertex -0.161832 -0.247861 0.1
    endloop
  endfacet
  facet normal 0.0654098 -0.997858 1.0893e-16
    outer loop
       vertex -0.161832 -0.247861 0.1
       vertex -0.194464 -0.25 0.1
       vertex -0.194464 -0.25 0
    endloop
  endfacet
  facet normal -0.0654098 -0.997858 0
    outer loop
       vertex -0.194464 -0.25 0.1
       vertex -0.227095 -0.247861 0.1
       vertex -0.227095 -0.247861 0
    endloop
  endfacet
  facet normal -0.0654098 -0.997858 -1.0893e-16
    outer loop
       vertex -0.227095 -0.247861 0
       vertex -0.194464 -0.25 0
       vertex -0.194464 -0.25 0.1
    endloop
  endfacet
  facet normal -0.195096 -0.980784 0
    outer loop
       vertex -0.227095 -0.247861 0
       vertex -0.227095 -0.247861 0.1
       vertex -0.259169 -0.241481 0.1
    endloop
  endfacet
  facet normal -0.195096 -0.980784 -0
    outer loop
       vertex -0.259169 -0.241481 0.1
       vertex -0.259169 -0.241481 0
       vertex -0.227095 -0.247861 0
    endloop
  endfacet
  facet normal -0.321425 -0.946935 0
    outer loop
       vertex -0.259169 -0.241481 0
       vertex -0.259169 -0.241481 0.1
       vertex -0.290135 -0.23097 0.1
    endloop
  endfacet
  facet normal -0.321425 -0.946935 -0
    outer loop
       vertex -0.290135 -0.23097 0.1
       vertex -0.290135 -0.23097 0
       vertex -0.259169 -0.241481 0
    endloop
  endfacet
  facet normal -0.442302 -0.896866 0
    outer loop
       vertex -0.290135 -0.23097 0
       vertex -0.290135 -0.23097 0.1
       vertex -0.319464 -0.216506 0.1
    endloop
  endfacet
  facet normal -0.442302 -0.896866 -0
    outer loop
       vertex -0.319464 -0.216506 0.1
       vertex -0.319464 -0.216506 0
       vertex -0.290135 -0.23097 0
    endloop
  endfacet
  facet normal -0.555561 -0.831476 0
    outer loop
       vertex -0.319464 -0.216506 0
       vertex -0.319464 -0.216506 0.1
       vertex -0.346655 -0.198338 0.1
    endloop
  endfacet
  facet normal -0.555561 -0.831476 -0
    outer loop
       vertex -0.346655 -0.198338 0.1
       vertex -0.346655 -0.198338 0
       vertex -0.319464 -0.216506 0
    endloop
  endfacet
  facet normal -0.659372 -0.751817 0
    outer loop
       vertex -0.346655 -0.198338 0
       vertex -0.346655 -0.198338 0.1
       vertex -0.37124 -0.176776 0.1
    endloop
  endfacet
  facet normal -0.659372 -0.751817 -0
    outer loop
       vertex -0.37124 -0.176776 0.1
       vertex -0.37124 -0.176776 0
       vertex -0.346655 -0.198338 0
    endloop
  endfacet
endsolid cylinder
