solid cylinder
  facet normal 0.751817 -0.659372 0
    outer loop
       vertex 0.372782 -0.176776 0
       vertex 0.394344 -0.152191 0
       vertex 0.394344 -0.152191 0.1
    endloop
  endfacet
  facet normal 0.751817 -0.659372 0
    outer loop
       vertex 0.394344 -0.152191 0.1
       vertex 0.372782 -0.176776 0.1
       vertex 0.372782 -0.176776 0
    endloop
  endfacet
  facet normal 0.831476 -0.555561 0
    outer loop
       vertex 0.394344 -0.152191 0
       vertex 0.412512 -0.125 0
       vertex 0.412512 -0.125 0.1
    endloop
  endfacet
  facet normal 0.831476 -0.555561 0
    outer loop
       vertex 0.412512 -0.125 0.1
       vertex 0.394344 -0.152191 0.1
       vertex 0.394344 -0.152191 0
    endloop
  endfacet
  facet normal 0.896866 -0.442302 0
    outer loop
       vertex 0.412512 -0.125 0
       vertex 0.426976 -0.095671 0
       vertex 0.426976 -0.095671 0.1
    endloop
  endfacet
  facet normal 0.896866 -0.442302 0
    outer loop
       vertex 0.426976 -0.095671 0.1
       vertex 0.412512 -0.125 0.1
       vertex 0.412512 -0.125 0
    endloop
  endfacet
  facet normal 0.946935 -0.321425 0
    outer loop
       vertex 0.426976 -0.095671 0
       vertex 0.437487 -0.064705 0
       vertex 0.437487 -0.064705 0.1
    endloop
  endfacet
  facet normal 0.946935 -0.321425 0
    outer loop
       vertex 0.437487 -0.064705 0.1
       vertex 0.426976 -0.095671 0.1
       vertex 0.426976 -0.095671 0
    endloop
  endfacet
  facet normal 0.980784 -0.195096 0
    outer loop
       vertex 0.437487 -0.064705 0
       vertex 0.443867 -0.0326315 0
       vertex 0.443867 -0.0326315 0.1
    endloop
  endfacet
  facet normal 0.980784 -0.195096 0
    outer loop
       vertex 0.443867 -0.0326315 0.1
       vertex 0.437487 -0.064705 0.1
       vertex 0.437487 -0.064705 0
    endloop
  endfacet
  facet normal 0.997858 -0.0654098 0
    outer loop
       vertex 0.446006 -8.32665e-17 0.1
       vertex 0.443867 -0.0326315 0.1
       vertex 0.443867 -0.0326315 0
    endloop
  endfacet
  facet normal 0.997858 -0.0654098 -1.08928e-16
    outer loop
       vertex 0.443867 -0.0326315 0
       vertex 0.446006 8.32665e-17 0
       vertex 0.446006 -8.32665e-17 0.1
    endloop
  endfacet
  facet normal 0.997858 0.0654098 0
    outer loop
       vertex 0.446006 8.32665e-17 0
       vertex 0.443867 0.0326315 0
       vertex 0.443867 0.0326315 0.1
    endloop
  endfacet
  facet normal 0.997858 0.0654098 1.08928e-16
    outer loop
       vertex 0.443867 0.0326315 0.1
       vertex 0.446006 -8.32665e-17 0.1
       vertex 0.446006 8.32665e-17 0
    endloop
  endfacet
  facet normal 0.980784 0.195096 0
    outer loop
       vertex 0.443867 0.0326315 0
       vertex 0.437487 0.064705 0
       vertex 0.437487 0.064705 0.1
    endloop
  endfacet
  facet normal 0.980784 0.195096 0
    outer loop
       vertex 0.437487 0.064705 0.1
       vertex 0.443867 0.0326315 0.1
       vertex 0.443867 0.0326315 0
    endloop
  endfacet
  facet normal 0.946935 0.321425 0
    outer loop
       vertex 0.437487 0.064705 0
       vertex 0.426976 0.095671 0
       vertex 0.426976 0.095671 0.1
    endloop
  endfacet
  facet normal 0.946935 0.321425 0
    outer loop
       vertex 0.426976 0.095671 0.1
       vertex 0.437487 0.064705 0.1
       vertex 0.437487 0.064705 0
    endloop
  endfacet
  facet normal 0.896866 0.442302 0
    outer loop
       vertex 0.426976 0.095671 0
       vertex 0.412512 0.125 0
       vertex 0.412512 0.125 0.1
    endloop
  endfacet
  facet normal 0.896866 0.442302 0
    outer loop
       vertex 0.412512 0.125 0.1
       vertex 0.426976 0.095671 0.1
       vertex 0.426976 0.095671 0
    endloop
  endfacet
  facet normal 0.831476 0.555561 0
    outer loop
       vertex 0.412512 0.125 0
       vertex 0.394344 0.152191 0
       vertex 0.394344 0.152191 0.1
    endloop
  endfacet
  facet normal 0.831476 0.555561 0
    outer loop
       vertex 0.394344 0.152191 0.1
       vertex 0.412512 0.125 0.1
       vertex 0.412512 0.125 0
    endloop
  endfacet
  facet normal 0.751817 0.659372 0
    outer loop
       vertex 0.394344 0.152191 0
       vertex 0.372782 0.176776 0
       vertex 0.372782 0.176776 0.1
    endloop
  endfacet
  facet normal 0.751817 0.659372 0
    outer loop
       vertex 0.372782 0.176776 0.1
       vertex 0.394344 0.152191 0.1
       vertex 0.394344 0.152191 0
    endloop
  endfacet
  facet normal 0.659372 0.751817 0
    outer loop
       vertex 0.372782 0.176776 0
       vertex 0.348197 0.198338 0
       vertex 0.348197 0.198338 0.1
    endloop
  endfacet
  facet normal 0.659372 0.751817 0
    outer loop
       vertex 0.348197 0.198338 0.1
       vertex 0.372782 0.176776 0.1
       vertex 0.372782 0.176776 0
    endloop
  endfacet
  facet normal 0.555561 0.831476 0
    outer loop
       vertex 0.348197 0.198338 0
       vertex 0.321006 0.216506 0
       vertex 0.321006 0.216506 0.1
    endloop
  endfacet
  facet normal 0.555561 0.831476 0
    outer loop
       vertex 0.321006 0.216506 0.1
       vertex 0.348197 0.198338 0.1
       vertex 0.348197 0.198338 0
    endloop
  endfacet
  facet normal 0.442302 0.896866 0
    outer loop
       vertex 0.321006 0.216506 0
       vertex 0.291677 0.23097 0
       vertex 0.291677 0.23097 0.1
    endloop
  endfacet
  facet normal 0.442302 0.896866 0
    outer loop
       vertex 0.291677 0.23097 0.1
       vertex 0.321006 0.216506 0.1
       vertex 0.321006 0.216506 0
    endloop
  endfacet
  facet normal 0.321425 0.946935 0
    outer loop
       vertex 0.291677 0.23097 0
       vertex 0.260711 0.241481 0
       vertex 0.260711 0.241481 0.1
    endloop
  endfacet
  facet normal 0.321425 0.946935 0
    outer loop
       vertex 0.260711 0.241481 0.1
       vertex 0.291677 0.23097 0.1
       vertex 0.291677 0.23097 0
    endloop
  endfacet
  facet normal 0.195096 0.980784 0
    outer loop
       vertex 0.260711 0.241481 0
       vertex 0.228638 0.247861 0
       vertex 0.228638 0.247861 0.1
    endloop
  endfacet
  facet normal 0.195096 0.980784 0
    outer loop
       vertex 0.228638 0.247861 0.1
       vertex 0.260711 0.241481 0.1
       vertex 0.260711 0.241481 0
    endloop
  endfacet
  facet normal 0.0654098 0.997858 0
    outer loop
       vertex 0.196006 0.25 0.1
       vertex 0.228638 0.247861 0.1
       vertex 0.228638 0.247861 0
    endloop
  endfacet
  facet normal 0.0654098 0.997858 -1.0893e-16
    outer loop
       vertex 0.228638 0.247861 0
       vertex 0.196006 0.25 0
       vertex 0.196006 0.25 0.1
    endloop
  endfacet
  facet normal -0.0654098 0.997858 0
    outer loop
       vertex 0.196006 0.25 0
       vertex 0.163375 0.247861 0
       vertex 0.163375 0.247861 0.1
    endloop
  endfacet
  facet normal -0.0654098 0.997858 1.0893e-16
    outer loop
       vertex 0.163375 0.247861 0.1
       vertex 0.196006 0.25 0.1
       vertex 0.196006 0.25 0
    endloop
  endfacet
  facet normal -0.195096 0.980784 0
    outer loop
       vertex 0.163375 0.247861 0
       vertex 0.131301 0.241481 0
       vertex 0.131301 0.241481 0.1
    endloop
  endfacet
  facet normal -0.195096 0.980784 0
    outer loop
       vertex 0.131301 0.241481 0.1
       vertex 0.163375 0.247861 0.1
       vertex 0.163375 0.247861 0
    endloop
  endfacet
  facet normal -0.321425 0.946935 0
    outer loop
       vertex 0.131301 0.241481 0
       vertex 0.100335 0.23097 0
       vertex 0.100335 0.23097 0.1
    endloop
  endfacet
  facet normal -0.321425 0.946935 0
    outer loop
       vertex 0.100335 0.23097 0.1
       vertex 0.131301 0.241481 0.1
       vertex 0.131301 0.241481 0
    endloop
  endfacet
  facet normal -0.442302 0.896866 0
    outer loop
       vertex 0.100335 0.23097 0
       vertex 0.0710062 0.216506 0
       vertex 0.0710062 0.216506 0.1
    endloop
  endfacet
  facet normal -0.442302 0.896866 0
    outer loop
       vertex 0.0710062 0.216506 0.1
       vertex 0.100335 0.23097 0.1
       vertex 0.100335 0.23097 0
    endloop
  endfacet
  facet normal -0.555561 0.831476 0
    outer loop
       vertex 0.0710062 0.216506 0
       vertex 0.0438152 0.198338 0
       vertex 0.0438152 0.198338 0.1
    endloop
  endfacet
  facet normal -0.555561 0.831476 0
    outer loop
       vertex 0.0438152 0.198338 0.1
       vertex 0.0710062 0.216506 0.1
       vertex 0.0710062 0.216506 0
    endloop
  endfacet
  facet normal -0.659372 0.751817 0
    outer loop
       vertex 0.0438152 0.198338 0
       vertex 0.0192302 0.176776 0
       vertex 0.0192302 0.176776 0.1
    endloop
  endfacet
  facet normal -0.659372 0.751817 0
    outer loop
       vertex 0.0192302 0.176776 0.1
       vertex 0.0438152 0.198338 0.1
       vertex 0.0438152 0.198338 0
    endloop
  endfacet
  facet normal -0.751817 0.659372 0
    outer loop
       vertex 0.0192302 0.176776 0
       vertex -0.00233181 0.152191 0
       vertex -0.00233181 0.152191 0.1
    endloop
  endfacet
  facet normal -0.751817 0.659372 0
    outer loop
       vertex -0.00233181 0.152191 0.1
       vertex 0.0192302 0.176776 0.1
       vertex 0.0192302 0.176776 0
    endloop
  endfacet
  facet normal -0.831476 0.555561 0
    outer loop
       vertex -0.00233181 0.152191 0
       vertex -0.0204998 0.125 0
       vertex -0.0204998 0.125 0.1
    endloop
  endfacet
  facet normal -0.831476 0.555561 0
    outer loop
       vertex -0.0204998 0.125 0.1
       vertex -0.00233181 0.152191 0.1
       vertex -0.00233181 0.152191 0
    endloop
  endfacet
  facet normal -0.896866 0.442302 0
    outer loop
       vertex -0.0204998 0.125 0
       vertex -0.0349638 0.095671 0
       vertex -0.0349638 0.095671 0.1
    endloop
  endfacet
  facet normal -0.896866 0.442302 0
    outer loop
       vertex -0.0349638 0.095671 0.1
       vertex -0.0204998 0.125 0.1
       vertex -0.0204998 0.125 0
    endloop
  endfacet
  facet normal -0.946935 0.321425 0
    outer loop
       vertex -0.0349638 0.095671 0
       vertex -0.0454748 0.064705 0
       vertex -0.0454748 0.064705 0.1
    endloop
  endfacet
  facet normal -0.946935 0.321425 0
    outer loop
       vertex -0.0454748 0.064705 0.1
       vertex -0.0349638 0.095671 0.1
       vertex -0.0349638 0.095671 0
    endloop
  endfacet
  facet normal -0.980784 0.195096 0
    outer loop
       vertex -0.0454748 0.064705 0
       vertex -0.0518548 0.0326315 0
       vertex -0.0518548 0.0326315 0.1
    endloop
  endfacet
  facet normal -0.980784 0.195096 0
    outer loop
       vertex -0.0518548 0.0326315 0.1
       vertex -0.0454748 0.064705 0.1
       vertex -0.0454748 0.064705 0
    endloop
  endfacet
  facet normal -0.997858 0.0654098 0
    outer loop
       vertex -0.0539938 8.32665e-17 0.1
       vertex -0.0518548 0.0326315 0.1
       vertex -0.0518548 0.0326315 0
    endloop
  endfacet
  facet normal -0.997858 0.0654098 -1.08928e-16
    outer loop
       vertex -0.0518548 0.0326315 0
       vertex -0.0539938 -8.32665e-17 0
       vertex -0.0539938 8.32665e-17 0.1
    endloop
  endfacet
  facet normal -0.997858 -0.0654098 0
    outer loop
       vertex -0.0539938 -8.32665e-17 0
       vertex -0.0518548 -0.0326315 0
       vertex -0.0518548 -0.0326315 0.1
    endloop
  endfacet
  facet normal -0.997858 -0.0654098 1.08928e-16
    outer loop
       vertex -0.0518548 -0.0326315 0.1
       vertex -0.0539938 8.32665e-17 0.1
       vertex -0.0539938 -8.32665e-17 0
    endloop
  endfacet
  facet normal -0.980784 -0.195096 0
    outer loop
       vertex -0.0518548 -0.0326315 0
       vertex -0.0454748 -0.064705 0
       vertex -0.0454748 -0.064705 0.1
    endloop
  endfacet
  facet normal -0.980784 -0.195096 0
    outer loop
       vertex -0.0454748 -0.064705 0.1
       vertex -0.0518548 -0.0326315 0.1
       vertex -0.0518548 -0.0326315 0
    endloop
  endfacet
  facet normal -0.946935 -0.321425 0
    outer loop
       vertex -0.0454748 -0.064705 0
       vertex -0.0349638 -0.095671 0
       vertex -0.0349638 -0.095671 0.1
    endloop
  endfacet
  facet normal -0.946935 -0.321425 0
    outer loop
       vertex -0.0349638 -0.095671 0.1
       vertex -0.0454748 -0.064705 0.1
       vertex -0.0454748 -0.064705 0
    endloop
  endfacet
  facet normal -0.896866 -0.442302 0
    outer loop
       vertex -0.0349638 -0.095671 0
       vertex -0.0204998 -0.125 0
       vertex -0.0204998 -0.125 0.1
    endloop
  endfacet
  facet normal -0.896866 -0.442302 0
    outer loop
       vertex -0.0204998 -0.125 0.1
       vertex -0.0349638 -0.095671 0.1
       vertex -0.0349638 -0.095671 0
    endloop
  endfacet
  facet normal -0.831476 -0.555561 0
    outer loop
       vertex -0.0204998 -0.125 0
       vertex -0.00233181 -0.152191 0
       vertex -0.00233181 -0.152191 0.1
    endloop
  endfacet
  facet normal -0.831476 -0.555561 0
    outer loop
       vertex -0.00233181 -0.152191 0.1
       vertex -0.0204998 -0.125 0.1
       vertex -0.0204998 -0.125 0
    endloop
  endfacet
  facet normal -0.751817 -0.659372 0
    outer loop
       vertex -0.00233181 -0.152191 0
       vertex 0.0192302 -0.176776 0
       vertex 0.0192302 -0.176776 0.1
    endloop
  endfacet
  facet normal -0.751817 -0.659372 0
    outer loop
       vertex 0.0192302 -0.176776 0.1
       vertex -0.00233181 -0.152191 0.1
       vertex -0.00233181 -0.152191 0
    endloop
  endfacet
  facet normal 0.659372 -0.751817 0
    outer loop
       vertex 0.372782 -0.176776 0
       vertex 0.372782 -0.176776 0.1
       vertex 0.348197 -0.198338 0.1
    endloop
  endfacet
  facet normal 0.659372 -0.751817 0
    outer loop
       vertex 0.348197 -0.198338 0.1
       vertex 0.348197 -0.198338 0
       vertex 0.372782 -0.176776 0
    endloop
  endfacet
  facet normal 0.555561 -0.831476 0
    outer loop
       vertex 0.348197 -0.198338 0
       vertex 0.348197 -0.198338 0.1
       vertex 0.321006 -0.216506 0.1
    endloop
  endfacet
  facet normal 0.555561 -0.831476 0
    outer loop
       vertex 0.321006 -0.216506 0.1
       vertex 0.321006 -0.216506 0
       vertex 0.348197 -0.198338 0
    endloop
  endfacet
  facet normal 0.442302 -0.896866 0
    outer loop
       vertex 0.321006 -0.216506 0
       vertex 0.321006 -0.216506 0.1
       vertex 0.291677 -0.23097 0.1
    endloop
  endfacet
  facet normal 0.442302 -0.896866 0
    outer loop
       vertex 0.291677 -0.23097 0.1
       vertex 0.291677 -0.23097 0
       vertex 0.321006 -0.216506 0
    endloop
  endfacet
  facet normal 0.321425 -0.946935 0
    outer loop
       vertex 0.291677 -0.23097 0
       vertex 0.291677 -0.23097 0.1
       vertex 0.260711 -0.241481 0.1
    endloop
  endfacet
  facet normal 0.321425 -0.946935 0
    outer loop
       vertex 0.260711 -0.241481 0.1
       vertex 0.260711 -0.241481 0
       vertex 0.291677 -0.23097 0
    endloop
  endfacet
  facet normal 0.195096 -0.980784 0
    outer loop
       vertex 0.260711 -0.241481 0
       vertex 0.260711 -0.241481 0.1
       vertex 0.228638 -0.247861 0.1
    endloop
  endfacet
  facet normal 0.195096 -0.980784 0
    outer loop
       vertex 0.228638 -0.247861 0.1
       vertex 0.228638 -0.247861 0
       vertex 0.260711 -0.241481 0
    endloop
  endfacet
  facet normal 0.0654098 -0.997858 0
    outer loop
       vertex 0.196006 -0.25 0
       vertex 0.228638 -0.247861 0
       vertex 0.228638 -0.247861 0.1
    endloop
  endfacet
  facet normal 0.0654098 -0.997858 1.0893e-16
    outer loop
       vertex 0.228638 -0.247861 0.1
       vertex 0.196006 -0.25 0.1
       vertex 0.196006 -0.25 0
    endloop
  endfacet
  facet normal -0.0654098 -0.997858 0
    outer loop
       vertex 0.196006 -0.25 0.1
       vertex 0.163375 -0.247861 0.1
       vertex 0.163375 -0.247861 0
    endloop
  endfacet
  facet normal -0.0654098 -0.997858 -1.0893e-16
    outer loop
       vertex 0.163375 -0.247861 0
       vertex 0.196006 -0.25 0
       vertex 0.196006 -0.25 0.1
    endloop
  endfacet
  facet normal -0.195096 -0.980784 0
    outer loop
       vertex 0.163375 -0.247861 0
       vertex 0.163375 -0.247861 0.1
       vertex 0.131301 -0.241481 0.1
    endloop
  endfacet
  facet normal -0.195096 -0.980784 -0
    outer loop
       vertex 0.131301 -0.241481 0.1
       vertex 0.131301 -0.241481 0
       vertex 0.163375 -0.247861 0
    endloop
  endfacet
  facet normal -0.321425 -0.946935 0
    outer loop
       vertex 0.131301 -0.241481 0
       vertex 0.131301 -0.241481 0.1
       vertex 0.100335 -0.23097 0.1
    endloop
  endfacet
  facet normal -0.321425 -0.946935 -0
    outer loop
       vertex 0.100335 -0.23097 0.1
       vertex 0.100335 -0.23097 0
       vertex 0.131301 -0.241481 0
    endloop
  endfacet
  facet normal -0.442302 -0.896866 0
    outer loop
       vertex 0.100335 -0.23097 0
       vertex 0.100335 -0.23097 0.1
       vertex 0.0710062 -0.216506 0.1
    endloop
  endfacet
  facet normal -0.442302 -0.896866 -0
    outer loop
       vertex 0.0710062 -0.216506 0.1
       vertex 0.0710062 -0.216506 0
       vertex 0.100335 -0.23097 0
    endloop
  endfacet
  facet normal -0.555561 -0.831476 0
    outer loop
       vertex 0.0710062 -0.216506 0
       vertex 0.0710062 -0.216506 0.1
       vertex 0.0438152 -0.198338 0.1
    endloop
  endfacet
  facet normal -0.555561 -0.831476 -0
    outer loop
       vertex 0.0438152 -0.198338 0.1
       vertex 0.0438152 -0.198338 0
       vertex 0.0710062 -0.216506 0
    endloop
  endfacet
  facet normal -0.659372 -0.751817 0
    outer loop
       vertex 0.0438152 -0.198338 0
       vertex 0.0438152 -0.198338 0.1
       vertex 0.0192302 -0.176776 0.1
    endloop
  endfacet
  facet normal -0.659372 -0.751817 -0
    outer loop
       vertex 0.0192302 -0.176776 0.1
       vertex 0.0192302 -0.176776 0
       vertex 0.0438152 -0.198338 0
    endloop
  endfacet
endsolid cylinder
