solid cylinder
  facet normal 0.751817 -0.659372 0
    outer loop
       vertex 0.455646 -0.176776 0
       vertex 0.477208 -0.152191 0
       vertex 0.477208 -0.152191 0.1
    endloop
  endfacet
  facet normal 0.751817 -0.659372 0
    outer loop
       vertex 0.477208 -0.152191 0.1
       vertex 0.455646 -0.176776 0.1
       vertex 0.455646 -0.176776 0
    endloop
  endfacet
  facet normal 0.831476 -0.555561 0
    outer loop
       vertex 0.477208 -0.152191 0
       vertex 0.495376 -0.125 0
       vertex 0.495376 -0.125 0.1
    endloop
  endfacet
  facet normal 0.831476 -0.555561 0
    outer loop
       vertex 0.495376 -0.125 0.1
       vertex 0.477208 -0.152191 0.1
       vertex 0.477208 -0.152191 0
    endloop
  endfacet
  facet normal 0.896866 -0.442302 0
    outer loop
       vertex 0.495376 -0.125 0
       vertex 0.50984 -0.095671 0
       vertex 0.50984 -0.095671 0.1
    endloop
  endfacet
  facet normal 0.896866 -0.442302 0
    outer loop
       vertex 0.50984 -0.095671 0.1
       vertex 0.495376 -0.125 0.1
       vertex 0.495376 -0.125 0
    endloop
  endfacet
  facet normal 0.946935 -0.321425 0
    outer loop
       vertex 0.50984 -0.095671 0
       vertex 0.520351 -0.064705 0
       vertex 0.520351 -0.064705 0.1
    endloop
  endfacet
  facet normal 0.946935 -0.321425 0
    outer loop
       vertex 0.520351 -0.064705 0.1
       vertex 0.50984 -0.095671 0.1
       vertex 0.50984 -0.095671 0
    endloop
  endfacet
  facet normal 0.980784 -0.195096 0
    outer loop
       vertex 0.520351 -0.064705 0
       vertex 0.526731 -0.0326315 0
       vertex 0.526731 -0.0326315 0.1
    endloop
  endfacet
  facet normal 0.980784 -0.195096 0
    outer loop
       vertex 0.526731 -0.0326315 0.1
       vertex 0.520351 -0.064705 0.1
       vertex 0.520351 -0.064705 0
    endloop
  endfacet
  facet normal 0.997858 -0.0654098 0
    outer loop
       vertex 0.52887 -8.32665e-17 0.1
       vertex 0.526731 -0.0326315 0.1
       vertex 0.526731 -0.0326315 0
    endloop
  endfacet
  facet normal 0.997858 -0.0654098 -1.08928e-16
    outer loop
       vertex 0.526731 -0.0326315 0
       vertex 0.52887 8.32665e-17 0
       vertex 0.52887 -8.32665e-17 0.1
    endloop
  endfacet
  facet normal 0.997858 0.0654098 0
    outer loop
       vertex 0.52887 8.32665e-17 0
       vertex 0.526731 0.0326315 0
       vertex 0.526731 0.0326315 0.1
    endloop
  endfacet
  facet normal 0.997858 0.0654098 1.08928e-16
    outer loop
       vertex 0.526731 0.0326315 0.1
       vertex 0.52887 -8.32665e-17 0.1
       vertex 0.52887 8.32665e-17 0
    endloop
  endfacet
  facet normal 0.980784 0.195096 0
    outer loop
       vertex 0.526731 0.0326315 0
       vertex 0.520351 0.064705 0
       vertex 0.520351 0.064705 0.1
    endloop
  endfacet
  facet normal 0.980784 0.195096 0
    outer loop
       vertex 0.520351 0.064705 0.1
       vertex 0.526731 0.0326315 0.1
       vertex 0.526731 0.0326315 0
    endloop
  endfacet
  facet normal 0.946935 0.321425 0
    outer loop
       vertex 0.520351 0.064705 0
       vertex 0.50984 0.095671 0
       vertex 0.50984 0.095671 0.1
    endloop
  endfacet
  facet normal 0.946935 0.321425 0
    outer loop
       vertex 0.50984 0.095671 0.1
       vertex 0.520351 0.064705 0.1
       vertex 0.520351 0.064705 0
    endloop
  endfacet
  facet normal 0.896866 0.442302 0
    outer loop
       vertex 0.50984 0.095671 0
       vertex 0.495376 0.125 0
       vertex 0.495376 0.125 0.1
    endloop
  endfacet
  facet normal 0.896866 0.442302 0
    outer loop
       vertex 0.495376 0.125 0.1
       vertex 0.50984 0.095671 0.1
       vertex 0.50984 0.095671 0
    endloop
  endfacet
  facet normal 0.831476 0.555561 0
    outer loop
       vertex 0.495376 0.125 0
       vertex 0.477208 0.152191 0
       vertex 0.477208 0.152191 0.1
    endloop
  endfacet
  facet normal 0.831476 0.555561 0
    outer loop
       vertex 0.477208 0.152191 0.1
       vertex 0.495376 0.125 0.1
       vertex 0.495376 0.125 0
    endloop
  endfacet
  facet normal 0.751817 0.659372 0
    outer loop
       vertex 0.477208 0.152191 0
       vertex 0.455646 0.176776 0
       vertex 0.455646 0.176776 0.1
    endloop
  endfacet
  facet normal 0.751817 0.659372 0
    outer loop
       vertex 0.455646 0.176776 0.1
       vertex 0.477208 0.152191 0.1
       vertex 0.477208 0.152191 0
    endloop
  endfacet
  facet normal 0.659372 0.751817 0
    outer loop
       vertex 0.455646 0.176776 0
       vertex 0.431061 0.198338 0
       vertex 0.431061 0.198338 0.1
    endloop
  endfacet
  facet normal 0.659372 0.751817 0
    outer loop
       vertex 0.431061 0.198338 0.1
       vertex 0.455646 0.176776 0.1
       vertex 0.455646 0.176776 0
    endloop
  endfacet
  facet normal 0.555561 0.831476 0
    outer loop
       vertex 0.431061 0.198338 0
       vertex 0.40387 0.216506 0
       vertex 0.40387 0.216506 0.1
    endloop
  endfacet
  facet normal 0.555561 0.831476 0
    outer loop
       vertex 0.40387 0.216506 0.1
       vertex 0.431061 0.198338 0.1
       vertex 0.431061 0.198338 0
    endloop
  endfacet
  facet normal 0.442302 0.896866 0
    outer loop
       vertex 0.40387 0.216506 0
       vertex 0.374541 0.23097 0
       vertex 0.374541 0.23097 0.1
    endloop
  endfacet
  facet normal 0.442302 0.896866 0
    outer loop
       vertex 0.374541 0.23097 0.1
       vertex 0.40387 0.216506 0.1
       vertex 0.40387 0.216506 0
    endloop
  endfacet
  facet normal 0.321425 0.946935 0
    outer loop
       vertex 0.374541 0.23097 0
       vertex 0.343575 0.241481 0
       vertex 0.343575 0.241481 0.1
    endloop
  endfacet
  facet normal 0.321425 0.946935 0
    outer loop
       vertex 0.343575 0.241481 0.1
       vertex 0.374541 0.23097 0.1
       vertex 0.374541 0.23097 0
    endloop
  endfacet
  facet normal 0.195096 0.980784 0
    outer loop
       vertex 0.343575 0.241481 0
       vertex 0.311502 0.247861 0
       vertex 0.311502 0.247861 0.1
    endloop
  endfacet
  facet normal 0.195096 0.980784 0
    outer loop
       vertex 0.311502 0.247861 0.1
       vertex 0.343575 0.241481 0.1
       vertex 0.343575 0.241481 0
    endloop
  endfacet
  facet normal 0.0654098 0.997858 0
    outer loop
       vertex 0.27887 0.25 0.1
       vertex 0.311502 0.247861 0.1
       vertex 0.311502 0.247861 0
    endloop
  endfacet
  facet normal 0.0654098 0.997858 -1.45239e-16
    outer loop
       vertex 0.311502 0.247861 0
       vertex 0.27887 0.25 0
       vertex 0.27887 0.25 0.1
    endloop
  endfacet
  facet normal -0.0654098 0.997858 0
    outer loop
       vertex 0.27887 0.25 0
       vertex 0.246239 0.247861 0
       vertex 0.246239 0.247861 0.1
    endloop
  endfacet
  facet normal -0.0654098 0.997858 1.45239e-16
    outer loop
       vertex 0.246239 0.247861 0.1
       vertex 0.27887 0.25 0.1
       vertex 0.27887 0.25 0
    endloop
  endfacet
  facet normal -0.195096 0.980784 0
    outer loop
       vertex 0.246239 0.247861 0
       vertex 0.214165 0.241481 0
       vertex 0.214165 0.241481 0.1
    endloop
  endfacet
  facet normal -0.195096 0.980784 0
    outer loop
       vertex 0.214165 0.241481 0.1
       vertex 0.246239 0.247861 0.1
       vertex 0.246239 0.247861 0
    endloop
  endfacet
  facet normal -0.321425 0.946935 0
    outer loop
       vertex 0.214165 0.241481 0
       vertex 0.183199 0.23097 0
       vertex 0.183199 0.23097 0.1
    endloop
  endfacet
  facet normal -0.321425 0.946935 0
    outer loop
       vertex 0.183199 0.23097 0.1
       vertex 0.214165 0.241481 0.1
       vertex 0.214165 0.241481 0
    endloop
  endfacet
  facet normal -0.442302 0.896866 0
    outer loop
       vertex 0.183199 0.23097 0
       vertex 0.15387 0.216506 0
       vertex 0.15387 0.216506 0.1
    endloop
  endfacet
  facet normal -0.442302 0.896866 0
    outer loop
       vertex 0.15387 0.216506 0.1
       vertex 0.183199 0.23097 0.1
       vertex 0.183199 0.23097 0
    endloop
  endfacet
  facet normal -0.555561 0.831476 0
    outer loop
       vertex 0.15387 0.216506 0
       vertex 0.126679 0.198338 0
       vertex 0.126679 0.198338 0.1
    endloop
  endfacet
  facet normal -0.555561 0.831476 0
    outer loop
       vertex 0.126679 0.198338 0.1
       vertex 0.15387 0.216506 0.1
       vertex 0.15387 0.216506 0
    endloop
  endfacet
  facet normal -0.659372 0.751817 0
    outer loop
       vertex 0.126679 0.198338 0
       vertex 0.102094 0.176776 0
       vertex 0.102094 0.176776 0.1
    endloop
  endfacet
  facet normal -0.659372 0.751817 0
    outer loop
       vertex 0.102094 0.176776 0.1
       vertex 0.126679 0.198338 0.1
       vertex 0.126679 0.198338 0
    endloop
  endfacet
  facet normal -0.751817 0.659372 0
    outer loop
       vertex 0.102094 0.176776 0
       vertex 0.0805324 0.152191 0
       vertex 0.0805324 0.152191 0.1
    endloop
  endfacet
  facet normal -0.751817 0.659372 0
    outer loop
       vertex 0.0805324 0.152191 0.1
       vertex 0.102094 0.176776 0.1
       vertex 0.102094 0.176776 0
    endloop
  endfacet
  facet normal -0.831476 0.555561 0
    outer loop
       vertex 0.0805324 0.152191 0
       vertex 0.0623644 0.125 0
       vertex 0.0623644 0.125 0.1
    endloop
  endfacet
  facet normal -0.831476 0.555561 0
    outer loop
       vertex 0.0623644 0.125 0.1
       vertex 0.0805324 0.152191 0.1
       vertex 0.0805324 0.152191 0
    endloop
  endfacet
  facet normal -0.896866 0.442302 0
    outer loop
       vertex 0.0623644 0.125 0
       vertex 0.0479004 0.095671 0
       vertex 0.0479004 0.095671 0.1
    endloop
  endfacet
  facet normal -0.896866 0.442302 0
    outer loop
       vertex 0.0479004 0.095671 0.1
       vertex 0.0623644 0.125 0.1
       vertex 0.0623644 0.125 0
    endloop
  endfacet
  facet normal -0.946935 0.321425 0
    outer loop
       vertex 0.0479004 0.095671 0
       vertex 0.0373894 0.064705 0
       vertex 0.0373894 0.064705 0.1
    endloop
  endfacet
  facet normal -0.946935 0.321425 0
    outer loop
       vertex 0.0373894 0.064705 0.1
       vertex 0.0479004 0.095671 0.1
       vertex 0.0479004 0.095671 0
    endloop
  endfacet
  facet normal -0.980784 0.195096 0
    outer loop
       vertex 0.0373894 0.064705 0
       vertex 0.0310094 0.0326315 0
       vertex 0.0310094 0.0326315 0.1
    endloop
  endfacet
  facet normal -0.980784 0.195096 0
    outer loop
       vertex 0.0310094 0.0326315 0.1
       vertex 0.0373894 0.064705 0.1
       vertex 0.0373894 0.064705 0
    endloop
  endfacet
  facet normal -0.997858 0.0654098 0
    outer loop
       vertex 0.0288704 8.32665e-17 0.1
       vertex 0.0310094 0.0326315 0.1
       vertex 0.0310094 0.0326315 0
    endloop
  endfacet
  facet normal -0.997858 0.0654098 -1.08928e-16
    outer loop
       vertex 0.0310094 0.0326315 0
       vertex 0.0288704 -8.32665e-17 0
       vertex 0.0288704 8.32665e-17 0.1
    endloop
  endfacet
  facet normal -0.997858 -0.0654098 0
    outer loop
       vertex 0.0288704 -8.32665e-17 0
       vertex 0.0310094 -0.0326315 0
       vertex 0.0310094 -0.0326315 0.1
    endloop
  endfacet
  facet normal -0.997858 -0.0654098 1.08928e-16
    outer loop
       vertex 0.0310094 -0.0326315 0.1
       vertex 0.0288704 8.32665e-17 0.1
       vertex 0.0288704 -8.32665e-17 0
    endloop
  endfacet
  facet normal -0.980784 -0.195096 0
    outer loop
       vertex 0.0310094 -0.0326315 0
       vertex 0.0373894 -0.064705 0
       vertex 0.0373894 -0.064705 0.1
    endloop
  endfacet
  facet normal -0.980784 -0.195096 0
    outer loop
       vertex 0.0373894 -0.064705 0.1
       vertex 0.0310094 -0.0326315 0.1
       vertex 0.0310094 -0.0326315 0
    endloop
  endfacet
  facet normal -0.946935 -0.321425 0
    outer loop
       vertex 0.0373894 -0.064705 0
       vertex 0.0479004 -0.095671 0
       vertex 0.0479004 -0.095671 0.1
    endloop
  endfacet
  facet normal -0.946935 -0.321425 0
    outer loop
       vertex 0.0479004 -0.095671 0.1
       vertex 0.0373894 -0.064705 0.1
       vertex 0.0373894 -0.064705 0
    endloop
  endfacet
  facet normal -0.896866 -0.442302 0
    outer loop
       vertex 0.0479004 -0.095671 0
       vertex 0.0623644 -0.125 0
       vertex 0.0623644 -0.125 0.1
    endloop
  endfacet
  facet normal -0.896866 -0.442302 0
    outer loop
       vertex 0.0623644 -0.125 0.1
       vertex 0.0479004 -0.095671 0.1
       vertex 0.0479004 -0.095671 0
    endloop
  endfacet
  facet normal -0.831476 -0.555561 0
    outer loop
       vertex 0.0623644 -0.125 0
       vertex 0.0805324 -0.152191 0
       vertex 0.0805324 -0.152191 0.1
    endloop
  endfacet
  facet normal -0.831476 -0.555561 0
    outer loop
       vertex 0.0805324 -0.152191 0.1
       vertex 0.0623644 -0.125 0.1
       vertex 0.0623644 -0.125 0
    endloop
  endfacet
  facet normal -0.751817 -0.659372 0
    outer loop
       vertex 0.0805324 -0.152191 0
       vertex 0.102094 -0.176776 0
       vertex 0.102094 -0.176776 0.1
    endloop
  endfacet
  facet normal -0.751817 -0.659372 0
    outer loop
       vertex 0.102094 -0.176776 0.1
       vertex 0.0805324 -0.152191 0.1
       vertex 0.0805324 -0.152191 0
    endloop
  endfacet
  facet normal 0.659372 -0.751817 0
    outer loop
       vertex 0.455646 -0.176776 0
       vertex 0.455646 -0.176776 0.1
       vertex 0.431061 -0.198338 0.1
    endloop
  endfacet
  facet normal 0.659372 -0.751817 0
    outer loop
       vertex 0.431061 -0.198338 0.1
       vertex 0.431061 -0.198338 0
       vertex 0.455646 -0.176776 0
    endloop
  endfacet
  facet normal 0.555561 -0.831476 0
    outer loop
       vertex 0.431061 -0.198338 0
       vertex 0.431061 -0.198338 0.1
       vertex 0.40387 -0.216506 0.1
    endloop
  endfacet
  facet normal 0.555561 -0.831476 0
    outer loop
       vertex 0.40387 -0.216506 0.1
       vertex 0.40387 -0.216506 0
       vertex 0.431061 -0.198338 0
    endloop
  endfacet
  facet normal 0.442302 -0.896866 0
    outer loop
       vertex 0.40387 -0.216506 0
       vertex 0.40387 -0.216506 0.1
       vertex 0.374541 -0.23097 0.1
    endloop
  endfacet
  facet normal 0.442302 -0.896866 0
    outer loop
       vertex 0.374541 -0.23097 0.1
       vertex 0.374541 -0.23097 0
       vertex 0.40387 -0.216506 0
    endloop
  endfacet
  facet normal 0.321425 -0.946935 0
    outer loop
       vertex 0.374541 -0.23097 0
       vertex 0.374541 -0.23097 0.1
       vertex 0.343575 -0.241481 0.1
    endloop
  endfacet
  facet normal 0.321425 -0.946935 0
    outer loop
       vertex 0.343575 -0.241481 0.1
       vertex 0.343575 -0.241481 0
       vertex 0.374541 -0.23097 0
    endloop
  endfacet
  facet normal 0.195096 -0.980784 0
    outer loop
       vertex 0.343575 -0.241481 0
       vertex 0.343575 -0.241481 0.1
       vertex 0.311502 -0.247861 0.1
    endloop
  endfacet
  facet normal 0.195096 -0.980784 0
    outer loop
       vertex 0.311502 -0.247861 0.1
       vertex 0.311502 -0.247861 0
       vertex 0.343575 -0.241481 0
    endloop
  endfacet
  facet normal 0.0654098 -0.997858 0
    outer loop
       vertex 0.27887 -0.25 0
       vertex 0.311502 -0.247861 0
       vertex 0.311502 -0.247861 0.1
    endloop
  endfacet
  facet normal 0.0654098 -0.997858 1.45239e-16
    outer loop
       vertex 0.311502 -0.247861 0.1
       vertex 0.27887 -0.25 0.1
       vertex 0.27887 -0.25 0
    endloop
  endfacet
  facet normal -0.0654098 -0.997858 0
    outer loop
       vertex 0.27887 -0.25 0.1
       vertex 0.246239 -0.247861 0.1
       vertex 0.246239 -0.247861 0
    endloop
  endfacet
  facet normal -0.0654098 -0.997858 -1.45239e-16
    outer loop
       vertex 0.246239 -0.247861 0
       vertex 0.27887 -0.25 0
       vertex 0.27887 -0.25 0.1
    endloop
  endfacet
  facet normal -0.195096 -0.980784 0
    outer loop
       vertex 0.246239 -0.247861 0
       vertex 0.246239 -0.247861 0.1
       vertex 0.214165 -0.241481 0.1
    endloop
  endfacet
  facet normal -0.195096 -0.980784 -0
    outer loop
       vertex 0.214165 -0.241481 0.1
       vertex 0.214165 -0.241481 0
       vertex 0.246239 -0.247861 0
    endloop
  endfacet
  facet normal -0.321425 -0.946935 0
    outer loop
       vertex 0.214165 -0.241481 0
       vertex 0.214165 -0.241481 0.1
       vertex 0.183199 -0.23097 0.1
    endloop
  endfacet
  facet normal -0.321425 -0.946935 -0
    outer loop
       vertex 0.183199 -0.23097 0.1
       vertex 0.183199 -0.23097 0
       vertex 0.214165 -0.241481 0
    endloop
  endfacet
  facet normal -0.442302 -0.896866 0
    outer loop
       vertex 0.183199 -0.23097 0
       vertex 0.183199 -0.23097 0.1
       vertex 0.15387 -0.216506 0.1
    endloop
  endfacet
  facet normal -0.442302 -0.896866 -0
    outer loop
       vertex 0.15387 -0.216506 0.1
       vertex 0.15387 -0.216506 0
       vertex 0.183199 -0.23097 0
    endloop
  endfacet
  facet normal -0.555561 -0.831476 0
    outer loop
       vertex 0.15387 -0.216506 0
       vertex 0.15387 -0.216506 0.1
       vertex 0.126679 -0.198338 0.1
    endloop
  endfacet
  facet normal -0.555561 -0.831476 -0
    outer loop
       vertex 0.126679 -0.198338 0.1
       vertex 0.126679 -0.198338 0
       vertex 0.15387 -0.216506 0
    endloop
  endfacet
  facet normal -0.659372 -0.751817 0
    outer loop
       vertex 0.126679 -0.198338 0
       vertex 0.126679 -0.198338 0.1
       vertex 0.102094 -0.176776 0.1
    endloop
  endfacet
  facet normal -0.659372 -0.751817 -0
    outer loop
       vertex 0.102094 -0.176776 0.1
       vertex 0.102094 -0.176776 0
       vertex 0.126679 -0.198338 0
    endloop
  endfacet
endsolid cylinder
