solid cylinder
  facet normal 0.751817 -0.659372 0
    outer loop
       vertex 0.260042 -0.176776 0
       vertex 0.281604 -0.152191 0
       vertex 0.281604 -0.152191 0.1
    endloop
  endfacet
  facet normal 0.751817 -0.659372 0
    outer loop
       vertex 0.281604 -0.152191 0.1
       vertex 0.260042 -0.176776 0.1
       vertex 0.260042 -0.176776 0
    endloop
  endfacet
  facet normal 0.831476 -0.555561 0
    outer loop
       vertex 0.281604 -0.152191 0
       vertex 0.299772 -0.125 0
       vertex 0.299772 -0.125 0.1
    endloop
  endfacet
  facet normal 0.831476 -0.555561 0
    outer loop
       vertex 0.299772 -0.125 0.1
       vertex 0.281604 -0.152191 0.1
       vertex 0.281604 -0.152191 0
    endloop
  endfacet
  facet normal 0.896866 -0.442302 0
    outer loop
       vertex 0.299772 -0.125 0
       vertex 0.314236 -0.095671 0
       vertex 0.314236 -0.095671 0.1
    endloop
  endfacet
  facet normal 0.896866 -0.442302 0
    outer loop
       vertex 0.314236 -0.095671 0.1
       vertex 0.299772 -0.125 0.1
       vertex 0.299772 -0.125 0
    endloop
  endfacet
  facet normal 0.946935 -0.321425 0
    outer loop
       vertex 0.314236 -0.095671 0
       vertex 0.324747 -0.064705 0
       vertex 0.324747 -0.064705 0.1
    endloop
  endfacet
  facet normal 0.946935 -0.321425 0
    outer loop
       vertex 0.324747 -0.064705 0.1
       vertex 0.314236 -0.095671 0.1
       vertex 0.314236 -0.095671 0
    endloop
  endfacet
  facet normal 0.980784 -0.195096 0
    outer loop
       vertex 0.324747 -0.064705 0
       vertex 0.331127 -0.0326315 0
       vertex 0.331127 -0.0326315 0.1
    endloop
  endfacet
  facet normal 0.980784 -0.195096 0
    outer loop
       vertex 0.331127 -0.0326315 0.1
       vertex 0.324747 -0.064705 0.1
       vertex 0.324747 -0.064705 0
    endloop
  endfacet
  facet normal 0.997858 -0.0654098 0
    outer loop
       vertex 0.333266 -8.32665e-17 0.1
       vertex 0.331127 -0.0326315 0.1
       vertex 0.331127 -0.0326315 0
    endloop
  endfacet
  facet normal 0.997858 -0.0654098 -1.08928e-16
    outer loop
       vertex 0.331127 -0.0326315 0
       vertex 0.333266 8.32665e-17 0
       vertex 0.333266 -8.32665e-17 0.1
    endloop
  endfacet
  facet normal 0.997858 0.0654098 0
    outer loop
       vertex 0.333266 8.32665e-17 0
       vertex 0.331127 0.0326315 0
       vertex 0.331127 0.0326315 0.1
    endloop
  endfacet
  facet normal 0.997858 0.0654098 1.08928e-16
    outer loop
       vertex 0.331127 0.0326315 0.1
       vertex 0.333266 -8.32665e-17 0.1
       vertex 0.333266 8.32665e-17 0
    endloop
  endfacet
  facet normal 0.980784 0.195096 0
    outer loop
       vertex 0.331127 0.0326315 0
       vertex 0.324747 0.064705 0
       vertex 0.324747 0.064705 0.1
    endloop
  endfacet
  facet normal 0.980784 0.195096 0
    outer loop
       vertex 0.324747 0.064705 0.1
       vertex 0.331127 0.0326315 0.1
       vertex 0.331127 0.0326315 0
    endloop
  endfacet
  facet normal 0.946935 0.321425 0
    outer loop
       vertex 0.324747 0.064705 0
       vertex 0.314236 0.095671 0
       vertex 0.314236 0.095671 0.1
    endloop
  endfacet
  facet normal 0.946935 0.321425 0
    outer loop
       vertex 0.314236 0.095671 0.1
       vertex 0.324747 0.064705 0.1
       vertex 0.324747 0.064705 0
    endloop
  endfacet
  facet normal 0.896866 0.442302 0
    outer loop
       vertex 0.314236 0.095671 0
       vertex 0.299772 0.125 0
       vertex 0.299772 0.125 0.1
    endloop
  endfacet
  facet normal 0.896866 0.442302 0
    outer loop
       vertex 0.299772 0.125 0.1
       vertex 0.314236 0.095671 0.1
       vertex 0.314236 0.095671 0
    endloop
  endfacet
  facet normal 0.831476 0.555561 0
    outer loop
       vertex 0.299772 0.125 0
       vertex 0.281604 0.152191 0
       vertex 0.281604 0.152191 0.1
    endloop
  endfacet
  facet normal 0.831476 0.555561 0
    outer loop
       vertex 0.281604 0.152191 0.1
       vertex 0.299772 0.125 0.1
       vertex 0.299772 0.125 0
    endloop
  endfacet
  facet normal 0.751817 0.659372 0
    outer loop
       vertex 0.281604 0.152191 0
       vertex 0.260042 0.176776 0
       vertex 0.260042 0.176776 0.1
    endloop
  endfacet
  facet normal 0.751817 0.659372 0
    outer loop
       vertex 0.260042 0.176776 0.1
       vertex 0.281604 0.152191 0.1
       vertex 0.281604 0.152191 0
    endloop
  endfacet
  facet normal 0.659372 0.751817 0
    outer loop
       vertex 0.260042 0.176776 0
       vertex 0.235457 0.198338 0
       vertex 0.235457 0.198338 0.1
    endloop
  endfacet
  facet normal 0.659372 0.751817 0
    outer loop
       vertex 0.235457 0.198338 0.1
       vertex 0.260042 0.176776 0.1
       vertex 0.260042 0.176776 0
    endloop
  endfacet
  facet normal 0.555561 0.831476 0
    outer loop
       vertex 0.235457 0.198338 0
       vertex 0.208266 0.216506 0
       vertex 0.208266 0.216506 0.1
    endloop
  endfacet
  facet normal 0.555561 0.831476 0
    outer loop
       vertex 0.208266 0.216506 0.1
       vertex 0.235457 0.198338 0.1
       vertex 0.235457 0.198338 0
    endloop
  endfacet
  facet normal 0.442302 0.896866 0
    outer loop
       vertex 0.208266 0.216506 0
       vertex 0.178937 0.23097 0
       vertex 0.178937 0.23097 0.1
    endloop
  endfacet
  facet normal 0.442302 0.896866 0
    outer loop
       vertex 0.178937 0.23097 0.1
       vertex 0.208266 0.216506 0.1
       vertex 0.208266 0.216506 0
    endloop
  endfacet
  facet normal 0.321425 0.946935 0
    outer loop
       vertex 0.178937 0.23097 0
       vertex 0.147971 0.241481 0
       vertex 0.147971 0.241481 0.1
    endloop
  endfacet
  facet normal 0.321425 0.946935 0
    outer loop
       vertex 0.147971 0.241481 0.1
       vertex 0.178937 0.23097 0.1
       vertex 0.178937 0.23097 0
    endloop
  endfacet
  facet normal 0.195096 0.980784 0
    outer loop
       vertex 0.147971 0.241481 0
       vertex 0.115897 0.247861 0
       vertex 0.115897 0.247861 0.1
    endloop
  endfacet
  facet normal 0.195096 0.980784 0
    outer loop
       vertex 0.115897 0.247861 0.1
       vertex 0.147971 0.241481 0.1
       vertex 0.147971 0.241481 0
    endloop
  endfacet
  facet normal 0.0654098 0.997858 0
    outer loop
       vertex 0.0832656 0.25 0.1
       vertex 0.115897 0.247861 0.1
       vertex 0.115897 0.247861 0
    endloop
  endfacet
  facet normal 0.0654098 0.997858 -1.08928e-16
    outer loop
       vertex 0.115897 0.247861 0
       vertex 0.0832656 0.25 0
       vertex 0.0832656 0.25 0.1
    endloop
  endfacet
  facet normal -0.0654098 0.997858 0
    outer loop
       vertex 0.0832656 0.25 0
       vertex 0.0506341 0.247861 0
       vertex 0.0506341 0.247861 0.1
    endloop
  endfacet
  facet normal -0.0654098 0.997858 1.08928e-16
    outer loop
       vertex 0.0506341 0.247861 0.1
       vertex 0.0832656 0.25 0.1
       vertex 0.0832656 0.25 0
    endloop
  endfacet
  facet normal -0.195096 0.980784 0
    outer loop
       vertex 0.0506341 0.247861 0
       vertex 0.0185606 0.241481 0
       vertex 0.0185606 0.241481 0.1
    endloop
  endfacet
  facet normal -0.195096 0.980784 0
    outer loop
       vertex 0.0185606 0.241481 0.1
       vertex 0.0506341 0.247861 0.1
       vertex 0.0506341 0.247861 0
    endloop
  endfacet
  facet normal -0.321425 0.946935 0
    outer loop
       vertex 0.0185606 0.241481 0
       vertex -0.0124054 0.23097 0
       vertex -0.0124054 0.23097 0.1
    endloop
  endfacet
  facet normal -0.321425 0.946935 0
    outer loop
       vertex -0.0124054 0.23097 0.1
       vertex 0.0185606 0.241481 0.1
       vertex 0.0185606 0.241481 0
    endloop
  endfacet
  facet normal -0.442302 0.896866 0
    outer loop
       vertex -0.0124054 0.23097 0
       vertex -0.0417344 0.216506 0
       vertex -0.0417344 0.216506 0.1
    endloop
  endfacet
  facet normal -0.442302 0.896866 0
    outer loop
       vertex -0.0417344 0.216506 0.1
       vertex -0.0124054 0.23097 0.1
       vertex -0.0124054 0.23097 0
    endloop
  endfacet
  facet normal -0.555561 0.831476 0
    outer loop
       vertex -0.0417344 0.216506 0
       vertex -0.0689254 0.198338 0
       vertex -0.0689254 0.198338 0.1
    endloop
  endfacet
  facet normal -0.555561 0.831476 0
    outer loop
       vertex -0.0689254 0.198338 0.1
       vertex -0.0417344 0.216506 0.1
       vertex -0.0417344 0.216506 0
    endloop
  endfacet
  facet normal -0.659372 0.751817 0
    outer loop
       vertex -0.0689254 0.198338 0
       vertex -0.0935104 0.176776 0
       vertex -0.0935104 0.176776 0.1
    endloop
  endfacet
  facet normal -0.659372 0.751817 0
    outer loop
       vertex -0.0935104 0.176776 0.1
       vertex -0.0689254 0.198338 0.1
       vertex -0.0689254 0.198338 0
    endloop
  endfacet
  facet normal -0.751817 0.659372 0
    outer loop
       vertex -0.0935104 0.176776 0
       vertex -0.115072 0.152191 0
       vertex -0.115072 0.152191 0.1
    endloop
  endfacet
  facet normal -0.751817 0.659372 0
    outer loop
       vertex -0.115072 0.152191 0.1
       vertex -0.0935104 0.176776 0.1
       vertex -0.0935104 0.176776 0
    endloop
  endfacet
  facet normal -0.831476 0.555561 0
    outer loop
       vertex -0.115072 0.152191 0
       vertex -0.13324 0.125 0
       vertex -0.13324 0.125 0.1
    endloop
  endfacet
  facet normal -0.831476 0.555561 0
    outer loop
       vertex -0.13324 0.125 0.1
       vertex -0.115072 0.152191 0.1
       vertex -0.115072 0.152191 0
    endloop
  endfacet
  facet normal -0.896866 0.442302 0
    outer loop
       vertex -0.13324 0.125 0
       vertex -0.147704 0.095671 0
       vertex -0.147704 0.095671 0.1
    endloop
  endfacet
  facet normal -0.896866 0.442302 0
    outer loop
       vertex -0.147704 0.095671 0.1
       vertex -0.13324 0.125 0.1
       vertex -0.13324 0.125 0
    endloop
  endfacet
  facet normal -0.946935 0.321425 0
    outer loop
       vertex -0.147704 0.095671 0
       vertex -0.158215 0.064705 0
       vertex -0.158215 0.064705 0.1
    endloop
  endfacet
  facet normal -0.946935 0.321425 0
    outer loop
       vertex -0.158215 0.064705 0.1
       vertex -0.147704 0.095671 0.1
       vertex -0.147704 0.095671 0
    endloop
  endfacet
  facet normal -0.980784 0.195096 0
    outer loop
       vertex -0.158215 0.064705 0
       vertex -0.164595 0.0326315 0
       vertex -0.164595 0.0326315 0.1
    endloop
  endfacet
  facet normal -0.980784 0.195096 0
    outer loop
       vertex -0.164595 0.0326315 0.1
       vertex -0.158215 0.064705 0.1
       vertex -0.158215 0.064705 0
    endloop
  endfacet
  facet normal -0.997858 0.0654098 0
    outer loop
       vertex -0.166734 8.32665e-17 0.1
       vertex -0.164595 0.0326315 0.1
       vertex -0.164595 0.0326315 0
    endloop
  endfacet
  facet normal -0.997858 0.0654098 -1.08928e-16
    outer loop
       vertex -0.164595 0.0326315 0
       vertex -0.166734 -8.32665e-17 0
       vertex -0.166734 8.32665e-17 0.1
    endloop
  endfacet
  facet normal -0.997858 -0.0654098 0
    outer loop
       vertex -0.166734 -8.32665e-17 0
       vertex -0.164595 -0.0326315 0
       vertex -0.164595 -0.0326315 0.1
    endloop
  endfacet
  facet normal -0.997858 -0.0654098 1.08928e-16
    outer loop
       vertex -0.164595 -0.0326315 0.1
       vertex -0.166734 8.32665e-17 0.1
       vertex -0.166734 -8.32665e-17 0
    endloop
  endfacet
  facet normal -0.980784 -0.195096 0
    outer loop
       vertex -0.164595 -0.0326315 0
       vertex -0.158215 -0.064705 0
       vertex -0.158215 -0.064705 0.1
    endloop
  endfacet
  facet normal -0.980784 -0.195096 0
    outer loop
       vertex -0.158215 -0.064705 0.1
       vertex -0.164595 -0.0326315 0.1
       vertex -0.164595 -0.0326315 0
    endloop
  endfacet
  facet normal -0.946935 -0.321425 0
    outer loop
       vertex -0.158215 -0.064705 0
       vertex -0.147704 -0.095671 0
       vertex -0.147704 -0.095671 0.1
    endloop
  endfacet
  facet normal -0.946935 -0.321425 0
    outer loop
       vertex -0.147704 -0.095671 0.1
       vertex -0.158215 -0.064705 0.1
       vertex -0.158215 -0.064705 0
    endloop
  endfacet
  facet normal -0.896866 -0.442302 0
    outer loop
       vertex -0.147704 -0.095671 0
       vertex -0.13324 -0.125 0
       vertex -0.13324 -0.125 0.1
    endloop
  endfacet
  facet normal -0.896866 -0.442302 0
    outer loop
       vertex -0.13324 -0.125 0.1
       vertex -0.147704 -0.095671 0.1
       vertex -0.147704 -0.095671 0
    endloop
  endfacet
  facet normal -0.831476 -0.555561 0
    outer loop
       vertex -0.13324 -0.125 0
       vertex -0.115072 -0.152191 0
       vertex -0.115072 -0.152191 0.1
    endloop
  endfacet
  facet normal -0.831476 -0.555561 0
    outer loop
       vertex -0.115072 -0.152191 0.1
       vertex -0.13324 -0.125 0.1
       vertex -0.13324 -0.125 0
    endloop
  endfacet
  facet normal -0.751817 -0.659372 0
    outer loop
       vertex -0.115072 -0.152191 0
       vertex -0.0935104 -0.176776 0
       vertex -0.0935104 -0.176776 0.1
    endloop
  endfacet
  facet normal -0.751817 -0.659372 0
    outer loop
       vertex -0.0935104 -0.176776 0.1
       vertex -0.115072 -0.152191 0.1
       vertex -0.115072 -0.152191 0
    endloop
  endfacet
  facet normal 0.659372 -0.751817 0
    outer loop
       vertex 0.260042 -0.176776 0
       vertex 0.260042 -0.176776 0.1
       vertex 0.235457 -0.198338 0.1
    endloop
  endfacet
  facet normal 0.659372 -0.751817 0
    outer loop
       vertex 0.235457 -0.198338 0.1
       vertex 0.235457 -0.198338 0
       vertex 0.260042 -0.176776 0
    endloop
  endfacet
  facet normal 0.555561 -0.831476 0
    outer loop
       vertex 0.235457 -0.198338 0
       vertex 0.235457 -0.198338 0.1
       vertex 0.208266 -0.216506 0.1
    endloop
  endfacet
  facet normal 0.555561 -0.831476 0
    outer loop
       vertex 0.208266 -0.216506 0.1
       vertex 0.208266 -0.216506 0
       vertex 0.235457 -0.198338 0
    endloop
  endfacet
  facet normal 0.442302 -0.896866 0
    outer loop
       vertex 0.208266 -0.216506 0
       vertex 0.208266 -0.216506 0.1
       vertex 0.178937 -0.23097 0.1
    endloop
  endfacet
  facet normal 0.442302 -0.896866 0
    outer loop
       vertex 0.178937 -0.23097 0.1
       vertex 0.178937 -0.23097 0
       vertex 0.208266 -0.216506 0
    endloop
  endfacet
  facet normal 0.321425 -0.946935 0
    outer loop
       vertex 0.178937 -0.23097 0
       vertex 0.178937 -0.23097 0.1
       vertex 0.147971 -0.241481 0.1
    endloop
  endfacet
  facet normal 0.321425 -0.946935 0
    outer loop
       vertex 0.147971 -0.241481 0.1
       vertex 0.147971 -0.241481 0
       vertex 0.178937 -0.23097 0
    endloop
  endfacet
  facet normal 0.195096 -0.980784 0
    outer loop
       vertex 0.147971 -0.241481 0
       vertex 0.147971 -0.241481 0.1
       vertex 0.115897 -0.247861 0.1
    endloop
  endfacet
  facet normal 0.195096 -0.980784 0
    outer loop
       vertex 0.115897 -0.247861 0.1
       vertex 0.115897 -0.247861 0
       vertex 0.147971 -0.241481 0
    endloop
  endfacet
  facet normal 0.0654098 -0.997858 0
    outer loop
       vertex 0.0832656 -0.25 0
       vertex 0.115897 -0.247861 0
       vertex 0.115897 -0.247861 0.1
    endloop
  endfacet
  facet normal 0.0654098 -0.997858 1.08928e-16
    outer loop
       vertex 0.115897 -0.247861 0.1
       vertex 0.0832656 -0.25 0.1
       vertex 0.0832656 -0.25 0
    endloop
  endfacet
  facet normal -0.0654098 -0.997858 0
    outer loop
       vertex 0.0832656 -0.25 0.1
       vertex 0.0506341 -0.247861 0.1
       vertex 0.0506341 -0.247861 0
    endloop
  endfacet
  facet normal -0.0654098 -0.997858 -1.08928e-16
    outer loop
       vertex 0.0506341 -0.247861 0
       vertex 0.0832656 -0.25 0
       vertex 0.0832656 -0.25 0.1
    endloop
  endfacet
  facet normal -0.195096 -0.980784 0
    outer loop
       vertex 0.0506341 -0.247861 0
       vertex 0.0506341 -0.247861 0.1
       vertex 0.0185606 -0.241481 0.1
    endloop
  endfacet
  facet normal -0.195096 -0.980784 -0
    outer loop
       vertex 0.0185606 -0.241481 0.1
       vertex 0.0185606 -0.241481 0
       vertex 0.0506341 -0.247861 0
    endloop
  endfacet
  facet normal -0.321425 -0.946935 0
    outer loop
       vertex 0.0185606 -0.241481 0
       vertex 0.0185606 -0.241481 0.1
       vertex -0.0124054 -0.23097 0.1
    endloop
  endfacet
  facet normal -0.321425 -0.946935 -0
    outer loop
       vertex -0.0124054 -0.23097 0.1
       vertex -0.0124054 -0.23097 0
       vertex 0.0185606 -0.241481 0
    endloop
  endfacet
  facet normal -0.442302 -0.896866 0
    outer loop
       vertex -0.0124054 -0.23097 0
       vertex -0.0124054 -0.23097 0.1
       vertex -0.0417344 -0.216506 0.1
    endloop
  endfacet
  facet normal -0.442302 -0.896866 -0
    outer loop
       vertex -0.0417344 -0.216506 0.1
       vertex -0.0417344 -0.216506 0
       vertex -0.0124054 -0.23097 0
    endloop
  endfacet
  facet normal -0.555561 -0.831476 0
    outer loop
       vertex -0.0417344 -0.216506 0
       vertex -0.0417344 -0.216506 0.1
       vertex -0.0689254 -0.198338 0.1
    endloop
  endfacet
  facet normal -0.555561 -0.831476 -0
    outer loop
       vertex -0.0689254 -0.198338 0.1
       vertex -0.0689254 -0.198338 0
       vertex -0.0417344 -0.216506 0
    endloop
  endfacet
  facet normal -0.659372 -0.751817 0
    outer loop
       vertex -0.0689254 -0.198338 0
       vertex -0.0689254 -0.198338 0.1
       vertex -0.0935104 -0.176776 0.1
    endloop
  endfacet
  facet normal -0.659372 -0.751817 -0
    outer loop
       vertex -0.0935104 -0.176776 0.1
       vertex -0.0935104 -0.176776 0
       vertex -0.0689254 -0.198338 0
    endloop
  endfacet
endsolid cylinder
