solid cylinder
  facet normal 0.751817 -0.659372 0
    outer loop
       vertex 0.340342 -0.176776 0
       vertex 0.361904 -0.152191 0
       vertex 0.361904 -0.152191 0.1
    endloop
  endfacet
  facet normal 0.751817 -0.659372 0
    outer loop
       vertex 0.361904 -0.152191 0.1
       vertex 0.340342 -0.176776 0.1
       vertex 0.340342 -0.176776 0
    endloop
  endfacet
  facet normal 0.831476 -0.555561 0
    outer loop
       vertex 0.361904 -0.152191 0
       vertex 0.380072 -0.125 0
       vertex 0.380072 -0.125 0.1
    endloop
  endfacet
  facet normal 0.831476 -0.555561 0
    outer loop
       vertex 0.380072 -0.125 0.1
       vertex 0.361904 -0.152191 0.1
       vertex 0.361904 -0.152191 0
    endloop
  endfacet
  facet normal 0.896866 -0.442302 0
    outer loop
       vertex 0.380072 -0.125 0
       vertex 0.394536 -0.095671 0
       vertex 0.394536 -0.095671 0.1
    endloop
  endfacet
  facet normal 0.896866 -0.442302 0
    outer loop
       vertex 0.394536 -0.095671 0.1
       vertex 0.380072 -0.125 0.1
       vertex 0.380072 -0.125 0
    endloop
  endfacet
  facet normal 0.946935 -0.321425 0
    outer loop
       vertex 0.394536 -0.095671 0
       vertex 0.405047 -0.064705 0
       vertex 0.405047 -0.064705 0.1
    endloop
  endfacet
  facet normal 0.946935 -0.321425 0
    outer loop
       vertex 0.405047 -0.064705 0.1
       vertex 0.394536 -0.095671 0.1
       vertex 0.394536 -0.095671 0
    endloop
  endfacet
  facet normal 0.980784 -0.195096 0
    outer loop
       vertex 0.405047 -0.064705 0
       vertex 0.411427 -0.0326315 0
       vertex 0.411427 -0.0326315 0.1
    endloop
  endfacet
  facet normal 0.980784 -0.195096 0
    outer loop
       vertex 0.411427 -0.0326315 0.1
       vertex 0.405047 -0.064705 0.1
       vertex 0.405047 -0.064705 0
    endloop
  endfacet
  facet normal 0.997858 -0.0654098 0
    outer loop
       vertex 0.413566 -8.32665e-17 0.1
       vertex 0.411427 -0.0326315 0.1
       vertex 0.411427 -0.0326315 0
    endloop
  endfacet
  facet normal 0.997858 -0.0654098 -1.08928e-16
    outer loop
       vertex 0.411427 -0.0326315 0
       vertex 0.413566 8.32665e-17 0
       vertex 0.413566 -8.32665e-17 0.1
    endloop
  endfacet
  facet normal 0.997858 0.0654098 0
    outer loop
       vertex 0.413566 8.32665e-17 0
       vertex 0.411427 0.0326315 0
       vertex 0.411427 0.0326315 0.1
    endloop
  endfacet
  facet normal 0.997858 0.0654098 1.08928e-16
    outer loop
       vertex 0.411427 0.0326315 0.1
       vertex 0.413566 -8.32665e-17 0.1
       vertex 0.413566 8.32665e-17 0
    endloop
  endfacet
  facet normal 0.980784 0.195096 0
    outer loop
       vertex 0.411427 0.0326315 0
       vertex 0.405047 0.064705 0
       vertex 0.405047 0.064705 0.1
    endloop
  endfacet
  facet normal 0.980784 0.195096 0
    outer loop
       vertex 0.405047 0.064705 0.1
       vertex 0.411427 0.0326315 0.1
       vertex 0.411427 0.0326315 0
    endloop
  endfacet
  facet normal 0.946935 0.321425 0
    outer loop
       vertex 0.405047 0.064705 0
       vertex 0.394536 0.095671 0
       vertex 0.394536 0.095671 0.1
    endloop
  endfacet
  facet normal 0.946935 0.321425 0
    outer loop
       vertex 0.394536 0.095671 0.1
       vertex 0.405047 0.064705 0.1
       vertex 0.405047 0.064705 0
    endloop
  endfacet
  facet normal 0.896866 0.442302 0
    outer loop
       vertex 0.394536 0.095671 0
       vertex 0.380072 0.125 0
       vertex 0.380072 0.125 0.1
    endloop
  endfacet
  facet normal 0.896866 0.442302 0
    outer loop
       vertex 0.380072 0.125 0.1
       vertex 0.394536 0.095671 0.1
       vertex 0.394536 0.095671 0
    endloop
  endfacet
  facet normal 0.831476 0.555561 0
    outer loop
       vertex 0.380072 0.125 0
       vertex 0.361904 0.152191 0
       vertex 0.361904 0.152191 0.1
    endloop
  endfacet
  facet normal 0.831476 0.555561 0
    outer loop
       vertex 0.361904 0.152191 0.1
       vertex 0.380072 0.125 0.1
       vertex 0.380072 0.125 0
    endloop
  endfacet
  facet normal 0.751817 0.659372 0
    outer loop
       vertex 0.361904 0.152191 0
       vertex 0.340342 0.176776 0
       vertex 0.340342 0.176776 0.1
    endloop
  endfacet
  facet normal 0.751817 0.659372 0
    outer loop
       vertex 0.340342 0.176776 0.1
       vertex 0.361904 0.152191 0.1
       vertex 0.361904 0.152191 0
    endloop
  endfacet
  facet normal 0.659372 0.751817 0
    outer loop
       vertex 0.340342 0.176776 0
       vertex 0.315757 0.198338 0
       vertex 0.315757 0.198338 0.1
    endloop
  endfacet
  facet normal 0.659372 0.751817 0
    outer loop
       vertex 0.315757 0.198338 0.1
       vertex 0.340342 0.176776 0.1
       vertex 0.340342 0.176776 0
    endloop
  endfacet
  facet normal 0.555561 0.831476 0
    outer loop
       vertex 0.315757 0.198338 0
       vertex 0.288566 0.216506 0
       vertex 0.288566 0.216506 0.1
    endloop
  endfacet
  facet normal 0.555561 0.831476 0
    outer loop
       vertex 0.288566 0.216506 0.1
       vertex 0.315757 0.198338 0.1
       vertex 0.315757 0.198338 0
    endloop
  endfacet
  facet normal 0.442302 0.896866 0
    outer loop
       vertex 0.288566 0.216506 0
       vertex 0.259237 0.23097 0
       vertex 0.259237 0.23097 0.1
    endloop
  endfacet
  facet normal 0.442302 0.896866 0
    outer loop
       vertex 0.259237 0.23097 0.1
       vertex 0.288566 0.216506 0.1
       vertex 0.288566 0.216506 0
    endloop
  endfacet
  facet normal 0.321425 0.946935 0
    outer loop
       vertex 0.259237 0.23097 0
       vertex 0.228271 0.241481 0
       vertex 0.228271 0.241481 0.1
    endloop
  endfacet
  facet normal 0.321425 0.946935 0
    outer loop
       vertex 0.228271 0.241481 0.1
       vertex 0.259237 0.23097 0.1
       vertex 0.259237 0.23097 0
    endloop
  endfacet
  facet normal 0.195096 0.980784 0
    outer loop
       vertex 0.228271 0.241481 0
       vertex 0.196198 0.247861 0
       vertex 0.196198 0.247861 0.1
    endloop
  endfacet
  facet normal 0.195096 0.980784 0
    outer loop
       vertex 0.196198 0.247861 0.1
       vertex 0.228271 0.241481 0.1
       vertex 0.228271 0.241481 0
    endloop
  endfacet
  facet normal 0.0654098 0.997858 0
    outer loop
       vertex 0.163566 0.25 0.1
       vertex 0.196198 0.247861 0.1
       vertex 0.196198 0.247861 0
    endloop
  endfacet
  facet normal 0.0654098 0.997858 -1.0893e-16
    outer loop
       vertex 0.196198 0.247861 0
       vertex 0.163566 0.25 0
       vertex 0.163566 0.25 0.1
    endloop
  endfacet
  facet normal -0.0654098 0.997858 0
    outer loop
       vertex 0.163566 0.25 0
       vertex 0.130935 0.247861 0
       vertex 0.130935 0.247861 0.1
    endloop
  endfacet
  facet normal -0.0654098 0.997858 1.0893e-16
    outer loop
       vertex 0.130935 0.247861 0.1
       vertex 0.163566 0.25 0.1
       vertex 0.163566 0.25 0
    endloop
  endfacet
  facet normal -0.195096 0.980784 0
    outer loop
       vertex 0.130935 0.247861 0
       vertex 0.0988615 0.241481 0
       vertex 0.0988615 0.241481 0.1
    endloop
  endfacet
  facet normal -0.195096 0.980784 0
    outer loop
       vertex 0.0988615 0.241481 0.1
       vertex 0.130935 0.247861 0.1
       vertex 0.130935 0.247861 0
    endloop
  endfacet
  facet normal -0.321425 0.946935 0
    outer loop
       vertex 0.0988615 0.241481 0
       vertex 0.0678955 0.23097 0
       vertex 0.0678955 0.23097 0.1
    endloop
  endfacet
  facet normal -0.321425 0.946935 0
    outer loop
       vertex 0.0678955 0.23097 0.1
       vertex 0.0988615 0.241481 0.1
       vertex 0.0988615 0.241481 0
    endloop
  endfacet
  facet normal -0.442302 0.896866 0
    outer loop
       vertex 0.0678955 0.23097 0
       vertex 0.0385665 0.216506 0
       vertex 0.0385665 0.216506 0.1
    endloop
  endfacet
  facet normal -0.442302 0.896866 0
    outer loop
       vertex 0.0385665 0.216506 0.1
       vertex 0.0678955 0.23097 0.1
       vertex 0.0678955 0.23097 0
    endloop
  endfacet
  facet normal -0.555561 0.831476 0
    outer loop
       vertex 0.0385665 0.216506 0
       vertex 0.0113755 0.198338 0
       vertex 0.0113755 0.198338 0.1
    endloop
  endfacet
  facet normal -0.555561 0.831476 0
    outer loop
       vertex 0.0113755 0.198338 0.1
       vertex 0.0385665 0.216506 0.1
       vertex 0.0385665 0.216506 0
    endloop
  endfacet
  facet normal -0.659372 0.751817 0
    outer loop
       vertex 0.0113755 0.198338 0
       vertex -0.0132095 0.176776 0
       vertex -0.0132095 0.176776 0.1
    endloop
  endfacet
  facet normal -0.659372 0.751817 0
    outer loop
       vertex -0.0132095 0.176776 0.1
       vertex 0.0113755 0.198338 0.1
       vertex 0.0113755 0.198338 0
    endloop
  endfacet
  facet normal -0.751817 0.659372 0
    outer loop
       vertex -0.0132095 0.176776 0
       vertex -0.0347715 0.152191 0
       vertex -0.0347715 0.152191 0.1
    endloop
  endfacet
  facet normal -0.751817 0.659372 0
    outer loop
       vertex -0.0347715 0.152191 0.1
       vertex -0.0132095 0.176776 0.1
       vertex -0.0132095 0.176776 0
    endloop
  endfacet
  facet normal -0.831476 0.555561 0
    outer loop
       vertex -0.0347715 0.152191 0
       vertex -0.0529395 0.125 0
       vertex -0.0529395 0.125 0.1
    endloop
  endfacet
  facet normal -0.831476 0.555561 0
    outer loop
       vertex -0.0529395 0.125 0.1
       vertex -0.0347715 0.152191 0.1
       vertex -0.0347715 0.152191 0
    endloop
  endfacet
  facet normal -0.896866 0.442302 0
    outer loop
       vertex -0.0529395 0.125 0
       vertex -0.0674035 0.095671 0
       vertex -0.0674035 0.095671 0.1
    endloop
  endfacet
  facet normal -0.896866 0.442302 0
    outer loop
       vertex -0.0674035 0.095671 0.1
       vertex -0.0529395 0.125 0.1
       vertex -0.0529395 0.125 0
    endloop
  endfacet
  facet normal -0.946935 0.321425 0
    outer loop
       vertex -0.0674035 0.095671 0
       vertex -0.0779145 0.064705 0
       vertex -0.0779145 0.064705 0.1
    endloop
  endfacet
  facet normal -0.946935 0.321425 0
    outer loop
       vertex -0.0779145 0.064705 0.1
       vertex -0.0674035 0.095671 0.1
       vertex -0.0674035 0.095671 0
    endloop
  endfacet
  facet normal -0.980784 0.195096 0
    outer loop
       vertex -0.0779145 0.064705 0
       vertex -0.0842945 0.0326315 0
       vertex -0.0842945 0.0326315 0.1
    endloop
  endfacet
  facet normal -0.980784 0.195096 0
    outer loop
       vertex -0.0842945 0.0326315 0.1
       vertex -0.0779145 0.064705 0.1
       vertex -0.0779145 0.064705 0
    endloop
  endfacet
  facet normal -0.997858 0.0654098 0
    outer loop
       vertex -0.0864335 8.32665e-17 0.1
       vertex -0.0842945 0.0326315 0.1
       vertex -0.0842945 0.0326315 0
    endloop
  endfacet
  facet normal -0.997858 0.0654098 -1.08928e-16
    outer loop
       vertex -0.0842945 0.0326315 0
       vertex -0.0864335 -8.32665e-17 0
       vertex -0.0864335 8.32665e-17 0.1
    endloop
  endfacet
  facet normal -0.997858 -0.0654098 0
    outer loop
       vertex -0.0864335 -8.32665e-17 0
       vertex -0.0842945 -0.0326315 0
       vertex -0.0842945 -0.0326315 0.1
    endloop
  endfacet
  facet normal -0.997858 -0.0654098 1.08928e-16
    outer loop
       vertex -0.0842945 -0.0326315 0.1
       vertex -0.0864335 8.32665e-17 0.1
       vertex -0.0864335 -8.32665e-17 0
    endloop
  endfacet
  facet normal -0.980784 -0.195096 0
    outer loop
       vertex -0.0842945 -0.0326315 0
       vertex -0.0779145 -0.064705 0
       vertex -0.0779145 -0.064705 0.1
    endloop
  endfacet
  facet normal -0.980784 -0.195096 0
    outer loop
       vertex -0.0779145 -0.064705 0.1
       vertex -0.0842945 -0.0326315 0.1
       vertex -0.0842945 -0.0326315 0
    endloop
  endfacet
  facet normal -0.946935 -0.321425 0
    outer loop
       vertex -0.0779145 -0.064705 0
       vertex -0.0674035 -0.095671 0
       vertex -0.0674035 -0.095671 0.1
    endloop
  endfacet
  facet normal -0.946935 -0.321425 0
    outer loop
       vertex -0.0674035 -0.095671 0.1
       vertex -0.0779145 -0.064705 0.1
       vertex -0.0779145 -0.064705 0
    endloop
  endfacet
  facet normal -0.896866 -0.442302 0
    outer loop
       vertex -0.0674035 -0.095671 0
       vertex -0.0529395 -0.125 0
       vertex -0.0529395 -0.125 0.1
    endloop
  endfacet
  facet normal -0.896866 -0.442302 0
    outer loop
       vertex -0.0529395 -0.125 0.1
       vertex -0.0674035 -0.095671 0.1
       vertex -0.0674035 -0.095671 0
    endloop
  endfacet
  facet normal -0.831476 -0.555561 0
    outer loop
       vertex -0.0529395 -0.125 0
       vertex -0.0347715 -0.152191 0
       vertex -0.0347715 -0.152191 0.1
    endloop
  endfacet
  facet normal -0.831476 -0.555561 0
    outer loop
       vertex -0.0347715 -0.152191 0.1
       vertex -0.0529395 -0.125 0.1
       vertex -0.0529395 -0.125 0
    endloop
  endfacet
  facet normal -0.751817 -0.659372 0
    outer loop
       vertex -0.0347715 -0.152191 0
       vertex -0.0132095 -0.176776 0
       vertex -0.0132095 -0.176776 0.1
    endloop
  endfacet
  facet normal -0.751817 -0.659372 0
    outer loop
       vertex -0.0132095 -0.176776 0.1
       vertex -0.0347715 -0.152191 0.1
       vertex -0.0347715 -0.152191 0
    endloop
  endfacet
  facet normal 0.659372 -0.751817 0
    outer loop
       vertex 0.340342 -0.176776 0
       vertex 0.340342 -0.176776 0.1
       vertex 0.315757 -0.198338 0.1
    endloop
  endfacet
  facet normal 0.659372 -0.751817 0
    outer loop
       vertex 0.315757 -0.198338 0.1
       vertex 0.315757 -0.198338 0
       vertex 0.340342 -0.176776 0
    endloop
  endfacet
  facet normal 0.555561 -0.831476 0
    outer loop
       vertex 0.315757 -0.198338 0
       vertex 0.315757 -0.198338 0.1
       vertex 0.288566 -0.216506 0.1
    endloop
  endfacet
  facet normal 0.555561 -0.831476 0
    outer loop
       vertex 0.288566 -0.216506 0.1
       vertex 0.288566 -0.216506 0
       vertex 0.315757 -0.198338 0
    endloop
  endfacet
  facet normal 0.442302 -0.896866 0
    outer loop
       vertex 0.288566 -0.216506 0
       vertex 0.288566 -0.216506 0.1
       vertex 0.259237 -0.23097 0.1
    endloop
  endfacet
  facet normal 0.442302 -0.896866 0
    outer loop
       vertex 0.259237 -0.23097 0.1
       vertex 0.259237 -0.23097 0
       vertex 0.288566 -0.216506 0
    endloop
  endfacet
  facet normal 0.321425 -0.946935 0
    outer loop
       vertex 0.259237 -0.23097 0
       vertex 0.259237 -0.23097 0.1
       vertex 0.228271 -0.241481 0.1
    endloop
  endfacet
  facet normal 0.321425 -0.946935 0
    outer loop
       vertex 0.228271 -0.241481 0.1
       vertex 0.228271 -0.241481 0
       vertex 0.259237 -0.23097 0
    endloop
  endfacet
  facet normal 0.195096 -0.980784 0
    outer loop
       vertex 0.228271 -0.241481 0
       vertex 0.228271 -0.241481 0.1
       vertex 0.196198 -0.247861 0.1
    endloop
  endfacet
  facet normal 0.195096 -0.980784 0
    outer loop
       vertex 0.196198 -0.247861 0.1
       vertex 0.196198 -0.247861 0
       vertex 0.228271 -0.241481 0
    endloop
  endfacet
  facet normal 0.0654098 -0.997858 0
    outer loop
       vertex 0.163566 -0.25 0
       vertex 0.196198 -0.247861 0
       vertex 0.196198 -0.247861 0.1
    endloop
  endfacet
  facet normal 0.0654098 -0.997858 1.0893e-16
    outer loop
       vertex 0.196198 -0.247861 0.1
       vertex 0.163566 -0.25 0.1
       vertex 0.163566 -0.25 0
    endloop
  endfacet
  facet normal -0.0654098 -0.997858 0
    outer loop
       vertex 0.163566 -0.25 0.1
       vertex 0.130935 -0.247861 0.1
       vertex 0.130935 -0.247861 0
    endloop
  endfacet
  facet normal -0.0654098 -0.997858 -1.0893e-16
    outer loop
       vertex 0.130935 -0.247861 0
       vertex 0.163566 -0.25 0
       vertex 0.163566 -0.25 0.1
    endloop
  endfacet
  facet normal -0.195096 -0.980784 0
    outer loop
       vertex 0.130935 -0.247861 0
       vertex 0.130935 -0.247861 0.1
       vertex 0.0988615 -0.241481 0.1
    endloop
  endfacet
  facet normal -0.195096 -0.980784 -0
    outer loop
       vertex 0.0988615 -0.241481 0.1
       vertex 0.0988615 -0.241481 0
       vertex 0.130935 -0.247861 0
    endloop
  endfacet
  facet normal -0.321425 -0.946935 0
    outer loop
       vertex 0.0988615 -0.241481 0
       vertex 0.0988615 -0.241481 0.1
       vertex 0.0678955 -0.23097 0.1
    endloop
  endfacet
  facet normal -0.321425 -0.946935 -0
    outer loop
       vertex 0.0678955 -0.23097 0.1
       vertex 0.0678955 -0.23097 0
       vertex 0.0988615 -0.241481 0
    endloop
  endfacet
  facet normal -0.442302 -0.896866 0
    outer loop
       vertex 0.0678955 -0.23097 0
       vertex 0.0678955 -0.23097 0.1
       vertex 0.0385665 -0.216506 0.1
    endloop
  endfacet
  facet normal -0.442302 -0.896866 -0
    outer loop
       vertex 0.0385665 -0.216506 0.1
       vertex 0.0385665 -0.216506 0
       vertex 0.0678955 -0.23097 0
    endloop
  endfacet
  facet normal -0.555561 -0.831476 0
    outer loop
       vertex 0.0385665 -0.216506 0
       vertex 0.0385665 -0.216506 0.1
       vertex 0.0113755 -0.198338 0.1
    endloop
  endfacet
  facet normal -0.555561 -0.831476 -0
    outer loop
       vertex 0.0113755 -0.198338 0.1
       vertex 0.0113755 -0.198338 0
       vertex 0.0385665 -0.216506 0
    endloop
  endfacet
  facet normal -0.659372 -0.751817 0
    outer loop
       vertex 0.0113755 -0.198338 0
       vertex 0.0113755 -0.198338 0.1
       vertex -0.0132095 -0.176776 0.1
    endloop
  endfacet
  facet normal -0.659372 -0.751817 -0
    outer loop
       vertex -0.0132095 -0.176776 0.1
       vertex -0.0132095 -0.176776 0
       vertex 0.0113755 -0.198338 0
    endloop
  endfacet
endsolid cylinder
