solid cylinder
  facet normal 0.751817 -0.659372 0
    outer loop
       vertex 0.461416 -0.176776 0
       vertex 0.482978 -0.152191 0
       vertex 0.482978 -0.152191 0.1
    endloop
  endfacet
  facet normal 0.751817 -0.659372 0
    outer loop
       vertex 0.482978 -0.152191 0.1
       vertex 0.461416 -0.176776 0.1
       vertex 0.461416 -0.176776 0
    endloop
  endfacet
  facet normal 0.831476 -0.555561 0
    outer loop
       vertex 0.482978 -0.152191 0
       vertex 0.501146 -0.125 0
       vertex 0.501146 -0.125 0.1
    endloop
  endfacet
  facet normal 0.831476 -0.555561 0
    outer loop
       vertex 0.501146 -0.125 0.1
       vertex 0.482978 -0.152191 0.1
       vertex 0.482978 -0.152191 0
    endloop
  endfacet
  facet normal 0.896866 -0.442302 0
    outer loop
       vertex 0.501146 -0.125 0
       vertex 0.51561 -0.095671 0
       vertex 0.51561 -0.095671 0.1
    endloop
  endfacet
  facet normal 0.896866 -0.442302 0
    outer loop
       vertex 0.51561 -0.095671 0.1
       vertex 0.501146 -0.125 0.1
       vertex 0.501146 -0.125 0
    endloop
  endfacet
  facet normal 0.946935 -0.321425 0
    outer loop
       vertex 0.51561 -0.095671 0
       vertex 0.526121 -0.064705 0
       vertex 0.526121 -0.064705 0.1
    endloop
  endfacet
  facet normal 0.946935 -0.321425 0
    outer loop
       vertex 0.526121 -0.064705 0.1
       vertex 0.51561 -0.095671 0.1
       vertex 0.51561 -0.095671 0
    endloop
  endfacet
  facet normal 0.980784 -0.195096 0
    outer loop
       vertex 0.526121 -0.064705 0
       vertex 0.532501 -0.0326315 0
       vertex 0.532501 -0.0326315 0.1
    endloop
  endfacet
  facet normal 0.980784 -0.195096 0
    outer loop
       vertex 0.532501 -0.0326315 0.1
       vertex 0.526121 -0.064705 0.1
       vertex 0.526121 -0.064705 0
    endloop
  endfacet
  facet normal 0.997858 -0.0654098 0
    outer loop
       vertex 0.53464 -8.32665e-17 0.1
       vertex 0.532501 -0.0326315 0.1
       vertex 0.532501 -0.0326315 0
    endloop
  endfacet
  facet normal 0.997858 -0.0654098 -1.08928e-16
    outer loop
       vertex 0.532501 -0.0326315 0
       vertex 0.53464 8.32665e-17 0
       vertex 0.53464 -8.32665e-17 0.1
    endloop
  endfacet
  facet normal 0.997858 0.0654098 0
    outer loop
       vertex 0.53464 8.32665e-17 0
       vertex 0.532501 0.0326315 0
       vertex 0.532501 0.0326315 0.1
    endloop
  endfacet
  facet normal 0.997858 0.0654098 1.08928e-16
    outer loop
       vertex 0.532501 0.0326315 0.1
       vertex 0.53464 -8.32665e-17 0.1
       vertex 0.53464 8.32665e-17 0
    endloop
  endfacet
  facet normal 0.980784 0.195096 0
    outer loop
       vertex 0.532501 0.0326315 0
       vertex 0.526121 0.064705 0
       vertex 0.526121 0.064705 0.1
    endloop
  endfacet
  facet normal 0.980784 0.195096 0
    outer loop
       vertex 0.526121 0.064705 0.1
       vertex 0.532501 0.0326315 0.1
       vertex 0.532501 0.0326315 0
    endloop
  endfacet
  facet normal 0.946935 0.321425 0
    outer loop
       vertex 0.526121 0.064705 0
       vertex 0.51561 0.095671 0
       vertex 0.51561 0.095671 0.1
    endloop
  endfacet
  facet normal 0.946935 0.321425 0
    outer loop
       vertex 0.51561 0.095671 0.1
       vertex 0.526121 0.064705 0.1
       vertex 0.526121 0.064705 0
    endloop
  endfacet
  facet normal 0.896866 0.442302 0
    outer loop
       vertex 0.51561 0.095671 0
       vertex 0.501146 0.125 0
       vertex 0.501146 0.125 0.1
    endloop
  endfacet
  facet normal 0.896866 0.442302 0
    outer loop
       vertex 0.501146 0.125 0.1
       vertex 0.51561 0.095671 0.1
       vertex 0.51561 0.095671 0
    endloop
  endfacet
  facet normal 0.831476 0.555561 0
    outer loop
       vertex 0.501146 0.125 0
       vertex 0.482978 0.152191 0
       vertex 0.482978 0.152191 0.1
    endloop
  endfacet
  facet normal 0.831476 0.555561 0
    outer loop
       vertex 0.482978 0.152191 0.1
       vertex 0.501146 0.125 0.1
       vertex 0.501146 0.125 0
    endloop
  endfacet
  facet normal 0.751817 0.659372 0
    outer loop
       vertex 0.482978 0.152191 0
       vertex 0.461416 0.176776 0
       vertex 0.461416 0.176776 0.1
    endloop
  endfacet
  facet normal 0.751817 0.659372 0
    outer loop
       vertex 0.461416 0.176776 0.1
       vertex 0.482978 0.152191 0.1
       vertex 0.482978 0.152191 0
    endloop
  endfacet
  facet normal 0.659372 0.751817 0
    outer loop
       vertex 0.461416 0.176776 0
       vertex 0.436831 0.198338 0
       vertex 0.436831 0.198338 0.1
    endloop
  endfacet
  facet normal 0.659372 0.751817 0
    outer loop
       vertex 0.436831 0.198338 0.1
       vertex 0.461416 0.176776 0.1
       vertex 0.461416 0.176776 0
    endloop
  endfacet
  facet normal 0.555561 0.831476 0
    outer loop
       vertex 0.436831 0.198338 0
       vertex 0.40964 0.216506 0
       vertex 0.40964 0.216506 0.1
    endloop
  endfacet
  facet normal 0.555561 0.831476 0
    outer loop
       vertex 0.40964 0.216506 0.1
       vertex 0.436831 0.198338 0.1
       vertex 0.436831 0.198338 0
    endloop
  endfacet
  facet normal 0.442302 0.896866 0
    outer loop
       vertex 0.40964 0.216506 0
       vertex 0.380311 0.23097 0
       vertex 0.380311 0.23097 0.1
    endloop
  endfacet
  facet normal 0.442302 0.896866 0
    outer loop
       vertex 0.380311 0.23097 0.1
       vertex 0.40964 0.216506 0.1
       vertex 0.40964 0.216506 0
    endloop
  endfacet
  facet normal 0.321425 0.946935 0
    outer loop
       vertex 0.380311 0.23097 0
       vertex 0.349345 0.241481 0
       vertex 0.349345 0.241481 0.1
    endloop
  endfacet
  facet normal 0.321425 0.946935 0
    outer loop
       vertex 0.349345 0.241481 0.1
       vertex 0.380311 0.23097 0.1
       vertex 0.380311 0.23097 0
    endloop
  endfacet
  facet normal 0.195096 0.980784 0
    outer loop
       vertex 0.349345 0.241481 0
       vertex 0.317272 0.247861 0
       vertex 0.317272 0.247861 0.1
    endloop
  endfacet
  facet normal 0.195096 0.980784 0
    outer loop
       vertex 0.317272 0.247861 0.1
       vertex 0.349345 0.241481 0.1
       vertex 0.349345 0.241481 0
    endloop
  endfacet
  facet normal 0.0654098 0.997858 0
    outer loop
       vertex 0.28464 0.25 0.1
       vertex 0.317272 0.247861 0.1
       vertex 0.317272 0.247861 0
    endloop
  endfacet
  facet normal 0.0654098 0.997858 -1.45239e-16
    outer loop
       vertex 0.317272 0.247861 0
       vertex 0.28464 0.25 0
       vertex 0.28464 0.25 0.1
    endloop
  endfacet
  facet normal -0.0654098 0.997858 0
    outer loop
       vertex 0.28464 0.25 0
       vertex 0.252009 0.247861 0
       vertex 0.252009 0.247861 0.1
    endloop
  endfacet
  facet normal -0.0654098 0.997858 1.45239e-16
    outer loop
       vertex 0.252009 0.247861 0.1
       vertex 0.28464 0.25 0.1
       vertex 0.28464 0.25 0
    endloop
  endfacet
  facet normal -0.195096 0.980784 0
    outer loop
       vertex 0.252009 0.247861 0
       vertex 0.219935 0.241481 0
       vertex 0.219935 0.241481 0.1
    endloop
  endfacet
  facet normal -0.195096 0.980784 0
    outer loop
       vertex 0.219935 0.241481 0.1
       vertex 0.252009 0.247861 0.1
       vertex 0.252009 0.247861 0
    endloop
  endfacet
  facet normal -0.321425 0.946935 0
    outer loop
       vertex 0.219935 0.241481 0
       vertex 0.188969 0.23097 0
       vertex 0.188969 0.23097 0.1
    endloop
  endfacet
  facet normal -0.321425 0.946935 0
    outer loop
       vertex 0.188969 0.23097 0.1
       vertex 0.219935 0.241481 0.1
       vertex 0.219935 0.241481 0
    endloop
  endfacet
  facet normal -0.442302 0.896866 0
    outer loop
       vertex 0.188969 0.23097 0
       vertex 0.15964 0.216506 0
       vertex 0.15964 0.216506 0.1
    endloop
  endfacet
  facet normal -0.442302 0.896866 0
    outer loop
       vertex 0.15964 0.216506 0.1
       vertex 0.188969 0.23097 0.1
       vertex 0.188969 0.23097 0
    endloop
  endfacet
  facet normal -0.555561 0.831476 0
    outer loop
       vertex 0.15964 0.216506 0
       vertex 0.132449 0.198338 0
       vertex 0.132449 0.198338 0.1
    endloop
  endfacet
  facet normal -0.555561 0.831476 0
    outer loop
       vertex 0.132449 0.198338 0.1
       vertex 0.15964 0.216506 0.1
       vertex 0.15964 0.216506 0
    endloop
  endfacet
  facet normal -0.659372 0.751817 0
    outer loop
       vertex 0.132449 0.198338 0
       vertex 0.107864 0.176776 0
       vertex 0.107864 0.176776 0.1
    endloop
  endfacet
  facet normal -0.659372 0.751817 0
    outer loop
       vertex 0.107864 0.176776 0.1
       vertex 0.132449 0.198338 0.1
       vertex 0.132449 0.198338 0
    endloop
  endfacet
  facet normal -0.751817 0.659372 0
    outer loop
       vertex 0.107864 0.176776 0
       vertex 0.086302 0.152191 0
       vertex 0.086302 0.152191 0.1
    endloop
  endfacet
  facet normal -0.751817 0.659372 0
    outer loop
       vertex 0.086302 0.152191 0.1
       vertex 0.107864 0.176776 0.1
       vertex 0.107864 0.176776 0
    endloop
  endfacet
  facet normal -0.831476 0.555561 0
    outer loop
       vertex 0.086302 0.152191 0
       vertex 0.068134 0.125 0
       vertex 0.068134 0.125 0.1
    endloop
  endfacet
  facet normal -0.831476 0.555561 0
    outer loop
       vertex 0.068134 0.125 0.1
       vertex 0.086302 0.152191 0.1
       vertex 0.086302 0.152191 0
    endloop
  endfacet
  facet normal -0.896866 0.442302 0
    outer loop
       vertex 0.068134 0.125 0
       vertex 0.05367 0.095671 0
       vertex 0.05367 0.095671 0.1
    endloop
  endfacet
  facet normal -0.896866 0.442302 0
    outer loop
       vertex 0.05367 0.095671 0.1
       vertex 0.068134 0.125 0.1
       vertex 0.068134 0.125 0
    endloop
  endfacet
  facet normal -0.946935 0.321425 0
    outer loop
       vertex 0.05367 0.095671 0
       vertex 0.043159 0.064705 0
       vertex 0.043159 0.064705 0.1
    endloop
  endfacet
  facet normal -0.946935 0.321425 0
    outer loop
       vertex 0.043159 0.064705 0.1
       vertex 0.05367 0.095671 0.1
       vertex 0.05367 0.095671 0
    endloop
  endfacet
  facet normal -0.980784 0.195096 0
    outer loop
       vertex 0.043159 0.064705 0
       vertex 0.036779 0.0326315 0
       vertex 0.036779 0.0326315 0.1
    endloop
  endfacet
  facet normal -0.980784 0.195096 0
    outer loop
       vertex 0.036779 0.0326315 0.1
       vertex 0.043159 0.064705 0.1
       vertex 0.043159 0.064705 0
    endloop
  endfacet
  facet normal -0.997858 0.0654098 0
    outer loop
       vertex 0.03464 8.32665e-17 0.1
       vertex 0.036779 0.0326315 0.1
       vertex 0.036779 0.0326315 0
    endloop
  endfacet
  facet normal -0.997858 0.0654098 -1.08928e-16
    outer loop
       vertex 0.036779 0.0326315 0
       vertex 0.03464 -8.32665e-17 0
       vertex 0.03464 8.32665e-17 0.1
    endloop
  endfacet
  facet normal -0.997858 -0.0654098 0
    outer loop
       vertex 0.03464 -8.32665e-17 0
       vertex 0.036779 -0.0326315 0
       vertex 0.036779 -0.0326315 0.1
    endloop
  endfacet
  facet normal -0.997858 -0.0654098 1.08928e-16
    outer loop
       vertex 0.036779 -0.0326315 0.1
       vertex 0.03464 8.32665e-17 0.1
       vertex 0.03464 -8.32665e-17 0
    endloop
  endfacet
  facet normal -0.980784 -0.195096 0
    outer loop
       vertex 0.036779 -0.0326315 0
       vertex 0.043159 -0.064705 0
       vertex 0.043159 -0.064705 0.1
    endloop
  endfacet
  facet normal -0.980784 -0.195096 0
    outer loop
       vertex 0.043159 -0.064705 0.1
       vertex 0.036779 -0.0326315 0.1
       vertex 0.036779 -0.0326315 0
    endloop
  endfacet
  facet normal -0.946935 -0.321425 0
    outer loop
       vertex 0.043159 -0.064705 0
       vertex 0.05367 -0.095671 0
       vertex 0.05367 -0.095671 0.1
    endloop
  endfacet
  facet normal -0.946935 -0.321425 0
    outer loop
       vertex 0.05367 -0.095671 0.1
       vertex 0.043159 -0.064705 0.1
       vertex 0.043159 -0.064705 0
    endloop
  endfacet
  facet normal -0.896866 -0.442302 0
    outer loop
       vertex 0.05367 -0.095671 0
       vertex 0.068134 -0.125 0
       vertex 0.068134 -0.125 0.1
    endloop
  endfacet
  facet normal -0.896866 -0.442302 0
    outer loop
       vertex 0.068134 -0.125 0.1
       vertex 0.05367 -0.095671 0.1
       vertex 0.05367 -0.095671 0
    endloop
  endfacet
  facet normal -0.831476 -0.555561 0
    outer loop
       vertex 0.068134 -0.125 0
       vertex 0.086302 -0.152191 0
       vertex 0.086302 -0.152191 0.1
    endloop
  endfacet
  facet normal -0.831476 -0.555561 0
    outer loop
       vertex 0.086302 -0.152191 0.1
       vertex 0.068134 -0.125 0.1
       vertex 0.068134 -0.125 0
    endloop
  endfacet
  facet normal -0.751817 -0.659372 0
    outer loop
       vertex 0.086302 -0.152191 0
       vertex 0.107864 -0.176776 0
       vertex 0.107864 -0.176776 0.1
    endloop
  endfacet
  facet normal -0.751817 -0.659372 0
    outer loop
       vertex 0.107864 -0.176776 0.1
       vertex 0.086302 -0.152191 0.1
       vertex 0.086302 -0.152191 0
    endloop
  endfacet
  facet normal 0.659372 -0.751817 0
    outer loop
       vertex 0.461416 -0.176776 0
       vertex 0.461416 -0.176776 0.1
       vertex 0.436831 -0.198338 0.1
    endloop
  endfacet
  facet normal 0.659372 -0.751817 0
    outer loop
       vertex 0.436831 -0.198338 0.1
       vertex 0.436831 -0.198338 0
       vertex 0.461416 -0.176776 0
    endloop
  endfacet
  facet normal 0.555561 -0.831476 0
    outer loop
       vertex 0.436831 -0.198338 0
       vertex 0.436831 -0.198338 0.1
       vertex 0.40964 -0.216506 0.1
    endloop
  endfacet
  facet normal 0.555561 -0.831476 0
    outer loop
       vertex 0.40964 -0.216506 0.1
       vertex 0.40964 -0.216506 0
       vertex 0.436831 -0.198338 0
    endloop
  endfacet
  facet normal 0.442302 -0.896866 0
    outer loop
       vertex 0.40964 -0.216506 0
       vertex 0.40964 -0.216506 0.1
       vertex 0.380311 -0.23097 0.1
    endloop
  endfacet
  facet normal 0.442302 -0.896866 0
    outer loop
       vertex 0.380311 -0.23097 0.1
       vertex 0.380311 -0.23097 0
       vertex 0.40964 -0.216506 0
    endloop
  endfacet
  facet normal 0.321425 -0.946935 0
    outer loop
       vertex 0.380311 -0.23097 0
       vertex 0.380311 -0.23097 0.1
       vertex 0.349345 -0.241481 0.1
    endloop
  endfacet
  facet normal 0.321425 -0.946935 0
    outer loop
       vertex 0.349345 -0.241481 0.1
       vertex 0.349345 -0.241481 0
       vertex 0.380311 -0.23097 0
    endloop
  endfacet
  facet normal 0.195096 -0.980784 0
    outer loop
       vertex 0.349345 -0.241481 0
       vertex 0.349345 -0.241481 0.1
       vertex 0.317272 -0.247861 0.1
    endloop
  endfacet
  facet normal 0.195096 -0.980784 0
    outer loop
       vertex 0.317272 -0.247861 0.1
       vertex 0.317272 -0.247861 0
       vertex 0.349345 -0.241481 0
    endloop
  endfacet
  facet normal 0.0654098 -0.997858 0
    outer loop
       vertex 0.28464 -0.25 0
       vertex 0.317272 -0.247861 0
       vertex 0.317272 -0.247861 0.1
    endloop
  endfacet
  facet normal 0.0654098 -0.997858 1.45239e-16
    outer loop
       vertex 0.317272 -0.247861 0.1
       vertex 0.28464 -0.25 0.1
       vertex 0.28464 -0.25 0
    endloop
  endfacet
  facet normal -0.0654098 -0.997858 0
    outer loop
       vertex 0.28464 -0.25 0.1
       vertex 0.252009 -0.247861 0.1
       vertex 0.252009 -0.247861 0
    endloop
  endfacet
  facet normal -0.0654098 -0.997858 -1.45239e-16
    outer loop
       vertex 0.252009 -0.247861 0
       vertex 0.28464 -0.25 0
       vertex 0.28464 -0.25 0.1
    endloop
  endfacet
  facet normal -0.195096 -0.980784 0
    outer loop
       vertex 0.252009 -0.247861 0
       vertex 0.252009 -0.247861 0.1
       vertex 0.219935 -0.241481 0.1
    endloop
  endfacet
  facet normal -0.195096 -0.980784 -0
    outer loop
       vertex 0.219935 -0.241481 0.1
       vertex 0.219935 -0.241481 0
       vertex 0.252009 -0.247861 0
    endloop
  endfacet
  facet normal -0.321425 -0.946935 0
    outer loop
       vertex 0.219935 -0.241481 0
       vertex 0.219935 -0.241481 0.1
       vertex 0.188969 -0.23097 0.1
    endloop
  endfacet
  facet normal -0.321425 -0.946935 -0
    outer loop
       vertex 0.188969 -0.23097 0.1
       vertex 0.188969 -0.23097 0
       vertex 0.219935 -0.241481 0
    endloop
  endfacet
  facet normal -0.442302 -0.896866 0
    outer loop
       vertex 0.188969 -0.23097 0
       vertex 0.188969 -0.23097 0.1
       vertex 0.15964 -0.216506 0.1
    endloop
  endfacet
  facet normal -0.442302 -0.896866 -0
    outer loop
       vertex 0.15964 -0.216506 0.1
       vertex 0.15964 -0.216506 0
       vertex 0.188969 -0.23097 0
    endloop
  endfacet
  facet normal -0.555561 -0.831476 0
    outer loop
       vertex 0.15964 -0.216506 0
       vertex 0.15964 -0.216506 0.1
       vertex 0.132449 -0.198338 0.1
    endloop
  endfacet
  facet normal -0.555561 -0.831476 -0
    outer loop
       vertex 0.132449 -0.198338 0.1
       vertex 0.132449 -0.198338 0
       vertex 0.15964 -0.216506 0
    endloop
  endfacet
  facet normal -0.659372 -0.751817 0
    outer loop
       vertex 0.132449 -0.198338 0
       vertex 0.132449 -0.198338 0.1
       vertex 0.107864 -0.176776 0.1
    endloop
  endfacet
  facet normal -0.659372 -0.751817 -0
    outer loop
       vertex 0.107864 -0.176776 0.1
       vertex 0.107864 -0.176776 0
       vertex 0.132449 -0.198338 0
    endloop
  endfacet
endsolid cylinder
