solid cylinder
  facet normal 0.751817 -0.659372 0
    outer loop
       vertex 0.387082 -0.176776 0
       vertex 0.408644 -0.152191 0
       vertex 0.408644 -0.152191 0.1
    endloop
  endfacet
  facet normal 0.751817 -0.659372 0
    outer loop
       vertex 0.408644 -0.152191 0.1
       vertex 0.387082 -0.176776 0.1
       vertex 0.387082 -0.176776 0
    endloop
  endfacet
  facet normal 0.831476 -0.555561 0
    outer loop
       vertex 0.408644 -0.152191 0
       vertex 0.426812 -0.125 0
       vertex 0.426812 -0.125 0.1
    endloop
  endfacet
  facet normal 0.831476 -0.555561 0
    outer loop
       vertex 0.426812 -0.125 0.1
       vertex 0.408644 -0.152191 0.1
       vertex 0.408644 -0.152191 0
    endloop
  endfacet
  facet normal 0.896866 -0.442302 0
    outer loop
       vertex 0.426812 -0.125 0
       vertex 0.441276 -0.095671 0
       vertex 0.441276 -0.095671 0.1
    endloop
  endfacet
  facet normal 0.896866 -0.442302 0
    outer loop
       vertex 0.441276 -0.095671 0.1
       vertex 0.426812 -0.125 0.1
       vertex 0.426812 -0.125 0
    endloop
  endfacet
  facet normal 0.946935 -0.321425 0
    outer loop
       vertex 0.441276 -0.095671 0
       vertex 0.451787 -0.064705 0
       vertex 0.451787 -0.064705 0.1
    endloop
  endfacet
  facet normal 0.946935 -0.321425 0
    outer loop
       vertex 0.451787 -0.064705 0.1
       vertex 0.441276 -0.095671 0.1
       vertex 0.441276 -0.095671 0
    endloop
  endfacet
  facet normal 0.980784 -0.195096 0
    outer loop
       vertex 0.451787 -0.064705 0
       vertex 0.458167 -0.0326315 0
       vertex 0.458167 -0.0326315 0.1
    endloop
  endfacet
  facet normal 0.980784 -0.195096 0
    outer loop
       vertex 0.458167 -0.0326315 0.1
       vertex 0.451787 -0.064705 0.1
       vertex 0.451787 -0.064705 0
    endloop
  endfacet
  facet normal 0.997858 -0.0654098 0
    outer loop
       vertex 0.460306 -8.32665e-17 0.1
       vertex 0.458167 -0.0326315 0.1
       vertex 0.458167 -0.0326315 0
    endloop
  endfacet
  facet normal 0.997858 -0.0654098 -1.08928e-16
    outer loop
       vertex 0.458167 -0.0326315 0
       vertex 0.460306 8.32665e-17 0
       vertex 0.460306 -8.32665e-17 0.1
    endloop
  endfacet
  facet normal 0.997858 0.0654098 0
    outer loop
       vertex 0.460306 8.32665e-17 0
       vertex 0.458167 0.0326315 0
       vertex 0.458167 0.0326315 0.1
    endloop
  endfacet
  facet normal 0.997858 0.0654098 1.08928e-16
    outer loop
       vertex 0.458167 0.0326315 0.1
       vertex 0.460306 -8.32665e-17 0.1
       vertex 0.460306 8.32665e-17 0
    endloop
  endfacet
  facet normal 0.980784 0.195096 0
    outer loop
       vertex 0.458167 0.0326315 0
       vertex 0.451787 0.064705 0
       vertex 0.451787 0.064705 0.1
    endloop
  endfacet
  facet normal 0.980784 0.195096 0
    outer loop
       vertex 0.451787 0.064705 0.1
       vertex 0.458167 0.0326315 0.1
       vertex 0.458167 0.0326315 0
    endloop
  endfacet
  facet normal 0.946935 0.321425 0
    outer loop
       vertex 0.451787 0.064705 0
       vertex 0.441276 0.095671 0
       vertex 0.441276 0.095671 0.1
    endloop
  endfacet
  facet normal 0.946935 0.321425 0
    outer loop
       vertex 0.441276 0.095671 0.1
       vertex 0.451787 0.064705 0.1
       vertex 0.451787 0.064705 0
    endloop
  endfacet
  facet normal 0.896866 0.442302 0
    outer loop
       vertex 0.441276 0.095671 0
       vertex 0.426812 0.125 0
       vertex 0.426812 0.125 0.1
    endloop
  endfacet
  facet normal 0.896866 0.442302 0
    outer loop
       vertex 0.426812 0.125 0.1
       vertex 0.441276 0.095671 0.1
       vertex 0.441276 0.095671 0
    endloop
  endfacet
  facet normal 0.831476 0.555561 0
    outer loop
       vertex 0.426812 0.125 0
       vertex 0.408644 0.152191 0
       vertex 0.408644 0.152191 0.1
    endloop
  endfacet
  facet normal 0.831476 0.555561 0
    outer loop
       vertex 0.408644 0.152191 0.1
       vertex 0.426812 0.125 0.1
       vertex 0.426812 0.125 0
    endloop
  endfacet
  facet normal 0.751817 0.659372 0
    outer loop
       vertex 0.408644 0.152191 0
       vertex 0.387082 0.176776 0
       vertex 0.387082 0.176776 0.1
    endloop
  endfacet
  facet normal 0.751817 0.659372 0
    outer loop
       vertex 0.387082 0.176776 0.1
       vertex 0.408644 0.152191 0.1
       vertex 0.408644 0.152191 0
    endloop
  endfacet
  facet normal 0.659372 0.751817 0
    outer loop
       vertex 0.387082 0.176776 0
       vertex 0.362497 0.198338 0
       vertex 0.362497 0.198338 0.1
    endloop
  endfacet
  facet normal 0.659372 0.751817 0
    outer loop
       vertex 0.362497 0.198338 0.1
       vertex 0.387082 0.176776 0.1
       vertex 0.387082 0.176776 0
    endloop
  endfacet
  facet normal 0.555561 0.831476 0
    outer loop
       vertex 0.362497 0.198338 0
       vertex 0.335306 0.216506 0
       vertex 0.335306 0.216506 0.1
    endloop
  endfacet
  facet normal 0.555561 0.831476 0
    outer loop
       vertex 0.335306 0.216506 0.1
       vertex 0.362497 0.198338 0.1
       vertex 0.362497 0.198338 0
    endloop
  endfacet
  facet normal 0.442302 0.896866 0
    outer loop
       vertex 0.335306 0.216506 0
       vertex 0.305977 0.23097 0
       vertex 0.305977 0.23097 0.1
    endloop
  endfacet
  facet normal 0.442302 0.896866 0
    outer loop
       vertex 0.305977 0.23097 0.1
       vertex 0.335306 0.216506 0.1
       vertex 0.335306 0.216506 0
    endloop
  endfacet
  facet normal 0.321425 0.946935 0
    outer loop
       vertex 0.305977 0.23097 0
       vertex 0.275011 0.241481 0
       vertex 0.275011 0.241481 0.1
    endloop
  endfacet
  facet normal 0.321425 0.946935 0
    outer loop
       vertex 0.275011 0.241481 0.1
       vertex 0.305977 0.23097 0.1
       vertex 0.305977 0.23097 0
    endloop
  endfacet
  facet normal 0.195096 0.980784 0
    outer loop
       vertex 0.275011 0.241481 0
       vertex 0.242937 0.247861 0
       vertex 0.242937 0.247861 0.1
    endloop
  endfacet
  facet normal 0.195096 0.980784 0
    outer loop
       vertex 0.242937 0.247861 0.1
       vertex 0.275011 0.241481 0.1
       vertex 0.275011 0.241481 0
    endloop
  endfacet
  facet normal 0.0654098 0.997858 0
    outer loop
       vertex 0.210306 0.25 0.1
       vertex 0.242937 0.247861 0.1
       vertex 0.242937 0.247861 0
    endloop
  endfacet
  facet normal 0.0654098 0.997858 -1.0893e-16
    outer loop
       vertex 0.242937 0.247861 0
       vertex 0.210306 0.25 0
       vertex 0.210306 0.25 0.1
    endloop
  endfacet
  facet normal -0.0654098 0.997858 0
    outer loop
       vertex 0.210306 0.25 0
       vertex 0.177674 0.247861 0
       vertex 0.177674 0.247861 0.1
    endloop
  endfacet
  facet normal -0.0654098 0.997858 1.0893e-16
    outer loop
       vertex 0.177674 0.247861 0.1
       vertex 0.210306 0.25 0.1
       vertex 0.210306 0.25 0
    endloop
  endfacet
  facet normal -0.195096 0.980784 0
    outer loop
       vertex 0.177674 0.247861 0
       vertex 0.145601 0.241481 0
       vertex 0.145601 0.241481 0.1
    endloop
  endfacet
  facet normal -0.195096 0.980784 0
    outer loop
       vertex 0.145601 0.241481 0.1
       vertex 0.177674 0.247861 0.1
       vertex 0.177674 0.247861 0
    endloop
  endfacet
  facet normal -0.321425 0.946935 0
    outer loop
       vertex 0.145601 0.241481 0
       vertex 0.114635 0.23097 0
       vertex 0.114635 0.23097 0.1
    endloop
  endfacet
  facet normal -0.321425 0.946935 0
    outer loop
       vertex 0.114635 0.23097 0.1
       vertex 0.145601 0.241481 0.1
       vertex 0.145601 0.241481 0
    endloop
  endfacet
  facet normal -0.442302 0.896866 0
    outer loop
       vertex 0.114635 0.23097 0
       vertex 0.0853057 0.216506 0
       vertex 0.0853057 0.216506 0.1
    endloop
  endfacet
  facet normal -0.442302 0.896866 0
    outer loop
       vertex 0.0853057 0.216506 0.1
       vertex 0.114635 0.23097 0.1
       vertex 0.114635 0.23097 0
    endloop
  endfacet
  facet normal -0.555561 0.831476 0
    outer loop
       vertex 0.0853057 0.216506 0
       vertex 0.0581147 0.198338 0
       vertex 0.0581147 0.198338 0.1
    endloop
  endfacet
  facet normal -0.555561 0.831476 0
    outer loop
       vertex 0.0581147 0.198338 0.1
       vertex 0.0853057 0.216506 0.1
       vertex 0.0853057 0.216506 0
    endloop
  endfacet
  facet normal -0.659372 0.751817 0
    outer loop
       vertex 0.0581147 0.198338 0
       vertex 0.0335297 0.176776 0
       vertex 0.0335297 0.176776 0.1
    endloop
  endfacet
  facet normal -0.659372 0.751817 0
    outer loop
       vertex 0.0335297 0.176776 0.1
       vertex 0.0581147 0.198338 0.1
       vertex 0.0581147 0.198338 0
    endloop
  endfacet
  facet normal -0.751817 0.659372 0
    outer loop
       vertex 0.0335297 0.176776 0
       vertex 0.0119677 0.152191 0
       vertex 0.0119677 0.152191 0.1
    endloop
  endfacet
  facet normal -0.751817 0.659372 0
    outer loop
       vertex 0.0119677 0.152191 0.1
       vertex 0.0335297 0.176776 0.1
       vertex 0.0335297 0.176776 0
    endloop
  endfacet
  facet normal -0.831476 0.555561 0
    outer loop
       vertex 0.0119677 0.152191 0
       vertex -0.00620034 0.125 0
       vertex -0.00620034 0.125 0.1
    endloop
  endfacet
  facet normal -0.831476 0.555561 0
    outer loop
       vertex -0.00620034 0.125 0.1
       vertex 0.0119677 0.152191 0.1
       vertex 0.0119677 0.152191 0
    endloop
  endfacet
  facet normal -0.896866 0.442302 0
    outer loop
       vertex -0.00620034 0.125 0
       vertex -0.0206643 0.095671 0
       vertex -0.0206643 0.095671 0.1
    endloop
  endfacet
  facet normal -0.896866 0.442302 0
    outer loop
       vertex -0.0206643 0.095671 0.1
       vertex -0.00620034 0.125 0.1
       vertex -0.00620034 0.125 0
    endloop
  endfacet
  facet normal -0.946935 0.321425 0
    outer loop
       vertex -0.0206643 0.095671 0
       vertex -0.0311753 0.064705 0
       vertex -0.0311753 0.064705 0.1
    endloop
  endfacet
  facet normal -0.946935 0.321425 0
    outer loop
       vertex -0.0311753 0.064705 0.1
       vertex -0.0206643 0.095671 0.1
       vertex -0.0206643 0.095671 0
    endloop
  endfacet
  facet normal -0.980784 0.195096 0
    outer loop
       vertex -0.0311753 0.064705 0
       vertex -0.0375553 0.0326315 0
       vertex -0.0375553 0.0326315 0.1
    endloop
  endfacet
  facet normal -0.980784 0.195096 0
    outer loop
       vertex -0.0375553 0.0326315 0.1
       vertex -0.0311753 0.064705 0.1
       vertex -0.0311753 0.064705 0
    endloop
  endfacet
  facet normal -0.997858 0.0654098 0
    outer loop
       vertex -0.0396943 8.32665e-17 0.1
       vertex -0.0375553 0.0326315 0.1
       vertex -0.0375553 0.0326315 0
    endloop
  endfacet
  facet normal -0.997858 0.0654098 -1.08928e-16
    outer loop
       vertex -0.0375553 0.0326315 0
       vertex -0.0396943 -8.32665e-17 0
       vertex -0.0396943 8.32665e-17 0.1
    endloop
  endfacet
  facet normal -0.997858 -0.0654098 0
    outer loop
       vertex -0.0396943 -8.32665e-17 0
       vertex -0.0375553 -0.0326315 0
       vertex -0.0375553 -0.0326315 0.1
    endloop
  endfacet
  facet normal -0.997858 -0.0654098 1.08928e-16
    outer loop
       vertex -0.0375553 -0.0326315 0.1
       vertex -0.0396943 8.32665e-17 0.1
       vertex -0.0396943 -8.32665e-17 0
    endloop
  endfacet
  facet normal -0.980784 -0.195096 0
    outer loop
       vertex -0.0375553 -0.0326315 0
       vertex -0.0311753 -0.064705 0
       vertex -0.0311753 -0.064705 0.1
    endloop
  endfacet
  facet normal -0.980784 -0.195096 0
    outer loop
       vertex -0.0311753 -0.064705 0.1
       vertex -0.0375553 -0.0326315 0.1
       vertex -0.0375553 -0.0326315 0
    endloop
  endfacet
  facet normal -0.946935 -0.321425 0
    outer loop
       vertex -0.0311753 -0.064705 0
       vertex -0.0206643 -0.095671 0
       vertex -0.0206643 -0.095671 0.1
    endloop
  endfacet
  facet normal -0.946935 -0.321425 0
    outer loop
       vertex -0.0206643 -0.095671 0.1
       vertex -0.0311753 -0.064705 0.1
       vertex -0.0311753 -0.064705 0
    endloop
  endfacet
  facet normal -0.896866 -0.442302 0
    outer loop
       vertex -0.0206643 -0.095671 0
       vertex -0.00620034 -0.125 0
       vertex -0.00620034 -0.125 0.1
    endloop
  endfacet
  facet normal -0.896866 -0.442302 0
    outer loop
       vertex -0.00620034 -0.125 0.1
       vertex -0.0206643 -0.095671 0.1
       vertex -0.0206643 -0.095671 0
    endloop
  endfacet
  facet normal -0.831476 -0.555561 0
    outer loop
       vertex -0.00620034 -0.125 0
       vertex 0.0119677 -0.152191 0
       vertex 0.0119677 -0.152191 0.1
    endloop
  endfacet
  facet normal -0.831476 -0.555561 0
    outer loop
       vertex 0.0119677 -0.152191 0.1
       vertex -0.00620034 -0.125 0.1
       vertex -0.00620034 -0.125 0
    endloop
  endfacet
  facet normal -0.751817 -0.659372 0
    outer loop
       vertex 0.0119677 -0.152191 0
       vertex 0.0335297 -0.176776 0
       vertex 0.0335297 -0.176776 0.1
    endloop
  endfacet
  facet normal -0.751817 -0.659372 0
    outer loop
       vertex 0.0335297 -0.176776 0.1
       vertex 0.0119677 -0.152191 0.1
       vertex 0.0119677 -0.152191 0
    endloop
  endfacet
  facet normal 0.659372 -0.751817 0
    outer loop
       vertex 0.387082 -0.176776 0
       vertex 0.387082 -0.176776 0.1
       vertex 0.362497 -0.198338 0.1
    endloop
  endfacet
  facet normal 0.659372 -0.751817 0
    outer loop
       vertex 0.362497 -0.198338 0.1
       vertex 0.362497 -0.198338 0
       vertex 0.387082 -0.176776 0
    endloop
  endfacet
  facet normal 0.555561 -0.831476 0
    outer loop
       vertex 0.362497 -0.198338 0
       vertex 0.362497 -0.198338 0.1
       vertex 0.335306 -0.216506 0.1
    endloop
  endfacet
  facet normal 0.555561 -0.831476 0
    outer loop
       vertex 0.335306 -0.216506 0.1
       vertex 0.335306 -0.216506 0
       vertex 0.362497 -0.198338 0
    endloop
  endfacet
  facet normal 0.442302 -0.896866 0
    outer loop
       vertex 0.335306 -0.216506 0
       vertex 0.335306 -0.216506 0.1
       vertex 0.305977 -0.23097 0.1
    endloop
  endfacet
  facet normal 0.442302 -0.896866 0
    outer loop
       vertex 0.305977 -0.23097 0.1
       vertex 0.305977 -0.23097 0
       vertex 0.335306 -0.216506 0
    endloop
  endfacet
  facet normal 0.321425 -0.946935 0
    outer loop
       vertex 0.305977 -0.23097 0
       vertex 0.305977 -0.23097 0.1
       vertex 0.275011 -0.241481 0.1
    endloop
  endfacet
  facet normal 0.321425 -0.946935 0
    outer loop
       vertex 0.275011 -0.241481 0.1
       vertex 0.275011 -0.241481 0
       vertex 0.305977 -0.23097 0
    endloop
  endfacet
  facet normal 0.195096 -0.980784 0
    outer loop
       vertex 0.275011 -0.241481 0
       vertex 0.275011 -0.241481 0.1
       vertex 0.242937 -0.247861 0.1
    endloop
  endfacet
  facet normal 0.195096 -0.980784 0
    outer loop
       vertex 0.242937 -0.247861 0.1
       vertex 0.242937 -0.247861 0
       vertex 0.275011 -0.241481 0
    endloop
  endfacet
  facet normal 0.0654098 -0.997858 0
    outer loop
       vertex 0.210306 -0.25 0
       vertex 0.242937 -0.247861 0
       vertex 0.242937 -0.247861 0.1
    endloop
  endfacet
  facet normal 0.0654098 -0.997858 1.0893e-16
    outer loop
       vertex 0.242937 -0.247861 0.1
       vertex 0.210306 -0.25 0.1
       vertex 0.210306 -0.25 0
    endloop
  endfacet
  facet normal -0.0654098 -0.997858 0
    outer loop
       vertex 0.210306 -0.25 0.1
       vertex 0.177674 -0.247861 0.1
       vertex 0.177674 -0.247861 0
    endloop
  endfacet
  facet normal -0.0654098 -0.997858 -1.0893e-16
    outer loop
       vertex 0.177674 -0.247861 0
       vertex 0.210306 -0.25 0
       vertex 0.210306 -0.25 0.1
    endloop
  endfacet
  facet normal -0.195096 -0.980784 0
    outer loop
       vertex 0.177674 -0.247861 0
       vertex 0.177674 -0.247861 0.1
       vertex 0.145601 -0.241481 0.1
    endloop
  endfacet
  facet normal -0.195096 -0.980784 -0
    outer loop
       vertex 0.145601 -0.241481 0.1
       vertex 0.145601 -0.241481 0
       vertex 0.177674 -0.247861 0
    endloop
  endfacet
  facet normal -0.321425 -0.946935 0
    outer loop
       vertex 0.145601 -0.241481 0
       vertex 0.145601 -0.241481 0.1
       vertex 0.114635 -0.23097 0.1
    endloop
  endfacet
  facet normal -0.321425 -0.946935 -0
    outer loop
       vertex 0.114635 -0.23097 0.1
       vertex 0.114635 -0.23097 0
       vertex 0.145601 -0.241481 0
    endloop
  endfacet
  facet normal -0.442302 -0.896866 0
    outer loop
       vertex 0.114635 -0.23097 0
       vertex 0.114635 -0.23097 0.1
       vertex 0.0853057 -0.216506 0.1
    endloop
  endfacet
  facet normal -0.442302 -0.896866 -0
    outer loop
       vertex 0.0853057 -0.216506 0.1
       vertex 0.0853057 -0.216506 0
       vertex 0.114635 -0.23097 0
    endloop
  endfacet
  facet normal -0.555561 -0.831476 0
    outer loop
       vertex 0.0853057 -0.216506 0
       vertex 0.0853057 -0.216506 0.1
       vertex 0.0581147 -0.198338 0.1
    endloop
  endfacet
  facet normal -0.555561 -0.831476 -0
    outer loop
       vertex 0.0581147 -0.198338 0.1
       vertex 0.0581147 -0.198338 0
       vertex 0.0853057 -0.216506 0
    endloop
  endfacet
  facet normal -0.659372 -0.751817 0
    outer loop
       vertex 0.0581147 -0.198338 0
       vertex 0.0581147 -0.198338 0.1
       vertex 0.0335297 -0.176776 0.1
    endloop
  endfacet
  facet normal -0.659372 -0.751817 -0
    outer loop
       vertex 0.0335297 -0.176776 0.1
       vertex 0.0335297 -0.176776 0
       vertex 0.0581147 -0.198338 0
    endloop
  endfacet
endsolid cylinder
