solid cylinder
  facet normal 0.751817 -0.659372 0
    outer loop
       vertex 0.105421 -0.176776 0
       vertex 0.126983 -0.152191 0
       vertex 0.126983 -0.152191 0.1
    endloop
  endfacet
  facet normal 0.751817 -0.659372 0
    outer loop
       vertex 0.126983 -0.152191 0.1
       vertex 0.105421 -0.176776 0.1
       vertex 0.105421 -0.176776 0
    endloop
  endfacet
  facet normal 0.831476 -0.555561 0
    outer loop
       vertex 0.126983 -0.152191 0
       vertex 0.145151 -0.125 0
       vertex 0.145151 -0.125 0.1
    endloop
  endfacet
  facet normal 0.831476 -0.555561 0
    outer loop
       vertex 0.145151 -0.125 0.1
       vertex 0.126983 -0.152191 0.1
       vertex 0.126983 -0.152191 0
    endloop
  endfacet
  facet normal 0.896866 -0.442302 0
    outer loop
       vertex 0.145151 -0.125 0
       vertex 0.159615 -0.095671 0
       vertex 0.159615 -0.095671 0.1
    endloop
  endfacet
  facet normal 0.896866 -0.442302 0
    outer loop
       vertex 0.159615 -0.095671 0.1
       vertex 0.145151 -0.125 0.1
       vertex 0.145151 -0.125 0
    endloop
  endfacet
  facet normal 0.946935 -0.321425 0
    outer loop
       vertex 0.159615 -0.095671 0
       vertex 0.170126 -0.064705 0
       vertex 0.170126 -0.064705 0.1
    endloop
  endfacet
  facet normal 0.946935 -0.321425 0
    outer loop
       vertex 0.170126 -0.064705 0.1
       vertex 0.159615 -0.095671 0.1
       vertex 0.159615 -0.095671 0
    endloop
  endfacet
  facet normal 0.980784 -0.195096 0
    outer loop
       vertex 0.170126 -0.064705 0
       vertex 0.176506 -0.0326315 0
       vertex 0.176506 -0.0326315 0.1
    endloop
  endfacet
  facet normal 0.980784 -0.195096 0
    outer loop
       vertex 0.176506 -0.0326315 0.1
       vertex 0.170126 -0.064705 0.1
       vertex 0.170126 -0.064705 0
    endloop
  endfacet
  facet normal 0.997858 -0.0654098 0
    outer loop
       vertex 0.178645 -8.32665e-17 0.1
       vertex 0.176506 -0.0326315 0.1
       vertex 0.176506 -0.0326315 0
    endloop
  endfacet
  facet normal 0.997858 -0.0654098 -1.08928e-16
    outer loop
       vertex 0.176506 -0.0326315 0
       vertex 0.178645 8.32665e-17 0
       vertex 0.178645 -8.32665e-17 0.1
    endloop
  endfacet
  facet normal 0.997858 0.0654098 0
    outer loop
       vertex 0.178645 8.32665e-17 0
       vertex 0.176506 0.0326315 0
       vertex 0.176506 0.0326315 0.1
    endloop
  endfacet
  facet normal 0.997858 0.0654098 1.08928e-16
    outer loop
       vertex 0.176506 0.0326315 0.1
       vertex 0.178645 -8.32665e-17 0.1
       vertex 0.178645 8.32665e-17 0
    endloop
  endfacet
  facet normal 0.980784 0.195096 0
    outer loop
       vertex 0.176506 0.0326315 0
       vertex 0.170126 0.064705 0
       vertex 0.170126 0.064705 0.1
    endloop
  endfacet
  facet normal 0.980784 0.195096 0
    outer loop
       vertex 0.170126 0.064705 0.1
       vertex 0.176506 0.0326315 0.1
       vertex 0.176506 0.0326315 0
    endloop
  endfacet
  facet normal 0.946935 0.321425 0
    outer loop
       vertex 0.170126 0.064705 0
       vertex 0.159615 0.095671 0
       vertex 0.159615 0.095671 0.1
    endloop
  endfacet
  facet normal 0.946935 0.321425 0
    outer loop
       vertex 0.159615 0.095671 0.1
       vertex 0.170126 0.064705 0.1
       vertex 0.170126 0.064705 0
    endloop
  endfacet
  facet normal 0.896866 0.442302 0
    outer loop
       vertex 0.159615 0.095671 0
       vertex 0.145151 0.125 0
       vertex 0.145151 0.125 0.1
    endloop
  endfacet
  facet normal 0.896866 0.442302 0
    outer loop
       vertex 0.145151 0.125 0.1
       vertex 0.159615 0.095671 0.1
       vertex 0.159615 0.095671 0
    endloop
  endfacet
  facet normal 0.831476 0.555561 0
    outer loop
       vertex 0.145151 0.125 0
       vertex 0.126983 0.152191 0
       vertex 0.126983 0.152191 0.1
    endloop
  endfacet
  facet normal 0.831476 0.555561 0
    outer loop
       vertex 0.126983 0.152191 0.1
       vertex 0.145151 0.125 0.1
       vertex 0.145151 0.125 0
    endloop
  endfacet
  facet normal 0.751817 0.659372 0
    outer loop
       vertex 0.126983 0.152191 0
       vertex 0.105421 0.176776 0
       vertex 0.105421 0.176776 0.1
    endloop
  endfacet
  facet normal 0.751817 0.659372 0
    outer loop
       vertex 0.105421 0.176776 0.1
       vertex 0.126983 0.152191 0.1
       vertex 0.126983 0.152191 0
    endloop
  endfacet
  facet normal 0.659372 0.751817 0
    outer loop
       vertex 0.105421 0.176776 0
       vertex 0.0808359 0.198338 0
       vertex 0.0808359 0.198338 0.1
    endloop
  endfacet
  facet normal 0.659372 0.751817 0
    outer loop
       vertex 0.0808359 0.198338 0.1
       vertex 0.105421 0.176776 0.1
       vertex 0.105421 0.176776 0
    endloop
  endfacet
  facet normal 0.555561 0.831476 0
    outer loop
       vertex 0.0808359 0.198338 0
       vertex 0.0536449 0.216506 0
       vertex 0.0536449 0.216506 0.1
    endloop
  endfacet
  facet normal 0.555561 0.831476 0
    outer loop
       vertex 0.0536449 0.216506 0.1
       vertex 0.0808359 0.198338 0.1
       vertex 0.0808359 0.198338 0
    endloop
  endfacet
  facet normal 0.442302 0.896866 0
    outer loop
       vertex 0.0536449 0.216506 0
       vertex 0.0243159 0.23097 0
       vertex 0.0243159 0.23097 0.1
    endloop
  endfacet
  facet normal 0.442302 0.896866 0
    outer loop
       vertex 0.0243159 0.23097 0.1
       vertex 0.0536449 0.216506 0.1
       vertex 0.0536449 0.216506 0
    endloop
  endfacet
  facet normal 0.321425 0.946935 0
    outer loop
       vertex 0.0243159 0.23097 0
       vertex -0.00665009 0.241481 0
       vertex -0.00665009 0.241481 0.1
    endloop
  endfacet
  facet normal 0.321425 0.946935 0
    outer loop
       vertex -0.00665009 0.241481 0.1
       vertex 0.0243159 0.23097 0.1
       vertex 0.0243159 0.23097 0
    endloop
  endfacet
  facet normal 0.195096 0.980784 0
    outer loop
       vertex -0.00665009 0.241481 0
       vertex -0.0387236 0.247861 0
       vertex -0.0387236 0.247861 0.1
    endloop
  endfacet
  facet normal 0.195096 0.980784 0
    outer loop
       vertex -0.0387236 0.247861 0.1
       vertex -0.00665009 0.241481 0.1
       vertex -0.00665009 0.241481 0
    endloop
  endfacet
  facet normal 0.0654098 0.997858 0
    outer loop
       vertex -0.0713551 0.25 0.1
       vertex -0.0387236 0.247861 0.1
       vertex -0.0387236 0.247861 0
    endloop
  endfacet
  facet normal 0.0654098 0.997858 -1.08928e-16
    outer loop
       vertex -0.0387236 0.247861 0
       vertex -0.0713551 0.25 0
       vertex -0.0713551 0.25 0.1
    endloop
  endfacet
  facet normal -0.0654098 0.997858 0
    outer loop
       vertex -0.0713551 0.25 0
       vertex -0.103987 0.247861 0
       vertex -0.103987 0.247861 0.1
    endloop
  endfacet
  facet normal -0.0654098 0.997858 1.0893e-16
    outer loop
       vertex -0.103987 0.247861 0.1
       vertex -0.0713551 0.25 0.1
       vertex -0.0713551 0.25 0
    endloop
  endfacet
  facet normal -0.195096 0.980784 0
    outer loop
       vertex -0.103987 0.247861 0
       vertex -0.13606 0.241481 0
       vertex -0.13606 0.241481 0.1
    endloop
  endfacet
  facet normal -0.195096 0.980784 0
    outer loop
       vertex -0.13606 0.241481 0.1
       vertex -0.103987 0.247861 0.1
       vertex -0.103987 0.247861 0
    endloop
  endfacet
  facet normal -0.321425 0.946935 0
    outer loop
       vertex -0.13606 0.241481 0
       vertex -0.167026 0.23097 0
       vertex -0.167026 0.23097 0.1
    endloop
  endfacet
  facet normal -0.321425 0.946935 0
    outer loop
       vertex -0.167026 0.23097 0.1
       vertex -0.13606 0.241481 0.1
       vertex -0.13606 0.241481 0
    endloop
  endfacet
  facet normal -0.442302 0.896866 0
    outer loop
       vertex -0.167026 0.23097 0
       vertex -0.196355 0.216506 0
       vertex -0.196355 0.216506 0.1
    endloop
  endfacet
  facet normal -0.442302 0.896866 0
    outer loop
       vertex -0.196355 0.216506 0.1
       vertex -0.167026 0.23097 0.1
       vertex -0.167026 0.23097 0
    endloop
  endfacet
  facet normal -0.555561 0.831476 0
    outer loop
       vertex -0.196355 0.216506 0
       vertex -0.223546 0.198338 0
       vertex -0.223546 0.198338 0.1
    endloop
  endfacet
  facet normal -0.555561 0.831476 0
    outer loop
       vertex -0.223546 0.198338 0.1
       vertex -0.196355 0.216506 0.1
       vertex -0.196355 0.216506 0
    endloop
  endfacet
  facet normal -0.659372 0.751817 0
    outer loop
       vertex -0.223546 0.198338 0
       vertex -0.248131 0.176776 0
       vertex -0.248131 0.176776 0.1
    endloop
  endfacet
  facet normal -0.659372 0.751817 0
    outer loop
       vertex -0.248131 0.176776 0.1
       vertex -0.223546 0.198338 0.1
       vertex -0.223546 0.198338 0
    endloop
  endfacet
  facet normal -0.751817 0.659372 0
    outer loop
       vertex -0.248131 0.176776 0
       vertex -0.269693 0.152191 0
       vertex -0.269693 0.152191 0.1
    endloop
  endfacet
  facet normal -0.751817 0.659372 0
    outer loop
       vertex -0.269693 0.152191 0.1
       vertex -0.248131 0.176776 0.1
       vertex -0.248131 0.176776 0
    endloop
  endfacet
  facet normal -0.831476 0.555561 0
    outer loop
       vertex -0.269693 0.152191 0
       vertex -0.287861 0.125 0
       vertex -0.287861 0.125 0.1
    endloop
  endfacet
  facet normal -0.831476 0.555561 0
    outer loop
       vertex -0.287861 0.125 0.1
       vertex -0.269693 0.152191 0.1
       vertex -0.269693 0.152191 0
    endloop
  endfacet
  facet normal -0.896866 0.442302 0
    outer loop
       vertex -0.287861 0.125 0
       vertex -0.302325 0.095671 0
       vertex -0.302325 0.095671 0.1
    endloop
  endfacet
  facet normal -0.896866 0.442302 0
    outer loop
       vertex -0.302325 0.095671 0.1
       vertex -0.287861 0.125 0.1
       vertex -0.287861 0.125 0
    endloop
  endfacet
  facet normal -0.946935 0.321425 0
    outer loop
       vertex -0.302325 0.095671 0
       vertex -0.312836 0.064705 0
       vertex -0.312836 0.064705 0.1
    endloop
  endfacet
  facet normal -0.946935 0.321425 0
    outer loop
       vertex -0.312836 0.064705 0.1
       vertex -0.302325 0.095671 0.1
       vertex -0.302325 0.095671 0
    endloop
  endfacet
  facet normal -0.980784 0.195096 0
    outer loop
       vertex -0.312836 0.064705 0
       vertex -0.319216 0.0326315 0
       vertex -0.319216 0.0326315 0.1
    endloop
  endfacet
  facet normal -0.980784 0.195096 0
    outer loop
       vertex -0.319216 0.0326315 0.1
       vertex -0.312836 0.064705 0.1
       vertex -0.312836 0.064705 0
    endloop
  endfacet
  facet normal -0.997858 0.0654098 0
    outer loop
       vertex -0.321355 8.32665e-17 0.1
       vertex -0.319216 0.0326315 0.1
       vertex -0.319216 0.0326315 0
    endloop
  endfacet
  facet normal -0.997858 0.0654098 -1.08928e-16
    outer loop
       vertex -0.319216 0.0326315 0
       vertex -0.321355 -8.32665e-17 0
       vertex -0.321355 8.32665e-17 0.1
    endloop
  endfacet
  facet normal -0.997858 -0.0654098 0
    outer loop
       vertex -0.321355 -8.32665e-17 0
       vertex -0.319216 -0.0326315 0
       vertex -0.319216 -0.0326315 0.1
    endloop
  endfacet
  facet normal -0.997858 -0.0654098 1.08928e-16
    outer loop
       vertex -0.319216 -0.0326315 0.1
       vertex -0.321355 8.32665e-17 0.1
       vertex -0.321355 -8.32665e-17 0
    endloop
  endfacet
  facet normal -0.980784 -0.195096 0
    outer loop
       vertex -0.319216 -0.0326315 0
       vertex -0.312836 -0.064705 0
       vertex -0.312836 -0.064705 0.1
    endloop
  endfacet
  facet normal -0.980784 -0.195096 0
    outer loop
       vertex -0.312836 -0.064705 0.1
       vertex -0.319216 -0.0326315 0.1
       vertex -0.319216 -0.0326315 0
    endloop
  endfacet
  facet normal -0.946935 -0.321425 0
    outer loop
       vertex -0.312836 -0.064705 0
       vertex -0.302325 -0.095671 0
       vertex -0.302325 -0.095671 0.1
    endloop
  endfacet
  facet normal -0.946935 -0.321425 0
    outer loop
       vertex -0.302325 -0.095671 0.1
       vertex -0.312836 -0.064705 0.1
       vertex -0.312836 -0.064705 0
    endloop
  endfacet
  facet normal -0.896866 -0.442302 0
    outer loop
       vertex -0.302325 -0.095671 0
       vertex -0.287861 -0.125 0
       vertex -0.287861 -0.125 0.1
    endloop
  endfacet
  facet normal -0.896866 -0.442302 0
    outer loop
       vertex -0.287861 -0.125 0.1
       vertex -0.302325 -0.095671 0.1
       vertex -0.302325 -0.095671 0
    endloop
  endfacet
  facet normal -0.831476 -0.555561 0
    outer loop
       vertex -0.287861 -0.125 0
       vertex -0.269693 -0.152191 0
       vertex -0.269693 -0.152191 0.1
    endloop
  endfacet
  facet normal -0.831476 -0.555561 0
    outer loop
       vertex -0.269693 -0.152191 0.1
       vertex -0.287861 -0.125 0.1
       vertex -0.287861 -0.125 0
    endloop
  endfacet
  facet normal -0.751817 -0.659372 0
    outer loop
       vertex -0.269693 -0.152191 0
       vertex -0.248131 -0.176776 0
       vertex -0.248131 -0.176776 0.1
    endloop
  endfacet
  facet normal -0.751817 -0.659372 0
    outer loop
       vertex -0.248131 -0.176776 0.1
       vertex -0.269693 -0.152191 0.1
       vertex -0.269693 -0.152191 0
    endloop
  endfacet
  facet normal 0.659372 -0.751817 0
    outer loop
       vertex 0.105421 -0.176776 0
       vertex 0.105421 -0.176776 0.1
       vertex 0.0808359 -0.198338 0.1
    endloop
  endfacet
  facet normal 0.659372 -0.751817 0
    outer loop
       vertex 0.0808359 -0.198338 0.1
       vertex 0.0808359 -0.198338 0
       vertex 0.105421 -0.176776 0
    endloop
  endfacet
  facet normal 0.555561 -0.831476 0
    outer loop
       vertex 0.0808359 -0.198338 0
       vertex 0.0808359 -0.198338 0.1
       vertex 0.0536449 -0.216506 0.1
    endloop
  endfacet
  facet normal 0.555561 -0.831476 0
    outer loop
       vertex 0.0536449 -0.216506 0.1
       vertex 0.0536449 -0.216506 0
       vertex 0.0808359 -0.198338 0
    endloop
  endfacet
  facet normal 0.442302 -0.896866 0
    outer loop
       vertex 0.0536449 -0.216506 0
       vertex 0.0536449 -0.216506 0.1
       vertex 0.0243159 -0.23097 0.1
    endloop
  endfacet
  facet normal 0.442302 -0.896866 0
    outer loop
       vertex 0.0243159 -0.23097 0.1
       vertex 0.0243159 -0.23097 0
       vertex 0.0536449 -0.216506 0
    endloop
  endfacet
  facet normal 0.321425 -0.946935 0
    outer loop
       vertex 0.0243159 -0.23097 0
       vertex 0.0243159 -0.23097 0.1
       vertex -0.00665009 -0.241481 0.1
    endloop
  endfacet
  facet normal 0.321425 -0.946935 0
    outer loop
       vertex -0.00665009 -0.241481 0.1
       vertex -0.00665009 -0.241481 0
       vertex 0.0243159 -0.23097 0
    endloop
  endfacet
  facet normal 0.195096 -0.980784 0
    outer loop
       vertex -0.00665009 -0.241481 0
       vertex -0.00665009 -0.241481 0.1
       vertex -0.0387236 -0.247861 0.1
    endloop
  endfacet
  facet normal 0.195096 -0.980784 0
    outer loop
       vertex -0.0387236 -0.247861 0.1
       vertex -0.0387236 -0.247861 0
       vertex -0.00665009 -0.241481 0
    endloop
  endfacet
  facet normal 0.0654098 -0.997858 0
    outer loop
       vertex -0.0713551 -0.25 0
       vertex -0.0387236 -0.247861 0
       vertex -0.0387236 -0.247861 0.1
    endloop
  endfacet
  facet normal 0.0654098 -0.997858 1.08928e-16
    outer loop
       vertex -0.0387236 -0.247861 0.1
       vertex -0.0713551 -0.25 0.1
       vertex -0.0713551 -0.25 0
    endloop
  endfacet
  facet normal -0.0654098 -0.997858 0
    outer loop
       vertex -0.0713551 -0.25 0.1
       vertex -0.103987 -0.247861 0.1
       vertex -0.103987 -0.247861 0
    endloop
  endfacet
  facet normal -0.0654098 -0.997858 -1.0893e-16
    outer loop
       vertex -0.103987 -0.247861 0
       vertex -0.0713551 -0.25 0
       vertex -0.0713551 -0.25 0.1
    endloop
  endfacet
  facet normal -0.195096 -0.980784 0
    outer loop
       vertex -0.103987 -0.247861 0
       vertex -0.103987 -0.247861 0.1
       vertex -0.13606 -0.241481 0.1
    endloop
  endfacet
  facet normal -0.195096 -0.980784 -0
    outer loop
       vertex -0.13606 -0.241481 0.1
       vertex -0.13606 -0.241481 0
       vertex -0.103987 -0.247861 0
    endloop
  endfacet
  facet normal -0.321425 -0.946935 0
    outer loop
       vertex -0.13606 -0.241481 0
       vertex -0.13606 -0.241481 0.1
       vertex -0.167026 -0.23097 0.1
    endloop
  endfacet
  facet normal -0.321425 -0.946935 -0
    outer loop
       vertex -0.167026 -0.23097 0.1
       vertex -0.167026 -0.23097 0
       vertex -0.13606 -0.241481 0
    endloop
  endfacet
  facet normal -0.442302 -0.896866 0
    outer loop
       vertex -0.167026 -0.23097 0
       vertex -0.167026 -0.23097 0.1
       vertex -0.196355 -0.216506 0.1
    endloop
  endfacet
  facet normal -0.442302 -0.896866 -0
    outer loop
       vertex -0.196355 -0.216506 0.1
       vertex -0.196355 -0.216506 0
       vertex -0.167026 -0.23097 0
    endloop
  endfacet
  facet normal -0.555561 -0.831476 0
    outer loop
       vertex -0.196355 -0.216506 0
       vertex -0.196355 -0.216506 0.1
       vertex -0.223546 -0.198338 0.1
    endloop
  endfacet
  facet normal -0.555561 -0.831476 -0
    outer loop
       vertex -0.223546 -0.198338 0.1
       vertex -0.223546 -0.198338 0
       vertex -0.196355 -0.216506 0
    endloop
  endfacet
  facet normal -0.659372 -0.751817 0
    outer loop
       vertex -0.223546 -0.198338 0
       vertex -0.223546 -0.198338 0.1
       vertex -0.248131 -0.176776 0.1
    endloop
  endfacet
  facet normal -0.659372 -0.751817 -0
    outer loop
       vertex -0.248131 -0.176776 0.1
       vertex -0.248131 -0.176776 0
       vertex -0.223546 -0.198338 0
    endloop
  endfacet
endsolid cylinder
