solid cylinder
  facet normal 0.751817 -0.659372 0
    outer loop
       vertex 0.120516 -0.176776 0
       vertex 0.142078 -0.152191 0
       vertex 0.142078 -0.152191 0.1
    endloop
  endfacet
  facet normal 0.751817 -0.659372 0
    outer loop
       vertex 0.142078 -0.152191 0.1
       vertex 0.120516 -0.176776 0.1
       vertex 0.120516 -0.176776 0
    endloop
  endfacet
  facet normal 0.831476 -0.555561 0
    outer loop
       vertex 0.142078 -0.152191 0
       vertex 0.160246 -0.125 0
       vertex 0.160246 -0.125 0.1
    endloop
  endfacet
  facet normal 0.831476 -0.555561 0
    outer loop
       vertex 0.160246 -0.125 0.1
       vertex 0.142078 -0.152191 0.1
       vertex 0.142078 -0.152191 0
    endloop
  endfacet
  facet normal 0.896866 -0.442302 0
    outer loop
       vertex 0.160246 -0.125 0
       vertex 0.17471 -0.095671 0
       vertex 0.17471 -0.095671 0.1
    endloop
  endfacet
  facet normal 0.896866 -0.442302 0
    outer loop
       vertex 0.17471 -0.095671 0.1
       vertex 0.160246 -0.125 0.1
       vertex 0.160246 -0.125 0
    endloop
  endfacet
  facet normal 0.946935 -0.321425 0
    outer loop
       vertex 0.17471 -0.095671 0
       vertex 0.185221 -0.064705 0
       vertex 0.185221 -0.064705 0.1
    endloop
  endfacet
  facet normal 0.946935 -0.321425 0
    outer loop
       vertex 0.185221 -0.064705 0.1
       vertex 0.17471 -0.095671 0.1
       vertex 0.17471 -0.095671 0
    endloop
  endfacet
  facet normal 0.980784 -0.195096 0
    outer loop
       vertex 0.185221 -0.064705 0
       vertex 0.191601 -0.0326315 0
       vertex 0.191601 -0.0326315 0.1
    endloop
  endfacet
  facet normal 0.980784 -0.195096 0
    outer loop
       vertex 0.191601 -0.0326315 0.1
       vertex 0.185221 -0.064705 0.1
       vertex 0.185221 -0.064705 0
    endloop
  endfacet
  facet normal 0.997858 -0.0654098 0
    outer loop
       vertex 0.19374 -8.32665e-17 0.1
       vertex 0.191601 -0.0326315 0.1
       vertex 0.191601 -0.0326315 0
    endloop
  endfacet
  facet normal 0.997858 -0.0654098 -1.08928e-16
    outer loop
       vertex 0.191601 -0.0326315 0
       vertex 0.19374 8.32665e-17 0
       vertex 0.19374 -8.32665e-17 0.1
    endloop
  endfacet
  facet normal 0.997858 0.0654098 0
    outer loop
       vertex 0.19374 8.32665e-17 0
       vertex 0.191601 0.0326315 0
       vertex 0.191601 0.0326315 0.1
    endloop
  endfacet
  facet normal 0.997858 0.0654098 1.08928e-16
    outer loop
       vertex 0.191601 0.0326315 0.1
       vertex 0.19374 -8.32665e-17 0.1
       vertex 0.19374 8.32665e-17 0
    endloop
  endfacet
  facet normal 0.980784 0.195096 0
    outer loop
       vertex 0.191601 0.0326315 0
       vertex 0.185221 0.064705 0
       vertex 0.185221 0.064705 0.1
    endloop
  endfacet
  facet normal 0.980784 0.195096 0
    outer loop
       vertex 0.185221 0.064705 0.1
       vertex 0.191601 0.0326315 0.1
       vertex 0.191601 0.0326315 0
    endloop
  endfacet
  facet normal 0.946935 0.321425 0
    outer loop
       vertex 0.185221 0.064705 0
       vertex 0.17471 0.095671 0
       vertex 0.17471 0.095671 0.1
    endloop
  endfacet
  facet normal 0.946935 0.321425 0
    outer loop
       vertex 0.17471 0.095671 0.1
       vertex 0.185221 0.064705 0.1
       vertex 0.185221 0.064705 0
    endloop
  endfacet
  facet normal 0.896866 0.442302 0
    outer loop
       vertex 0.17471 0.095671 0
       vertex 0.160246 0.125 0
       vertex 0.160246 0.125 0.1
    endloop
  endfacet
  facet normal 0.896866 0.442302 0
    outer loop
       vertex 0.160246 0.125 0.1
       vertex 0.17471 0.095671 0.1
       vertex 0.17471 0.095671 0
    endloop
  endfacet
  facet normal 0.831476 0.555561 0
    outer loop
       vertex 0.160246 0.125 0
       vertex 0.142078 0.152191 0
       vertex 0.142078 0.152191 0.1
    endloop
  endfacet
  facet normal 0.831476 0.555561 0
    outer loop
       vertex 0.142078 0.152191 0.1
       vertex 0.160246 0.125 0.1
       vertex 0.160246 0.125 0
    endloop
  endfacet
  facet normal 0.751817 0.659372 0
    outer loop
       vertex 0.142078 0.152191 0
       vertex 0.120516 0.176776 0
       vertex 0.120516 0.176776 0.1
    endloop
  endfacet
  facet normal 0.751817 0.659372 0
    outer loop
       vertex 0.120516 0.176776 0.1
       vertex 0.142078 0.152191 0.1
       vertex 0.142078 0.152191 0
    endloop
  endfacet
  facet normal 0.659372 0.751817 0
    outer loop
       vertex 0.120516 0.176776 0
       vertex 0.095931 0.198338 0
       vertex 0.095931 0.198338 0.1
    endloop
  endfacet
  facet normal 0.659372 0.751817 0
    outer loop
       vertex 0.095931 0.198338 0.1
       vertex 0.120516 0.176776 0.1
       vertex 0.120516 0.176776 0
    endloop
  endfacet
  facet normal 0.555561 0.831476 0
    outer loop
       vertex 0.095931 0.198338 0
       vertex 0.06874 0.216506 0
       vertex 0.06874 0.216506 0.1
    endloop
  endfacet
  facet normal 0.555561 0.831476 0
    outer loop
       vertex 0.06874 0.216506 0.1
       vertex 0.095931 0.198338 0.1
       vertex 0.095931 0.198338 0
    endloop
  endfacet
  facet normal 0.442302 0.896866 0
    outer loop
       vertex 0.06874 0.216506 0
       vertex 0.039411 0.23097 0
       vertex 0.039411 0.23097 0.1
    endloop
  endfacet
  facet normal 0.442302 0.896866 0
    outer loop
       vertex 0.039411 0.23097 0.1
       vertex 0.06874 0.216506 0.1
       vertex 0.06874 0.216506 0
    endloop
  endfacet
  facet normal 0.321425 0.946935 0
    outer loop
       vertex 0.039411 0.23097 0
       vertex 0.00844503 0.241481 0
       vertex 0.00844503 0.241481 0.1
    endloop
  endfacet
  facet normal 0.321425 0.946935 0
    outer loop
       vertex 0.00844503 0.241481 0.1
       vertex 0.039411 0.23097 0.1
       vertex 0.039411 0.23097 0
    endloop
  endfacet
  facet normal 0.195096 0.980784 0
    outer loop
       vertex 0.00844503 0.241481 0
       vertex -0.0236285 0.247861 0
       vertex -0.0236285 0.247861 0.1
    endloop
  endfacet
  facet normal 0.195096 0.980784 0
    outer loop
       vertex -0.0236285 0.247861 0.1
       vertex 0.00844503 0.241481 0.1
       vertex 0.00844503 0.241481 0
    endloop
  endfacet
  facet normal 0.0654098 0.997858 0
    outer loop
       vertex -0.05626 0.25 0.1
       vertex -0.0236285 0.247861 0.1
       vertex -0.0236285 0.247861 0
    endloop
  endfacet
  facet normal 0.0654098 0.997858 -1.08928e-16
    outer loop
       vertex -0.0236285 0.247861 0
       vertex -0.05626 0.25 0
       vertex -0.05626 0.25 0.1
    endloop
  endfacet
  facet normal -0.0654098 0.997858 0
    outer loop
       vertex -0.05626 0.25 0
       vertex -0.0888915 0.247861 0
       vertex -0.0888915 0.247861 0.1
    endloop
  endfacet
  facet normal -0.0654098 0.997858 1.08928e-16
    outer loop
       vertex -0.0888915 0.247861 0.1
       vertex -0.05626 0.25 0.1
       vertex -0.05626 0.25 0
    endloop
  endfacet
  facet normal -0.195096 0.980784 0
    outer loop
       vertex -0.0888915 0.247861 0
       vertex -0.120965 0.241481 0
       vertex -0.120965 0.241481 0.1
    endloop
  endfacet
  facet normal -0.195096 0.980784 0
    outer loop
       vertex -0.120965 0.241481 0.1
       vertex -0.0888915 0.247861 0.1
       vertex -0.0888915 0.247861 0
    endloop
  endfacet
  facet normal -0.321425 0.946935 0
    outer loop
       vertex -0.120965 0.241481 0
       vertex -0.151931 0.23097 0
       vertex -0.151931 0.23097 0.1
    endloop
  endfacet
  facet normal -0.321425 0.946935 0
    outer loop
       vertex -0.151931 0.23097 0.1
       vertex -0.120965 0.241481 0.1
       vertex -0.120965 0.241481 0
    endloop
  endfacet
  facet normal -0.442302 0.896866 0
    outer loop
       vertex -0.151931 0.23097 0
       vertex -0.18126 0.216506 0
       vertex -0.18126 0.216506 0.1
    endloop
  endfacet
  facet normal -0.442302 0.896866 0
    outer loop
       vertex -0.18126 0.216506 0.1
       vertex -0.151931 0.23097 0.1
       vertex -0.151931 0.23097 0
    endloop
  endfacet
  facet normal -0.555561 0.831476 0
    outer loop
       vertex -0.18126 0.216506 0
       vertex -0.208451 0.198338 0
       vertex -0.208451 0.198338 0.1
    endloop
  endfacet
  facet normal -0.555561 0.831476 0
    outer loop
       vertex -0.208451 0.198338 0.1
       vertex -0.18126 0.216506 0.1
       vertex -0.18126 0.216506 0
    endloop
  endfacet
  facet normal -0.659372 0.751817 0
    outer loop
       vertex -0.208451 0.198338 0
       vertex -0.233036 0.176776 0
       vertex -0.233036 0.176776 0.1
    endloop
  endfacet
  facet normal -0.659372 0.751817 0
    outer loop
       vertex -0.233036 0.176776 0.1
       vertex -0.208451 0.198338 0.1
       vertex -0.208451 0.198338 0
    endloop
  endfacet
  facet normal -0.751817 0.659372 0
    outer loop
       vertex -0.233036 0.176776 0
       vertex -0.254598 0.152191 0
       vertex -0.254598 0.152191 0.1
    endloop
  endfacet
  facet normal -0.751817 0.659372 0
    outer loop
       vertex -0.254598 0.152191 0.1
       vertex -0.233036 0.176776 0.1
       vertex -0.233036 0.176776 0
    endloop
  endfacet
  facet normal -0.831476 0.555561 0
    outer loop
       vertex -0.254598 0.152191 0
       vertex -0.272766 0.125 0
       vertex -0.272766 0.125 0.1
    endloop
  endfacet
  facet normal -0.831476 0.555561 0
    outer loop
       vertex -0.272766 0.125 0.1
       vertex -0.254598 0.152191 0.1
       vertex -0.254598 0.152191 0
    endloop
  endfacet
  facet normal -0.896866 0.442302 0
    outer loop
       vertex -0.272766 0.125 0
       vertex -0.28723 0.095671 0
       vertex -0.28723 0.095671 0.1
    endloop
  endfacet
  facet normal -0.896866 0.442302 0
    outer loop
       vertex -0.28723 0.095671 0.1
       vertex -0.272766 0.125 0.1
       vertex -0.272766 0.125 0
    endloop
  endfacet
  facet normal -0.946935 0.321425 0
    outer loop
       vertex -0.28723 0.095671 0
       vertex -0.297741 0.064705 0
       vertex -0.297741 0.064705 0.1
    endloop
  endfacet
  facet normal -0.946935 0.321425 0
    outer loop
       vertex -0.297741 0.064705 0.1
       vertex -0.28723 0.095671 0.1
       vertex -0.28723 0.095671 0
    endloop
  endfacet
  facet normal -0.980784 0.195096 0
    outer loop
       vertex -0.297741 0.064705 0
       vertex -0.304121 0.0326315 0
       vertex -0.304121 0.0326315 0.1
    endloop
  endfacet
  facet normal -0.980784 0.195096 0
    outer loop
       vertex -0.304121 0.0326315 0.1
       vertex -0.297741 0.064705 0.1
       vertex -0.297741 0.064705 0
    endloop
  endfacet
  facet normal -0.997858 0.0654098 0
    outer loop
       vertex -0.30626 8.32665e-17 0.1
       vertex -0.304121 0.0326315 0.1
       vertex -0.304121 0.0326315 0
    endloop
  endfacet
  facet normal -0.997858 0.0654098 -1.08928e-16
    outer loop
       vertex -0.304121 0.0326315 0
       vertex -0.30626 -8.32665e-17 0
       vertex -0.30626 8.32665e-17 0.1
    endloop
  endfacet
  facet normal -0.997858 -0.0654098 0
    outer loop
       vertex -0.30626 -8.32665e-17 0
       vertex -0.304121 -0.0326315 0
       vertex -0.304121 -0.0326315 0.1
    endloop
  endfacet
  facet normal -0.997858 -0.0654098 1.08928e-16
    outer loop
       vertex -0.304121 -0.0326315 0.1
       vertex -0.30626 8.32665e-17 0.1
       vertex -0.30626 -8.32665e-17 0
    endloop
  endfacet
  facet normal -0.980784 -0.195096 0
    outer loop
       vertex -0.304121 -0.0326315 0
       vertex -0.297741 -0.064705 0
       vertex -0.297741 -0.064705 0.1
    endloop
  endfacet
  facet normal -0.980784 -0.195096 0
    outer loop
       vertex -0.297741 -0.064705 0.1
       vertex -0.304121 -0.0326315 0.1
       vertex -0.304121 -0.0326315 0
    endloop
  endfacet
  facet normal -0.946935 -0.321425 0
    outer loop
       vertex -0.297741 -0.064705 0
       vertex -0.28723 -0.095671 0
       vertex -0.28723 -0.095671 0.1
    endloop
  endfacet
  facet normal -0.946935 -0.321425 0
    outer loop
       vertex -0.28723 -0.095671 0.1
       vertex -0.297741 -0.064705 0.1
       vertex -0.297741 -0.064705 0
    endloop
  endfacet
  facet normal -0.896866 -0.442302 0
    outer loop
       vertex -0.28723 -0.095671 0
       vertex -0.272766 -0.125 0
       vertex -0.272766 -0.125 0.1
    endloop
  endfacet
  facet normal -0.896866 -0.442302 0
    outer loop
       vertex -0.272766 -0.125 0.1
       vertex -0.28723 -0.095671 0.1
       vertex -0.28723 -0.095671 0
    endloop
  endfacet
  facet normal -0.831476 -0.555561 0
    outer loop
       vertex -0.272766 -0.125 0
       vertex -0.254598 -0.152191 0
       vertex -0.254598 -0.152191 0.1
    endloop
  endfacet
  facet normal -0.831476 -0.555561 0
    outer loop
       vertex -0.254598 -0.152191 0.1
       vertex -0.272766 -0.125 0.1
       vertex -0.272766 -0.125 0
    endloop
  endfacet
  facet normal -0.751817 -0.659372 0
    outer loop
       vertex -0.254598 -0.152191 0
       vertex -0.233036 -0.176776 0
       vertex -0.233036 -0.176776 0.1
    endloop
  endfacet
  facet normal -0.751817 -0.659372 0
    outer loop
       vertex -0.233036 -0.176776 0.1
       vertex -0.254598 -0.152191 0.1
       vertex -0.254598 -0.152191 0
    endloop
  endfacet
  facet normal 0.659372 -0.751817 0
    outer loop
       vertex 0.120516 -0.176776 0
       vertex 0.120516 -0.176776 0.1
       vertex 0.095931 -0.198338 0.1
    endloop
  endfacet
  facet normal 0.659372 -0.751817 0
    outer loop
       vertex 0.095931 -0.198338 0.1
       vertex 0.095931 -0.198338 0
       vertex 0.120516 -0.176776 0
    endloop
  endfacet
  facet normal 0.555561 -0.831476 0
    outer loop
       vertex 0.095931 -0.198338 0
       vertex 0.095931 -0.198338 0.1
       vertex 0.06874 -0.216506 0.1
    endloop
  endfacet
  facet normal 0.555561 -0.831476 0
    outer loop
       vertex 0.06874 -0.216506 0.1
       vertex 0.06874 -0.216506 0
       vertex 0.095931 -0.198338 0
    endloop
  endfacet
  facet normal 0.442302 -0.896866 0
    outer loop
       vertex 0.06874 -0.216506 0
       vertex 0.06874 -0.216506 0.1
       vertex 0.039411 -0.23097 0.1
    endloop
  endfacet
  facet normal 0.442302 -0.896866 0
    outer loop
       vertex 0.039411 -0.23097 0.1
       vertex 0.039411 -0.23097 0
       vertex 0.06874 -0.216506 0
    endloop
  endfacet
  facet normal 0.321425 -0.946935 0
    outer loop
       vertex 0.039411 -0.23097 0
       vertex 0.039411 -0.23097 0.1
       vertex 0.00844503 -0.241481 0.1
    endloop
  endfacet
  facet normal 0.321425 -0.946935 0
    outer loop
       vertex 0.00844503 -0.241481 0.1
       vertex 0.00844503 -0.241481 0
       vertex 0.039411 -0.23097 0
    endloop
  endfacet
  facet normal 0.195096 -0.980784 0
    outer loop
       vertex 0.00844503 -0.241481 0
       vertex 0.00844503 -0.241481 0.1
       vertex -0.0236285 -0.247861 0.1
    endloop
  endfacet
  facet normal 0.195096 -0.980784 0
    outer loop
       vertex -0.0236285 -0.247861 0.1
       vertex -0.0236285 -0.247861 0
       vertex 0.00844503 -0.241481 0
    endloop
  endfacet
  facet normal 0.0654098 -0.997858 0
    outer loop
       vertex -0.05626 -0.25 0
       vertex -0.0236285 -0.247861 0
       vertex -0.0236285 -0.247861 0.1
    endloop
  endfacet
  facet normal 0.0654098 -0.997858 1.08928e-16
    outer loop
       vertex -0.0236285 -0.247861 0.1
       vertex -0.05626 -0.25 0.1
       vertex -0.05626 -0.25 0
    endloop
  endfacet
  facet normal -0.0654098 -0.997858 0
    outer loop
       vertex -0.05626 -0.25 0.1
       vertex -0.0888915 -0.247861 0.1
       vertex -0.0888915 -0.247861 0
    endloop
  endfacet
  facet normal -0.0654098 -0.997858 -1.08928e-16
    outer loop
       vertex -0.0888915 -0.247861 0
       vertex -0.05626 -0.25 0
       vertex -0.05626 -0.25 0.1
    endloop
  endfacet
  facet normal -0.195096 -0.980784 0
    outer loop
       vertex -0.0888915 -0.247861 0
       vertex -0.0888915 -0.247861 0.1
       vertex -0.120965 -0.241481 0.1
    endloop
  endfacet
  facet normal -0.195096 -0.980784 -0
    outer loop
       vertex -0.120965 -0.241481 0.1
       vertex -0.120965 -0.241481 0
       vertex -0.0888915 -0.247861 0
    endloop
  endfacet
  facet normal -0.321425 -0.946935 0
    outer loop
       vertex -0.120965 -0.241481 0
       vertex -0.120965 -0.241481 0.1
       vertex -0.151931 -0.23097 0.1
    endloop
  endfacet
  facet normal -0.321425 -0.946935 -0
    outer loop
       vertex -0.151931 -0.23097 0.1
       vertex -0.151931 -0.23097 0
       vertex -0.120965 -0.241481 0
    endloop
  endfacet
  facet normal -0.442302 -0.896866 0
    outer loop
       vertex -0.151931 -0.23097 0
       vertex -0.151931 -0.23097 0.1
       vertex -0.18126 -0.216506 0.1
    endloop
  endfacet
  facet normal -0.442302 -0.896866 -0
    outer loop
       vertex -0.18126 -0.216506 0.1
       vertex -0.18126 -0.216506 0
       vertex -0.151931 -0.23097 0
    endloop
  endfacet
  facet normal -0.555561 -0.831476 0
    outer loop
       vertex -0.18126 -0.216506 0
       vertex -0.18126 -0.216506 0.1
       vertex -0.208451 -0.198338 0.1
    endloop
  endfacet
  facet normal -0.555561 -0.831476 -0
    outer loop
       vertex -0.208451 -0.198338 0.1
       vertex -0.208451 -0.198338 0
       vertex -0.18126 -0.216506 0
    endloop
  endfacet
  facet normal -0.659372 -0.751817 0
    outer loop
       vertex -0.208451 -0.198338 0
       vertex -0.208451 -0.198338 0.1
       vertex -0.233036 -0.176776 0.1
    endloop
  endfacet
  facet normal -0.659372 -0.751817 -0
    outer loop
       vertex -0.233036 -0.176776 0.1
       vertex -0.233036 -0.176776 0
       vertex -0.208451 -0.198338 0
    endloop
  endfacet
endsolid cylinder
