solid cylinder
  facet normal 0.751817 -0.659372 0
    outer loop
       vertex -0.00694006 -0.176776 0
       vertex 0.0146219 -0.152191 0
       vertex 0.0146219 -0.152191 0.1
    endloop
  endfacet
  facet normal 0.751817 -0.659372 0
    outer loop
       vertex 0.0146219 -0.152191 0.1
       vertex -0.00694006 -0.176776 0.1
       vertex -0.00694006 -0.176776 0
    endloop
  endfacet
  facet normal 0.831476 -0.555561 0
    outer loop
       vertex 0.0146219 -0.152191 0
       vertex 0.0327899 -0.125 0
       vertex 0.0327899 -0.125 0.1
    endloop
  endfacet
  facet normal 0.831476 -0.555561 0
    outer loop
       vertex 0.0327899 -0.125 0.1
       vertex 0.0146219 -0.152191 0.1
       vertex 0.0146219 -0.152191 0
    endloop
  endfacet
  facet normal 0.896866 -0.442302 0
    outer loop
       vertex 0.0327899 -0.125 0
       vertex 0.0472539 -0.095671 0
       vertex 0.0472539 -0.095671 0.1
    endloop
  endfacet
  facet normal 0.896866 -0.442302 0
    outer loop
       vertex 0.0472539 -0.095671 0.1
       vertex 0.0327899 -0.125 0.1
       vertex 0.0327899 -0.125 0
    endloop
  endfacet
  facet normal 0.946935 -0.321425 0
    outer loop
       vertex 0.0472539 -0.095671 0
       vertex 0.0577649 -0.064705 0
       vertex 0.0577649 -0.064705 0.1
    endloop
  endfacet
  facet normal 0.946935 -0.321425 0
    outer loop
       vertex 0.0577649 -0.064705 0.1
       vertex 0.0472539 -0.095671 0.1
       vertex 0.0472539 -0.095671 0
    endloop
  endfacet
  facet normal 0.980784 -0.195096 0
    outer loop
       vertex 0.0577649 -0.064705 0
       vertex 0.0641449 -0.0326315 0
       vertex 0.0641449 -0.0326315 0.1
    endloop
  endfacet
  facet normal 0.980784 -0.195096 0
    outer loop
       vertex 0.0641449 -0.0326315 0.1
       vertex 0.0577649 -0.064705 0.1
       vertex 0.0577649 -0.064705 0
    endloop
  endfacet
  facet normal 0.997858 -0.0654098 0
    outer loop
       vertex 0.0662839 -8.32665e-17 0.1
       vertex 0.0641449 -0.0326315 0.1
       vertex 0.0641449 -0.0326315 0
    endloop
  endfacet
  facet normal 0.997858 -0.0654098 -1.08928e-16
    outer loop
       vertex 0.0641449 -0.0326315 0
       vertex 0.0662839 8.32665e-17 0
       vertex 0.0662839 -8.32665e-17 0.1
    endloop
  endfacet
  facet normal 0.997858 0.0654098 0
    outer loop
       vertex 0.0662839 8.32665e-17 0
       vertex 0.0641449 0.0326315 0
       vertex 0.0641449 0.0326315 0.1
    endloop
  endfacet
  facet normal 0.997858 0.0654098 1.08928e-16
    outer loop
       vertex 0.0641449 0.0326315 0.1
       vertex 0.0662839 -8.32665e-17 0.1
       vertex 0.0662839 8.32665e-17 0
    endloop
  endfacet
  facet normal 0.980784 0.195096 0
    outer loop
       vertex 0.0641449 0.0326315 0
       vertex 0.0577649 0.064705 0
       vertex 0.0577649 0.064705 0.1
    endloop
  endfacet
  facet normal 0.980784 0.195096 0
    outer loop
       vertex 0.0577649 0.064705 0.1
       vertex 0.0641449 0.0326315 0.1
       vertex 0.0641449 0.0326315 0
    endloop
  endfacet
  facet normal 0.946935 0.321425 0
    outer loop
       vertex 0.0577649 0.064705 0
       vertex 0.0472539 0.095671 0
       vertex 0.0472539 0.095671 0.1
    endloop
  endfacet
  facet normal 0.946935 0.321425 0
    outer loop
       vertex 0.0472539 0.095671 0.1
       vertex 0.0577649 0.064705 0.1
       vertex 0.0577649 0.064705 0
    endloop
  endfacet
  facet normal 0.896866 0.442302 0
    outer loop
       vertex 0.0472539 0.095671 0
       vertex 0.0327899 0.125 0
       vertex 0.0327899 0.125 0.1
    endloop
  endfacet
  facet normal 0.896866 0.442302 0
    outer loop
       vertex 0.0327899 0.125 0.1
       vertex 0.0472539 0.095671 0.1
       vertex 0.0472539 0.095671 0
    endloop
  endfacet
  facet normal 0.831476 0.555561 0
    outer loop
       vertex 0.0327899 0.125 0
       vertex 0.0146219 0.152191 0
       vertex 0.0146219 0.152191 0.1
    endloop
  endfacet
  facet normal 0.831476 0.555561 0
    outer loop
       vertex 0.0146219 0.152191 0.1
       vertex 0.0327899 0.125 0.1
       vertex 0.0327899 0.125 0
    endloop
  endfacet
  facet normal 0.751817 0.659372 0
    outer loop
       vertex 0.0146219 0.152191 0
       vertex -0.00694006 0.176776 0
       vertex -0.00694006 0.176776 0.1
    endloop
  endfacet
  facet normal 0.751817 0.659372 0
    outer loop
       vertex -0.00694006 0.176776 0.1
       vertex 0.0146219 0.152191 0.1
       vertex 0.0146219 0.152191 0
    endloop
  endfacet
  facet normal 0.659372 0.751817 0
    outer loop
       vertex -0.00694006 0.176776 0
       vertex -0.0315251 0.198338 0
       vertex -0.0315251 0.198338 0.1
    endloop
  endfacet
  facet normal 0.659372 0.751817 0
    outer loop
       vertex -0.0315251 0.198338 0.1
       vertex -0.00694006 0.176776 0.1
       vertex -0.00694006 0.176776 0
    endloop
  endfacet
  facet normal 0.555561 0.831476 0
    outer loop
       vertex -0.0315251 0.198338 0
       vertex -0.0587161 0.216506 0
       vertex -0.0587161 0.216506 0.1
    endloop
  endfacet
  facet normal 0.555561 0.831476 0
    outer loop
       vertex -0.0587161 0.216506 0.1
       vertex -0.0315251 0.198338 0.1
       vertex -0.0315251 0.198338 0
    endloop
  endfacet
  facet normal 0.442302 0.896866 0
    outer loop
       vertex -0.0587161 0.216506 0
       vertex -0.0880451 0.23097 0
       vertex -0.0880451 0.23097 0.1
    endloop
  endfacet
  facet normal 0.442302 0.896866 0
    outer loop
       vertex -0.0880451 0.23097 0.1
       vertex -0.0587161 0.216506 0.1
       vertex -0.0587161 0.216506 0
    endloop
  endfacet
  facet normal 0.321425 0.946935 0
    outer loop
       vertex -0.0880451 0.23097 0
       vertex -0.119011 0.241481 0
       vertex -0.119011 0.241481 0.1
    endloop
  endfacet
  facet normal 0.321425 0.946935 0
    outer loop
       vertex -0.119011 0.241481 0.1
       vertex -0.0880451 0.23097 0.1
       vertex -0.0880451 0.23097 0
    endloop
  endfacet
  facet normal 0.195096 0.980784 0
    outer loop
       vertex -0.119011 0.241481 0
       vertex -0.151085 0.247861 0
       vertex -0.151085 0.247861 0.1
    endloop
  endfacet
  facet normal 0.195096 0.980784 0
    outer loop
       vertex -0.151085 0.247861 0.1
       vertex -0.119011 0.241481 0.1
       vertex -0.119011 0.241481 0
    endloop
  endfacet
  facet normal 0.0654098 0.997858 0
    outer loop
       vertex -0.183716 0.25 0.1
       vertex -0.151085 0.247861 0.1
       vertex -0.151085 0.247861 0
    endloop
  endfacet
  facet normal 0.0654098 0.997858 -1.0893e-16
    outer loop
       vertex -0.151085 0.247861 0
       vertex -0.183716 0.25 0
       vertex -0.183716 0.25 0.1
    endloop
  endfacet
  facet normal -0.0654098 0.997858 0
    outer loop
       vertex -0.183716 0.25 0
       vertex -0.216348 0.247861 0
       vertex -0.216348 0.247861 0.1
    endloop
  endfacet
  facet normal -0.0654098 0.997858 1.0893e-16
    outer loop
       vertex -0.216348 0.247861 0.1
       vertex -0.183716 0.25 0.1
       vertex -0.183716 0.25 0
    endloop
  endfacet
  facet normal -0.195096 0.980784 0
    outer loop
       vertex -0.216348 0.247861 0
       vertex -0.248421 0.241481 0
       vertex -0.248421 0.241481 0.1
    endloop
  endfacet
  facet normal -0.195096 0.980784 0
    outer loop
       vertex -0.248421 0.241481 0.1
       vertex -0.216348 0.247861 0.1
       vertex -0.216348 0.247861 0
    endloop
  endfacet
  facet normal -0.321425 0.946935 0
    outer loop
       vertex -0.248421 0.241481 0
       vertex -0.279387 0.23097 0
       vertex -0.279387 0.23097 0.1
    endloop
  endfacet
  facet normal -0.321425 0.946935 0
    outer loop
       vertex -0.279387 0.23097 0.1
       vertex -0.248421 0.241481 0.1
       vertex -0.248421 0.241481 0
    endloop
  endfacet
  facet normal -0.442302 0.896866 0
    outer loop
       vertex -0.279387 0.23097 0
       vertex -0.308716 0.216506 0
       vertex -0.308716 0.216506 0.1
    endloop
  endfacet
  facet normal -0.442302 0.896866 0
    outer loop
       vertex -0.308716 0.216506 0.1
       vertex -0.279387 0.23097 0.1
       vertex -0.279387 0.23097 0
    endloop
  endfacet
  facet normal -0.555561 0.831476 0
    outer loop
       vertex -0.308716 0.216506 0
       vertex -0.335907 0.198338 0
       vertex -0.335907 0.198338 0.1
    endloop
  endfacet
  facet normal -0.555561 0.831476 0
    outer loop
       vertex -0.335907 0.198338 0.1
       vertex -0.308716 0.216506 0.1
       vertex -0.308716 0.216506 0
    endloop
  endfacet
  facet normal -0.659372 0.751817 0
    outer loop
       vertex -0.335907 0.198338 0
       vertex -0.360492 0.176776 0
       vertex -0.360492 0.176776 0.1
    endloop
  endfacet
  facet normal -0.659372 0.751817 0
    outer loop
       vertex -0.360492 0.176776 0.1
       vertex -0.335907 0.198338 0.1
       vertex -0.335907 0.198338 0
    endloop
  endfacet
  facet normal -0.751817 0.659372 0
    outer loop
       vertex -0.360492 0.176776 0
       vertex -0.382054 0.152191 0
       vertex -0.382054 0.152191 0.1
    endloop
  endfacet
  facet normal -0.751817 0.659372 0
    outer loop
       vertex -0.382054 0.152191 0.1
       vertex -0.360492 0.176776 0.1
       vertex -0.360492 0.176776 0
    endloop
  endfacet
  facet normal -0.831476 0.555561 0
    outer loop
       vertex -0.382054 0.152191 0
       vertex -0.400222 0.125 0
       vertex -0.400222 0.125 0.1
    endloop
  endfacet
  facet normal -0.831476 0.555561 0
    outer loop
       vertex -0.400222 0.125 0.1
       vertex -0.382054 0.152191 0.1
       vertex -0.382054 0.152191 0
    endloop
  endfacet
  facet normal -0.896866 0.442302 0
    outer loop
       vertex -0.400222 0.125 0
       vertex -0.414686 0.095671 0
       vertex -0.414686 0.095671 0.1
    endloop
  endfacet
  facet normal -0.896866 0.442302 0
    outer loop
       vertex -0.414686 0.095671 0.1
       vertex -0.400222 0.125 0.1
       vertex -0.400222 0.125 0
    endloop
  endfacet
  facet normal -0.946935 0.321425 0
    outer loop
       vertex -0.414686 0.095671 0
       vertex -0.425197 0.064705 0
       vertex -0.425197 0.064705 0.1
    endloop
  endfacet
  facet normal -0.946935 0.321425 0
    outer loop
       vertex -0.425197 0.064705 0.1
       vertex -0.414686 0.095671 0.1
       vertex -0.414686 0.095671 0
    endloop
  endfacet
  facet normal -0.980784 0.195096 0
    outer loop
       vertex -0.425197 0.064705 0
       vertex -0.431577 0.0326315 0
       vertex -0.431577 0.0326315 0.1
    endloop
  endfacet
  facet normal -0.980784 0.195096 0
    outer loop
       vertex -0.431577 0.0326315 0.1
       vertex -0.425197 0.064705 0.1
       vertex -0.425197 0.064705 0
    endloop
  endfacet
  facet normal -0.997858 0.0654098 0
    outer loop
       vertex -0.433716 8.32665e-17 0.1
       vertex -0.431577 0.0326315 0.1
       vertex -0.431577 0.0326315 0
    endloop
  endfacet
  facet normal -0.997858 0.0654098 -1.08928e-16
    outer loop
       vertex -0.431577 0.0326315 0
       vertex -0.433716 -8.32665e-17 0
       vertex -0.433716 8.32665e-17 0.1
    endloop
  endfacet
  facet normal -0.997858 -0.0654098 0
    outer loop
       vertex -0.433716 -8.32665e-17 0
       vertex -0.431577 -0.0326315 0
       vertex -0.431577 -0.0326315 0.1
    endloop
  endfacet
  facet normal -0.997858 -0.0654098 1.08928e-16
    outer loop
       vertex -0.431577 -0.0326315 0.1
       vertex -0.433716 8.32665e-17 0.1
       vertex -0.433716 -8.32665e-17 0
    endloop
  endfacet
  facet normal -0.980784 -0.195096 0
    outer loop
       vertex -0.431577 -0.0326315 0
       vertex -0.425197 -0.064705 0
       vertex -0.425197 -0.064705 0.1
    endloop
  endfacet
  facet normal -0.980784 -0.195096 0
    outer loop
       vertex -0.425197 -0.064705 0.1
       vertex -0.431577 -0.0326315 0.1
       vertex -0.431577 -0.0326315 0
    endloop
  endfacet
  facet normal -0.946935 -0.321425 0
    outer loop
       vertex -0.425197 -0.064705 0
       vertex -0.414686 -0.095671 0
       vertex -0.414686 -0.095671 0.1
    endloop
  endfacet
  facet normal -0.946935 -0.321425 0
    outer loop
       vertex -0.414686 -0.095671 0.1
       vertex -0.425197 -0.064705 0.1
       vertex -0.425197 -0.064705 0
    endloop
  endfacet
  facet normal -0.896866 -0.442302 0
    outer loop
       vertex -0.414686 -0.095671 0
       vertex -0.400222 -0.125 0
       vertex -0.400222 -0.125 0.1
    endloop
  endfacet
  facet normal -0.896866 -0.442302 0
    outer loop
       vertex -0.400222 -0.125 0.1
       vertex -0.414686 -0.095671 0.1
       vertex -0.414686 -0.095671 0
    endloop
  endfacet
  facet normal -0.831476 -0.555561 0
    outer loop
       vertex -0.400222 -0.125 0
       vertex -0.382054 -0.152191 0
       vertex -0.382054 -0.152191 0.1
    endloop
  endfacet
  facet normal -0.831476 -0.555561 0
    outer loop
       vertex -0.382054 -0.152191 0.1
       vertex -0.400222 -0.125 0.1
       vertex -0.400222 -0.125 0
    endloop
  endfacet
  facet normal -0.751817 -0.659372 0
    outer loop
       vertex -0.382054 -0.152191 0
       vertex -0.360492 -0.176776 0
       vertex -0.360492 -0.176776 0.1
    endloop
  endfacet
  facet normal -0.751817 -0.659372 0
    outer loop
       vertex -0.360492 -0.176776 0.1
       vertex -0.382054 -0.152191 0.1
       vertex -0.382054 -0.152191 0
    endloop
  endfacet
  facet normal 0.659372 -0.751817 0
    outer loop
       vertex -0.00694006 -0.176776 0
       vertex -0.00694006 -0.176776 0.1
       vertex -0.0315251 -0.198338 0.1
    endloop
  endfacet
  facet normal 0.659372 -0.751817 0
    outer loop
       vertex -0.0315251 -0.198338 0.1
       vertex -0.0315251 -0.198338 0
       vertex -0.00694006 -0.176776 0
    endloop
  endfacet
  facet normal 0.555561 -0.831476 0
    outer loop
       vertex -0.0315251 -0.198338 0
       vertex -0.0315251 -0.198338 0.1
       vertex -0.0587161 -0.216506 0.1
    endloop
  endfacet
  facet normal 0.555561 -0.831476 0
    outer loop
       vertex -0.0587161 -0.216506 0.1
       vertex -0.0587161 -0.216506 0
       vertex -0.0315251 -0.198338 0
    endloop
  endfacet
  facet normal 0.442302 -0.896866 0
    outer loop
       vertex -0.0587161 -0.216506 0
       vertex -0.0587161 -0.216506 0.1
       vertex -0.0880451 -0.23097 0.1
    endloop
  endfacet
  facet normal 0.442302 -0.896866 0
    outer loop
       vertex -0.0880451 -0.23097 0.1
       vertex -0.0880451 -0.23097 0
       vertex -0.0587161 -0.216506 0
    endloop
  endfacet
  facet normal 0.321425 -0.946935 0
    outer loop
       vertex -0.0880451 -0.23097 0
       vertex -0.0880451 -0.23097 0.1
       vertex -0.119011 -0.241481 0.1
    endloop
  endfacet
  facet normal 0.321425 -0.946935 0
    outer loop
       vertex -0.119011 -0.241481 0.1
       vertex -0.119011 -0.241481 0
       vertex -0.0880451 -0.23097 0
    endloop
  endfacet
  facet normal 0.195096 -0.980784 0
    outer loop
       vertex -0.119011 -0.241481 0
       vertex -0.119011 -0.241481 0.1
       vertex -0.151085 -0.247861 0.1
    endloop
  endfacet
  facet normal 0.195096 -0.980784 0
    outer loop
       vertex -0.151085 -0.247861 0.1
       vertex -0.151085 -0.247861 0
       vertex -0.119011 -0.241481 0
    endloop
  endfacet
  facet normal 0.0654098 -0.997858 0
    outer loop
       vertex -0.183716 -0.25 0
       vertex -0.151085 -0.247861 0
       vertex -0.151085 -0.247861 0.1
    endloop
  endfacet
  facet normal 0.0654098 -0.997858 1.0893e-16
    outer loop
       vertex -0.151085 -0.247861 0.1
       vertex -0.183716 -0.25 0.1
       vertex -0.183716 -0.25 0
    endloop
  endfacet
  facet normal -0.0654098 -0.997858 0
    outer loop
       vertex -0.183716 -0.25 0.1
       vertex -0.216348 -0.247861 0.1
       vertex -0.216348 -0.247861 0
    endloop
  endfacet
  facet normal -0.0654098 -0.997858 -1.0893e-16
    outer loop
       vertex -0.216348 -0.247861 0
       vertex -0.183716 -0.25 0
       vertex -0.183716 -0.25 0.1
    endloop
  endfacet
  facet normal -0.195096 -0.980784 0
    outer loop
       vertex -0.216348 -0.247861 0
       vertex -0.216348 -0.247861 0.1
       vertex -0.248421 -0.241481 0.1
    endloop
  endfacet
  facet normal -0.195096 -0.980784 -0
    outer loop
       vertex -0.248421 -0.241481 0.1
       vertex -0.248421 -0.241481 0
       vertex -0.216348 -0.247861 0
    endloop
  endfacet
  facet normal -0.321425 -0.946935 0
    outer loop
       vertex -0.248421 -0.241481 0
       vertex -0.248421 -0.241481 0.1
       vertex -0.279387 -0.23097 0.1
    endloop
  endfacet
  facet normal -0.321425 -0.946935 -0
    outer loop
       vertex -0.279387 -0.23097 0.1
       vertex -0.279387 -0.23097 0
       vertex -0.248421 -0.241481 0
    endloop
  endfacet
  facet normal -0.442302 -0.896866 0
    outer loop
       vertex -0.279387 -0.23097 0
       vertex -0.279387 -0.23097 0.1
       vertex -0.308716 -0.216506 0.1
    endloop
  endfacet
  facet normal -0.442302 -0.896866 -0
    outer loop
       vertex -0.308716 -0.216506 0.1
       vertex -0.308716 -0.216506 0
       vertex -0.279387 -0.23097 0
    endloop
  endfacet
  facet normal -0.555561 -0.831476 0
    outer loop
       vertex -0.308716 -0.216506 0
       vertex -0.308716 -0.216506 0.1
       vertex -0.335907 -0.198338 0.1
    endloop
  endfacet
  facet normal -0.555561 -0.831476 -0
    outer loop
       vertex -0.335907 -0.198338 0.1
       vertex -0.335907 -0.198338 0
       vertex -0.308716 -0.216506 0
    endloop
  endfacet
  facet normal -0.659372 -0.751817 0
    outer loop
       vertex -0.335907 -0.198338 0
       vertex -0.335907 -0.198338 0.1
       vertex -0.360492 -0.176776 0.1
    endloop
  endfacet
  facet normal -0.659372 -0.751817 -0
    outer loop
       vertex -0.360492 -0.176776 0.1
       vertex -0.360492 -0.176776 0
       vertex -0.335907 -0.198338 0
    endloop
  endfacet
endsolid cylinder
