solid cylinder
  facet normal 0.751817 -0.659372 0
    outer loop
       vertex 0.320114 -0.176776 0
       vertex 0.341676 -0.152191 0
       vertex 0.341676 -0.152191 0.1
    endloop
  endfacet
  facet normal 0.751817 -0.659372 0
    outer loop
       vertex 0.341676 -0.152191 0.1
       vertex 0.320114 -0.176776 0.1
       vertex 0.320114 -0.176776 0
    endloop
  endfacet
  facet normal 0.831476 -0.555561 0
    outer loop
       vertex 0.341676 -0.152191 0
       vertex 0.359844 -0.125 0
       vertex 0.359844 -0.125 0.1
    endloop
  endfacet
  facet normal 0.831476 -0.555561 0
    outer loop
       vertex 0.359844 -0.125 0.1
       vertex 0.341676 -0.152191 0.1
       vertex 0.341676 -0.152191 0
    endloop
  endfacet
  facet normal 0.896866 -0.442302 0
    outer loop
       vertex 0.359844 -0.125 0
       vertex 0.374308 -0.095671 0
       vertex 0.374308 -0.095671 0.1
    endloop
  endfacet
  facet normal 0.896866 -0.442302 0
    outer loop
       vertex 0.374308 -0.095671 0.1
       vertex 0.359844 -0.125 0.1
       vertex 0.359844 -0.125 0
    endloop
  endfacet
  facet normal 0.946935 -0.321425 0
    outer loop
       vertex 0.374308 -0.095671 0
       vertex 0.384819 -0.064705 0
       vertex 0.384819 -0.064705 0.1
    endloop
  endfacet
  facet normal 0.946935 -0.321425 0
    outer loop
       vertex 0.384819 -0.064705 0.1
       vertex 0.374308 -0.095671 0.1
       vertex 0.374308 -0.095671 0
    endloop
  endfacet
  facet normal 0.980784 -0.195096 0
    outer loop
       vertex 0.384819 -0.064705 0
       vertex 0.391199 -0.0326315 0
       vertex 0.391199 -0.0326315 0.1
    endloop
  endfacet
  facet normal 0.980784 -0.195096 0
    outer loop
       vertex 0.391199 -0.0326315 0.1
       vertex 0.384819 -0.064705 0.1
       vertex 0.384819 -0.064705 0
    endloop
  endfacet
  facet normal 0.997858 -0.0654098 0
    outer loop
       vertex 0.393338 -8.32665e-17 0.1
       vertex 0.391199 -0.0326315 0.1
       vertex 0.391199 -0.0326315 0
    endloop
  endfacet
  facet normal 0.997858 -0.0654098 -1.08928e-16
    outer loop
       vertex 0.391199 -0.0326315 0
       vertex 0.393338 8.32665e-17 0
       vertex 0.393338 -8.32665e-17 0.1
    endloop
  endfacet
  facet normal 0.997858 0.0654098 0
    outer loop
       vertex 0.393338 8.32665e-17 0
       vertex 0.391199 0.0326315 0
       vertex 0.391199 0.0326315 0.1
    endloop
  endfacet
  facet normal 0.997858 0.0654098 1.08928e-16
    outer loop
       vertex 0.391199 0.0326315 0.1
       vertex 0.393338 -8.32665e-17 0.1
       vertex 0.393338 8.32665e-17 0
    endloop
  endfacet
  facet normal 0.980784 0.195096 0
    outer loop
       vertex 0.391199 0.0326315 0
       vertex 0.384819 0.064705 0
       vertex 0.384819 0.064705 0.1
    endloop
  endfacet
  facet normal 0.980784 0.195096 0
    outer loop
       vertex 0.384819 0.064705 0.1
       vertex 0.391199 0.0326315 0.1
       vertex 0.391199 0.0326315 0
    endloop
  endfacet
  facet normal 0.946935 0.321425 0
    outer loop
       vertex 0.384819 0.064705 0
       vertex 0.374308 0.095671 0
       vertex 0.374308 0.095671 0.1
    endloop
  endfacet
  facet normal 0.946935 0.321425 0
    outer loop
       vertex 0.374308 0.095671 0.1
       vertex 0.384819 0.064705 0.1
       vertex 0.384819 0.064705 0
    endloop
  endfacet
  facet normal 0.896866 0.442302 0
    outer loop
       vertex 0.374308 0.095671 0
       vertex 0.359844 0.125 0
       vertex 0.359844 0.125 0.1
    endloop
  endfacet
  facet normal 0.896866 0.442302 0
    outer loop
       vertex 0.359844 0.125 0.1
       vertex 0.374308 0.095671 0.1
       vertex 0.374308 0.095671 0
    endloop
  endfacet
  facet normal 0.831476 0.555561 0
    outer loop
       vertex 0.359844 0.125 0
       vertex 0.341676 0.152191 0
       vertex 0.341676 0.152191 0.1
    endloop
  endfacet
  facet normal 0.831476 0.555561 0
    outer loop
       vertex 0.341676 0.152191 0.1
       vertex 0.359844 0.125 0.1
       vertex 0.359844 0.125 0
    endloop
  endfacet
  facet normal 0.751817 0.659372 0
    outer loop
       vertex 0.341676 0.152191 0
       vertex 0.320114 0.176776 0
       vertex 0.320114 0.176776 0.1
    endloop
  endfacet
  facet normal 0.751817 0.659372 0
    outer loop
       vertex 0.320114 0.176776 0.1
       vertex 0.341676 0.152191 0.1
       vertex 0.341676 0.152191 0
    endloop
  endfacet
  facet normal 0.659372 0.751817 0
    outer loop
       vertex 0.320114 0.176776 0
       vertex 0.295529 0.198338 0
       vertex 0.295529 0.198338 0.1
    endloop
  endfacet
  facet normal 0.659372 0.751817 0
    outer loop
       vertex 0.295529 0.198338 0.1
       vertex 0.320114 0.176776 0.1
       vertex 0.320114 0.176776 0
    endloop
  endfacet
  facet normal 0.555561 0.831476 0
    outer loop
       vertex 0.295529 0.198338 0
       vertex 0.268338 0.216506 0
       vertex 0.268338 0.216506 0.1
    endloop
  endfacet
  facet normal 0.555561 0.831476 0
    outer loop
       vertex 0.268338 0.216506 0.1
       vertex 0.295529 0.198338 0.1
       vertex 0.295529 0.198338 0
    endloop
  endfacet
  facet normal 0.442302 0.896866 0
    outer loop
       vertex 0.268338 0.216506 0
       vertex 0.239009 0.23097 0
       vertex 0.239009 0.23097 0.1
    endloop
  endfacet
  facet normal 0.442302 0.896866 0
    outer loop
       vertex 0.239009 0.23097 0.1
       vertex 0.268338 0.216506 0.1
       vertex 0.268338 0.216506 0
    endloop
  endfacet
  facet normal 0.321425 0.946935 0
    outer loop
       vertex 0.239009 0.23097 0
       vertex 0.208043 0.241481 0
       vertex 0.208043 0.241481 0.1
    endloop
  endfacet
  facet normal 0.321425 0.946935 0
    outer loop
       vertex 0.208043 0.241481 0.1
       vertex 0.239009 0.23097 0.1
       vertex 0.239009 0.23097 0
    endloop
  endfacet
  facet normal 0.195096 0.980784 0
    outer loop
       vertex 0.208043 0.241481 0
       vertex 0.175969 0.247861 0
       vertex 0.175969 0.247861 0.1
    endloop
  endfacet
  facet normal 0.195096 0.980784 0
    outer loop
       vertex 0.175969 0.247861 0.1
       vertex 0.208043 0.241481 0.1
       vertex 0.208043 0.241481 0
    endloop
  endfacet
  facet normal 0.0654098 0.997858 0
    outer loop
       vertex 0.143338 0.25 0.1
       vertex 0.175969 0.247861 0.1
       vertex 0.175969 0.247861 0
    endloop
  endfacet
  facet normal 0.0654098 0.997858 -1.0893e-16
    outer loop
       vertex 0.175969 0.247861 0
       vertex 0.143338 0.25 0
       vertex 0.143338 0.25 0.1
    endloop
  endfacet
  facet normal -0.0654098 0.997858 0
    outer loop
       vertex 0.143338 0.25 0
       vertex 0.110706 0.247861 0
       vertex 0.110706 0.247861 0.1
    endloop
  endfacet
  facet normal -0.0654098 0.997858 1.0893e-16
    outer loop
       vertex 0.110706 0.247861 0.1
       vertex 0.143338 0.25 0.1
       vertex 0.143338 0.25 0
    endloop
  endfacet
  facet normal -0.195096 0.980784 0
    outer loop
       vertex 0.110706 0.247861 0
       vertex 0.078633 0.241481 0
       vertex 0.078633 0.241481 0.1
    endloop
  endfacet
  facet normal -0.195096 0.980784 0
    outer loop
       vertex 0.078633 0.241481 0.1
       vertex 0.110706 0.247861 0.1
       vertex 0.110706 0.247861 0
    endloop
  endfacet
  facet normal -0.321425 0.946935 0
    outer loop
       vertex 0.078633 0.241481 0
       vertex 0.047667 0.23097 0
       vertex 0.047667 0.23097 0.1
    endloop
  endfacet
  facet normal -0.321425 0.946935 0
    outer loop
       vertex 0.047667 0.23097 0.1
       vertex 0.078633 0.241481 0.1
       vertex 0.078633 0.241481 0
    endloop
  endfacet
  facet normal -0.442302 0.896866 0
    outer loop
       vertex 0.047667 0.23097 0
       vertex 0.018338 0.216506 0
       vertex 0.018338 0.216506 0.1
    endloop
  endfacet
  facet normal -0.442302 0.896866 0
    outer loop
       vertex 0.018338 0.216506 0.1
       vertex 0.047667 0.23097 0.1
       vertex 0.047667 0.23097 0
    endloop
  endfacet
  facet normal -0.555561 0.831476 0
    outer loop
       vertex 0.018338 0.216506 0
       vertex -0.00885304 0.198338 0
       vertex -0.00885304 0.198338 0.1
    endloop
  endfacet
  facet normal -0.555561 0.831476 0
    outer loop
       vertex -0.00885304 0.198338 0.1
       vertex 0.018338 0.216506 0.1
       vertex 0.018338 0.216506 0
    endloop
  endfacet
  facet normal -0.659372 0.751817 0
    outer loop
       vertex -0.00885304 0.198338 0
       vertex -0.033438 0.176776 0
       vertex -0.033438 0.176776 0.1
    endloop
  endfacet
  facet normal -0.659372 0.751817 0
    outer loop
       vertex -0.033438 0.176776 0.1
       vertex -0.00885304 0.198338 0.1
       vertex -0.00885304 0.198338 0
    endloop
  endfacet
  facet normal -0.751817 0.659372 0
    outer loop
       vertex -0.033438 0.176776 0
       vertex -0.055 0.152191 0
       vertex -0.055 0.152191 0.1
    endloop
  endfacet
  facet normal -0.751817 0.659372 0
    outer loop
       vertex -0.055 0.152191 0.1
       vertex -0.033438 0.176776 0.1
       vertex -0.033438 0.176776 0
    endloop
  endfacet
  facet normal -0.831476 0.555561 0
    outer loop
       vertex -0.055 0.152191 0
       vertex -0.073168 0.125 0
       vertex -0.073168 0.125 0.1
    endloop
  endfacet
  facet normal -0.831476 0.555561 0
    outer loop
       vertex -0.073168 0.125 0.1
       vertex -0.055 0.152191 0.1
       vertex -0.055 0.152191 0
    endloop
  endfacet
  facet normal -0.896866 0.442302 0
    outer loop
       vertex -0.073168 0.125 0
       vertex -0.087632 0.095671 0
       vertex -0.087632 0.095671 0.1
    endloop
  endfacet
  facet normal -0.896866 0.442302 0
    outer loop
       vertex -0.087632 0.095671 0.1
       vertex -0.073168 0.125 0.1
       vertex -0.073168 0.125 0
    endloop
  endfacet
  facet normal -0.946935 0.321425 0
    outer loop
       vertex -0.087632 0.095671 0
       vertex -0.098143 0.064705 0
       vertex -0.098143 0.064705 0.1
    endloop
  endfacet
  facet normal -0.946935 0.321425 0
    outer loop
       vertex -0.098143 0.064705 0.1
       vertex -0.087632 0.095671 0.1
       vertex -0.087632 0.095671 0
    endloop
  endfacet
  facet normal -0.980784 0.195096 0
    outer loop
       vertex -0.098143 0.064705 0
       vertex -0.104523 0.0326315 0
       vertex -0.104523 0.0326315 0.1
    endloop
  endfacet
  facet normal -0.980784 0.195096 0
    outer loop
       vertex -0.104523 0.0326315 0.1
       vertex -0.098143 0.064705 0.1
       vertex -0.098143 0.064705 0
    endloop
  endfacet
  facet normal -0.997858 0.0654098 0
    outer loop
       vertex -0.106662 8.32665e-17 0.1
       vertex -0.104523 0.0326315 0.1
       vertex -0.104523 0.0326315 0
    endloop
  endfacet
  facet normal -0.997858 0.0654098 -1.08928e-16
    outer loop
       vertex -0.104523 0.0326315 0
       vertex -0.106662 -8.32665e-17 0
       vertex -0.106662 8.32665e-17 0.1
    endloop
  endfacet
  facet normal -0.997858 -0.0654098 0
    outer loop
       vertex -0.106662 -8.32665e-17 0
       vertex -0.104523 -0.0326315 0
       vertex -0.104523 -0.0326315 0.1
    endloop
  endfacet
  facet normal -0.997858 -0.0654098 1.08928e-16
    outer loop
       vertex -0.104523 -0.0326315 0.1
       vertex -0.106662 8.32665e-17 0.1
       vertex -0.106662 -8.32665e-17 0
    endloop
  endfacet
  facet normal -0.980784 -0.195096 0
    outer loop
       vertex -0.104523 -0.0326315 0
       vertex -0.098143 -0.064705 0
       vertex -0.098143 -0.064705 0.1
    endloop
  endfacet
  facet normal -0.980784 -0.195096 0
    outer loop
       vertex -0.098143 -0.064705 0.1
       vertex -0.104523 -0.0326315 0.1
       vertex -0.104523 -0.0326315 0
    endloop
  endfacet
  facet normal -0.946935 -0.321425 0
    outer loop
       vertex -0.098143 -0.064705 0
       vertex -0.087632 -0.095671 0
       vertex -0.087632 -0.095671 0.1
    endloop
  endfacet
  facet normal -0.946935 -0.321425 0
    outer loop
       vertex -0.087632 -0.095671 0.1
       vertex -0.098143 -0.064705 0.1
       vertex -0.098143 -0.064705 0
    endloop
  endfacet
  facet normal -0.896866 -0.442302 0
    outer loop
       vertex -0.087632 -0.095671 0
       vertex -0.073168 -0.125 0
       vertex -0.073168 -0.125 0.1
    endloop
  endfacet
  facet normal -0.896866 -0.442302 0
    outer loop
       vertex -0.073168 -0.125 0.1
       vertex -0.087632 -0.095671 0.1
       vertex -0.087632 -0.095671 0
    endloop
  endfacet
  facet normal -0.831476 -0.555561 0
    outer loop
       vertex -0.073168 -0.125 0
       vertex -0.055 -0.152191 0
       vertex -0.055 -0.152191 0.1
    endloop
  endfacet
  facet normal -0.831476 -0.555561 0
    outer loop
       vertex -0.055 -0.152191 0.1
       vertex -0.073168 -0.125 0.1
       vertex -0.073168 -0.125 0
    endloop
  endfacet
  facet normal -0.751817 -0.659372 0
    outer loop
       vertex -0.055 -0.152191 0
       vertex -0.033438 -0.176776 0
       vertex -0.033438 -0.176776 0.1
    endloop
  endfacet
  facet normal -0.751817 -0.659372 0
    outer loop
       vertex -0.033438 -0.176776 0.1
       vertex -0.055 -0.152191 0.1
       vertex -0.055 -0.152191 0
    endloop
  endfacet
  facet normal 0.659372 -0.751817 0
    outer loop
       vertex 0.320114 -0.176776 0
       vertex 0.320114 -0.176776 0.1
       vertex 0.295529 -0.198338 0.1
    endloop
  endfacet
  facet normal 0.659372 -0.751817 0
    outer loop
       vertex 0.295529 -0.198338 0.1
       vertex 0.295529 -0.198338 0
       vertex 0.320114 -0.176776 0
    endloop
  endfacet
  facet normal 0.555561 -0.831476 0
    outer loop
       vertex 0.295529 -0.198338 0
       vertex 0.295529 -0.198338 0.1
       vertex 0.268338 -0.216506 0.1
    endloop
  endfacet
  facet normal 0.555561 -0.831476 0
    outer loop
       vertex 0.268338 -0.216506 0.1
       vertex 0.268338 -0.216506 0
       vertex 0.295529 -0.198338 0
    endloop
  endfacet
  facet normal 0.442302 -0.896866 0
    outer loop
       vertex 0.268338 -0.216506 0
       vertex 0.268338 -0.216506 0.1
       vertex 0.239009 -0.23097 0.1
    endloop
  endfacet
  facet normal 0.442302 -0.896866 0
    outer loop
       vertex 0.239009 -0.23097 0.1
       vertex 0.239009 -0.23097 0
       vertex 0.268338 -0.216506 0
    endloop
  endfacet
  facet normal 0.321425 -0.946935 0
    outer loop
       vertex 0.239009 -0.23097 0
       vertex 0.239009 -0.23097 0.1
       vertex 0.208043 -0.241481 0.1
    endloop
  endfacet
  facet normal 0.321425 -0.946935 0
    outer loop
       vertex 0.208043 -0.241481 0.1
       vertex 0.208043 -0.241481 0
       vertex 0.239009 -0.23097 0
    endloop
  endfacet
  facet normal 0.195096 -0.980784 0
    outer loop
       vertex 0.208043 -0.241481 0
       vertex 0.208043 -0.241481 0.1
       vertex 0.175969 -0.247861 0.1
    endloop
  endfacet
  facet normal 0.195096 -0.980784 0
    outer loop
       vertex 0.175969 -0.247861 0.1
       vertex 0.175969 -0.247861 0
       vertex 0.208043 -0.241481 0
    endloop
  endfacet
  facet normal 0.0654098 -0.997858 0
    outer loop
       vertex 0.143338 -0.25 0
       vertex 0.175969 -0.247861 0
       vertex 0.175969 -0.247861 0.1
    endloop
  endfacet
  facet normal 0.0654098 -0.997858 1.0893e-16
    outer loop
       vertex 0.175969 -0.247861 0.1
       vertex 0.143338 -0.25 0.1
       vertex 0.143338 -0.25 0
    endloop
  endfacet
  facet normal -0.0654098 -0.997858 0
    outer loop
       vertex 0.143338 -0.25 0.1
       vertex 0.110706 -0.247861 0.1
       vertex 0.110706 -0.247861 0
    endloop
  endfacet
  facet normal -0.0654098 -0.997858 -1.0893e-16
    outer loop
       vertex 0.110706 -0.247861 0
       vertex 0.143338 -0.25 0
       vertex 0.143338 -0.25 0.1
    endloop
  endfacet
  facet normal -0.195096 -0.980784 0
    outer loop
       vertex 0.110706 -0.247861 0
       vertex 0.110706 -0.247861 0.1
       vertex 0.078633 -0.241481 0.1
    endloop
  endfacet
  facet normal -0.195096 -0.980784 -0
    outer loop
       vertex 0.078633 -0.241481 0.1
       vertex 0.078633 -0.241481 0
       vertex 0.110706 -0.247861 0
    endloop
  endfacet
  facet normal -0.321425 -0.946935 0
    outer loop
       vertex 0.078633 -0.241481 0
       vertex 0.078633 -0.241481 0.1
       vertex 0.047667 -0.23097 0.1
    endloop
  endfacet
  facet normal -0.321425 -0.946935 -0
    outer loop
       vertex 0.047667 -0.23097 0.1
       vertex 0.047667 -0.23097 0
       vertex 0.078633 -0.241481 0
    endloop
  endfacet
  facet normal -0.442302 -0.896866 0
    outer loop
       vertex 0.047667 -0.23097 0
       vertex 0.047667 -0.23097 0.1
       vertex 0.018338 -0.216506 0.1
    endloop
  endfacet
  facet normal -0.442302 -0.896866 -0
    outer loop
       vertex 0.018338 -0.216506 0.1
       vertex 0.018338 -0.216506 0
       vertex 0.047667 -0.23097 0
    endloop
  endfacet
  facet normal -0.555561 -0.831476 0
    outer loop
       vertex 0.018338 -0.216506 0
       vertex 0.018338 -0.216506 0.1
       vertex -0.00885304 -0.198338 0.1
    endloop
  endfacet
  facet normal -0.555561 -0.831476 -0
    outer loop
       vertex -0.00885304 -0.198338 0.1
       vertex -0.00885304 -0.198338 0
       vertex 0.018338 -0.216506 0
    endloop
  endfacet
  facet normal -0.659372 -0.751817 0
    outer loop
       vertex -0.00885304 -0.198338 0
       vertex -0.00885304 -0.198338 0.1
       vertex -0.033438 -0.176776 0.1
    endloop
  endfacet
  facet normal -0.659372 -0.751817 -0
    outer loop
       vertex -0.033438 -0.176776 0.1
       vertex -0.033438 -0.176776 0
       vertex -0.00885304 -0.198338 0
    endloop
  endfacet
endsolid cylinder
