solid cylinder
  facet normal 0.751817 -0.659372 0
    outer loop
       vertex 0.437849 -0.176776 0
       vertex 0.459411 -0.152191 0
       vertex 0.459411 -0.152191 0.1
    endloop
  endfacet
  facet normal 0.751817 -0.659372 0
    outer loop
       vertex 0.459411 -0.152191 0.1
       vertex 0.437849 -0.176776 0.1
       vertex 0.437849 -0.176776 0
    endloop
  endfacet
  facet normal 0.831476 -0.555561 0
    outer loop
       vertex 0.459411 -0.152191 0
       vertex 0.477579 -0.125 0
       vertex 0.477579 -0.125 0.1
    endloop
  endfacet
  facet normal 0.831476 -0.555561 0
    outer loop
       vertex 0.477579 -0.125 0.1
       vertex 0.459411 -0.152191 0.1
       vertex 0.459411 -0.152191 0
    endloop
  endfacet
  facet normal 0.896866 -0.442302 0
    outer loop
       vertex 0.477579 -0.125 0
       vertex 0.492043 -0.095671 0
       vertex 0.492043 -0.095671 0.1
    endloop
  endfacet
  facet normal 0.896866 -0.442302 0
    outer loop
       vertex 0.492043 -0.095671 0.1
       vertex 0.477579 -0.125 0.1
       vertex 0.477579 -0.125 0
    endloop
  endfacet
  facet normal 0.946935 -0.321425 0
    outer loop
       vertex 0.492043 -0.095671 0
       vertex 0.502554 -0.064705 0
       vertex 0.502554 -0.064705 0.1
    endloop
  endfacet
  facet normal 0.946935 -0.321425 0
    outer loop
       vertex 0.502554 -0.064705 0.1
       vertex 0.492043 -0.095671 0.1
       vertex 0.492043 -0.095671 0
    endloop
  endfacet
  facet normal 0.980784 -0.195096 0
    outer loop
       vertex 0.502554 -0.064705 0
       vertex 0.508934 -0.0326315 0
       vertex 0.508934 -0.0326315 0.1
    endloop
  endfacet
  facet normal 0.980784 -0.195096 0
    outer loop
       vertex 0.508934 -0.0326315 0.1
       vertex 0.502554 -0.064705 0.1
       vertex 0.502554 -0.064705 0
    endloop
  endfacet
  facet normal 0.997858 -0.0654098 0
    outer loop
       vertex 0.511073 -8.32665e-17 0.1
       vertex 0.508934 -0.0326315 0.1
       vertex 0.508934 -0.0326315 0
    endloop
  endfacet
  facet normal 0.997858 -0.0654098 -1.08928e-16
    outer loop
       vertex 0.508934 -0.0326315 0
       vertex 0.511073 8.32665e-17 0
       vertex 0.511073 -8.32665e-17 0.1
    endloop
  endfacet
  facet normal 0.997858 0.0654098 0
    outer loop
       vertex 0.511073 8.32665e-17 0
       vertex 0.508934 0.0326315 0
       vertex 0.508934 0.0326315 0.1
    endloop
  endfacet
  facet normal 0.997858 0.0654098 1.08928e-16
    outer loop
       vertex 0.508934 0.0326315 0.1
       vertex 0.511073 -8.32665e-17 0.1
       vertex 0.511073 8.32665e-17 0
    endloop
  endfacet
  facet normal 0.980784 0.195096 0
    outer loop
       vertex 0.508934 0.0326315 0
       vertex 0.502554 0.064705 0
       vertex 0.502554 0.064705 0.1
    endloop
  endfacet
  facet normal 0.980784 0.195096 0
    outer loop
       vertex 0.502554 0.064705 0.1
       vertex 0.508934 0.0326315 0.1
       vertex 0.508934 0.0326315 0
    endloop
  endfacet
  facet normal 0.946935 0.321425 0
    outer loop
       vertex 0.502554 0.064705 0
       vertex 0.492043 0.095671 0
       vertex 0.492043 0.095671 0.1
    endloop
  endfacet
  facet normal 0.946935 0.321425 0
    outer loop
       vertex 0.492043 0.095671 0.1
       vertex 0.502554 0.064705 0.1
       vertex 0.502554 0.064705 0
    endloop
  endfacet
  facet normal 0.896866 0.442302 0
    outer loop
       vertex 0.492043 0.095671 0
       vertex 0.477579 0.125 0
       vertex 0.477579 0.125 0.1
    endloop
  endfacet
  facet normal 0.896866 0.442302 0
    outer loop
       vertex 0.477579 0.125 0.1
       vertex 0.492043 0.095671 0.1
       vertex 0.492043 0.095671 0
    endloop
  endfacet
  facet normal 0.831476 0.555561 0
    outer loop
       vertex 0.477579 0.125 0
       vertex 0.459411 0.152191 0
       vertex 0.459411 0.152191 0.1
    endloop
  endfacet
  facet normal 0.831476 0.555561 0
    outer loop
       vertex 0.459411 0.152191 0.1
       vertex 0.477579 0.125 0.1
       vertex 0.477579 0.125 0
    endloop
  endfacet
  facet normal 0.751817 0.659372 0
    outer loop
       vertex 0.459411 0.152191 0
       vertex 0.437849 0.176776 0
       vertex 0.437849 0.176776 0.1
    endloop
  endfacet
  facet normal 0.751817 0.659372 0
    outer loop
       vertex 0.437849 0.176776 0.1
       vertex 0.459411 0.152191 0.1
       vertex 0.459411 0.152191 0
    endloop
  endfacet
  facet normal 0.659372 0.751817 0
    outer loop
       vertex 0.437849 0.176776 0
       vertex 0.413264 0.198338 0
       vertex 0.413264 0.198338 0.1
    endloop
  endfacet
  facet normal 0.659372 0.751817 0
    outer loop
       vertex 0.413264 0.198338 0.1
       vertex 0.437849 0.176776 0.1
       vertex 0.437849 0.176776 0
    endloop
  endfacet
  facet normal 0.555561 0.831476 0
    outer loop
       vertex 0.413264 0.198338 0
       vertex 0.386073 0.216506 0
       vertex 0.386073 0.216506 0.1
    endloop
  endfacet
  facet normal 0.555561 0.831476 0
    outer loop
       vertex 0.386073 0.216506 0.1
       vertex 0.413264 0.198338 0.1
       vertex 0.413264 0.198338 0
    endloop
  endfacet
  facet normal 0.442302 0.896866 0
    outer loop
       vertex 0.386073 0.216506 0
       vertex 0.356744 0.23097 0
       vertex 0.356744 0.23097 0.1
    endloop
  endfacet
  facet normal 0.442302 0.896866 0
    outer loop
       vertex 0.356744 0.23097 0.1
       vertex 0.386073 0.216506 0.1
       vertex 0.386073 0.216506 0
    endloop
  endfacet
  facet normal 0.321425 0.946935 0
    outer loop
       vertex 0.356744 0.23097 0
       vertex 0.325778 0.241481 0
       vertex 0.325778 0.241481 0.1
    endloop
  endfacet
  facet normal 0.321425 0.946935 0
    outer loop
       vertex 0.325778 0.241481 0.1
       vertex 0.356744 0.23097 0.1
       vertex 0.356744 0.23097 0
    endloop
  endfacet
  facet normal 0.195096 0.980784 0
    outer loop
       vertex 0.325778 0.241481 0
       vertex 0.293705 0.247861 0
       vertex 0.293705 0.247861 0.1
    endloop
  endfacet
  facet normal 0.195096 0.980784 0
    outer loop
       vertex 0.293705 0.247861 0.1
       vertex 0.325778 0.241481 0.1
       vertex 0.325778 0.241481 0
    endloop
  endfacet
  facet normal 0.0654098 0.997858 0
    outer loop
       vertex 0.261073 0.25 0.1
       vertex 0.293705 0.247861 0.1
       vertex 0.293705 0.247861 0
    endloop
  endfacet
  facet normal 0.0654098 0.997858 -1.45239e-16
    outer loop
       vertex 0.293705 0.247861 0
       vertex 0.261073 0.25 0
       vertex 0.261073 0.25 0.1
    endloop
  endfacet
  facet normal -0.0654098 0.997858 0
    outer loop
       vertex 0.261073 0.25 0
       vertex 0.228442 0.247861 0
       vertex 0.228442 0.247861 0.1
    endloop
  endfacet
  facet normal -0.0654098 0.997858 1.45239e-16
    outer loop
       vertex 0.228442 0.247861 0.1
       vertex 0.261073 0.25 0.1
       vertex 0.261073 0.25 0
    endloop
  endfacet
  facet normal -0.195096 0.980784 0
    outer loop
       vertex 0.228442 0.247861 0
       vertex 0.196368 0.241481 0
       vertex 0.196368 0.241481 0.1
    endloop
  endfacet
  facet normal -0.195096 0.980784 0
    outer loop
       vertex 0.196368 0.241481 0.1
       vertex 0.228442 0.247861 0.1
       vertex 0.228442 0.247861 0
    endloop
  endfacet
  facet normal -0.321425 0.946935 0
    outer loop
       vertex 0.196368 0.241481 0
       vertex 0.165402 0.23097 0
       vertex 0.165402 0.23097 0.1
    endloop
  endfacet
  facet normal -0.321425 0.946935 0
    outer loop
       vertex 0.165402 0.23097 0.1
       vertex 0.196368 0.241481 0.1
       vertex 0.196368 0.241481 0
    endloop
  endfacet
  facet normal -0.442302 0.896866 0
    outer loop
       vertex 0.165402 0.23097 0
       vertex 0.136073 0.216506 0
       vertex 0.136073 0.216506 0.1
    endloop
  endfacet
  facet normal -0.442302 0.896866 0
    outer loop
       vertex 0.136073 0.216506 0.1
       vertex 0.165402 0.23097 0.1
       vertex 0.165402 0.23097 0
    endloop
  endfacet
  facet normal -0.555561 0.831476 0
    outer loop
       vertex 0.136073 0.216506 0
       vertex 0.108882 0.198338 0
       vertex 0.108882 0.198338 0.1
    endloop
  endfacet
  facet normal -0.555561 0.831476 0
    outer loop
       vertex 0.108882 0.198338 0.1
       vertex 0.136073 0.216506 0.1
       vertex 0.136073 0.216506 0
    endloop
  endfacet
  facet normal -0.659372 0.751817 0
    outer loop
       vertex 0.108882 0.198338 0
       vertex 0.0842971 0.176776 0
       vertex 0.0842971 0.176776 0.1
    endloop
  endfacet
  facet normal -0.659372 0.751817 0
    outer loop
       vertex 0.0842971 0.176776 0.1
       vertex 0.108882 0.198338 0.1
       vertex 0.108882 0.198338 0
    endloop
  endfacet
  facet normal -0.751817 0.659372 0
    outer loop
       vertex 0.0842971 0.176776 0
       vertex 0.0627351 0.152191 0
       vertex 0.0627351 0.152191 0.1
    endloop
  endfacet
  facet normal -0.751817 0.659372 0
    outer loop
       vertex 0.0627351 0.152191 0.1
       vertex 0.0842971 0.176776 0.1
       vertex 0.0842971 0.176776 0
    endloop
  endfacet
  facet normal -0.831476 0.555561 0
    outer loop
       vertex 0.0627351 0.152191 0
       vertex 0.0445671 0.125 0
       vertex 0.0445671 0.125 0.1
    endloop
  endfacet
  facet normal -0.831476 0.555561 0
    outer loop
       vertex 0.0445671 0.125 0.1
       vertex 0.0627351 0.152191 0.1
       vertex 0.0627351 0.152191 0
    endloop
  endfacet
  facet normal -0.896866 0.442302 0
    outer loop
       vertex 0.0445671 0.125 0
       vertex 0.0301031 0.095671 0
       vertex 0.0301031 0.095671 0.1
    endloop
  endfacet
  facet normal -0.896866 0.442302 0
    outer loop
       vertex 0.0301031 0.095671 0.1
       vertex 0.0445671 0.125 0.1
       vertex 0.0445671 0.125 0
    endloop
  endfacet
  facet normal -0.946935 0.321425 0
    outer loop
       vertex 0.0301031 0.095671 0
       vertex 0.0195921 0.064705 0
       vertex 0.0195921 0.064705 0.1
    endloop
  endfacet
  facet normal -0.946935 0.321425 0
    outer loop
       vertex 0.0195921 0.064705 0.1
       vertex 0.0301031 0.095671 0.1
       vertex 0.0301031 0.095671 0
    endloop
  endfacet
  facet normal -0.980784 0.195096 0
    outer loop
       vertex 0.0195921 0.064705 0
       vertex 0.0132121 0.0326315 0
       vertex 0.0132121 0.0326315 0.1
    endloop
  endfacet
  facet normal -0.980784 0.195096 0
    outer loop
       vertex 0.0132121 0.0326315 0.1
       vertex 0.0195921 0.064705 0.1
       vertex 0.0195921 0.064705 0
    endloop
  endfacet
  facet normal -0.997858 0.0654098 0
    outer loop
       vertex 0.0110731 8.32665e-17 0.1
       vertex 0.0132121 0.0326315 0.1
       vertex 0.0132121 0.0326315 0
    endloop
  endfacet
  facet normal -0.997858 0.0654098 -1.08928e-16
    outer loop
       vertex 0.0132121 0.0326315 0
       vertex 0.0110731 -8.32665e-17 0
       vertex 0.0110731 8.32665e-17 0.1
    endloop
  endfacet
  facet normal -0.997858 -0.0654098 0
    outer loop
       vertex 0.0110731 -8.32665e-17 0
       vertex 0.0132121 -0.0326315 0
       vertex 0.0132121 -0.0326315 0.1
    endloop
  endfacet
  facet normal -0.997858 -0.0654098 1.08928e-16
    outer loop
       vertex 0.0132121 -0.0326315 0.1
       vertex 0.0110731 8.32665e-17 0.1
       vertex 0.0110731 -8.32665e-17 0
    endloop
  endfacet
  facet normal -0.980784 -0.195096 0
    outer loop
       vertex 0.0132121 -0.0326315 0
       vertex 0.0195921 -0.064705 0
       vertex 0.0195921 -0.064705 0.1
    endloop
  endfacet
  facet normal -0.980784 -0.195096 0
    outer loop
       vertex 0.0195921 -0.064705 0.1
       vertex 0.0132121 -0.0326315 0.1
       vertex 0.0132121 -0.0326315 0
    endloop
  endfacet
  facet normal -0.946935 -0.321425 0
    outer loop
       vertex 0.0195921 -0.064705 0
       vertex 0.0301031 -0.095671 0
       vertex 0.0301031 -0.095671 0.1
    endloop
  endfacet
  facet normal -0.946935 -0.321425 0
    outer loop
       vertex 0.0301031 -0.095671 0.1
       vertex 0.0195921 -0.064705 0.1
       vertex 0.0195921 -0.064705 0
    endloop
  endfacet
  facet normal -0.896866 -0.442302 0
    outer loop
       vertex 0.0301031 -0.095671 0
       vertex 0.0445671 -0.125 0
       vertex 0.0445671 -0.125 0.1
    endloop
  endfacet
  facet normal -0.896866 -0.442302 0
    outer loop
       vertex 0.0445671 -0.125 0.1
       vertex 0.0301031 -0.095671 0.1
       vertex 0.0301031 -0.095671 0
    endloop
  endfacet
  facet normal -0.831476 -0.555561 0
    outer loop
       vertex 0.0445671 -0.125 0
       vertex 0.0627351 -0.152191 0
       vertex 0.0627351 -0.152191 0.1
    endloop
  endfacet
  facet normal -0.831476 -0.555561 0
    outer loop
       vertex 0.0627351 -0.152191 0.1
       vertex 0.0445671 -0.125 0.1
       vertex 0.0445671 -0.125 0
    endloop
  endfacet
  facet normal -0.751817 -0.659372 0
    outer loop
       vertex 0.0627351 -0.152191 0
       vertex 0.0842971 -0.176776 0
       vertex 0.0842971 -0.176776 0.1
    endloop
  endfacet
  facet normal -0.751817 -0.659372 0
    outer loop
       vertex 0.0842971 -0.176776 0.1
       vertex 0.0627351 -0.152191 0.1
       vertex 0.0627351 -0.152191 0
    endloop
  endfacet
  facet normal 0.659372 -0.751817 0
    outer loop
       vertex 0.437849 -0.176776 0
       vertex 0.437849 -0.176776 0.1
       vertex 0.413264 -0.198338 0.1
    endloop
  endfacet
  facet normal 0.659372 -0.751817 0
    outer loop
       vertex 0.413264 -0.198338 0.1
       vertex 0.413264 -0.198338 0
       vertex 0.437849 -0.176776 0
    endloop
  endfacet
  facet normal 0.555561 -0.831476 0
    outer loop
       vertex 0.413264 -0.198338 0
       vertex 0.413264 -0.198338 0.1
       vertex 0.386073 -0.216506 0.1
    endloop
  endfacet
  facet normal 0.555561 -0.831476 0
    outer loop
       vertex 0.386073 -0.216506 0.1
       vertex 0.386073 -0.216506 0
       vertex 0.413264 -0.198338 0
    endloop
  endfacet
  facet normal 0.442302 -0.896866 0
    outer loop
       vertex 0.386073 -0.216506 0
       vertex 0.386073 -0.216506 0.1
       vertex 0.356744 -0.23097 0.1
    endloop
  endfacet
  facet normal 0.442302 -0.896866 0
    outer loop
       vertex 0.356744 -0.23097 0.1
       vertex 0.356744 -0.23097 0
       vertex 0.386073 -0.216506 0
    endloop
  endfacet
  facet normal 0.321425 -0.946935 0
    outer loop
       vertex 0.356744 -0.23097 0
       vertex 0.356744 -0.23097 0.1
       vertex 0.325778 -0.241481 0.1
    endloop
  endfacet
  facet normal 0.321425 -0.946935 0
    outer loop
       vertex 0.325778 -0.241481 0.1
       vertex 0.325778 -0.241481 0
       vertex 0.356744 -0.23097 0
    endloop
  endfacet
  facet normal 0.195096 -0.980784 0
    outer loop
       vertex 0.325778 -0.241481 0
       vertex 0.325778 -0.241481 0.1
       vertex 0.293705 -0.247861 0.1
    endloop
  endfacet
  facet normal 0.195096 -0.980784 0
    outer loop
       vertex 0.293705 -0.247861 0.1
       vertex 0.293705 -0.247861 0
       vertex 0.325778 -0.241481 0
    endloop
  endfacet
  facet normal 0.0654098 -0.997858 0
    outer loop
       vertex 0.261073 -0.25 0
       vertex 0.293705 -0.247861 0
       vertex 0.293705 -0.247861 0.1
    endloop
  endfacet
  facet normal 0.0654098 -0.997858 1.45239e-16
    outer loop
       vertex 0.293705 -0.247861 0.1
       vertex 0.261073 -0.25 0.1
       vertex 0.261073 -0.25 0
    endloop
  endfacet
  facet normal -0.0654098 -0.997858 0
    outer loop
       vertex 0.261073 -0.25 0.1
       vertex 0.228442 -0.247861 0.1
       vertex 0.228442 -0.247861 0
    endloop
  endfacet
  facet normal -0.0654098 -0.997858 -1.45239e-16
    outer loop
       vertex 0.228442 -0.247861 0
       vertex 0.261073 -0.25 0
       vertex 0.261073 -0.25 0.1
    endloop
  endfacet
  facet normal -0.195096 -0.980784 0
    outer loop
       vertex 0.228442 -0.247861 0
       vertex 0.228442 -0.247861 0.1
       vertex 0.196368 -0.241481 0.1
    endloop
  endfacet
  facet normal -0.195096 -0.980784 -0
    outer loop
       vertex 0.196368 -0.241481 0.1
       vertex 0.196368 -0.241481 0
       vertex 0.228442 -0.247861 0
    endloop
  endfacet
  facet normal -0.321425 -0.946935 0
    outer loop
       vertex 0.196368 -0.241481 0
       vertex 0.196368 -0.241481 0.1
       vertex 0.165402 -0.23097 0.1
    endloop
  endfacet
  facet normal -0.321425 -0.946935 -0
    outer loop
       vertex 0.165402 -0.23097 0.1
       vertex 0.165402 -0.23097 0
       vertex 0.196368 -0.241481 0
    endloop
  endfacet
  facet normal -0.442302 -0.896866 0
    outer loop
       vertex 0.165402 -0.23097 0
       vertex 0.165402 -0.23097 0.1
       vertex 0.136073 -0.216506 0.1
    endloop
  endfacet
  facet normal -0.442302 -0.896866 -0
    outer loop
       vertex 0.136073 -0.216506 0.1
       vertex 0.136073 -0.216506 0
       vertex 0.165402 -0.23097 0
    endloop
  endfacet
  facet normal -0.555561 -0.831476 0
    outer loop
       vertex 0.136073 -0.216506 0
       vertex 0.136073 -0.216506 0.1
       vertex 0.108882 -0.198338 0.1
    endloop
  endfacet
  facet normal -0.555561 -0.831476 -0
    outer loop
       vertex 0.108882 -0.198338 0.1
       vertex 0.108882 -0.198338 0
       vertex 0.136073 -0.216506 0
    endloop
  endfacet
  facet normal -0.659372 -0.751817 0
    outer loop
       vertex 0.108882 -0.198338 0
       vertex 0.108882 -0.198338 0.1
       vertex 0.0842971 -0.176776 0.1
    endloop
  endfacet
  facet normal -0.659372 -0.751817 -0
    outer loop
       vertex 0.0842971 -0.176776 0.1
       vertex 0.0842971 -0.176776 0
       vertex 0.108882 -0.198338 0
    endloop
  endfacet
endsolid cylinder
