solid cylinder
  facet normal 0.751817 -0.659372 0
    outer loop
       vertex 0.39385 -0.176776 0
       vertex 0.415412 -0.152191 0
       vertex 0.415412 -0.152191 0.1
    endloop
  endfacet
  facet normal 0.751817 -0.659372 0
    outer loop
       vertex 0.415412 -0.152191 0.1
       vertex 0.39385 -0.176776 0.1
       vertex 0.39385 -0.176776 0
    endloop
  endfacet
  facet normal 0.831476 -0.555561 0
    outer loop
       vertex 0.415412 -0.152191 0
       vertex 0.43358 -0.125 0
       vertex 0.43358 -0.125 0.1
    endloop
  endfacet
  facet normal 0.831476 -0.555561 0
    outer loop
       vertex 0.43358 -0.125 0.1
       vertex 0.415412 -0.152191 0.1
       vertex 0.415412 -0.152191 0
    endloop
  endfacet
  facet normal 0.896866 -0.442302 0
    outer loop
       vertex 0.43358 -0.125 0
       vertex 0.448044 -0.095671 0
       vertex 0.448044 -0.095671 0.1
    endloop
  endfacet
  facet normal 0.896866 -0.442302 0
    outer loop
       vertex 0.448044 -0.095671 0.1
       vertex 0.43358 -0.125 0.1
       vertex 0.43358 -0.125 0
    endloop
  endfacet
  facet normal 0.946935 -0.321425 0
    outer loop
       vertex 0.448044 -0.095671 0
       vertex 0.458555 -0.064705 0
       vertex 0.458555 -0.064705 0.1
    endloop
  endfacet
  facet normal 0.946935 -0.321425 0
    outer loop
       vertex 0.458555 -0.064705 0.1
       vertex 0.448044 -0.095671 0.1
       vertex 0.448044 -0.095671 0
    endloop
  endfacet
  facet normal 0.980784 -0.195096 0
    outer loop
       vertex 0.458555 -0.064705 0
       vertex 0.464935 -0.0326315 0
       vertex 0.464935 -0.0326315 0.1
    endloop
  endfacet
  facet normal 0.980784 -0.195096 0
    outer loop
       vertex 0.464935 -0.0326315 0.1
       vertex 0.458555 -0.064705 0.1
       vertex 0.458555 -0.064705 0
    endloop
  endfacet
  facet normal 0.997858 -0.0654098 0
    outer loop
       vertex 0.467074 -8.32665e-17 0.1
       vertex 0.464935 -0.0326315 0.1
       vertex 0.464935 -0.0326315 0
    endloop
  endfacet
  facet normal 0.997858 -0.0654098 -1.08928e-16
    outer loop
       vertex 0.464935 -0.0326315 0
       vertex 0.467074 8.32665e-17 0
       vertex 0.467074 -8.32665e-17 0.1
    endloop
  endfacet
  facet normal 0.997858 0.0654098 0
    outer loop
       vertex 0.467074 8.32665e-17 0
       vertex 0.464935 0.0326315 0
       vertex 0.464935 0.0326315 0.1
    endloop
  endfacet
  facet normal 0.997858 0.0654098 1.08928e-16
    outer loop
       vertex 0.464935 0.0326315 0.1
       vertex 0.467074 -8.32665e-17 0.1
       vertex 0.467074 8.32665e-17 0
    endloop
  endfacet
  facet normal 0.980784 0.195096 0
    outer loop
       vertex 0.464935 0.0326315 0
       vertex 0.458555 0.064705 0
       vertex 0.458555 0.064705 0.1
    endloop
  endfacet
  facet normal 0.980784 0.195096 0
    outer loop
       vertex 0.458555 0.064705 0.1
       vertex 0.464935 0.0326315 0.1
       vertex 0.464935 0.0326315 0
    endloop
  endfacet
  facet normal 0.946935 0.321425 0
    outer loop
       vertex 0.458555 0.064705 0
       vertex 0.448044 0.095671 0
       vertex 0.448044 0.095671 0.1
    endloop
  endfacet
  facet normal 0.946935 0.321425 0
    outer loop
       vertex 0.448044 0.095671 0.1
       vertex 0.458555 0.064705 0.1
       vertex 0.458555 0.064705 0
    endloop
  endfacet
  facet normal 0.896866 0.442302 0
    outer loop
       vertex 0.448044 0.095671 0
       vertex 0.43358 0.125 0
       vertex 0.43358 0.125 0.1
    endloop
  endfacet
  facet normal 0.896866 0.442302 0
    outer loop
       vertex 0.43358 0.125 0.1
       vertex 0.448044 0.095671 0.1
       vertex 0.448044 0.095671 0
    endloop
  endfacet
  facet normal 0.831476 0.555561 0
    outer loop
       vertex 0.43358 0.125 0
       vertex 0.415412 0.152191 0
       vertex 0.415412 0.152191 0.1
    endloop
  endfacet
  facet normal 0.831476 0.555561 0
    outer loop
       vertex 0.415412 0.152191 0.1
       vertex 0.43358 0.125 0.1
       vertex 0.43358 0.125 0
    endloop
  endfacet
  facet normal 0.751817 0.659372 0
    outer loop
       vertex 0.415412 0.152191 0
       vertex 0.39385 0.176776 0
       vertex 0.39385 0.176776 0.1
    endloop
  endfacet
  facet normal 0.751817 0.659372 0
    outer loop
       vertex 0.39385 0.176776 0.1
       vertex 0.415412 0.152191 0.1
       vertex 0.415412 0.152191 0
    endloop
  endfacet
  facet normal 0.659372 0.751817 0
    outer loop
       vertex 0.39385 0.176776 0
       vertex 0.369265 0.198338 0
       vertex 0.369265 0.198338 0.1
    endloop
  endfacet
  facet normal 0.659372 0.751817 0
    outer loop
       vertex 0.369265 0.198338 0.1
       vertex 0.39385 0.176776 0.1
       vertex 0.39385 0.176776 0
    endloop
  endfacet
  facet normal 0.555561 0.831476 0
    outer loop
       vertex 0.369265 0.198338 0
       vertex 0.342074 0.216506 0
       vertex 0.342074 0.216506 0.1
    endloop
  endfacet
  facet normal 0.555561 0.831476 0
    outer loop
       vertex 0.342074 0.216506 0.1
       vertex 0.369265 0.198338 0.1
       vertex 0.369265 0.198338 0
    endloop
  endfacet
  facet normal 0.442302 0.896866 0
    outer loop
       vertex 0.342074 0.216506 0
       vertex 0.312745 0.23097 0
       vertex 0.312745 0.23097 0.1
    endloop
  endfacet
  facet normal 0.442302 0.896866 0
    outer loop
       vertex 0.312745 0.23097 0.1
       vertex 0.342074 0.216506 0.1
       vertex 0.342074 0.216506 0
    endloop
  endfacet
  facet normal 0.321425 0.946935 0
    outer loop
       vertex 0.312745 0.23097 0
       vertex 0.281779 0.241481 0
       vertex 0.281779 0.241481 0.1
    endloop
  endfacet
  facet normal 0.321425 0.946935 0
    outer loop
       vertex 0.281779 0.241481 0.1
       vertex 0.312745 0.23097 0.1
       vertex 0.312745 0.23097 0
    endloop
  endfacet
  facet normal 0.195096 0.980784 0
    outer loop
       vertex 0.281779 0.241481 0
       vertex 0.249706 0.247861 0
       vertex 0.249706 0.247861 0.1
    endloop
  endfacet
  facet normal 0.195096 0.980784 0
    outer loop
       vertex 0.249706 0.247861 0.1
       vertex 0.281779 0.241481 0.1
       vertex 0.281779 0.241481 0
    endloop
  endfacet
  facet normal 0.0654098 0.997858 0
    outer loop
       vertex 0.217074 0.25 0.1
       vertex 0.249706 0.247861 0.1
       vertex 0.249706 0.247861 0
    endloop
  endfacet
  facet normal 0.0654098 0.997858 -1.0893e-16
    outer loop
       vertex 0.249706 0.247861 0
       vertex 0.217074 0.25 0
       vertex 0.217074 0.25 0.1
    endloop
  endfacet
  facet normal -0.0654098 0.997858 0
    outer loop
       vertex 0.217074 0.25 0
       vertex 0.184443 0.247861 0
       vertex 0.184443 0.247861 0.1
    endloop
  endfacet
  facet normal -0.0654098 0.997858 1.0893e-16
    outer loop
       vertex 0.184443 0.247861 0.1
       vertex 0.217074 0.25 0.1
       vertex 0.217074 0.25 0
    endloop
  endfacet
  facet normal -0.195096 0.980784 0
    outer loop
       vertex 0.184443 0.247861 0
       vertex 0.152369 0.241481 0
       vertex 0.152369 0.241481 0.1
    endloop
  endfacet
  facet normal -0.195096 0.980784 0
    outer loop
       vertex 0.152369 0.241481 0.1
       vertex 0.184443 0.247861 0.1
       vertex 0.184443 0.247861 0
    endloop
  endfacet
  facet normal -0.321425 0.946935 0
    outer loop
       vertex 0.152369 0.241481 0
       vertex 0.121403 0.23097 0
       vertex 0.121403 0.23097 0.1
    endloop
  endfacet
  facet normal -0.321425 0.946935 0
    outer loop
       vertex 0.121403 0.23097 0.1
       vertex 0.152369 0.241481 0.1
       vertex 0.152369 0.241481 0
    endloop
  endfacet
  facet normal -0.442302 0.896866 0
    outer loop
       vertex 0.121403 0.23097 0
       vertex 0.0920744 0.216506 0
       vertex 0.0920744 0.216506 0.1
    endloop
  endfacet
  facet normal -0.442302 0.896866 0
    outer loop
       vertex 0.0920744 0.216506 0.1
       vertex 0.121403 0.23097 0.1
       vertex 0.121403 0.23097 0
    endloop
  endfacet
  facet normal -0.555561 0.831476 0
    outer loop
       vertex 0.0920744 0.216506 0
       vertex 0.0648834 0.198338 0
       vertex 0.0648834 0.198338 0.1
    endloop
  endfacet
  facet normal -0.555561 0.831476 0
    outer loop
       vertex 0.0648834 0.198338 0.1
       vertex 0.0920744 0.216506 0.1
       vertex 0.0920744 0.216506 0
    endloop
  endfacet
  facet normal -0.659372 0.751817 0
    outer loop
       vertex 0.0648834 0.198338 0
       vertex 0.0402984 0.176776 0
       vertex 0.0402984 0.176776 0.1
    endloop
  endfacet
  facet normal -0.659372 0.751817 0
    outer loop
       vertex 0.0402984 0.176776 0.1
       vertex 0.0648834 0.198338 0.1
       vertex 0.0648834 0.198338 0
    endloop
  endfacet
  facet normal -0.751817 0.659372 0
    outer loop
       vertex 0.0402984 0.176776 0
       vertex 0.0187364 0.152191 0
       vertex 0.0187364 0.152191 0.1
    endloop
  endfacet
  facet normal -0.751817 0.659372 0
    outer loop
       vertex 0.0187364 0.152191 0.1
       vertex 0.0402984 0.176776 0.1
       vertex 0.0402984 0.176776 0
    endloop
  endfacet
  facet normal -0.831476 0.555561 0
    outer loop
       vertex 0.0187364 0.152191 0
       vertex 0.00056838 0.125 0
       vertex 0.00056838 0.125 0.1
    endloop
  endfacet
  facet normal -0.831476 0.555561 0
    outer loop
       vertex 0.00056838 0.125 0.1
       vertex 0.0187364 0.152191 0.1
       vertex 0.0187364 0.152191 0
    endloop
  endfacet
  facet normal -0.896866 0.442302 0
    outer loop
       vertex 0.00056838 0.125 0
       vertex -0.0138956 0.095671 0
       vertex -0.0138956 0.095671 0.1
    endloop
  endfacet
  facet normal -0.896866 0.442302 0
    outer loop
       vertex -0.0138956 0.095671 0.1
       vertex 0.00056838 0.125 0.1
       vertex 0.00056838 0.125 0
    endloop
  endfacet
  facet normal -0.946935 0.321425 0
    outer loop
       vertex -0.0138956 0.095671 0
       vertex -0.0244066 0.064705 0
       vertex -0.0244066 0.064705 0.1
    endloop
  endfacet
  facet normal -0.946935 0.321425 0
    outer loop
       vertex -0.0244066 0.064705 0.1
       vertex -0.0138956 0.095671 0.1
       vertex -0.0138956 0.095671 0
    endloop
  endfacet
  facet normal -0.980784 0.195096 0
    outer loop
       vertex -0.0244066 0.064705 0
       vertex -0.0307866 0.0326315 0
       vertex -0.0307866 0.0326315 0.1
    endloop
  endfacet
  facet normal -0.980784 0.195096 0
    outer loop
       vertex -0.0307866 0.0326315 0.1
       vertex -0.0244066 0.064705 0.1
       vertex -0.0244066 0.064705 0
    endloop
  endfacet
  facet normal -0.997858 0.0654098 0
    outer loop
       vertex -0.0329256 8.32665e-17 0.1
       vertex -0.0307866 0.0326315 0.1
       vertex -0.0307866 0.0326315 0
    endloop
  endfacet
  facet normal -0.997858 0.0654098 -1.08928e-16
    outer loop
       vertex -0.0307866 0.0326315 0
       vertex -0.0329256 -8.32665e-17 0
       vertex -0.0329256 8.32665e-17 0.1
    endloop
  endfacet
  facet normal -0.997858 -0.0654098 0
    outer loop
       vertex -0.0329256 -8.32665e-17 0
       vertex -0.0307866 -0.0326315 0
       vertex -0.0307866 -0.0326315 0.1
    endloop
  endfacet
  facet normal -0.997858 -0.0654098 1.08928e-16
    outer loop
       vertex -0.0307866 -0.0326315 0.1
       vertex -0.0329256 8.32665e-17 0.1
       vertex -0.0329256 -8.32665e-17 0
    endloop
  endfacet
  facet normal -0.980784 -0.195096 0
    outer loop
       vertex -0.0307866 -0.0326315 0
       vertex -0.0244066 -0.064705 0
       vertex -0.0244066 -0.064705 0.1
    endloop
  endfacet
  facet normal -0.980784 -0.195096 0
    outer loop
       vertex -0.0244066 -0.064705 0.1
       vertex -0.0307866 -0.0326315 0.1
       vertex -0.0307866 -0.0326315 0
    endloop
  endfacet
  facet normal -0.946935 -0.321425 0
    outer loop
       vertex -0.0244066 -0.064705 0
       vertex -0.0138956 -0.095671 0
       vertex -0.0138956 -0.095671 0.1
    endloop
  endfacet
  facet normal -0.946935 -0.321425 0
    outer loop
       vertex -0.0138956 -0.095671 0.1
       vertex -0.0244066 -0.064705 0.1
       vertex -0.0244066 -0.064705 0
    endloop
  endfacet
  facet normal -0.896866 -0.442302 0
    outer loop
       vertex -0.0138956 -0.095671 0
       vertex 0.00056838 -0.125 0
       vertex 0.00056838 -0.125 0.1
    endloop
  endfacet
  facet normal -0.896866 -0.442302 0
    outer loop
       vertex 0.00056838 -0.125 0.1
       vertex -0.0138956 -0.095671 0.1
       vertex -0.0138956 -0.095671 0
    endloop
  endfacet
  facet normal -0.831476 -0.555561 0
    outer loop
       vertex 0.00056838 -0.125 0
       vertex 0.0187364 -0.152191 0
       vertex 0.0187364 -0.152191 0.1
    endloop
  endfacet
  facet normal -0.831476 -0.555561 0
    outer loop
       vertex 0.0187364 -0.152191 0.1
       vertex 0.00056838 -0.125 0.1
       vertex 0.00056838 -0.125 0
    endloop
  endfacet
  facet normal -0.751817 -0.659372 0
    outer loop
       vertex 0.0187364 -0.152191 0
       vertex 0.0402984 -0.176776 0
       vertex 0.0402984 -0.176776 0.1
    endloop
  endfacet
  facet normal -0.751817 -0.659372 0
    outer loop
       vertex 0.0402984 -0.176776 0.1
       vertex 0.0187364 -0.152191 0.1
       vertex 0.0187364 -0.152191 0
    endloop
  endfacet
  facet normal 0.659372 -0.751817 0
    outer loop
       vertex 0.39385 -0.176776 0
       vertex 0.39385 -0.176776 0.1
       vertex 0.369265 -0.198338 0.1
    endloop
  endfacet
  facet normal 0.659372 -0.751817 0
    outer loop
       vertex 0.369265 -0.198338 0.1
       vertex 0.369265 -0.198338 0
       vertex 0.39385 -0.176776 0
    endloop
  endfacet
  facet normal 0.555561 -0.831476 0
    outer loop
       vertex 0.369265 -0.198338 0
       vertex 0.369265 -0.198338 0.1
       vertex 0.342074 -0.216506 0.1
    endloop
  endfacet
  facet normal 0.555561 -0.831476 0
    outer loop
       vertex 0.342074 -0.216506 0.1
       vertex 0.342074 -0.216506 0
       vertex 0.369265 -0.198338 0
    endloop
  endfacet
  facet normal 0.442302 -0.896866 0
    outer loop
       vertex 0.342074 -0.216506 0
       vertex 0.342074 -0.216506 0.1
       vertex 0.312745 -0.23097 0.1
    endloop
  endfacet
  facet normal 0.442302 -0.896866 0
    outer loop
       vertex 0.312745 -0.23097 0.1
       vertex 0.312745 -0.23097 0
       vertex 0.342074 -0.216506 0
    endloop
  endfacet
  facet normal 0.321425 -0.946935 0
    outer loop
       vertex 0.312745 -0.23097 0
       vertex 0.312745 -0.23097 0.1
       vertex 0.281779 -0.241481 0.1
    endloop
  endfacet
  facet normal 0.321425 -0.946935 0
    outer loop
       vertex 0.281779 -0.241481 0.1
       vertex 0.281779 -0.241481 0
       vertex 0.312745 -0.23097 0
    endloop
  endfacet
  facet normal 0.195096 -0.980784 0
    outer loop
       vertex 0.281779 -0.241481 0
       vertex 0.281779 -0.241481 0.1
       vertex 0.249706 -0.247861 0.1
    endloop
  endfacet
  facet normal 0.195096 -0.980784 0
    outer loop
       vertex 0.249706 -0.247861 0.1
       vertex 0.249706 -0.247861 0
       vertex 0.281779 -0.241481 0
    endloop
  endfacet
  facet normal 0.0654098 -0.997858 0
    outer loop
       vertex 0.217074 -0.25 0
       vertex 0.249706 -0.247861 0
       vertex 0.249706 -0.247861 0.1
    endloop
  endfacet
  facet normal 0.0654098 -0.997858 1.0893e-16
    outer loop
       vertex 0.249706 -0.247861 0.1
       vertex 0.217074 -0.25 0.1
       vertex 0.217074 -0.25 0
    endloop
  endfacet
  facet normal -0.0654098 -0.997858 0
    outer loop
       vertex 0.217074 -0.25 0.1
       vertex 0.184443 -0.247861 0.1
       vertex 0.184443 -0.247861 0
    endloop
  endfacet
  facet normal -0.0654098 -0.997858 -1.0893e-16
    outer loop
       vertex 0.184443 -0.247861 0
       vertex 0.217074 -0.25 0
       vertex 0.217074 -0.25 0.1
    endloop
  endfacet
  facet normal -0.195096 -0.980784 0
    outer loop
       vertex 0.184443 -0.247861 0
       vertex 0.184443 -0.247861 0.1
       vertex 0.152369 -0.241481 0.1
    endloop
  endfacet
  facet normal -0.195096 -0.980784 -0
    outer loop
       vertex 0.152369 -0.241481 0.1
       vertex 0.152369 -0.241481 0
       vertex 0.184443 -0.247861 0
    endloop
  endfacet
  facet normal -0.321425 -0.946935 0
    outer loop
       vertex 0.152369 -0.241481 0
       vertex 0.152369 -0.241481 0.1
       vertex 0.121403 -0.23097 0.1
    endloop
  endfacet
  facet normal -0.321425 -0.946935 -0
    outer loop
       vertex 0.121403 -0.23097 0.1
       vertex 0.121403 -0.23097 0
       vertex 0.152369 -0.241481 0
    endloop
  endfacet
  facet normal -0.442302 -0.896866 0
    outer loop
       vertex 0.121403 -0.23097 0
       vertex 0.121403 -0.23097 0.1
       vertex 0.0920744 -0.216506 0.1
    endloop
  endfacet
  facet normal -0.442302 -0.896866 -0
    outer loop
       vertex 0.0920744 -0.216506 0.1
       vertex 0.0920744 -0.216506 0
       vertex 0.121403 -0.23097 0
    endloop
  endfacet
  facet normal -0.555561 -0.831476 0
    outer loop
       vertex 0.0920744 -0.216506 0
       vertex 0.0920744 -0.216506 0.1
       vertex 0.0648834 -0.198338 0.1
    endloop
  endfacet
  facet normal -0.555561 -0.831476 -0
    outer loop
       vertex 0.0648834 -0.198338 0.1
       vertex 0.0648834 -0.198338 0
       vertex 0.0920744 -0.216506 0
    endloop
  endfacet
  facet normal -0.659372 -0.751817 0
    outer loop
       vertex 0.0648834 -0.198338 0
       vertex 0.0648834 -0.198338 0.1
       vertex 0.0402984 -0.176776 0.1
    endloop
  endfacet
  facet normal -0.659372 -0.751817 -0
    outer loop
       vertex 0.0402984 -0.176776 0.1
       vertex 0.0402984 -0.176776 0
       vertex 0.0648834 -0.198338 0
    endloop
  endfacet
endsolid cylinder
