solid cylinder
  facet normal 0.751817 -0.659372 0
    outer loop
       vertex 0.175318 -0.176776 0
       vertex 0.19688 -0.152191 0
       vertex 0.19688 -0.152191 0.1
    endloop
  endfacet
  facet normal 0.751817 -0.659372 0
    outer loop
       vertex 0.19688 -0.152191 0.1
       vertex 0.175318 -0.176776 0.1
       vertex 0.175318 -0.176776 0
    endloop
  endfacet
  facet normal 0.831476 -0.555561 0
    outer loop
       vertex 0.19688 -0.152191 0
       vertex 0.215048 -0.125 0
       vertex 0.215048 -0.125 0.1
    endloop
  endfacet
  facet normal 0.831476 -0.555561 0
    outer loop
       vertex 0.215048 -0.125 0.1
       vertex 0.19688 -0.152191 0.1
       vertex 0.19688 -0.152191 0
    endloop
  endfacet
  facet normal 0.896866 -0.442302 0
    outer loop
       vertex 0.215048 -0.125 0
       vertex 0.229512 -0.095671 0
       vertex 0.229512 -0.095671 0.1
    endloop
  endfacet
  facet normal 0.896866 -0.442302 0
    outer loop
       vertex 0.229512 -0.095671 0.1
       vertex 0.215048 -0.125 0.1
       vertex 0.215048 -0.125 0
    endloop
  endfacet
  facet normal 0.946935 -0.321425 0
    outer loop
       vertex 0.229512 -0.095671 0
       vertex 0.240023 -0.064705 0
       vertex 0.240023 -0.064705 0.1
    endloop
  endfacet
  facet normal 0.946935 -0.321425 0
    outer loop
       vertex 0.240023 -0.064705 0.1
       vertex 0.229512 -0.095671 0.1
       vertex 0.229512 -0.095671 0
    endloop
  endfacet
  facet normal 0.980784 -0.195096 0
    outer loop
       vertex 0.240023 -0.064705 0
       vertex 0.246403 -0.0326315 0
       vertex 0.246403 -0.0326315 0.1
    endloop
  endfacet
  facet normal 0.980784 -0.195096 0
    outer loop
       vertex 0.246403 -0.0326315 0.1
       vertex 0.240023 -0.064705 0.1
       vertex 0.240023 -0.064705 0
    endloop
  endfacet
  facet normal 0.997858 -0.0654098 0
    outer loop
       vertex 0.248542 -8.32665e-17 0.1
       vertex 0.246403 -0.0326315 0.1
       vertex 0.246403 -0.0326315 0
    endloop
  endfacet
  facet normal 0.997858 -0.0654098 -1.08928e-16
    outer loop
       vertex 0.246403 -0.0326315 0
       vertex 0.248542 8.32665e-17 0
       vertex 0.248542 -8.32665e-17 0.1
    endloop
  endfacet
  facet normal 0.997858 0.0654098 0
    outer loop
       vertex 0.248542 8.32665e-17 0
       vertex 0.246403 0.0326315 0
       vertex 0.246403 0.0326315 0.1
    endloop
  endfacet
  facet normal 0.997858 0.0654098 1.08928e-16
    outer loop
       vertex 0.246403 0.0326315 0.1
       vertex 0.248542 -8.32665e-17 0.1
       vertex 0.248542 8.32665e-17 0
    endloop
  endfacet
  facet normal 0.980784 0.195096 0
    outer loop
       vertex 0.246403 0.0326315 0
       vertex 0.240023 0.064705 0
       vertex 0.240023 0.064705 0.1
    endloop
  endfacet
  facet normal 0.980784 0.195096 0
    outer loop
       vertex 0.240023 0.064705 0.1
       vertex 0.246403 0.0326315 0.1
       vertex 0.246403 0.0326315 0
    endloop
  endfacet
  facet normal 0.946935 0.321425 0
    outer loop
       vertex 0.240023 0.064705 0
       vertex 0.229512 0.095671 0
       vertex 0.229512 0.095671 0.1
    endloop
  endfacet
  facet normal 0.946935 0.321425 0
    outer loop
       vertex 0.229512 0.095671 0.1
       vertex 0.240023 0.064705 0.1
       vertex 0.240023 0.064705 0
    endloop
  endfacet
  facet normal 0.896866 0.442302 0
    outer loop
       vertex 0.229512 0.095671 0
       vertex 0.215048 0.125 0
       vertex 0.215048 0.125 0.1
    endloop
  endfacet
  facet normal 0.896866 0.442302 0
    outer loop
       vertex 0.215048 0.125 0.1
       vertex 0.229512 0.095671 0.1
       vertex 0.229512 0.095671 0
    endloop
  endfacet
  facet normal 0.831476 0.555561 0
    outer loop
       vertex 0.215048 0.125 0
       vertex 0.19688 0.152191 0
       vertex 0.19688 0.152191 0.1
    endloop
  endfacet
  facet normal 0.831476 0.555561 0
    outer loop
       vertex 0.19688 0.152191 0.1
       vertex 0.215048 0.125 0.1
       vertex 0.215048 0.125 0
    endloop
  endfacet
  facet normal 0.751817 0.659372 0
    outer loop
       vertex 0.19688 0.152191 0
       vertex 0.175318 0.176776 0
       vertex 0.175318 0.176776 0.1
    endloop
  endfacet
  facet normal 0.751817 0.659372 0
    outer loop
       vertex 0.175318 0.176776 0.1
       vertex 0.19688 0.152191 0.1
       vertex 0.19688 0.152191 0
    endloop
  endfacet
  facet normal 0.659372 0.751817 0
    outer loop
       vertex 0.175318 0.176776 0
       vertex 0.150733 0.198338 0
       vertex 0.150733 0.198338 0.1
    endloop
  endfacet
  facet normal 0.659372 0.751817 0
    outer loop
       vertex 0.150733 0.198338 0.1
       vertex 0.175318 0.176776 0.1
       vertex 0.175318 0.176776 0
    endloop
  endfacet
  facet normal 0.555561 0.831476 0
    outer loop
       vertex 0.150733 0.198338 0
       vertex 0.123542 0.216506 0
       vertex 0.123542 0.216506 0.1
    endloop
  endfacet
  facet normal 0.555561 0.831476 0
    outer loop
       vertex 0.123542 0.216506 0.1
       vertex 0.150733 0.198338 0.1
       vertex 0.150733 0.198338 0
    endloop
  endfacet
  facet normal 0.442302 0.896866 0
    outer loop
       vertex 0.123542 0.216506 0
       vertex 0.0942134 0.23097 0
       vertex 0.0942134 0.23097 0.1
    endloop
  endfacet
  facet normal 0.442302 0.896866 0
    outer loop
       vertex 0.0942134 0.23097 0.1
       vertex 0.123542 0.216506 0.1
       vertex 0.123542 0.216506 0
    endloop
  endfacet
  facet normal 0.321425 0.946935 0
    outer loop
       vertex 0.0942134 0.23097 0
       vertex 0.0632474 0.241481 0
       vertex 0.0632474 0.241481 0.1
    endloop
  endfacet
  facet normal 0.321425 0.946935 0
    outer loop
       vertex 0.0632474 0.241481 0.1
       vertex 0.0942134 0.23097 0.1
       vertex 0.0942134 0.23097 0
    endloop
  endfacet
  facet normal 0.195096 0.980784 0
    outer loop
       vertex 0.0632474 0.241481 0
       vertex 0.0311739 0.247861 0
       vertex 0.0311739 0.247861 0.1
    endloop
  endfacet
  facet normal 0.195096 0.980784 0
    outer loop
       vertex 0.0311739 0.247861 0.1
       vertex 0.0632474 0.241481 0.1
       vertex 0.0632474 0.241481 0
    endloop
  endfacet
  facet normal 0.0654098 0.997858 0
    outer loop
       vertex -0.00145762 0.25 0.1
       vertex 0.0311739 0.247861 0.1
       vertex 0.0311739 0.247861 0
    endloop
  endfacet
  facet normal 0.0654098 0.997858 -1.0893e-16
    outer loop
       vertex 0.0311739 0.247861 0
       vertex -0.00145762 0.25 0
       vertex -0.00145762 0.25 0.1
    endloop
  endfacet
  facet normal -0.0654098 0.997858 0
    outer loop
       vertex -0.00145762 0.25 0
       vertex -0.0340891 0.247861 0
       vertex -0.0340891 0.247861 0.1
    endloop
  endfacet
  facet normal -0.0654098 0.997858 1.0893e-16
    outer loop
       vertex -0.0340891 0.247861 0.1
       vertex -0.00145762 0.25 0.1
       vertex -0.00145762 0.25 0
    endloop
  endfacet
  facet normal -0.195096 0.980784 0
    outer loop
       vertex -0.0340891 0.247861 0
       vertex -0.0661626 0.241481 0
       vertex -0.0661626 0.241481 0.1
    endloop
  endfacet
  facet normal -0.195096 0.980784 0
    outer loop
       vertex -0.0661626 0.241481 0.1
       vertex -0.0340891 0.247861 0.1
       vertex -0.0340891 0.247861 0
    endloop
  endfacet
  facet normal -0.321425 0.946935 0
    outer loop
       vertex -0.0661626 0.241481 0
       vertex -0.0971286 0.23097 0
       vertex -0.0971286 0.23097 0.1
    endloop
  endfacet
  facet normal -0.321425 0.946935 0
    outer loop
       vertex -0.0971286 0.23097 0.1
       vertex -0.0661626 0.241481 0.1
       vertex -0.0661626 0.241481 0
    endloop
  endfacet
  facet normal -0.442302 0.896866 0
    outer loop
       vertex -0.0971286 0.23097 0
       vertex -0.126458 0.216506 0
       vertex -0.126458 0.216506 0.1
    endloop
  endfacet
  facet normal -0.442302 0.896866 0
    outer loop
       vertex -0.126458 0.216506 0.1
       vertex -0.0971286 0.23097 0.1
       vertex -0.0971286 0.23097 0
    endloop
  endfacet
  facet normal -0.555561 0.831476 0
    outer loop
       vertex -0.126458 0.216506 0
       vertex -0.153649 0.198338 0
       vertex -0.153649 0.198338 0.1
    endloop
  endfacet
  facet normal -0.555561 0.831476 0
    outer loop
       vertex -0.153649 0.198338 0.1
       vertex -0.126458 0.216506 0.1
       vertex -0.126458 0.216506 0
    endloop
  endfacet
  facet normal -0.659372 0.751817 0
    outer loop
       vertex -0.153649 0.198338 0
       vertex -0.178234 0.176776 0
       vertex -0.178234 0.176776 0.1
    endloop
  endfacet
  facet normal -0.659372 0.751817 0
    outer loop
       vertex -0.178234 0.176776 0.1
       vertex -0.153649 0.198338 0.1
       vertex -0.153649 0.198338 0
    endloop
  endfacet
  facet normal -0.751817 0.659372 0
    outer loop
       vertex -0.178234 0.176776 0
       vertex -0.199796 0.152191 0
       vertex -0.199796 0.152191 0.1
    endloop
  endfacet
  facet normal -0.751817 0.659372 0
    outer loop
       vertex -0.199796 0.152191 0.1
       vertex -0.178234 0.176776 0.1
       vertex -0.178234 0.176776 0
    endloop
  endfacet
  facet normal -0.831476 0.555561 0
    outer loop
       vertex -0.199796 0.152191 0
       vertex -0.217964 0.125 0
       vertex -0.217964 0.125 0.1
    endloop
  endfacet
  facet normal -0.831476 0.555561 0
    outer loop
       vertex -0.217964 0.125 0.1
       vertex -0.199796 0.152191 0.1
       vertex -0.199796 0.152191 0
    endloop
  endfacet
  facet normal -0.896866 0.442302 0
    outer loop
       vertex -0.217964 0.125 0
       vertex -0.232428 0.095671 0
       vertex -0.232428 0.095671 0.1
    endloop
  endfacet
  facet normal -0.896866 0.442302 0
    outer loop
       vertex -0.232428 0.095671 0.1
       vertex -0.217964 0.125 0.1
       vertex -0.217964 0.125 0
    endloop
  endfacet
  facet normal -0.946935 0.321425 0
    outer loop
       vertex -0.232428 0.095671 0
       vertex -0.242939 0.064705 0
       vertex -0.242939 0.064705 0.1
    endloop
  endfacet
  facet normal -0.946935 0.321425 0
    outer loop
       vertex -0.242939 0.064705 0.1
       vertex -0.232428 0.095671 0.1
       vertex -0.232428 0.095671 0
    endloop
  endfacet
  facet normal -0.980784 0.195096 0
    outer loop
       vertex -0.242939 0.064705 0
       vertex -0.249319 0.0326315 0
       vertex -0.249319 0.0326315 0.1
    endloop
  endfacet
  facet normal -0.980784 0.195096 0
    outer loop
       vertex -0.249319 0.0326315 0.1
       vertex -0.242939 0.064705 0.1
       vertex -0.242939 0.064705 0
    endloop
  endfacet
  facet normal -0.997858 0.0654098 0
    outer loop
       vertex -0.251458 8.32665e-17 0.1
       vertex -0.249319 0.0326315 0.1
       vertex -0.249319 0.0326315 0
    endloop
  endfacet
  facet normal -0.997858 0.0654098 -1.08928e-16
    outer loop
       vertex -0.249319 0.0326315 0
       vertex -0.251458 -8.32665e-17 0
       vertex -0.251458 8.32665e-17 0.1
    endloop
  endfacet
  facet normal -0.997858 -0.0654098 0
    outer loop
       vertex -0.251458 -8.32665e-17 0
       vertex -0.249319 -0.0326315 0
       vertex -0.249319 -0.0326315 0.1
    endloop
  endfacet
  facet normal -0.997858 -0.0654098 1.08928e-16
    outer loop
       vertex -0.249319 -0.0326315 0.1
       vertex -0.251458 8.32665e-17 0.1
       vertex -0.251458 -8.32665e-17 0
    endloop
  endfacet
  facet normal -0.980784 -0.195096 0
    outer loop
       vertex -0.249319 -0.0326315 0
       vertex -0.242939 -0.064705 0
       vertex -0.242939 -0.064705 0.1
    endloop
  endfacet
  facet normal -0.980784 -0.195096 0
    outer loop
       vertex -0.242939 -0.064705 0.1
       vertex -0.249319 -0.0326315 0.1
       vertex -0.249319 -0.0326315 0
    endloop
  endfacet
  facet normal -0.946935 -0.321425 0
    outer loop
       vertex -0.242939 -0.064705 0
       vertex -0.232428 -0.095671 0
       vertex -0.232428 -0.095671 0.1
    endloop
  endfacet
  facet normal -0.946935 -0.321425 0
    outer loop
       vertex -0.232428 -0.095671 0.1
       vertex -0.242939 -0.064705 0.1
       vertex -0.242939 -0.064705 0
    endloop
  endfacet
  facet normal -0.896866 -0.442302 0
    outer loop
       vertex -0.232428 -0.095671 0
       vertex -0.217964 -0.125 0
       vertex -0.217964 -0.125 0.1
    endloop
  endfacet
  facet normal -0.896866 -0.442302 0
    outer loop
       vertex -0.217964 -0.125 0.1
       vertex -0.232428 -0.095671 0.1
       vertex -0.232428 -0.095671 0
    endloop
  endfacet
  facet normal -0.831476 -0.555561 0
    outer loop
       vertex -0.217964 -0.125 0
       vertex -0.199796 -0.152191 0
       vertex -0.199796 -0.152191 0.1
    endloop
  endfacet
  facet normal -0.831476 -0.555561 0
    outer loop
       vertex -0.199796 -0.152191 0.1
       vertex -0.217964 -0.125 0.1
       vertex -0.217964 -0.125 0
    endloop
  endfacet
  facet normal -0.751817 -0.659372 0
    outer loop
       vertex -0.199796 -0.152191 0
       vertex -0.178234 -0.176776 0
       vertex -0.178234 -0.176776 0.1
    endloop
  endfacet
  facet normal -0.751817 -0.659372 0
    outer loop
       vertex -0.178234 -0.176776 0.1
       vertex -0.199796 -0.152191 0.1
       vertex -0.199796 -0.152191 0
    endloop
  endfacet
  facet normal 0.659372 -0.751817 0
    outer loop
       vertex 0.175318 -0.176776 0
       vertex 0.175318 -0.176776 0.1
       vertex 0.150733 -0.198338 0.1
    endloop
  endfacet
  facet normal 0.659372 -0.751817 0
    outer loop
       vertex 0.150733 -0.198338 0.1
       vertex 0.150733 -0.198338 0
       vertex 0.175318 -0.176776 0
    endloop
  endfacet
  facet normal 0.555561 -0.831476 0
    outer loop
       vertex 0.150733 -0.198338 0
       vertex 0.150733 -0.198338 0.1
       vertex 0.123542 -0.216506 0.1
    endloop
  endfacet
  facet normal 0.555561 -0.831476 0
    outer loop
       vertex 0.123542 -0.216506 0.1
       vertex 0.123542 -0.216506 0
       vertex 0.150733 -0.198338 0
    endloop
  endfacet
  facet normal 0.442302 -0.896866 0
    outer loop
       vertex 0.123542 -0.216506 0
       vertex 0.123542 -0.216506 0.1
       vertex 0.0942134 -0.23097 0.1
    endloop
  endfacet
  facet normal 0.442302 -0.896866 0
    outer loop
       vertex 0.0942134 -0.23097 0.1
       vertex 0.0942134 -0.23097 0
       vertex 0.123542 -0.216506 0
    endloop
  endfacet
  facet normal 0.321425 -0.946935 0
    outer loop
       vertex 0.0942134 -0.23097 0
       vertex 0.0942134 -0.23097 0.1
       vertex 0.0632474 -0.241481 0.1
    endloop
  endfacet
  facet normal 0.321425 -0.946935 0
    outer loop
       vertex 0.0632474 -0.241481 0.1
       vertex 0.0632474 -0.241481 0
       vertex 0.0942134 -0.23097 0
    endloop
  endfacet
  facet normal 0.195096 -0.980784 0
    outer loop
       vertex 0.0632474 -0.241481 0
       vertex 0.0632474 -0.241481 0.1
       vertex 0.0311739 -0.247861 0.1
    endloop
  endfacet
  facet normal 0.195096 -0.980784 0
    outer loop
       vertex 0.0311739 -0.247861 0.1
       vertex 0.0311739 -0.247861 0
       vertex 0.0632474 -0.241481 0
    endloop
  endfacet
  facet normal 0.0654098 -0.997858 0
    outer loop
       vertex -0.00145762 -0.25 0
       vertex 0.0311739 -0.247861 0
       vertex 0.0311739 -0.247861 0.1
    endloop
  endfacet
  facet normal 0.0654098 -0.997858 1.0893e-16
    outer loop
       vertex 0.0311739 -0.247861 0.1
       vertex -0.00145762 -0.25 0.1
       vertex -0.00145762 -0.25 0
    endloop
  endfacet
  facet normal -0.0654098 -0.997858 0
    outer loop
       vertex -0.00145762 -0.25 0.1
       vertex -0.0340891 -0.247861 0.1
       vertex -0.0340891 -0.247861 0
    endloop
  endfacet
  facet normal -0.0654098 -0.997858 -1.0893e-16
    outer loop
       vertex -0.0340891 -0.247861 0
       vertex -0.00145762 -0.25 0
       vertex -0.00145762 -0.25 0.1
    endloop
  endfacet
  facet normal -0.195096 -0.980784 0
    outer loop
       vertex -0.0340891 -0.247861 0
       vertex -0.0340891 -0.247861 0.1
       vertex -0.0661626 -0.241481 0.1
    endloop
  endfacet
  facet normal -0.195096 -0.980784 -0
    outer loop
       vertex -0.0661626 -0.241481 0.1
       vertex -0.0661626 -0.241481 0
       vertex -0.0340891 -0.247861 0
    endloop
  endfacet
  facet normal -0.321425 -0.946935 0
    outer loop
       vertex -0.0661626 -0.241481 0
       vertex -0.0661626 -0.241481 0.1
       vertex -0.0971286 -0.23097 0.1
    endloop
  endfacet
  facet normal -0.321425 -0.946935 -0
    outer loop
       vertex -0.0971286 -0.23097 0.1
       vertex -0.0971286 -0.23097 0
       vertex -0.0661626 -0.241481 0
    endloop
  endfacet
  facet normal -0.442302 -0.896866 0
    outer loop
       vertex -0.0971286 -0.23097 0
       vertex -0.0971286 -0.23097 0.1
       vertex -0.126458 -0.216506 0.1
    endloop
  endfacet
  facet normal -0.442302 -0.896866 -0
    outer loop
       vertex -0.126458 -0.216506 0.1
       vertex -0.126458 -0.216506 0
       vertex -0.0971286 -0.23097 0
    endloop
  endfacet
  facet normal -0.555561 -0.831476 0
    outer loop
       vertex -0.126458 -0.216506 0
       vertex -0.126458 -0.216506 0.1
       vertex -0.153649 -0.198338 0.1
    endloop
  endfacet
  facet normal -0.555561 -0.831476 -0
    outer loop
       vertex -0.153649 -0.198338 0.1
       vertex -0.153649 -0.198338 0
       vertex -0.126458 -0.216506 0
    endloop
  endfacet
  facet normal -0.659372 -0.751817 0
    outer loop
       vertex -0.153649 -0.198338 0
       vertex -0.153649 -0.198338 0.1
       vertex -0.178234 -0.176776 0.1
    endloop
  endfacet
  facet normal -0.659372 -0.751817 -0
    outer loop
       vertex -0.178234 -0.176776 0.1
       vertex -0.178234 -0.176776 0
       vertex -0.153649 -0.198338 0
    endloop
  endfacet
endsolid cylinder
