solid cylinder
  facet normal 0.751817 -0.659372 0
    outer loop
       vertex 0.340571 -0.176776 0
       vertex 0.362133 -0.152191 0
       vertex 0.362133 -0.152191 0.1
    endloop
  endfacet
  facet normal 0.751817 -0.659372 0
    outer loop
       vertex 0.362133 -0.152191 0.1
       vertex 0.340571 -0.176776 0.1
       vertex 0.340571 -0.176776 0
    endloop
  endfacet
  facet normal 0.831476 -0.555561 0
    outer loop
       vertex 0.362133 -0.152191 0
       vertex 0.380301 -0.125 0
       vertex 0.380301 -0.125 0.1
    endloop
  endfacet
  facet normal 0.831476 -0.555561 0
    outer loop
       vertex 0.380301 -0.125 0.1
       vertex 0.362133 -0.152191 0.1
       vertex 0.362133 -0.152191 0
    endloop
  endfacet
  facet normal 0.896866 -0.442302 0
    outer loop
       vertex 0.380301 -0.125 0
       vertex 0.394765 -0.095671 0
       vertex 0.394765 -0.095671 0.1
    endloop
  endfacet
  facet normal 0.896866 -0.442302 0
    outer loop
       vertex 0.394765 -0.095671 0.1
       vertex 0.380301 -0.125 0.1
       vertex 0.380301 -0.125 0
    endloop
  endfacet
  facet normal 0.946935 -0.321425 0
    outer loop
       vertex 0.394765 -0.095671 0
       vertex 0.405276 -0.064705 0
       vertex 0.405276 -0.064705 0.1
    endloop
  endfacet
  facet normal 0.946935 -0.321425 0
    outer loop
       vertex 0.405276 -0.064705 0.1
       vertex 0.394765 -0.095671 0.1
       vertex 0.394765 -0.095671 0
    endloop
  endfacet
  facet normal 0.980784 -0.195096 0
    outer loop
       vertex 0.405276 -0.064705 0
       vertex 0.411656 -0.0326315 0
       vertex 0.411656 -0.0326315 0.1
    endloop
  endfacet
  facet normal 0.980784 -0.195096 0
    outer loop
       vertex 0.411656 -0.0326315 0.1
       vertex 0.405276 -0.064705 0.1
       vertex 0.405276 -0.064705 0
    endloop
  endfacet
  facet normal 0.997858 -0.0654098 0
    outer loop
       vertex 0.413795 -8.32665e-17 0.1
       vertex 0.411656 -0.0326315 0.1
       vertex 0.411656 -0.0326315 0
    endloop
  endfacet
  facet normal 0.997858 -0.0654098 -1.08928e-16
    outer loop
       vertex 0.411656 -0.0326315 0
       vertex 0.413795 8.32665e-17 0
       vertex 0.413795 -8.32665e-17 0.1
    endloop
  endfacet
  facet normal 0.997858 0.0654098 0
    outer loop
       vertex 0.413795 8.32665e-17 0
       vertex 0.411656 0.0326315 0
       vertex 0.411656 0.0326315 0.1
    endloop
  endfacet
  facet normal 0.997858 0.0654098 1.08928e-16
    outer loop
       vertex 0.411656 0.0326315 0.1
       vertex 0.413795 -8.32665e-17 0.1
       vertex 0.413795 8.32665e-17 0
    endloop
  endfacet
  facet normal 0.980784 0.195096 0
    outer loop
       vertex 0.411656 0.0326315 0
       vertex 0.405276 0.064705 0
       vertex 0.405276 0.064705 0.1
    endloop
  endfacet
  facet normal 0.980784 0.195096 0
    outer loop
       vertex 0.405276 0.064705 0.1
       vertex 0.411656 0.0326315 0.1
       vertex 0.411656 0.0326315 0
    endloop
  endfacet
  facet normal 0.946935 0.321425 0
    outer loop
       vertex 0.405276 0.064705 0
       vertex 0.394765 0.095671 0
       vertex 0.394765 0.095671 0.1
    endloop
  endfacet
  facet normal 0.946935 0.321425 0
    outer loop
       vertex 0.394765 0.095671 0.1
       vertex 0.405276 0.064705 0.1
       vertex 0.405276 0.064705 0
    endloop
  endfacet
  facet normal 0.896866 0.442302 0
    outer loop
       vertex 0.394765 0.095671 0
       vertex 0.380301 0.125 0
       vertex 0.380301 0.125 0.1
    endloop
  endfacet
  facet normal 0.896866 0.442302 0
    outer loop
       vertex 0.380301 0.125 0.1
       vertex 0.394765 0.095671 0.1
       vertex 0.394765 0.095671 0
    endloop
  endfacet
  facet normal 0.831476 0.555561 0
    outer loop
       vertex 0.380301 0.125 0
       vertex 0.362133 0.152191 0
       vertex 0.362133 0.152191 0.1
    endloop
  endfacet
  facet normal 0.831476 0.555561 0
    outer loop
       vertex 0.362133 0.152191 0.1
       vertex 0.380301 0.125 0.1
       vertex 0.380301 0.125 0
    endloop
  endfacet
  facet normal 0.751817 0.659372 0
    outer loop
       vertex 0.362133 0.152191 0
       vertex 0.340571 0.176776 0
       vertex 0.340571 0.176776 0.1
    endloop
  endfacet
  facet normal 0.751817 0.659372 0
    outer loop
       vertex 0.340571 0.176776 0.1
       vertex 0.362133 0.152191 0.1
       vertex 0.362133 0.152191 0
    endloop
  endfacet
  facet normal 0.659372 0.751817 0
    outer loop
       vertex 0.340571 0.176776 0
       vertex 0.315986 0.198338 0
       vertex 0.315986 0.198338 0.1
    endloop
  endfacet
  facet normal 0.659372 0.751817 0
    outer loop
       vertex 0.315986 0.198338 0.1
       vertex 0.340571 0.176776 0.1
       vertex 0.340571 0.176776 0
    endloop
  endfacet
  facet normal 0.555561 0.831476 0
    outer loop
       vertex 0.315986 0.198338 0
       vertex 0.288795 0.216506 0
       vertex 0.288795 0.216506 0.1
    endloop
  endfacet
  facet normal 0.555561 0.831476 0
    outer loop
       vertex 0.288795 0.216506 0.1
       vertex 0.315986 0.198338 0.1
       vertex 0.315986 0.198338 0
    endloop
  endfacet
  facet normal 0.442302 0.896866 0
    outer loop
       vertex 0.288795 0.216506 0
       vertex 0.259466 0.23097 0
       vertex 0.259466 0.23097 0.1
    endloop
  endfacet
  facet normal 0.442302 0.896866 0
    outer loop
       vertex 0.259466 0.23097 0.1
       vertex 0.288795 0.216506 0.1
       vertex 0.288795 0.216506 0
    endloop
  endfacet
  facet normal 0.321425 0.946935 0
    outer loop
       vertex 0.259466 0.23097 0
       vertex 0.2285 0.241481 0
       vertex 0.2285 0.241481 0.1
    endloop
  endfacet
  facet normal 0.321425 0.946935 0
    outer loop
       vertex 0.2285 0.241481 0.1
       vertex 0.259466 0.23097 0.1
       vertex 0.259466 0.23097 0
    endloop
  endfacet
  facet normal 0.195096 0.980784 0
    outer loop
       vertex 0.2285 0.241481 0
       vertex 0.196426 0.247861 0
       vertex 0.196426 0.247861 0.1
    endloop
  endfacet
  facet normal 0.195096 0.980784 0
    outer loop
       vertex 0.196426 0.247861 0.1
       vertex 0.2285 0.241481 0.1
       vertex 0.2285 0.241481 0
    endloop
  endfacet
  facet normal 0.0654098 0.997858 0
    outer loop
       vertex 0.163795 0.25 0.1
       vertex 0.196426 0.247861 0.1
       vertex 0.196426 0.247861 0
    endloop
  endfacet
  facet normal 0.0654098 0.997858 -1.0893e-16
    outer loop
       vertex 0.196426 0.247861 0
       vertex 0.163795 0.25 0
       vertex 0.163795 0.25 0.1
    endloop
  endfacet
  facet normal -0.0654098 0.997858 0
    outer loop
       vertex 0.163795 0.25 0
       vertex 0.131163 0.247861 0
       vertex 0.131163 0.247861 0.1
    endloop
  endfacet
  facet normal -0.0654098 0.997858 1.0893e-16
    outer loop
       vertex 0.131163 0.247861 0.1
       vertex 0.163795 0.25 0.1
       vertex 0.163795 0.25 0
    endloop
  endfacet
  facet normal -0.195096 0.980784 0
    outer loop
       vertex 0.131163 0.247861 0
       vertex 0.0990896 0.241481 0
       vertex 0.0990896 0.241481 0.1
    endloop
  endfacet
  facet normal -0.195096 0.980784 0
    outer loop
       vertex 0.0990896 0.241481 0.1
       vertex 0.131163 0.247861 0.1
       vertex 0.131163 0.247861 0
    endloop
  endfacet
  facet normal -0.321425 0.946935 0
    outer loop
       vertex 0.0990896 0.241481 0
       vertex 0.0681236 0.23097 0
       vertex 0.0681236 0.23097 0.1
    endloop
  endfacet
  facet normal -0.321425 0.946935 0
    outer loop
       vertex 0.0681236 0.23097 0.1
       vertex 0.0990896 0.241481 0.1
       vertex 0.0990896 0.241481 0
    endloop
  endfacet
  facet normal -0.442302 0.896866 0
    outer loop
       vertex 0.0681236 0.23097 0
       vertex 0.0387946 0.216506 0
       vertex 0.0387946 0.216506 0.1
    endloop
  endfacet
  facet normal -0.442302 0.896866 0
    outer loop
       vertex 0.0387946 0.216506 0.1
       vertex 0.0681236 0.23097 0.1
       vertex 0.0681236 0.23097 0
    endloop
  endfacet
  facet normal -0.555561 0.831476 0
    outer loop
       vertex 0.0387946 0.216506 0
       vertex 0.0116036 0.198338 0
       vertex 0.0116036 0.198338 0.1
    endloop
  endfacet
  facet normal -0.555561 0.831476 0
    outer loop
       vertex 0.0116036 0.198338 0.1
       vertex 0.0387946 0.216506 0.1
       vertex 0.0387946 0.216506 0
    endloop
  endfacet
  facet normal -0.659372 0.751817 0
    outer loop
       vertex 0.0116036 0.198338 0
       vertex -0.0129814 0.176776 0
       vertex -0.0129814 0.176776 0.1
    endloop
  endfacet
  facet normal -0.659372 0.751817 0
    outer loop
       vertex -0.0129814 0.176776 0.1
       vertex 0.0116036 0.198338 0.1
       vertex 0.0116036 0.198338 0
    endloop
  endfacet
  facet normal -0.751817 0.659372 0
    outer loop
       vertex -0.0129814 0.176776 0
       vertex -0.0345434 0.152191 0
       vertex -0.0345434 0.152191 0.1
    endloop
  endfacet
  facet normal -0.751817 0.659372 0
    outer loop
       vertex -0.0345434 0.152191 0.1
       vertex -0.0129814 0.176776 0.1
       vertex -0.0129814 0.176776 0
    endloop
  endfacet
  facet normal -0.831476 0.555561 0
    outer loop
       vertex -0.0345434 0.152191 0
       vertex -0.0527114 0.125 0
       vertex -0.0527114 0.125 0.1
    endloop
  endfacet
  facet normal -0.831476 0.555561 0
    outer loop
       vertex -0.0527114 0.125 0.1
       vertex -0.0345434 0.152191 0.1
       vertex -0.0345434 0.152191 0
    endloop
  endfacet
  facet normal -0.896866 0.442302 0
    outer loop
       vertex -0.0527114 0.125 0
       vertex -0.0671754 0.095671 0
       vertex -0.0671754 0.095671 0.1
    endloop
  endfacet
  facet normal -0.896866 0.442302 0
    outer loop
       vertex -0.0671754 0.095671 0.1
       vertex -0.0527114 0.125 0.1
       vertex -0.0527114 0.125 0
    endloop
  endfacet
  facet normal -0.946935 0.321425 0
    outer loop
       vertex -0.0671754 0.095671 0
       vertex -0.0776864 0.064705 0
       vertex -0.0776864 0.064705 0.1
    endloop
  endfacet
  facet normal -0.946935 0.321425 0
    outer loop
       vertex -0.0776864 0.064705 0.1
       vertex -0.0671754 0.095671 0.1
       vertex -0.0671754 0.095671 0
    endloop
  endfacet
  facet normal -0.980784 0.195096 0
    outer loop
       vertex -0.0776864 0.064705 0
       vertex -0.0840664 0.0326315 0
       vertex -0.0840664 0.0326315 0.1
    endloop
  endfacet
  facet normal -0.980784 0.195096 0
    outer loop
       vertex -0.0840664 0.0326315 0.1
       vertex -0.0776864 0.064705 0.1
       vertex -0.0776864 0.064705 0
    endloop
  endfacet
  facet normal -0.997858 0.0654098 0
    outer loop
       vertex -0.0862054 8.32665e-17 0.1
       vertex -0.0840664 0.0326315 0.1
       vertex -0.0840664 0.0326315 0
    endloop
  endfacet
  facet normal -0.997858 0.0654098 -1.08928e-16
    outer loop
       vertex -0.0840664 0.0326315 0
       vertex -0.0862054 -8.32665e-17 0
       vertex -0.0862054 8.32665e-17 0.1
    endloop
  endfacet
  facet normal -0.997858 -0.0654098 0
    outer loop
       vertex -0.0862054 -8.32665e-17 0
       vertex -0.0840664 -0.0326315 0
       vertex -0.0840664 -0.0326315 0.1
    endloop
  endfacet
  facet normal -0.997858 -0.0654098 1.08928e-16
    outer loop
       vertex -0.0840664 -0.0326315 0.1
       vertex -0.0862054 8.32665e-17 0.1
       vertex -0.0862054 -8.32665e-17 0
    endloop
  endfacet
  facet normal -0.980784 -0.195096 0
    outer loop
       vertex -0.0840664 -0.0326315 0
       vertex -0.0776864 -0.064705 0
       vertex -0.0776864 -0.064705 0.1
    endloop
  endfacet
  facet normal -0.980784 -0.195096 0
    outer loop
       vertex -0.0776864 -0.064705 0.1
       vertex -0.0840664 -0.0326315 0.1
       vertex -0.0840664 -0.0326315 0
    endloop
  endfacet
  facet normal -0.946935 -0.321425 0
    outer loop
       vertex -0.0776864 -0.064705 0
       vertex -0.0671754 -0.095671 0
       vertex -0.0671754 -0.095671 0.1
    endloop
  endfacet
  facet normal -0.946935 -0.321425 0
    outer loop
       vertex -0.0671754 -0.095671 0.1
       vertex -0.0776864 -0.064705 0.1
       vertex -0.0776864 -0.064705 0
    endloop
  endfacet
  facet normal -0.896866 -0.442302 0
    outer loop
       vertex -0.0671754 -0.095671 0
       vertex -0.0527114 -0.125 0
       vertex -0.0527114 -0.125 0.1
    endloop
  endfacet
  facet normal -0.896866 -0.442302 0
    outer loop
       vertex -0.0527114 -0.125 0.1
       vertex -0.0671754 -0.095671 0.1
       vertex -0.0671754 -0.095671 0
    endloop
  endfacet
  facet normal -0.831476 -0.555561 0
    outer loop
       vertex -0.0527114 -0.125 0
       vertex -0.0345434 -0.152191 0
       vertex -0.0345434 -0.152191 0.1
    endloop
  endfacet
  facet normal -0.831476 -0.555561 0
    outer loop
       vertex -0.0345434 -0.152191 0.1
       vertex -0.0527114 -0.125 0.1
       vertex -0.0527114 -0.125 0
    endloop
  endfacet
  facet normal -0.751817 -0.659372 0
    outer loop
       vertex -0.0345434 -0.152191 0
       vertex -0.0129814 -0.176776 0
       vertex -0.0129814 -0.176776 0.1
    endloop
  endfacet
  facet normal -0.751817 -0.659372 0
    outer loop
       vertex -0.0129814 -0.176776 0.1
       vertex -0.0345434 -0.152191 0.1
       vertex -0.0345434 -0.152191 0
    endloop
  endfacet
  facet normal 0.659372 -0.751817 0
    outer loop
       vertex 0.340571 -0.176776 0
       vertex 0.340571 -0.176776 0.1
       vertex 0.315986 -0.198338 0.1
    endloop
  endfacet
  facet normal 0.659372 -0.751817 0
    outer loop
       vertex 0.315986 -0.198338 0.1
       vertex 0.315986 -0.198338 0
       vertex 0.340571 -0.176776 0
    endloop
  endfacet
  facet normal 0.555561 -0.831476 0
    outer loop
       vertex 0.315986 -0.198338 0
       vertex 0.315986 -0.198338 0.1
       vertex 0.288795 -0.216506 0.1
    endloop
  endfacet
  facet normal 0.555561 -0.831476 0
    outer loop
       vertex 0.288795 -0.216506 0.1
       vertex 0.288795 -0.216506 0
       vertex 0.315986 -0.198338 0
    endloop
  endfacet
  facet normal 0.442302 -0.896866 0
    outer loop
       vertex 0.288795 -0.216506 0
       vertex 0.288795 -0.216506 0.1
       vertex 0.259466 -0.23097 0.1
    endloop
  endfacet
  facet normal 0.442302 -0.896866 0
    outer loop
       vertex 0.259466 -0.23097 0.1
       vertex 0.259466 -0.23097 0
       vertex 0.288795 -0.216506 0
    endloop
  endfacet
  facet normal 0.321425 -0.946935 0
    outer loop
       vertex 0.259466 -0.23097 0
       vertex 0.259466 -0.23097 0.1
       vertex 0.2285 -0.241481 0.1
    endloop
  endfacet
  facet normal 0.321425 -0.946935 0
    outer loop
       vertex 0.2285 -0.241481 0.1
       vertex 0.2285 -0.241481 0
       vertex 0.259466 -0.23097 0
    endloop
  endfacet
  facet normal 0.195096 -0.980784 0
    outer loop
       vertex 0.2285 -0.241481 0
       vertex 0.2285 -0.241481 0.1
       vertex 0.196426 -0.247861 0.1
    endloop
  endfacet
  facet normal 0.195096 -0.980784 0
    outer loop
       vertex 0.196426 -0.247861 0.1
       vertex 0.196426 -0.247861 0
       vertex 0.2285 -0.241481 0
    endloop
  endfacet
  facet normal 0.0654098 -0.997858 0
    outer loop
       vertex 0.163795 -0.25 0
       vertex 0.196426 -0.247861 0
       vertex 0.196426 -0.247861 0.1
    endloop
  endfacet
  facet normal 0.0654098 -0.997858 1.0893e-16
    outer loop
       vertex 0.196426 -0.247861 0.1
       vertex 0.163795 -0.25 0.1
       vertex 0.163795 -0.25 0
    endloop
  endfacet
  facet normal -0.0654098 -0.997858 0
    outer loop
       vertex 0.163795 -0.25 0.1
       vertex 0.131163 -0.247861 0.1
       vertex 0.131163 -0.247861 0
    endloop
  endfacet
  facet normal -0.0654098 -0.997858 -1.0893e-16
    outer loop
       vertex 0.131163 -0.247861 0
       vertex 0.163795 -0.25 0
       vertex 0.163795 -0.25 0.1
    endloop
  endfacet
  facet normal -0.195096 -0.980784 0
    outer loop
       vertex 0.131163 -0.247861 0
       vertex 0.131163 -0.247861 0.1
       vertex 0.0990896 -0.241481 0.1
    endloop
  endfacet
  facet normal -0.195096 -0.980784 -0
    outer loop
       vertex 0.0990896 -0.241481 0.1
       vertex 0.0990896 -0.241481 0
       vertex 0.131163 -0.247861 0
    endloop
  endfacet
  facet normal -0.321425 -0.946935 0
    outer loop
       vertex 0.0990896 -0.241481 0
       vertex 0.0990896 -0.241481 0.1
       vertex 0.0681236 -0.23097 0.1
    endloop
  endfacet
  facet normal -0.321425 -0.946935 -0
    outer loop
       vertex 0.0681236 -0.23097 0.1
       vertex 0.0681236 -0.23097 0
       vertex 0.0990896 -0.241481 0
    endloop
  endfacet
  facet normal -0.442302 -0.896866 0
    outer loop
       vertex 0.0681236 -0.23097 0
       vertex 0.0681236 -0.23097 0.1
       vertex 0.0387946 -0.216506 0.1
    endloop
  endfacet
  facet normal -0.442302 -0.896866 -0
    outer loop
       vertex 0.0387946 -0.216506 0.1
       vertex 0.0387946 -0.216506 0
       vertex 0.0681236 -0.23097 0
    endloop
  endfacet
  facet normal -0.555561 -0.831476 0
    outer loop
       vertex 0.0387946 -0.216506 0
       vertex 0.0387946 -0.216506 0.1
       vertex 0.0116036 -0.198338 0.1
    endloop
  endfacet
  facet normal -0.555561 -0.831476 -0
    outer loop
       vertex 0.0116036 -0.198338 0.1
       vertex 0.0116036 -0.198338 0
       vertex 0.0387946 -0.216506 0
    endloop
  endfacet
  facet normal -0.659372 -0.751817 0
    outer loop
       vertex 0.0116036 -0.198338 0
       vertex 0.0116036 -0.198338 0.1
       vertex -0.0129814 -0.176776 0.1
    endloop
  endfacet
  facet normal -0.659372 -0.751817 -0
    outer loop
       vertex -0.0129814 -0.176776 0.1
       vertex -0.0129814 -0.176776 0
       vertex 0.0116036 -0.198338 0
    endloop
  endfacet
endsolid cylinder
