solid cylinder
  facet normal 0.751817 -0.659372 0
    outer loop
       vertex -0.0587795 -0.176776 0
       vertex -0.0372175 -0.152191 0
       vertex -0.0372175 -0.152191 0.1
    endloop
  endfacet
  facet normal 0.751817 -0.659372 0
    outer loop
       vertex -0.0372175 -0.152191 0.1
       vertex -0.0587795 -0.176776 0.1
       vertex -0.0587795 -0.176776 0
    endloop
  endfacet
  facet normal 0.831476 -0.555561 0
    outer loop
       vertex -0.0372175 -0.152191 0
       vertex -0.0190495 -0.125 0
       vertex -0.0190495 -0.125 0.1
    endloop
  endfacet
  facet normal 0.831476 -0.555561 0
    outer loop
       vertex -0.0190495 -0.125 0.1
       vertex -0.0372175 -0.152191 0.1
       vertex -0.0372175 -0.152191 0
    endloop
  endfacet
  facet normal 0.896866 -0.442302 0
    outer loop
       vertex -0.0190495 -0.125 0
       vertex -0.00458546 -0.095671 0
       vertex -0.00458546 -0.095671 0.1
    endloop
  endfacet
  facet normal 0.896866 -0.442302 0
    outer loop
       vertex -0.00458546 -0.095671 0.1
       vertex -0.0190495 -0.125 0.1
       vertex -0.0190495 -0.125 0
    endloop
  endfacet
  facet normal 0.946935 -0.321425 0
    outer loop
       vertex -0.00458546 -0.095671 0
       vertex 0.00592554 -0.064705 0
       vertex 0.00592554 -0.064705 0.1
    endloop
  endfacet
  facet normal 0.946935 -0.321425 0
    outer loop
       vertex 0.00592554 -0.064705 0.1
       vertex -0.00458546 -0.095671 0.1
       vertex -0.00458546 -0.095671 0
    endloop
  endfacet
  facet normal 0.980784 -0.195096 0
    outer loop
       vertex 0.00592554 -0.064705 0
       vertex 0.0123055 -0.0326315 0
       vertex 0.0123055 -0.0326315 0.1
    endloop
  endfacet
  facet normal 0.980784 -0.195096 0
    outer loop
       vertex 0.0123055 -0.0326315 0.1
       vertex 0.00592554 -0.064705 0.1
       vertex 0.00592554 -0.064705 0
    endloop
  endfacet
  facet normal 0.997858 -0.0654098 0
    outer loop
       vertex 0.0144445 -8.32665e-17 0.1
       vertex 0.0123055 -0.0326315 0.1
       vertex 0.0123055 -0.0326315 0
    endloop
  endfacet
  facet normal 0.997858 -0.0654098 -1.08928e-16
    outer loop
       vertex 0.0123055 -0.0326315 0
       vertex 0.0144445 8.32665e-17 0
       vertex 0.0144445 -8.32665e-17 0.1
    endloop
  endfacet
  facet normal 0.997858 0.0654098 0
    outer loop
       vertex 0.0144445 8.32665e-17 0
       vertex 0.0123055 0.0326315 0
       vertex 0.0123055 0.0326315 0.1
    endloop
  endfacet
  facet normal 0.997858 0.0654098 1.08928e-16
    outer loop
       vertex 0.0123055 0.0326315 0.1
       vertex 0.0144445 -8.32665e-17 0.1
       vertex 0.0144445 8.32665e-17 0
    endloop
  endfacet
  facet normal 0.980784 0.195096 0
    outer loop
       vertex 0.0123055 0.0326315 0
       vertex 0.00592554 0.064705 0
       vertex 0.00592554 0.064705 0.1
    endloop
  endfacet
  facet normal 0.980784 0.195096 0
    outer loop
       vertex 0.00592554 0.064705 0.1
       vertex 0.0123055 0.0326315 0.1
       vertex 0.0123055 0.0326315 0
    endloop
  endfacet
  facet normal 0.946935 0.321425 0
    outer loop
       vertex 0.00592554 0.064705 0
       vertex -0.00458546 0.095671 0
       vertex -0.00458546 0.095671 0.1
    endloop
  endfacet
  facet normal 0.946935 0.321425 0
    outer loop
       vertex -0.00458546 0.095671 0.1
       vertex 0.00592554 0.064705 0.1
       vertex 0.00592554 0.064705 0
    endloop
  endfacet
  facet normal 0.896866 0.442302 0
    outer loop
       vertex -0.00458546 0.095671 0
       vertex -0.0190495 0.125 0
       vertex -0.0190495 0.125 0.1
    endloop
  endfacet
  facet normal 0.896866 0.442302 0
    outer loop
       vertex -0.0190495 0.125 0.1
       vertex -0.00458546 0.095671 0.1
       vertex -0.00458546 0.095671 0
    endloop
  endfacet
  facet normal 0.831476 0.555561 0
    outer loop
       vertex -0.0190495 0.125 0
       vertex -0.0372175 0.152191 0
       vertex -0.0372175 0.152191 0.1
    endloop
  endfacet
  facet normal 0.831476 0.555561 0
    outer loop
       vertex -0.0372175 0.152191 0.1
       vertex -0.0190495 0.125 0.1
       vertex -0.0190495 0.125 0
    endloop
  endfacet
  facet normal 0.751817 0.659372 0
    outer loop
       vertex -0.0372175 0.152191 0
       vertex -0.0587795 0.176776 0
       vertex -0.0587795 0.176776 0.1
    endloop
  endfacet
  facet normal 0.751817 0.659372 0
    outer loop
       vertex -0.0587795 0.176776 0.1
       vertex -0.0372175 0.152191 0.1
       vertex -0.0372175 0.152191 0
    endloop
  endfacet
  facet normal 0.659372 0.751817 0
    outer loop
       vertex -0.0587795 0.176776 0
       vertex -0.0833645 0.198338 0
       vertex -0.0833645 0.198338 0.1
    endloop
  endfacet
  facet normal 0.659372 0.751817 0
    outer loop
       vertex -0.0833645 0.198338 0.1
       vertex -0.0587795 0.176776 0.1
       vertex -0.0587795 0.176776 0
    endloop
  endfacet
  facet normal 0.555561 0.831476 0
    outer loop
       vertex -0.0833645 0.198338 0
       vertex -0.110555 0.216506 0
       vertex -0.110555 0.216506 0.1
    endloop
  endfacet
  facet normal 0.555561 0.831476 0
    outer loop
       vertex -0.110555 0.216506 0.1
       vertex -0.0833645 0.198338 0.1
       vertex -0.0833645 0.198338 0
    endloop
  endfacet
  facet normal 0.442302 0.896866 0
    outer loop
       vertex -0.110555 0.216506 0
       vertex -0.139884 0.23097 0
       vertex -0.139884 0.23097 0.1
    endloop
  endfacet
  facet normal 0.442302 0.896866 0
    outer loop
       vertex -0.139884 0.23097 0.1
       vertex -0.110555 0.216506 0.1
       vertex -0.110555 0.216506 0
    endloop
  endfacet
  facet normal 0.321425 0.946935 0
    outer loop
       vertex -0.139884 0.23097 0
       vertex -0.17085 0.241481 0
       vertex -0.17085 0.241481 0.1
    endloop
  endfacet
  facet normal 0.321425 0.946935 0
    outer loop
       vertex -0.17085 0.241481 0.1
       vertex -0.139884 0.23097 0.1
       vertex -0.139884 0.23097 0
    endloop
  endfacet
  facet normal 0.195096 0.980784 0
    outer loop
       vertex -0.17085 0.241481 0
       vertex -0.202924 0.247861 0
       vertex -0.202924 0.247861 0.1
    endloop
  endfacet
  facet normal 0.195096 0.980784 0
    outer loop
       vertex -0.202924 0.247861 0.1
       vertex -0.17085 0.241481 0.1
       vertex -0.17085 0.241481 0
    endloop
  endfacet
  facet normal 0.0654098 0.997858 0
    outer loop
       vertex -0.235555 0.25 0.1
       vertex -0.202924 0.247861 0.1
       vertex -0.202924 0.247861 0
    endloop
  endfacet
  facet normal 0.0654098 0.997858 -1.0893e-16
    outer loop
       vertex -0.202924 0.247861 0
       vertex -0.235555 0.25 0
       vertex -0.235555 0.25 0.1
    endloop
  endfacet
  facet normal -0.0654098 0.997858 0
    outer loop
       vertex -0.235555 0.25 0
       vertex -0.268187 0.247861 0
       vertex -0.268187 0.247861 0.1
    endloop
  endfacet
  facet normal -0.0654098 0.997858 1.0893e-16
    outer loop
       vertex -0.268187 0.247861 0.1
       vertex -0.235555 0.25 0.1
       vertex -0.235555 0.25 0
    endloop
  endfacet
  facet normal -0.195096 0.980784 0
    outer loop
       vertex -0.268187 0.247861 0
       vertex -0.30026 0.241481 0
       vertex -0.30026 0.241481 0.1
    endloop
  endfacet
  facet normal -0.195096 0.980784 0
    outer loop
       vertex -0.30026 0.241481 0.1
       vertex -0.268187 0.247861 0.1
       vertex -0.268187 0.247861 0
    endloop
  endfacet
  facet normal -0.321425 0.946935 0
    outer loop
       vertex -0.30026 0.241481 0
       vertex -0.331226 0.23097 0
       vertex -0.331226 0.23097 0.1
    endloop
  endfacet
  facet normal -0.321425 0.946935 0
    outer loop
       vertex -0.331226 0.23097 0.1
       vertex -0.30026 0.241481 0.1
       vertex -0.30026 0.241481 0
    endloop
  endfacet
  facet normal -0.442302 0.896866 0
    outer loop
       vertex -0.331226 0.23097 0
       vertex -0.360555 0.216506 0
       vertex -0.360555 0.216506 0.1
    endloop
  endfacet
  facet normal -0.442302 0.896866 0
    outer loop
       vertex -0.360555 0.216506 0.1
       vertex -0.331226 0.23097 0.1
       vertex -0.331226 0.23097 0
    endloop
  endfacet
  facet normal -0.555561 0.831476 0
    outer loop
       vertex -0.360555 0.216506 0
       vertex -0.387746 0.198338 0
       vertex -0.387746 0.198338 0.1
    endloop
  endfacet
  facet normal -0.555561 0.831476 0
    outer loop
       vertex -0.387746 0.198338 0.1
       vertex -0.360555 0.216506 0.1
       vertex -0.360555 0.216506 0
    endloop
  endfacet
  facet normal -0.659372 0.751817 0
    outer loop
       vertex -0.387746 0.198338 0
       vertex -0.412331 0.176776 0
       vertex -0.412331 0.176776 0.1
    endloop
  endfacet
  facet normal -0.659372 0.751817 0
    outer loop
       vertex -0.412331 0.176776 0.1
       vertex -0.387746 0.198338 0.1
       vertex -0.387746 0.198338 0
    endloop
  endfacet
  facet normal -0.751817 0.659372 0
    outer loop
       vertex -0.412331 0.176776 0
       vertex -0.433893 0.152191 0
       vertex -0.433893 0.152191 0.1
    endloop
  endfacet
  facet normal -0.751817 0.659372 0
    outer loop
       vertex -0.433893 0.152191 0.1
       vertex -0.412331 0.176776 0.1
       vertex -0.412331 0.176776 0
    endloop
  endfacet
  facet normal -0.831476 0.555561 0
    outer loop
       vertex -0.433893 0.152191 0
       vertex -0.452061 0.125 0
       vertex -0.452061 0.125 0.1
    endloop
  endfacet
  facet normal -0.831476 0.555561 0
    outer loop
       vertex -0.452061 0.125 0.1
       vertex -0.433893 0.152191 0.1
       vertex -0.433893 0.152191 0
    endloop
  endfacet
  facet normal -0.896866 0.442302 0
    outer loop
       vertex -0.452061 0.125 0
       vertex -0.466525 0.095671 0
       vertex -0.466525 0.095671 0.1
    endloop
  endfacet
  facet normal -0.896866 0.442302 0
    outer loop
       vertex -0.466525 0.095671 0.1
       vertex -0.452061 0.125 0.1
       vertex -0.452061 0.125 0
    endloop
  endfacet
  facet normal -0.946935 0.321425 0
    outer loop
       vertex -0.466525 0.095671 0
       vertex -0.477036 0.064705 0
       vertex -0.477036 0.064705 0.1
    endloop
  endfacet
  facet normal -0.946935 0.321425 0
    outer loop
       vertex -0.477036 0.064705 0.1
       vertex -0.466525 0.095671 0.1
       vertex -0.466525 0.095671 0
    endloop
  endfacet
  facet normal -0.980784 0.195096 0
    outer loop
       vertex -0.477036 0.064705 0
       vertex -0.483416 0.0326315 0
       vertex -0.483416 0.0326315 0.1
    endloop
  endfacet
  facet normal -0.980784 0.195096 0
    outer loop
       vertex -0.483416 0.0326315 0.1
       vertex -0.477036 0.064705 0.1
       vertex -0.477036 0.064705 0
    endloop
  endfacet
  facet normal -0.997858 0.0654098 0
    outer loop
       vertex -0.485555 8.32665e-17 0.1
       vertex -0.483416 0.0326315 0.1
       vertex -0.483416 0.0326315 0
    endloop
  endfacet
  facet normal -0.997858 0.0654098 -1.08928e-16
    outer loop
       vertex -0.483416 0.0326315 0
       vertex -0.485555 -8.32665e-17 0
       vertex -0.485555 8.32665e-17 0.1
    endloop
  endfacet
  facet normal -0.997858 -0.0654098 0
    outer loop
       vertex -0.485555 -8.32665e-17 0
       vertex -0.483416 -0.0326315 0
       vertex -0.483416 -0.0326315 0.1
    endloop
  endfacet
  facet normal -0.997858 -0.0654098 1.08928e-16
    outer loop
       vertex -0.483416 -0.0326315 0.1
       vertex -0.485555 8.32665e-17 0.1
       vertex -0.485555 -8.32665e-17 0
    endloop
  endfacet
  facet normal -0.980784 -0.195096 0
    outer loop
       vertex -0.483416 -0.0326315 0
       vertex -0.477036 -0.064705 0
       vertex -0.477036 -0.064705 0.1
    endloop
  endfacet
  facet normal -0.980784 -0.195096 0
    outer loop
       vertex -0.477036 -0.064705 0.1
       vertex -0.483416 -0.0326315 0.1
       vertex -0.483416 -0.0326315 0
    endloop
  endfacet
  facet normal -0.946935 -0.321425 0
    outer loop
       vertex -0.477036 -0.064705 0
       vertex -0.466525 -0.095671 0
       vertex -0.466525 -0.095671 0.1
    endloop
  endfacet
  facet normal -0.946935 -0.321425 0
    outer loop
       vertex -0.466525 -0.095671 0.1
       vertex -0.477036 -0.064705 0.1
       vertex -0.477036 -0.064705 0
    endloop
  endfacet
  facet normal -0.896866 -0.442302 0
    outer loop
       vertex -0.466525 -0.095671 0
       vertex -0.452061 -0.125 0
       vertex -0.452061 -0.125 0.1
    endloop
  endfacet
  facet normal -0.896866 -0.442302 0
    outer loop
       vertex -0.452061 -0.125 0.1
       vertex -0.466525 -0.095671 0.1
       vertex -0.466525 -0.095671 0
    endloop
  endfacet
  facet normal -0.831476 -0.555561 0
    outer loop
       vertex -0.452061 -0.125 0
       vertex -0.433893 -0.152191 0
       vertex -0.433893 -0.152191 0.1
    endloop
  endfacet
  facet normal -0.831476 -0.555561 0
    outer loop
       vertex -0.433893 -0.152191 0.1
       vertex -0.452061 -0.125 0.1
       vertex -0.452061 -0.125 0
    endloop
  endfacet
  facet normal -0.751817 -0.659372 0
    outer loop
       vertex -0.433893 -0.152191 0
       vertex -0.412331 -0.176776 0
       vertex -0.412331 -0.176776 0.1
    endloop
  endfacet
  facet normal -0.751817 -0.659372 0
    outer loop
       vertex -0.412331 -0.176776 0.1
       vertex -0.433893 -0.152191 0.1
       vertex -0.433893 -0.152191 0
    endloop
  endfacet
  facet normal 0.659372 -0.751817 0
    outer loop
       vertex -0.0587795 -0.176776 0
       vertex -0.0587795 -0.176776 0.1
       vertex -0.0833645 -0.198338 0.1
    endloop
  endfacet
  facet normal 0.659372 -0.751817 0
    outer loop
       vertex -0.0833645 -0.198338 0.1
       vertex -0.0833645 -0.198338 0
       vertex -0.0587795 -0.176776 0
    endloop
  endfacet
  facet normal 0.555561 -0.831476 0
    outer loop
       vertex -0.0833645 -0.198338 0
       vertex -0.0833645 -0.198338 0.1
       vertex -0.110555 -0.216506 0.1
    endloop
  endfacet
  facet normal 0.555561 -0.831476 0
    outer loop
       vertex -0.110555 -0.216506 0.1
       vertex -0.110555 -0.216506 0
       vertex -0.0833645 -0.198338 0
    endloop
  endfacet
  facet normal 0.442302 -0.896866 0
    outer loop
       vertex -0.110555 -0.216506 0
       vertex -0.110555 -0.216506 0.1
       vertex -0.139884 -0.23097 0.1
    endloop
  endfacet
  facet normal 0.442302 -0.896866 0
    outer loop
       vertex -0.139884 -0.23097 0.1
       vertex -0.139884 -0.23097 0
       vertex -0.110555 -0.216506 0
    endloop
  endfacet
  facet normal 0.321425 -0.946935 0
    outer loop
       vertex -0.139884 -0.23097 0
       vertex -0.139884 -0.23097 0.1
       vertex -0.17085 -0.241481 0.1
    endloop
  endfacet
  facet normal 0.321425 -0.946935 0
    outer loop
       vertex -0.17085 -0.241481 0.1
       vertex -0.17085 -0.241481 0
       vertex -0.139884 -0.23097 0
    endloop
  endfacet
  facet normal 0.195096 -0.980784 0
    outer loop
       vertex -0.17085 -0.241481 0
       vertex -0.17085 -0.241481 0.1
       vertex -0.202924 -0.247861 0.1
    endloop
  endfacet
  facet normal 0.195096 -0.980784 0
    outer loop
       vertex -0.202924 -0.247861 0.1
       vertex -0.202924 -0.247861 0
       vertex -0.17085 -0.241481 0
    endloop
  endfacet
  facet normal 0.0654098 -0.997858 0
    outer loop
       vertex -0.235555 -0.25 0
       vertex -0.202924 -0.247861 0
       vertex -0.202924 -0.247861 0.1
    endloop
  endfacet
  facet normal 0.0654098 -0.997858 1.0893e-16
    outer loop
       vertex -0.202924 -0.247861 0.1
       vertex -0.235555 -0.25 0.1
       vertex -0.235555 -0.25 0
    endloop
  endfacet
  facet normal -0.0654098 -0.997858 0
    outer loop
       vertex -0.235555 -0.25 0.1
       vertex -0.268187 -0.247861 0.1
       vertex -0.268187 -0.247861 0
    endloop
  endfacet
  facet normal -0.0654098 -0.997858 -1.0893e-16
    outer loop
       vertex -0.268187 -0.247861 0
       vertex -0.235555 -0.25 0
       vertex -0.235555 -0.25 0.1
    endloop
  endfacet
  facet normal -0.195096 -0.980784 0
    outer loop
       vertex -0.268187 -0.247861 0
       vertex -0.268187 -0.247861 0.1
       vertex -0.30026 -0.241481 0.1
    endloop
  endfacet
  facet normal -0.195096 -0.980784 -0
    outer loop
       vertex -0.30026 -0.241481 0.1
       vertex -0.30026 -0.241481 0
       vertex -0.268187 -0.247861 0
    endloop
  endfacet
  facet normal -0.321425 -0.946935 0
    outer loop
       vertex -0.30026 -0.241481 0
       vertex -0.30026 -0.241481 0.1
       vertex -0.331226 -0.23097 0.1
    endloop
  endfacet
  facet normal -0.321425 -0.946935 -0
    outer loop
       vertex -0.331226 -0.23097 0.1
       vertex -0.331226 -0.23097 0
       vertex -0.30026 -0.241481 0
    endloop
  endfacet
  facet normal -0.442302 -0.896866 0
    outer loop
       vertex -0.331226 -0.23097 0
       vertex -0.331226 -0.23097 0.1
       vertex -0.360555 -0.216506 0.1
    endloop
  endfacet
  facet normal -0.442302 -0.896866 -0
    outer loop
       vertex -0.360555 -0.216506 0.1
       vertex -0.360555 -0.216506 0
       vertex -0.331226 -0.23097 0
    endloop
  endfacet
  facet normal -0.555561 -0.831476 0
    outer loop
       vertex -0.360555 -0.216506 0
       vertex -0.360555 -0.216506 0.1
       vertex -0.387746 -0.198338 0.1
    endloop
  endfacet
  facet normal -0.555561 -0.831476 -0
    outer loop
       vertex -0.387746 -0.198338 0.1
       vertex -0.387746 -0.198338 0
       vertex -0.360555 -0.216506 0
    endloop
  endfacet
  facet normal -0.659372 -0.751817 0
    outer loop
       vertex -0.387746 -0.198338 0
       vertex -0.387746 -0.198338 0.1
       vertex -0.412331 -0.176776 0.1
    endloop
  endfacet
  facet normal -0.659372 -0.751817 -0
    outer loop
       vertex -0.412331 -0.176776 0.1
       vertex -0.412331 -0.176776 0
       vertex -0.387746 -0.198338 0
    endloop
  endfacet
endsolid cylinder
