solid cylinder
  facet normal 0.751817 -0.659372 0
    outer loop
       vertex 0.206929 -0.176776 0
       vertex 0.228491 -0.152191 0
       vertex 0.228491 -0.152191 0.1
    endloop
  endfacet
  facet normal 0.751817 -0.659372 0
    outer loop
       vertex 0.228491 -0.152191 0.1
       vertex 0.206929 -0.176776 0.1
       vertex 0.206929 -0.176776 0
    endloop
  endfacet
  facet normal 0.831476 -0.555561 0
    outer loop
       vertex 0.228491 -0.152191 0
       vertex 0.246659 -0.125 0
       vertex 0.246659 -0.125 0.1
    endloop
  endfacet
  facet normal 0.831476 -0.555561 0
    outer loop
       vertex 0.246659 -0.125 0.1
       vertex 0.228491 -0.152191 0.1
       vertex 0.228491 -0.152191 0
    endloop
  endfacet
  facet normal 0.896866 -0.442302 0
    outer loop
       vertex 0.246659 -0.125 0
       vertex 0.261123 -0.095671 0
       vertex 0.261123 -0.095671 0.1
    endloop
  endfacet
  facet normal 0.896866 -0.442302 0
    outer loop
       vertex 0.261123 -0.095671 0.1
       vertex 0.246659 -0.125 0.1
       vertex 0.246659 -0.125 0
    endloop
  endfacet
  facet normal 0.946935 -0.321425 0
    outer loop
       vertex 0.261123 -0.095671 0
       vertex 0.271634 -0.064705 0
       vertex 0.271634 -0.064705 0.1
    endloop
  endfacet
  facet normal 0.946935 -0.321425 0
    outer loop
       vertex 0.271634 -0.064705 0.1
       vertex 0.261123 -0.095671 0.1
       vertex 0.261123 -0.095671 0
    endloop
  endfacet
  facet normal 0.980784 -0.195096 0
    outer loop
       vertex 0.271634 -0.064705 0
       vertex 0.278014 -0.0326315 0
       vertex 0.278014 -0.0326315 0.1
    endloop
  endfacet
  facet normal 0.980784 -0.195096 0
    outer loop
       vertex 0.278014 -0.0326315 0.1
       vertex 0.271634 -0.064705 0.1
       vertex 0.271634 -0.064705 0
    endloop
  endfacet
  facet normal 0.997858 -0.0654098 0
    outer loop
       vertex 0.280153 -8.32665e-17 0.1
       vertex 0.278014 -0.0326315 0.1
       vertex 0.278014 -0.0326315 0
    endloop
  endfacet
  facet normal 0.997858 -0.0654098 -1.08928e-16
    outer loop
       vertex 0.278014 -0.0326315 0
       vertex 0.280153 8.32665e-17 0
       vertex 0.280153 -8.32665e-17 0.1
    endloop
  endfacet
  facet normal 0.997858 0.0654098 0
    outer loop
       vertex 0.280153 8.32665e-17 0
       vertex 0.278014 0.0326315 0
       vertex 0.278014 0.0326315 0.1
    endloop
  endfacet
  facet normal 0.997858 0.0654098 1.08928e-16
    outer loop
       vertex 0.278014 0.0326315 0.1
       vertex 0.280153 -8.32665e-17 0.1
       vertex 0.280153 8.32665e-17 0
    endloop
  endfacet
  facet normal 0.980784 0.195096 0
    outer loop
       vertex 0.278014 0.0326315 0
       vertex 0.271634 0.064705 0
       vertex 0.271634 0.064705 0.1
    endloop
  endfacet
  facet normal 0.980784 0.195096 0
    outer loop
       vertex 0.271634 0.064705 0.1
       vertex 0.278014 0.0326315 0.1
       vertex 0.278014 0.0326315 0
    endloop
  endfacet
  facet normal 0.946935 0.321425 0
    outer loop
       vertex 0.271634 0.064705 0
       vertex 0.261123 0.095671 0
       vertex 0.261123 0.095671 0.1
    endloop
  endfacet
  facet normal 0.946935 0.321425 0
    outer loop
       vertex 0.261123 0.095671 0.1
       vertex 0.271634 0.064705 0.1
       vertex 0.271634 0.064705 0
    endloop
  endfacet
  facet normal 0.896866 0.442302 0
    outer loop
       vertex 0.261123 0.095671 0
       vertex 0.246659 0.125 0
       vertex 0.246659 0.125 0.1
    endloop
  endfacet
  facet normal 0.896866 0.442302 0
    outer loop
       vertex 0.246659 0.125 0.1
       vertex 0.261123 0.095671 0.1
       vertex 0.261123 0.095671 0
    endloop
  endfacet
  facet normal 0.831476 0.555561 0
    outer loop
       vertex 0.246659 0.125 0
       vertex 0.228491 0.152191 0
       vertex 0.228491 0.152191 0.1
    endloop
  endfacet
  facet normal 0.831476 0.555561 0
    outer loop
       vertex 0.228491 0.152191 0.1
       vertex 0.246659 0.125 0.1
       vertex 0.246659 0.125 0
    endloop
  endfacet
  facet normal 0.751817 0.659372 0
    outer loop
       vertex 0.228491 0.152191 0
       vertex 0.206929 0.176776 0
       vertex 0.206929 0.176776 0.1
    endloop
  endfacet
  facet normal 0.751817 0.659372 0
    outer loop
       vertex 0.206929 0.176776 0.1
       vertex 0.228491 0.152191 0.1
       vertex 0.228491 0.152191 0
    endloop
  endfacet
  facet normal 0.659372 0.751817 0
    outer loop
       vertex 0.206929 0.176776 0
       vertex 0.182344 0.198338 0
       vertex 0.182344 0.198338 0.1
    endloop
  endfacet
  facet normal 0.659372 0.751817 0
    outer loop
       vertex 0.182344 0.198338 0.1
       vertex 0.206929 0.176776 0.1
       vertex 0.206929 0.176776 0
    endloop
  endfacet
  facet normal 0.555561 0.831476 0
    outer loop
       vertex 0.182344 0.198338 0
       vertex 0.155153 0.216506 0
       vertex 0.155153 0.216506 0.1
    endloop
  endfacet
  facet normal 0.555561 0.831476 0
    outer loop
       vertex 0.155153 0.216506 0.1
       vertex 0.182344 0.198338 0.1
       vertex 0.182344 0.198338 0
    endloop
  endfacet
  facet normal 0.442302 0.896866 0
    outer loop
       vertex 0.155153 0.216506 0
       vertex 0.125824 0.23097 0
       vertex 0.125824 0.23097 0.1
    endloop
  endfacet
  facet normal 0.442302 0.896866 0
    outer loop
       vertex 0.125824 0.23097 0.1
       vertex 0.155153 0.216506 0.1
       vertex 0.155153 0.216506 0
    endloop
  endfacet
  facet normal 0.321425 0.946935 0
    outer loop
       vertex 0.125824 0.23097 0
       vertex 0.0948581 0.241481 0
       vertex 0.0948581 0.241481 0.1
    endloop
  endfacet
  facet normal 0.321425 0.946935 0
    outer loop
       vertex 0.0948581 0.241481 0.1
       vertex 0.125824 0.23097 0.1
       vertex 0.125824 0.23097 0
    endloop
  endfacet
  facet normal 0.195096 0.980784 0
    outer loop
       vertex 0.0948581 0.241481 0
       vertex 0.0627846 0.247861 0
       vertex 0.0627846 0.247861 0.1
    endloop
  endfacet
  facet normal 0.195096 0.980784 0
    outer loop
       vertex 0.0627846 0.247861 0.1
       vertex 0.0948581 0.241481 0.1
       vertex 0.0948581 0.241481 0
    endloop
  endfacet
  facet normal 0.0654098 0.997858 0
    outer loop
       vertex 0.0301531 0.25 0.1
       vertex 0.0627846 0.247861 0.1
       vertex 0.0627846 0.247861 0
    endloop
  endfacet
  facet normal 0.0654098 0.997858 -1.0893e-16
    outer loop
       vertex 0.0627846 0.247861 0
       vertex 0.0301531 0.25 0
       vertex 0.0301531 0.25 0.1
    endloop
  endfacet
  facet normal -0.0654098 0.997858 0
    outer loop
       vertex 0.0301531 0.25 0
       vertex -0.00247841 0.247861 0
       vertex -0.00247841 0.247861 0.1
    endloop
  endfacet
  facet normal -0.0654098 0.997858 1.08928e-16
    outer loop
       vertex -0.00247841 0.247861 0.1
       vertex 0.0301531 0.25 0.1
       vertex 0.0301531 0.25 0
    endloop
  endfacet
  facet normal -0.195096 0.980784 0
    outer loop
       vertex -0.00247841 0.247861 0
       vertex -0.0345519 0.241481 0
       vertex -0.0345519 0.241481 0.1
    endloop
  endfacet
  facet normal -0.195096 0.980784 0
    outer loop
       vertex -0.0345519 0.241481 0.1
       vertex -0.00247841 0.247861 0.1
       vertex -0.00247841 0.247861 0
    endloop
  endfacet
  facet normal -0.321425 0.946935 0
    outer loop
       vertex -0.0345519 0.241481 0
       vertex -0.0655179 0.23097 0
       vertex -0.0655179 0.23097 0.1
    endloop
  endfacet
  facet normal -0.321425 0.946935 0
    outer loop
       vertex -0.0655179 0.23097 0.1
       vertex -0.0345519 0.241481 0.1
       vertex -0.0345519 0.241481 0
    endloop
  endfacet
  facet normal -0.442302 0.896866 0
    outer loop
       vertex -0.0655179 0.23097 0
       vertex -0.0948469 0.216506 0
       vertex -0.0948469 0.216506 0.1
    endloop
  endfacet
  facet normal -0.442302 0.896866 0
    outer loop
       vertex -0.0948469 0.216506 0.1
       vertex -0.0655179 0.23097 0.1
       vertex -0.0655179 0.23097 0
    endloop
  endfacet
  facet normal -0.555561 0.831476 0
    outer loop
       vertex -0.0948469 0.216506 0
       vertex -0.122038 0.198338 0
       vertex -0.122038 0.198338 0.1
    endloop
  endfacet
  facet normal -0.555561 0.831476 0
    outer loop
       vertex -0.122038 0.198338 0.1
       vertex -0.0948469 0.216506 0.1
       vertex -0.0948469 0.216506 0
    endloop
  endfacet
  facet normal -0.659372 0.751817 0
    outer loop
       vertex -0.122038 0.198338 0
       vertex -0.146623 0.176776 0
       vertex -0.146623 0.176776 0.1
    endloop
  endfacet
  facet normal -0.659372 0.751817 0
    outer loop
       vertex -0.146623 0.176776 0.1
       vertex -0.122038 0.198338 0.1
       vertex -0.122038 0.198338 0
    endloop
  endfacet
  facet normal -0.751817 0.659372 0
    outer loop
       vertex -0.146623 0.176776 0
       vertex -0.168185 0.152191 0
       vertex -0.168185 0.152191 0.1
    endloop
  endfacet
  facet normal -0.751817 0.659372 0
    outer loop
       vertex -0.168185 0.152191 0.1
       vertex -0.146623 0.176776 0.1
       vertex -0.146623 0.176776 0
    endloop
  endfacet
  facet normal -0.831476 0.555561 0
    outer loop
       vertex -0.168185 0.152191 0
       vertex -0.186353 0.125 0
       vertex -0.186353 0.125 0.1
    endloop
  endfacet
  facet normal -0.831476 0.555561 0
    outer loop
       vertex -0.186353 0.125 0.1
       vertex -0.168185 0.152191 0.1
       vertex -0.168185 0.152191 0
    endloop
  endfacet
  facet normal -0.896866 0.442302 0
    outer loop
       vertex -0.186353 0.125 0
       vertex -0.200817 0.095671 0
       vertex -0.200817 0.095671 0.1
    endloop
  endfacet
  facet normal -0.896866 0.442302 0
    outer loop
       vertex -0.200817 0.095671 0.1
       vertex -0.186353 0.125 0.1
       vertex -0.186353 0.125 0
    endloop
  endfacet
  facet normal -0.946935 0.321425 0
    outer loop
       vertex -0.200817 0.095671 0
       vertex -0.211328 0.064705 0
       vertex -0.211328 0.064705 0.1
    endloop
  endfacet
  facet normal -0.946935 0.321425 0
    outer loop
       vertex -0.211328 0.064705 0.1
       vertex -0.200817 0.095671 0.1
       vertex -0.200817 0.095671 0
    endloop
  endfacet
  facet normal -0.980784 0.195096 0
    outer loop
       vertex -0.211328 0.064705 0
       vertex -0.217708 0.0326315 0
       vertex -0.217708 0.0326315 0.1
    endloop
  endfacet
  facet normal -0.980784 0.195096 0
    outer loop
       vertex -0.217708 0.0326315 0.1
       vertex -0.211328 0.064705 0.1
       vertex -0.211328 0.064705 0
    endloop
  endfacet
  facet normal -0.997858 0.0654098 0
    outer loop
       vertex -0.219847 8.32665e-17 0.1
       vertex -0.217708 0.0326315 0.1
       vertex -0.217708 0.0326315 0
    endloop
  endfacet
  facet normal -0.997858 0.0654098 -1.08928e-16
    outer loop
       vertex -0.217708 0.0326315 0
       vertex -0.219847 -8.32665e-17 0
       vertex -0.219847 8.32665e-17 0.1
    endloop
  endfacet
  facet normal -0.997858 -0.0654098 0
    outer loop
       vertex -0.219847 -8.32665e-17 0
       vertex -0.217708 -0.0326315 0
       vertex -0.217708 -0.0326315 0.1
    endloop
  endfacet
  facet normal -0.997858 -0.0654098 1.08928e-16
    outer loop
       vertex -0.217708 -0.0326315 0.1
       vertex -0.219847 8.32665e-17 0.1
       vertex -0.219847 -8.32665e-17 0
    endloop
  endfacet
  facet normal -0.980784 -0.195096 0
    outer loop
       vertex -0.217708 -0.0326315 0
       vertex -0.211328 -0.064705 0
       vertex -0.211328 -0.064705 0.1
    endloop
  endfacet
  facet normal -0.980784 -0.195096 0
    outer loop
       vertex -0.211328 -0.064705 0.1
       vertex -0.217708 -0.0326315 0.1
       vertex -0.217708 -0.0326315 0
    endloop
  endfacet
  facet normal -0.946935 -0.321425 0
    outer loop
       vertex -0.211328 -0.064705 0
       vertex -0.200817 -0.095671 0
       vertex -0.200817 -0.095671 0.1
    endloop
  endfacet
  facet normal -0.946935 -0.321425 0
    outer loop
       vertex -0.200817 -0.095671 0.1
       vertex -0.211328 -0.064705 0.1
       vertex -0.211328 -0.064705 0
    endloop
  endfacet
  facet normal -0.896866 -0.442302 0
    outer loop
       vertex -0.200817 -0.095671 0
       vertex -0.186353 -0.125 0
       vertex -0.186353 -0.125 0.1
    endloop
  endfacet
  facet normal -0.896866 -0.442302 0
    outer loop
       vertex -0.186353 -0.125 0.1
       vertex -0.200817 -0.095671 0.1
       vertex -0.200817 -0.095671 0
    endloop
  endfacet
  facet normal -0.831476 -0.555561 0
    outer loop
       vertex -0.186353 -0.125 0
       vertex -0.168185 -0.152191 0
       vertex -0.168185 -0.152191 0.1
    endloop
  endfacet
  facet normal -0.831476 -0.555561 0
    outer loop
       vertex -0.168185 -0.152191 0.1
       vertex -0.186353 -0.125 0.1
       vertex -0.186353 -0.125 0
    endloop
  endfacet
  facet normal -0.751817 -0.659372 0
    outer loop
       vertex -0.168185 -0.152191 0
       vertex -0.146623 -0.176776 0
       vertex -0.146623 -0.176776 0.1
    endloop
  endfacet
  facet normal -0.751817 -0.659372 0
    outer loop
       vertex -0.146623 -0.176776 0.1
       vertex -0.168185 -0.152191 0.1
       vertex -0.168185 -0.152191 0
    endloop
  endfacet
  facet normal 0.659372 -0.751817 0
    outer loop
       vertex 0.206929 -0.176776 0
       vertex 0.206929 -0.176776 0.1
       vertex 0.182344 -0.198338 0.1
    endloop
  endfacet
  facet normal 0.659372 -0.751817 0
    outer loop
       vertex 0.182344 -0.198338 0.1
       vertex 0.182344 -0.198338 0
       vertex 0.206929 -0.176776 0
    endloop
  endfacet
  facet normal 0.555561 -0.831476 0
    outer loop
       vertex 0.182344 -0.198338 0
       vertex 0.182344 -0.198338 0.1
       vertex 0.155153 -0.216506 0.1
    endloop
  endfacet
  facet normal 0.555561 -0.831476 0
    outer loop
       vertex 0.155153 -0.216506 0.1
       vertex 0.155153 -0.216506 0
       vertex 0.182344 -0.198338 0
    endloop
  endfacet
  facet normal 0.442302 -0.896866 0
    outer loop
       vertex 0.155153 -0.216506 0
       vertex 0.155153 -0.216506 0.1
       vertex 0.125824 -0.23097 0.1
    endloop
  endfacet
  facet normal 0.442302 -0.896866 0
    outer loop
       vertex 0.125824 -0.23097 0.1
       vertex 0.125824 -0.23097 0
       vertex 0.155153 -0.216506 0
    endloop
  endfacet
  facet normal 0.321425 -0.946935 0
    outer loop
       vertex 0.125824 -0.23097 0
       vertex 0.125824 -0.23097 0.1
       vertex 0.0948581 -0.241481 0.1
    endloop
  endfacet
  facet normal 0.321425 -0.946935 0
    outer loop
       vertex 0.0948581 -0.241481 0.1
       vertex 0.0948581 -0.241481 0
       vertex 0.125824 -0.23097 0
    endloop
  endfacet
  facet normal 0.195096 -0.980784 0
    outer loop
       vertex 0.0948581 -0.241481 0
       vertex 0.0948581 -0.241481 0.1
       vertex 0.0627846 -0.247861 0.1
    endloop
  endfacet
  facet normal 0.195096 -0.980784 0
    outer loop
       vertex 0.0627846 -0.247861 0.1
       vertex 0.0627846 -0.247861 0
       vertex 0.0948581 -0.241481 0
    endloop
  endfacet
  facet normal 0.0654098 -0.997858 0
    outer loop
       vertex 0.0301531 -0.25 0
       vertex 0.0627846 -0.247861 0
       vertex 0.0627846 -0.247861 0.1
    endloop
  endfacet
  facet normal 0.0654098 -0.997858 1.0893e-16
    outer loop
       vertex 0.0627846 -0.247861 0.1
       vertex 0.0301531 -0.25 0.1
       vertex 0.0301531 -0.25 0
    endloop
  endfacet
  facet normal -0.0654098 -0.997858 0
    outer loop
       vertex 0.0301531 -0.25 0.1
       vertex -0.00247841 -0.247861 0.1
       vertex -0.00247841 -0.247861 0
    endloop
  endfacet
  facet normal -0.0654098 -0.997858 -1.08928e-16
    outer loop
       vertex -0.00247841 -0.247861 0
       vertex 0.0301531 -0.25 0
       vertex 0.0301531 -0.25 0.1
    endloop
  endfacet
  facet normal -0.195096 -0.980784 0
    outer loop
       vertex -0.00247841 -0.247861 0
       vertex -0.00247841 -0.247861 0.1
       vertex -0.0345519 -0.241481 0.1
    endloop
  endfacet
  facet normal -0.195096 -0.980784 -0
    outer loop
       vertex -0.0345519 -0.241481 0.1
       vertex -0.0345519 -0.241481 0
       vertex -0.00247841 -0.247861 0
    endloop
  endfacet
  facet normal -0.321425 -0.946935 0
    outer loop
       vertex -0.0345519 -0.241481 0
       vertex -0.0345519 -0.241481 0.1
       vertex -0.0655179 -0.23097 0.1
    endloop
  endfacet
  facet normal -0.321425 -0.946935 -0
    outer loop
       vertex -0.0655179 -0.23097 0.1
       vertex -0.0655179 -0.23097 0
       vertex -0.0345519 -0.241481 0
    endloop
  endfacet
  facet normal -0.442302 -0.896866 0
    outer loop
       vertex -0.0655179 -0.23097 0
       vertex -0.0655179 -0.23097 0.1
       vertex -0.0948469 -0.216506 0.1
    endloop
  endfacet
  facet normal -0.442302 -0.896866 -0
    outer loop
       vertex -0.0948469 -0.216506 0.1
       vertex -0.0948469 -0.216506 0
       vertex -0.0655179 -0.23097 0
    endloop
  endfacet
  facet normal -0.555561 -0.831476 0
    outer loop
       vertex -0.0948469 -0.216506 0
       vertex -0.0948469 -0.216506 0.1
       vertex -0.122038 -0.198338 0.1
    endloop
  endfacet
  facet normal -0.555561 -0.831476 -0
    outer loop
       vertex -0.122038 -0.198338 0.1
       vertex -0.122038 -0.198338 0
       vertex -0.0948469 -0.216506 0
    endloop
  endfacet
  facet normal -0.659372 -0.751817 0
    outer loop
       vertex -0.122038 -0.198338 0
       vertex -0.122038 -0.198338 0.1
       vertex -0.146623 -0.176776 0.1
    endloop
  endfacet
  facet normal -0.659372 -0.751817 -0
    outer loop
       vertex -0.146623 -0.176776 0.1
       vertex -0.146623 -0.176776 0
       vertex -0.122038 -0.198338 0
    endloop
  endfacet
endsolid cylinder
