solid cylinder
  facet normal 0.751817 -0.659372 0
    outer loop
       vertex 0.448282 -0.176776 0
       vertex 0.469844 -0.152191 0
       vertex 0.469844 -0.152191 0.1
    endloop
  endfacet
  facet normal 0.751817 -0.659372 0
    outer loop
       vertex 0.469844 -0.152191 0.1
       vertex 0.448282 -0.176776 0.1
       vertex 0.448282 -0.176776 0
    endloop
  endfacet
  facet normal 0.831476 -0.555561 0
    outer loop
       vertex 0.469844 -0.152191 0
       vertex 0.488012 -0.125 0
       vertex 0.488012 -0.125 0.1
    endloop
  endfacet
  facet normal 0.831476 -0.555561 0
    outer loop
       vertex 0.488012 -0.125 0.1
       vertex 0.469844 -0.152191 0.1
       vertex 0.469844 -0.152191 0
    endloop
  endfacet
  facet normal 0.896866 -0.442302 0
    outer loop
       vertex 0.488012 -0.125 0
       vertex 0.502476 -0.095671 0
       vertex 0.502476 -0.095671 0.1
    endloop
  endfacet
  facet normal 0.896866 -0.442302 0
    outer loop
       vertex 0.502476 -0.095671 0.1
       vertex 0.488012 -0.125 0.1
       vertex 0.488012 -0.125 0
    endloop
  endfacet
  facet normal 0.946935 -0.321425 0
    outer loop
       vertex 0.502476 -0.095671 0
       vertex 0.512987 -0.064705 0
       vertex 0.512987 -0.064705 0.1
    endloop
  endfacet
  facet normal 0.946935 -0.321425 0
    outer loop
       vertex 0.512987 -0.064705 0.1
       vertex 0.502476 -0.095671 0.1
       vertex 0.502476 -0.095671 0
    endloop
  endfacet
  facet normal 0.980784 -0.195096 0
    outer loop
       vertex 0.512987 -0.064705 0
       vertex 0.519367 -0.0326315 0
       vertex 0.519367 -0.0326315 0.1
    endloop
  endfacet
  facet normal 0.980784 -0.195096 0
    outer loop
       vertex 0.519367 -0.0326315 0.1
       vertex 0.512987 -0.064705 0.1
       vertex 0.512987 -0.064705 0
    endloop
  endfacet
  facet normal 0.997858 -0.0654098 0
    outer loop
       vertex 0.521506 -8.32665e-17 0.1
       vertex 0.519367 -0.0326315 0.1
       vertex 0.519367 -0.0326315 0
    endloop
  endfacet
  facet normal 0.997858 -0.0654098 -1.0893e-16
    outer loop
       vertex 0.519367 -0.0326315 0
       vertex 0.521506 8.32665e-17 0
       vertex 0.521506 -8.32665e-17 0.1
    endloop
  endfacet
  facet normal 0.997858 0.0654098 0
    outer loop
       vertex 0.521506 8.32665e-17 0
       vertex 0.519367 0.0326315 0
       vertex 0.519367 0.0326315 0.1
    endloop
  endfacet
  facet normal 0.997858 0.0654098 1.0893e-16
    outer loop
       vertex 0.519367 0.0326315 0.1
       vertex 0.521506 -8.32665e-17 0.1
       vertex 0.521506 8.32665e-17 0
    endloop
  endfacet
  facet normal 0.980784 0.195096 0
    outer loop
       vertex 0.519367 0.0326315 0
       vertex 0.512987 0.064705 0
       vertex 0.512987 0.064705 0.1
    endloop
  endfacet
  facet normal 0.980784 0.195096 0
    outer loop
       vertex 0.512987 0.064705 0.1
       vertex 0.519367 0.0326315 0.1
       vertex 0.519367 0.0326315 0
    endloop
  endfacet
  facet normal 0.946935 0.321425 0
    outer loop
       vertex 0.512987 0.064705 0
       vertex 0.502476 0.095671 0
       vertex 0.502476 0.095671 0.1
    endloop
  endfacet
  facet normal 0.946935 0.321425 0
    outer loop
       vertex 0.502476 0.095671 0.1
       vertex 0.512987 0.064705 0.1
       vertex 0.512987 0.064705 0
    endloop
  endfacet
  facet normal 0.896866 0.442302 0
    outer loop
       vertex 0.502476 0.095671 0
       vertex 0.488012 0.125 0
       vertex 0.488012 0.125 0.1
    endloop
  endfacet
  facet normal 0.896866 0.442302 0
    outer loop
       vertex 0.488012 0.125 0.1
       vertex 0.502476 0.095671 0.1
       vertex 0.502476 0.095671 0
    endloop
  endfacet
  facet normal 0.831476 0.555561 0
    outer loop
       vertex 0.488012 0.125 0
       vertex 0.469844 0.152191 0
       vertex 0.469844 0.152191 0.1
    endloop
  endfacet
  facet normal 0.831476 0.555561 0
    outer loop
       vertex 0.469844 0.152191 0.1
       vertex 0.488012 0.125 0.1
       vertex 0.488012 0.125 0
    endloop
  endfacet
  facet normal 0.751817 0.659372 0
    outer loop
       vertex 0.469844 0.152191 0
       vertex 0.448282 0.176776 0
       vertex 0.448282 0.176776 0.1
    endloop
  endfacet
  facet normal 0.751817 0.659372 0
    outer loop
       vertex 0.448282 0.176776 0.1
       vertex 0.469844 0.152191 0.1
       vertex 0.469844 0.152191 0
    endloop
  endfacet
  facet normal 0.659372 0.751817 0
    outer loop
       vertex 0.448282 0.176776 0
       vertex 0.423697 0.198338 0
       vertex 0.423697 0.198338 0.1
    endloop
  endfacet
  facet normal 0.659372 0.751817 0
    outer loop
       vertex 0.423697 0.198338 0.1
       vertex 0.448282 0.176776 0.1
       vertex 0.448282 0.176776 0
    endloop
  endfacet
  facet normal 0.555561 0.831476 0
    outer loop
       vertex 0.423697 0.198338 0
       vertex 0.396506 0.216506 0
       vertex 0.396506 0.216506 0.1
    endloop
  endfacet
  facet normal 0.555561 0.831476 0
    outer loop
       vertex 0.396506 0.216506 0.1
       vertex 0.423697 0.198338 0.1
       vertex 0.423697 0.198338 0
    endloop
  endfacet
  facet normal 0.442302 0.896866 0
    outer loop
       vertex 0.396506 0.216506 0
       vertex 0.367177 0.23097 0
       vertex 0.367177 0.23097 0.1
    endloop
  endfacet
  facet normal 0.442302 0.896866 0
    outer loop
       vertex 0.367177 0.23097 0.1
       vertex 0.396506 0.216506 0.1
       vertex 0.396506 0.216506 0
    endloop
  endfacet
  facet normal 0.321425 0.946935 0
    outer loop
       vertex 0.367177 0.23097 0
       vertex 0.336211 0.241481 0
       vertex 0.336211 0.241481 0.1
    endloop
  endfacet
  facet normal 0.321425 0.946935 0
    outer loop
       vertex 0.336211 0.241481 0.1
       vertex 0.367177 0.23097 0.1
       vertex 0.367177 0.23097 0
    endloop
  endfacet
  facet normal 0.195096 0.980784 0
    outer loop
       vertex 0.336211 0.241481 0
       vertex 0.304138 0.247861 0
       vertex 0.304138 0.247861 0.1
    endloop
  endfacet
  facet normal 0.195096 0.980784 0
    outer loop
       vertex 0.304138 0.247861 0.1
       vertex 0.336211 0.241481 0.1
       vertex 0.336211 0.241481 0
    endloop
  endfacet
  facet normal 0.0654098 0.997858 0
    outer loop
       vertex 0.271506 0.25 0.1
       vertex 0.304138 0.247861 0.1
       vertex 0.304138 0.247861 0
    endloop
  endfacet
  facet normal 0.0654098 0.997858 -7.26205e-17
    outer loop
       vertex 0.304138 0.247861 0
       vertex 0.271506 0.25 0
       vertex 0.271506 0.25 0.1
    endloop
  endfacet
  facet normal -0.0654098 0.997858 0
    outer loop
       vertex 0.271506 0.25 0
       vertex 0.238875 0.247861 0
       vertex 0.238875 0.247861 0.1
    endloop
  endfacet
  facet normal -0.0654098 0.997858 7.26205e-17
    outer loop
       vertex 0.238875 0.247861 0.1
       vertex 0.271506 0.25 0.1
       vertex 0.271506 0.25 0
    endloop
  endfacet
  facet normal -0.195096 0.980784 0
    outer loop
       vertex 0.238875 0.247861 0
       vertex 0.206801 0.241481 0
       vertex 0.206801 0.241481 0.1
    endloop
  endfacet
  facet normal -0.195096 0.980784 0
    outer loop
       vertex 0.206801 0.241481 0.1
       vertex 0.238875 0.247861 0.1
       vertex 0.238875 0.247861 0
    endloop
  endfacet
  facet normal -0.321425 0.946935 0
    outer loop
       vertex 0.206801 0.241481 0
       vertex 0.175835 0.23097 0
       vertex 0.175835 0.23097 0.1
    endloop
  endfacet
  facet normal -0.321425 0.946935 0
    outer loop
       vertex 0.175835 0.23097 0.1
       vertex 0.206801 0.241481 0.1
       vertex 0.206801 0.241481 0
    endloop
  endfacet
  facet normal -0.442302 0.896866 0
    outer loop
       vertex 0.175835 0.23097 0
       vertex 0.146506 0.216506 0
       vertex 0.146506 0.216506 0.1
    endloop
  endfacet
  facet normal -0.442302 0.896866 0
    outer loop
       vertex 0.146506 0.216506 0.1
       vertex 0.175835 0.23097 0.1
       vertex 0.175835 0.23097 0
    endloop
  endfacet
  facet normal -0.555561 0.831476 0
    outer loop
       vertex 0.146506 0.216506 0
       vertex 0.119315 0.198338 0
       vertex 0.119315 0.198338 0.1
    endloop
  endfacet
  facet normal -0.555561 0.831476 0
    outer loop
       vertex 0.119315 0.198338 0.1
       vertex 0.146506 0.216506 0.1
       vertex 0.146506 0.216506 0
    endloop
  endfacet
  facet normal -0.659372 0.751817 0
    outer loop
       vertex 0.119315 0.198338 0
       vertex 0.0947302 0.176776 0
       vertex 0.0947302 0.176776 0.1
    endloop
  endfacet
  facet normal -0.659372 0.751817 0
    outer loop
       vertex 0.0947302 0.176776 0.1
       vertex 0.119315 0.198338 0.1
       vertex 0.119315 0.198338 0
    endloop
  endfacet
  facet normal -0.751817 0.659372 0
    outer loop
       vertex 0.0947302 0.176776 0
       vertex 0.0731682 0.152191 0
       vertex 0.0731682 0.152191 0.1
    endloop
  endfacet
  facet normal -0.751817 0.659372 0
    outer loop
       vertex 0.0731682 0.152191 0.1
       vertex 0.0947302 0.176776 0.1
       vertex 0.0947302 0.176776 0
    endloop
  endfacet
  facet normal -0.831476 0.555561 0
    outer loop
       vertex 0.0731682 0.152191 0
       vertex 0.0550002 0.125 0
       vertex 0.0550002 0.125 0.1
    endloop
  endfacet
  facet normal -0.831476 0.555561 0
    outer loop
       vertex 0.0550002 0.125 0.1
       vertex 0.0731682 0.152191 0.1
       vertex 0.0731682 0.152191 0
    endloop
  endfacet
  facet normal -0.896866 0.442302 0
    outer loop
       vertex 0.0550002 0.125 0
       vertex 0.0405362 0.095671 0
       vertex 0.0405362 0.095671 0.1
    endloop
  endfacet
  facet normal -0.896866 0.442302 0
    outer loop
       vertex 0.0405362 0.095671 0.1
       vertex 0.0550002 0.125 0.1
       vertex 0.0550002 0.125 0
    endloop
  endfacet
  facet normal -0.946935 0.321425 0
    outer loop
       vertex 0.0405362 0.095671 0
       vertex 0.0300252 0.064705 0
       vertex 0.0300252 0.064705 0.1
    endloop
  endfacet
  facet normal -0.946935 0.321425 0
    outer loop
       vertex 0.0300252 0.064705 0.1
       vertex 0.0405362 0.095671 0.1
       vertex 0.0405362 0.095671 0
    endloop
  endfacet
  facet normal -0.980784 0.195096 0
    outer loop
       vertex 0.0300252 0.064705 0
       vertex 0.0236452 0.0326315 0
       vertex 0.0236452 0.0326315 0.1
    endloop
  endfacet
  facet normal -0.980784 0.195096 0
    outer loop
       vertex 0.0236452 0.0326315 0.1
       vertex 0.0300252 0.064705 0.1
       vertex 0.0300252 0.064705 0
    endloop
  endfacet
  facet normal -0.997858 0.0654098 0
    outer loop
       vertex 0.0215062 8.32665e-17 0.1
       vertex 0.0236452 0.0326315 0.1
       vertex 0.0236452 0.0326315 0
    endloop
  endfacet
  facet normal -0.997858 0.0654098 -1.08928e-16
    outer loop
       vertex 0.0236452 0.0326315 0
       vertex 0.0215062 -8.32665e-17 0
       vertex 0.0215062 8.32665e-17 0.1
    endloop
  endfacet
  facet normal -0.997858 -0.0654098 0
    outer loop
       vertex 0.0215062 -8.32665e-17 0
       vertex 0.0236452 -0.0326315 0
       vertex 0.0236452 -0.0326315 0.1
    endloop
  endfacet
  facet normal -0.997858 -0.0654098 1.08928e-16
    outer loop
       vertex 0.0236452 -0.0326315 0.1
       vertex 0.0215062 8.32665e-17 0.1
       vertex 0.0215062 -8.32665e-17 0
    endloop
  endfacet
  facet normal -0.980784 -0.195096 0
    outer loop
       vertex 0.0236452 -0.0326315 0
       vertex 0.0300252 -0.064705 0
       vertex 0.0300252 -0.064705 0.1
    endloop
  endfacet
  facet normal -0.980784 -0.195096 0
    outer loop
       vertex 0.0300252 -0.064705 0.1
       vertex 0.0236452 -0.0326315 0.1
       vertex 0.0236452 -0.0326315 0
    endloop
  endfacet
  facet normal -0.946935 -0.321425 0
    outer loop
       vertex 0.0300252 -0.064705 0
       vertex 0.0405362 -0.095671 0
       vertex 0.0405362 -0.095671 0.1
    endloop
  endfacet
  facet normal -0.946935 -0.321425 0
    outer loop
       vertex 0.0405362 -0.095671 0.1
       vertex 0.0300252 -0.064705 0.1
       vertex 0.0300252 -0.064705 0
    endloop
  endfacet
  facet normal -0.896866 -0.442302 0
    outer loop
       vertex 0.0405362 -0.095671 0
       vertex 0.0550002 -0.125 0
       vertex 0.0550002 -0.125 0.1
    endloop
  endfacet
  facet normal -0.896866 -0.442302 0
    outer loop
       vertex 0.0550002 -0.125 0.1
       vertex 0.0405362 -0.095671 0.1
       vertex 0.0405362 -0.095671 0
    endloop
  endfacet
  facet normal -0.831476 -0.555561 0
    outer loop
       vertex 0.0550002 -0.125 0
       vertex 0.0731682 -0.152191 0
       vertex 0.0731682 -0.152191 0.1
    endloop
  endfacet
  facet normal -0.831476 -0.555561 0
    outer loop
       vertex 0.0731682 -0.152191 0.1
       vertex 0.0550002 -0.125 0.1
       vertex 0.0550002 -0.125 0
    endloop
  endfacet
  facet normal -0.751817 -0.659372 0
    outer loop
       vertex 0.0731682 -0.152191 0
       vertex 0.0947302 -0.176776 0
       vertex 0.0947302 -0.176776 0.1
    endloop
  endfacet
  facet normal -0.751817 -0.659372 0
    outer loop
       vertex 0.0947302 -0.176776 0.1
       vertex 0.0731682 -0.152191 0.1
       vertex 0.0731682 -0.152191 0
    endloop
  endfacet
  facet normal 0.659372 -0.751817 0
    outer loop
       vertex 0.448282 -0.176776 0
       vertex 0.448282 -0.176776 0.1
       vertex 0.423697 -0.198338 0.1
    endloop
  endfacet
  facet normal 0.659372 -0.751817 0
    outer loop
       vertex 0.423697 -0.198338 0.1
       vertex 0.423697 -0.198338 0
       vertex 0.448282 -0.176776 0
    endloop
  endfacet
  facet normal 0.555561 -0.831476 0
    outer loop
       vertex 0.423697 -0.198338 0
       vertex 0.423697 -0.198338 0.1
       vertex 0.396506 -0.216506 0.1
    endloop
  endfacet
  facet normal 0.555561 -0.831476 0
    outer loop
       vertex 0.396506 -0.216506 0.1
       vertex 0.396506 -0.216506 0
       vertex 0.423697 -0.198338 0
    endloop
  endfacet
  facet normal 0.442302 -0.896866 0
    outer loop
       vertex 0.396506 -0.216506 0
       vertex 0.396506 -0.216506 0.1
       vertex 0.367177 -0.23097 0.1
    endloop
  endfacet
  facet normal 0.442302 -0.896866 0
    outer loop
       vertex 0.367177 -0.23097 0.1
       vertex 0.367177 -0.23097 0
       vertex 0.396506 -0.216506 0
    endloop
  endfacet
  facet normal 0.321425 -0.946935 0
    outer loop
       vertex 0.367177 -0.23097 0
       vertex 0.367177 -0.23097 0.1
       vertex 0.336211 -0.241481 0.1
    endloop
  endfacet
  facet normal 0.321425 -0.946935 0
    outer loop
       vertex 0.336211 -0.241481 0.1
       vertex 0.336211 -0.241481 0
       vertex 0.367177 -0.23097 0
    endloop
  endfacet
  facet normal 0.195096 -0.980784 0
    outer loop
       vertex 0.336211 -0.241481 0
       vertex 0.336211 -0.241481 0.1
       vertex 0.304138 -0.247861 0.1
    endloop
  endfacet
  facet normal 0.195096 -0.980784 0
    outer loop
       vertex 0.304138 -0.247861 0.1
       vertex 0.304138 -0.247861 0
       vertex 0.336211 -0.241481 0
    endloop
  endfacet
  facet normal 0.0654098 -0.997858 0
    outer loop
       vertex 0.271506 -0.25 0
       vertex 0.304138 -0.247861 0
       vertex 0.304138 -0.247861 0.1
    endloop
  endfacet
  facet normal 0.0654098 -0.997858 7.26205e-17
    outer loop
       vertex 0.304138 -0.247861 0.1
       vertex 0.271506 -0.25 0.1
       vertex 0.271506 -0.25 0
    endloop
  endfacet
  facet normal -0.0654098 -0.997858 0
    outer loop
       vertex 0.271506 -0.25 0.1
       vertex 0.238875 -0.247861 0.1
       vertex 0.238875 -0.247861 0
    endloop
  endfacet
  facet normal -0.0654098 -0.997858 -7.26205e-17
    outer loop
       vertex 0.238875 -0.247861 0
       vertex 0.271506 -0.25 0
       vertex 0.271506 -0.25 0.1
    endloop
  endfacet
  facet normal -0.195096 -0.980784 0
    outer loop
       vertex 0.238875 -0.247861 0
       vertex 0.238875 -0.247861 0.1
       vertex 0.206801 -0.241481 0.1
    endloop
  endfacet
  facet normal -0.195096 -0.980784 -0
    outer loop
       vertex 0.206801 -0.241481 0.1
       vertex 0.206801 -0.241481 0
       vertex 0.238875 -0.247861 0
    endloop
  endfacet
  facet normal -0.321425 -0.946935 0
    outer loop
       vertex 0.206801 -0.241481 0
       vertex 0.206801 -0.241481 0.1
       vertex 0.175835 -0.23097 0.1
    endloop
  endfacet
  facet normal -0.321425 -0.946935 -0
    outer loop
       vertex 0.175835 -0.23097 0.1
       vertex 0.175835 -0.23097 0
       vertex 0.206801 -0.241481 0
    endloop
  endfacet
  facet normal -0.442302 -0.896866 0
    outer loop
       vertex 0.175835 -0.23097 0
       vertex 0.175835 -0.23097 0.1
       vertex 0.146506 -0.216506 0.1
    endloop
  endfacet
  facet normal -0.442302 -0.896866 -0
    outer loop
       vertex 0.146506 -0.216506 0.1
       vertex 0.146506 -0.216506 0
       vertex 0.175835 -0.23097 0
    endloop
  endfacet
  facet normal -0.555561 -0.831476 0
    outer loop
       vertex 0.146506 -0.216506 0
       vertex 0.146506 -0.216506 0.1
       vertex 0.119315 -0.198338 0.1
    endloop
  endfacet
  facet normal -0.555561 -0.831476 -0
    outer loop
       vertex 0.119315 -0.198338 0.1
       vertex 0.119315 -0.198338 0
       vertex 0.146506 -0.216506 0
    endloop
  endfacet
  facet normal -0.659372 -0.751817 0
    outer loop
       vertex 0.119315 -0.198338 0
       vertex 0.119315 -0.198338 0.1
       vertex 0.0947302 -0.176776 0.1
    endloop
  endfacet
  facet normal -0.659372 -0.751817 -0
    outer loop
       vertex 0.0947302 -0.176776 0.1
       vertex 0.0947302 -0.176776 0
       vertex 0.119315 -0.198338 0
    endloop
  endfacet
endsolid cylinder
