solid cylinder
  facet normal 0.751817 -0.659372 0
    outer loop
       vertex 0.0862722 -0.176776 0
       vertex 0.107834 -0.152191 0
       vertex 0.107834 -0.152191 0.1
    endloop
  endfacet
  facet normal 0.751817 -0.659372 0
    outer loop
       vertex 0.107834 -0.152191 0.1
       vertex 0.0862722 -0.176776 0.1
       vertex 0.0862722 -0.176776 0
    endloop
  endfacet
  facet normal 0.831476 -0.555561 0
    outer loop
       vertex 0.107834 -0.152191 0
       vertex 0.126002 -0.125 0
       vertex 0.126002 -0.125 0.1
    endloop
  endfacet
  facet normal 0.831476 -0.555561 0
    outer loop
       vertex 0.126002 -0.125 0.1
       vertex 0.107834 -0.152191 0.1
       vertex 0.107834 -0.152191 0
    endloop
  endfacet
  facet normal 0.896866 -0.442302 0
    outer loop
       vertex 0.126002 -0.125 0
       vertex 0.140466 -0.095671 0
       vertex 0.140466 -0.095671 0.1
    endloop
  endfacet
  facet normal 0.896866 -0.442302 0
    outer loop
       vertex 0.140466 -0.095671 0.1
       vertex 0.126002 -0.125 0.1
       vertex 0.126002 -0.125 0
    endloop
  endfacet
  facet normal 0.946935 -0.321425 0
    outer loop
       vertex 0.140466 -0.095671 0
       vertex 0.150977 -0.064705 0
       vertex 0.150977 -0.064705 0.1
    endloop
  endfacet
  facet normal 0.946935 -0.321425 0
    outer loop
       vertex 0.150977 -0.064705 0.1
       vertex 0.140466 -0.095671 0.1
       vertex 0.140466 -0.095671 0
    endloop
  endfacet
  facet normal 0.980784 -0.195096 0
    outer loop
       vertex 0.150977 -0.064705 0
       vertex 0.157357 -0.0326315 0
       vertex 0.157357 -0.0326315 0.1
    endloop
  endfacet
  facet normal 0.980784 -0.195096 0
    outer loop
       vertex 0.157357 -0.0326315 0.1
       vertex 0.150977 -0.064705 0.1
       vertex 0.150977 -0.064705 0
    endloop
  endfacet
  facet normal 0.997858 -0.0654098 0
    outer loop
       vertex 0.159496 -8.32665e-17 0.1
       vertex 0.157357 -0.0326315 0.1
       vertex 0.157357 -0.0326315 0
    endloop
  endfacet
  facet normal 0.997858 -0.0654098 -1.08928e-16
    outer loop
       vertex 0.157357 -0.0326315 0
       vertex 0.159496 8.32665e-17 0
       vertex 0.159496 -8.32665e-17 0.1
    endloop
  endfacet
  facet normal 0.997858 0.0654098 0
    outer loop
       vertex 0.159496 8.32665e-17 0
       vertex 0.157357 0.0326315 0
       vertex 0.157357 0.0326315 0.1
    endloop
  endfacet
  facet normal 0.997858 0.0654098 1.08928e-16
    outer loop
       vertex 0.157357 0.0326315 0.1
       vertex 0.159496 -8.32665e-17 0.1
       vertex 0.159496 8.32665e-17 0
    endloop
  endfacet
  facet normal 0.980784 0.195096 0
    outer loop
       vertex 0.157357 0.0326315 0
       vertex 0.150977 0.064705 0
       vertex 0.150977 0.064705 0.1
    endloop
  endfacet
  facet normal 0.980784 0.195096 0
    outer loop
       vertex 0.150977 0.064705 0.1
       vertex 0.157357 0.0326315 0.1
       vertex 0.157357 0.0326315 0
    endloop
  endfacet
  facet normal 0.946935 0.321425 0
    outer loop
       vertex 0.150977 0.064705 0
       vertex 0.140466 0.095671 0
       vertex 0.140466 0.095671 0.1
    endloop
  endfacet
  facet normal 0.946935 0.321425 0
    outer loop
       vertex 0.140466 0.095671 0.1
       vertex 0.150977 0.064705 0.1
       vertex 0.150977 0.064705 0
    endloop
  endfacet
  facet normal 0.896866 0.442302 0
    outer loop
       vertex 0.140466 0.095671 0
       vertex 0.126002 0.125 0
       vertex 0.126002 0.125 0.1
    endloop
  endfacet
  facet normal 0.896866 0.442302 0
    outer loop
       vertex 0.126002 0.125 0.1
       vertex 0.140466 0.095671 0.1
       vertex 0.140466 0.095671 0
    endloop
  endfacet
  facet normal 0.831476 0.555561 0
    outer loop
       vertex 0.126002 0.125 0
       vertex 0.107834 0.152191 0
       vertex 0.107834 0.152191 0.1
    endloop
  endfacet
  facet normal 0.831476 0.555561 0
    outer loop
       vertex 0.107834 0.152191 0.1
       vertex 0.126002 0.125 0.1
       vertex 0.126002 0.125 0
    endloop
  endfacet
  facet normal 0.751817 0.659372 0
    outer loop
       vertex 0.107834 0.152191 0
       vertex 0.0862722 0.176776 0
       vertex 0.0862722 0.176776 0.1
    endloop
  endfacet
  facet normal 0.751817 0.659372 0
    outer loop
       vertex 0.0862722 0.176776 0.1
       vertex 0.107834 0.152191 0.1
       vertex 0.107834 0.152191 0
    endloop
  endfacet
  facet normal 0.659372 0.751817 0
    outer loop
       vertex 0.0862722 0.176776 0
       vertex 0.0616872 0.198338 0
       vertex 0.0616872 0.198338 0.1
    endloop
  endfacet
  facet normal 0.659372 0.751817 0
    outer loop
       vertex 0.0616872 0.198338 0.1
       vertex 0.0862722 0.176776 0.1
       vertex 0.0862722 0.176776 0
    endloop
  endfacet
  facet normal 0.555561 0.831476 0
    outer loop
       vertex 0.0616872 0.198338 0
       vertex 0.0344962 0.216506 0
       vertex 0.0344962 0.216506 0.1
    endloop
  endfacet
  facet normal 0.555561 0.831476 0
    outer loop
       vertex 0.0344962 0.216506 0.1
       vertex 0.0616872 0.198338 0.1
       vertex 0.0616872 0.198338 0
    endloop
  endfacet
  facet normal 0.442302 0.896866 0
    outer loop
       vertex 0.0344962 0.216506 0
       vertex 0.00516719 0.23097 0
       vertex 0.00516719 0.23097 0.1
    endloop
  endfacet
  facet normal 0.442302 0.896866 0
    outer loop
       vertex 0.00516719 0.23097 0.1
       vertex 0.0344962 0.216506 0.1
       vertex 0.0344962 0.216506 0
    endloop
  endfacet
  facet normal 0.321425 0.946935 0
    outer loop
       vertex 0.00516719 0.23097 0
       vertex -0.0257988 0.241481 0
       vertex -0.0257988 0.241481 0.1
    endloop
  endfacet
  facet normal 0.321425 0.946935 0
    outer loop
       vertex -0.0257988 0.241481 0.1
       vertex 0.00516719 0.23097 0.1
       vertex 0.00516719 0.23097 0
    endloop
  endfacet
  facet normal 0.195096 0.980784 0
    outer loop
       vertex -0.0257988 0.241481 0
       vertex -0.0578723 0.247861 0
       vertex -0.0578723 0.247861 0.1
    endloop
  endfacet
  facet normal 0.195096 0.980784 0
    outer loop
       vertex -0.0578723 0.247861 0.1
       vertex -0.0257988 0.241481 0.1
       vertex -0.0257988 0.241481 0
    endloop
  endfacet
  facet normal 0.0654098 0.997858 0
    outer loop
       vertex -0.0905038 0.25 0.1
       vertex -0.0578723 0.247861 0.1
       vertex -0.0578723 0.247861 0
    endloop
  endfacet
  facet normal 0.0654098 0.997858 -1.08928e-16
    outer loop
       vertex -0.0578723 0.247861 0
       vertex -0.0905038 0.25 0
       vertex -0.0905038 0.25 0.1
    endloop
  endfacet
  facet normal -0.0654098 0.997858 0
    outer loop
       vertex -0.0905038 0.25 0
       vertex -0.123135 0.247861 0
       vertex -0.123135 0.247861 0.1
    endloop
  endfacet
  facet normal -0.0654098 0.997858 1.0893e-16
    outer loop
       vertex -0.123135 0.247861 0.1
       vertex -0.0905038 0.25 0.1
       vertex -0.0905038 0.25 0
    endloop
  endfacet
  facet normal -0.195096 0.980784 0
    outer loop
       vertex -0.123135 0.247861 0
       vertex -0.155209 0.241481 0
       vertex -0.155209 0.241481 0.1
    endloop
  endfacet
  facet normal -0.195096 0.980784 0
    outer loop
       vertex -0.155209 0.241481 0.1
       vertex -0.123135 0.247861 0.1
       vertex -0.123135 0.247861 0
    endloop
  endfacet
  facet normal -0.321425 0.946935 0
    outer loop
       vertex -0.155209 0.241481 0
       vertex -0.186175 0.23097 0
       vertex -0.186175 0.23097 0.1
    endloop
  endfacet
  facet normal -0.321425 0.946935 0
    outer loop
       vertex -0.186175 0.23097 0.1
       vertex -0.155209 0.241481 0.1
       vertex -0.155209 0.241481 0
    endloop
  endfacet
  facet normal -0.442302 0.896866 0
    outer loop
       vertex -0.186175 0.23097 0
       vertex -0.215504 0.216506 0
       vertex -0.215504 0.216506 0.1
    endloop
  endfacet
  facet normal -0.442302 0.896866 0
    outer loop
       vertex -0.215504 0.216506 0.1
       vertex -0.186175 0.23097 0.1
       vertex -0.186175 0.23097 0
    endloop
  endfacet
  facet normal -0.555561 0.831476 0
    outer loop
       vertex -0.215504 0.216506 0
       vertex -0.242695 0.198338 0
       vertex -0.242695 0.198338 0.1
    endloop
  endfacet
  facet normal -0.555561 0.831476 0
    outer loop
       vertex -0.242695 0.198338 0.1
       vertex -0.215504 0.216506 0.1
       vertex -0.215504 0.216506 0
    endloop
  endfacet
  facet normal -0.659372 0.751817 0
    outer loop
       vertex -0.242695 0.198338 0
       vertex -0.26728 0.176776 0
       vertex -0.26728 0.176776 0.1
    endloop
  endfacet
  facet normal -0.659372 0.751817 0
    outer loop
       vertex -0.26728 0.176776 0.1
       vertex -0.242695 0.198338 0.1
       vertex -0.242695 0.198338 0
    endloop
  endfacet
  facet normal -0.751817 0.659372 0
    outer loop
       vertex -0.26728 0.176776 0
       vertex -0.288842 0.152191 0
       vertex -0.288842 0.152191 0.1
    endloop
  endfacet
  facet normal -0.751817 0.659372 0
    outer loop
       vertex -0.288842 0.152191 0.1
       vertex -0.26728 0.176776 0.1
       vertex -0.26728 0.176776 0
    endloop
  endfacet
  facet normal -0.831476 0.555561 0
    outer loop
       vertex -0.288842 0.152191 0
       vertex -0.30701 0.125 0
       vertex -0.30701 0.125 0.1
    endloop
  endfacet
  facet normal -0.831476 0.555561 0
    outer loop
       vertex -0.30701 0.125 0.1
       vertex -0.288842 0.152191 0.1
       vertex -0.288842 0.152191 0
    endloop
  endfacet
  facet normal -0.896866 0.442302 0
    outer loop
       vertex -0.30701 0.125 0
       vertex -0.321474 0.095671 0
       vertex -0.321474 0.095671 0.1
    endloop
  endfacet
  facet normal -0.896866 0.442302 0
    outer loop
       vertex -0.321474 0.095671 0.1
       vertex -0.30701 0.125 0.1
       vertex -0.30701 0.125 0
    endloop
  endfacet
  facet normal -0.946935 0.321425 0
    outer loop
       vertex -0.321474 0.095671 0
       vertex -0.331985 0.064705 0
       vertex -0.331985 0.064705 0.1
    endloop
  endfacet
  facet normal -0.946935 0.321425 0
    outer loop
       vertex -0.331985 0.064705 0.1
       vertex -0.321474 0.095671 0.1
       vertex -0.321474 0.095671 0
    endloop
  endfacet
  facet normal -0.980784 0.195096 0
    outer loop
       vertex -0.331985 0.064705 0
       vertex -0.338365 0.0326315 0
       vertex -0.338365 0.0326315 0.1
    endloop
  endfacet
  facet normal -0.980784 0.195096 0
    outer loop
       vertex -0.338365 0.0326315 0.1
       vertex -0.331985 0.064705 0.1
       vertex -0.331985 0.064705 0
    endloop
  endfacet
  facet normal -0.997858 0.0654098 0
    outer loop
       vertex -0.340504 8.32665e-17 0.1
       vertex -0.338365 0.0326315 0.1
       vertex -0.338365 0.0326315 0
    endloop
  endfacet
  facet normal -0.997858 0.0654098 -1.08928e-16
    outer loop
       vertex -0.338365 0.0326315 0
       vertex -0.340504 -8.32665e-17 0
       vertex -0.340504 8.32665e-17 0.1
    endloop
  endfacet
  facet normal -0.997858 -0.0654098 0
    outer loop
       vertex -0.340504 -8.32665e-17 0
       vertex -0.338365 -0.0326315 0
       vertex -0.338365 -0.0326315 0.1
    endloop
  endfacet
  facet normal -0.997858 -0.0654098 1.08928e-16
    outer loop
       vertex -0.338365 -0.0326315 0.1
       vertex -0.340504 8.32665e-17 0.1
       vertex -0.340504 -8.32665e-17 0
    endloop
  endfacet
  facet normal -0.980784 -0.195096 0
    outer loop
       vertex -0.338365 -0.0326315 0
       vertex -0.331985 -0.064705 0
       vertex -0.331985 -0.064705 0.1
    endloop
  endfacet
  facet normal -0.980784 -0.195096 0
    outer loop
       vertex -0.331985 -0.064705 0.1
       vertex -0.338365 -0.0326315 0.1
       vertex -0.338365 -0.0326315 0
    endloop
  endfacet
  facet normal -0.946935 -0.321425 0
    outer loop
       vertex -0.331985 -0.064705 0
       vertex -0.321474 -0.095671 0
       vertex -0.321474 -0.095671 0.1
    endloop
  endfacet
  facet normal -0.946935 -0.321425 0
    outer loop
       vertex -0.321474 -0.095671 0.1
       vertex -0.331985 -0.064705 0.1
       vertex -0.331985 -0.064705 0
    endloop
  endfacet
  facet normal -0.896866 -0.442302 0
    outer loop
       vertex -0.321474 -0.095671 0
       vertex -0.30701 -0.125 0
       vertex -0.30701 -0.125 0.1
    endloop
  endfacet
  facet normal -0.896866 -0.442302 0
    outer loop
       vertex -0.30701 -0.125 0.1
       vertex -0.321474 -0.095671 0.1
       vertex -0.321474 -0.095671 0
    endloop
  endfacet
  facet normal -0.831476 -0.555561 0
    outer loop
       vertex -0.30701 -0.125 0
       vertex -0.288842 -0.152191 0
       vertex -0.288842 -0.152191 0.1
    endloop
  endfacet
  facet normal -0.831476 -0.555561 0
    outer loop
       vertex -0.288842 -0.152191 0.1
       vertex -0.30701 -0.125 0.1
       vertex -0.30701 -0.125 0
    endloop
  endfacet
  facet normal -0.751817 -0.659372 0
    outer loop
       vertex -0.288842 -0.152191 0
       vertex -0.26728 -0.176776 0
       vertex -0.26728 -0.176776 0.1
    endloop
  endfacet
  facet normal -0.751817 -0.659372 0
    outer loop
       vertex -0.26728 -0.176776 0.1
       vertex -0.288842 -0.152191 0.1
       vertex -0.288842 -0.152191 0
    endloop
  endfacet
  facet normal 0.659372 -0.751817 0
    outer loop
       vertex 0.0862722 -0.176776 0
       vertex 0.0862722 -0.176776 0.1
       vertex 0.0616872 -0.198338 0.1
    endloop
  endfacet
  facet normal 0.659372 -0.751817 0
    outer loop
       vertex 0.0616872 -0.198338 0.1
       vertex 0.0616872 -0.198338 0
       vertex 0.0862722 -0.176776 0
    endloop
  endfacet
  facet normal 0.555561 -0.831476 0
    outer loop
       vertex 0.0616872 -0.198338 0
       vertex 0.0616872 -0.198338 0.1
       vertex 0.0344962 -0.216506 0.1
    endloop
  endfacet
  facet normal 0.555561 -0.831476 0
    outer loop
       vertex 0.0344962 -0.216506 0.1
       vertex 0.0344962 -0.216506 0
       vertex 0.0616872 -0.198338 0
    endloop
  endfacet
  facet normal 0.442302 -0.896866 0
    outer loop
       vertex 0.0344962 -0.216506 0
       vertex 0.0344962 -0.216506 0.1
       vertex 0.00516719 -0.23097 0.1
    endloop
  endfacet
  facet normal 0.442302 -0.896866 0
    outer loop
       vertex 0.00516719 -0.23097 0.1
       vertex 0.00516719 -0.23097 0
       vertex 0.0344962 -0.216506 0
    endloop
  endfacet
  facet normal 0.321425 -0.946935 0
    outer loop
       vertex 0.00516719 -0.23097 0
       vertex 0.00516719 -0.23097 0.1
       vertex -0.0257988 -0.241481 0.1
    endloop
  endfacet
  facet normal 0.321425 -0.946935 0
    outer loop
       vertex -0.0257988 -0.241481 0.1
       vertex -0.0257988 -0.241481 0
       vertex 0.00516719 -0.23097 0
    endloop
  endfacet
  facet normal 0.195096 -0.980784 0
    outer loop
       vertex -0.0257988 -0.241481 0
       vertex -0.0257988 -0.241481 0.1
       vertex -0.0578723 -0.247861 0.1
    endloop
  endfacet
  facet normal 0.195096 -0.980784 0
    outer loop
       vertex -0.0578723 -0.247861 0.1
       vertex -0.0578723 -0.247861 0
       vertex -0.0257988 -0.241481 0
    endloop
  endfacet
  facet normal 0.0654098 -0.997858 0
    outer loop
       vertex -0.0905038 -0.25 0
       vertex -0.0578723 -0.247861 0
       vertex -0.0578723 -0.247861 0.1
    endloop
  endfacet
  facet normal 0.0654098 -0.997858 1.08928e-16
    outer loop
       vertex -0.0578723 -0.247861 0.1
       vertex -0.0905038 -0.25 0.1
       vertex -0.0905038 -0.25 0
    endloop
  endfacet
  facet normal -0.0654098 -0.997858 0
    outer loop
       vertex -0.0905038 -0.25 0.1
       vertex -0.123135 -0.247861 0.1
       vertex -0.123135 -0.247861 0
    endloop
  endfacet
  facet normal -0.0654098 -0.997858 -1.0893e-16
    outer loop
       vertex -0.123135 -0.247861 0
       vertex -0.0905038 -0.25 0
       vertex -0.0905038 -0.25 0.1
    endloop
  endfacet
  facet normal -0.195096 -0.980784 0
    outer loop
       vertex -0.123135 -0.247861 0
       vertex -0.123135 -0.247861 0.1
       vertex -0.155209 -0.241481 0.1
    endloop
  endfacet
  facet normal -0.195096 -0.980784 -0
    outer loop
       vertex -0.155209 -0.241481 0.1
       vertex -0.155209 -0.241481 0
       vertex -0.123135 -0.247861 0
    endloop
  endfacet
  facet normal -0.321425 -0.946935 0
    outer loop
       vertex -0.155209 -0.241481 0
       vertex -0.155209 -0.241481 0.1
       vertex -0.186175 -0.23097 0.1
    endloop
  endfacet
  facet normal -0.321425 -0.946935 -0
    outer loop
       vertex -0.186175 -0.23097 0.1
       vertex -0.186175 -0.23097 0
       vertex -0.155209 -0.241481 0
    endloop
  endfacet
  facet normal -0.442302 -0.896866 0
    outer loop
       vertex -0.186175 -0.23097 0
       vertex -0.186175 -0.23097 0.1
       vertex -0.215504 -0.216506 0.1
    endloop
  endfacet
  facet normal -0.442302 -0.896866 -0
    outer loop
       vertex -0.215504 -0.216506 0.1
       vertex -0.215504 -0.216506 0
       vertex -0.186175 -0.23097 0
    endloop
  endfacet
  facet normal -0.555561 -0.831476 0
    outer loop
       vertex -0.215504 -0.216506 0
       vertex -0.215504 -0.216506 0.1
       vertex -0.242695 -0.198338 0.1
    endloop
  endfacet
  facet normal -0.555561 -0.831476 -0
    outer loop
       vertex -0.242695 -0.198338 0.1
       vertex -0.242695 -0.198338 0
       vertex -0.215504 -0.216506 0
    endloop
  endfacet
  facet normal -0.659372 -0.751817 0
    outer loop
       vertex -0.242695 -0.198338 0
       vertex -0.242695 -0.198338 0.1
       vertex -0.26728 -0.176776 0.1
    endloop
  endfacet
  facet normal -0.659372 -0.751817 -0
    outer loop
       vertex -0.26728 -0.176776 0.1
       vertex -0.26728 -0.176776 0
       vertex -0.242695 -0.198338 0
    endloop
  endfacet
endsolid cylinder
