solid cylinder
  facet normal 0.751817 -0.659372 0
    outer loop
       vertex 0.452237 -0.176776 0
       vertex 0.473799 -0.152191 0
       vertex 0.473799 -0.152191 0.1
    endloop
  endfacet
  facet normal 0.751817 -0.659372 0
    outer loop
       vertex 0.473799 -0.152191 0.1
       vertex 0.452237 -0.176776 0.1
       vertex 0.452237 -0.176776 0
    endloop
  endfacet
  facet normal 0.831476 -0.555561 0
    outer loop
       vertex 0.473799 -0.152191 0
       vertex 0.491967 -0.125 0
       vertex 0.491967 -0.125 0.1
    endloop
  endfacet
  facet normal 0.831476 -0.555561 0
    outer loop
       vertex 0.491967 -0.125 0.1
       vertex 0.473799 -0.152191 0.1
       vertex 0.473799 -0.152191 0
    endloop
  endfacet
  facet normal 0.896866 -0.442302 0
    outer loop
       vertex 0.491967 -0.125 0
       vertex 0.506431 -0.095671 0
       vertex 0.506431 -0.095671 0.1
    endloop
  endfacet
  facet normal 0.896866 -0.442302 0
    outer loop
       vertex 0.506431 -0.095671 0.1
       vertex 0.491967 -0.125 0.1
       vertex 0.491967 -0.125 0
    endloop
  endfacet
  facet normal 0.946935 -0.321425 0
    outer loop
       vertex 0.506431 -0.095671 0
       vertex 0.516942 -0.064705 0
       vertex 0.516942 -0.064705 0.1
    endloop
  endfacet
  facet normal 0.946935 -0.321425 0
    outer loop
       vertex 0.516942 -0.064705 0.1
       vertex 0.506431 -0.095671 0.1
       vertex 0.506431 -0.095671 0
    endloop
  endfacet
  facet normal 0.980784 -0.195096 0
    outer loop
       vertex 0.516942 -0.064705 0
       vertex 0.523322 -0.0326315 0
       vertex 0.523322 -0.0326315 0.1
    endloop
  endfacet
  facet normal 0.980784 -0.195096 0
    outer loop
       vertex 0.523322 -0.0326315 0.1
       vertex 0.516942 -0.064705 0.1
       vertex 0.516942 -0.064705 0
    endloop
  endfacet
  facet normal 0.997858 -0.0654098 0
    outer loop
       vertex 0.525461 -8.32665e-17 0.1
       vertex 0.523322 -0.0326315 0.1
       vertex 0.523322 -0.0326315 0
    endloop
  endfacet
  facet normal 0.997858 -0.0654098 -1.08928e-16
    outer loop
       vertex 0.523322 -0.0326315 0
       vertex 0.525461 8.32665e-17 0
       vertex 0.525461 -8.32665e-17 0.1
    endloop
  endfacet
  facet normal 0.997858 0.0654098 0
    outer loop
       vertex 0.525461 8.32665e-17 0
       vertex 0.523322 0.0326315 0
       vertex 0.523322 0.0326315 0.1
    endloop
  endfacet
  facet normal 0.997858 0.0654098 1.08928e-16
    outer loop
       vertex 0.523322 0.0326315 0.1
       vertex 0.525461 -8.32665e-17 0.1
       vertex 0.525461 8.32665e-17 0
    endloop
  endfacet
  facet normal 0.980784 0.195096 0
    outer loop
       vertex 0.523322 0.0326315 0
       vertex 0.516942 0.064705 0
       vertex 0.516942 0.064705 0.1
    endloop
  endfacet
  facet normal 0.980784 0.195096 0
    outer loop
       vertex 0.516942 0.064705 0.1
       vertex 0.523322 0.0326315 0.1
       vertex 0.523322 0.0326315 0
    endloop
  endfacet
  facet normal 0.946935 0.321425 0
    outer loop
       vertex 0.516942 0.064705 0
       vertex 0.506431 0.095671 0
       vertex 0.506431 0.095671 0.1
    endloop
  endfacet
  facet normal 0.946935 0.321425 0
    outer loop
       vertex 0.506431 0.095671 0.1
       vertex 0.516942 0.064705 0.1
       vertex 0.516942 0.064705 0
    endloop
  endfacet
  facet normal 0.896866 0.442302 0
    outer loop
       vertex 0.506431 0.095671 0
       vertex 0.491967 0.125 0
       vertex 0.491967 0.125 0.1
    endloop
  endfacet
  facet normal 0.896866 0.442302 0
    outer loop
       vertex 0.491967 0.125 0.1
       vertex 0.506431 0.095671 0.1
       vertex 0.506431 0.095671 0
    endloop
  endfacet
  facet normal 0.831476 0.555561 0
    outer loop
       vertex 0.491967 0.125 0
       vertex 0.473799 0.152191 0
       vertex 0.473799 0.152191 0.1
    endloop
  endfacet
  facet normal 0.831476 0.555561 0
    outer loop
       vertex 0.473799 0.152191 0.1
       vertex 0.491967 0.125 0.1
       vertex 0.491967 0.125 0
    endloop
  endfacet
  facet normal 0.751817 0.659372 0
    outer loop
       vertex 0.473799 0.152191 0
       vertex 0.452237 0.176776 0
       vertex 0.452237 0.176776 0.1
    endloop
  endfacet
  facet normal 0.751817 0.659372 0
    outer loop
       vertex 0.452237 0.176776 0.1
       vertex 0.473799 0.152191 0.1
       vertex 0.473799 0.152191 0
    endloop
  endfacet
  facet normal 0.659372 0.751817 0
    outer loop
       vertex 0.452237 0.176776 0
       vertex 0.427652 0.198338 0
       vertex 0.427652 0.198338 0.1
    endloop
  endfacet
  facet normal 0.659372 0.751817 0
    outer loop
       vertex 0.427652 0.198338 0.1
       vertex 0.452237 0.176776 0.1
       vertex 0.452237 0.176776 0
    endloop
  endfacet
  facet normal 0.555561 0.831476 0
    outer loop
       vertex 0.427652 0.198338 0
       vertex 0.400461 0.216506 0
       vertex 0.400461 0.216506 0.1
    endloop
  endfacet
  facet normal 0.555561 0.831476 0
    outer loop
       vertex 0.400461 0.216506 0.1
       vertex 0.427652 0.198338 0.1
       vertex 0.427652 0.198338 0
    endloop
  endfacet
  facet normal 0.442302 0.896866 0
    outer loop
       vertex 0.400461 0.216506 0
       vertex 0.371132 0.23097 0
       vertex 0.371132 0.23097 0.1
    endloop
  endfacet
  facet normal 0.442302 0.896866 0
    outer loop
       vertex 0.371132 0.23097 0.1
       vertex 0.400461 0.216506 0.1
       vertex 0.400461 0.216506 0
    endloop
  endfacet
  facet normal 0.321425 0.946935 0
    outer loop
       vertex 0.371132 0.23097 0
       vertex 0.340166 0.241481 0
       vertex 0.340166 0.241481 0.1
    endloop
  endfacet
  facet normal 0.321425 0.946935 0
    outer loop
       vertex 0.340166 0.241481 0.1
       vertex 0.371132 0.23097 0.1
       vertex 0.371132 0.23097 0
    endloop
  endfacet
  facet normal 0.195096 0.980784 0
    outer loop
       vertex 0.340166 0.241481 0
       vertex 0.308093 0.247861 0
       vertex 0.308093 0.247861 0.1
    endloop
  endfacet
  facet normal 0.195096 0.980784 0
    outer loop
       vertex 0.308093 0.247861 0.1
       vertex 0.340166 0.241481 0.1
       vertex 0.340166 0.241481 0
    endloop
  endfacet
  facet normal 0.0654098 0.997858 0
    outer loop
       vertex 0.275461 0.25 0.1
       vertex 0.308093 0.247861 0.1
       vertex 0.308093 0.247861 0
    endloop
  endfacet
  facet normal 0.0654098 0.997858 -1.45239e-16
    outer loop
       vertex 0.308093 0.247861 0
       vertex 0.275461 0.25 0
       vertex 0.275461 0.25 0.1
    endloop
  endfacet
  facet normal -0.0654098 0.997858 0
    outer loop
       vertex 0.275461 0.25 0
       vertex 0.24283 0.247861 0
       vertex 0.24283 0.247861 0.1
    endloop
  endfacet
  facet normal -0.0654098 0.997858 1.45239e-16
    outer loop
       vertex 0.24283 0.247861 0.1
       vertex 0.275461 0.25 0.1
       vertex 0.275461 0.25 0
    endloop
  endfacet
  facet normal -0.195096 0.980784 0
    outer loop
       vertex 0.24283 0.247861 0
       vertex 0.210756 0.241481 0
       vertex 0.210756 0.241481 0.1
    endloop
  endfacet
  facet normal -0.195096 0.980784 0
    outer loop
       vertex 0.210756 0.241481 0.1
       vertex 0.24283 0.247861 0.1
       vertex 0.24283 0.247861 0
    endloop
  endfacet
  facet normal -0.321425 0.946935 0
    outer loop
       vertex 0.210756 0.241481 0
       vertex 0.17979 0.23097 0
       vertex 0.17979 0.23097 0.1
    endloop
  endfacet
  facet normal -0.321425 0.946935 0
    outer loop
       vertex 0.17979 0.23097 0.1
       vertex 0.210756 0.241481 0.1
       vertex 0.210756 0.241481 0
    endloop
  endfacet
  facet normal -0.442302 0.896866 0
    outer loop
       vertex 0.17979 0.23097 0
       vertex 0.150461 0.216506 0
       vertex 0.150461 0.216506 0.1
    endloop
  endfacet
  facet normal -0.442302 0.896866 0
    outer loop
       vertex 0.150461 0.216506 0.1
       vertex 0.17979 0.23097 0.1
       vertex 0.17979 0.23097 0
    endloop
  endfacet
  facet normal -0.555561 0.831476 0
    outer loop
       vertex 0.150461 0.216506 0
       vertex 0.12327 0.198338 0
       vertex 0.12327 0.198338 0.1
    endloop
  endfacet
  facet normal -0.555561 0.831476 0
    outer loop
       vertex 0.12327 0.198338 0.1
       vertex 0.150461 0.216506 0.1
       vertex 0.150461 0.216506 0
    endloop
  endfacet
  facet normal -0.659372 0.751817 0
    outer loop
       vertex 0.12327 0.198338 0
       vertex 0.0986854 0.176776 0
       vertex 0.0986854 0.176776 0.1
    endloop
  endfacet
  facet normal -0.659372 0.751817 0
    outer loop
       vertex 0.0986854 0.176776 0.1
       vertex 0.12327 0.198338 0.1
       vertex 0.12327 0.198338 0
    endloop
  endfacet
  facet normal -0.751817 0.659372 0
    outer loop
       vertex 0.0986854 0.176776 0
       vertex 0.0771234 0.152191 0
       vertex 0.0771234 0.152191 0.1
    endloop
  endfacet
  facet normal -0.751817 0.659372 0
    outer loop
       vertex 0.0771234 0.152191 0.1
       vertex 0.0986854 0.176776 0.1
       vertex 0.0986854 0.176776 0
    endloop
  endfacet
  facet normal -0.831476 0.555561 0
    outer loop
       vertex 0.0771234 0.152191 0
       vertex 0.0589554 0.125 0
       vertex 0.0589554 0.125 0.1
    endloop
  endfacet
  facet normal -0.831476 0.555561 0
    outer loop
       vertex 0.0589554 0.125 0.1
       vertex 0.0771234 0.152191 0.1
       vertex 0.0771234 0.152191 0
    endloop
  endfacet
  facet normal -0.896866 0.442302 0
    outer loop
       vertex 0.0589554 0.125 0
       vertex 0.0444914 0.095671 0
       vertex 0.0444914 0.095671 0.1
    endloop
  endfacet
  facet normal -0.896866 0.442302 0
    outer loop
       vertex 0.0444914 0.095671 0.1
       vertex 0.0589554 0.125 0.1
       vertex 0.0589554 0.125 0
    endloop
  endfacet
  facet normal -0.946935 0.321425 0
    outer loop
       vertex 0.0444914 0.095671 0
       vertex 0.0339804 0.064705 0
       vertex 0.0339804 0.064705 0.1
    endloop
  endfacet
  facet normal -0.946935 0.321425 0
    outer loop
       vertex 0.0339804 0.064705 0.1
       vertex 0.0444914 0.095671 0.1
       vertex 0.0444914 0.095671 0
    endloop
  endfacet
  facet normal -0.980784 0.195096 0
    outer loop
       vertex 0.0339804 0.064705 0
       vertex 0.0276004 0.0326315 0
       vertex 0.0276004 0.0326315 0.1
    endloop
  endfacet
  facet normal -0.980784 0.195096 0
    outer loop
       vertex 0.0276004 0.0326315 0.1
       vertex 0.0339804 0.064705 0.1
       vertex 0.0339804 0.064705 0
    endloop
  endfacet
  facet normal -0.997858 0.0654098 0
    outer loop
       vertex 0.0254614 8.32665e-17 0.1
       vertex 0.0276004 0.0326315 0.1
       vertex 0.0276004 0.0326315 0
    endloop
  endfacet
  facet normal -0.997858 0.0654098 -1.08928e-16
    outer loop
       vertex 0.0276004 0.0326315 0
       vertex 0.0254614 -8.32665e-17 0
       vertex 0.0254614 8.32665e-17 0.1
    endloop
  endfacet
  facet normal -0.997858 -0.0654098 0
    outer loop
       vertex 0.0254614 -8.32665e-17 0
       vertex 0.0276004 -0.0326315 0
       vertex 0.0276004 -0.0326315 0.1
    endloop
  endfacet
  facet normal -0.997858 -0.0654098 1.08928e-16
    outer loop
       vertex 0.0276004 -0.0326315 0.1
       vertex 0.0254614 8.32665e-17 0.1
       vertex 0.0254614 -8.32665e-17 0
    endloop
  endfacet
  facet normal -0.980784 -0.195096 0
    outer loop
       vertex 0.0276004 -0.0326315 0
       vertex 0.0339804 -0.064705 0
       vertex 0.0339804 -0.064705 0.1
    endloop
  endfacet
  facet normal -0.980784 -0.195096 0
    outer loop
       vertex 0.0339804 -0.064705 0.1
       vertex 0.0276004 -0.0326315 0.1
       vertex 0.0276004 -0.0326315 0
    endloop
  endfacet
  facet normal -0.946935 -0.321425 0
    outer loop
       vertex 0.0339804 -0.064705 0
       vertex 0.0444914 -0.095671 0
       vertex 0.0444914 -0.095671 0.1
    endloop
  endfacet
  facet normal -0.946935 -0.321425 0
    outer loop
       vertex 0.0444914 -0.095671 0.1
       vertex 0.0339804 -0.064705 0.1
       vertex 0.0339804 -0.064705 0
    endloop
  endfacet
  facet normal -0.896866 -0.442302 0
    outer loop
       vertex 0.0444914 -0.095671 0
       vertex 0.0589554 -0.125 0
       vertex 0.0589554 -0.125 0.1
    endloop
  endfacet
  facet normal -0.896866 -0.442302 0
    outer loop
       vertex 0.0589554 -0.125 0.1
       vertex 0.0444914 -0.095671 0.1
       vertex 0.0444914 -0.095671 0
    endloop
  endfacet
  facet normal -0.831476 -0.555561 0
    outer loop
       vertex 0.0589554 -0.125 0
       vertex 0.0771234 -0.152191 0
       vertex 0.0771234 -0.152191 0.1
    endloop
  endfacet
  facet normal -0.831476 -0.555561 0
    outer loop
       vertex 0.0771234 -0.152191 0.1
       vertex 0.0589554 -0.125 0.1
       vertex 0.0589554 -0.125 0
    endloop
  endfacet
  facet normal -0.751817 -0.659372 0
    outer loop
       vertex 0.0771234 -0.152191 0
       vertex 0.0986854 -0.176776 0
       vertex 0.0986854 -0.176776 0.1
    endloop
  endfacet
  facet normal -0.751817 -0.659372 0
    outer loop
       vertex 0.0986854 -0.176776 0.1
       vertex 0.0771234 -0.152191 0.1
       vertex 0.0771234 -0.152191 0
    endloop
  endfacet
  facet normal 0.659372 -0.751817 0
    outer loop
       vertex 0.452237 -0.176776 0
       vertex 0.452237 -0.176776 0.1
       vertex 0.427652 -0.198338 0.1
    endloop
  endfacet
  facet normal 0.659372 -0.751817 0
    outer loop
       vertex 0.427652 -0.198338 0.1
       vertex 0.427652 -0.198338 0
       vertex 0.452237 -0.176776 0
    endloop
  endfacet
  facet normal 0.555561 -0.831476 0
    outer loop
       vertex 0.427652 -0.198338 0
       vertex 0.427652 -0.198338 0.1
       vertex 0.400461 -0.216506 0.1
    endloop
  endfacet
  facet normal 0.555561 -0.831476 0
    outer loop
       vertex 0.400461 -0.216506 0.1
       vertex 0.400461 -0.216506 0
       vertex 0.427652 -0.198338 0
    endloop
  endfacet
  facet normal 0.442302 -0.896866 0
    outer loop
       vertex 0.400461 -0.216506 0
       vertex 0.400461 -0.216506 0.1
       vertex 0.371132 -0.23097 0.1
    endloop
  endfacet
  facet normal 0.442302 -0.896866 0
    outer loop
       vertex 0.371132 -0.23097 0.1
       vertex 0.371132 -0.23097 0
       vertex 0.400461 -0.216506 0
    endloop
  endfacet
  facet normal 0.321425 -0.946935 0
    outer loop
       vertex 0.371132 -0.23097 0
       vertex 0.371132 -0.23097 0.1
       vertex 0.340166 -0.241481 0.1
    endloop
  endfacet
  facet normal 0.321425 -0.946935 0
    outer loop
       vertex 0.340166 -0.241481 0.1
       vertex 0.340166 -0.241481 0
       vertex 0.371132 -0.23097 0
    endloop
  endfacet
  facet normal 0.195096 -0.980784 0
    outer loop
       vertex 0.340166 -0.241481 0
       vertex 0.340166 -0.241481 0.1
       vertex 0.308093 -0.247861 0.1
    endloop
  endfacet
  facet normal 0.195096 -0.980784 0
    outer loop
       vertex 0.308093 -0.247861 0.1
       vertex 0.308093 -0.247861 0
       vertex 0.340166 -0.241481 0
    endloop
  endfacet
  facet normal 0.0654098 -0.997858 0
    outer loop
       vertex 0.275461 -0.25 0
       vertex 0.308093 -0.247861 0
       vertex 0.308093 -0.247861 0.1
    endloop
  endfacet
  facet normal 0.0654098 -0.997858 1.45239e-16
    outer loop
       vertex 0.308093 -0.247861 0.1
       vertex 0.275461 -0.25 0.1
       vertex 0.275461 -0.25 0
    endloop
  endfacet
  facet normal -0.0654098 -0.997858 0
    outer loop
       vertex 0.275461 -0.25 0.1
       vertex 0.24283 -0.247861 0.1
       vertex 0.24283 -0.247861 0
    endloop
  endfacet
  facet normal -0.0654098 -0.997858 -1.45239e-16
    outer loop
       vertex 0.24283 -0.247861 0
       vertex 0.275461 -0.25 0
       vertex 0.275461 -0.25 0.1
    endloop
  endfacet
  facet normal -0.195096 -0.980784 0
    outer loop
       vertex 0.24283 -0.247861 0
       vertex 0.24283 -0.247861 0.1
       vertex 0.210756 -0.241481 0.1
    endloop
  endfacet
  facet normal -0.195096 -0.980784 -0
    outer loop
       vertex 0.210756 -0.241481 0.1
       vertex 0.210756 -0.241481 0
       vertex 0.24283 -0.247861 0
    endloop
  endfacet
  facet normal -0.321425 -0.946935 0
    outer loop
       vertex 0.210756 -0.241481 0
       vertex 0.210756 -0.241481 0.1
       vertex 0.17979 -0.23097 0.1
    endloop
  endfacet
  facet normal -0.321425 -0.946935 -0
    outer loop
       vertex 0.17979 -0.23097 0.1
       vertex 0.17979 -0.23097 0
       vertex 0.210756 -0.241481 0
    endloop
  endfacet
  facet normal -0.442302 -0.896866 0
    outer loop
       vertex 0.17979 -0.23097 0
       vertex 0.17979 -0.23097 0.1
       vertex 0.150461 -0.216506 0.1
    endloop
  endfacet
  facet normal -0.442302 -0.896866 -0
    outer loop
       vertex 0.150461 -0.216506 0.1
       vertex 0.150461 -0.216506 0
       vertex 0.17979 -0.23097 0
    endloop
  endfacet
  facet normal -0.555561 -0.831476 0
    outer loop
       vertex 0.150461 -0.216506 0
       vertex 0.150461 -0.216506 0.1
       vertex 0.12327 -0.198338 0.1
    endloop
  endfacet
  facet normal -0.555561 -0.831476 -0
    outer loop
       vertex 0.12327 -0.198338 0.1
       vertex 0.12327 -0.198338 0
       vertex 0.150461 -0.216506 0
    endloop
  endfacet
  facet normal -0.659372 -0.751817 0
    outer loop
       vertex 0.12327 -0.198338 0
       vertex 0.12327 -0.198338 0.1
       vertex 0.0986854 -0.176776 0.1
    endloop
  endfacet
  facet normal -0.659372 -0.751817 -0
    outer loop
       vertex 0.0986854 -0.176776 0.1
       vertex 0.0986854 -0.176776 0
       vertex 0.12327 -0.198338 0
    endloop
  endfacet
endsolid cylinder
