solid cylinder
  facet normal 0.751817 -0.659372 0
    outer loop
       vertex 0.459913 -0.176776 0
       vertex 0.481475 -0.152191 0
       vertex 0.481475 -0.152191 0.1
    endloop
  endfacet
  facet normal 0.751817 -0.659372 0
    outer loop
       vertex 0.481475 -0.152191 0.1
       vertex 0.459913 -0.176776 0.1
       vertex 0.459913 -0.176776 0
    endloop
  endfacet
  facet normal 0.831476 -0.555561 0
    outer loop
       vertex 0.481475 -0.152191 0
       vertex 0.499643 -0.125 0
       vertex 0.499643 -0.125 0.1
    endloop
  endfacet
  facet normal 0.831476 -0.555561 0
    outer loop
       vertex 0.499643 -0.125 0.1
       vertex 0.481475 -0.152191 0.1
       vertex 0.481475 -0.152191 0
    endloop
  endfacet
  facet normal 0.896866 -0.442302 0
    outer loop
       vertex 0.499643 -0.125 0
       vertex 0.514107 -0.095671 0
       vertex 0.514107 -0.095671 0.1
    endloop
  endfacet
  facet normal 0.896866 -0.442302 0
    outer loop
       vertex 0.514107 -0.095671 0.1
       vertex 0.499643 -0.125 0.1
       vertex 0.499643 -0.125 0
    endloop
  endfacet
  facet normal 0.946935 -0.321425 0
    outer loop
       vertex 0.514107 -0.095671 0
       vertex 0.524618 -0.064705 0
       vertex 0.524618 -0.064705 0.1
    endloop
  endfacet
  facet normal 0.946935 -0.321425 0
    outer loop
       vertex 0.524618 -0.064705 0.1
       vertex 0.514107 -0.095671 0.1
       vertex 0.514107 -0.095671 0
    endloop
  endfacet
  facet normal 0.980784 -0.195096 0
    outer loop
       vertex 0.524618 -0.064705 0
       vertex 0.530998 -0.0326315 0
       vertex 0.530998 -0.0326315 0.1
    endloop
  endfacet
  facet normal 0.980784 -0.195096 0
    outer loop
       vertex 0.530998 -0.0326315 0.1
       vertex 0.524618 -0.064705 0.1
       vertex 0.524618 -0.064705 0
    endloop
  endfacet
  facet normal 0.997858 -0.0654098 0
    outer loop
       vertex 0.533137 -8.32665e-17 0.1
       vertex 0.530998 -0.0326315 0.1
       vertex 0.530998 -0.0326315 0
    endloop
  endfacet
  facet normal 0.997858 -0.0654098 -1.08928e-16
    outer loop
       vertex 0.530998 -0.0326315 0
       vertex 0.533137 8.32665e-17 0
       vertex 0.533137 -8.32665e-17 0.1
    endloop
  endfacet
  facet normal 0.997858 0.0654098 0
    outer loop
       vertex 0.533137 8.32665e-17 0
       vertex 0.530998 0.0326315 0
       vertex 0.530998 0.0326315 0.1
    endloop
  endfacet
  facet normal 0.997858 0.0654098 1.08928e-16
    outer loop
       vertex 0.530998 0.0326315 0.1
       vertex 0.533137 -8.32665e-17 0.1
       vertex 0.533137 8.32665e-17 0
    endloop
  endfacet
  facet normal 0.980784 0.195096 0
    outer loop
       vertex 0.530998 0.0326315 0
       vertex 0.524618 0.064705 0
       vertex 0.524618 0.064705 0.1
    endloop
  endfacet
  facet normal 0.980784 0.195096 0
    outer loop
       vertex 0.524618 0.064705 0.1
       vertex 0.530998 0.0326315 0.1
       vertex 0.530998 0.0326315 0
    endloop
  endfacet
  facet normal 0.946935 0.321425 0
    outer loop
       vertex 0.524618 0.064705 0
       vertex 0.514107 0.095671 0
       vertex 0.514107 0.095671 0.1
    endloop
  endfacet
  facet normal 0.946935 0.321425 0
    outer loop
       vertex 0.514107 0.095671 0.1
       vertex 0.524618 0.064705 0.1
       vertex 0.524618 0.064705 0
    endloop
  endfacet
  facet normal 0.896866 0.442302 0
    outer loop
       vertex 0.514107 0.095671 0
       vertex 0.499643 0.125 0
       vertex 0.499643 0.125 0.1
    endloop
  endfacet
  facet normal 0.896866 0.442302 0
    outer loop
       vertex 0.499643 0.125 0.1
       vertex 0.514107 0.095671 0.1
       vertex 0.514107 0.095671 0
    endloop
  endfacet
  facet normal 0.831476 0.555561 0
    outer loop
       vertex 0.499643 0.125 0
       vertex 0.481475 0.152191 0
       vertex 0.481475 0.152191 0.1
    endloop
  endfacet
  facet normal 0.831476 0.555561 0
    outer loop
       vertex 0.481475 0.152191 0.1
       vertex 0.499643 0.125 0.1
       vertex 0.499643 0.125 0
    endloop
  endfacet
  facet normal 0.751817 0.659372 0
    outer loop
       vertex 0.481475 0.152191 0
       vertex 0.459913 0.176776 0
       vertex 0.459913 0.176776 0.1
    endloop
  endfacet
  facet normal 0.751817 0.659372 0
    outer loop
       vertex 0.459913 0.176776 0.1
       vertex 0.481475 0.152191 0.1
       vertex 0.481475 0.152191 0
    endloop
  endfacet
  facet normal 0.659372 0.751817 0
    outer loop
       vertex 0.459913 0.176776 0
       vertex 0.435328 0.198338 0
       vertex 0.435328 0.198338 0.1
    endloop
  endfacet
  facet normal 0.659372 0.751817 0
    outer loop
       vertex 0.435328 0.198338 0.1
       vertex 0.459913 0.176776 0.1
       vertex 0.459913 0.176776 0
    endloop
  endfacet
  facet normal 0.555561 0.831476 0
    outer loop
       vertex 0.435328 0.198338 0
       vertex 0.408137 0.216506 0
       vertex 0.408137 0.216506 0.1
    endloop
  endfacet
  facet normal 0.555561 0.831476 0
    outer loop
       vertex 0.408137 0.216506 0.1
       vertex 0.435328 0.198338 0.1
       vertex 0.435328 0.198338 0
    endloop
  endfacet
  facet normal 0.442302 0.896866 0
    outer loop
       vertex 0.408137 0.216506 0
       vertex 0.378808 0.23097 0
       vertex 0.378808 0.23097 0.1
    endloop
  endfacet
  facet normal 0.442302 0.896866 0
    outer loop
       vertex 0.378808 0.23097 0.1
       vertex 0.408137 0.216506 0.1
       vertex 0.408137 0.216506 0
    endloop
  endfacet
  facet normal 0.321425 0.946935 0
    outer loop
       vertex 0.378808 0.23097 0
       vertex 0.347842 0.241481 0
       vertex 0.347842 0.241481 0.1
    endloop
  endfacet
  facet normal 0.321425 0.946935 0
    outer loop
       vertex 0.347842 0.241481 0.1
       vertex 0.378808 0.23097 0.1
       vertex 0.378808 0.23097 0
    endloop
  endfacet
  facet normal 0.195096 0.980784 0
    outer loop
       vertex 0.347842 0.241481 0
       vertex 0.315768 0.247861 0
       vertex 0.315768 0.247861 0.1
    endloop
  endfacet
  facet normal 0.195096 0.980784 0
    outer loop
       vertex 0.315768 0.247861 0.1
       vertex 0.347842 0.241481 0.1
       vertex 0.347842 0.241481 0
    endloop
  endfacet
  facet normal 0.0654098 0.997858 0
    outer loop
       vertex 0.283137 0.25 0.1
       vertex 0.315768 0.247861 0.1
       vertex 0.315768 0.247861 0
    endloop
  endfacet
  facet normal 0.0654098 0.997858 -1.45239e-16
    outer loop
       vertex 0.315768 0.247861 0
       vertex 0.283137 0.25 0
       vertex 0.283137 0.25 0.1
    endloop
  endfacet
  facet normal -0.0654098 0.997858 0
    outer loop
       vertex 0.283137 0.25 0
       vertex 0.250505 0.247861 0
       vertex 0.250505 0.247861 0.1
    endloop
  endfacet
  facet normal -0.0654098 0.997858 1.45239e-16
    outer loop
       vertex 0.250505 0.247861 0.1
       vertex 0.283137 0.25 0.1
       vertex 0.283137 0.25 0
    endloop
  endfacet
  facet normal -0.195096 0.980784 0
    outer loop
       vertex 0.250505 0.247861 0
       vertex 0.218432 0.241481 0
       vertex 0.218432 0.241481 0.1
    endloop
  endfacet
  facet normal -0.195096 0.980784 0
    outer loop
       vertex 0.218432 0.241481 0.1
       vertex 0.250505 0.247861 0.1
       vertex 0.250505 0.247861 0
    endloop
  endfacet
  facet normal -0.321425 0.946935 0
    outer loop
       vertex 0.218432 0.241481 0
       vertex 0.187466 0.23097 0
       vertex 0.187466 0.23097 0.1
    endloop
  endfacet
  facet normal -0.321425 0.946935 0
    outer loop
       vertex 0.187466 0.23097 0.1
       vertex 0.218432 0.241481 0.1
       vertex 0.218432 0.241481 0
    endloop
  endfacet
  facet normal -0.442302 0.896866 0
    outer loop
       vertex 0.187466 0.23097 0
       vertex 0.158137 0.216506 0
       vertex 0.158137 0.216506 0.1
    endloop
  endfacet
  facet normal -0.442302 0.896866 0
    outer loop
       vertex 0.158137 0.216506 0.1
       vertex 0.187466 0.23097 0.1
       vertex 0.187466 0.23097 0
    endloop
  endfacet
  facet normal -0.555561 0.831476 0
    outer loop
       vertex 0.158137 0.216506 0
       vertex 0.130946 0.198338 0
       vertex 0.130946 0.198338 0.1
    endloop
  endfacet
  facet normal -0.555561 0.831476 0
    outer loop
       vertex 0.130946 0.198338 0.1
       vertex 0.158137 0.216506 0.1
       vertex 0.158137 0.216506 0
    endloop
  endfacet
  facet normal -0.659372 0.751817 0
    outer loop
       vertex 0.130946 0.198338 0
       vertex 0.106361 0.176776 0
       vertex 0.106361 0.176776 0.1
    endloop
  endfacet
  facet normal -0.659372 0.751817 0
    outer loop
       vertex 0.106361 0.176776 0.1
       vertex 0.130946 0.198338 0.1
       vertex 0.130946 0.198338 0
    endloop
  endfacet
  facet normal -0.751817 0.659372 0
    outer loop
       vertex 0.106361 0.176776 0
       vertex 0.0847988 0.152191 0
       vertex 0.0847988 0.152191 0.1
    endloop
  endfacet
  facet normal -0.751817 0.659372 0
    outer loop
       vertex 0.0847988 0.152191 0.1
       vertex 0.106361 0.176776 0.1
       vertex 0.106361 0.176776 0
    endloop
  endfacet
  facet normal -0.831476 0.555561 0
    outer loop
       vertex 0.0847988 0.152191 0
       vertex 0.0666308 0.125 0
       vertex 0.0666308 0.125 0.1
    endloop
  endfacet
  facet normal -0.831476 0.555561 0
    outer loop
       vertex 0.0666308 0.125 0.1
       vertex 0.0847988 0.152191 0.1
       vertex 0.0847988 0.152191 0
    endloop
  endfacet
  facet normal -0.896866 0.442302 0
    outer loop
       vertex 0.0666308 0.125 0
       vertex 0.0521668 0.095671 0
       vertex 0.0521668 0.095671 0.1
    endloop
  endfacet
  facet normal -0.896866 0.442302 0
    outer loop
       vertex 0.0521668 0.095671 0.1
       vertex 0.0666308 0.125 0.1
       vertex 0.0666308 0.125 0
    endloop
  endfacet
  facet normal -0.946935 0.321425 0
    outer loop
       vertex 0.0521668 0.095671 0
       vertex 0.0416558 0.064705 0
       vertex 0.0416558 0.064705 0.1
    endloop
  endfacet
  facet normal -0.946935 0.321425 0
    outer loop
       vertex 0.0416558 0.064705 0.1
       vertex 0.0521668 0.095671 0.1
       vertex 0.0521668 0.095671 0
    endloop
  endfacet
  facet normal -0.980784 0.195096 0
    outer loop
       vertex 0.0416558 0.064705 0
       vertex 0.0352758 0.0326315 0
       vertex 0.0352758 0.0326315 0.1
    endloop
  endfacet
  facet normal -0.980784 0.195096 0
    outer loop
       vertex 0.0352758 0.0326315 0.1
       vertex 0.0416558 0.064705 0.1
       vertex 0.0416558 0.064705 0
    endloop
  endfacet
  facet normal -0.997858 0.0654098 0
    outer loop
       vertex 0.0331368 8.32665e-17 0.1
       vertex 0.0352758 0.0326315 0.1
       vertex 0.0352758 0.0326315 0
    endloop
  endfacet
  facet normal -0.997858 0.0654098 -1.08928e-16
    outer loop
       vertex 0.0352758 0.0326315 0
       vertex 0.0331368 -8.32665e-17 0
       vertex 0.0331368 8.32665e-17 0.1
    endloop
  endfacet
  facet normal -0.997858 -0.0654098 0
    outer loop
       vertex 0.0331368 -8.32665e-17 0
       vertex 0.0352758 -0.0326315 0
       vertex 0.0352758 -0.0326315 0.1
    endloop
  endfacet
  facet normal -0.997858 -0.0654098 1.08928e-16
    outer loop
       vertex 0.0352758 -0.0326315 0.1
       vertex 0.0331368 8.32665e-17 0.1
       vertex 0.0331368 -8.32665e-17 0
    endloop
  endfacet
  facet normal -0.980784 -0.195096 0
    outer loop
       vertex 0.0352758 -0.0326315 0
       vertex 0.0416558 -0.064705 0
       vertex 0.0416558 -0.064705 0.1
    endloop
  endfacet
  facet normal -0.980784 -0.195096 0
    outer loop
       vertex 0.0416558 -0.064705 0.1
       vertex 0.0352758 -0.0326315 0.1
       vertex 0.0352758 -0.0326315 0
    endloop
  endfacet
  facet normal -0.946935 -0.321425 0
    outer loop
       vertex 0.0416558 -0.064705 0
       vertex 0.0521668 -0.095671 0
       vertex 0.0521668 -0.095671 0.1
    endloop
  endfacet
  facet normal -0.946935 -0.321425 0
    outer loop
       vertex 0.0521668 -0.095671 0.1
       vertex 0.0416558 -0.064705 0.1
       vertex 0.0416558 -0.064705 0
    endloop
  endfacet
  facet normal -0.896866 -0.442302 0
    outer loop
       vertex 0.0521668 -0.095671 0
       vertex 0.0666308 -0.125 0
       vertex 0.0666308 -0.125 0.1
    endloop
  endfacet
  facet normal -0.896866 -0.442302 0
    outer loop
       vertex 0.0666308 -0.125 0.1
       vertex 0.0521668 -0.095671 0.1
       vertex 0.0521668 -0.095671 0
    endloop
  endfacet
  facet normal -0.831476 -0.555561 0
    outer loop
       vertex 0.0666308 -0.125 0
       vertex 0.0847988 -0.152191 0
       vertex 0.0847988 -0.152191 0.1
    endloop
  endfacet
  facet normal -0.831476 -0.555561 0
    outer loop
       vertex 0.0847988 -0.152191 0.1
       vertex 0.0666308 -0.125 0.1
       vertex 0.0666308 -0.125 0
    endloop
  endfacet
  facet normal -0.751817 -0.659372 0
    outer loop
       vertex 0.0847988 -0.152191 0
       vertex 0.106361 -0.176776 0
       vertex 0.106361 -0.176776 0.1
    endloop
  endfacet
  facet normal -0.751817 -0.659372 0
    outer loop
       vertex 0.106361 -0.176776 0.1
       vertex 0.0847988 -0.152191 0.1
       vertex 0.0847988 -0.152191 0
    endloop
  endfacet
  facet normal 0.659372 -0.751817 0
    outer loop
       vertex 0.459913 -0.176776 0
       vertex 0.459913 -0.176776 0.1
       vertex 0.435328 -0.198338 0.1
    endloop
  endfacet
  facet normal 0.659372 -0.751817 0
    outer loop
       vertex 0.435328 -0.198338 0.1
       vertex 0.435328 -0.198338 0
       vertex 0.459913 -0.176776 0
    endloop
  endfacet
  facet normal 0.555561 -0.831476 0
    outer loop
       vertex 0.435328 -0.198338 0
       vertex 0.435328 -0.198338 0.1
       vertex 0.408137 -0.216506 0.1
    endloop
  endfacet
  facet normal 0.555561 -0.831476 0
    outer loop
       vertex 0.408137 -0.216506 0.1
       vertex 0.408137 -0.216506 0
       vertex 0.435328 -0.198338 0
    endloop
  endfacet
  facet normal 0.442302 -0.896866 0
    outer loop
       vertex 0.408137 -0.216506 0
       vertex 0.408137 -0.216506 0.1
       vertex 0.378808 -0.23097 0.1
    endloop
  endfacet
  facet normal 0.442302 -0.896866 0
    outer loop
       vertex 0.378808 -0.23097 0.1
       vertex 0.378808 -0.23097 0
       vertex 0.408137 -0.216506 0
    endloop
  endfacet
  facet normal 0.321425 -0.946935 0
    outer loop
       vertex 0.378808 -0.23097 0
       vertex 0.378808 -0.23097 0.1
       vertex 0.347842 -0.241481 0.1
    endloop
  endfacet
  facet normal 0.321425 -0.946935 0
    outer loop
       vertex 0.347842 -0.241481 0.1
       vertex 0.347842 -0.241481 0
       vertex 0.378808 -0.23097 0
    endloop
  endfacet
  facet normal 0.195096 -0.980784 0
    outer loop
       vertex 0.347842 -0.241481 0
       vertex 0.347842 -0.241481 0.1
       vertex 0.315768 -0.247861 0.1
    endloop
  endfacet
  facet normal 0.195096 -0.980784 0
    outer loop
       vertex 0.315768 -0.247861 0.1
       vertex 0.315768 -0.247861 0
       vertex 0.347842 -0.241481 0
    endloop
  endfacet
  facet normal 0.0654098 -0.997858 0
    outer loop
       vertex 0.283137 -0.25 0
       vertex 0.315768 -0.247861 0
       vertex 0.315768 -0.247861 0.1
    endloop
  endfacet
  facet normal 0.0654098 -0.997858 1.45239e-16
    outer loop
       vertex 0.315768 -0.247861 0.1
       vertex 0.283137 -0.25 0.1
       vertex 0.283137 -0.25 0
    endloop
  endfacet
  facet normal -0.0654098 -0.997858 0
    outer loop
       vertex 0.283137 -0.25 0.1
       vertex 0.250505 -0.247861 0.1
       vertex 0.250505 -0.247861 0
    endloop
  endfacet
  facet normal -0.0654098 -0.997858 -1.45239e-16
    outer loop
       vertex 0.250505 -0.247861 0
       vertex 0.283137 -0.25 0
       vertex 0.283137 -0.25 0.1
    endloop
  endfacet
  facet normal -0.195096 -0.980784 0
    outer loop
       vertex 0.250505 -0.247861 0
       vertex 0.250505 -0.247861 0.1
       vertex 0.218432 -0.241481 0.1
    endloop
  endfacet
  facet normal -0.195096 -0.980784 -0
    outer loop
       vertex 0.218432 -0.241481 0.1
       vertex 0.218432 -0.241481 0
       vertex 0.250505 -0.247861 0
    endloop
  endfacet
  facet normal -0.321425 -0.946935 0
    outer loop
       vertex 0.218432 -0.241481 0
       vertex 0.218432 -0.241481 0.1
       vertex 0.187466 -0.23097 0.1
    endloop
  endfacet
  facet normal -0.321425 -0.946935 -0
    outer loop
       vertex 0.187466 -0.23097 0.1
       vertex 0.187466 -0.23097 0
       vertex 0.218432 -0.241481 0
    endloop
  endfacet
  facet normal -0.442302 -0.896866 0
    outer loop
       vertex 0.187466 -0.23097 0
       vertex 0.187466 -0.23097 0.1
       vertex 0.158137 -0.216506 0.1
    endloop
  endfacet
  facet normal -0.442302 -0.896866 -0
    outer loop
       vertex 0.158137 -0.216506 0.1
       vertex 0.158137 -0.216506 0
       vertex 0.187466 -0.23097 0
    endloop
  endfacet
  facet normal -0.555561 -0.831476 0
    outer loop
       vertex 0.158137 -0.216506 0
       vertex 0.158137 -0.216506 0.1
       vertex 0.130946 -0.198338 0.1
    endloop
  endfacet
  facet normal -0.555561 -0.831476 -0
    outer loop
       vertex 0.130946 -0.198338 0.1
       vertex 0.130946 -0.198338 0
       vertex 0.158137 -0.216506 0
    endloop
  endfacet
  facet normal -0.659372 -0.751817 0
    outer loop
       vertex 0.130946 -0.198338 0
       vertex 0.130946 -0.198338 0.1
       vertex 0.106361 -0.176776 0.1
    endloop
  endfacet
  facet normal -0.659372 -0.751817 -0
    outer loop
       vertex 0.106361 -0.176776 0.1
       vertex 0.106361 -0.176776 0
       vertex 0.130946 -0.198338 0
    endloop
  endfacet
endsolid cylinder
