solid cylinder
  facet normal 0.751817 -0.659372 0
    outer loop
       vertex 0.393353 -0.176776 0
       vertex 0.414915 -0.152191 0
       vertex 0.414915 -0.152191 0.1
    endloop
  endfacet
  facet normal 0.751817 -0.659372 0
    outer loop
       vertex 0.414915 -0.152191 0.1
       vertex 0.393353 -0.176776 0.1
       vertex 0.393353 -0.176776 0
    endloop
  endfacet
  facet normal 0.831476 -0.555561 0
    outer loop
       vertex 0.414915 -0.152191 0
       vertex 0.433083 -0.125 0
       vertex 0.433083 -0.125 0.1
    endloop
  endfacet
  facet normal 0.831476 -0.555561 0
    outer loop
       vertex 0.433083 -0.125 0.1
       vertex 0.414915 -0.152191 0.1
       vertex 0.414915 -0.152191 0
    endloop
  endfacet
  facet normal 0.896866 -0.442302 0
    outer loop
       vertex 0.433083 -0.125 0
       vertex 0.447547 -0.095671 0
       vertex 0.447547 -0.095671 0.1
    endloop
  endfacet
  facet normal 0.896866 -0.442302 0
    outer loop
       vertex 0.447547 -0.095671 0.1
       vertex 0.433083 -0.125 0.1
       vertex 0.433083 -0.125 0
    endloop
  endfacet
  facet normal 0.946935 -0.321425 0
    outer loop
       vertex 0.447547 -0.095671 0
       vertex 0.458058 -0.064705 0
       vertex 0.458058 -0.064705 0.1
    endloop
  endfacet
  facet normal 0.946935 -0.321425 0
    outer loop
       vertex 0.458058 -0.064705 0.1
       vertex 0.447547 -0.095671 0.1
       vertex 0.447547 -0.095671 0
    endloop
  endfacet
  facet normal 0.980784 -0.195096 0
    outer loop
       vertex 0.458058 -0.064705 0
       vertex 0.464438 -0.0326315 0
       vertex 0.464438 -0.0326315 0.1
    endloop
  endfacet
  facet normal 0.980784 -0.195096 0
    outer loop
       vertex 0.464438 -0.0326315 0.1
       vertex 0.458058 -0.064705 0.1
       vertex 0.458058 -0.064705 0
    endloop
  endfacet
  facet normal 0.997858 -0.0654098 0
    outer loop
       vertex 0.466577 -8.32665e-17 0.1
       vertex 0.464438 -0.0326315 0.1
       vertex 0.464438 -0.0326315 0
    endloop
  endfacet
  facet normal 0.997858 -0.0654098 -1.08928e-16
    outer loop
       vertex 0.464438 -0.0326315 0
       vertex 0.466577 8.32665e-17 0
       vertex 0.466577 -8.32665e-17 0.1
    endloop
  endfacet
  facet normal 0.997858 0.0654098 0
    outer loop
       vertex 0.466577 8.32665e-17 0
       vertex 0.464438 0.0326315 0
       vertex 0.464438 0.0326315 0.1
    endloop
  endfacet
  facet normal 0.997858 0.0654098 1.08928e-16
    outer loop
       vertex 0.464438 0.0326315 0.1
       vertex 0.466577 -8.32665e-17 0.1
       vertex 0.466577 8.32665e-17 0
    endloop
  endfacet
  facet normal 0.980784 0.195096 0
    outer loop
       vertex 0.464438 0.0326315 0
       vertex 0.458058 0.064705 0
       vertex 0.458058 0.064705 0.1
    endloop
  endfacet
  facet normal 0.980784 0.195096 0
    outer loop
       vertex 0.458058 0.064705 0.1
       vertex 0.464438 0.0326315 0.1
       vertex 0.464438 0.0326315 0
    endloop
  endfacet
  facet normal 0.946935 0.321425 0
    outer loop
       vertex 0.458058 0.064705 0
       vertex 0.447547 0.095671 0
       vertex 0.447547 0.095671 0.1
    endloop
  endfacet
  facet normal 0.946935 0.321425 0
    outer loop
       vertex 0.447547 0.095671 0.1
       vertex 0.458058 0.064705 0.1
       vertex 0.458058 0.064705 0
    endloop
  endfacet
  facet normal 0.896866 0.442302 0
    outer loop
       vertex 0.447547 0.095671 0
       vertex 0.433083 0.125 0
       vertex 0.433083 0.125 0.1
    endloop
  endfacet
  facet normal 0.896866 0.442302 0
    outer loop
       vertex 0.433083 0.125 0.1
       vertex 0.447547 0.095671 0.1
       vertex 0.447547 0.095671 0
    endloop
  endfacet
  facet normal 0.831476 0.555561 0
    outer loop
       vertex 0.433083 0.125 0
       vertex 0.414915 0.152191 0
       vertex 0.414915 0.152191 0.1
    endloop
  endfacet
  facet normal 0.831476 0.555561 0
    outer loop
       vertex 0.414915 0.152191 0.1
       vertex 0.433083 0.125 0.1
       vertex 0.433083 0.125 0
    endloop
  endfacet
  facet normal 0.751817 0.659372 0
    outer loop
       vertex 0.414915 0.152191 0
       vertex 0.393353 0.176776 0
       vertex 0.393353 0.176776 0.1
    endloop
  endfacet
  facet normal 0.751817 0.659372 0
    outer loop
       vertex 0.393353 0.176776 0.1
       vertex 0.414915 0.152191 0.1
       vertex 0.414915 0.152191 0
    endloop
  endfacet
  facet normal 0.659372 0.751817 0
    outer loop
       vertex 0.393353 0.176776 0
       vertex 0.368768 0.198338 0
       vertex 0.368768 0.198338 0.1
    endloop
  endfacet
  facet normal 0.659372 0.751817 0
    outer loop
       vertex 0.368768 0.198338 0.1
       vertex 0.393353 0.176776 0.1
       vertex 0.393353 0.176776 0
    endloop
  endfacet
  facet normal 0.555561 0.831476 0
    outer loop
       vertex 0.368768 0.198338 0
       vertex 0.341577 0.216506 0
       vertex 0.341577 0.216506 0.1
    endloop
  endfacet
  facet normal 0.555561 0.831476 0
    outer loop
       vertex 0.341577 0.216506 0.1
       vertex 0.368768 0.198338 0.1
       vertex 0.368768 0.198338 0
    endloop
  endfacet
  facet normal 0.442302 0.896866 0
    outer loop
       vertex 0.341577 0.216506 0
       vertex 0.312248 0.23097 0
       vertex 0.312248 0.23097 0.1
    endloop
  endfacet
  facet normal 0.442302 0.896866 0
    outer loop
       vertex 0.312248 0.23097 0.1
       vertex 0.341577 0.216506 0.1
       vertex 0.341577 0.216506 0
    endloop
  endfacet
  facet normal 0.321425 0.946935 0
    outer loop
       vertex 0.312248 0.23097 0
       vertex 0.281282 0.241481 0
       vertex 0.281282 0.241481 0.1
    endloop
  endfacet
  facet normal 0.321425 0.946935 0
    outer loop
       vertex 0.281282 0.241481 0.1
       vertex 0.312248 0.23097 0.1
       vertex 0.312248 0.23097 0
    endloop
  endfacet
  facet normal 0.195096 0.980784 0
    outer loop
       vertex 0.281282 0.241481 0
       vertex 0.249209 0.247861 0
       vertex 0.249209 0.247861 0.1
    endloop
  endfacet
  facet normal 0.195096 0.980784 0
    outer loop
       vertex 0.249209 0.247861 0.1
       vertex 0.281282 0.241481 0.1
       vertex 0.281282 0.241481 0
    endloop
  endfacet
  facet normal 0.0654098 0.997858 0
    outer loop
       vertex 0.216577 0.25 0.1
       vertex 0.249209 0.247861 0.1
       vertex 0.249209 0.247861 0
    endloop
  endfacet
  facet normal 0.0654098 0.997858 -1.0893e-16
    outer loop
       vertex 0.249209 0.247861 0
       vertex 0.216577 0.25 0
       vertex 0.216577 0.25 0.1
    endloop
  endfacet
  facet normal -0.0654098 0.997858 0
    outer loop
       vertex 0.216577 0.25 0
       vertex 0.183946 0.247861 0
       vertex 0.183946 0.247861 0.1
    endloop
  endfacet
  facet normal -0.0654098 0.997858 1.0893e-16
    outer loop
       vertex 0.183946 0.247861 0.1
       vertex 0.216577 0.25 0.1
       vertex 0.216577 0.25 0
    endloop
  endfacet
  facet normal -0.195096 0.980784 0
    outer loop
       vertex 0.183946 0.247861 0
       vertex 0.151872 0.241481 0
       vertex 0.151872 0.241481 0.1
    endloop
  endfacet
  facet normal -0.195096 0.980784 0
    outer loop
       vertex 0.151872 0.241481 0.1
       vertex 0.183946 0.247861 0.1
       vertex 0.183946 0.247861 0
    endloop
  endfacet
  facet normal -0.321425 0.946935 0
    outer loop
       vertex 0.151872 0.241481 0
       vertex 0.120906 0.23097 0
       vertex 0.120906 0.23097 0.1
    endloop
  endfacet
  facet normal -0.321425 0.946935 0
    outer loop
       vertex 0.120906 0.23097 0.1
       vertex 0.151872 0.241481 0.1
       vertex 0.151872 0.241481 0
    endloop
  endfacet
  facet normal -0.442302 0.896866 0
    outer loop
       vertex 0.120906 0.23097 0
       vertex 0.0915773 0.216506 0
       vertex 0.0915773 0.216506 0.1
    endloop
  endfacet
  facet normal -0.442302 0.896866 0
    outer loop
       vertex 0.0915773 0.216506 0.1
       vertex 0.120906 0.23097 0.1
       vertex 0.120906 0.23097 0
    endloop
  endfacet
  facet normal -0.555561 0.831476 0
    outer loop
       vertex 0.0915773 0.216506 0
       vertex 0.0643863 0.198338 0
       vertex 0.0643863 0.198338 0.1
    endloop
  endfacet
  facet normal -0.555561 0.831476 0
    outer loop
       vertex 0.0643863 0.198338 0.1
       vertex 0.0915773 0.216506 0.1
       vertex 0.0915773 0.216506 0
    endloop
  endfacet
  facet normal -0.659372 0.751817 0
    outer loop
       vertex 0.0643863 0.198338 0
       vertex 0.0398013 0.176776 0
       vertex 0.0398013 0.176776 0.1
    endloop
  endfacet
  facet normal -0.659372 0.751817 0
    outer loop
       vertex 0.0398013 0.176776 0.1
       vertex 0.0643863 0.198338 0.1
       vertex 0.0643863 0.198338 0
    endloop
  endfacet
  facet normal -0.751817 0.659372 0
    outer loop
       vertex 0.0398013 0.176776 0
       vertex 0.0182393 0.152191 0
       vertex 0.0182393 0.152191 0.1
    endloop
  endfacet
  facet normal -0.751817 0.659372 0
    outer loop
       vertex 0.0182393 0.152191 0.1
       vertex 0.0398013 0.176776 0.1
       vertex 0.0398013 0.176776 0
    endloop
  endfacet
  facet normal -0.831476 0.555561 0
    outer loop
       vertex 0.0182393 0.152191 0
       vertex 7.12971e-05 0.125 0
       vertex 7.12971e-05 0.125 0.1
    endloop
  endfacet
  facet normal -0.831476 0.555561 0
    outer loop
       vertex 7.12971e-05 0.125 0.1
       vertex 0.0182393 0.152191 0.1
       vertex 0.0182393 0.152191 0
    endloop
  endfacet
  facet normal -0.896866 0.442302 0
    outer loop
       vertex 7.12971e-05 0.125 0
       vertex -0.0143927 0.095671 0
       vertex -0.0143927 0.095671 0.1
    endloop
  endfacet
  facet normal -0.896866 0.442302 0
    outer loop
       vertex -0.0143927 0.095671 0.1
       vertex 7.12971e-05 0.125 0.1
       vertex 7.12971e-05 0.125 0
    endloop
  endfacet
  facet normal -0.946935 0.321425 0
    outer loop
       vertex -0.0143927 0.095671 0
       vertex -0.0249037 0.064705 0
       vertex -0.0249037 0.064705 0.1
    endloop
  endfacet
  facet normal -0.946935 0.321425 0
    outer loop
       vertex -0.0249037 0.064705 0.1
       vertex -0.0143927 0.095671 0.1
       vertex -0.0143927 0.095671 0
    endloop
  endfacet
  facet normal -0.980784 0.195096 0
    outer loop
       vertex -0.0249037 0.064705 0
       vertex -0.0312837 0.0326315 0
       vertex -0.0312837 0.0326315 0.1
    endloop
  endfacet
  facet normal -0.980784 0.195096 0
    outer loop
       vertex -0.0312837 0.0326315 0.1
       vertex -0.0249037 0.064705 0.1
       vertex -0.0249037 0.064705 0
    endloop
  endfacet
  facet normal -0.997858 0.0654098 0
    outer loop
       vertex -0.0334227 8.32665e-17 0.1
       vertex -0.0312837 0.0326315 0.1
       vertex -0.0312837 0.0326315 0
    endloop
  endfacet
  facet normal -0.997858 0.0654098 -1.08928e-16
    outer loop
       vertex -0.0312837 0.0326315 0
       vertex -0.0334227 -8.32665e-17 0
       vertex -0.0334227 8.32665e-17 0.1
    endloop
  endfacet
  facet normal -0.997858 -0.0654098 0
    outer loop
       vertex -0.0334227 -8.32665e-17 0
       vertex -0.0312837 -0.0326315 0
       vertex -0.0312837 -0.0326315 0.1
    endloop
  endfacet
  facet normal -0.997858 -0.0654098 1.08928e-16
    outer loop
       vertex -0.0312837 -0.0326315 0.1
       vertex -0.0334227 8.32665e-17 0.1
       vertex -0.0334227 -8.32665e-17 0
    endloop
  endfacet
  facet normal -0.980784 -0.195096 0
    outer loop
       vertex -0.0312837 -0.0326315 0
       vertex -0.0249037 -0.064705 0
       vertex -0.0249037 -0.064705 0.1
    endloop
  endfacet
  facet normal -0.980784 -0.195096 0
    outer loop
       vertex -0.0249037 -0.064705 0.1
       vertex -0.0312837 -0.0326315 0.1
       vertex -0.0312837 -0.0326315 0
    endloop
  endfacet
  facet normal -0.946935 -0.321425 0
    outer loop
       vertex -0.0249037 -0.064705 0
       vertex -0.0143927 -0.095671 0
       vertex -0.0143927 -0.095671 0.1
    endloop
  endfacet
  facet normal -0.946935 -0.321425 0
    outer loop
       vertex -0.0143927 -0.095671 0.1
       vertex -0.0249037 -0.064705 0.1
       vertex -0.0249037 -0.064705 0
    endloop
  endfacet
  facet normal -0.896866 -0.442302 0
    outer loop
       vertex -0.0143927 -0.095671 0
       vertex 7.12971e-05 -0.125 0
       vertex 7.12971e-05 -0.125 0.1
    endloop
  endfacet
  facet normal -0.896866 -0.442302 0
    outer loop
       vertex 7.12971e-05 -0.125 0.1
       vertex -0.0143927 -0.095671 0.1
       vertex -0.0143927 -0.095671 0
    endloop
  endfacet
  facet normal -0.831476 -0.555561 0
    outer loop
       vertex 7.12971e-05 -0.125 0
       vertex 0.0182393 -0.152191 0
       vertex 0.0182393 -0.152191 0.1
    endloop
  endfacet
  facet normal -0.831476 -0.555561 0
    outer loop
       vertex 0.0182393 -0.152191 0.1
       vertex 7.12971e-05 -0.125 0.1
       vertex 7.12971e-05 -0.125 0
    endloop
  endfacet
  facet normal -0.751817 -0.659372 0
    outer loop
       vertex 0.0182393 -0.152191 0
       vertex 0.0398013 -0.176776 0
       vertex 0.0398013 -0.176776 0.1
    endloop
  endfacet
  facet normal -0.751817 -0.659372 0
    outer loop
       vertex 0.0398013 -0.176776 0.1
       vertex 0.0182393 -0.152191 0.1
       vertex 0.0182393 -0.152191 0
    endloop
  endfacet
  facet normal 0.659372 -0.751817 0
    outer loop
       vertex 0.393353 -0.176776 0
       vertex 0.393353 -0.176776 0.1
       vertex 0.368768 -0.198338 0.1
    endloop
  endfacet
  facet normal 0.659372 -0.751817 0
    outer loop
       vertex 0.368768 -0.198338 0.1
       vertex 0.368768 -0.198338 0
       vertex 0.393353 -0.176776 0
    endloop
  endfacet
  facet normal 0.555561 -0.831476 0
    outer loop
       vertex 0.368768 -0.198338 0
       vertex 0.368768 -0.198338 0.1
       vertex 0.341577 -0.216506 0.1
    endloop
  endfacet
  facet normal 0.555561 -0.831476 0
    outer loop
       vertex 0.341577 -0.216506 0.1
       vertex 0.341577 -0.216506 0
       vertex 0.368768 -0.198338 0
    endloop
  endfacet
  facet normal 0.442302 -0.896866 0
    outer loop
       vertex 0.341577 -0.216506 0
       vertex 0.341577 -0.216506 0.1
       vertex 0.312248 -0.23097 0.1
    endloop
  endfacet
  facet normal 0.442302 -0.896866 0
    outer loop
       vertex 0.312248 -0.23097 0.1
       vertex 0.312248 -0.23097 0
       vertex 0.341577 -0.216506 0
    endloop
  endfacet
  facet normal 0.321425 -0.946935 0
    outer loop
       vertex 0.312248 -0.23097 0
       vertex 0.312248 -0.23097 0.1
       vertex 0.281282 -0.241481 0.1
    endloop
  endfacet
  facet normal 0.321425 -0.946935 0
    outer loop
       vertex 0.281282 -0.241481 0.1
       vertex 0.281282 -0.241481 0
       vertex 0.312248 -0.23097 0
    endloop
  endfacet
  facet normal 0.195096 -0.980784 0
    outer loop
       vertex 0.281282 -0.241481 0
       vertex 0.281282 -0.241481 0.1
       vertex 0.249209 -0.247861 0.1
    endloop
  endfacet
  facet normal 0.195096 -0.980784 0
    outer loop
       vertex 0.249209 -0.247861 0.1
       vertex 0.249209 -0.247861 0
       vertex 0.281282 -0.241481 0
    endloop
  endfacet
  facet normal 0.0654098 -0.997858 0
    outer loop
       vertex 0.216577 -0.25 0
       vertex 0.249209 -0.247861 0
       vertex 0.249209 -0.247861 0.1
    endloop
  endfacet
  facet normal 0.0654098 -0.997858 1.0893e-16
    outer loop
       vertex 0.249209 -0.247861 0.1
       vertex 0.216577 -0.25 0.1
       vertex 0.216577 -0.25 0
    endloop
  endfacet
  facet normal -0.0654098 -0.997858 0
    outer loop
       vertex 0.216577 -0.25 0.1
       vertex 0.183946 -0.247861 0.1
       vertex 0.183946 -0.247861 0
    endloop
  endfacet
  facet normal -0.0654098 -0.997858 -1.0893e-16
    outer loop
       vertex 0.183946 -0.247861 0
       vertex 0.216577 -0.25 0
       vertex 0.216577 -0.25 0.1
    endloop
  endfacet
  facet normal -0.195096 -0.980784 0
    outer loop
       vertex 0.183946 -0.247861 0
       vertex 0.183946 -0.247861 0.1
       vertex 0.151872 -0.241481 0.1
    endloop
  endfacet
  facet normal -0.195096 -0.980784 -0
    outer loop
       vertex 0.151872 -0.241481 0.1
       vertex 0.151872 -0.241481 0
       vertex 0.183946 -0.247861 0
    endloop
  endfacet
  facet normal -0.321425 -0.946935 0
    outer loop
       vertex 0.151872 -0.241481 0
       vertex 0.151872 -0.241481 0.1
       vertex 0.120906 -0.23097 0.1
    endloop
  endfacet
  facet normal -0.321425 -0.946935 -0
    outer loop
       vertex 0.120906 -0.23097 0.1
       vertex 0.120906 -0.23097 0
       vertex 0.151872 -0.241481 0
    endloop
  endfacet
  facet normal -0.442302 -0.896866 0
    outer loop
       vertex 0.120906 -0.23097 0
       vertex 0.120906 -0.23097 0.1
       vertex 0.0915773 -0.216506 0.1
    endloop
  endfacet
  facet normal -0.442302 -0.896866 -0
    outer loop
       vertex 0.0915773 -0.216506 0.1
       vertex 0.0915773 -0.216506 0
       vertex 0.120906 -0.23097 0
    endloop
  endfacet
  facet normal -0.555561 -0.831476 0
    outer loop
       vertex 0.0915773 -0.216506 0
       vertex 0.0915773 -0.216506 0.1
       vertex 0.0643863 -0.198338 0.1
    endloop
  endfacet
  facet normal -0.555561 -0.831476 -0
    outer loop
       vertex 0.0643863 -0.198338 0.1
       vertex 0.0643863 -0.198338 0
       vertex 0.0915773 -0.216506 0
    endloop
  endfacet
  facet normal -0.659372 -0.751817 0
    outer loop
       vertex 0.0643863 -0.198338 0
       vertex 0.0643863 -0.198338 0.1
       vertex 0.0398013 -0.176776 0.1
    endloop
  endfacet
  facet normal -0.659372 -0.751817 -0
    outer loop
       vertex 0.0398013 -0.176776 0.1
       vertex 0.0398013 -0.176776 0
       vertex 0.0643863 -0.198338 0
    endloop
  endfacet
endsolid cylinder
