solid cylinder
  facet normal 0.751817 -0.659372 0
    outer loop
       vertex -0.0984696 -0.176776 0
       vertex -0.0769076 -0.152191 0
       vertex -0.0769076 -0.152191 0.1
    endloop
  endfacet
  facet normal 0.751817 -0.659372 0
    outer loop
       vertex -0.0769076 -0.152191 0.1
       vertex -0.0984696 -0.176776 0.1
       vertex -0.0984696 -0.176776 0
    endloop
  endfacet
  facet normal 0.831476 -0.555561 0
    outer loop
       vertex -0.0769076 -0.152191 0
       vertex -0.0587396 -0.125 0
       vertex -0.0587396 -0.125 0.1
    endloop
  endfacet
  facet normal 0.831476 -0.555561 0
    outer loop
       vertex -0.0587396 -0.125 0.1
       vertex -0.0769076 -0.152191 0.1
       vertex -0.0769076 -0.152191 0
    endloop
  endfacet
  facet normal 0.896866 -0.442302 0
    outer loop
       vertex -0.0587396 -0.125 0
       vertex -0.0442756 -0.095671 0
       vertex -0.0442756 -0.095671 0.1
    endloop
  endfacet
  facet normal 0.896866 -0.442302 0
    outer loop
       vertex -0.0442756 -0.095671 0.1
       vertex -0.0587396 -0.125 0.1
       vertex -0.0587396 -0.125 0
    endloop
  endfacet
  facet normal 0.946935 -0.321425 0
    outer loop
       vertex -0.0442756 -0.095671 0
       vertex -0.0337646 -0.064705 0
       vertex -0.0337646 -0.064705 0.1
    endloop
  endfacet
  facet normal 0.946935 -0.321425 0
    outer loop
       vertex -0.0337646 -0.064705 0.1
       vertex -0.0442756 -0.095671 0.1
       vertex -0.0442756 -0.095671 0
    endloop
  endfacet
  facet normal 0.980784 -0.195096 0
    outer loop
       vertex -0.0337646 -0.064705 0
       vertex -0.0273846 -0.0326315 0
       vertex -0.0273846 -0.0326315 0.1
    endloop
  endfacet
  facet normal 0.980784 -0.195096 0
    outer loop
       vertex -0.0273846 -0.0326315 0.1
       vertex -0.0337646 -0.064705 0.1
       vertex -0.0337646 -0.064705 0
    endloop
  endfacet
  facet normal 0.997858 -0.0654098 0
    outer loop
       vertex -0.0252456 -8.32665e-17 0.1
       vertex -0.0273846 -0.0326315 0.1
       vertex -0.0273846 -0.0326315 0
    endloop
  endfacet
  facet normal 0.997858 -0.0654098 -1.08928e-16
    outer loop
       vertex -0.0273846 -0.0326315 0
       vertex -0.0252456 8.32665e-17 0
       vertex -0.0252456 -8.32665e-17 0.1
    endloop
  endfacet
  facet normal 0.997858 0.0654098 0
    outer loop
       vertex -0.0252456 8.32665e-17 0
       vertex -0.0273846 0.0326315 0
       vertex -0.0273846 0.0326315 0.1
    endloop
  endfacet
  facet normal 0.997858 0.0654098 1.08928e-16
    outer loop
       vertex -0.0273846 0.0326315 0.1
       vertex -0.0252456 -8.32665e-17 0.1
       vertex -0.0252456 8.32665e-17 0
    endloop
  endfacet
  facet normal 0.980784 0.195096 0
    outer loop
       vertex -0.0273846 0.0326315 0
       vertex -0.0337646 0.064705 0
       vertex -0.0337646 0.064705 0.1
    endloop
  endfacet
  facet normal 0.980784 0.195096 0
    outer loop
       vertex -0.0337646 0.064705 0.1
       vertex -0.0273846 0.0326315 0.1
       vertex -0.0273846 0.0326315 0
    endloop
  endfacet
  facet normal 0.946935 0.321425 0
    outer loop
       vertex -0.0337646 0.064705 0
       vertex -0.0442756 0.095671 0
       vertex -0.0442756 0.095671 0.1
    endloop
  endfacet
  facet normal 0.946935 0.321425 0
    outer loop
       vertex -0.0442756 0.095671 0.1
       vertex -0.0337646 0.064705 0.1
       vertex -0.0337646 0.064705 0
    endloop
  endfacet
  facet normal 0.896866 0.442302 0
    outer loop
       vertex -0.0442756 0.095671 0
       vertex -0.0587396 0.125 0
       vertex -0.0587396 0.125 0.1
    endloop
  endfacet
  facet normal 0.896866 0.442302 0
    outer loop
       vertex -0.0587396 0.125 0.1
       vertex -0.0442756 0.095671 0.1
       vertex -0.0442756 0.095671 0
    endloop
  endfacet
  facet normal 0.831476 0.555561 0
    outer loop
       vertex -0.0587396 0.125 0
       vertex -0.0769076 0.152191 0
       vertex -0.0769076 0.152191 0.1
    endloop
  endfacet
  facet normal 0.831476 0.555561 0
    outer loop
       vertex -0.0769076 0.152191 0.1
       vertex -0.0587396 0.125 0.1
       vertex -0.0587396 0.125 0
    endloop
  endfacet
  facet normal 0.751817 0.659372 0
    outer loop
       vertex -0.0769076 0.152191 0
       vertex -0.0984696 0.176776 0
       vertex -0.0984696 0.176776 0.1
    endloop
  endfacet
  facet normal 0.751817 0.659372 0
    outer loop
       vertex -0.0984696 0.176776 0.1
       vertex -0.0769076 0.152191 0.1
       vertex -0.0769076 0.152191 0
    endloop
  endfacet
  facet normal 0.659372 0.751817 0
    outer loop
       vertex -0.0984696 0.176776 0
       vertex -0.123055 0.198338 0
       vertex -0.123055 0.198338 0.1
    endloop
  endfacet
  facet normal 0.659372 0.751817 0
    outer loop
       vertex -0.123055 0.198338 0.1
       vertex -0.0984696 0.176776 0.1
       vertex -0.0984696 0.176776 0
    endloop
  endfacet
  facet normal 0.555561 0.831476 0
    outer loop
       vertex -0.123055 0.198338 0
       vertex -0.150246 0.216506 0
       vertex -0.150246 0.216506 0.1
    endloop
  endfacet
  facet normal 0.555561 0.831476 0
    outer loop
       vertex -0.150246 0.216506 0.1
       vertex -0.123055 0.198338 0.1
       vertex -0.123055 0.198338 0
    endloop
  endfacet
  facet normal 0.442302 0.896866 0
    outer loop
       vertex -0.150246 0.216506 0
       vertex -0.179575 0.23097 0
       vertex -0.179575 0.23097 0.1
    endloop
  endfacet
  facet normal 0.442302 0.896866 0
    outer loop
       vertex -0.179575 0.23097 0.1
       vertex -0.150246 0.216506 0.1
       vertex -0.150246 0.216506 0
    endloop
  endfacet
  facet normal 0.321425 0.946935 0
    outer loop
       vertex -0.179575 0.23097 0
       vertex -0.210541 0.241481 0
       vertex -0.210541 0.241481 0.1
    endloop
  endfacet
  facet normal 0.321425 0.946935 0
    outer loop
       vertex -0.210541 0.241481 0.1
       vertex -0.179575 0.23097 0.1
       vertex -0.179575 0.23097 0
    endloop
  endfacet
  facet normal 0.195096 0.980784 0
    outer loop
       vertex -0.210541 0.241481 0
       vertex -0.242614 0.247861 0
       vertex -0.242614 0.247861 0.1
    endloop
  endfacet
  facet normal 0.195096 0.980784 0
    outer loop
       vertex -0.242614 0.247861 0.1
       vertex -0.210541 0.241481 0.1
       vertex -0.210541 0.241481 0
    endloop
  endfacet
  facet normal 0.0654098 0.997858 0
    outer loop
       vertex -0.275246 0.25 0.1
       vertex -0.242614 0.247861 0.1
       vertex -0.242614 0.247861 0
    endloop
  endfacet
  facet normal 0.0654098 0.997858 -1.45239e-16
    outer loop
       vertex -0.242614 0.247861 0
       vertex -0.275246 0.25 0
       vertex -0.275246 0.25 0.1
    endloop
  endfacet
  facet normal -0.0654098 0.997858 0
    outer loop
       vertex -0.275246 0.25 0
       vertex -0.307877 0.247861 0
       vertex -0.307877 0.247861 0.1
    endloop
  endfacet
  facet normal -0.0654098 0.997858 1.45239e-16
    outer loop
       vertex -0.307877 0.247861 0.1
       vertex -0.275246 0.25 0.1
       vertex -0.275246 0.25 0
    endloop
  endfacet
  facet normal -0.195096 0.980784 0
    outer loop
       vertex -0.307877 0.247861 0
       vertex -0.339951 0.241481 0
       vertex -0.339951 0.241481 0.1
    endloop
  endfacet
  facet normal -0.195096 0.980784 0
    outer loop
       vertex -0.339951 0.241481 0.1
       vertex -0.307877 0.247861 0.1
       vertex -0.307877 0.247861 0
    endloop
  endfacet
  facet normal -0.321425 0.946935 0
    outer loop
       vertex -0.339951 0.241481 0
       vertex -0.370917 0.23097 0
       vertex -0.370917 0.23097 0.1
    endloop
  endfacet
  facet normal -0.321425 0.946935 0
    outer loop
       vertex -0.370917 0.23097 0.1
       vertex -0.339951 0.241481 0.1
       vertex -0.339951 0.241481 0
    endloop
  endfacet
  facet normal -0.442302 0.896866 0
    outer loop
       vertex -0.370917 0.23097 0
       vertex -0.400246 0.216506 0
       vertex -0.400246 0.216506 0.1
    endloop
  endfacet
  facet normal -0.442302 0.896866 0
    outer loop
       vertex -0.400246 0.216506 0.1
       vertex -0.370917 0.23097 0.1
       vertex -0.370917 0.23097 0
    endloop
  endfacet
  facet normal -0.555561 0.831476 0
    outer loop
       vertex -0.400246 0.216506 0
       vertex -0.427437 0.198338 0
       vertex -0.427437 0.198338 0.1
    endloop
  endfacet
  facet normal -0.555561 0.831476 0
    outer loop
       vertex -0.427437 0.198338 0.1
       vertex -0.400246 0.216506 0.1
       vertex -0.400246 0.216506 0
    endloop
  endfacet
  facet normal -0.659372 0.751817 0
    outer loop
       vertex -0.427437 0.198338 0
       vertex -0.452022 0.176776 0
       vertex -0.452022 0.176776 0.1
    endloop
  endfacet
  facet normal -0.659372 0.751817 0
    outer loop
       vertex -0.452022 0.176776 0.1
       vertex -0.427437 0.198338 0.1
       vertex -0.427437 0.198338 0
    endloop
  endfacet
  facet normal -0.751817 0.659372 0
    outer loop
       vertex -0.452022 0.176776 0
       vertex -0.473584 0.152191 0
       vertex -0.473584 0.152191 0.1
    endloop
  endfacet
  facet normal -0.751817 0.659372 0
    outer loop
       vertex -0.473584 0.152191 0.1
       vertex -0.452022 0.176776 0.1
       vertex -0.452022 0.176776 0
    endloop
  endfacet
  facet normal -0.831476 0.555561 0
    outer loop
       vertex -0.473584 0.152191 0
       vertex -0.491752 0.125 0
       vertex -0.491752 0.125 0.1
    endloop
  endfacet
  facet normal -0.831476 0.555561 0
    outer loop
       vertex -0.491752 0.125 0.1
       vertex -0.473584 0.152191 0.1
       vertex -0.473584 0.152191 0
    endloop
  endfacet
  facet normal -0.896866 0.442302 0
    outer loop
       vertex -0.491752 0.125 0
       vertex -0.506216 0.095671 0
       vertex -0.506216 0.095671 0.1
    endloop
  endfacet
  facet normal -0.896866 0.442302 0
    outer loop
       vertex -0.506216 0.095671 0.1
       vertex -0.491752 0.125 0.1
       vertex -0.491752 0.125 0
    endloop
  endfacet
  facet normal -0.946935 0.321425 0
    outer loop
       vertex -0.506216 0.095671 0
       vertex -0.516727 0.064705 0
       vertex -0.516727 0.064705 0.1
    endloop
  endfacet
  facet normal -0.946935 0.321425 0
    outer loop
       vertex -0.516727 0.064705 0.1
       vertex -0.506216 0.095671 0.1
       vertex -0.506216 0.095671 0
    endloop
  endfacet
  facet normal -0.980784 0.195096 0
    outer loop
       vertex -0.516727 0.064705 0
       vertex -0.523107 0.0326315 0
       vertex -0.523107 0.0326315 0.1
    endloop
  endfacet
  facet normal -0.980784 0.195096 0
    outer loop
       vertex -0.523107 0.0326315 0.1
       vertex -0.516727 0.064705 0.1
       vertex -0.516727 0.064705 0
    endloop
  endfacet
  facet normal -0.997858 0.0654098 0
    outer loop
       vertex -0.525246 8.32665e-17 0.1
       vertex -0.523107 0.0326315 0.1
       vertex -0.523107 0.0326315 0
    endloop
  endfacet
  facet normal -0.997858 0.0654098 -1.08928e-16
    outer loop
       vertex -0.523107 0.0326315 0
       vertex -0.525246 -8.32665e-17 0
       vertex -0.525246 8.32665e-17 0.1
    endloop
  endfacet
  facet normal -0.997858 -0.0654098 0
    outer loop
       vertex -0.525246 -8.32665e-17 0
       vertex -0.523107 -0.0326315 0
       vertex -0.523107 -0.0326315 0.1
    endloop
  endfacet
  facet normal -0.997858 -0.0654098 1.08928e-16
    outer loop
       vertex -0.523107 -0.0326315 0.1
       vertex -0.525246 8.32665e-17 0.1
       vertex -0.525246 -8.32665e-17 0
    endloop
  endfacet
  facet normal -0.980784 -0.195096 0
    outer loop
       vertex -0.523107 -0.0326315 0
       vertex -0.516727 -0.064705 0
       vertex -0.516727 -0.064705 0.1
    endloop
  endfacet
  facet normal -0.980784 -0.195096 0
    outer loop
       vertex -0.516727 -0.064705 0.1
       vertex -0.523107 -0.0326315 0.1
       vertex -0.523107 -0.0326315 0
    endloop
  endfacet
  facet normal -0.946935 -0.321425 0
    outer loop
       vertex -0.516727 -0.064705 0
       vertex -0.506216 -0.095671 0
       vertex -0.506216 -0.095671 0.1
    endloop
  endfacet
  facet normal -0.946935 -0.321425 0
    outer loop
       vertex -0.506216 -0.095671 0.1
       vertex -0.516727 -0.064705 0.1
       vertex -0.516727 -0.064705 0
    endloop
  endfacet
  facet normal -0.896866 -0.442302 0
    outer loop
       vertex -0.506216 -0.095671 0
       vertex -0.491752 -0.125 0
       vertex -0.491752 -0.125 0.1
    endloop
  endfacet
  facet normal -0.896866 -0.442302 0
    outer loop
       vertex -0.491752 -0.125 0.1
       vertex -0.506216 -0.095671 0.1
       vertex -0.506216 -0.095671 0
    endloop
  endfacet
  facet normal -0.831476 -0.555561 0
    outer loop
       vertex -0.491752 -0.125 0
       vertex -0.473584 -0.152191 0
       vertex -0.473584 -0.152191 0.1
    endloop
  endfacet
  facet normal -0.831476 -0.555561 0
    outer loop
       vertex -0.473584 -0.152191 0.1
       vertex -0.491752 -0.125 0.1
       vertex -0.491752 -0.125 0
    endloop
  endfacet
  facet normal -0.751817 -0.659372 0
    outer loop
       vertex -0.473584 -0.152191 0
       vertex -0.452022 -0.176776 0
       vertex -0.452022 -0.176776 0.1
    endloop
  endfacet
  facet normal -0.751817 -0.659372 0
    outer loop
       vertex -0.452022 -0.176776 0.1
       vertex -0.473584 -0.152191 0.1
       vertex -0.473584 -0.152191 0
    endloop
  endfacet
  facet normal 0.659372 -0.751817 0
    outer loop
       vertex -0.0984696 -0.176776 0
       vertex -0.0984696 -0.176776 0.1
       vertex -0.123055 -0.198338 0.1
    endloop
  endfacet
  facet normal 0.659372 -0.751817 0
    outer loop
       vertex -0.123055 -0.198338 0.1
       vertex -0.123055 -0.198338 0
       vertex -0.0984696 -0.176776 0
    endloop
  endfacet
  facet normal 0.555561 -0.831476 0
    outer loop
       vertex -0.123055 -0.198338 0
       vertex -0.123055 -0.198338 0.1
       vertex -0.150246 -0.216506 0.1
    endloop
  endfacet
  facet normal 0.555561 -0.831476 0
    outer loop
       vertex -0.150246 -0.216506 0.1
       vertex -0.150246 -0.216506 0
       vertex -0.123055 -0.198338 0
    endloop
  endfacet
  facet normal 0.442302 -0.896866 0
    outer loop
       vertex -0.150246 -0.216506 0
       vertex -0.150246 -0.216506 0.1
       vertex -0.179575 -0.23097 0.1
    endloop
  endfacet
  facet normal 0.442302 -0.896866 0
    outer loop
       vertex -0.179575 -0.23097 0.1
       vertex -0.179575 -0.23097 0
       vertex -0.150246 -0.216506 0
    endloop
  endfacet
  facet normal 0.321425 -0.946935 0
    outer loop
       vertex -0.179575 -0.23097 0
       vertex -0.179575 -0.23097 0.1
       vertex -0.210541 -0.241481 0.1
    endloop
  endfacet
  facet normal 0.321425 -0.946935 0
    outer loop
       vertex -0.210541 -0.241481 0.1
       vertex -0.210541 -0.241481 0
       vertex -0.179575 -0.23097 0
    endloop
  endfacet
  facet normal 0.195096 -0.980784 0
    outer loop
       vertex -0.210541 -0.241481 0
       vertex -0.210541 -0.241481 0.1
       vertex -0.242614 -0.247861 0.1
    endloop
  endfacet
  facet normal 0.195096 -0.980784 0
    outer loop
       vertex -0.242614 -0.247861 0.1
       vertex -0.242614 -0.247861 0
       vertex -0.210541 -0.241481 0
    endloop
  endfacet
  facet normal 0.0654098 -0.997858 0
    outer loop
       vertex -0.275246 -0.25 0
       vertex -0.242614 -0.247861 0
       vertex -0.242614 -0.247861 0.1
    endloop
  endfacet
  facet normal 0.0654098 -0.997858 1.45239e-16
    outer loop
       vertex -0.242614 -0.247861 0.1
       vertex -0.275246 -0.25 0.1
       vertex -0.275246 -0.25 0
    endloop
  endfacet
  facet normal -0.0654098 -0.997858 0
    outer loop
       vertex -0.275246 -0.25 0.1
       vertex -0.307877 -0.247861 0.1
       vertex -0.307877 -0.247861 0
    endloop
  endfacet
  facet normal -0.0654098 -0.997858 -1.45239e-16
    outer loop
       vertex -0.307877 -0.247861 0
       vertex -0.275246 -0.25 0
       vertex -0.275246 -0.25 0.1
    endloop
  endfacet
  facet normal -0.195096 -0.980784 0
    outer loop
       vertex -0.307877 -0.247861 0
       vertex -0.307877 -0.247861 0.1
       vertex -0.339951 -0.241481 0.1
    endloop
  endfacet
  facet normal -0.195096 -0.980784 -0
    outer loop
       vertex -0.339951 -0.241481 0.1
       vertex -0.339951 -0.241481 0
       vertex -0.307877 -0.247861 0
    endloop
  endfacet
  facet normal -0.321425 -0.946935 0
    outer loop
       vertex -0.339951 -0.241481 0
       vertex -0.339951 -0.241481 0.1
       vertex -0.370917 -0.23097 0.1
    endloop
  endfacet
  facet normal -0.321425 -0.946935 -0
    outer loop
       vertex -0.370917 -0.23097 0.1
       vertex -0.370917 -0.23097 0
       vertex -0.339951 -0.241481 0
    endloop
  endfacet
  facet normal -0.442302 -0.896866 0
    outer loop
       vertex -0.370917 -0.23097 0
       vertex -0.370917 -0.23097 0.1
       vertex -0.400246 -0.216506 0.1
    endloop
  endfacet
  facet normal -0.442302 -0.896866 -0
    outer loop
       vertex -0.400246 -0.216506 0.1
       vertex -0.400246 -0.216506 0
       vertex -0.370917 -0.23097 0
    endloop
  endfacet
  facet normal -0.555561 -0.831476 0
    outer loop
       vertex -0.400246 -0.216506 0
       vertex -0.400246 -0.216506 0.1
       vertex -0.427437 -0.198338 0.1
    endloop
  endfacet
  facet normal -0.555561 -0.831476 -0
    outer loop
       vertex -0.427437 -0.198338 0.1
       vertex -0.427437 -0.198338 0
       vertex -0.400246 -0.216506 0
    endloop
  endfacet
  facet normal -0.659372 -0.751817 0
    outer loop
       vertex -0.427437 -0.198338 0
       vertex -0.427437 -0.198338 0.1
       vertex -0.452022 -0.176776 0.1
    endloop
  endfacet
  facet normal -0.659372 -0.751817 -0
    outer loop
       vertex -0.452022 -0.176776 0.1
       vertex -0.452022 -0.176776 0
       vertex -0.427437 -0.198338 0
    endloop
  endfacet
endsolid cylinder
