solid cylinder
  facet normal 0.751817 -0.659372 0
    outer loop
       vertex 0.1595 -0.176776 0
       vertex 0.181062 -0.152191 0
       vertex 0.181062 -0.152191 0.1
    endloop
  endfacet
  facet normal 0.751817 -0.659372 0
    outer loop
       vertex 0.181062 -0.152191 0.1
       vertex 0.1595 -0.176776 0.1
       vertex 0.1595 -0.176776 0
    endloop
  endfacet
  facet normal 0.831476 -0.555561 0
    outer loop
       vertex 0.181062 -0.152191 0
       vertex 0.19923 -0.125 0
       vertex 0.19923 -0.125 0.1
    endloop
  endfacet
  facet normal 0.831476 -0.555561 0
    outer loop
       vertex 0.19923 -0.125 0.1
       vertex 0.181062 -0.152191 0.1
       vertex 0.181062 -0.152191 0
    endloop
  endfacet
  facet normal 0.896866 -0.442302 0
    outer loop
       vertex 0.19923 -0.125 0
       vertex 0.213694 -0.095671 0
       vertex 0.213694 -0.095671 0.1
    endloop
  endfacet
  facet normal 0.896866 -0.442302 0
    outer loop
       vertex 0.213694 -0.095671 0.1
       vertex 0.19923 -0.125 0.1
       vertex 0.19923 -0.125 0
    endloop
  endfacet
  facet normal 0.946935 -0.321425 0
    outer loop
       vertex 0.213694 -0.095671 0
       vertex 0.224205 -0.064705 0
       vertex 0.224205 -0.064705 0.1
    endloop
  endfacet
  facet normal 0.946935 -0.321425 0
    outer loop
       vertex 0.224205 -0.064705 0.1
       vertex 0.213694 -0.095671 0.1
       vertex 0.213694 -0.095671 0
    endloop
  endfacet
  facet normal 0.980784 -0.195096 0
    outer loop
       vertex 0.224205 -0.064705 0
       vertex 0.230585 -0.0326315 0
       vertex 0.230585 -0.0326315 0.1
    endloop
  endfacet
  facet normal 0.980784 -0.195096 0
    outer loop
       vertex 0.230585 -0.0326315 0.1
       vertex 0.224205 -0.064705 0.1
       vertex 0.224205 -0.064705 0
    endloop
  endfacet
  facet normal 0.997858 -0.0654098 0
    outer loop
       vertex 0.232724 -8.32665e-17 0.1
       vertex 0.230585 -0.0326315 0.1
       vertex 0.230585 -0.0326315 0
    endloop
  endfacet
  facet normal 0.997858 -0.0654098 -1.08928e-16
    outer loop
       vertex 0.230585 -0.0326315 0
       vertex 0.232724 8.32665e-17 0
       vertex 0.232724 -8.32665e-17 0.1
    endloop
  endfacet
  facet normal 0.997858 0.0654098 0
    outer loop
       vertex 0.232724 8.32665e-17 0
       vertex 0.230585 0.0326315 0
       vertex 0.230585 0.0326315 0.1
    endloop
  endfacet
  facet normal 0.997858 0.0654098 1.08928e-16
    outer loop
       vertex 0.230585 0.0326315 0.1
       vertex 0.232724 -8.32665e-17 0.1
       vertex 0.232724 8.32665e-17 0
    endloop
  endfacet
  facet normal 0.980784 0.195096 0
    outer loop
       vertex 0.230585 0.0326315 0
       vertex 0.224205 0.064705 0
       vertex 0.224205 0.064705 0.1
    endloop
  endfacet
  facet normal 0.980784 0.195096 0
    outer loop
       vertex 0.224205 0.064705 0.1
       vertex 0.230585 0.0326315 0.1
       vertex 0.230585 0.0326315 0
    endloop
  endfacet
  facet normal 0.946935 0.321425 0
    outer loop
       vertex 0.224205 0.064705 0
       vertex 0.213694 0.095671 0
       vertex 0.213694 0.095671 0.1
    endloop
  endfacet
  facet normal 0.946935 0.321425 0
    outer loop
       vertex 0.213694 0.095671 0.1
       vertex 0.224205 0.064705 0.1
       vertex 0.224205 0.064705 0
    endloop
  endfacet
  facet normal 0.896866 0.442302 0
    outer loop
       vertex 0.213694 0.095671 0
       vertex 0.19923 0.125 0
       vertex 0.19923 0.125 0.1
    endloop
  endfacet
  facet normal 0.896866 0.442302 0
    outer loop
       vertex 0.19923 0.125 0.1
       vertex 0.213694 0.095671 0.1
       vertex 0.213694 0.095671 0
    endloop
  endfacet
  facet normal 0.831476 0.555561 0
    outer loop
       vertex 0.19923 0.125 0
       vertex 0.181062 0.152191 0
       vertex 0.181062 0.152191 0.1
    endloop
  endfacet
  facet normal 0.831476 0.555561 0
    outer loop
       vertex 0.181062 0.152191 0.1
       vertex 0.19923 0.125 0.1
       vertex 0.19923 0.125 0
    endloop
  endfacet
  facet normal 0.751817 0.659372 0
    outer loop
       vertex 0.181062 0.152191 0
       vertex 0.1595 0.176776 0
       vertex 0.1595 0.176776 0.1
    endloop
  endfacet
  facet normal 0.751817 0.659372 0
    outer loop
       vertex 0.1595 0.176776 0.1
       vertex 0.181062 0.152191 0.1
       vertex 0.181062 0.152191 0
    endloop
  endfacet
  facet normal 0.659372 0.751817 0
    outer loop
       vertex 0.1595 0.176776 0
       vertex 0.134915 0.198338 0
       vertex 0.134915 0.198338 0.1
    endloop
  endfacet
  facet normal 0.659372 0.751817 0
    outer loop
       vertex 0.134915 0.198338 0.1
       vertex 0.1595 0.176776 0.1
       vertex 0.1595 0.176776 0
    endloop
  endfacet
  facet normal 0.555561 0.831476 0
    outer loop
       vertex 0.134915 0.198338 0
       vertex 0.107724 0.216506 0
       vertex 0.107724 0.216506 0.1
    endloop
  endfacet
  facet normal 0.555561 0.831476 0
    outer loop
       vertex 0.107724 0.216506 0.1
       vertex 0.134915 0.198338 0.1
       vertex 0.134915 0.198338 0
    endloop
  endfacet
  facet normal 0.442302 0.896866 0
    outer loop
       vertex 0.107724 0.216506 0
       vertex 0.0783955 0.23097 0
       vertex 0.0783955 0.23097 0.1
    endloop
  endfacet
  facet normal 0.442302 0.896866 0
    outer loop
       vertex 0.0783955 0.23097 0.1
       vertex 0.107724 0.216506 0.1
       vertex 0.107724 0.216506 0
    endloop
  endfacet
  facet normal 0.321425 0.946935 0
    outer loop
       vertex 0.0783955 0.23097 0
       vertex 0.0474295 0.241481 0
       vertex 0.0474295 0.241481 0.1
    endloop
  endfacet
  facet normal 0.321425 0.946935 0
    outer loop
       vertex 0.0474295 0.241481 0.1
       vertex 0.0783955 0.23097 0.1
       vertex 0.0783955 0.23097 0
    endloop
  endfacet
  facet normal 0.195096 0.980784 0
    outer loop
       vertex 0.0474295 0.241481 0
       vertex 0.015356 0.247861 0
       vertex 0.015356 0.247861 0.1
    endloop
  endfacet
  facet normal 0.195096 0.980784 0
    outer loop
       vertex 0.015356 0.247861 0.1
       vertex 0.0474295 0.241481 0.1
       vertex 0.0474295 0.241481 0
    endloop
  endfacet
  facet normal 0.0654098 0.997858 0
    outer loop
       vertex -0.0172755 0.25 0.1
       vertex 0.015356 0.247861 0.1
       vertex 0.015356 0.247861 0
    endloop
  endfacet
  facet normal 0.0654098 0.997858 -1.08928e-16
    outer loop
       vertex 0.015356 0.247861 0
       vertex -0.0172755 0.25 0
       vertex -0.0172755 0.25 0.1
    endloop
  endfacet
  facet normal -0.0654098 0.997858 0
    outer loop
       vertex -0.0172755 0.25 0
       vertex -0.049907 0.247861 0
       vertex -0.049907 0.247861 0.1
    endloop
  endfacet
  facet normal -0.0654098 0.997858 1.0893e-16
    outer loop
       vertex -0.049907 0.247861 0.1
       vertex -0.0172755 0.25 0.1
       vertex -0.0172755 0.25 0
    endloop
  endfacet
  facet normal -0.195096 0.980784 0
    outer loop
       vertex -0.049907 0.247861 0
       vertex -0.0819805 0.241481 0
       vertex -0.0819805 0.241481 0.1
    endloop
  endfacet
  facet normal -0.195096 0.980784 0
    outer loop
       vertex -0.0819805 0.241481 0.1
       vertex -0.049907 0.247861 0.1
       vertex -0.049907 0.247861 0
    endloop
  endfacet
  facet normal -0.321425 0.946935 0
    outer loop
       vertex -0.0819805 0.241481 0
       vertex -0.112947 0.23097 0
       vertex -0.112947 0.23097 0.1
    endloop
  endfacet
  facet normal -0.321425 0.946935 0
    outer loop
       vertex -0.112947 0.23097 0.1
       vertex -0.0819805 0.241481 0.1
       vertex -0.0819805 0.241481 0
    endloop
  endfacet
  facet normal -0.442302 0.896866 0
    outer loop
       vertex -0.112947 0.23097 0
       vertex -0.142276 0.216506 0
       vertex -0.142276 0.216506 0.1
    endloop
  endfacet
  facet normal -0.442302 0.896866 0
    outer loop
       vertex -0.142276 0.216506 0.1
       vertex -0.112947 0.23097 0.1
       vertex -0.112947 0.23097 0
    endloop
  endfacet
  facet normal -0.555561 0.831476 0
    outer loop
       vertex -0.142276 0.216506 0
       vertex -0.169467 0.198338 0
       vertex -0.169467 0.198338 0.1
    endloop
  endfacet
  facet normal -0.555561 0.831476 0
    outer loop
       vertex -0.169467 0.198338 0.1
       vertex -0.142276 0.216506 0.1
       vertex -0.142276 0.216506 0
    endloop
  endfacet
  facet normal -0.659372 0.751817 0
    outer loop
       vertex -0.169467 0.198338 0
       vertex -0.194052 0.176776 0
       vertex -0.194052 0.176776 0.1
    endloop
  endfacet
  facet normal -0.659372 0.751817 0
    outer loop
       vertex -0.194052 0.176776 0.1
       vertex -0.169467 0.198338 0.1
       vertex -0.169467 0.198338 0
    endloop
  endfacet
  facet normal -0.751817 0.659372 0
    outer loop
       vertex -0.194052 0.176776 0
       vertex -0.215614 0.152191 0
       vertex -0.215614 0.152191 0.1
    endloop
  endfacet
  facet normal -0.751817 0.659372 0
    outer loop
       vertex -0.215614 0.152191 0.1
       vertex -0.194052 0.176776 0.1
       vertex -0.194052 0.176776 0
    endloop
  endfacet
  facet normal -0.831476 0.555561 0
    outer loop
       vertex -0.215614 0.152191 0
       vertex -0.233782 0.125 0
       vertex -0.233782 0.125 0.1
    endloop
  endfacet
  facet normal -0.831476 0.555561 0
    outer loop
       vertex -0.233782 0.125 0.1
       vertex -0.215614 0.152191 0.1
       vertex -0.215614 0.152191 0
    endloop
  endfacet
  facet normal -0.896866 0.442302 0
    outer loop
       vertex -0.233782 0.125 0
       vertex -0.248246 0.095671 0
       vertex -0.248246 0.095671 0.1
    endloop
  endfacet
  facet normal -0.896866 0.442302 0
    outer loop
       vertex -0.248246 0.095671 0.1
       vertex -0.233782 0.125 0.1
       vertex -0.233782 0.125 0
    endloop
  endfacet
  facet normal -0.946935 0.321425 0
    outer loop
       vertex -0.248246 0.095671 0
       vertex -0.258757 0.064705 0
       vertex -0.258757 0.064705 0.1
    endloop
  endfacet
  facet normal -0.946935 0.321425 0
    outer loop
       vertex -0.258757 0.064705 0.1
       vertex -0.248246 0.095671 0.1
       vertex -0.248246 0.095671 0
    endloop
  endfacet
  facet normal -0.980784 0.195096 0
    outer loop
       vertex -0.258757 0.064705 0
       vertex -0.265137 0.0326315 0
       vertex -0.265137 0.0326315 0.1
    endloop
  endfacet
  facet normal -0.980784 0.195096 0
    outer loop
       vertex -0.265137 0.0326315 0.1
       vertex -0.258757 0.064705 0.1
       vertex -0.258757 0.064705 0
    endloop
  endfacet
  facet normal -0.997858 0.0654098 0
    outer loop
       vertex -0.267276 8.32665e-17 0.1
       vertex -0.265137 0.0326315 0.1
       vertex -0.265137 0.0326315 0
    endloop
  endfacet
  facet normal -0.997858 0.0654098 -1.08928e-16
    outer loop
       vertex -0.265137 0.0326315 0
       vertex -0.267276 -8.32665e-17 0
       vertex -0.267276 8.32665e-17 0.1
    endloop
  endfacet
  facet normal -0.997858 -0.0654098 0
    outer loop
       vertex -0.267276 -8.32665e-17 0
       vertex -0.265137 -0.0326315 0
       vertex -0.265137 -0.0326315 0.1
    endloop
  endfacet
  facet normal -0.997858 -0.0654098 1.08928e-16
    outer loop
       vertex -0.265137 -0.0326315 0.1
       vertex -0.267276 8.32665e-17 0.1
       vertex -0.267276 -8.32665e-17 0
    endloop
  endfacet
  facet normal -0.980784 -0.195096 0
    outer loop
       vertex -0.265137 -0.0326315 0
       vertex -0.258757 -0.064705 0
       vertex -0.258757 -0.064705 0.1
    endloop
  endfacet
  facet normal -0.980784 -0.195096 0
    outer loop
       vertex -0.258757 -0.064705 0.1
       vertex -0.265137 -0.0326315 0.1
       vertex -0.265137 -0.0326315 0
    endloop
  endfacet
  facet normal -0.946935 -0.321425 0
    outer loop
       vertex -0.258757 -0.064705 0
       vertex -0.248246 -0.095671 0
       vertex -0.248246 -0.095671 0.1
    endloop
  endfacet
  facet normal -0.946935 -0.321425 0
    outer loop
       vertex -0.248246 -0.095671 0.1
       vertex -0.258757 -0.064705 0.1
       vertex -0.258757 -0.064705 0
    endloop
  endfacet
  facet normal -0.896866 -0.442302 0
    outer loop
       vertex -0.248246 -0.095671 0
       vertex -0.233782 -0.125 0
       vertex -0.233782 -0.125 0.1
    endloop
  endfacet
  facet normal -0.896866 -0.442302 0
    outer loop
       vertex -0.233782 -0.125 0.1
       vertex -0.248246 -0.095671 0.1
       vertex -0.248246 -0.095671 0
    endloop
  endfacet
  facet normal -0.831476 -0.555561 0
    outer loop
       vertex -0.233782 -0.125 0
       vertex -0.215614 -0.152191 0
       vertex -0.215614 -0.152191 0.1
    endloop
  endfacet
  facet normal -0.831476 -0.555561 0
    outer loop
       vertex -0.215614 -0.152191 0.1
       vertex -0.233782 -0.125 0.1
       vertex -0.233782 -0.125 0
    endloop
  endfacet
  facet normal -0.751817 -0.659372 0
    outer loop
       vertex -0.215614 -0.152191 0
       vertex -0.194052 -0.176776 0
       vertex -0.194052 -0.176776 0.1
    endloop
  endfacet
  facet normal -0.751817 -0.659372 0
    outer loop
       vertex -0.194052 -0.176776 0.1
       vertex -0.215614 -0.152191 0.1
       vertex -0.215614 -0.152191 0
    endloop
  endfacet
  facet normal 0.659372 -0.751817 0
    outer loop
       vertex 0.1595 -0.176776 0
       vertex 0.1595 -0.176776 0.1
       vertex 0.134915 -0.198338 0.1
    endloop
  endfacet
  facet normal 0.659372 -0.751817 0
    outer loop
       vertex 0.134915 -0.198338 0.1
       vertex 0.134915 -0.198338 0
       vertex 0.1595 -0.176776 0
    endloop
  endfacet
  facet normal 0.555561 -0.831476 0
    outer loop
       vertex 0.134915 -0.198338 0
       vertex 0.134915 -0.198338 0.1
       vertex 0.107724 -0.216506 0.1
    endloop
  endfacet
  facet normal 0.555561 -0.831476 0
    outer loop
       vertex 0.107724 -0.216506 0.1
       vertex 0.107724 -0.216506 0
       vertex 0.134915 -0.198338 0
    endloop
  endfacet
  facet normal 0.442302 -0.896866 0
    outer loop
       vertex 0.107724 -0.216506 0
       vertex 0.107724 -0.216506 0.1
       vertex 0.0783955 -0.23097 0.1
    endloop
  endfacet
  facet normal 0.442302 -0.896866 0
    outer loop
       vertex 0.0783955 -0.23097 0.1
       vertex 0.0783955 -0.23097 0
       vertex 0.107724 -0.216506 0
    endloop
  endfacet
  facet normal 0.321425 -0.946935 0
    outer loop
       vertex 0.0783955 -0.23097 0
       vertex 0.0783955 -0.23097 0.1
       vertex 0.0474295 -0.241481 0.1
    endloop
  endfacet
  facet normal 0.321425 -0.946935 0
    outer loop
       vertex 0.0474295 -0.241481 0.1
       vertex 0.0474295 -0.241481 0
       vertex 0.0783955 -0.23097 0
    endloop
  endfacet
  facet normal 0.195096 -0.980784 0
    outer loop
       vertex 0.0474295 -0.241481 0
       vertex 0.0474295 -0.241481 0.1
       vertex 0.015356 -0.247861 0.1
    endloop
  endfacet
  facet normal 0.195096 -0.980784 0
    outer loop
       vertex 0.015356 -0.247861 0.1
       vertex 0.015356 -0.247861 0
       vertex 0.0474295 -0.241481 0
    endloop
  endfacet
  facet normal 0.0654098 -0.997858 0
    outer loop
       vertex -0.0172755 -0.25 0
       vertex 0.015356 -0.247861 0
       vertex 0.015356 -0.247861 0.1
    endloop
  endfacet
  facet normal 0.0654098 -0.997858 1.08928e-16
    outer loop
       vertex 0.015356 -0.247861 0.1
       vertex -0.0172755 -0.25 0.1
       vertex -0.0172755 -0.25 0
    endloop
  endfacet
  facet normal -0.0654098 -0.997858 0
    outer loop
       vertex -0.0172755 -0.25 0.1
       vertex -0.049907 -0.247861 0.1
       vertex -0.049907 -0.247861 0
    endloop
  endfacet
  facet normal -0.0654098 -0.997858 -1.0893e-16
    outer loop
       vertex -0.049907 -0.247861 0
       vertex -0.0172755 -0.25 0
       vertex -0.0172755 -0.25 0.1
    endloop
  endfacet
  facet normal -0.195096 -0.980784 0
    outer loop
       vertex -0.049907 -0.247861 0
       vertex -0.049907 -0.247861 0.1
       vertex -0.0819805 -0.241481 0.1
    endloop
  endfacet
  facet normal -0.195096 -0.980784 -0
    outer loop
       vertex -0.0819805 -0.241481 0.1
       vertex -0.0819805 -0.241481 0
       vertex -0.049907 -0.247861 0
    endloop
  endfacet
  facet normal -0.321425 -0.946935 0
    outer loop
       vertex -0.0819805 -0.241481 0
       vertex -0.0819805 -0.241481 0.1
       vertex -0.112947 -0.23097 0.1
    endloop
  endfacet
  facet normal -0.321425 -0.946935 -0
    outer loop
       vertex -0.112947 -0.23097 0.1
       vertex -0.112947 -0.23097 0
       vertex -0.0819805 -0.241481 0
    endloop
  endfacet
  facet normal -0.442302 -0.896866 0
    outer loop
       vertex -0.112947 -0.23097 0
       vertex -0.112947 -0.23097 0.1
       vertex -0.142276 -0.216506 0.1
    endloop
  endfacet
  facet normal -0.442302 -0.896866 -0
    outer loop
       vertex -0.142276 -0.216506 0.1
       vertex -0.142276 -0.216506 0
       vertex -0.112947 -0.23097 0
    endloop
  endfacet
  facet normal -0.555561 -0.831476 0
    outer loop
       vertex -0.142276 -0.216506 0
       vertex -0.142276 -0.216506 0.1
       vertex -0.169467 -0.198338 0.1
    endloop
  endfacet
  facet normal -0.555561 -0.831476 -0
    outer loop
       vertex -0.169467 -0.198338 0.1
       vertex -0.169467 -0.198338 0
       vertex -0.142276 -0.216506 0
    endloop
  endfacet
  facet normal -0.659372 -0.751817 0
    outer loop
       vertex -0.169467 -0.198338 0
       vertex -0.169467 -0.198338 0.1
       vertex -0.194052 -0.176776 0.1
    endloop
  endfacet
  facet normal -0.659372 -0.751817 -0
    outer loop
       vertex -0.194052 -0.176776 0.1
       vertex -0.194052 -0.176776 0
       vertex -0.169467 -0.198338 0
    endloop
  endfacet
endsolid cylinder
