solid cylinder
  facet normal 0.751817 -0.659372 0
    outer loop
       vertex 0.0366803 -0.176776 0
       vertex 0.0582423 -0.152191 0
       vertex 0.0582423 -0.152191 0.1
    endloop
  endfacet
  facet normal 0.751817 -0.659372 0
    outer loop
       vertex 0.0582423 -0.152191 0.1
       vertex 0.0366803 -0.176776 0.1
       vertex 0.0366803 -0.176776 0
    endloop
  endfacet
  facet normal 0.831476 -0.555561 0
    outer loop
       vertex 0.0582423 -0.152191 0
       vertex 0.0764103 -0.125 0
       vertex 0.0764103 -0.125 0.1
    endloop
  endfacet
  facet normal 0.831476 -0.555561 0
    outer loop
       vertex 0.0764103 -0.125 0.1
       vertex 0.0582423 -0.152191 0.1
       vertex 0.0582423 -0.152191 0
    endloop
  endfacet
  facet normal 0.896866 -0.442302 0
    outer loop
       vertex 0.0764103 -0.125 0
       vertex 0.0908743 -0.095671 0
       vertex 0.0908743 -0.095671 0.1
    endloop
  endfacet
  facet normal 0.896866 -0.442302 0
    outer loop
       vertex 0.0908743 -0.095671 0.1
       vertex 0.0764103 -0.125 0.1
       vertex 0.0764103 -0.125 0
    endloop
  endfacet
  facet normal 0.946935 -0.321425 0
    outer loop
       vertex 0.0908743 -0.095671 0
       vertex 0.101385 -0.064705 0
       vertex 0.101385 -0.064705 0.1
    endloop
  endfacet
  facet normal 0.946935 -0.321425 0
    outer loop
       vertex 0.101385 -0.064705 0.1
       vertex 0.0908743 -0.095671 0.1
       vertex 0.0908743 -0.095671 0
    endloop
  endfacet
  facet normal 0.980784 -0.195096 0
    outer loop
       vertex 0.101385 -0.064705 0
       vertex 0.107765 -0.0326315 0
       vertex 0.107765 -0.0326315 0.1
    endloop
  endfacet
  facet normal 0.980784 -0.195096 0
    outer loop
       vertex 0.107765 -0.0326315 0.1
       vertex 0.101385 -0.064705 0.1
       vertex 0.101385 -0.064705 0
    endloop
  endfacet
  facet normal 0.997858 -0.0654098 0
    outer loop
       vertex 0.109904 -8.32665e-17 0.1
       vertex 0.107765 -0.0326315 0.1
       vertex 0.107765 -0.0326315 0
    endloop
  endfacet
  facet normal 0.997858 -0.0654098 -1.08928e-16
    outer loop
       vertex 0.107765 -0.0326315 0
       vertex 0.109904 8.32665e-17 0
       vertex 0.109904 -8.32665e-17 0.1
    endloop
  endfacet
  facet normal 0.997858 0.0654098 0
    outer loop
       vertex 0.109904 8.32665e-17 0
       vertex 0.107765 0.0326315 0
       vertex 0.107765 0.0326315 0.1
    endloop
  endfacet
  facet normal 0.997858 0.0654098 1.08928e-16
    outer loop
       vertex 0.107765 0.0326315 0.1
       vertex 0.109904 -8.32665e-17 0.1
       vertex 0.109904 8.32665e-17 0
    endloop
  endfacet
  facet normal 0.980784 0.195096 0
    outer loop
       vertex 0.107765 0.0326315 0
       vertex 0.101385 0.064705 0
       vertex 0.101385 0.064705 0.1
    endloop
  endfacet
  facet normal 0.980784 0.195096 0
    outer loop
       vertex 0.101385 0.064705 0.1
       vertex 0.107765 0.0326315 0.1
       vertex 0.107765 0.0326315 0
    endloop
  endfacet
  facet normal 0.946935 0.321425 0
    outer loop
       vertex 0.101385 0.064705 0
       vertex 0.0908743 0.095671 0
       vertex 0.0908743 0.095671 0.1
    endloop
  endfacet
  facet normal 0.946935 0.321425 0
    outer loop
       vertex 0.0908743 0.095671 0.1
       vertex 0.101385 0.064705 0.1
       vertex 0.101385 0.064705 0
    endloop
  endfacet
  facet normal 0.896866 0.442302 0
    outer loop
       vertex 0.0908743 0.095671 0
       vertex 0.0764103 0.125 0
       vertex 0.0764103 0.125 0.1
    endloop
  endfacet
  facet normal 0.896866 0.442302 0
    outer loop
       vertex 0.0764103 0.125 0.1
       vertex 0.0908743 0.095671 0.1
       vertex 0.0908743 0.095671 0
    endloop
  endfacet
  facet normal 0.831476 0.555561 0
    outer loop
       vertex 0.0764103 0.125 0
       vertex 0.0582423 0.152191 0
       vertex 0.0582423 0.152191 0.1
    endloop
  endfacet
  facet normal 0.831476 0.555561 0
    outer loop
       vertex 0.0582423 0.152191 0.1
       vertex 0.0764103 0.125 0.1
       vertex 0.0764103 0.125 0
    endloop
  endfacet
  facet normal 0.751817 0.659372 0
    outer loop
       vertex 0.0582423 0.152191 0
       vertex 0.0366803 0.176776 0
       vertex 0.0366803 0.176776 0.1
    endloop
  endfacet
  facet normal 0.751817 0.659372 0
    outer loop
       vertex 0.0366803 0.176776 0.1
       vertex 0.0582423 0.152191 0.1
       vertex 0.0582423 0.152191 0
    endloop
  endfacet
  facet normal 0.659372 0.751817 0
    outer loop
       vertex 0.0366803 0.176776 0
       vertex 0.0120953 0.198338 0
       vertex 0.0120953 0.198338 0.1
    endloop
  endfacet
  facet normal 0.659372 0.751817 0
    outer loop
       vertex 0.0120953 0.198338 0.1
       vertex 0.0366803 0.176776 0.1
       vertex 0.0366803 0.176776 0
    endloop
  endfacet
  facet normal 0.555561 0.831476 0
    outer loop
       vertex 0.0120953 0.198338 0
       vertex -0.0150957 0.216506 0
       vertex -0.0150957 0.216506 0.1
    endloop
  endfacet
  facet normal 0.555561 0.831476 0
    outer loop
       vertex -0.0150957 0.216506 0.1
       vertex 0.0120953 0.198338 0.1
       vertex 0.0120953 0.198338 0
    endloop
  endfacet
  facet normal 0.442302 0.896866 0
    outer loop
       vertex -0.0150957 0.216506 0
       vertex -0.0444247 0.23097 0
       vertex -0.0444247 0.23097 0.1
    endloop
  endfacet
  facet normal 0.442302 0.896866 0
    outer loop
       vertex -0.0444247 0.23097 0.1
       vertex -0.0150957 0.216506 0.1
       vertex -0.0150957 0.216506 0
    endloop
  endfacet
  facet normal 0.321425 0.946935 0
    outer loop
       vertex -0.0444247 0.23097 0
       vertex -0.0753907 0.241481 0
       vertex -0.0753907 0.241481 0.1
    endloop
  endfacet
  facet normal 0.321425 0.946935 0
    outer loop
       vertex -0.0753907 0.241481 0.1
       vertex -0.0444247 0.23097 0.1
       vertex -0.0444247 0.23097 0
    endloop
  endfacet
  facet normal 0.195096 0.980784 0
    outer loop
       vertex -0.0753907 0.241481 0
       vertex -0.107464 0.247861 0
       vertex -0.107464 0.247861 0.1
    endloop
  endfacet
  facet normal 0.195096 0.980784 0
    outer loop
       vertex -0.107464 0.247861 0.1
       vertex -0.0753907 0.241481 0.1
       vertex -0.0753907 0.241481 0
    endloop
  endfacet
  facet normal 0.0654098 0.997858 0
    outer loop
       vertex -0.140096 0.25 0.1
       vertex -0.107464 0.247861 0.1
       vertex -0.107464 0.247861 0
    endloop
  endfacet
  facet normal 0.0654098 0.997858 -1.0893e-16
    outer loop
       vertex -0.107464 0.247861 0
       vertex -0.140096 0.25 0
       vertex -0.140096 0.25 0.1
    endloop
  endfacet
  facet normal -0.0654098 0.997858 0
    outer loop
       vertex -0.140096 0.25 0
       vertex -0.172727 0.247861 0
       vertex -0.172727 0.247861 0.1
    endloop
  endfacet
  facet normal -0.0654098 0.997858 1.0893e-16
    outer loop
       vertex -0.172727 0.247861 0.1
       vertex -0.140096 0.25 0.1
       vertex -0.140096 0.25 0
    endloop
  endfacet
  facet normal -0.195096 0.980784 0
    outer loop
       vertex -0.172727 0.247861 0
       vertex -0.204801 0.241481 0
       vertex -0.204801 0.241481 0.1
    endloop
  endfacet
  facet normal -0.195096 0.980784 0
    outer loop
       vertex -0.204801 0.241481 0.1
       vertex -0.172727 0.247861 0.1
       vertex -0.172727 0.247861 0
    endloop
  endfacet
  facet normal -0.321425 0.946935 0
    outer loop
       vertex -0.204801 0.241481 0
       vertex -0.235767 0.23097 0
       vertex -0.235767 0.23097 0.1
    endloop
  endfacet
  facet normal -0.321425 0.946935 0
    outer loop
       vertex -0.235767 0.23097 0.1
       vertex -0.204801 0.241481 0.1
       vertex -0.204801 0.241481 0
    endloop
  endfacet
  facet normal -0.442302 0.896866 0
    outer loop
       vertex -0.235767 0.23097 0
       vertex -0.265096 0.216506 0
       vertex -0.265096 0.216506 0.1
    endloop
  endfacet
  facet normal -0.442302 0.896866 0
    outer loop
       vertex -0.265096 0.216506 0.1
       vertex -0.235767 0.23097 0.1
       vertex -0.235767 0.23097 0
    endloop
  endfacet
  facet normal -0.555561 0.831476 0
    outer loop
       vertex -0.265096 0.216506 0
       vertex -0.292287 0.198338 0
       vertex -0.292287 0.198338 0.1
    endloop
  endfacet
  facet normal -0.555561 0.831476 0
    outer loop
       vertex -0.292287 0.198338 0.1
       vertex -0.265096 0.216506 0.1
       vertex -0.265096 0.216506 0
    endloop
  endfacet
  facet normal -0.659372 0.751817 0
    outer loop
       vertex -0.292287 0.198338 0
       vertex -0.316872 0.176776 0
       vertex -0.316872 0.176776 0.1
    endloop
  endfacet
  facet normal -0.659372 0.751817 0
    outer loop
       vertex -0.316872 0.176776 0.1
       vertex -0.292287 0.198338 0.1
       vertex -0.292287 0.198338 0
    endloop
  endfacet
  facet normal -0.751817 0.659372 0
    outer loop
       vertex -0.316872 0.176776 0
       vertex -0.338434 0.152191 0
       vertex -0.338434 0.152191 0.1
    endloop
  endfacet
  facet normal -0.751817 0.659372 0
    outer loop
       vertex -0.338434 0.152191 0.1
       vertex -0.316872 0.176776 0.1
       vertex -0.316872 0.176776 0
    endloop
  endfacet
  facet normal -0.831476 0.555561 0
    outer loop
       vertex -0.338434 0.152191 0
       vertex -0.356602 0.125 0
       vertex -0.356602 0.125 0.1
    endloop
  endfacet
  facet normal -0.831476 0.555561 0
    outer loop
       vertex -0.356602 0.125 0.1
       vertex -0.338434 0.152191 0.1
       vertex -0.338434 0.152191 0
    endloop
  endfacet
  facet normal -0.896866 0.442302 0
    outer loop
       vertex -0.356602 0.125 0
       vertex -0.371066 0.095671 0
       vertex -0.371066 0.095671 0.1
    endloop
  endfacet
  facet normal -0.896866 0.442302 0
    outer loop
       vertex -0.371066 0.095671 0.1
       vertex -0.356602 0.125 0.1
       vertex -0.356602 0.125 0
    endloop
  endfacet
  facet normal -0.946935 0.321425 0
    outer loop
       vertex -0.371066 0.095671 0
       vertex -0.381577 0.064705 0
       vertex -0.381577 0.064705 0.1
    endloop
  endfacet
  facet normal -0.946935 0.321425 0
    outer loop
       vertex -0.381577 0.064705 0.1
       vertex -0.371066 0.095671 0.1
       vertex -0.371066 0.095671 0
    endloop
  endfacet
  facet normal -0.980784 0.195096 0
    outer loop
       vertex -0.381577 0.064705 0
       vertex -0.387957 0.0326315 0
       vertex -0.387957 0.0326315 0.1
    endloop
  endfacet
  facet normal -0.980784 0.195096 0
    outer loop
       vertex -0.387957 0.0326315 0.1
       vertex -0.381577 0.064705 0.1
       vertex -0.381577 0.064705 0
    endloop
  endfacet
  facet normal -0.997858 0.0654098 0
    outer loop
       vertex -0.390096 8.32665e-17 0.1
       vertex -0.387957 0.0326315 0.1
       vertex -0.387957 0.0326315 0
    endloop
  endfacet
  facet normal -0.997858 0.0654098 -1.08928e-16
    outer loop
       vertex -0.387957 0.0326315 0
       vertex -0.390096 -8.32665e-17 0
       vertex -0.390096 8.32665e-17 0.1
    endloop
  endfacet
  facet normal -0.997858 -0.0654098 0
    outer loop
       vertex -0.390096 -8.32665e-17 0
       vertex -0.387957 -0.0326315 0
       vertex -0.387957 -0.0326315 0.1
    endloop
  endfacet
  facet normal -0.997858 -0.0654098 1.08928e-16
    outer loop
       vertex -0.387957 -0.0326315 0.1
       vertex -0.390096 8.32665e-17 0.1
       vertex -0.390096 -8.32665e-17 0
    endloop
  endfacet
  facet normal -0.980784 -0.195096 0
    outer loop
       vertex -0.387957 -0.0326315 0
       vertex -0.381577 -0.064705 0
       vertex -0.381577 -0.064705 0.1
    endloop
  endfacet
  facet normal -0.980784 -0.195096 0
    outer loop
       vertex -0.381577 -0.064705 0.1
       vertex -0.387957 -0.0326315 0.1
       vertex -0.387957 -0.0326315 0
    endloop
  endfacet
  facet normal -0.946935 -0.321425 0
    outer loop
       vertex -0.381577 -0.064705 0
       vertex -0.371066 -0.095671 0
       vertex -0.371066 -0.095671 0.1
    endloop
  endfacet
  facet normal -0.946935 -0.321425 0
    outer loop
       vertex -0.371066 -0.095671 0.1
       vertex -0.381577 -0.064705 0.1
       vertex -0.381577 -0.064705 0
    endloop
  endfacet
  facet normal -0.896866 -0.442302 0
    outer loop
       vertex -0.371066 -0.095671 0
       vertex -0.356602 -0.125 0
       vertex -0.356602 -0.125 0.1
    endloop
  endfacet
  facet normal -0.896866 -0.442302 0
    outer loop
       vertex -0.356602 -0.125 0.1
       vertex -0.371066 -0.095671 0.1
       vertex -0.371066 -0.095671 0
    endloop
  endfacet
  facet normal -0.831476 -0.555561 0
    outer loop
       vertex -0.356602 -0.125 0
       vertex -0.338434 -0.152191 0
       vertex -0.338434 -0.152191 0.1
    endloop
  endfacet
  facet normal -0.831476 -0.555561 0
    outer loop
       vertex -0.338434 -0.152191 0.1
       vertex -0.356602 -0.125 0.1
       vertex -0.356602 -0.125 0
    endloop
  endfacet
  facet normal -0.751817 -0.659372 0
    outer loop
       vertex -0.338434 -0.152191 0
       vertex -0.316872 -0.176776 0
       vertex -0.316872 -0.176776 0.1
    endloop
  endfacet
  facet normal -0.751817 -0.659372 0
    outer loop
       vertex -0.316872 -0.176776 0.1
       vertex -0.338434 -0.152191 0.1
       vertex -0.338434 -0.152191 0
    endloop
  endfacet
  facet normal 0.659372 -0.751817 0
    outer loop
       vertex 0.0366803 -0.176776 0
       vertex 0.0366803 -0.176776 0.1
       vertex 0.0120953 -0.198338 0.1
    endloop
  endfacet
  facet normal 0.659372 -0.751817 0
    outer loop
       vertex 0.0120953 -0.198338 0.1
       vertex 0.0120953 -0.198338 0
       vertex 0.0366803 -0.176776 0
    endloop
  endfacet
  facet normal 0.555561 -0.831476 0
    outer loop
       vertex 0.0120953 -0.198338 0
       vertex 0.0120953 -0.198338 0.1
       vertex -0.0150957 -0.216506 0.1
    endloop
  endfacet
  facet normal 0.555561 -0.831476 0
    outer loop
       vertex -0.0150957 -0.216506 0.1
       vertex -0.0150957 -0.216506 0
       vertex 0.0120953 -0.198338 0
    endloop
  endfacet
  facet normal 0.442302 -0.896866 0
    outer loop
       vertex -0.0150957 -0.216506 0
       vertex -0.0150957 -0.216506 0.1
       vertex -0.0444247 -0.23097 0.1
    endloop
  endfacet
  facet normal 0.442302 -0.896866 0
    outer loop
       vertex -0.0444247 -0.23097 0.1
       vertex -0.0444247 -0.23097 0
       vertex -0.0150957 -0.216506 0
    endloop
  endfacet
  facet normal 0.321425 -0.946935 0
    outer loop
       vertex -0.0444247 -0.23097 0
       vertex -0.0444247 -0.23097 0.1
       vertex -0.0753907 -0.241481 0.1
    endloop
  endfacet
  facet normal 0.321425 -0.946935 0
    outer loop
       vertex -0.0753907 -0.241481 0.1
       vertex -0.0753907 -0.241481 0
       vertex -0.0444247 -0.23097 0
    endloop
  endfacet
  facet normal 0.195096 -0.980784 0
    outer loop
       vertex -0.0753907 -0.241481 0
       vertex -0.0753907 -0.241481 0.1
       vertex -0.107464 -0.247861 0.1
    endloop
  endfacet
  facet normal 0.195096 -0.980784 0
    outer loop
       vertex -0.107464 -0.247861 0.1
       vertex -0.107464 -0.247861 0
       vertex -0.0753907 -0.241481 0
    endloop
  endfacet
  facet normal 0.0654098 -0.997858 0
    outer loop
       vertex -0.140096 -0.25 0
       vertex -0.107464 -0.247861 0
       vertex -0.107464 -0.247861 0.1
    endloop
  endfacet
  facet normal 0.0654098 -0.997858 1.0893e-16
    outer loop
       vertex -0.107464 -0.247861 0.1
       vertex -0.140096 -0.25 0.1
       vertex -0.140096 -0.25 0
    endloop
  endfacet
  facet normal -0.0654098 -0.997858 0
    outer loop
       vertex -0.140096 -0.25 0.1
       vertex -0.172727 -0.247861 0.1
       vertex -0.172727 -0.247861 0
    endloop
  endfacet
  facet normal -0.0654098 -0.997858 -1.0893e-16
    outer loop
       vertex -0.172727 -0.247861 0
       vertex -0.140096 -0.25 0
       vertex -0.140096 -0.25 0.1
    endloop
  endfacet
  facet normal -0.195096 -0.980784 0
    outer loop
       vertex -0.172727 -0.247861 0
       vertex -0.172727 -0.247861 0.1
       vertex -0.204801 -0.241481 0.1
    endloop
  endfacet
  facet normal -0.195096 -0.980784 -0
    outer loop
       vertex -0.204801 -0.241481 0.1
       vertex -0.204801 -0.241481 0
       vertex -0.172727 -0.247861 0
    endloop
  endfacet
  facet normal -0.321425 -0.946935 0
    outer loop
       vertex -0.204801 -0.241481 0
       vertex -0.204801 -0.241481 0.1
       vertex -0.235767 -0.23097 0.1
    endloop
  endfacet
  facet normal -0.321425 -0.946935 -0
    outer loop
       vertex -0.235767 -0.23097 0.1
       vertex -0.235767 -0.23097 0
       vertex -0.204801 -0.241481 0
    endloop
  endfacet
  facet normal -0.442302 -0.896866 0
    outer loop
       vertex -0.235767 -0.23097 0
       vertex -0.235767 -0.23097 0.1
       vertex -0.265096 -0.216506 0.1
    endloop
  endfacet
  facet normal -0.442302 -0.896866 -0
    outer loop
       vertex -0.265096 -0.216506 0.1
       vertex -0.265096 -0.216506 0
       vertex -0.235767 -0.23097 0
    endloop
  endfacet
  facet normal -0.555561 -0.831476 0
    outer loop
       vertex -0.265096 -0.216506 0
       vertex -0.265096 -0.216506 0.1
       vertex -0.292287 -0.198338 0.1
    endloop
  endfacet
  facet normal -0.555561 -0.831476 -0
    outer loop
       vertex -0.292287 -0.198338 0.1
       vertex -0.292287 -0.198338 0
       vertex -0.265096 -0.216506 0
    endloop
  endfacet
  facet normal -0.659372 -0.751817 0
    outer loop
       vertex -0.292287 -0.198338 0
       vertex -0.292287 -0.198338 0.1
       vertex -0.316872 -0.176776 0.1
    endloop
  endfacet
  facet normal -0.659372 -0.751817 -0
    outer loop
       vertex -0.316872 -0.176776 0.1
       vertex -0.316872 -0.176776 0
       vertex -0.292287 -0.198338 0
    endloop
  endfacet
endsolid cylinder
