solid cylinder
  facet normal 0.751817 -0.659372 0
    outer loop
       vertex 0.352506 -0.176776 0
       vertex 0.374068 -0.152191 0
       vertex 0.374068 -0.152191 0.1
    endloop
  endfacet
  facet normal 0.751817 -0.659372 0
    outer loop
       vertex 0.374068 -0.152191 0.1
       vertex 0.352506 -0.176776 0.1
       vertex 0.352506 -0.176776 0
    endloop
  endfacet
  facet normal 0.831476 -0.555561 0
    outer loop
       vertex 0.374068 -0.152191 0
       vertex 0.392236 -0.125 0
       vertex 0.392236 -0.125 0.1
    endloop
  endfacet
  facet normal 0.831476 -0.555561 0
    outer loop
       vertex 0.392236 -0.125 0.1
       vertex 0.374068 -0.152191 0.1
       vertex 0.374068 -0.152191 0
    endloop
  endfacet
  facet normal 0.896866 -0.442302 0
    outer loop
       vertex 0.392236 -0.125 0
       vertex 0.4067 -0.095671 0
       vertex 0.4067 -0.095671 0.1
    endloop
  endfacet
  facet normal 0.896866 -0.442302 0
    outer loop
       vertex 0.4067 -0.095671 0.1
       vertex 0.392236 -0.125 0.1
       vertex 0.392236 -0.125 0
    endloop
  endfacet
  facet normal 0.946935 -0.321425 0
    outer loop
       vertex 0.4067 -0.095671 0
       vertex 0.417211 -0.064705 0
       vertex 0.417211 -0.064705 0.1
    endloop
  endfacet
  facet normal 0.946935 -0.321425 0
    outer loop
       vertex 0.417211 -0.064705 0.1
       vertex 0.4067 -0.095671 0.1
       vertex 0.4067 -0.095671 0
    endloop
  endfacet
  facet normal 0.980784 -0.195096 0
    outer loop
       vertex 0.417211 -0.064705 0
       vertex 0.423591 -0.0326315 0
       vertex 0.423591 -0.0326315 0.1
    endloop
  endfacet
  facet normal 0.980784 -0.195096 0
    outer loop
       vertex 0.423591 -0.0326315 0.1
       vertex 0.417211 -0.064705 0.1
       vertex 0.417211 -0.064705 0
    endloop
  endfacet
  facet normal 0.997858 -0.0654098 0
    outer loop
       vertex 0.42573 -8.32665e-17 0.1
       vertex 0.423591 -0.0326315 0.1
       vertex 0.423591 -0.0326315 0
    endloop
  endfacet
  facet normal 0.997858 -0.0654098 -1.08928e-16
    outer loop
       vertex 0.423591 -0.0326315 0
       vertex 0.42573 8.32665e-17 0
       vertex 0.42573 -8.32665e-17 0.1
    endloop
  endfacet
  facet normal 0.997858 0.0654098 0
    outer loop
       vertex 0.42573 8.32665e-17 0
       vertex 0.423591 0.0326315 0
       vertex 0.423591 0.0326315 0.1
    endloop
  endfacet
  facet normal 0.997858 0.0654098 1.08928e-16
    outer loop
       vertex 0.423591 0.0326315 0.1
       vertex 0.42573 -8.32665e-17 0.1
       vertex 0.42573 8.32665e-17 0
    endloop
  endfacet
  facet normal 0.980784 0.195096 0
    outer loop
       vertex 0.423591 0.0326315 0
       vertex 0.417211 0.064705 0
       vertex 0.417211 0.064705 0.1
    endloop
  endfacet
  facet normal 0.980784 0.195096 0
    outer loop
       vertex 0.417211 0.064705 0.1
       vertex 0.423591 0.0326315 0.1
       vertex 0.423591 0.0326315 0
    endloop
  endfacet
  facet normal 0.946935 0.321425 0
    outer loop
       vertex 0.417211 0.064705 0
       vertex 0.4067 0.095671 0
       vertex 0.4067 0.095671 0.1
    endloop
  endfacet
  facet normal 0.946935 0.321425 0
    outer loop
       vertex 0.4067 0.095671 0.1
       vertex 0.417211 0.064705 0.1
       vertex 0.417211 0.064705 0
    endloop
  endfacet
  facet normal 0.896866 0.442302 0
    outer loop
       vertex 0.4067 0.095671 0
       vertex 0.392236 0.125 0
       vertex 0.392236 0.125 0.1
    endloop
  endfacet
  facet normal 0.896866 0.442302 0
    outer loop
       vertex 0.392236 0.125 0.1
       vertex 0.4067 0.095671 0.1
       vertex 0.4067 0.095671 0
    endloop
  endfacet
  facet normal 0.831476 0.555561 0
    outer loop
       vertex 0.392236 0.125 0
       vertex 0.374068 0.152191 0
       vertex 0.374068 0.152191 0.1
    endloop
  endfacet
  facet normal 0.831476 0.555561 0
    outer loop
       vertex 0.374068 0.152191 0.1
       vertex 0.392236 0.125 0.1
       vertex 0.392236 0.125 0
    endloop
  endfacet
  facet normal 0.751817 0.659372 0
    outer loop
       vertex 0.374068 0.152191 0
       vertex 0.352506 0.176776 0
       vertex 0.352506 0.176776 0.1
    endloop
  endfacet
  facet normal 0.751817 0.659372 0
    outer loop
       vertex 0.352506 0.176776 0.1
       vertex 0.374068 0.152191 0.1
       vertex 0.374068 0.152191 0
    endloop
  endfacet
  facet normal 0.659372 0.751817 0
    outer loop
       vertex 0.352506 0.176776 0
       vertex 0.327921 0.198338 0
       vertex 0.327921 0.198338 0.1
    endloop
  endfacet
  facet normal 0.659372 0.751817 0
    outer loop
       vertex 0.327921 0.198338 0.1
       vertex 0.352506 0.176776 0.1
       vertex 0.352506 0.176776 0
    endloop
  endfacet
  facet normal 0.555561 0.831476 0
    outer loop
       vertex 0.327921 0.198338 0
       vertex 0.30073 0.216506 0
       vertex 0.30073 0.216506 0.1
    endloop
  endfacet
  facet normal 0.555561 0.831476 0
    outer loop
       vertex 0.30073 0.216506 0.1
       vertex 0.327921 0.198338 0.1
       vertex 0.327921 0.198338 0
    endloop
  endfacet
  facet normal 0.442302 0.896866 0
    outer loop
       vertex 0.30073 0.216506 0
       vertex 0.271401 0.23097 0
       vertex 0.271401 0.23097 0.1
    endloop
  endfacet
  facet normal 0.442302 0.896866 0
    outer loop
       vertex 0.271401 0.23097 0.1
       vertex 0.30073 0.216506 0.1
       vertex 0.30073 0.216506 0
    endloop
  endfacet
  facet normal 0.321425 0.946935 0
    outer loop
       vertex 0.271401 0.23097 0
       vertex 0.240435 0.241481 0
       vertex 0.240435 0.241481 0.1
    endloop
  endfacet
  facet normal 0.321425 0.946935 0
    outer loop
       vertex 0.240435 0.241481 0.1
       vertex 0.271401 0.23097 0.1
       vertex 0.271401 0.23097 0
    endloop
  endfacet
  facet normal 0.195096 0.980784 0
    outer loop
       vertex 0.240435 0.241481 0
       vertex 0.208361 0.247861 0
       vertex 0.208361 0.247861 0.1
    endloop
  endfacet
  facet normal 0.195096 0.980784 0
    outer loop
       vertex 0.208361 0.247861 0.1
       vertex 0.240435 0.241481 0.1
       vertex 0.240435 0.241481 0
    endloop
  endfacet
  facet normal 0.0654098 0.997858 0
    outer loop
       vertex 0.17573 0.25 0.1
       vertex 0.208361 0.247861 0.1
       vertex 0.208361 0.247861 0
    endloop
  endfacet
  facet normal 0.0654098 0.997858 -1.0893e-16
    outer loop
       vertex 0.208361 0.247861 0
       vertex 0.17573 0.25 0
       vertex 0.17573 0.25 0.1
    endloop
  endfacet
  facet normal -0.0654098 0.997858 0
    outer loop
       vertex 0.17573 0.25 0
       vertex 0.143098 0.247861 0
       vertex 0.143098 0.247861 0.1
    endloop
  endfacet
  facet normal -0.0654098 0.997858 1.0893e-16
    outer loop
       vertex 0.143098 0.247861 0.1
       vertex 0.17573 0.25 0.1
       vertex 0.17573 0.25 0
    endloop
  endfacet
  facet normal -0.195096 0.980784 0
    outer loop
       vertex 0.143098 0.247861 0
       vertex 0.111025 0.241481 0
       vertex 0.111025 0.241481 0.1
    endloop
  endfacet
  facet normal -0.195096 0.980784 0
    outer loop
       vertex 0.111025 0.241481 0.1
       vertex 0.143098 0.247861 0.1
       vertex 0.143098 0.247861 0
    endloop
  endfacet
  facet normal -0.321425 0.946935 0
    outer loop
       vertex 0.111025 0.241481 0
       vertex 0.0800586 0.23097 0
       vertex 0.0800586 0.23097 0.1
    endloop
  endfacet
  facet normal -0.321425 0.946935 0
    outer loop
       vertex 0.0800586 0.23097 0.1
       vertex 0.111025 0.241481 0.1
       vertex 0.111025 0.241481 0
    endloop
  endfacet
  facet normal -0.442302 0.896866 0
    outer loop
       vertex 0.0800586 0.23097 0
       vertex 0.0507296 0.216506 0
       vertex 0.0507296 0.216506 0.1
    endloop
  endfacet
  facet normal -0.442302 0.896866 0
    outer loop
       vertex 0.0507296 0.216506 0.1
       vertex 0.0800586 0.23097 0.1
       vertex 0.0800586 0.23097 0
    endloop
  endfacet
  facet normal -0.555561 0.831476 0
    outer loop
       vertex 0.0507296 0.216506 0
       vertex 0.0235386 0.198338 0
       vertex 0.0235386 0.198338 0.1
    endloop
  endfacet
  facet normal -0.555561 0.831476 0
    outer loop
       vertex 0.0235386 0.198338 0.1
       vertex 0.0507296 0.216506 0.1
       vertex 0.0507296 0.216506 0
    endloop
  endfacet
  facet normal -0.659372 0.751817 0
    outer loop
       vertex 0.0235386 0.198338 0
       vertex -0.00104636 0.176776 0
       vertex -0.00104636 0.176776 0.1
    endloop
  endfacet
  facet normal -0.659372 0.751817 0
    outer loop
       vertex -0.00104636 0.176776 0.1
       vertex 0.0235386 0.198338 0.1
       vertex 0.0235386 0.198338 0
    endloop
  endfacet
  facet normal -0.751817 0.659372 0
    outer loop
       vertex -0.00104636 0.176776 0
       vertex -0.0226084 0.152191 0
       vertex -0.0226084 0.152191 0.1
    endloop
  endfacet
  facet normal -0.751817 0.659372 0
    outer loop
       vertex -0.0226084 0.152191 0.1
       vertex -0.00104636 0.176776 0.1
       vertex -0.00104636 0.176776 0
    endloop
  endfacet
  facet normal -0.831476 0.555561 0
    outer loop
       vertex -0.0226084 0.152191 0
       vertex -0.0407764 0.125 0
       vertex -0.0407764 0.125 0.1
    endloop
  endfacet
  facet normal -0.831476 0.555561 0
    outer loop
       vertex -0.0407764 0.125 0.1
       vertex -0.0226084 0.152191 0.1
       vertex -0.0226084 0.152191 0
    endloop
  endfacet
  facet normal -0.896866 0.442302 0
    outer loop
       vertex -0.0407764 0.125 0
       vertex -0.0552404 0.095671 0
       vertex -0.0552404 0.095671 0.1
    endloop
  endfacet
  facet normal -0.896866 0.442302 0
    outer loop
       vertex -0.0552404 0.095671 0.1
       vertex -0.0407764 0.125 0.1
       vertex -0.0407764 0.125 0
    endloop
  endfacet
  facet normal -0.946935 0.321425 0
    outer loop
       vertex -0.0552404 0.095671 0
       vertex -0.0657514 0.064705 0
       vertex -0.0657514 0.064705 0.1
    endloop
  endfacet
  facet normal -0.946935 0.321425 0
    outer loop
       vertex -0.0657514 0.064705 0.1
       vertex -0.0552404 0.095671 0.1
       vertex -0.0552404 0.095671 0
    endloop
  endfacet
  facet normal -0.980784 0.195096 0
    outer loop
       vertex -0.0657514 0.064705 0
       vertex -0.0721314 0.0326315 0
       vertex -0.0721314 0.0326315 0.1
    endloop
  endfacet
  facet normal -0.980784 0.195096 0
    outer loop
       vertex -0.0721314 0.0326315 0.1
       vertex -0.0657514 0.064705 0.1
       vertex -0.0657514 0.064705 0
    endloop
  endfacet
  facet normal -0.997858 0.0654098 0
    outer loop
       vertex -0.0742704 8.32665e-17 0.1
       vertex -0.0721314 0.0326315 0.1
       vertex -0.0721314 0.0326315 0
    endloop
  endfacet
  facet normal -0.997858 0.0654098 -1.08928e-16
    outer loop
       vertex -0.0721314 0.0326315 0
       vertex -0.0742704 -8.32665e-17 0
       vertex -0.0742704 8.32665e-17 0.1
    endloop
  endfacet
  facet normal -0.997858 -0.0654098 0
    outer loop
       vertex -0.0742704 -8.32665e-17 0
       vertex -0.0721314 -0.0326315 0
       vertex -0.0721314 -0.0326315 0.1
    endloop
  endfacet
  facet normal -0.997858 -0.0654098 1.08928e-16
    outer loop
       vertex -0.0721314 -0.0326315 0.1
       vertex -0.0742704 8.32665e-17 0.1
       vertex -0.0742704 -8.32665e-17 0
    endloop
  endfacet
  facet normal -0.980784 -0.195096 0
    outer loop
       vertex -0.0721314 -0.0326315 0
       vertex -0.0657514 -0.064705 0
       vertex -0.0657514 -0.064705 0.1
    endloop
  endfacet
  facet normal -0.980784 -0.195096 0
    outer loop
       vertex -0.0657514 -0.064705 0.1
       vertex -0.0721314 -0.0326315 0.1
       vertex -0.0721314 -0.0326315 0
    endloop
  endfacet
  facet normal -0.946935 -0.321425 0
    outer loop
       vertex -0.0657514 -0.064705 0
       vertex -0.0552404 -0.095671 0
       vertex -0.0552404 -0.095671 0.1
    endloop
  endfacet
  facet normal -0.946935 -0.321425 0
    outer loop
       vertex -0.0552404 -0.095671 0.1
       vertex -0.0657514 -0.064705 0.1
       vertex -0.0657514 -0.064705 0
    endloop
  endfacet
  facet normal -0.896866 -0.442302 0
    outer loop
       vertex -0.0552404 -0.095671 0
       vertex -0.0407764 -0.125 0
       vertex -0.0407764 -0.125 0.1
    endloop
  endfacet
  facet normal -0.896866 -0.442302 0
    outer loop
       vertex -0.0407764 -0.125 0.1
       vertex -0.0552404 -0.095671 0.1
       vertex -0.0552404 -0.095671 0
    endloop
  endfacet
  facet normal -0.831476 -0.555561 0
    outer loop
       vertex -0.0407764 -0.125 0
       vertex -0.0226084 -0.152191 0
       vertex -0.0226084 -0.152191 0.1
    endloop
  endfacet
  facet normal -0.831476 -0.555561 0
    outer loop
       vertex -0.0226084 -0.152191 0.1
       vertex -0.0407764 -0.125 0.1
       vertex -0.0407764 -0.125 0
    endloop
  endfacet
  facet normal -0.751817 -0.659372 0
    outer loop
       vertex -0.0226084 -0.152191 0
       vertex -0.00104636 -0.176776 0
       vertex -0.00104636 -0.176776 0.1
    endloop
  endfacet
  facet normal -0.751817 -0.659372 0
    outer loop
       vertex -0.00104636 -0.176776 0.1
       vertex -0.0226084 -0.152191 0.1
       vertex -0.0226084 -0.152191 0
    endloop
  endfacet
  facet normal 0.659372 -0.751817 0
    outer loop
       vertex 0.352506 -0.176776 0
       vertex 0.352506 -0.176776 0.1
       vertex 0.327921 -0.198338 0.1
    endloop
  endfacet
  facet normal 0.659372 -0.751817 0
    outer loop
       vertex 0.327921 -0.198338 0.1
       vertex 0.327921 -0.198338 0
       vertex 0.352506 -0.176776 0
    endloop
  endfacet
  facet normal 0.555561 -0.831476 0
    outer loop
       vertex 0.327921 -0.198338 0
       vertex 0.327921 -0.198338 0.1
       vertex 0.30073 -0.216506 0.1
    endloop
  endfacet
  facet normal 0.555561 -0.831476 0
    outer loop
       vertex 0.30073 -0.216506 0.1
       vertex 0.30073 -0.216506 0
       vertex 0.327921 -0.198338 0
    endloop
  endfacet
  facet normal 0.442302 -0.896866 0
    outer loop
       vertex 0.30073 -0.216506 0
       vertex 0.30073 -0.216506 0.1
       vertex 0.271401 -0.23097 0.1
    endloop
  endfacet
  facet normal 0.442302 -0.896866 0
    outer loop
       vertex 0.271401 -0.23097 0.1
       vertex 0.271401 -0.23097 0
       vertex 0.30073 -0.216506 0
    endloop
  endfacet
  facet normal 0.321425 -0.946935 0
    outer loop
       vertex 0.271401 -0.23097 0
       vertex 0.271401 -0.23097 0.1
       vertex 0.240435 -0.241481 0.1
    endloop
  endfacet
  facet normal 0.321425 -0.946935 0
    outer loop
       vertex 0.240435 -0.241481 0.1
       vertex 0.240435 -0.241481 0
       vertex 0.271401 -0.23097 0
    endloop
  endfacet
  facet normal 0.195096 -0.980784 0
    outer loop
       vertex 0.240435 -0.241481 0
       vertex 0.240435 -0.241481 0.1
       vertex 0.208361 -0.247861 0.1
    endloop
  endfacet
  facet normal 0.195096 -0.980784 0
    outer loop
       vertex 0.208361 -0.247861 0.1
       vertex 0.208361 -0.247861 0
       vertex 0.240435 -0.241481 0
    endloop
  endfacet
  facet normal 0.0654098 -0.997858 0
    outer loop
       vertex 0.17573 -0.25 0
       vertex 0.208361 -0.247861 0
       vertex 0.208361 -0.247861 0.1
    endloop
  endfacet
  facet normal 0.0654098 -0.997858 1.0893e-16
    outer loop
       vertex 0.208361 -0.247861 0.1
       vertex 0.17573 -0.25 0.1
       vertex 0.17573 -0.25 0
    endloop
  endfacet
  facet normal -0.0654098 -0.997858 0
    outer loop
       vertex 0.17573 -0.25 0.1
       vertex 0.143098 -0.247861 0.1
       vertex 0.143098 -0.247861 0
    endloop
  endfacet
  facet normal -0.0654098 -0.997858 -1.0893e-16
    outer loop
       vertex 0.143098 -0.247861 0
       vertex 0.17573 -0.25 0
       vertex 0.17573 -0.25 0.1
    endloop
  endfacet
  facet normal -0.195096 -0.980784 0
    outer loop
       vertex 0.143098 -0.247861 0
       vertex 0.143098 -0.247861 0.1
       vertex 0.111025 -0.241481 0.1
    endloop
  endfacet
  facet normal -0.195096 -0.980784 -0
    outer loop
       vertex 0.111025 -0.241481 0.1
       vertex 0.111025 -0.241481 0
       vertex 0.143098 -0.247861 0
    endloop
  endfacet
  facet normal -0.321425 -0.946935 0
    outer loop
       vertex 0.111025 -0.241481 0
       vertex 0.111025 -0.241481 0.1
       vertex 0.0800586 -0.23097 0.1
    endloop
  endfacet
  facet normal -0.321425 -0.946935 -0
    outer loop
       vertex 0.0800586 -0.23097 0.1
       vertex 0.0800586 -0.23097 0
       vertex 0.111025 -0.241481 0
    endloop
  endfacet
  facet normal -0.442302 -0.896866 0
    outer loop
       vertex 0.0800586 -0.23097 0
       vertex 0.0800586 -0.23097 0.1
       vertex 0.0507296 -0.216506 0.1
    endloop
  endfacet
  facet normal -0.442302 -0.896866 -0
    outer loop
       vertex 0.0507296 -0.216506 0.1
       vertex 0.0507296 -0.216506 0
       vertex 0.0800586 -0.23097 0
    endloop
  endfacet
  facet normal -0.555561 -0.831476 0
    outer loop
       vertex 0.0507296 -0.216506 0
       vertex 0.0507296 -0.216506 0.1
       vertex 0.0235386 -0.198338 0.1
    endloop
  endfacet
  facet normal -0.555561 -0.831476 -0
    outer loop
       vertex 0.0235386 -0.198338 0.1
       vertex 0.0235386 -0.198338 0
       vertex 0.0507296 -0.216506 0
    endloop
  endfacet
  facet normal -0.659372 -0.751817 0
    outer loop
       vertex 0.0235386 -0.198338 0
       vertex 0.0235386 -0.198338 0.1
       vertex -0.00104636 -0.176776 0.1
    endloop
  endfacet
  facet normal -0.659372 -0.751817 -0
    outer loop
       vertex -0.00104636 -0.176776 0.1
       vertex -0.00104636 -0.176776 0
       vertex 0.0235386 -0.198338 0
    endloop
  endfacet
endsolid cylinder
