solid cylinder
  facet normal 0.751817 -0.659372 0
    outer loop
       vertex 0.173997 -0.176776 0
       vertex 0.195559 -0.152191 0
       vertex 0.195559 -0.152191 0.1
    endloop
  endfacet
  facet normal 0.751817 -0.659372 0
    outer loop
       vertex 0.195559 -0.152191 0.1
       vertex 0.173997 -0.176776 0.1
       vertex 0.173997 -0.176776 0
    endloop
  endfacet
  facet normal 0.831476 -0.555561 0
    outer loop
       vertex 0.195559 -0.152191 0
       vertex 0.213727 -0.125 0
       vertex 0.213727 -0.125 0.1
    endloop
  endfacet
  facet normal 0.831476 -0.555561 0
    outer loop
       vertex 0.213727 -0.125 0.1
       vertex 0.195559 -0.152191 0.1
       vertex 0.195559 -0.152191 0
    endloop
  endfacet
  facet normal 0.896866 -0.442302 0
    outer loop
       vertex 0.213727 -0.125 0
       vertex 0.228191 -0.095671 0
       vertex 0.228191 -0.095671 0.1
    endloop
  endfacet
  facet normal 0.896866 -0.442302 0
    outer loop
       vertex 0.228191 -0.095671 0.1
       vertex 0.213727 -0.125 0.1
       vertex 0.213727 -0.125 0
    endloop
  endfacet
  facet normal 0.946935 -0.321425 0
    outer loop
       vertex 0.228191 -0.095671 0
       vertex 0.238702 -0.064705 0
       vertex 0.238702 -0.064705 0.1
    endloop
  endfacet
  facet normal 0.946935 -0.321425 0
    outer loop
       vertex 0.238702 -0.064705 0.1
       vertex 0.228191 -0.095671 0.1
       vertex 0.228191 -0.095671 0
    endloop
  endfacet
  facet normal 0.980784 -0.195096 0
    outer loop
       vertex 0.238702 -0.064705 0
       vertex 0.245082 -0.0326315 0
       vertex 0.245082 -0.0326315 0.1
    endloop
  endfacet
  facet normal 0.980784 -0.195096 0
    outer loop
       vertex 0.245082 -0.0326315 0.1
       vertex 0.238702 -0.064705 0.1
       vertex 0.238702 -0.064705 0
    endloop
  endfacet
  facet normal 0.997858 -0.0654098 0
    outer loop
       vertex 0.247221 -8.32665e-17 0.1
       vertex 0.245082 -0.0326315 0.1
       vertex 0.245082 -0.0326315 0
    endloop
  endfacet
  facet normal 0.997858 -0.0654098 -1.08928e-16
    outer loop
       vertex 0.245082 -0.0326315 0
       vertex 0.247221 8.32665e-17 0
       vertex 0.247221 -8.32665e-17 0.1
    endloop
  endfacet
  facet normal 0.997858 0.0654098 0
    outer loop
       vertex 0.247221 8.32665e-17 0
       vertex 0.245082 0.0326315 0
       vertex 0.245082 0.0326315 0.1
    endloop
  endfacet
  facet normal 0.997858 0.0654098 1.08928e-16
    outer loop
       vertex 0.245082 0.0326315 0.1
       vertex 0.247221 -8.32665e-17 0.1
       vertex 0.247221 8.32665e-17 0
    endloop
  endfacet
  facet normal 0.980784 0.195096 0
    outer loop
       vertex 0.245082 0.0326315 0
       vertex 0.238702 0.064705 0
       vertex 0.238702 0.064705 0.1
    endloop
  endfacet
  facet normal 0.980784 0.195096 0
    outer loop
       vertex 0.238702 0.064705 0.1
       vertex 0.245082 0.0326315 0.1
       vertex 0.245082 0.0326315 0
    endloop
  endfacet
  facet normal 0.946935 0.321425 0
    outer loop
       vertex 0.238702 0.064705 0
       vertex 0.228191 0.095671 0
       vertex 0.228191 0.095671 0.1
    endloop
  endfacet
  facet normal 0.946935 0.321425 0
    outer loop
       vertex 0.228191 0.095671 0.1
       vertex 0.238702 0.064705 0.1
       vertex 0.238702 0.064705 0
    endloop
  endfacet
  facet normal 0.896866 0.442302 0
    outer loop
       vertex 0.228191 0.095671 0
       vertex 0.213727 0.125 0
       vertex 0.213727 0.125 0.1
    endloop
  endfacet
  facet normal 0.896866 0.442302 0
    outer loop
       vertex 0.213727 0.125 0.1
       vertex 0.228191 0.095671 0.1
       vertex 0.228191 0.095671 0
    endloop
  endfacet
  facet normal 0.831476 0.555561 0
    outer loop
       vertex 0.213727 0.125 0
       vertex 0.195559 0.152191 0
       vertex 0.195559 0.152191 0.1
    endloop
  endfacet
  facet normal 0.831476 0.555561 0
    outer loop
       vertex 0.195559 0.152191 0.1
       vertex 0.213727 0.125 0.1
       vertex 0.213727 0.125 0
    endloop
  endfacet
  facet normal 0.751817 0.659372 0
    outer loop
       vertex 0.195559 0.152191 0
       vertex 0.173997 0.176776 0
       vertex 0.173997 0.176776 0.1
    endloop
  endfacet
  facet normal 0.751817 0.659372 0
    outer loop
       vertex 0.173997 0.176776 0.1
       vertex 0.195559 0.152191 0.1
       vertex 0.195559 0.152191 0
    endloop
  endfacet
  facet normal 0.659372 0.751817 0
    outer loop
       vertex 0.173997 0.176776 0
       vertex 0.149412 0.198338 0
       vertex 0.149412 0.198338 0.1
    endloop
  endfacet
  facet normal 0.659372 0.751817 0
    outer loop
       vertex 0.149412 0.198338 0.1
       vertex 0.173997 0.176776 0.1
       vertex 0.173997 0.176776 0
    endloop
  endfacet
  facet normal 0.555561 0.831476 0
    outer loop
       vertex 0.149412 0.198338 0
       vertex 0.122221 0.216506 0
       vertex 0.122221 0.216506 0.1
    endloop
  endfacet
  facet normal 0.555561 0.831476 0
    outer loop
       vertex 0.122221 0.216506 0.1
       vertex 0.149412 0.198338 0.1
       vertex 0.149412 0.198338 0
    endloop
  endfacet
  facet normal 0.442302 0.896866 0
    outer loop
       vertex 0.122221 0.216506 0
       vertex 0.0928917 0.23097 0
       vertex 0.0928917 0.23097 0.1
    endloop
  endfacet
  facet normal 0.442302 0.896866 0
    outer loop
       vertex 0.0928917 0.23097 0.1
       vertex 0.122221 0.216506 0.1
       vertex 0.122221 0.216506 0
    endloop
  endfacet
  facet normal 0.321425 0.946935 0
    outer loop
       vertex 0.0928917 0.23097 0
       vertex 0.0619257 0.241481 0
       vertex 0.0619257 0.241481 0.1
    endloop
  endfacet
  facet normal 0.321425 0.946935 0
    outer loop
       vertex 0.0619257 0.241481 0.1
       vertex 0.0928917 0.23097 0.1
       vertex 0.0928917 0.23097 0
    endloop
  endfacet
  facet normal 0.195096 0.980784 0
    outer loop
       vertex 0.0619257 0.241481 0
       vertex 0.0298522 0.247861 0
       vertex 0.0298522 0.247861 0.1
    endloop
  endfacet
  facet normal 0.195096 0.980784 0
    outer loop
       vertex 0.0298522 0.247861 0.1
       vertex 0.0619257 0.241481 0.1
       vertex 0.0619257 0.241481 0
    endloop
  endfacet
  facet normal 0.0654098 0.997858 0
    outer loop
       vertex -0.00277935 0.25 0.1
       vertex 0.0298522 0.247861 0.1
       vertex 0.0298522 0.247861 0
    endloop
  endfacet
  facet normal 0.0654098 0.997858 -1.0893e-16
    outer loop
       vertex 0.0298522 0.247861 0
       vertex -0.00277935 0.25 0
       vertex -0.00277935 0.25 0.1
    endloop
  endfacet
  facet normal -0.0654098 0.997858 0
    outer loop
       vertex -0.00277935 0.25 0
       vertex -0.0354108 0.247861 0
       vertex -0.0354108 0.247861 0.1
    endloop
  endfacet
  facet normal -0.0654098 0.997858 1.0893e-16
    outer loop
       vertex -0.0354108 0.247861 0.1
       vertex -0.00277935 0.25 0.1
       vertex -0.00277935 0.25 0
    endloop
  endfacet
  facet normal -0.195096 0.980784 0
    outer loop
       vertex -0.0354108 0.247861 0
       vertex -0.0674843 0.241481 0
       vertex -0.0674843 0.241481 0.1
    endloop
  endfacet
  facet normal -0.195096 0.980784 0
    outer loop
       vertex -0.0674843 0.241481 0.1
       vertex -0.0354108 0.247861 0.1
       vertex -0.0354108 0.247861 0
    endloop
  endfacet
  facet normal -0.321425 0.946935 0
    outer loop
       vertex -0.0674843 0.241481 0
       vertex -0.0984503 0.23097 0
       vertex -0.0984503 0.23097 0.1
    endloop
  endfacet
  facet normal -0.321425 0.946935 0
    outer loop
       vertex -0.0984503 0.23097 0.1
       vertex -0.0674843 0.241481 0.1
       vertex -0.0674843 0.241481 0
    endloop
  endfacet
  facet normal -0.442302 0.896866 0
    outer loop
       vertex -0.0984503 0.23097 0
       vertex -0.127779 0.216506 0
       vertex -0.127779 0.216506 0.1
    endloop
  endfacet
  facet normal -0.442302 0.896866 0
    outer loop
       vertex -0.127779 0.216506 0.1
       vertex -0.0984503 0.23097 0.1
       vertex -0.0984503 0.23097 0
    endloop
  endfacet
  facet normal -0.555561 0.831476 0
    outer loop
       vertex -0.127779 0.216506 0
       vertex -0.15497 0.198338 0
       vertex -0.15497 0.198338 0.1
    endloop
  endfacet
  facet normal -0.555561 0.831476 0
    outer loop
       vertex -0.15497 0.198338 0.1
       vertex -0.127779 0.216506 0.1
       vertex -0.127779 0.216506 0
    endloop
  endfacet
  facet normal -0.659372 0.751817 0
    outer loop
       vertex -0.15497 0.198338 0
       vertex -0.179555 0.176776 0
       vertex -0.179555 0.176776 0.1
    endloop
  endfacet
  facet normal -0.659372 0.751817 0
    outer loop
       vertex -0.179555 0.176776 0.1
       vertex -0.15497 0.198338 0.1
       vertex -0.15497 0.198338 0
    endloop
  endfacet
  facet normal -0.751817 0.659372 0
    outer loop
       vertex -0.179555 0.176776 0
       vertex -0.201117 0.152191 0
       vertex -0.201117 0.152191 0.1
    endloop
  endfacet
  facet normal -0.751817 0.659372 0
    outer loop
       vertex -0.201117 0.152191 0.1
       vertex -0.179555 0.176776 0.1
       vertex -0.179555 0.176776 0
    endloop
  endfacet
  facet normal -0.831476 0.555561 0
    outer loop
       vertex -0.201117 0.152191 0
       vertex -0.219285 0.125 0
       vertex -0.219285 0.125 0.1
    endloop
  endfacet
  facet normal -0.831476 0.555561 0
    outer loop
       vertex -0.219285 0.125 0.1
       vertex -0.201117 0.152191 0.1
       vertex -0.201117 0.152191 0
    endloop
  endfacet
  facet normal -0.896866 0.442302 0
    outer loop
       vertex -0.219285 0.125 0
       vertex -0.233749 0.095671 0
       vertex -0.233749 0.095671 0.1
    endloop
  endfacet
  facet normal -0.896866 0.442302 0
    outer loop
       vertex -0.233749 0.095671 0.1
       vertex -0.219285 0.125 0.1
       vertex -0.219285 0.125 0
    endloop
  endfacet
  facet normal -0.946935 0.321425 0
    outer loop
       vertex -0.233749 0.095671 0
       vertex -0.24426 0.064705 0
       vertex -0.24426 0.064705 0.1
    endloop
  endfacet
  facet normal -0.946935 0.321425 0
    outer loop
       vertex -0.24426 0.064705 0.1
       vertex -0.233749 0.095671 0.1
       vertex -0.233749 0.095671 0
    endloop
  endfacet
  facet normal -0.980784 0.195096 0
    outer loop
       vertex -0.24426 0.064705 0
       vertex -0.25064 0.0326315 0
       vertex -0.25064 0.0326315 0.1
    endloop
  endfacet
  facet normal -0.980784 0.195096 0
    outer loop
       vertex -0.25064 0.0326315 0.1
       vertex -0.24426 0.064705 0.1
       vertex -0.24426 0.064705 0
    endloop
  endfacet
  facet normal -0.997858 0.0654098 0
    outer loop
       vertex -0.252779 8.32665e-17 0.1
       vertex -0.25064 0.0326315 0.1
       vertex -0.25064 0.0326315 0
    endloop
  endfacet
  facet normal -0.997858 0.0654098 -1.08928e-16
    outer loop
       vertex -0.25064 0.0326315 0
       vertex -0.252779 -8.32665e-17 0
       vertex -0.252779 8.32665e-17 0.1
    endloop
  endfacet
  facet normal -0.997858 -0.0654098 0
    outer loop
       vertex -0.252779 -8.32665e-17 0
       vertex -0.25064 -0.0326315 0
       vertex -0.25064 -0.0326315 0.1
    endloop
  endfacet
  facet normal -0.997858 -0.0654098 1.08928e-16
    outer loop
       vertex -0.25064 -0.0326315 0.1
       vertex -0.252779 8.32665e-17 0.1
       vertex -0.252779 -8.32665e-17 0
    endloop
  endfacet
  facet normal -0.980784 -0.195096 0
    outer loop
       vertex -0.25064 -0.0326315 0
       vertex -0.24426 -0.064705 0
       vertex -0.24426 -0.064705 0.1
    endloop
  endfacet
  facet normal -0.980784 -0.195096 0
    outer loop
       vertex -0.24426 -0.064705 0.1
       vertex -0.25064 -0.0326315 0.1
       vertex -0.25064 -0.0326315 0
    endloop
  endfacet
  facet normal -0.946935 -0.321425 0
    outer loop
       vertex -0.24426 -0.064705 0
       vertex -0.233749 -0.095671 0
       vertex -0.233749 -0.095671 0.1
    endloop
  endfacet
  facet normal -0.946935 -0.321425 0
    outer loop
       vertex -0.233749 -0.095671 0.1
       vertex -0.24426 -0.064705 0.1
       vertex -0.24426 -0.064705 0
    endloop
  endfacet
  facet normal -0.896866 -0.442302 0
    outer loop
       vertex -0.233749 -0.095671 0
       vertex -0.219285 -0.125 0
       vertex -0.219285 -0.125 0.1
    endloop
  endfacet
  facet normal -0.896866 -0.442302 0
    outer loop
       vertex -0.219285 -0.125 0.1
       vertex -0.233749 -0.095671 0.1
       vertex -0.233749 -0.095671 0
    endloop
  endfacet
  facet normal -0.831476 -0.555561 0
    outer loop
       vertex -0.219285 -0.125 0
       vertex -0.201117 -0.152191 0
       vertex -0.201117 -0.152191 0.1
    endloop
  endfacet
  facet normal -0.831476 -0.555561 0
    outer loop
       vertex -0.201117 -0.152191 0.1
       vertex -0.219285 -0.125 0.1
       vertex -0.219285 -0.125 0
    endloop
  endfacet
  facet normal -0.751817 -0.659372 0
    outer loop
       vertex -0.201117 -0.152191 0
       vertex -0.179555 -0.176776 0
       vertex -0.179555 -0.176776 0.1
    endloop
  endfacet
  facet normal -0.751817 -0.659372 0
    outer loop
       vertex -0.179555 -0.176776 0.1
       vertex -0.201117 -0.152191 0.1
       vertex -0.201117 -0.152191 0
    endloop
  endfacet
  facet normal 0.659372 -0.751817 0
    outer loop
       vertex 0.173997 -0.176776 0
       vertex 0.173997 -0.176776 0.1
       vertex 0.149412 -0.198338 0.1
    endloop
  endfacet
  facet normal 0.659372 -0.751817 0
    outer loop
       vertex 0.149412 -0.198338 0.1
       vertex 0.149412 -0.198338 0
       vertex 0.173997 -0.176776 0
    endloop
  endfacet
  facet normal 0.555561 -0.831476 0
    outer loop
       vertex 0.149412 -0.198338 0
       vertex 0.149412 -0.198338 0.1
       vertex 0.122221 -0.216506 0.1
    endloop
  endfacet
  facet normal 0.555561 -0.831476 0
    outer loop
       vertex 0.122221 -0.216506 0.1
       vertex 0.122221 -0.216506 0
       vertex 0.149412 -0.198338 0
    endloop
  endfacet
  facet normal 0.442302 -0.896866 0
    outer loop
       vertex 0.122221 -0.216506 0
       vertex 0.122221 -0.216506 0.1
       vertex 0.0928917 -0.23097 0.1
    endloop
  endfacet
  facet normal 0.442302 -0.896866 0
    outer loop
       vertex 0.0928917 -0.23097 0.1
       vertex 0.0928917 -0.23097 0
       vertex 0.122221 -0.216506 0
    endloop
  endfacet
  facet normal 0.321425 -0.946935 0
    outer loop
       vertex 0.0928917 -0.23097 0
       vertex 0.0928917 -0.23097 0.1
       vertex 0.0619257 -0.241481 0.1
    endloop
  endfacet
  facet normal 0.321425 -0.946935 0
    outer loop
       vertex 0.0619257 -0.241481 0.1
       vertex 0.0619257 -0.241481 0
       vertex 0.0928917 -0.23097 0
    endloop
  endfacet
  facet normal 0.195096 -0.980784 0
    outer loop
       vertex 0.0619257 -0.241481 0
       vertex 0.0619257 -0.241481 0.1
       vertex 0.0298522 -0.247861 0.1
    endloop
  endfacet
  facet normal 0.195096 -0.980784 0
    outer loop
       vertex 0.0298522 -0.247861 0.1
       vertex 0.0298522 -0.247861 0
       vertex 0.0619257 -0.241481 0
    endloop
  endfacet
  facet normal 0.0654098 -0.997858 0
    outer loop
       vertex -0.00277935 -0.25 0
       vertex 0.0298522 -0.247861 0
       vertex 0.0298522 -0.247861 0.1
    endloop
  endfacet
  facet normal 0.0654098 -0.997858 1.0893e-16
    outer loop
       vertex 0.0298522 -0.247861 0.1
       vertex -0.00277935 -0.25 0.1
       vertex -0.00277935 -0.25 0
    endloop
  endfacet
  facet normal -0.0654098 -0.997858 0
    outer loop
       vertex -0.00277935 -0.25 0.1
       vertex -0.0354108 -0.247861 0.1
       vertex -0.0354108 -0.247861 0
    endloop
  endfacet
  facet normal -0.0654098 -0.997858 -1.0893e-16
    outer loop
       vertex -0.0354108 -0.247861 0
       vertex -0.00277935 -0.25 0
       vertex -0.00277935 -0.25 0.1
    endloop
  endfacet
  facet normal -0.195096 -0.980784 0
    outer loop
       vertex -0.0354108 -0.247861 0
       vertex -0.0354108 -0.247861 0.1
       vertex -0.0674843 -0.241481 0.1
    endloop
  endfacet
  facet normal -0.195096 -0.980784 -0
    outer loop
       vertex -0.0674843 -0.241481 0.1
       vertex -0.0674843 -0.241481 0
       vertex -0.0354108 -0.247861 0
    endloop
  endfacet
  facet normal -0.321425 -0.946935 0
    outer loop
       vertex -0.0674843 -0.241481 0
       vertex -0.0674843 -0.241481 0.1
       vertex -0.0984503 -0.23097 0.1
    endloop
  endfacet
  facet normal -0.321425 -0.946935 -0
    outer loop
       vertex -0.0984503 -0.23097 0.1
       vertex -0.0984503 -0.23097 0
       vertex -0.0674843 -0.241481 0
    endloop
  endfacet
  facet normal -0.442302 -0.896866 0
    outer loop
       vertex -0.0984503 -0.23097 0
       vertex -0.0984503 -0.23097 0.1
       vertex -0.127779 -0.216506 0.1
    endloop
  endfacet
  facet normal -0.442302 -0.896866 -0
    outer loop
       vertex -0.127779 -0.216506 0.1
       vertex -0.127779 -0.216506 0
       vertex -0.0984503 -0.23097 0
    endloop
  endfacet
  facet normal -0.555561 -0.831476 0
    outer loop
       vertex -0.127779 -0.216506 0
       vertex -0.127779 -0.216506 0.1
       vertex -0.15497 -0.198338 0.1
    endloop
  endfacet
  facet normal -0.555561 -0.831476 -0
    outer loop
       vertex -0.15497 -0.198338 0.1
       vertex -0.15497 -0.198338 0
       vertex -0.127779 -0.216506 0
    endloop
  endfacet
  facet normal -0.659372 -0.751817 0
    outer loop
       vertex -0.15497 -0.198338 0
       vertex -0.15497 -0.198338 0.1
       vertex -0.179555 -0.176776 0.1
    endloop
  endfacet
  facet normal -0.659372 -0.751817 -0
    outer loop
       vertex -0.179555 -0.176776 0.1
       vertex -0.179555 -0.176776 0
       vertex -0.15497 -0.198338 0
    endloop
  endfacet
endsolid cylinder
