solid cylinder
  facet normal 0.751817 -0.659372 0
    outer loop
       vertex 0.229329 -0.176776 0
       vertex 0.250891 -0.152191 0
       vertex 0.250891 -0.152191 0.1
    endloop
  endfacet
  facet normal 0.751817 -0.659372 0
    outer loop
       vertex 0.250891 -0.152191 0.1
       vertex 0.229329 -0.176776 0.1
       vertex 0.229329 -0.176776 0
    endloop
  endfacet
  facet normal 0.831476 -0.555561 0
    outer loop
       vertex 0.250891 -0.152191 0
       vertex 0.269059 -0.125 0
       vertex 0.269059 -0.125 0.1
    endloop
  endfacet
  facet normal 0.831476 -0.555561 0
    outer loop
       vertex 0.269059 -0.125 0.1
       vertex 0.250891 -0.152191 0.1
       vertex 0.250891 -0.152191 0
    endloop
  endfacet
  facet normal 0.896866 -0.442302 0
    outer loop
       vertex 0.269059 -0.125 0
       vertex 0.283523 -0.095671 0
       vertex 0.283523 -0.095671 0.1
    endloop
  endfacet
  facet normal 0.896866 -0.442302 0
    outer loop
       vertex 0.283523 -0.095671 0.1
       vertex 0.269059 -0.125 0.1
       vertex 0.269059 -0.125 0
    endloop
  endfacet
  facet normal 0.946935 -0.321425 0
    outer loop
       vertex 0.283523 -0.095671 0
       vertex 0.294034 -0.064705 0
       vertex 0.294034 -0.064705 0.1
    endloop
  endfacet
  facet normal 0.946935 -0.321425 0
    outer loop
       vertex 0.294034 -0.064705 0.1
       vertex 0.283523 -0.095671 0.1
       vertex 0.283523 -0.095671 0
    endloop
  endfacet
  facet normal 0.980784 -0.195096 0
    outer loop
       vertex 0.294034 -0.064705 0
       vertex 0.300414 -0.0326315 0
       vertex 0.300414 -0.0326315 0.1
    endloop
  endfacet
  facet normal 0.980784 -0.195096 0
    outer loop
       vertex 0.300414 -0.0326315 0.1
       vertex 0.294034 -0.064705 0.1
       vertex 0.294034 -0.064705 0
    endloop
  endfacet
  facet normal 0.997858 -0.0654098 0
    outer loop
       vertex 0.302553 -8.32665e-17 0.1
       vertex 0.300414 -0.0326315 0.1
       vertex 0.300414 -0.0326315 0
    endloop
  endfacet
  facet normal 0.997858 -0.0654098 -1.08928e-16
    outer loop
       vertex 0.300414 -0.0326315 0
       vertex 0.302553 8.32665e-17 0
       vertex 0.302553 -8.32665e-17 0.1
    endloop
  endfacet
  facet normal 0.997858 0.0654098 0
    outer loop
       vertex 0.302553 8.32665e-17 0
       vertex 0.300414 0.0326315 0
       vertex 0.300414 0.0326315 0.1
    endloop
  endfacet
  facet normal 0.997858 0.0654098 1.08928e-16
    outer loop
       vertex 0.300414 0.0326315 0.1
       vertex 0.302553 -8.32665e-17 0.1
       vertex 0.302553 8.32665e-17 0
    endloop
  endfacet
  facet normal 0.980784 0.195096 0
    outer loop
       vertex 0.300414 0.0326315 0
       vertex 0.294034 0.064705 0
       vertex 0.294034 0.064705 0.1
    endloop
  endfacet
  facet normal 0.980784 0.195096 0
    outer loop
       vertex 0.294034 0.064705 0.1
       vertex 0.300414 0.0326315 0.1
       vertex 0.300414 0.0326315 0
    endloop
  endfacet
  facet normal 0.946935 0.321425 0
    outer loop
       vertex 0.294034 0.064705 0
       vertex 0.283523 0.095671 0
       vertex 0.283523 0.095671 0.1
    endloop
  endfacet
  facet normal 0.946935 0.321425 0
    outer loop
       vertex 0.283523 0.095671 0.1
       vertex 0.294034 0.064705 0.1
       vertex 0.294034 0.064705 0
    endloop
  endfacet
  facet normal 0.896866 0.442302 0
    outer loop
       vertex 0.283523 0.095671 0
       vertex 0.269059 0.125 0
       vertex 0.269059 0.125 0.1
    endloop
  endfacet
  facet normal 0.896866 0.442302 0
    outer loop
       vertex 0.269059 0.125 0.1
       vertex 0.283523 0.095671 0.1
       vertex 0.283523 0.095671 0
    endloop
  endfacet
  facet normal 0.831476 0.555561 0
    outer loop
       vertex 0.269059 0.125 0
       vertex 0.250891 0.152191 0
       vertex 0.250891 0.152191 0.1
    endloop
  endfacet
  facet normal 0.831476 0.555561 0
    outer loop
       vertex 0.250891 0.152191 0.1
       vertex 0.269059 0.125 0.1
       vertex 0.269059 0.125 0
    endloop
  endfacet
  facet normal 0.751817 0.659372 0
    outer loop
       vertex 0.250891 0.152191 0
       vertex 0.229329 0.176776 0
       vertex 0.229329 0.176776 0.1
    endloop
  endfacet
  facet normal 0.751817 0.659372 0
    outer loop
       vertex 0.229329 0.176776 0.1
       vertex 0.250891 0.152191 0.1
       vertex 0.250891 0.152191 0
    endloop
  endfacet
  facet normal 0.659372 0.751817 0
    outer loop
       vertex 0.229329 0.176776 0
       vertex 0.204744 0.198338 0
       vertex 0.204744 0.198338 0.1
    endloop
  endfacet
  facet normal 0.659372 0.751817 0
    outer loop
       vertex 0.204744 0.198338 0.1
       vertex 0.229329 0.176776 0.1
       vertex 0.229329 0.176776 0
    endloop
  endfacet
  facet normal 0.555561 0.831476 0
    outer loop
       vertex 0.204744 0.198338 0
       vertex 0.177553 0.216506 0
       vertex 0.177553 0.216506 0.1
    endloop
  endfacet
  facet normal 0.555561 0.831476 0
    outer loop
       vertex 0.177553 0.216506 0.1
       vertex 0.204744 0.198338 0.1
       vertex 0.204744 0.198338 0
    endloop
  endfacet
  facet normal 0.442302 0.896866 0
    outer loop
       vertex 0.177553 0.216506 0
       vertex 0.148224 0.23097 0
       vertex 0.148224 0.23097 0.1
    endloop
  endfacet
  facet normal 0.442302 0.896866 0
    outer loop
       vertex 0.148224 0.23097 0.1
       vertex 0.177553 0.216506 0.1
       vertex 0.177553 0.216506 0
    endloop
  endfacet
  facet normal 0.321425 0.946935 0
    outer loop
       vertex 0.148224 0.23097 0
       vertex 0.117258 0.241481 0
       vertex 0.117258 0.241481 0.1
    endloop
  endfacet
  facet normal 0.321425 0.946935 0
    outer loop
       vertex 0.117258 0.241481 0.1
       vertex 0.148224 0.23097 0.1
       vertex 0.148224 0.23097 0
    endloop
  endfacet
  facet normal 0.195096 0.980784 0
    outer loop
       vertex 0.117258 0.241481 0
       vertex 0.0851843 0.247861 0
       vertex 0.0851843 0.247861 0.1
    endloop
  endfacet
  facet normal 0.195096 0.980784 0
    outer loop
       vertex 0.0851843 0.247861 0.1
       vertex 0.117258 0.241481 0.1
       vertex 0.117258 0.241481 0
    endloop
  endfacet
  facet normal 0.0654098 0.997858 0
    outer loop
       vertex 0.0525528 0.25 0.1
       vertex 0.0851843 0.247861 0.1
       vertex 0.0851843 0.247861 0
    endloop
  endfacet
  facet normal 0.0654098 0.997858 -1.0893e-16
    outer loop
       vertex 0.0851843 0.247861 0
       vertex 0.0525528 0.25 0
       vertex 0.0525528 0.25 0.1
    endloop
  endfacet
  facet normal -0.0654098 0.997858 0
    outer loop
       vertex 0.0525528 0.25 0
       vertex 0.0199213 0.247861 0
       vertex 0.0199213 0.247861 0.1
    endloop
  endfacet
  facet normal -0.0654098 0.997858 1.08928e-16
    outer loop
       vertex 0.0199213 0.247861 0.1
       vertex 0.0525528 0.25 0.1
       vertex 0.0525528 0.25 0
    endloop
  endfacet
  facet normal -0.195096 0.980784 0
    outer loop
       vertex 0.0199213 0.247861 0
       vertex -0.0121522 0.241481 0
       vertex -0.0121522 0.241481 0.1
    endloop
  endfacet
  facet normal -0.195096 0.980784 0
    outer loop
       vertex -0.0121522 0.241481 0.1
       vertex 0.0199213 0.247861 0.1
       vertex 0.0199213 0.247861 0
    endloop
  endfacet
  facet normal -0.321425 0.946935 0
    outer loop
       vertex -0.0121522 0.241481 0
       vertex -0.0431182 0.23097 0
       vertex -0.0431182 0.23097 0.1
    endloop
  endfacet
  facet normal -0.321425 0.946935 0
    outer loop
       vertex -0.0431182 0.23097 0.1
       vertex -0.0121522 0.241481 0.1
       vertex -0.0121522 0.241481 0
    endloop
  endfacet
  facet normal -0.442302 0.896866 0
    outer loop
       vertex -0.0431182 0.23097 0
       vertex -0.0724472 0.216506 0
       vertex -0.0724472 0.216506 0.1
    endloop
  endfacet
  facet normal -0.442302 0.896866 0
    outer loop
       vertex -0.0724472 0.216506 0.1
       vertex -0.0431182 0.23097 0.1
       vertex -0.0431182 0.23097 0
    endloop
  endfacet
  facet normal -0.555561 0.831476 0
    outer loop
       vertex -0.0724472 0.216506 0
       vertex -0.0996382 0.198338 0
       vertex -0.0996382 0.198338 0.1
    endloop
  endfacet
  facet normal -0.555561 0.831476 0
    outer loop
       vertex -0.0996382 0.198338 0.1
       vertex -0.0724472 0.216506 0.1
       vertex -0.0724472 0.216506 0
    endloop
  endfacet
  facet normal -0.659372 0.751817 0
    outer loop
       vertex -0.0996382 0.198338 0
       vertex -0.124223 0.176776 0
       vertex -0.124223 0.176776 0.1
    endloop
  endfacet
  facet normal -0.659372 0.751817 0
    outer loop
       vertex -0.124223 0.176776 0.1
       vertex -0.0996382 0.198338 0.1
       vertex -0.0996382 0.198338 0
    endloop
  endfacet
  facet normal -0.751817 0.659372 0
    outer loop
       vertex -0.124223 0.176776 0
       vertex -0.145785 0.152191 0
       vertex -0.145785 0.152191 0.1
    endloop
  endfacet
  facet normal -0.751817 0.659372 0
    outer loop
       vertex -0.145785 0.152191 0.1
       vertex -0.124223 0.176776 0.1
       vertex -0.124223 0.176776 0
    endloop
  endfacet
  facet normal -0.831476 0.555561 0
    outer loop
       vertex -0.145785 0.152191 0
       vertex -0.163953 0.125 0
       vertex -0.163953 0.125 0.1
    endloop
  endfacet
  facet normal -0.831476 0.555561 0
    outer loop
       vertex -0.163953 0.125 0.1
       vertex -0.145785 0.152191 0.1
       vertex -0.145785 0.152191 0
    endloop
  endfacet
  facet normal -0.896866 0.442302 0
    outer loop
       vertex -0.163953 0.125 0
       vertex -0.178417 0.095671 0
       vertex -0.178417 0.095671 0.1
    endloop
  endfacet
  facet normal -0.896866 0.442302 0
    outer loop
       vertex -0.178417 0.095671 0.1
       vertex -0.163953 0.125 0.1
       vertex -0.163953 0.125 0
    endloop
  endfacet
  facet normal -0.946935 0.321425 0
    outer loop
       vertex -0.178417 0.095671 0
       vertex -0.188928 0.064705 0
       vertex -0.188928 0.064705 0.1
    endloop
  endfacet
  facet normal -0.946935 0.321425 0
    outer loop
       vertex -0.188928 0.064705 0.1
       vertex -0.178417 0.095671 0.1
       vertex -0.178417 0.095671 0
    endloop
  endfacet
  facet normal -0.980784 0.195096 0
    outer loop
       vertex -0.188928 0.064705 0
       vertex -0.195308 0.0326315 0
       vertex -0.195308 0.0326315 0.1
    endloop
  endfacet
  facet normal -0.980784 0.195096 0
    outer loop
       vertex -0.195308 0.0326315 0.1
       vertex -0.188928 0.064705 0.1
       vertex -0.188928 0.064705 0
    endloop
  endfacet
  facet normal -0.997858 0.0654098 0
    outer loop
       vertex -0.197447 8.32665e-17 0.1
       vertex -0.195308 0.0326315 0.1
       vertex -0.195308 0.0326315 0
    endloop
  endfacet
  facet normal -0.997858 0.0654098 -1.08928e-16
    outer loop
       vertex -0.195308 0.0326315 0
       vertex -0.197447 -8.32665e-17 0
       vertex -0.197447 8.32665e-17 0.1
    endloop
  endfacet
  facet normal -0.997858 -0.0654098 0
    outer loop
       vertex -0.197447 -8.32665e-17 0
       vertex -0.195308 -0.0326315 0
       vertex -0.195308 -0.0326315 0.1
    endloop
  endfacet
  facet normal -0.997858 -0.0654098 1.08928e-16
    outer loop
       vertex -0.195308 -0.0326315 0.1
       vertex -0.197447 8.32665e-17 0.1
       vertex -0.197447 -8.32665e-17 0
    endloop
  endfacet
  facet normal -0.980784 -0.195096 0
    outer loop
       vertex -0.195308 -0.0326315 0
       vertex -0.188928 -0.064705 0
       vertex -0.188928 -0.064705 0.1
    endloop
  endfacet
  facet normal -0.980784 -0.195096 0
    outer loop
       vertex -0.188928 -0.064705 0.1
       vertex -0.195308 -0.0326315 0.1
       vertex -0.195308 -0.0326315 0
    endloop
  endfacet
  facet normal -0.946935 -0.321425 0
    outer loop
       vertex -0.188928 -0.064705 0
       vertex -0.178417 -0.095671 0
       vertex -0.178417 -0.095671 0.1
    endloop
  endfacet
  facet normal -0.946935 -0.321425 0
    outer loop
       vertex -0.178417 -0.095671 0.1
       vertex -0.188928 -0.064705 0.1
       vertex -0.188928 -0.064705 0
    endloop
  endfacet
  facet normal -0.896866 -0.442302 0
    outer loop
       vertex -0.178417 -0.095671 0
       vertex -0.163953 -0.125 0
       vertex -0.163953 -0.125 0.1
    endloop
  endfacet
  facet normal -0.896866 -0.442302 0
    outer loop
       vertex -0.163953 -0.125 0.1
       vertex -0.178417 -0.095671 0.1
       vertex -0.178417 -0.095671 0
    endloop
  endfacet
  facet normal -0.831476 -0.555561 0
    outer loop
       vertex -0.163953 -0.125 0
       vertex -0.145785 -0.152191 0
       vertex -0.145785 -0.152191 0.1
    endloop
  endfacet
  facet normal -0.831476 -0.555561 0
    outer loop
       vertex -0.145785 -0.152191 0.1
       vertex -0.163953 -0.125 0.1
       vertex -0.163953 -0.125 0
    endloop
  endfacet
  facet normal -0.751817 -0.659372 0
    outer loop
       vertex -0.145785 -0.152191 0
       vertex -0.124223 -0.176776 0
       vertex -0.124223 -0.176776 0.1
    endloop
  endfacet
  facet normal -0.751817 -0.659372 0
    outer loop
       vertex -0.124223 -0.176776 0.1
       vertex -0.145785 -0.152191 0.1
       vertex -0.145785 -0.152191 0
    endloop
  endfacet
  facet normal 0.659372 -0.751817 0
    outer loop
       vertex 0.229329 -0.176776 0
       vertex 0.229329 -0.176776 0.1
       vertex 0.204744 -0.198338 0.1
    endloop
  endfacet
  facet normal 0.659372 -0.751817 0
    outer loop
       vertex 0.204744 -0.198338 0.1
       vertex 0.204744 -0.198338 0
       vertex 0.229329 -0.176776 0
    endloop
  endfacet
  facet normal 0.555561 -0.831476 0
    outer loop
       vertex 0.204744 -0.198338 0
       vertex 0.204744 -0.198338 0.1
       vertex 0.177553 -0.216506 0.1
    endloop
  endfacet
  facet normal 0.555561 -0.831476 0
    outer loop
       vertex 0.177553 -0.216506 0.1
       vertex 0.177553 -0.216506 0
       vertex 0.204744 -0.198338 0
    endloop
  endfacet
  facet normal 0.442302 -0.896866 0
    outer loop
       vertex 0.177553 -0.216506 0
       vertex 0.177553 -0.216506 0.1
       vertex 0.148224 -0.23097 0.1
    endloop
  endfacet
  facet normal 0.442302 -0.896866 0
    outer loop
       vertex 0.148224 -0.23097 0.1
       vertex 0.148224 -0.23097 0
       vertex 0.177553 -0.216506 0
    endloop
  endfacet
  facet normal 0.321425 -0.946935 0
    outer loop
       vertex 0.148224 -0.23097 0
       vertex 0.148224 -0.23097 0.1
       vertex 0.117258 -0.241481 0.1
    endloop
  endfacet
  facet normal 0.321425 -0.946935 0
    outer loop
       vertex 0.117258 -0.241481 0.1
       vertex 0.117258 -0.241481 0
       vertex 0.148224 -0.23097 0
    endloop
  endfacet
  facet normal 0.195096 -0.980784 0
    outer loop
       vertex 0.117258 -0.241481 0
       vertex 0.117258 -0.241481 0.1
       vertex 0.0851843 -0.247861 0.1
    endloop
  endfacet
  facet normal 0.195096 -0.980784 0
    outer loop
       vertex 0.0851843 -0.247861 0.1
       vertex 0.0851843 -0.247861 0
       vertex 0.117258 -0.241481 0
    endloop
  endfacet
  facet normal 0.0654098 -0.997858 0
    outer loop
       vertex 0.0525528 -0.25 0
       vertex 0.0851843 -0.247861 0
       vertex 0.0851843 -0.247861 0.1
    endloop
  endfacet
  facet normal 0.0654098 -0.997858 1.0893e-16
    outer loop
       vertex 0.0851843 -0.247861 0.1
       vertex 0.0525528 -0.25 0.1
       vertex 0.0525528 -0.25 0
    endloop
  endfacet
  facet normal -0.0654098 -0.997858 0
    outer loop
       vertex 0.0525528 -0.25 0.1
       vertex 0.0199213 -0.247861 0.1
       vertex 0.0199213 -0.247861 0
    endloop
  endfacet
  facet normal -0.0654098 -0.997858 -1.08928e-16
    outer loop
       vertex 0.0199213 -0.247861 0
       vertex 0.0525528 -0.25 0
       vertex 0.0525528 -0.25 0.1
    endloop
  endfacet
  facet normal -0.195096 -0.980784 0
    outer loop
       vertex 0.0199213 -0.247861 0
       vertex 0.0199213 -0.247861 0.1
       vertex -0.0121522 -0.241481 0.1
    endloop
  endfacet
  facet normal -0.195096 -0.980784 -0
    outer loop
       vertex -0.0121522 -0.241481 0.1
       vertex -0.0121522 -0.241481 0
       vertex 0.0199213 -0.247861 0
    endloop
  endfacet
  facet normal -0.321425 -0.946935 0
    outer loop
       vertex -0.0121522 -0.241481 0
       vertex -0.0121522 -0.241481 0.1
       vertex -0.0431182 -0.23097 0.1
    endloop
  endfacet
  facet normal -0.321425 -0.946935 -0
    outer loop
       vertex -0.0431182 -0.23097 0.1
       vertex -0.0431182 -0.23097 0
       vertex -0.0121522 -0.241481 0
    endloop
  endfacet
  facet normal -0.442302 -0.896866 0
    outer loop
       vertex -0.0431182 -0.23097 0
       vertex -0.0431182 -0.23097 0.1
       vertex -0.0724472 -0.216506 0.1
    endloop
  endfacet
  facet normal -0.442302 -0.896866 -0
    outer loop
       vertex -0.0724472 -0.216506 0.1
       vertex -0.0724472 -0.216506 0
       vertex -0.0431182 -0.23097 0
    endloop
  endfacet
  facet normal -0.555561 -0.831476 0
    outer loop
       vertex -0.0724472 -0.216506 0
       vertex -0.0724472 -0.216506 0.1
       vertex -0.0996382 -0.198338 0.1
    endloop
  endfacet
  facet normal -0.555561 -0.831476 -0
    outer loop
       vertex -0.0996382 -0.198338 0.1
       vertex -0.0996382 -0.198338 0
       vertex -0.0724472 -0.216506 0
    endloop
  endfacet
  facet normal -0.659372 -0.751817 0
    outer loop
       vertex -0.0996382 -0.198338 0
       vertex -0.0996382 -0.198338 0.1
       vertex -0.124223 -0.176776 0.1
    endloop
  endfacet
  facet normal -0.659372 -0.751817 -0
    outer loop
       vertex -0.124223 -0.176776 0.1
       vertex -0.124223 -0.176776 0
       vertex -0.0996382 -0.198338 0
    endloop
  endfacet
endsolid cylinder
