solid cylinder
  facet normal 0.751817 -0.659372 0
    outer loop
       vertex -0.0440822 -0.176776 0
       vertex -0.0225202 -0.152191 0
       vertex -0.0225202 -0.152191 0.1
    endloop
  endfacet
  facet normal 0.751817 -0.659372 0
    outer loop
       vertex -0.0225202 -0.152191 0.1
       vertex -0.0440822 -0.176776 0.1
       vertex -0.0440822 -0.176776 0
    endloop
  endfacet
  facet normal 0.831476 -0.555561 0
    outer loop
       vertex -0.0225202 -0.152191 0
       vertex -0.00435217 -0.125 0
       vertex -0.00435217 -0.125 0.1
    endloop
  endfacet
  facet normal 0.831476 -0.555561 0
    outer loop
       vertex -0.00435217 -0.125 0.1
       vertex -0.0225202 -0.152191 0.1
       vertex -0.0225202 -0.152191 0
    endloop
  endfacet
  facet normal 0.896866 -0.442302 0
    outer loop
       vertex -0.00435217 -0.125 0
       vertex 0.0101118 -0.095671 0
       vertex 0.0101118 -0.095671 0.1
    endloop
  endfacet
  facet normal 0.896866 -0.442302 0
    outer loop
       vertex 0.0101118 -0.095671 0.1
       vertex -0.00435217 -0.125 0.1
       vertex -0.00435217 -0.125 0
    endloop
  endfacet
  facet normal 0.946935 -0.321425 0
    outer loop
       vertex 0.0101118 -0.095671 0
       vertex 0.0206228 -0.064705 0
       vertex 0.0206228 -0.064705 0.1
    endloop
  endfacet
  facet normal 0.946935 -0.321425 0
    outer loop
       vertex 0.0206228 -0.064705 0.1
       vertex 0.0101118 -0.095671 0.1
       vertex 0.0101118 -0.095671 0
    endloop
  endfacet
  facet normal 0.980784 -0.195096 0
    outer loop
       vertex 0.0206228 -0.064705 0
       vertex 0.0270028 -0.0326315 0
       vertex 0.0270028 -0.0326315 0.1
    endloop
  endfacet
  facet normal 0.980784 -0.195096 0
    outer loop
       vertex 0.0270028 -0.0326315 0.1
       vertex 0.0206228 -0.064705 0.1
       vertex 0.0206228 -0.064705 0
    endloop
  endfacet
  facet normal 0.997858 -0.0654098 0
    outer loop
       vertex 0.0291418 -8.32665e-17 0.1
       vertex 0.0270028 -0.0326315 0.1
       vertex 0.0270028 -0.0326315 0
    endloop
  endfacet
  facet normal 0.997858 -0.0654098 -1.08928e-16
    outer loop
       vertex 0.0270028 -0.0326315 0
       vertex 0.0291418 8.32665e-17 0
       vertex 0.0291418 -8.32665e-17 0.1
    endloop
  endfacet
  facet normal 0.997858 0.0654098 0
    outer loop
       vertex 0.0291418 8.32665e-17 0
       vertex 0.0270028 0.0326315 0
       vertex 0.0270028 0.0326315 0.1
    endloop
  endfacet
  facet normal 0.997858 0.0654098 1.08928e-16
    outer loop
       vertex 0.0270028 0.0326315 0.1
       vertex 0.0291418 -8.32665e-17 0.1
       vertex 0.0291418 8.32665e-17 0
    endloop
  endfacet
  facet normal 0.980784 0.195096 0
    outer loop
       vertex 0.0270028 0.0326315 0
       vertex 0.0206228 0.064705 0
       vertex 0.0206228 0.064705 0.1
    endloop
  endfacet
  facet normal 0.980784 0.195096 0
    outer loop
       vertex 0.0206228 0.064705 0.1
       vertex 0.0270028 0.0326315 0.1
       vertex 0.0270028 0.0326315 0
    endloop
  endfacet
  facet normal 0.946935 0.321425 0
    outer loop
       vertex 0.0206228 0.064705 0
       vertex 0.0101118 0.095671 0
       vertex 0.0101118 0.095671 0.1
    endloop
  endfacet
  facet normal 0.946935 0.321425 0
    outer loop
       vertex 0.0101118 0.095671 0.1
       vertex 0.0206228 0.064705 0.1
       vertex 0.0206228 0.064705 0
    endloop
  endfacet
  facet normal 0.896866 0.442302 0
    outer loop
       vertex 0.0101118 0.095671 0
       vertex -0.00435217 0.125 0
       vertex -0.00435217 0.125 0.1
    endloop
  endfacet
  facet normal 0.896866 0.442302 0
    outer loop
       vertex -0.00435217 0.125 0.1
       vertex 0.0101118 0.095671 0.1
       vertex 0.0101118 0.095671 0
    endloop
  endfacet
  facet normal 0.831476 0.555561 0
    outer loop
       vertex -0.00435217 0.125 0
       vertex -0.0225202 0.152191 0
       vertex -0.0225202 0.152191 0.1
    endloop
  endfacet
  facet normal 0.831476 0.555561 0
    outer loop
       vertex -0.0225202 0.152191 0.1
       vertex -0.00435217 0.125 0.1
       vertex -0.00435217 0.125 0
    endloop
  endfacet
  facet normal 0.751817 0.659372 0
    outer loop
       vertex -0.0225202 0.152191 0
       vertex -0.0440822 0.176776 0
       vertex -0.0440822 0.176776 0.1
    endloop
  endfacet
  facet normal 0.751817 0.659372 0
    outer loop
       vertex -0.0440822 0.176776 0.1
       vertex -0.0225202 0.152191 0.1
       vertex -0.0225202 0.152191 0
    endloop
  endfacet
  facet normal 0.659372 0.751817 0
    outer loop
       vertex -0.0440822 0.176776 0
       vertex -0.0686672 0.198338 0
       vertex -0.0686672 0.198338 0.1
    endloop
  endfacet
  facet normal 0.659372 0.751817 0
    outer loop
       vertex -0.0686672 0.198338 0.1
       vertex -0.0440822 0.176776 0.1
       vertex -0.0440822 0.176776 0
    endloop
  endfacet
  facet normal 0.555561 0.831476 0
    outer loop
       vertex -0.0686672 0.198338 0
       vertex -0.0958582 0.216506 0
       vertex -0.0958582 0.216506 0.1
    endloop
  endfacet
  facet normal 0.555561 0.831476 0
    outer loop
       vertex -0.0958582 0.216506 0.1
       vertex -0.0686672 0.198338 0.1
       vertex -0.0686672 0.198338 0
    endloop
  endfacet
  facet normal 0.442302 0.896866 0
    outer loop
       vertex -0.0958582 0.216506 0
       vertex -0.125187 0.23097 0
       vertex -0.125187 0.23097 0.1
    endloop
  endfacet
  facet normal 0.442302 0.896866 0
    outer loop
       vertex -0.125187 0.23097 0.1
       vertex -0.0958582 0.216506 0.1
       vertex -0.0958582 0.216506 0
    endloop
  endfacet
  facet normal 0.321425 0.946935 0
    outer loop
       vertex -0.125187 0.23097 0
       vertex -0.156153 0.241481 0
       vertex -0.156153 0.241481 0.1
    endloop
  endfacet
  facet normal 0.321425 0.946935 0
    outer loop
       vertex -0.156153 0.241481 0.1
       vertex -0.125187 0.23097 0.1
       vertex -0.125187 0.23097 0
    endloop
  endfacet
  facet normal 0.195096 0.980784 0
    outer loop
       vertex -0.156153 0.241481 0
       vertex -0.188227 0.247861 0
       vertex -0.188227 0.247861 0.1
    endloop
  endfacet
  facet normal 0.195096 0.980784 0
    outer loop
       vertex -0.188227 0.247861 0.1
       vertex -0.156153 0.241481 0.1
       vertex -0.156153 0.241481 0
    endloop
  endfacet
  facet normal 0.0654098 0.997858 0
    outer loop
       vertex -0.220858 0.25 0.1
       vertex -0.188227 0.247861 0.1
       vertex -0.188227 0.247861 0
    endloop
  endfacet
  facet normal 0.0654098 0.997858 -1.0893e-16
    outer loop
       vertex -0.188227 0.247861 0
       vertex -0.220858 0.25 0
       vertex -0.220858 0.25 0.1
    endloop
  endfacet
  facet normal -0.0654098 0.997858 0
    outer loop
       vertex -0.220858 0.25 0
       vertex -0.25349 0.247861 0
       vertex -0.25349 0.247861 0.1
    endloop
  endfacet
  facet normal -0.0654098 0.997858 1.0893e-16
    outer loop
       vertex -0.25349 0.247861 0.1
       vertex -0.220858 0.25 0.1
       vertex -0.220858 0.25 0
    endloop
  endfacet
  facet normal -0.195096 0.980784 0
    outer loop
       vertex -0.25349 0.247861 0
       vertex -0.285563 0.241481 0
       vertex -0.285563 0.241481 0.1
    endloop
  endfacet
  facet normal -0.195096 0.980784 0
    outer loop
       vertex -0.285563 0.241481 0.1
       vertex -0.25349 0.247861 0.1
       vertex -0.25349 0.247861 0
    endloop
  endfacet
  facet normal -0.321425 0.946935 0
    outer loop
       vertex -0.285563 0.241481 0
       vertex -0.316529 0.23097 0
       vertex -0.316529 0.23097 0.1
    endloop
  endfacet
  facet normal -0.321425 0.946935 0
    outer loop
       vertex -0.316529 0.23097 0.1
       vertex -0.285563 0.241481 0.1
       vertex -0.285563 0.241481 0
    endloop
  endfacet
  facet normal -0.442302 0.896866 0
    outer loop
       vertex -0.316529 0.23097 0
       vertex -0.345858 0.216506 0
       vertex -0.345858 0.216506 0.1
    endloop
  endfacet
  facet normal -0.442302 0.896866 0
    outer loop
       vertex -0.345858 0.216506 0.1
       vertex -0.316529 0.23097 0.1
       vertex -0.316529 0.23097 0
    endloop
  endfacet
  facet normal -0.555561 0.831476 0
    outer loop
       vertex -0.345858 0.216506 0
       vertex -0.373049 0.198338 0
       vertex -0.373049 0.198338 0.1
    endloop
  endfacet
  facet normal -0.555561 0.831476 0
    outer loop
       vertex -0.373049 0.198338 0.1
       vertex -0.345858 0.216506 0.1
       vertex -0.345858 0.216506 0
    endloop
  endfacet
  facet normal -0.659372 0.751817 0
    outer loop
       vertex -0.373049 0.198338 0
       vertex -0.397634 0.176776 0
       vertex -0.397634 0.176776 0.1
    endloop
  endfacet
  facet normal -0.659372 0.751817 0
    outer loop
       vertex -0.397634 0.176776 0.1
       vertex -0.373049 0.198338 0.1
       vertex -0.373049 0.198338 0
    endloop
  endfacet
  facet normal -0.751817 0.659372 0
    outer loop
       vertex -0.397634 0.176776 0
       vertex -0.419196 0.152191 0
       vertex -0.419196 0.152191 0.1
    endloop
  endfacet
  facet normal -0.751817 0.659372 0
    outer loop
       vertex -0.419196 0.152191 0.1
       vertex -0.397634 0.176776 0.1
       vertex -0.397634 0.176776 0
    endloop
  endfacet
  facet normal -0.831476 0.555561 0
    outer loop
       vertex -0.419196 0.152191 0
       vertex -0.437364 0.125 0
       vertex -0.437364 0.125 0.1
    endloop
  endfacet
  facet normal -0.831476 0.555561 0
    outer loop
       vertex -0.437364 0.125 0.1
       vertex -0.419196 0.152191 0.1
       vertex -0.419196 0.152191 0
    endloop
  endfacet
  facet normal -0.896866 0.442302 0
    outer loop
       vertex -0.437364 0.125 0
       vertex -0.451828 0.095671 0
       vertex -0.451828 0.095671 0.1
    endloop
  endfacet
  facet normal -0.896866 0.442302 0
    outer loop
       vertex -0.451828 0.095671 0.1
       vertex -0.437364 0.125 0.1
       vertex -0.437364 0.125 0
    endloop
  endfacet
  facet normal -0.946935 0.321425 0
    outer loop
       vertex -0.451828 0.095671 0
       vertex -0.462339 0.064705 0
       vertex -0.462339 0.064705 0.1
    endloop
  endfacet
  facet normal -0.946935 0.321425 0
    outer loop
       vertex -0.462339 0.064705 0.1
       vertex -0.451828 0.095671 0.1
       vertex -0.451828 0.095671 0
    endloop
  endfacet
  facet normal -0.980784 0.195096 0
    outer loop
       vertex -0.462339 0.064705 0
       vertex -0.468719 0.0326315 0
       vertex -0.468719 0.0326315 0.1
    endloop
  endfacet
  facet normal -0.980784 0.195096 0
    outer loop
       vertex -0.468719 0.0326315 0.1
       vertex -0.462339 0.064705 0.1
       vertex -0.462339 0.064705 0
    endloop
  endfacet
  facet normal -0.997858 0.0654098 0
    outer loop
       vertex -0.470858 8.32665e-17 0.1
       vertex -0.468719 0.0326315 0.1
       vertex -0.468719 0.0326315 0
    endloop
  endfacet
  facet normal -0.997858 0.0654098 -1.08928e-16
    outer loop
       vertex -0.468719 0.0326315 0
       vertex -0.470858 -8.32665e-17 0
       vertex -0.470858 8.32665e-17 0.1
    endloop
  endfacet
  facet normal -0.997858 -0.0654098 0
    outer loop
       vertex -0.470858 -8.32665e-17 0
       vertex -0.468719 -0.0326315 0
       vertex -0.468719 -0.0326315 0.1
    endloop
  endfacet
  facet normal -0.997858 -0.0654098 1.08928e-16
    outer loop
       vertex -0.468719 -0.0326315 0.1
       vertex -0.470858 8.32665e-17 0.1
       vertex -0.470858 -8.32665e-17 0
    endloop
  endfacet
  facet normal -0.980784 -0.195096 0
    outer loop
       vertex -0.468719 -0.0326315 0
       vertex -0.462339 -0.064705 0
       vertex -0.462339 -0.064705 0.1
    endloop
  endfacet
  facet normal -0.980784 -0.195096 0
    outer loop
       vertex -0.462339 -0.064705 0.1
       vertex -0.468719 -0.0326315 0.1
       vertex -0.468719 -0.0326315 0
    endloop
  endfacet
  facet normal -0.946935 -0.321425 0
    outer loop
       vertex -0.462339 -0.064705 0
       vertex -0.451828 -0.095671 0
       vertex -0.451828 -0.095671 0.1
    endloop
  endfacet
  facet normal -0.946935 -0.321425 0
    outer loop
       vertex -0.451828 -0.095671 0.1
       vertex -0.462339 -0.064705 0.1
       vertex -0.462339 -0.064705 0
    endloop
  endfacet
  facet normal -0.896866 -0.442302 0
    outer loop
       vertex -0.451828 -0.095671 0
       vertex -0.437364 -0.125 0
       vertex -0.437364 -0.125 0.1
    endloop
  endfacet
  facet normal -0.896866 -0.442302 0
    outer loop
       vertex -0.437364 -0.125 0.1
       vertex -0.451828 -0.095671 0.1
       vertex -0.451828 -0.095671 0
    endloop
  endfacet
  facet normal -0.831476 -0.555561 0
    outer loop
       vertex -0.437364 -0.125 0
       vertex -0.419196 -0.152191 0
       vertex -0.419196 -0.152191 0.1
    endloop
  endfacet
  facet normal -0.831476 -0.555561 0
    outer loop
       vertex -0.419196 -0.152191 0.1
       vertex -0.437364 -0.125 0.1
       vertex -0.437364 -0.125 0
    endloop
  endfacet
  facet normal -0.751817 -0.659372 0
    outer loop
       vertex -0.419196 -0.152191 0
       vertex -0.397634 -0.176776 0
       vertex -0.397634 -0.176776 0.1
    endloop
  endfacet
  facet normal -0.751817 -0.659372 0
    outer loop
       vertex -0.397634 -0.176776 0.1
       vertex -0.419196 -0.152191 0.1
       vertex -0.419196 -0.152191 0
    endloop
  endfacet
  facet normal 0.659372 -0.751817 0
    outer loop
       vertex -0.0440822 -0.176776 0
       vertex -0.0440822 -0.176776 0.1
       vertex -0.0686672 -0.198338 0.1
    endloop
  endfacet
  facet normal 0.659372 -0.751817 0
    outer loop
       vertex -0.0686672 -0.198338 0.1
       vertex -0.0686672 -0.198338 0
       vertex -0.0440822 -0.176776 0
    endloop
  endfacet
  facet normal 0.555561 -0.831476 0
    outer loop
       vertex -0.0686672 -0.198338 0
       vertex -0.0686672 -0.198338 0.1
       vertex -0.0958582 -0.216506 0.1
    endloop
  endfacet
  facet normal 0.555561 -0.831476 0
    outer loop
       vertex -0.0958582 -0.216506 0.1
       vertex -0.0958582 -0.216506 0
       vertex -0.0686672 -0.198338 0
    endloop
  endfacet
  facet normal 0.442302 -0.896866 0
    outer loop
       vertex -0.0958582 -0.216506 0
       vertex -0.0958582 -0.216506 0.1
       vertex -0.125187 -0.23097 0.1
    endloop
  endfacet
  facet normal 0.442302 -0.896866 0
    outer loop
       vertex -0.125187 -0.23097 0.1
       vertex -0.125187 -0.23097 0
       vertex -0.0958582 -0.216506 0
    endloop
  endfacet
  facet normal 0.321425 -0.946935 0
    outer loop
       vertex -0.125187 -0.23097 0
       vertex -0.125187 -0.23097 0.1
       vertex -0.156153 -0.241481 0.1
    endloop
  endfacet
  facet normal 0.321425 -0.946935 0
    outer loop
       vertex -0.156153 -0.241481 0.1
       vertex -0.156153 -0.241481 0
       vertex -0.125187 -0.23097 0
    endloop
  endfacet
  facet normal 0.195096 -0.980784 0
    outer loop
       vertex -0.156153 -0.241481 0
       vertex -0.156153 -0.241481 0.1
       vertex -0.188227 -0.247861 0.1
    endloop
  endfacet
  facet normal 0.195096 -0.980784 0
    outer loop
       vertex -0.188227 -0.247861 0.1
       vertex -0.188227 -0.247861 0
       vertex -0.156153 -0.241481 0
    endloop
  endfacet
  facet normal 0.0654098 -0.997858 0
    outer loop
       vertex -0.220858 -0.25 0
       vertex -0.188227 -0.247861 0
       vertex -0.188227 -0.247861 0.1
    endloop
  endfacet
  facet normal 0.0654098 -0.997858 1.0893e-16
    outer loop
       vertex -0.188227 -0.247861 0.1
       vertex -0.220858 -0.25 0.1
       vertex -0.220858 -0.25 0
    endloop
  endfacet
  facet normal -0.0654098 -0.997858 0
    outer loop
       vertex -0.220858 -0.25 0.1
       vertex -0.25349 -0.247861 0.1
       vertex -0.25349 -0.247861 0
    endloop
  endfacet
  facet normal -0.0654098 -0.997858 -1.0893e-16
    outer loop
       vertex -0.25349 -0.247861 0
       vertex -0.220858 -0.25 0
       vertex -0.220858 -0.25 0.1
    endloop
  endfacet
  facet normal -0.195096 -0.980784 0
    outer loop
       vertex -0.25349 -0.247861 0
       vertex -0.25349 -0.247861 0.1
       vertex -0.285563 -0.241481 0.1
    endloop
  endfacet
  facet normal -0.195096 -0.980784 -0
    outer loop
       vertex -0.285563 -0.241481 0.1
       vertex -0.285563 -0.241481 0
       vertex -0.25349 -0.247861 0
    endloop
  endfacet
  facet normal -0.321425 -0.946935 0
    outer loop
       vertex -0.285563 -0.241481 0
       vertex -0.285563 -0.241481 0.1
       vertex -0.316529 -0.23097 0.1
    endloop
  endfacet
  facet normal -0.321425 -0.946935 -0
    outer loop
       vertex -0.316529 -0.23097 0.1
       vertex -0.316529 -0.23097 0
       vertex -0.285563 -0.241481 0
    endloop
  endfacet
  facet normal -0.442302 -0.896866 0
    outer loop
       vertex -0.316529 -0.23097 0
       vertex -0.316529 -0.23097 0.1
       vertex -0.345858 -0.216506 0.1
    endloop
  endfacet
  facet normal -0.442302 -0.896866 -0
    outer loop
       vertex -0.345858 -0.216506 0.1
       vertex -0.345858 -0.216506 0
       vertex -0.316529 -0.23097 0
    endloop
  endfacet
  facet normal -0.555561 -0.831476 0
    outer loop
       vertex -0.345858 -0.216506 0
       vertex -0.345858 -0.216506 0.1
       vertex -0.373049 -0.198338 0.1
    endloop
  endfacet
  facet normal -0.555561 -0.831476 -0
    outer loop
       vertex -0.373049 -0.198338 0.1
       vertex -0.373049 -0.198338 0
       vertex -0.345858 -0.216506 0
    endloop
  endfacet
  facet normal -0.659372 -0.751817 0
    outer loop
       vertex -0.373049 -0.198338 0
       vertex -0.373049 -0.198338 0.1
       vertex -0.397634 -0.176776 0.1
    endloop
  endfacet
  facet normal -0.659372 -0.751817 -0
    outer loop
       vertex -0.397634 -0.176776 0.1
       vertex -0.397634 -0.176776 0
       vertex -0.373049 -0.198338 0
    endloop
  endfacet
endsolid cylinder
