solid cylinder
  facet normal 0.751817 -0.659372 0
    outer loop
       vertex 0.159511 -0.176776 0
       vertex 0.181073 -0.152191 0
       vertex 0.181073 -0.152191 0.1
    endloop
  endfacet
  facet normal 0.751817 -0.659372 0
    outer loop
       vertex 0.181073 -0.152191 0.1
       vertex 0.159511 -0.176776 0.1
       vertex 0.159511 -0.176776 0
    endloop
  endfacet
  facet normal 0.831476 -0.555561 0
    outer loop
       vertex 0.181073 -0.152191 0
       vertex 0.199241 -0.125 0
       vertex 0.199241 -0.125 0.1
    endloop
  endfacet
  facet normal 0.831476 -0.555561 0
    outer loop
       vertex 0.199241 -0.125 0.1
       vertex 0.181073 -0.152191 0.1
       vertex 0.181073 -0.152191 0
    endloop
  endfacet
  facet normal 0.896866 -0.442302 0
    outer loop
       vertex 0.199241 -0.125 0
       vertex 0.213705 -0.095671 0
       vertex 0.213705 -0.095671 0.1
    endloop
  endfacet
  facet normal 0.896866 -0.442302 0
    outer loop
       vertex 0.213705 -0.095671 0.1
       vertex 0.199241 -0.125 0.1
       vertex 0.199241 -0.125 0
    endloop
  endfacet
  facet normal 0.946935 -0.321425 0
    outer loop
       vertex 0.213705 -0.095671 0
       vertex 0.224216 -0.064705 0
       vertex 0.224216 -0.064705 0.1
    endloop
  endfacet
  facet normal 0.946935 -0.321425 0
    outer loop
       vertex 0.224216 -0.064705 0.1
       vertex 0.213705 -0.095671 0.1
       vertex 0.213705 -0.095671 0
    endloop
  endfacet
  facet normal 0.980784 -0.195096 0
    outer loop
       vertex 0.224216 -0.064705 0
       vertex 0.230596 -0.0326315 0
       vertex 0.230596 -0.0326315 0.1
    endloop
  endfacet
  facet normal 0.980784 -0.195096 0
    outer loop
       vertex 0.230596 -0.0326315 0.1
       vertex 0.224216 -0.064705 0.1
       vertex 0.224216 -0.064705 0
    endloop
  endfacet
  facet normal 0.997858 -0.0654098 0
    outer loop
       vertex 0.232735 -8.32665e-17 0.1
       vertex 0.230596 -0.0326315 0.1
       vertex 0.230596 -0.0326315 0
    endloop
  endfacet
  facet normal 0.997858 -0.0654098 -1.08928e-16
    outer loop
       vertex 0.230596 -0.0326315 0
       vertex 0.232735 8.32665e-17 0
       vertex 0.232735 -8.32665e-17 0.1
    endloop
  endfacet
  facet normal 0.997858 0.0654098 0
    outer loop
       vertex 0.232735 8.32665e-17 0
       vertex 0.230596 0.0326315 0
       vertex 0.230596 0.0326315 0.1
    endloop
  endfacet
  facet normal 0.997858 0.0654098 1.08928e-16
    outer loop
       vertex 0.230596 0.0326315 0.1
       vertex 0.232735 -8.32665e-17 0.1
       vertex 0.232735 8.32665e-17 0
    endloop
  endfacet
  facet normal 0.980784 0.195096 0
    outer loop
       vertex 0.230596 0.0326315 0
       vertex 0.224216 0.064705 0
       vertex 0.224216 0.064705 0.1
    endloop
  endfacet
  facet normal 0.980784 0.195096 0
    outer loop
       vertex 0.224216 0.064705 0.1
       vertex 0.230596 0.0326315 0.1
       vertex 0.230596 0.0326315 0
    endloop
  endfacet
  facet normal 0.946935 0.321425 0
    outer loop
       vertex 0.224216 0.064705 0
       vertex 0.213705 0.095671 0
       vertex 0.213705 0.095671 0.1
    endloop
  endfacet
  facet normal 0.946935 0.321425 0
    outer loop
       vertex 0.213705 0.095671 0.1
       vertex 0.224216 0.064705 0.1
       vertex 0.224216 0.064705 0
    endloop
  endfacet
  facet normal 0.896866 0.442302 0
    outer loop
       vertex 0.213705 0.095671 0
       vertex 0.199241 0.125 0
       vertex 0.199241 0.125 0.1
    endloop
  endfacet
  facet normal 0.896866 0.442302 0
    outer loop
       vertex 0.199241 0.125 0.1
       vertex 0.213705 0.095671 0.1
       vertex 0.213705 0.095671 0
    endloop
  endfacet
  facet normal 0.831476 0.555561 0
    outer loop
       vertex 0.199241 0.125 0
       vertex 0.181073 0.152191 0
       vertex 0.181073 0.152191 0.1
    endloop
  endfacet
  facet normal 0.831476 0.555561 0
    outer loop
       vertex 0.181073 0.152191 0.1
       vertex 0.199241 0.125 0.1
       vertex 0.199241 0.125 0
    endloop
  endfacet
  facet normal 0.751817 0.659372 0
    outer loop
       vertex 0.181073 0.152191 0
       vertex 0.159511 0.176776 0
       vertex 0.159511 0.176776 0.1
    endloop
  endfacet
  facet normal 0.751817 0.659372 0
    outer loop
       vertex 0.159511 0.176776 0.1
       vertex 0.181073 0.152191 0.1
       vertex 0.181073 0.152191 0
    endloop
  endfacet
  facet normal 0.659372 0.751817 0
    outer loop
       vertex 0.159511 0.176776 0
       vertex 0.134926 0.198338 0
       vertex 0.134926 0.198338 0.1
    endloop
  endfacet
  facet normal 0.659372 0.751817 0
    outer loop
       vertex 0.134926 0.198338 0.1
       vertex 0.159511 0.176776 0.1
       vertex 0.159511 0.176776 0
    endloop
  endfacet
  facet normal 0.555561 0.831476 0
    outer loop
       vertex 0.134926 0.198338 0
       vertex 0.107735 0.216506 0
       vertex 0.107735 0.216506 0.1
    endloop
  endfacet
  facet normal 0.555561 0.831476 0
    outer loop
       vertex 0.107735 0.216506 0.1
       vertex 0.134926 0.198338 0.1
       vertex 0.134926 0.198338 0
    endloop
  endfacet
  facet normal 0.442302 0.896866 0
    outer loop
       vertex 0.107735 0.216506 0
       vertex 0.0784057 0.23097 0
       vertex 0.0784057 0.23097 0.1
    endloop
  endfacet
  facet normal 0.442302 0.896866 0
    outer loop
       vertex 0.0784057 0.23097 0.1
       vertex 0.107735 0.216506 0.1
       vertex 0.107735 0.216506 0
    endloop
  endfacet
  facet normal 0.321425 0.946935 0
    outer loop
       vertex 0.0784057 0.23097 0
       vertex 0.0474397 0.241481 0
       vertex 0.0474397 0.241481 0.1
    endloop
  endfacet
  facet normal 0.321425 0.946935 0
    outer loop
       vertex 0.0474397 0.241481 0.1
       vertex 0.0784057 0.23097 0.1
       vertex 0.0784057 0.23097 0
    endloop
  endfacet
  facet normal 0.195096 0.980784 0
    outer loop
       vertex 0.0474397 0.241481 0
       vertex 0.0153662 0.247861 0
       vertex 0.0153662 0.247861 0.1
    endloop
  endfacet
  facet normal 0.195096 0.980784 0
    outer loop
       vertex 0.0153662 0.247861 0.1
       vertex 0.0474397 0.241481 0.1
       vertex 0.0474397 0.241481 0
    endloop
  endfacet
  facet normal 0.0654098 0.997858 0
    outer loop
       vertex -0.0172653 0.25 0.1
       vertex 0.0153662 0.247861 0.1
       vertex 0.0153662 0.247861 0
    endloop
  endfacet
  facet normal 0.0654098 0.997858 -1.08928e-16
    outer loop
       vertex 0.0153662 0.247861 0
       vertex -0.0172653 0.25 0
       vertex -0.0172653 0.25 0.1
    endloop
  endfacet
  facet normal -0.0654098 0.997858 0
    outer loop
       vertex -0.0172653 0.25 0
       vertex -0.0498968 0.247861 0
       vertex -0.0498968 0.247861 0.1
    endloop
  endfacet
  facet normal -0.0654098 0.997858 1.0893e-16
    outer loop
       vertex -0.0498968 0.247861 0.1
       vertex -0.0172653 0.25 0.1
       vertex -0.0172653 0.25 0
    endloop
  endfacet
  facet normal -0.195096 0.980784 0
    outer loop
       vertex -0.0498968 0.247861 0
       vertex -0.0819703 0.241481 0
       vertex -0.0819703 0.241481 0.1
    endloop
  endfacet
  facet normal -0.195096 0.980784 0
    outer loop
       vertex -0.0819703 0.241481 0.1
       vertex -0.0498968 0.247861 0.1
       vertex -0.0498968 0.247861 0
    endloop
  endfacet
  facet normal -0.321425 0.946935 0
    outer loop
       vertex -0.0819703 0.241481 0
       vertex -0.112936 0.23097 0
       vertex -0.112936 0.23097 0.1
    endloop
  endfacet
  facet normal -0.321425 0.946935 0
    outer loop
       vertex -0.112936 0.23097 0.1
       vertex -0.0819703 0.241481 0.1
       vertex -0.0819703 0.241481 0
    endloop
  endfacet
  facet normal -0.442302 0.896866 0
    outer loop
       vertex -0.112936 0.23097 0
       vertex -0.142265 0.216506 0
       vertex -0.142265 0.216506 0.1
    endloop
  endfacet
  facet normal -0.442302 0.896866 0
    outer loop
       vertex -0.142265 0.216506 0.1
       vertex -0.112936 0.23097 0.1
       vertex -0.112936 0.23097 0
    endloop
  endfacet
  facet normal -0.555561 0.831476 0
    outer loop
       vertex -0.142265 0.216506 0
       vertex -0.169456 0.198338 0
       vertex -0.169456 0.198338 0.1
    endloop
  endfacet
  facet normal -0.555561 0.831476 0
    outer loop
       vertex -0.169456 0.198338 0.1
       vertex -0.142265 0.216506 0.1
       vertex -0.142265 0.216506 0
    endloop
  endfacet
  facet normal -0.659372 0.751817 0
    outer loop
       vertex -0.169456 0.198338 0
       vertex -0.194041 0.176776 0
       vertex -0.194041 0.176776 0.1
    endloop
  endfacet
  facet normal -0.659372 0.751817 0
    outer loop
       vertex -0.194041 0.176776 0.1
       vertex -0.169456 0.198338 0.1
       vertex -0.169456 0.198338 0
    endloop
  endfacet
  facet normal -0.751817 0.659372 0
    outer loop
       vertex -0.194041 0.176776 0
       vertex -0.215603 0.152191 0
       vertex -0.215603 0.152191 0.1
    endloop
  endfacet
  facet normal -0.751817 0.659372 0
    outer loop
       vertex -0.215603 0.152191 0.1
       vertex -0.194041 0.176776 0.1
       vertex -0.194041 0.176776 0
    endloop
  endfacet
  facet normal -0.831476 0.555561 0
    outer loop
       vertex -0.215603 0.152191 0
       vertex -0.233771 0.125 0
       vertex -0.233771 0.125 0.1
    endloop
  endfacet
  facet normal -0.831476 0.555561 0
    outer loop
       vertex -0.233771 0.125 0.1
       vertex -0.215603 0.152191 0.1
       vertex -0.215603 0.152191 0
    endloop
  endfacet
  facet normal -0.896866 0.442302 0
    outer loop
       vertex -0.233771 0.125 0
       vertex -0.248235 0.095671 0
       vertex -0.248235 0.095671 0.1
    endloop
  endfacet
  facet normal -0.896866 0.442302 0
    outer loop
       vertex -0.248235 0.095671 0.1
       vertex -0.233771 0.125 0.1
       vertex -0.233771 0.125 0
    endloop
  endfacet
  facet normal -0.946935 0.321425 0
    outer loop
       vertex -0.248235 0.095671 0
       vertex -0.258746 0.064705 0
       vertex -0.258746 0.064705 0.1
    endloop
  endfacet
  facet normal -0.946935 0.321425 0
    outer loop
       vertex -0.258746 0.064705 0.1
       vertex -0.248235 0.095671 0.1
       vertex -0.248235 0.095671 0
    endloop
  endfacet
  facet normal -0.980784 0.195096 0
    outer loop
       vertex -0.258746 0.064705 0
       vertex -0.265126 0.0326315 0
       vertex -0.265126 0.0326315 0.1
    endloop
  endfacet
  facet normal -0.980784 0.195096 0
    outer loop
       vertex -0.265126 0.0326315 0.1
       vertex -0.258746 0.064705 0.1
       vertex -0.258746 0.064705 0
    endloop
  endfacet
  facet normal -0.997858 0.0654098 0
    outer loop
       vertex -0.267265 8.32665e-17 0.1
       vertex -0.265126 0.0326315 0.1
       vertex -0.265126 0.0326315 0
    endloop
  endfacet
  facet normal -0.997858 0.0654098 -1.08928e-16
    outer loop
       vertex -0.265126 0.0326315 0
       vertex -0.267265 -8.32665e-17 0
       vertex -0.267265 8.32665e-17 0.1
    endloop
  endfacet
  facet normal -0.997858 -0.0654098 0
    outer loop
       vertex -0.267265 -8.32665e-17 0
       vertex -0.265126 -0.0326315 0
       vertex -0.265126 -0.0326315 0.1
    endloop
  endfacet
  facet normal -0.997858 -0.0654098 1.08928e-16
    outer loop
       vertex -0.265126 -0.0326315 0.1
       vertex -0.267265 8.32665e-17 0.1
       vertex -0.267265 -8.32665e-17 0
    endloop
  endfacet
  facet normal -0.980784 -0.195096 0
    outer loop
       vertex -0.265126 -0.0326315 0
       vertex -0.258746 -0.064705 0
       vertex -0.258746 -0.064705 0.1
    endloop
  endfacet
  facet normal -0.980784 -0.195096 0
    outer loop
       vertex -0.258746 -0.064705 0.1
       vertex -0.265126 -0.0326315 0.1
       vertex -0.265126 -0.0326315 0
    endloop
  endfacet
  facet normal -0.946935 -0.321425 0
    outer loop
       vertex -0.258746 -0.064705 0
       vertex -0.248235 -0.095671 0
       vertex -0.248235 -0.095671 0.1
    endloop
  endfacet
  facet normal -0.946935 -0.321425 0
    outer loop
       vertex -0.248235 -0.095671 0.1
       vertex -0.258746 -0.064705 0.1
       vertex -0.258746 -0.064705 0
    endloop
  endfacet
  facet normal -0.896866 -0.442302 0
    outer loop
       vertex -0.248235 -0.095671 0
       vertex -0.233771 -0.125 0
       vertex -0.233771 -0.125 0.1
    endloop
  endfacet
  facet normal -0.896866 -0.442302 0
    outer loop
       vertex -0.233771 -0.125 0.1
       vertex -0.248235 -0.095671 0.1
       vertex -0.248235 -0.095671 0
    endloop
  endfacet
  facet normal -0.831476 -0.555561 0
    outer loop
       vertex -0.233771 -0.125 0
       vertex -0.215603 -0.152191 0
       vertex -0.215603 -0.152191 0.1
    endloop
  endfacet
  facet normal -0.831476 -0.555561 0
    outer loop
       vertex -0.215603 -0.152191 0.1
       vertex -0.233771 -0.125 0.1
       vertex -0.233771 -0.125 0
    endloop
  endfacet
  facet normal -0.751817 -0.659372 0
    outer loop
       vertex -0.215603 -0.152191 0
       vertex -0.194041 -0.176776 0
       vertex -0.194041 -0.176776 0.1
    endloop
  endfacet
  facet normal -0.751817 -0.659372 0
    outer loop
       vertex -0.194041 -0.176776 0.1
       vertex -0.215603 -0.152191 0.1
       vertex -0.215603 -0.152191 0
    endloop
  endfacet
  facet normal 0.659372 -0.751817 0
    outer loop
       vertex 0.159511 -0.176776 0
       vertex 0.159511 -0.176776 0.1
       vertex 0.134926 -0.198338 0.1
    endloop
  endfacet
  facet normal 0.659372 -0.751817 0
    outer loop
       vertex 0.134926 -0.198338 0.1
       vertex 0.134926 -0.198338 0
       vertex 0.159511 -0.176776 0
    endloop
  endfacet
  facet normal 0.555561 -0.831476 0
    outer loop
       vertex 0.134926 -0.198338 0
       vertex 0.134926 -0.198338 0.1
       vertex 0.107735 -0.216506 0.1
    endloop
  endfacet
  facet normal 0.555561 -0.831476 0
    outer loop
       vertex 0.107735 -0.216506 0.1
       vertex 0.107735 -0.216506 0
       vertex 0.134926 -0.198338 0
    endloop
  endfacet
  facet normal 0.442302 -0.896866 0
    outer loop
       vertex 0.107735 -0.216506 0
       vertex 0.107735 -0.216506 0.1
       vertex 0.0784057 -0.23097 0.1
    endloop
  endfacet
  facet normal 0.442302 -0.896866 0
    outer loop
       vertex 0.0784057 -0.23097 0.1
       vertex 0.0784057 -0.23097 0
       vertex 0.107735 -0.216506 0
    endloop
  endfacet
  facet normal 0.321425 -0.946935 0
    outer loop
       vertex 0.0784057 -0.23097 0
       vertex 0.0784057 -0.23097 0.1
       vertex 0.0474397 -0.241481 0.1
    endloop
  endfacet
  facet normal 0.321425 -0.946935 0
    outer loop
       vertex 0.0474397 -0.241481 0.1
       vertex 0.0474397 -0.241481 0
       vertex 0.0784057 -0.23097 0
    endloop
  endfacet
  facet normal 0.195096 -0.980784 0
    outer loop
       vertex 0.0474397 -0.241481 0
       vertex 0.0474397 -0.241481 0.1
       vertex 0.0153662 -0.247861 0.1
    endloop
  endfacet
  facet normal 0.195096 -0.980784 0
    outer loop
       vertex 0.0153662 -0.247861 0.1
       vertex 0.0153662 -0.247861 0
       vertex 0.0474397 -0.241481 0
    endloop
  endfacet
  facet normal 0.0654098 -0.997858 0
    outer loop
       vertex -0.0172653 -0.25 0
       vertex 0.0153662 -0.247861 0
       vertex 0.0153662 -0.247861 0.1
    endloop
  endfacet
  facet normal 0.0654098 -0.997858 1.08928e-16
    outer loop
       vertex 0.0153662 -0.247861 0.1
       vertex -0.0172653 -0.25 0.1
       vertex -0.0172653 -0.25 0
    endloop
  endfacet
  facet normal -0.0654098 -0.997858 0
    outer loop
       vertex -0.0172653 -0.25 0.1
       vertex -0.0498968 -0.247861 0.1
       vertex -0.0498968 -0.247861 0
    endloop
  endfacet
  facet normal -0.0654098 -0.997858 -1.0893e-16
    outer loop
       vertex -0.0498968 -0.247861 0
       vertex -0.0172653 -0.25 0
       vertex -0.0172653 -0.25 0.1
    endloop
  endfacet
  facet normal -0.195096 -0.980784 0
    outer loop
       vertex -0.0498968 -0.247861 0
       vertex -0.0498968 -0.247861 0.1
       vertex -0.0819703 -0.241481 0.1
    endloop
  endfacet
  facet normal -0.195096 -0.980784 -0
    outer loop
       vertex -0.0819703 -0.241481 0.1
       vertex -0.0819703 -0.241481 0
       vertex -0.0498968 -0.247861 0
    endloop
  endfacet
  facet normal -0.321425 -0.946935 0
    outer loop
       vertex -0.0819703 -0.241481 0
       vertex -0.0819703 -0.241481 0.1
       vertex -0.112936 -0.23097 0.1
    endloop
  endfacet
  facet normal -0.321425 -0.946935 -0
    outer loop
       vertex -0.112936 -0.23097 0.1
       vertex -0.112936 -0.23097 0
       vertex -0.0819703 -0.241481 0
    endloop
  endfacet
  facet normal -0.442302 -0.896866 0
    outer loop
       vertex -0.112936 -0.23097 0
       vertex -0.112936 -0.23097 0.1
       vertex -0.142265 -0.216506 0.1
    endloop
  endfacet
  facet normal -0.442302 -0.896866 -0
    outer loop
       vertex -0.142265 -0.216506 0.1
       vertex -0.142265 -0.216506 0
       vertex -0.112936 -0.23097 0
    endloop
  endfacet
  facet normal -0.555561 -0.831476 0
    outer loop
       vertex -0.142265 -0.216506 0
       vertex -0.142265 -0.216506 0.1
       vertex -0.169456 -0.198338 0.1
    endloop
  endfacet
  facet normal -0.555561 -0.831476 -0
    outer loop
       vertex -0.169456 -0.198338 0.1
       vertex -0.169456 -0.198338 0
       vertex -0.142265 -0.216506 0
    endloop
  endfacet
  facet normal -0.659372 -0.751817 0
    outer loop
       vertex -0.169456 -0.198338 0
       vertex -0.169456 -0.198338 0.1
       vertex -0.194041 -0.176776 0.1
    endloop
  endfacet
  facet normal -0.659372 -0.751817 -0
    outer loop
       vertex -0.194041 -0.176776 0.1
       vertex -0.194041 -0.176776 0
       vertex -0.169456 -0.198338 0
    endloop
  endfacet
endsolid cylinder
