solid cylinder
  facet normal 0.751817 -0.659372 0
    outer loop
       vertex 0.34919 -0.176776 0
       vertex 0.370752 -0.152191 0
       vertex 0.370752 -0.152191 0.1
    endloop
  endfacet
  facet normal 0.751817 -0.659372 0
    outer loop
       vertex 0.370752 -0.152191 0.1
       vertex 0.34919 -0.176776 0.1
       vertex 0.34919 -0.176776 0
    endloop
  endfacet
  facet normal 0.831476 -0.555561 0
    outer loop
       vertex 0.370752 -0.152191 0
       vertex 0.38892 -0.125 0
       vertex 0.38892 -0.125 0.1
    endloop
  endfacet
  facet normal 0.831476 -0.555561 0
    outer loop
       vertex 0.38892 -0.125 0.1
       vertex 0.370752 -0.152191 0.1
       vertex 0.370752 -0.152191 0
    endloop
  endfacet
  facet normal 0.896866 -0.442302 0
    outer loop
       vertex 0.38892 -0.125 0
       vertex 0.403384 -0.095671 0
       vertex 0.403384 -0.095671 0.1
    endloop
  endfacet
  facet normal 0.896866 -0.442302 0
    outer loop
       vertex 0.403384 -0.095671 0.1
       vertex 0.38892 -0.125 0.1
       vertex 0.38892 -0.125 0
    endloop
  endfacet
  facet normal 0.946935 -0.321425 0
    outer loop
       vertex 0.403384 -0.095671 0
       vertex 0.413895 -0.064705 0
       vertex 0.413895 -0.064705 0.1
    endloop
  endfacet
  facet normal 0.946935 -0.321425 0
    outer loop
       vertex 0.413895 -0.064705 0.1
       vertex 0.403384 -0.095671 0.1
       vertex 0.403384 -0.095671 0
    endloop
  endfacet
  facet normal 0.980784 -0.195096 0
    outer loop
       vertex 0.413895 -0.064705 0
       vertex 0.420275 -0.0326315 0
       vertex 0.420275 -0.0326315 0.1
    endloop
  endfacet
  facet normal 0.980784 -0.195096 0
    outer loop
       vertex 0.420275 -0.0326315 0.1
       vertex 0.413895 -0.064705 0.1
       vertex 0.413895 -0.064705 0
    endloop
  endfacet
  facet normal 0.997858 -0.0654098 0
    outer loop
       vertex 0.422414 -8.32665e-17 0.1
       vertex 0.420275 -0.0326315 0.1
       vertex 0.420275 -0.0326315 0
    endloop
  endfacet
  facet normal 0.997858 -0.0654098 -1.08928e-16
    outer loop
       vertex 0.420275 -0.0326315 0
       vertex 0.422414 8.32665e-17 0
       vertex 0.422414 -8.32665e-17 0.1
    endloop
  endfacet
  facet normal 0.997858 0.0654098 0
    outer loop
       vertex 0.422414 8.32665e-17 0
       vertex 0.420275 0.0326315 0
       vertex 0.420275 0.0326315 0.1
    endloop
  endfacet
  facet normal 0.997858 0.0654098 1.08928e-16
    outer loop
       vertex 0.420275 0.0326315 0.1
       vertex 0.422414 -8.32665e-17 0.1
       vertex 0.422414 8.32665e-17 0
    endloop
  endfacet
  facet normal 0.980784 0.195096 0
    outer loop
       vertex 0.420275 0.0326315 0
       vertex 0.413895 0.064705 0
       vertex 0.413895 0.064705 0.1
    endloop
  endfacet
  facet normal 0.980784 0.195096 0
    outer loop
       vertex 0.413895 0.064705 0.1
       vertex 0.420275 0.0326315 0.1
       vertex 0.420275 0.0326315 0
    endloop
  endfacet
  facet normal 0.946935 0.321425 0
    outer loop
       vertex 0.413895 0.064705 0
       vertex 0.403384 0.095671 0
       vertex 0.403384 0.095671 0.1
    endloop
  endfacet
  facet normal 0.946935 0.321425 0
    outer loop
       vertex 0.403384 0.095671 0.1
       vertex 0.413895 0.064705 0.1
       vertex 0.413895 0.064705 0
    endloop
  endfacet
  facet normal 0.896866 0.442302 0
    outer loop
       vertex 0.403384 0.095671 0
       vertex 0.38892 0.125 0
       vertex 0.38892 0.125 0.1
    endloop
  endfacet
  facet normal 0.896866 0.442302 0
    outer loop
       vertex 0.38892 0.125 0.1
       vertex 0.403384 0.095671 0.1
       vertex 0.403384 0.095671 0
    endloop
  endfacet
  facet normal 0.831476 0.555561 0
    outer loop
       vertex 0.38892 0.125 0
       vertex 0.370752 0.152191 0
       vertex 0.370752 0.152191 0.1
    endloop
  endfacet
  facet normal 0.831476 0.555561 0
    outer loop
       vertex 0.370752 0.152191 0.1
       vertex 0.38892 0.125 0.1
       vertex 0.38892 0.125 0
    endloop
  endfacet
  facet normal 0.751817 0.659372 0
    outer loop
       vertex 0.370752 0.152191 0
       vertex 0.34919 0.176776 0
       vertex 0.34919 0.176776 0.1
    endloop
  endfacet
  facet normal 0.751817 0.659372 0
    outer loop
       vertex 0.34919 0.176776 0.1
       vertex 0.370752 0.152191 0.1
       vertex 0.370752 0.152191 0
    endloop
  endfacet
  facet normal 0.659372 0.751817 0
    outer loop
       vertex 0.34919 0.176776 0
       vertex 0.324605 0.198338 0
       vertex 0.324605 0.198338 0.1
    endloop
  endfacet
  facet normal 0.659372 0.751817 0
    outer loop
       vertex 0.324605 0.198338 0.1
       vertex 0.34919 0.176776 0.1
       vertex 0.34919 0.176776 0
    endloop
  endfacet
  facet normal 0.555561 0.831476 0
    outer loop
       vertex 0.324605 0.198338 0
       vertex 0.297414 0.216506 0
       vertex 0.297414 0.216506 0.1
    endloop
  endfacet
  facet normal 0.555561 0.831476 0
    outer loop
       vertex 0.297414 0.216506 0.1
       vertex 0.324605 0.198338 0.1
       vertex 0.324605 0.198338 0
    endloop
  endfacet
  facet normal 0.442302 0.896866 0
    outer loop
       vertex 0.297414 0.216506 0
       vertex 0.268085 0.23097 0
       vertex 0.268085 0.23097 0.1
    endloop
  endfacet
  facet normal 0.442302 0.896866 0
    outer loop
       vertex 0.268085 0.23097 0.1
       vertex 0.297414 0.216506 0.1
       vertex 0.297414 0.216506 0
    endloop
  endfacet
  facet normal 0.321425 0.946935 0
    outer loop
       vertex 0.268085 0.23097 0
       vertex 0.237119 0.241481 0
       vertex 0.237119 0.241481 0.1
    endloop
  endfacet
  facet normal 0.321425 0.946935 0
    outer loop
       vertex 0.237119 0.241481 0.1
       vertex 0.268085 0.23097 0.1
       vertex 0.268085 0.23097 0
    endloop
  endfacet
  facet normal 0.195096 0.980784 0
    outer loop
       vertex 0.237119 0.241481 0
       vertex 0.205045 0.247861 0
       vertex 0.205045 0.247861 0.1
    endloop
  endfacet
  facet normal 0.195096 0.980784 0
    outer loop
       vertex 0.205045 0.247861 0.1
       vertex 0.237119 0.241481 0.1
       vertex 0.237119 0.241481 0
    endloop
  endfacet
  facet normal 0.0654098 0.997858 0
    outer loop
       vertex 0.172414 0.25 0.1
       vertex 0.205045 0.247861 0.1
       vertex 0.205045 0.247861 0
    endloop
  endfacet
  facet normal 0.0654098 0.997858 -1.0893e-16
    outer loop
       vertex 0.205045 0.247861 0
       vertex 0.172414 0.25 0
       vertex 0.172414 0.25 0.1
    endloop
  endfacet
  facet normal -0.0654098 0.997858 0
    outer loop
       vertex 0.172414 0.25 0
       vertex 0.139782 0.247861 0
       vertex 0.139782 0.247861 0.1
    endloop
  endfacet
  facet normal -0.0654098 0.997858 1.0893e-16
    outer loop
       vertex 0.139782 0.247861 0.1
       vertex 0.172414 0.25 0.1
       vertex 0.172414 0.25 0
    endloop
  endfacet
  facet normal -0.195096 0.980784 0
    outer loop
       vertex 0.139782 0.247861 0
       vertex 0.107709 0.241481 0
       vertex 0.107709 0.241481 0.1
    endloop
  endfacet
  facet normal -0.195096 0.980784 0
    outer loop
       vertex 0.107709 0.241481 0.1
       vertex 0.139782 0.247861 0.1
       vertex 0.139782 0.247861 0
    endloop
  endfacet
  facet normal -0.321425 0.946935 0
    outer loop
       vertex 0.107709 0.241481 0
       vertex 0.0767427 0.23097 0
       vertex 0.0767427 0.23097 0.1
    endloop
  endfacet
  facet normal -0.321425 0.946935 0
    outer loop
       vertex 0.0767427 0.23097 0.1
       vertex 0.107709 0.241481 0.1
       vertex 0.107709 0.241481 0
    endloop
  endfacet
  facet normal -0.442302 0.896866 0
    outer loop
       vertex 0.0767427 0.23097 0
       vertex 0.0474137 0.216506 0
       vertex 0.0474137 0.216506 0.1
    endloop
  endfacet
  facet normal -0.442302 0.896866 0
    outer loop
       vertex 0.0474137 0.216506 0.1
       vertex 0.0767427 0.23097 0.1
       vertex 0.0767427 0.23097 0
    endloop
  endfacet
  facet normal -0.555561 0.831476 0
    outer loop
       vertex 0.0474137 0.216506 0
       vertex 0.0202227 0.198338 0
       vertex 0.0202227 0.198338 0.1
    endloop
  endfacet
  facet normal -0.555561 0.831476 0
    outer loop
       vertex 0.0202227 0.198338 0.1
       vertex 0.0474137 0.216506 0.1
       vertex 0.0474137 0.216506 0
    endloop
  endfacet
  facet normal -0.659372 0.751817 0
    outer loop
       vertex 0.0202227 0.198338 0
       vertex -0.00436231 0.176776 0
       vertex -0.00436231 0.176776 0.1
    endloop
  endfacet
  facet normal -0.659372 0.751817 0
    outer loop
       vertex -0.00436231 0.176776 0.1
       vertex 0.0202227 0.198338 0.1
       vertex 0.0202227 0.198338 0
    endloop
  endfacet
  facet normal -0.751817 0.659372 0
    outer loop
       vertex -0.00436231 0.176776 0
       vertex -0.0259243 0.152191 0
       vertex -0.0259243 0.152191 0.1
    endloop
  endfacet
  facet normal -0.751817 0.659372 0
    outer loop
       vertex -0.0259243 0.152191 0.1
       vertex -0.00436231 0.176776 0.1
       vertex -0.00436231 0.176776 0
    endloop
  endfacet
  facet normal -0.831476 0.555561 0
    outer loop
       vertex -0.0259243 0.152191 0
       vertex -0.0440923 0.125 0
       vertex -0.0440923 0.125 0.1
    endloop
  endfacet
  facet normal -0.831476 0.555561 0
    outer loop
       vertex -0.0440923 0.125 0.1
       vertex -0.0259243 0.152191 0.1
       vertex -0.0259243 0.152191 0
    endloop
  endfacet
  facet normal -0.896866 0.442302 0
    outer loop
       vertex -0.0440923 0.125 0
       vertex -0.0585563 0.095671 0
       vertex -0.0585563 0.095671 0.1
    endloop
  endfacet
  facet normal -0.896866 0.442302 0
    outer loop
       vertex -0.0585563 0.095671 0.1
       vertex -0.0440923 0.125 0.1
       vertex -0.0440923 0.125 0
    endloop
  endfacet
  facet normal -0.946935 0.321425 0
    outer loop
       vertex -0.0585563 0.095671 0
       vertex -0.0690673 0.064705 0
       vertex -0.0690673 0.064705 0.1
    endloop
  endfacet
  facet normal -0.946935 0.321425 0
    outer loop
       vertex -0.0690673 0.064705 0.1
       vertex -0.0585563 0.095671 0.1
       vertex -0.0585563 0.095671 0
    endloop
  endfacet
  facet normal -0.980784 0.195096 0
    outer loop
       vertex -0.0690673 0.064705 0
       vertex -0.0754473 0.0326315 0
       vertex -0.0754473 0.0326315 0.1
    endloop
  endfacet
  facet normal -0.980784 0.195096 0
    outer loop
       vertex -0.0754473 0.0326315 0.1
       vertex -0.0690673 0.064705 0.1
       vertex -0.0690673 0.064705 0
    endloop
  endfacet
  facet normal -0.997858 0.0654098 0
    outer loop
       vertex -0.0775863 8.32665e-17 0.1
       vertex -0.0754473 0.0326315 0.1
       vertex -0.0754473 0.0326315 0
    endloop
  endfacet
  facet normal -0.997858 0.0654098 -1.08928e-16
    outer loop
       vertex -0.0754473 0.0326315 0
       vertex -0.0775863 -8.32665e-17 0
       vertex -0.0775863 8.32665e-17 0.1
    endloop
  endfacet
  facet normal -0.997858 -0.0654098 0
    outer loop
       vertex -0.0775863 -8.32665e-17 0
       vertex -0.0754473 -0.0326315 0
       vertex -0.0754473 -0.0326315 0.1
    endloop
  endfacet
  facet normal -0.997858 -0.0654098 1.08928e-16
    outer loop
       vertex -0.0754473 -0.0326315 0.1
       vertex -0.0775863 8.32665e-17 0.1
       vertex -0.0775863 -8.32665e-17 0
    endloop
  endfacet
  facet normal -0.980784 -0.195096 0
    outer loop
       vertex -0.0754473 -0.0326315 0
       vertex -0.0690673 -0.064705 0
       vertex -0.0690673 -0.064705 0.1
    endloop
  endfacet
  facet normal -0.980784 -0.195096 0
    outer loop
       vertex -0.0690673 -0.064705 0.1
       vertex -0.0754473 -0.0326315 0.1
       vertex -0.0754473 -0.0326315 0
    endloop
  endfacet
  facet normal -0.946935 -0.321425 0
    outer loop
       vertex -0.0690673 -0.064705 0
       vertex -0.0585563 -0.095671 0
       vertex -0.0585563 -0.095671 0.1
    endloop
  endfacet
  facet normal -0.946935 -0.321425 0
    outer loop
       vertex -0.0585563 -0.095671 0.1
       vertex -0.0690673 -0.064705 0.1
       vertex -0.0690673 -0.064705 0
    endloop
  endfacet
  facet normal -0.896866 -0.442302 0
    outer loop
       vertex -0.0585563 -0.095671 0
       vertex -0.0440923 -0.125 0
       vertex -0.0440923 -0.125 0.1
    endloop
  endfacet
  facet normal -0.896866 -0.442302 0
    outer loop
       vertex -0.0440923 -0.125 0.1
       vertex -0.0585563 -0.095671 0.1
       vertex -0.0585563 -0.095671 0
    endloop
  endfacet
  facet normal -0.831476 -0.555561 0
    outer loop
       vertex -0.0440923 -0.125 0
       vertex -0.0259243 -0.152191 0
       vertex -0.0259243 -0.152191 0.1
    endloop
  endfacet
  facet normal -0.831476 -0.555561 0
    outer loop
       vertex -0.0259243 -0.152191 0.1
       vertex -0.0440923 -0.125 0.1
       vertex -0.0440923 -0.125 0
    endloop
  endfacet
  facet normal -0.751817 -0.659372 0
    outer loop
       vertex -0.0259243 -0.152191 0
       vertex -0.00436231 -0.176776 0
       vertex -0.00436231 -0.176776 0.1
    endloop
  endfacet
  facet normal -0.751817 -0.659372 0
    outer loop
       vertex -0.00436231 -0.176776 0.1
       vertex -0.0259243 -0.152191 0.1
       vertex -0.0259243 -0.152191 0
    endloop
  endfacet
  facet normal 0.659372 -0.751817 0
    outer loop
       vertex 0.34919 -0.176776 0
       vertex 0.34919 -0.176776 0.1
       vertex 0.324605 -0.198338 0.1
    endloop
  endfacet
  facet normal 0.659372 -0.751817 0
    outer loop
       vertex 0.324605 -0.198338 0.1
       vertex 0.324605 -0.198338 0
       vertex 0.34919 -0.176776 0
    endloop
  endfacet
  facet normal 0.555561 -0.831476 0
    outer loop
       vertex 0.324605 -0.198338 0
       vertex 0.324605 -0.198338 0.1
       vertex 0.297414 -0.216506 0.1
    endloop
  endfacet
  facet normal 0.555561 -0.831476 0
    outer loop
       vertex 0.297414 -0.216506 0.1
       vertex 0.297414 -0.216506 0
       vertex 0.324605 -0.198338 0
    endloop
  endfacet
  facet normal 0.442302 -0.896866 0
    outer loop
       vertex 0.297414 -0.216506 0
       vertex 0.297414 -0.216506 0.1
       vertex 0.268085 -0.23097 0.1
    endloop
  endfacet
  facet normal 0.442302 -0.896866 0
    outer loop
       vertex 0.268085 -0.23097 0.1
       vertex 0.268085 -0.23097 0
       vertex 0.297414 -0.216506 0
    endloop
  endfacet
  facet normal 0.321425 -0.946935 0
    outer loop
       vertex 0.268085 -0.23097 0
       vertex 0.268085 -0.23097 0.1
       vertex 0.237119 -0.241481 0.1
    endloop
  endfacet
  facet normal 0.321425 -0.946935 0
    outer loop
       vertex 0.237119 -0.241481 0.1
       vertex 0.237119 -0.241481 0
       vertex 0.268085 -0.23097 0
    endloop
  endfacet
  facet normal 0.195096 -0.980784 0
    outer loop
       vertex 0.237119 -0.241481 0
       vertex 0.237119 -0.241481 0.1
       vertex 0.205045 -0.247861 0.1
    endloop
  endfacet
  facet normal 0.195096 -0.980784 0
    outer loop
       vertex 0.205045 -0.247861 0.1
       vertex 0.205045 -0.247861 0
       vertex 0.237119 -0.241481 0
    endloop
  endfacet
  facet normal 0.0654098 -0.997858 0
    outer loop
       vertex 0.172414 -0.25 0
       vertex 0.205045 -0.247861 0
       vertex 0.205045 -0.247861 0.1
    endloop
  endfacet
  facet normal 0.0654098 -0.997858 1.0893e-16
    outer loop
       vertex 0.205045 -0.247861 0.1
       vertex 0.172414 -0.25 0.1
       vertex 0.172414 -0.25 0
    endloop
  endfacet
  facet normal -0.0654098 -0.997858 0
    outer loop
       vertex 0.172414 -0.25 0.1
       vertex 0.139782 -0.247861 0.1
       vertex 0.139782 -0.247861 0
    endloop
  endfacet
  facet normal -0.0654098 -0.997858 -1.0893e-16
    outer loop
       vertex 0.139782 -0.247861 0
       vertex 0.172414 -0.25 0
       vertex 0.172414 -0.25 0.1
    endloop
  endfacet
  facet normal -0.195096 -0.980784 0
    outer loop
       vertex 0.139782 -0.247861 0
       vertex 0.139782 -0.247861 0.1
       vertex 0.107709 -0.241481 0.1
    endloop
  endfacet
  facet normal -0.195096 -0.980784 -0
    outer loop
       vertex 0.107709 -0.241481 0.1
       vertex 0.107709 -0.241481 0
       vertex 0.139782 -0.247861 0
    endloop
  endfacet
  facet normal -0.321425 -0.946935 0
    outer loop
       vertex 0.107709 -0.241481 0
       vertex 0.107709 -0.241481 0.1
       vertex 0.0767427 -0.23097 0.1
    endloop
  endfacet
  facet normal -0.321425 -0.946935 -0
    outer loop
       vertex 0.0767427 -0.23097 0.1
       vertex 0.0767427 -0.23097 0
       vertex 0.107709 -0.241481 0
    endloop
  endfacet
  facet normal -0.442302 -0.896866 0
    outer loop
       vertex 0.0767427 -0.23097 0
       vertex 0.0767427 -0.23097 0.1
       vertex 0.0474137 -0.216506 0.1
    endloop
  endfacet
  facet normal -0.442302 -0.896866 -0
    outer loop
       vertex 0.0474137 -0.216506 0.1
       vertex 0.0474137 -0.216506 0
       vertex 0.0767427 -0.23097 0
    endloop
  endfacet
  facet normal -0.555561 -0.831476 0
    outer loop
       vertex 0.0474137 -0.216506 0
       vertex 0.0474137 -0.216506 0.1
       vertex 0.0202227 -0.198338 0.1
    endloop
  endfacet
  facet normal -0.555561 -0.831476 -0
    outer loop
       vertex 0.0202227 -0.198338 0.1
       vertex 0.0202227 -0.198338 0
       vertex 0.0474137 -0.216506 0
    endloop
  endfacet
  facet normal -0.659372 -0.751817 0
    outer loop
       vertex 0.0202227 -0.198338 0
       vertex 0.0202227 -0.198338 0.1
       vertex -0.00436231 -0.176776 0.1
    endloop
  endfacet
  facet normal -0.659372 -0.751817 -0
    outer loop
       vertex -0.00436231 -0.176776 0.1
       vertex -0.00436231 -0.176776 0
       vertex 0.0202227 -0.198338 0
    endloop
  endfacet
endsolid cylinder
