solid cylinder
  facet normal 0.751817 -0.659372 0
    outer loop
       vertex 0.36762 -0.176776 0
       vertex 0.389182 -0.152191 0
       vertex 0.389182 -0.152191 0.1
    endloop
  endfacet
  facet normal 0.751817 -0.659372 0
    outer loop
       vertex 0.389182 -0.152191 0.1
       vertex 0.36762 -0.176776 0.1
       vertex 0.36762 -0.176776 0
    endloop
  endfacet
  facet normal 0.831476 -0.555561 0
    outer loop
       vertex 0.389182 -0.152191 0
       vertex 0.40735 -0.125 0
       vertex 0.40735 -0.125 0.1
    endloop
  endfacet
  facet normal 0.831476 -0.555561 0
    outer loop
       vertex 0.40735 -0.125 0.1
       vertex 0.389182 -0.152191 0.1
       vertex 0.389182 -0.152191 0
    endloop
  endfacet
  facet normal 0.896866 -0.442302 0
    outer loop
       vertex 0.40735 -0.125 0
       vertex 0.421814 -0.095671 0
       vertex 0.421814 -0.095671 0.1
    endloop
  endfacet
  facet normal 0.896866 -0.442302 0
    outer loop
       vertex 0.421814 -0.095671 0.1
       vertex 0.40735 -0.125 0.1
       vertex 0.40735 -0.125 0
    endloop
  endfacet
  facet normal 0.946935 -0.321425 0
    outer loop
       vertex 0.421814 -0.095671 0
       vertex 0.432325 -0.064705 0
       vertex 0.432325 -0.064705 0.1
    endloop
  endfacet
  facet normal 0.946935 -0.321425 0
    outer loop
       vertex 0.432325 -0.064705 0.1
       vertex 0.421814 -0.095671 0.1
       vertex 0.421814 -0.095671 0
    endloop
  endfacet
  facet normal 0.980784 -0.195096 0
    outer loop
       vertex 0.432325 -0.064705 0
       vertex 0.438705 -0.0326315 0
       vertex 0.438705 -0.0326315 0.1
    endloop
  endfacet
  facet normal 0.980784 -0.195096 0
    outer loop
       vertex 0.438705 -0.0326315 0.1
       vertex 0.432325 -0.064705 0.1
       vertex 0.432325 -0.064705 0
    endloop
  endfacet
  facet normal 0.997858 -0.0654098 0
    outer loop
       vertex 0.440844 -8.32665e-17 0.1
       vertex 0.438705 -0.0326315 0.1
       vertex 0.438705 -0.0326315 0
    endloop
  endfacet
  facet normal 0.997858 -0.0654098 -1.08928e-16
    outer loop
       vertex 0.438705 -0.0326315 0
       vertex 0.440844 8.32665e-17 0
       vertex 0.440844 -8.32665e-17 0.1
    endloop
  endfacet
  facet normal 0.997858 0.0654098 0
    outer loop
       vertex 0.440844 8.32665e-17 0
       vertex 0.438705 0.0326315 0
       vertex 0.438705 0.0326315 0.1
    endloop
  endfacet
  facet normal 0.997858 0.0654098 1.08928e-16
    outer loop
       vertex 0.438705 0.0326315 0.1
       vertex 0.440844 -8.32665e-17 0.1
       vertex 0.440844 8.32665e-17 0
    endloop
  endfacet
  facet normal 0.980784 0.195096 0
    outer loop
       vertex 0.438705 0.0326315 0
       vertex 0.432325 0.064705 0
       vertex 0.432325 0.064705 0.1
    endloop
  endfacet
  facet normal 0.980784 0.195096 0
    outer loop
       vertex 0.432325 0.064705 0.1
       vertex 0.438705 0.0326315 0.1
       vertex 0.438705 0.0326315 0
    endloop
  endfacet
  facet normal 0.946935 0.321425 0
    outer loop
       vertex 0.432325 0.064705 0
       vertex 0.421814 0.095671 0
       vertex 0.421814 0.095671 0.1
    endloop
  endfacet
  facet normal 0.946935 0.321425 0
    outer loop
       vertex 0.421814 0.095671 0.1
       vertex 0.432325 0.064705 0.1
       vertex 0.432325 0.064705 0
    endloop
  endfacet
  facet normal 0.896866 0.442302 0
    outer loop
       vertex 0.421814 0.095671 0
       vertex 0.40735 0.125 0
       vertex 0.40735 0.125 0.1
    endloop
  endfacet
  facet normal 0.896866 0.442302 0
    outer loop
       vertex 0.40735 0.125 0.1
       vertex 0.421814 0.095671 0.1
       vertex 0.421814 0.095671 0
    endloop
  endfacet
  facet normal 0.831476 0.555561 0
    outer loop
       vertex 0.40735 0.125 0
       vertex 0.389182 0.152191 0
       vertex 0.389182 0.152191 0.1
    endloop
  endfacet
  facet normal 0.831476 0.555561 0
    outer loop
       vertex 0.389182 0.152191 0.1
       vertex 0.40735 0.125 0.1
       vertex 0.40735 0.125 0
    endloop
  endfacet
  facet normal 0.751817 0.659372 0
    outer loop
       vertex 0.389182 0.152191 0
       vertex 0.36762 0.176776 0
       vertex 0.36762 0.176776 0.1
    endloop
  endfacet
  facet normal 0.751817 0.659372 0
    outer loop
       vertex 0.36762 0.176776 0.1
       vertex 0.389182 0.152191 0.1
       vertex 0.389182 0.152191 0
    endloop
  endfacet
  facet normal 0.659372 0.751817 0
    outer loop
       vertex 0.36762 0.176776 0
       vertex 0.343035 0.198338 0
       vertex 0.343035 0.198338 0.1
    endloop
  endfacet
  facet normal 0.659372 0.751817 0
    outer loop
       vertex 0.343035 0.198338 0.1
       vertex 0.36762 0.176776 0.1
       vertex 0.36762 0.176776 0
    endloop
  endfacet
  facet normal 0.555561 0.831476 0
    outer loop
       vertex 0.343035 0.198338 0
       vertex 0.315844 0.216506 0
       vertex 0.315844 0.216506 0.1
    endloop
  endfacet
  facet normal 0.555561 0.831476 0
    outer loop
       vertex 0.315844 0.216506 0.1
       vertex 0.343035 0.198338 0.1
       vertex 0.343035 0.198338 0
    endloop
  endfacet
  facet normal 0.442302 0.896866 0
    outer loop
       vertex 0.315844 0.216506 0
       vertex 0.286515 0.23097 0
       vertex 0.286515 0.23097 0.1
    endloop
  endfacet
  facet normal 0.442302 0.896866 0
    outer loop
       vertex 0.286515 0.23097 0.1
       vertex 0.315844 0.216506 0.1
       vertex 0.315844 0.216506 0
    endloop
  endfacet
  facet normal 0.321425 0.946935 0
    outer loop
       vertex 0.286515 0.23097 0
       vertex 0.255549 0.241481 0
       vertex 0.255549 0.241481 0.1
    endloop
  endfacet
  facet normal 0.321425 0.946935 0
    outer loop
       vertex 0.255549 0.241481 0.1
       vertex 0.286515 0.23097 0.1
       vertex 0.286515 0.23097 0
    endloop
  endfacet
  facet normal 0.195096 0.980784 0
    outer loop
       vertex 0.255549 0.241481 0
       vertex 0.223475 0.247861 0
       vertex 0.223475 0.247861 0.1
    endloop
  endfacet
  facet normal 0.195096 0.980784 0
    outer loop
       vertex 0.223475 0.247861 0.1
       vertex 0.255549 0.241481 0.1
       vertex 0.255549 0.241481 0
    endloop
  endfacet
  facet normal 0.0654098 0.997858 0
    outer loop
       vertex 0.190844 0.25 0.1
       vertex 0.223475 0.247861 0.1
       vertex 0.223475 0.247861 0
    endloop
  endfacet
  facet normal 0.0654098 0.997858 -1.0893e-16
    outer loop
       vertex 0.223475 0.247861 0
       vertex 0.190844 0.25 0
       vertex 0.190844 0.25 0.1
    endloop
  endfacet
  facet normal -0.0654098 0.997858 0
    outer loop
       vertex 0.190844 0.25 0
       vertex 0.158212 0.247861 0
       vertex 0.158212 0.247861 0.1
    endloop
  endfacet
  facet normal -0.0654098 0.997858 1.0893e-16
    outer loop
       vertex 0.158212 0.247861 0.1
       vertex 0.190844 0.25 0.1
       vertex 0.190844 0.25 0
    endloop
  endfacet
  facet normal -0.195096 0.980784 0
    outer loop
       vertex 0.158212 0.247861 0
       vertex 0.126139 0.241481 0
       vertex 0.126139 0.241481 0.1
    endloop
  endfacet
  facet normal -0.195096 0.980784 0
    outer loop
       vertex 0.126139 0.241481 0.1
       vertex 0.158212 0.247861 0.1
       vertex 0.158212 0.247861 0
    endloop
  endfacet
  facet normal -0.321425 0.946935 0
    outer loop
       vertex 0.126139 0.241481 0
       vertex 0.0951727 0.23097 0
       vertex 0.0951727 0.23097 0.1
    endloop
  endfacet
  facet normal -0.321425 0.946935 0
    outer loop
       vertex 0.0951727 0.23097 0.1
       vertex 0.126139 0.241481 0.1
       vertex 0.126139 0.241481 0
    endloop
  endfacet
  facet normal -0.442302 0.896866 0
    outer loop
       vertex 0.0951727 0.23097 0
       vertex 0.0658437 0.216506 0
       vertex 0.0658437 0.216506 0.1
    endloop
  endfacet
  facet normal -0.442302 0.896866 0
    outer loop
       vertex 0.0658437 0.216506 0.1
       vertex 0.0951727 0.23097 0.1
       vertex 0.0951727 0.23097 0
    endloop
  endfacet
  facet normal -0.555561 0.831476 0
    outer loop
       vertex 0.0658437 0.216506 0
       vertex 0.0386527 0.198338 0
       vertex 0.0386527 0.198338 0.1
    endloop
  endfacet
  facet normal -0.555561 0.831476 0
    outer loop
       vertex 0.0386527 0.198338 0.1
       vertex 0.0658437 0.216506 0.1
       vertex 0.0658437 0.216506 0
    endloop
  endfacet
  facet normal -0.659372 0.751817 0
    outer loop
       vertex 0.0386527 0.198338 0
       vertex 0.0140677 0.176776 0
       vertex 0.0140677 0.176776 0.1
    endloop
  endfacet
  facet normal -0.659372 0.751817 0
    outer loop
       vertex 0.0140677 0.176776 0.1
       vertex 0.0386527 0.198338 0.1
       vertex 0.0386527 0.198338 0
    endloop
  endfacet
  facet normal -0.751817 0.659372 0
    outer loop
       vertex 0.0140677 0.176776 0
       vertex -0.00749432 0.152191 0
       vertex -0.00749432 0.152191 0.1
    endloop
  endfacet
  facet normal -0.751817 0.659372 0
    outer loop
       vertex -0.00749432 0.152191 0.1
       vertex 0.0140677 0.176776 0.1
       vertex 0.0140677 0.176776 0
    endloop
  endfacet
  facet normal -0.831476 0.555561 0
    outer loop
       vertex -0.00749432 0.152191 0
       vertex -0.0256623 0.125 0
       vertex -0.0256623 0.125 0.1
    endloop
  endfacet
  facet normal -0.831476 0.555561 0
    outer loop
       vertex -0.0256623 0.125 0.1
       vertex -0.00749432 0.152191 0.1
       vertex -0.00749432 0.152191 0
    endloop
  endfacet
  facet normal -0.896866 0.442302 0
    outer loop
       vertex -0.0256623 0.125 0
       vertex -0.0401263 0.095671 0
       vertex -0.0401263 0.095671 0.1
    endloop
  endfacet
  facet normal -0.896866 0.442302 0
    outer loop
       vertex -0.0401263 0.095671 0.1
       vertex -0.0256623 0.125 0.1
       vertex -0.0256623 0.125 0
    endloop
  endfacet
  facet normal -0.946935 0.321425 0
    outer loop
       vertex -0.0401263 0.095671 0
       vertex -0.0506373 0.064705 0
       vertex -0.0506373 0.064705 0.1
    endloop
  endfacet
  facet normal -0.946935 0.321425 0
    outer loop
       vertex -0.0506373 0.064705 0.1
       vertex -0.0401263 0.095671 0.1
       vertex -0.0401263 0.095671 0
    endloop
  endfacet
  facet normal -0.980784 0.195096 0
    outer loop
       vertex -0.0506373 0.064705 0
       vertex -0.0570173 0.0326315 0
       vertex -0.0570173 0.0326315 0.1
    endloop
  endfacet
  facet normal -0.980784 0.195096 0
    outer loop
       vertex -0.0570173 0.0326315 0.1
       vertex -0.0506373 0.064705 0.1
       vertex -0.0506373 0.064705 0
    endloop
  endfacet
  facet normal -0.997858 0.0654098 0
    outer loop
       vertex -0.0591563 8.32665e-17 0.1
       vertex -0.0570173 0.0326315 0.1
       vertex -0.0570173 0.0326315 0
    endloop
  endfacet
  facet normal -0.997858 0.0654098 -1.08928e-16
    outer loop
       vertex -0.0570173 0.0326315 0
       vertex -0.0591563 -8.32665e-17 0
       vertex -0.0591563 8.32665e-17 0.1
    endloop
  endfacet
  facet normal -0.997858 -0.0654098 0
    outer loop
       vertex -0.0591563 -8.32665e-17 0
       vertex -0.0570173 -0.0326315 0
       vertex -0.0570173 -0.0326315 0.1
    endloop
  endfacet
  facet normal -0.997858 -0.0654098 1.08928e-16
    outer loop
       vertex -0.0570173 -0.0326315 0.1
       vertex -0.0591563 8.32665e-17 0.1
       vertex -0.0591563 -8.32665e-17 0
    endloop
  endfacet
  facet normal -0.980784 -0.195096 0
    outer loop
       vertex -0.0570173 -0.0326315 0
       vertex -0.0506373 -0.064705 0
       vertex -0.0506373 -0.064705 0.1
    endloop
  endfacet
  facet normal -0.980784 -0.195096 0
    outer loop
       vertex -0.0506373 -0.064705 0.1
       vertex -0.0570173 -0.0326315 0.1
       vertex -0.0570173 -0.0326315 0
    endloop
  endfacet
  facet normal -0.946935 -0.321425 0
    outer loop
       vertex -0.0506373 -0.064705 0
       vertex -0.0401263 -0.095671 0
       vertex -0.0401263 -0.095671 0.1
    endloop
  endfacet
  facet normal -0.946935 -0.321425 0
    outer loop
       vertex -0.0401263 -0.095671 0.1
       vertex -0.0506373 -0.064705 0.1
       vertex -0.0506373 -0.064705 0
    endloop
  endfacet
  facet normal -0.896866 -0.442302 0
    outer loop
       vertex -0.0401263 -0.095671 0
       vertex -0.0256623 -0.125 0
       vertex -0.0256623 -0.125 0.1
    endloop
  endfacet
  facet normal -0.896866 -0.442302 0
    outer loop
       vertex -0.0256623 -0.125 0.1
       vertex -0.0401263 -0.095671 0.1
       vertex -0.0401263 -0.095671 0
    endloop
  endfacet
  facet normal -0.831476 -0.555561 0
    outer loop
       vertex -0.0256623 -0.125 0
       vertex -0.00749432 -0.152191 0
       vertex -0.00749432 -0.152191 0.1
    endloop
  endfacet
  facet normal -0.831476 -0.555561 0
    outer loop
       vertex -0.00749432 -0.152191 0.1
       vertex -0.0256623 -0.125 0.1
       vertex -0.0256623 -0.125 0
    endloop
  endfacet
  facet normal -0.751817 -0.659372 0
    outer loop
       vertex -0.00749432 -0.152191 0
       vertex 0.0140677 -0.176776 0
       vertex 0.0140677 -0.176776 0.1
    endloop
  endfacet
  facet normal -0.751817 -0.659372 0
    outer loop
       vertex 0.0140677 -0.176776 0.1
       vertex -0.00749432 -0.152191 0.1
       vertex -0.00749432 -0.152191 0
    endloop
  endfacet
  facet normal 0.659372 -0.751817 0
    outer loop
       vertex 0.36762 -0.176776 0
       vertex 0.36762 -0.176776 0.1
       vertex 0.343035 -0.198338 0.1
    endloop
  endfacet
  facet normal 0.659372 -0.751817 0
    outer loop
       vertex 0.343035 -0.198338 0.1
       vertex 0.343035 -0.198338 0
       vertex 0.36762 -0.176776 0
    endloop
  endfacet
  facet normal 0.555561 -0.831476 0
    outer loop
       vertex 0.343035 -0.198338 0
       vertex 0.343035 -0.198338 0.1
       vertex 0.315844 -0.216506 0.1
    endloop
  endfacet
  facet normal 0.555561 -0.831476 0
    outer loop
       vertex 0.315844 -0.216506 0.1
       vertex 0.315844 -0.216506 0
       vertex 0.343035 -0.198338 0
    endloop
  endfacet
  facet normal 0.442302 -0.896866 0
    outer loop
       vertex 0.315844 -0.216506 0
       vertex 0.315844 -0.216506 0.1
       vertex 0.286515 -0.23097 0.1
    endloop
  endfacet
  facet normal 0.442302 -0.896866 0
    outer loop
       vertex 0.286515 -0.23097 0.1
       vertex 0.286515 -0.23097 0
       vertex 0.315844 -0.216506 0
    endloop
  endfacet
  facet normal 0.321425 -0.946935 0
    outer loop
       vertex 0.286515 -0.23097 0
       vertex 0.286515 -0.23097 0.1
       vertex 0.255549 -0.241481 0.1
    endloop
  endfacet
  facet normal 0.321425 -0.946935 0
    outer loop
       vertex 0.255549 -0.241481 0.1
       vertex 0.255549 -0.241481 0
       vertex 0.286515 -0.23097 0
    endloop
  endfacet
  facet normal 0.195096 -0.980784 0
    outer loop
       vertex 0.255549 -0.241481 0
       vertex 0.255549 -0.241481 0.1
       vertex 0.223475 -0.247861 0.1
    endloop
  endfacet
  facet normal 0.195096 -0.980784 0
    outer loop
       vertex 0.223475 -0.247861 0.1
       vertex 0.223475 -0.247861 0
       vertex 0.255549 -0.241481 0
    endloop
  endfacet
  facet normal 0.0654098 -0.997858 0
    outer loop
       vertex 0.190844 -0.25 0
       vertex 0.223475 -0.247861 0
       vertex 0.223475 -0.247861 0.1
    endloop
  endfacet
  facet normal 0.0654098 -0.997858 1.0893e-16
    outer loop
       vertex 0.223475 -0.247861 0.1
       vertex 0.190844 -0.25 0.1
       vertex 0.190844 -0.25 0
    endloop
  endfacet
  facet normal -0.0654098 -0.997858 0
    outer loop
       vertex 0.190844 -0.25 0.1
       vertex 0.158212 -0.247861 0.1
       vertex 0.158212 -0.247861 0
    endloop
  endfacet
  facet normal -0.0654098 -0.997858 -1.0893e-16
    outer loop
       vertex 0.158212 -0.247861 0
       vertex 0.190844 -0.25 0
       vertex 0.190844 -0.25 0.1
    endloop
  endfacet
  facet normal -0.195096 -0.980784 0
    outer loop
       vertex 0.158212 -0.247861 0
       vertex 0.158212 -0.247861 0.1
       vertex 0.126139 -0.241481 0.1
    endloop
  endfacet
  facet normal -0.195096 -0.980784 -0
    outer loop
       vertex 0.126139 -0.241481 0.1
       vertex 0.126139 -0.241481 0
       vertex 0.158212 -0.247861 0
    endloop
  endfacet
  facet normal -0.321425 -0.946935 0
    outer loop
       vertex 0.126139 -0.241481 0
       vertex 0.126139 -0.241481 0.1
       vertex 0.0951727 -0.23097 0.1
    endloop
  endfacet
  facet normal -0.321425 -0.946935 -0
    outer loop
       vertex 0.0951727 -0.23097 0.1
       vertex 0.0951727 -0.23097 0
       vertex 0.126139 -0.241481 0
    endloop
  endfacet
  facet normal -0.442302 -0.896866 0
    outer loop
       vertex 0.0951727 -0.23097 0
       vertex 0.0951727 -0.23097 0.1
       vertex 0.0658437 -0.216506 0.1
    endloop
  endfacet
  facet normal -0.442302 -0.896866 -0
    outer loop
       vertex 0.0658437 -0.216506 0.1
       vertex 0.0658437 -0.216506 0
       vertex 0.0951727 -0.23097 0
    endloop
  endfacet
  facet normal -0.555561 -0.831476 0
    outer loop
       vertex 0.0658437 -0.216506 0
       vertex 0.0658437 -0.216506 0.1
       vertex 0.0386527 -0.198338 0.1
    endloop
  endfacet
  facet normal -0.555561 -0.831476 -0
    outer loop
       vertex 0.0386527 -0.198338 0.1
       vertex 0.0386527 -0.198338 0
       vertex 0.0658437 -0.216506 0
    endloop
  endfacet
  facet normal -0.659372 -0.751817 0
    outer loop
       vertex 0.0386527 -0.198338 0
       vertex 0.0386527 -0.198338 0.1
       vertex 0.0140677 -0.176776 0.1
    endloop
  endfacet
  facet normal -0.659372 -0.751817 -0
    outer loop
       vertex 0.0140677 -0.176776 0.1
       vertex 0.0140677 -0.176776 0
       vertex 0.0386527 -0.198338 0
    endloop
  endfacet
endsolid cylinder
