solid cylinder
  facet normal 0.751817 -0.659372 0
    outer loop
       vertex 0.155242 -0.176776 0
       vertex 0.176804 -0.152191 0
       vertex 0.176804 -0.152191 0.1
    endloop
  endfacet
  facet normal 0.751817 -0.659372 0
    outer loop
       vertex 0.176804 -0.152191 0.1
       vertex 0.155242 -0.176776 0.1
       vertex 0.155242 -0.176776 0
    endloop
  endfacet
  facet normal 0.831476 -0.555561 0
    outer loop
       vertex 0.176804 -0.152191 0
       vertex 0.194972 -0.125 0
       vertex 0.194972 -0.125 0.1
    endloop
  endfacet
  facet normal 0.831476 -0.555561 0
    outer loop
       vertex 0.194972 -0.125 0.1
       vertex 0.176804 -0.152191 0.1
       vertex 0.176804 -0.152191 0
    endloop
  endfacet
  facet normal 0.896866 -0.442302 0
    outer loop
       vertex 0.194972 -0.125 0
       vertex 0.209436 -0.095671 0
       vertex 0.209436 -0.095671 0.1
    endloop
  endfacet
  facet normal 0.896866 -0.442302 0
    outer loop
       vertex 0.209436 -0.095671 0.1
       vertex 0.194972 -0.125 0.1
       vertex 0.194972 -0.125 0
    endloop
  endfacet
  facet normal 0.946935 -0.321425 0
    outer loop
       vertex 0.209436 -0.095671 0
       vertex 0.219947 -0.064705 0
       vertex 0.219947 -0.064705 0.1
    endloop
  endfacet
  facet normal 0.946935 -0.321425 0
    outer loop
       vertex 0.219947 -0.064705 0.1
       vertex 0.209436 -0.095671 0.1
       vertex 0.209436 -0.095671 0
    endloop
  endfacet
  facet normal 0.980784 -0.195096 0
    outer loop
       vertex 0.219947 -0.064705 0
       vertex 0.226327 -0.0326315 0
       vertex 0.226327 -0.0326315 0.1
    endloop
  endfacet
  facet normal 0.980784 -0.195096 0
    outer loop
       vertex 0.226327 -0.0326315 0.1
       vertex 0.219947 -0.064705 0.1
       vertex 0.219947 -0.064705 0
    endloop
  endfacet
  facet normal 0.997858 -0.0654098 0
    outer loop
       vertex 0.228466 -8.32665e-17 0.1
       vertex 0.226327 -0.0326315 0.1
       vertex 0.226327 -0.0326315 0
    endloop
  endfacet
  facet normal 0.997858 -0.0654098 -1.08928e-16
    outer loop
       vertex 0.226327 -0.0326315 0
       vertex 0.228466 8.32665e-17 0
       vertex 0.228466 -8.32665e-17 0.1
    endloop
  endfacet
  facet normal 0.997858 0.0654098 0
    outer loop
       vertex 0.228466 8.32665e-17 0
       vertex 0.226327 0.0326315 0
       vertex 0.226327 0.0326315 0.1
    endloop
  endfacet
  facet normal 0.997858 0.0654098 1.08928e-16
    outer loop
       vertex 0.226327 0.0326315 0.1
       vertex 0.228466 -8.32665e-17 0.1
       vertex 0.228466 8.32665e-17 0
    endloop
  endfacet
  facet normal 0.980784 0.195096 0
    outer loop
       vertex 0.226327 0.0326315 0
       vertex 0.219947 0.064705 0
       vertex 0.219947 0.064705 0.1
    endloop
  endfacet
  facet normal 0.980784 0.195096 0
    outer loop
       vertex 0.219947 0.064705 0.1
       vertex 0.226327 0.0326315 0.1
       vertex 0.226327 0.0326315 0
    endloop
  endfacet
  facet normal 0.946935 0.321425 0
    outer loop
       vertex 0.219947 0.064705 0
       vertex 0.209436 0.095671 0
       vertex 0.209436 0.095671 0.1
    endloop
  endfacet
  facet normal 0.946935 0.321425 0
    outer loop
       vertex 0.209436 0.095671 0.1
       vertex 0.219947 0.064705 0.1
       vertex 0.219947 0.064705 0
    endloop
  endfacet
  facet normal 0.896866 0.442302 0
    outer loop
       vertex 0.209436 0.095671 0
       vertex 0.194972 0.125 0
       vertex 0.194972 0.125 0.1
    endloop
  endfacet
  facet normal 0.896866 0.442302 0
    outer loop
       vertex 0.194972 0.125 0.1
       vertex 0.209436 0.095671 0.1
       vertex 0.209436 0.095671 0
    endloop
  endfacet
  facet normal 0.831476 0.555561 0
    outer loop
       vertex 0.194972 0.125 0
       vertex 0.176804 0.152191 0
       vertex 0.176804 0.152191 0.1
    endloop
  endfacet
  facet normal 0.831476 0.555561 0
    outer loop
       vertex 0.176804 0.152191 0.1
       vertex 0.194972 0.125 0.1
       vertex 0.194972 0.125 0
    endloop
  endfacet
  facet normal 0.751817 0.659372 0
    outer loop
       vertex 0.176804 0.152191 0
       vertex 0.155242 0.176776 0
       vertex 0.155242 0.176776 0.1
    endloop
  endfacet
  facet normal 0.751817 0.659372 0
    outer loop
       vertex 0.155242 0.176776 0.1
       vertex 0.176804 0.152191 0.1
       vertex 0.176804 0.152191 0
    endloop
  endfacet
  facet normal 0.659372 0.751817 0
    outer loop
       vertex 0.155242 0.176776 0
       vertex 0.130657 0.198338 0
       vertex 0.130657 0.198338 0.1
    endloop
  endfacet
  facet normal 0.659372 0.751817 0
    outer loop
       vertex 0.130657 0.198338 0.1
       vertex 0.155242 0.176776 0.1
       vertex 0.155242 0.176776 0
    endloop
  endfacet
  facet normal 0.555561 0.831476 0
    outer loop
       vertex 0.130657 0.198338 0
       vertex 0.103466 0.216506 0
       vertex 0.103466 0.216506 0.1
    endloop
  endfacet
  facet normal 0.555561 0.831476 0
    outer loop
       vertex 0.103466 0.216506 0.1
       vertex 0.130657 0.198338 0.1
       vertex 0.130657 0.198338 0
    endloop
  endfacet
  facet normal 0.442302 0.896866 0
    outer loop
       vertex 0.103466 0.216506 0
       vertex 0.0741374 0.23097 0
       vertex 0.0741374 0.23097 0.1
    endloop
  endfacet
  facet normal 0.442302 0.896866 0
    outer loop
       vertex 0.0741374 0.23097 0.1
       vertex 0.103466 0.216506 0.1
       vertex 0.103466 0.216506 0
    endloop
  endfacet
  facet normal 0.321425 0.946935 0
    outer loop
       vertex 0.0741374 0.23097 0
       vertex 0.0431714 0.241481 0
       vertex 0.0431714 0.241481 0.1
    endloop
  endfacet
  facet normal 0.321425 0.946935 0
    outer loop
       vertex 0.0431714 0.241481 0.1
       vertex 0.0741374 0.23097 0.1
       vertex 0.0741374 0.23097 0
    endloop
  endfacet
  facet normal 0.195096 0.980784 0
    outer loop
       vertex 0.0431714 0.241481 0
       vertex 0.0110979 0.247861 0
       vertex 0.0110979 0.247861 0.1
    endloop
  endfacet
  facet normal 0.195096 0.980784 0
    outer loop
       vertex 0.0110979 0.247861 0.1
       vertex 0.0431714 0.241481 0.1
       vertex 0.0431714 0.241481 0
    endloop
  endfacet
  facet normal 0.0654098 0.997858 0
    outer loop
       vertex -0.0215336 0.25 0.1
       vertex 0.0110979 0.247861 0.1
       vertex 0.0110979 0.247861 0
    endloop
  endfacet
  facet normal 0.0654098 0.997858 -1.08928e-16
    outer loop
       vertex 0.0110979 0.247861 0
       vertex -0.0215336 0.25 0
       vertex -0.0215336 0.25 0.1
    endloop
  endfacet
  facet normal -0.0654098 0.997858 0
    outer loop
       vertex -0.0215336 0.25 0
       vertex -0.0541651 0.247861 0
       vertex -0.0541651 0.247861 0.1
    endloop
  endfacet
  facet normal -0.0654098 0.997858 1.08928e-16
    outer loop
       vertex -0.0541651 0.247861 0.1
       vertex -0.0215336 0.25 0.1
       vertex -0.0215336 0.25 0
    endloop
  endfacet
  facet normal -0.195096 0.980784 0
    outer loop
       vertex -0.0541651 0.247861 0
       vertex -0.0862386 0.241481 0
       vertex -0.0862386 0.241481 0.1
    endloop
  endfacet
  facet normal -0.195096 0.980784 0
    outer loop
       vertex -0.0862386 0.241481 0.1
       vertex -0.0541651 0.247861 0.1
       vertex -0.0541651 0.247861 0
    endloop
  endfacet
  facet normal -0.321425 0.946935 0
    outer loop
       vertex -0.0862386 0.241481 0
       vertex -0.117205 0.23097 0
       vertex -0.117205 0.23097 0.1
    endloop
  endfacet
  facet normal -0.321425 0.946935 0
    outer loop
       vertex -0.117205 0.23097 0.1
       vertex -0.0862386 0.241481 0.1
       vertex -0.0862386 0.241481 0
    endloop
  endfacet
  facet normal -0.442302 0.896866 0
    outer loop
       vertex -0.117205 0.23097 0
       vertex -0.146534 0.216506 0
       vertex -0.146534 0.216506 0.1
    endloop
  endfacet
  facet normal -0.442302 0.896866 0
    outer loop
       vertex -0.146534 0.216506 0.1
       vertex -0.117205 0.23097 0.1
       vertex -0.117205 0.23097 0
    endloop
  endfacet
  facet normal -0.555561 0.831476 0
    outer loop
       vertex -0.146534 0.216506 0
       vertex -0.173725 0.198338 0
       vertex -0.173725 0.198338 0.1
    endloop
  endfacet
  facet normal -0.555561 0.831476 0
    outer loop
       vertex -0.173725 0.198338 0.1
       vertex -0.146534 0.216506 0.1
       vertex -0.146534 0.216506 0
    endloop
  endfacet
  facet normal -0.659372 0.751817 0
    outer loop
       vertex -0.173725 0.198338 0
       vertex -0.19831 0.176776 0
       vertex -0.19831 0.176776 0.1
    endloop
  endfacet
  facet normal -0.659372 0.751817 0
    outer loop
       vertex -0.19831 0.176776 0.1
       vertex -0.173725 0.198338 0.1
       vertex -0.173725 0.198338 0
    endloop
  endfacet
  facet normal -0.751817 0.659372 0
    outer loop
       vertex -0.19831 0.176776 0
       vertex -0.219872 0.152191 0
       vertex -0.219872 0.152191 0.1
    endloop
  endfacet
  facet normal -0.751817 0.659372 0
    outer loop
       vertex -0.219872 0.152191 0.1
       vertex -0.19831 0.176776 0.1
       vertex -0.19831 0.176776 0
    endloop
  endfacet
  facet normal -0.831476 0.555561 0
    outer loop
       vertex -0.219872 0.152191 0
       vertex -0.23804 0.125 0
       vertex -0.23804 0.125 0.1
    endloop
  endfacet
  facet normal -0.831476 0.555561 0
    outer loop
       vertex -0.23804 0.125 0.1
       vertex -0.219872 0.152191 0.1
       vertex -0.219872 0.152191 0
    endloop
  endfacet
  facet normal -0.896866 0.442302 0
    outer loop
       vertex -0.23804 0.125 0
       vertex -0.252504 0.095671 0
       vertex -0.252504 0.095671 0.1
    endloop
  endfacet
  facet normal -0.896866 0.442302 0
    outer loop
       vertex -0.252504 0.095671 0.1
       vertex -0.23804 0.125 0.1
       vertex -0.23804 0.125 0
    endloop
  endfacet
  facet normal -0.946935 0.321425 0
    outer loop
       vertex -0.252504 0.095671 0
       vertex -0.263015 0.064705 0
       vertex -0.263015 0.064705 0.1
    endloop
  endfacet
  facet normal -0.946935 0.321425 0
    outer loop
       vertex -0.263015 0.064705 0.1
       vertex -0.252504 0.095671 0.1
       vertex -0.252504 0.095671 0
    endloop
  endfacet
  facet normal -0.980784 0.195096 0
    outer loop
       vertex -0.263015 0.064705 0
       vertex -0.269395 0.0326315 0
       vertex -0.269395 0.0326315 0.1
    endloop
  endfacet
  facet normal -0.980784 0.195096 0
    outer loop
       vertex -0.269395 0.0326315 0.1
       vertex -0.263015 0.064705 0.1
       vertex -0.263015 0.064705 0
    endloop
  endfacet
  facet normal -0.997858 0.0654098 0
    outer loop
       vertex -0.271534 8.32665e-17 0.1
       vertex -0.269395 0.0326315 0.1
       vertex -0.269395 0.0326315 0
    endloop
  endfacet
  facet normal -0.997858 0.0654098 -1.08928e-16
    outer loop
       vertex -0.269395 0.0326315 0
       vertex -0.271534 -8.32665e-17 0
       vertex -0.271534 8.32665e-17 0.1
    endloop
  endfacet
  facet normal -0.997858 -0.0654098 0
    outer loop
       vertex -0.271534 -8.32665e-17 0
       vertex -0.269395 -0.0326315 0
       vertex -0.269395 -0.0326315 0.1
    endloop
  endfacet
  facet normal -0.997858 -0.0654098 1.08928e-16
    outer loop
       vertex -0.269395 -0.0326315 0.1
       vertex -0.271534 8.32665e-17 0.1
       vertex -0.271534 -8.32665e-17 0
    endloop
  endfacet
  facet normal -0.980784 -0.195096 0
    outer loop
       vertex -0.269395 -0.0326315 0
       vertex -0.263015 -0.064705 0
       vertex -0.263015 -0.064705 0.1
    endloop
  endfacet
  facet normal -0.980784 -0.195096 0
    outer loop
       vertex -0.263015 -0.064705 0.1
       vertex -0.269395 -0.0326315 0.1
       vertex -0.269395 -0.0326315 0
    endloop
  endfacet
  facet normal -0.946935 -0.321425 0
    outer loop
       vertex -0.263015 -0.064705 0
       vertex -0.252504 -0.095671 0
       vertex -0.252504 -0.095671 0.1
    endloop
  endfacet
  facet normal -0.946935 -0.321425 0
    outer loop
       vertex -0.252504 -0.095671 0.1
       vertex -0.263015 -0.064705 0.1
       vertex -0.263015 -0.064705 0
    endloop
  endfacet
  facet normal -0.896866 -0.442302 0
    outer loop
       vertex -0.252504 -0.095671 0
       vertex -0.23804 -0.125 0
       vertex -0.23804 -0.125 0.1
    endloop
  endfacet
  facet normal -0.896866 -0.442302 0
    outer loop
       vertex -0.23804 -0.125 0.1
       vertex -0.252504 -0.095671 0.1
       vertex -0.252504 -0.095671 0
    endloop
  endfacet
  facet normal -0.831476 -0.555561 0
    outer loop
       vertex -0.23804 -0.125 0
       vertex -0.219872 -0.152191 0
       vertex -0.219872 -0.152191 0.1
    endloop
  endfacet
  facet normal -0.831476 -0.555561 0
    outer loop
       vertex -0.219872 -0.152191 0.1
       vertex -0.23804 -0.125 0.1
       vertex -0.23804 -0.125 0
    endloop
  endfacet
  facet normal -0.751817 -0.659372 0
    outer loop
       vertex -0.219872 -0.152191 0
       vertex -0.19831 -0.176776 0
       vertex -0.19831 -0.176776 0.1
    endloop
  endfacet
  facet normal -0.751817 -0.659372 0
    outer loop
       vertex -0.19831 -0.176776 0.1
       vertex -0.219872 -0.152191 0.1
       vertex -0.219872 -0.152191 0
    endloop
  endfacet
  facet normal 0.659372 -0.751817 0
    outer loop
       vertex 0.155242 -0.176776 0
       vertex 0.155242 -0.176776 0.1
       vertex 0.130657 -0.198338 0.1
    endloop
  endfacet
  facet normal 0.659372 -0.751817 0
    outer loop
       vertex 0.130657 -0.198338 0.1
       vertex 0.130657 -0.198338 0
       vertex 0.155242 -0.176776 0
    endloop
  endfacet
  facet normal 0.555561 -0.831476 0
    outer loop
       vertex 0.130657 -0.198338 0
       vertex 0.130657 -0.198338 0.1
       vertex 0.103466 -0.216506 0.1
    endloop
  endfacet
  facet normal 0.555561 -0.831476 0
    outer loop
       vertex 0.103466 -0.216506 0.1
       vertex 0.103466 -0.216506 0
       vertex 0.130657 -0.198338 0
    endloop
  endfacet
  facet normal 0.442302 -0.896866 0
    outer loop
       vertex 0.103466 -0.216506 0
       vertex 0.103466 -0.216506 0.1
       vertex 0.0741374 -0.23097 0.1
    endloop
  endfacet
  facet normal 0.442302 -0.896866 0
    outer loop
       vertex 0.0741374 -0.23097 0.1
       vertex 0.0741374 -0.23097 0
       vertex 0.103466 -0.216506 0
    endloop
  endfacet
  facet normal 0.321425 -0.946935 0
    outer loop
       vertex 0.0741374 -0.23097 0
       vertex 0.0741374 -0.23097 0.1
       vertex 0.0431714 -0.241481 0.1
    endloop
  endfacet
  facet normal 0.321425 -0.946935 0
    outer loop
       vertex 0.0431714 -0.241481 0.1
       vertex 0.0431714 -0.241481 0
       vertex 0.0741374 -0.23097 0
    endloop
  endfacet
  facet normal 0.195096 -0.980784 0
    outer loop
       vertex 0.0431714 -0.241481 0
       vertex 0.0431714 -0.241481 0.1
       vertex 0.0110979 -0.247861 0.1
    endloop
  endfacet
  facet normal 0.195096 -0.980784 0
    outer loop
       vertex 0.0110979 -0.247861 0.1
       vertex 0.0110979 -0.247861 0
       vertex 0.0431714 -0.241481 0
    endloop
  endfacet
  facet normal 0.0654098 -0.997858 0
    outer loop
       vertex -0.0215336 -0.25 0
       vertex 0.0110979 -0.247861 0
       vertex 0.0110979 -0.247861 0.1
    endloop
  endfacet
  facet normal 0.0654098 -0.997858 1.08928e-16
    outer loop
       vertex 0.0110979 -0.247861 0.1
       vertex -0.0215336 -0.25 0.1
       vertex -0.0215336 -0.25 0
    endloop
  endfacet
  facet normal -0.0654098 -0.997858 0
    outer loop
       vertex -0.0215336 -0.25 0.1
       vertex -0.0541651 -0.247861 0.1
       vertex -0.0541651 -0.247861 0
    endloop
  endfacet
  facet normal -0.0654098 -0.997858 -1.08928e-16
    outer loop
       vertex -0.0541651 -0.247861 0
       vertex -0.0215336 -0.25 0
       vertex -0.0215336 -0.25 0.1
    endloop
  endfacet
  facet normal -0.195096 -0.980784 0
    outer loop
       vertex -0.0541651 -0.247861 0
       vertex -0.0541651 -0.247861 0.1
       vertex -0.0862386 -0.241481 0.1
    endloop
  endfacet
  facet normal -0.195096 -0.980784 -0
    outer loop
       vertex -0.0862386 -0.241481 0.1
       vertex -0.0862386 -0.241481 0
       vertex -0.0541651 -0.247861 0
    endloop
  endfacet
  facet normal -0.321425 -0.946935 0
    outer loop
       vertex -0.0862386 -0.241481 0
       vertex -0.0862386 -0.241481 0.1
       vertex -0.117205 -0.23097 0.1
    endloop
  endfacet
  facet normal -0.321425 -0.946935 -0
    outer loop
       vertex -0.117205 -0.23097 0.1
       vertex -0.117205 -0.23097 0
       vertex -0.0862386 -0.241481 0
    endloop
  endfacet
  facet normal -0.442302 -0.896866 0
    outer loop
       vertex -0.117205 -0.23097 0
       vertex -0.117205 -0.23097 0.1
       vertex -0.146534 -0.216506 0.1
    endloop
  endfacet
  facet normal -0.442302 -0.896866 -0
    outer loop
       vertex -0.146534 -0.216506 0.1
       vertex -0.146534 -0.216506 0
       vertex -0.117205 -0.23097 0
    endloop
  endfacet
  facet normal -0.555561 -0.831476 0
    outer loop
       vertex -0.146534 -0.216506 0
       vertex -0.146534 -0.216506 0.1
       vertex -0.173725 -0.198338 0.1
    endloop
  endfacet
  facet normal -0.555561 -0.831476 -0
    outer loop
       vertex -0.173725 -0.198338 0.1
       vertex -0.173725 -0.198338 0
       vertex -0.146534 -0.216506 0
    endloop
  endfacet
  facet normal -0.659372 -0.751817 0
    outer loop
       vertex -0.173725 -0.198338 0
       vertex -0.173725 -0.198338 0.1
       vertex -0.19831 -0.176776 0.1
    endloop
  endfacet
  facet normal -0.659372 -0.751817 -0
    outer loop
       vertex -0.19831 -0.176776 0.1
       vertex -0.19831 -0.176776 0
       vertex -0.173725 -0.198338 0
    endloop
  endfacet
endsolid cylinder
