solid cylinder
  facet normal 0.751817 -0.659372 0
    outer loop
       vertex 0.393912 -0.176776 0
       vertex 0.415474 -0.152191 0
       vertex 0.415474 -0.152191 0.1
    endloop
  endfacet
  facet normal 0.751817 -0.659372 0
    outer loop
       vertex 0.415474 -0.152191 0.1
       vertex 0.393912 -0.176776 0.1
       vertex 0.393912 -0.176776 0
    endloop
  endfacet
  facet normal 0.831476 -0.555561 0
    outer loop
       vertex 0.415474 -0.152191 0
       vertex 0.433642 -0.125 0
       vertex 0.433642 -0.125 0.1
    endloop
  endfacet
  facet normal 0.831476 -0.555561 0
    outer loop
       vertex 0.433642 -0.125 0.1
       vertex 0.415474 -0.152191 0.1
       vertex 0.415474 -0.152191 0
    endloop
  endfacet
  facet normal 0.896866 -0.442302 0
    outer loop
       vertex 0.433642 -0.125 0
       vertex 0.448106 -0.095671 0
       vertex 0.448106 -0.095671 0.1
    endloop
  endfacet
  facet normal 0.896866 -0.442302 0
    outer loop
       vertex 0.448106 -0.095671 0.1
       vertex 0.433642 -0.125 0.1
       vertex 0.433642 -0.125 0
    endloop
  endfacet
  facet normal 0.946935 -0.321425 0
    outer loop
       vertex 0.448106 -0.095671 0
       vertex 0.458617 -0.064705 0
       vertex 0.458617 -0.064705 0.1
    endloop
  endfacet
  facet normal 0.946935 -0.321425 0
    outer loop
       vertex 0.458617 -0.064705 0.1
       vertex 0.448106 -0.095671 0.1
       vertex 0.448106 -0.095671 0
    endloop
  endfacet
  facet normal 0.980784 -0.195096 0
    outer loop
       vertex 0.458617 -0.064705 0
       vertex 0.464997 -0.0326315 0
       vertex 0.464997 -0.0326315 0.1
    endloop
  endfacet
  facet normal 0.980784 -0.195096 0
    outer loop
       vertex 0.464997 -0.0326315 0.1
       vertex 0.458617 -0.064705 0.1
       vertex 0.458617 -0.064705 0
    endloop
  endfacet
  facet normal 0.997858 -0.0654098 0
    outer loop
       vertex 0.467136 -8.32665e-17 0.1
       vertex 0.464997 -0.0326315 0.1
       vertex 0.464997 -0.0326315 0
    endloop
  endfacet
  facet normal 0.997858 -0.0654098 -1.08928e-16
    outer loop
       vertex 0.464997 -0.0326315 0
       vertex 0.467136 8.32665e-17 0
       vertex 0.467136 -8.32665e-17 0.1
    endloop
  endfacet
  facet normal 0.997858 0.0654098 0
    outer loop
       vertex 0.467136 8.32665e-17 0
       vertex 0.464997 0.0326315 0
       vertex 0.464997 0.0326315 0.1
    endloop
  endfacet
  facet normal 0.997858 0.0654098 1.08928e-16
    outer loop
       vertex 0.464997 0.0326315 0.1
       vertex 0.467136 -8.32665e-17 0.1
       vertex 0.467136 8.32665e-17 0
    endloop
  endfacet
  facet normal 0.980784 0.195096 0
    outer loop
       vertex 0.464997 0.0326315 0
       vertex 0.458617 0.064705 0
       vertex 0.458617 0.064705 0.1
    endloop
  endfacet
  facet normal 0.980784 0.195096 0
    outer loop
       vertex 0.458617 0.064705 0.1
       vertex 0.464997 0.0326315 0.1
       vertex 0.464997 0.0326315 0
    endloop
  endfacet
  facet normal 0.946935 0.321425 0
    outer loop
       vertex 0.458617 0.064705 0
       vertex 0.448106 0.095671 0
       vertex 0.448106 0.095671 0.1
    endloop
  endfacet
  facet normal 0.946935 0.321425 0
    outer loop
       vertex 0.448106 0.095671 0.1
       vertex 0.458617 0.064705 0.1
       vertex 0.458617 0.064705 0
    endloop
  endfacet
  facet normal 0.896866 0.442302 0
    outer loop
       vertex 0.448106 0.095671 0
       vertex 0.433642 0.125 0
       vertex 0.433642 0.125 0.1
    endloop
  endfacet
  facet normal 0.896866 0.442302 0
    outer loop
       vertex 0.433642 0.125 0.1
       vertex 0.448106 0.095671 0.1
       vertex 0.448106 0.095671 0
    endloop
  endfacet
  facet normal 0.831476 0.555561 0
    outer loop
       vertex 0.433642 0.125 0
       vertex 0.415474 0.152191 0
       vertex 0.415474 0.152191 0.1
    endloop
  endfacet
  facet normal 0.831476 0.555561 0
    outer loop
       vertex 0.415474 0.152191 0.1
       vertex 0.433642 0.125 0.1
       vertex 0.433642 0.125 0
    endloop
  endfacet
  facet normal 0.751817 0.659372 0
    outer loop
       vertex 0.415474 0.152191 0
       vertex 0.393912 0.176776 0
       vertex 0.393912 0.176776 0.1
    endloop
  endfacet
  facet normal 0.751817 0.659372 0
    outer loop
       vertex 0.393912 0.176776 0.1
       vertex 0.415474 0.152191 0.1
       vertex 0.415474 0.152191 0
    endloop
  endfacet
  facet normal 0.659372 0.751817 0
    outer loop
       vertex 0.393912 0.176776 0
       vertex 0.369327 0.198338 0
       vertex 0.369327 0.198338 0.1
    endloop
  endfacet
  facet normal 0.659372 0.751817 0
    outer loop
       vertex 0.369327 0.198338 0.1
       vertex 0.393912 0.176776 0.1
       vertex 0.393912 0.176776 0
    endloop
  endfacet
  facet normal 0.555561 0.831476 0
    outer loop
       vertex 0.369327 0.198338 0
       vertex 0.342136 0.216506 0
       vertex 0.342136 0.216506 0.1
    endloop
  endfacet
  facet normal 0.555561 0.831476 0
    outer loop
       vertex 0.342136 0.216506 0.1
       vertex 0.369327 0.198338 0.1
       vertex 0.369327 0.198338 0
    endloop
  endfacet
  facet normal 0.442302 0.896866 0
    outer loop
       vertex 0.342136 0.216506 0
       vertex 0.312807 0.23097 0
       vertex 0.312807 0.23097 0.1
    endloop
  endfacet
  facet normal 0.442302 0.896866 0
    outer loop
       vertex 0.312807 0.23097 0.1
       vertex 0.342136 0.216506 0.1
       vertex 0.342136 0.216506 0
    endloop
  endfacet
  facet normal 0.321425 0.946935 0
    outer loop
       vertex 0.312807 0.23097 0
       vertex 0.281841 0.241481 0
       vertex 0.281841 0.241481 0.1
    endloop
  endfacet
  facet normal 0.321425 0.946935 0
    outer loop
       vertex 0.281841 0.241481 0.1
       vertex 0.312807 0.23097 0.1
       vertex 0.312807 0.23097 0
    endloop
  endfacet
  facet normal 0.195096 0.980784 0
    outer loop
       vertex 0.281841 0.241481 0
       vertex 0.249767 0.247861 0
       vertex 0.249767 0.247861 0.1
    endloop
  endfacet
  facet normal 0.195096 0.980784 0
    outer loop
       vertex 0.249767 0.247861 0.1
       vertex 0.281841 0.241481 0.1
       vertex 0.281841 0.241481 0
    endloop
  endfacet
  facet normal 0.0654098 0.997858 0
    outer loop
       vertex 0.217136 0.25 0.1
       vertex 0.249767 0.247861 0.1
       vertex 0.249767 0.247861 0
    endloop
  endfacet
  facet normal 0.0654098 0.997858 -1.0893e-16
    outer loop
       vertex 0.249767 0.247861 0
       vertex 0.217136 0.25 0
       vertex 0.217136 0.25 0.1
    endloop
  endfacet
  facet normal -0.0654098 0.997858 0
    outer loop
       vertex 0.217136 0.25 0
       vertex 0.184504 0.247861 0
       vertex 0.184504 0.247861 0.1
    endloop
  endfacet
  facet normal -0.0654098 0.997858 1.0893e-16
    outer loop
       vertex 0.184504 0.247861 0.1
       vertex 0.217136 0.25 0.1
       vertex 0.217136 0.25 0
    endloop
  endfacet
  facet normal -0.195096 0.980784 0
    outer loop
       vertex 0.184504 0.247861 0
       vertex 0.152431 0.241481 0
       vertex 0.152431 0.241481 0.1
    endloop
  endfacet
  facet normal -0.195096 0.980784 0
    outer loop
       vertex 0.152431 0.241481 0.1
       vertex 0.184504 0.247861 0.1
       vertex 0.184504 0.247861 0
    endloop
  endfacet
  facet normal -0.321425 0.946935 0
    outer loop
       vertex 0.152431 0.241481 0
       vertex 0.121465 0.23097 0
       vertex 0.121465 0.23097 0.1
    endloop
  endfacet
  facet normal -0.321425 0.946935 0
    outer loop
       vertex 0.121465 0.23097 0.1
       vertex 0.152431 0.241481 0.1
       vertex 0.152431 0.241481 0
    endloop
  endfacet
  facet normal -0.442302 0.896866 0
    outer loop
       vertex 0.121465 0.23097 0
       vertex 0.092136 0.216506 0
       vertex 0.092136 0.216506 0.1
    endloop
  endfacet
  facet normal -0.442302 0.896866 0
    outer loop
       vertex 0.092136 0.216506 0.1
       vertex 0.121465 0.23097 0.1
       vertex 0.121465 0.23097 0
    endloop
  endfacet
  facet normal -0.555561 0.831476 0
    outer loop
       vertex 0.092136 0.216506 0
       vertex 0.064945 0.198338 0
       vertex 0.064945 0.198338 0.1
    endloop
  endfacet
  facet normal -0.555561 0.831476 0
    outer loop
       vertex 0.064945 0.198338 0.1
       vertex 0.092136 0.216506 0.1
       vertex 0.092136 0.216506 0
    endloop
  endfacet
  facet normal -0.659372 0.751817 0
    outer loop
       vertex 0.064945 0.198338 0
       vertex 0.04036 0.176776 0
       vertex 0.04036 0.176776 0.1
    endloop
  endfacet
  facet normal -0.659372 0.751817 0
    outer loop
       vertex 0.04036 0.176776 0.1
       vertex 0.064945 0.198338 0.1
       vertex 0.064945 0.198338 0
    endloop
  endfacet
  facet normal -0.751817 0.659372 0
    outer loop
       vertex 0.04036 0.176776 0
       vertex 0.018798 0.152191 0
       vertex 0.018798 0.152191 0.1
    endloop
  endfacet
  facet normal -0.751817 0.659372 0
    outer loop
       vertex 0.018798 0.152191 0.1
       vertex 0.04036 0.176776 0.1
       vertex 0.04036 0.176776 0
    endloop
  endfacet
  facet normal -0.831476 0.555561 0
    outer loop
       vertex 0.018798 0.152191 0
       vertex 0.000629999 0.125 0
       vertex 0.000629999 0.125 0.1
    endloop
  endfacet
  facet normal -0.831476 0.555561 0
    outer loop
       vertex 0.000629999 0.125 0.1
       vertex 0.018798 0.152191 0.1
       vertex 0.018798 0.152191 0
    endloop
  endfacet
  facet normal -0.896866 0.442302 0
    outer loop
       vertex 0.000629999 0.125 0
       vertex -0.013834 0.095671 0
       vertex -0.013834 0.095671 0.1
    endloop
  endfacet
  facet normal -0.896866 0.442302 0
    outer loop
       vertex -0.013834 0.095671 0.1
       vertex 0.000629999 0.125 0.1
       vertex 0.000629999 0.125 0
    endloop
  endfacet
  facet normal -0.946935 0.321425 0
    outer loop
       vertex -0.013834 0.095671 0
       vertex -0.024345 0.064705 0
       vertex -0.024345 0.064705 0.1
    endloop
  endfacet
  facet normal -0.946935 0.321425 0
    outer loop
       vertex -0.024345 0.064705 0.1
       vertex -0.013834 0.095671 0.1
       vertex -0.013834 0.095671 0
    endloop
  endfacet
  facet normal -0.980784 0.195096 0
    outer loop
       vertex -0.024345 0.064705 0
       vertex -0.030725 0.0326315 0
       vertex -0.030725 0.0326315 0.1
    endloop
  endfacet
  facet normal -0.980784 0.195096 0
    outer loop
       vertex -0.030725 0.0326315 0.1
       vertex -0.024345 0.064705 0.1
       vertex -0.024345 0.064705 0
    endloop
  endfacet
  facet normal -0.997858 0.0654098 0
    outer loop
       vertex -0.032864 8.32665e-17 0.1
       vertex -0.030725 0.0326315 0.1
       vertex -0.030725 0.0326315 0
    endloop
  endfacet
  facet normal -0.997858 0.0654098 -1.08928e-16
    outer loop
       vertex -0.030725 0.0326315 0
       vertex -0.032864 -8.32665e-17 0
       vertex -0.032864 8.32665e-17 0.1
    endloop
  endfacet
  facet normal -0.997858 -0.0654098 0
    outer loop
       vertex -0.032864 -8.32665e-17 0
       vertex -0.030725 -0.0326315 0
       vertex -0.030725 -0.0326315 0.1
    endloop
  endfacet
  facet normal -0.997858 -0.0654098 1.08928e-16
    outer loop
       vertex -0.030725 -0.0326315 0.1
       vertex -0.032864 8.32665e-17 0.1
       vertex -0.032864 -8.32665e-17 0
    endloop
  endfacet
  facet normal -0.980784 -0.195096 0
    outer loop
       vertex -0.030725 -0.0326315 0
       vertex -0.024345 -0.064705 0
       vertex -0.024345 -0.064705 0.1
    endloop
  endfacet
  facet normal -0.980784 -0.195096 0
    outer loop
       vertex -0.024345 -0.064705 0.1
       vertex -0.030725 -0.0326315 0.1
       vertex -0.030725 -0.0326315 0
    endloop
  endfacet
  facet normal -0.946935 -0.321425 0
    outer loop
       vertex -0.024345 -0.064705 0
       vertex -0.013834 -0.095671 0
       vertex -0.013834 -0.095671 0.1
    endloop
  endfacet
  facet normal -0.946935 -0.321425 0
    outer loop
       vertex -0.013834 -0.095671 0.1
       vertex -0.024345 -0.064705 0.1
       vertex -0.024345 -0.064705 0
    endloop
  endfacet
  facet normal -0.896866 -0.442302 0
    outer loop
       vertex -0.013834 -0.095671 0
       vertex 0.000629999 -0.125 0
       vertex 0.000629999 -0.125 0.1
    endloop
  endfacet
  facet normal -0.896866 -0.442302 0
    outer loop
       vertex 0.000629999 -0.125 0.1
       vertex -0.013834 -0.095671 0.1
       vertex -0.013834 -0.095671 0
    endloop
  endfacet
  facet normal -0.831476 -0.555561 0
    outer loop
       vertex 0.000629999 -0.125 0
       vertex 0.018798 -0.152191 0
       vertex 0.018798 -0.152191 0.1
    endloop
  endfacet
  facet normal -0.831476 -0.555561 0
    outer loop
       vertex 0.018798 -0.152191 0.1
       vertex 0.000629999 -0.125 0.1
       vertex 0.000629999 -0.125 0
    endloop
  endfacet
  facet normal -0.751817 -0.659372 0
    outer loop
       vertex 0.018798 -0.152191 0
       vertex 0.04036 -0.176776 0
       vertex 0.04036 -0.176776 0.1
    endloop
  endfacet
  facet normal -0.751817 -0.659372 0
    outer loop
       vertex 0.04036 -0.176776 0.1
       vertex 0.018798 -0.152191 0.1
       vertex 0.018798 -0.152191 0
    endloop
  endfacet
  facet normal 0.659372 -0.751817 0
    outer loop
       vertex 0.393912 -0.176776 0
       vertex 0.393912 -0.176776 0.1
       vertex 0.369327 -0.198338 0.1
    endloop
  endfacet
  facet normal 0.659372 -0.751817 0
    outer loop
       vertex 0.369327 -0.198338 0.1
       vertex 0.369327 -0.198338 0
       vertex 0.393912 -0.176776 0
    endloop
  endfacet
  facet normal 0.555561 -0.831476 0
    outer loop
       vertex 0.369327 -0.198338 0
       vertex 0.369327 -0.198338 0.1
       vertex 0.342136 -0.216506 0.1
    endloop
  endfacet
  facet normal 0.555561 -0.831476 0
    outer loop
       vertex 0.342136 -0.216506 0.1
       vertex 0.342136 -0.216506 0
       vertex 0.369327 -0.198338 0
    endloop
  endfacet
  facet normal 0.442302 -0.896866 0
    outer loop
       vertex 0.342136 -0.216506 0
       vertex 0.342136 -0.216506 0.1
       vertex 0.312807 -0.23097 0.1
    endloop
  endfacet
  facet normal 0.442302 -0.896866 0
    outer loop
       vertex 0.312807 -0.23097 0.1
       vertex 0.312807 -0.23097 0
       vertex 0.342136 -0.216506 0
    endloop
  endfacet
  facet normal 0.321425 -0.946935 0
    outer loop
       vertex 0.312807 -0.23097 0
       vertex 0.312807 -0.23097 0.1
       vertex 0.281841 -0.241481 0.1
    endloop
  endfacet
  facet normal 0.321425 -0.946935 0
    outer loop
       vertex 0.281841 -0.241481 0.1
       vertex 0.281841 -0.241481 0
       vertex 0.312807 -0.23097 0
    endloop
  endfacet
  facet normal 0.195096 -0.980784 0
    outer loop
       vertex 0.281841 -0.241481 0
       vertex 0.281841 -0.241481 0.1
       vertex 0.249767 -0.247861 0.1
    endloop
  endfacet
  facet normal 0.195096 -0.980784 0
    outer loop
       vertex 0.249767 -0.247861 0.1
       vertex 0.249767 -0.247861 0
       vertex 0.281841 -0.241481 0
    endloop
  endfacet
  facet normal 0.0654098 -0.997858 0
    outer loop
       vertex 0.217136 -0.25 0
       vertex 0.249767 -0.247861 0
       vertex 0.249767 -0.247861 0.1
    endloop
  endfacet
  facet normal 0.0654098 -0.997858 1.0893e-16
    outer loop
       vertex 0.249767 -0.247861 0.1
       vertex 0.217136 -0.25 0.1
       vertex 0.217136 -0.25 0
    endloop
  endfacet
  facet normal -0.0654098 -0.997858 0
    outer loop
       vertex 0.217136 -0.25 0.1
       vertex 0.184504 -0.247861 0.1
       vertex 0.184504 -0.247861 0
    endloop
  endfacet
  facet normal -0.0654098 -0.997858 -1.0893e-16
    outer loop
       vertex 0.184504 -0.247861 0
       vertex 0.217136 -0.25 0
       vertex 0.217136 -0.25 0.1
    endloop
  endfacet
  facet normal -0.195096 -0.980784 0
    outer loop
       vertex 0.184504 -0.247861 0
       vertex 0.184504 -0.247861 0.1
       vertex 0.152431 -0.241481 0.1
    endloop
  endfacet
  facet normal -0.195096 -0.980784 -0
    outer loop
       vertex 0.152431 -0.241481 0.1
       vertex 0.152431 -0.241481 0
       vertex 0.184504 -0.247861 0
    endloop
  endfacet
  facet normal -0.321425 -0.946935 0
    outer loop
       vertex 0.152431 -0.241481 0
       vertex 0.152431 -0.241481 0.1
       vertex 0.121465 -0.23097 0.1
    endloop
  endfacet
  facet normal -0.321425 -0.946935 -0
    outer loop
       vertex 0.121465 -0.23097 0.1
       vertex 0.121465 -0.23097 0
       vertex 0.152431 -0.241481 0
    endloop
  endfacet
  facet normal -0.442302 -0.896866 0
    outer loop
       vertex 0.121465 -0.23097 0
       vertex 0.121465 -0.23097 0.1
       vertex 0.092136 -0.216506 0.1
    endloop
  endfacet
  facet normal -0.442302 -0.896866 -0
    outer loop
       vertex 0.092136 -0.216506 0.1
       vertex 0.092136 -0.216506 0
       vertex 0.121465 -0.23097 0
    endloop
  endfacet
  facet normal -0.555561 -0.831476 0
    outer loop
       vertex 0.092136 -0.216506 0
       vertex 0.092136 -0.216506 0.1
       vertex 0.064945 -0.198338 0.1
    endloop
  endfacet
  facet normal -0.555561 -0.831476 -0
    outer loop
       vertex 0.064945 -0.198338 0.1
       vertex 0.064945 -0.198338 0
       vertex 0.092136 -0.216506 0
    endloop
  endfacet
  facet normal -0.659372 -0.751817 0
    outer loop
       vertex 0.064945 -0.198338 0
       vertex 0.064945 -0.198338 0.1
       vertex 0.04036 -0.176776 0.1
    endloop
  endfacet
  facet normal -0.659372 -0.751817 -0
    outer loop
       vertex 0.04036 -0.176776 0.1
       vertex 0.04036 -0.176776 0
       vertex 0.064945 -0.198338 0
    endloop
  endfacet
endsolid cylinder
