solid cylinder
  facet normal 0.751817 -0.659372 0
    outer loop
       vertex 0.205047 -0.176776 0
       vertex 0.226609 -0.152191 0
       vertex 0.226609 -0.152191 0.1
    endloop
  endfacet
  facet normal 0.751817 -0.659372 0
    outer loop
       vertex 0.226609 -0.152191 0.1
       vertex 0.205047 -0.176776 0.1
       vertex 0.205047 -0.176776 0
    endloop
  endfacet
  facet normal 0.831476 -0.555561 0
    outer loop
       vertex 0.226609 -0.152191 0
       vertex 0.244777 -0.125 0
       vertex 0.244777 -0.125 0.1
    endloop
  endfacet
  facet normal 0.831476 -0.555561 0
    outer loop
       vertex 0.244777 -0.125 0.1
       vertex 0.226609 -0.152191 0.1
       vertex 0.226609 -0.152191 0
    endloop
  endfacet
  facet normal 0.896866 -0.442302 0
    outer loop
       vertex 0.244777 -0.125 0
       vertex 0.259241 -0.095671 0
       vertex 0.259241 -0.095671 0.1
    endloop
  endfacet
  facet normal 0.896866 -0.442302 0
    outer loop
       vertex 0.259241 -0.095671 0.1
       vertex 0.244777 -0.125 0.1
       vertex 0.244777 -0.125 0
    endloop
  endfacet
  facet normal 0.946935 -0.321425 0
    outer loop
       vertex 0.259241 -0.095671 0
       vertex 0.269752 -0.064705 0
       vertex 0.269752 -0.064705 0.1
    endloop
  endfacet
  facet normal 0.946935 -0.321425 0
    outer loop
       vertex 0.269752 -0.064705 0.1
       vertex 0.259241 -0.095671 0.1
       vertex 0.259241 -0.095671 0
    endloop
  endfacet
  facet normal 0.980784 -0.195096 0
    outer loop
       vertex 0.269752 -0.064705 0
       vertex 0.276132 -0.0326315 0
       vertex 0.276132 -0.0326315 0.1
    endloop
  endfacet
  facet normal 0.980784 -0.195096 0
    outer loop
       vertex 0.276132 -0.0326315 0.1
       vertex 0.269752 -0.064705 0.1
       vertex 0.269752 -0.064705 0
    endloop
  endfacet
  facet normal 0.997858 -0.0654098 0
    outer loop
       vertex 0.278271 -8.32665e-17 0.1
       vertex 0.276132 -0.0326315 0.1
       vertex 0.276132 -0.0326315 0
    endloop
  endfacet
  facet normal 0.997858 -0.0654098 -1.08928e-16
    outer loop
       vertex 0.276132 -0.0326315 0
       vertex 0.278271 8.32665e-17 0
       vertex 0.278271 -8.32665e-17 0.1
    endloop
  endfacet
  facet normal 0.997858 0.0654098 0
    outer loop
       vertex 0.278271 8.32665e-17 0
       vertex 0.276132 0.0326315 0
       vertex 0.276132 0.0326315 0.1
    endloop
  endfacet
  facet normal 0.997858 0.0654098 1.08928e-16
    outer loop
       vertex 0.276132 0.0326315 0.1
       vertex 0.278271 -8.32665e-17 0.1
       vertex 0.278271 8.32665e-17 0
    endloop
  endfacet
  facet normal 0.980784 0.195096 0
    outer loop
       vertex 0.276132 0.0326315 0
       vertex 0.269752 0.064705 0
       vertex 0.269752 0.064705 0.1
    endloop
  endfacet
  facet normal 0.980784 0.195096 0
    outer loop
       vertex 0.269752 0.064705 0.1
       vertex 0.276132 0.0326315 0.1
       vertex 0.276132 0.0326315 0
    endloop
  endfacet
  facet normal 0.946935 0.321425 0
    outer loop
       vertex 0.269752 0.064705 0
       vertex 0.259241 0.095671 0
       vertex 0.259241 0.095671 0.1
    endloop
  endfacet
  facet normal 0.946935 0.321425 0
    outer loop
       vertex 0.259241 0.095671 0.1
       vertex 0.269752 0.064705 0.1
       vertex 0.269752 0.064705 0
    endloop
  endfacet
  facet normal 0.896866 0.442302 0
    outer loop
       vertex 0.259241 0.095671 0
       vertex 0.244777 0.125 0
       vertex 0.244777 0.125 0.1
    endloop
  endfacet
  facet normal 0.896866 0.442302 0
    outer loop
       vertex 0.244777 0.125 0.1
       vertex 0.259241 0.095671 0.1
       vertex 0.259241 0.095671 0
    endloop
  endfacet
  facet normal 0.831476 0.555561 0
    outer loop
       vertex 0.244777 0.125 0
       vertex 0.226609 0.152191 0
       vertex 0.226609 0.152191 0.1
    endloop
  endfacet
  facet normal 0.831476 0.555561 0
    outer loop
       vertex 0.226609 0.152191 0.1
       vertex 0.244777 0.125 0.1
       vertex 0.244777 0.125 0
    endloop
  endfacet
  facet normal 0.751817 0.659372 0
    outer loop
       vertex 0.226609 0.152191 0
       vertex 0.205047 0.176776 0
       vertex 0.205047 0.176776 0.1
    endloop
  endfacet
  facet normal 0.751817 0.659372 0
    outer loop
       vertex 0.205047 0.176776 0.1
       vertex 0.226609 0.152191 0.1
       vertex 0.226609 0.152191 0
    endloop
  endfacet
  facet normal 0.659372 0.751817 0
    outer loop
       vertex 0.205047 0.176776 0
       vertex 0.180462 0.198338 0
       vertex 0.180462 0.198338 0.1
    endloop
  endfacet
  facet normal 0.659372 0.751817 0
    outer loop
       vertex 0.180462 0.198338 0.1
       vertex 0.205047 0.176776 0.1
       vertex 0.205047 0.176776 0
    endloop
  endfacet
  facet normal 0.555561 0.831476 0
    outer loop
       vertex 0.180462 0.198338 0
       vertex 0.153271 0.216506 0
       vertex 0.153271 0.216506 0.1
    endloop
  endfacet
  facet normal 0.555561 0.831476 0
    outer loop
       vertex 0.153271 0.216506 0.1
       vertex 0.180462 0.198338 0.1
       vertex 0.180462 0.198338 0
    endloop
  endfacet
  facet normal 0.442302 0.896866 0
    outer loop
       vertex 0.153271 0.216506 0
       vertex 0.123942 0.23097 0
       vertex 0.123942 0.23097 0.1
    endloop
  endfacet
  facet normal 0.442302 0.896866 0
    outer loop
       vertex 0.123942 0.23097 0.1
       vertex 0.153271 0.216506 0.1
       vertex 0.153271 0.216506 0
    endloop
  endfacet
  facet normal 0.321425 0.946935 0
    outer loop
       vertex 0.123942 0.23097 0
       vertex 0.0929761 0.241481 0
       vertex 0.0929761 0.241481 0.1
    endloop
  endfacet
  facet normal 0.321425 0.946935 0
    outer loop
       vertex 0.0929761 0.241481 0.1
       vertex 0.123942 0.23097 0.1
       vertex 0.123942 0.23097 0
    endloop
  endfacet
  facet normal 0.195096 0.980784 0
    outer loop
       vertex 0.0929761 0.241481 0
       vertex 0.0609026 0.247861 0
       vertex 0.0609026 0.247861 0.1
    endloop
  endfacet
  facet normal 0.195096 0.980784 0
    outer loop
       vertex 0.0609026 0.247861 0.1
       vertex 0.0929761 0.241481 0.1
       vertex 0.0929761 0.241481 0
    endloop
  endfacet
  facet normal 0.0654098 0.997858 0
    outer loop
       vertex 0.0282711 0.25 0.1
       vertex 0.0609026 0.247861 0.1
       vertex 0.0609026 0.247861 0
    endloop
  endfacet
  facet normal 0.0654098 0.997858 -1.08928e-16
    outer loop
       vertex 0.0609026 0.247861 0
       vertex 0.0282711 0.25 0
       vertex 0.0282711 0.25 0.1
    endloop
  endfacet
  facet normal -0.0654098 0.997858 0
    outer loop
       vertex 0.0282711 0.25 0
       vertex -0.0043604 0.247861 0
       vertex -0.0043604 0.247861 0.1
    endloop
  endfacet
  facet normal -0.0654098 0.997858 1.08928e-16
    outer loop
       vertex -0.0043604 0.247861 0.1
       vertex 0.0282711 0.25 0.1
       vertex 0.0282711 0.25 0
    endloop
  endfacet
  facet normal -0.195096 0.980784 0
    outer loop
       vertex -0.0043604 0.247861 0
       vertex -0.0364339 0.241481 0
       vertex -0.0364339 0.241481 0.1
    endloop
  endfacet
  facet normal -0.195096 0.980784 0
    outer loop
       vertex -0.0364339 0.241481 0.1
       vertex -0.0043604 0.247861 0.1
       vertex -0.0043604 0.247861 0
    endloop
  endfacet
  facet normal -0.321425 0.946935 0
    outer loop
       vertex -0.0364339 0.241481 0
       vertex -0.0673999 0.23097 0
       vertex -0.0673999 0.23097 0.1
    endloop
  endfacet
  facet normal -0.321425 0.946935 0
    outer loop
       vertex -0.0673999 0.23097 0.1
       vertex -0.0364339 0.241481 0.1
       vertex -0.0364339 0.241481 0
    endloop
  endfacet
  facet normal -0.442302 0.896866 0
    outer loop
       vertex -0.0673999 0.23097 0
       vertex -0.0967289 0.216506 0
       vertex -0.0967289 0.216506 0.1
    endloop
  endfacet
  facet normal -0.442302 0.896866 0
    outer loop
       vertex -0.0967289 0.216506 0.1
       vertex -0.0673999 0.23097 0.1
       vertex -0.0673999 0.23097 0
    endloop
  endfacet
  facet normal -0.555561 0.831476 0
    outer loop
       vertex -0.0967289 0.216506 0
       vertex -0.12392 0.198338 0
       vertex -0.12392 0.198338 0.1
    endloop
  endfacet
  facet normal -0.555561 0.831476 0
    outer loop
       vertex -0.12392 0.198338 0.1
       vertex -0.0967289 0.216506 0.1
       vertex -0.0967289 0.216506 0
    endloop
  endfacet
  facet normal -0.659372 0.751817 0
    outer loop
       vertex -0.12392 0.198338 0
       vertex -0.148505 0.176776 0
       vertex -0.148505 0.176776 0.1
    endloop
  endfacet
  facet normal -0.659372 0.751817 0
    outer loop
       vertex -0.148505 0.176776 0.1
       vertex -0.12392 0.198338 0.1
       vertex -0.12392 0.198338 0
    endloop
  endfacet
  facet normal -0.751817 0.659372 0
    outer loop
       vertex -0.148505 0.176776 0
       vertex -0.170067 0.152191 0
       vertex -0.170067 0.152191 0.1
    endloop
  endfacet
  facet normal -0.751817 0.659372 0
    outer loop
       vertex -0.170067 0.152191 0.1
       vertex -0.148505 0.176776 0.1
       vertex -0.148505 0.176776 0
    endloop
  endfacet
  facet normal -0.831476 0.555561 0
    outer loop
       vertex -0.170067 0.152191 0
       vertex -0.188235 0.125 0
       vertex -0.188235 0.125 0.1
    endloop
  endfacet
  facet normal -0.831476 0.555561 0
    outer loop
       vertex -0.188235 0.125 0.1
       vertex -0.170067 0.152191 0.1
       vertex -0.170067 0.152191 0
    endloop
  endfacet
  facet normal -0.896866 0.442302 0
    outer loop
       vertex -0.188235 0.125 0
       vertex -0.202699 0.095671 0
       vertex -0.202699 0.095671 0.1
    endloop
  endfacet
  facet normal -0.896866 0.442302 0
    outer loop
       vertex -0.202699 0.095671 0.1
       vertex -0.188235 0.125 0.1
       vertex -0.188235 0.125 0
    endloop
  endfacet
  facet normal -0.946935 0.321425 0
    outer loop
       vertex -0.202699 0.095671 0
       vertex -0.21321 0.064705 0
       vertex -0.21321 0.064705 0.1
    endloop
  endfacet
  facet normal -0.946935 0.321425 0
    outer loop
       vertex -0.21321 0.064705 0.1
       vertex -0.202699 0.095671 0.1
       vertex -0.202699 0.095671 0
    endloop
  endfacet
  facet normal -0.980784 0.195096 0
    outer loop
       vertex -0.21321 0.064705 0
       vertex -0.21959 0.0326315 0
       vertex -0.21959 0.0326315 0.1
    endloop
  endfacet
  facet normal -0.980784 0.195096 0
    outer loop
       vertex -0.21959 0.0326315 0.1
       vertex -0.21321 0.064705 0.1
       vertex -0.21321 0.064705 0
    endloop
  endfacet
  facet normal -0.997858 0.0654098 0
    outer loop
       vertex -0.221729 8.32665e-17 0.1
       vertex -0.21959 0.0326315 0.1
       vertex -0.21959 0.0326315 0
    endloop
  endfacet
  facet normal -0.997858 0.0654098 -1.08928e-16
    outer loop
       vertex -0.21959 0.0326315 0
       vertex -0.221729 -8.32665e-17 0
       vertex -0.221729 8.32665e-17 0.1
    endloop
  endfacet
  facet normal -0.997858 -0.0654098 0
    outer loop
       vertex -0.221729 -8.32665e-17 0
       vertex -0.21959 -0.0326315 0
       vertex -0.21959 -0.0326315 0.1
    endloop
  endfacet
  facet normal -0.997858 -0.0654098 1.08928e-16
    outer loop
       vertex -0.21959 -0.0326315 0.1
       vertex -0.221729 8.32665e-17 0.1
       vertex -0.221729 -8.32665e-17 0
    endloop
  endfacet
  facet normal -0.980784 -0.195096 0
    outer loop
       vertex -0.21959 -0.0326315 0
       vertex -0.21321 -0.064705 0
       vertex -0.21321 -0.064705 0.1
    endloop
  endfacet
  facet normal -0.980784 -0.195096 0
    outer loop
       vertex -0.21321 -0.064705 0.1
       vertex -0.21959 -0.0326315 0.1
       vertex -0.21959 -0.0326315 0
    endloop
  endfacet
  facet normal -0.946935 -0.321425 0
    outer loop
       vertex -0.21321 -0.064705 0
       vertex -0.202699 -0.095671 0
       vertex -0.202699 -0.095671 0.1
    endloop
  endfacet
  facet normal -0.946935 -0.321425 0
    outer loop
       vertex -0.202699 -0.095671 0.1
       vertex -0.21321 -0.064705 0.1
       vertex -0.21321 -0.064705 0
    endloop
  endfacet
  facet normal -0.896866 -0.442302 0
    outer loop
       vertex -0.202699 -0.095671 0
       vertex -0.188235 -0.125 0
       vertex -0.188235 -0.125 0.1
    endloop
  endfacet
  facet normal -0.896866 -0.442302 0
    outer loop
       vertex -0.188235 -0.125 0.1
       vertex -0.202699 -0.095671 0.1
       vertex -0.202699 -0.095671 0
    endloop
  endfacet
  facet normal -0.831476 -0.555561 0
    outer loop
       vertex -0.188235 -0.125 0
       vertex -0.170067 -0.152191 0
       vertex -0.170067 -0.152191 0.1
    endloop
  endfacet
  facet normal -0.831476 -0.555561 0
    outer loop
       vertex -0.170067 -0.152191 0.1
       vertex -0.188235 -0.125 0.1
       vertex -0.188235 -0.125 0
    endloop
  endfacet
  facet normal -0.751817 -0.659372 0
    outer loop
       vertex -0.170067 -0.152191 0
       vertex -0.148505 -0.176776 0
       vertex -0.148505 -0.176776 0.1
    endloop
  endfacet
  facet normal -0.751817 -0.659372 0
    outer loop
       vertex -0.148505 -0.176776 0.1
       vertex -0.170067 -0.152191 0.1
       vertex -0.170067 -0.152191 0
    endloop
  endfacet
  facet normal 0.659372 -0.751817 0
    outer loop
       vertex 0.205047 -0.176776 0
       vertex 0.205047 -0.176776 0.1
       vertex 0.180462 -0.198338 0.1
    endloop
  endfacet
  facet normal 0.659372 -0.751817 0
    outer loop
       vertex 0.180462 -0.198338 0.1
       vertex 0.180462 -0.198338 0
       vertex 0.205047 -0.176776 0
    endloop
  endfacet
  facet normal 0.555561 -0.831476 0
    outer loop
       vertex 0.180462 -0.198338 0
       vertex 0.180462 -0.198338 0.1
       vertex 0.153271 -0.216506 0.1
    endloop
  endfacet
  facet normal 0.555561 -0.831476 0
    outer loop
       vertex 0.153271 -0.216506 0.1
       vertex 0.153271 -0.216506 0
       vertex 0.180462 -0.198338 0
    endloop
  endfacet
  facet normal 0.442302 -0.896866 0
    outer loop
       vertex 0.153271 -0.216506 0
       vertex 0.153271 -0.216506 0.1
       vertex 0.123942 -0.23097 0.1
    endloop
  endfacet
  facet normal 0.442302 -0.896866 0
    outer loop
       vertex 0.123942 -0.23097 0.1
       vertex 0.123942 -0.23097 0
       vertex 0.153271 -0.216506 0
    endloop
  endfacet
  facet normal 0.321425 -0.946935 0
    outer loop
       vertex 0.123942 -0.23097 0
       vertex 0.123942 -0.23097 0.1
       vertex 0.0929761 -0.241481 0.1
    endloop
  endfacet
  facet normal 0.321425 -0.946935 0
    outer loop
       vertex 0.0929761 -0.241481 0.1
       vertex 0.0929761 -0.241481 0
       vertex 0.123942 -0.23097 0
    endloop
  endfacet
  facet normal 0.195096 -0.980784 0
    outer loop
       vertex 0.0929761 -0.241481 0
       vertex 0.0929761 -0.241481 0.1
       vertex 0.0609026 -0.247861 0.1
    endloop
  endfacet
  facet normal 0.195096 -0.980784 0
    outer loop
       vertex 0.0609026 -0.247861 0.1
       vertex 0.0609026 -0.247861 0
       vertex 0.0929761 -0.241481 0
    endloop
  endfacet
  facet normal 0.0654098 -0.997858 0
    outer loop
       vertex 0.0282711 -0.25 0
       vertex 0.0609026 -0.247861 0
       vertex 0.0609026 -0.247861 0.1
    endloop
  endfacet
  facet normal 0.0654098 -0.997858 1.08928e-16
    outer loop
       vertex 0.0609026 -0.247861 0.1
       vertex 0.0282711 -0.25 0.1
       vertex 0.0282711 -0.25 0
    endloop
  endfacet
  facet normal -0.0654098 -0.997858 0
    outer loop
       vertex 0.0282711 -0.25 0.1
       vertex -0.0043604 -0.247861 0.1
       vertex -0.0043604 -0.247861 0
    endloop
  endfacet
  facet normal -0.0654098 -0.997858 -1.08928e-16
    outer loop
       vertex -0.0043604 -0.247861 0
       vertex 0.0282711 -0.25 0
       vertex 0.0282711 -0.25 0.1
    endloop
  endfacet
  facet normal -0.195096 -0.980784 0
    outer loop
       vertex -0.0043604 -0.247861 0
       vertex -0.0043604 -0.247861 0.1
       vertex -0.0364339 -0.241481 0.1
    endloop
  endfacet
  facet normal -0.195096 -0.980784 -0
    outer loop
       vertex -0.0364339 -0.241481 0.1
       vertex -0.0364339 -0.241481 0
       vertex -0.0043604 -0.247861 0
    endloop
  endfacet
  facet normal -0.321425 -0.946935 0
    outer loop
       vertex -0.0364339 -0.241481 0
       vertex -0.0364339 -0.241481 0.1
       vertex -0.0673999 -0.23097 0.1
    endloop
  endfacet
  facet normal -0.321425 -0.946935 -0
    outer loop
       vertex -0.0673999 -0.23097 0.1
       vertex -0.0673999 -0.23097 0
       vertex -0.0364339 -0.241481 0
    endloop
  endfacet
  facet normal -0.442302 -0.896866 0
    outer loop
       vertex -0.0673999 -0.23097 0
       vertex -0.0673999 -0.23097 0.1
       vertex -0.0967289 -0.216506 0.1
    endloop
  endfacet
  facet normal -0.442302 -0.896866 -0
    outer loop
       vertex -0.0967289 -0.216506 0.1
       vertex -0.0967289 -0.216506 0
       vertex -0.0673999 -0.23097 0
    endloop
  endfacet
  facet normal -0.555561 -0.831476 0
    outer loop
       vertex -0.0967289 -0.216506 0
       vertex -0.0967289 -0.216506 0.1
       vertex -0.12392 -0.198338 0.1
    endloop
  endfacet
  facet normal -0.555561 -0.831476 -0
    outer loop
       vertex -0.12392 -0.198338 0.1
       vertex -0.12392 -0.198338 0
       vertex -0.0967289 -0.216506 0
    endloop
  endfacet
  facet normal -0.659372 -0.751817 0
    outer loop
       vertex -0.12392 -0.198338 0
       vertex -0.12392 -0.198338 0.1
       vertex -0.148505 -0.176776 0.1
    endloop
  endfacet
  facet normal -0.659372 -0.751817 -0
    outer loop
       vertex -0.148505 -0.176776 0.1
       vertex -0.148505 -0.176776 0
       vertex -0.12392 -0.198338 0
    endloop
  endfacet
endsolid cylinder
