solid cylinder
  facet normal 0.751817 -0.659372 0
    outer loop
       vertex -0.10994 -0.176776 0
       vertex -0.0883779 -0.152191 0
       vertex -0.0883779 -0.152191 0.1
    endloop
  endfacet
  facet normal 0.751817 -0.659372 0
    outer loop
       vertex -0.0883779 -0.152191 0.1
       vertex -0.10994 -0.176776 0.1
       vertex -0.10994 -0.176776 0
    endloop
  endfacet
  facet normal 0.831476 -0.555561 0
    outer loop
       vertex -0.0883779 -0.152191 0
       vertex -0.0702099 -0.125 0
       vertex -0.0702099 -0.125 0.1
    endloop
  endfacet
  facet normal 0.831476 -0.555561 0
    outer loop
       vertex -0.0702099 -0.125 0.1
       vertex -0.0883779 -0.152191 0.1
       vertex -0.0883779 -0.152191 0
    endloop
  endfacet
  facet normal 0.896866 -0.442302 0
    outer loop
       vertex -0.0702099 -0.125 0
       vertex -0.0557459 -0.095671 0
       vertex -0.0557459 -0.095671 0.1
    endloop
  endfacet
  facet normal 0.896866 -0.442302 0
    outer loop
       vertex -0.0557459 -0.095671 0.1
       vertex -0.0702099 -0.125 0.1
       vertex -0.0702099 -0.125 0
    endloop
  endfacet
  facet normal 0.946935 -0.321425 0
    outer loop
       vertex -0.0557459 -0.095671 0
       vertex -0.0452349 -0.064705 0
       vertex -0.0452349 -0.064705 0.1
    endloop
  endfacet
  facet normal 0.946935 -0.321425 0
    outer loop
       vertex -0.0452349 -0.064705 0.1
       vertex -0.0557459 -0.095671 0.1
       vertex -0.0557459 -0.095671 0
    endloop
  endfacet
  facet normal 0.980784 -0.195096 0
    outer loop
       vertex -0.0452349 -0.064705 0
       vertex -0.0388549 -0.0326315 0
       vertex -0.0388549 -0.0326315 0.1
    endloop
  endfacet
  facet normal 0.980784 -0.195096 0
    outer loop
       vertex -0.0388549 -0.0326315 0.1
       vertex -0.0452349 -0.064705 0.1
       vertex -0.0452349 -0.064705 0
    endloop
  endfacet
  facet normal 0.997858 -0.0654098 0
    outer loop
       vertex -0.0367159 -8.32665e-17 0.1
       vertex -0.0388549 -0.0326315 0.1
       vertex -0.0388549 -0.0326315 0
    endloop
  endfacet
  facet normal 0.997858 -0.0654098 -1.08928e-16
    outer loop
       vertex -0.0388549 -0.0326315 0
       vertex -0.0367159 8.32665e-17 0
       vertex -0.0367159 -8.32665e-17 0.1
    endloop
  endfacet
  facet normal 0.997858 0.0654098 0
    outer loop
       vertex -0.0367159 8.32665e-17 0
       vertex -0.0388549 0.0326315 0
       vertex -0.0388549 0.0326315 0.1
    endloop
  endfacet
  facet normal 0.997858 0.0654098 1.08928e-16
    outer loop
       vertex -0.0388549 0.0326315 0.1
       vertex -0.0367159 -8.32665e-17 0.1
       vertex -0.0367159 8.32665e-17 0
    endloop
  endfacet
  facet normal 0.980784 0.195096 0
    outer loop
       vertex -0.0388549 0.0326315 0
       vertex -0.0452349 0.064705 0
       vertex -0.0452349 0.064705 0.1
    endloop
  endfacet
  facet normal 0.980784 0.195096 0
    outer loop
       vertex -0.0452349 0.064705 0.1
       vertex -0.0388549 0.0326315 0.1
       vertex -0.0388549 0.0326315 0
    endloop
  endfacet
  facet normal 0.946935 0.321425 0
    outer loop
       vertex -0.0452349 0.064705 0
       vertex -0.0557459 0.095671 0
       vertex -0.0557459 0.095671 0.1
    endloop
  endfacet
  facet normal 0.946935 0.321425 0
    outer loop
       vertex -0.0557459 0.095671 0.1
       vertex -0.0452349 0.064705 0.1
       vertex -0.0452349 0.064705 0
    endloop
  endfacet
  facet normal 0.896866 0.442302 0
    outer loop
       vertex -0.0557459 0.095671 0
       vertex -0.0702099 0.125 0
       vertex -0.0702099 0.125 0.1
    endloop
  endfacet
  facet normal 0.896866 0.442302 0
    outer loop
       vertex -0.0702099 0.125 0.1
       vertex -0.0557459 0.095671 0.1
       vertex -0.0557459 0.095671 0
    endloop
  endfacet
  facet normal 0.831476 0.555561 0
    outer loop
       vertex -0.0702099 0.125 0
       vertex -0.0883779 0.152191 0
       vertex -0.0883779 0.152191 0.1
    endloop
  endfacet
  facet normal 0.831476 0.555561 0
    outer loop
       vertex -0.0883779 0.152191 0.1
       vertex -0.0702099 0.125 0.1
       vertex -0.0702099 0.125 0
    endloop
  endfacet
  facet normal 0.751817 0.659372 0
    outer loop
       vertex -0.0883779 0.152191 0
       vertex -0.10994 0.176776 0
       vertex -0.10994 0.176776 0.1
    endloop
  endfacet
  facet normal 0.751817 0.659372 0
    outer loop
       vertex -0.10994 0.176776 0.1
       vertex -0.0883779 0.152191 0.1
       vertex -0.0883779 0.152191 0
    endloop
  endfacet
  facet normal 0.659372 0.751817 0
    outer loop
       vertex -0.10994 0.176776 0
       vertex -0.134525 0.198338 0
       vertex -0.134525 0.198338 0.1
    endloop
  endfacet
  facet normal 0.659372 0.751817 0
    outer loop
       vertex -0.134525 0.198338 0.1
       vertex -0.10994 0.176776 0.1
       vertex -0.10994 0.176776 0
    endloop
  endfacet
  facet normal 0.555561 0.831476 0
    outer loop
       vertex -0.134525 0.198338 0
       vertex -0.161716 0.216506 0
       vertex -0.161716 0.216506 0.1
    endloop
  endfacet
  facet normal 0.555561 0.831476 0
    outer loop
       vertex -0.161716 0.216506 0.1
       vertex -0.134525 0.198338 0.1
       vertex -0.134525 0.198338 0
    endloop
  endfacet
  facet normal 0.442302 0.896866 0
    outer loop
       vertex -0.161716 0.216506 0
       vertex -0.191045 0.23097 0
       vertex -0.191045 0.23097 0.1
    endloop
  endfacet
  facet normal 0.442302 0.896866 0
    outer loop
       vertex -0.191045 0.23097 0.1
       vertex -0.161716 0.216506 0.1
       vertex -0.161716 0.216506 0
    endloop
  endfacet
  facet normal 0.321425 0.946935 0
    outer loop
       vertex -0.191045 0.23097 0
       vertex -0.222011 0.241481 0
       vertex -0.222011 0.241481 0.1
    endloop
  endfacet
  facet normal 0.321425 0.946935 0
    outer loop
       vertex -0.222011 0.241481 0.1
       vertex -0.191045 0.23097 0.1
       vertex -0.191045 0.23097 0
    endloop
  endfacet
  facet normal 0.195096 0.980784 0
    outer loop
       vertex -0.222011 0.241481 0
       vertex -0.254084 0.247861 0
       vertex -0.254084 0.247861 0.1
    endloop
  endfacet
  facet normal 0.195096 0.980784 0
    outer loop
       vertex -0.254084 0.247861 0.1
       vertex -0.222011 0.241481 0.1
       vertex -0.222011 0.241481 0
    endloop
  endfacet
  facet normal 0.0654098 0.997858 0
    outer loop
       vertex -0.286716 0.25 0.1
       vertex -0.254084 0.247861 0.1
       vertex -0.254084 0.247861 0
    endloop
  endfacet
  facet normal 0.0654098 0.997858 -7.26205e-17
    outer loop
       vertex -0.254084 0.247861 0
       vertex -0.286716 0.25 0
       vertex -0.286716 0.25 0.1
    endloop
  endfacet
  facet normal -0.0654098 0.997858 0
    outer loop
       vertex -0.286716 0.25 0
       vertex -0.319347 0.247861 0
       vertex -0.319347 0.247861 0.1
    endloop
  endfacet
  facet normal -0.0654098 0.997858 7.26205e-17
    outer loop
       vertex -0.319347 0.247861 0.1
       vertex -0.286716 0.25 0.1
       vertex -0.286716 0.25 0
    endloop
  endfacet
  facet normal -0.195096 0.980784 0
    outer loop
       vertex -0.319347 0.247861 0
       vertex -0.351421 0.241481 0
       vertex -0.351421 0.241481 0.1
    endloop
  endfacet
  facet normal -0.195096 0.980784 0
    outer loop
       vertex -0.351421 0.241481 0.1
       vertex -0.319347 0.247861 0.1
       vertex -0.319347 0.247861 0
    endloop
  endfacet
  facet normal -0.321425 0.946935 0
    outer loop
       vertex -0.351421 0.241481 0
       vertex -0.382387 0.23097 0
       vertex -0.382387 0.23097 0.1
    endloop
  endfacet
  facet normal -0.321425 0.946935 0
    outer loop
       vertex -0.382387 0.23097 0.1
       vertex -0.351421 0.241481 0.1
       vertex -0.351421 0.241481 0
    endloop
  endfacet
  facet normal -0.442302 0.896866 0
    outer loop
       vertex -0.382387 0.23097 0
       vertex -0.411716 0.216506 0
       vertex -0.411716 0.216506 0.1
    endloop
  endfacet
  facet normal -0.442302 0.896866 0
    outer loop
       vertex -0.411716 0.216506 0.1
       vertex -0.382387 0.23097 0.1
       vertex -0.382387 0.23097 0
    endloop
  endfacet
  facet normal -0.555561 0.831476 0
    outer loop
       vertex -0.411716 0.216506 0
       vertex -0.438907 0.198338 0
       vertex -0.438907 0.198338 0.1
    endloop
  endfacet
  facet normal -0.555561 0.831476 0
    outer loop
       vertex -0.438907 0.198338 0.1
       vertex -0.411716 0.216506 0.1
       vertex -0.411716 0.216506 0
    endloop
  endfacet
  facet normal -0.659372 0.751817 0
    outer loop
       vertex -0.438907 0.198338 0
       vertex -0.463492 0.176776 0
       vertex -0.463492 0.176776 0.1
    endloop
  endfacet
  facet normal -0.659372 0.751817 0
    outer loop
       vertex -0.463492 0.176776 0.1
       vertex -0.438907 0.198338 0.1
       vertex -0.438907 0.198338 0
    endloop
  endfacet
  facet normal -0.751817 0.659372 0
    outer loop
       vertex -0.463492 0.176776 0
       vertex -0.485054 0.152191 0
       vertex -0.485054 0.152191 0.1
    endloop
  endfacet
  facet normal -0.751817 0.659372 0
    outer loop
       vertex -0.485054 0.152191 0.1
       vertex -0.463492 0.176776 0.1
       vertex -0.463492 0.176776 0
    endloop
  endfacet
  facet normal -0.831476 0.555561 0
    outer loop
       vertex -0.485054 0.152191 0
       vertex -0.503222 0.125 0
       vertex -0.503222 0.125 0.1
    endloop
  endfacet
  facet normal -0.831476 0.555561 0
    outer loop
       vertex -0.503222 0.125 0.1
       vertex -0.485054 0.152191 0.1
       vertex -0.485054 0.152191 0
    endloop
  endfacet
  facet normal -0.896866 0.442302 0
    outer loop
       vertex -0.503222 0.125 0
       vertex -0.517686 0.095671 0
       vertex -0.517686 0.095671 0.1
    endloop
  endfacet
  facet normal -0.896866 0.442302 0
    outer loop
       vertex -0.517686 0.095671 0.1
       vertex -0.503222 0.125 0.1
       vertex -0.503222 0.125 0
    endloop
  endfacet
  facet normal -0.946935 0.321425 0
    outer loop
       vertex -0.517686 0.095671 0
       vertex -0.528197 0.064705 0
       vertex -0.528197 0.064705 0.1
    endloop
  endfacet
  facet normal -0.946935 0.321425 0
    outer loop
       vertex -0.528197 0.064705 0.1
       vertex -0.517686 0.095671 0.1
       vertex -0.517686 0.095671 0
    endloop
  endfacet
  facet normal -0.980784 0.195096 0
    outer loop
       vertex -0.528197 0.064705 0
       vertex -0.534577 0.0326315 0
       vertex -0.534577 0.0326315 0.1
    endloop
  endfacet
  facet normal -0.980784 0.195096 0
    outer loop
       vertex -0.534577 0.0326315 0.1
       vertex -0.528197 0.064705 0.1
       vertex -0.528197 0.064705 0
    endloop
  endfacet
  facet normal -0.997858 0.0654098 0
    outer loop
       vertex -0.536716 8.32665e-17 0.1
       vertex -0.534577 0.0326315 0.1
       vertex -0.534577 0.0326315 0
    endloop
  endfacet
  facet normal -0.997858 0.0654098 -1.0893e-16
    outer loop
       vertex -0.534577 0.0326315 0
       vertex -0.536716 -8.32665e-17 0
       vertex -0.536716 8.32665e-17 0.1
    endloop
  endfacet
  facet normal -0.997858 -0.0654098 0
    outer loop
       vertex -0.536716 -8.32665e-17 0
       vertex -0.534577 -0.0326315 0
       vertex -0.534577 -0.0326315 0.1
    endloop
  endfacet
  facet normal -0.997858 -0.0654098 1.0893e-16
    outer loop
       vertex -0.534577 -0.0326315 0.1
       vertex -0.536716 8.32665e-17 0.1
       vertex -0.536716 -8.32665e-17 0
    endloop
  endfacet
  facet normal -0.980784 -0.195096 0
    outer loop
       vertex -0.534577 -0.0326315 0
       vertex -0.528197 -0.064705 0
       vertex -0.528197 -0.064705 0.1
    endloop
  endfacet
  facet normal -0.980784 -0.195096 0
    outer loop
       vertex -0.528197 -0.064705 0.1
       vertex -0.534577 -0.0326315 0.1
       vertex -0.534577 -0.0326315 0
    endloop
  endfacet
  facet normal -0.946935 -0.321425 0
    outer loop
       vertex -0.528197 -0.064705 0
       vertex -0.517686 -0.095671 0
       vertex -0.517686 -0.095671 0.1
    endloop
  endfacet
  facet normal -0.946935 -0.321425 0
    outer loop
       vertex -0.517686 -0.095671 0.1
       vertex -0.528197 -0.064705 0.1
       vertex -0.528197 -0.064705 0
    endloop
  endfacet
  facet normal -0.896866 -0.442302 0
    outer loop
       vertex -0.517686 -0.095671 0
       vertex -0.503222 -0.125 0
       vertex -0.503222 -0.125 0.1
    endloop
  endfacet
  facet normal -0.896866 -0.442302 0
    outer loop
       vertex -0.503222 -0.125 0.1
       vertex -0.517686 -0.095671 0.1
       vertex -0.517686 -0.095671 0
    endloop
  endfacet
  facet normal -0.831476 -0.555561 0
    outer loop
       vertex -0.503222 -0.125 0
       vertex -0.485054 -0.152191 0
       vertex -0.485054 -0.152191 0.1
    endloop
  endfacet
  facet normal -0.831476 -0.555561 0
    outer loop
       vertex -0.485054 -0.152191 0.1
       vertex -0.503222 -0.125 0.1
       vertex -0.503222 -0.125 0
    endloop
  endfacet
  facet normal -0.751817 -0.659372 0
    outer loop
       vertex -0.485054 -0.152191 0
       vertex -0.463492 -0.176776 0
       vertex -0.463492 -0.176776 0.1
    endloop
  endfacet
  facet normal -0.751817 -0.659372 0
    outer loop
       vertex -0.463492 -0.176776 0.1
       vertex -0.485054 -0.152191 0.1
       vertex -0.485054 -0.152191 0
    endloop
  endfacet
  facet normal 0.659372 -0.751817 0
    outer loop
       vertex -0.10994 -0.176776 0
       vertex -0.10994 -0.176776 0.1
       vertex -0.134525 -0.198338 0.1
    endloop
  endfacet
  facet normal 0.659372 -0.751817 0
    outer loop
       vertex -0.134525 -0.198338 0.1
       vertex -0.134525 -0.198338 0
       vertex -0.10994 -0.176776 0
    endloop
  endfacet
  facet normal 0.555561 -0.831476 0
    outer loop
       vertex -0.134525 -0.198338 0
       vertex -0.134525 -0.198338 0.1
       vertex -0.161716 -0.216506 0.1
    endloop
  endfacet
  facet normal 0.555561 -0.831476 0
    outer loop
       vertex -0.161716 -0.216506 0.1
       vertex -0.161716 -0.216506 0
       vertex -0.134525 -0.198338 0
    endloop
  endfacet
  facet normal 0.442302 -0.896866 0
    outer loop
       vertex -0.161716 -0.216506 0
       vertex -0.161716 -0.216506 0.1
       vertex -0.191045 -0.23097 0.1
    endloop
  endfacet
  facet normal 0.442302 -0.896866 0
    outer loop
       vertex -0.191045 -0.23097 0.1
       vertex -0.191045 -0.23097 0
       vertex -0.161716 -0.216506 0
    endloop
  endfacet
  facet normal 0.321425 -0.946935 0
    outer loop
       vertex -0.191045 -0.23097 0
       vertex -0.191045 -0.23097 0.1
       vertex -0.222011 -0.241481 0.1
    endloop
  endfacet
  facet normal 0.321425 -0.946935 0
    outer loop
       vertex -0.222011 -0.241481 0.1
       vertex -0.222011 -0.241481 0
       vertex -0.191045 -0.23097 0
    endloop
  endfacet
  facet normal 0.195096 -0.980784 0
    outer loop
       vertex -0.222011 -0.241481 0
       vertex -0.222011 -0.241481 0.1
       vertex -0.254084 -0.247861 0.1
    endloop
  endfacet
  facet normal 0.195096 -0.980784 0
    outer loop
       vertex -0.254084 -0.247861 0.1
       vertex -0.254084 -0.247861 0
       vertex -0.222011 -0.241481 0
    endloop
  endfacet
  facet normal 0.0654098 -0.997858 0
    outer loop
       vertex -0.286716 -0.25 0
       vertex -0.254084 -0.247861 0
       vertex -0.254084 -0.247861 0.1
    endloop
  endfacet
  facet normal 0.0654098 -0.997858 7.26205e-17
    outer loop
       vertex -0.254084 -0.247861 0.1
       vertex -0.286716 -0.25 0.1
       vertex -0.286716 -0.25 0
    endloop
  endfacet
  facet normal -0.0654098 -0.997858 0
    outer loop
       vertex -0.286716 -0.25 0.1
       vertex -0.319347 -0.247861 0.1
       vertex -0.319347 -0.247861 0
    endloop
  endfacet
  facet normal -0.0654098 -0.997858 -7.26205e-17
    outer loop
       vertex -0.319347 -0.247861 0
       vertex -0.286716 -0.25 0
       vertex -0.286716 -0.25 0.1
    endloop
  endfacet
  facet normal -0.195096 -0.980784 0
    outer loop
       vertex -0.319347 -0.247861 0
       vertex -0.319347 -0.247861 0.1
       vertex -0.351421 -0.241481 0.1
    endloop
  endfacet
  facet normal -0.195096 -0.980784 -0
    outer loop
       vertex -0.351421 -0.241481 0.1
       vertex -0.351421 -0.241481 0
       vertex -0.319347 -0.247861 0
    endloop
  endfacet
  facet normal -0.321425 -0.946935 0
    outer loop
       vertex -0.351421 -0.241481 0
       vertex -0.351421 -0.241481 0.1
       vertex -0.382387 -0.23097 0.1
    endloop
  endfacet
  facet normal -0.321425 -0.946935 -0
    outer loop
       vertex -0.382387 -0.23097 0.1
       vertex -0.382387 -0.23097 0
       vertex -0.351421 -0.241481 0
    endloop
  endfacet
  facet normal -0.442302 -0.896866 0
    outer loop
       vertex -0.382387 -0.23097 0
       vertex -0.382387 -0.23097 0.1
       vertex -0.411716 -0.216506 0.1
    endloop
  endfacet
  facet normal -0.442302 -0.896866 -0
    outer loop
       vertex -0.411716 -0.216506 0.1
       vertex -0.411716 -0.216506 0
       vertex -0.382387 -0.23097 0
    endloop
  endfacet
  facet normal -0.555561 -0.831476 0
    outer loop
       vertex -0.411716 -0.216506 0
       vertex -0.411716 -0.216506 0.1
       vertex -0.438907 -0.198338 0.1
    endloop
  endfacet
  facet normal -0.555561 -0.831476 -0
    outer loop
       vertex -0.438907 -0.198338 0.1
       vertex -0.438907 -0.198338 0
       vertex -0.411716 -0.216506 0
    endloop
  endfacet
  facet normal -0.659372 -0.751817 0
    outer loop
       vertex -0.438907 -0.198338 0
       vertex -0.438907 -0.198338 0.1
       vertex -0.463492 -0.176776 0.1
    endloop
  endfacet
  facet normal -0.659372 -0.751817 -0
    outer loop
       vertex -0.463492 -0.176776 0.1
       vertex -0.463492 -0.176776 0
       vertex -0.438907 -0.198338 0
    endloop
  endfacet
endsolid cylinder
