solid cylinder
  facet normal 0.751817 -0.659372 0
    outer loop
       vertex 0.350138 -0.176776 0
       vertex 0.3717 -0.152191 0
       vertex 0.3717 -0.152191 0.1
    endloop
  endfacet
  facet normal 0.751817 -0.659372 0
    outer loop
       vertex 0.3717 -0.152191 0.1
       vertex 0.350138 -0.176776 0.1
       vertex 0.350138 -0.176776 0
    endloop
  endfacet
  facet normal 0.831476 -0.555561 0
    outer loop
       vertex 0.3717 -0.152191 0
       vertex 0.389868 -0.125 0
       vertex 0.389868 -0.125 0.1
    endloop
  endfacet
  facet normal 0.831476 -0.555561 0
    outer loop
       vertex 0.389868 -0.125 0.1
       vertex 0.3717 -0.152191 0.1
       vertex 0.3717 -0.152191 0
    endloop
  endfacet
  facet normal 0.896866 -0.442302 0
    outer loop
       vertex 0.389868 -0.125 0
       vertex 0.404332 -0.095671 0
       vertex 0.404332 -0.095671 0.1
    endloop
  endfacet
  facet normal 0.896866 -0.442302 0
    outer loop
       vertex 0.404332 -0.095671 0.1
       vertex 0.389868 -0.125 0.1
       vertex 0.389868 -0.125 0
    endloop
  endfacet
  facet normal 0.946935 -0.321425 0
    outer loop
       vertex 0.404332 -0.095671 0
       vertex 0.414843 -0.064705 0
       vertex 0.414843 -0.064705 0.1
    endloop
  endfacet
  facet normal 0.946935 -0.321425 0
    outer loop
       vertex 0.414843 -0.064705 0.1
       vertex 0.404332 -0.095671 0.1
       vertex 0.404332 -0.095671 0
    endloop
  endfacet
  facet normal 0.980784 -0.195096 0
    outer loop
       vertex 0.414843 -0.064705 0
       vertex 0.421223 -0.0326315 0
       vertex 0.421223 -0.0326315 0.1
    endloop
  endfacet
  facet normal 0.980784 -0.195096 0
    outer loop
       vertex 0.421223 -0.0326315 0.1
       vertex 0.414843 -0.064705 0.1
       vertex 0.414843 -0.064705 0
    endloop
  endfacet
  facet normal 0.997858 -0.0654098 0
    outer loop
       vertex 0.423362 -8.32665e-17 0.1
       vertex 0.421223 -0.0326315 0.1
       vertex 0.421223 -0.0326315 0
    endloop
  endfacet
  facet normal 0.997858 -0.0654098 -1.08928e-16
    outer loop
       vertex 0.421223 -0.0326315 0
       vertex 0.423362 8.32665e-17 0
       vertex 0.423362 -8.32665e-17 0.1
    endloop
  endfacet
  facet normal 0.997858 0.0654098 0
    outer loop
       vertex 0.423362 8.32665e-17 0
       vertex 0.421223 0.0326315 0
       vertex 0.421223 0.0326315 0.1
    endloop
  endfacet
  facet normal 0.997858 0.0654098 1.08928e-16
    outer loop
       vertex 0.421223 0.0326315 0.1
       vertex 0.423362 -8.32665e-17 0.1
       vertex 0.423362 8.32665e-17 0
    endloop
  endfacet
  facet normal 0.980784 0.195096 0
    outer loop
       vertex 0.421223 0.0326315 0
       vertex 0.414843 0.064705 0
       vertex 0.414843 0.064705 0.1
    endloop
  endfacet
  facet normal 0.980784 0.195096 0
    outer loop
       vertex 0.414843 0.064705 0.1
       vertex 0.421223 0.0326315 0.1
       vertex 0.421223 0.0326315 0
    endloop
  endfacet
  facet normal 0.946935 0.321425 0
    outer loop
       vertex 0.414843 0.064705 0
       vertex 0.404332 0.095671 0
       vertex 0.404332 0.095671 0.1
    endloop
  endfacet
  facet normal 0.946935 0.321425 0
    outer loop
       vertex 0.404332 0.095671 0.1
       vertex 0.414843 0.064705 0.1
       vertex 0.414843 0.064705 0
    endloop
  endfacet
  facet normal 0.896866 0.442302 0
    outer loop
       vertex 0.404332 0.095671 0
       vertex 0.389868 0.125 0
       vertex 0.389868 0.125 0.1
    endloop
  endfacet
  facet normal 0.896866 0.442302 0
    outer loop
       vertex 0.389868 0.125 0.1
       vertex 0.404332 0.095671 0.1
       vertex 0.404332 0.095671 0
    endloop
  endfacet
  facet normal 0.831476 0.555561 0
    outer loop
       vertex 0.389868 0.125 0
       vertex 0.3717 0.152191 0
       vertex 0.3717 0.152191 0.1
    endloop
  endfacet
  facet normal 0.831476 0.555561 0
    outer loop
       vertex 0.3717 0.152191 0.1
       vertex 0.389868 0.125 0.1
       vertex 0.389868 0.125 0
    endloop
  endfacet
  facet normal 0.751817 0.659372 0
    outer loop
       vertex 0.3717 0.152191 0
       vertex 0.350138 0.176776 0
       vertex 0.350138 0.176776 0.1
    endloop
  endfacet
  facet normal 0.751817 0.659372 0
    outer loop
       vertex 0.350138 0.176776 0.1
       vertex 0.3717 0.152191 0.1
       vertex 0.3717 0.152191 0
    endloop
  endfacet
  facet normal 0.659372 0.751817 0
    outer loop
       vertex 0.350138 0.176776 0
       vertex 0.325553 0.198338 0
       vertex 0.325553 0.198338 0.1
    endloop
  endfacet
  facet normal 0.659372 0.751817 0
    outer loop
       vertex 0.325553 0.198338 0.1
       vertex 0.350138 0.176776 0.1
       vertex 0.350138 0.176776 0
    endloop
  endfacet
  facet normal 0.555561 0.831476 0
    outer loop
       vertex 0.325553 0.198338 0
       vertex 0.298362 0.216506 0
       vertex 0.298362 0.216506 0.1
    endloop
  endfacet
  facet normal 0.555561 0.831476 0
    outer loop
       vertex 0.298362 0.216506 0.1
       vertex 0.325553 0.198338 0.1
       vertex 0.325553 0.198338 0
    endloop
  endfacet
  facet normal 0.442302 0.896866 0
    outer loop
       vertex 0.298362 0.216506 0
       vertex 0.269033 0.23097 0
       vertex 0.269033 0.23097 0.1
    endloop
  endfacet
  facet normal 0.442302 0.896866 0
    outer loop
       vertex 0.269033 0.23097 0.1
       vertex 0.298362 0.216506 0.1
       vertex 0.298362 0.216506 0
    endloop
  endfacet
  facet normal 0.321425 0.946935 0
    outer loop
       vertex 0.269033 0.23097 0
       vertex 0.238067 0.241481 0
       vertex 0.238067 0.241481 0.1
    endloop
  endfacet
  facet normal 0.321425 0.946935 0
    outer loop
       vertex 0.238067 0.241481 0.1
       vertex 0.269033 0.23097 0.1
       vertex 0.269033 0.23097 0
    endloop
  endfacet
  facet normal 0.195096 0.980784 0
    outer loop
       vertex 0.238067 0.241481 0
       vertex 0.205994 0.247861 0
       vertex 0.205994 0.247861 0.1
    endloop
  endfacet
  facet normal 0.195096 0.980784 0
    outer loop
       vertex 0.205994 0.247861 0.1
       vertex 0.238067 0.241481 0.1
       vertex 0.238067 0.241481 0
    endloop
  endfacet
  facet normal 0.0654098 0.997858 0
    outer loop
       vertex 0.173362 0.25 0.1
       vertex 0.205994 0.247861 0.1
       vertex 0.205994 0.247861 0
    endloop
  endfacet
  facet normal 0.0654098 0.997858 -1.0893e-16
    outer loop
       vertex 0.205994 0.247861 0
       vertex 0.173362 0.25 0
       vertex 0.173362 0.25 0.1
    endloop
  endfacet
  facet normal -0.0654098 0.997858 0
    outer loop
       vertex 0.173362 0.25 0
       vertex 0.140731 0.247861 0
       vertex 0.140731 0.247861 0.1
    endloop
  endfacet
  facet normal -0.0654098 0.997858 1.0893e-16
    outer loop
       vertex 0.140731 0.247861 0.1
       vertex 0.173362 0.25 0.1
       vertex 0.173362 0.25 0
    endloop
  endfacet
  facet normal -0.195096 0.980784 0
    outer loop
       vertex 0.140731 0.247861 0
       vertex 0.108657 0.241481 0
       vertex 0.108657 0.241481 0.1
    endloop
  endfacet
  facet normal -0.195096 0.980784 0
    outer loop
       vertex 0.108657 0.241481 0.1
       vertex 0.140731 0.247861 0.1
       vertex 0.140731 0.247861 0
    endloop
  endfacet
  facet normal -0.321425 0.946935 0
    outer loop
       vertex 0.108657 0.241481 0
       vertex 0.0776913 0.23097 0
       vertex 0.0776913 0.23097 0.1
    endloop
  endfacet
  facet normal -0.321425 0.946935 0
    outer loop
       vertex 0.0776913 0.23097 0.1
       vertex 0.108657 0.241481 0.1
       vertex 0.108657 0.241481 0
    endloop
  endfacet
  facet normal -0.442302 0.896866 0
    outer loop
       vertex 0.0776913 0.23097 0
       vertex 0.0483623 0.216506 0
       vertex 0.0483623 0.216506 0.1
    endloop
  endfacet
  facet normal -0.442302 0.896866 0
    outer loop
       vertex 0.0483623 0.216506 0.1
       vertex 0.0776913 0.23097 0.1
       vertex 0.0776913 0.23097 0
    endloop
  endfacet
  facet normal -0.555561 0.831476 0
    outer loop
       vertex 0.0483623 0.216506 0
       vertex 0.0211713 0.198338 0
       vertex 0.0211713 0.198338 0.1
    endloop
  endfacet
  facet normal -0.555561 0.831476 0
    outer loop
       vertex 0.0211713 0.198338 0.1
       vertex 0.0483623 0.216506 0.1
       vertex 0.0483623 0.216506 0
    endloop
  endfacet
  facet normal -0.659372 0.751817 0
    outer loop
       vertex 0.0211713 0.198338 0
       vertex -0.00341365 0.176776 0
       vertex -0.00341365 0.176776 0.1
    endloop
  endfacet
  facet normal -0.659372 0.751817 0
    outer loop
       vertex -0.00341365 0.176776 0.1
       vertex 0.0211713 0.198338 0.1
       vertex 0.0211713 0.198338 0
    endloop
  endfacet
  facet normal -0.751817 0.659372 0
    outer loop
       vertex -0.00341365 0.176776 0
       vertex -0.0249757 0.152191 0
       vertex -0.0249757 0.152191 0.1
    endloop
  endfacet
  facet normal -0.751817 0.659372 0
    outer loop
       vertex -0.0249757 0.152191 0.1
       vertex -0.00341365 0.176776 0.1
       vertex -0.00341365 0.176776 0
    endloop
  endfacet
  facet normal -0.831476 0.555561 0
    outer loop
       vertex -0.0249757 0.152191 0
       vertex -0.0431437 0.125 0
       vertex -0.0431437 0.125 0.1
    endloop
  endfacet
  facet normal -0.831476 0.555561 0
    outer loop
       vertex -0.0431437 0.125 0.1
       vertex -0.0249757 0.152191 0.1
       vertex -0.0249757 0.152191 0
    endloop
  endfacet
  facet normal -0.896866 0.442302 0
    outer loop
       vertex -0.0431437 0.125 0
       vertex -0.0576077 0.095671 0
       vertex -0.0576077 0.095671 0.1
    endloop
  endfacet
  facet normal -0.896866 0.442302 0
    outer loop
       vertex -0.0576077 0.095671 0.1
       vertex -0.0431437 0.125 0.1
       vertex -0.0431437 0.125 0
    endloop
  endfacet
  facet normal -0.946935 0.321425 0
    outer loop
       vertex -0.0576077 0.095671 0
       vertex -0.0681187 0.064705 0
       vertex -0.0681187 0.064705 0.1
    endloop
  endfacet
  facet normal -0.946935 0.321425 0
    outer loop
       vertex -0.0681187 0.064705 0.1
       vertex -0.0576077 0.095671 0.1
       vertex -0.0576077 0.095671 0
    endloop
  endfacet
  facet normal -0.980784 0.195096 0
    outer loop
       vertex -0.0681187 0.064705 0
       vertex -0.0744987 0.0326315 0
       vertex -0.0744987 0.0326315 0.1
    endloop
  endfacet
  facet normal -0.980784 0.195096 0
    outer loop
       vertex -0.0744987 0.0326315 0.1
       vertex -0.0681187 0.064705 0.1
       vertex -0.0681187 0.064705 0
    endloop
  endfacet
  facet normal -0.997858 0.0654098 0
    outer loop
       vertex -0.0766377 8.32665e-17 0.1
       vertex -0.0744987 0.0326315 0.1
       vertex -0.0744987 0.0326315 0
    endloop
  endfacet
  facet normal -0.997858 0.0654098 -1.08928e-16
    outer loop
       vertex -0.0744987 0.0326315 0
       vertex -0.0766377 -8.32665e-17 0
       vertex -0.0766377 8.32665e-17 0.1
    endloop
  endfacet
  facet normal -0.997858 -0.0654098 0
    outer loop
       vertex -0.0766377 -8.32665e-17 0
       vertex -0.0744987 -0.0326315 0
       vertex -0.0744987 -0.0326315 0.1
    endloop
  endfacet
  facet normal -0.997858 -0.0654098 1.08928e-16
    outer loop
       vertex -0.0744987 -0.0326315 0.1
       vertex -0.0766377 8.32665e-17 0.1
       vertex -0.0766377 -8.32665e-17 0
    endloop
  endfacet
  facet normal -0.980784 -0.195096 0
    outer loop
       vertex -0.0744987 -0.0326315 0
       vertex -0.0681187 -0.064705 0
       vertex -0.0681187 -0.064705 0.1
    endloop
  endfacet
  facet normal -0.980784 -0.195096 0
    outer loop
       vertex -0.0681187 -0.064705 0.1
       vertex -0.0744987 -0.0326315 0.1
       vertex -0.0744987 -0.0326315 0
    endloop
  endfacet
  facet normal -0.946935 -0.321425 0
    outer loop
       vertex -0.0681187 -0.064705 0
       vertex -0.0576077 -0.095671 0
       vertex -0.0576077 -0.095671 0.1
    endloop
  endfacet
  facet normal -0.946935 -0.321425 0
    outer loop
       vertex -0.0576077 -0.095671 0.1
       vertex -0.0681187 -0.064705 0.1
       vertex -0.0681187 -0.064705 0
    endloop
  endfacet
  facet normal -0.896866 -0.442302 0
    outer loop
       vertex -0.0576077 -0.095671 0
       vertex -0.0431437 -0.125 0
       vertex -0.0431437 -0.125 0.1
    endloop
  endfacet
  facet normal -0.896866 -0.442302 0
    outer loop
       vertex -0.0431437 -0.125 0.1
       vertex -0.0576077 -0.095671 0.1
       vertex -0.0576077 -0.095671 0
    endloop
  endfacet
  facet normal -0.831476 -0.555561 0
    outer loop
       vertex -0.0431437 -0.125 0
       vertex -0.0249757 -0.152191 0
       vertex -0.0249757 -0.152191 0.1
    endloop
  endfacet
  facet normal -0.831476 -0.555561 0
    outer loop
       vertex -0.0249757 -0.152191 0.1
       vertex -0.0431437 -0.125 0.1
       vertex -0.0431437 -0.125 0
    endloop
  endfacet
  facet normal -0.751817 -0.659372 0
    outer loop
       vertex -0.0249757 -0.152191 0
       vertex -0.00341365 -0.176776 0
       vertex -0.00341365 -0.176776 0.1
    endloop
  endfacet
  facet normal -0.751817 -0.659372 0
    outer loop
       vertex -0.00341365 -0.176776 0.1
       vertex -0.0249757 -0.152191 0.1
       vertex -0.0249757 -0.152191 0
    endloop
  endfacet
  facet normal 0.659372 -0.751817 0
    outer loop
       vertex 0.350138 -0.176776 0
       vertex 0.350138 -0.176776 0.1
       vertex 0.325553 -0.198338 0.1
    endloop
  endfacet
  facet normal 0.659372 -0.751817 0
    outer loop
       vertex 0.325553 -0.198338 0.1
       vertex 0.325553 -0.198338 0
       vertex 0.350138 -0.176776 0
    endloop
  endfacet
  facet normal 0.555561 -0.831476 0
    outer loop
       vertex 0.325553 -0.198338 0
       vertex 0.325553 -0.198338 0.1
       vertex 0.298362 -0.216506 0.1
    endloop
  endfacet
  facet normal 0.555561 -0.831476 0
    outer loop
       vertex 0.298362 -0.216506 0.1
       vertex 0.298362 -0.216506 0
       vertex 0.325553 -0.198338 0
    endloop
  endfacet
  facet normal 0.442302 -0.896866 0
    outer loop
       vertex 0.298362 -0.216506 0
       vertex 0.298362 -0.216506 0.1
       vertex 0.269033 -0.23097 0.1
    endloop
  endfacet
  facet normal 0.442302 -0.896866 0
    outer loop
       vertex 0.269033 -0.23097 0.1
       vertex 0.269033 -0.23097 0
       vertex 0.298362 -0.216506 0
    endloop
  endfacet
  facet normal 0.321425 -0.946935 0
    outer loop
       vertex 0.269033 -0.23097 0
       vertex 0.269033 -0.23097 0.1
       vertex 0.238067 -0.241481 0.1
    endloop
  endfacet
  facet normal 0.321425 -0.946935 0
    outer loop
       vertex 0.238067 -0.241481 0.1
       vertex 0.238067 -0.241481 0
       vertex 0.269033 -0.23097 0
    endloop
  endfacet
  facet normal 0.195096 -0.980784 0
    outer loop
       vertex 0.238067 -0.241481 0
       vertex 0.238067 -0.241481 0.1
       vertex 0.205994 -0.247861 0.1
    endloop
  endfacet
  facet normal 0.195096 -0.980784 0
    outer loop
       vertex 0.205994 -0.247861 0.1
       vertex 0.205994 -0.247861 0
       vertex 0.238067 -0.241481 0
    endloop
  endfacet
  facet normal 0.0654098 -0.997858 0
    outer loop
       vertex 0.173362 -0.25 0
       vertex 0.205994 -0.247861 0
       vertex 0.205994 -0.247861 0.1
    endloop
  endfacet
  facet normal 0.0654098 -0.997858 1.0893e-16
    outer loop
       vertex 0.205994 -0.247861 0.1
       vertex 0.173362 -0.25 0.1
       vertex 0.173362 -0.25 0
    endloop
  endfacet
  facet normal -0.0654098 -0.997858 0
    outer loop
       vertex 0.173362 -0.25 0.1
       vertex 0.140731 -0.247861 0.1
       vertex 0.140731 -0.247861 0
    endloop
  endfacet
  facet normal -0.0654098 -0.997858 -1.0893e-16
    outer loop
       vertex 0.140731 -0.247861 0
       vertex 0.173362 -0.25 0
       vertex 0.173362 -0.25 0.1
    endloop
  endfacet
  facet normal -0.195096 -0.980784 0
    outer loop
       vertex 0.140731 -0.247861 0
       vertex 0.140731 -0.247861 0.1
       vertex 0.108657 -0.241481 0.1
    endloop
  endfacet
  facet normal -0.195096 -0.980784 -0
    outer loop
       vertex 0.108657 -0.241481 0.1
       vertex 0.108657 -0.241481 0
       vertex 0.140731 -0.247861 0
    endloop
  endfacet
  facet normal -0.321425 -0.946935 0
    outer loop
       vertex 0.108657 -0.241481 0
       vertex 0.108657 -0.241481 0.1
       vertex 0.0776913 -0.23097 0.1
    endloop
  endfacet
  facet normal -0.321425 -0.946935 -0
    outer loop
       vertex 0.0776913 -0.23097 0.1
       vertex 0.0776913 -0.23097 0
       vertex 0.108657 -0.241481 0
    endloop
  endfacet
  facet normal -0.442302 -0.896866 0
    outer loop
       vertex 0.0776913 -0.23097 0
       vertex 0.0776913 -0.23097 0.1
       vertex 0.0483623 -0.216506 0.1
    endloop
  endfacet
  facet normal -0.442302 -0.896866 -0
    outer loop
       vertex 0.0483623 -0.216506 0.1
       vertex 0.0483623 -0.216506 0
       vertex 0.0776913 -0.23097 0
    endloop
  endfacet
  facet normal -0.555561 -0.831476 0
    outer loop
       vertex 0.0483623 -0.216506 0
       vertex 0.0483623 -0.216506 0.1
       vertex 0.0211713 -0.198338 0.1
    endloop
  endfacet
  facet normal -0.555561 -0.831476 -0
    outer loop
       vertex 0.0211713 -0.198338 0.1
       vertex 0.0211713 -0.198338 0
       vertex 0.0483623 -0.216506 0
    endloop
  endfacet
  facet normal -0.659372 -0.751817 0
    outer loop
       vertex 0.0211713 -0.198338 0
       vertex 0.0211713 -0.198338 0.1
       vertex -0.00341365 -0.176776 0.1
    endloop
  endfacet
  facet normal -0.659372 -0.751817 -0
    outer loop
       vertex -0.00341365 -0.176776 0.1
       vertex -0.00341365 -0.176776 0
       vertex 0.0211713 -0.198338 0
    endloop
  endfacet
endsolid cylinder
