solid cylinder
  facet normal 0.751817 -0.659372 0
    outer loop
       vertex 0.44717 -0.176776 0
       vertex 0.468732 -0.152191 0
       vertex 0.468732 -0.152191 0.1
    endloop
  endfacet
  facet normal 0.751817 -0.659372 0
    outer loop
       vertex 0.468732 -0.152191 0.1
       vertex 0.44717 -0.176776 0.1
       vertex 0.44717 -0.176776 0
    endloop
  endfacet
  facet normal 0.831476 -0.555561 0
    outer loop
       vertex 0.468732 -0.152191 0
       vertex 0.4869 -0.125 0
       vertex 0.4869 -0.125 0.1
    endloop
  endfacet
  facet normal 0.831476 -0.555561 0
    outer loop
       vertex 0.4869 -0.125 0.1
       vertex 0.468732 -0.152191 0.1
       vertex 0.468732 -0.152191 0
    endloop
  endfacet
  facet normal 0.896866 -0.442302 0
    outer loop
       vertex 0.4869 -0.125 0
       vertex 0.501364 -0.095671 0
       vertex 0.501364 -0.095671 0.1
    endloop
  endfacet
  facet normal 0.896866 -0.442302 0
    outer loop
       vertex 0.501364 -0.095671 0.1
       vertex 0.4869 -0.125 0.1
       vertex 0.4869 -0.125 0
    endloop
  endfacet
  facet normal 0.946935 -0.321425 0
    outer loop
       vertex 0.501364 -0.095671 0
       vertex 0.511875 -0.064705 0
       vertex 0.511875 -0.064705 0.1
    endloop
  endfacet
  facet normal 0.946935 -0.321425 0
    outer loop
       vertex 0.511875 -0.064705 0.1
       vertex 0.501364 -0.095671 0.1
       vertex 0.501364 -0.095671 0
    endloop
  endfacet
  facet normal 0.980784 -0.195096 0
    outer loop
       vertex 0.511875 -0.064705 0
       vertex 0.518255 -0.0326315 0
       vertex 0.518255 -0.0326315 0.1
    endloop
  endfacet
  facet normal 0.980784 -0.195096 0
    outer loop
       vertex 0.518255 -0.0326315 0.1
       vertex 0.511875 -0.064705 0.1
       vertex 0.511875 -0.064705 0
    endloop
  endfacet
  facet normal 0.997858 -0.0654098 0
    outer loop
       vertex 0.520394 -8.32665e-17 0.1
       vertex 0.518255 -0.0326315 0.1
       vertex 0.518255 -0.0326315 0
    endloop
  endfacet
  facet normal 0.997858 -0.0654098 -1.08928e-16
    outer loop
       vertex 0.518255 -0.0326315 0
       vertex 0.520394 8.32665e-17 0
       vertex 0.520394 -8.32665e-17 0.1
    endloop
  endfacet
  facet normal 0.997858 0.0654098 0
    outer loop
       vertex 0.520394 8.32665e-17 0
       vertex 0.518255 0.0326315 0
       vertex 0.518255 0.0326315 0.1
    endloop
  endfacet
  facet normal 0.997858 0.0654098 1.08928e-16
    outer loop
       vertex 0.518255 0.0326315 0.1
       vertex 0.520394 -8.32665e-17 0.1
       vertex 0.520394 8.32665e-17 0
    endloop
  endfacet
  facet normal 0.980784 0.195096 0
    outer loop
       vertex 0.518255 0.0326315 0
       vertex 0.511875 0.064705 0
       vertex 0.511875 0.064705 0.1
    endloop
  endfacet
  facet normal 0.980784 0.195096 0
    outer loop
       vertex 0.511875 0.064705 0.1
       vertex 0.518255 0.0326315 0.1
       vertex 0.518255 0.0326315 0
    endloop
  endfacet
  facet normal 0.946935 0.321425 0
    outer loop
       vertex 0.511875 0.064705 0
       vertex 0.501364 0.095671 0
       vertex 0.501364 0.095671 0.1
    endloop
  endfacet
  facet normal 0.946935 0.321425 0
    outer loop
       vertex 0.501364 0.095671 0.1
       vertex 0.511875 0.064705 0.1
       vertex 0.511875 0.064705 0
    endloop
  endfacet
  facet normal 0.896866 0.442302 0
    outer loop
       vertex 0.501364 0.095671 0
       vertex 0.4869 0.125 0
       vertex 0.4869 0.125 0.1
    endloop
  endfacet
  facet normal 0.896866 0.442302 0
    outer loop
       vertex 0.4869 0.125 0.1
       vertex 0.501364 0.095671 0.1
       vertex 0.501364 0.095671 0
    endloop
  endfacet
  facet normal 0.831476 0.555561 0
    outer loop
       vertex 0.4869 0.125 0
       vertex 0.468732 0.152191 0
       vertex 0.468732 0.152191 0.1
    endloop
  endfacet
  facet normal 0.831476 0.555561 0
    outer loop
       vertex 0.468732 0.152191 0.1
       vertex 0.4869 0.125 0.1
       vertex 0.4869 0.125 0
    endloop
  endfacet
  facet normal 0.751817 0.659372 0
    outer loop
       vertex 0.468732 0.152191 0
       vertex 0.44717 0.176776 0
       vertex 0.44717 0.176776 0.1
    endloop
  endfacet
  facet normal 0.751817 0.659372 0
    outer loop
       vertex 0.44717 0.176776 0.1
       vertex 0.468732 0.152191 0.1
       vertex 0.468732 0.152191 0
    endloop
  endfacet
  facet normal 0.659372 0.751817 0
    outer loop
       vertex 0.44717 0.176776 0
       vertex 0.422585 0.198338 0
       vertex 0.422585 0.198338 0.1
    endloop
  endfacet
  facet normal 0.659372 0.751817 0
    outer loop
       vertex 0.422585 0.198338 0.1
       vertex 0.44717 0.176776 0.1
       vertex 0.44717 0.176776 0
    endloop
  endfacet
  facet normal 0.555561 0.831476 0
    outer loop
       vertex 0.422585 0.198338 0
       vertex 0.395394 0.216506 0
       vertex 0.395394 0.216506 0.1
    endloop
  endfacet
  facet normal 0.555561 0.831476 0
    outer loop
       vertex 0.395394 0.216506 0.1
       vertex 0.422585 0.198338 0.1
       vertex 0.422585 0.198338 0
    endloop
  endfacet
  facet normal 0.442302 0.896866 0
    outer loop
       vertex 0.395394 0.216506 0
       vertex 0.366065 0.23097 0
       vertex 0.366065 0.23097 0.1
    endloop
  endfacet
  facet normal 0.442302 0.896866 0
    outer loop
       vertex 0.366065 0.23097 0.1
       vertex 0.395394 0.216506 0.1
       vertex 0.395394 0.216506 0
    endloop
  endfacet
  facet normal 0.321425 0.946935 0
    outer loop
       vertex 0.366065 0.23097 0
       vertex 0.335099 0.241481 0
       vertex 0.335099 0.241481 0.1
    endloop
  endfacet
  facet normal 0.321425 0.946935 0
    outer loop
       vertex 0.335099 0.241481 0.1
       vertex 0.366065 0.23097 0.1
       vertex 0.366065 0.23097 0
    endloop
  endfacet
  facet normal 0.195096 0.980784 0
    outer loop
       vertex 0.335099 0.241481 0
       vertex 0.303025 0.247861 0
       vertex 0.303025 0.247861 0.1
    endloop
  endfacet
  facet normal 0.195096 0.980784 0
    outer loop
       vertex 0.303025 0.247861 0.1
       vertex 0.335099 0.241481 0.1
       vertex 0.335099 0.241481 0
    endloop
  endfacet
  facet normal 0.0654098 0.997858 0
    outer loop
       vertex 0.270394 0.25 0.1
       vertex 0.303025 0.247861 0.1
       vertex 0.303025 0.247861 0
    endloop
  endfacet
  facet normal 0.0654098 0.997858 -1.45239e-16
    outer loop
       vertex 0.303025 0.247861 0
       vertex 0.270394 0.25 0
       vertex 0.270394 0.25 0.1
    endloop
  endfacet
  facet normal -0.0654098 0.997858 0
    outer loop
       vertex 0.270394 0.25 0
       vertex 0.237762 0.247861 0
       vertex 0.237762 0.247861 0.1
    endloop
  endfacet
  facet normal -0.0654098 0.997858 1.45239e-16
    outer loop
       vertex 0.237762 0.247861 0.1
       vertex 0.270394 0.25 0.1
       vertex 0.270394 0.25 0
    endloop
  endfacet
  facet normal -0.195096 0.980784 0
    outer loop
       vertex 0.237762 0.247861 0
       vertex 0.205689 0.241481 0
       vertex 0.205689 0.241481 0.1
    endloop
  endfacet
  facet normal -0.195096 0.980784 0
    outer loop
       vertex 0.205689 0.241481 0.1
       vertex 0.237762 0.247861 0.1
       vertex 0.237762 0.247861 0
    endloop
  endfacet
  facet normal -0.321425 0.946935 0
    outer loop
       vertex 0.205689 0.241481 0
       vertex 0.174723 0.23097 0
       vertex 0.174723 0.23097 0.1
    endloop
  endfacet
  facet normal -0.321425 0.946935 0
    outer loop
       vertex 0.174723 0.23097 0.1
       vertex 0.205689 0.241481 0.1
       vertex 0.205689 0.241481 0
    endloop
  endfacet
  facet normal -0.442302 0.896866 0
    outer loop
       vertex 0.174723 0.23097 0
       vertex 0.145394 0.216506 0
       vertex 0.145394 0.216506 0.1
    endloop
  endfacet
  facet normal -0.442302 0.896866 0
    outer loop
       vertex 0.145394 0.216506 0.1
       vertex 0.174723 0.23097 0.1
       vertex 0.174723 0.23097 0
    endloop
  endfacet
  facet normal -0.555561 0.831476 0
    outer loop
       vertex 0.145394 0.216506 0
       vertex 0.118203 0.198338 0
       vertex 0.118203 0.198338 0.1
    endloop
  endfacet
  facet normal -0.555561 0.831476 0
    outer loop
       vertex 0.118203 0.198338 0.1
       vertex 0.145394 0.216506 0.1
       vertex 0.145394 0.216506 0
    endloop
  endfacet
  facet normal -0.659372 0.751817 0
    outer loop
       vertex 0.118203 0.198338 0
       vertex 0.0936177 0.176776 0
       vertex 0.0936177 0.176776 0.1
    endloop
  endfacet
  facet normal -0.659372 0.751817 0
    outer loop
       vertex 0.0936177 0.176776 0.1
       vertex 0.118203 0.198338 0.1
       vertex 0.118203 0.198338 0
    endloop
  endfacet
  facet normal -0.751817 0.659372 0
    outer loop
       vertex 0.0936177 0.176776 0
       vertex 0.0720557 0.152191 0
       vertex 0.0720557 0.152191 0.1
    endloop
  endfacet
  facet normal -0.751817 0.659372 0
    outer loop
       vertex 0.0720557 0.152191 0.1
       vertex 0.0936177 0.176776 0.1
       vertex 0.0936177 0.176776 0
    endloop
  endfacet
  facet normal -0.831476 0.555561 0
    outer loop
       vertex 0.0720557 0.152191 0
       vertex 0.0538877 0.125 0
       vertex 0.0538877 0.125 0.1
    endloop
  endfacet
  facet normal -0.831476 0.555561 0
    outer loop
       vertex 0.0538877 0.125 0.1
       vertex 0.0720557 0.152191 0.1
       vertex 0.0720557 0.152191 0
    endloop
  endfacet
  facet normal -0.896866 0.442302 0
    outer loop
       vertex 0.0538877 0.125 0
       vertex 0.0394237 0.095671 0
       vertex 0.0394237 0.095671 0.1
    endloop
  endfacet
  facet normal -0.896866 0.442302 0
    outer loop
       vertex 0.0394237 0.095671 0.1
       vertex 0.0538877 0.125 0.1
       vertex 0.0538877 0.125 0
    endloop
  endfacet
  facet normal -0.946935 0.321425 0
    outer loop
       vertex 0.0394237 0.095671 0
       vertex 0.0289127 0.064705 0
       vertex 0.0289127 0.064705 0.1
    endloop
  endfacet
  facet normal -0.946935 0.321425 0
    outer loop
       vertex 0.0289127 0.064705 0.1
       vertex 0.0394237 0.095671 0.1
       vertex 0.0394237 0.095671 0
    endloop
  endfacet
  facet normal -0.980784 0.195096 0
    outer loop
       vertex 0.0289127 0.064705 0
       vertex 0.0225327 0.0326315 0
       vertex 0.0225327 0.0326315 0.1
    endloop
  endfacet
  facet normal -0.980784 0.195096 0
    outer loop
       vertex 0.0225327 0.0326315 0.1
       vertex 0.0289127 0.064705 0.1
       vertex 0.0289127 0.064705 0
    endloop
  endfacet
  facet normal -0.997858 0.0654098 0
    outer loop
       vertex 0.0203937 8.32665e-17 0.1
       vertex 0.0225327 0.0326315 0.1
       vertex 0.0225327 0.0326315 0
    endloop
  endfacet
  facet normal -0.997858 0.0654098 -1.08928e-16
    outer loop
       vertex 0.0225327 0.0326315 0
       vertex 0.0203937 -8.32665e-17 0
       vertex 0.0203937 8.32665e-17 0.1
    endloop
  endfacet
  facet normal -0.997858 -0.0654098 0
    outer loop
       vertex 0.0203937 -8.32665e-17 0
       vertex 0.0225327 -0.0326315 0
       vertex 0.0225327 -0.0326315 0.1
    endloop
  endfacet
  facet normal -0.997858 -0.0654098 1.08928e-16
    outer loop
       vertex 0.0225327 -0.0326315 0.1
       vertex 0.0203937 8.32665e-17 0.1
       vertex 0.0203937 -8.32665e-17 0
    endloop
  endfacet
  facet normal -0.980784 -0.195096 0
    outer loop
       vertex 0.0225327 -0.0326315 0
       vertex 0.0289127 -0.064705 0
       vertex 0.0289127 -0.064705 0.1
    endloop
  endfacet
  facet normal -0.980784 -0.195096 0
    outer loop
       vertex 0.0289127 -0.064705 0.1
       vertex 0.0225327 -0.0326315 0.1
       vertex 0.0225327 -0.0326315 0
    endloop
  endfacet
  facet normal -0.946935 -0.321425 0
    outer loop
       vertex 0.0289127 -0.064705 0
       vertex 0.0394237 -0.095671 0
       vertex 0.0394237 -0.095671 0.1
    endloop
  endfacet
  facet normal -0.946935 -0.321425 0
    outer loop
       vertex 0.0394237 -0.095671 0.1
       vertex 0.0289127 -0.064705 0.1
       vertex 0.0289127 -0.064705 0
    endloop
  endfacet
  facet normal -0.896866 -0.442302 0
    outer loop
       vertex 0.0394237 -0.095671 0
       vertex 0.0538877 -0.125 0
       vertex 0.0538877 -0.125 0.1
    endloop
  endfacet
  facet normal -0.896866 -0.442302 0
    outer loop
       vertex 0.0538877 -0.125 0.1
       vertex 0.0394237 -0.095671 0.1
       vertex 0.0394237 -0.095671 0
    endloop
  endfacet
  facet normal -0.831476 -0.555561 0
    outer loop
       vertex 0.0538877 -0.125 0
       vertex 0.0720557 -0.152191 0
       vertex 0.0720557 -0.152191 0.1
    endloop
  endfacet
  facet normal -0.831476 -0.555561 0
    outer loop
       vertex 0.0720557 -0.152191 0.1
       vertex 0.0538877 -0.125 0.1
       vertex 0.0538877 -0.125 0
    endloop
  endfacet
  facet normal -0.751817 -0.659372 0
    outer loop
       vertex 0.0720557 -0.152191 0
       vertex 0.0936177 -0.176776 0
       vertex 0.0936177 -0.176776 0.1
    endloop
  endfacet
  facet normal -0.751817 -0.659372 0
    outer loop
       vertex 0.0936177 -0.176776 0.1
       vertex 0.0720557 -0.152191 0.1
       vertex 0.0720557 -0.152191 0
    endloop
  endfacet
  facet normal 0.659372 -0.751817 0
    outer loop
       vertex 0.44717 -0.176776 0
       vertex 0.44717 -0.176776 0.1
       vertex 0.422585 -0.198338 0.1
    endloop
  endfacet
  facet normal 0.659372 -0.751817 0
    outer loop
       vertex 0.422585 -0.198338 0.1
       vertex 0.422585 -0.198338 0
       vertex 0.44717 -0.176776 0
    endloop
  endfacet
  facet normal 0.555561 -0.831476 0
    outer loop
       vertex 0.422585 -0.198338 0
       vertex 0.422585 -0.198338 0.1
       vertex 0.395394 -0.216506 0.1
    endloop
  endfacet
  facet normal 0.555561 -0.831476 0
    outer loop
       vertex 0.395394 -0.216506 0.1
       vertex 0.395394 -0.216506 0
       vertex 0.422585 -0.198338 0
    endloop
  endfacet
  facet normal 0.442302 -0.896866 0
    outer loop
       vertex 0.395394 -0.216506 0
       vertex 0.395394 -0.216506 0.1
       vertex 0.366065 -0.23097 0.1
    endloop
  endfacet
  facet normal 0.442302 -0.896866 0
    outer loop
       vertex 0.366065 -0.23097 0.1
       vertex 0.366065 -0.23097 0
       vertex 0.395394 -0.216506 0
    endloop
  endfacet
  facet normal 0.321425 -0.946935 0
    outer loop
       vertex 0.366065 -0.23097 0
       vertex 0.366065 -0.23097 0.1
       vertex 0.335099 -0.241481 0.1
    endloop
  endfacet
  facet normal 0.321425 -0.946935 0
    outer loop
       vertex 0.335099 -0.241481 0.1
       vertex 0.335099 -0.241481 0
       vertex 0.366065 -0.23097 0
    endloop
  endfacet
  facet normal 0.195096 -0.980784 0
    outer loop
       vertex 0.335099 -0.241481 0
       vertex 0.335099 -0.241481 0.1
       vertex 0.303025 -0.247861 0.1
    endloop
  endfacet
  facet normal 0.195096 -0.980784 0
    outer loop
       vertex 0.303025 -0.247861 0.1
       vertex 0.303025 -0.247861 0
       vertex 0.335099 -0.241481 0
    endloop
  endfacet
  facet normal 0.0654098 -0.997858 0
    outer loop
       vertex 0.270394 -0.25 0
       vertex 0.303025 -0.247861 0
       vertex 0.303025 -0.247861 0.1
    endloop
  endfacet
  facet normal 0.0654098 -0.997858 1.45239e-16
    outer loop
       vertex 0.303025 -0.247861 0.1
       vertex 0.270394 -0.25 0.1
       vertex 0.270394 -0.25 0
    endloop
  endfacet
  facet normal -0.0654098 -0.997858 0
    outer loop
       vertex 0.270394 -0.25 0.1
       vertex 0.237762 -0.247861 0.1
       vertex 0.237762 -0.247861 0
    endloop
  endfacet
  facet normal -0.0654098 -0.997858 -1.45239e-16
    outer loop
       vertex 0.237762 -0.247861 0
       vertex 0.270394 -0.25 0
       vertex 0.270394 -0.25 0.1
    endloop
  endfacet
  facet normal -0.195096 -0.980784 0
    outer loop
       vertex 0.237762 -0.247861 0
       vertex 0.237762 -0.247861 0.1
       vertex 0.205689 -0.241481 0.1
    endloop
  endfacet
  facet normal -0.195096 -0.980784 -0
    outer loop
       vertex 0.205689 -0.241481 0.1
       vertex 0.205689 -0.241481 0
       vertex 0.237762 -0.247861 0
    endloop
  endfacet
  facet normal -0.321425 -0.946935 0
    outer loop
       vertex 0.205689 -0.241481 0
       vertex 0.205689 -0.241481 0.1
       vertex 0.174723 -0.23097 0.1
    endloop
  endfacet
  facet normal -0.321425 -0.946935 -0
    outer loop
       vertex 0.174723 -0.23097 0.1
       vertex 0.174723 -0.23097 0
       vertex 0.205689 -0.241481 0
    endloop
  endfacet
  facet normal -0.442302 -0.896866 0
    outer loop
       vertex 0.174723 -0.23097 0
       vertex 0.174723 -0.23097 0.1
       vertex 0.145394 -0.216506 0.1
    endloop
  endfacet
  facet normal -0.442302 -0.896866 -0
    outer loop
       vertex 0.145394 -0.216506 0.1
       vertex 0.145394 -0.216506 0
       vertex 0.174723 -0.23097 0
    endloop
  endfacet
  facet normal -0.555561 -0.831476 0
    outer loop
       vertex 0.145394 -0.216506 0
       vertex 0.145394 -0.216506 0.1
       vertex 0.118203 -0.198338 0.1
    endloop
  endfacet
  facet normal -0.555561 -0.831476 -0
    outer loop
       vertex 0.118203 -0.198338 0.1
       vertex 0.118203 -0.198338 0
       vertex 0.145394 -0.216506 0
    endloop
  endfacet
  facet normal -0.659372 -0.751817 0
    outer loop
       vertex 0.118203 -0.198338 0
       vertex 0.118203 -0.198338 0.1
       vertex 0.0936177 -0.176776 0.1
    endloop
  endfacet
  facet normal -0.659372 -0.751817 -0
    outer loop
       vertex 0.0936177 -0.176776 0.1
       vertex 0.0936177 -0.176776 0
       vertex 0.118203 -0.198338 0
    endloop
  endfacet
endsolid cylinder
