solid cylinder
  facet normal 0.751817 -0.659372 0
    outer loop
       vertex 0.209797 -0.176776 0
       vertex 0.231359 -0.152191 0
       vertex 0.231359 -0.152191 0.1
    endloop
  endfacet
  facet normal 0.751817 -0.659372 0
    outer loop
       vertex 0.231359 -0.152191 0.1
       vertex 0.209797 -0.176776 0.1
       vertex 0.209797 -0.176776 0
    endloop
  endfacet
  facet normal 0.831476 -0.555561 0
    outer loop
       vertex 0.231359 -0.152191 0
       vertex 0.249527 -0.125 0
       vertex 0.249527 -0.125 0.1
    endloop
  endfacet
  facet normal 0.831476 -0.555561 0
    outer loop
       vertex 0.249527 -0.125 0.1
       vertex 0.231359 -0.152191 0.1
       vertex 0.231359 -0.152191 0
    endloop
  endfacet
  facet normal 0.896866 -0.442302 0
    outer loop
       vertex 0.249527 -0.125 0
       vertex 0.263991 -0.095671 0
       vertex 0.263991 -0.095671 0.1
    endloop
  endfacet
  facet normal 0.896866 -0.442302 0
    outer loop
       vertex 0.263991 -0.095671 0.1
       vertex 0.249527 -0.125 0.1
       vertex 0.249527 -0.125 0
    endloop
  endfacet
  facet normal 0.946935 -0.321425 0
    outer loop
       vertex 0.263991 -0.095671 0
       vertex 0.274502 -0.064705 0
       vertex 0.274502 -0.064705 0.1
    endloop
  endfacet
  facet normal 0.946935 -0.321425 0
    outer loop
       vertex 0.274502 -0.064705 0.1
       vertex 0.263991 -0.095671 0.1
       vertex 0.263991 -0.095671 0
    endloop
  endfacet
  facet normal 0.980784 -0.195096 0
    outer loop
       vertex 0.274502 -0.064705 0
       vertex 0.280882 -0.0326315 0
       vertex 0.280882 -0.0326315 0.1
    endloop
  endfacet
  facet normal 0.980784 -0.195096 0
    outer loop
       vertex 0.280882 -0.0326315 0.1
       vertex 0.274502 -0.064705 0.1
       vertex 0.274502 -0.064705 0
    endloop
  endfacet
  facet normal 0.997858 -0.0654098 0
    outer loop
       vertex 0.283021 -8.32665e-17 0.1
       vertex 0.280882 -0.0326315 0.1
       vertex 0.280882 -0.0326315 0
    endloop
  endfacet
  facet normal 0.997858 -0.0654098 -1.08928e-16
    outer loop
       vertex 0.280882 -0.0326315 0
       vertex 0.283021 8.32665e-17 0
       vertex 0.283021 -8.32665e-17 0.1
    endloop
  endfacet
  facet normal 0.997858 0.0654098 0
    outer loop
       vertex 0.283021 8.32665e-17 0
       vertex 0.280882 0.0326315 0
       vertex 0.280882 0.0326315 0.1
    endloop
  endfacet
  facet normal 0.997858 0.0654098 1.08928e-16
    outer loop
       vertex 0.280882 0.0326315 0.1
       vertex 0.283021 -8.32665e-17 0.1
       vertex 0.283021 8.32665e-17 0
    endloop
  endfacet
  facet normal 0.980784 0.195096 0
    outer loop
       vertex 0.280882 0.0326315 0
       vertex 0.274502 0.064705 0
       vertex 0.274502 0.064705 0.1
    endloop
  endfacet
  facet normal 0.980784 0.195096 0
    outer loop
       vertex 0.274502 0.064705 0.1
       vertex 0.280882 0.0326315 0.1
       vertex 0.280882 0.0326315 0
    endloop
  endfacet
  facet normal 0.946935 0.321425 0
    outer loop
       vertex 0.274502 0.064705 0
       vertex 0.263991 0.095671 0
       vertex 0.263991 0.095671 0.1
    endloop
  endfacet
  facet normal 0.946935 0.321425 0
    outer loop
       vertex 0.263991 0.095671 0.1
       vertex 0.274502 0.064705 0.1
       vertex 0.274502 0.064705 0
    endloop
  endfacet
  facet normal 0.896866 0.442302 0
    outer loop
       vertex 0.263991 0.095671 0
       vertex 0.249527 0.125 0
       vertex 0.249527 0.125 0.1
    endloop
  endfacet
  facet normal 0.896866 0.442302 0
    outer loop
       vertex 0.249527 0.125 0.1
       vertex 0.263991 0.095671 0.1
       vertex 0.263991 0.095671 0
    endloop
  endfacet
  facet normal 0.831476 0.555561 0
    outer loop
       vertex 0.249527 0.125 0
       vertex 0.231359 0.152191 0
       vertex 0.231359 0.152191 0.1
    endloop
  endfacet
  facet normal 0.831476 0.555561 0
    outer loop
       vertex 0.231359 0.152191 0.1
       vertex 0.249527 0.125 0.1
       vertex 0.249527 0.125 0
    endloop
  endfacet
  facet normal 0.751817 0.659372 0
    outer loop
       vertex 0.231359 0.152191 0
       vertex 0.209797 0.176776 0
       vertex 0.209797 0.176776 0.1
    endloop
  endfacet
  facet normal 0.751817 0.659372 0
    outer loop
       vertex 0.209797 0.176776 0.1
       vertex 0.231359 0.152191 0.1
       vertex 0.231359 0.152191 0
    endloop
  endfacet
  facet normal 0.659372 0.751817 0
    outer loop
       vertex 0.209797 0.176776 0
       vertex 0.185212 0.198338 0
       vertex 0.185212 0.198338 0.1
    endloop
  endfacet
  facet normal 0.659372 0.751817 0
    outer loop
       vertex 0.185212 0.198338 0.1
       vertex 0.209797 0.176776 0.1
       vertex 0.209797 0.176776 0
    endloop
  endfacet
  facet normal 0.555561 0.831476 0
    outer loop
       vertex 0.185212 0.198338 0
       vertex 0.158021 0.216506 0
       vertex 0.158021 0.216506 0.1
    endloop
  endfacet
  facet normal 0.555561 0.831476 0
    outer loop
       vertex 0.158021 0.216506 0.1
       vertex 0.185212 0.198338 0.1
       vertex 0.185212 0.198338 0
    endloop
  endfacet
  facet normal 0.442302 0.896866 0
    outer loop
       vertex 0.158021 0.216506 0
       vertex 0.128692 0.23097 0
       vertex 0.128692 0.23097 0.1
    endloop
  endfacet
  facet normal 0.442302 0.896866 0
    outer loop
       vertex 0.128692 0.23097 0.1
       vertex 0.158021 0.216506 0.1
       vertex 0.158021 0.216506 0
    endloop
  endfacet
  facet normal 0.321425 0.946935 0
    outer loop
       vertex 0.128692 0.23097 0
       vertex 0.0977264 0.241481 0
       vertex 0.0977264 0.241481 0.1
    endloop
  endfacet
  facet normal 0.321425 0.946935 0
    outer loop
       vertex 0.0977264 0.241481 0.1
       vertex 0.128692 0.23097 0.1
       vertex 0.128692 0.23097 0
    endloop
  endfacet
  facet normal 0.195096 0.980784 0
    outer loop
       vertex 0.0977264 0.241481 0
       vertex 0.0656529 0.247861 0
       vertex 0.0656529 0.247861 0.1
    endloop
  endfacet
  facet normal 0.195096 0.980784 0
    outer loop
       vertex 0.0656529 0.247861 0.1
       vertex 0.0977264 0.241481 0.1
       vertex 0.0977264 0.241481 0
    endloop
  endfacet
  facet normal 0.0654098 0.997858 0
    outer loop
       vertex 0.0330214 0.25 0.1
       vertex 0.0656529 0.247861 0.1
       vertex 0.0656529 0.247861 0
    endloop
  endfacet
  facet normal 0.0654098 0.997858 -1.08928e-16
    outer loop
       vertex 0.0656529 0.247861 0
       vertex 0.0330214 0.25 0
       vertex 0.0330214 0.25 0.1
    endloop
  endfacet
  facet normal -0.0654098 0.997858 0
    outer loop
       vertex 0.0330214 0.25 0
       vertex 0.000389922 0.247861 0
       vertex 0.000389922 0.247861 0.1
    endloop
  endfacet
  facet normal -0.0654098 0.997858 1.08928e-16
    outer loop
       vertex 0.000389922 0.247861 0.1
       vertex 0.0330214 0.25 0.1
       vertex 0.0330214 0.25 0
    endloop
  endfacet
  facet normal -0.195096 0.980784 0
    outer loop
       vertex 0.000389922 0.247861 0
       vertex -0.0316836 0.241481 0
       vertex -0.0316836 0.241481 0.1
    endloop
  endfacet
  facet normal -0.195096 0.980784 0
    outer loop
       vertex -0.0316836 0.241481 0.1
       vertex 0.000389922 0.247861 0.1
       vertex 0.000389922 0.247861 0
    endloop
  endfacet
  facet normal -0.321425 0.946935 0
    outer loop
       vertex -0.0316836 0.241481 0
       vertex -0.0626496 0.23097 0
       vertex -0.0626496 0.23097 0.1
    endloop
  endfacet
  facet normal -0.321425 0.946935 0
    outer loop
       vertex -0.0626496 0.23097 0.1
       vertex -0.0316836 0.241481 0.1
       vertex -0.0316836 0.241481 0
    endloop
  endfacet
  facet normal -0.442302 0.896866 0
    outer loop
       vertex -0.0626496 0.23097 0
       vertex -0.0919786 0.216506 0
       vertex -0.0919786 0.216506 0.1
    endloop
  endfacet
  facet normal -0.442302 0.896866 0
    outer loop
       vertex -0.0919786 0.216506 0.1
       vertex -0.0626496 0.23097 0.1
       vertex -0.0626496 0.23097 0
    endloop
  endfacet
  facet normal -0.555561 0.831476 0
    outer loop
       vertex -0.0919786 0.216506 0
       vertex -0.11917 0.198338 0
       vertex -0.11917 0.198338 0.1
    endloop
  endfacet
  facet normal -0.555561 0.831476 0
    outer loop
       vertex -0.11917 0.198338 0.1
       vertex -0.0919786 0.216506 0.1
       vertex -0.0919786 0.216506 0
    endloop
  endfacet
  facet normal -0.659372 0.751817 0
    outer loop
       vertex -0.11917 0.198338 0
       vertex -0.143755 0.176776 0
       vertex -0.143755 0.176776 0.1
    endloop
  endfacet
  facet normal -0.659372 0.751817 0
    outer loop
       vertex -0.143755 0.176776 0.1
       vertex -0.11917 0.198338 0.1
       vertex -0.11917 0.198338 0
    endloop
  endfacet
  facet normal -0.751817 0.659372 0
    outer loop
       vertex -0.143755 0.176776 0
       vertex -0.165317 0.152191 0
       vertex -0.165317 0.152191 0.1
    endloop
  endfacet
  facet normal -0.751817 0.659372 0
    outer loop
       vertex -0.165317 0.152191 0.1
       vertex -0.143755 0.176776 0.1
       vertex -0.143755 0.176776 0
    endloop
  endfacet
  facet normal -0.831476 0.555561 0
    outer loop
       vertex -0.165317 0.152191 0
       vertex -0.183485 0.125 0
       vertex -0.183485 0.125 0.1
    endloop
  endfacet
  facet normal -0.831476 0.555561 0
    outer loop
       vertex -0.183485 0.125 0.1
       vertex -0.165317 0.152191 0.1
       vertex -0.165317 0.152191 0
    endloop
  endfacet
  facet normal -0.896866 0.442302 0
    outer loop
       vertex -0.183485 0.125 0
       vertex -0.197949 0.095671 0
       vertex -0.197949 0.095671 0.1
    endloop
  endfacet
  facet normal -0.896866 0.442302 0
    outer loop
       vertex -0.197949 0.095671 0.1
       vertex -0.183485 0.125 0.1
       vertex -0.183485 0.125 0
    endloop
  endfacet
  facet normal -0.946935 0.321425 0
    outer loop
       vertex -0.197949 0.095671 0
       vertex -0.20846 0.064705 0
       vertex -0.20846 0.064705 0.1
    endloop
  endfacet
  facet normal -0.946935 0.321425 0
    outer loop
       vertex -0.20846 0.064705 0.1
       vertex -0.197949 0.095671 0.1
       vertex -0.197949 0.095671 0
    endloop
  endfacet
  facet normal -0.980784 0.195096 0
    outer loop
       vertex -0.20846 0.064705 0
       vertex -0.21484 0.0326315 0
       vertex -0.21484 0.0326315 0.1
    endloop
  endfacet
  facet normal -0.980784 0.195096 0
    outer loop
       vertex -0.21484 0.0326315 0.1
       vertex -0.20846 0.064705 0.1
       vertex -0.20846 0.064705 0
    endloop
  endfacet
  facet normal -0.997858 0.0654098 0
    outer loop
       vertex -0.216979 8.32665e-17 0.1
       vertex -0.21484 0.0326315 0.1
       vertex -0.21484 0.0326315 0
    endloop
  endfacet
  facet normal -0.997858 0.0654098 -1.08928e-16
    outer loop
       vertex -0.21484 0.0326315 0
       vertex -0.216979 -8.32665e-17 0
       vertex -0.216979 8.32665e-17 0.1
    endloop
  endfacet
  facet normal -0.997858 -0.0654098 0
    outer loop
       vertex -0.216979 -8.32665e-17 0
       vertex -0.21484 -0.0326315 0
       vertex -0.21484 -0.0326315 0.1
    endloop
  endfacet
  facet normal -0.997858 -0.0654098 1.08928e-16
    outer loop
       vertex -0.21484 -0.0326315 0.1
       vertex -0.216979 8.32665e-17 0.1
       vertex -0.216979 -8.32665e-17 0
    endloop
  endfacet
  facet normal -0.980784 -0.195096 0
    outer loop
       vertex -0.21484 -0.0326315 0
       vertex -0.20846 -0.064705 0
       vertex -0.20846 -0.064705 0.1
    endloop
  endfacet
  facet normal -0.980784 -0.195096 0
    outer loop
       vertex -0.20846 -0.064705 0.1
       vertex -0.21484 -0.0326315 0.1
       vertex -0.21484 -0.0326315 0
    endloop
  endfacet
  facet normal -0.946935 -0.321425 0
    outer loop
       vertex -0.20846 -0.064705 0
       vertex -0.197949 -0.095671 0
       vertex -0.197949 -0.095671 0.1
    endloop
  endfacet
  facet normal -0.946935 -0.321425 0
    outer loop
       vertex -0.197949 -0.095671 0.1
       vertex -0.20846 -0.064705 0.1
       vertex -0.20846 -0.064705 0
    endloop
  endfacet
  facet normal -0.896866 -0.442302 0
    outer loop
       vertex -0.197949 -0.095671 0
       vertex -0.183485 -0.125 0
       vertex -0.183485 -0.125 0.1
    endloop
  endfacet
  facet normal -0.896866 -0.442302 0
    outer loop
       vertex -0.183485 -0.125 0.1
       vertex -0.197949 -0.095671 0.1
       vertex -0.197949 -0.095671 0
    endloop
  endfacet
  facet normal -0.831476 -0.555561 0
    outer loop
       vertex -0.183485 -0.125 0
       vertex -0.165317 -0.152191 0
       vertex -0.165317 -0.152191 0.1
    endloop
  endfacet
  facet normal -0.831476 -0.555561 0
    outer loop
       vertex -0.165317 -0.152191 0.1
       vertex -0.183485 -0.125 0.1
       vertex -0.183485 -0.125 0
    endloop
  endfacet
  facet normal -0.751817 -0.659372 0
    outer loop
       vertex -0.165317 -0.152191 0
       vertex -0.143755 -0.176776 0
       vertex -0.143755 -0.176776 0.1
    endloop
  endfacet
  facet normal -0.751817 -0.659372 0
    outer loop
       vertex -0.143755 -0.176776 0.1
       vertex -0.165317 -0.152191 0.1
       vertex -0.165317 -0.152191 0
    endloop
  endfacet
  facet normal 0.659372 -0.751817 0
    outer loop
       vertex 0.209797 -0.176776 0
       vertex 0.209797 -0.176776 0.1
       vertex 0.185212 -0.198338 0.1
    endloop
  endfacet
  facet normal 0.659372 -0.751817 0
    outer loop
       vertex 0.185212 -0.198338 0.1
       vertex 0.185212 -0.198338 0
       vertex 0.209797 -0.176776 0
    endloop
  endfacet
  facet normal 0.555561 -0.831476 0
    outer loop
       vertex 0.185212 -0.198338 0
       vertex 0.185212 -0.198338 0.1
       vertex 0.158021 -0.216506 0.1
    endloop
  endfacet
  facet normal 0.555561 -0.831476 0
    outer loop
       vertex 0.158021 -0.216506 0.1
       vertex 0.158021 -0.216506 0
       vertex 0.185212 -0.198338 0
    endloop
  endfacet
  facet normal 0.442302 -0.896866 0
    outer loop
       vertex 0.158021 -0.216506 0
       vertex 0.158021 -0.216506 0.1
       vertex 0.128692 -0.23097 0.1
    endloop
  endfacet
  facet normal 0.442302 -0.896866 0
    outer loop
       vertex 0.128692 -0.23097 0.1
       vertex 0.128692 -0.23097 0
       vertex 0.158021 -0.216506 0
    endloop
  endfacet
  facet normal 0.321425 -0.946935 0
    outer loop
       vertex 0.128692 -0.23097 0
       vertex 0.128692 -0.23097 0.1
       vertex 0.0977264 -0.241481 0.1
    endloop
  endfacet
  facet normal 0.321425 -0.946935 0
    outer loop
       vertex 0.0977264 -0.241481 0.1
       vertex 0.0977264 -0.241481 0
       vertex 0.128692 -0.23097 0
    endloop
  endfacet
  facet normal 0.195096 -0.980784 0
    outer loop
       vertex 0.0977264 -0.241481 0
       vertex 0.0977264 -0.241481 0.1
       vertex 0.0656529 -0.247861 0.1
    endloop
  endfacet
  facet normal 0.195096 -0.980784 0
    outer loop
       vertex 0.0656529 -0.247861 0.1
       vertex 0.0656529 -0.247861 0
       vertex 0.0977264 -0.241481 0
    endloop
  endfacet
  facet normal 0.0654098 -0.997858 0
    outer loop
       vertex 0.0330214 -0.25 0
       vertex 0.0656529 -0.247861 0
       vertex 0.0656529 -0.247861 0.1
    endloop
  endfacet
  facet normal 0.0654098 -0.997858 1.08928e-16
    outer loop
       vertex 0.0656529 -0.247861 0.1
       vertex 0.0330214 -0.25 0.1
       vertex 0.0330214 -0.25 0
    endloop
  endfacet
  facet normal -0.0654098 -0.997858 0
    outer loop
       vertex 0.0330214 -0.25 0.1
       vertex 0.000389922 -0.247861 0.1
       vertex 0.000389922 -0.247861 0
    endloop
  endfacet
  facet normal -0.0654098 -0.997858 -1.08928e-16
    outer loop
       vertex 0.000389922 -0.247861 0
       vertex 0.0330214 -0.25 0
       vertex 0.0330214 -0.25 0.1
    endloop
  endfacet
  facet normal -0.195096 -0.980784 0
    outer loop
       vertex 0.000389922 -0.247861 0
       vertex 0.000389922 -0.247861 0.1
       vertex -0.0316836 -0.241481 0.1
    endloop
  endfacet
  facet normal -0.195096 -0.980784 -0
    outer loop
       vertex -0.0316836 -0.241481 0.1
       vertex -0.0316836 -0.241481 0
       vertex 0.000389922 -0.247861 0
    endloop
  endfacet
  facet normal -0.321425 -0.946935 0
    outer loop
       vertex -0.0316836 -0.241481 0
       vertex -0.0316836 -0.241481 0.1
       vertex -0.0626496 -0.23097 0.1
    endloop
  endfacet
  facet normal -0.321425 -0.946935 -0
    outer loop
       vertex -0.0626496 -0.23097 0.1
       vertex -0.0626496 -0.23097 0
       vertex -0.0316836 -0.241481 0
    endloop
  endfacet
  facet normal -0.442302 -0.896866 0
    outer loop
       vertex -0.0626496 -0.23097 0
       vertex -0.0626496 -0.23097 0.1
       vertex -0.0919786 -0.216506 0.1
    endloop
  endfacet
  facet normal -0.442302 -0.896866 -0
    outer loop
       vertex -0.0919786 -0.216506 0.1
       vertex -0.0919786 -0.216506 0
       vertex -0.0626496 -0.23097 0
    endloop
  endfacet
  facet normal -0.555561 -0.831476 0
    outer loop
       vertex -0.0919786 -0.216506 0
       vertex -0.0919786 -0.216506 0.1
       vertex -0.11917 -0.198338 0.1
    endloop
  endfacet
  facet normal -0.555561 -0.831476 -0
    outer loop
       vertex -0.11917 -0.198338 0.1
       vertex -0.11917 -0.198338 0
       vertex -0.0919786 -0.216506 0
    endloop
  endfacet
  facet normal -0.659372 -0.751817 0
    outer loop
       vertex -0.11917 -0.198338 0
       vertex -0.11917 -0.198338 0.1
       vertex -0.143755 -0.176776 0.1
    endloop
  endfacet
  facet normal -0.659372 -0.751817 -0
    outer loop
       vertex -0.143755 -0.176776 0.1
       vertex -0.143755 -0.176776 0
       vertex -0.11917 -0.198338 0
    endloop
  endfacet
endsolid cylinder
