solid cylinder
  facet normal 0.751817 -0.659372 0
    outer loop
       vertex 0.108166 -0.176776 0
       vertex 0.129728 -0.152191 0
       vertex 0.129728 -0.152191 0.1
    endloop
  endfacet
  facet normal 0.751817 -0.659372 0
    outer loop
       vertex 0.129728 -0.152191 0.1
       vertex 0.108166 -0.176776 0.1
       vertex 0.108166 -0.176776 0
    endloop
  endfacet
  facet normal 0.831476 -0.555561 0
    outer loop
       vertex 0.129728 -0.152191 0
       vertex 0.147896 -0.125 0
       vertex 0.147896 -0.125 0.1
    endloop
  endfacet
  facet normal 0.831476 -0.555561 0
    outer loop
       vertex 0.147896 -0.125 0.1
       vertex 0.129728 -0.152191 0.1
       vertex 0.129728 -0.152191 0
    endloop
  endfacet
  facet normal 0.896866 -0.442302 0
    outer loop
       vertex 0.147896 -0.125 0
       vertex 0.16236 -0.095671 0
       vertex 0.16236 -0.095671 0.1
    endloop
  endfacet
  facet normal 0.896866 -0.442302 0
    outer loop
       vertex 0.16236 -0.095671 0.1
       vertex 0.147896 -0.125 0.1
       vertex 0.147896 -0.125 0
    endloop
  endfacet
  facet normal 0.946935 -0.321425 0
    outer loop
       vertex 0.16236 -0.095671 0
       vertex 0.172871 -0.064705 0
       vertex 0.172871 -0.064705 0.1
    endloop
  endfacet
  facet normal 0.946935 -0.321425 0
    outer loop
       vertex 0.172871 -0.064705 0.1
       vertex 0.16236 -0.095671 0.1
       vertex 0.16236 -0.095671 0
    endloop
  endfacet
  facet normal 0.980784 -0.195096 0
    outer loop
       vertex 0.172871 -0.064705 0
       vertex 0.179251 -0.0326315 0
       vertex 0.179251 -0.0326315 0.1
    endloop
  endfacet
  facet normal 0.980784 -0.195096 0
    outer loop
       vertex 0.179251 -0.0326315 0.1
       vertex 0.172871 -0.064705 0.1
       vertex 0.172871 -0.064705 0
    endloop
  endfacet
  facet normal 0.997858 -0.0654098 0
    outer loop
       vertex 0.18139 -8.32665e-17 0.1
       vertex 0.179251 -0.0326315 0.1
       vertex 0.179251 -0.0326315 0
    endloop
  endfacet
  facet normal 0.997858 -0.0654098 -1.08928e-16
    outer loop
       vertex 0.179251 -0.0326315 0
       vertex 0.18139 8.32665e-17 0
       vertex 0.18139 -8.32665e-17 0.1
    endloop
  endfacet
  facet normal 0.997858 0.0654098 0
    outer loop
       vertex 0.18139 8.32665e-17 0
       vertex 0.179251 0.0326315 0
       vertex 0.179251 0.0326315 0.1
    endloop
  endfacet
  facet normal 0.997858 0.0654098 1.08928e-16
    outer loop
       vertex 0.179251 0.0326315 0.1
       vertex 0.18139 -8.32665e-17 0.1
       vertex 0.18139 8.32665e-17 0
    endloop
  endfacet
  facet normal 0.980784 0.195096 0
    outer loop
       vertex 0.179251 0.0326315 0
       vertex 0.172871 0.064705 0
       vertex 0.172871 0.064705 0.1
    endloop
  endfacet
  facet normal 0.980784 0.195096 0
    outer loop
       vertex 0.172871 0.064705 0.1
       vertex 0.179251 0.0326315 0.1
       vertex 0.179251 0.0326315 0
    endloop
  endfacet
  facet normal 0.946935 0.321425 0
    outer loop
       vertex 0.172871 0.064705 0
       vertex 0.16236 0.095671 0
       vertex 0.16236 0.095671 0.1
    endloop
  endfacet
  facet normal 0.946935 0.321425 0
    outer loop
       vertex 0.16236 0.095671 0.1
       vertex 0.172871 0.064705 0.1
       vertex 0.172871 0.064705 0
    endloop
  endfacet
  facet normal 0.896866 0.442302 0
    outer loop
       vertex 0.16236 0.095671 0
       vertex 0.147896 0.125 0
       vertex 0.147896 0.125 0.1
    endloop
  endfacet
  facet normal 0.896866 0.442302 0
    outer loop
       vertex 0.147896 0.125 0.1
       vertex 0.16236 0.095671 0.1
       vertex 0.16236 0.095671 0
    endloop
  endfacet
  facet normal 0.831476 0.555561 0
    outer loop
       vertex 0.147896 0.125 0
       vertex 0.129728 0.152191 0
       vertex 0.129728 0.152191 0.1
    endloop
  endfacet
  facet normal 0.831476 0.555561 0
    outer loop
       vertex 0.129728 0.152191 0.1
       vertex 0.147896 0.125 0.1
       vertex 0.147896 0.125 0
    endloop
  endfacet
  facet normal 0.751817 0.659372 0
    outer loop
       vertex 0.129728 0.152191 0
       vertex 0.108166 0.176776 0
       vertex 0.108166 0.176776 0.1
    endloop
  endfacet
  facet normal 0.751817 0.659372 0
    outer loop
       vertex 0.108166 0.176776 0.1
       vertex 0.129728 0.152191 0.1
       vertex 0.129728 0.152191 0
    endloop
  endfacet
  facet normal 0.659372 0.751817 0
    outer loop
       vertex 0.108166 0.176776 0
       vertex 0.0835805 0.198338 0
       vertex 0.0835805 0.198338 0.1
    endloop
  endfacet
  facet normal 0.659372 0.751817 0
    outer loop
       vertex 0.0835805 0.198338 0.1
       vertex 0.108166 0.176776 0.1
       vertex 0.108166 0.176776 0
    endloop
  endfacet
  facet normal 0.555561 0.831476 0
    outer loop
       vertex 0.0835805 0.198338 0
       vertex 0.0563895 0.216506 0
       vertex 0.0563895 0.216506 0.1
    endloop
  endfacet
  facet normal 0.555561 0.831476 0
    outer loop
       vertex 0.0563895 0.216506 0.1
       vertex 0.0835805 0.198338 0.1
       vertex 0.0835805 0.198338 0
    endloop
  endfacet
  facet normal 0.442302 0.896866 0
    outer loop
       vertex 0.0563895 0.216506 0
       vertex 0.0270605 0.23097 0
       vertex 0.0270605 0.23097 0.1
    endloop
  endfacet
  facet normal 0.442302 0.896866 0
    outer loop
       vertex 0.0270605 0.23097 0.1
       vertex 0.0563895 0.216506 0.1
       vertex 0.0563895 0.216506 0
    endloop
  endfacet
  facet normal 0.321425 0.946935 0
    outer loop
       vertex 0.0270605 0.23097 0
       vertex -0.00390548 0.241481 0
       vertex -0.00390548 0.241481 0.1
    endloop
  endfacet
  facet normal 0.321425 0.946935 0
    outer loop
       vertex -0.00390548 0.241481 0.1
       vertex 0.0270605 0.23097 0.1
       vertex 0.0270605 0.23097 0
    endloop
  endfacet
  facet normal 0.195096 0.980784 0
    outer loop
       vertex -0.00390548 0.241481 0
       vertex -0.035979 0.247861 0
       vertex -0.035979 0.247861 0.1
    endloop
  endfacet
  facet normal 0.195096 0.980784 0
    outer loop
       vertex -0.035979 0.247861 0.1
       vertex -0.00390548 0.241481 0.1
       vertex -0.00390548 0.241481 0
    endloop
  endfacet
  facet normal 0.0654098 0.997858 0
    outer loop
       vertex -0.0686105 0.25 0.1
       vertex -0.035979 0.247861 0.1
       vertex -0.035979 0.247861 0
    endloop
  endfacet
  facet normal 0.0654098 0.997858 -1.08928e-16
    outer loop
       vertex -0.035979 0.247861 0
       vertex -0.0686105 0.25 0
       vertex -0.0686105 0.25 0.1
    endloop
  endfacet
  facet normal -0.0654098 0.997858 0
    outer loop
       vertex -0.0686105 0.25 0
       vertex -0.101242 0.247861 0
       vertex -0.101242 0.247861 0.1
    endloop
  endfacet
  facet normal -0.0654098 0.997858 1.08928e-16
    outer loop
       vertex -0.101242 0.247861 0.1
       vertex -0.0686105 0.25 0.1
       vertex -0.0686105 0.25 0
    endloop
  endfacet
  facet normal -0.195096 0.980784 0
    outer loop
       vertex -0.101242 0.247861 0
       vertex -0.133315 0.241481 0
       vertex -0.133315 0.241481 0.1
    endloop
  endfacet
  facet normal -0.195096 0.980784 0
    outer loop
       vertex -0.133315 0.241481 0.1
       vertex -0.101242 0.247861 0.1
       vertex -0.101242 0.247861 0
    endloop
  endfacet
  facet normal -0.321425 0.946935 0
    outer loop
       vertex -0.133315 0.241481 0
       vertex -0.164281 0.23097 0
       vertex -0.164281 0.23097 0.1
    endloop
  endfacet
  facet normal -0.321425 0.946935 0
    outer loop
       vertex -0.164281 0.23097 0.1
       vertex -0.133315 0.241481 0.1
       vertex -0.133315 0.241481 0
    endloop
  endfacet
  facet normal -0.442302 0.896866 0
    outer loop
       vertex -0.164281 0.23097 0
       vertex -0.19361 0.216506 0
       vertex -0.19361 0.216506 0.1
    endloop
  endfacet
  facet normal -0.442302 0.896866 0
    outer loop
       vertex -0.19361 0.216506 0.1
       vertex -0.164281 0.23097 0.1
       vertex -0.164281 0.23097 0
    endloop
  endfacet
  facet normal -0.555561 0.831476 0
    outer loop
       vertex -0.19361 0.216506 0
       vertex -0.220801 0.198338 0
       vertex -0.220801 0.198338 0.1
    endloop
  endfacet
  facet normal -0.555561 0.831476 0
    outer loop
       vertex -0.220801 0.198338 0.1
       vertex -0.19361 0.216506 0.1
       vertex -0.19361 0.216506 0
    endloop
  endfacet
  facet normal -0.659372 0.751817 0
    outer loop
       vertex -0.220801 0.198338 0
       vertex -0.245386 0.176776 0
       vertex -0.245386 0.176776 0.1
    endloop
  endfacet
  facet normal -0.659372 0.751817 0
    outer loop
       vertex -0.245386 0.176776 0.1
       vertex -0.220801 0.198338 0.1
       vertex -0.220801 0.198338 0
    endloop
  endfacet
  facet normal -0.751817 0.659372 0
    outer loop
       vertex -0.245386 0.176776 0
       vertex -0.266948 0.152191 0
       vertex -0.266948 0.152191 0.1
    endloop
  endfacet
  facet normal -0.751817 0.659372 0
    outer loop
       vertex -0.266948 0.152191 0.1
       vertex -0.245386 0.176776 0.1
       vertex -0.245386 0.176776 0
    endloop
  endfacet
  facet normal -0.831476 0.555561 0
    outer loop
       vertex -0.266948 0.152191 0
       vertex -0.285116 0.125 0
       vertex -0.285116 0.125 0.1
    endloop
  endfacet
  facet normal -0.831476 0.555561 0
    outer loop
       vertex -0.285116 0.125 0.1
       vertex -0.266948 0.152191 0.1
       vertex -0.266948 0.152191 0
    endloop
  endfacet
  facet normal -0.896866 0.442302 0
    outer loop
       vertex -0.285116 0.125 0
       vertex -0.29958 0.095671 0
       vertex -0.29958 0.095671 0.1
    endloop
  endfacet
  facet normal -0.896866 0.442302 0
    outer loop
       vertex -0.29958 0.095671 0.1
       vertex -0.285116 0.125 0.1
       vertex -0.285116 0.125 0
    endloop
  endfacet
  facet normal -0.946935 0.321425 0
    outer loop
       vertex -0.29958 0.095671 0
       vertex -0.310091 0.064705 0
       vertex -0.310091 0.064705 0.1
    endloop
  endfacet
  facet normal -0.946935 0.321425 0
    outer loop
       vertex -0.310091 0.064705 0.1
       vertex -0.29958 0.095671 0.1
       vertex -0.29958 0.095671 0
    endloop
  endfacet
  facet normal -0.980784 0.195096 0
    outer loop
       vertex -0.310091 0.064705 0
       vertex -0.316471 0.0326315 0
       vertex -0.316471 0.0326315 0.1
    endloop
  endfacet
  facet normal -0.980784 0.195096 0
    outer loop
       vertex -0.316471 0.0326315 0.1
       vertex -0.310091 0.064705 0.1
       vertex -0.310091 0.064705 0
    endloop
  endfacet
  facet normal -0.997858 0.0654098 0
    outer loop
       vertex -0.31861 8.32665e-17 0.1
       vertex -0.316471 0.0326315 0.1
       vertex -0.316471 0.0326315 0
    endloop
  endfacet
  facet normal -0.997858 0.0654098 -1.08928e-16
    outer loop
       vertex -0.316471 0.0326315 0
       vertex -0.31861 -8.32665e-17 0
       vertex -0.31861 8.32665e-17 0.1
    endloop
  endfacet
  facet normal -0.997858 -0.0654098 0
    outer loop
       vertex -0.31861 -8.32665e-17 0
       vertex -0.316471 -0.0326315 0
       vertex -0.316471 -0.0326315 0.1
    endloop
  endfacet
  facet normal -0.997858 -0.0654098 1.08928e-16
    outer loop
       vertex -0.316471 -0.0326315 0.1
       vertex -0.31861 8.32665e-17 0.1
       vertex -0.31861 -8.32665e-17 0
    endloop
  endfacet
  facet normal -0.980784 -0.195096 0
    outer loop
       vertex -0.316471 -0.0326315 0
       vertex -0.310091 -0.064705 0
       vertex -0.310091 -0.064705 0.1
    endloop
  endfacet
  facet normal -0.980784 -0.195096 0
    outer loop
       vertex -0.310091 -0.064705 0.1
       vertex -0.316471 -0.0326315 0.1
       vertex -0.316471 -0.0326315 0
    endloop
  endfacet
  facet normal -0.946935 -0.321425 0
    outer loop
       vertex -0.310091 -0.064705 0
       vertex -0.29958 -0.095671 0
       vertex -0.29958 -0.095671 0.1
    endloop
  endfacet
  facet normal -0.946935 -0.321425 0
    outer loop
       vertex -0.29958 -0.095671 0.1
       vertex -0.310091 -0.064705 0.1
       vertex -0.310091 -0.064705 0
    endloop
  endfacet
  facet normal -0.896866 -0.442302 0
    outer loop
       vertex -0.29958 -0.095671 0
       vertex -0.285116 -0.125 0
       vertex -0.285116 -0.125 0.1
    endloop
  endfacet
  facet normal -0.896866 -0.442302 0
    outer loop
       vertex -0.285116 -0.125 0.1
       vertex -0.29958 -0.095671 0.1
       vertex -0.29958 -0.095671 0
    endloop
  endfacet
  facet normal -0.831476 -0.555561 0
    outer loop
       vertex -0.285116 -0.125 0
       vertex -0.266948 -0.152191 0
       vertex -0.266948 -0.152191 0.1
    endloop
  endfacet
  facet normal -0.831476 -0.555561 0
    outer loop
       vertex -0.266948 -0.152191 0.1
       vertex -0.285116 -0.125 0.1
       vertex -0.285116 -0.125 0
    endloop
  endfacet
  facet normal -0.751817 -0.659372 0
    outer loop
       vertex -0.266948 -0.152191 0
       vertex -0.245386 -0.176776 0
       vertex -0.245386 -0.176776 0.1
    endloop
  endfacet
  facet normal -0.751817 -0.659372 0
    outer loop
       vertex -0.245386 -0.176776 0.1
       vertex -0.266948 -0.152191 0.1
       vertex -0.266948 -0.152191 0
    endloop
  endfacet
  facet normal 0.659372 -0.751817 0
    outer loop
       vertex 0.108166 -0.176776 0
       vertex 0.108166 -0.176776 0.1
       vertex 0.0835805 -0.198338 0.1
    endloop
  endfacet
  facet normal 0.659372 -0.751817 0
    outer loop
       vertex 0.0835805 -0.198338 0.1
       vertex 0.0835805 -0.198338 0
       vertex 0.108166 -0.176776 0
    endloop
  endfacet
  facet normal 0.555561 -0.831476 0
    outer loop
       vertex 0.0835805 -0.198338 0
       vertex 0.0835805 -0.198338 0.1
       vertex 0.0563895 -0.216506 0.1
    endloop
  endfacet
  facet normal 0.555561 -0.831476 0
    outer loop
       vertex 0.0563895 -0.216506 0.1
       vertex 0.0563895 -0.216506 0
       vertex 0.0835805 -0.198338 0
    endloop
  endfacet
  facet normal 0.442302 -0.896866 0
    outer loop
       vertex 0.0563895 -0.216506 0
       vertex 0.0563895 -0.216506 0.1
       vertex 0.0270605 -0.23097 0.1
    endloop
  endfacet
  facet normal 0.442302 -0.896866 0
    outer loop
       vertex 0.0270605 -0.23097 0.1
       vertex 0.0270605 -0.23097 0
       vertex 0.0563895 -0.216506 0
    endloop
  endfacet
  facet normal 0.321425 -0.946935 0
    outer loop
       vertex 0.0270605 -0.23097 0
       vertex 0.0270605 -0.23097 0.1
       vertex -0.00390548 -0.241481 0.1
    endloop
  endfacet
  facet normal 0.321425 -0.946935 0
    outer loop
       vertex -0.00390548 -0.241481 0.1
       vertex -0.00390548 -0.241481 0
       vertex 0.0270605 -0.23097 0
    endloop
  endfacet
  facet normal 0.195096 -0.980784 0
    outer loop
       vertex -0.00390548 -0.241481 0
       vertex -0.00390548 -0.241481 0.1
       vertex -0.035979 -0.247861 0.1
    endloop
  endfacet
  facet normal 0.195096 -0.980784 0
    outer loop
       vertex -0.035979 -0.247861 0.1
       vertex -0.035979 -0.247861 0
       vertex -0.00390548 -0.241481 0
    endloop
  endfacet
  facet normal 0.0654098 -0.997858 0
    outer loop
       vertex -0.0686105 -0.25 0
       vertex -0.035979 -0.247861 0
       vertex -0.035979 -0.247861 0.1
    endloop
  endfacet
  facet normal 0.0654098 -0.997858 1.08928e-16
    outer loop
       vertex -0.035979 -0.247861 0.1
       vertex -0.0686105 -0.25 0.1
       vertex -0.0686105 -0.25 0
    endloop
  endfacet
  facet normal -0.0654098 -0.997858 0
    outer loop
       vertex -0.0686105 -0.25 0.1
       vertex -0.101242 -0.247861 0.1
       vertex -0.101242 -0.247861 0
    endloop
  endfacet
  facet normal -0.0654098 -0.997858 -1.08928e-16
    outer loop
       vertex -0.101242 -0.247861 0
       vertex -0.0686105 -0.25 0
       vertex -0.0686105 -0.25 0.1
    endloop
  endfacet
  facet normal -0.195096 -0.980784 0
    outer loop
       vertex -0.101242 -0.247861 0
       vertex -0.101242 -0.247861 0.1
       vertex -0.133315 -0.241481 0.1
    endloop
  endfacet
  facet normal -0.195096 -0.980784 -0
    outer loop
       vertex -0.133315 -0.241481 0.1
       vertex -0.133315 -0.241481 0
       vertex -0.101242 -0.247861 0
    endloop
  endfacet
  facet normal -0.321425 -0.946935 0
    outer loop
       vertex -0.133315 -0.241481 0
       vertex -0.133315 -0.241481 0.1
       vertex -0.164281 -0.23097 0.1
    endloop
  endfacet
  facet normal -0.321425 -0.946935 -0
    outer loop
       vertex -0.164281 -0.23097 0.1
       vertex -0.164281 -0.23097 0
       vertex -0.133315 -0.241481 0
    endloop
  endfacet
  facet normal -0.442302 -0.896866 0
    outer loop
       vertex -0.164281 -0.23097 0
       vertex -0.164281 -0.23097 0.1
       vertex -0.19361 -0.216506 0.1
    endloop
  endfacet
  facet normal -0.442302 -0.896866 -0
    outer loop
       vertex -0.19361 -0.216506 0.1
       vertex -0.19361 -0.216506 0
       vertex -0.164281 -0.23097 0
    endloop
  endfacet
  facet normal -0.555561 -0.831476 0
    outer loop
       vertex -0.19361 -0.216506 0
       vertex -0.19361 -0.216506 0.1
       vertex -0.220801 -0.198338 0.1
    endloop
  endfacet
  facet normal -0.555561 -0.831476 -0
    outer loop
       vertex -0.220801 -0.198338 0.1
       vertex -0.220801 -0.198338 0
       vertex -0.19361 -0.216506 0
    endloop
  endfacet
  facet normal -0.659372 -0.751817 0
    outer loop
       vertex -0.220801 -0.198338 0
       vertex -0.220801 -0.198338 0.1
       vertex -0.245386 -0.176776 0.1
    endloop
  endfacet
  facet normal -0.659372 -0.751817 -0
    outer loop
       vertex -0.245386 -0.176776 0.1
       vertex -0.245386 -0.176776 0
       vertex -0.220801 -0.198338 0
    endloop
  endfacet
endsolid cylinder
