solid cylinder
  facet normal 0.751817 -0.659372 0
    outer loop
       vertex 0.402004 -0.176776 0
       vertex 0.423566 -0.152191 0
       vertex 0.423566 -0.152191 0.1
    endloop
  endfacet
  facet normal 0.751817 -0.659372 0
    outer loop
       vertex 0.423566 -0.152191 0.1
       vertex 0.402004 -0.176776 0.1
       vertex 0.402004 -0.176776 0
    endloop
  endfacet
  facet normal 0.831476 -0.555561 0
    outer loop
       vertex 0.423566 -0.152191 0
       vertex 0.441734 -0.125 0
       vertex 0.441734 -0.125 0.1
    endloop
  endfacet
  facet normal 0.831476 -0.555561 0
    outer loop
       vertex 0.441734 -0.125 0.1
       vertex 0.423566 -0.152191 0.1
       vertex 0.423566 -0.152191 0
    endloop
  endfacet
  facet normal 0.896866 -0.442302 0
    outer loop
       vertex 0.441734 -0.125 0
       vertex 0.456198 -0.095671 0
       vertex 0.456198 -0.095671 0.1
    endloop
  endfacet
  facet normal 0.896866 -0.442302 0
    outer loop
       vertex 0.456198 -0.095671 0.1
       vertex 0.441734 -0.125 0.1
       vertex 0.441734 -0.125 0
    endloop
  endfacet
  facet normal 0.946935 -0.321425 0
    outer loop
       vertex 0.456198 -0.095671 0
       vertex 0.466709 -0.064705 0
       vertex 0.466709 -0.064705 0.1
    endloop
  endfacet
  facet normal 0.946935 -0.321425 0
    outer loop
       vertex 0.466709 -0.064705 0.1
       vertex 0.456198 -0.095671 0.1
       vertex 0.456198 -0.095671 0
    endloop
  endfacet
  facet normal 0.980784 -0.195096 0
    outer loop
       vertex 0.466709 -0.064705 0
       vertex 0.473089 -0.0326315 0
       vertex 0.473089 -0.0326315 0.1
    endloop
  endfacet
  facet normal 0.980784 -0.195096 0
    outer loop
       vertex 0.473089 -0.0326315 0.1
       vertex 0.466709 -0.064705 0.1
       vertex 0.466709 -0.064705 0
    endloop
  endfacet
  facet normal 0.997858 -0.0654098 0
    outer loop
       vertex 0.475228 -8.32665e-17 0.1
       vertex 0.473089 -0.0326315 0.1
       vertex 0.473089 -0.0326315 0
    endloop
  endfacet
  facet normal 0.997858 -0.0654098 -1.08928e-16
    outer loop
       vertex 0.473089 -0.0326315 0
       vertex 0.475228 8.32665e-17 0
       vertex 0.475228 -8.32665e-17 0.1
    endloop
  endfacet
  facet normal 0.997858 0.0654098 0
    outer loop
       vertex 0.475228 8.32665e-17 0
       vertex 0.473089 0.0326315 0
       vertex 0.473089 0.0326315 0.1
    endloop
  endfacet
  facet normal 0.997858 0.0654098 1.08928e-16
    outer loop
       vertex 0.473089 0.0326315 0.1
       vertex 0.475228 -8.32665e-17 0.1
       vertex 0.475228 8.32665e-17 0
    endloop
  endfacet
  facet normal 0.980784 0.195096 0
    outer loop
       vertex 0.473089 0.0326315 0
       vertex 0.466709 0.064705 0
       vertex 0.466709 0.064705 0.1
    endloop
  endfacet
  facet normal 0.980784 0.195096 0
    outer loop
       vertex 0.466709 0.064705 0.1
       vertex 0.473089 0.0326315 0.1
       vertex 0.473089 0.0326315 0
    endloop
  endfacet
  facet normal 0.946935 0.321425 0
    outer loop
       vertex 0.466709 0.064705 0
       vertex 0.456198 0.095671 0
       vertex 0.456198 0.095671 0.1
    endloop
  endfacet
  facet normal 0.946935 0.321425 0
    outer loop
       vertex 0.456198 0.095671 0.1
       vertex 0.466709 0.064705 0.1
       vertex 0.466709 0.064705 0
    endloop
  endfacet
  facet normal 0.896866 0.442302 0
    outer loop
       vertex 0.456198 0.095671 0
       vertex 0.441734 0.125 0
       vertex 0.441734 0.125 0.1
    endloop
  endfacet
  facet normal 0.896866 0.442302 0
    outer loop
       vertex 0.441734 0.125 0.1
       vertex 0.456198 0.095671 0.1
       vertex 0.456198 0.095671 0
    endloop
  endfacet
  facet normal 0.831476 0.555561 0
    outer loop
       vertex 0.441734 0.125 0
       vertex 0.423566 0.152191 0
       vertex 0.423566 0.152191 0.1
    endloop
  endfacet
  facet normal 0.831476 0.555561 0
    outer loop
       vertex 0.423566 0.152191 0.1
       vertex 0.441734 0.125 0.1
       vertex 0.441734 0.125 0
    endloop
  endfacet
  facet normal 0.751817 0.659372 0
    outer loop
       vertex 0.423566 0.152191 0
       vertex 0.402004 0.176776 0
       vertex 0.402004 0.176776 0.1
    endloop
  endfacet
  facet normal 0.751817 0.659372 0
    outer loop
       vertex 0.402004 0.176776 0.1
       vertex 0.423566 0.152191 0.1
       vertex 0.423566 0.152191 0
    endloop
  endfacet
  facet normal 0.659372 0.751817 0
    outer loop
       vertex 0.402004 0.176776 0
       vertex 0.377419 0.198338 0
       vertex 0.377419 0.198338 0.1
    endloop
  endfacet
  facet normal 0.659372 0.751817 0
    outer loop
       vertex 0.377419 0.198338 0.1
       vertex 0.402004 0.176776 0.1
       vertex 0.402004 0.176776 0
    endloop
  endfacet
  facet normal 0.555561 0.831476 0
    outer loop
       vertex 0.377419 0.198338 0
       vertex 0.350228 0.216506 0
       vertex 0.350228 0.216506 0.1
    endloop
  endfacet
  facet normal 0.555561 0.831476 0
    outer loop
       vertex 0.350228 0.216506 0.1
       vertex 0.377419 0.198338 0.1
       vertex 0.377419 0.198338 0
    endloop
  endfacet
  facet normal 0.442302 0.896866 0
    outer loop
       vertex 0.350228 0.216506 0
       vertex 0.320899 0.23097 0
       vertex 0.320899 0.23097 0.1
    endloop
  endfacet
  facet normal 0.442302 0.896866 0
    outer loop
       vertex 0.320899 0.23097 0.1
       vertex 0.350228 0.216506 0.1
       vertex 0.350228 0.216506 0
    endloop
  endfacet
  facet normal 0.321425 0.946935 0
    outer loop
       vertex 0.320899 0.23097 0
       vertex 0.289933 0.241481 0
       vertex 0.289933 0.241481 0.1
    endloop
  endfacet
  facet normal 0.321425 0.946935 0
    outer loop
       vertex 0.289933 0.241481 0.1
       vertex 0.320899 0.23097 0.1
       vertex 0.320899 0.23097 0
    endloop
  endfacet
  facet normal 0.195096 0.980784 0
    outer loop
       vertex 0.289933 0.241481 0
       vertex 0.257859 0.247861 0
       vertex 0.257859 0.247861 0.1
    endloop
  endfacet
  facet normal 0.195096 0.980784 0
    outer loop
       vertex 0.257859 0.247861 0.1
       vertex 0.289933 0.241481 0.1
       vertex 0.289933 0.241481 0
    endloop
  endfacet
  facet normal 0.0654098 0.997858 0
    outer loop
       vertex 0.225228 0.25 0.1
       vertex 0.257859 0.247861 0.1
       vertex 0.257859 0.247861 0
    endloop
  endfacet
  facet normal 0.0654098 0.997858 -1.0893e-16
    outer loop
       vertex 0.257859 0.247861 0
       vertex 0.225228 0.25 0
       vertex 0.225228 0.25 0.1
    endloop
  endfacet
  facet normal -0.0654098 0.997858 0
    outer loop
       vertex 0.225228 0.25 0
       vertex 0.192596 0.247861 0
       vertex 0.192596 0.247861 0.1
    endloop
  endfacet
  facet normal -0.0654098 0.997858 1.0893e-16
    outer loop
       vertex 0.192596 0.247861 0.1
       vertex 0.225228 0.25 0.1
       vertex 0.225228 0.25 0
    endloop
  endfacet
  facet normal -0.195096 0.980784 0
    outer loop
       vertex 0.192596 0.247861 0
       vertex 0.160523 0.241481 0
       vertex 0.160523 0.241481 0.1
    endloop
  endfacet
  facet normal -0.195096 0.980784 0
    outer loop
       vertex 0.160523 0.241481 0.1
       vertex 0.192596 0.247861 0.1
       vertex 0.192596 0.247861 0
    endloop
  endfacet
  facet normal -0.321425 0.946935 0
    outer loop
       vertex 0.160523 0.241481 0
       vertex 0.129557 0.23097 0
       vertex 0.129557 0.23097 0.1
    endloop
  endfacet
  facet normal -0.321425 0.946935 0
    outer loop
       vertex 0.129557 0.23097 0.1
       vertex 0.160523 0.241481 0.1
       vertex 0.160523 0.241481 0
    endloop
  endfacet
  facet normal -0.442302 0.896866 0
    outer loop
       vertex 0.129557 0.23097 0
       vertex 0.100228 0.216506 0
       vertex 0.100228 0.216506 0.1
    endloop
  endfacet
  facet normal -0.442302 0.896866 0
    outer loop
       vertex 0.100228 0.216506 0.1
       vertex 0.129557 0.23097 0.1
       vertex 0.129557 0.23097 0
    endloop
  endfacet
  facet normal -0.555561 0.831476 0
    outer loop
       vertex 0.100228 0.216506 0
       vertex 0.0730368 0.198338 0
       vertex 0.0730368 0.198338 0.1
    endloop
  endfacet
  facet normal -0.555561 0.831476 0
    outer loop
       vertex 0.0730368 0.198338 0.1
       vertex 0.100228 0.216506 0.1
       vertex 0.100228 0.216506 0
    endloop
  endfacet
  facet normal -0.659372 0.751817 0
    outer loop
       vertex 0.0730368 0.198338 0
       vertex 0.0484518 0.176776 0
       vertex 0.0484518 0.176776 0.1
    endloop
  endfacet
  facet normal -0.659372 0.751817 0
    outer loop
       vertex 0.0484518 0.176776 0.1
       vertex 0.0730368 0.198338 0.1
       vertex 0.0730368 0.198338 0
    endloop
  endfacet
  facet normal -0.751817 0.659372 0
    outer loop
       vertex 0.0484518 0.176776 0
       vertex 0.0268898 0.152191 0
       vertex 0.0268898 0.152191 0.1
    endloop
  endfacet
  facet normal -0.751817 0.659372 0
    outer loop
       vertex 0.0268898 0.152191 0.1
       vertex 0.0484518 0.176776 0.1
       vertex 0.0484518 0.176776 0
    endloop
  endfacet
  facet normal -0.831476 0.555561 0
    outer loop
       vertex 0.0268898 0.152191 0
       vertex 0.00872176 0.125 0
       vertex 0.00872176 0.125 0.1
    endloop
  endfacet
  facet normal -0.831476 0.555561 0
    outer loop
       vertex 0.00872176 0.125 0.1
       vertex 0.0268898 0.152191 0.1
       vertex 0.0268898 0.152191 0
    endloop
  endfacet
  facet normal -0.896866 0.442302 0
    outer loop
       vertex 0.00872176 0.125 0
       vertex -0.00574224 0.095671 0
       vertex -0.00574224 0.095671 0.1
    endloop
  endfacet
  facet normal -0.896866 0.442302 0
    outer loop
       vertex -0.00574224 0.095671 0.1
       vertex 0.00872176 0.125 0.1
       vertex 0.00872176 0.125 0
    endloop
  endfacet
  facet normal -0.946935 0.321425 0
    outer loop
       vertex -0.00574224 0.095671 0
       vertex -0.0162532 0.064705 0
       vertex -0.0162532 0.064705 0.1
    endloop
  endfacet
  facet normal -0.946935 0.321425 0
    outer loop
       vertex -0.0162532 0.064705 0.1
       vertex -0.00574224 0.095671 0.1
       vertex -0.00574224 0.095671 0
    endloop
  endfacet
  facet normal -0.980784 0.195096 0
    outer loop
       vertex -0.0162532 0.064705 0
       vertex -0.0226332 0.0326315 0
       vertex -0.0226332 0.0326315 0.1
    endloop
  endfacet
  facet normal -0.980784 0.195096 0
    outer loop
       vertex -0.0226332 0.0326315 0.1
       vertex -0.0162532 0.064705 0.1
       vertex -0.0162532 0.064705 0
    endloop
  endfacet
  facet normal -0.997858 0.0654098 0
    outer loop
       vertex -0.0247722 8.32665e-17 0.1
       vertex -0.0226332 0.0326315 0.1
       vertex -0.0226332 0.0326315 0
    endloop
  endfacet
  facet normal -0.997858 0.0654098 -1.08928e-16
    outer loop
       vertex -0.0226332 0.0326315 0
       vertex -0.0247722 -8.32665e-17 0
       vertex -0.0247722 8.32665e-17 0.1
    endloop
  endfacet
  facet normal -0.997858 -0.0654098 0
    outer loop
       vertex -0.0247722 -8.32665e-17 0
       vertex -0.0226332 -0.0326315 0
       vertex -0.0226332 -0.0326315 0.1
    endloop
  endfacet
  facet normal -0.997858 -0.0654098 1.08928e-16
    outer loop
       vertex -0.0226332 -0.0326315 0.1
       vertex -0.0247722 8.32665e-17 0.1
       vertex -0.0247722 -8.32665e-17 0
    endloop
  endfacet
  facet normal -0.980784 -0.195096 0
    outer loop
       vertex -0.0226332 -0.0326315 0
       vertex -0.0162532 -0.064705 0
       vertex -0.0162532 -0.064705 0.1
    endloop
  endfacet
  facet normal -0.980784 -0.195096 0
    outer loop
       vertex -0.0162532 -0.064705 0.1
       vertex -0.0226332 -0.0326315 0.1
       vertex -0.0226332 -0.0326315 0
    endloop
  endfacet
  facet normal -0.946935 -0.321425 0
    outer loop
       vertex -0.0162532 -0.064705 0
       vertex -0.00574224 -0.095671 0
       vertex -0.00574224 -0.095671 0.1
    endloop
  endfacet
  facet normal -0.946935 -0.321425 0
    outer loop
       vertex -0.00574224 -0.095671 0.1
       vertex -0.0162532 -0.064705 0.1
       vertex -0.0162532 -0.064705 0
    endloop
  endfacet
  facet normal -0.896866 -0.442302 0
    outer loop
       vertex -0.00574224 -0.095671 0
       vertex 0.00872176 -0.125 0
       vertex 0.00872176 -0.125 0.1
    endloop
  endfacet
  facet normal -0.896866 -0.442302 0
    outer loop
       vertex 0.00872176 -0.125 0.1
       vertex -0.00574224 -0.095671 0.1
       vertex -0.00574224 -0.095671 0
    endloop
  endfacet
  facet normal -0.831476 -0.555561 0
    outer loop
       vertex 0.00872176 -0.125 0
       vertex 0.0268898 -0.152191 0
       vertex 0.0268898 -0.152191 0.1
    endloop
  endfacet
  facet normal -0.831476 -0.555561 0
    outer loop
       vertex 0.0268898 -0.152191 0.1
       vertex 0.00872176 -0.125 0.1
       vertex 0.00872176 -0.125 0
    endloop
  endfacet
  facet normal -0.751817 -0.659372 0
    outer loop
       vertex 0.0268898 -0.152191 0
       vertex 0.0484518 -0.176776 0
       vertex 0.0484518 -0.176776 0.1
    endloop
  endfacet
  facet normal -0.751817 -0.659372 0
    outer loop
       vertex 0.0484518 -0.176776 0.1
       vertex 0.0268898 -0.152191 0.1
       vertex 0.0268898 -0.152191 0
    endloop
  endfacet
  facet normal 0.659372 -0.751817 0
    outer loop
       vertex 0.402004 -0.176776 0
       vertex 0.402004 -0.176776 0.1
       vertex 0.377419 -0.198338 0.1
    endloop
  endfacet
  facet normal 0.659372 -0.751817 0
    outer loop
       vertex 0.377419 -0.198338 0.1
       vertex 0.377419 -0.198338 0
       vertex 0.402004 -0.176776 0
    endloop
  endfacet
  facet normal 0.555561 -0.831476 0
    outer loop
       vertex 0.377419 -0.198338 0
       vertex 0.377419 -0.198338 0.1
       vertex 0.350228 -0.216506 0.1
    endloop
  endfacet
  facet normal 0.555561 -0.831476 0
    outer loop
       vertex 0.350228 -0.216506 0.1
       vertex 0.350228 -0.216506 0
       vertex 0.377419 -0.198338 0
    endloop
  endfacet
  facet normal 0.442302 -0.896866 0
    outer loop
       vertex 0.350228 -0.216506 0
       vertex 0.350228 -0.216506 0.1
       vertex 0.320899 -0.23097 0.1
    endloop
  endfacet
  facet normal 0.442302 -0.896866 0
    outer loop
       vertex 0.320899 -0.23097 0.1
       vertex 0.320899 -0.23097 0
       vertex 0.350228 -0.216506 0
    endloop
  endfacet
  facet normal 0.321425 -0.946935 0
    outer loop
       vertex 0.320899 -0.23097 0
       vertex 0.320899 -0.23097 0.1
       vertex 0.289933 -0.241481 0.1
    endloop
  endfacet
  facet normal 0.321425 -0.946935 0
    outer loop
       vertex 0.289933 -0.241481 0.1
       vertex 0.289933 -0.241481 0
       vertex 0.320899 -0.23097 0
    endloop
  endfacet
  facet normal 0.195096 -0.980784 0
    outer loop
       vertex 0.289933 -0.241481 0
       vertex 0.289933 -0.241481 0.1
       vertex 0.257859 -0.247861 0.1
    endloop
  endfacet
  facet normal 0.195096 -0.980784 0
    outer loop
       vertex 0.257859 -0.247861 0.1
       vertex 0.257859 -0.247861 0
       vertex 0.289933 -0.241481 0
    endloop
  endfacet
  facet normal 0.0654098 -0.997858 0
    outer loop
       vertex 0.225228 -0.25 0
       vertex 0.257859 -0.247861 0
       vertex 0.257859 -0.247861 0.1
    endloop
  endfacet
  facet normal 0.0654098 -0.997858 1.0893e-16
    outer loop
       vertex 0.257859 -0.247861 0.1
       vertex 0.225228 -0.25 0.1
       vertex 0.225228 -0.25 0
    endloop
  endfacet
  facet normal -0.0654098 -0.997858 0
    outer loop
       vertex 0.225228 -0.25 0.1
       vertex 0.192596 -0.247861 0.1
       vertex 0.192596 -0.247861 0
    endloop
  endfacet
  facet normal -0.0654098 -0.997858 -1.0893e-16
    outer loop
       vertex 0.192596 -0.247861 0
       vertex 0.225228 -0.25 0
       vertex 0.225228 -0.25 0.1
    endloop
  endfacet
  facet normal -0.195096 -0.980784 0
    outer loop
       vertex 0.192596 -0.247861 0
       vertex 0.192596 -0.247861 0.1
       vertex 0.160523 -0.241481 0.1
    endloop
  endfacet
  facet normal -0.195096 -0.980784 -0
    outer loop
       vertex 0.160523 -0.241481 0.1
       vertex 0.160523 -0.241481 0
       vertex 0.192596 -0.247861 0
    endloop
  endfacet
  facet normal -0.321425 -0.946935 0
    outer loop
       vertex 0.160523 -0.241481 0
       vertex 0.160523 -0.241481 0.1
       vertex 0.129557 -0.23097 0.1
    endloop
  endfacet
  facet normal -0.321425 -0.946935 -0
    outer loop
       vertex 0.129557 -0.23097 0.1
       vertex 0.129557 -0.23097 0
       vertex 0.160523 -0.241481 0
    endloop
  endfacet
  facet normal -0.442302 -0.896866 0
    outer loop
       vertex 0.129557 -0.23097 0
       vertex 0.129557 -0.23097 0.1
       vertex 0.100228 -0.216506 0.1
    endloop
  endfacet
  facet normal -0.442302 -0.896866 -0
    outer loop
       vertex 0.100228 -0.216506 0.1
       vertex 0.100228 -0.216506 0
       vertex 0.129557 -0.23097 0
    endloop
  endfacet
  facet normal -0.555561 -0.831476 0
    outer loop
       vertex 0.100228 -0.216506 0
       vertex 0.100228 -0.216506 0.1
       vertex 0.0730368 -0.198338 0.1
    endloop
  endfacet
  facet normal -0.555561 -0.831476 -0
    outer loop
       vertex 0.0730368 -0.198338 0.1
       vertex 0.0730368 -0.198338 0
       vertex 0.100228 -0.216506 0
    endloop
  endfacet
  facet normal -0.659372 -0.751817 0
    outer loop
       vertex 0.0730368 -0.198338 0
       vertex 0.0730368 -0.198338 0.1
       vertex 0.0484518 -0.176776 0.1
    endloop
  endfacet
  facet normal -0.659372 -0.751817 -0
    outer loop
       vertex 0.0484518 -0.176776 0.1
       vertex 0.0484518 -0.176776 0
       vertex 0.0730368 -0.198338 0
    endloop
  endfacet
endsolid cylinder
