solid cylinder
  facet normal 0.751817 -0.659372 0
    outer loop
       vertex 0.369904 -0.176776 0
       vertex 0.391466 -0.152191 0
       vertex 0.391466 -0.152191 0.1
    endloop
  endfacet
  facet normal 0.751817 -0.659372 0
    outer loop
       vertex 0.391466 -0.152191 0.1
       vertex 0.369904 -0.176776 0.1
       vertex 0.369904 -0.176776 0
    endloop
  endfacet
  facet normal 0.831476 -0.555561 0
    outer loop
       vertex 0.391466 -0.152191 0
       vertex 0.409634 -0.125 0
       vertex 0.409634 -0.125 0.1
    endloop
  endfacet
  facet normal 0.831476 -0.555561 0
    outer loop
       vertex 0.409634 -0.125 0.1
       vertex 0.391466 -0.152191 0.1
       vertex 0.391466 -0.152191 0
    endloop
  endfacet
  facet normal 0.896866 -0.442302 0
    outer loop
       vertex 0.409634 -0.125 0
       vertex 0.424098 -0.095671 0
       vertex 0.424098 -0.095671 0.1
    endloop
  endfacet
  facet normal 0.896866 -0.442302 0
    outer loop
       vertex 0.424098 -0.095671 0.1
       vertex 0.409634 -0.125 0.1
       vertex 0.409634 -0.125 0
    endloop
  endfacet
  facet normal 0.946935 -0.321425 0
    outer loop
       vertex 0.424098 -0.095671 0
       vertex 0.434609 -0.064705 0
       vertex 0.434609 -0.064705 0.1
    endloop
  endfacet
  facet normal 0.946935 -0.321425 0
    outer loop
       vertex 0.434609 -0.064705 0.1
       vertex 0.424098 -0.095671 0.1
       vertex 0.424098 -0.095671 0
    endloop
  endfacet
  facet normal 0.980784 -0.195096 0
    outer loop
       vertex 0.434609 -0.064705 0
       vertex 0.440989 -0.0326315 0
       vertex 0.440989 -0.0326315 0.1
    endloop
  endfacet
  facet normal 0.980784 -0.195096 0
    outer loop
       vertex 0.440989 -0.0326315 0.1
       vertex 0.434609 -0.064705 0.1
       vertex 0.434609 -0.064705 0
    endloop
  endfacet
  facet normal 0.997858 -0.0654098 0
    outer loop
       vertex 0.443128 -8.32665e-17 0.1
       vertex 0.440989 -0.0326315 0.1
       vertex 0.440989 -0.0326315 0
    endloop
  endfacet
  facet normal 0.997858 -0.0654098 -1.08928e-16
    outer loop
       vertex 0.440989 -0.0326315 0
       vertex 0.443128 8.32665e-17 0
       vertex 0.443128 -8.32665e-17 0.1
    endloop
  endfacet
  facet normal 0.997858 0.0654098 0
    outer loop
       vertex 0.443128 8.32665e-17 0
       vertex 0.440989 0.0326315 0
       vertex 0.440989 0.0326315 0.1
    endloop
  endfacet
  facet normal 0.997858 0.0654098 1.08928e-16
    outer loop
       vertex 0.440989 0.0326315 0.1
       vertex 0.443128 -8.32665e-17 0.1
       vertex 0.443128 8.32665e-17 0
    endloop
  endfacet
  facet normal 0.980784 0.195096 0
    outer loop
       vertex 0.440989 0.0326315 0
       vertex 0.434609 0.064705 0
       vertex 0.434609 0.064705 0.1
    endloop
  endfacet
  facet normal 0.980784 0.195096 0
    outer loop
       vertex 0.434609 0.064705 0.1
       vertex 0.440989 0.0326315 0.1
       vertex 0.440989 0.0326315 0
    endloop
  endfacet
  facet normal 0.946935 0.321425 0
    outer loop
       vertex 0.434609 0.064705 0
       vertex 0.424098 0.095671 0
       vertex 0.424098 0.095671 0.1
    endloop
  endfacet
  facet normal 0.946935 0.321425 0
    outer loop
       vertex 0.424098 0.095671 0.1
       vertex 0.434609 0.064705 0.1
       vertex 0.434609 0.064705 0
    endloop
  endfacet
  facet normal 0.896866 0.442302 0
    outer loop
       vertex 0.424098 0.095671 0
       vertex 0.409634 0.125 0
       vertex 0.409634 0.125 0.1
    endloop
  endfacet
  facet normal 0.896866 0.442302 0
    outer loop
       vertex 0.409634 0.125 0.1
       vertex 0.424098 0.095671 0.1
       vertex 0.424098 0.095671 0
    endloop
  endfacet
  facet normal 0.831476 0.555561 0
    outer loop
       vertex 0.409634 0.125 0
       vertex 0.391466 0.152191 0
       vertex 0.391466 0.152191 0.1
    endloop
  endfacet
  facet normal 0.831476 0.555561 0
    outer loop
       vertex 0.391466 0.152191 0.1
       vertex 0.409634 0.125 0.1
       vertex 0.409634 0.125 0
    endloop
  endfacet
  facet normal 0.751817 0.659372 0
    outer loop
       vertex 0.391466 0.152191 0
       vertex 0.369904 0.176776 0
       vertex 0.369904 0.176776 0.1
    endloop
  endfacet
  facet normal 0.751817 0.659372 0
    outer loop
       vertex 0.369904 0.176776 0.1
       vertex 0.391466 0.152191 0.1
       vertex 0.391466 0.152191 0
    endloop
  endfacet
  facet normal 0.659372 0.751817 0
    outer loop
       vertex 0.369904 0.176776 0
       vertex 0.345319 0.198338 0
       vertex 0.345319 0.198338 0.1
    endloop
  endfacet
  facet normal 0.659372 0.751817 0
    outer loop
       vertex 0.345319 0.198338 0.1
       vertex 0.369904 0.176776 0.1
       vertex 0.369904 0.176776 0
    endloop
  endfacet
  facet normal 0.555561 0.831476 0
    outer loop
       vertex 0.345319 0.198338 0
       vertex 0.318128 0.216506 0
       vertex 0.318128 0.216506 0.1
    endloop
  endfacet
  facet normal 0.555561 0.831476 0
    outer loop
       vertex 0.318128 0.216506 0.1
       vertex 0.345319 0.198338 0.1
       vertex 0.345319 0.198338 0
    endloop
  endfacet
  facet normal 0.442302 0.896866 0
    outer loop
       vertex 0.318128 0.216506 0
       vertex 0.288799 0.23097 0
       vertex 0.288799 0.23097 0.1
    endloop
  endfacet
  facet normal 0.442302 0.896866 0
    outer loop
       vertex 0.288799 0.23097 0.1
       vertex 0.318128 0.216506 0.1
       vertex 0.318128 0.216506 0
    endloop
  endfacet
  facet normal 0.321425 0.946935 0
    outer loop
       vertex 0.288799 0.23097 0
       vertex 0.257833 0.241481 0
       vertex 0.257833 0.241481 0.1
    endloop
  endfacet
  facet normal 0.321425 0.946935 0
    outer loop
       vertex 0.257833 0.241481 0.1
       vertex 0.288799 0.23097 0.1
       vertex 0.288799 0.23097 0
    endloop
  endfacet
  facet normal 0.195096 0.980784 0
    outer loop
       vertex 0.257833 0.241481 0
       vertex 0.225759 0.247861 0
       vertex 0.225759 0.247861 0.1
    endloop
  endfacet
  facet normal 0.195096 0.980784 0
    outer loop
       vertex 0.225759 0.247861 0.1
       vertex 0.257833 0.241481 0.1
       vertex 0.257833 0.241481 0
    endloop
  endfacet
  facet normal 0.0654098 0.997858 0
    outer loop
       vertex 0.193128 0.25 0.1
       vertex 0.225759 0.247861 0.1
       vertex 0.225759 0.247861 0
    endloop
  endfacet
  facet normal 0.0654098 0.997858 -1.0893e-16
    outer loop
       vertex 0.225759 0.247861 0
       vertex 0.193128 0.25 0
       vertex 0.193128 0.25 0.1
    endloop
  endfacet
  facet normal -0.0654098 0.997858 0
    outer loop
       vertex 0.193128 0.25 0
       vertex 0.160496 0.247861 0
       vertex 0.160496 0.247861 0.1
    endloop
  endfacet
  facet normal -0.0654098 0.997858 1.0893e-16
    outer loop
       vertex 0.160496 0.247861 0.1
       vertex 0.193128 0.25 0.1
       vertex 0.193128 0.25 0
    endloop
  endfacet
  facet normal -0.195096 0.980784 0
    outer loop
       vertex 0.160496 0.247861 0
       vertex 0.128423 0.241481 0
       vertex 0.128423 0.241481 0.1
    endloop
  endfacet
  facet normal -0.195096 0.980784 0
    outer loop
       vertex 0.128423 0.241481 0.1
       vertex 0.160496 0.247861 0.1
       vertex 0.160496 0.247861 0
    endloop
  endfacet
  facet normal -0.321425 0.946935 0
    outer loop
       vertex 0.128423 0.241481 0
       vertex 0.0974565 0.23097 0
       vertex 0.0974565 0.23097 0.1
    endloop
  endfacet
  facet normal -0.321425 0.946935 0
    outer loop
       vertex 0.0974565 0.23097 0.1
       vertex 0.128423 0.241481 0.1
       vertex 0.128423 0.241481 0
    endloop
  endfacet
  facet normal -0.442302 0.896866 0
    outer loop
       vertex 0.0974565 0.23097 0
       vertex 0.0681275 0.216506 0
       vertex 0.0681275 0.216506 0.1
    endloop
  endfacet
  facet normal -0.442302 0.896866 0
    outer loop
       vertex 0.0681275 0.216506 0.1
       vertex 0.0974565 0.23097 0.1
       vertex 0.0974565 0.23097 0
    endloop
  endfacet
  facet normal -0.555561 0.831476 0
    outer loop
       vertex 0.0681275 0.216506 0
       vertex 0.0409365 0.198338 0
       vertex 0.0409365 0.198338 0.1
    endloop
  endfacet
  facet normal -0.555561 0.831476 0
    outer loop
       vertex 0.0409365 0.198338 0.1
       vertex 0.0681275 0.216506 0.1
       vertex 0.0681275 0.216506 0
    endloop
  endfacet
  facet normal -0.659372 0.751817 0
    outer loop
       vertex 0.0409365 0.198338 0
       vertex 0.0163515 0.176776 0
       vertex 0.0163515 0.176776 0.1
    endloop
  endfacet
  facet normal -0.659372 0.751817 0
    outer loop
       vertex 0.0163515 0.176776 0.1
       vertex 0.0409365 0.198338 0.1
       vertex 0.0409365 0.198338 0
    endloop
  endfacet
  facet normal -0.751817 0.659372 0
    outer loop
       vertex 0.0163515 0.176776 0
       vertex -0.00521049 0.152191 0
       vertex -0.00521049 0.152191 0.1
    endloop
  endfacet
  facet normal -0.751817 0.659372 0
    outer loop
       vertex -0.00521049 0.152191 0.1
       vertex 0.0163515 0.176776 0.1
       vertex 0.0163515 0.176776 0
    endloop
  endfacet
  facet normal -0.831476 0.555561 0
    outer loop
       vertex -0.00521049 0.152191 0
       vertex -0.0233785 0.125 0
       vertex -0.0233785 0.125 0.1
    endloop
  endfacet
  facet normal -0.831476 0.555561 0
    outer loop
       vertex -0.0233785 0.125 0.1
       vertex -0.00521049 0.152191 0.1
       vertex -0.00521049 0.152191 0
    endloop
  endfacet
  facet normal -0.896866 0.442302 0
    outer loop
       vertex -0.0233785 0.125 0
       vertex -0.0378425 0.095671 0
       vertex -0.0378425 0.095671 0.1
    endloop
  endfacet
  facet normal -0.896866 0.442302 0
    outer loop
       vertex -0.0378425 0.095671 0.1
       vertex -0.0233785 0.125 0.1
       vertex -0.0233785 0.125 0
    endloop
  endfacet
  facet normal -0.946935 0.321425 0
    outer loop
       vertex -0.0378425 0.095671 0
       vertex -0.0483535 0.064705 0
       vertex -0.0483535 0.064705 0.1
    endloop
  endfacet
  facet normal -0.946935 0.321425 0
    outer loop
       vertex -0.0483535 0.064705 0.1
       vertex -0.0378425 0.095671 0.1
       vertex -0.0378425 0.095671 0
    endloop
  endfacet
  facet normal -0.980784 0.195096 0
    outer loop
       vertex -0.0483535 0.064705 0
       vertex -0.0547335 0.0326315 0
       vertex -0.0547335 0.0326315 0.1
    endloop
  endfacet
  facet normal -0.980784 0.195096 0
    outer loop
       vertex -0.0547335 0.0326315 0.1
       vertex -0.0483535 0.064705 0.1
       vertex -0.0483535 0.064705 0
    endloop
  endfacet
  facet normal -0.997858 0.0654098 0
    outer loop
       vertex -0.0568725 8.32665e-17 0.1
       vertex -0.0547335 0.0326315 0.1
       vertex -0.0547335 0.0326315 0
    endloop
  endfacet
  facet normal -0.997858 0.0654098 -1.08928e-16
    outer loop
       vertex -0.0547335 0.0326315 0
       vertex -0.0568725 -8.32665e-17 0
       vertex -0.0568725 8.32665e-17 0.1
    endloop
  endfacet
  facet normal -0.997858 -0.0654098 0
    outer loop
       vertex -0.0568725 -8.32665e-17 0
       vertex -0.0547335 -0.0326315 0
       vertex -0.0547335 -0.0326315 0.1
    endloop
  endfacet
  facet normal -0.997858 -0.0654098 1.08928e-16
    outer loop
       vertex -0.0547335 -0.0326315 0.1
       vertex -0.0568725 8.32665e-17 0.1
       vertex -0.0568725 -8.32665e-17 0
    endloop
  endfacet
  facet normal -0.980784 -0.195096 0
    outer loop
       vertex -0.0547335 -0.0326315 0
       vertex -0.0483535 -0.064705 0
       vertex -0.0483535 -0.064705 0.1
    endloop
  endfacet
  facet normal -0.980784 -0.195096 0
    outer loop
       vertex -0.0483535 -0.064705 0.1
       vertex -0.0547335 -0.0326315 0.1
       vertex -0.0547335 -0.0326315 0
    endloop
  endfacet
  facet normal -0.946935 -0.321425 0
    outer loop
       vertex -0.0483535 -0.064705 0
       vertex -0.0378425 -0.095671 0
       vertex -0.0378425 -0.095671 0.1
    endloop
  endfacet
  facet normal -0.946935 -0.321425 0
    outer loop
       vertex -0.0378425 -0.095671 0.1
       vertex -0.0483535 -0.064705 0.1
       vertex -0.0483535 -0.064705 0
    endloop
  endfacet
  facet normal -0.896866 -0.442302 0
    outer loop
       vertex -0.0378425 -0.095671 0
       vertex -0.0233785 -0.125 0
       vertex -0.0233785 -0.125 0.1
    endloop
  endfacet
  facet normal -0.896866 -0.442302 0
    outer loop
       vertex -0.0233785 -0.125 0.1
       vertex -0.0378425 -0.095671 0.1
       vertex -0.0378425 -0.095671 0
    endloop
  endfacet
  facet normal -0.831476 -0.555561 0
    outer loop
       vertex -0.0233785 -0.125 0
       vertex -0.00521049 -0.152191 0
       vertex -0.00521049 -0.152191 0.1
    endloop
  endfacet
  facet normal -0.831476 -0.555561 0
    outer loop
       vertex -0.00521049 -0.152191 0.1
       vertex -0.0233785 -0.125 0.1
       vertex -0.0233785 -0.125 0
    endloop
  endfacet
  facet normal -0.751817 -0.659372 0
    outer loop
       vertex -0.00521049 -0.152191 0
       vertex 0.0163515 -0.176776 0
       vertex 0.0163515 -0.176776 0.1
    endloop
  endfacet
  facet normal -0.751817 -0.659372 0
    outer loop
       vertex 0.0163515 -0.176776 0.1
       vertex -0.00521049 -0.152191 0.1
       vertex -0.00521049 -0.152191 0
    endloop
  endfacet
  facet normal 0.659372 -0.751817 0
    outer loop
       vertex 0.369904 -0.176776 0
       vertex 0.369904 -0.176776 0.1
       vertex 0.345319 -0.198338 0.1
    endloop
  endfacet
  facet normal 0.659372 -0.751817 0
    outer loop
       vertex 0.345319 -0.198338 0.1
       vertex 0.345319 -0.198338 0
       vertex 0.369904 -0.176776 0
    endloop
  endfacet
  facet normal 0.555561 -0.831476 0
    outer loop
       vertex 0.345319 -0.198338 0
       vertex 0.345319 -0.198338 0.1
       vertex 0.318128 -0.216506 0.1
    endloop
  endfacet
  facet normal 0.555561 -0.831476 0
    outer loop
       vertex 0.318128 -0.216506 0.1
       vertex 0.318128 -0.216506 0
       vertex 0.345319 -0.198338 0
    endloop
  endfacet
  facet normal 0.442302 -0.896866 0
    outer loop
       vertex 0.318128 -0.216506 0
       vertex 0.318128 -0.216506 0.1
       vertex 0.288799 -0.23097 0.1
    endloop
  endfacet
  facet normal 0.442302 -0.896866 0
    outer loop
       vertex 0.288799 -0.23097 0.1
       vertex 0.288799 -0.23097 0
       vertex 0.318128 -0.216506 0
    endloop
  endfacet
  facet normal 0.321425 -0.946935 0
    outer loop
       vertex 0.288799 -0.23097 0
       vertex 0.288799 -0.23097 0.1
       vertex 0.257833 -0.241481 0.1
    endloop
  endfacet
  facet normal 0.321425 -0.946935 0
    outer loop
       vertex 0.257833 -0.241481 0.1
       vertex 0.257833 -0.241481 0
       vertex 0.288799 -0.23097 0
    endloop
  endfacet
  facet normal 0.195096 -0.980784 0
    outer loop
       vertex 0.257833 -0.241481 0
       vertex 0.257833 -0.241481 0.1
       vertex 0.225759 -0.247861 0.1
    endloop
  endfacet
  facet normal 0.195096 -0.980784 0
    outer loop
       vertex 0.225759 -0.247861 0.1
       vertex 0.225759 -0.247861 0
       vertex 0.257833 -0.241481 0
    endloop
  endfacet
  facet normal 0.0654098 -0.997858 0
    outer loop
       vertex 0.193128 -0.25 0
       vertex 0.225759 -0.247861 0
       vertex 0.225759 -0.247861 0.1
    endloop
  endfacet
  facet normal 0.0654098 -0.997858 1.0893e-16
    outer loop
       vertex 0.225759 -0.247861 0.1
       vertex 0.193128 -0.25 0.1
       vertex 0.193128 -0.25 0
    endloop
  endfacet
  facet normal -0.0654098 -0.997858 0
    outer loop
       vertex 0.193128 -0.25 0.1
       vertex 0.160496 -0.247861 0.1
       vertex 0.160496 -0.247861 0
    endloop
  endfacet
  facet normal -0.0654098 -0.997858 -1.0893e-16
    outer loop
       vertex 0.160496 -0.247861 0
       vertex 0.193128 -0.25 0
       vertex 0.193128 -0.25 0.1
    endloop
  endfacet
  facet normal -0.195096 -0.980784 0
    outer loop
       vertex 0.160496 -0.247861 0
       vertex 0.160496 -0.247861 0.1
       vertex 0.128423 -0.241481 0.1
    endloop
  endfacet
  facet normal -0.195096 -0.980784 -0
    outer loop
       vertex 0.128423 -0.241481 0.1
       vertex 0.128423 -0.241481 0
       vertex 0.160496 -0.247861 0
    endloop
  endfacet
  facet normal -0.321425 -0.946935 0
    outer loop
       vertex 0.128423 -0.241481 0
       vertex 0.128423 -0.241481 0.1
       vertex 0.0974565 -0.23097 0.1
    endloop
  endfacet
  facet normal -0.321425 -0.946935 -0
    outer loop
       vertex 0.0974565 -0.23097 0.1
       vertex 0.0974565 -0.23097 0
       vertex 0.128423 -0.241481 0
    endloop
  endfacet
  facet normal -0.442302 -0.896866 0
    outer loop
       vertex 0.0974565 -0.23097 0
       vertex 0.0974565 -0.23097 0.1
       vertex 0.0681275 -0.216506 0.1
    endloop
  endfacet
  facet normal -0.442302 -0.896866 -0
    outer loop
       vertex 0.0681275 -0.216506 0.1
       vertex 0.0681275 -0.216506 0
       vertex 0.0974565 -0.23097 0
    endloop
  endfacet
  facet normal -0.555561 -0.831476 0
    outer loop
       vertex 0.0681275 -0.216506 0
       vertex 0.0681275 -0.216506 0.1
       vertex 0.0409365 -0.198338 0.1
    endloop
  endfacet
  facet normal -0.555561 -0.831476 -0
    outer loop
       vertex 0.0409365 -0.198338 0.1
       vertex 0.0409365 -0.198338 0
       vertex 0.0681275 -0.216506 0
    endloop
  endfacet
  facet normal -0.659372 -0.751817 0
    outer loop
       vertex 0.0409365 -0.198338 0
       vertex 0.0409365 -0.198338 0.1
       vertex 0.0163515 -0.176776 0.1
    endloop
  endfacet
  facet normal -0.659372 -0.751817 -0
    outer loop
       vertex 0.0163515 -0.176776 0.1
       vertex 0.0163515 -0.176776 0
       vertex 0.0409365 -0.198338 0
    endloop
  endfacet
endsolid cylinder
