solid cylinder
  facet normal 0.751817 -0.659372 0
    outer loop
       vertex -0.0631674 -0.176776 0
       vertex -0.0416054 -0.152191 0
       vertex -0.0416054 -0.152191 0.1
    endloop
  endfacet
  facet normal 0.751817 -0.659372 0
    outer loop
       vertex -0.0416054 -0.152191 0.1
       vertex -0.0631674 -0.176776 0.1
       vertex -0.0631674 -0.176776 0
    endloop
  endfacet
  facet normal 0.831476 -0.555561 0
    outer loop
       vertex -0.0416054 -0.152191 0
       vertex -0.0234374 -0.125 0
       vertex -0.0234374 -0.125 0.1
    endloop
  endfacet
  facet normal 0.831476 -0.555561 0
    outer loop
       vertex -0.0234374 -0.125 0.1
       vertex -0.0416054 -0.152191 0.1
       vertex -0.0416054 -0.152191 0
    endloop
  endfacet
  facet normal 0.896866 -0.442302 0
    outer loop
       vertex -0.0234374 -0.125 0
       vertex -0.00897344 -0.095671 0
       vertex -0.00897344 -0.095671 0.1
    endloop
  endfacet
  facet normal 0.896866 -0.442302 0
    outer loop
       vertex -0.00897344 -0.095671 0.1
       vertex -0.0234374 -0.125 0.1
       vertex -0.0234374 -0.125 0
    endloop
  endfacet
  facet normal 0.946935 -0.321425 0
    outer loop
       vertex -0.00897344 -0.095671 0
       vertex 0.00153756 -0.064705 0
       vertex 0.00153756 -0.064705 0.1
    endloop
  endfacet
  facet normal 0.946935 -0.321425 0
    outer loop
       vertex 0.00153756 -0.064705 0.1
       vertex -0.00897344 -0.095671 0.1
       vertex -0.00897344 -0.095671 0
    endloop
  endfacet
  facet normal 0.980784 -0.195096 0
    outer loop
       vertex 0.00153756 -0.064705 0
       vertex 0.00791756 -0.0326315 0
       vertex 0.00791756 -0.0326315 0.1
    endloop
  endfacet
  facet normal 0.980784 -0.195096 0
    outer loop
       vertex 0.00791756 -0.0326315 0.1
       vertex 0.00153756 -0.064705 0.1
       vertex 0.00153756 -0.064705 0
    endloop
  endfacet
  facet normal 0.997858 -0.0654098 0
    outer loop
       vertex 0.0100566 -8.32665e-17 0.1
       vertex 0.00791756 -0.0326315 0.1
       vertex 0.00791756 -0.0326315 0
    endloop
  endfacet
  facet normal 0.997858 -0.0654098 -1.08928e-16
    outer loop
       vertex 0.00791756 -0.0326315 0
       vertex 0.0100566 8.32665e-17 0
       vertex 0.0100566 -8.32665e-17 0.1
    endloop
  endfacet
  facet normal 0.997858 0.0654098 0
    outer loop
       vertex 0.0100566 8.32665e-17 0
       vertex 0.00791756 0.0326315 0
       vertex 0.00791756 0.0326315 0.1
    endloop
  endfacet
  facet normal 0.997858 0.0654098 1.08928e-16
    outer loop
       vertex 0.00791756 0.0326315 0.1
       vertex 0.0100566 -8.32665e-17 0.1
       vertex 0.0100566 8.32665e-17 0
    endloop
  endfacet
  facet normal 0.980784 0.195096 0
    outer loop
       vertex 0.00791756 0.0326315 0
       vertex 0.00153756 0.064705 0
       vertex 0.00153756 0.064705 0.1
    endloop
  endfacet
  facet normal 0.980784 0.195096 0
    outer loop
       vertex 0.00153756 0.064705 0.1
       vertex 0.00791756 0.0326315 0.1
       vertex 0.00791756 0.0326315 0
    endloop
  endfacet
  facet normal 0.946935 0.321425 0
    outer loop
       vertex 0.00153756 0.064705 0
       vertex -0.00897344 0.095671 0
       vertex -0.00897344 0.095671 0.1
    endloop
  endfacet
  facet normal 0.946935 0.321425 0
    outer loop
       vertex -0.00897344 0.095671 0.1
       vertex 0.00153756 0.064705 0.1
       vertex 0.00153756 0.064705 0
    endloop
  endfacet
  facet normal 0.896866 0.442302 0
    outer loop
       vertex -0.00897344 0.095671 0
       vertex -0.0234374 0.125 0
       vertex -0.0234374 0.125 0.1
    endloop
  endfacet
  facet normal 0.896866 0.442302 0
    outer loop
       vertex -0.0234374 0.125 0.1
       vertex -0.00897344 0.095671 0.1
       vertex -0.00897344 0.095671 0
    endloop
  endfacet
  facet normal 0.831476 0.555561 0
    outer loop
       vertex -0.0234374 0.125 0
       vertex -0.0416054 0.152191 0
       vertex -0.0416054 0.152191 0.1
    endloop
  endfacet
  facet normal 0.831476 0.555561 0
    outer loop
       vertex -0.0416054 0.152191 0.1
       vertex -0.0234374 0.125 0.1
       vertex -0.0234374 0.125 0
    endloop
  endfacet
  facet normal 0.751817 0.659372 0
    outer loop
       vertex -0.0416054 0.152191 0
       vertex -0.0631674 0.176776 0
       vertex -0.0631674 0.176776 0.1
    endloop
  endfacet
  facet normal 0.751817 0.659372 0
    outer loop
       vertex -0.0631674 0.176776 0.1
       vertex -0.0416054 0.152191 0.1
       vertex -0.0416054 0.152191 0
    endloop
  endfacet
  facet normal 0.659372 0.751817 0
    outer loop
       vertex -0.0631674 0.176776 0
       vertex -0.0877524 0.198338 0
       vertex -0.0877524 0.198338 0.1
    endloop
  endfacet
  facet normal 0.659372 0.751817 0
    outer loop
       vertex -0.0877524 0.198338 0.1
       vertex -0.0631674 0.176776 0.1
       vertex -0.0631674 0.176776 0
    endloop
  endfacet
  facet normal 0.555561 0.831476 0
    outer loop
       vertex -0.0877524 0.198338 0
       vertex -0.114943 0.216506 0
       vertex -0.114943 0.216506 0.1
    endloop
  endfacet
  facet normal 0.555561 0.831476 0
    outer loop
       vertex -0.114943 0.216506 0.1
       vertex -0.0877524 0.198338 0.1
       vertex -0.0877524 0.198338 0
    endloop
  endfacet
  facet normal 0.442302 0.896866 0
    outer loop
       vertex -0.114943 0.216506 0
       vertex -0.144272 0.23097 0
       vertex -0.144272 0.23097 0.1
    endloop
  endfacet
  facet normal 0.442302 0.896866 0
    outer loop
       vertex -0.144272 0.23097 0.1
       vertex -0.114943 0.216506 0.1
       vertex -0.114943 0.216506 0
    endloop
  endfacet
  facet normal 0.321425 0.946935 0
    outer loop
       vertex -0.144272 0.23097 0
       vertex -0.175238 0.241481 0
       vertex -0.175238 0.241481 0.1
    endloop
  endfacet
  facet normal 0.321425 0.946935 0
    outer loop
       vertex -0.175238 0.241481 0.1
       vertex -0.144272 0.23097 0.1
       vertex -0.144272 0.23097 0
    endloop
  endfacet
  facet normal 0.195096 0.980784 0
    outer loop
       vertex -0.175238 0.241481 0
       vertex -0.207312 0.247861 0
       vertex -0.207312 0.247861 0.1
    endloop
  endfacet
  facet normal 0.195096 0.980784 0
    outer loop
       vertex -0.207312 0.247861 0.1
       vertex -0.175238 0.241481 0.1
       vertex -0.175238 0.241481 0
    endloop
  endfacet
  facet normal 0.0654098 0.997858 0
    outer loop
       vertex -0.239943 0.25 0.1
       vertex -0.207312 0.247861 0.1
       vertex -0.207312 0.247861 0
    endloop
  endfacet
  facet normal 0.0654098 0.997858 -1.0893e-16
    outer loop
       vertex -0.207312 0.247861 0
       vertex -0.239943 0.25 0
       vertex -0.239943 0.25 0.1
    endloop
  endfacet
  facet normal -0.0654098 0.997858 0
    outer loop
       vertex -0.239943 0.25 0
       vertex -0.272575 0.247861 0
       vertex -0.272575 0.247861 0.1
    endloop
  endfacet
  facet normal -0.0654098 0.997858 1.0893e-16
    outer loop
       vertex -0.272575 0.247861 0.1
       vertex -0.239943 0.25 0.1
       vertex -0.239943 0.25 0
    endloop
  endfacet
  facet normal -0.195096 0.980784 0
    outer loop
       vertex -0.272575 0.247861 0
       vertex -0.304648 0.241481 0
       vertex -0.304648 0.241481 0.1
    endloop
  endfacet
  facet normal -0.195096 0.980784 0
    outer loop
       vertex -0.304648 0.241481 0.1
       vertex -0.272575 0.247861 0.1
       vertex -0.272575 0.247861 0
    endloop
  endfacet
  facet normal -0.321425 0.946935 0
    outer loop
       vertex -0.304648 0.241481 0
       vertex -0.335614 0.23097 0
       vertex -0.335614 0.23097 0.1
    endloop
  endfacet
  facet normal -0.321425 0.946935 0
    outer loop
       vertex -0.335614 0.23097 0.1
       vertex -0.304648 0.241481 0.1
       vertex -0.304648 0.241481 0
    endloop
  endfacet
  facet normal -0.442302 0.896866 0
    outer loop
       vertex -0.335614 0.23097 0
       vertex -0.364943 0.216506 0
       vertex -0.364943 0.216506 0.1
    endloop
  endfacet
  facet normal -0.442302 0.896866 0
    outer loop
       vertex -0.364943 0.216506 0.1
       vertex -0.335614 0.23097 0.1
       vertex -0.335614 0.23097 0
    endloop
  endfacet
  facet normal -0.555561 0.831476 0
    outer loop
       vertex -0.364943 0.216506 0
       vertex -0.392134 0.198338 0
       vertex -0.392134 0.198338 0.1
    endloop
  endfacet
  facet normal -0.555561 0.831476 0
    outer loop
       vertex -0.392134 0.198338 0.1
       vertex -0.364943 0.216506 0.1
       vertex -0.364943 0.216506 0
    endloop
  endfacet
  facet normal -0.659372 0.751817 0
    outer loop
       vertex -0.392134 0.198338 0
       vertex -0.416719 0.176776 0
       vertex -0.416719 0.176776 0.1
    endloop
  endfacet
  facet normal -0.659372 0.751817 0
    outer loop
       vertex -0.416719 0.176776 0.1
       vertex -0.392134 0.198338 0.1
       vertex -0.392134 0.198338 0
    endloop
  endfacet
  facet normal -0.751817 0.659372 0
    outer loop
       vertex -0.416719 0.176776 0
       vertex -0.438281 0.152191 0
       vertex -0.438281 0.152191 0.1
    endloop
  endfacet
  facet normal -0.751817 0.659372 0
    outer loop
       vertex -0.438281 0.152191 0.1
       vertex -0.416719 0.176776 0.1
       vertex -0.416719 0.176776 0
    endloop
  endfacet
  facet normal -0.831476 0.555561 0
    outer loop
       vertex -0.438281 0.152191 0
       vertex -0.456449 0.125 0
       vertex -0.456449 0.125 0.1
    endloop
  endfacet
  facet normal -0.831476 0.555561 0
    outer loop
       vertex -0.456449 0.125 0.1
       vertex -0.438281 0.152191 0.1
       vertex -0.438281 0.152191 0
    endloop
  endfacet
  facet normal -0.896866 0.442302 0
    outer loop
       vertex -0.456449 0.125 0
       vertex -0.470913 0.095671 0
       vertex -0.470913 0.095671 0.1
    endloop
  endfacet
  facet normal -0.896866 0.442302 0
    outer loop
       vertex -0.470913 0.095671 0.1
       vertex -0.456449 0.125 0.1
       vertex -0.456449 0.125 0
    endloop
  endfacet
  facet normal -0.946935 0.321425 0
    outer loop
       vertex -0.470913 0.095671 0
       vertex -0.481424 0.064705 0
       vertex -0.481424 0.064705 0.1
    endloop
  endfacet
  facet normal -0.946935 0.321425 0
    outer loop
       vertex -0.481424 0.064705 0.1
       vertex -0.470913 0.095671 0.1
       vertex -0.470913 0.095671 0
    endloop
  endfacet
  facet normal -0.980784 0.195096 0
    outer loop
       vertex -0.481424 0.064705 0
       vertex -0.487804 0.0326315 0
       vertex -0.487804 0.0326315 0.1
    endloop
  endfacet
  facet normal -0.980784 0.195096 0
    outer loop
       vertex -0.487804 0.0326315 0.1
       vertex -0.481424 0.064705 0.1
       vertex -0.481424 0.064705 0
    endloop
  endfacet
  facet normal -0.997858 0.0654098 0
    outer loop
       vertex -0.489943 8.32665e-17 0.1
       vertex -0.487804 0.0326315 0.1
       vertex -0.487804 0.0326315 0
    endloop
  endfacet
  facet normal -0.997858 0.0654098 -1.08928e-16
    outer loop
       vertex -0.487804 0.0326315 0
       vertex -0.489943 -8.32665e-17 0
       vertex -0.489943 8.32665e-17 0.1
    endloop
  endfacet
  facet normal -0.997858 -0.0654098 0
    outer loop
       vertex -0.489943 -8.32665e-17 0
       vertex -0.487804 -0.0326315 0
       vertex -0.487804 -0.0326315 0.1
    endloop
  endfacet
  facet normal -0.997858 -0.0654098 1.08928e-16
    outer loop
       vertex -0.487804 -0.0326315 0.1
       vertex -0.489943 8.32665e-17 0.1
       vertex -0.489943 -8.32665e-17 0
    endloop
  endfacet
  facet normal -0.980784 -0.195096 0
    outer loop
       vertex -0.487804 -0.0326315 0
       vertex -0.481424 -0.064705 0
       vertex -0.481424 -0.064705 0.1
    endloop
  endfacet
  facet normal -0.980784 -0.195096 0
    outer loop
       vertex -0.481424 -0.064705 0.1
       vertex -0.487804 -0.0326315 0.1
       vertex -0.487804 -0.0326315 0
    endloop
  endfacet
  facet normal -0.946935 -0.321425 0
    outer loop
       vertex -0.481424 -0.064705 0
       vertex -0.470913 -0.095671 0
       vertex -0.470913 -0.095671 0.1
    endloop
  endfacet
  facet normal -0.946935 -0.321425 0
    outer loop
       vertex -0.470913 -0.095671 0.1
       vertex -0.481424 -0.064705 0.1
       vertex -0.481424 -0.064705 0
    endloop
  endfacet
  facet normal -0.896866 -0.442302 0
    outer loop
       vertex -0.470913 -0.095671 0
       vertex -0.456449 -0.125 0
       vertex -0.456449 -0.125 0.1
    endloop
  endfacet
  facet normal -0.896866 -0.442302 0
    outer loop
       vertex -0.456449 -0.125 0.1
       vertex -0.470913 -0.095671 0.1
       vertex -0.470913 -0.095671 0
    endloop
  endfacet
  facet normal -0.831476 -0.555561 0
    outer loop
       vertex -0.456449 -0.125 0
       vertex -0.438281 -0.152191 0
       vertex -0.438281 -0.152191 0.1
    endloop
  endfacet
  facet normal -0.831476 -0.555561 0
    outer loop
       vertex -0.438281 -0.152191 0.1
       vertex -0.456449 -0.125 0.1
       vertex -0.456449 -0.125 0
    endloop
  endfacet
  facet normal -0.751817 -0.659372 0
    outer loop
       vertex -0.438281 -0.152191 0
       vertex -0.416719 -0.176776 0
       vertex -0.416719 -0.176776 0.1
    endloop
  endfacet
  facet normal -0.751817 -0.659372 0
    outer loop
       vertex -0.416719 -0.176776 0.1
       vertex -0.438281 -0.152191 0.1
       vertex -0.438281 -0.152191 0
    endloop
  endfacet
  facet normal 0.659372 -0.751817 0
    outer loop
       vertex -0.0631674 -0.176776 0
       vertex -0.0631674 -0.176776 0.1
       vertex -0.0877524 -0.198338 0.1
    endloop
  endfacet
  facet normal 0.659372 -0.751817 0
    outer loop
       vertex -0.0877524 -0.198338 0.1
       vertex -0.0877524 -0.198338 0
       vertex -0.0631674 -0.176776 0
    endloop
  endfacet
  facet normal 0.555561 -0.831476 0
    outer loop
       vertex -0.0877524 -0.198338 0
       vertex -0.0877524 -0.198338 0.1
       vertex -0.114943 -0.216506 0.1
    endloop
  endfacet
  facet normal 0.555561 -0.831476 0
    outer loop
       vertex -0.114943 -0.216506 0.1
       vertex -0.114943 -0.216506 0
       vertex -0.0877524 -0.198338 0
    endloop
  endfacet
  facet normal 0.442302 -0.896866 0
    outer loop
       vertex -0.114943 -0.216506 0
       vertex -0.114943 -0.216506 0.1
       vertex -0.144272 -0.23097 0.1
    endloop
  endfacet
  facet normal 0.442302 -0.896866 0
    outer loop
       vertex -0.144272 -0.23097 0.1
       vertex -0.144272 -0.23097 0
       vertex -0.114943 -0.216506 0
    endloop
  endfacet
  facet normal 0.321425 -0.946935 0
    outer loop
       vertex -0.144272 -0.23097 0
       vertex -0.144272 -0.23097 0.1
       vertex -0.175238 -0.241481 0.1
    endloop
  endfacet
  facet normal 0.321425 -0.946935 0
    outer loop
       vertex -0.175238 -0.241481 0.1
       vertex -0.175238 -0.241481 0
       vertex -0.144272 -0.23097 0
    endloop
  endfacet
  facet normal 0.195096 -0.980784 0
    outer loop
       vertex -0.175238 -0.241481 0
       vertex -0.175238 -0.241481 0.1
       vertex -0.207312 -0.247861 0.1
    endloop
  endfacet
  facet normal 0.195096 -0.980784 0
    outer loop
       vertex -0.207312 -0.247861 0.1
       vertex -0.207312 -0.247861 0
       vertex -0.175238 -0.241481 0
    endloop
  endfacet
  facet normal 0.0654098 -0.997858 0
    outer loop
       vertex -0.239943 -0.25 0
       vertex -0.207312 -0.247861 0
       vertex -0.207312 -0.247861 0.1
    endloop
  endfacet
  facet normal 0.0654098 -0.997858 1.0893e-16
    outer loop
       vertex -0.207312 -0.247861 0.1
       vertex -0.239943 -0.25 0.1
       vertex -0.239943 -0.25 0
    endloop
  endfacet
  facet normal -0.0654098 -0.997858 0
    outer loop
       vertex -0.239943 -0.25 0.1
       vertex -0.272575 -0.247861 0.1
       vertex -0.272575 -0.247861 0
    endloop
  endfacet
  facet normal -0.0654098 -0.997858 -1.0893e-16
    outer loop
       vertex -0.272575 -0.247861 0
       vertex -0.239943 -0.25 0
       vertex -0.239943 -0.25 0.1
    endloop
  endfacet
  facet normal -0.195096 -0.980784 0
    outer loop
       vertex -0.272575 -0.247861 0
       vertex -0.272575 -0.247861 0.1
       vertex -0.304648 -0.241481 0.1
    endloop
  endfacet
  facet normal -0.195096 -0.980784 -0
    outer loop
       vertex -0.304648 -0.241481 0.1
       vertex -0.304648 -0.241481 0
       vertex -0.272575 -0.247861 0
    endloop
  endfacet
  facet normal -0.321425 -0.946935 0
    outer loop
       vertex -0.304648 -0.241481 0
       vertex -0.304648 -0.241481 0.1
       vertex -0.335614 -0.23097 0.1
    endloop
  endfacet
  facet normal -0.321425 -0.946935 -0
    outer loop
       vertex -0.335614 -0.23097 0.1
       vertex -0.335614 -0.23097 0
       vertex -0.304648 -0.241481 0
    endloop
  endfacet
  facet normal -0.442302 -0.896866 0
    outer loop
       vertex -0.335614 -0.23097 0
       vertex -0.335614 -0.23097 0.1
       vertex -0.364943 -0.216506 0.1
    endloop
  endfacet
  facet normal -0.442302 -0.896866 -0
    outer loop
       vertex -0.364943 -0.216506 0.1
       vertex -0.364943 -0.216506 0
       vertex -0.335614 -0.23097 0
    endloop
  endfacet
  facet normal -0.555561 -0.831476 0
    outer loop
       vertex -0.364943 -0.216506 0
       vertex -0.364943 -0.216506 0.1
       vertex -0.392134 -0.198338 0.1
    endloop
  endfacet
  facet normal -0.555561 -0.831476 -0
    outer loop
       vertex -0.392134 -0.198338 0.1
       vertex -0.392134 -0.198338 0
       vertex -0.364943 -0.216506 0
    endloop
  endfacet
  facet normal -0.659372 -0.751817 0
    outer loop
       vertex -0.392134 -0.198338 0
       vertex -0.392134 -0.198338 0.1
       vertex -0.416719 -0.176776 0.1
    endloop
  endfacet
  facet normal -0.659372 -0.751817 -0
    outer loop
       vertex -0.416719 -0.176776 0.1
       vertex -0.416719 -0.176776 0
       vertex -0.392134 -0.198338 0
    endloop
  endfacet
endsolid cylinder
