solid cylinder
  facet normal 0.751817 -0.659372 0
    outer loop
       vertex 0.420291 -0.176776 0
       vertex 0.441853 -0.152191 0
       vertex 0.441853 -0.152191 0.1
    endloop
  endfacet
  facet normal 0.751817 -0.659372 0
    outer loop
       vertex 0.441853 -0.152191 0.1
       vertex 0.420291 -0.176776 0.1
       vertex 0.420291 -0.176776 0
    endloop
  endfacet
  facet normal 0.831476 -0.555561 0
    outer loop
       vertex 0.441853 -0.152191 0
       vertex 0.460021 -0.125 0
       vertex 0.460021 -0.125 0.1
    endloop
  endfacet
  facet normal 0.831476 -0.555561 0
    outer loop
       vertex 0.460021 -0.125 0.1
       vertex 0.441853 -0.152191 0.1
       vertex 0.441853 -0.152191 0
    endloop
  endfacet
  facet normal 0.896866 -0.442302 0
    outer loop
       vertex 0.460021 -0.125 0
       vertex 0.474485 -0.095671 0
       vertex 0.474485 -0.095671 0.1
    endloop
  endfacet
  facet normal 0.896866 -0.442302 0
    outer loop
       vertex 0.474485 -0.095671 0.1
       vertex 0.460021 -0.125 0.1
       vertex 0.460021 -0.125 0
    endloop
  endfacet
  facet normal 0.946935 -0.321425 0
    outer loop
       vertex 0.474485 -0.095671 0
       vertex 0.484996 -0.064705 0
       vertex 0.484996 -0.064705 0.1
    endloop
  endfacet
  facet normal 0.946935 -0.321425 0
    outer loop
       vertex 0.484996 -0.064705 0.1
       vertex 0.474485 -0.095671 0.1
       vertex 0.474485 -0.095671 0
    endloop
  endfacet
  facet normal 0.980784 -0.195096 0
    outer loop
       vertex 0.484996 -0.064705 0
       vertex 0.491376 -0.0326315 0
       vertex 0.491376 -0.0326315 0.1
    endloop
  endfacet
  facet normal 0.980784 -0.195096 0
    outer loop
       vertex 0.491376 -0.0326315 0.1
       vertex 0.484996 -0.064705 0.1
       vertex 0.484996 -0.064705 0
    endloop
  endfacet
  facet normal 0.997858 -0.0654098 0
    outer loop
       vertex 0.493515 -8.32665e-17 0.1
       vertex 0.491376 -0.0326315 0.1
       vertex 0.491376 -0.0326315 0
    endloop
  endfacet
  facet normal 0.997858 -0.0654098 -1.08928e-16
    outer loop
       vertex 0.491376 -0.0326315 0
       vertex 0.493515 8.32665e-17 0
       vertex 0.493515 -8.32665e-17 0.1
    endloop
  endfacet
  facet normal 0.997858 0.0654098 0
    outer loop
       vertex 0.493515 8.32665e-17 0
       vertex 0.491376 0.0326315 0
       vertex 0.491376 0.0326315 0.1
    endloop
  endfacet
  facet normal 0.997858 0.0654098 1.08928e-16
    outer loop
       vertex 0.491376 0.0326315 0.1
       vertex 0.493515 -8.32665e-17 0.1
       vertex 0.493515 8.32665e-17 0
    endloop
  endfacet
  facet normal 0.980784 0.195096 0
    outer loop
       vertex 0.491376 0.0326315 0
       vertex 0.484996 0.064705 0
       vertex 0.484996 0.064705 0.1
    endloop
  endfacet
  facet normal 0.980784 0.195096 0
    outer loop
       vertex 0.484996 0.064705 0.1
       vertex 0.491376 0.0326315 0.1
       vertex 0.491376 0.0326315 0
    endloop
  endfacet
  facet normal 0.946935 0.321425 0
    outer loop
       vertex 0.484996 0.064705 0
       vertex 0.474485 0.095671 0
       vertex 0.474485 0.095671 0.1
    endloop
  endfacet
  facet normal 0.946935 0.321425 0
    outer loop
       vertex 0.474485 0.095671 0.1
       vertex 0.484996 0.064705 0.1
       vertex 0.484996 0.064705 0
    endloop
  endfacet
  facet normal 0.896866 0.442302 0
    outer loop
       vertex 0.474485 0.095671 0
       vertex 0.460021 0.125 0
       vertex 0.460021 0.125 0.1
    endloop
  endfacet
  facet normal 0.896866 0.442302 0
    outer loop
       vertex 0.460021 0.125 0.1
       vertex 0.474485 0.095671 0.1
       vertex 0.474485 0.095671 0
    endloop
  endfacet
  facet normal 0.831476 0.555561 0
    outer loop
       vertex 0.460021 0.125 0
       vertex 0.441853 0.152191 0
       vertex 0.441853 0.152191 0.1
    endloop
  endfacet
  facet normal 0.831476 0.555561 0
    outer loop
       vertex 0.441853 0.152191 0.1
       vertex 0.460021 0.125 0.1
       vertex 0.460021 0.125 0
    endloop
  endfacet
  facet normal 0.751817 0.659372 0
    outer loop
       vertex 0.441853 0.152191 0
       vertex 0.420291 0.176776 0
       vertex 0.420291 0.176776 0.1
    endloop
  endfacet
  facet normal 0.751817 0.659372 0
    outer loop
       vertex 0.420291 0.176776 0.1
       vertex 0.441853 0.152191 0.1
       vertex 0.441853 0.152191 0
    endloop
  endfacet
  facet normal 0.659372 0.751817 0
    outer loop
       vertex 0.420291 0.176776 0
       vertex 0.395706 0.198338 0
       vertex 0.395706 0.198338 0.1
    endloop
  endfacet
  facet normal 0.659372 0.751817 0
    outer loop
       vertex 0.395706 0.198338 0.1
       vertex 0.420291 0.176776 0.1
       vertex 0.420291 0.176776 0
    endloop
  endfacet
  facet normal 0.555561 0.831476 0
    outer loop
       vertex 0.395706 0.198338 0
       vertex 0.368515 0.216506 0
       vertex 0.368515 0.216506 0.1
    endloop
  endfacet
  facet normal 0.555561 0.831476 0
    outer loop
       vertex 0.368515 0.216506 0.1
       vertex 0.395706 0.198338 0.1
       vertex 0.395706 0.198338 0
    endloop
  endfacet
  facet normal 0.442302 0.896866 0
    outer loop
       vertex 0.368515 0.216506 0
       vertex 0.339186 0.23097 0
       vertex 0.339186 0.23097 0.1
    endloop
  endfacet
  facet normal 0.442302 0.896866 0
    outer loop
       vertex 0.339186 0.23097 0.1
       vertex 0.368515 0.216506 0.1
       vertex 0.368515 0.216506 0
    endloop
  endfacet
  facet normal 0.321425 0.946935 0
    outer loop
       vertex 0.339186 0.23097 0
       vertex 0.30822 0.241481 0
       vertex 0.30822 0.241481 0.1
    endloop
  endfacet
  facet normal 0.321425 0.946935 0
    outer loop
       vertex 0.30822 0.241481 0.1
       vertex 0.339186 0.23097 0.1
       vertex 0.339186 0.23097 0
    endloop
  endfacet
  facet normal 0.195096 0.980784 0
    outer loop
       vertex 0.30822 0.241481 0
       vertex 0.276146 0.247861 0
       vertex 0.276146 0.247861 0.1
    endloop
  endfacet
  facet normal 0.195096 0.980784 0
    outer loop
       vertex 0.276146 0.247861 0.1
       vertex 0.30822 0.241481 0.1
       vertex 0.30822 0.241481 0
    endloop
  endfacet
  facet normal 0.0654098 0.997858 0
    outer loop
       vertex 0.243515 0.25 0.1
       vertex 0.276146 0.247861 0.1
       vertex 0.276146 0.247861 0
    endloop
  endfacet
  facet normal 0.0654098 0.997858 -1.0893e-16
    outer loop
       vertex 0.276146 0.247861 0
       vertex 0.243515 0.25 0
       vertex 0.243515 0.25 0.1
    endloop
  endfacet
  facet normal -0.0654098 0.997858 0
    outer loop
       vertex 0.243515 0.25 0
       vertex 0.210883 0.247861 0
       vertex 0.210883 0.247861 0.1
    endloop
  endfacet
  facet normal -0.0654098 0.997858 1.0893e-16
    outer loop
       vertex 0.210883 0.247861 0.1
       vertex 0.243515 0.25 0.1
       vertex 0.243515 0.25 0
    endloop
  endfacet
  facet normal -0.195096 0.980784 0
    outer loop
       vertex 0.210883 0.247861 0
       vertex 0.17881 0.241481 0
       vertex 0.17881 0.241481 0.1
    endloop
  endfacet
  facet normal -0.195096 0.980784 0
    outer loop
       vertex 0.17881 0.241481 0.1
       vertex 0.210883 0.247861 0.1
       vertex 0.210883 0.247861 0
    endloop
  endfacet
  facet normal -0.321425 0.946935 0
    outer loop
       vertex 0.17881 0.241481 0
       vertex 0.147844 0.23097 0
       vertex 0.147844 0.23097 0.1
    endloop
  endfacet
  facet normal -0.321425 0.946935 0
    outer loop
       vertex 0.147844 0.23097 0.1
       vertex 0.17881 0.241481 0.1
       vertex 0.17881 0.241481 0
    endloop
  endfacet
  facet normal -0.442302 0.896866 0
    outer loop
       vertex 0.147844 0.23097 0
       vertex 0.118515 0.216506 0
       vertex 0.118515 0.216506 0.1
    endloop
  endfacet
  facet normal -0.442302 0.896866 0
    outer loop
       vertex 0.118515 0.216506 0.1
       vertex 0.147844 0.23097 0.1
       vertex 0.147844 0.23097 0
    endloop
  endfacet
  facet normal -0.555561 0.831476 0
    outer loop
       vertex 0.118515 0.216506 0
       vertex 0.0913239 0.198338 0
       vertex 0.0913239 0.198338 0.1
    endloop
  endfacet
  facet normal -0.555561 0.831476 0
    outer loop
       vertex 0.0913239 0.198338 0.1
       vertex 0.118515 0.216506 0.1
       vertex 0.118515 0.216506 0
    endloop
  endfacet
  facet normal -0.659372 0.751817 0
    outer loop
       vertex 0.0913239 0.198338 0
       vertex 0.0667389 0.176776 0
       vertex 0.0667389 0.176776 0.1
    endloop
  endfacet
  facet normal -0.659372 0.751817 0
    outer loop
       vertex 0.0667389 0.176776 0.1
       vertex 0.0913239 0.198338 0.1
       vertex 0.0913239 0.198338 0
    endloop
  endfacet
  facet normal -0.751817 0.659372 0
    outer loop
       vertex 0.0667389 0.176776 0
       vertex 0.0451769 0.152191 0
       vertex 0.0451769 0.152191 0.1
    endloop
  endfacet
  facet normal -0.751817 0.659372 0
    outer loop
       vertex 0.0451769 0.152191 0.1
       vertex 0.0667389 0.176776 0.1
       vertex 0.0667389 0.176776 0
    endloop
  endfacet
  facet normal -0.831476 0.555561 0
    outer loop
       vertex 0.0451769 0.152191 0
       vertex 0.0270089 0.125 0
       vertex 0.0270089 0.125 0.1
    endloop
  endfacet
  facet normal -0.831476 0.555561 0
    outer loop
       vertex 0.0270089 0.125 0.1
       vertex 0.0451769 0.152191 0.1
       vertex 0.0451769 0.152191 0
    endloop
  endfacet
  facet normal -0.896866 0.442302 0
    outer loop
       vertex 0.0270089 0.125 0
       vertex 0.0125449 0.095671 0
       vertex 0.0125449 0.095671 0.1
    endloop
  endfacet
  facet normal -0.896866 0.442302 0
    outer loop
       vertex 0.0125449 0.095671 0.1
       vertex 0.0270089 0.125 0.1
       vertex 0.0270089 0.125 0
    endloop
  endfacet
  facet normal -0.946935 0.321425 0
    outer loop
       vertex 0.0125449 0.095671 0
       vertex 0.00203388 0.064705 0
       vertex 0.00203388 0.064705 0.1
    endloop
  endfacet
  facet normal -0.946935 0.321425 0
    outer loop
       vertex 0.00203388 0.064705 0.1
       vertex 0.0125449 0.095671 0.1
       vertex 0.0125449 0.095671 0
    endloop
  endfacet
  facet normal -0.980784 0.195096 0
    outer loop
       vertex 0.00203388 0.064705 0
       vertex -0.00434612 0.0326315 0
       vertex -0.00434612 0.0326315 0.1
    endloop
  endfacet
  facet normal -0.980784 0.195096 0
    outer loop
       vertex -0.00434612 0.0326315 0.1
       vertex 0.00203388 0.064705 0.1
       vertex 0.00203388 0.064705 0
    endloop
  endfacet
  facet normal -0.997858 0.0654098 0
    outer loop
       vertex -0.00648512 8.32665e-17 0.1
       vertex -0.00434612 0.0326315 0.1
       vertex -0.00434612 0.0326315 0
    endloop
  endfacet
  facet normal -0.997858 0.0654098 -1.08928e-16
    outer loop
       vertex -0.00434612 0.0326315 0
       vertex -0.00648512 -8.32665e-17 0
       vertex -0.00648512 8.32665e-17 0.1
    endloop
  endfacet
  facet normal -0.997858 -0.0654098 0
    outer loop
       vertex -0.00648512 -8.32665e-17 0
       vertex -0.00434612 -0.0326315 0
       vertex -0.00434612 -0.0326315 0.1
    endloop
  endfacet
  facet normal -0.997858 -0.0654098 1.08928e-16
    outer loop
       vertex -0.00434612 -0.0326315 0.1
       vertex -0.00648512 8.32665e-17 0.1
       vertex -0.00648512 -8.32665e-17 0
    endloop
  endfacet
  facet normal -0.980784 -0.195096 0
    outer loop
       vertex -0.00434612 -0.0326315 0
       vertex 0.00203388 -0.064705 0
       vertex 0.00203388 -0.064705 0.1
    endloop
  endfacet
  facet normal -0.980784 -0.195096 0
    outer loop
       vertex 0.00203388 -0.064705 0.1
       vertex -0.00434612 -0.0326315 0.1
       vertex -0.00434612 -0.0326315 0
    endloop
  endfacet
  facet normal -0.946935 -0.321425 0
    outer loop
       vertex 0.00203388 -0.064705 0
       vertex 0.0125449 -0.095671 0
       vertex 0.0125449 -0.095671 0.1
    endloop
  endfacet
  facet normal -0.946935 -0.321425 0
    outer loop
       vertex 0.0125449 -0.095671 0.1
       vertex 0.00203388 -0.064705 0.1
       vertex 0.00203388 -0.064705 0
    endloop
  endfacet
  facet normal -0.896866 -0.442302 0
    outer loop
       vertex 0.0125449 -0.095671 0
       vertex 0.0270089 -0.125 0
       vertex 0.0270089 -0.125 0.1
    endloop
  endfacet
  facet normal -0.896866 -0.442302 0
    outer loop
       vertex 0.0270089 -0.125 0.1
       vertex 0.0125449 -0.095671 0.1
       vertex 0.0125449 -0.095671 0
    endloop
  endfacet
  facet normal -0.831476 -0.555561 0
    outer loop
       vertex 0.0270089 -0.125 0
       vertex 0.0451769 -0.152191 0
       vertex 0.0451769 -0.152191 0.1
    endloop
  endfacet
  facet normal -0.831476 -0.555561 0
    outer loop
       vertex 0.0451769 -0.152191 0.1
       vertex 0.0270089 -0.125 0.1
       vertex 0.0270089 -0.125 0
    endloop
  endfacet
  facet normal -0.751817 -0.659372 0
    outer loop
       vertex 0.0451769 -0.152191 0
       vertex 0.0667389 -0.176776 0
       vertex 0.0667389 -0.176776 0.1
    endloop
  endfacet
  facet normal -0.751817 -0.659372 0
    outer loop
       vertex 0.0667389 -0.176776 0.1
       vertex 0.0451769 -0.152191 0.1
       vertex 0.0451769 -0.152191 0
    endloop
  endfacet
  facet normal 0.659372 -0.751817 0
    outer loop
       vertex 0.420291 -0.176776 0
       vertex 0.420291 -0.176776 0.1
       vertex 0.395706 -0.198338 0.1
    endloop
  endfacet
  facet normal 0.659372 -0.751817 0
    outer loop
       vertex 0.395706 -0.198338 0.1
       vertex 0.395706 -0.198338 0
       vertex 0.420291 -0.176776 0
    endloop
  endfacet
  facet normal 0.555561 -0.831476 0
    outer loop
       vertex 0.395706 -0.198338 0
       vertex 0.395706 -0.198338 0.1
       vertex 0.368515 -0.216506 0.1
    endloop
  endfacet
  facet normal 0.555561 -0.831476 0
    outer loop
       vertex 0.368515 -0.216506 0.1
       vertex 0.368515 -0.216506 0
       vertex 0.395706 -0.198338 0
    endloop
  endfacet
  facet normal 0.442302 -0.896866 0
    outer loop
       vertex 0.368515 -0.216506 0
       vertex 0.368515 -0.216506 0.1
       vertex 0.339186 -0.23097 0.1
    endloop
  endfacet
  facet normal 0.442302 -0.896866 0
    outer loop
       vertex 0.339186 -0.23097 0.1
       vertex 0.339186 -0.23097 0
       vertex 0.368515 -0.216506 0
    endloop
  endfacet
  facet normal 0.321425 -0.946935 0
    outer loop
       vertex 0.339186 -0.23097 0
       vertex 0.339186 -0.23097 0.1
       vertex 0.30822 -0.241481 0.1
    endloop
  endfacet
  facet normal 0.321425 -0.946935 0
    outer loop
       vertex 0.30822 -0.241481 0.1
       vertex 0.30822 -0.241481 0
       vertex 0.339186 -0.23097 0
    endloop
  endfacet
  facet normal 0.195096 -0.980784 0
    outer loop
       vertex 0.30822 -0.241481 0
       vertex 0.30822 -0.241481 0.1
       vertex 0.276146 -0.247861 0.1
    endloop
  endfacet
  facet normal 0.195096 -0.980784 0
    outer loop
       vertex 0.276146 -0.247861 0.1
       vertex 0.276146 -0.247861 0
       vertex 0.30822 -0.241481 0
    endloop
  endfacet
  facet normal 0.0654098 -0.997858 0
    outer loop
       vertex 0.243515 -0.25 0
       vertex 0.276146 -0.247861 0
       vertex 0.276146 -0.247861 0.1
    endloop
  endfacet
  facet normal 0.0654098 -0.997858 1.0893e-16
    outer loop
       vertex 0.276146 -0.247861 0.1
       vertex 0.243515 -0.25 0.1
       vertex 0.243515 -0.25 0
    endloop
  endfacet
  facet normal -0.0654098 -0.997858 0
    outer loop
       vertex 0.243515 -0.25 0.1
       vertex 0.210883 -0.247861 0.1
       vertex 0.210883 -0.247861 0
    endloop
  endfacet
  facet normal -0.0654098 -0.997858 -1.0893e-16
    outer loop
       vertex 0.210883 -0.247861 0
       vertex 0.243515 -0.25 0
       vertex 0.243515 -0.25 0.1
    endloop
  endfacet
  facet normal -0.195096 -0.980784 0
    outer loop
       vertex 0.210883 -0.247861 0
       vertex 0.210883 -0.247861 0.1
       vertex 0.17881 -0.241481 0.1
    endloop
  endfacet
  facet normal -0.195096 -0.980784 -0
    outer loop
       vertex 0.17881 -0.241481 0.1
       vertex 0.17881 -0.241481 0
       vertex 0.210883 -0.247861 0
    endloop
  endfacet
  facet normal -0.321425 -0.946935 0
    outer loop
       vertex 0.17881 -0.241481 0
       vertex 0.17881 -0.241481 0.1
       vertex 0.147844 -0.23097 0.1
    endloop
  endfacet
  facet normal -0.321425 -0.946935 -0
    outer loop
       vertex 0.147844 -0.23097 0.1
       vertex 0.147844 -0.23097 0
       vertex 0.17881 -0.241481 0
    endloop
  endfacet
  facet normal -0.442302 -0.896866 0
    outer loop
       vertex 0.147844 -0.23097 0
       vertex 0.147844 -0.23097 0.1
       vertex 0.118515 -0.216506 0.1
    endloop
  endfacet
  facet normal -0.442302 -0.896866 -0
    outer loop
       vertex 0.118515 -0.216506 0.1
       vertex 0.118515 -0.216506 0
       vertex 0.147844 -0.23097 0
    endloop
  endfacet
  facet normal -0.555561 -0.831476 0
    outer loop
       vertex 0.118515 -0.216506 0
       vertex 0.118515 -0.216506 0.1
       vertex 0.0913239 -0.198338 0.1
    endloop
  endfacet
  facet normal -0.555561 -0.831476 -0
    outer loop
       vertex 0.0913239 -0.198338 0.1
       vertex 0.0913239 -0.198338 0
       vertex 0.118515 -0.216506 0
    endloop
  endfacet
  facet normal -0.659372 -0.751817 0
    outer loop
       vertex 0.0913239 -0.198338 0
       vertex 0.0913239 -0.198338 0.1
       vertex 0.0667389 -0.176776 0.1
    endloop
  endfacet
  facet normal -0.659372 -0.751817 -0
    outer loop
       vertex 0.0667389 -0.176776 0.1
       vertex 0.0667389 -0.176776 0
       vertex 0.0913239 -0.198338 0
    endloop
  endfacet
endsolid cylinder
