solid cylinder
  facet normal 0.751817 -0.659372 0
    outer loop
       vertex 0.212543 -0.176776 0
       vertex 0.234105 -0.152191 0
       vertex 0.234105 -0.152191 0.1
    endloop
  endfacet
  facet normal 0.751817 -0.659372 0
    outer loop
       vertex 0.234105 -0.152191 0.1
       vertex 0.212543 -0.176776 0.1
       vertex 0.212543 -0.176776 0
    endloop
  endfacet
  facet normal 0.831476 -0.555561 0
    outer loop
       vertex 0.234105 -0.152191 0
       vertex 0.252273 -0.125 0
       vertex 0.252273 -0.125 0.1
    endloop
  endfacet
  facet normal 0.831476 -0.555561 0
    outer loop
       vertex 0.252273 -0.125 0.1
       vertex 0.234105 -0.152191 0.1
       vertex 0.234105 -0.152191 0
    endloop
  endfacet
  facet normal 0.896866 -0.442302 0
    outer loop
       vertex 0.252273 -0.125 0
       vertex 0.266737 -0.095671 0
       vertex 0.266737 -0.095671 0.1
    endloop
  endfacet
  facet normal 0.896866 -0.442302 0
    outer loop
       vertex 0.266737 -0.095671 0.1
       vertex 0.252273 -0.125 0.1
       vertex 0.252273 -0.125 0
    endloop
  endfacet
  facet normal 0.946935 -0.321425 0
    outer loop
       vertex 0.266737 -0.095671 0
       vertex 0.277248 -0.064705 0
       vertex 0.277248 -0.064705 0.1
    endloop
  endfacet
  facet normal 0.946935 -0.321425 0
    outer loop
       vertex 0.277248 -0.064705 0.1
       vertex 0.266737 -0.095671 0.1
       vertex 0.266737 -0.095671 0
    endloop
  endfacet
  facet normal 0.980784 -0.195096 0
    outer loop
       vertex 0.277248 -0.064705 0
       vertex 0.283628 -0.0326315 0
       vertex 0.283628 -0.0326315 0.1
    endloop
  endfacet
  facet normal 0.980784 -0.195096 0
    outer loop
       vertex 0.283628 -0.0326315 0.1
       vertex 0.277248 -0.064705 0.1
       vertex 0.277248 -0.064705 0
    endloop
  endfacet
  facet normal 0.997858 -0.0654098 0
    outer loop
       vertex 0.285767 -8.32665e-17 0.1
       vertex 0.283628 -0.0326315 0.1
       vertex 0.283628 -0.0326315 0
    endloop
  endfacet
  facet normal 0.997858 -0.0654098 -1.08928e-16
    outer loop
       vertex 0.283628 -0.0326315 0
       vertex 0.285767 8.32665e-17 0
       vertex 0.285767 -8.32665e-17 0.1
    endloop
  endfacet
  facet normal 0.997858 0.0654098 0
    outer loop
       vertex 0.285767 8.32665e-17 0
       vertex 0.283628 0.0326315 0
       vertex 0.283628 0.0326315 0.1
    endloop
  endfacet
  facet normal 0.997858 0.0654098 1.08928e-16
    outer loop
       vertex 0.283628 0.0326315 0.1
       vertex 0.285767 -8.32665e-17 0.1
       vertex 0.285767 8.32665e-17 0
    endloop
  endfacet
  facet normal 0.980784 0.195096 0
    outer loop
       vertex 0.283628 0.0326315 0
       vertex 0.277248 0.064705 0
       vertex 0.277248 0.064705 0.1
    endloop
  endfacet
  facet normal 0.980784 0.195096 0
    outer loop
       vertex 0.277248 0.064705 0.1
       vertex 0.283628 0.0326315 0.1
       vertex 0.283628 0.0326315 0
    endloop
  endfacet
  facet normal 0.946935 0.321425 0
    outer loop
       vertex 0.277248 0.064705 0
       vertex 0.266737 0.095671 0
       vertex 0.266737 0.095671 0.1
    endloop
  endfacet
  facet normal 0.946935 0.321425 0
    outer loop
       vertex 0.266737 0.095671 0.1
       vertex 0.277248 0.064705 0.1
       vertex 0.277248 0.064705 0
    endloop
  endfacet
  facet normal 0.896866 0.442302 0
    outer loop
       vertex 0.266737 0.095671 0
       vertex 0.252273 0.125 0
       vertex 0.252273 0.125 0.1
    endloop
  endfacet
  facet normal 0.896866 0.442302 0
    outer loop
       vertex 0.252273 0.125 0.1
       vertex 0.266737 0.095671 0.1
       vertex 0.266737 0.095671 0
    endloop
  endfacet
  facet normal 0.831476 0.555561 0
    outer loop
       vertex 0.252273 0.125 0
       vertex 0.234105 0.152191 0
       vertex 0.234105 0.152191 0.1
    endloop
  endfacet
  facet normal 0.831476 0.555561 0
    outer loop
       vertex 0.234105 0.152191 0.1
       vertex 0.252273 0.125 0.1
       vertex 0.252273 0.125 0
    endloop
  endfacet
  facet normal 0.751817 0.659372 0
    outer loop
       vertex 0.234105 0.152191 0
       vertex 0.212543 0.176776 0
       vertex 0.212543 0.176776 0.1
    endloop
  endfacet
  facet normal 0.751817 0.659372 0
    outer loop
       vertex 0.212543 0.176776 0.1
       vertex 0.234105 0.152191 0.1
       vertex 0.234105 0.152191 0
    endloop
  endfacet
  facet normal 0.659372 0.751817 0
    outer loop
       vertex 0.212543 0.176776 0
       vertex 0.187958 0.198338 0
       vertex 0.187958 0.198338 0.1
    endloop
  endfacet
  facet normal 0.659372 0.751817 0
    outer loop
       vertex 0.187958 0.198338 0.1
       vertex 0.212543 0.176776 0.1
       vertex 0.212543 0.176776 0
    endloop
  endfacet
  facet normal 0.555561 0.831476 0
    outer loop
       vertex 0.187958 0.198338 0
       vertex 0.160767 0.216506 0
       vertex 0.160767 0.216506 0.1
    endloop
  endfacet
  facet normal 0.555561 0.831476 0
    outer loop
       vertex 0.160767 0.216506 0.1
       vertex 0.187958 0.198338 0.1
       vertex 0.187958 0.198338 0
    endloop
  endfacet
  facet normal 0.442302 0.896866 0
    outer loop
       vertex 0.160767 0.216506 0
       vertex 0.131438 0.23097 0
       vertex 0.131438 0.23097 0.1
    endloop
  endfacet
  facet normal 0.442302 0.896866 0
    outer loop
       vertex 0.131438 0.23097 0.1
       vertex 0.160767 0.216506 0.1
       vertex 0.160767 0.216506 0
    endloop
  endfacet
  facet normal 0.321425 0.946935 0
    outer loop
       vertex 0.131438 0.23097 0
       vertex 0.100472 0.241481 0
       vertex 0.100472 0.241481 0.1
    endloop
  endfacet
  facet normal 0.321425 0.946935 0
    outer loop
       vertex 0.100472 0.241481 0.1
       vertex 0.131438 0.23097 0.1
       vertex 0.131438 0.23097 0
    endloop
  endfacet
  facet normal 0.195096 0.980784 0
    outer loop
       vertex 0.100472 0.241481 0
       vertex 0.068399 0.247861 0
       vertex 0.068399 0.247861 0.1
    endloop
  endfacet
  facet normal 0.195096 0.980784 0
    outer loop
       vertex 0.068399 0.247861 0.1
       vertex 0.100472 0.241481 0.1
       vertex 0.100472 0.241481 0
    endloop
  endfacet
  facet normal 0.0654098 0.997858 0
    outer loop
       vertex 0.0357675 0.25 0.1
       vertex 0.068399 0.247861 0.1
       vertex 0.068399 0.247861 0
    endloop
  endfacet
  facet normal 0.0654098 0.997858 -1.0893e-16
    outer loop
       vertex 0.068399 0.247861 0
       vertex 0.0357675 0.25 0
       vertex 0.0357675 0.25 0.1
    endloop
  endfacet
  facet normal -0.0654098 0.997858 0
    outer loop
       vertex 0.0357675 0.25 0
       vertex 0.00313599 0.247861 0
       vertex 0.00313599 0.247861 0.1
    endloop
  endfacet
  facet normal -0.0654098 0.997858 1.08928e-16
    outer loop
       vertex 0.00313599 0.247861 0.1
       vertex 0.0357675 0.25 0.1
       vertex 0.0357675 0.25 0
    endloop
  endfacet
  facet normal -0.195096 0.980784 0
    outer loop
       vertex 0.00313599 0.247861 0
       vertex -0.0289375 0.241481 0
       vertex -0.0289375 0.241481 0.1
    endloop
  endfacet
  facet normal -0.195096 0.980784 0
    outer loop
       vertex -0.0289375 0.241481 0.1
       vertex 0.00313599 0.247861 0.1
       vertex 0.00313599 0.247861 0
    endloop
  endfacet
  facet normal -0.321425 0.946935 0
    outer loop
       vertex -0.0289375 0.241481 0
       vertex -0.0599035 0.23097 0
       vertex -0.0599035 0.23097 0.1
    endloop
  endfacet
  facet normal -0.321425 0.946935 0
    outer loop
       vertex -0.0599035 0.23097 0.1
       vertex -0.0289375 0.241481 0.1
       vertex -0.0289375 0.241481 0
    endloop
  endfacet
  facet normal -0.442302 0.896866 0
    outer loop
       vertex -0.0599035 0.23097 0
       vertex -0.0892325 0.216506 0
       vertex -0.0892325 0.216506 0.1
    endloop
  endfacet
  facet normal -0.442302 0.896866 0
    outer loop
       vertex -0.0892325 0.216506 0.1
       vertex -0.0599035 0.23097 0.1
       vertex -0.0599035 0.23097 0
    endloop
  endfacet
  facet normal -0.555561 0.831476 0
    outer loop
       vertex -0.0892325 0.216506 0
       vertex -0.116424 0.198338 0
       vertex -0.116424 0.198338 0.1
    endloop
  endfacet
  facet normal -0.555561 0.831476 0
    outer loop
       vertex -0.116424 0.198338 0.1
       vertex -0.0892325 0.216506 0.1
       vertex -0.0892325 0.216506 0
    endloop
  endfacet
  facet normal -0.659372 0.751817 0
    outer loop
       vertex -0.116424 0.198338 0
       vertex -0.141009 0.176776 0
       vertex -0.141009 0.176776 0.1
    endloop
  endfacet
  facet normal -0.659372 0.751817 0
    outer loop
       vertex -0.141009 0.176776 0.1
       vertex -0.116424 0.198338 0.1
       vertex -0.116424 0.198338 0
    endloop
  endfacet
  facet normal -0.751817 0.659372 0
    outer loop
       vertex -0.141009 0.176776 0
       vertex -0.162571 0.152191 0
       vertex -0.162571 0.152191 0.1
    endloop
  endfacet
  facet normal -0.751817 0.659372 0
    outer loop
       vertex -0.162571 0.152191 0.1
       vertex -0.141009 0.176776 0.1
       vertex -0.141009 0.176776 0
    endloop
  endfacet
  facet normal -0.831476 0.555561 0
    outer loop
       vertex -0.162571 0.152191 0
       vertex -0.180739 0.125 0
       vertex -0.180739 0.125 0.1
    endloop
  endfacet
  facet normal -0.831476 0.555561 0
    outer loop
       vertex -0.180739 0.125 0.1
       vertex -0.162571 0.152191 0.1
       vertex -0.162571 0.152191 0
    endloop
  endfacet
  facet normal -0.896866 0.442302 0
    outer loop
       vertex -0.180739 0.125 0
       vertex -0.195203 0.095671 0
       vertex -0.195203 0.095671 0.1
    endloop
  endfacet
  facet normal -0.896866 0.442302 0
    outer loop
       vertex -0.195203 0.095671 0.1
       vertex -0.180739 0.125 0.1
       vertex -0.180739 0.125 0
    endloop
  endfacet
  facet normal -0.946935 0.321425 0
    outer loop
       vertex -0.195203 0.095671 0
       vertex -0.205714 0.064705 0
       vertex -0.205714 0.064705 0.1
    endloop
  endfacet
  facet normal -0.946935 0.321425 0
    outer loop
       vertex -0.205714 0.064705 0.1
       vertex -0.195203 0.095671 0.1
       vertex -0.195203 0.095671 0
    endloop
  endfacet
  facet normal -0.980784 0.195096 0
    outer loop
       vertex -0.205714 0.064705 0
       vertex -0.212094 0.0326315 0
       vertex -0.212094 0.0326315 0.1
    endloop
  endfacet
  facet normal -0.980784 0.195096 0
    outer loop
       vertex -0.212094 0.0326315 0.1
       vertex -0.205714 0.064705 0.1
       vertex -0.205714 0.064705 0
    endloop
  endfacet
  facet normal -0.997858 0.0654098 0
    outer loop
       vertex -0.214233 8.32665e-17 0.1
       vertex -0.212094 0.0326315 0.1
       vertex -0.212094 0.0326315 0
    endloop
  endfacet
  facet normal -0.997858 0.0654098 -1.08928e-16
    outer loop
       vertex -0.212094 0.0326315 0
       vertex -0.214233 -8.32665e-17 0
       vertex -0.214233 8.32665e-17 0.1
    endloop
  endfacet
  facet normal -0.997858 -0.0654098 0
    outer loop
       vertex -0.214233 -8.32665e-17 0
       vertex -0.212094 -0.0326315 0
       vertex -0.212094 -0.0326315 0.1
    endloop
  endfacet
  facet normal -0.997858 -0.0654098 1.08928e-16
    outer loop
       vertex -0.212094 -0.0326315 0.1
       vertex -0.214233 8.32665e-17 0.1
       vertex -0.214233 -8.32665e-17 0
    endloop
  endfacet
  facet normal -0.980784 -0.195096 0
    outer loop
       vertex -0.212094 -0.0326315 0
       vertex -0.205714 -0.064705 0
       vertex -0.205714 -0.064705 0.1
    endloop
  endfacet
  facet normal -0.980784 -0.195096 0
    outer loop
       vertex -0.205714 -0.064705 0.1
       vertex -0.212094 -0.0326315 0.1
       vertex -0.212094 -0.0326315 0
    endloop
  endfacet
  facet normal -0.946935 -0.321425 0
    outer loop
       vertex -0.205714 -0.064705 0
       vertex -0.195203 -0.095671 0
       vertex -0.195203 -0.095671 0.1
    endloop
  endfacet
  facet normal -0.946935 -0.321425 0
    outer loop
       vertex -0.195203 -0.095671 0.1
       vertex -0.205714 -0.064705 0.1
       vertex -0.205714 -0.064705 0
    endloop
  endfacet
  facet normal -0.896866 -0.442302 0
    outer loop
       vertex -0.195203 -0.095671 0
       vertex -0.180739 -0.125 0
       vertex -0.180739 -0.125 0.1
    endloop
  endfacet
  facet normal -0.896866 -0.442302 0
    outer loop
       vertex -0.180739 -0.125 0.1
       vertex -0.195203 -0.095671 0.1
       vertex -0.195203 -0.095671 0
    endloop
  endfacet
  facet normal -0.831476 -0.555561 0
    outer loop
       vertex -0.180739 -0.125 0
       vertex -0.162571 -0.152191 0
       vertex -0.162571 -0.152191 0.1
    endloop
  endfacet
  facet normal -0.831476 -0.555561 0
    outer loop
       vertex -0.162571 -0.152191 0.1
       vertex -0.180739 -0.125 0.1
       vertex -0.180739 -0.125 0
    endloop
  endfacet
  facet normal -0.751817 -0.659372 0
    outer loop
       vertex -0.162571 -0.152191 0
       vertex -0.141009 -0.176776 0
       vertex -0.141009 -0.176776 0.1
    endloop
  endfacet
  facet normal -0.751817 -0.659372 0
    outer loop
       vertex -0.141009 -0.176776 0.1
       vertex -0.162571 -0.152191 0.1
       vertex -0.162571 -0.152191 0
    endloop
  endfacet
  facet normal 0.659372 -0.751817 0
    outer loop
       vertex 0.212543 -0.176776 0
       vertex 0.212543 -0.176776 0.1
       vertex 0.187958 -0.198338 0.1
    endloop
  endfacet
  facet normal 0.659372 -0.751817 0
    outer loop
       vertex 0.187958 -0.198338 0.1
       vertex 0.187958 -0.198338 0
       vertex 0.212543 -0.176776 0
    endloop
  endfacet
  facet normal 0.555561 -0.831476 0
    outer loop
       vertex 0.187958 -0.198338 0
       vertex 0.187958 -0.198338 0.1
       vertex 0.160767 -0.216506 0.1
    endloop
  endfacet
  facet normal 0.555561 -0.831476 0
    outer loop
       vertex 0.160767 -0.216506 0.1
       vertex 0.160767 -0.216506 0
       vertex 0.187958 -0.198338 0
    endloop
  endfacet
  facet normal 0.442302 -0.896866 0
    outer loop
       vertex 0.160767 -0.216506 0
       vertex 0.160767 -0.216506 0.1
       vertex 0.131438 -0.23097 0.1
    endloop
  endfacet
  facet normal 0.442302 -0.896866 0
    outer loop
       vertex 0.131438 -0.23097 0.1
       vertex 0.131438 -0.23097 0
       vertex 0.160767 -0.216506 0
    endloop
  endfacet
  facet normal 0.321425 -0.946935 0
    outer loop
       vertex 0.131438 -0.23097 0
       vertex 0.131438 -0.23097 0.1
       vertex 0.100472 -0.241481 0.1
    endloop
  endfacet
  facet normal 0.321425 -0.946935 0
    outer loop
       vertex 0.100472 -0.241481 0.1
       vertex 0.100472 -0.241481 0
       vertex 0.131438 -0.23097 0
    endloop
  endfacet
  facet normal 0.195096 -0.980784 0
    outer loop
       vertex 0.100472 -0.241481 0
       vertex 0.100472 -0.241481 0.1
       vertex 0.068399 -0.247861 0.1
    endloop
  endfacet
  facet normal 0.195096 -0.980784 0
    outer loop
       vertex 0.068399 -0.247861 0.1
       vertex 0.068399 -0.247861 0
       vertex 0.100472 -0.241481 0
    endloop
  endfacet
  facet normal 0.0654098 -0.997858 0
    outer loop
       vertex 0.0357675 -0.25 0
       vertex 0.068399 -0.247861 0
       vertex 0.068399 -0.247861 0.1
    endloop
  endfacet
  facet normal 0.0654098 -0.997858 1.0893e-16
    outer loop
       vertex 0.068399 -0.247861 0.1
       vertex 0.0357675 -0.25 0.1
       vertex 0.0357675 -0.25 0
    endloop
  endfacet
  facet normal -0.0654098 -0.997858 0
    outer loop
       vertex 0.0357675 -0.25 0.1
       vertex 0.00313599 -0.247861 0.1
       vertex 0.00313599 -0.247861 0
    endloop
  endfacet
  facet normal -0.0654098 -0.997858 -1.08928e-16
    outer loop
       vertex 0.00313599 -0.247861 0
       vertex 0.0357675 -0.25 0
       vertex 0.0357675 -0.25 0.1
    endloop
  endfacet
  facet normal -0.195096 -0.980784 0
    outer loop
       vertex 0.00313599 -0.247861 0
       vertex 0.00313599 -0.247861 0.1
       vertex -0.0289375 -0.241481 0.1
    endloop
  endfacet
  facet normal -0.195096 -0.980784 -0
    outer loop
       vertex -0.0289375 -0.241481 0.1
       vertex -0.0289375 -0.241481 0
       vertex 0.00313599 -0.247861 0
    endloop
  endfacet
  facet normal -0.321425 -0.946935 0
    outer loop
       vertex -0.0289375 -0.241481 0
       vertex -0.0289375 -0.241481 0.1
       vertex -0.0599035 -0.23097 0.1
    endloop
  endfacet
  facet normal -0.321425 -0.946935 -0
    outer loop
       vertex -0.0599035 -0.23097 0.1
       vertex -0.0599035 -0.23097 0
       vertex -0.0289375 -0.241481 0
    endloop
  endfacet
  facet normal -0.442302 -0.896866 0
    outer loop
       vertex -0.0599035 -0.23097 0
       vertex -0.0599035 -0.23097 0.1
       vertex -0.0892325 -0.216506 0.1
    endloop
  endfacet
  facet normal -0.442302 -0.896866 -0
    outer loop
       vertex -0.0892325 -0.216506 0.1
       vertex -0.0892325 -0.216506 0
       vertex -0.0599035 -0.23097 0
    endloop
  endfacet
  facet normal -0.555561 -0.831476 0
    outer loop
       vertex -0.0892325 -0.216506 0
       vertex -0.0892325 -0.216506 0.1
       vertex -0.116424 -0.198338 0.1
    endloop
  endfacet
  facet normal -0.555561 -0.831476 -0
    outer loop
       vertex -0.116424 -0.198338 0.1
       vertex -0.116424 -0.198338 0
       vertex -0.0892325 -0.216506 0
    endloop
  endfacet
  facet normal -0.659372 -0.751817 0
    outer loop
       vertex -0.116424 -0.198338 0
       vertex -0.116424 -0.198338 0.1
       vertex -0.141009 -0.176776 0.1
    endloop
  endfacet
  facet normal -0.659372 -0.751817 -0
    outer loop
       vertex -0.141009 -0.176776 0.1
       vertex -0.141009 -0.176776 0
       vertex -0.116424 -0.198338 0
    endloop
  endfacet
endsolid cylinder
