solid cylinder
  facet normal 0.751817 -0.659372 0
    outer loop
       vertex 0.236986 -0.176776 0
       vertex 0.258548 -0.152191 0
       vertex 0.258548 -0.152191 0.1
    endloop
  endfacet
  facet normal 0.751817 -0.659372 0
    outer loop
       vertex 0.258548 -0.152191 0.1
       vertex 0.236986 -0.176776 0.1
       vertex 0.236986 -0.176776 0
    endloop
  endfacet
  facet normal 0.831476 -0.555561 0
    outer loop
       vertex 0.258548 -0.152191 0
       vertex 0.276716 -0.125 0
       vertex 0.276716 -0.125 0.1
    endloop
  endfacet
  facet normal 0.831476 -0.555561 0
    outer loop
       vertex 0.276716 -0.125 0.1
       vertex 0.258548 -0.152191 0.1
       vertex 0.258548 -0.152191 0
    endloop
  endfacet
  facet normal 0.896866 -0.442302 0
    outer loop
       vertex 0.276716 -0.125 0
       vertex 0.29118 -0.095671 0
       vertex 0.29118 -0.095671 0.1
    endloop
  endfacet
  facet normal 0.896866 -0.442302 0
    outer loop
       vertex 0.29118 -0.095671 0.1
       vertex 0.276716 -0.125 0.1
       vertex 0.276716 -0.125 0
    endloop
  endfacet
  facet normal 0.946935 -0.321425 0
    outer loop
       vertex 0.29118 -0.095671 0
       vertex 0.301691 -0.064705 0
       vertex 0.301691 -0.064705 0.1
    endloop
  endfacet
  facet normal 0.946935 -0.321425 0
    outer loop
       vertex 0.301691 -0.064705 0.1
       vertex 0.29118 -0.095671 0.1
       vertex 0.29118 -0.095671 0
    endloop
  endfacet
  facet normal 0.980784 -0.195096 0
    outer loop
       vertex 0.301691 -0.064705 0
       vertex 0.308071 -0.0326315 0
       vertex 0.308071 -0.0326315 0.1
    endloop
  endfacet
  facet normal 0.980784 -0.195096 0
    outer loop
       vertex 0.308071 -0.0326315 0.1
       vertex 0.301691 -0.064705 0.1
       vertex 0.301691 -0.064705 0
    endloop
  endfacet
  facet normal 0.997858 -0.0654098 0
    outer loop
       vertex 0.31021 -8.32665e-17 0.1
       vertex 0.308071 -0.0326315 0.1
       vertex 0.308071 -0.0326315 0
    endloop
  endfacet
  facet normal 0.997858 -0.0654098 -1.08928e-16
    outer loop
       vertex 0.308071 -0.0326315 0
       vertex 0.31021 8.32665e-17 0
       vertex 0.31021 -8.32665e-17 0.1
    endloop
  endfacet
  facet normal 0.997858 0.0654098 0
    outer loop
       vertex 0.31021 8.32665e-17 0
       vertex 0.308071 0.0326315 0
       vertex 0.308071 0.0326315 0.1
    endloop
  endfacet
  facet normal 0.997858 0.0654098 1.08928e-16
    outer loop
       vertex 0.308071 0.0326315 0.1
       vertex 0.31021 -8.32665e-17 0.1
       vertex 0.31021 8.32665e-17 0
    endloop
  endfacet
  facet normal 0.980784 0.195096 0
    outer loop
       vertex 0.308071 0.0326315 0
       vertex 0.301691 0.064705 0
       vertex 0.301691 0.064705 0.1
    endloop
  endfacet
  facet normal 0.980784 0.195096 0
    outer loop
       vertex 0.301691 0.064705 0.1
       vertex 0.308071 0.0326315 0.1
       vertex 0.308071 0.0326315 0
    endloop
  endfacet
  facet normal 0.946935 0.321425 0
    outer loop
       vertex 0.301691 0.064705 0
       vertex 0.29118 0.095671 0
       vertex 0.29118 0.095671 0.1
    endloop
  endfacet
  facet normal 0.946935 0.321425 0
    outer loop
       vertex 0.29118 0.095671 0.1
       vertex 0.301691 0.064705 0.1
       vertex 0.301691 0.064705 0
    endloop
  endfacet
  facet normal 0.896866 0.442302 0
    outer loop
       vertex 0.29118 0.095671 0
       vertex 0.276716 0.125 0
       vertex 0.276716 0.125 0.1
    endloop
  endfacet
  facet normal 0.896866 0.442302 0
    outer loop
       vertex 0.276716 0.125 0.1
       vertex 0.29118 0.095671 0.1
       vertex 0.29118 0.095671 0
    endloop
  endfacet
  facet normal 0.831476 0.555561 0
    outer loop
       vertex 0.276716 0.125 0
       vertex 0.258548 0.152191 0
       vertex 0.258548 0.152191 0.1
    endloop
  endfacet
  facet normal 0.831476 0.555561 0
    outer loop
       vertex 0.258548 0.152191 0.1
       vertex 0.276716 0.125 0.1
       vertex 0.276716 0.125 0
    endloop
  endfacet
  facet normal 0.751817 0.659372 0
    outer loop
       vertex 0.258548 0.152191 0
       vertex 0.236986 0.176776 0
       vertex 0.236986 0.176776 0.1
    endloop
  endfacet
  facet normal 0.751817 0.659372 0
    outer loop
       vertex 0.236986 0.176776 0.1
       vertex 0.258548 0.152191 0.1
       vertex 0.258548 0.152191 0
    endloop
  endfacet
  facet normal 0.659372 0.751817 0
    outer loop
       vertex 0.236986 0.176776 0
       vertex 0.212401 0.198338 0
       vertex 0.212401 0.198338 0.1
    endloop
  endfacet
  facet normal 0.659372 0.751817 0
    outer loop
       vertex 0.212401 0.198338 0.1
       vertex 0.236986 0.176776 0.1
       vertex 0.236986 0.176776 0
    endloop
  endfacet
  facet normal 0.555561 0.831476 0
    outer loop
       vertex 0.212401 0.198338 0
       vertex 0.18521 0.216506 0
       vertex 0.18521 0.216506 0.1
    endloop
  endfacet
  facet normal 0.555561 0.831476 0
    outer loop
       vertex 0.18521 0.216506 0.1
       vertex 0.212401 0.198338 0.1
       vertex 0.212401 0.198338 0
    endloop
  endfacet
  facet normal 0.442302 0.896866 0
    outer loop
       vertex 0.18521 0.216506 0
       vertex 0.155881 0.23097 0
       vertex 0.155881 0.23097 0.1
    endloop
  endfacet
  facet normal 0.442302 0.896866 0
    outer loop
       vertex 0.155881 0.23097 0.1
       vertex 0.18521 0.216506 0.1
       vertex 0.18521 0.216506 0
    endloop
  endfacet
  facet normal 0.321425 0.946935 0
    outer loop
       vertex 0.155881 0.23097 0
       vertex 0.124915 0.241481 0
       vertex 0.124915 0.241481 0.1
    endloop
  endfacet
  facet normal 0.321425 0.946935 0
    outer loop
       vertex 0.124915 0.241481 0.1
       vertex 0.155881 0.23097 0.1
       vertex 0.155881 0.23097 0
    endloop
  endfacet
  facet normal 0.195096 0.980784 0
    outer loop
       vertex 0.124915 0.241481 0
       vertex 0.0928415 0.247861 0
       vertex 0.0928415 0.247861 0.1
    endloop
  endfacet
  facet normal 0.195096 0.980784 0
    outer loop
       vertex 0.0928415 0.247861 0.1
       vertex 0.124915 0.241481 0.1
       vertex 0.124915 0.241481 0
    endloop
  endfacet
  facet normal 0.0654098 0.997858 0
    outer loop
       vertex 0.06021 0.25 0.1
       vertex 0.0928415 0.247861 0.1
       vertex 0.0928415 0.247861 0
    endloop
  endfacet
  facet normal 0.0654098 0.997858 -1.08928e-16
    outer loop
       vertex 0.0928415 0.247861 0
       vertex 0.06021 0.25 0
       vertex 0.06021 0.25 0.1
    endloop
  endfacet
  facet normal -0.0654098 0.997858 0
    outer loop
       vertex 0.06021 0.25 0
       vertex 0.0275785 0.247861 0
       vertex 0.0275785 0.247861 0.1
    endloop
  endfacet
  facet normal -0.0654098 0.997858 1.08928e-16
    outer loop
       vertex 0.0275785 0.247861 0.1
       vertex 0.06021 0.25 0.1
       vertex 0.06021 0.25 0
    endloop
  endfacet
  facet normal -0.195096 0.980784 0
    outer loop
       vertex 0.0275785 0.247861 0
       vertex -0.00449497 0.241481 0
       vertex -0.00449497 0.241481 0.1
    endloop
  endfacet
  facet normal -0.195096 0.980784 0
    outer loop
       vertex -0.00449497 0.241481 0.1
       vertex 0.0275785 0.247861 0.1
       vertex 0.0275785 0.247861 0
    endloop
  endfacet
  facet normal -0.321425 0.946935 0
    outer loop
       vertex -0.00449497 0.241481 0
       vertex -0.035461 0.23097 0
       vertex -0.035461 0.23097 0.1
    endloop
  endfacet
  facet normal -0.321425 0.946935 0
    outer loop
       vertex -0.035461 0.23097 0.1
       vertex -0.00449497 0.241481 0.1
       vertex -0.00449497 0.241481 0
    endloop
  endfacet
  facet normal -0.442302 0.896866 0
    outer loop
       vertex -0.035461 0.23097 0
       vertex -0.06479 0.216506 0
       vertex -0.06479 0.216506 0.1
    endloop
  endfacet
  facet normal -0.442302 0.896866 0
    outer loop
       vertex -0.06479 0.216506 0.1
       vertex -0.035461 0.23097 0.1
       vertex -0.035461 0.23097 0
    endloop
  endfacet
  facet normal -0.555561 0.831476 0
    outer loop
       vertex -0.06479 0.216506 0
       vertex -0.091981 0.198338 0
       vertex -0.091981 0.198338 0.1
    endloop
  endfacet
  facet normal -0.555561 0.831476 0
    outer loop
       vertex -0.091981 0.198338 0.1
       vertex -0.06479 0.216506 0.1
       vertex -0.06479 0.216506 0
    endloop
  endfacet
  facet normal -0.659372 0.751817 0
    outer loop
       vertex -0.091981 0.198338 0
       vertex -0.116566 0.176776 0
       vertex -0.116566 0.176776 0.1
    endloop
  endfacet
  facet normal -0.659372 0.751817 0
    outer loop
       vertex -0.116566 0.176776 0.1
       vertex -0.091981 0.198338 0.1
       vertex -0.091981 0.198338 0
    endloop
  endfacet
  facet normal -0.751817 0.659372 0
    outer loop
       vertex -0.116566 0.176776 0
       vertex -0.138128 0.152191 0
       vertex -0.138128 0.152191 0.1
    endloop
  endfacet
  facet normal -0.751817 0.659372 0
    outer loop
       vertex -0.138128 0.152191 0.1
       vertex -0.116566 0.176776 0.1
       vertex -0.116566 0.176776 0
    endloop
  endfacet
  facet normal -0.831476 0.555561 0
    outer loop
       vertex -0.138128 0.152191 0
       vertex -0.156296 0.125 0
       vertex -0.156296 0.125 0.1
    endloop
  endfacet
  facet normal -0.831476 0.555561 0
    outer loop
       vertex -0.156296 0.125 0.1
       vertex -0.138128 0.152191 0.1
       vertex -0.138128 0.152191 0
    endloop
  endfacet
  facet normal -0.896866 0.442302 0
    outer loop
       vertex -0.156296 0.125 0
       vertex -0.17076 0.095671 0
       vertex -0.17076 0.095671 0.1
    endloop
  endfacet
  facet normal -0.896866 0.442302 0
    outer loop
       vertex -0.17076 0.095671 0.1
       vertex -0.156296 0.125 0.1
       vertex -0.156296 0.125 0
    endloop
  endfacet
  facet normal -0.946935 0.321425 0
    outer loop
       vertex -0.17076 0.095671 0
       vertex -0.181271 0.064705 0
       vertex -0.181271 0.064705 0.1
    endloop
  endfacet
  facet normal -0.946935 0.321425 0
    outer loop
       vertex -0.181271 0.064705 0.1
       vertex -0.17076 0.095671 0.1
       vertex -0.17076 0.095671 0
    endloop
  endfacet
  facet normal -0.980784 0.195096 0
    outer loop
       vertex -0.181271 0.064705 0
       vertex -0.187651 0.0326315 0
       vertex -0.187651 0.0326315 0.1
    endloop
  endfacet
  facet normal -0.980784 0.195096 0
    outer loop
       vertex -0.187651 0.0326315 0.1
       vertex -0.181271 0.064705 0.1
       vertex -0.181271 0.064705 0
    endloop
  endfacet
  facet normal -0.997858 0.0654098 0
    outer loop
       vertex -0.18979 8.32665e-17 0.1
       vertex -0.187651 0.0326315 0.1
       vertex -0.187651 0.0326315 0
    endloop
  endfacet
  facet normal -0.997858 0.0654098 -1.08928e-16
    outer loop
       vertex -0.187651 0.0326315 0
       vertex -0.18979 -8.32665e-17 0
       vertex -0.18979 8.32665e-17 0.1
    endloop
  endfacet
  facet normal -0.997858 -0.0654098 0
    outer loop
       vertex -0.18979 -8.32665e-17 0
       vertex -0.187651 -0.0326315 0
       vertex -0.187651 -0.0326315 0.1
    endloop
  endfacet
  facet normal -0.997858 -0.0654098 1.08928e-16
    outer loop
       vertex -0.187651 -0.0326315 0.1
       vertex -0.18979 8.32665e-17 0.1
       vertex -0.18979 -8.32665e-17 0
    endloop
  endfacet
  facet normal -0.980784 -0.195096 0
    outer loop
       vertex -0.187651 -0.0326315 0
       vertex -0.181271 -0.064705 0
       vertex -0.181271 -0.064705 0.1
    endloop
  endfacet
  facet normal -0.980784 -0.195096 0
    outer loop
       vertex -0.181271 -0.064705 0.1
       vertex -0.187651 -0.0326315 0.1
       vertex -0.187651 -0.0326315 0
    endloop
  endfacet
  facet normal -0.946935 -0.321425 0
    outer loop
       vertex -0.181271 -0.064705 0
       vertex -0.17076 -0.095671 0
       vertex -0.17076 -0.095671 0.1
    endloop
  endfacet
  facet normal -0.946935 -0.321425 0
    outer loop
       vertex -0.17076 -0.095671 0.1
       vertex -0.181271 -0.064705 0.1
       vertex -0.181271 -0.064705 0
    endloop
  endfacet
  facet normal -0.896866 -0.442302 0
    outer loop
       vertex -0.17076 -0.095671 0
       vertex -0.156296 -0.125 0
       vertex -0.156296 -0.125 0.1
    endloop
  endfacet
  facet normal -0.896866 -0.442302 0
    outer loop
       vertex -0.156296 -0.125 0.1
       vertex -0.17076 -0.095671 0.1
       vertex -0.17076 -0.095671 0
    endloop
  endfacet
  facet normal -0.831476 -0.555561 0
    outer loop
       vertex -0.156296 -0.125 0
       vertex -0.138128 -0.152191 0
       vertex -0.138128 -0.152191 0.1
    endloop
  endfacet
  facet normal -0.831476 -0.555561 0
    outer loop
       vertex -0.138128 -0.152191 0.1
       vertex -0.156296 -0.125 0.1
       vertex -0.156296 -0.125 0
    endloop
  endfacet
  facet normal -0.751817 -0.659372 0
    outer loop
       vertex -0.138128 -0.152191 0
       vertex -0.116566 -0.176776 0
       vertex -0.116566 -0.176776 0.1
    endloop
  endfacet
  facet normal -0.751817 -0.659372 0
    outer loop
       vertex -0.116566 -0.176776 0.1
       vertex -0.138128 -0.152191 0.1
       vertex -0.138128 -0.152191 0
    endloop
  endfacet
  facet normal 0.659372 -0.751817 0
    outer loop
       vertex 0.236986 -0.176776 0
       vertex 0.236986 -0.176776 0.1
       vertex 0.212401 -0.198338 0.1
    endloop
  endfacet
  facet normal 0.659372 -0.751817 0
    outer loop
       vertex 0.212401 -0.198338 0.1
       vertex 0.212401 -0.198338 0
       vertex 0.236986 -0.176776 0
    endloop
  endfacet
  facet normal 0.555561 -0.831476 0
    outer loop
       vertex 0.212401 -0.198338 0
       vertex 0.212401 -0.198338 0.1
       vertex 0.18521 -0.216506 0.1
    endloop
  endfacet
  facet normal 0.555561 -0.831476 0
    outer loop
       vertex 0.18521 -0.216506 0.1
       vertex 0.18521 -0.216506 0
       vertex 0.212401 -0.198338 0
    endloop
  endfacet
  facet normal 0.442302 -0.896866 0
    outer loop
       vertex 0.18521 -0.216506 0
       vertex 0.18521 -0.216506 0.1
       vertex 0.155881 -0.23097 0.1
    endloop
  endfacet
  facet normal 0.442302 -0.896866 0
    outer loop
       vertex 0.155881 -0.23097 0.1
       vertex 0.155881 -0.23097 0
       vertex 0.18521 -0.216506 0
    endloop
  endfacet
  facet normal 0.321425 -0.946935 0
    outer loop
       vertex 0.155881 -0.23097 0
       vertex 0.155881 -0.23097 0.1
       vertex 0.124915 -0.241481 0.1
    endloop
  endfacet
  facet normal 0.321425 -0.946935 0
    outer loop
       vertex 0.124915 -0.241481 0.1
       vertex 0.124915 -0.241481 0
       vertex 0.155881 -0.23097 0
    endloop
  endfacet
  facet normal 0.195096 -0.980784 0
    outer loop
       vertex 0.124915 -0.241481 0
       vertex 0.124915 -0.241481 0.1
       vertex 0.0928415 -0.247861 0.1
    endloop
  endfacet
  facet normal 0.195096 -0.980784 0
    outer loop
       vertex 0.0928415 -0.247861 0.1
       vertex 0.0928415 -0.247861 0
       vertex 0.124915 -0.241481 0
    endloop
  endfacet
  facet normal 0.0654098 -0.997858 0
    outer loop
       vertex 0.06021 -0.25 0
       vertex 0.0928415 -0.247861 0
       vertex 0.0928415 -0.247861 0.1
    endloop
  endfacet
  facet normal 0.0654098 -0.997858 1.08928e-16
    outer loop
       vertex 0.0928415 -0.247861 0.1
       vertex 0.06021 -0.25 0.1
       vertex 0.06021 -0.25 0
    endloop
  endfacet
  facet normal -0.0654098 -0.997858 0
    outer loop
       vertex 0.06021 -0.25 0.1
       vertex 0.0275785 -0.247861 0.1
       vertex 0.0275785 -0.247861 0
    endloop
  endfacet
  facet normal -0.0654098 -0.997858 -1.08928e-16
    outer loop
       vertex 0.0275785 -0.247861 0
       vertex 0.06021 -0.25 0
       vertex 0.06021 -0.25 0.1
    endloop
  endfacet
  facet normal -0.195096 -0.980784 0
    outer loop
       vertex 0.0275785 -0.247861 0
       vertex 0.0275785 -0.247861 0.1
       vertex -0.00449497 -0.241481 0.1
    endloop
  endfacet
  facet normal -0.195096 -0.980784 -0
    outer loop
       vertex -0.00449497 -0.241481 0.1
       vertex -0.00449497 -0.241481 0
       vertex 0.0275785 -0.247861 0
    endloop
  endfacet
  facet normal -0.321425 -0.946935 0
    outer loop
       vertex -0.00449497 -0.241481 0
       vertex -0.00449497 -0.241481 0.1
       vertex -0.035461 -0.23097 0.1
    endloop
  endfacet
  facet normal -0.321425 -0.946935 -0
    outer loop
       vertex -0.035461 -0.23097 0.1
       vertex -0.035461 -0.23097 0
       vertex -0.00449497 -0.241481 0
    endloop
  endfacet
  facet normal -0.442302 -0.896866 0
    outer loop
       vertex -0.035461 -0.23097 0
       vertex -0.035461 -0.23097 0.1
       vertex -0.06479 -0.216506 0.1
    endloop
  endfacet
  facet normal -0.442302 -0.896866 -0
    outer loop
       vertex -0.06479 -0.216506 0.1
       vertex -0.06479 -0.216506 0
       vertex -0.035461 -0.23097 0
    endloop
  endfacet
  facet normal -0.555561 -0.831476 0
    outer loop
       vertex -0.06479 -0.216506 0
       vertex -0.06479 -0.216506 0.1
       vertex -0.091981 -0.198338 0.1
    endloop
  endfacet
  facet normal -0.555561 -0.831476 -0
    outer loop
       vertex -0.091981 -0.198338 0.1
       vertex -0.091981 -0.198338 0
       vertex -0.06479 -0.216506 0
    endloop
  endfacet
  facet normal -0.659372 -0.751817 0
    outer loop
       vertex -0.091981 -0.198338 0
       vertex -0.091981 -0.198338 0.1
       vertex -0.116566 -0.176776 0.1
    endloop
  endfacet
  facet normal -0.659372 -0.751817 -0
    outer loop
       vertex -0.116566 -0.176776 0.1
       vertex -0.116566 -0.176776 0
       vertex -0.091981 -0.198338 0
    endloop
  endfacet
endsolid cylinder
