solid cylinder
  facet normal 0.751817 -0.659372 0
    outer loop
       vertex 0.255522 -0.176776 0
       vertex 0.277084 -0.152191 0
       vertex 0.277084 -0.152191 0.1
    endloop
  endfacet
  facet normal 0.751817 -0.659372 0
    outer loop
       vertex 0.277084 -0.152191 0.1
       vertex 0.255522 -0.176776 0.1
       vertex 0.255522 -0.176776 0
    endloop
  endfacet
  facet normal 0.831476 -0.555561 0
    outer loop
       vertex 0.277084 -0.152191 0
       vertex 0.295252 -0.125 0
       vertex 0.295252 -0.125 0.1
    endloop
  endfacet
  facet normal 0.831476 -0.555561 0
    outer loop
       vertex 0.295252 -0.125 0.1
       vertex 0.277084 -0.152191 0.1
       vertex 0.277084 -0.152191 0
    endloop
  endfacet
  facet normal 0.896866 -0.442302 0
    outer loop
       vertex 0.295252 -0.125 0
       vertex 0.309716 -0.095671 0
       vertex 0.309716 -0.095671 0.1
    endloop
  endfacet
  facet normal 0.896866 -0.442302 0
    outer loop
       vertex 0.309716 -0.095671 0.1
       vertex 0.295252 -0.125 0.1
       vertex 0.295252 -0.125 0
    endloop
  endfacet
  facet normal 0.946935 -0.321425 0
    outer loop
       vertex 0.309716 -0.095671 0
       vertex 0.320227 -0.064705 0
       vertex 0.320227 -0.064705 0.1
    endloop
  endfacet
  facet normal 0.946935 -0.321425 0
    outer loop
       vertex 0.320227 -0.064705 0.1
       vertex 0.309716 -0.095671 0.1
       vertex 0.309716 -0.095671 0
    endloop
  endfacet
  facet normal 0.980784 -0.195096 0
    outer loop
       vertex 0.320227 -0.064705 0
       vertex 0.326607 -0.0326315 0
       vertex 0.326607 -0.0326315 0.1
    endloop
  endfacet
  facet normal 0.980784 -0.195096 0
    outer loop
       vertex 0.326607 -0.0326315 0.1
       vertex 0.320227 -0.064705 0.1
       vertex 0.320227 -0.064705 0
    endloop
  endfacet
  facet normal 0.997858 -0.0654098 0
    outer loop
       vertex 0.328746 -8.32665e-17 0.1
       vertex 0.326607 -0.0326315 0.1
       vertex 0.326607 -0.0326315 0
    endloop
  endfacet
  facet normal 0.997858 -0.0654098 -1.08928e-16
    outer loop
       vertex 0.326607 -0.0326315 0
       vertex 0.328746 8.32665e-17 0
       vertex 0.328746 -8.32665e-17 0.1
    endloop
  endfacet
  facet normal 0.997858 0.0654098 0
    outer loop
       vertex 0.328746 8.32665e-17 0
       vertex 0.326607 0.0326315 0
       vertex 0.326607 0.0326315 0.1
    endloop
  endfacet
  facet normal 0.997858 0.0654098 1.08928e-16
    outer loop
       vertex 0.326607 0.0326315 0.1
       vertex 0.328746 -8.32665e-17 0.1
       vertex 0.328746 8.32665e-17 0
    endloop
  endfacet
  facet normal 0.980784 0.195096 0
    outer loop
       vertex 0.326607 0.0326315 0
       vertex 0.320227 0.064705 0
       vertex 0.320227 0.064705 0.1
    endloop
  endfacet
  facet normal 0.980784 0.195096 0
    outer loop
       vertex 0.320227 0.064705 0.1
       vertex 0.326607 0.0326315 0.1
       vertex 0.326607 0.0326315 0
    endloop
  endfacet
  facet normal 0.946935 0.321425 0
    outer loop
       vertex 0.320227 0.064705 0
       vertex 0.309716 0.095671 0
       vertex 0.309716 0.095671 0.1
    endloop
  endfacet
  facet normal 0.946935 0.321425 0
    outer loop
       vertex 0.309716 0.095671 0.1
       vertex 0.320227 0.064705 0.1
       vertex 0.320227 0.064705 0
    endloop
  endfacet
  facet normal 0.896866 0.442302 0
    outer loop
       vertex 0.309716 0.095671 0
       vertex 0.295252 0.125 0
       vertex 0.295252 0.125 0.1
    endloop
  endfacet
  facet normal 0.896866 0.442302 0
    outer loop
       vertex 0.295252 0.125 0.1
       vertex 0.309716 0.095671 0.1
       vertex 0.309716 0.095671 0
    endloop
  endfacet
  facet normal 0.831476 0.555561 0
    outer loop
       vertex 0.295252 0.125 0
       vertex 0.277084 0.152191 0
       vertex 0.277084 0.152191 0.1
    endloop
  endfacet
  facet normal 0.831476 0.555561 0
    outer loop
       vertex 0.277084 0.152191 0.1
       vertex 0.295252 0.125 0.1
       vertex 0.295252 0.125 0
    endloop
  endfacet
  facet normal 0.751817 0.659372 0
    outer loop
       vertex 0.277084 0.152191 0
       vertex 0.255522 0.176776 0
       vertex 0.255522 0.176776 0.1
    endloop
  endfacet
  facet normal 0.751817 0.659372 0
    outer loop
       vertex 0.255522 0.176776 0.1
       vertex 0.277084 0.152191 0.1
       vertex 0.277084 0.152191 0
    endloop
  endfacet
  facet normal 0.659372 0.751817 0
    outer loop
       vertex 0.255522 0.176776 0
       vertex 0.230937 0.198338 0
       vertex 0.230937 0.198338 0.1
    endloop
  endfacet
  facet normal 0.659372 0.751817 0
    outer loop
       vertex 0.230937 0.198338 0.1
       vertex 0.255522 0.176776 0.1
       vertex 0.255522 0.176776 0
    endloop
  endfacet
  facet normal 0.555561 0.831476 0
    outer loop
       vertex 0.230937 0.198338 0
       vertex 0.203746 0.216506 0
       vertex 0.203746 0.216506 0.1
    endloop
  endfacet
  facet normal 0.555561 0.831476 0
    outer loop
       vertex 0.203746 0.216506 0.1
       vertex 0.230937 0.198338 0.1
       vertex 0.230937 0.198338 0
    endloop
  endfacet
  facet normal 0.442302 0.896866 0
    outer loop
       vertex 0.203746 0.216506 0
       vertex 0.174417 0.23097 0
       vertex 0.174417 0.23097 0.1
    endloop
  endfacet
  facet normal 0.442302 0.896866 0
    outer loop
       vertex 0.174417 0.23097 0.1
       vertex 0.203746 0.216506 0.1
       vertex 0.203746 0.216506 0
    endloop
  endfacet
  facet normal 0.321425 0.946935 0
    outer loop
       vertex 0.174417 0.23097 0
       vertex 0.143451 0.241481 0
       vertex 0.143451 0.241481 0.1
    endloop
  endfacet
  facet normal 0.321425 0.946935 0
    outer loop
       vertex 0.143451 0.241481 0.1
       vertex 0.174417 0.23097 0.1
       vertex 0.174417 0.23097 0
    endloop
  endfacet
  facet normal 0.195096 0.980784 0
    outer loop
       vertex 0.143451 0.241481 0
       vertex 0.111377 0.247861 0
       vertex 0.111377 0.247861 0.1
    endloop
  endfacet
  facet normal 0.195096 0.980784 0
    outer loop
       vertex 0.111377 0.247861 0.1
       vertex 0.143451 0.241481 0.1
       vertex 0.143451 0.241481 0
    endloop
  endfacet
  facet normal 0.0654098 0.997858 0
    outer loop
       vertex 0.0787455 0.25 0.1
       vertex 0.111377 0.247861 0.1
       vertex 0.111377 0.247861 0
    endloop
  endfacet
  facet normal 0.0654098 0.997858 -1.08928e-16
    outer loop
       vertex 0.111377 0.247861 0
       vertex 0.0787455 0.25 0
       vertex 0.0787455 0.25 0.1
    endloop
  endfacet
  facet normal -0.0654098 0.997858 0
    outer loop
       vertex 0.0787455 0.25 0
       vertex 0.046114 0.247861 0
       vertex 0.046114 0.247861 0.1
    endloop
  endfacet
  facet normal -0.0654098 0.997858 1.08928e-16
    outer loop
       vertex 0.046114 0.247861 0.1
       vertex 0.0787455 0.25 0.1
       vertex 0.0787455 0.25 0
    endloop
  endfacet
  facet normal -0.195096 0.980784 0
    outer loop
       vertex 0.046114 0.247861 0
       vertex 0.0140405 0.241481 0
       vertex 0.0140405 0.241481 0.1
    endloop
  endfacet
  facet normal -0.195096 0.980784 0
    outer loop
       vertex 0.0140405 0.241481 0.1
       vertex 0.046114 0.247861 0.1
       vertex 0.046114 0.247861 0
    endloop
  endfacet
  facet normal -0.321425 0.946935 0
    outer loop
       vertex 0.0140405 0.241481 0
       vertex -0.0169255 0.23097 0
       vertex -0.0169255 0.23097 0.1
    endloop
  endfacet
  facet normal -0.321425 0.946935 0
    outer loop
       vertex -0.0169255 0.23097 0.1
       vertex 0.0140405 0.241481 0.1
       vertex 0.0140405 0.241481 0
    endloop
  endfacet
  facet normal -0.442302 0.896866 0
    outer loop
       vertex -0.0169255 0.23097 0
       vertex -0.0462545 0.216506 0
       vertex -0.0462545 0.216506 0.1
    endloop
  endfacet
  facet normal -0.442302 0.896866 0
    outer loop
       vertex -0.0462545 0.216506 0.1
       vertex -0.0169255 0.23097 0.1
       vertex -0.0169255 0.23097 0
    endloop
  endfacet
  facet normal -0.555561 0.831476 0
    outer loop
       vertex -0.0462545 0.216506 0
       vertex -0.0734455 0.198338 0
       vertex -0.0734455 0.198338 0.1
    endloop
  endfacet
  facet normal -0.555561 0.831476 0
    outer loop
       vertex -0.0734455 0.198338 0.1
       vertex -0.0462545 0.216506 0.1
       vertex -0.0462545 0.216506 0
    endloop
  endfacet
  facet normal -0.659372 0.751817 0
    outer loop
       vertex -0.0734455 0.198338 0
       vertex -0.0980305 0.176776 0
       vertex -0.0980305 0.176776 0.1
    endloop
  endfacet
  facet normal -0.659372 0.751817 0
    outer loop
       vertex -0.0980305 0.176776 0.1
       vertex -0.0734455 0.198338 0.1
       vertex -0.0734455 0.198338 0
    endloop
  endfacet
  facet normal -0.751817 0.659372 0
    outer loop
       vertex -0.0980305 0.176776 0
       vertex -0.119592 0.152191 0
       vertex -0.119592 0.152191 0.1
    endloop
  endfacet
  facet normal -0.751817 0.659372 0
    outer loop
       vertex -0.119592 0.152191 0.1
       vertex -0.0980305 0.176776 0.1
       vertex -0.0980305 0.176776 0
    endloop
  endfacet
  facet normal -0.831476 0.555561 0
    outer loop
       vertex -0.119592 0.152191 0
       vertex -0.13776 0.125 0
       vertex -0.13776 0.125 0.1
    endloop
  endfacet
  facet normal -0.831476 0.555561 0
    outer loop
       vertex -0.13776 0.125 0.1
       vertex -0.119592 0.152191 0.1
       vertex -0.119592 0.152191 0
    endloop
  endfacet
  facet normal -0.896866 0.442302 0
    outer loop
       vertex -0.13776 0.125 0
       vertex -0.152224 0.095671 0
       vertex -0.152224 0.095671 0.1
    endloop
  endfacet
  facet normal -0.896866 0.442302 0
    outer loop
       vertex -0.152224 0.095671 0.1
       vertex -0.13776 0.125 0.1
       vertex -0.13776 0.125 0
    endloop
  endfacet
  facet normal -0.946935 0.321425 0
    outer loop
       vertex -0.152224 0.095671 0
       vertex -0.162735 0.064705 0
       vertex -0.162735 0.064705 0.1
    endloop
  endfacet
  facet normal -0.946935 0.321425 0
    outer loop
       vertex -0.162735 0.064705 0.1
       vertex -0.152224 0.095671 0.1
       vertex -0.152224 0.095671 0
    endloop
  endfacet
  facet normal -0.980784 0.195096 0
    outer loop
       vertex -0.162735 0.064705 0
       vertex -0.169115 0.0326315 0
       vertex -0.169115 0.0326315 0.1
    endloop
  endfacet
  facet normal -0.980784 0.195096 0
    outer loop
       vertex -0.169115 0.0326315 0.1
       vertex -0.162735 0.064705 0.1
       vertex -0.162735 0.064705 0
    endloop
  endfacet
  facet normal -0.997858 0.0654098 0
    outer loop
       vertex -0.171254 8.32665e-17 0.1
       vertex -0.169115 0.0326315 0.1
       vertex -0.169115 0.0326315 0
    endloop
  endfacet
  facet normal -0.997858 0.0654098 -1.08928e-16
    outer loop
       vertex -0.169115 0.0326315 0
       vertex -0.171254 -8.32665e-17 0
       vertex -0.171254 8.32665e-17 0.1
    endloop
  endfacet
  facet normal -0.997858 -0.0654098 0
    outer loop
       vertex -0.171254 -8.32665e-17 0
       vertex -0.169115 -0.0326315 0
       vertex -0.169115 -0.0326315 0.1
    endloop
  endfacet
  facet normal -0.997858 -0.0654098 1.08928e-16
    outer loop
       vertex -0.169115 -0.0326315 0.1
       vertex -0.171254 8.32665e-17 0.1
       vertex -0.171254 -8.32665e-17 0
    endloop
  endfacet
  facet normal -0.980784 -0.195096 0
    outer loop
       vertex -0.169115 -0.0326315 0
       vertex -0.162735 -0.064705 0
       vertex -0.162735 -0.064705 0.1
    endloop
  endfacet
  facet normal -0.980784 -0.195096 0
    outer loop
       vertex -0.162735 -0.064705 0.1
       vertex -0.169115 -0.0326315 0.1
       vertex -0.169115 -0.0326315 0
    endloop
  endfacet
  facet normal -0.946935 -0.321425 0
    outer loop
       vertex -0.162735 -0.064705 0
       vertex -0.152224 -0.095671 0
       vertex -0.152224 -0.095671 0.1
    endloop
  endfacet
  facet normal -0.946935 -0.321425 0
    outer loop
       vertex -0.152224 -0.095671 0.1
       vertex -0.162735 -0.064705 0.1
       vertex -0.162735 -0.064705 0
    endloop
  endfacet
  facet normal -0.896866 -0.442302 0
    outer loop
       vertex -0.152224 -0.095671 0
       vertex -0.13776 -0.125 0
       vertex -0.13776 -0.125 0.1
    endloop
  endfacet
  facet normal -0.896866 -0.442302 0
    outer loop
       vertex -0.13776 -0.125 0.1
       vertex -0.152224 -0.095671 0.1
       vertex -0.152224 -0.095671 0
    endloop
  endfacet
  facet normal -0.831476 -0.555561 0
    outer loop
       vertex -0.13776 -0.125 0
       vertex -0.119592 -0.152191 0
       vertex -0.119592 -0.152191 0.1
    endloop
  endfacet
  facet normal -0.831476 -0.555561 0
    outer loop
       vertex -0.119592 -0.152191 0.1
       vertex -0.13776 -0.125 0.1
       vertex -0.13776 -0.125 0
    endloop
  endfacet
  facet normal -0.751817 -0.659372 0
    outer loop
       vertex -0.119592 -0.152191 0
       vertex -0.0980305 -0.176776 0
       vertex -0.0980305 -0.176776 0.1
    endloop
  endfacet
  facet normal -0.751817 -0.659372 0
    outer loop
       vertex -0.0980305 -0.176776 0.1
       vertex -0.119592 -0.152191 0.1
       vertex -0.119592 -0.152191 0
    endloop
  endfacet
  facet normal 0.659372 -0.751817 0
    outer loop
       vertex 0.255522 -0.176776 0
       vertex 0.255522 -0.176776 0.1
       vertex 0.230937 -0.198338 0.1
    endloop
  endfacet
  facet normal 0.659372 -0.751817 0
    outer loop
       vertex 0.230937 -0.198338 0.1
       vertex 0.230937 -0.198338 0
       vertex 0.255522 -0.176776 0
    endloop
  endfacet
  facet normal 0.555561 -0.831476 0
    outer loop
       vertex 0.230937 -0.198338 0
       vertex 0.230937 -0.198338 0.1
       vertex 0.203746 -0.216506 0.1
    endloop
  endfacet
  facet normal 0.555561 -0.831476 0
    outer loop
       vertex 0.203746 -0.216506 0.1
       vertex 0.203746 -0.216506 0
       vertex 0.230937 -0.198338 0
    endloop
  endfacet
  facet normal 0.442302 -0.896866 0
    outer loop
       vertex 0.203746 -0.216506 0
       vertex 0.203746 -0.216506 0.1
       vertex 0.174417 -0.23097 0.1
    endloop
  endfacet
  facet normal 0.442302 -0.896866 0
    outer loop
       vertex 0.174417 -0.23097 0.1
       vertex 0.174417 -0.23097 0
       vertex 0.203746 -0.216506 0
    endloop
  endfacet
  facet normal 0.321425 -0.946935 0
    outer loop
       vertex 0.174417 -0.23097 0
       vertex 0.174417 -0.23097 0.1
       vertex 0.143451 -0.241481 0.1
    endloop
  endfacet
  facet normal 0.321425 -0.946935 0
    outer loop
       vertex 0.143451 -0.241481 0.1
       vertex 0.143451 -0.241481 0
       vertex 0.174417 -0.23097 0
    endloop
  endfacet
  facet normal 0.195096 -0.980784 0
    outer loop
       vertex 0.143451 -0.241481 0
       vertex 0.143451 -0.241481 0.1
       vertex 0.111377 -0.247861 0.1
    endloop
  endfacet
  facet normal 0.195096 -0.980784 0
    outer loop
       vertex 0.111377 -0.247861 0.1
       vertex 0.111377 -0.247861 0
       vertex 0.143451 -0.241481 0
    endloop
  endfacet
  facet normal 0.0654098 -0.997858 0
    outer loop
       vertex 0.0787455 -0.25 0
       vertex 0.111377 -0.247861 0
       vertex 0.111377 -0.247861 0.1
    endloop
  endfacet
  facet normal 0.0654098 -0.997858 1.08928e-16
    outer loop
       vertex 0.111377 -0.247861 0.1
       vertex 0.0787455 -0.25 0.1
       vertex 0.0787455 -0.25 0
    endloop
  endfacet
  facet normal -0.0654098 -0.997858 0
    outer loop
       vertex 0.0787455 -0.25 0.1
       vertex 0.046114 -0.247861 0.1
       vertex 0.046114 -0.247861 0
    endloop
  endfacet
  facet normal -0.0654098 -0.997858 -1.08928e-16
    outer loop
       vertex 0.046114 -0.247861 0
       vertex 0.0787455 -0.25 0
       vertex 0.0787455 -0.25 0.1
    endloop
  endfacet
  facet normal -0.195096 -0.980784 0
    outer loop
       vertex 0.046114 -0.247861 0
       vertex 0.046114 -0.247861 0.1
       vertex 0.0140405 -0.241481 0.1
    endloop
  endfacet
  facet normal -0.195096 -0.980784 -0
    outer loop
       vertex 0.0140405 -0.241481 0.1
       vertex 0.0140405 -0.241481 0
       vertex 0.046114 -0.247861 0
    endloop
  endfacet
  facet normal -0.321425 -0.946935 0
    outer loop
       vertex 0.0140405 -0.241481 0
       vertex 0.0140405 -0.241481 0.1
       vertex -0.0169255 -0.23097 0.1
    endloop
  endfacet
  facet normal -0.321425 -0.946935 -0
    outer loop
       vertex -0.0169255 -0.23097 0.1
       vertex -0.0169255 -0.23097 0
       vertex 0.0140405 -0.241481 0
    endloop
  endfacet
  facet normal -0.442302 -0.896866 0
    outer loop
       vertex -0.0169255 -0.23097 0
       vertex -0.0169255 -0.23097 0.1
       vertex -0.0462545 -0.216506 0.1
    endloop
  endfacet
  facet normal -0.442302 -0.896866 -0
    outer loop
       vertex -0.0462545 -0.216506 0.1
       vertex -0.0462545 -0.216506 0
       vertex -0.0169255 -0.23097 0
    endloop
  endfacet
  facet normal -0.555561 -0.831476 0
    outer loop
       vertex -0.0462545 -0.216506 0
       vertex -0.0462545 -0.216506 0.1
       vertex -0.0734455 -0.198338 0.1
    endloop
  endfacet
  facet normal -0.555561 -0.831476 -0
    outer loop
       vertex -0.0734455 -0.198338 0.1
       vertex -0.0734455 -0.198338 0
       vertex -0.0462545 -0.216506 0
    endloop
  endfacet
  facet normal -0.659372 -0.751817 0
    outer loop
       vertex -0.0734455 -0.198338 0
       vertex -0.0734455 -0.198338 0.1
       vertex -0.0980305 -0.176776 0.1
    endloop
  endfacet
  facet normal -0.659372 -0.751817 -0
    outer loop
       vertex -0.0980305 -0.176776 0.1
       vertex -0.0980305 -0.176776 0
       vertex -0.0734455 -0.198338 0
    endloop
  endfacet
endsolid cylinder
