solid cylinder
  facet normal 0.751817 -0.659372 0
    outer loop
       vertex 0.289268 -0.176776 0
       vertex 0.31083 -0.152191 0
       vertex 0.31083 -0.152191 0.1
    endloop
  endfacet
  facet normal 0.751817 -0.659372 0
    outer loop
       vertex 0.31083 -0.152191 0.1
       vertex 0.289268 -0.176776 0.1
       vertex 0.289268 -0.176776 0
    endloop
  endfacet
  facet normal 0.831476 -0.555561 0
    outer loop
       vertex 0.31083 -0.152191 0
       vertex 0.328998 -0.125 0
       vertex 0.328998 -0.125 0.1
    endloop
  endfacet
  facet normal 0.831476 -0.555561 0
    outer loop
       vertex 0.328998 -0.125 0.1
       vertex 0.31083 -0.152191 0.1
       vertex 0.31083 -0.152191 0
    endloop
  endfacet
  facet normal 0.896866 -0.442302 0
    outer loop
       vertex 0.328998 -0.125 0
       vertex 0.343462 -0.095671 0
       vertex 0.343462 -0.095671 0.1
    endloop
  endfacet
  facet normal 0.896866 -0.442302 0
    outer loop
       vertex 0.343462 -0.095671 0.1
       vertex 0.328998 -0.125 0.1
       vertex 0.328998 -0.125 0
    endloop
  endfacet
  facet normal 0.946935 -0.321425 0
    outer loop
       vertex 0.343462 -0.095671 0
       vertex 0.353973 -0.064705 0
       vertex 0.353973 -0.064705 0.1
    endloop
  endfacet
  facet normal 0.946935 -0.321425 0
    outer loop
       vertex 0.353973 -0.064705 0.1
       vertex 0.343462 -0.095671 0.1
       vertex 0.343462 -0.095671 0
    endloop
  endfacet
  facet normal 0.980784 -0.195096 0
    outer loop
       vertex 0.353973 -0.064705 0
       vertex 0.360353 -0.0326315 0
       vertex 0.360353 -0.0326315 0.1
    endloop
  endfacet
  facet normal 0.980784 -0.195096 0
    outer loop
       vertex 0.360353 -0.0326315 0.1
       vertex 0.353973 -0.064705 0.1
       vertex 0.353973 -0.064705 0
    endloop
  endfacet
  facet normal 0.997858 -0.0654098 0
    outer loop
       vertex 0.362492 -8.32665e-17 0.1
       vertex 0.360353 -0.0326315 0.1
       vertex 0.360353 -0.0326315 0
    endloop
  endfacet
  facet normal 0.997858 -0.0654098 -1.08928e-16
    outer loop
       vertex 0.360353 -0.0326315 0
       vertex 0.362492 8.32665e-17 0
       vertex 0.362492 -8.32665e-17 0.1
    endloop
  endfacet
  facet normal 0.997858 0.0654098 0
    outer loop
       vertex 0.362492 8.32665e-17 0
       vertex 0.360353 0.0326315 0
       vertex 0.360353 0.0326315 0.1
    endloop
  endfacet
  facet normal 0.997858 0.0654098 1.08928e-16
    outer loop
       vertex 0.360353 0.0326315 0.1
       vertex 0.362492 -8.32665e-17 0.1
       vertex 0.362492 8.32665e-17 0
    endloop
  endfacet
  facet normal 0.980784 0.195096 0
    outer loop
       vertex 0.360353 0.0326315 0
       vertex 0.353973 0.064705 0
       vertex 0.353973 0.064705 0.1
    endloop
  endfacet
  facet normal 0.980784 0.195096 0
    outer loop
       vertex 0.353973 0.064705 0.1
       vertex 0.360353 0.0326315 0.1
       vertex 0.360353 0.0326315 0
    endloop
  endfacet
  facet normal 0.946935 0.321425 0
    outer loop
       vertex 0.353973 0.064705 0
       vertex 0.343462 0.095671 0
       vertex 0.343462 0.095671 0.1
    endloop
  endfacet
  facet normal 0.946935 0.321425 0
    outer loop
       vertex 0.343462 0.095671 0.1
       vertex 0.353973 0.064705 0.1
       vertex 0.353973 0.064705 0
    endloop
  endfacet
  facet normal 0.896866 0.442302 0
    outer loop
       vertex 0.343462 0.095671 0
       vertex 0.328998 0.125 0
       vertex 0.328998 0.125 0.1
    endloop
  endfacet
  facet normal 0.896866 0.442302 0
    outer loop
       vertex 0.328998 0.125 0.1
       vertex 0.343462 0.095671 0.1
       vertex 0.343462 0.095671 0
    endloop
  endfacet
  facet normal 0.831476 0.555561 0
    outer loop
       vertex 0.328998 0.125 0
       vertex 0.31083 0.152191 0
       vertex 0.31083 0.152191 0.1
    endloop
  endfacet
  facet normal 0.831476 0.555561 0
    outer loop
       vertex 0.31083 0.152191 0.1
       vertex 0.328998 0.125 0.1
       vertex 0.328998 0.125 0
    endloop
  endfacet
  facet normal 0.751817 0.659372 0
    outer loop
       vertex 0.31083 0.152191 0
       vertex 0.289268 0.176776 0
       vertex 0.289268 0.176776 0.1
    endloop
  endfacet
  facet normal 0.751817 0.659372 0
    outer loop
       vertex 0.289268 0.176776 0.1
       vertex 0.31083 0.152191 0.1
       vertex 0.31083 0.152191 0
    endloop
  endfacet
  facet normal 0.659372 0.751817 0
    outer loop
       vertex 0.289268 0.176776 0
       vertex 0.264683 0.198338 0
       vertex 0.264683 0.198338 0.1
    endloop
  endfacet
  facet normal 0.659372 0.751817 0
    outer loop
       vertex 0.264683 0.198338 0.1
       vertex 0.289268 0.176776 0.1
       vertex 0.289268 0.176776 0
    endloop
  endfacet
  facet normal 0.555561 0.831476 0
    outer loop
       vertex 0.264683 0.198338 0
       vertex 0.237492 0.216506 0
       vertex 0.237492 0.216506 0.1
    endloop
  endfacet
  facet normal 0.555561 0.831476 0
    outer loop
       vertex 0.237492 0.216506 0.1
       vertex 0.264683 0.198338 0.1
       vertex 0.264683 0.198338 0
    endloop
  endfacet
  facet normal 0.442302 0.896866 0
    outer loop
       vertex 0.237492 0.216506 0
       vertex 0.208163 0.23097 0
       vertex 0.208163 0.23097 0.1
    endloop
  endfacet
  facet normal 0.442302 0.896866 0
    outer loop
       vertex 0.208163 0.23097 0.1
       vertex 0.237492 0.216506 0.1
       vertex 0.237492 0.216506 0
    endloop
  endfacet
  facet normal 0.321425 0.946935 0
    outer loop
       vertex 0.208163 0.23097 0
       vertex 0.177197 0.241481 0
       vertex 0.177197 0.241481 0.1
    endloop
  endfacet
  facet normal 0.321425 0.946935 0
    outer loop
       vertex 0.177197 0.241481 0.1
       vertex 0.208163 0.23097 0.1
       vertex 0.208163 0.23097 0
    endloop
  endfacet
  facet normal 0.195096 0.980784 0
    outer loop
       vertex 0.177197 0.241481 0
       vertex 0.145123 0.247861 0
       vertex 0.145123 0.247861 0.1
    endloop
  endfacet
  facet normal 0.195096 0.980784 0
    outer loop
       vertex 0.145123 0.247861 0.1
       vertex 0.177197 0.241481 0.1
       vertex 0.177197 0.241481 0
    endloop
  endfacet
  facet normal 0.0654098 0.997858 0
    outer loop
       vertex 0.112492 0.25 0.1
       vertex 0.145123 0.247861 0.1
       vertex 0.145123 0.247861 0
    endloop
  endfacet
  facet normal 0.0654098 0.997858 -1.0893e-16
    outer loop
       vertex 0.145123 0.247861 0
       vertex 0.112492 0.25 0
       vertex 0.112492 0.25 0.1
    endloop
  endfacet
  facet normal -0.0654098 0.997858 0
    outer loop
       vertex 0.112492 0.25 0
       vertex 0.0798605 0.247861 0
       vertex 0.0798605 0.247861 0.1
    endloop
  endfacet
  facet normal -0.0654098 0.997858 1.0893e-16
    outer loop
       vertex 0.0798605 0.247861 0.1
       vertex 0.112492 0.25 0.1
       vertex 0.112492 0.25 0
    endloop
  endfacet
  facet normal -0.195096 0.980784 0
    outer loop
       vertex 0.0798605 0.247861 0
       vertex 0.047787 0.241481 0
       vertex 0.047787 0.241481 0.1
    endloop
  endfacet
  facet normal -0.195096 0.980784 0
    outer loop
       vertex 0.047787 0.241481 0.1
       vertex 0.0798605 0.247861 0.1
       vertex 0.0798605 0.247861 0
    endloop
  endfacet
  facet normal -0.321425 0.946935 0
    outer loop
       vertex 0.047787 0.241481 0
       vertex 0.016821 0.23097 0
       vertex 0.016821 0.23097 0.1
    endloop
  endfacet
  facet normal -0.321425 0.946935 0
    outer loop
       vertex 0.016821 0.23097 0.1
       vertex 0.047787 0.241481 0.1
       vertex 0.047787 0.241481 0
    endloop
  endfacet
  facet normal -0.442302 0.896866 0
    outer loop
       vertex 0.016821 0.23097 0
       vertex -0.012508 0.216506 0
       vertex -0.012508 0.216506 0.1
    endloop
  endfacet
  facet normal -0.442302 0.896866 0
    outer loop
       vertex -0.012508 0.216506 0.1
       vertex 0.016821 0.23097 0.1
       vertex 0.016821 0.23097 0
    endloop
  endfacet
  facet normal -0.555561 0.831476 0
    outer loop
       vertex -0.012508 0.216506 0
       vertex -0.039699 0.198338 0
       vertex -0.039699 0.198338 0.1
    endloop
  endfacet
  facet normal -0.555561 0.831476 0
    outer loop
       vertex -0.039699 0.198338 0.1
       vertex -0.012508 0.216506 0.1
       vertex -0.012508 0.216506 0
    endloop
  endfacet
  facet normal -0.659372 0.751817 0
    outer loop
       vertex -0.039699 0.198338 0
       vertex -0.064284 0.176776 0
       vertex -0.064284 0.176776 0.1
    endloop
  endfacet
  facet normal -0.659372 0.751817 0
    outer loop
       vertex -0.064284 0.176776 0.1
       vertex -0.039699 0.198338 0.1
       vertex -0.039699 0.198338 0
    endloop
  endfacet
  facet normal -0.751817 0.659372 0
    outer loop
       vertex -0.064284 0.176776 0
       vertex -0.085846 0.152191 0
       vertex -0.085846 0.152191 0.1
    endloop
  endfacet
  facet normal -0.751817 0.659372 0
    outer loop
       vertex -0.085846 0.152191 0.1
       vertex -0.064284 0.176776 0.1
       vertex -0.064284 0.176776 0
    endloop
  endfacet
  facet normal -0.831476 0.555561 0
    outer loop
       vertex -0.085846 0.152191 0
       vertex -0.104014 0.125 0
       vertex -0.104014 0.125 0.1
    endloop
  endfacet
  facet normal -0.831476 0.555561 0
    outer loop
       vertex -0.104014 0.125 0.1
       vertex -0.085846 0.152191 0.1
       vertex -0.085846 0.152191 0
    endloop
  endfacet
  facet normal -0.896866 0.442302 0
    outer loop
       vertex -0.104014 0.125 0
       vertex -0.118478 0.095671 0
       vertex -0.118478 0.095671 0.1
    endloop
  endfacet
  facet normal -0.896866 0.442302 0
    outer loop
       vertex -0.118478 0.095671 0.1
       vertex -0.104014 0.125 0.1
       vertex -0.104014 0.125 0
    endloop
  endfacet
  facet normal -0.946935 0.321425 0
    outer loop
       vertex -0.118478 0.095671 0
       vertex -0.128989 0.064705 0
       vertex -0.128989 0.064705 0.1
    endloop
  endfacet
  facet normal -0.946935 0.321425 0
    outer loop
       vertex -0.128989 0.064705 0.1
       vertex -0.118478 0.095671 0.1
       vertex -0.118478 0.095671 0
    endloop
  endfacet
  facet normal -0.980784 0.195096 0
    outer loop
       vertex -0.128989 0.064705 0
       vertex -0.135369 0.0326315 0
       vertex -0.135369 0.0326315 0.1
    endloop
  endfacet
  facet normal -0.980784 0.195096 0
    outer loop
       vertex -0.135369 0.0326315 0.1
       vertex -0.128989 0.064705 0.1
       vertex -0.128989 0.064705 0
    endloop
  endfacet
  facet normal -0.997858 0.0654098 0
    outer loop
       vertex -0.137508 8.32665e-17 0.1
       vertex -0.135369 0.0326315 0.1
       vertex -0.135369 0.0326315 0
    endloop
  endfacet
  facet normal -0.997858 0.0654098 -1.08928e-16
    outer loop
       vertex -0.135369 0.0326315 0
       vertex -0.137508 -8.32665e-17 0
       vertex -0.137508 8.32665e-17 0.1
    endloop
  endfacet
  facet normal -0.997858 -0.0654098 0
    outer loop
       vertex -0.137508 -8.32665e-17 0
       vertex -0.135369 -0.0326315 0
       vertex -0.135369 -0.0326315 0.1
    endloop
  endfacet
  facet normal -0.997858 -0.0654098 1.08928e-16
    outer loop
       vertex -0.135369 -0.0326315 0.1
       vertex -0.137508 8.32665e-17 0.1
       vertex -0.137508 -8.32665e-17 0
    endloop
  endfacet
  facet normal -0.980784 -0.195096 0
    outer loop
       vertex -0.135369 -0.0326315 0
       vertex -0.128989 -0.064705 0
       vertex -0.128989 -0.064705 0.1
    endloop
  endfacet
  facet normal -0.980784 -0.195096 0
    outer loop
       vertex -0.128989 -0.064705 0.1
       vertex -0.135369 -0.0326315 0.1
       vertex -0.135369 -0.0326315 0
    endloop
  endfacet
  facet normal -0.946935 -0.321425 0
    outer loop
       vertex -0.128989 -0.064705 0
       vertex -0.118478 -0.095671 0
       vertex -0.118478 -0.095671 0.1
    endloop
  endfacet
  facet normal -0.946935 -0.321425 0
    outer loop
       vertex -0.118478 -0.095671 0.1
       vertex -0.128989 -0.064705 0.1
       vertex -0.128989 -0.064705 0
    endloop
  endfacet
  facet normal -0.896866 -0.442302 0
    outer loop
       vertex -0.118478 -0.095671 0
       vertex -0.104014 -0.125 0
       vertex -0.104014 -0.125 0.1
    endloop
  endfacet
  facet normal -0.896866 -0.442302 0
    outer loop
       vertex -0.104014 -0.125 0.1
       vertex -0.118478 -0.095671 0.1
       vertex -0.118478 -0.095671 0
    endloop
  endfacet
  facet normal -0.831476 -0.555561 0
    outer loop
       vertex -0.104014 -0.125 0
       vertex -0.085846 -0.152191 0
       vertex -0.085846 -0.152191 0.1
    endloop
  endfacet
  facet normal -0.831476 -0.555561 0
    outer loop
       vertex -0.085846 -0.152191 0.1
       vertex -0.104014 -0.125 0.1
       vertex -0.104014 -0.125 0
    endloop
  endfacet
  facet normal -0.751817 -0.659372 0
    outer loop
       vertex -0.085846 -0.152191 0
       vertex -0.064284 -0.176776 0
       vertex -0.064284 -0.176776 0.1
    endloop
  endfacet
  facet normal -0.751817 -0.659372 0
    outer loop
       vertex -0.064284 -0.176776 0.1
       vertex -0.085846 -0.152191 0.1
       vertex -0.085846 -0.152191 0
    endloop
  endfacet
  facet normal 0.659372 -0.751817 0
    outer loop
       vertex 0.289268 -0.176776 0
       vertex 0.289268 -0.176776 0.1
       vertex 0.264683 -0.198338 0.1
    endloop
  endfacet
  facet normal 0.659372 -0.751817 0
    outer loop
       vertex 0.264683 -0.198338 0.1
       vertex 0.264683 -0.198338 0
       vertex 0.289268 -0.176776 0
    endloop
  endfacet
  facet normal 0.555561 -0.831476 0
    outer loop
       vertex 0.264683 -0.198338 0
       vertex 0.264683 -0.198338 0.1
       vertex 0.237492 -0.216506 0.1
    endloop
  endfacet
  facet normal 0.555561 -0.831476 0
    outer loop
       vertex 0.237492 -0.216506 0.1
       vertex 0.237492 -0.216506 0
       vertex 0.264683 -0.198338 0
    endloop
  endfacet
  facet normal 0.442302 -0.896866 0
    outer loop
       vertex 0.237492 -0.216506 0
       vertex 0.237492 -0.216506 0.1
       vertex 0.208163 -0.23097 0.1
    endloop
  endfacet
  facet normal 0.442302 -0.896866 0
    outer loop
       vertex 0.208163 -0.23097 0.1
       vertex 0.208163 -0.23097 0
       vertex 0.237492 -0.216506 0
    endloop
  endfacet
  facet normal 0.321425 -0.946935 0
    outer loop
       vertex 0.208163 -0.23097 0
       vertex 0.208163 -0.23097 0.1
       vertex 0.177197 -0.241481 0.1
    endloop
  endfacet
  facet normal 0.321425 -0.946935 0
    outer loop
       vertex 0.177197 -0.241481 0.1
       vertex 0.177197 -0.241481 0
       vertex 0.208163 -0.23097 0
    endloop
  endfacet
  facet normal 0.195096 -0.980784 0
    outer loop
       vertex 0.177197 -0.241481 0
       vertex 0.177197 -0.241481 0.1
       vertex 0.145123 -0.247861 0.1
    endloop
  endfacet
  facet normal 0.195096 -0.980784 0
    outer loop
       vertex 0.145123 -0.247861 0.1
       vertex 0.145123 -0.247861 0
       vertex 0.177197 -0.241481 0
    endloop
  endfacet
  facet normal 0.0654098 -0.997858 0
    outer loop
       vertex 0.112492 -0.25 0
       vertex 0.145123 -0.247861 0
       vertex 0.145123 -0.247861 0.1
    endloop
  endfacet
  facet normal 0.0654098 -0.997858 1.0893e-16
    outer loop
       vertex 0.145123 -0.247861 0.1
       vertex 0.112492 -0.25 0.1
       vertex 0.112492 -0.25 0
    endloop
  endfacet
  facet normal -0.0654098 -0.997858 0
    outer loop
       vertex 0.112492 -0.25 0.1
       vertex 0.0798605 -0.247861 0.1
       vertex 0.0798605 -0.247861 0
    endloop
  endfacet
  facet normal -0.0654098 -0.997858 -1.0893e-16
    outer loop
       vertex 0.0798605 -0.247861 0
       vertex 0.112492 -0.25 0
       vertex 0.112492 -0.25 0.1
    endloop
  endfacet
  facet normal -0.195096 -0.980784 0
    outer loop
       vertex 0.0798605 -0.247861 0
       vertex 0.0798605 -0.247861 0.1
       vertex 0.047787 -0.241481 0.1
    endloop
  endfacet
  facet normal -0.195096 -0.980784 -0
    outer loop
       vertex 0.047787 -0.241481 0.1
       vertex 0.047787 -0.241481 0
       vertex 0.0798605 -0.247861 0
    endloop
  endfacet
  facet normal -0.321425 -0.946935 0
    outer loop
       vertex 0.047787 -0.241481 0
       vertex 0.047787 -0.241481 0.1
       vertex 0.016821 -0.23097 0.1
    endloop
  endfacet
  facet normal -0.321425 -0.946935 -0
    outer loop
       vertex 0.016821 -0.23097 0.1
       vertex 0.016821 -0.23097 0
       vertex 0.047787 -0.241481 0
    endloop
  endfacet
  facet normal -0.442302 -0.896866 0
    outer loop
       vertex 0.016821 -0.23097 0
       vertex 0.016821 -0.23097 0.1
       vertex -0.012508 -0.216506 0.1
    endloop
  endfacet
  facet normal -0.442302 -0.896866 -0
    outer loop
       vertex -0.012508 -0.216506 0.1
       vertex -0.012508 -0.216506 0
       vertex 0.016821 -0.23097 0
    endloop
  endfacet
  facet normal -0.555561 -0.831476 0
    outer loop
       vertex -0.012508 -0.216506 0
       vertex -0.012508 -0.216506 0.1
       vertex -0.039699 -0.198338 0.1
    endloop
  endfacet
  facet normal -0.555561 -0.831476 -0
    outer loop
       vertex -0.039699 -0.198338 0.1
       vertex -0.039699 -0.198338 0
       vertex -0.012508 -0.216506 0
    endloop
  endfacet
  facet normal -0.659372 -0.751817 0
    outer loop
       vertex -0.039699 -0.198338 0
       vertex -0.039699 -0.198338 0.1
       vertex -0.064284 -0.176776 0.1
    endloop
  endfacet
  facet normal -0.659372 -0.751817 -0
    outer loop
       vertex -0.064284 -0.176776 0.1
       vertex -0.064284 -0.176776 0
       vertex -0.039699 -0.198338 0
    endloop
  endfacet
endsolid cylinder
