solid cylinder
  facet normal 0.751817 -0.659372 0
    outer loop
       vertex 0.0899814 -0.176776 0
       vertex 0.111543 -0.152191 0
       vertex 0.111543 -0.152191 0.1
    endloop
  endfacet
  facet normal 0.751817 -0.659372 0
    outer loop
       vertex 0.111543 -0.152191 0.1
       vertex 0.0899814 -0.176776 0.1
       vertex 0.0899814 -0.176776 0
    endloop
  endfacet
  facet normal 0.831476 -0.555561 0
    outer loop
       vertex 0.111543 -0.152191 0
       vertex 0.129711 -0.125 0
       vertex 0.129711 -0.125 0.1
    endloop
  endfacet
  facet normal 0.831476 -0.555561 0
    outer loop
       vertex 0.129711 -0.125 0.1
       vertex 0.111543 -0.152191 0.1
       vertex 0.111543 -0.152191 0
    endloop
  endfacet
  facet normal 0.896866 -0.442302 0
    outer loop
       vertex 0.129711 -0.125 0
       vertex 0.144175 -0.095671 0
       vertex 0.144175 -0.095671 0.1
    endloop
  endfacet
  facet normal 0.896866 -0.442302 0
    outer loop
       vertex 0.144175 -0.095671 0.1
       vertex 0.129711 -0.125 0.1
       vertex 0.129711 -0.125 0
    endloop
  endfacet
  facet normal 0.946935 -0.321425 0
    outer loop
       vertex 0.144175 -0.095671 0
       vertex 0.154686 -0.064705 0
       vertex 0.154686 -0.064705 0.1
    endloop
  endfacet
  facet normal 0.946935 -0.321425 0
    outer loop
       vertex 0.154686 -0.064705 0.1
       vertex 0.144175 -0.095671 0.1
       vertex 0.144175 -0.095671 0
    endloop
  endfacet
  facet normal 0.980784 -0.195096 0
    outer loop
       vertex 0.154686 -0.064705 0
       vertex 0.161066 -0.0326315 0
       vertex 0.161066 -0.0326315 0.1
    endloop
  endfacet
  facet normal 0.980784 -0.195096 0
    outer loop
       vertex 0.161066 -0.0326315 0.1
       vertex 0.154686 -0.064705 0.1
       vertex 0.154686 -0.064705 0
    endloop
  endfacet
  facet normal 0.997858 -0.0654098 0
    outer loop
       vertex 0.163205 -8.32665e-17 0.1
       vertex 0.161066 -0.0326315 0.1
       vertex 0.161066 -0.0326315 0
    endloop
  endfacet
  facet normal 0.997858 -0.0654098 -1.08928e-16
    outer loop
       vertex 0.161066 -0.0326315 0
       vertex 0.163205 8.32665e-17 0
       vertex 0.163205 -8.32665e-17 0.1
    endloop
  endfacet
  facet normal 0.997858 0.0654098 0
    outer loop
       vertex 0.163205 8.32665e-17 0
       vertex 0.161066 0.0326315 0
       vertex 0.161066 0.0326315 0.1
    endloop
  endfacet
  facet normal 0.997858 0.0654098 1.08928e-16
    outer loop
       vertex 0.161066 0.0326315 0.1
       vertex 0.163205 -8.32665e-17 0.1
       vertex 0.163205 8.32665e-17 0
    endloop
  endfacet
  facet normal 0.980784 0.195096 0
    outer loop
       vertex 0.161066 0.0326315 0
       vertex 0.154686 0.064705 0
       vertex 0.154686 0.064705 0.1
    endloop
  endfacet
  facet normal 0.980784 0.195096 0
    outer loop
       vertex 0.154686 0.064705 0.1
       vertex 0.161066 0.0326315 0.1
       vertex 0.161066 0.0326315 0
    endloop
  endfacet
  facet normal 0.946935 0.321425 0
    outer loop
       vertex 0.154686 0.064705 0
       vertex 0.144175 0.095671 0
       vertex 0.144175 0.095671 0.1
    endloop
  endfacet
  facet normal 0.946935 0.321425 0
    outer loop
       vertex 0.144175 0.095671 0.1
       vertex 0.154686 0.064705 0.1
       vertex 0.154686 0.064705 0
    endloop
  endfacet
  facet normal 0.896866 0.442302 0
    outer loop
       vertex 0.144175 0.095671 0
       vertex 0.129711 0.125 0
       vertex 0.129711 0.125 0.1
    endloop
  endfacet
  facet normal 0.896866 0.442302 0
    outer loop
       vertex 0.129711 0.125 0.1
       vertex 0.144175 0.095671 0.1
       vertex 0.144175 0.095671 0
    endloop
  endfacet
  facet normal 0.831476 0.555561 0
    outer loop
       vertex 0.129711 0.125 0
       vertex 0.111543 0.152191 0
       vertex 0.111543 0.152191 0.1
    endloop
  endfacet
  facet normal 0.831476 0.555561 0
    outer loop
       vertex 0.111543 0.152191 0.1
       vertex 0.129711 0.125 0.1
       vertex 0.129711 0.125 0
    endloop
  endfacet
  facet normal 0.751817 0.659372 0
    outer loop
       vertex 0.111543 0.152191 0
       vertex 0.0899814 0.176776 0
       vertex 0.0899814 0.176776 0.1
    endloop
  endfacet
  facet normal 0.751817 0.659372 0
    outer loop
       vertex 0.0899814 0.176776 0.1
       vertex 0.111543 0.152191 0.1
       vertex 0.111543 0.152191 0
    endloop
  endfacet
  facet normal 0.659372 0.751817 0
    outer loop
       vertex 0.0899814 0.176776 0
       vertex 0.0653964 0.198338 0
       vertex 0.0653964 0.198338 0.1
    endloop
  endfacet
  facet normal 0.659372 0.751817 0
    outer loop
       vertex 0.0653964 0.198338 0.1
       vertex 0.0899814 0.176776 0.1
       vertex 0.0899814 0.176776 0
    endloop
  endfacet
  facet normal 0.555561 0.831476 0
    outer loop
       vertex 0.0653964 0.198338 0
       vertex 0.0382054 0.216506 0
       vertex 0.0382054 0.216506 0.1
    endloop
  endfacet
  facet normal 0.555561 0.831476 0
    outer loop
       vertex 0.0382054 0.216506 0.1
       vertex 0.0653964 0.198338 0.1
       vertex 0.0653964 0.198338 0
    endloop
  endfacet
  facet normal 0.442302 0.896866 0
    outer loop
       vertex 0.0382054 0.216506 0
       vertex 0.00887638 0.23097 0
       vertex 0.00887638 0.23097 0.1
    endloop
  endfacet
  facet normal 0.442302 0.896866 0
    outer loop
       vertex 0.00887638 0.23097 0.1
       vertex 0.0382054 0.216506 0.1
       vertex 0.0382054 0.216506 0
    endloop
  endfacet
  facet normal 0.321425 0.946935 0
    outer loop
       vertex 0.00887638 0.23097 0
       vertex -0.0220896 0.241481 0
       vertex -0.0220896 0.241481 0.1
    endloop
  endfacet
  facet normal 0.321425 0.946935 0
    outer loop
       vertex -0.0220896 0.241481 0.1
       vertex 0.00887638 0.23097 0.1
       vertex 0.00887638 0.23097 0
    endloop
  endfacet
  facet normal 0.195096 0.980784 0
    outer loop
       vertex -0.0220896 0.241481 0
       vertex -0.0541631 0.247861 0
       vertex -0.0541631 0.247861 0.1
    endloop
  endfacet
  facet normal 0.195096 0.980784 0
    outer loop
       vertex -0.0541631 0.247861 0.1
       vertex -0.0220896 0.241481 0.1
       vertex -0.0220896 0.241481 0
    endloop
  endfacet
  facet normal 0.0654098 0.997858 0
    outer loop
       vertex -0.0867946 0.25 0.1
       vertex -0.0541631 0.247861 0.1
       vertex -0.0541631 0.247861 0
    endloop
  endfacet
  facet normal 0.0654098 0.997858 -1.08928e-16
    outer loop
       vertex -0.0541631 0.247861 0
       vertex -0.0867946 0.25 0
       vertex -0.0867946 0.25 0.1
    endloop
  endfacet
  facet normal -0.0654098 0.997858 0
    outer loop
       vertex -0.0867946 0.25 0
       vertex -0.119426 0.247861 0
       vertex -0.119426 0.247861 0.1
    endloop
  endfacet
  facet normal -0.0654098 0.997858 1.0893e-16
    outer loop
       vertex -0.119426 0.247861 0.1
       vertex -0.0867946 0.25 0.1
       vertex -0.0867946 0.25 0
    endloop
  endfacet
  facet normal -0.195096 0.980784 0
    outer loop
       vertex -0.119426 0.247861 0
       vertex -0.1515 0.241481 0
       vertex -0.1515 0.241481 0.1
    endloop
  endfacet
  facet normal -0.195096 0.980784 0
    outer loop
       vertex -0.1515 0.241481 0.1
       vertex -0.119426 0.247861 0.1
       vertex -0.119426 0.247861 0
    endloop
  endfacet
  facet normal -0.321425 0.946935 0
    outer loop
       vertex -0.1515 0.241481 0
       vertex -0.182466 0.23097 0
       vertex -0.182466 0.23097 0.1
    endloop
  endfacet
  facet normal -0.321425 0.946935 0
    outer loop
       vertex -0.182466 0.23097 0.1
       vertex -0.1515 0.241481 0.1
       vertex -0.1515 0.241481 0
    endloop
  endfacet
  facet normal -0.442302 0.896866 0
    outer loop
       vertex -0.182466 0.23097 0
       vertex -0.211795 0.216506 0
       vertex -0.211795 0.216506 0.1
    endloop
  endfacet
  facet normal -0.442302 0.896866 0
    outer loop
       vertex -0.211795 0.216506 0.1
       vertex -0.182466 0.23097 0.1
       vertex -0.182466 0.23097 0
    endloop
  endfacet
  facet normal -0.555561 0.831476 0
    outer loop
       vertex -0.211795 0.216506 0
       vertex -0.238986 0.198338 0
       vertex -0.238986 0.198338 0.1
    endloop
  endfacet
  facet normal -0.555561 0.831476 0
    outer loop
       vertex -0.238986 0.198338 0.1
       vertex -0.211795 0.216506 0.1
       vertex -0.211795 0.216506 0
    endloop
  endfacet
  facet normal -0.659372 0.751817 0
    outer loop
       vertex -0.238986 0.198338 0
       vertex -0.263571 0.176776 0
       vertex -0.263571 0.176776 0.1
    endloop
  endfacet
  facet normal -0.659372 0.751817 0
    outer loop
       vertex -0.263571 0.176776 0.1
       vertex -0.238986 0.198338 0.1
       vertex -0.238986 0.198338 0
    endloop
  endfacet
  facet normal -0.751817 0.659372 0
    outer loop
       vertex -0.263571 0.176776 0
       vertex -0.285133 0.152191 0
       vertex -0.285133 0.152191 0.1
    endloop
  endfacet
  facet normal -0.751817 0.659372 0
    outer loop
       vertex -0.285133 0.152191 0.1
       vertex -0.263571 0.176776 0.1
       vertex -0.263571 0.176776 0
    endloop
  endfacet
  facet normal -0.831476 0.555561 0
    outer loop
       vertex -0.285133 0.152191 0
       vertex -0.303301 0.125 0
       vertex -0.303301 0.125 0.1
    endloop
  endfacet
  facet normal -0.831476 0.555561 0
    outer loop
       vertex -0.303301 0.125 0.1
       vertex -0.285133 0.152191 0.1
       vertex -0.285133 0.152191 0
    endloop
  endfacet
  facet normal -0.896866 0.442302 0
    outer loop
       vertex -0.303301 0.125 0
       vertex -0.317765 0.095671 0
       vertex -0.317765 0.095671 0.1
    endloop
  endfacet
  facet normal -0.896866 0.442302 0
    outer loop
       vertex -0.317765 0.095671 0.1
       vertex -0.303301 0.125 0.1
       vertex -0.303301 0.125 0
    endloop
  endfacet
  facet normal -0.946935 0.321425 0
    outer loop
       vertex -0.317765 0.095671 0
       vertex -0.328276 0.064705 0
       vertex -0.328276 0.064705 0.1
    endloop
  endfacet
  facet normal -0.946935 0.321425 0
    outer loop
       vertex -0.328276 0.064705 0.1
       vertex -0.317765 0.095671 0.1
       vertex -0.317765 0.095671 0
    endloop
  endfacet
  facet normal -0.980784 0.195096 0
    outer loop
       vertex -0.328276 0.064705 0
       vertex -0.334656 0.0326315 0
       vertex -0.334656 0.0326315 0.1
    endloop
  endfacet
  facet normal -0.980784 0.195096 0
    outer loop
       vertex -0.334656 0.0326315 0.1
       vertex -0.328276 0.064705 0.1
       vertex -0.328276 0.064705 0
    endloop
  endfacet
  facet normal -0.997858 0.0654098 0
    outer loop
       vertex -0.336795 8.32665e-17 0.1
       vertex -0.334656 0.0326315 0.1
       vertex -0.334656 0.0326315 0
    endloop
  endfacet
  facet normal -0.997858 0.0654098 -1.08928e-16
    outer loop
       vertex -0.334656 0.0326315 0
       vertex -0.336795 -8.32665e-17 0
       vertex -0.336795 8.32665e-17 0.1
    endloop
  endfacet
  facet normal -0.997858 -0.0654098 0
    outer loop
       vertex -0.336795 -8.32665e-17 0
       vertex -0.334656 -0.0326315 0
       vertex -0.334656 -0.0326315 0.1
    endloop
  endfacet
  facet normal -0.997858 -0.0654098 1.08928e-16
    outer loop
       vertex -0.334656 -0.0326315 0.1
       vertex -0.336795 8.32665e-17 0.1
       vertex -0.336795 -8.32665e-17 0
    endloop
  endfacet
  facet normal -0.980784 -0.195096 0
    outer loop
       vertex -0.334656 -0.0326315 0
       vertex -0.328276 -0.064705 0
       vertex -0.328276 -0.064705 0.1
    endloop
  endfacet
  facet normal -0.980784 -0.195096 0
    outer loop
       vertex -0.328276 -0.064705 0.1
       vertex -0.334656 -0.0326315 0.1
       vertex -0.334656 -0.0326315 0
    endloop
  endfacet
  facet normal -0.946935 -0.321425 0
    outer loop
       vertex -0.328276 -0.064705 0
       vertex -0.317765 -0.095671 0
       vertex -0.317765 -0.095671 0.1
    endloop
  endfacet
  facet normal -0.946935 -0.321425 0
    outer loop
       vertex -0.317765 -0.095671 0.1
       vertex -0.328276 -0.064705 0.1
       vertex -0.328276 -0.064705 0
    endloop
  endfacet
  facet normal -0.896866 -0.442302 0
    outer loop
       vertex -0.317765 -0.095671 0
       vertex -0.303301 -0.125 0
       vertex -0.303301 -0.125 0.1
    endloop
  endfacet
  facet normal -0.896866 -0.442302 0
    outer loop
       vertex -0.303301 -0.125 0.1
       vertex -0.317765 -0.095671 0.1
       vertex -0.317765 -0.095671 0
    endloop
  endfacet
  facet normal -0.831476 -0.555561 0
    outer loop
       vertex -0.303301 -0.125 0
       vertex -0.285133 -0.152191 0
       vertex -0.285133 -0.152191 0.1
    endloop
  endfacet
  facet normal -0.831476 -0.555561 0
    outer loop
       vertex -0.285133 -0.152191 0.1
       vertex -0.303301 -0.125 0.1
       vertex -0.303301 -0.125 0
    endloop
  endfacet
  facet normal -0.751817 -0.659372 0
    outer loop
       vertex -0.285133 -0.152191 0
       vertex -0.263571 -0.176776 0
       vertex -0.263571 -0.176776 0.1
    endloop
  endfacet
  facet normal -0.751817 -0.659372 0
    outer loop
       vertex -0.263571 -0.176776 0.1
       vertex -0.285133 -0.152191 0.1
       vertex -0.285133 -0.152191 0
    endloop
  endfacet
  facet normal 0.659372 -0.751817 0
    outer loop
       vertex 0.0899814 -0.176776 0
       vertex 0.0899814 -0.176776 0.1
       vertex 0.0653964 -0.198338 0.1
    endloop
  endfacet
  facet normal 0.659372 -0.751817 0
    outer loop
       vertex 0.0653964 -0.198338 0.1
       vertex 0.0653964 -0.198338 0
       vertex 0.0899814 -0.176776 0
    endloop
  endfacet
  facet normal 0.555561 -0.831476 0
    outer loop
       vertex 0.0653964 -0.198338 0
       vertex 0.0653964 -0.198338 0.1
       vertex 0.0382054 -0.216506 0.1
    endloop
  endfacet
  facet normal 0.555561 -0.831476 0
    outer loop
       vertex 0.0382054 -0.216506 0.1
       vertex 0.0382054 -0.216506 0
       vertex 0.0653964 -0.198338 0
    endloop
  endfacet
  facet normal 0.442302 -0.896866 0
    outer loop
       vertex 0.0382054 -0.216506 0
       vertex 0.0382054 -0.216506 0.1
       vertex 0.00887638 -0.23097 0.1
    endloop
  endfacet
  facet normal 0.442302 -0.896866 0
    outer loop
       vertex 0.00887638 -0.23097 0.1
       vertex 0.00887638 -0.23097 0
       vertex 0.0382054 -0.216506 0
    endloop
  endfacet
  facet normal 0.321425 -0.946935 0
    outer loop
       vertex 0.00887638 -0.23097 0
       vertex 0.00887638 -0.23097 0.1
       vertex -0.0220896 -0.241481 0.1
    endloop
  endfacet
  facet normal 0.321425 -0.946935 0
    outer loop
       vertex -0.0220896 -0.241481 0.1
       vertex -0.0220896 -0.241481 0
       vertex 0.00887638 -0.23097 0
    endloop
  endfacet
  facet normal 0.195096 -0.980784 0
    outer loop
       vertex -0.0220896 -0.241481 0
       vertex -0.0220896 -0.241481 0.1
       vertex -0.0541631 -0.247861 0.1
    endloop
  endfacet
  facet normal 0.195096 -0.980784 0
    outer loop
       vertex -0.0541631 -0.247861 0.1
       vertex -0.0541631 -0.247861 0
       vertex -0.0220896 -0.241481 0
    endloop
  endfacet
  facet normal 0.0654098 -0.997858 0
    outer loop
       vertex -0.0867946 -0.25 0
       vertex -0.0541631 -0.247861 0
       vertex -0.0541631 -0.247861 0.1
    endloop
  endfacet
  facet normal 0.0654098 -0.997858 1.08928e-16
    outer loop
       vertex -0.0541631 -0.247861 0.1
       vertex -0.0867946 -0.25 0.1
       vertex -0.0867946 -0.25 0
    endloop
  endfacet
  facet normal -0.0654098 -0.997858 0
    outer loop
       vertex -0.0867946 -0.25 0.1
       vertex -0.119426 -0.247861 0.1
       vertex -0.119426 -0.247861 0
    endloop
  endfacet
  facet normal -0.0654098 -0.997858 -1.0893e-16
    outer loop
       vertex -0.119426 -0.247861 0
       vertex -0.0867946 -0.25 0
       vertex -0.0867946 -0.25 0.1
    endloop
  endfacet
  facet normal -0.195096 -0.980784 0
    outer loop
       vertex -0.119426 -0.247861 0
       vertex -0.119426 -0.247861 0.1
       vertex -0.1515 -0.241481 0.1
    endloop
  endfacet
  facet normal -0.195096 -0.980784 -0
    outer loop
       vertex -0.1515 -0.241481 0.1
       vertex -0.1515 -0.241481 0
       vertex -0.119426 -0.247861 0
    endloop
  endfacet
  facet normal -0.321425 -0.946935 0
    outer loop
       vertex -0.1515 -0.241481 0
       vertex -0.1515 -0.241481 0.1
       vertex -0.182466 -0.23097 0.1
    endloop
  endfacet
  facet normal -0.321425 -0.946935 -0
    outer loop
       vertex -0.182466 -0.23097 0.1
       vertex -0.182466 -0.23097 0
       vertex -0.1515 -0.241481 0
    endloop
  endfacet
  facet normal -0.442302 -0.896866 0
    outer loop
       vertex -0.182466 -0.23097 0
       vertex -0.182466 -0.23097 0.1
       vertex -0.211795 -0.216506 0.1
    endloop
  endfacet
  facet normal -0.442302 -0.896866 -0
    outer loop
       vertex -0.211795 -0.216506 0.1
       vertex -0.211795 -0.216506 0
       vertex -0.182466 -0.23097 0
    endloop
  endfacet
  facet normal -0.555561 -0.831476 0
    outer loop
       vertex -0.211795 -0.216506 0
       vertex -0.211795 -0.216506 0.1
       vertex -0.238986 -0.198338 0.1
    endloop
  endfacet
  facet normal -0.555561 -0.831476 -0
    outer loop
       vertex -0.238986 -0.198338 0.1
       vertex -0.238986 -0.198338 0
       vertex -0.211795 -0.216506 0
    endloop
  endfacet
  facet normal -0.659372 -0.751817 0
    outer loop
       vertex -0.238986 -0.198338 0
       vertex -0.238986 -0.198338 0.1
       vertex -0.263571 -0.176776 0.1
    endloop
  endfacet
  facet normal -0.659372 -0.751817 -0
    outer loop
       vertex -0.263571 -0.176776 0.1
       vertex -0.263571 -0.176776 0
       vertex -0.238986 -0.198338 0
    endloop
  endfacet
endsolid cylinder
