solid cylinder
  facet normal 0.751817 -0.659372 0
    outer loop
       vertex 0.0314387 -0.176776 0
       vertex 0.0530007 -0.152191 0
       vertex 0.0530007 -0.152191 0.1
    endloop
  endfacet
  facet normal 0.751817 -0.659372 0
    outer loop
       vertex 0.0530007 -0.152191 0.1
       vertex 0.0314387 -0.176776 0.1
       vertex 0.0314387 -0.176776 0
    endloop
  endfacet
  facet normal 0.831476 -0.555561 0
    outer loop
       vertex 0.0530007 -0.152191 0
       vertex 0.0711687 -0.125 0
       vertex 0.0711687 -0.125 0.1
    endloop
  endfacet
  facet normal 0.831476 -0.555561 0
    outer loop
       vertex 0.0711687 -0.125 0.1
       vertex 0.0530007 -0.152191 0.1
       vertex 0.0530007 -0.152191 0
    endloop
  endfacet
  facet normal 0.896866 -0.442302 0
    outer loop
       vertex 0.0711687 -0.125 0
       vertex 0.0856327 -0.095671 0
       vertex 0.0856327 -0.095671 0.1
    endloop
  endfacet
  facet normal 0.896866 -0.442302 0
    outer loop
       vertex 0.0856327 -0.095671 0.1
       vertex 0.0711687 -0.125 0.1
       vertex 0.0711687 -0.125 0
    endloop
  endfacet
  facet normal 0.946935 -0.321425 0
    outer loop
       vertex 0.0856327 -0.095671 0
       vertex 0.0961437 -0.064705 0
       vertex 0.0961437 -0.064705 0.1
    endloop
  endfacet
  facet normal 0.946935 -0.321425 0
    outer loop
       vertex 0.0961437 -0.064705 0.1
       vertex 0.0856327 -0.095671 0.1
       vertex 0.0856327 -0.095671 0
    endloop
  endfacet
  facet normal 0.980784 -0.195096 0
    outer loop
       vertex 0.0961437 -0.064705 0
       vertex 0.102524 -0.0326315 0
       vertex 0.102524 -0.0326315 0.1
    endloop
  endfacet
  facet normal 0.980784 -0.195096 0
    outer loop
       vertex 0.102524 -0.0326315 0.1
       vertex 0.0961437 -0.064705 0.1
       vertex 0.0961437 -0.064705 0
    endloop
  endfacet
  facet normal 0.997858 -0.0654098 0
    outer loop
       vertex 0.104663 -8.32665e-17 0.1
       vertex 0.102524 -0.0326315 0.1
       vertex 0.102524 -0.0326315 0
    endloop
  endfacet
  facet normal 0.997858 -0.0654098 -1.08928e-16
    outer loop
       vertex 0.102524 -0.0326315 0
       vertex 0.104663 8.32665e-17 0
       vertex 0.104663 -8.32665e-17 0.1
    endloop
  endfacet
  facet normal 0.997858 0.0654098 0
    outer loop
       vertex 0.104663 8.32665e-17 0
       vertex 0.102524 0.0326315 0
       vertex 0.102524 0.0326315 0.1
    endloop
  endfacet
  facet normal 0.997858 0.0654098 1.08928e-16
    outer loop
       vertex 0.102524 0.0326315 0.1
       vertex 0.104663 -8.32665e-17 0.1
       vertex 0.104663 8.32665e-17 0
    endloop
  endfacet
  facet normal 0.980784 0.195096 0
    outer loop
       vertex 0.102524 0.0326315 0
       vertex 0.0961437 0.064705 0
       vertex 0.0961437 0.064705 0.1
    endloop
  endfacet
  facet normal 0.980784 0.195096 0
    outer loop
       vertex 0.0961437 0.064705 0.1
       vertex 0.102524 0.0326315 0.1
       vertex 0.102524 0.0326315 0
    endloop
  endfacet
  facet normal 0.946935 0.321425 0
    outer loop
       vertex 0.0961437 0.064705 0
       vertex 0.0856327 0.095671 0
       vertex 0.0856327 0.095671 0.1
    endloop
  endfacet
  facet normal 0.946935 0.321425 0
    outer loop
       vertex 0.0856327 0.095671 0.1
       vertex 0.0961437 0.064705 0.1
       vertex 0.0961437 0.064705 0
    endloop
  endfacet
  facet normal 0.896866 0.442302 0
    outer loop
       vertex 0.0856327 0.095671 0
       vertex 0.0711687 0.125 0
       vertex 0.0711687 0.125 0.1
    endloop
  endfacet
  facet normal 0.896866 0.442302 0
    outer loop
       vertex 0.0711687 0.125 0.1
       vertex 0.0856327 0.095671 0.1
       vertex 0.0856327 0.095671 0
    endloop
  endfacet
  facet normal 0.831476 0.555561 0
    outer loop
       vertex 0.0711687 0.125 0
       vertex 0.0530007 0.152191 0
       vertex 0.0530007 0.152191 0.1
    endloop
  endfacet
  facet normal 0.831476 0.555561 0
    outer loop
       vertex 0.0530007 0.152191 0.1
       vertex 0.0711687 0.125 0.1
       vertex 0.0711687 0.125 0
    endloop
  endfacet
  facet normal 0.751817 0.659372 0
    outer loop
       vertex 0.0530007 0.152191 0
       vertex 0.0314387 0.176776 0
       vertex 0.0314387 0.176776 0.1
    endloop
  endfacet
  facet normal 0.751817 0.659372 0
    outer loop
       vertex 0.0314387 0.176776 0.1
       vertex 0.0530007 0.152191 0.1
       vertex 0.0530007 0.152191 0
    endloop
  endfacet
  facet normal 0.659372 0.751817 0
    outer loop
       vertex 0.0314387 0.176776 0
       vertex 0.00685366 0.198338 0
       vertex 0.00685366 0.198338 0.1
    endloop
  endfacet
  facet normal 0.659372 0.751817 0
    outer loop
       vertex 0.00685366 0.198338 0.1
       vertex 0.0314387 0.176776 0.1
       vertex 0.0314387 0.176776 0
    endloop
  endfacet
  facet normal 0.555561 0.831476 0
    outer loop
       vertex 0.00685366 0.198338 0
       vertex -0.0203373 0.216506 0
       vertex -0.0203373 0.216506 0.1
    endloop
  endfacet
  facet normal 0.555561 0.831476 0
    outer loop
       vertex -0.0203373 0.216506 0.1
       vertex 0.00685366 0.198338 0.1
       vertex 0.00685366 0.198338 0
    endloop
  endfacet
  facet normal 0.442302 0.896866 0
    outer loop
       vertex -0.0203373 0.216506 0
       vertex -0.0496663 0.23097 0
       vertex -0.0496663 0.23097 0.1
    endloop
  endfacet
  facet normal 0.442302 0.896866 0
    outer loop
       vertex -0.0496663 0.23097 0.1
       vertex -0.0203373 0.216506 0.1
       vertex -0.0203373 0.216506 0
    endloop
  endfacet
  facet normal 0.321425 0.946935 0
    outer loop
       vertex -0.0496663 0.23097 0
       vertex -0.0806323 0.241481 0
       vertex -0.0806323 0.241481 0.1
    endloop
  endfacet
  facet normal 0.321425 0.946935 0
    outer loop
       vertex -0.0806323 0.241481 0.1
       vertex -0.0496663 0.23097 0.1
       vertex -0.0496663 0.23097 0
    endloop
  endfacet
  facet normal 0.195096 0.980784 0
    outer loop
       vertex -0.0806323 0.241481 0
       vertex -0.112706 0.247861 0
       vertex -0.112706 0.247861 0.1
    endloop
  endfacet
  facet normal 0.195096 0.980784 0
    outer loop
       vertex -0.112706 0.247861 0.1
       vertex -0.0806323 0.241481 0.1
       vertex -0.0806323 0.241481 0
    endloop
  endfacet
  facet normal 0.0654098 0.997858 0
    outer loop
       vertex -0.145337 0.25 0.1
       vertex -0.112706 0.247861 0.1
       vertex -0.112706 0.247861 0
    endloop
  endfacet
  facet normal 0.0654098 0.997858 -1.0893e-16
    outer loop
       vertex -0.112706 0.247861 0
       vertex -0.145337 0.25 0
       vertex -0.145337 0.25 0.1
    endloop
  endfacet
  facet normal -0.0654098 0.997858 0
    outer loop
       vertex -0.145337 0.25 0
       vertex -0.177969 0.247861 0
       vertex -0.177969 0.247861 0.1
    endloop
  endfacet
  facet normal -0.0654098 0.997858 1.0893e-16
    outer loop
       vertex -0.177969 0.247861 0.1
       vertex -0.145337 0.25 0.1
       vertex -0.145337 0.25 0
    endloop
  endfacet
  facet normal -0.195096 0.980784 0
    outer loop
       vertex -0.177969 0.247861 0
       vertex -0.210042 0.241481 0
       vertex -0.210042 0.241481 0.1
    endloop
  endfacet
  facet normal -0.195096 0.980784 0
    outer loop
       vertex -0.210042 0.241481 0.1
       vertex -0.177969 0.247861 0.1
       vertex -0.177969 0.247861 0
    endloop
  endfacet
  facet normal -0.321425 0.946935 0
    outer loop
       vertex -0.210042 0.241481 0
       vertex -0.241008 0.23097 0
       vertex -0.241008 0.23097 0.1
    endloop
  endfacet
  facet normal -0.321425 0.946935 0
    outer loop
       vertex -0.241008 0.23097 0.1
       vertex -0.210042 0.241481 0.1
       vertex -0.210042 0.241481 0
    endloop
  endfacet
  facet normal -0.442302 0.896866 0
    outer loop
       vertex -0.241008 0.23097 0
       vertex -0.270337 0.216506 0
       vertex -0.270337 0.216506 0.1
    endloop
  endfacet
  facet normal -0.442302 0.896866 0
    outer loop
       vertex -0.270337 0.216506 0.1
       vertex -0.241008 0.23097 0.1
       vertex -0.241008 0.23097 0
    endloop
  endfacet
  facet normal -0.555561 0.831476 0
    outer loop
       vertex -0.270337 0.216506 0
       vertex -0.297528 0.198338 0
       vertex -0.297528 0.198338 0.1
    endloop
  endfacet
  facet normal -0.555561 0.831476 0
    outer loop
       vertex -0.297528 0.198338 0.1
       vertex -0.270337 0.216506 0.1
       vertex -0.270337 0.216506 0
    endloop
  endfacet
  facet normal -0.659372 0.751817 0
    outer loop
       vertex -0.297528 0.198338 0
       vertex -0.322113 0.176776 0
       vertex -0.322113 0.176776 0.1
    endloop
  endfacet
  facet normal -0.659372 0.751817 0
    outer loop
       vertex -0.322113 0.176776 0.1
       vertex -0.297528 0.198338 0.1
       vertex -0.297528 0.198338 0
    endloop
  endfacet
  facet normal -0.751817 0.659372 0
    outer loop
       vertex -0.322113 0.176776 0
       vertex -0.343675 0.152191 0
       vertex -0.343675 0.152191 0.1
    endloop
  endfacet
  facet normal -0.751817 0.659372 0
    outer loop
       vertex -0.343675 0.152191 0.1
       vertex -0.322113 0.176776 0.1
       vertex -0.322113 0.176776 0
    endloop
  endfacet
  facet normal -0.831476 0.555561 0
    outer loop
       vertex -0.343675 0.152191 0
       vertex -0.361843 0.125 0
       vertex -0.361843 0.125 0.1
    endloop
  endfacet
  facet normal -0.831476 0.555561 0
    outer loop
       vertex -0.361843 0.125 0.1
       vertex -0.343675 0.152191 0.1
       vertex -0.343675 0.152191 0
    endloop
  endfacet
  facet normal -0.896866 0.442302 0
    outer loop
       vertex -0.361843 0.125 0
       vertex -0.376307 0.095671 0
       vertex -0.376307 0.095671 0.1
    endloop
  endfacet
  facet normal -0.896866 0.442302 0
    outer loop
       vertex -0.376307 0.095671 0.1
       vertex -0.361843 0.125 0.1
       vertex -0.361843 0.125 0
    endloop
  endfacet
  facet normal -0.946935 0.321425 0
    outer loop
       vertex -0.376307 0.095671 0
       vertex -0.386818 0.064705 0
       vertex -0.386818 0.064705 0.1
    endloop
  endfacet
  facet normal -0.946935 0.321425 0
    outer loop
       vertex -0.386818 0.064705 0.1
       vertex -0.376307 0.095671 0.1
       vertex -0.376307 0.095671 0
    endloop
  endfacet
  facet normal -0.980784 0.195096 0
    outer loop
       vertex -0.386818 0.064705 0
       vertex -0.393198 0.0326315 0
       vertex -0.393198 0.0326315 0.1
    endloop
  endfacet
  facet normal -0.980784 0.195096 0
    outer loop
       vertex -0.393198 0.0326315 0.1
       vertex -0.386818 0.064705 0.1
       vertex -0.386818 0.064705 0
    endloop
  endfacet
  facet normal -0.997858 0.0654098 0
    outer loop
       vertex -0.395337 8.32665e-17 0.1
       vertex -0.393198 0.0326315 0.1
       vertex -0.393198 0.0326315 0
    endloop
  endfacet
  facet normal -0.997858 0.0654098 -1.08928e-16
    outer loop
       vertex -0.393198 0.0326315 0
       vertex -0.395337 -8.32665e-17 0
       vertex -0.395337 8.32665e-17 0.1
    endloop
  endfacet
  facet normal -0.997858 -0.0654098 0
    outer loop
       vertex -0.395337 -8.32665e-17 0
       vertex -0.393198 -0.0326315 0
       vertex -0.393198 -0.0326315 0.1
    endloop
  endfacet
  facet normal -0.997858 -0.0654098 1.08928e-16
    outer loop
       vertex -0.393198 -0.0326315 0.1
       vertex -0.395337 8.32665e-17 0.1
       vertex -0.395337 -8.32665e-17 0
    endloop
  endfacet
  facet normal -0.980784 -0.195096 0
    outer loop
       vertex -0.393198 -0.0326315 0
       vertex -0.386818 -0.064705 0
       vertex -0.386818 -0.064705 0.1
    endloop
  endfacet
  facet normal -0.980784 -0.195096 0
    outer loop
       vertex -0.386818 -0.064705 0.1
       vertex -0.393198 -0.0326315 0.1
       vertex -0.393198 -0.0326315 0
    endloop
  endfacet
  facet normal -0.946935 -0.321425 0
    outer loop
       vertex -0.386818 -0.064705 0
       vertex -0.376307 -0.095671 0
       vertex -0.376307 -0.095671 0.1
    endloop
  endfacet
  facet normal -0.946935 -0.321425 0
    outer loop
       vertex -0.376307 -0.095671 0.1
       vertex -0.386818 -0.064705 0.1
       vertex -0.386818 -0.064705 0
    endloop
  endfacet
  facet normal -0.896866 -0.442302 0
    outer loop
       vertex -0.376307 -0.095671 0
       vertex -0.361843 -0.125 0
       vertex -0.361843 -0.125 0.1
    endloop
  endfacet
  facet normal -0.896866 -0.442302 0
    outer loop
       vertex -0.361843 -0.125 0.1
       vertex -0.376307 -0.095671 0.1
       vertex -0.376307 -0.095671 0
    endloop
  endfacet
  facet normal -0.831476 -0.555561 0
    outer loop
       vertex -0.361843 -0.125 0
       vertex -0.343675 -0.152191 0
       vertex -0.343675 -0.152191 0.1
    endloop
  endfacet
  facet normal -0.831476 -0.555561 0
    outer loop
       vertex -0.343675 -0.152191 0.1
       vertex -0.361843 -0.125 0.1
       vertex -0.361843 -0.125 0
    endloop
  endfacet
  facet normal -0.751817 -0.659372 0
    outer loop
       vertex -0.343675 -0.152191 0
       vertex -0.322113 -0.176776 0
       vertex -0.322113 -0.176776 0.1
    endloop
  endfacet
  facet normal -0.751817 -0.659372 0
    outer loop
       vertex -0.322113 -0.176776 0.1
       vertex -0.343675 -0.152191 0.1
       vertex -0.343675 -0.152191 0
    endloop
  endfacet
  facet normal 0.659372 -0.751817 0
    outer loop
       vertex 0.0314387 -0.176776 0
       vertex 0.0314387 -0.176776 0.1
       vertex 0.00685366 -0.198338 0.1
    endloop
  endfacet
  facet normal 0.659372 -0.751817 0
    outer loop
       vertex 0.00685366 -0.198338 0.1
       vertex 0.00685366 -0.198338 0
       vertex 0.0314387 -0.176776 0
    endloop
  endfacet
  facet normal 0.555561 -0.831476 0
    outer loop
       vertex 0.00685366 -0.198338 0
       vertex 0.00685366 -0.198338 0.1
       vertex -0.0203373 -0.216506 0.1
    endloop
  endfacet
  facet normal 0.555561 -0.831476 0
    outer loop
       vertex -0.0203373 -0.216506 0.1
       vertex -0.0203373 -0.216506 0
       vertex 0.00685366 -0.198338 0
    endloop
  endfacet
  facet normal 0.442302 -0.896866 0
    outer loop
       vertex -0.0203373 -0.216506 0
       vertex -0.0203373 -0.216506 0.1
       vertex -0.0496663 -0.23097 0.1
    endloop
  endfacet
  facet normal 0.442302 -0.896866 0
    outer loop
       vertex -0.0496663 -0.23097 0.1
       vertex -0.0496663 -0.23097 0
       vertex -0.0203373 -0.216506 0
    endloop
  endfacet
  facet normal 0.321425 -0.946935 0
    outer loop
       vertex -0.0496663 -0.23097 0
       vertex -0.0496663 -0.23097 0.1
       vertex -0.0806323 -0.241481 0.1
    endloop
  endfacet
  facet normal 0.321425 -0.946935 0
    outer loop
       vertex -0.0806323 -0.241481 0.1
       vertex -0.0806323 -0.241481 0
       vertex -0.0496663 -0.23097 0
    endloop
  endfacet
  facet normal 0.195096 -0.980784 0
    outer loop
       vertex -0.0806323 -0.241481 0
       vertex -0.0806323 -0.241481 0.1
       vertex -0.112706 -0.247861 0.1
    endloop
  endfacet
  facet normal 0.195096 -0.980784 0
    outer loop
       vertex -0.112706 -0.247861 0.1
       vertex -0.112706 -0.247861 0
       vertex -0.0806323 -0.241481 0
    endloop
  endfacet
  facet normal 0.0654098 -0.997858 0
    outer loop
       vertex -0.145337 -0.25 0
       vertex -0.112706 -0.247861 0
       vertex -0.112706 -0.247861 0.1
    endloop
  endfacet
  facet normal 0.0654098 -0.997858 1.0893e-16
    outer loop
       vertex -0.112706 -0.247861 0.1
       vertex -0.145337 -0.25 0.1
       vertex -0.145337 -0.25 0
    endloop
  endfacet
  facet normal -0.0654098 -0.997858 0
    outer loop
       vertex -0.145337 -0.25 0.1
       vertex -0.177969 -0.247861 0.1
       vertex -0.177969 -0.247861 0
    endloop
  endfacet
  facet normal -0.0654098 -0.997858 -1.0893e-16
    outer loop
       vertex -0.177969 -0.247861 0
       vertex -0.145337 -0.25 0
       vertex -0.145337 -0.25 0.1
    endloop
  endfacet
  facet normal -0.195096 -0.980784 0
    outer loop
       vertex -0.177969 -0.247861 0
       vertex -0.177969 -0.247861 0.1
       vertex -0.210042 -0.241481 0.1
    endloop
  endfacet
  facet normal -0.195096 -0.980784 -0
    outer loop
       vertex -0.210042 -0.241481 0.1
       vertex -0.210042 -0.241481 0
       vertex -0.177969 -0.247861 0
    endloop
  endfacet
  facet normal -0.321425 -0.946935 0
    outer loop
       vertex -0.210042 -0.241481 0
       vertex -0.210042 -0.241481 0.1
       vertex -0.241008 -0.23097 0.1
    endloop
  endfacet
  facet normal -0.321425 -0.946935 -0
    outer loop
       vertex -0.241008 -0.23097 0.1
       vertex -0.241008 -0.23097 0
       vertex -0.210042 -0.241481 0
    endloop
  endfacet
  facet normal -0.442302 -0.896866 0
    outer loop
       vertex -0.241008 -0.23097 0
       vertex -0.241008 -0.23097 0.1
       vertex -0.270337 -0.216506 0.1
    endloop
  endfacet
  facet normal -0.442302 -0.896866 -0
    outer loop
       vertex -0.270337 -0.216506 0.1
       vertex -0.270337 -0.216506 0
       vertex -0.241008 -0.23097 0
    endloop
  endfacet
  facet normal -0.555561 -0.831476 0
    outer loop
       vertex -0.270337 -0.216506 0
       vertex -0.270337 -0.216506 0.1
       vertex -0.297528 -0.198338 0.1
    endloop
  endfacet
  facet normal -0.555561 -0.831476 -0
    outer loop
       vertex -0.297528 -0.198338 0.1
       vertex -0.297528 -0.198338 0
       vertex -0.270337 -0.216506 0
    endloop
  endfacet
  facet normal -0.659372 -0.751817 0
    outer loop
       vertex -0.297528 -0.198338 0
       vertex -0.297528 -0.198338 0.1
       vertex -0.322113 -0.176776 0.1
    endloop
  endfacet
  facet normal -0.659372 -0.751817 -0
    outer loop
       vertex -0.322113 -0.176776 0.1
       vertex -0.322113 -0.176776 0
       vertex -0.297528 -0.198338 0
    endloop
  endfacet
endsolid cylinder
