solid cylinder
  facet normal 0.751817 -0.659372 0
    outer loop
       vertex 0.485983 -0.176776 0
       vertex 0.507545 -0.152191 0
       vertex 0.507545 -0.152191 0.1
    endloop
  endfacet
  facet normal 0.751817 -0.659372 0
    outer loop
       vertex 0.507545 -0.152191 0.1
       vertex 0.485983 -0.176776 0.1
       vertex 0.485983 -0.176776 0
    endloop
  endfacet
  facet normal 0.831476 -0.555561 0
    outer loop
       vertex 0.507545 -0.152191 0
       vertex 0.525713 -0.125 0
       vertex 0.525713 -0.125 0.1
    endloop
  endfacet
  facet normal 0.831476 -0.555561 0
    outer loop
       vertex 0.525713 -0.125 0.1
       vertex 0.507545 -0.152191 0.1
       vertex 0.507545 -0.152191 0
    endloop
  endfacet
  facet normal 0.896866 -0.442302 0
    outer loop
       vertex 0.525713 -0.125 0
       vertex 0.540177 -0.095671 0
       vertex 0.540177 -0.095671 0.1
    endloop
  endfacet
  facet normal 0.896866 -0.442302 0
    outer loop
       vertex 0.540177 -0.095671 0.1
       vertex 0.525713 -0.125 0.1
       vertex 0.525713 -0.125 0
    endloop
  endfacet
  facet normal 0.946935 -0.321425 0
    outer loop
       vertex 0.540177 -0.095671 0
       vertex 0.550688 -0.064705 0
       vertex 0.550688 -0.064705 0.1
    endloop
  endfacet
  facet normal 0.946935 -0.321425 0
    outer loop
       vertex 0.550688 -0.064705 0.1
       vertex 0.540177 -0.095671 0.1
       vertex 0.540177 -0.095671 0
    endloop
  endfacet
  facet normal 0.980784 -0.195096 0
    outer loop
       vertex 0.550688 -0.064705 0
       vertex 0.557068 -0.0326315 0
       vertex 0.557068 -0.0326315 0.1
    endloop
  endfacet
  facet normal 0.980784 -0.195096 0
    outer loop
       vertex 0.557068 -0.0326315 0.1
       vertex 0.550688 -0.064705 0.1
       vertex 0.550688 -0.064705 0
    endloop
  endfacet
  facet normal 0.997858 -0.0654098 0
    outer loop
       vertex 0.559207 -8.32665e-17 0.1
       vertex 0.557068 -0.0326315 0.1
       vertex 0.557068 -0.0326315 0
    endloop
  endfacet
  facet normal 0.997858 -0.0654098 -1.0893e-16
    outer loop
       vertex 0.557068 -0.0326315 0
       vertex 0.559207 8.32665e-17 0
       vertex 0.559207 -8.32665e-17 0.1
    endloop
  endfacet
  facet normal 0.997858 0.0654098 0
    outer loop
       vertex 0.559207 8.32665e-17 0
       vertex 0.557068 0.0326315 0
       vertex 0.557068 0.0326315 0.1
    endloop
  endfacet
  facet normal 0.997858 0.0654098 1.0893e-16
    outer loop
       vertex 0.557068 0.0326315 0.1
       vertex 0.559207 -8.32665e-17 0.1
       vertex 0.559207 8.32665e-17 0
    endloop
  endfacet
  facet normal 0.980784 0.195096 0
    outer loop
       vertex 0.557068 0.0326315 0
       vertex 0.550688 0.064705 0
       vertex 0.550688 0.064705 0.1
    endloop
  endfacet
  facet normal 0.980784 0.195096 0
    outer loop
       vertex 0.550688 0.064705 0.1
       vertex 0.557068 0.0326315 0.1
       vertex 0.557068 0.0326315 0
    endloop
  endfacet
  facet normal 0.946935 0.321425 0
    outer loop
       vertex 0.550688 0.064705 0
       vertex 0.540177 0.095671 0
       vertex 0.540177 0.095671 0.1
    endloop
  endfacet
  facet normal 0.946935 0.321425 0
    outer loop
       vertex 0.540177 0.095671 0.1
       vertex 0.550688 0.064705 0.1
       vertex 0.550688 0.064705 0
    endloop
  endfacet
  facet normal 0.896866 0.442302 0
    outer loop
       vertex 0.540177 0.095671 0
       vertex 0.525713 0.125 0
       vertex 0.525713 0.125 0.1
    endloop
  endfacet
  facet normal 0.896866 0.442302 0
    outer loop
       vertex 0.525713 0.125 0.1
       vertex 0.540177 0.095671 0.1
       vertex 0.540177 0.095671 0
    endloop
  endfacet
  facet normal 0.831476 0.555561 0
    outer loop
       vertex 0.525713 0.125 0
       vertex 0.507545 0.152191 0
       vertex 0.507545 0.152191 0.1
    endloop
  endfacet
  facet normal 0.831476 0.555561 0
    outer loop
       vertex 0.507545 0.152191 0.1
       vertex 0.525713 0.125 0.1
       vertex 0.525713 0.125 0
    endloop
  endfacet
  facet normal 0.751817 0.659372 0
    outer loop
       vertex 0.507545 0.152191 0
       vertex 0.485983 0.176776 0
       vertex 0.485983 0.176776 0.1
    endloop
  endfacet
  facet normal 0.751817 0.659372 0
    outer loop
       vertex 0.485983 0.176776 0.1
       vertex 0.507545 0.152191 0.1
       vertex 0.507545 0.152191 0
    endloop
  endfacet
  facet normal 0.659372 0.751817 0
    outer loop
       vertex 0.485983 0.176776 0
       vertex 0.461398 0.198338 0
       vertex 0.461398 0.198338 0.1
    endloop
  endfacet
  facet normal 0.659372 0.751817 0
    outer loop
       vertex 0.461398 0.198338 0.1
       vertex 0.485983 0.176776 0.1
       vertex 0.485983 0.176776 0
    endloop
  endfacet
  facet normal 0.555561 0.831476 0
    outer loop
       vertex 0.461398 0.198338 0
       vertex 0.434207 0.216506 0
       vertex 0.434207 0.216506 0.1
    endloop
  endfacet
  facet normal 0.555561 0.831476 0
    outer loop
       vertex 0.434207 0.216506 0.1
       vertex 0.461398 0.198338 0.1
       vertex 0.461398 0.198338 0
    endloop
  endfacet
  facet normal 0.442302 0.896866 0
    outer loop
       vertex 0.434207 0.216506 0
       vertex 0.404878 0.23097 0
       vertex 0.404878 0.23097 0.1
    endloop
  endfacet
  facet normal 0.442302 0.896866 0
    outer loop
       vertex 0.404878 0.23097 0.1
       vertex 0.434207 0.216506 0.1
       vertex 0.434207 0.216506 0
    endloop
  endfacet
  facet normal 0.321425 0.946935 0
    outer loop
       vertex 0.404878 0.23097 0
       vertex 0.373912 0.241481 0
       vertex 0.373912 0.241481 0.1
    endloop
  endfacet
  facet normal 0.321425 0.946935 0
    outer loop
       vertex 0.373912 0.241481 0.1
       vertex 0.404878 0.23097 0.1
       vertex 0.404878 0.23097 0
    endloop
  endfacet
  facet normal 0.195096 0.980784 0
    outer loop
       vertex 0.373912 0.241481 0
       vertex 0.341838 0.247861 0
       vertex 0.341838 0.247861 0.1
    endloop
  endfacet
  facet normal 0.195096 0.980784 0
    outer loop
       vertex 0.341838 0.247861 0.1
       vertex 0.373912 0.241481 0.1
       vertex 0.373912 0.241481 0
    endloop
  endfacet
  facet normal 0.0654098 0.997858 0
    outer loop
       vertex 0.309207 0.25 0.1
       vertex 0.341838 0.247861 0.1
       vertex 0.341838 0.247861 0
    endloop
  endfacet
  facet normal 0.0654098 0.997858 -7.26205e-17
    outer loop
       vertex 0.341838 0.247861 0
       vertex 0.309207 0.25 0
       vertex 0.309207 0.25 0.1
    endloop
  endfacet
  facet normal -0.0654098 0.997858 0
    outer loop
       vertex 0.309207 0.25 0
       vertex 0.276575 0.247861 0
       vertex 0.276575 0.247861 0.1
    endloop
  endfacet
  facet normal -0.0654098 0.997858 7.26205e-17
    outer loop
       vertex 0.276575 0.247861 0.1
       vertex 0.309207 0.25 0.1
       vertex 0.309207 0.25 0
    endloop
  endfacet
  facet normal -0.195096 0.980784 0
    outer loop
       vertex 0.276575 0.247861 0
       vertex 0.244502 0.241481 0
       vertex 0.244502 0.241481 0.1
    endloop
  endfacet
  facet normal -0.195096 0.980784 0
    outer loop
       vertex 0.244502 0.241481 0.1
       vertex 0.276575 0.247861 0.1
       vertex 0.276575 0.247861 0
    endloop
  endfacet
  facet normal -0.321425 0.946935 0
    outer loop
       vertex 0.244502 0.241481 0
       vertex 0.213536 0.23097 0
       vertex 0.213536 0.23097 0.1
    endloop
  endfacet
  facet normal -0.321425 0.946935 0
    outer loop
       vertex 0.213536 0.23097 0.1
       vertex 0.244502 0.241481 0.1
       vertex 0.244502 0.241481 0
    endloop
  endfacet
  facet normal -0.442302 0.896866 0
    outer loop
       vertex 0.213536 0.23097 0
       vertex 0.184207 0.216506 0
       vertex 0.184207 0.216506 0.1
    endloop
  endfacet
  facet normal -0.442302 0.896866 0
    outer loop
       vertex 0.184207 0.216506 0.1
       vertex 0.213536 0.23097 0.1
       vertex 0.213536 0.23097 0
    endloop
  endfacet
  facet normal -0.555561 0.831476 0
    outer loop
       vertex 0.184207 0.216506 0
       vertex 0.157016 0.198338 0
       vertex 0.157016 0.198338 0.1
    endloop
  endfacet
  facet normal -0.555561 0.831476 0
    outer loop
       vertex 0.157016 0.198338 0.1
       vertex 0.184207 0.216506 0.1
       vertex 0.184207 0.216506 0
    endloop
  endfacet
  facet normal -0.659372 0.751817 0
    outer loop
       vertex 0.157016 0.198338 0
       vertex 0.132431 0.176776 0
       vertex 0.132431 0.176776 0.1
    endloop
  endfacet
  facet normal -0.659372 0.751817 0
    outer loop
       vertex 0.132431 0.176776 0.1
       vertex 0.157016 0.198338 0.1
       vertex 0.157016 0.198338 0
    endloop
  endfacet
  facet normal -0.751817 0.659372 0
    outer loop
       vertex 0.132431 0.176776 0
       vertex 0.110869 0.152191 0
       vertex 0.110869 0.152191 0.1
    endloop
  endfacet
  facet normal -0.751817 0.659372 0
    outer loop
       vertex 0.110869 0.152191 0.1
       vertex 0.132431 0.176776 0.1
       vertex 0.132431 0.176776 0
    endloop
  endfacet
  facet normal -0.831476 0.555561 0
    outer loop
       vertex 0.110869 0.152191 0
       vertex 0.0927006 0.125 0
       vertex 0.0927006 0.125 0.1
    endloop
  endfacet
  facet normal -0.831476 0.555561 0
    outer loop
       vertex 0.0927006 0.125 0.1
       vertex 0.110869 0.152191 0.1
       vertex 0.110869 0.152191 0
    endloop
  endfacet
  facet normal -0.896866 0.442302 0
    outer loop
       vertex 0.0927006 0.125 0
       vertex 0.0782366 0.095671 0
       vertex 0.0782366 0.095671 0.1
    endloop
  endfacet
  facet normal -0.896866 0.442302 0
    outer loop
       vertex 0.0782366 0.095671 0.1
       vertex 0.0927006 0.125 0.1
       vertex 0.0927006 0.125 0
    endloop
  endfacet
  facet normal -0.946935 0.321425 0
    outer loop
       vertex 0.0782366 0.095671 0
       vertex 0.0677256 0.064705 0
       vertex 0.0677256 0.064705 0.1
    endloop
  endfacet
  facet normal -0.946935 0.321425 0
    outer loop
       vertex 0.0677256 0.064705 0.1
       vertex 0.0782366 0.095671 0.1
       vertex 0.0782366 0.095671 0
    endloop
  endfacet
  facet normal -0.980784 0.195096 0
    outer loop
       vertex 0.0677256 0.064705 0
       vertex 0.0613456 0.0326315 0
       vertex 0.0613456 0.0326315 0.1
    endloop
  endfacet
  facet normal -0.980784 0.195096 0
    outer loop
       vertex 0.0613456 0.0326315 0.1
       vertex 0.0677256 0.064705 0.1
       vertex 0.0677256 0.064705 0
    endloop
  endfacet
  facet normal -0.997858 0.0654098 0
    outer loop
       vertex 0.0592066 8.32665e-17 0.1
       vertex 0.0613456 0.0326315 0.1
       vertex 0.0613456 0.0326315 0
    endloop
  endfacet
  facet normal -0.997858 0.0654098 -1.08928e-16
    outer loop
       vertex 0.0613456 0.0326315 0
       vertex 0.0592066 -8.32665e-17 0
       vertex 0.0592066 8.32665e-17 0.1
    endloop
  endfacet
  facet normal -0.997858 -0.0654098 0
    outer loop
       vertex 0.0592066 -8.32665e-17 0
       vertex 0.0613456 -0.0326315 0
       vertex 0.0613456 -0.0326315 0.1
    endloop
  endfacet
  facet normal -0.997858 -0.0654098 1.08928e-16
    outer loop
       vertex 0.0613456 -0.0326315 0.1
       vertex 0.0592066 8.32665e-17 0.1
       vertex 0.0592066 -8.32665e-17 0
    endloop
  endfacet
  facet normal -0.980784 -0.195096 0
    outer loop
       vertex 0.0613456 -0.0326315 0
       vertex 0.0677256 -0.064705 0
       vertex 0.0677256 -0.064705 0.1
    endloop
  endfacet
  facet normal -0.980784 -0.195096 0
    outer loop
       vertex 0.0677256 -0.064705 0.1
       vertex 0.0613456 -0.0326315 0.1
       vertex 0.0613456 -0.0326315 0
    endloop
  endfacet
  facet normal -0.946935 -0.321425 0
    outer loop
       vertex 0.0677256 -0.064705 0
       vertex 0.0782366 -0.095671 0
       vertex 0.0782366 -0.095671 0.1
    endloop
  endfacet
  facet normal -0.946935 -0.321425 0
    outer loop
       vertex 0.0782366 -0.095671 0.1
       vertex 0.0677256 -0.064705 0.1
       vertex 0.0677256 -0.064705 0
    endloop
  endfacet
  facet normal -0.896866 -0.442302 0
    outer loop
       vertex 0.0782366 -0.095671 0
       vertex 0.0927006 -0.125 0
       vertex 0.0927006 -0.125 0.1
    endloop
  endfacet
  facet normal -0.896866 -0.442302 0
    outer loop
       vertex 0.0927006 -0.125 0.1
       vertex 0.0782366 -0.095671 0.1
       vertex 0.0782366 -0.095671 0
    endloop
  endfacet
  facet normal -0.831476 -0.555561 0
    outer loop
       vertex 0.0927006 -0.125 0
       vertex 0.110869 -0.152191 0
       vertex 0.110869 -0.152191 0.1
    endloop
  endfacet
  facet normal -0.831476 -0.555561 0
    outer loop
       vertex 0.110869 -0.152191 0.1
       vertex 0.0927006 -0.125 0.1
       vertex 0.0927006 -0.125 0
    endloop
  endfacet
  facet normal -0.751817 -0.659372 0
    outer loop
       vertex 0.110869 -0.152191 0
       vertex 0.132431 -0.176776 0
       vertex 0.132431 -0.176776 0.1
    endloop
  endfacet
  facet normal -0.751817 -0.659372 0
    outer loop
       vertex 0.132431 -0.176776 0.1
       vertex 0.110869 -0.152191 0.1
       vertex 0.110869 -0.152191 0
    endloop
  endfacet
  facet normal 0.659372 -0.751817 0
    outer loop
       vertex 0.485983 -0.176776 0
       vertex 0.485983 -0.176776 0.1
       vertex 0.461398 -0.198338 0.1
    endloop
  endfacet
  facet normal 0.659372 -0.751817 0
    outer loop
       vertex 0.461398 -0.198338 0.1
       vertex 0.461398 -0.198338 0
       vertex 0.485983 -0.176776 0
    endloop
  endfacet
  facet normal 0.555561 -0.831476 0
    outer loop
       vertex 0.461398 -0.198338 0
       vertex 0.461398 -0.198338 0.1
       vertex 0.434207 -0.216506 0.1
    endloop
  endfacet
  facet normal 0.555561 -0.831476 0
    outer loop
       vertex 0.434207 -0.216506 0.1
       vertex 0.434207 -0.216506 0
       vertex 0.461398 -0.198338 0
    endloop
  endfacet
  facet normal 0.442302 -0.896866 0
    outer loop
       vertex 0.434207 -0.216506 0
       vertex 0.434207 -0.216506 0.1
       vertex 0.404878 -0.23097 0.1
    endloop
  endfacet
  facet normal 0.442302 -0.896866 0
    outer loop
       vertex 0.404878 -0.23097 0.1
       vertex 0.404878 -0.23097 0
       vertex 0.434207 -0.216506 0
    endloop
  endfacet
  facet normal 0.321425 -0.946935 0
    outer loop
       vertex 0.404878 -0.23097 0
       vertex 0.404878 -0.23097 0.1
       vertex 0.373912 -0.241481 0.1
    endloop
  endfacet
  facet normal 0.321425 -0.946935 0
    outer loop
       vertex 0.373912 -0.241481 0.1
       vertex 0.373912 -0.241481 0
       vertex 0.404878 -0.23097 0
    endloop
  endfacet
  facet normal 0.195096 -0.980784 0
    outer loop
       vertex 0.373912 -0.241481 0
       vertex 0.373912 -0.241481 0.1
       vertex 0.341838 -0.247861 0.1
    endloop
  endfacet
  facet normal 0.195096 -0.980784 0
    outer loop
       vertex 0.341838 -0.247861 0.1
       vertex 0.341838 -0.247861 0
       vertex 0.373912 -0.241481 0
    endloop
  endfacet
  facet normal 0.0654098 -0.997858 0
    outer loop
       vertex 0.309207 -0.25 0
       vertex 0.341838 -0.247861 0
       vertex 0.341838 -0.247861 0.1
    endloop
  endfacet
  facet normal 0.0654098 -0.997858 7.26205e-17
    outer loop
       vertex 0.341838 -0.247861 0.1
       vertex 0.309207 -0.25 0.1
       vertex 0.309207 -0.25 0
    endloop
  endfacet
  facet normal -0.0654098 -0.997858 0
    outer loop
       vertex 0.309207 -0.25 0.1
       vertex 0.276575 -0.247861 0.1
       vertex 0.276575 -0.247861 0
    endloop
  endfacet
  facet normal -0.0654098 -0.997858 -7.26205e-17
    outer loop
       vertex 0.276575 -0.247861 0
       vertex 0.309207 -0.25 0
       vertex 0.309207 -0.25 0.1
    endloop
  endfacet
  facet normal -0.195096 -0.980784 0
    outer loop
       vertex 0.276575 -0.247861 0
       vertex 0.276575 -0.247861 0.1
       vertex 0.244502 -0.241481 0.1
    endloop
  endfacet
  facet normal -0.195096 -0.980784 -0
    outer loop
       vertex 0.244502 -0.241481 0.1
       vertex 0.244502 -0.241481 0
       vertex 0.276575 -0.247861 0
    endloop
  endfacet
  facet normal -0.321425 -0.946935 0
    outer loop
       vertex 0.244502 -0.241481 0
       vertex 0.244502 -0.241481 0.1
       vertex 0.213536 -0.23097 0.1
    endloop
  endfacet
  facet normal -0.321425 -0.946935 -0
    outer loop
       vertex 0.213536 -0.23097 0.1
       vertex 0.213536 -0.23097 0
       vertex 0.244502 -0.241481 0
    endloop
  endfacet
  facet normal -0.442302 -0.896866 0
    outer loop
       vertex 0.213536 -0.23097 0
       vertex 0.213536 -0.23097 0.1
       vertex 0.184207 -0.216506 0.1
    endloop
  endfacet
  facet normal -0.442302 -0.896866 -0
    outer loop
       vertex 0.184207 -0.216506 0.1
       vertex 0.184207 -0.216506 0
       vertex 0.213536 -0.23097 0
    endloop
  endfacet
  facet normal -0.555561 -0.831476 0
    outer loop
       vertex 0.184207 -0.216506 0
       vertex 0.184207 -0.216506 0.1
       vertex 0.157016 -0.198338 0.1
    endloop
  endfacet
  facet normal -0.555561 -0.831476 -0
    outer loop
       vertex 0.157016 -0.198338 0.1
       vertex 0.157016 -0.198338 0
       vertex 0.184207 -0.216506 0
    endloop
  endfacet
  facet normal -0.659372 -0.751817 0
    outer loop
       vertex 0.157016 -0.198338 0
       vertex 0.157016 -0.198338 0.1
       vertex 0.132431 -0.176776 0.1
    endloop
  endfacet
  facet normal -0.659372 -0.751817 -0
    outer loop
       vertex 0.132431 -0.176776 0.1
       vertex 0.132431 -0.176776 0
       vertex 0.157016 -0.198338 0
    endloop
  endfacet
endsolid cylinder
