solid cylinder
  facet normal 0.751817 -0.659372 0
    outer loop
       vertex 0.383049 -0.176776 0
       vertex 0.404611 -0.152191 0
       vertex 0.404611 -0.152191 0.1
    endloop
  endfacet
  facet normal 0.751817 -0.659372 0
    outer loop
       vertex 0.404611 -0.152191 0.1
       vertex 0.383049 -0.176776 0.1
       vertex 0.383049 -0.176776 0
    endloop
  endfacet
  facet normal 0.831476 -0.555561 0
    outer loop
       vertex 0.404611 -0.152191 0
       vertex 0.422779 -0.125 0
       vertex 0.422779 -0.125 0.1
    endloop
  endfacet
  facet normal 0.831476 -0.555561 0
    outer loop
       vertex 0.422779 -0.125 0.1
       vertex 0.404611 -0.152191 0.1
       vertex 0.404611 -0.152191 0
    endloop
  endfacet
  facet normal 0.896866 -0.442302 0
    outer loop
       vertex 0.422779 -0.125 0
       vertex 0.437243 -0.095671 0
       vertex 0.437243 -0.095671 0.1
    endloop
  endfacet
  facet normal 0.896866 -0.442302 0
    outer loop
       vertex 0.437243 -0.095671 0.1
       vertex 0.422779 -0.125 0.1
       vertex 0.422779 -0.125 0
    endloop
  endfacet
  facet normal 0.946935 -0.321425 0
    outer loop
       vertex 0.437243 -0.095671 0
       vertex 0.447754 -0.064705 0
       vertex 0.447754 -0.064705 0.1
    endloop
  endfacet
  facet normal 0.946935 -0.321425 0
    outer loop
       vertex 0.447754 -0.064705 0.1
       vertex 0.437243 -0.095671 0.1
       vertex 0.437243 -0.095671 0
    endloop
  endfacet
  facet normal 0.980784 -0.195096 0
    outer loop
       vertex 0.447754 -0.064705 0
       vertex 0.454134 -0.0326315 0
       vertex 0.454134 -0.0326315 0.1
    endloop
  endfacet
  facet normal 0.980784 -0.195096 0
    outer loop
       vertex 0.454134 -0.0326315 0.1
       vertex 0.447754 -0.064705 0.1
       vertex 0.447754 -0.064705 0
    endloop
  endfacet
  facet normal 0.997858 -0.0654098 0
    outer loop
       vertex 0.456273 -8.32665e-17 0.1
       vertex 0.454134 -0.0326315 0.1
       vertex 0.454134 -0.0326315 0
    endloop
  endfacet
  facet normal 0.997858 -0.0654098 -1.08928e-16
    outer loop
       vertex 0.454134 -0.0326315 0
       vertex 0.456273 8.32665e-17 0
       vertex 0.456273 -8.32665e-17 0.1
    endloop
  endfacet
  facet normal 0.997858 0.0654098 0
    outer loop
       vertex 0.456273 8.32665e-17 0
       vertex 0.454134 0.0326315 0
       vertex 0.454134 0.0326315 0.1
    endloop
  endfacet
  facet normal 0.997858 0.0654098 1.08928e-16
    outer loop
       vertex 0.454134 0.0326315 0.1
       vertex 0.456273 -8.32665e-17 0.1
       vertex 0.456273 8.32665e-17 0
    endloop
  endfacet
  facet normal 0.980784 0.195096 0
    outer loop
       vertex 0.454134 0.0326315 0
       vertex 0.447754 0.064705 0
       vertex 0.447754 0.064705 0.1
    endloop
  endfacet
  facet normal 0.980784 0.195096 0
    outer loop
       vertex 0.447754 0.064705 0.1
       vertex 0.454134 0.0326315 0.1
       vertex 0.454134 0.0326315 0
    endloop
  endfacet
  facet normal 0.946935 0.321425 0
    outer loop
       vertex 0.447754 0.064705 0
       vertex 0.437243 0.095671 0
       vertex 0.437243 0.095671 0.1
    endloop
  endfacet
  facet normal 0.946935 0.321425 0
    outer loop
       vertex 0.437243 0.095671 0.1
       vertex 0.447754 0.064705 0.1
       vertex 0.447754 0.064705 0
    endloop
  endfacet
  facet normal 0.896866 0.442302 0
    outer loop
       vertex 0.437243 0.095671 0
       vertex 0.422779 0.125 0
       vertex 0.422779 0.125 0.1
    endloop
  endfacet
  facet normal 0.896866 0.442302 0
    outer loop
       vertex 0.422779 0.125 0.1
       vertex 0.437243 0.095671 0.1
       vertex 0.437243 0.095671 0
    endloop
  endfacet
  facet normal 0.831476 0.555561 0
    outer loop
       vertex 0.422779 0.125 0
       vertex 0.404611 0.152191 0
       vertex 0.404611 0.152191 0.1
    endloop
  endfacet
  facet normal 0.831476 0.555561 0
    outer loop
       vertex 0.404611 0.152191 0.1
       vertex 0.422779 0.125 0.1
       vertex 0.422779 0.125 0
    endloop
  endfacet
  facet normal 0.751817 0.659372 0
    outer loop
       vertex 0.404611 0.152191 0
       vertex 0.383049 0.176776 0
       vertex 0.383049 0.176776 0.1
    endloop
  endfacet
  facet normal 0.751817 0.659372 0
    outer loop
       vertex 0.383049 0.176776 0.1
       vertex 0.404611 0.152191 0.1
       vertex 0.404611 0.152191 0
    endloop
  endfacet
  facet normal 0.659372 0.751817 0
    outer loop
       vertex 0.383049 0.176776 0
       vertex 0.358464 0.198338 0
       vertex 0.358464 0.198338 0.1
    endloop
  endfacet
  facet normal 0.659372 0.751817 0
    outer loop
       vertex 0.358464 0.198338 0.1
       vertex 0.383049 0.176776 0.1
       vertex 0.383049 0.176776 0
    endloop
  endfacet
  facet normal 0.555561 0.831476 0
    outer loop
       vertex 0.358464 0.198338 0
       vertex 0.331273 0.216506 0
       vertex 0.331273 0.216506 0.1
    endloop
  endfacet
  facet normal 0.555561 0.831476 0
    outer loop
       vertex 0.331273 0.216506 0.1
       vertex 0.358464 0.198338 0.1
       vertex 0.358464 0.198338 0
    endloop
  endfacet
  facet normal 0.442302 0.896866 0
    outer loop
       vertex 0.331273 0.216506 0
       vertex 0.301944 0.23097 0
       vertex 0.301944 0.23097 0.1
    endloop
  endfacet
  facet normal 0.442302 0.896866 0
    outer loop
       vertex 0.301944 0.23097 0.1
       vertex 0.331273 0.216506 0.1
       vertex 0.331273 0.216506 0
    endloop
  endfacet
  facet normal 0.321425 0.946935 0
    outer loop
       vertex 0.301944 0.23097 0
       vertex 0.270978 0.241481 0
       vertex 0.270978 0.241481 0.1
    endloop
  endfacet
  facet normal 0.321425 0.946935 0
    outer loop
       vertex 0.270978 0.241481 0.1
       vertex 0.301944 0.23097 0.1
       vertex 0.301944 0.23097 0
    endloop
  endfacet
  facet normal 0.195096 0.980784 0
    outer loop
       vertex 0.270978 0.241481 0
       vertex 0.238905 0.247861 0
       vertex 0.238905 0.247861 0.1
    endloop
  endfacet
  facet normal 0.195096 0.980784 0
    outer loop
       vertex 0.238905 0.247861 0.1
       vertex 0.270978 0.241481 0.1
       vertex 0.270978 0.241481 0
    endloop
  endfacet
  facet normal 0.0654098 0.997858 0
    outer loop
       vertex 0.206273 0.25 0.1
       vertex 0.238905 0.247861 0.1
       vertex 0.238905 0.247861 0
    endloop
  endfacet
  facet normal 0.0654098 0.997858 -1.0893e-16
    outer loop
       vertex 0.238905 0.247861 0
       vertex 0.206273 0.25 0
       vertex 0.206273 0.25 0.1
    endloop
  endfacet
  facet normal -0.0654098 0.997858 0
    outer loop
       vertex 0.206273 0.25 0
       vertex 0.173642 0.247861 0
       vertex 0.173642 0.247861 0.1
    endloop
  endfacet
  facet normal -0.0654098 0.997858 1.0893e-16
    outer loop
       vertex 0.173642 0.247861 0.1
       vertex 0.206273 0.25 0.1
       vertex 0.206273 0.25 0
    endloop
  endfacet
  facet normal -0.195096 0.980784 0
    outer loop
       vertex 0.173642 0.247861 0
       vertex 0.141568 0.241481 0
       vertex 0.141568 0.241481 0.1
    endloop
  endfacet
  facet normal -0.195096 0.980784 0
    outer loop
       vertex 0.141568 0.241481 0.1
       vertex 0.173642 0.247861 0.1
       vertex 0.173642 0.247861 0
    endloop
  endfacet
  facet normal -0.321425 0.946935 0
    outer loop
       vertex 0.141568 0.241481 0
       vertex 0.110602 0.23097 0
       vertex 0.110602 0.23097 0.1
    endloop
  endfacet
  facet normal -0.321425 0.946935 0
    outer loop
       vertex 0.110602 0.23097 0.1
       vertex 0.141568 0.241481 0.1
       vertex 0.141568 0.241481 0
    endloop
  endfacet
  facet normal -0.442302 0.896866 0
    outer loop
       vertex 0.110602 0.23097 0
       vertex 0.0812733 0.216506 0
       vertex 0.0812733 0.216506 0.1
    endloop
  endfacet
  facet normal -0.442302 0.896866 0
    outer loop
       vertex 0.0812733 0.216506 0.1
       vertex 0.110602 0.23097 0.1
       vertex 0.110602 0.23097 0
    endloop
  endfacet
  facet normal -0.555561 0.831476 0
    outer loop
       vertex 0.0812733 0.216506 0
       vertex 0.0540823 0.198338 0
       vertex 0.0540823 0.198338 0.1
    endloop
  endfacet
  facet normal -0.555561 0.831476 0
    outer loop
       vertex 0.0540823 0.198338 0.1
       vertex 0.0812733 0.216506 0.1
       vertex 0.0812733 0.216506 0
    endloop
  endfacet
  facet normal -0.659372 0.751817 0
    outer loop
       vertex 0.0540823 0.198338 0
       vertex 0.0294973 0.176776 0
       vertex 0.0294973 0.176776 0.1
    endloop
  endfacet
  facet normal -0.659372 0.751817 0
    outer loop
       vertex 0.0294973 0.176776 0.1
       vertex 0.0540823 0.198338 0.1
       vertex 0.0540823 0.198338 0
    endloop
  endfacet
  facet normal -0.751817 0.659372 0
    outer loop
       vertex 0.0294973 0.176776 0
       vertex 0.00793534 0.152191 0
       vertex 0.00793534 0.152191 0.1
    endloop
  endfacet
  facet normal -0.751817 0.659372 0
    outer loop
       vertex 0.00793534 0.152191 0.1
       vertex 0.0294973 0.176776 0.1
       vertex 0.0294973 0.176776 0
    endloop
  endfacet
  facet normal -0.831476 0.555561 0
    outer loop
       vertex 0.00793534 0.152191 0
       vertex -0.0102327 0.125 0
       vertex -0.0102327 0.125 0.1
    endloop
  endfacet
  facet normal -0.831476 0.555561 0
    outer loop
       vertex -0.0102327 0.125 0.1
       vertex 0.00793534 0.152191 0.1
       vertex 0.00793534 0.152191 0
    endloop
  endfacet
  facet normal -0.896866 0.442302 0
    outer loop
       vertex -0.0102327 0.125 0
       vertex -0.0246967 0.095671 0
       vertex -0.0246967 0.095671 0.1
    endloop
  endfacet
  facet normal -0.896866 0.442302 0
    outer loop
       vertex -0.0246967 0.095671 0.1
       vertex -0.0102327 0.125 0.1
       vertex -0.0102327 0.125 0
    endloop
  endfacet
  facet normal -0.946935 0.321425 0
    outer loop
       vertex -0.0246967 0.095671 0
       vertex -0.0352077 0.064705 0
       vertex -0.0352077 0.064705 0.1
    endloop
  endfacet
  facet normal -0.946935 0.321425 0
    outer loop
       vertex -0.0352077 0.064705 0.1
       vertex -0.0246967 0.095671 0.1
       vertex -0.0246967 0.095671 0
    endloop
  endfacet
  facet normal -0.980784 0.195096 0
    outer loop
       vertex -0.0352077 0.064705 0
       vertex -0.0415877 0.0326315 0
       vertex -0.0415877 0.0326315 0.1
    endloop
  endfacet
  facet normal -0.980784 0.195096 0
    outer loop
       vertex -0.0415877 0.0326315 0.1
       vertex -0.0352077 0.064705 0.1
       vertex -0.0352077 0.064705 0
    endloop
  endfacet
  facet normal -0.997858 0.0654098 0
    outer loop
       vertex -0.0437267 8.32665e-17 0.1
       vertex -0.0415877 0.0326315 0.1
       vertex -0.0415877 0.0326315 0
    endloop
  endfacet
  facet normal -0.997858 0.0654098 -1.08928e-16
    outer loop
       vertex -0.0415877 0.0326315 0
       vertex -0.0437267 -8.32665e-17 0
       vertex -0.0437267 8.32665e-17 0.1
    endloop
  endfacet
  facet normal -0.997858 -0.0654098 0
    outer loop
       vertex -0.0437267 -8.32665e-17 0
       vertex -0.0415877 -0.0326315 0
       vertex -0.0415877 -0.0326315 0.1
    endloop
  endfacet
  facet normal -0.997858 -0.0654098 1.08928e-16
    outer loop
       vertex -0.0415877 -0.0326315 0.1
       vertex -0.0437267 8.32665e-17 0.1
       vertex -0.0437267 -8.32665e-17 0
    endloop
  endfacet
  facet normal -0.980784 -0.195096 0
    outer loop
       vertex -0.0415877 -0.0326315 0
       vertex -0.0352077 -0.064705 0
       vertex -0.0352077 -0.064705 0.1
    endloop
  endfacet
  facet normal -0.980784 -0.195096 0
    outer loop
       vertex -0.0352077 -0.064705 0.1
       vertex -0.0415877 -0.0326315 0.1
       vertex -0.0415877 -0.0326315 0
    endloop
  endfacet
  facet normal -0.946935 -0.321425 0
    outer loop
       vertex -0.0352077 -0.064705 0
       vertex -0.0246967 -0.095671 0
       vertex -0.0246967 -0.095671 0.1
    endloop
  endfacet
  facet normal -0.946935 -0.321425 0
    outer loop
       vertex -0.0246967 -0.095671 0.1
       vertex -0.0352077 -0.064705 0.1
       vertex -0.0352077 -0.064705 0
    endloop
  endfacet
  facet normal -0.896866 -0.442302 0
    outer loop
       vertex -0.0246967 -0.095671 0
       vertex -0.0102327 -0.125 0
       vertex -0.0102327 -0.125 0.1
    endloop
  endfacet
  facet normal -0.896866 -0.442302 0
    outer loop
       vertex -0.0102327 -0.125 0.1
       vertex -0.0246967 -0.095671 0.1
       vertex -0.0246967 -0.095671 0
    endloop
  endfacet
  facet normal -0.831476 -0.555561 0
    outer loop
       vertex -0.0102327 -0.125 0
       vertex 0.00793534 -0.152191 0
       vertex 0.00793534 -0.152191 0.1
    endloop
  endfacet
  facet normal -0.831476 -0.555561 0
    outer loop
       vertex 0.00793534 -0.152191 0.1
       vertex -0.0102327 -0.125 0.1
       vertex -0.0102327 -0.125 0
    endloop
  endfacet
  facet normal -0.751817 -0.659372 0
    outer loop
       vertex 0.00793534 -0.152191 0
       vertex 0.0294973 -0.176776 0
       vertex 0.0294973 -0.176776 0.1
    endloop
  endfacet
  facet normal -0.751817 -0.659372 0
    outer loop
       vertex 0.0294973 -0.176776 0.1
       vertex 0.00793534 -0.152191 0.1
       vertex 0.00793534 -0.152191 0
    endloop
  endfacet
  facet normal 0.659372 -0.751817 0
    outer loop
       vertex 0.383049 -0.176776 0
       vertex 0.383049 -0.176776 0.1
       vertex 0.358464 -0.198338 0.1
    endloop
  endfacet
  facet normal 0.659372 -0.751817 0
    outer loop
       vertex 0.358464 -0.198338 0.1
       vertex 0.358464 -0.198338 0
       vertex 0.383049 -0.176776 0
    endloop
  endfacet
  facet normal 0.555561 -0.831476 0
    outer loop
       vertex 0.358464 -0.198338 0
       vertex 0.358464 -0.198338 0.1
       vertex 0.331273 -0.216506 0.1
    endloop
  endfacet
  facet normal 0.555561 -0.831476 0
    outer loop
       vertex 0.331273 -0.216506 0.1
       vertex 0.331273 -0.216506 0
       vertex 0.358464 -0.198338 0
    endloop
  endfacet
  facet normal 0.442302 -0.896866 0
    outer loop
       vertex 0.331273 -0.216506 0
       vertex 0.331273 -0.216506 0.1
       vertex 0.301944 -0.23097 0.1
    endloop
  endfacet
  facet normal 0.442302 -0.896866 0
    outer loop
       vertex 0.301944 -0.23097 0.1
       vertex 0.301944 -0.23097 0
       vertex 0.331273 -0.216506 0
    endloop
  endfacet
  facet normal 0.321425 -0.946935 0
    outer loop
       vertex 0.301944 -0.23097 0
       vertex 0.301944 -0.23097 0.1
       vertex 0.270978 -0.241481 0.1
    endloop
  endfacet
  facet normal 0.321425 -0.946935 0
    outer loop
       vertex 0.270978 -0.241481 0.1
       vertex 0.270978 -0.241481 0
       vertex 0.301944 -0.23097 0
    endloop
  endfacet
  facet normal 0.195096 -0.980784 0
    outer loop
       vertex 0.270978 -0.241481 0
       vertex 0.270978 -0.241481 0.1
       vertex 0.238905 -0.247861 0.1
    endloop
  endfacet
  facet normal 0.195096 -0.980784 0
    outer loop
       vertex 0.238905 -0.247861 0.1
       vertex 0.238905 -0.247861 0
       vertex 0.270978 -0.241481 0
    endloop
  endfacet
  facet normal 0.0654098 -0.997858 0
    outer loop
       vertex 0.206273 -0.25 0
       vertex 0.238905 -0.247861 0
       vertex 0.238905 -0.247861 0.1
    endloop
  endfacet
  facet normal 0.0654098 -0.997858 1.0893e-16
    outer loop
       vertex 0.238905 -0.247861 0.1
       vertex 0.206273 -0.25 0.1
       vertex 0.206273 -0.25 0
    endloop
  endfacet
  facet normal -0.0654098 -0.997858 0
    outer loop
       vertex 0.206273 -0.25 0.1
       vertex 0.173642 -0.247861 0.1
       vertex 0.173642 -0.247861 0
    endloop
  endfacet
  facet normal -0.0654098 -0.997858 -1.0893e-16
    outer loop
       vertex 0.173642 -0.247861 0
       vertex 0.206273 -0.25 0
       vertex 0.206273 -0.25 0.1
    endloop
  endfacet
  facet normal -0.195096 -0.980784 0
    outer loop
       vertex 0.173642 -0.247861 0
       vertex 0.173642 -0.247861 0.1
       vertex 0.141568 -0.241481 0.1
    endloop
  endfacet
  facet normal -0.195096 -0.980784 -0
    outer loop
       vertex 0.141568 -0.241481 0.1
       vertex 0.141568 -0.241481 0
       vertex 0.173642 -0.247861 0
    endloop
  endfacet
  facet normal -0.321425 -0.946935 0
    outer loop
       vertex 0.141568 -0.241481 0
       vertex 0.141568 -0.241481 0.1
       vertex 0.110602 -0.23097 0.1
    endloop
  endfacet
  facet normal -0.321425 -0.946935 -0
    outer loop
       vertex 0.110602 -0.23097 0.1
       vertex 0.110602 -0.23097 0
       vertex 0.141568 -0.241481 0
    endloop
  endfacet
  facet normal -0.442302 -0.896866 0
    outer loop
       vertex 0.110602 -0.23097 0
       vertex 0.110602 -0.23097 0.1
       vertex 0.0812733 -0.216506 0.1
    endloop
  endfacet
  facet normal -0.442302 -0.896866 -0
    outer loop
       vertex 0.0812733 -0.216506 0.1
       vertex 0.0812733 -0.216506 0
       vertex 0.110602 -0.23097 0
    endloop
  endfacet
  facet normal -0.555561 -0.831476 0
    outer loop
       vertex 0.0812733 -0.216506 0
       vertex 0.0812733 -0.216506 0.1
       vertex 0.0540823 -0.198338 0.1
    endloop
  endfacet
  facet normal -0.555561 -0.831476 -0
    outer loop
       vertex 0.0540823 -0.198338 0.1
       vertex 0.0540823 -0.198338 0
       vertex 0.0812733 -0.216506 0
    endloop
  endfacet
  facet normal -0.659372 -0.751817 0
    outer loop
       vertex 0.0540823 -0.198338 0
       vertex 0.0540823 -0.198338 0.1
       vertex 0.0294973 -0.176776 0.1
    endloop
  endfacet
  facet normal -0.659372 -0.751817 -0
    outer loop
       vertex 0.0294973 -0.176776 0.1
       vertex 0.0294973 -0.176776 0
       vertex 0.0540823 -0.198338 0
    endloop
  endfacet
endsolid cylinder
