solid cylinder
  facet normal 0.751817 -0.659372 0
    outer loop
       vertex 0.239511 -0.176776 0
       vertex 0.261073 -0.152191 0
       vertex 0.261073 -0.152191 0.1
    endloop
  endfacet
  facet normal 0.751817 -0.659372 0
    outer loop
       vertex 0.261073 -0.152191 0.1
       vertex 0.239511 -0.176776 0.1
       vertex 0.239511 -0.176776 0
    endloop
  endfacet
  facet normal 0.831476 -0.555561 0
    outer loop
       vertex 0.261073 -0.152191 0
       vertex 0.279241 -0.125 0
       vertex 0.279241 -0.125 0.1
    endloop
  endfacet
  facet normal 0.831476 -0.555561 0
    outer loop
       vertex 0.279241 -0.125 0.1
       vertex 0.261073 -0.152191 0.1
       vertex 0.261073 -0.152191 0
    endloop
  endfacet
  facet normal 0.896866 -0.442302 0
    outer loop
       vertex 0.279241 -0.125 0
       vertex 0.293705 -0.095671 0
       vertex 0.293705 -0.095671 0.1
    endloop
  endfacet
  facet normal 0.896866 -0.442302 0
    outer loop
       vertex 0.293705 -0.095671 0.1
       vertex 0.279241 -0.125 0.1
       vertex 0.279241 -0.125 0
    endloop
  endfacet
  facet normal 0.946935 -0.321425 0
    outer loop
       vertex 0.293705 -0.095671 0
       vertex 0.304216 -0.064705 0
       vertex 0.304216 -0.064705 0.1
    endloop
  endfacet
  facet normal 0.946935 -0.321425 0
    outer loop
       vertex 0.304216 -0.064705 0.1
       vertex 0.293705 -0.095671 0.1
       vertex 0.293705 -0.095671 0
    endloop
  endfacet
  facet normal 0.980784 -0.195096 0
    outer loop
       vertex 0.304216 -0.064705 0
       vertex 0.310596 -0.0326315 0
       vertex 0.310596 -0.0326315 0.1
    endloop
  endfacet
  facet normal 0.980784 -0.195096 0
    outer loop
       vertex 0.310596 -0.0326315 0.1
       vertex 0.304216 -0.064705 0.1
       vertex 0.304216 -0.064705 0
    endloop
  endfacet
  facet normal 0.997858 -0.0654098 0
    outer loop
       vertex 0.312735 -8.32665e-17 0.1
       vertex 0.310596 -0.0326315 0.1
       vertex 0.310596 -0.0326315 0
    endloop
  endfacet
  facet normal 0.997858 -0.0654098 -1.08928e-16
    outer loop
       vertex 0.310596 -0.0326315 0
       vertex 0.312735 8.32665e-17 0
       vertex 0.312735 -8.32665e-17 0.1
    endloop
  endfacet
  facet normal 0.997858 0.0654098 0
    outer loop
       vertex 0.312735 8.32665e-17 0
       vertex 0.310596 0.0326315 0
       vertex 0.310596 0.0326315 0.1
    endloop
  endfacet
  facet normal 0.997858 0.0654098 1.08928e-16
    outer loop
       vertex 0.310596 0.0326315 0.1
       vertex 0.312735 -8.32665e-17 0.1
       vertex 0.312735 8.32665e-17 0
    endloop
  endfacet
  facet normal 0.980784 0.195096 0
    outer loop
       vertex 0.310596 0.0326315 0
       vertex 0.304216 0.064705 0
       vertex 0.304216 0.064705 0.1
    endloop
  endfacet
  facet normal 0.980784 0.195096 0
    outer loop
       vertex 0.304216 0.064705 0.1
       vertex 0.310596 0.0326315 0.1
       vertex 0.310596 0.0326315 0
    endloop
  endfacet
  facet normal 0.946935 0.321425 0
    outer loop
       vertex 0.304216 0.064705 0
       vertex 0.293705 0.095671 0
       vertex 0.293705 0.095671 0.1
    endloop
  endfacet
  facet normal 0.946935 0.321425 0
    outer loop
       vertex 0.293705 0.095671 0.1
       vertex 0.304216 0.064705 0.1
       vertex 0.304216 0.064705 0
    endloop
  endfacet
  facet normal 0.896866 0.442302 0
    outer loop
       vertex 0.293705 0.095671 0
       vertex 0.279241 0.125 0
       vertex 0.279241 0.125 0.1
    endloop
  endfacet
  facet normal 0.896866 0.442302 0
    outer loop
       vertex 0.279241 0.125 0.1
       vertex 0.293705 0.095671 0.1
       vertex 0.293705 0.095671 0
    endloop
  endfacet
  facet normal 0.831476 0.555561 0
    outer loop
       vertex 0.279241 0.125 0
       vertex 0.261073 0.152191 0
       vertex 0.261073 0.152191 0.1
    endloop
  endfacet
  facet normal 0.831476 0.555561 0
    outer loop
       vertex 0.261073 0.152191 0.1
       vertex 0.279241 0.125 0.1
       vertex 0.279241 0.125 0
    endloop
  endfacet
  facet normal 0.751817 0.659372 0
    outer loop
       vertex 0.261073 0.152191 0
       vertex 0.239511 0.176776 0
       vertex 0.239511 0.176776 0.1
    endloop
  endfacet
  facet normal 0.751817 0.659372 0
    outer loop
       vertex 0.239511 0.176776 0.1
       vertex 0.261073 0.152191 0.1
       vertex 0.261073 0.152191 0
    endloop
  endfacet
  facet normal 0.659372 0.751817 0
    outer loop
       vertex 0.239511 0.176776 0
       vertex 0.214926 0.198338 0
       vertex 0.214926 0.198338 0.1
    endloop
  endfacet
  facet normal 0.659372 0.751817 0
    outer loop
       vertex 0.214926 0.198338 0.1
       vertex 0.239511 0.176776 0.1
       vertex 0.239511 0.176776 0
    endloop
  endfacet
  facet normal 0.555561 0.831476 0
    outer loop
       vertex 0.214926 0.198338 0
       vertex 0.187735 0.216506 0
       vertex 0.187735 0.216506 0.1
    endloop
  endfacet
  facet normal 0.555561 0.831476 0
    outer loop
       vertex 0.187735 0.216506 0.1
       vertex 0.214926 0.198338 0.1
       vertex 0.214926 0.198338 0
    endloop
  endfacet
  facet normal 0.442302 0.896866 0
    outer loop
       vertex 0.187735 0.216506 0
       vertex 0.158406 0.23097 0
       vertex 0.158406 0.23097 0.1
    endloop
  endfacet
  facet normal 0.442302 0.896866 0
    outer loop
       vertex 0.158406 0.23097 0.1
       vertex 0.187735 0.216506 0.1
       vertex 0.187735 0.216506 0
    endloop
  endfacet
  facet normal 0.321425 0.946935 0
    outer loop
       vertex 0.158406 0.23097 0
       vertex 0.12744 0.241481 0
       vertex 0.12744 0.241481 0.1
    endloop
  endfacet
  facet normal 0.321425 0.946935 0
    outer loop
       vertex 0.12744 0.241481 0.1
       vertex 0.158406 0.23097 0.1
       vertex 0.158406 0.23097 0
    endloop
  endfacet
  facet normal 0.195096 0.980784 0
    outer loop
       vertex 0.12744 0.241481 0
       vertex 0.0953667 0.247861 0
       vertex 0.0953667 0.247861 0.1
    endloop
  endfacet
  facet normal 0.195096 0.980784 0
    outer loop
       vertex 0.0953667 0.247861 0.1
       vertex 0.12744 0.241481 0.1
       vertex 0.12744 0.241481 0
    endloop
  endfacet
  facet normal 0.0654098 0.997858 0
    outer loop
       vertex 0.0627352 0.25 0.1
       vertex 0.0953667 0.247861 0.1
       vertex 0.0953667 0.247861 0
    endloop
  endfacet
  facet normal 0.0654098 0.997858 -1.08928e-16
    outer loop
       vertex 0.0953667 0.247861 0
       vertex 0.0627352 0.25 0
       vertex 0.0627352 0.25 0.1
    endloop
  endfacet
  facet normal -0.0654098 0.997858 0
    outer loop
       vertex 0.0627352 0.25 0
       vertex 0.0301037 0.247861 0
       vertex 0.0301037 0.247861 0.1
    endloop
  endfacet
  facet normal -0.0654098 0.997858 1.08928e-16
    outer loop
       vertex 0.0301037 0.247861 0.1
       vertex 0.0627352 0.25 0.1
       vertex 0.0627352 0.25 0
    endloop
  endfacet
  facet normal -0.195096 0.980784 0
    outer loop
       vertex 0.0301037 0.247861 0
       vertex -0.00196975 0.241481 0
       vertex -0.00196975 0.241481 0.1
    endloop
  endfacet
  facet normal -0.195096 0.980784 0
    outer loop
       vertex -0.00196975 0.241481 0.1
       vertex 0.0301037 0.247861 0.1
       vertex 0.0301037 0.247861 0
    endloop
  endfacet
  facet normal -0.321425 0.946935 0
    outer loop
       vertex -0.00196975 0.241481 0
       vertex -0.0329358 0.23097 0
       vertex -0.0329358 0.23097 0.1
    endloop
  endfacet
  facet normal -0.321425 0.946935 0
    outer loop
       vertex -0.0329358 0.23097 0.1
       vertex -0.00196975 0.241481 0.1
       vertex -0.00196975 0.241481 0
    endloop
  endfacet
  facet normal -0.442302 0.896866 0
    outer loop
       vertex -0.0329358 0.23097 0
       vertex -0.0622648 0.216506 0
       vertex -0.0622648 0.216506 0.1
    endloop
  endfacet
  facet normal -0.442302 0.896866 0
    outer loop
       vertex -0.0622648 0.216506 0.1
       vertex -0.0329358 0.23097 0.1
       vertex -0.0329358 0.23097 0
    endloop
  endfacet
  facet normal -0.555561 0.831476 0
    outer loop
       vertex -0.0622648 0.216506 0
       vertex -0.0894558 0.198338 0
       vertex -0.0894558 0.198338 0.1
    endloop
  endfacet
  facet normal -0.555561 0.831476 0
    outer loop
       vertex -0.0894558 0.198338 0.1
       vertex -0.0622648 0.216506 0.1
       vertex -0.0622648 0.216506 0
    endloop
  endfacet
  facet normal -0.659372 0.751817 0
    outer loop
       vertex -0.0894558 0.198338 0
       vertex -0.114041 0.176776 0
       vertex -0.114041 0.176776 0.1
    endloop
  endfacet
  facet normal -0.659372 0.751817 0
    outer loop
       vertex -0.114041 0.176776 0.1
       vertex -0.0894558 0.198338 0.1
       vertex -0.0894558 0.198338 0
    endloop
  endfacet
  facet normal -0.751817 0.659372 0
    outer loop
       vertex -0.114041 0.176776 0
       vertex -0.135603 0.152191 0
       vertex -0.135603 0.152191 0.1
    endloop
  endfacet
  facet normal -0.751817 0.659372 0
    outer loop
       vertex -0.135603 0.152191 0.1
       vertex -0.114041 0.176776 0.1
       vertex -0.114041 0.176776 0
    endloop
  endfacet
  facet normal -0.831476 0.555561 0
    outer loop
       vertex -0.135603 0.152191 0
       vertex -0.153771 0.125 0
       vertex -0.153771 0.125 0.1
    endloop
  endfacet
  facet normal -0.831476 0.555561 0
    outer loop
       vertex -0.153771 0.125 0.1
       vertex -0.135603 0.152191 0.1
       vertex -0.135603 0.152191 0
    endloop
  endfacet
  facet normal -0.896866 0.442302 0
    outer loop
       vertex -0.153771 0.125 0
       vertex -0.168235 0.095671 0
       vertex -0.168235 0.095671 0.1
    endloop
  endfacet
  facet normal -0.896866 0.442302 0
    outer loop
       vertex -0.168235 0.095671 0.1
       vertex -0.153771 0.125 0.1
       vertex -0.153771 0.125 0
    endloop
  endfacet
  facet normal -0.946935 0.321425 0
    outer loop
       vertex -0.168235 0.095671 0
       vertex -0.178746 0.064705 0
       vertex -0.178746 0.064705 0.1
    endloop
  endfacet
  facet normal -0.946935 0.321425 0
    outer loop
       vertex -0.178746 0.064705 0.1
       vertex -0.168235 0.095671 0.1
       vertex -0.168235 0.095671 0
    endloop
  endfacet
  facet normal -0.980784 0.195096 0
    outer loop
       vertex -0.178746 0.064705 0
       vertex -0.185126 0.0326315 0
       vertex -0.185126 0.0326315 0.1
    endloop
  endfacet
  facet normal -0.980784 0.195096 0
    outer loop
       vertex -0.185126 0.0326315 0.1
       vertex -0.178746 0.064705 0.1
       vertex -0.178746 0.064705 0
    endloop
  endfacet
  facet normal -0.997858 0.0654098 0
    outer loop
       vertex -0.187265 8.32665e-17 0.1
       vertex -0.185126 0.0326315 0.1
       vertex -0.185126 0.0326315 0
    endloop
  endfacet
  facet normal -0.997858 0.0654098 -1.08928e-16
    outer loop
       vertex -0.185126 0.0326315 0
       vertex -0.187265 -8.32665e-17 0
       vertex -0.187265 8.32665e-17 0.1
    endloop
  endfacet
  facet normal -0.997858 -0.0654098 0
    outer loop
       vertex -0.187265 -8.32665e-17 0
       vertex -0.185126 -0.0326315 0
       vertex -0.185126 -0.0326315 0.1
    endloop
  endfacet
  facet normal -0.997858 -0.0654098 1.08928e-16
    outer loop
       vertex -0.185126 -0.0326315 0.1
       vertex -0.187265 8.32665e-17 0.1
       vertex -0.187265 -8.32665e-17 0
    endloop
  endfacet
  facet normal -0.980784 -0.195096 0
    outer loop
       vertex -0.185126 -0.0326315 0
       vertex -0.178746 -0.064705 0
       vertex -0.178746 -0.064705 0.1
    endloop
  endfacet
  facet normal -0.980784 -0.195096 0
    outer loop
       vertex -0.178746 -0.064705 0.1
       vertex -0.185126 -0.0326315 0.1
       vertex -0.185126 -0.0326315 0
    endloop
  endfacet
  facet normal -0.946935 -0.321425 0
    outer loop
       vertex -0.178746 -0.064705 0
       vertex -0.168235 -0.095671 0
       vertex -0.168235 -0.095671 0.1
    endloop
  endfacet
  facet normal -0.946935 -0.321425 0
    outer loop
       vertex -0.168235 -0.095671 0.1
       vertex -0.178746 -0.064705 0.1
       vertex -0.178746 -0.064705 0
    endloop
  endfacet
  facet normal -0.896866 -0.442302 0
    outer loop
       vertex -0.168235 -0.095671 0
       vertex -0.153771 -0.125 0
       vertex -0.153771 -0.125 0.1
    endloop
  endfacet
  facet normal -0.896866 -0.442302 0
    outer loop
       vertex -0.153771 -0.125 0.1
       vertex -0.168235 -0.095671 0.1
       vertex -0.168235 -0.095671 0
    endloop
  endfacet
  facet normal -0.831476 -0.555561 0
    outer loop
       vertex -0.153771 -0.125 0
       vertex -0.135603 -0.152191 0
       vertex -0.135603 -0.152191 0.1
    endloop
  endfacet
  facet normal -0.831476 -0.555561 0
    outer loop
       vertex -0.135603 -0.152191 0.1
       vertex -0.153771 -0.125 0.1
       vertex -0.153771 -0.125 0
    endloop
  endfacet
  facet normal -0.751817 -0.659372 0
    outer loop
       vertex -0.135603 -0.152191 0
       vertex -0.114041 -0.176776 0
       vertex -0.114041 -0.176776 0.1
    endloop
  endfacet
  facet normal -0.751817 -0.659372 0
    outer loop
       vertex -0.114041 -0.176776 0.1
       vertex -0.135603 -0.152191 0.1
       vertex -0.135603 -0.152191 0
    endloop
  endfacet
  facet normal 0.659372 -0.751817 0
    outer loop
       vertex 0.239511 -0.176776 0
       vertex 0.239511 -0.176776 0.1
       vertex 0.214926 -0.198338 0.1
    endloop
  endfacet
  facet normal 0.659372 -0.751817 0
    outer loop
       vertex 0.214926 -0.198338 0.1
       vertex 0.214926 -0.198338 0
       vertex 0.239511 -0.176776 0
    endloop
  endfacet
  facet normal 0.555561 -0.831476 0
    outer loop
       vertex 0.214926 -0.198338 0
       vertex 0.214926 -0.198338 0.1
       vertex 0.187735 -0.216506 0.1
    endloop
  endfacet
  facet normal 0.555561 -0.831476 0
    outer loop
       vertex 0.187735 -0.216506 0.1
       vertex 0.187735 -0.216506 0
       vertex 0.214926 -0.198338 0
    endloop
  endfacet
  facet normal 0.442302 -0.896866 0
    outer loop
       vertex 0.187735 -0.216506 0
       vertex 0.187735 -0.216506 0.1
       vertex 0.158406 -0.23097 0.1
    endloop
  endfacet
  facet normal 0.442302 -0.896866 0
    outer loop
       vertex 0.158406 -0.23097 0.1
       vertex 0.158406 -0.23097 0
       vertex 0.187735 -0.216506 0
    endloop
  endfacet
  facet normal 0.321425 -0.946935 0
    outer loop
       vertex 0.158406 -0.23097 0
       vertex 0.158406 -0.23097 0.1
       vertex 0.12744 -0.241481 0.1
    endloop
  endfacet
  facet normal 0.321425 -0.946935 0
    outer loop
       vertex 0.12744 -0.241481 0.1
       vertex 0.12744 -0.241481 0
       vertex 0.158406 -0.23097 0
    endloop
  endfacet
  facet normal 0.195096 -0.980784 0
    outer loop
       vertex 0.12744 -0.241481 0
       vertex 0.12744 -0.241481 0.1
       vertex 0.0953667 -0.247861 0.1
    endloop
  endfacet
  facet normal 0.195096 -0.980784 0
    outer loop
       vertex 0.0953667 -0.247861 0.1
       vertex 0.0953667 -0.247861 0
       vertex 0.12744 -0.241481 0
    endloop
  endfacet
  facet normal 0.0654098 -0.997858 0
    outer loop
       vertex 0.0627352 -0.25 0
       vertex 0.0953667 -0.247861 0
       vertex 0.0953667 -0.247861 0.1
    endloop
  endfacet
  facet normal 0.0654098 -0.997858 1.08928e-16
    outer loop
       vertex 0.0953667 -0.247861 0.1
       vertex 0.0627352 -0.25 0.1
       vertex 0.0627352 -0.25 0
    endloop
  endfacet
  facet normal -0.0654098 -0.997858 0
    outer loop
       vertex 0.0627352 -0.25 0.1
       vertex 0.0301037 -0.247861 0.1
       vertex 0.0301037 -0.247861 0
    endloop
  endfacet
  facet normal -0.0654098 -0.997858 -1.08928e-16
    outer loop
       vertex 0.0301037 -0.247861 0
       vertex 0.0627352 -0.25 0
       vertex 0.0627352 -0.25 0.1
    endloop
  endfacet
  facet normal -0.195096 -0.980784 0
    outer loop
       vertex 0.0301037 -0.247861 0
       vertex 0.0301037 -0.247861 0.1
       vertex -0.00196975 -0.241481 0.1
    endloop
  endfacet
  facet normal -0.195096 -0.980784 -0
    outer loop
       vertex -0.00196975 -0.241481 0.1
       vertex -0.00196975 -0.241481 0
       vertex 0.0301037 -0.247861 0
    endloop
  endfacet
  facet normal -0.321425 -0.946935 0
    outer loop
       vertex -0.00196975 -0.241481 0
       vertex -0.00196975 -0.241481 0.1
       vertex -0.0329358 -0.23097 0.1
    endloop
  endfacet
  facet normal -0.321425 -0.946935 -0
    outer loop
       vertex -0.0329358 -0.23097 0.1
       vertex -0.0329358 -0.23097 0
       vertex -0.00196975 -0.241481 0
    endloop
  endfacet
  facet normal -0.442302 -0.896866 0
    outer loop
       vertex -0.0329358 -0.23097 0
       vertex -0.0329358 -0.23097 0.1
       vertex -0.0622648 -0.216506 0.1
    endloop
  endfacet
  facet normal -0.442302 -0.896866 -0
    outer loop
       vertex -0.0622648 -0.216506 0.1
       vertex -0.0622648 -0.216506 0
       vertex -0.0329358 -0.23097 0
    endloop
  endfacet
  facet normal -0.555561 -0.831476 0
    outer loop
       vertex -0.0622648 -0.216506 0
       vertex -0.0622648 -0.216506 0.1
       vertex -0.0894558 -0.198338 0.1
    endloop
  endfacet
  facet normal -0.555561 -0.831476 -0
    outer loop
       vertex -0.0894558 -0.198338 0.1
       vertex -0.0894558 -0.198338 0
       vertex -0.0622648 -0.216506 0
    endloop
  endfacet
  facet normal -0.659372 -0.751817 0
    outer loop
       vertex -0.0894558 -0.198338 0
       vertex -0.0894558 -0.198338 0.1
       vertex -0.114041 -0.176776 0.1
    endloop
  endfacet
  facet normal -0.659372 -0.751817 -0
    outer loop
       vertex -0.114041 -0.176776 0.1
       vertex -0.114041 -0.176776 0
       vertex -0.0894558 -0.198338 0
    endloop
  endfacet
endsolid cylinder
