solid cylinder
  facet normal 0.751817 -0.659372 0
    outer loop
       vertex -0.0893189 -0.176776 0
       vertex -0.0677569 -0.152191 0
       vertex -0.0677569 -0.152191 0.1
    endloop
  endfacet
  facet normal 0.751817 -0.659372 0
    outer loop
       vertex -0.0677569 -0.152191 0.1
       vertex -0.0893189 -0.176776 0.1
       vertex -0.0893189 -0.176776 0
    endloop
  endfacet
  facet normal 0.831476 -0.555561 0
    outer loop
       vertex -0.0677569 -0.152191 0
       vertex -0.0495889 -0.125 0
       vertex -0.0495889 -0.125 0.1
    endloop
  endfacet
  facet normal 0.831476 -0.555561 0
    outer loop
       vertex -0.0495889 -0.125 0.1
       vertex -0.0677569 -0.152191 0.1
       vertex -0.0677569 -0.152191 0
    endloop
  endfacet
  facet normal 0.896866 -0.442302 0
    outer loop
       vertex -0.0495889 -0.125 0
       vertex -0.0351249 -0.095671 0
       vertex -0.0351249 -0.095671 0.1
    endloop
  endfacet
  facet normal 0.896866 -0.442302 0
    outer loop
       vertex -0.0351249 -0.095671 0.1
       vertex -0.0495889 -0.125 0.1
       vertex -0.0495889 -0.125 0
    endloop
  endfacet
  facet normal 0.946935 -0.321425 0
    outer loop
       vertex -0.0351249 -0.095671 0
       vertex -0.0246139 -0.064705 0
       vertex -0.0246139 -0.064705 0.1
    endloop
  endfacet
  facet normal 0.946935 -0.321425 0
    outer loop
       vertex -0.0246139 -0.064705 0.1
       vertex -0.0351249 -0.095671 0.1
       vertex -0.0351249 -0.095671 0
    endloop
  endfacet
  facet normal 0.980784 -0.195096 0
    outer loop
       vertex -0.0246139 -0.064705 0
       vertex -0.0182339 -0.0326315 0
       vertex -0.0182339 -0.0326315 0.1
    endloop
  endfacet
  facet normal 0.980784 -0.195096 0
    outer loop
       vertex -0.0182339 -0.0326315 0.1
       vertex -0.0246139 -0.064705 0.1
       vertex -0.0246139 -0.064705 0
    endloop
  endfacet
  facet normal 0.997858 -0.0654098 0
    outer loop
       vertex -0.0160949 -8.32665e-17 0.1
       vertex -0.0182339 -0.0326315 0.1
       vertex -0.0182339 -0.0326315 0
    endloop
  endfacet
  facet normal 0.997858 -0.0654098 -1.08928e-16
    outer loop
       vertex -0.0182339 -0.0326315 0
       vertex -0.0160949 8.32665e-17 0
       vertex -0.0160949 -8.32665e-17 0.1
    endloop
  endfacet
  facet normal 0.997858 0.0654098 0
    outer loop
       vertex -0.0160949 8.32665e-17 0
       vertex -0.0182339 0.0326315 0
       vertex -0.0182339 0.0326315 0.1
    endloop
  endfacet
  facet normal 0.997858 0.0654098 1.08928e-16
    outer loop
       vertex -0.0182339 0.0326315 0.1
       vertex -0.0160949 -8.32665e-17 0.1
       vertex -0.0160949 8.32665e-17 0
    endloop
  endfacet
  facet normal 0.980784 0.195096 0
    outer loop
       vertex -0.0182339 0.0326315 0
       vertex -0.0246139 0.064705 0
       vertex -0.0246139 0.064705 0.1
    endloop
  endfacet
  facet normal 0.980784 0.195096 0
    outer loop
       vertex -0.0246139 0.064705 0.1
       vertex -0.0182339 0.0326315 0.1
       vertex -0.0182339 0.0326315 0
    endloop
  endfacet
  facet normal 0.946935 0.321425 0
    outer loop
       vertex -0.0246139 0.064705 0
       vertex -0.0351249 0.095671 0
       vertex -0.0351249 0.095671 0.1
    endloop
  endfacet
  facet normal 0.946935 0.321425 0
    outer loop
       vertex -0.0351249 0.095671 0.1
       vertex -0.0246139 0.064705 0.1
       vertex -0.0246139 0.064705 0
    endloop
  endfacet
  facet normal 0.896866 0.442302 0
    outer loop
       vertex -0.0351249 0.095671 0
       vertex -0.0495889 0.125 0
       vertex -0.0495889 0.125 0.1
    endloop
  endfacet
  facet normal 0.896866 0.442302 0
    outer loop
       vertex -0.0495889 0.125 0.1
       vertex -0.0351249 0.095671 0.1
       vertex -0.0351249 0.095671 0
    endloop
  endfacet
  facet normal 0.831476 0.555561 0
    outer loop
       vertex -0.0495889 0.125 0
       vertex -0.0677569 0.152191 0
       vertex -0.0677569 0.152191 0.1
    endloop
  endfacet
  facet normal 0.831476 0.555561 0
    outer loop
       vertex -0.0677569 0.152191 0.1
       vertex -0.0495889 0.125 0.1
       vertex -0.0495889 0.125 0
    endloop
  endfacet
  facet normal 0.751817 0.659372 0
    outer loop
       vertex -0.0677569 0.152191 0
       vertex -0.0893189 0.176776 0
       vertex -0.0893189 0.176776 0.1
    endloop
  endfacet
  facet normal 0.751817 0.659372 0
    outer loop
       vertex -0.0893189 0.176776 0.1
       vertex -0.0677569 0.152191 0.1
       vertex -0.0677569 0.152191 0
    endloop
  endfacet
  facet normal 0.659372 0.751817 0
    outer loop
       vertex -0.0893189 0.176776 0
       vertex -0.113904 0.198338 0
       vertex -0.113904 0.198338 0.1
    endloop
  endfacet
  facet normal 0.659372 0.751817 0
    outer loop
       vertex -0.113904 0.198338 0.1
       vertex -0.0893189 0.176776 0.1
       vertex -0.0893189 0.176776 0
    endloop
  endfacet
  facet normal 0.555561 0.831476 0
    outer loop
       vertex -0.113904 0.198338 0
       vertex -0.141095 0.216506 0
       vertex -0.141095 0.216506 0.1
    endloop
  endfacet
  facet normal 0.555561 0.831476 0
    outer loop
       vertex -0.141095 0.216506 0.1
       vertex -0.113904 0.198338 0.1
       vertex -0.113904 0.198338 0
    endloop
  endfacet
  facet normal 0.442302 0.896866 0
    outer loop
       vertex -0.141095 0.216506 0
       vertex -0.170424 0.23097 0
       vertex -0.170424 0.23097 0.1
    endloop
  endfacet
  facet normal 0.442302 0.896866 0
    outer loop
       vertex -0.170424 0.23097 0.1
       vertex -0.141095 0.216506 0.1
       vertex -0.141095 0.216506 0
    endloop
  endfacet
  facet normal 0.321425 0.946935 0
    outer loop
       vertex -0.170424 0.23097 0
       vertex -0.20139 0.241481 0
       vertex -0.20139 0.241481 0.1
    endloop
  endfacet
  facet normal 0.321425 0.946935 0
    outer loop
       vertex -0.20139 0.241481 0.1
       vertex -0.170424 0.23097 0.1
       vertex -0.170424 0.23097 0
    endloop
  endfacet
  facet normal 0.195096 0.980784 0
    outer loop
       vertex -0.20139 0.241481 0
       vertex -0.233463 0.247861 0
       vertex -0.233463 0.247861 0.1
    endloop
  endfacet
  facet normal 0.195096 0.980784 0
    outer loop
       vertex -0.233463 0.247861 0.1
       vertex -0.20139 0.241481 0.1
       vertex -0.20139 0.241481 0
    endloop
  endfacet
  facet normal 0.0654098 0.997858 0
    outer loop
       vertex -0.266095 0.25 0.1
       vertex -0.233463 0.247861 0.1
       vertex -0.233463 0.247861 0
    endloop
  endfacet
  facet normal 0.0654098 0.997858 -7.26205e-17
    outer loop
       vertex -0.233463 0.247861 0
       vertex -0.266095 0.25 0
       vertex -0.266095 0.25 0.1
    endloop
  endfacet
  facet normal -0.0654098 0.997858 0
    outer loop
       vertex -0.266095 0.25 0
       vertex -0.298726 0.247861 0
       vertex -0.298726 0.247861 0.1
    endloop
  endfacet
  facet normal -0.0654098 0.997858 7.26205e-17
    outer loop
       vertex -0.298726 0.247861 0.1
       vertex -0.266095 0.25 0.1
       vertex -0.266095 0.25 0
    endloop
  endfacet
  facet normal -0.195096 0.980784 0
    outer loop
       vertex -0.298726 0.247861 0
       vertex -0.3308 0.241481 0
       vertex -0.3308 0.241481 0.1
    endloop
  endfacet
  facet normal -0.195096 0.980784 0
    outer loop
       vertex -0.3308 0.241481 0.1
       vertex -0.298726 0.247861 0.1
       vertex -0.298726 0.247861 0
    endloop
  endfacet
  facet normal -0.321425 0.946935 0
    outer loop
       vertex -0.3308 0.241481 0
       vertex -0.361766 0.23097 0
       vertex -0.361766 0.23097 0.1
    endloop
  endfacet
  facet normal -0.321425 0.946935 0
    outer loop
       vertex -0.361766 0.23097 0.1
       vertex -0.3308 0.241481 0.1
       vertex -0.3308 0.241481 0
    endloop
  endfacet
  facet normal -0.442302 0.896866 0
    outer loop
       vertex -0.361766 0.23097 0
       vertex -0.391095 0.216506 0
       vertex -0.391095 0.216506 0.1
    endloop
  endfacet
  facet normal -0.442302 0.896866 0
    outer loop
       vertex -0.391095 0.216506 0.1
       vertex -0.361766 0.23097 0.1
       vertex -0.361766 0.23097 0
    endloop
  endfacet
  facet normal -0.555561 0.831476 0
    outer loop
       vertex -0.391095 0.216506 0
       vertex -0.418286 0.198338 0
       vertex -0.418286 0.198338 0.1
    endloop
  endfacet
  facet normal -0.555561 0.831476 0
    outer loop
       vertex -0.418286 0.198338 0.1
       vertex -0.391095 0.216506 0.1
       vertex -0.391095 0.216506 0
    endloop
  endfacet
  facet normal -0.659372 0.751817 0
    outer loop
       vertex -0.418286 0.198338 0
       vertex -0.442871 0.176776 0
       vertex -0.442871 0.176776 0.1
    endloop
  endfacet
  facet normal -0.659372 0.751817 0
    outer loop
       vertex -0.442871 0.176776 0.1
       vertex -0.418286 0.198338 0.1
       vertex -0.418286 0.198338 0
    endloop
  endfacet
  facet normal -0.751817 0.659372 0
    outer loop
       vertex -0.442871 0.176776 0
       vertex -0.464433 0.152191 0
       vertex -0.464433 0.152191 0.1
    endloop
  endfacet
  facet normal -0.751817 0.659372 0
    outer loop
       vertex -0.464433 0.152191 0.1
       vertex -0.442871 0.176776 0.1
       vertex -0.442871 0.176776 0
    endloop
  endfacet
  facet normal -0.831476 0.555561 0
    outer loop
       vertex -0.464433 0.152191 0
       vertex -0.482601 0.125 0
       vertex -0.482601 0.125 0.1
    endloop
  endfacet
  facet normal -0.831476 0.555561 0
    outer loop
       vertex -0.482601 0.125 0.1
       vertex -0.464433 0.152191 0.1
       vertex -0.464433 0.152191 0
    endloop
  endfacet
  facet normal -0.896866 0.442302 0
    outer loop
       vertex -0.482601 0.125 0
       vertex -0.497065 0.095671 0
       vertex -0.497065 0.095671 0.1
    endloop
  endfacet
  facet normal -0.896866 0.442302 0
    outer loop
       vertex -0.497065 0.095671 0.1
       vertex -0.482601 0.125 0.1
       vertex -0.482601 0.125 0
    endloop
  endfacet
  facet normal -0.946935 0.321425 0
    outer loop
       vertex -0.497065 0.095671 0
       vertex -0.507576 0.064705 0
       vertex -0.507576 0.064705 0.1
    endloop
  endfacet
  facet normal -0.946935 0.321425 0
    outer loop
       vertex -0.507576 0.064705 0.1
       vertex -0.497065 0.095671 0.1
       vertex -0.497065 0.095671 0
    endloop
  endfacet
  facet normal -0.980784 0.195096 0
    outer loop
       vertex -0.507576 0.064705 0
       vertex -0.513956 0.0326315 0
       vertex -0.513956 0.0326315 0.1
    endloop
  endfacet
  facet normal -0.980784 0.195096 0
    outer loop
       vertex -0.513956 0.0326315 0.1
       vertex -0.507576 0.064705 0.1
       vertex -0.507576 0.064705 0
    endloop
  endfacet
  facet normal -0.997858 0.0654098 0
    outer loop
       vertex -0.516095 8.32665e-17 0.1
       vertex -0.513956 0.0326315 0.1
       vertex -0.513956 0.0326315 0
    endloop
  endfacet
  facet normal -0.997858 0.0654098 -1.0893e-16
    outer loop
       vertex -0.513956 0.0326315 0
       vertex -0.516095 -8.32665e-17 0
       vertex -0.516095 8.32665e-17 0.1
    endloop
  endfacet
  facet normal -0.997858 -0.0654098 0
    outer loop
       vertex -0.516095 -8.32665e-17 0
       vertex -0.513956 -0.0326315 0
       vertex -0.513956 -0.0326315 0.1
    endloop
  endfacet
  facet normal -0.997858 -0.0654098 1.0893e-16
    outer loop
       vertex -0.513956 -0.0326315 0.1
       vertex -0.516095 8.32665e-17 0.1
       vertex -0.516095 -8.32665e-17 0
    endloop
  endfacet
  facet normal -0.980784 -0.195096 0
    outer loop
       vertex -0.513956 -0.0326315 0
       vertex -0.507576 -0.064705 0
       vertex -0.507576 -0.064705 0.1
    endloop
  endfacet
  facet normal -0.980784 -0.195096 0
    outer loop
       vertex -0.507576 -0.064705 0.1
       vertex -0.513956 -0.0326315 0.1
       vertex -0.513956 -0.0326315 0
    endloop
  endfacet
  facet normal -0.946935 -0.321425 0
    outer loop
       vertex -0.507576 -0.064705 0
       vertex -0.497065 -0.095671 0
       vertex -0.497065 -0.095671 0.1
    endloop
  endfacet
  facet normal -0.946935 -0.321425 0
    outer loop
       vertex -0.497065 -0.095671 0.1
       vertex -0.507576 -0.064705 0.1
       vertex -0.507576 -0.064705 0
    endloop
  endfacet
  facet normal -0.896866 -0.442302 0
    outer loop
       vertex -0.497065 -0.095671 0
       vertex -0.482601 -0.125 0
       vertex -0.482601 -0.125 0.1
    endloop
  endfacet
  facet normal -0.896866 -0.442302 0
    outer loop
       vertex -0.482601 -0.125 0.1
       vertex -0.497065 -0.095671 0.1
       vertex -0.497065 -0.095671 0
    endloop
  endfacet
  facet normal -0.831476 -0.555561 0
    outer loop
       vertex -0.482601 -0.125 0
       vertex -0.464433 -0.152191 0
       vertex -0.464433 -0.152191 0.1
    endloop
  endfacet
  facet normal -0.831476 -0.555561 0
    outer loop
       vertex -0.464433 -0.152191 0.1
       vertex -0.482601 -0.125 0.1
       vertex -0.482601 -0.125 0
    endloop
  endfacet
  facet normal -0.751817 -0.659372 0
    outer loop
       vertex -0.464433 -0.152191 0
       vertex -0.442871 -0.176776 0
       vertex -0.442871 -0.176776 0.1
    endloop
  endfacet
  facet normal -0.751817 -0.659372 0
    outer loop
       vertex -0.442871 -0.176776 0.1
       vertex -0.464433 -0.152191 0.1
       vertex -0.464433 -0.152191 0
    endloop
  endfacet
  facet normal 0.659372 -0.751817 0
    outer loop
       vertex -0.0893189 -0.176776 0
       vertex -0.0893189 -0.176776 0.1
       vertex -0.113904 -0.198338 0.1
    endloop
  endfacet
  facet normal 0.659372 -0.751817 0
    outer loop
       vertex -0.113904 -0.198338 0.1
       vertex -0.113904 -0.198338 0
       vertex -0.0893189 -0.176776 0
    endloop
  endfacet
  facet normal 0.555561 -0.831476 0
    outer loop
       vertex -0.113904 -0.198338 0
       vertex -0.113904 -0.198338 0.1
       vertex -0.141095 -0.216506 0.1
    endloop
  endfacet
  facet normal 0.555561 -0.831476 0
    outer loop
       vertex -0.141095 -0.216506 0.1
       vertex -0.141095 -0.216506 0
       vertex -0.113904 -0.198338 0
    endloop
  endfacet
  facet normal 0.442302 -0.896866 0
    outer loop
       vertex -0.141095 -0.216506 0
       vertex -0.141095 -0.216506 0.1
       vertex -0.170424 -0.23097 0.1
    endloop
  endfacet
  facet normal 0.442302 -0.896866 0
    outer loop
       vertex -0.170424 -0.23097 0.1
       vertex -0.170424 -0.23097 0
       vertex -0.141095 -0.216506 0
    endloop
  endfacet
  facet normal 0.321425 -0.946935 0
    outer loop
       vertex -0.170424 -0.23097 0
       vertex -0.170424 -0.23097 0.1
       vertex -0.20139 -0.241481 0.1
    endloop
  endfacet
  facet normal 0.321425 -0.946935 0
    outer loop
       vertex -0.20139 -0.241481 0.1
       vertex -0.20139 -0.241481 0
       vertex -0.170424 -0.23097 0
    endloop
  endfacet
  facet normal 0.195096 -0.980784 0
    outer loop
       vertex -0.20139 -0.241481 0
       vertex -0.20139 -0.241481 0.1
       vertex -0.233463 -0.247861 0.1
    endloop
  endfacet
  facet normal 0.195096 -0.980784 0
    outer loop
       vertex -0.233463 -0.247861 0.1
       vertex -0.233463 -0.247861 0
       vertex -0.20139 -0.241481 0
    endloop
  endfacet
  facet normal 0.0654098 -0.997858 0
    outer loop
       vertex -0.266095 -0.25 0
       vertex -0.233463 -0.247861 0
       vertex -0.233463 -0.247861 0.1
    endloop
  endfacet
  facet normal 0.0654098 -0.997858 7.26205e-17
    outer loop
       vertex -0.233463 -0.247861 0.1
       vertex -0.266095 -0.25 0.1
       vertex -0.266095 -0.25 0
    endloop
  endfacet
  facet normal -0.0654098 -0.997858 0
    outer loop
       vertex -0.266095 -0.25 0.1
       vertex -0.298726 -0.247861 0.1
       vertex -0.298726 -0.247861 0
    endloop
  endfacet
  facet normal -0.0654098 -0.997858 -7.26205e-17
    outer loop
       vertex -0.298726 -0.247861 0
       vertex -0.266095 -0.25 0
       vertex -0.266095 -0.25 0.1
    endloop
  endfacet
  facet normal -0.195096 -0.980784 0
    outer loop
       vertex -0.298726 -0.247861 0
       vertex -0.298726 -0.247861 0.1
       vertex -0.3308 -0.241481 0.1
    endloop
  endfacet
  facet normal -0.195096 -0.980784 -0
    outer loop
       vertex -0.3308 -0.241481 0.1
       vertex -0.3308 -0.241481 0
       vertex -0.298726 -0.247861 0
    endloop
  endfacet
  facet normal -0.321425 -0.946935 0
    outer loop
       vertex -0.3308 -0.241481 0
       vertex -0.3308 -0.241481 0.1
       vertex -0.361766 -0.23097 0.1
    endloop
  endfacet
  facet normal -0.321425 -0.946935 -0
    outer loop
       vertex -0.361766 -0.23097 0.1
       vertex -0.361766 -0.23097 0
       vertex -0.3308 -0.241481 0
    endloop
  endfacet
  facet normal -0.442302 -0.896866 0
    outer loop
       vertex -0.361766 -0.23097 0
       vertex -0.361766 -0.23097 0.1
       vertex -0.391095 -0.216506 0.1
    endloop
  endfacet
  facet normal -0.442302 -0.896866 -0
    outer loop
       vertex -0.391095 -0.216506 0.1
       vertex -0.391095 -0.216506 0
       vertex -0.361766 -0.23097 0
    endloop
  endfacet
  facet normal -0.555561 -0.831476 0
    outer loop
       vertex -0.391095 -0.216506 0
       vertex -0.391095 -0.216506 0.1
       vertex -0.418286 -0.198338 0.1
    endloop
  endfacet
  facet normal -0.555561 -0.831476 -0
    outer loop
       vertex -0.418286 -0.198338 0.1
       vertex -0.418286 -0.198338 0
       vertex -0.391095 -0.216506 0
    endloop
  endfacet
  facet normal -0.659372 -0.751817 0
    outer loop
       vertex -0.418286 -0.198338 0
       vertex -0.418286 -0.198338 0.1
       vertex -0.442871 -0.176776 0.1
    endloop
  endfacet
  facet normal -0.659372 -0.751817 -0
    outer loop
       vertex -0.442871 -0.176776 0.1
       vertex -0.442871 -0.176776 0
       vertex -0.418286 -0.198338 0
    endloop
  endfacet
endsolid cylinder
