solid cylinder
  facet normal 0.751817 -0.659372 0
    outer loop
       vertex 0.451552 -0.176776 0
       vertex 0.473114 -0.152191 0
       vertex 0.473114 -0.152191 0.1
    endloop
  endfacet
  facet normal 0.751817 -0.659372 0
    outer loop
       vertex 0.473114 -0.152191 0.1
       vertex 0.451552 -0.176776 0.1
       vertex 0.451552 -0.176776 0
    endloop
  endfacet
  facet normal 0.831476 -0.555561 0
    outer loop
       vertex 0.473114 -0.152191 0
       vertex 0.491282 -0.125 0
       vertex 0.491282 -0.125 0.1
    endloop
  endfacet
  facet normal 0.831476 -0.555561 0
    outer loop
       vertex 0.491282 -0.125 0.1
       vertex 0.473114 -0.152191 0.1
       vertex 0.473114 -0.152191 0
    endloop
  endfacet
  facet normal 0.896866 -0.442302 0
    outer loop
       vertex 0.491282 -0.125 0
       vertex 0.505746 -0.095671 0
       vertex 0.505746 -0.095671 0.1
    endloop
  endfacet
  facet normal 0.896866 -0.442302 0
    outer loop
       vertex 0.505746 -0.095671 0.1
       vertex 0.491282 -0.125 0.1
       vertex 0.491282 -0.125 0
    endloop
  endfacet
  facet normal 0.946935 -0.321425 0
    outer loop
       vertex 0.505746 -0.095671 0
       vertex 0.516257 -0.064705 0
       vertex 0.516257 -0.064705 0.1
    endloop
  endfacet
  facet normal 0.946935 -0.321425 0
    outer loop
       vertex 0.516257 -0.064705 0.1
       vertex 0.505746 -0.095671 0.1
       vertex 0.505746 -0.095671 0
    endloop
  endfacet
  facet normal 0.980784 -0.195096 0
    outer loop
       vertex 0.516257 -0.064705 0
       vertex 0.522637 -0.0326315 0
       vertex 0.522637 -0.0326315 0.1
    endloop
  endfacet
  facet normal 0.980784 -0.195096 0
    outer loop
       vertex 0.522637 -0.0326315 0.1
       vertex 0.516257 -0.064705 0.1
       vertex 0.516257 -0.064705 0
    endloop
  endfacet
  facet normal 0.997858 -0.0654098 0
    outer loop
       vertex 0.524776 -8.32665e-17 0.1
       vertex 0.522637 -0.0326315 0.1
       vertex 0.522637 -0.0326315 0
    endloop
  endfacet
  facet normal 0.997858 -0.0654098 -1.08928e-16
    outer loop
       vertex 0.522637 -0.0326315 0
       vertex 0.524776 8.32665e-17 0
       vertex 0.524776 -8.32665e-17 0.1
    endloop
  endfacet
  facet normal 0.997858 0.0654098 0
    outer loop
       vertex 0.524776 8.32665e-17 0
       vertex 0.522637 0.0326315 0
       vertex 0.522637 0.0326315 0.1
    endloop
  endfacet
  facet normal 0.997858 0.0654098 1.08928e-16
    outer loop
       vertex 0.522637 0.0326315 0.1
       vertex 0.524776 -8.32665e-17 0.1
       vertex 0.524776 8.32665e-17 0
    endloop
  endfacet
  facet normal 0.980784 0.195096 0
    outer loop
       vertex 0.522637 0.0326315 0
       vertex 0.516257 0.064705 0
       vertex 0.516257 0.064705 0.1
    endloop
  endfacet
  facet normal 0.980784 0.195096 0
    outer loop
       vertex 0.516257 0.064705 0.1
       vertex 0.522637 0.0326315 0.1
       vertex 0.522637 0.0326315 0
    endloop
  endfacet
  facet normal 0.946935 0.321425 0
    outer loop
       vertex 0.516257 0.064705 0
       vertex 0.505746 0.095671 0
       vertex 0.505746 0.095671 0.1
    endloop
  endfacet
  facet normal 0.946935 0.321425 0
    outer loop
       vertex 0.505746 0.095671 0.1
       vertex 0.516257 0.064705 0.1
       vertex 0.516257 0.064705 0
    endloop
  endfacet
  facet normal 0.896866 0.442302 0
    outer loop
       vertex 0.505746 0.095671 0
       vertex 0.491282 0.125 0
       vertex 0.491282 0.125 0.1
    endloop
  endfacet
  facet normal 0.896866 0.442302 0
    outer loop
       vertex 0.491282 0.125 0.1
       vertex 0.505746 0.095671 0.1
       vertex 0.505746 0.095671 0
    endloop
  endfacet
  facet normal 0.831476 0.555561 0
    outer loop
       vertex 0.491282 0.125 0
       vertex 0.473114 0.152191 0
       vertex 0.473114 0.152191 0.1
    endloop
  endfacet
  facet normal 0.831476 0.555561 0
    outer loop
       vertex 0.473114 0.152191 0.1
       vertex 0.491282 0.125 0.1
       vertex 0.491282 0.125 0
    endloop
  endfacet
  facet normal 0.751817 0.659372 0
    outer loop
       vertex 0.473114 0.152191 0
       vertex 0.451552 0.176776 0
       vertex 0.451552 0.176776 0.1
    endloop
  endfacet
  facet normal 0.751817 0.659372 0
    outer loop
       vertex 0.451552 0.176776 0.1
       vertex 0.473114 0.152191 0.1
       vertex 0.473114 0.152191 0
    endloop
  endfacet
  facet normal 0.659372 0.751817 0
    outer loop
       vertex 0.451552 0.176776 0
       vertex 0.426967 0.198338 0
       vertex 0.426967 0.198338 0.1
    endloop
  endfacet
  facet normal 0.659372 0.751817 0
    outer loop
       vertex 0.426967 0.198338 0.1
       vertex 0.451552 0.176776 0.1
       vertex 0.451552 0.176776 0
    endloop
  endfacet
  facet normal 0.555561 0.831476 0
    outer loop
       vertex 0.426967 0.198338 0
       vertex 0.399776 0.216506 0
       vertex 0.399776 0.216506 0.1
    endloop
  endfacet
  facet normal 0.555561 0.831476 0
    outer loop
       vertex 0.399776 0.216506 0.1
       vertex 0.426967 0.198338 0.1
       vertex 0.426967 0.198338 0
    endloop
  endfacet
  facet normal 0.442302 0.896866 0
    outer loop
       vertex 0.399776 0.216506 0
       vertex 0.370447 0.23097 0
       vertex 0.370447 0.23097 0.1
    endloop
  endfacet
  facet normal 0.442302 0.896866 0
    outer loop
       vertex 0.370447 0.23097 0.1
       vertex 0.399776 0.216506 0.1
       vertex 0.399776 0.216506 0
    endloop
  endfacet
  facet normal 0.321425 0.946935 0
    outer loop
       vertex 0.370447 0.23097 0
       vertex 0.339481 0.241481 0
       vertex 0.339481 0.241481 0.1
    endloop
  endfacet
  facet normal 0.321425 0.946935 0
    outer loop
       vertex 0.339481 0.241481 0.1
       vertex 0.370447 0.23097 0.1
       vertex 0.370447 0.23097 0
    endloop
  endfacet
  facet normal 0.195096 0.980784 0
    outer loop
       vertex 0.339481 0.241481 0
       vertex 0.307407 0.247861 0
       vertex 0.307407 0.247861 0.1
    endloop
  endfacet
  facet normal 0.195096 0.980784 0
    outer loop
       vertex 0.307407 0.247861 0.1
       vertex 0.339481 0.241481 0.1
       vertex 0.339481 0.241481 0
    endloop
  endfacet
  facet normal 0.0654098 0.997858 0
    outer loop
       vertex 0.274776 0.25 0.1
       vertex 0.307407 0.247861 0.1
       vertex 0.307407 0.247861 0
    endloop
  endfacet
  facet normal 0.0654098 0.997858 -1.45239e-16
    outer loop
       vertex 0.307407 0.247861 0
       vertex 0.274776 0.25 0
       vertex 0.274776 0.25 0.1
    endloop
  endfacet
  facet normal -0.0654098 0.997858 0
    outer loop
       vertex 0.274776 0.25 0
       vertex 0.242144 0.247861 0
       vertex 0.242144 0.247861 0.1
    endloop
  endfacet
  facet normal -0.0654098 0.997858 1.45239e-16
    outer loop
       vertex 0.242144 0.247861 0.1
       vertex 0.274776 0.25 0.1
       vertex 0.274776 0.25 0
    endloop
  endfacet
  facet normal -0.195096 0.980784 0
    outer loop
       vertex 0.242144 0.247861 0
       vertex 0.210071 0.241481 0
       vertex 0.210071 0.241481 0.1
    endloop
  endfacet
  facet normal -0.195096 0.980784 0
    outer loop
       vertex 0.210071 0.241481 0.1
       vertex 0.242144 0.247861 0.1
       vertex 0.242144 0.247861 0
    endloop
  endfacet
  facet normal -0.321425 0.946935 0
    outer loop
       vertex 0.210071 0.241481 0
       vertex 0.179105 0.23097 0
       vertex 0.179105 0.23097 0.1
    endloop
  endfacet
  facet normal -0.321425 0.946935 0
    outer loop
       vertex 0.179105 0.23097 0.1
       vertex 0.210071 0.241481 0.1
       vertex 0.210071 0.241481 0
    endloop
  endfacet
  facet normal -0.442302 0.896866 0
    outer loop
       vertex 0.179105 0.23097 0
       vertex 0.149776 0.216506 0
       vertex 0.149776 0.216506 0.1
    endloop
  endfacet
  facet normal -0.442302 0.896866 0
    outer loop
       vertex 0.149776 0.216506 0.1
       vertex 0.179105 0.23097 0.1
       vertex 0.179105 0.23097 0
    endloop
  endfacet
  facet normal -0.555561 0.831476 0
    outer loop
       vertex 0.149776 0.216506 0
       vertex 0.122585 0.198338 0
       vertex 0.122585 0.198338 0.1
    endloop
  endfacet
  facet normal -0.555561 0.831476 0
    outer loop
       vertex 0.122585 0.198338 0.1
       vertex 0.149776 0.216506 0.1
       vertex 0.149776 0.216506 0
    endloop
  endfacet
  facet normal -0.659372 0.751817 0
    outer loop
       vertex 0.122585 0.198338 0
       vertex 0.0979997 0.176776 0
       vertex 0.0979997 0.176776 0.1
    endloop
  endfacet
  facet normal -0.659372 0.751817 0
    outer loop
       vertex 0.0979997 0.176776 0.1
       vertex 0.122585 0.198338 0.1
       vertex 0.122585 0.198338 0
    endloop
  endfacet
  facet normal -0.751817 0.659372 0
    outer loop
       vertex 0.0979997 0.176776 0
       vertex 0.0764377 0.152191 0
       vertex 0.0764377 0.152191 0.1
    endloop
  endfacet
  facet normal -0.751817 0.659372 0
    outer loop
       vertex 0.0764377 0.152191 0.1
       vertex 0.0979997 0.176776 0.1
       vertex 0.0979997 0.176776 0
    endloop
  endfacet
  facet normal -0.831476 0.555561 0
    outer loop
       vertex 0.0764377 0.152191 0
       vertex 0.0582697 0.125 0
       vertex 0.0582697 0.125 0.1
    endloop
  endfacet
  facet normal -0.831476 0.555561 0
    outer loop
       vertex 0.0582697 0.125 0.1
       vertex 0.0764377 0.152191 0.1
       vertex 0.0764377 0.152191 0
    endloop
  endfacet
  facet normal -0.896866 0.442302 0
    outer loop
       vertex 0.0582697 0.125 0
       vertex 0.0438057 0.095671 0
       vertex 0.0438057 0.095671 0.1
    endloop
  endfacet
  facet normal -0.896866 0.442302 0
    outer loop
       vertex 0.0438057 0.095671 0.1
       vertex 0.0582697 0.125 0.1
       vertex 0.0582697 0.125 0
    endloop
  endfacet
  facet normal -0.946935 0.321425 0
    outer loop
       vertex 0.0438057 0.095671 0
       vertex 0.0332947 0.064705 0
       vertex 0.0332947 0.064705 0.1
    endloop
  endfacet
  facet normal -0.946935 0.321425 0
    outer loop
       vertex 0.0332947 0.064705 0.1
       vertex 0.0438057 0.095671 0.1
       vertex 0.0438057 0.095671 0
    endloop
  endfacet
  facet normal -0.980784 0.195096 0
    outer loop
       vertex 0.0332947 0.064705 0
       vertex 0.0269147 0.0326315 0
       vertex 0.0269147 0.0326315 0.1
    endloop
  endfacet
  facet normal -0.980784 0.195096 0
    outer loop
       vertex 0.0269147 0.0326315 0.1
       vertex 0.0332947 0.064705 0.1
       vertex 0.0332947 0.064705 0
    endloop
  endfacet
  facet normal -0.997858 0.0654098 0
    outer loop
       vertex 0.0247757 8.32665e-17 0.1
       vertex 0.0269147 0.0326315 0.1
       vertex 0.0269147 0.0326315 0
    endloop
  endfacet
  facet normal -0.997858 0.0654098 -1.08928e-16
    outer loop
       vertex 0.0269147 0.0326315 0
       vertex 0.0247757 -8.32665e-17 0
       vertex 0.0247757 8.32665e-17 0.1
    endloop
  endfacet
  facet normal -0.997858 -0.0654098 0
    outer loop
       vertex 0.0247757 -8.32665e-17 0
       vertex 0.0269147 -0.0326315 0
       vertex 0.0269147 -0.0326315 0.1
    endloop
  endfacet
  facet normal -0.997858 -0.0654098 1.08928e-16
    outer loop
       vertex 0.0269147 -0.0326315 0.1
       vertex 0.0247757 8.32665e-17 0.1
       vertex 0.0247757 -8.32665e-17 0
    endloop
  endfacet
  facet normal -0.980784 -0.195096 0
    outer loop
       vertex 0.0269147 -0.0326315 0
       vertex 0.0332947 -0.064705 0
       vertex 0.0332947 -0.064705 0.1
    endloop
  endfacet
  facet normal -0.980784 -0.195096 0
    outer loop
       vertex 0.0332947 -0.064705 0.1
       vertex 0.0269147 -0.0326315 0.1
       vertex 0.0269147 -0.0326315 0
    endloop
  endfacet
  facet normal -0.946935 -0.321425 0
    outer loop
       vertex 0.0332947 -0.064705 0
       vertex 0.0438057 -0.095671 0
       vertex 0.0438057 -0.095671 0.1
    endloop
  endfacet
  facet normal -0.946935 -0.321425 0
    outer loop
       vertex 0.0438057 -0.095671 0.1
       vertex 0.0332947 -0.064705 0.1
       vertex 0.0332947 -0.064705 0
    endloop
  endfacet
  facet normal -0.896866 -0.442302 0
    outer loop
       vertex 0.0438057 -0.095671 0
       vertex 0.0582697 -0.125 0
       vertex 0.0582697 -0.125 0.1
    endloop
  endfacet
  facet normal -0.896866 -0.442302 0
    outer loop
       vertex 0.0582697 -0.125 0.1
       vertex 0.0438057 -0.095671 0.1
       vertex 0.0438057 -0.095671 0
    endloop
  endfacet
  facet normal -0.831476 -0.555561 0
    outer loop
       vertex 0.0582697 -0.125 0
       vertex 0.0764377 -0.152191 0
       vertex 0.0764377 -0.152191 0.1
    endloop
  endfacet
  facet normal -0.831476 -0.555561 0
    outer loop
       vertex 0.0764377 -0.152191 0.1
       vertex 0.0582697 -0.125 0.1
       vertex 0.0582697 -0.125 0
    endloop
  endfacet
  facet normal -0.751817 -0.659372 0
    outer loop
       vertex 0.0764377 -0.152191 0
       vertex 0.0979997 -0.176776 0
       vertex 0.0979997 -0.176776 0.1
    endloop
  endfacet
  facet normal -0.751817 -0.659372 0
    outer loop
       vertex 0.0979997 -0.176776 0.1
       vertex 0.0764377 -0.152191 0.1
       vertex 0.0764377 -0.152191 0
    endloop
  endfacet
  facet normal 0.659372 -0.751817 0
    outer loop
       vertex 0.451552 -0.176776 0
       vertex 0.451552 -0.176776 0.1
       vertex 0.426967 -0.198338 0.1
    endloop
  endfacet
  facet normal 0.659372 -0.751817 0
    outer loop
       vertex 0.426967 -0.198338 0.1
       vertex 0.426967 -0.198338 0
       vertex 0.451552 -0.176776 0
    endloop
  endfacet
  facet normal 0.555561 -0.831476 0
    outer loop
       vertex 0.426967 -0.198338 0
       vertex 0.426967 -0.198338 0.1
       vertex 0.399776 -0.216506 0.1
    endloop
  endfacet
  facet normal 0.555561 -0.831476 0
    outer loop
       vertex 0.399776 -0.216506 0.1
       vertex 0.399776 -0.216506 0
       vertex 0.426967 -0.198338 0
    endloop
  endfacet
  facet normal 0.442302 -0.896866 0
    outer loop
       vertex 0.399776 -0.216506 0
       vertex 0.399776 -0.216506 0.1
       vertex 0.370447 -0.23097 0.1
    endloop
  endfacet
  facet normal 0.442302 -0.896866 0
    outer loop
       vertex 0.370447 -0.23097 0.1
       vertex 0.370447 -0.23097 0
       vertex 0.399776 -0.216506 0
    endloop
  endfacet
  facet normal 0.321425 -0.946935 0
    outer loop
       vertex 0.370447 -0.23097 0
       vertex 0.370447 -0.23097 0.1
       vertex 0.339481 -0.241481 0.1
    endloop
  endfacet
  facet normal 0.321425 -0.946935 0
    outer loop
       vertex 0.339481 -0.241481 0.1
       vertex 0.339481 -0.241481 0
       vertex 0.370447 -0.23097 0
    endloop
  endfacet
  facet normal 0.195096 -0.980784 0
    outer loop
       vertex 0.339481 -0.241481 0
       vertex 0.339481 -0.241481 0.1
       vertex 0.307407 -0.247861 0.1
    endloop
  endfacet
  facet normal 0.195096 -0.980784 0
    outer loop
       vertex 0.307407 -0.247861 0.1
       vertex 0.307407 -0.247861 0
       vertex 0.339481 -0.241481 0
    endloop
  endfacet
  facet normal 0.0654098 -0.997858 0
    outer loop
       vertex 0.274776 -0.25 0
       vertex 0.307407 -0.247861 0
       vertex 0.307407 -0.247861 0.1
    endloop
  endfacet
  facet normal 0.0654098 -0.997858 1.45239e-16
    outer loop
       vertex 0.307407 -0.247861 0.1
       vertex 0.274776 -0.25 0.1
       vertex 0.274776 -0.25 0
    endloop
  endfacet
  facet normal -0.0654098 -0.997858 0
    outer loop
       vertex 0.274776 -0.25 0.1
       vertex 0.242144 -0.247861 0.1
       vertex 0.242144 -0.247861 0
    endloop
  endfacet
  facet normal -0.0654098 -0.997858 -1.45239e-16
    outer loop
       vertex 0.242144 -0.247861 0
       vertex 0.274776 -0.25 0
       vertex 0.274776 -0.25 0.1
    endloop
  endfacet
  facet normal -0.195096 -0.980784 0
    outer loop
       vertex 0.242144 -0.247861 0
       vertex 0.242144 -0.247861 0.1
       vertex 0.210071 -0.241481 0.1
    endloop
  endfacet
  facet normal -0.195096 -0.980784 -0
    outer loop
       vertex 0.210071 -0.241481 0.1
       vertex 0.210071 -0.241481 0
       vertex 0.242144 -0.247861 0
    endloop
  endfacet
  facet normal -0.321425 -0.946935 0
    outer loop
       vertex 0.210071 -0.241481 0
       vertex 0.210071 -0.241481 0.1
       vertex 0.179105 -0.23097 0.1
    endloop
  endfacet
  facet normal -0.321425 -0.946935 -0
    outer loop
       vertex 0.179105 -0.23097 0.1
       vertex 0.179105 -0.23097 0
       vertex 0.210071 -0.241481 0
    endloop
  endfacet
  facet normal -0.442302 -0.896866 0
    outer loop
       vertex 0.179105 -0.23097 0
       vertex 0.179105 -0.23097 0.1
       vertex 0.149776 -0.216506 0.1
    endloop
  endfacet
  facet normal -0.442302 -0.896866 -0
    outer loop
       vertex 0.149776 -0.216506 0.1
       vertex 0.149776 -0.216506 0
       vertex 0.179105 -0.23097 0
    endloop
  endfacet
  facet normal -0.555561 -0.831476 0
    outer loop
       vertex 0.149776 -0.216506 0
       vertex 0.149776 -0.216506 0.1
       vertex 0.122585 -0.198338 0.1
    endloop
  endfacet
  facet normal -0.555561 -0.831476 -0
    outer loop
       vertex 0.122585 -0.198338 0.1
       vertex 0.122585 -0.198338 0
       vertex 0.149776 -0.216506 0
    endloop
  endfacet
  facet normal -0.659372 -0.751817 0
    outer loop
       vertex 0.122585 -0.198338 0
       vertex 0.122585 -0.198338 0.1
       vertex 0.0979997 -0.176776 0.1
    endloop
  endfacet
  facet normal -0.659372 -0.751817 -0
    outer loop
       vertex 0.0979997 -0.176776 0.1
       vertex 0.0979997 -0.176776 0
       vertex 0.122585 -0.198338 0
    endloop
  endfacet
endsolid cylinder
