solid cylinder
  facet normal 0.751817 -0.659372 0
    outer loop
       vertex -0.04199 -0.176776 0
       vertex -0.020428 -0.152191 0
       vertex -0.020428 -0.152191 0.1
    endloop
  endfacet
  facet normal 0.751817 -0.659372 0
    outer loop
       vertex -0.020428 -0.152191 0.1
       vertex -0.04199 -0.176776 0.1
       vertex -0.04199 -0.176776 0
    endloop
  endfacet
  facet normal 0.831476 -0.555561 0
    outer loop
       vertex -0.020428 -0.152191 0
       vertex -0.00226005 -0.125 0
       vertex -0.00226005 -0.125 0.1
    endloop
  endfacet
  facet normal 0.831476 -0.555561 0
    outer loop
       vertex -0.00226005 -0.125 0.1
       vertex -0.020428 -0.152191 0.1
       vertex -0.020428 -0.152191 0
    endloop
  endfacet
  facet normal 0.896866 -0.442302 0
    outer loop
       vertex -0.00226005 -0.125 0
       vertex 0.012204 -0.095671 0
       vertex 0.012204 -0.095671 0.1
    endloop
  endfacet
  facet normal 0.896866 -0.442302 0
    outer loop
       vertex 0.012204 -0.095671 0.1
       vertex -0.00226005 -0.125 0.1
       vertex -0.00226005 -0.125 0
    endloop
  endfacet
  facet normal 0.946935 -0.321425 0
    outer loop
       vertex 0.012204 -0.095671 0
       vertex 0.022715 -0.064705 0
       vertex 0.022715 -0.064705 0.1
    endloop
  endfacet
  facet normal 0.946935 -0.321425 0
    outer loop
       vertex 0.022715 -0.064705 0.1
       vertex 0.012204 -0.095671 0.1
       vertex 0.012204 -0.095671 0
    endloop
  endfacet
  facet normal 0.980784 -0.195096 0
    outer loop
       vertex 0.022715 -0.064705 0
       vertex 0.029095 -0.0326315 0
       vertex 0.029095 -0.0326315 0.1
    endloop
  endfacet
  facet normal 0.980784 -0.195096 0
    outer loop
       vertex 0.029095 -0.0326315 0.1
       vertex 0.022715 -0.064705 0.1
       vertex 0.022715 -0.064705 0
    endloop
  endfacet
  facet normal 0.997858 -0.0654098 0
    outer loop
       vertex 0.031234 -8.32665e-17 0.1
       vertex 0.029095 -0.0326315 0.1
       vertex 0.029095 -0.0326315 0
    endloop
  endfacet
  facet normal 0.997858 -0.0654098 -1.08928e-16
    outer loop
       vertex 0.029095 -0.0326315 0
       vertex 0.031234 8.32665e-17 0
       vertex 0.031234 -8.32665e-17 0.1
    endloop
  endfacet
  facet normal 0.997858 0.0654098 0
    outer loop
       vertex 0.031234 8.32665e-17 0
       vertex 0.029095 0.0326315 0
       vertex 0.029095 0.0326315 0.1
    endloop
  endfacet
  facet normal 0.997858 0.0654098 1.08928e-16
    outer loop
       vertex 0.029095 0.0326315 0.1
       vertex 0.031234 -8.32665e-17 0.1
       vertex 0.031234 8.32665e-17 0
    endloop
  endfacet
  facet normal 0.980784 0.195096 0
    outer loop
       vertex 0.029095 0.0326315 0
       vertex 0.022715 0.064705 0
       vertex 0.022715 0.064705 0.1
    endloop
  endfacet
  facet normal 0.980784 0.195096 0
    outer loop
       vertex 0.022715 0.064705 0.1
       vertex 0.029095 0.0326315 0.1
       vertex 0.029095 0.0326315 0
    endloop
  endfacet
  facet normal 0.946935 0.321425 0
    outer loop
       vertex 0.022715 0.064705 0
       vertex 0.012204 0.095671 0
       vertex 0.012204 0.095671 0.1
    endloop
  endfacet
  facet normal 0.946935 0.321425 0
    outer loop
       vertex 0.012204 0.095671 0.1
       vertex 0.022715 0.064705 0.1
       vertex 0.022715 0.064705 0
    endloop
  endfacet
  facet normal 0.896866 0.442302 0
    outer loop
       vertex 0.012204 0.095671 0
       vertex -0.00226005 0.125 0
       vertex -0.00226005 0.125 0.1
    endloop
  endfacet
  facet normal 0.896866 0.442302 0
    outer loop
       vertex -0.00226005 0.125 0.1
       vertex 0.012204 0.095671 0.1
       vertex 0.012204 0.095671 0
    endloop
  endfacet
  facet normal 0.831476 0.555561 0
    outer loop
       vertex -0.00226005 0.125 0
       vertex -0.020428 0.152191 0
       vertex -0.020428 0.152191 0.1
    endloop
  endfacet
  facet normal 0.831476 0.555561 0
    outer loop
       vertex -0.020428 0.152191 0.1
       vertex -0.00226005 0.125 0.1
       vertex -0.00226005 0.125 0
    endloop
  endfacet
  facet normal 0.751817 0.659372 0
    outer loop
       vertex -0.020428 0.152191 0
       vertex -0.04199 0.176776 0
       vertex -0.04199 0.176776 0.1
    endloop
  endfacet
  facet normal 0.751817 0.659372 0
    outer loop
       vertex -0.04199 0.176776 0.1
       vertex -0.020428 0.152191 0.1
       vertex -0.020428 0.152191 0
    endloop
  endfacet
  facet normal 0.659372 0.751817 0
    outer loop
       vertex -0.04199 0.176776 0
       vertex -0.066575 0.198338 0
       vertex -0.066575 0.198338 0.1
    endloop
  endfacet
  facet normal 0.659372 0.751817 0
    outer loop
       vertex -0.066575 0.198338 0.1
       vertex -0.04199 0.176776 0.1
       vertex -0.04199 0.176776 0
    endloop
  endfacet
  facet normal 0.555561 0.831476 0
    outer loop
       vertex -0.066575 0.198338 0
       vertex -0.093766 0.216506 0
       vertex -0.093766 0.216506 0.1
    endloop
  endfacet
  facet normal 0.555561 0.831476 0
    outer loop
       vertex -0.093766 0.216506 0.1
       vertex -0.066575 0.198338 0.1
       vertex -0.066575 0.198338 0
    endloop
  endfacet
  facet normal 0.442302 0.896866 0
    outer loop
       vertex -0.093766 0.216506 0
       vertex -0.123095 0.23097 0
       vertex -0.123095 0.23097 0.1
    endloop
  endfacet
  facet normal 0.442302 0.896866 0
    outer loop
       vertex -0.123095 0.23097 0.1
       vertex -0.093766 0.216506 0.1
       vertex -0.093766 0.216506 0
    endloop
  endfacet
  facet normal 0.321425 0.946935 0
    outer loop
       vertex -0.123095 0.23097 0
       vertex -0.154061 0.241481 0
       vertex -0.154061 0.241481 0.1
    endloop
  endfacet
  facet normal 0.321425 0.946935 0
    outer loop
       vertex -0.154061 0.241481 0.1
       vertex -0.123095 0.23097 0.1
       vertex -0.123095 0.23097 0
    endloop
  endfacet
  facet normal 0.195096 0.980784 0
    outer loop
       vertex -0.154061 0.241481 0
       vertex -0.186135 0.247861 0
       vertex -0.186135 0.247861 0.1
    endloop
  endfacet
  facet normal 0.195096 0.980784 0
    outer loop
       vertex -0.186135 0.247861 0.1
       vertex -0.154061 0.241481 0.1
       vertex -0.154061 0.241481 0
    endloop
  endfacet
  facet normal 0.0654098 0.997858 0
    outer loop
       vertex -0.218766 0.25 0.1
       vertex -0.186135 0.247861 0.1
       vertex -0.186135 0.247861 0
    endloop
  endfacet
  facet normal 0.0654098 0.997858 -1.0893e-16
    outer loop
       vertex -0.186135 0.247861 0
       vertex -0.218766 0.25 0
       vertex -0.218766 0.25 0.1
    endloop
  endfacet
  facet normal -0.0654098 0.997858 0
    outer loop
       vertex -0.218766 0.25 0
       vertex -0.251398 0.247861 0
       vertex -0.251398 0.247861 0.1
    endloop
  endfacet
  facet normal -0.0654098 0.997858 1.0893e-16
    outer loop
       vertex -0.251398 0.247861 0.1
       vertex -0.218766 0.25 0.1
       vertex -0.218766 0.25 0
    endloop
  endfacet
  facet normal -0.195096 0.980784 0
    outer loop
       vertex -0.251398 0.247861 0
       vertex -0.283471 0.241481 0
       vertex -0.283471 0.241481 0.1
    endloop
  endfacet
  facet normal -0.195096 0.980784 0
    outer loop
       vertex -0.283471 0.241481 0.1
       vertex -0.251398 0.247861 0.1
       vertex -0.251398 0.247861 0
    endloop
  endfacet
  facet normal -0.321425 0.946935 0
    outer loop
       vertex -0.283471 0.241481 0
       vertex -0.314437 0.23097 0
       vertex -0.314437 0.23097 0.1
    endloop
  endfacet
  facet normal -0.321425 0.946935 0
    outer loop
       vertex -0.314437 0.23097 0.1
       vertex -0.283471 0.241481 0.1
       vertex -0.283471 0.241481 0
    endloop
  endfacet
  facet normal -0.442302 0.896866 0
    outer loop
       vertex -0.314437 0.23097 0
       vertex -0.343766 0.216506 0
       vertex -0.343766 0.216506 0.1
    endloop
  endfacet
  facet normal -0.442302 0.896866 0
    outer loop
       vertex -0.343766 0.216506 0.1
       vertex -0.314437 0.23097 0.1
       vertex -0.314437 0.23097 0
    endloop
  endfacet
  facet normal -0.555561 0.831476 0
    outer loop
       vertex -0.343766 0.216506 0
       vertex -0.370957 0.198338 0
       vertex -0.370957 0.198338 0.1
    endloop
  endfacet
  facet normal -0.555561 0.831476 0
    outer loop
       vertex -0.370957 0.198338 0.1
       vertex -0.343766 0.216506 0.1
       vertex -0.343766 0.216506 0
    endloop
  endfacet
  facet normal -0.659372 0.751817 0
    outer loop
       vertex -0.370957 0.198338 0
       vertex -0.395542 0.176776 0
       vertex -0.395542 0.176776 0.1
    endloop
  endfacet
  facet normal -0.659372 0.751817 0
    outer loop
       vertex -0.395542 0.176776 0.1
       vertex -0.370957 0.198338 0.1
       vertex -0.370957 0.198338 0
    endloop
  endfacet
  facet normal -0.751817 0.659372 0
    outer loop
       vertex -0.395542 0.176776 0
       vertex -0.417104 0.152191 0
       vertex -0.417104 0.152191 0.1
    endloop
  endfacet
  facet normal -0.751817 0.659372 0
    outer loop
       vertex -0.417104 0.152191 0.1
       vertex -0.395542 0.176776 0.1
       vertex -0.395542 0.176776 0
    endloop
  endfacet
  facet normal -0.831476 0.555561 0
    outer loop
       vertex -0.417104 0.152191 0
       vertex -0.435272 0.125 0
       vertex -0.435272 0.125 0.1
    endloop
  endfacet
  facet normal -0.831476 0.555561 0
    outer loop
       vertex -0.435272 0.125 0.1
       vertex -0.417104 0.152191 0.1
       vertex -0.417104 0.152191 0
    endloop
  endfacet
  facet normal -0.896866 0.442302 0
    outer loop
       vertex -0.435272 0.125 0
       vertex -0.449736 0.095671 0
       vertex -0.449736 0.095671 0.1
    endloop
  endfacet
  facet normal -0.896866 0.442302 0
    outer loop
       vertex -0.449736 0.095671 0.1
       vertex -0.435272 0.125 0.1
       vertex -0.435272 0.125 0
    endloop
  endfacet
  facet normal -0.946935 0.321425 0
    outer loop
       vertex -0.449736 0.095671 0
       vertex -0.460247 0.064705 0
       vertex -0.460247 0.064705 0.1
    endloop
  endfacet
  facet normal -0.946935 0.321425 0
    outer loop
       vertex -0.460247 0.064705 0.1
       vertex -0.449736 0.095671 0.1
       vertex -0.449736 0.095671 0
    endloop
  endfacet
  facet normal -0.980784 0.195096 0
    outer loop
       vertex -0.460247 0.064705 0
       vertex -0.466627 0.0326315 0
       vertex -0.466627 0.0326315 0.1
    endloop
  endfacet
  facet normal -0.980784 0.195096 0
    outer loop
       vertex -0.466627 0.0326315 0.1
       vertex -0.460247 0.064705 0.1
       vertex -0.460247 0.064705 0
    endloop
  endfacet
  facet normal -0.997858 0.0654098 0
    outer loop
       vertex -0.468766 8.32665e-17 0.1
       vertex -0.466627 0.0326315 0.1
       vertex -0.466627 0.0326315 0
    endloop
  endfacet
  facet normal -0.997858 0.0654098 -1.08928e-16
    outer loop
       vertex -0.466627 0.0326315 0
       vertex -0.468766 -8.32665e-17 0
       vertex -0.468766 8.32665e-17 0.1
    endloop
  endfacet
  facet normal -0.997858 -0.0654098 0
    outer loop
       vertex -0.468766 -8.32665e-17 0
       vertex -0.466627 -0.0326315 0
       vertex -0.466627 -0.0326315 0.1
    endloop
  endfacet
  facet normal -0.997858 -0.0654098 1.08928e-16
    outer loop
       vertex -0.466627 -0.0326315 0.1
       vertex -0.468766 8.32665e-17 0.1
       vertex -0.468766 -8.32665e-17 0
    endloop
  endfacet
  facet normal -0.980784 -0.195096 0
    outer loop
       vertex -0.466627 -0.0326315 0
       vertex -0.460247 -0.064705 0
       vertex -0.460247 -0.064705 0.1
    endloop
  endfacet
  facet normal -0.980784 -0.195096 0
    outer loop
       vertex -0.460247 -0.064705 0.1
       vertex -0.466627 -0.0326315 0.1
       vertex -0.466627 -0.0326315 0
    endloop
  endfacet
  facet normal -0.946935 -0.321425 0
    outer loop
       vertex -0.460247 -0.064705 0
       vertex -0.449736 -0.095671 0
       vertex -0.449736 -0.095671 0.1
    endloop
  endfacet
  facet normal -0.946935 -0.321425 0
    outer loop
       vertex -0.449736 -0.095671 0.1
       vertex -0.460247 -0.064705 0.1
       vertex -0.460247 -0.064705 0
    endloop
  endfacet
  facet normal -0.896866 -0.442302 0
    outer loop
       vertex -0.449736 -0.095671 0
       vertex -0.435272 -0.125 0
       vertex -0.435272 -0.125 0.1
    endloop
  endfacet
  facet normal -0.896866 -0.442302 0
    outer loop
       vertex -0.435272 -0.125 0.1
       vertex -0.449736 -0.095671 0.1
       vertex -0.449736 -0.095671 0
    endloop
  endfacet
  facet normal -0.831476 -0.555561 0
    outer loop
       vertex -0.435272 -0.125 0
       vertex -0.417104 -0.152191 0
       vertex -0.417104 -0.152191 0.1
    endloop
  endfacet
  facet normal -0.831476 -0.555561 0
    outer loop
       vertex -0.417104 -0.152191 0.1
       vertex -0.435272 -0.125 0.1
       vertex -0.435272 -0.125 0
    endloop
  endfacet
  facet normal -0.751817 -0.659372 0
    outer loop
       vertex -0.417104 -0.152191 0
       vertex -0.395542 -0.176776 0
       vertex -0.395542 -0.176776 0.1
    endloop
  endfacet
  facet normal -0.751817 -0.659372 0
    outer loop
       vertex -0.395542 -0.176776 0.1
       vertex -0.417104 -0.152191 0.1
       vertex -0.417104 -0.152191 0
    endloop
  endfacet
  facet normal 0.659372 -0.751817 0
    outer loop
       vertex -0.04199 -0.176776 0
       vertex -0.04199 -0.176776 0.1
       vertex -0.066575 -0.198338 0.1
    endloop
  endfacet
  facet normal 0.659372 -0.751817 0
    outer loop
       vertex -0.066575 -0.198338 0.1
       vertex -0.066575 -0.198338 0
       vertex -0.04199 -0.176776 0
    endloop
  endfacet
  facet normal 0.555561 -0.831476 0
    outer loop
       vertex -0.066575 -0.198338 0
       vertex -0.066575 -0.198338 0.1
       vertex -0.093766 -0.216506 0.1
    endloop
  endfacet
  facet normal 0.555561 -0.831476 0
    outer loop
       vertex -0.093766 -0.216506 0.1
       vertex -0.093766 -0.216506 0
       vertex -0.066575 -0.198338 0
    endloop
  endfacet
  facet normal 0.442302 -0.896866 0
    outer loop
       vertex -0.093766 -0.216506 0
       vertex -0.093766 -0.216506 0.1
       vertex -0.123095 -0.23097 0.1
    endloop
  endfacet
  facet normal 0.442302 -0.896866 0
    outer loop
       vertex -0.123095 -0.23097 0.1
       vertex -0.123095 -0.23097 0
       vertex -0.093766 -0.216506 0
    endloop
  endfacet
  facet normal 0.321425 -0.946935 0
    outer loop
       vertex -0.123095 -0.23097 0
       vertex -0.123095 -0.23097 0.1
       vertex -0.154061 -0.241481 0.1
    endloop
  endfacet
  facet normal 0.321425 -0.946935 0
    outer loop
       vertex -0.154061 -0.241481 0.1
       vertex -0.154061 -0.241481 0
       vertex -0.123095 -0.23097 0
    endloop
  endfacet
  facet normal 0.195096 -0.980784 0
    outer loop
       vertex -0.154061 -0.241481 0
       vertex -0.154061 -0.241481 0.1
       vertex -0.186135 -0.247861 0.1
    endloop
  endfacet
  facet normal 0.195096 -0.980784 0
    outer loop
       vertex -0.186135 -0.247861 0.1
       vertex -0.186135 -0.247861 0
       vertex -0.154061 -0.241481 0
    endloop
  endfacet
  facet normal 0.0654098 -0.997858 0
    outer loop
       vertex -0.218766 -0.25 0
       vertex -0.186135 -0.247861 0
       vertex -0.186135 -0.247861 0.1
    endloop
  endfacet
  facet normal 0.0654098 -0.997858 1.0893e-16
    outer loop
       vertex -0.186135 -0.247861 0.1
       vertex -0.218766 -0.25 0.1
       vertex -0.218766 -0.25 0
    endloop
  endfacet
  facet normal -0.0654098 -0.997858 0
    outer loop
       vertex -0.218766 -0.25 0.1
       vertex -0.251398 -0.247861 0.1
       vertex -0.251398 -0.247861 0
    endloop
  endfacet
  facet normal -0.0654098 -0.997858 -1.0893e-16
    outer loop
       vertex -0.251398 -0.247861 0
       vertex -0.218766 -0.25 0
       vertex -0.218766 -0.25 0.1
    endloop
  endfacet
  facet normal -0.195096 -0.980784 0
    outer loop
       vertex -0.251398 -0.247861 0
       vertex -0.251398 -0.247861 0.1
       vertex -0.283471 -0.241481 0.1
    endloop
  endfacet
  facet normal -0.195096 -0.980784 -0
    outer loop
       vertex -0.283471 -0.241481 0.1
       vertex -0.283471 -0.241481 0
       vertex -0.251398 -0.247861 0
    endloop
  endfacet
  facet normal -0.321425 -0.946935 0
    outer loop
       vertex -0.283471 -0.241481 0
       vertex -0.283471 -0.241481 0.1
       vertex -0.314437 -0.23097 0.1
    endloop
  endfacet
  facet normal -0.321425 -0.946935 -0
    outer loop
       vertex -0.314437 -0.23097 0.1
       vertex -0.314437 -0.23097 0
       vertex -0.283471 -0.241481 0
    endloop
  endfacet
  facet normal -0.442302 -0.896866 0
    outer loop
       vertex -0.314437 -0.23097 0
       vertex -0.314437 -0.23097 0.1
       vertex -0.343766 -0.216506 0.1
    endloop
  endfacet
  facet normal -0.442302 -0.896866 -0
    outer loop
       vertex -0.343766 -0.216506 0.1
       vertex -0.343766 -0.216506 0
       vertex -0.314437 -0.23097 0
    endloop
  endfacet
  facet normal -0.555561 -0.831476 0
    outer loop
       vertex -0.343766 -0.216506 0
       vertex -0.343766 -0.216506 0.1
       vertex -0.370957 -0.198338 0.1
    endloop
  endfacet
  facet normal -0.555561 -0.831476 -0
    outer loop
       vertex -0.370957 -0.198338 0.1
       vertex -0.370957 -0.198338 0
       vertex -0.343766 -0.216506 0
    endloop
  endfacet
  facet normal -0.659372 -0.751817 0
    outer loop
       vertex -0.370957 -0.198338 0
       vertex -0.370957 -0.198338 0.1
       vertex -0.395542 -0.176776 0.1
    endloop
  endfacet
  facet normal -0.659372 -0.751817 -0
    outer loop
       vertex -0.395542 -0.176776 0.1
       vertex -0.395542 -0.176776 0
       vertex -0.370957 -0.198338 0
    endloop
  endfacet
endsolid cylinder
