solid cylinder
  facet normal 0.751817 -0.659372 0
    outer loop
       vertex 0.334427 -0.176776 0
       vertex 0.355989 -0.152191 0
       vertex 0.355989 -0.152191 0.1
    endloop
  endfacet
  facet normal 0.751817 -0.659372 0
    outer loop
       vertex 0.355989 -0.152191 0.1
       vertex 0.334427 -0.176776 0.1
       vertex 0.334427 -0.176776 0
    endloop
  endfacet
  facet normal 0.831476 -0.555561 0
    outer loop
       vertex 0.355989 -0.152191 0
       vertex 0.374157 -0.125 0
       vertex 0.374157 -0.125 0.1
    endloop
  endfacet
  facet normal 0.831476 -0.555561 0
    outer loop
       vertex 0.374157 -0.125 0.1
       vertex 0.355989 -0.152191 0.1
       vertex 0.355989 -0.152191 0
    endloop
  endfacet
  facet normal 0.896866 -0.442302 0
    outer loop
       vertex 0.374157 -0.125 0
       vertex 0.388621 -0.095671 0
       vertex 0.388621 -0.095671 0.1
    endloop
  endfacet
  facet normal 0.896866 -0.442302 0
    outer loop
       vertex 0.388621 -0.095671 0.1
       vertex 0.374157 -0.125 0.1
       vertex 0.374157 -0.125 0
    endloop
  endfacet
  facet normal 0.946935 -0.321425 0
    outer loop
       vertex 0.388621 -0.095671 0
       vertex 0.399132 -0.064705 0
       vertex 0.399132 -0.064705 0.1
    endloop
  endfacet
  facet normal 0.946935 -0.321425 0
    outer loop
       vertex 0.399132 -0.064705 0.1
       vertex 0.388621 -0.095671 0.1
       vertex 0.388621 -0.095671 0
    endloop
  endfacet
  facet normal 0.980784 -0.195096 0
    outer loop
       vertex 0.399132 -0.064705 0
       vertex 0.405512 -0.0326315 0
       vertex 0.405512 -0.0326315 0.1
    endloop
  endfacet
  facet normal 0.980784 -0.195096 0
    outer loop
       vertex 0.405512 -0.0326315 0.1
       vertex 0.399132 -0.064705 0.1
       vertex 0.399132 -0.064705 0
    endloop
  endfacet
  facet normal 0.997858 -0.0654098 0
    outer loop
       vertex 0.407651 -8.32665e-17 0.1
       vertex 0.405512 -0.0326315 0.1
       vertex 0.405512 -0.0326315 0
    endloop
  endfacet
  facet normal 0.997858 -0.0654098 -1.08928e-16
    outer loop
       vertex 0.405512 -0.0326315 0
       vertex 0.407651 8.32665e-17 0
       vertex 0.407651 -8.32665e-17 0.1
    endloop
  endfacet
  facet normal 0.997858 0.0654098 0
    outer loop
       vertex 0.407651 8.32665e-17 0
       vertex 0.405512 0.0326315 0
       vertex 0.405512 0.0326315 0.1
    endloop
  endfacet
  facet normal 0.997858 0.0654098 1.08928e-16
    outer loop
       vertex 0.405512 0.0326315 0.1
       vertex 0.407651 -8.32665e-17 0.1
       vertex 0.407651 8.32665e-17 0
    endloop
  endfacet
  facet normal 0.980784 0.195096 0
    outer loop
       vertex 0.405512 0.0326315 0
       vertex 0.399132 0.064705 0
       vertex 0.399132 0.064705 0.1
    endloop
  endfacet
  facet normal 0.980784 0.195096 0
    outer loop
       vertex 0.399132 0.064705 0.1
       vertex 0.405512 0.0326315 0.1
       vertex 0.405512 0.0326315 0
    endloop
  endfacet
  facet normal 0.946935 0.321425 0
    outer loop
       vertex 0.399132 0.064705 0
       vertex 0.388621 0.095671 0
       vertex 0.388621 0.095671 0.1
    endloop
  endfacet
  facet normal 0.946935 0.321425 0
    outer loop
       vertex 0.388621 0.095671 0.1
       vertex 0.399132 0.064705 0.1
       vertex 0.399132 0.064705 0
    endloop
  endfacet
  facet normal 0.896866 0.442302 0
    outer loop
       vertex 0.388621 0.095671 0
       vertex 0.374157 0.125 0
       vertex 0.374157 0.125 0.1
    endloop
  endfacet
  facet normal 0.896866 0.442302 0
    outer loop
       vertex 0.374157 0.125 0.1
       vertex 0.388621 0.095671 0.1
       vertex 0.388621 0.095671 0
    endloop
  endfacet
  facet normal 0.831476 0.555561 0
    outer loop
       vertex 0.374157 0.125 0
       vertex 0.355989 0.152191 0
       vertex 0.355989 0.152191 0.1
    endloop
  endfacet
  facet normal 0.831476 0.555561 0
    outer loop
       vertex 0.355989 0.152191 0.1
       vertex 0.374157 0.125 0.1
       vertex 0.374157 0.125 0
    endloop
  endfacet
  facet normal 0.751817 0.659372 0
    outer loop
       vertex 0.355989 0.152191 0
       vertex 0.334427 0.176776 0
       vertex 0.334427 0.176776 0.1
    endloop
  endfacet
  facet normal 0.751817 0.659372 0
    outer loop
       vertex 0.334427 0.176776 0.1
       vertex 0.355989 0.152191 0.1
       vertex 0.355989 0.152191 0
    endloop
  endfacet
  facet normal 0.659372 0.751817 0
    outer loop
       vertex 0.334427 0.176776 0
       vertex 0.309842 0.198338 0
       vertex 0.309842 0.198338 0.1
    endloop
  endfacet
  facet normal 0.659372 0.751817 0
    outer loop
       vertex 0.309842 0.198338 0.1
       vertex 0.334427 0.176776 0.1
       vertex 0.334427 0.176776 0
    endloop
  endfacet
  facet normal 0.555561 0.831476 0
    outer loop
       vertex 0.309842 0.198338 0
       vertex 0.282651 0.216506 0
       vertex 0.282651 0.216506 0.1
    endloop
  endfacet
  facet normal 0.555561 0.831476 0
    outer loop
       vertex 0.282651 0.216506 0.1
       vertex 0.309842 0.198338 0.1
       vertex 0.309842 0.198338 0
    endloop
  endfacet
  facet normal 0.442302 0.896866 0
    outer loop
       vertex 0.282651 0.216506 0
       vertex 0.253322 0.23097 0
       vertex 0.253322 0.23097 0.1
    endloop
  endfacet
  facet normal 0.442302 0.896866 0
    outer loop
       vertex 0.253322 0.23097 0.1
       vertex 0.282651 0.216506 0.1
       vertex 0.282651 0.216506 0
    endloop
  endfacet
  facet normal 0.321425 0.946935 0
    outer loop
       vertex 0.253322 0.23097 0
       vertex 0.222356 0.241481 0
       vertex 0.222356 0.241481 0.1
    endloop
  endfacet
  facet normal 0.321425 0.946935 0
    outer loop
       vertex 0.222356 0.241481 0.1
       vertex 0.253322 0.23097 0.1
       vertex 0.253322 0.23097 0
    endloop
  endfacet
  facet normal 0.195096 0.980784 0
    outer loop
       vertex 0.222356 0.241481 0
       vertex 0.190283 0.247861 0
       vertex 0.190283 0.247861 0.1
    endloop
  endfacet
  facet normal 0.195096 0.980784 0
    outer loop
       vertex 0.190283 0.247861 0.1
       vertex 0.222356 0.241481 0.1
       vertex 0.222356 0.241481 0
    endloop
  endfacet
  facet normal 0.0654098 0.997858 0
    outer loop
       vertex 0.157651 0.25 0.1
       vertex 0.190283 0.247861 0.1
       vertex 0.190283 0.247861 0
    endloop
  endfacet
  facet normal 0.0654098 0.997858 -1.0893e-16
    outer loop
       vertex 0.190283 0.247861 0
       vertex 0.157651 0.25 0
       vertex 0.157651 0.25 0.1
    endloop
  endfacet
  facet normal -0.0654098 0.997858 0
    outer loop
       vertex 0.157651 0.25 0
       vertex 0.12502 0.247861 0
       vertex 0.12502 0.247861 0.1
    endloop
  endfacet
  facet normal -0.0654098 0.997858 1.0893e-16
    outer loop
       vertex 0.12502 0.247861 0.1
       vertex 0.157651 0.25 0.1
       vertex 0.157651 0.25 0
    endloop
  endfacet
  facet normal -0.195096 0.980784 0
    outer loop
       vertex 0.12502 0.247861 0
       vertex 0.0929464 0.241481 0
       vertex 0.0929464 0.241481 0.1
    endloop
  endfacet
  facet normal -0.195096 0.980784 0
    outer loop
       vertex 0.0929464 0.241481 0.1
       vertex 0.12502 0.247861 0.1
       vertex 0.12502 0.247861 0
    endloop
  endfacet
  facet normal -0.321425 0.946935 0
    outer loop
       vertex 0.0929464 0.241481 0
       vertex 0.0619804 0.23097 0
       vertex 0.0619804 0.23097 0.1
    endloop
  endfacet
  facet normal -0.321425 0.946935 0
    outer loop
       vertex 0.0619804 0.23097 0.1
       vertex 0.0929464 0.241481 0.1
       vertex 0.0929464 0.241481 0
    endloop
  endfacet
  facet normal -0.442302 0.896866 0
    outer loop
       vertex 0.0619804 0.23097 0
       vertex 0.0326514 0.216506 0
       vertex 0.0326514 0.216506 0.1
    endloop
  endfacet
  facet normal -0.442302 0.896866 0
    outer loop
       vertex 0.0326514 0.216506 0.1
       vertex 0.0619804 0.23097 0.1
       vertex 0.0619804 0.23097 0
    endloop
  endfacet
  facet normal -0.555561 0.831476 0
    outer loop
       vertex 0.0326514 0.216506 0
       vertex 0.00546043 0.198338 0
       vertex 0.00546043 0.198338 0.1
    endloop
  endfacet
  facet normal -0.555561 0.831476 0
    outer loop
       vertex 0.00546043 0.198338 0.1
       vertex 0.0326514 0.216506 0.1
       vertex 0.0326514 0.216506 0
    endloop
  endfacet
  facet normal -0.659372 0.751817 0
    outer loop
       vertex 0.00546043 0.198338 0
       vertex -0.0191246 0.176776 0
       vertex -0.0191246 0.176776 0.1
    endloop
  endfacet
  facet normal -0.659372 0.751817 0
    outer loop
       vertex -0.0191246 0.176776 0.1
       vertex 0.00546043 0.198338 0.1
       vertex 0.00546043 0.198338 0
    endloop
  endfacet
  facet normal -0.751817 0.659372 0
    outer loop
       vertex -0.0191246 0.176776 0
       vertex -0.0406866 0.152191 0
       vertex -0.0406866 0.152191 0.1
    endloop
  endfacet
  facet normal -0.751817 0.659372 0
    outer loop
       vertex -0.0406866 0.152191 0.1
       vertex -0.0191246 0.176776 0.1
       vertex -0.0191246 0.176776 0
    endloop
  endfacet
  facet normal -0.831476 0.555561 0
    outer loop
       vertex -0.0406866 0.152191 0
       vertex -0.0588546 0.125 0
       vertex -0.0588546 0.125 0.1
    endloop
  endfacet
  facet normal -0.831476 0.555561 0
    outer loop
       vertex -0.0588546 0.125 0.1
       vertex -0.0406866 0.152191 0.1
       vertex -0.0406866 0.152191 0
    endloop
  endfacet
  facet normal -0.896866 0.442302 0
    outer loop
       vertex -0.0588546 0.125 0
       vertex -0.0733186 0.095671 0
       vertex -0.0733186 0.095671 0.1
    endloop
  endfacet
  facet normal -0.896866 0.442302 0
    outer loop
       vertex -0.0733186 0.095671 0.1
       vertex -0.0588546 0.125 0.1
       vertex -0.0588546 0.125 0
    endloop
  endfacet
  facet normal -0.946935 0.321425 0
    outer loop
       vertex -0.0733186 0.095671 0
       vertex -0.0838296 0.064705 0
       vertex -0.0838296 0.064705 0.1
    endloop
  endfacet
  facet normal -0.946935 0.321425 0
    outer loop
       vertex -0.0838296 0.064705 0.1
       vertex -0.0733186 0.095671 0.1
       vertex -0.0733186 0.095671 0
    endloop
  endfacet
  facet normal -0.980784 0.195096 0
    outer loop
       vertex -0.0838296 0.064705 0
       vertex -0.0902096 0.0326315 0
       vertex -0.0902096 0.0326315 0.1
    endloop
  endfacet
  facet normal -0.980784 0.195096 0
    outer loop
       vertex -0.0902096 0.0326315 0.1
       vertex -0.0838296 0.064705 0.1
       vertex -0.0838296 0.064705 0
    endloop
  endfacet
  facet normal -0.997858 0.0654098 0
    outer loop
       vertex -0.0923486 8.32665e-17 0.1
       vertex -0.0902096 0.0326315 0.1
       vertex -0.0902096 0.0326315 0
    endloop
  endfacet
  facet normal -0.997858 0.0654098 -1.08928e-16
    outer loop
       vertex -0.0902096 0.0326315 0
       vertex -0.0923486 -8.32665e-17 0
       vertex -0.0923486 8.32665e-17 0.1
    endloop
  endfacet
  facet normal -0.997858 -0.0654098 0
    outer loop
       vertex -0.0923486 -8.32665e-17 0
       vertex -0.0902096 -0.0326315 0
       vertex -0.0902096 -0.0326315 0.1
    endloop
  endfacet
  facet normal -0.997858 -0.0654098 1.08928e-16
    outer loop
       vertex -0.0902096 -0.0326315 0.1
       vertex -0.0923486 8.32665e-17 0.1
       vertex -0.0923486 -8.32665e-17 0
    endloop
  endfacet
  facet normal -0.980784 -0.195096 0
    outer loop
       vertex -0.0902096 -0.0326315 0
       vertex -0.0838296 -0.064705 0
       vertex -0.0838296 -0.064705 0.1
    endloop
  endfacet
  facet normal -0.980784 -0.195096 0
    outer loop
       vertex -0.0838296 -0.064705 0.1
       vertex -0.0902096 -0.0326315 0.1
       vertex -0.0902096 -0.0326315 0
    endloop
  endfacet
  facet normal -0.946935 -0.321425 0
    outer loop
       vertex -0.0838296 -0.064705 0
       vertex -0.0733186 -0.095671 0
       vertex -0.0733186 -0.095671 0.1
    endloop
  endfacet
  facet normal -0.946935 -0.321425 0
    outer loop
       vertex -0.0733186 -0.095671 0.1
       vertex -0.0838296 -0.064705 0.1
       vertex -0.0838296 -0.064705 0
    endloop
  endfacet
  facet normal -0.896866 -0.442302 0
    outer loop
       vertex -0.0733186 -0.095671 0
       vertex -0.0588546 -0.125 0
       vertex -0.0588546 -0.125 0.1
    endloop
  endfacet
  facet normal -0.896866 -0.442302 0
    outer loop
       vertex -0.0588546 -0.125 0.1
       vertex -0.0733186 -0.095671 0.1
       vertex -0.0733186 -0.095671 0
    endloop
  endfacet
  facet normal -0.831476 -0.555561 0
    outer loop
       vertex -0.0588546 -0.125 0
       vertex -0.0406866 -0.152191 0
       vertex -0.0406866 -0.152191 0.1
    endloop
  endfacet
  facet normal -0.831476 -0.555561 0
    outer loop
       vertex -0.0406866 -0.152191 0.1
       vertex -0.0588546 -0.125 0.1
       vertex -0.0588546 -0.125 0
    endloop
  endfacet
  facet normal -0.751817 -0.659372 0
    outer loop
       vertex -0.0406866 -0.152191 0
       vertex -0.0191246 -0.176776 0
       vertex -0.0191246 -0.176776 0.1
    endloop
  endfacet
  facet normal -0.751817 -0.659372 0
    outer loop
       vertex -0.0191246 -0.176776 0.1
       vertex -0.0406866 -0.152191 0.1
       vertex -0.0406866 -0.152191 0
    endloop
  endfacet
  facet normal 0.659372 -0.751817 0
    outer loop
       vertex 0.334427 -0.176776 0
       vertex 0.334427 -0.176776 0.1
       vertex 0.309842 -0.198338 0.1
    endloop
  endfacet
  facet normal 0.659372 -0.751817 0
    outer loop
       vertex 0.309842 -0.198338 0.1
       vertex 0.309842 -0.198338 0
       vertex 0.334427 -0.176776 0
    endloop
  endfacet
  facet normal 0.555561 -0.831476 0
    outer loop
       vertex 0.309842 -0.198338 0
       vertex 0.309842 -0.198338 0.1
       vertex 0.282651 -0.216506 0.1
    endloop
  endfacet
  facet normal 0.555561 -0.831476 0
    outer loop
       vertex 0.282651 -0.216506 0.1
       vertex 0.282651 -0.216506 0
       vertex 0.309842 -0.198338 0
    endloop
  endfacet
  facet normal 0.442302 -0.896866 0
    outer loop
       vertex 0.282651 -0.216506 0
       vertex 0.282651 -0.216506 0.1
       vertex 0.253322 -0.23097 0.1
    endloop
  endfacet
  facet normal 0.442302 -0.896866 0
    outer loop
       vertex 0.253322 -0.23097 0.1
       vertex 0.253322 -0.23097 0
       vertex 0.282651 -0.216506 0
    endloop
  endfacet
  facet normal 0.321425 -0.946935 0
    outer loop
       vertex 0.253322 -0.23097 0
       vertex 0.253322 -0.23097 0.1
       vertex 0.222356 -0.241481 0.1
    endloop
  endfacet
  facet normal 0.321425 -0.946935 0
    outer loop
       vertex 0.222356 -0.241481 0.1
       vertex 0.222356 -0.241481 0
       vertex 0.253322 -0.23097 0
    endloop
  endfacet
  facet normal 0.195096 -0.980784 0
    outer loop
       vertex 0.222356 -0.241481 0
       vertex 0.222356 -0.241481 0.1
       vertex 0.190283 -0.247861 0.1
    endloop
  endfacet
  facet normal 0.195096 -0.980784 0
    outer loop
       vertex 0.190283 -0.247861 0.1
       vertex 0.190283 -0.247861 0
       vertex 0.222356 -0.241481 0
    endloop
  endfacet
  facet normal 0.0654098 -0.997858 0
    outer loop
       vertex 0.157651 -0.25 0
       vertex 0.190283 -0.247861 0
       vertex 0.190283 -0.247861 0.1
    endloop
  endfacet
  facet normal 0.0654098 -0.997858 1.0893e-16
    outer loop
       vertex 0.190283 -0.247861 0.1
       vertex 0.157651 -0.25 0.1
       vertex 0.157651 -0.25 0
    endloop
  endfacet
  facet normal -0.0654098 -0.997858 0
    outer loop
       vertex 0.157651 -0.25 0.1
       vertex 0.12502 -0.247861 0.1
       vertex 0.12502 -0.247861 0
    endloop
  endfacet
  facet normal -0.0654098 -0.997858 -1.0893e-16
    outer loop
       vertex 0.12502 -0.247861 0
       vertex 0.157651 -0.25 0
       vertex 0.157651 -0.25 0.1
    endloop
  endfacet
  facet normal -0.195096 -0.980784 0
    outer loop
       vertex 0.12502 -0.247861 0
       vertex 0.12502 -0.247861 0.1
       vertex 0.0929464 -0.241481 0.1
    endloop
  endfacet
  facet normal -0.195096 -0.980784 -0
    outer loop
       vertex 0.0929464 -0.241481 0.1
       vertex 0.0929464 -0.241481 0
       vertex 0.12502 -0.247861 0
    endloop
  endfacet
  facet normal -0.321425 -0.946935 0
    outer loop
       vertex 0.0929464 -0.241481 0
       vertex 0.0929464 -0.241481 0.1
       vertex 0.0619804 -0.23097 0.1
    endloop
  endfacet
  facet normal -0.321425 -0.946935 -0
    outer loop
       vertex 0.0619804 -0.23097 0.1
       vertex 0.0619804 -0.23097 0
       vertex 0.0929464 -0.241481 0
    endloop
  endfacet
  facet normal -0.442302 -0.896866 0
    outer loop
       vertex 0.0619804 -0.23097 0
       vertex 0.0619804 -0.23097 0.1
       vertex 0.0326514 -0.216506 0.1
    endloop
  endfacet
  facet normal -0.442302 -0.896866 -0
    outer loop
       vertex 0.0326514 -0.216506 0.1
       vertex 0.0326514 -0.216506 0
       vertex 0.0619804 -0.23097 0
    endloop
  endfacet
  facet normal -0.555561 -0.831476 0
    outer loop
       vertex 0.0326514 -0.216506 0
       vertex 0.0326514 -0.216506 0.1
       vertex 0.00546043 -0.198338 0.1
    endloop
  endfacet
  facet normal -0.555561 -0.831476 -0
    outer loop
       vertex 0.00546043 -0.198338 0.1
       vertex 0.00546043 -0.198338 0
       vertex 0.0326514 -0.216506 0
    endloop
  endfacet
  facet normal -0.659372 -0.751817 0
    outer loop
       vertex 0.00546043 -0.198338 0
       vertex 0.00546043 -0.198338 0.1
       vertex -0.0191246 -0.176776 0.1
    endloop
  endfacet
  facet normal -0.659372 -0.751817 -0
    outer loop
       vertex -0.0191246 -0.176776 0.1
       vertex -0.0191246 -0.176776 0
       vertex 0.00546043 -0.198338 0
    endloop
  endfacet
endsolid cylinder
