solid cylinder
  facet normal 0.751817 -0.659372 0
    outer loop
       vertex 0.235554 -0.176776 0
       vertex 0.257116 -0.152191 0
       vertex 0.257116 -0.152191 0.1
    endloop
  endfacet
  facet normal 0.751817 -0.659372 0
    outer loop
       vertex 0.257116 -0.152191 0.1
       vertex 0.235554 -0.176776 0.1
       vertex 0.235554 -0.176776 0
    endloop
  endfacet
  facet normal 0.831476 -0.555561 0
    outer loop
       vertex 0.257116 -0.152191 0
       vertex 0.275284 -0.125 0
       vertex 0.275284 -0.125 0.1
    endloop
  endfacet
  facet normal 0.831476 -0.555561 0
    outer loop
       vertex 0.275284 -0.125 0.1
       vertex 0.257116 -0.152191 0.1
       vertex 0.257116 -0.152191 0
    endloop
  endfacet
  facet normal 0.896866 -0.442302 0
    outer loop
       vertex 0.275284 -0.125 0
       vertex 0.289748 -0.095671 0
       vertex 0.289748 -0.095671 0.1
    endloop
  endfacet
  facet normal 0.896866 -0.442302 0
    outer loop
       vertex 0.289748 -0.095671 0.1
       vertex 0.275284 -0.125 0.1
       vertex 0.275284 -0.125 0
    endloop
  endfacet
  facet normal 0.946935 -0.321425 0
    outer loop
       vertex 0.289748 -0.095671 0
       vertex 0.300259 -0.064705 0
       vertex 0.300259 -0.064705 0.1
    endloop
  endfacet
  facet normal 0.946935 -0.321425 0
    outer loop
       vertex 0.300259 -0.064705 0.1
       vertex 0.289748 -0.095671 0.1
       vertex 0.289748 -0.095671 0
    endloop
  endfacet
  facet normal 0.980784 -0.195096 0
    outer loop
       vertex 0.300259 -0.064705 0
       vertex 0.306639 -0.0326315 0
       vertex 0.306639 -0.0326315 0.1
    endloop
  endfacet
  facet normal 0.980784 -0.195096 0
    outer loop
       vertex 0.306639 -0.0326315 0.1
       vertex 0.300259 -0.064705 0.1
       vertex 0.300259 -0.064705 0
    endloop
  endfacet
  facet normal 0.997858 -0.0654098 0
    outer loop
       vertex 0.308778 -8.32665e-17 0.1
       vertex 0.306639 -0.0326315 0.1
       vertex 0.306639 -0.0326315 0
    endloop
  endfacet
  facet normal 0.997858 -0.0654098 -1.08928e-16
    outer loop
       vertex 0.306639 -0.0326315 0
       vertex 0.308778 8.32665e-17 0
       vertex 0.308778 -8.32665e-17 0.1
    endloop
  endfacet
  facet normal 0.997858 0.0654098 0
    outer loop
       vertex 0.308778 8.32665e-17 0
       vertex 0.306639 0.0326315 0
       vertex 0.306639 0.0326315 0.1
    endloop
  endfacet
  facet normal 0.997858 0.0654098 1.08928e-16
    outer loop
       vertex 0.306639 0.0326315 0.1
       vertex 0.308778 -8.32665e-17 0.1
       vertex 0.308778 8.32665e-17 0
    endloop
  endfacet
  facet normal 0.980784 0.195096 0
    outer loop
       vertex 0.306639 0.0326315 0
       vertex 0.300259 0.064705 0
       vertex 0.300259 0.064705 0.1
    endloop
  endfacet
  facet normal 0.980784 0.195096 0
    outer loop
       vertex 0.300259 0.064705 0.1
       vertex 0.306639 0.0326315 0.1
       vertex 0.306639 0.0326315 0
    endloop
  endfacet
  facet normal 0.946935 0.321425 0
    outer loop
       vertex 0.300259 0.064705 0
       vertex 0.289748 0.095671 0
       vertex 0.289748 0.095671 0.1
    endloop
  endfacet
  facet normal 0.946935 0.321425 0
    outer loop
       vertex 0.289748 0.095671 0.1
       vertex 0.300259 0.064705 0.1
       vertex 0.300259 0.064705 0
    endloop
  endfacet
  facet normal 0.896866 0.442302 0
    outer loop
       vertex 0.289748 0.095671 0
       vertex 0.275284 0.125 0
       vertex 0.275284 0.125 0.1
    endloop
  endfacet
  facet normal 0.896866 0.442302 0
    outer loop
       vertex 0.275284 0.125 0.1
       vertex 0.289748 0.095671 0.1
       vertex 0.289748 0.095671 0
    endloop
  endfacet
  facet normal 0.831476 0.555561 0
    outer loop
       vertex 0.275284 0.125 0
       vertex 0.257116 0.152191 0
       vertex 0.257116 0.152191 0.1
    endloop
  endfacet
  facet normal 0.831476 0.555561 0
    outer loop
       vertex 0.257116 0.152191 0.1
       vertex 0.275284 0.125 0.1
       vertex 0.275284 0.125 0
    endloop
  endfacet
  facet normal 0.751817 0.659372 0
    outer loop
       vertex 0.257116 0.152191 0
       vertex 0.235554 0.176776 0
       vertex 0.235554 0.176776 0.1
    endloop
  endfacet
  facet normal 0.751817 0.659372 0
    outer loop
       vertex 0.235554 0.176776 0.1
       vertex 0.257116 0.152191 0.1
       vertex 0.257116 0.152191 0
    endloop
  endfacet
  facet normal 0.659372 0.751817 0
    outer loop
       vertex 0.235554 0.176776 0
       vertex 0.210969 0.198338 0
       vertex 0.210969 0.198338 0.1
    endloop
  endfacet
  facet normal 0.659372 0.751817 0
    outer loop
       vertex 0.210969 0.198338 0.1
       vertex 0.235554 0.176776 0.1
       vertex 0.235554 0.176776 0
    endloop
  endfacet
  facet normal 0.555561 0.831476 0
    outer loop
       vertex 0.210969 0.198338 0
       vertex 0.183778 0.216506 0
       vertex 0.183778 0.216506 0.1
    endloop
  endfacet
  facet normal 0.555561 0.831476 0
    outer loop
       vertex 0.183778 0.216506 0.1
       vertex 0.210969 0.198338 0.1
       vertex 0.210969 0.198338 0
    endloop
  endfacet
  facet normal 0.442302 0.896866 0
    outer loop
       vertex 0.183778 0.216506 0
       vertex 0.154449 0.23097 0
       vertex 0.154449 0.23097 0.1
    endloop
  endfacet
  facet normal 0.442302 0.896866 0
    outer loop
       vertex 0.154449 0.23097 0.1
       vertex 0.183778 0.216506 0.1
       vertex 0.183778 0.216506 0
    endloop
  endfacet
  facet normal 0.321425 0.946935 0
    outer loop
       vertex 0.154449 0.23097 0
       vertex 0.123483 0.241481 0
       vertex 0.123483 0.241481 0.1
    endloop
  endfacet
  facet normal 0.321425 0.946935 0
    outer loop
       vertex 0.123483 0.241481 0.1
       vertex 0.154449 0.23097 0.1
       vertex 0.154449 0.23097 0
    endloop
  endfacet
  facet normal 0.195096 0.980784 0
    outer loop
       vertex 0.123483 0.241481 0
       vertex 0.0914093 0.247861 0
       vertex 0.0914093 0.247861 0.1
    endloop
  endfacet
  facet normal 0.195096 0.980784 0
    outer loop
       vertex 0.0914093 0.247861 0.1
       vertex 0.123483 0.241481 0.1
       vertex 0.123483 0.241481 0
    endloop
  endfacet
  facet normal 0.0654098 0.997858 0
    outer loop
       vertex 0.0587778 0.25 0.1
       vertex 0.0914093 0.247861 0.1
       vertex 0.0914093 0.247861 0
    endloop
  endfacet
  facet normal 0.0654098 0.997858 -1.08928e-16
    outer loop
       vertex 0.0914093 0.247861 0
       vertex 0.0587778 0.25 0
       vertex 0.0587778 0.25 0.1
    endloop
  endfacet
  facet normal -0.0654098 0.997858 0
    outer loop
       vertex 0.0587778 0.25 0
       vertex 0.0261463 0.247861 0
       vertex 0.0261463 0.247861 0.1
    endloop
  endfacet
  facet normal -0.0654098 0.997858 1.08928e-16
    outer loop
       vertex 0.0261463 0.247861 0.1
       vertex 0.0587778 0.25 0.1
       vertex 0.0587778 0.25 0
    endloop
  endfacet
  facet normal -0.195096 0.980784 0
    outer loop
       vertex 0.0261463 0.247861 0
       vertex -0.00592715 0.241481 0
       vertex -0.00592715 0.241481 0.1
    endloop
  endfacet
  facet normal -0.195096 0.980784 0
    outer loop
       vertex -0.00592715 0.241481 0.1
       vertex 0.0261463 0.247861 0.1
       vertex 0.0261463 0.247861 0
    endloop
  endfacet
  facet normal -0.321425 0.946935 0
    outer loop
       vertex -0.00592715 0.241481 0
       vertex -0.0368932 0.23097 0
       vertex -0.0368932 0.23097 0.1
    endloop
  endfacet
  facet normal -0.321425 0.946935 0
    outer loop
       vertex -0.0368932 0.23097 0.1
       vertex -0.00592715 0.241481 0.1
       vertex -0.00592715 0.241481 0
    endloop
  endfacet
  facet normal -0.442302 0.896866 0
    outer loop
       vertex -0.0368932 0.23097 0
       vertex -0.0662222 0.216506 0
       vertex -0.0662222 0.216506 0.1
    endloop
  endfacet
  facet normal -0.442302 0.896866 0
    outer loop
       vertex -0.0662222 0.216506 0.1
       vertex -0.0368932 0.23097 0.1
       vertex -0.0368932 0.23097 0
    endloop
  endfacet
  facet normal -0.555561 0.831476 0
    outer loop
       vertex -0.0662222 0.216506 0
       vertex -0.0934132 0.198338 0
       vertex -0.0934132 0.198338 0.1
    endloop
  endfacet
  facet normal -0.555561 0.831476 0
    outer loop
       vertex -0.0934132 0.198338 0.1
       vertex -0.0662222 0.216506 0.1
       vertex -0.0662222 0.216506 0
    endloop
  endfacet
  facet normal -0.659372 0.751817 0
    outer loop
       vertex -0.0934132 0.198338 0
       vertex -0.117998 0.176776 0
       vertex -0.117998 0.176776 0.1
    endloop
  endfacet
  facet normal -0.659372 0.751817 0
    outer loop
       vertex -0.117998 0.176776 0.1
       vertex -0.0934132 0.198338 0.1
       vertex -0.0934132 0.198338 0
    endloop
  endfacet
  facet normal -0.751817 0.659372 0
    outer loop
       vertex -0.117998 0.176776 0
       vertex -0.13956 0.152191 0
       vertex -0.13956 0.152191 0.1
    endloop
  endfacet
  facet normal -0.751817 0.659372 0
    outer loop
       vertex -0.13956 0.152191 0.1
       vertex -0.117998 0.176776 0.1
       vertex -0.117998 0.176776 0
    endloop
  endfacet
  facet normal -0.831476 0.555561 0
    outer loop
       vertex -0.13956 0.152191 0
       vertex -0.157728 0.125 0
       vertex -0.157728 0.125 0.1
    endloop
  endfacet
  facet normal -0.831476 0.555561 0
    outer loop
       vertex -0.157728 0.125 0.1
       vertex -0.13956 0.152191 0.1
       vertex -0.13956 0.152191 0
    endloop
  endfacet
  facet normal -0.896866 0.442302 0
    outer loop
       vertex -0.157728 0.125 0
       vertex -0.172192 0.095671 0
       vertex -0.172192 0.095671 0.1
    endloop
  endfacet
  facet normal -0.896866 0.442302 0
    outer loop
       vertex -0.172192 0.095671 0.1
       vertex -0.157728 0.125 0.1
       vertex -0.157728 0.125 0
    endloop
  endfacet
  facet normal -0.946935 0.321425 0
    outer loop
       vertex -0.172192 0.095671 0
       vertex -0.182703 0.064705 0
       vertex -0.182703 0.064705 0.1
    endloop
  endfacet
  facet normal -0.946935 0.321425 0
    outer loop
       vertex -0.182703 0.064705 0.1
       vertex -0.172192 0.095671 0.1
       vertex -0.172192 0.095671 0
    endloop
  endfacet
  facet normal -0.980784 0.195096 0
    outer loop
       vertex -0.182703 0.064705 0
       vertex -0.189083 0.0326315 0
       vertex -0.189083 0.0326315 0.1
    endloop
  endfacet
  facet normal -0.980784 0.195096 0
    outer loop
       vertex -0.189083 0.0326315 0.1
       vertex -0.182703 0.064705 0.1
       vertex -0.182703 0.064705 0
    endloop
  endfacet
  facet normal -0.997858 0.0654098 0
    outer loop
       vertex -0.191222 8.32665e-17 0.1
       vertex -0.189083 0.0326315 0.1
       vertex -0.189083 0.0326315 0
    endloop
  endfacet
  facet normal -0.997858 0.0654098 -1.08928e-16
    outer loop
       vertex -0.189083 0.0326315 0
       vertex -0.191222 -8.32665e-17 0
       vertex -0.191222 8.32665e-17 0.1
    endloop
  endfacet
  facet normal -0.997858 -0.0654098 0
    outer loop
       vertex -0.191222 -8.32665e-17 0
       vertex -0.189083 -0.0326315 0
       vertex -0.189083 -0.0326315 0.1
    endloop
  endfacet
  facet normal -0.997858 -0.0654098 1.08928e-16
    outer loop
       vertex -0.189083 -0.0326315 0.1
       vertex -0.191222 8.32665e-17 0.1
       vertex -0.191222 -8.32665e-17 0
    endloop
  endfacet
  facet normal -0.980784 -0.195096 0
    outer loop
       vertex -0.189083 -0.0326315 0
       vertex -0.182703 -0.064705 0
       vertex -0.182703 -0.064705 0.1
    endloop
  endfacet
  facet normal -0.980784 -0.195096 0
    outer loop
       vertex -0.182703 -0.064705 0.1
       vertex -0.189083 -0.0326315 0.1
       vertex -0.189083 -0.0326315 0
    endloop
  endfacet
  facet normal -0.946935 -0.321425 0
    outer loop
       vertex -0.182703 -0.064705 0
       vertex -0.172192 -0.095671 0
       vertex -0.172192 -0.095671 0.1
    endloop
  endfacet
  facet normal -0.946935 -0.321425 0
    outer loop
       vertex -0.172192 -0.095671 0.1
       vertex -0.182703 -0.064705 0.1
       vertex -0.182703 -0.064705 0
    endloop
  endfacet
  facet normal -0.896866 -0.442302 0
    outer loop
       vertex -0.172192 -0.095671 0
       vertex -0.157728 -0.125 0
       vertex -0.157728 -0.125 0.1
    endloop
  endfacet
  facet normal -0.896866 -0.442302 0
    outer loop
       vertex -0.157728 -0.125 0.1
       vertex -0.172192 -0.095671 0.1
       vertex -0.172192 -0.095671 0
    endloop
  endfacet
  facet normal -0.831476 -0.555561 0
    outer loop
       vertex -0.157728 -0.125 0
       vertex -0.13956 -0.152191 0
       vertex -0.13956 -0.152191 0.1
    endloop
  endfacet
  facet normal -0.831476 -0.555561 0
    outer loop
       vertex -0.13956 -0.152191 0.1
       vertex -0.157728 -0.125 0.1
       vertex -0.157728 -0.125 0
    endloop
  endfacet
  facet normal -0.751817 -0.659372 0
    outer loop
       vertex -0.13956 -0.152191 0
       vertex -0.117998 -0.176776 0
       vertex -0.117998 -0.176776 0.1
    endloop
  endfacet
  facet normal -0.751817 -0.659372 0
    outer loop
       vertex -0.117998 -0.176776 0.1
       vertex -0.13956 -0.152191 0.1
       vertex -0.13956 -0.152191 0
    endloop
  endfacet
  facet normal 0.659372 -0.751817 0
    outer loop
       vertex 0.235554 -0.176776 0
       vertex 0.235554 -0.176776 0.1
       vertex 0.210969 -0.198338 0.1
    endloop
  endfacet
  facet normal 0.659372 -0.751817 0
    outer loop
       vertex 0.210969 -0.198338 0.1
       vertex 0.210969 -0.198338 0
       vertex 0.235554 -0.176776 0
    endloop
  endfacet
  facet normal 0.555561 -0.831476 0
    outer loop
       vertex 0.210969 -0.198338 0
       vertex 0.210969 -0.198338 0.1
       vertex 0.183778 -0.216506 0.1
    endloop
  endfacet
  facet normal 0.555561 -0.831476 0
    outer loop
       vertex 0.183778 -0.216506 0.1
       vertex 0.183778 -0.216506 0
       vertex 0.210969 -0.198338 0
    endloop
  endfacet
  facet normal 0.442302 -0.896866 0
    outer loop
       vertex 0.183778 -0.216506 0
       vertex 0.183778 -0.216506 0.1
       vertex 0.154449 -0.23097 0.1
    endloop
  endfacet
  facet normal 0.442302 -0.896866 0
    outer loop
       vertex 0.154449 -0.23097 0.1
       vertex 0.154449 -0.23097 0
       vertex 0.183778 -0.216506 0
    endloop
  endfacet
  facet normal 0.321425 -0.946935 0
    outer loop
       vertex 0.154449 -0.23097 0
       vertex 0.154449 -0.23097 0.1
       vertex 0.123483 -0.241481 0.1
    endloop
  endfacet
  facet normal 0.321425 -0.946935 0
    outer loop
       vertex 0.123483 -0.241481 0.1
       vertex 0.123483 -0.241481 0
       vertex 0.154449 -0.23097 0
    endloop
  endfacet
  facet normal 0.195096 -0.980784 0
    outer loop
       vertex 0.123483 -0.241481 0
       vertex 0.123483 -0.241481 0.1
       vertex 0.0914093 -0.247861 0.1
    endloop
  endfacet
  facet normal 0.195096 -0.980784 0
    outer loop
       vertex 0.0914093 -0.247861 0.1
       vertex 0.0914093 -0.247861 0
       vertex 0.123483 -0.241481 0
    endloop
  endfacet
  facet normal 0.0654098 -0.997858 0
    outer loop
       vertex 0.0587778 -0.25 0
       vertex 0.0914093 -0.247861 0
       vertex 0.0914093 -0.247861 0.1
    endloop
  endfacet
  facet normal 0.0654098 -0.997858 1.08928e-16
    outer loop
       vertex 0.0914093 -0.247861 0.1
       vertex 0.0587778 -0.25 0.1
       vertex 0.0587778 -0.25 0
    endloop
  endfacet
  facet normal -0.0654098 -0.997858 0
    outer loop
       vertex 0.0587778 -0.25 0.1
       vertex 0.0261463 -0.247861 0.1
       vertex 0.0261463 -0.247861 0
    endloop
  endfacet
  facet normal -0.0654098 -0.997858 -1.08928e-16
    outer loop
       vertex 0.0261463 -0.247861 0
       vertex 0.0587778 -0.25 0
       vertex 0.0587778 -0.25 0.1
    endloop
  endfacet
  facet normal -0.195096 -0.980784 0
    outer loop
       vertex 0.0261463 -0.247861 0
       vertex 0.0261463 -0.247861 0.1
       vertex -0.00592715 -0.241481 0.1
    endloop
  endfacet
  facet normal -0.195096 -0.980784 -0
    outer loop
       vertex -0.00592715 -0.241481 0.1
       vertex -0.00592715 -0.241481 0
       vertex 0.0261463 -0.247861 0
    endloop
  endfacet
  facet normal -0.321425 -0.946935 0
    outer loop
       vertex -0.00592715 -0.241481 0
       vertex -0.00592715 -0.241481 0.1
       vertex -0.0368932 -0.23097 0.1
    endloop
  endfacet
  facet normal -0.321425 -0.946935 -0
    outer loop
       vertex -0.0368932 -0.23097 0.1
       vertex -0.0368932 -0.23097 0
       vertex -0.00592715 -0.241481 0
    endloop
  endfacet
  facet normal -0.442302 -0.896866 0
    outer loop
       vertex -0.0368932 -0.23097 0
       vertex -0.0368932 -0.23097 0.1
       vertex -0.0662222 -0.216506 0.1
    endloop
  endfacet
  facet normal -0.442302 -0.896866 -0
    outer loop
       vertex -0.0662222 -0.216506 0.1
       vertex -0.0662222 -0.216506 0
       vertex -0.0368932 -0.23097 0
    endloop
  endfacet
  facet normal -0.555561 -0.831476 0
    outer loop
       vertex -0.0662222 -0.216506 0
       vertex -0.0662222 -0.216506 0.1
       vertex -0.0934132 -0.198338 0.1
    endloop
  endfacet
  facet normal -0.555561 -0.831476 -0
    outer loop
       vertex -0.0934132 -0.198338 0.1
       vertex -0.0934132 -0.198338 0
       vertex -0.0662222 -0.216506 0
    endloop
  endfacet
  facet normal -0.659372 -0.751817 0
    outer loop
       vertex -0.0934132 -0.198338 0
       vertex -0.0934132 -0.198338 0.1
       vertex -0.117998 -0.176776 0.1
    endloop
  endfacet
  facet normal -0.659372 -0.751817 -0
    outer loop
       vertex -0.117998 -0.176776 0.1
       vertex -0.117998 -0.176776 0
       vertex -0.0934132 -0.198338 0
    endloop
  endfacet
endsolid cylinder
