solid cylinder
  facet normal 0.751817 -0.659372 0
    outer loop
       vertex 0.26439 -0.176776 0
       vertex 0.285952 -0.152191 0
       vertex 0.285952 -0.152191 0.1
    endloop
  endfacet
  facet normal 0.751817 -0.659372 0
    outer loop
       vertex 0.285952 -0.152191 0.1
       vertex 0.26439 -0.176776 0.1
       vertex 0.26439 -0.176776 0
    endloop
  endfacet
  facet normal 0.831476 -0.555561 0
    outer loop
       vertex 0.285952 -0.152191 0
       vertex 0.30412 -0.125 0
       vertex 0.30412 -0.125 0.1
    endloop
  endfacet
  facet normal 0.831476 -0.555561 0
    outer loop
       vertex 0.30412 -0.125 0.1
       vertex 0.285952 -0.152191 0.1
       vertex 0.285952 -0.152191 0
    endloop
  endfacet
  facet normal 0.896866 -0.442302 0
    outer loop
       vertex 0.30412 -0.125 0
       vertex 0.318584 -0.095671 0
       vertex 0.318584 -0.095671 0.1
    endloop
  endfacet
  facet normal 0.896866 -0.442302 0
    outer loop
       vertex 0.318584 -0.095671 0.1
       vertex 0.30412 -0.125 0.1
       vertex 0.30412 -0.125 0
    endloop
  endfacet
  facet normal 0.946935 -0.321425 0
    outer loop
       vertex 0.318584 -0.095671 0
       vertex 0.329095 -0.064705 0
       vertex 0.329095 -0.064705 0.1
    endloop
  endfacet
  facet normal 0.946935 -0.321425 0
    outer loop
       vertex 0.329095 -0.064705 0.1
       vertex 0.318584 -0.095671 0.1
       vertex 0.318584 -0.095671 0
    endloop
  endfacet
  facet normal 0.980784 -0.195096 0
    outer loop
       vertex 0.329095 -0.064705 0
       vertex 0.335475 -0.0326315 0
       vertex 0.335475 -0.0326315 0.1
    endloop
  endfacet
  facet normal 0.980784 -0.195096 0
    outer loop
       vertex 0.335475 -0.0326315 0.1
       vertex 0.329095 -0.064705 0.1
       vertex 0.329095 -0.064705 0
    endloop
  endfacet
  facet normal 0.997858 -0.0654098 0
    outer loop
       vertex 0.337614 -8.32665e-17 0.1
       vertex 0.335475 -0.0326315 0.1
       vertex 0.335475 -0.0326315 0
    endloop
  endfacet
  facet normal 0.997858 -0.0654098 -1.08928e-16
    outer loop
       vertex 0.335475 -0.0326315 0
       vertex 0.337614 8.32665e-17 0
       vertex 0.337614 -8.32665e-17 0.1
    endloop
  endfacet
  facet normal 0.997858 0.0654098 0
    outer loop
       vertex 0.337614 8.32665e-17 0
       vertex 0.335475 0.0326315 0
       vertex 0.335475 0.0326315 0.1
    endloop
  endfacet
  facet normal 0.997858 0.0654098 1.08928e-16
    outer loop
       vertex 0.335475 0.0326315 0.1
       vertex 0.337614 -8.32665e-17 0.1
       vertex 0.337614 8.32665e-17 0
    endloop
  endfacet
  facet normal 0.980784 0.195096 0
    outer loop
       vertex 0.335475 0.0326315 0
       vertex 0.329095 0.064705 0
       vertex 0.329095 0.064705 0.1
    endloop
  endfacet
  facet normal 0.980784 0.195096 0
    outer loop
       vertex 0.329095 0.064705 0.1
       vertex 0.335475 0.0326315 0.1
       vertex 0.335475 0.0326315 0
    endloop
  endfacet
  facet normal 0.946935 0.321425 0
    outer loop
       vertex 0.329095 0.064705 0
       vertex 0.318584 0.095671 0
       vertex 0.318584 0.095671 0.1
    endloop
  endfacet
  facet normal 0.946935 0.321425 0
    outer loop
       vertex 0.318584 0.095671 0.1
       vertex 0.329095 0.064705 0.1
       vertex 0.329095 0.064705 0
    endloop
  endfacet
  facet normal 0.896866 0.442302 0
    outer loop
       vertex 0.318584 0.095671 0
       vertex 0.30412 0.125 0
       vertex 0.30412 0.125 0.1
    endloop
  endfacet
  facet normal 0.896866 0.442302 0
    outer loop
       vertex 0.30412 0.125 0.1
       vertex 0.318584 0.095671 0.1
       vertex 0.318584 0.095671 0
    endloop
  endfacet
  facet normal 0.831476 0.555561 0
    outer loop
       vertex 0.30412 0.125 0
       vertex 0.285952 0.152191 0
       vertex 0.285952 0.152191 0.1
    endloop
  endfacet
  facet normal 0.831476 0.555561 0
    outer loop
       vertex 0.285952 0.152191 0.1
       vertex 0.30412 0.125 0.1
       vertex 0.30412 0.125 0
    endloop
  endfacet
  facet normal 0.751817 0.659372 0
    outer loop
       vertex 0.285952 0.152191 0
       vertex 0.26439 0.176776 0
       vertex 0.26439 0.176776 0.1
    endloop
  endfacet
  facet normal 0.751817 0.659372 0
    outer loop
       vertex 0.26439 0.176776 0.1
       vertex 0.285952 0.152191 0.1
       vertex 0.285952 0.152191 0
    endloop
  endfacet
  facet normal 0.659372 0.751817 0
    outer loop
       vertex 0.26439 0.176776 0
       vertex 0.239805 0.198338 0
       vertex 0.239805 0.198338 0.1
    endloop
  endfacet
  facet normal 0.659372 0.751817 0
    outer loop
       vertex 0.239805 0.198338 0.1
       vertex 0.26439 0.176776 0.1
       vertex 0.26439 0.176776 0
    endloop
  endfacet
  facet normal 0.555561 0.831476 0
    outer loop
       vertex 0.239805 0.198338 0
       vertex 0.212614 0.216506 0
       vertex 0.212614 0.216506 0.1
    endloop
  endfacet
  facet normal 0.555561 0.831476 0
    outer loop
       vertex 0.212614 0.216506 0.1
       vertex 0.239805 0.198338 0.1
       vertex 0.239805 0.198338 0
    endloop
  endfacet
  facet normal 0.442302 0.896866 0
    outer loop
       vertex 0.212614 0.216506 0
       vertex 0.183285 0.23097 0
       vertex 0.183285 0.23097 0.1
    endloop
  endfacet
  facet normal 0.442302 0.896866 0
    outer loop
       vertex 0.183285 0.23097 0.1
       vertex 0.212614 0.216506 0.1
       vertex 0.212614 0.216506 0
    endloop
  endfacet
  facet normal 0.321425 0.946935 0
    outer loop
       vertex 0.183285 0.23097 0
       vertex 0.152319 0.241481 0
       vertex 0.152319 0.241481 0.1
    endloop
  endfacet
  facet normal 0.321425 0.946935 0
    outer loop
       vertex 0.152319 0.241481 0.1
       vertex 0.183285 0.23097 0.1
       vertex 0.183285 0.23097 0
    endloop
  endfacet
  facet normal 0.195096 0.980784 0
    outer loop
       vertex 0.152319 0.241481 0
       vertex 0.120245 0.247861 0
       vertex 0.120245 0.247861 0.1
    endloop
  endfacet
  facet normal 0.195096 0.980784 0
    outer loop
       vertex 0.120245 0.247861 0.1
       vertex 0.152319 0.241481 0.1
       vertex 0.152319 0.241481 0
    endloop
  endfacet
  facet normal 0.0654098 0.997858 0
    outer loop
       vertex 0.0876138 0.25 0.1
       vertex 0.120245 0.247861 0.1
       vertex 0.120245 0.247861 0
    endloop
  endfacet
  facet normal 0.0654098 0.997858 -1.0893e-16
    outer loop
       vertex 0.120245 0.247861 0
       vertex 0.0876138 0.25 0
       vertex 0.0876138 0.25 0.1
    endloop
  endfacet
  facet normal -0.0654098 0.997858 0
    outer loop
       vertex 0.0876138 0.25 0
       vertex 0.0549823 0.247861 0
       vertex 0.0549823 0.247861 0.1
    endloop
  endfacet
  facet normal -0.0654098 0.997858 1.08928e-16
    outer loop
       vertex 0.0549823 0.247861 0.1
       vertex 0.0876138 0.25 0.1
       vertex 0.0876138 0.25 0
    endloop
  endfacet
  facet normal -0.195096 0.980784 0
    outer loop
       vertex 0.0549823 0.247861 0
       vertex 0.0229088 0.241481 0
       vertex 0.0229088 0.241481 0.1
    endloop
  endfacet
  facet normal -0.195096 0.980784 0
    outer loop
       vertex 0.0229088 0.241481 0.1
       vertex 0.0549823 0.247861 0.1
       vertex 0.0549823 0.247861 0
    endloop
  endfacet
  facet normal -0.321425 0.946935 0
    outer loop
       vertex 0.0229088 0.241481 0
       vertex -0.00805724 0.23097 0
       vertex -0.00805724 0.23097 0.1
    endloop
  endfacet
  facet normal -0.321425 0.946935 0
    outer loop
       vertex -0.00805724 0.23097 0.1
       vertex 0.0229088 0.241481 0.1
       vertex 0.0229088 0.241481 0
    endloop
  endfacet
  facet normal -0.442302 0.896866 0
    outer loop
       vertex -0.00805724 0.23097 0
       vertex -0.0373862 0.216506 0
       vertex -0.0373862 0.216506 0.1
    endloop
  endfacet
  facet normal -0.442302 0.896866 0
    outer loop
       vertex -0.0373862 0.216506 0.1
       vertex -0.00805724 0.23097 0.1
       vertex -0.00805724 0.23097 0
    endloop
  endfacet
  facet normal -0.555561 0.831476 0
    outer loop
       vertex -0.0373862 0.216506 0
       vertex -0.0645772 0.198338 0
       vertex -0.0645772 0.198338 0.1
    endloop
  endfacet
  facet normal -0.555561 0.831476 0
    outer loop
       vertex -0.0645772 0.198338 0.1
       vertex -0.0373862 0.216506 0.1
       vertex -0.0373862 0.216506 0
    endloop
  endfacet
  facet normal -0.659372 0.751817 0
    outer loop
       vertex -0.0645772 0.198338 0
       vertex -0.0891622 0.176776 0
       vertex -0.0891622 0.176776 0.1
    endloop
  endfacet
  facet normal -0.659372 0.751817 0
    outer loop
       vertex -0.0891622 0.176776 0.1
       vertex -0.0645772 0.198338 0.1
       vertex -0.0645772 0.198338 0
    endloop
  endfacet
  facet normal -0.751817 0.659372 0
    outer loop
       vertex -0.0891622 0.176776 0
       vertex -0.110724 0.152191 0
       vertex -0.110724 0.152191 0.1
    endloop
  endfacet
  facet normal -0.751817 0.659372 0
    outer loop
       vertex -0.110724 0.152191 0.1
       vertex -0.0891622 0.176776 0.1
       vertex -0.0891622 0.176776 0
    endloop
  endfacet
  facet normal -0.831476 0.555561 0
    outer loop
       vertex -0.110724 0.152191 0
       vertex -0.128892 0.125 0
       vertex -0.128892 0.125 0.1
    endloop
  endfacet
  facet normal -0.831476 0.555561 0
    outer loop
       vertex -0.128892 0.125 0.1
       vertex -0.110724 0.152191 0.1
       vertex -0.110724 0.152191 0
    endloop
  endfacet
  facet normal -0.896866 0.442302 0
    outer loop
       vertex -0.128892 0.125 0
       vertex -0.143356 0.095671 0
       vertex -0.143356 0.095671 0.1
    endloop
  endfacet
  facet normal -0.896866 0.442302 0
    outer loop
       vertex -0.143356 0.095671 0.1
       vertex -0.128892 0.125 0.1
       vertex -0.128892 0.125 0
    endloop
  endfacet
  facet normal -0.946935 0.321425 0
    outer loop
       vertex -0.143356 0.095671 0
       vertex -0.153867 0.064705 0
       vertex -0.153867 0.064705 0.1
    endloop
  endfacet
  facet normal -0.946935 0.321425 0
    outer loop
       vertex -0.153867 0.064705 0.1
       vertex -0.143356 0.095671 0.1
       vertex -0.143356 0.095671 0
    endloop
  endfacet
  facet normal -0.980784 0.195096 0
    outer loop
       vertex -0.153867 0.064705 0
       vertex -0.160247 0.0326315 0
       vertex -0.160247 0.0326315 0.1
    endloop
  endfacet
  facet normal -0.980784 0.195096 0
    outer loop
       vertex -0.160247 0.0326315 0.1
       vertex -0.153867 0.064705 0.1
       vertex -0.153867 0.064705 0
    endloop
  endfacet
  facet normal -0.997858 0.0654098 0
    outer loop
       vertex -0.162386 8.32665e-17 0.1
       vertex -0.160247 0.0326315 0.1
       vertex -0.160247 0.0326315 0
    endloop
  endfacet
  facet normal -0.997858 0.0654098 -1.08928e-16
    outer loop
       vertex -0.160247 0.0326315 0
       vertex -0.162386 -8.32665e-17 0
       vertex -0.162386 8.32665e-17 0.1
    endloop
  endfacet
  facet normal -0.997858 -0.0654098 0
    outer loop
       vertex -0.162386 -8.32665e-17 0
       vertex -0.160247 -0.0326315 0
       vertex -0.160247 -0.0326315 0.1
    endloop
  endfacet
  facet normal -0.997858 -0.0654098 1.08928e-16
    outer loop
       vertex -0.160247 -0.0326315 0.1
       vertex -0.162386 8.32665e-17 0.1
       vertex -0.162386 -8.32665e-17 0
    endloop
  endfacet
  facet normal -0.980784 -0.195096 0
    outer loop
       vertex -0.160247 -0.0326315 0
       vertex -0.153867 -0.064705 0
       vertex -0.153867 -0.064705 0.1
    endloop
  endfacet
  facet normal -0.980784 -0.195096 0
    outer loop
       vertex -0.153867 -0.064705 0.1
       vertex -0.160247 -0.0326315 0.1
       vertex -0.160247 -0.0326315 0
    endloop
  endfacet
  facet normal -0.946935 -0.321425 0
    outer loop
       vertex -0.153867 -0.064705 0
       vertex -0.143356 -0.095671 0
       vertex -0.143356 -0.095671 0.1
    endloop
  endfacet
  facet normal -0.946935 -0.321425 0
    outer loop
       vertex -0.143356 -0.095671 0.1
       vertex -0.153867 -0.064705 0.1
       vertex -0.153867 -0.064705 0
    endloop
  endfacet
  facet normal -0.896866 -0.442302 0
    outer loop
       vertex -0.143356 -0.095671 0
       vertex -0.128892 -0.125 0
       vertex -0.128892 -0.125 0.1
    endloop
  endfacet
  facet normal -0.896866 -0.442302 0
    outer loop
       vertex -0.128892 -0.125 0.1
       vertex -0.143356 -0.095671 0.1
       vertex -0.143356 -0.095671 0
    endloop
  endfacet
  facet normal -0.831476 -0.555561 0
    outer loop
       vertex -0.128892 -0.125 0
       vertex -0.110724 -0.152191 0
       vertex -0.110724 -0.152191 0.1
    endloop
  endfacet
  facet normal -0.831476 -0.555561 0
    outer loop
       vertex -0.110724 -0.152191 0.1
       vertex -0.128892 -0.125 0.1
       vertex -0.128892 -0.125 0
    endloop
  endfacet
  facet normal -0.751817 -0.659372 0
    outer loop
       vertex -0.110724 -0.152191 0
       vertex -0.0891622 -0.176776 0
       vertex -0.0891622 -0.176776 0.1
    endloop
  endfacet
  facet normal -0.751817 -0.659372 0
    outer loop
       vertex -0.0891622 -0.176776 0.1
       vertex -0.110724 -0.152191 0.1
       vertex -0.110724 -0.152191 0
    endloop
  endfacet
  facet normal 0.659372 -0.751817 0
    outer loop
       vertex 0.26439 -0.176776 0
       vertex 0.26439 -0.176776 0.1
       vertex 0.239805 -0.198338 0.1
    endloop
  endfacet
  facet normal 0.659372 -0.751817 0
    outer loop
       vertex 0.239805 -0.198338 0.1
       vertex 0.239805 -0.198338 0
       vertex 0.26439 -0.176776 0
    endloop
  endfacet
  facet normal 0.555561 -0.831476 0
    outer loop
       vertex 0.239805 -0.198338 0
       vertex 0.239805 -0.198338 0.1
       vertex 0.212614 -0.216506 0.1
    endloop
  endfacet
  facet normal 0.555561 -0.831476 0
    outer loop
       vertex 0.212614 -0.216506 0.1
       vertex 0.212614 -0.216506 0
       vertex 0.239805 -0.198338 0
    endloop
  endfacet
  facet normal 0.442302 -0.896866 0
    outer loop
       vertex 0.212614 -0.216506 0
       vertex 0.212614 -0.216506 0.1
       vertex 0.183285 -0.23097 0.1
    endloop
  endfacet
  facet normal 0.442302 -0.896866 0
    outer loop
       vertex 0.183285 -0.23097 0.1
       vertex 0.183285 -0.23097 0
       vertex 0.212614 -0.216506 0
    endloop
  endfacet
  facet normal 0.321425 -0.946935 0
    outer loop
       vertex 0.183285 -0.23097 0
       vertex 0.183285 -0.23097 0.1
       vertex 0.152319 -0.241481 0.1
    endloop
  endfacet
  facet normal 0.321425 -0.946935 0
    outer loop
       vertex 0.152319 -0.241481 0.1
       vertex 0.152319 -0.241481 0
       vertex 0.183285 -0.23097 0
    endloop
  endfacet
  facet normal 0.195096 -0.980784 0
    outer loop
       vertex 0.152319 -0.241481 0
       vertex 0.152319 -0.241481 0.1
       vertex 0.120245 -0.247861 0.1
    endloop
  endfacet
  facet normal 0.195096 -0.980784 0
    outer loop
       vertex 0.120245 -0.247861 0.1
       vertex 0.120245 -0.247861 0
       vertex 0.152319 -0.241481 0
    endloop
  endfacet
  facet normal 0.0654098 -0.997858 0
    outer loop
       vertex 0.0876138 -0.25 0
       vertex 0.120245 -0.247861 0
       vertex 0.120245 -0.247861 0.1
    endloop
  endfacet
  facet normal 0.0654098 -0.997858 1.0893e-16
    outer loop
       vertex 0.120245 -0.247861 0.1
       vertex 0.0876138 -0.25 0.1
       vertex 0.0876138 -0.25 0
    endloop
  endfacet
  facet normal -0.0654098 -0.997858 0
    outer loop
       vertex 0.0876138 -0.25 0.1
       vertex 0.0549823 -0.247861 0.1
       vertex 0.0549823 -0.247861 0
    endloop
  endfacet
  facet normal -0.0654098 -0.997858 -1.08928e-16
    outer loop
       vertex 0.0549823 -0.247861 0
       vertex 0.0876138 -0.25 0
       vertex 0.0876138 -0.25 0.1
    endloop
  endfacet
  facet normal -0.195096 -0.980784 0
    outer loop
       vertex 0.0549823 -0.247861 0
       vertex 0.0549823 -0.247861 0.1
       vertex 0.0229088 -0.241481 0.1
    endloop
  endfacet
  facet normal -0.195096 -0.980784 -0
    outer loop
       vertex 0.0229088 -0.241481 0.1
       vertex 0.0229088 -0.241481 0
       vertex 0.0549823 -0.247861 0
    endloop
  endfacet
  facet normal -0.321425 -0.946935 0
    outer loop
       vertex 0.0229088 -0.241481 0
       vertex 0.0229088 -0.241481 0.1
       vertex -0.00805724 -0.23097 0.1
    endloop
  endfacet
  facet normal -0.321425 -0.946935 -0
    outer loop
       vertex -0.00805724 -0.23097 0.1
       vertex -0.00805724 -0.23097 0
       vertex 0.0229088 -0.241481 0
    endloop
  endfacet
  facet normal -0.442302 -0.896866 0
    outer loop
       vertex -0.00805724 -0.23097 0
       vertex -0.00805724 -0.23097 0.1
       vertex -0.0373862 -0.216506 0.1
    endloop
  endfacet
  facet normal -0.442302 -0.896866 -0
    outer loop
       vertex -0.0373862 -0.216506 0.1
       vertex -0.0373862 -0.216506 0
       vertex -0.00805724 -0.23097 0
    endloop
  endfacet
  facet normal -0.555561 -0.831476 0
    outer loop
       vertex -0.0373862 -0.216506 0
       vertex -0.0373862 -0.216506 0.1
       vertex -0.0645772 -0.198338 0.1
    endloop
  endfacet
  facet normal -0.555561 -0.831476 -0
    outer loop
       vertex -0.0645772 -0.198338 0.1
       vertex -0.0645772 -0.198338 0
       vertex -0.0373862 -0.216506 0
    endloop
  endfacet
  facet normal -0.659372 -0.751817 0
    outer loop
       vertex -0.0645772 -0.198338 0
       vertex -0.0645772 -0.198338 0.1
       vertex -0.0891622 -0.176776 0.1
    endloop
  endfacet
  facet normal -0.659372 -0.751817 -0
    outer loop
       vertex -0.0891622 -0.176776 0.1
       vertex -0.0891622 -0.176776 0
       vertex -0.0645772 -0.198338 0
    endloop
  endfacet
endsolid cylinder
