solid cylinder
  facet normal 0.751817 -0.659372 0
    outer loop
       vertex 0.191086 -0.176776 0
       vertex 0.212648 -0.152191 0
       vertex 0.212648 -0.152191 0.1
    endloop
  endfacet
  facet normal 0.751817 -0.659372 0
    outer loop
       vertex 0.212648 -0.152191 0.1
       vertex 0.191086 -0.176776 0.1
       vertex 0.191086 -0.176776 0
    endloop
  endfacet
  facet normal 0.831476 -0.555561 0
    outer loop
       vertex 0.212648 -0.152191 0
       vertex 0.230816 -0.125 0
       vertex 0.230816 -0.125 0.1
    endloop
  endfacet
  facet normal 0.831476 -0.555561 0
    outer loop
       vertex 0.230816 -0.125 0.1
       vertex 0.212648 -0.152191 0.1
       vertex 0.212648 -0.152191 0
    endloop
  endfacet
  facet normal 0.896866 -0.442302 0
    outer loop
       vertex 0.230816 -0.125 0
       vertex 0.24528 -0.095671 0
       vertex 0.24528 -0.095671 0.1
    endloop
  endfacet
  facet normal 0.896866 -0.442302 0
    outer loop
       vertex 0.24528 -0.095671 0.1
       vertex 0.230816 -0.125 0.1
       vertex 0.230816 -0.125 0
    endloop
  endfacet
  facet normal 0.946935 -0.321425 0
    outer loop
       vertex 0.24528 -0.095671 0
       vertex 0.255791 -0.064705 0
       vertex 0.255791 -0.064705 0.1
    endloop
  endfacet
  facet normal 0.946935 -0.321425 0
    outer loop
       vertex 0.255791 -0.064705 0.1
       vertex 0.24528 -0.095671 0.1
       vertex 0.24528 -0.095671 0
    endloop
  endfacet
  facet normal 0.980784 -0.195096 0
    outer loop
       vertex 0.255791 -0.064705 0
       vertex 0.262171 -0.0326315 0
       vertex 0.262171 -0.0326315 0.1
    endloop
  endfacet
  facet normal 0.980784 -0.195096 0
    outer loop
       vertex 0.262171 -0.0326315 0.1
       vertex 0.255791 -0.064705 0.1
       vertex 0.255791 -0.064705 0
    endloop
  endfacet
  facet normal 0.997858 -0.0654098 0
    outer loop
       vertex 0.26431 -8.32665e-17 0.1
       vertex 0.262171 -0.0326315 0.1
       vertex 0.262171 -0.0326315 0
    endloop
  endfacet
  facet normal 0.997858 -0.0654098 -1.08928e-16
    outer loop
       vertex 0.262171 -0.0326315 0
       vertex 0.26431 8.32665e-17 0
       vertex 0.26431 -8.32665e-17 0.1
    endloop
  endfacet
  facet normal 0.997858 0.0654098 0
    outer loop
       vertex 0.26431 8.32665e-17 0
       vertex 0.262171 0.0326315 0
       vertex 0.262171 0.0326315 0.1
    endloop
  endfacet
  facet normal 0.997858 0.0654098 1.08928e-16
    outer loop
       vertex 0.262171 0.0326315 0.1
       vertex 0.26431 -8.32665e-17 0.1
       vertex 0.26431 8.32665e-17 0
    endloop
  endfacet
  facet normal 0.980784 0.195096 0
    outer loop
       vertex 0.262171 0.0326315 0
       vertex 0.255791 0.064705 0
       vertex 0.255791 0.064705 0.1
    endloop
  endfacet
  facet normal 0.980784 0.195096 0
    outer loop
       vertex 0.255791 0.064705 0.1
       vertex 0.262171 0.0326315 0.1
       vertex 0.262171 0.0326315 0
    endloop
  endfacet
  facet normal 0.946935 0.321425 0
    outer loop
       vertex 0.255791 0.064705 0
       vertex 0.24528 0.095671 0
       vertex 0.24528 0.095671 0.1
    endloop
  endfacet
  facet normal 0.946935 0.321425 0
    outer loop
       vertex 0.24528 0.095671 0.1
       vertex 0.255791 0.064705 0.1
       vertex 0.255791 0.064705 0
    endloop
  endfacet
  facet normal 0.896866 0.442302 0
    outer loop
       vertex 0.24528 0.095671 0
       vertex 0.230816 0.125 0
       vertex 0.230816 0.125 0.1
    endloop
  endfacet
  facet normal 0.896866 0.442302 0
    outer loop
       vertex 0.230816 0.125 0.1
       vertex 0.24528 0.095671 0.1
       vertex 0.24528 0.095671 0
    endloop
  endfacet
  facet normal 0.831476 0.555561 0
    outer loop
       vertex 0.230816 0.125 0
       vertex 0.212648 0.152191 0
       vertex 0.212648 0.152191 0.1
    endloop
  endfacet
  facet normal 0.831476 0.555561 0
    outer loop
       vertex 0.212648 0.152191 0.1
       vertex 0.230816 0.125 0.1
       vertex 0.230816 0.125 0
    endloop
  endfacet
  facet normal 0.751817 0.659372 0
    outer loop
       vertex 0.212648 0.152191 0
       vertex 0.191086 0.176776 0
       vertex 0.191086 0.176776 0.1
    endloop
  endfacet
  facet normal 0.751817 0.659372 0
    outer loop
       vertex 0.191086 0.176776 0.1
       vertex 0.212648 0.152191 0.1
       vertex 0.212648 0.152191 0
    endloop
  endfacet
  facet normal 0.659372 0.751817 0
    outer loop
       vertex 0.191086 0.176776 0
       vertex 0.166501 0.198338 0
       vertex 0.166501 0.198338 0.1
    endloop
  endfacet
  facet normal 0.659372 0.751817 0
    outer loop
       vertex 0.166501 0.198338 0.1
       vertex 0.191086 0.176776 0.1
       vertex 0.191086 0.176776 0
    endloop
  endfacet
  facet normal 0.555561 0.831476 0
    outer loop
       vertex 0.166501 0.198338 0
       vertex 0.13931 0.216506 0
       vertex 0.13931 0.216506 0.1
    endloop
  endfacet
  facet normal 0.555561 0.831476 0
    outer loop
       vertex 0.13931 0.216506 0.1
       vertex 0.166501 0.198338 0.1
       vertex 0.166501 0.198338 0
    endloop
  endfacet
  facet normal 0.442302 0.896866 0
    outer loop
       vertex 0.13931 0.216506 0
       vertex 0.109981 0.23097 0
       vertex 0.109981 0.23097 0.1
    endloop
  endfacet
  facet normal 0.442302 0.896866 0
    outer loop
       vertex 0.109981 0.23097 0.1
       vertex 0.13931 0.216506 0.1
       vertex 0.13931 0.216506 0
    endloop
  endfacet
  facet normal 0.321425 0.946935 0
    outer loop
       vertex 0.109981 0.23097 0
       vertex 0.0790148 0.241481 0
       vertex 0.0790148 0.241481 0.1
    endloop
  endfacet
  facet normal 0.321425 0.946935 0
    outer loop
       vertex 0.0790148 0.241481 0.1
       vertex 0.109981 0.23097 0.1
       vertex 0.109981 0.23097 0
    endloop
  endfacet
  facet normal 0.195096 0.980784 0
    outer loop
       vertex 0.0790148 0.241481 0
       vertex 0.0469413 0.247861 0
       vertex 0.0469413 0.247861 0.1
    endloop
  endfacet
  facet normal 0.195096 0.980784 0
    outer loop
       vertex 0.0469413 0.247861 0.1
       vertex 0.0790148 0.241481 0.1
       vertex 0.0790148 0.241481 0
    endloop
  endfacet
  facet normal 0.0654098 0.997858 0
    outer loop
       vertex 0.0143098 0.25 0.1
       vertex 0.0469413 0.247861 0.1
       vertex 0.0469413 0.247861 0
    endloop
  endfacet
  facet normal 0.0654098 0.997858 -1.0893e-16
    outer loop
       vertex 0.0469413 0.247861 0
       vertex 0.0143098 0.25 0
       vertex 0.0143098 0.25 0.1
    endloop
  endfacet
  facet normal -0.0654098 0.997858 0
    outer loop
       vertex 0.0143098 0.25 0
       vertex -0.0183217 0.247861 0
       vertex -0.0183217 0.247861 0.1
    endloop
  endfacet
  facet normal -0.0654098 0.997858 1.08928e-16
    outer loop
       vertex -0.0183217 0.247861 0.1
       vertex 0.0143098 0.25 0.1
       vertex 0.0143098 0.25 0
    endloop
  endfacet
  facet normal -0.195096 0.980784 0
    outer loop
       vertex -0.0183217 0.247861 0
       vertex -0.0503952 0.241481 0
       vertex -0.0503952 0.241481 0.1
    endloop
  endfacet
  facet normal -0.195096 0.980784 0
    outer loop
       vertex -0.0503952 0.241481 0.1
       vertex -0.0183217 0.247861 0.1
       vertex -0.0183217 0.247861 0
    endloop
  endfacet
  facet normal -0.321425 0.946935 0
    outer loop
       vertex -0.0503952 0.241481 0
       vertex -0.0813612 0.23097 0
       vertex -0.0813612 0.23097 0.1
    endloop
  endfacet
  facet normal -0.321425 0.946935 0
    outer loop
       vertex -0.0813612 0.23097 0.1
       vertex -0.0503952 0.241481 0.1
       vertex -0.0503952 0.241481 0
    endloop
  endfacet
  facet normal -0.442302 0.896866 0
    outer loop
       vertex -0.0813612 0.23097 0
       vertex -0.11069 0.216506 0
       vertex -0.11069 0.216506 0.1
    endloop
  endfacet
  facet normal -0.442302 0.896866 0
    outer loop
       vertex -0.11069 0.216506 0.1
       vertex -0.0813612 0.23097 0.1
       vertex -0.0813612 0.23097 0
    endloop
  endfacet
  facet normal -0.555561 0.831476 0
    outer loop
       vertex -0.11069 0.216506 0
       vertex -0.137881 0.198338 0
       vertex -0.137881 0.198338 0.1
    endloop
  endfacet
  facet normal -0.555561 0.831476 0
    outer loop
       vertex -0.137881 0.198338 0.1
       vertex -0.11069 0.216506 0.1
       vertex -0.11069 0.216506 0
    endloop
  endfacet
  facet normal -0.659372 0.751817 0
    outer loop
       vertex -0.137881 0.198338 0
       vertex -0.162466 0.176776 0
       vertex -0.162466 0.176776 0.1
    endloop
  endfacet
  facet normal -0.659372 0.751817 0
    outer loop
       vertex -0.162466 0.176776 0.1
       vertex -0.137881 0.198338 0.1
       vertex -0.137881 0.198338 0
    endloop
  endfacet
  facet normal -0.751817 0.659372 0
    outer loop
       vertex -0.162466 0.176776 0
       vertex -0.184028 0.152191 0
       vertex -0.184028 0.152191 0.1
    endloop
  endfacet
  facet normal -0.751817 0.659372 0
    outer loop
       vertex -0.184028 0.152191 0.1
       vertex -0.162466 0.176776 0.1
       vertex -0.162466 0.176776 0
    endloop
  endfacet
  facet normal -0.831476 0.555561 0
    outer loop
       vertex -0.184028 0.152191 0
       vertex -0.202196 0.125 0
       vertex -0.202196 0.125 0.1
    endloop
  endfacet
  facet normal -0.831476 0.555561 0
    outer loop
       vertex -0.202196 0.125 0.1
       vertex -0.184028 0.152191 0.1
       vertex -0.184028 0.152191 0
    endloop
  endfacet
  facet normal -0.896866 0.442302 0
    outer loop
       vertex -0.202196 0.125 0
       vertex -0.21666 0.095671 0
       vertex -0.21666 0.095671 0.1
    endloop
  endfacet
  facet normal -0.896866 0.442302 0
    outer loop
       vertex -0.21666 0.095671 0.1
       vertex -0.202196 0.125 0.1
       vertex -0.202196 0.125 0
    endloop
  endfacet
  facet normal -0.946935 0.321425 0
    outer loop
       vertex -0.21666 0.095671 0
       vertex -0.227171 0.064705 0
       vertex -0.227171 0.064705 0.1
    endloop
  endfacet
  facet normal -0.946935 0.321425 0
    outer loop
       vertex -0.227171 0.064705 0.1
       vertex -0.21666 0.095671 0.1
       vertex -0.21666 0.095671 0
    endloop
  endfacet
  facet normal -0.980784 0.195096 0
    outer loop
       vertex -0.227171 0.064705 0
       vertex -0.233551 0.0326315 0
       vertex -0.233551 0.0326315 0.1
    endloop
  endfacet
  facet normal -0.980784 0.195096 0
    outer loop
       vertex -0.233551 0.0326315 0.1
       vertex -0.227171 0.064705 0.1
       vertex -0.227171 0.064705 0
    endloop
  endfacet
  facet normal -0.997858 0.0654098 0
    outer loop
       vertex -0.23569 8.32665e-17 0.1
       vertex -0.233551 0.0326315 0.1
       vertex -0.233551 0.0326315 0
    endloop
  endfacet
  facet normal -0.997858 0.0654098 -1.08928e-16
    outer loop
       vertex -0.233551 0.0326315 0
       vertex -0.23569 -8.32665e-17 0
       vertex -0.23569 8.32665e-17 0.1
    endloop
  endfacet
  facet normal -0.997858 -0.0654098 0
    outer loop
       vertex -0.23569 -8.32665e-17 0
       vertex -0.233551 -0.0326315 0
       vertex -0.233551 -0.0326315 0.1
    endloop
  endfacet
  facet normal -0.997858 -0.0654098 1.08928e-16
    outer loop
       vertex -0.233551 -0.0326315 0.1
       vertex -0.23569 8.32665e-17 0.1
       vertex -0.23569 -8.32665e-17 0
    endloop
  endfacet
  facet normal -0.980784 -0.195096 0
    outer loop
       vertex -0.233551 -0.0326315 0
       vertex -0.227171 -0.064705 0
       vertex -0.227171 -0.064705 0.1
    endloop
  endfacet
  facet normal -0.980784 -0.195096 0
    outer loop
       vertex -0.227171 -0.064705 0.1
       vertex -0.233551 -0.0326315 0.1
       vertex -0.233551 -0.0326315 0
    endloop
  endfacet
  facet normal -0.946935 -0.321425 0
    outer loop
       vertex -0.227171 -0.064705 0
       vertex -0.21666 -0.095671 0
       vertex -0.21666 -0.095671 0.1
    endloop
  endfacet
  facet normal -0.946935 -0.321425 0
    outer loop
       vertex -0.21666 -0.095671 0.1
       vertex -0.227171 -0.064705 0.1
       vertex -0.227171 -0.064705 0
    endloop
  endfacet
  facet normal -0.896866 -0.442302 0
    outer loop
       vertex -0.21666 -0.095671 0
       vertex -0.202196 -0.125 0
       vertex -0.202196 -0.125 0.1
    endloop
  endfacet
  facet normal -0.896866 -0.442302 0
    outer loop
       vertex -0.202196 -0.125 0.1
       vertex -0.21666 -0.095671 0.1
       vertex -0.21666 -0.095671 0
    endloop
  endfacet
  facet normal -0.831476 -0.555561 0
    outer loop
       vertex -0.202196 -0.125 0
       vertex -0.184028 -0.152191 0
       vertex -0.184028 -0.152191 0.1
    endloop
  endfacet
  facet normal -0.831476 -0.555561 0
    outer loop
       vertex -0.184028 -0.152191 0.1
       vertex -0.202196 -0.125 0.1
       vertex -0.202196 -0.125 0
    endloop
  endfacet
  facet normal -0.751817 -0.659372 0
    outer loop
       vertex -0.184028 -0.152191 0
       vertex -0.162466 -0.176776 0
       vertex -0.162466 -0.176776 0.1
    endloop
  endfacet
  facet normal -0.751817 -0.659372 0
    outer loop
       vertex -0.162466 -0.176776 0.1
       vertex -0.184028 -0.152191 0.1
       vertex -0.184028 -0.152191 0
    endloop
  endfacet
  facet normal 0.659372 -0.751817 0
    outer loop
       vertex 0.191086 -0.176776 0
       vertex 0.191086 -0.176776 0.1
       vertex 0.166501 -0.198338 0.1
    endloop
  endfacet
  facet normal 0.659372 -0.751817 0
    outer loop
       vertex 0.166501 -0.198338 0.1
       vertex 0.166501 -0.198338 0
       vertex 0.191086 -0.176776 0
    endloop
  endfacet
  facet normal 0.555561 -0.831476 0
    outer loop
       vertex 0.166501 -0.198338 0
       vertex 0.166501 -0.198338 0.1
       vertex 0.13931 -0.216506 0.1
    endloop
  endfacet
  facet normal 0.555561 -0.831476 0
    outer loop
       vertex 0.13931 -0.216506 0.1
       vertex 0.13931 -0.216506 0
       vertex 0.166501 -0.198338 0
    endloop
  endfacet
  facet normal 0.442302 -0.896866 0
    outer loop
       vertex 0.13931 -0.216506 0
       vertex 0.13931 -0.216506 0.1
       vertex 0.109981 -0.23097 0.1
    endloop
  endfacet
  facet normal 0.442302 -0.896866 0
    outer loop
       vertex 0.109981 -0.23097 0.1
       vertex 0.109981 -0.23097 0
       vertex 0.13931 -0.216506 0
    endloop
  endfacet
  facet normal 0.321425 -0.946935 0
    outer loop
       vertex 0.109981 -0.23097 0
       vertex 0.109981 -0.23097 0.1
       vertex 0.0790148 -0.241481 0.1
    endloop
  endfacet
  facet normal 0.321425 -0.946935 0
    outer loop
       vertex 0.0790148 -0.241481 0.1
       vertex 0.0790148 -0.241481 0
       vertex 0.109981 -0.23097 0
    endloop
  endfacet
  facet normal 0.195096 -0.980784 0
    outer loop
       vertex 0.0790148 -0.241481 0
       vertex 0.0790148 -0.241481 0.1
       vertex 0.0469413 -0.247861 0.1
    endloop
  endfacet
  facet normal 0.195096 -0.980784 0
    outer loop
       vertex 0.0469413 -0.247861 0.1
       vertex 0.0469413 -0.247861 0
       vertex 0.0790148 -0.241481 0
    endloop
  endfacet
  facet normal 0.0654098 -0.997858 0
    outer loop
       vertex 0.0143098 -0.25 0
       vertex 0.0469413 -0.247861 0
       vertex 0.0469413 -0.247861 0.1
    endloop
  endfacet
  facet normal 0.0654098 -0.997858 1.0893e-16
    outer loop
       vertex 0.0469413 -0.247861 0.1
       vertex 0.0143098 -0.25 0.1
       vertex 0.0143098 -0.25 0
    endloop
  endfacet
  facet normal -0.0654098 -0.997858 0
    outer loop
       vertex 0.0143098 -0.25 0.1
       vertex -0.0183217 -0.247861 0.1
       vertex -0.0183217 -0.247861 0
    endloop
  endfacet
  facet normal -0.0654098 -0.997858 -1.08928e-16
    outer loop
       vertex -0.0183217 -0.247861 0
       vertex 0.0143098 -0.25 0
       vertex 0.0143098 -0.25 0.1
    endloop
  endfacet
  facet normal -0.195096 -0.980784 0
    outer loop
       vertex -0.0183217 -0.247861 0
       vertex -0.0183217 -0.247861 0.1
       vertex -0.0503952 -0.241481 0.1
    endloop
  endfacet
  facet normal -0.195096 -0.980784 -0
    outer loop
       vertex -0.0503952 -0.241481 0.1
       vertex -0.0503952 -0.241481 0
       vertex -0.0183217 -0.247861 0
    endloop
  endfacet
  facet normal -0.321425 -0.946935 0
    outer loop
       vertex -0.0503952 -0.241481 0
       vertex -0.0503952 -0.241481 0.1
       vertex -0.0813612 -0.23097 0.1
    endloop
  endfacet
  facet normal -0.321425 -0.946935 -0
    outer loop
       vertex -0.0813612 -0.23097 0.1
       vertex -0.0813612 -0.23097 0
       vertex -0.0503952 -0.241481 0
    endloop
  endfacet
  facet normal -0.442302 -0.896866 0
    outer loop
       vertex -0.0813612 -0.23097 0
       vertex -0.0813612 -0.23097 0.1
       vertex -0.11069 -0.216506 0.1
    endloop
  endfacet
  facet normal -0.442302 -0.896866 -0
    outer loop
       vertex -0.11069 -0.216506 0.1
       vertex -0.11069 -0.216506 0
       vertex -0.0813612 -0.23097 0
    endloop
  endfacet
  facet normal -0.555561 -0.831476 0
    outer loop
       vertex -0.11069 -0.216506 0
       vertex -0.11069 -0.216506 0.1
       vertex -0.137881 -0.198338 0.1
    endloop
  endfacet
  facet normal -0.555561 -0.831476 -0
    outer loop
       vertex -0.137881 -0.198338 0.1
       vertex -0.137881 -0.198338 0
       vertex -0.11069 -0.216506 0
    endloop
  endfacet
  facet normal -0.659372 -0.751817 0
    outer loop
       vertex -0.137881 -0.198338 0
       vertex -0.137881 -0.198338 0.1
       vertex -0.162466 -0.176776 0.1
    endloop
  endfacet
  facet normal -0.659372 -0.751817 -0
    outer loop
       vertex -0.162466 -0.176776 0.1
       vertex -0.162466 -0.176776 0
       vertex -0.137881 -0.198338 0
    endloop
  endfacet
endsolid cylinder
