solid cylinder
  facet normal 0.751817 -0.659372 0
    outer loop
       vertex 0.327367 -0.176776 0
       vertex 0.348929 -0.152191 0
       vertex 0.348929 -0.152191 0.1
    endloop
  endfacet
  facet normal 0.751817 -0.659372 0
    outer loop
       vertex 0.348929 -0.152191 0.1
       vertex 0.327367 -0.176776 0.1
       vertex 0.327367 -0.176776 0
    endloop
  endfacet
  facet normal 0.831476 -0.555561 0
    outer loop
       vertex 0.348929 -0.152191 0
       vertex 0.367097 -0.125 0
       vertex 0.367097 -0.125 0.1
    endloop
  endfacet
  facet normal 0.831476 -0.555561 0
    outer loop
       vertex 0.367097 -0.125 0.1
       vertex 0.348929 -0.152191 0.1
       vertex 0.348929 -0.152191 0
    endloop
  endfacet
  facet normal 0.896866 -0.442302 0
    outer loop
       vertex 0.367097 -0.125 0
       vertex 0.381561 -0.095671 0
       vertex 0.381561 -0.095671 0.1
    endloop
  endfacet
  facet normal 0.896866 -0.442302 0
    outer loop
       vertex 0.381561 -0.095671 0.1
       vertex 0.367097 -0.125 0.1
       vertex 0.367097 -0.125 0
    endloop
  endfacet
  facet normal 0.946935 -0.321425 0
    outer loop
       vertex 0.381561 -0.095671 0
       vertex 0.392072 -0.064705 0
       vertex 0.392072 -0.064705 0.1
    endloop
  endfacet
  facet normal 0.946935 -0.321425 0
    outer loop
       vertex 0.392072 -0.064705 0.1
       vertex 0.381561 -0.095671 0.1
       vertex 0.381561 -0.095671 0
    endloop
  endfacet
  facet normal 0.980784 -0.195096 0
    outer loop
       vertex 0.392072 -0.064705 0
       vertex 0.398452 -0.0326315 0
       vertex 0.398452 -0.0326315 0.1
    endloop
  endfacet
  facet normal 0.980784 -0.195096 0
    outer loop
       vertex 0.398452 -0.0326315 0.1
       vertex 0.392072 -0.064705 0.1
       vertex 0.392072 -0.064705 0
    endloop
  endfacet
  facet normal 0.997858 -0.0654098 0
    outer loop
       vertex 0.400591 -8.32665e-17 0.1
       vertex 0.398452 -0.0326315 0.1
       vertex 0.398452 -0.0326315 0
    endloop
  endfacet
  facet normal 0.997858 -0.0654098 -1.08928e-16
    outer loop
       vertex 0.398452 -0.0326315 0
       vertex 0.400591 8.32665e-17 0
       vertex 0.400591 -8.32665e-17 0.1
    endloop
  endfacet
  facet normal 0.997858 0.0654098 0
    outer loop
       vertex 0.400591 8.32665e-17 0
       vertex 0.398452 0.0326315 0
       vertex 0.398452 0.0326315 0.1
    endloop
  endfacet
  facet normal 0.997858 0.0654098 1.08928e-16
    outer loop
       vertex 0.398452 0.0326315 0.1
       vertex 0.400591 -8.32665e-17 0.1
       vertex 0.400591 8.32665e-17 0
    endloop
  endfacet
  facet normal 0.980784 0.195096 0
    outer loop
       vertex 0.398452 0.0326315 0
       vertex 0.392072 0.064705 0
       vertex 0.392072 0.064705 0.1
    endloop
  endfacet
  facet normal 0.980784 0.195096 0
    outer loop
       vertex 0.392072 0.064705 0.1
       vertex 0.398452 0.0326315 0.1
       vertex 0.398452 0.0326315 0
    endloop
  endfacet
  facet normal 0.946935 0.321425 0
    outer loop
       vertex 0.392072 0.064705 0
       vertex 0.381561 0.095671 0
       vertex 0.381561 0.095671 0.1
    endloop
  endfacet
  facet normal 0.946935 0.321425 0
    outer loop
       vertex 0.381561 0.095671 0.1
       vertex 0.392072 0.064705 0.1
       vertex 0.392072 0.064705 0
    endloop
  endfacet
  facet normal 0.896866 0.442302 0
    outer loop
       vertex 0.381561 0.095671 0
       vertex 0.367097 0.125 0
       vertex 0.367097 0.125 0.1
    endloop
  endfacet
  facet normal 0.896866 0.442302 0
    outer loop
       vertex 0.367097 0.125 0.1
       vertex 0.381561 0.095671 0.1
       vertex 0.381561 0.095671 0
    endloop
  endfacet
  facet normal 0.831476 0.555561 0
    outer loop
       vertex 0.367097 0.125 0
       vertex 0.348929 0.152191 0
       vertex 0.348929 0.152191 0.1
    endloop
  endfacet
  facet normal 0.831476 0.555561 0
    outer loop
       vertex 0.348929 0.152191 0.1
       vertex 0.367097 0.125 0.1
       vertex 0.367097 0.125 0
    endloop
  endfacet
  facet normal 0.751817 0.659372 0
    outer loop
       vertex 0.348929 0.152191 0
       vertex 0.327367 0.176776 0
       vertex 0.327367 0.176776 0.1
    endloop
  endfacet
  facet normal 0.751817 0.659372 0
    outer loop
       vertex 0.327367 0.176776 0.1
       vertex 0.348929 0.152191 0.1
       vertex 0.348929 0.152191 0
    endloop
  endfacet
  facet normal 0.659372 0.751817 0
    outer loop
       vertex 0.327367 0.176776 0
       vertex 0.302782 0.198338 0
       vertex 0.302782 0.198338 0.1
    endloop
  endfacet
  facet normal 0.659372 0.751817 0
    outer loop
       vertex 0.302782 0.198338 0.1
       vertex 0.327367 0.176776 0.1
       vertex 0.327367 0.176776 0
    endloop
  endfacet
  facet normal 0.555561 0.831476 0
    outer loop
       vertex 0.302782 0.198338 0
       vertex 0.275591 0.216506 0
       vertex 0.275591 0.216506 0.1
    endloop
  endfacet
  facet normal 0.555561 0.831476 0
    outer loop
       vertex 0.275591 0.216506 0.1
       vertex 0.302782 0.198338 0.1
       vertex 0.302782 0.198338 0
    endloop
  endfacet
  facet normal 0.442302 0.896866 0
    outer loop
       vertex 0.275591 0.216506 0
       vertex 0.246262 0.23097 0
       vertex 0.246262 0.23097 0.1
    endloop
  endfacet
  facet normal 0.442302 0.896866 0
    outer loop
       vertex 0.246262 0.23097 0.1
       vertex 0.275591 0.216506 0.1
       vertex 0.275591 0.216506 0
    endloop
  endfacet
  facet normal 0.321425 0.946935 0
    outer loop
       vertex 0.246262 0.23097 0
       vertex 0.215296 0.241481 0
       vertex 0.215296 0.241481 0.1
    endloop
  endfacet
  facet normal 0.321425 0.946935 0
    outer loop
       vertex 0.215296 0.241481 0.1
       vertex 0.246262 0.23097 0.1
       vertex 0.246262 0.23097 0
    endloop
  endfacet
  facet normal 0.195096 0.980784 0
    outer loop
       vertex 0.215296 0.241481 0
       vertex 0.183223 0.247861 0
       vertex 0.183223 0.247861 0.1
    endloop
  endfacet
  facet normal 0.195096 0.980784 0
    outer loop
       vertex 0.183223 0.247861 0.1
       vertex 0.215296 0.241481 0.1
       vertex 0.215296 0.241481 0
    endloop
  endfacet
  facet normal 0.0654098 0.997858 0
    outer loop
       vertex 0.150591 0.25 0.1
       vertex 0.183223 0.247861 0.1
       vertex 0.183223 0.247861 0
    endloop
  endfacet
  facet normal 0.0654098 0.997858 -1.0893e-16
    outer loop
       vertex 0.183223 0.247861 0
       vertex 0.150591 0.25 0
       vertex 0.150591 0.25 0.1
    endloop
  endfacet
  facet normal -0.0654098 0.997858 0
    outer loop
       vertex 0.150591 0.25 0
       vertex 0.11796 0.247861 0
       vertex 0.11796 0.247861 0.1
    endloop
  endfacet
  facet normal -0.0654098 0.997858 1.0893e-16
    outer loop
       vertex 0.11796 0.247861 0.1
       vertex 0.150591 0.25 0.1
       vertex 0.150591 0.25 0
    endloop
  endfacet
  facet normal -0.195096 0.980784 0
    outer loop
       vertex 0.11796 0.247861 0
       vertex 0.0858863 0.241481 0
       vertex 0.0858863 0.241481 0.1
    endloop
  endfacet
  facet normal -0.195096 0.980784 0
    outer loop
       vertex 0.0858863 0.241481 0.1
       vertex 0.11796 0.247861 0.1
       vertex 0.11796 0.247861 0
    endloop
  endfacet
  facet normal -0.321425 0.946935 0
    outer loop
       vertex 0.0858863 0.241481 0
       vertex 0.0549203 0.23097 0
       vertex 0.0549203 0.23097 0.1
    endloop
  endfacet
  facet normal -0.321425 0.946935 0
    outer loop
       vertex 0.0549203 0.23097 0.1
       vertex 0.0858863 0.241481 0.1
       vertex 0.0858863 0.241481 0
    endloop
  endfacet
  facet normal -0.442302 0.896866 0
    outer loop
       vertex 0.0549203 0.23097 0
       vertex 0.0255913 0.216506 0
       vertex 0.0255913 0.216506 0.1
    endloop
  endfacet
  facet normal -0.442302 0.896866 0
    outer loop
       vertex 0.0255913 0.216506 0.1
       vertex 0.0549203 0.23097 0.1
       vertex 0.0549203 0.23097 0
    endloop
  endfacet
  facet normal -0.555561 0.831476 0
    outer loop
       vertex 0.0255913 0.216506 0
       vertex -0.00159974 0.198338 0
       vertex -0.00159974 0.198338 0.1
    endloop
  endfacet
  facet normal -0.555561 0.831476 0
    outer loop
       vertex -0.00159974 0.198338 0.1
       vertex 0.0255913 0.216506 0.1
       vertex 0.0255913 0.216506 0
    endloop
  endfacet
  facet normal -0.659372 0.751817 0
    outer loop
       vertex -0.00159974 0.198338 0
       vertex -0.0261847 0.176776 0
       vertex -0.0261847 0.176776 0.1
    endloop
  endfacet
  facet normal -0.659372 0.751817 0
    outer loop
       vertex -0.0261847 0.176776 0.1
       vertex -0.00159974 0.198338 0.1
       vertex -0.00159974 0.198338 0
    endloop
  endfacet
  facet normal -0.751817 0.659372 0
    outer loop
       vertex -0.0261847 0.176776 0
       vertex -0.0477467 0.152191 0
       vertex -0.0477467 0.152191 0.1
    endloop
  endfacet
  facet normal -0.751817 0.659372 0
    outer loop
       vertex -0.0477467 0.152191 0.1
       vertex -0.0261847 0.176776 0.1
       vertex -0.0261847 0.176776 0
    endloop
  endfacet
  facet normal -0.831476 0.555561 0
    outer loop
       vertex -0.0477467 0.152191 0
       vertex -0.0659147 0.125 0
       vertex -0.0659147 0.125 0.1
    endloop
  endfacet
  facet normal -0.831476 0.555561 0
    outer loop
       vertex -0.0659147 0.125 0.1
       vertex -0.0477467 0.152191 0.1
       vertex -0.0477467 0.152191 0
    endloop
  endfacet
  facet normal -0.896866 0.442302 0
    outer loop
       vertex -0.0659147 0.125 0
       vertex -0.0803787 0.095671 0
       vertex -0.0803787 0.095671 0.1
    endloop
  endfacet
  facet normal -0.896866 0.442302 0
    outer loop
       vertex -0.0803787 0.095671 0.1
       vertex -0.0659147 0.125 0.1
       vertex -0.0659147 0.125 0
    endloop
  endfacet
  facet normal -0.946935 0.321425 0
    outer loop
       vertex -0.0803787 0.095671 0
       vertex -0.0908897 0.064705 0
       vertex -0.0908897 0.064705 0.1
    endloop
  endfacet
  facet normal -0.946935 0.321425 0
    outer loop
       vertex -0.0908897 0.064705 0.1
       vertex -0.0803787 0.095671 0.1
       vertex -0.0803787 0.095671 0
    endloop
  endfacet
  facet normal -0.980784 0.195096 0
    outer loop
       vertex -0.0908897 0.064705 0
       vertex -0.0972697 0.0326315 0
       vertex -0.0972697 0.0326315 0.1
    endloop
  endfacet
  facet normal -0.980784 0.195096 0
    outer loop
       vertex -0.0972697 0.0326315 0.1
       vertex -0.0908897 0.064705 0.1
       vertex -0.0908897 0.064705 0
    endloop
  endfacet
  facet normal -0.997858 0.0654098 0
    outer loop
       vertex -0.0994087 8.32665e-17 0.1
       vertex -0.0972697 0.0326315 0.1
       vertex -0.0972697 0.0326315 0
    endloop
  endfacet
  facet normal -0.997858 0.0654098 -1.08928e-16
    outer loop
       vertex -0.0972697 0.0326315 0
       vertex -0.0994087 -8.32665e-17 0
       vertex -0.0994087 8.32665e-17 0.1
    endloop
  endfacet
  facet normal -0.997858 -0.0654098 0
    outer loop
       vertex -0.0994087 -8.32665e-17 0
       vertex -0.0972697 -0.0326315 0
       vertex -0.0972697 -0.0326315 0.1
    endloop
  endfacet
  facet normal -0.997858 -0.0654098 1.08928e-16
    outer loop
       vertex -0.0972697 -0.0326315 0.1
       vertex -0.0994087 8.32665e-17 0.1
       vertex -0.0994087 -8.32665e-17 0
    endloop
  endfacet
  facet normal -0.980784 -0.195096 0
    outer loop
       vertex -0.0972697 -0.0326315 0
       vertex -0.0908897 -0.064705 0
       vertex -0.0908897 -0.064705 0.1
    endloop
  endfacet
  facet normal -0.980784 -0.195096 0
    outer loop
       vertex -0.0908897 -0.064705 0.1
       vertex -0.0972697 -0.0326315 0.1
       vertex -0.0972697 -0.0326315 0
    endloop
  endfacet
  facet normal -0.946935 -0.321425 0
    outer loop
       vertex -0.0908897 -0.064705 0
       vertex -0.0803787 -0.095671 0
       vertex -0.0803787 -0.095671 0.1
    endloop
  endfacet
  facet normal -0.946935 -0.321425 0
    outer loop
       vertex -0.0803787 -0.095671 0.1
       vertex -0.0908897 -0.064705 0.1
       vertex -0.0908897 -0.064705 0
    endloop
  endfacet
  facet normal -0.896866 -0.442302 0
    outer loop
       vertex -0.0803787 -0.095671 0
       vertex -0.0659147 -0.125 0
       vertex -0.0659147 -0.125 0.1
    endloop
  endfacet
  facet normal -0.896866 -0.442302 0
    outer loop
       vertex -0.0659147 -0.125 0.1
       vertex -0.0803787 -0.095671 0.1
       vertex -0.0803787 -0.095671 0
    endloop
  endfacet
  facet normal -0.831476 -0.555561 0
    outer loop
       vertex -0.0659147 -0.125 0
       vertex -0.0477467 -0.152191 0
       vertex -0.0477467 -0.152191 0.1
    endloop
  endfacet
  facet normal -0.831476 -0.555561 0
    outer loop
       vertex -0.0477467 -0.152191 0.1
       vertex -0.0659147 -0.125 0.1
       vertex -0.0659147 -0.125 0
    endloop
  endfacet
  facet normal -0.751817 -0.659372 0
    outer loop
       vertex -0.0477467 -0.152191 0
       vertex -0.0261847 -0.176776 0
       vertex -0.0261847 -0.176776 0.1
    endloop
  endfacet
  facet normal -0.751817 -0.659372 0
    outer loop
       vertex -0.0261847 -0.176776 0.1
       vertex -0.0477467 -0.152191 0.1
       vertex -0.0477467 -0.152191 0
    endloop
  endfacet
  facet normal 0.659372 -0.751817 0
    outer loop
       vertex 0.327367 -0.176776 0
       vertex 0.327367 -0.176776 0.1
       vertex 0.302782 -0.198338 0.1
    endloop
  endfacet
  facet normal 0.659372 -0.751817 0
    outer loop
       vertex 0.302782 -0.198338 0.1
       vertex 0.302782 -0.198338 0
       vertex 0.327367 -0.176776 0
    endloop
  endfacet
  facet normal 0.555561 -0.831476 0
    outer loop
       vertex 0.302782 -0.198338 0
       vertex 0.302782 -0.198338 0.1
       vertex 0.275591 -0.216506 0.1
    endloop
  endfacet
  facet normal 0.555561 -0.831476 0
    outer loop
       vertex 0.275591 -0.216506 0.1
       vertex 0.275591 -0.216506 0
       vertex 0.302782 -0.198338 0
    endloop
  endfacet
  facet normal 0.442302 -0.896866 0
    outer loop
       vertex 0.275591 -0.216506 0
       vertex 0.275591 -0.216506 0.1
       vertex 0.246262 -0.23097 0.1
    endloop
  endfacet
  facet normal 0.442302 -0.896866 0
    outer loop
       vertex 0.246262 -0.23097 0.1
       vertex 0.246262 -0.23097 0
       vertex 0.275591 -0.216506 0
    endloop
  endfacet
  facet normal 0.321425 -0.946935 0
    outer loop
       vertex 0.246262 -0.23097 0
       vertex 0.246262 -0.23097 0.1
       vertex 0.215296 -0.241481 0.1
    endloop
  endfacet
  facet normal 0.321425 -0.946935 0
    outer loop
       vertex 0.215296 -0.241481 0.1
       vertex 0.215296 -0.241481 0
       vertex 0.246262 -0.23097 0
    endloop
  endfacet
  facet normal 0.195096 -0.980784 0
    outer loop
       vertex 0.215296 -0.241481 0
       vertex 0.215296 -0.241481 0.1
       vertex 0.183223 -0.247861 0.1
    endloop
  endfacet
  facet normal 0.195096 -0.980784 0
    outer loop
       vertex 0.183223 -0.247861 0.1
       vertex 0.183223 -0.247861 0
       vertex 0.215296 -0.241481 0
    endloop
  endfacet
  facet normal 0.0654098 -0.997858 0
    outer loop
       vertex 0.150591 -0.25 0
       vertex 0.183223 -0.247861 0
       vertex 0.183223 -0.247861 0.1
    endloop
  endfacet
  facet normal 0.0654098 -0.997858 1.0893e-16
    outer loop
       vertex 0.183223 -0.247861 0.1
       vertex 0.150591 -0.25 0.1
       vertex 0.150591 -0.25 0
    endloop
  endfacet
  facet normal -0.0654098 -0.997858 0
    outer loop
       vertex 0.150591 -0.25 0.1
       vertex 0.11796 -0.247861 0.1
       vertex 0.11796 -0.247861 0
    endloop
  endfacet
  facet normal -0.0654098 -0.997858 -1.0893e-16
    outer loop
       vertex 0.11796 -0.247861 0
       vertex 0.150591 -0.25 0
       vertex 0.150591 -0.25 0.1
    endloop
  endfacet
  facet normal -0.195096 -0.980784 0
    outer loop
       vertex 0.11796 -0.247861 0
       vertex 0.11796 -0.247861 0.1
       vertex 0.0858863 -0.241481 0.1
    endloop
  endfacet
  facet normal -0.195096 -0.980784 -0
    outer loop
       vertex 0.0858863 -0.241481 0.1
       vertex 0.0858863 -0.241481 0
       vertex 0.11796 -0.247861 0
    endloop
  endfacet
  facet normal -0.321425 -0.946935 0
    outer loop
       vertex 0.0858863 -0.241481 0
       vertex 0.0858863 -0.241481 0.1
       vertex 0.0549203 -0.23097 0.1
    endloop
  endfacet
  facet normal -0.321425 -0.946935 -0
    outer loop
       vertex 0.0549203 -0.23097 0.1
       vertex 0.0549203 -0.23097 0
       vertex 0.0858863 -0.241481 0
    endloop
  endfacet
  facet normal -0.442302 -0.896866 0
    outer loop
       vertex 0.0549203 -0.23097 0
       vertex 0.0549203 -0.23097 0.1
       vertex 0.0255913 -0.216506 0.1
    endloop
  endfacet
  facet normal -0.442302 -0.896866 -0
    outer loop
       vertex 0.0255913 -0.216506 0.1
       vertex 0.0255913 -0.216506 0
       vertex 0.0549203 -0.23097 0
    endloop
  endfacet
  facet normal -0.555561 -0.831476 0
    outer loop
       vertex 0.0255913 -0.216506 0
       vertex 0.0255913 -0.216506 0.1
       vertex -0.00159974 -0.198338 0.1
    endloop
  endfacet
  facet normal -0.555561 -0.831476 -0
    outer loop
       vertex -0.00159974 -0.198338 0.1
       vertex -0.00159974 -0.198338 0
       vertex 0.0255913 -0.216506 0
    endloop
  endfacet
  facet normal -0.659372 -0.751817 0
    outer loop
       vertex -0.00159974 -0.198338 0
       vertex -0.00159974 -0.198338 0.1
       vertex -0.0261847 -0.176776 0.1
    endloop
  endfacet
  facet normal -0.659372 -0.751817 -0
    outer loop
       vertex -0.0261847 -0.176776 0.1
       vertex -0.0261847 -0.176776 0
       vertex -0.00159974 -0.198338 0
    endloop
  endfacet
endsolid cylinder
