solid cylinder
  facet normal 0.751817 -0.659372 0
    outer loop
       vertex 0.0857505 -0.176776 0
       vertex 0.107313 -0.152191 0
       vertex 0.107313 -0.152191 0.1
    endloop
  endfacet
  facet normal 0.751817 -0.659372 0
    outer loop
       vertex 0.107313 -0.152191 0.1
       vertex 0.0857505 -0.176776 0.1
       vertex 0.0857505 -0.176776 0
    endloop
  endfacet
  facet normal 0.831476 -0.555561 0
    outer loop
       vertex 0.107313 -0.152191 0
       vertex 0.125481 -0.125 0
       vertex 0.125481 -0.125 0.1
    endloop
  endfacet
  facet normal 0.831476 -0.555561 0
    outer loop
       vertex 0.125481 -0.125 0.1
       vertex 0.107313 -0.152191 0.1
       vertex 0.107313 -0.152191 0
    endloop
  endfacet
  facet normal 0.896866 -0.442302 0
    outer loop
       vertex 0.125481 -0.125 0
       vertex 0.139945 -0.095671 0
       vertex 0.139945 -0.095671 0.1
    endloop
  endfacet
  facet normal 0.896866 -0.442302 0
    outer loop
       vertex 0.139945 -0.095671 0.1
       vertex 0.125481 -0.125 0.1
       vertex 0.125481 -0.125 0
    endloop
  endfacet
  facet normal 0.946935 -0.321425 0
    outer loop
       vertex 0.139945 -0.095671 0
       vertex 0.150456 -0.064705 0
       vertex 0.150456 -0.064705 0.1
    endloop
  endfacet
  facet normal 0.946935 -0.321425 0
    outer loop
       vertex 0.150456 -0.064705 0.1
       vertex 0.139945 -0.095671 0.1
       vertex 0.139945 -0.095671 0
    endloop
  endfacet
  facet normal 0.980784 -0.195096 0
    outer loop
       vertex 0.150456 -0.064705 0
       vertex 0.156836 -0.0326315 0
       vertex 0.156836 -0.0326315 0.1
    endloop
  endfacet
  facet normal 0.980784 -0.195096 0
    outer loop
       vertex 0.156836 -0.0326315 0.1
       vertex 0.150456 -0.064705 0.1
       vertex 0.150456 -0.064705 0
    endloop
  endfacet
  facet normal 0.997858 -0.0654098 0
    outer loop
       vertex 0.158975 -8.32665e-17 0.1
       vertex 0.156836 -0.0326315 0.1
       vertex 0.156836 -0.0326315 0
    endloop
  endfacet
  facet normal 0.997858 -0.0654098 -1.08928e-16
    outer loop
       vertex 0.156836 -0.0326315 0
       vertex 0.158975 8.32665e-17 0
       vertex 0.158975 -8.32665e-17 0.1
    endloop
  endfacet
  facet normal 0.997858 0.0654098 0
    outer loop
       vertex 0.158975 8.32665e-17 0
       vertex 0.156836 0.0326315 0
       vertex 0.156836 0.0326315 0.1
    endloop
  endfacet
  facet normal 0.997858 0.0654098 1.08928e-16
    outer loop
       vertex 0.156836 0.0326315 0.1
       vertex 0.158975 -8.32665e-17 0.1
       vertex 0.158975 8.32665e-17 0
    endloop
  endfacet
  facet normal 0.980784 0.195096 0
    outer loop
       vertex 0.156836 0.0326315 0
       vertex 0.150456 0.064705 0
       vertex 0.150456 0.064705 0.1
    endloop
  endfacet
  facet normal 0.980784 0.195096 0
    outer loop
       vertex 0.150456 0.064705 0.1
       vertex 0.156836 0.0326315 0.1
       vertex 0.156836 0.0326315 0
    endloop
  endfacet
  facet normal 0.946935 0.321425 0
    outer loop
       vertex 0.150456 0.064705 0
       vertex 0.139945 0.095671 0
       vertex 0.139945 0.095671 0.1
    endloop
  endfacet
  facet normal 0.946935 0.321425 0
    outer loop
       vertex 0.139945 0.095671 0.1
       vertex 0.150456 0.064705 0.1
       vertex 0.150456 0.064705 0
    endloop
  endfacet
  facet normal 0.896866 0.442302 0
    outer loop
       vertex 0.139945 0.095671 0
       vertex 0.125481 0.125 0
       vertex 0.125481 0.125 0.1
    endloop
  endfacet
  facet normal 0.896866 0.442302 0
    outer loop
       vertex 0.125481 0.125 0.1
       vertex 0.139945 0.095671 0.1
       vertex 0.139945 0.095671 0
    endloop
  endfacet
  facet normal 0.831476 0.555561 0
    outer loop
       vertex 0.125481 0.125 0
       vertex 0.107313 0.152191 0
       vertex 0.107313 0.152191 0.1
    endloop
  endfacet
  facet normal 0.831476 0.555561 0
    outer loop
       vertex 0.107313 0.152191 0.1
       vertex 0.125481 0.125 0.1
       vertex 0.125481 0.125 0
    endloop
  endfacet
  facet normal 0.751817 0.659372 0
    outer loop
       vertex 0.107313 0.152191 0
       vertex 0.0857505 0.176776 0
       vertex 0.0857505 0.176776 0.1
    endloop
  endfacet
  facet normal 0.751817 0.659372 0
    outer loop
       vertex 0.0857505 0.176776 0.1
       vertex 0.107313 0.152191 0.1
       vertex 0.107313 0.152191 0
    endloop
  endfacet
  facet normal 0.659372 0.751817 0
    outer loop
       vertex 0.0857505 0.176776 0
       vertex 0.0611655 0.198338 0
       vertex 0.0611655 0.198338 0.1
    endloop
  endfacet
  facet normal 0.659372 0.751817 0
    outer loop
       vertex 0.0611655 0.198338 0.1
       vertex 0.0857505 0.176776 0.1
       vertex 0.0857505 0.176776 0
    endloop
  endfacet
  facet normal 0.555561 0.831476 0
    outer loop
       vertex 0.0611655 0.198338 0
       vertex 0.0339745 0.216506 0
       vertex 0.0339745 0.216506 0.1
    endloop
  endfacet
  facet normal 0.555561 0.831476 0
    outer loop
       vertex 0.0339745 0.216506 0.1
       vertex 0.0611655 0.198338 0.1
       vertex 0.0611655 0.198338 0
    endloop
  endfacet
  facet normal 0.442302 0.896866 0
    outer loop
       vertex 0.0339745 0.216506 0
       vertex 0.00464552 0.23097 0
       vertex 0.00464552 0.23097 0.1
    endloop
  endfacet
  facet normal 0.442302 0.896866 0
    outer loop
       vertex 0.00464552 0.23097 0.1
       vertex 0.0339745 0.216506 0.1
       vertex 0.0339745 0.216506 0
    endloop
  endfacet
  facet normal 0.321425 0.946935 0
    outer loop
       vertex 0.00464552 0.23097 0
       vertex -0.0263205 0.241481 0
       vertex -0.0263205 0.241481 0.1
    endloop
  endfacet
  facet normal 0.321425 0.946935 0
    outer loop
       vertex -0.0263205 0.241481 0.1
       vertex 0.00464552 0.23097 0.1
       vertex 0.00464552 0.23097 0
    endloop
  endfacet
  facet normal 0.195096 0.980784 0
    outer loop
       vertex -0.0263205 0.241481 0
       vertex -0.058394 0.247861 0
       vertex -0.058394 0.247861 0.1
    endloop
  endfacet
  facet normal 0.195096 0.980784 0
    outer loop
       vertex -0.058394 0.247861 0.1
       vertex -0.0263205 0.241481 0.1
       vertex -0.0263205 0.241481 0
    endloop
  endfacet
  facet normal 0.0654098 0.997858 0
    outer loop
       vertex -0.0910255 0.25 0.1
       vertex -0.058394 0.247861 0.1
       vertex -0.058394 0.247861 0
    endloop
  endfacet
  facet normal 0.0654098 0.997858 -1.08928e-16
    outer loop
       vertex -0.058394 0.247861 0
       vertex -0.0910255 0.25 0
       vertex -0.0910255 0.25 0.1
    endloop
  endfacet
  facet normal -0.0654098 0.997858 0
    outer loop
       vertex -0.0910255 0.25 0
       vertex -0.123657 0.247861 0
       vertex -0.123657 0.247861 0.1
    endloop
  endfacet
  facet normal -0.0654098 0.997858 1.08928e-16
    outer loop
       vertex -0.123657 0.247861 0.1
       vertex -0.0910255 0.25 0.1
       vertex -0.0910255 0.25 0
    endloop
  endfacet
  facet normal -0.195096 0.980784 0
    outer loop
       vertex -0.123657 0.247861 0
       vertex -0.15573 0.241481 0
       vertex -0.15573 0.241481 0.1
    endloop
  endfacet
  facet normal -0.195096 0.980784 0
    outer loop
       vertex -0.15573 0.241481 0.1
       vertex -0.123657 0.247861 0.1
       vertex -0.123657 0.247861 0
    endloop
  endfacet
  facet normal -0.321425 0.946935 0
    outer loop
       vertex -0.15573 0.241481 0
       vertex -0.186696 0.23097 0
       vertex -0.186696 0.23097 0.1
    endloop
  endfacet
  facet normal -0.321425 0.946935 0
    outer loop
       vertex -0.186696 0.23097 0.1
       vertex -0.15573 0.241481 0.1
       vertex -0.15573 0.241481 0
    endloop
  endfacet
  facet normal -0.442302 0.896866 0
    outer loop
       vertex -0.186696 0.23097 0
       vertex -0.216025 0.216506 0
       vertex -0.216025 0.216506 0.1
    endloop
  endfacet
  facet normal -0.442302 0.896866 0
    outer loop
       vertex -0.216025 0.216506 0.1
       vertex -0.186696 0.23097 0.1
       vertex -0.186696 0.23097 0
    endloop
  endfacet
  facet normal -0.555561 0.831476 0
    outer loop
       vertex -0.216025 0.216506 0
       vertex -0.243216 0.198338 0
       vertex -0.243216 0.198338 0.1
    endloop
  endfacet
  facet normal -0.555561 0.831476 0
    outer loop
       vertex -0.243216 0.198338 0.1
       vertex -0.216025 0.216506 0.1
       vertex -0.216025 0.216506 0
    endloop
  endfacet
  facet normal -0.659372 0.751817 0
    outer loop
       vertex -0.243216 0.198338 0
       vertex -0.267801 0.176776 0
       vertex -0.267801 0.176776 0.1
    endloop
  endfacet
  facet normal -0.659372 0.751817 0
    outer loop
       vertex -0.267801 0.176776 0.1
       vertex -0.243216 0.198338 0.1
       vertex -0.243216 0.198338 0
    endloop
  endfacet
  facet normal -0.751817 0.659372 0
    outer loop
       vertex -0.267801 0.176776 0
       vertex -0.289363 0.152191 0
       vertex -0.289363 0.152191 0.1
    endloop
  endfacet
  facet normal -0.751817 0.659372 0
    outer loop
       vertex -0.289363 0.152191 0.1
       vertex -0.267801 0.176776 0.1
       vertex -0.267801 0.176776 0
    endloop
  endfacet
  facet normal -0.831476 0.555561 0
    outer loop
       vertex -0.289363 0.152191 0
       vertex -0.307531 0.125 0
       vertex -0.307531 0.125 0.1
    endloop
  endfacet
  facet normal -0.831476 0.555561 0
    outer loop
       vertex -0.307531 0.125 0.1
       vertex -0.289363 0.152191 0.1
       vertex -0.289363 0.152191 0
    endloop
  endfacet
  facet normal -0.896866 0.442302 0
    outer loop
       vertex -0.307531 0.125 0
       vertex -0.321995 0.095671 0
       vertex -0.321995 0.095671 0.1
    endloop
  endfacet
  facet normal -0.896866 0.442302 0
    outer loop
       vertex -0.321995 0.095671 0.1
       vertex -0.307531 0.125 0.1
       vertex -0.307531 0.125 0
    endloop
  endfacet
  facet normal -0.946935 0.321425 0
    outer loop
       vertex -0.321995 0.095671 0
       vertex -0.332506 0.064705 0
       vertex -0.332506 0.064705 0.1
    endloop
  endfacet
  facet normal -0.946935 0.321425 0
    outer loop
       vertex -0.332506 0.064705 0.1
       vertex -0.321995 0.095671 0.1
       vertex -0.321995 0.095671 0
    endloop
  endfacet
  facet normal -0.980784 0.195096 0
    outer loop
       vertex -0.332506 0.064705 0
       vertex -0.338886 0.0326315 0
       vertex -0.338886 0.0326315 0.1
    endloop
  endfacet
  facet normal -0.980784 0.195096 0
    outer loop
       vertex -0.338886 0.0326315 0.1
       vertex -0.332506 0.064705 0.1
       vertex -0.332506 0.064705 0
    endloop
  endfacet
  facet normal -0.997858 0.0654098 0
    outer loop
       vertex -0.341025 8.32665e-17 0.1
       vertex -0.338886 0.0326315 0.1
       vertex -0.338886 0.0326315 0
    endloop
  endfacet
  facet normal -0.997858 0.0654098 -1.08928e-16
    outer loop
       vertex -0.338886 0.0326315 0
       vertex -0.341025 -8.32665e-17 0
       vertex -0.341025 8.32665e-17 0.1
    endloop
  endfacet
  facet normal -0.997858 -0.0654098 0
    outer loop
       vertex -0.341025 -8.32665e-17 0
       vertex -0.338886 -0.0326315 0
       vertex -0.338886 -0.0326315 0.1
    endloop
  endfacet
  facet normal -0.997858 -0.0654098 1.08928e-16
    outer loop
       vertex -0.338886 -0.0326315 0.1
       vertex -0.341025 8.32665e-17 0.1
       vertex -0.341025 -8.32665e-17 0
    endloop
  endfacet
  facet normal -0.980784 -0.195096 0
    outer loop
       vertex -0.338886 -0.0326315 0
       vertex -0.332506 -0.064705 0
       vertex -0.332506 -0.064705 0.1
    endloop
  endfacet
  facet normal -0.980784 -0.195096 0
    outer loop
       vertex -0.332506 -0.064705 0.1
       vertex -0.338886 -0.0326315 0.1
       vertex -0.338886 -0.0326315 0
    endloop
  endfacet
  facet normal -0.946935 -0.321425 0
    outer loop
       vertex -0.332506 -0.064705 0
       vertex -0.321995 -0.095671 0
       vertex -0.321995 -0.095671 0.1
    endloop
  endfacet
  facet normal -0.946935 -0.321425 0
    outer loop
       vertex -0.321995 -0.095671 0.1
       vertex -0.332506 -0.064705 0.1
       vertex -0.332506 -0.064705 0
    endloop
  endfacet
  facet normal -0.896866 -0.442302 0
    outer loop
       vertex -0.321995 -0.095671 0
       vertex -0.307531 -0.125 0
       vertex -0.307531 -0.125 0.1
    endloop
  endfacet
  facet normal -0.896866 -0.442302 0
    outer loop
       vertex -0.307531 -0.125 0.1
       vertex -0.321995 -0.095671 0.1
       vertex -0.321995 -0.095671 0
    endloop
  endfacet
  facet normal -0.831476 -0.555561 0
    outer loop
       vertex -0.307531 -0.125 0
       vertex -0.289363 -0.152191 0
       vertex -0.289363 -0.152191 0.1
    endloop
  endfacet
  facet normal -0.831476 -0.555561 0
    outer loop
       vertex -0.289363 -0.152191 0.1
       vertex -0.307531 -0.125 0.1
       vertex -0.307531 -0.125 0
    endloop
  endfacet
  facet normal -0.751817 -0.659372 0
    outer loop
       vertex -0.289363 -0.152191 0
       vertex -0.267801 -0.176776 0
       vertex -0.267801 -0.176776 0.1
    endloop
  endfacet
  facet normal -0.751817 -0.659372 0
    outer loop
       vertex -0.267801 -0.176776 0.1
       vertex -0.289363 -0.152191 0.1
       vertex -0.289363 -0.152191 0
    endloop
  endfacet
  facet normal 0.659372 -0.751817 0
    outer loop
       vertex 0.0857505 -0.176776 0
       vertex 0.0857505 -0.176776 0.1
       vertex 0.0611655 -0.198338 0.1
    endloop
  endfacet
  facet normal 0.659372 -0.751817 0
    outer loop
       vertex 0.0611655 -0.198338 0.1
       vertex 0.0611655 -0.198338 0
       vertex 0.0857505 -0.176776 0
    endloop
  endfacet
  facet normal 0.555561 -0.831476 0
    outer loop
       vertex 0.0611655 -0.198338 0
       vertex 0.0611655 -0.198338 0.1
       vertex 0.0339745 -0.216506 0.1
    endloop
  endfacet
  facet normal 0.555561 -0.831476 0
    outer loop
       vertex 0.0339745 -0.216506 0.1
       vertex 0.0339745 -0.216506 0
       vertex 0.0611655 -0.198338 0
    endloop
  endfacet
  facet normal 0.442302 -0.896866 0
    outer loop
       vertex 0.0339745 -0.216506 0
       vertex 0.0339745 -0.216506 0.1
       vertex 0.00464552 -0.23097 0.1
    endloop
  endfacet
  facet normal 0.442302 -0.896866 0
    outer loop
       vertex 0.00464552 -0.23097 0.1
       vertex 0.00464552 -0.23097 0
       vertex 0.0339745 -0.216506 0
    endloop
  endfacet
  facet normal 0.321425 -0.946935 0
    outer loop
       vertex 0.00464552 -0.23097 0
       vertex 0.00464552 -0.23097 0.1
       vertex -0.0263205 -0.241481 0.1
    endloop
  endfacet
  facet normal 0.321425 -0.946935 0
    outer loop
       vertex -0.0263205 -0.241481 0.1
       vertex -0.0263205 -0.241481 0
       vertex 0.00464552 -0.23097 0
    endloop
  endfacet
  facet normal 0.195096 -0.980784 0
    outer loop
       vertex -0.0263205 -0.241481 0
       vertex -0.0263205 -0.241481 0.1
       vertex -0.058394 -0.247861 0.1
    endloop
  endfacet
  facet normal 0.195096 -0.980784 0
    outer loop
       vertex -0.058394 -0.247861 0.1
       vertex -0.058394 -0.247861 0
       vertex -0.0263205 -0.241481 0
    endloop
  endfacet
  facet normal 0.0654098 -0.997858 0
    outer loop
       vertex -0.0910255 -0.25 0
       vertex -0.058394 -0.247861 0
       vertex -0.058394 -0.247861 0.1
    endloop
  endfacet
  facet normal 0.0654098 -0.997858 1.08928e-16
    outer loop
       vertex -0.058394 -0.247861 0.1
       vertex -0.0910255 -0.25 0.1
       vertex -0.0910255 -0.25 0
    endloop
  endfacet
  facet normal -0.0654098 -0.997858 0
    outer loop
       vertex -0.0910255 -0.25 0.1
       vertex -0.123657 -0.247861 0.1
       vertex -0.123657 -0.247861 0
    endloop
  endfacet
  facet normal -0.0654098 -0.997858 -1.08928e-16
    outer loop
       vertex -0.123657 -0.247861 0
       vertex -0.0910255 -0.25 0
       vertex -0.0910255 -0.25 0.1
    endloop
  endfacet
  facet normal -0.195096 -0.980784 0
    outer loop
       vertex -0.123657 -0.247861 0
       vertex -0.123657 -0.247861 0.1
       vertex -0.15573 -0.241481 0.1
    endloop
  endfacet
  facet normal -0.195096 -0.980784 -0
    outer loop
       vertex -0.15573 -0.241481 0.1
       vertex -0.15573 -0.241481 0
       vertex -0.123657 -0.247861 0
    endloop
  endfacet
  facet normal -0.321425 -0.946935 0
    outer loop
       vertex -0.15573 -0.241481 0
       vertex -0.15573 -0.241481 0.1
       vertex -0.186696 -0.23097 0.1
    endloop
  endfacet
  facet normal -0.321425 -0.946935 -0
    outer loop
       vertex -0.186696 -0.23097 0.1
       vertex -0.186696 -0.23097 0
       vertex -0.15573 -0.241481 0
    endloop
  endfacet
  facet normal -0.442302 -0.896866 0
    outer loop
       vertex -0.186696 -0.23097 0
       vertex -0.186696 -0.23097 0.1
       vertex -0.216025 -0.216506 0.1
    endloop
  endfacet
  facet normal -0.442302 -0.896866 -0
    outer loop
       vertex -0.216025 -0.216506 0.1
       vertex -0.216025 -0.216506 0
       vertex -0.186696 -0.23097 0
    endloop
  endfacet
  facet normal -0.555561 -0.831476 0
    outer loop
       vertex -0.216025 -0.216506 0
       vertex -0.216025 -0.216506 0.1
       vertex -0.243216 -0.198338 0.1
    endloop
  endfacet
  facet normal -0.555561 -0.831476 -0
    outer loop
       vertex -0.243216 -0.198338 0.1
       vertex -0.243216 -0.198338 0
       vertex -0.216025 -0.216506 0
    endloop
  endfacet
  facet normal -0.659372 -0.751817 0
    outer loop
       vertex -0.243216 -0.198338 0
       vertex -0.243216 -0.198338 0.1
       vertex -0.267801 -0.176776 0.1
    endloop
  endfacet
  facet normal -0.659372 -0.751817 -0
    outer loop
       vertex -0.267801 -0.176776 0.1
       vertex -0.267801 -0.176776 0
       vertex -0.243216 -0.198338 0
    endloop
  endfacet
endsolid cylinder
