solid cylinder
  facet normal 0.751817 -0.659372 0
    outer loop
       vertex 0.312215 -0.176776 0
       vertex 0.333777 -0.152191 0
       vertex 0.333777 -0.152191 0.1
    endloop
  endfacet
  facet normal 0.751817 -0.659372 0
    outer loop
       vertex 0.333777 -0.152191 0.1
       vertex 0.312215 -0.176776 0.1
       vertex 0.312215 -0.176776 0
    endloop
  endfacet
  facet normal 0.831476 -0.555561 0
    outer loop
       vertex 0.333777 -0.152191 0
       vertex 0.351945 -0.125 0
       vertex 0.351945 -0.125 0.1
    endloop
  endfacet
  facet normal 0.831476 -0.555561 0
    outer loop
       vertex 0.351945 -0.125 0.1
       vertex 0.333777 -0.152191 0.1
       vertex 0.333777 -0.152191 0
    endloop
  endfacet
  facet normal 0.896866 -0.442302 0
    outer loop
       vertex 0.351945 -0.125 0
       vertex 0.366409 -0.095671 0
       vertex 0.366409 -0.095671 0.1
    endloop
  endfacet
  facet normal 0.896866 -0.442302 0
    outer loop
       vertex 0.366409 -0.095671 0.1
       vertex 0.351945 -0.125 0.1
       vertex 0.351945 -0.125 0
    endloop
  endfacet
  facet normal 0.946935 -0.321425 0
    outer loop
       vertex 0.366409 -0.095671 0
       vertex 0.37692 -0.064705 0
       vertex 0.37692 -0.064705 0.1
    endloop
  endfacet
  facet normal 0.946935 -0.321425 0
    outer loop
       vertex 0.37692 -0.064705 0.1
       vertex 0.366409 -0.095671 0.1
       vertex 0.366409 -0.095671 0
    endloop
  endfacet
  facet normal 0.980784 -0.195096 0
    outer loop
       vertex 0.37692 -0.064705 0
       vertex 0.3833 -0.0326315 0
       vertex 0.3833 -0.0326315 0.1
    endloop
  endfacet
  facet normal 0.980784 -0.195096 0
    outer loop
       vertex 0.3833 -0.0326315 0.1
       vertex 0.37692 -0.064705 0.1
       vertex 0.37692 -0.064705 0
    endloop
  endfacet
  facet normal 0.997858 -0.0654098 0
    outer loop
       vertex 0.385439 -8.32665e-17 0.1
       vertex 0.3833 -0.0326315 0.1
       vertex 0.3833 -0.0326315 0
    endloop
  endfacet
  facet normal 0.997858 -0.0654098 -1.08928e-16
    outer loop
       vertex 0.3833 -0.0326315 0
       vertex 0.385439 8.32665e-17 0
       vertex 0.385439 -8.32665e-17 0.1
    endloop
  endfacet
  facet normal 0.997858 0.0654098 0
    outer loop
       vertex 0.385439 8.32665e-17 0
       vertex 0.3833 0.0326315 0
       vertex 0.3833 0.0326315 0.1
    endloop
  endfacet
  facet normal 0.997858 0.0654098 1.08928e-16
    outer loop
       vertex 0.3833 0.0326315 0.1
       vertex 0.385439 -8.32665e-17 0.1
       vertex 0.385439 8.32665e-17 0
    endloop
  endfacet
  facet normal 0.980784 0.195096 0
    outer loop
       vertex 0.3833 0.0326315 0
       vertex 0.37692 0.064705 0
       vertex 0.37692 0.064705 0.1
    endloop
  endfacet
  facet normal 0.980784 0.195096 0
    outer loop
       vertex 0.37692 0.064705 0.1
       vertex 0.3833 0.0326315 0.1
       vertex 0.3833 0.0326315 0
    endloop
  endfacet
  facet normal 0.946935 0.321425 0
    outer loop
       vertex 0.37692 0.064705 0
       vertex 0.366409 0.095671 0
       vertex 0.366409 0.095671 0.1
    endloop
  endfacet
  facet normal 0.946935 0.321425 0
    outer loop
       vertex 0.366409 0.095671 0.1
       vertex 0.37692 0.064705 0.1
       vertex 0.37692 0.064705 0
    endloop
  endfacet
  facet normal 0.896866 0.442302 0
    outer loop
       vertex 0.366409 0.095671 0
       vertex 0.351945 0.125 0
       vertex 0.351945 0.125 0.1
    endloop
  endfacet
  facet normal 0.896866 0.442302 0
    outer loop
       vertex 0.351945 0.125 0.1
       vertex 0.366409 0.095671 0.1
       vertex 0.366409 0.095671 0
    endloop
  endfacet
  facet normal 0.831476 0.555561 0
    outer loop
       vertex 0.351945 0.125 0
       vertex 0.333777 0.152191 0
       vertex 0.333777 0.152191 0.1
    endloop
  endfacet
  facet normal 0.831476 0.555561 0
    outer loop
       vertex 0.333777 0.152191 0.1
       vertex 0.351945 0.125 0.1
       vertex 0.351945 0.125 0
    endloop
  endfacet
  facet normal 0.751817 0.659372 0
    outer loop
       vertex 0.333777 0.152191 0
       vertex 0.312215 0.176776 0
       vertex 0.312215 0.176776 0.1
    endloop
  endfacet
  facet normal 0.751817 0.659372 0
    outer loop
       vertex 0.312215 0.176776 0.1
       vertex 0.333777 0.152191 0.1
       vertex 0.333777 0.152191 0
    endloop
  endfacet
  facet normal 0.659372 0.751817 0
    outer loop
       vertex 0.312215 0.176776 0
       vertex 0.28763 0.198338 0
       vertex 0.28763 0.198338 0.1
    endloop
  endfacet
  facet normal 0.659372 0.751817 0
    outer loop
       vertex 0.28763 0.198338 0.1
       vertex 0.312215 0.176776 0.1
       vertex 0.312215 0.176776 0
    endloop
  endfacet
  facet normal 0.555561 0.831476 0
    outer loop
       vertex 0.28763 0.198338 0
       vertex 0.260439 0.216506 0
       vertex 0.260439 0.216506 0.1
    endloop
  endfacet
  facet normal 0.555561 0.831476 0
    outer loop
       vertex 0.260439 0.216506 0.1
       vertex 0.28763 0.198338 0.1
       vertex 0.28763 0.198338 0
    endloop
  endfacet
  facet normal 0.442302 0.896866 0
    outer loop
       vertex 0.260439 0.216506 0
       vertex 0.23111 0.23097 0
       vertex 0.23111 0.23097 0.1
    endloop
  endfacet
  facet normal 0.442302 0.896866 0
    outer loop
       vertex 0.23111 0.23097 0.1
       vertex 0.260439 0.216506 0.1
       vertex 0.260439 0.216506 0
    endloop
  endfacet
  facet normal 0.321425 0.946935 0
    outer loop
       vertex 0.23111 0.23097 0
       vertex 0.200144 0.241481 0
       vertex 0.200144 0.241481 0.1
    endloop
  endfacet
  facet normal 0.321425 0.946935 0
    outer loop
       vertex 0.200144 0.241481 0.1
       vertex 0.23111 0.23097 0.1
       vertex 0.23111 0.23097 0
    endloop
  endfacet
  facet normal 0.195096 0.980784 0
    outer loop
       vertex 0.200144 0.241481 0
       vertex 0.168071 0.247861 0
       vertex 0.168071 0.247861 0.1
    endloop
  endfacet
  facet normal 0.195096 0.980784 0
    outer loop
       vertex 0.168071 0.247861 0.1
       vertex 0.200144 0.241481 0.1
       vertex 0.200144 0.241481 0
    endloop
  endfacet
  facet normal 0.0654098 0.997858 0
    outer loop
       vertex 0.135439 0.25 0.1
       vertex 0.168071 0.247861 0.1
       vertex 0.168071 0.247861 0
    endloop
  endfacet
  facet normal 0.0654098 0.997858 -1.0893e-16
    outer loop
       vertex 0.168071 0.247861 0
       vertex 0.135439 0.25 0
       vertex 0.135439 0.25 0.1
    endloop
  endfacet
  facet normal -0.0654098 0.997858 0
    outer loop
       vertex 0.135439 0.25 0
       vertex 0.102808 0.247861 0
       vertex 0.102808 0.247861 0.1
    endloop
  endfacet
  facet normal -0.0654098 0.997858 1.0893e-16
    outer loop
       vertex 0.102808 0.247861 0.1
       vertex 0.135439 0.25 0.1
       vertex 0.135439 0.25 0
    endloop
  endfacet
  facet normal -0.195096 0.980784 0
    outer loop
       vertex 0.102808 0.247861 0
       vertex 0.0707341 0.241481 0
       vertex 0.0707341 0.241481 0.1
    endloop
  endfacet
  facet normal -0.195096 0.980784 0
    outer loop
       vertex 0.0707341 0.241481 0.1
       vertex 0.102808 0.247861 0.1
       vertex 0.102808 0.247861 0
    endloop
  endfacet
  facet normal -0.321425 0.946935 0
    outer loop
       vertex 0.0707341 0.241481 0
       vertex 0.0397681 0.23097 0
       vertex 0.0397681 0.23097 0.1
    endloop
  endfacet
  facet normal -0.321425 0.946935 0
    outer loop
       vertex 0.0397681 0.23097 0.1
       vertex 0.0707341 0.241481 0.1
       vertex 0.0707341 0.241481 0
    endloop
  endfacet
  facet normal -0.442302 0.896866 0
    outer loop
       vertex 0.0397681 0.23097 0
       vertex 0.0104391 0.216506 0
       vertex 0.0104391 0.216506 0.1
    endloop
  endfacet
  facet normal -0.442302 0.896866 0
    outer loop
       vertex 0.0104391 0.216506 0.1
       vertex 0.0397681 0.23097 0.1
       vertex 0.0397681 0.23097 0
    endloop
  endfacet
  facet normal -0.555561 0.831476 0
    outer loop
       vertex 0.0104391 0.216506 0
       vertex -0.0167519 0.198338 0
       vertex -0.0167519 0.198338 0.1
    endloop
  endfacet
  facet normal -0.555561 0.831476 0
    outer loop
       vertex -0.0167519 0.198338 0.1
       vertex 0.0104391 0.216506 0.1
       vertex 0.0104391 0.216506 0
    endloop
  endfacet
  facet normal -0.659372 0.751817 0
    outer loop
       vertex -0.0167519 0.198338 0
       vertex -0.0413369 0.176776 0
       vertex -0.0413369 0.176776 0.1
    endloop
  endfacet
  facet normal -0.659372 0.751817 0
    outer loop
       vertex -0.0413369 0.176776 0.1
       vertex -0.0167519 0.198338 0.1
       vertex -0.0167519 0.198338 0
    endloop
  endfacet
  facet normal -0.751817 0.659372 0
    outer loop
       vertex -0.0413369 0.176776 0
       vertex -0.0628989 0.152191 0
       vertex -0.0628989 0.152191 0.1
    endloop
  endfacet
  facet normal -0.751817 0.659372 0
    outer loop
       vertex -0.0628989 0.152191 0.1
       vertex -0.0413369 0.176776 0.1
       vertex -0.0413369 0.176776 0
    endloop
  endfacet
  facet normal -0.831476 0.555561 0
    outer loop
       vertex -0.0628989 0.152191 0
       vertex -0.0810669 0.125 0
       vertex -0.0810669 0.125 0.1
    endloop
  endfacet
  facet normal -0.831476 0.555561 0
    outer loop
       vertex -0.0810669 0.125 0.1
       vertex -0.0628989 0.152191 0.1
       vertex -0.0628989 0.152191 0
    endloop
  endfacet
  facet normal -0.896866 0.442302 0
    outer loop
       vertex -0.0810669 0.125 0
       vertex -0.0955309 0.095671 0
       vertex -0.0955309 0.095671 0.1
    endloop
  endfacet
  facet normal -0.896866 0.442302 0
    outer loop
       vertex -0.0955309 0.095671 0.1
       vertex -0.0810669 0.125 0.1
       vertex -0.0810669 0.125 0
    endloop
  endfacet
  facet normal -0.946935 0.321425 0
    outer loop
       vertex -0.0955309 0.095671 0
       vertex -0.106042 0.064705 0
       vertex -0.106042 0.064705 0.1
    endloop
  endfacet
  facet normal -0.946935 0.321425 0
    outer loop
       vertex -0.106042 0.064705 0.1
       vertex -0.0955309 0.095671 0.1
       vertex -0.0955309 0.095671 0
    endloop
  endfacet
  facet normal -0.980784 0.195096 0
    outer loop
       vertex -0.106042 0.064705 0
       vertex -0.112422 0.0326315 0
       vertex -0.112422 0.0326315 0.1
    endloop
  endfacet
  facet normal -0.980784 0.195096 0
    outer loop
       vertex -0.112422 0.0326315 0.1
       vertex -0.106042 0.064705 0.1
       vertex -0.106042 0.064705 0
    endloop
  endfacet
  facet normal -0.997858 0.0654098 0
    outer loop
       vertex -0.114561 8.32665e-17 0.1
       vertex -0.112422 0.0326315 0.1
       vertex -0.112422 0.0326315 0
    endloop
  endfacet
  facet normal -0.997858 0.0654098 -1.08928e-16
    outer loop
       vertex -0.112422 0.0326315 0
       vertex -0.114561 -8.32665e-17 0
       vertex -0.114561 8.32665e-17 0.1
    endloop
  endfacet
  facet normal -0.997858 -0.0654098 0
    outer loop
       vertex -0.114561 -8.32665e-17 0
       vertex -0.112422 -0.0326315 0
       vertex -0.112422 -0.0326315 0.1
    endloop
  endfacet
  facet normal -0.997858 -0.0654098 1.08928e-16
    outer loop
       vertex -0.112422 -0.0326315 0.1
       vertex -0.114561 8.32665e-17 0.1
       vertex -0.114561 -8.32665e-17 0
    endloop
  endfacet
  facet normal -0.980784 -0.195096 0
    outer loop
       vertex -0.112422 -0.0326315 0
       vertex -0.106042 -0.064705 0
       vertex -0.106042 -0.064705 0.1
    endloop
  endfacet
  facet normal -0.980784 -0.195096 0
    outer loop
       vertex -0.106042 -0.064705 0.1
       vertex -0.112422 -0.0326315 0.1
       vertex -0.112422 -0.0326315 0
    endloop
  endfacet
  facet normal -0.946935 -0.321425 0
    outer loop
       vertex -0.106042 -0.064705 0
       vertex -0.0955309 -0.095671 0
       vertex -0.0955309 -0.095671 0.1
    endloop
  endfacet
  facet normal -0.946935 -0.321425 0
    outer loop
       vertex -0.0955309 -0.095671 0.1
       vertex -0.106042 -0.064705 0.1
       vertex -0.106042 -0.064705 0
    endloop
  endfacet
  facet normal -0.896866 -0.442302 0
    outer loop
       vertex -0.0955309 -0.095671 0
       vertex -0.0810669 -0.125 0
       vertex -0.0810669 -0.125 0.1
    endloop
  endfacet
  facet normal -0.896866 -0.442302 0
    outer loop
       vertex -0.0810669 -0.125 0.1
       vertex -0.0955309 -0.095671 0.1
       vertex -0.0955309 -0.095671 0
    endloop
  endfacet
  facet normal -0.831476 -0.555561 0
    outer loop
       vertex -0.0810669 -0.125 0
       vertex -0.0628989 -0.152191 0
       vertex -0.0628989 -0.152191 0.1
    endloop
  endfacet
  facet normal -0.831476 -0.555561 0
    outer loop
       vertex -0.0628989 -0.152191 0.1
       vertex -0.0810669 -0.125 0.1
       vertex -0.0810669 -0.125 0
    endloop
  endfacet
  facet normal -0.751817 -0.659372 0
    outer loop
       vertex -0.0628989 -0.152191 0
       vertex -0.0413369 -0.176776 0
       vertex -0.0413369 -0.176776 0.1
    endloop
  endfacet
  facet normal -0.751817 -0.659372 0
    outer loop
       vertex -0.0413369 -0.176776 0.1
       vertex -0.0628989 -0.152191 0.1
       vertex -0.0628989 -0.152191 0
    endloop
  endfacet
  facet normal 0.659372 -0.751817 0
    outer loop
       vertex 0.312215 -0.176776 0
       vertex 0.312215 -0.176776 0.1
       vertex 0.28763 -0.198338 0.1
    endloop
  endfacet
  facet normal 0.659372 -0.751817 0
    outer loop
       vertex 0.28763 -0.198338 0.1
       vertex 0.28763 -0.198338 0
       vertex 0.312215 -0.176776 0
    endloop
  endfacet
  facet normal 0.555561 -0.831476 0
    outer loop
       vertex 0.28763 -0.198338 0
       vertex 0.28763 -0.198338 0.1
       vertex 0.260439 -0.216506 0.1
    endloop
  endfacet
  facet normal 0.555561 -0.831476 0
    outer loop
       vertex 0.260439 -0.216506 0.1
       vertex 0.260439 -0.216506 0
       vertex 0.28763 -0.198338 0
    endloop
  endfacet
  facet normal 0.442302 -0.896866 0
    outer loop
       vertex 0.260439 -0.216506 0
       vertex 0.260439 -0.216506 0.1
       vertex 0.23111 -0.23097 0.1
    endloop
  endfacet
  facet normal 0.442302 -0.896866 0
    outer loop
       vertex 0.23111 -0.23097 0.1
       vertex 0.23111 -0.23097 0
       vertex 0.260439 -0.216506 0
    endloop
  endfacet
  facet normal 0.321425 -0.946935 0
    outer loop
       vertex 0.23111 -0.23097 0
       vertex 0.23111 -0.23097 0.1
       vertex 0.200144 -0.241481 0.1
    endloop
  endfacet
  facet normal 0.321425 -0.946935 0
    outer loop
       vertex 0.200144 -0.241481 0.1
       vertex 0.200144 -0.241481 0
       vertex 0.23111 -0.23097 0
    endloop
  endfacet
  facet normal 0.195096 -0.980784 0
    outer loop
       vertex 0.200144 -0.241481 0
       vertex 0.200144 -0.241481 0.1
       vertex 0.168071 -0.247861 0.1
    endloop
  endfacet
  facet normal 0.195096 -0.980784 0
    outer loop
       vertex 0.168071 -0.247861 0.1
       vertex 0.168071 -0.247861 0
       vertex 0.200144 -0.241481 0
    endloop
  endfacet
  facet normal 0.0654098 -0.997858 0
    outer loop
       vertex 0.135439 -0.25 0
       vertex 0.168071 -0.247861 0
       vertex 0.168071 -0.247861 0.1
    endloop
  endfacet
  facet normal 0.0654098 -0.997858 1.0893e-16
    outer loop
       vertex 0.168071 -0.247861 0.1
       vertex 0.135439 -0.25 0.1
       vertex 0.135439 -0.25 0
    endloop
  endfacet
  facet normal -0.0654098 -0.997858 0
    outer loop
       vertex 0.135439 -0.25 0.1
       vertex 0.102808 -0.247861 0.1
       vertex 0.102808 -0.247861 0
    endloop
  endfacet
  facet normal -0.0654098 -0.997858 -1.0893e-16
    outer loop
       vertex 0.102808 -0.247861 0
       vertex 0.135439 -0.25 0
       vertex 0.135439 -0.25 0.1
    endloop
  endfacet
  facet normal -0.195096 -0.980784 0
    outer loop
       vertex 0.102808 -0.247861 0
       vertex 0.102808 -0.247861 0.1
       vertex 0.0707341 -0.241481 0.1
    endloop
  endfacet
  facet normal -0.195096 -0.980784 -0
    outer loop
       vertex 0.0707341 -0.241481 0.1
       vertex 0.0707341 -0.241481 0
       vertex 0.102808 -0.247861 0
    endloop
  endfacet
  facet normal -0.321425 -0.946935 0
    outer loop
       vertex 0.0707341 -0.241481 0
       vertex 0.0707341 -0.241481 0.1
       vertex 0.0397681 -0.23097 0.1
    endloop
  endfacet
  facet normal -0.321425 -0.946935 -0
    outer loop
       vertex 0.0397681 -0.23097 0.1
       vertex 0.0397681 -0.23097 0
       vertex 0.0707341 -0.241481 0
    endloop
  endfacet
  facet normal -0.442302 -0.896866 0
    outer loop
       vertex 0.0397681 -0.23097 0
       vertex 0.0397681 -0.23097 0.1
       vertex 0.0104391 -0.216506 0.1
    endloop
  endfacet
  facet normal -0.442302 -0.896866 -0
    outer loop
       vertex 0.0104391 -0.216506 0.1
       vertex 0.0104391 -0.216506 0
       vertex 0.0397681 -0.23097 0
    endloop
  endfacet
  facet normal -0.555561 -0.831476 0
    outer loop
       vertex 0.0104391 -0.216506 0
       vertex 0.0104391 -0.216506 0.1
       vertex -0.0167519 -0.198338 0.1
    endloop
  endfacet
  facet normal -0.555561 -0.831476 -0
    outer loop
       vertex -0.0167519 -0.198338 0.1
       vertex -0.0167519 -0.198338 0
       vertex 0.0104391 -0.216506 0
    endloop
  endfacet
  facet normal -0.659372 -0.751817 0
    outer loop
       vertex -0.0167519 -0.198338 0
       vertex -0.0167519 -0.198338 0.1
       vertex -0.0413369 -0.176776 0.1
    endloop
  endfacet
  facet normal -0.659372 -0.751817 -0
    outer loop
       vertex -0.0413369 -0.176776 0.1
       vertex -0.0413369 -0.176776 0
       vertex -0.0167519 -0.198338 0
    endloop
  endfacet
endsolid cylinder
