solid cylinder
  facet normal 0.751817 -0.659372 0
    outer loop
       vertex 0.153558 -0.176776 0
       vertex 0.17512 -0.152191 0
       vertex 0.17512 -0.152191 0.1
    endloop
  endfacet
  facet normal 0.751817 -0.659372 0
    outer loop
       vertex 0.17512 -0.152191 0.1
       vertex 0.153558 -0.176776 0.1
       vertex 0.153558 -0.176776 0
    endloop
  endfacet
  facet normal 0.831476 -0.555561 0
    outer loop
       vertex 0.17512 -0.152191 0
       vertex 0.193288 -0.125 0
       vertex 0.193288 -0.125 0.1
    endloop
  endfacet
  facet normal 0.831476 -0.555561 0
    outer loop
       vertex 0.193288 -0.125 0.1
       vertex 0.17512 -0.152191 0.1
       vertex 0.17512 -0.152191 0
    endloop
  endfacet
  facet normal 0.896866 -0.442302 0
    outer loop
       vertex 0.193288 -0.125 0
       vertex 0.207752 -0.095671 0
       vertex 0.207752 -0.095671 0.1
    endloop
  endfacet
  facet normal 0.896866 -0.442302 0
    outer loop
       vertex 0.207752 -0.095671 0.1
       vertex 0.193288 -0.125 0.1
       vertex 0.193288 -0.125 0
    endloop
  endfacet
  facet normal 0.946935 -0.321425 0
    outer loop
       vertex 0.207752 -0.095671 0
       vertex 0.218263 -0.064705 0
       vertex 0.218263 -0.064705 0.1
    endloop
  endfacet
  facet normal 0.946935 -0.321425 0
    outer loop
       vertex 0.218263 -0.064705 0.1
       vertex 0.207752 -0.095671 0.1
       vertex 0.207752 -0.095671 0
    endloop
  endfacet
  facet normal 0.980784 -0.195096 0
    outer loop
       vertex 0.218263 -0.064705 0
       vertex 0.224643 -0.0326315 0
       vertex 0.224643 -0.0326315 0.1
    endloop
  endfacet
  facet normal 0.980784 -0.195096 0
    outer loop
       vertex 0.224643 -0.0326315 0.1
       vertex 0.218263 -0.064705 0.1
       vertex 0.218263 -0.064705 0
    endloop
  endfacet
  facet normal 0.997858 -0.0654098 0
    outer loop
       vertex 0.226782 -8.32665e-17 0.1
       vertex 0.224643 -0.0326315 0.1
       vertex 0.224643 -0.0326315 0
    endloop
  endfacet
  facet normal 0.997858 -0.0654098 -1.08928e-16
    outer loop
       vertex 0.224643 -0.0326315 0
       vertex 0.226782 8.32665e-17 0
       vertex 0.226782 -8.32665e-17 0.1
    endloop
  endfacet
  facet normal 0.997858 0.0654098 0
    outer loop
       vertex 0.226782 8.32665e-17 0
       vertex 0.224643 0.0326315 0
       vertex 0.224643 0.0326315 0.1
    endloop
  endfacet
  facet normal 0.997858 0.0654098 1.08928e-16
    outer loop
       vertex 0.224643 0.0326315 0.1
       vertex 0.226782 -8.32665e-17 0.1
       vertex 0.226782 8.32665e-17 0
    endloop
  endfacet
  facet normal 0.980784 0.195096 0
    outer loop
       vertex 0.224643 0.0326315 0
       vertex 0.218263 0.064705 0
       vertex 0.218263 0.064705 0.1
    endloop
  endfacet
  facet normal 0.980784 0.195096 0
    outer loop
       vertex 0.218263 0.064705 0.1
       vertex 0.224643 0.0326315 0.1
       vertex 0.224643 0.0326315 0
    endloop
  endfacet
  facet normal 0.946935 0.321425 0
    outer loop
       vertex 0.218263 0.064705 0
       vertex 0.207752 0.095671 0
       vertex 0.207752 0.095671 0.1
    endloop
  endfacet
  facet normal 0.946935 0.321425 0
    outer loop
       vertex 0.207752 0.095671 0.1
       vertex 0.218263 0.064705 0.1
       vertex 0.218263 0.064705 0
    endloop
  endfacet
  facet normal 0.896866 0.442302 0
    outer loop
       vertex 0.207752 0.095671 0
       vertex 0.193288 0.125 0
       vertex 0.193288 0.125 0.1
    endloop
  endfacet
  facet normal 0.896866 0.442302 0
    outer loop
       vertex 0.193288 0.125 0.1
       vertex 0.207752 0.095671 0.1
       vertex 0.207752 0.095671 0
    endloop
  endfacet
  facet normal 0.831476 0.555561 0
    outer loop
       vertex 0.193288 0.125 0
       vertex 0.17512 0.152191 0
       vertex 0.17512 0.152191 0.1
    endloop
  endfacet
  facet normal 0.831476 0.555561 0
    outer loop
       vertex 0.17512 0.152191 0.1
       vertex 0.193288 0.125 0.1
       vertex 0.193288 0.125 0
    endloop
  endfacet
  facet normal 0.751817 0.659372 0
    outer loop
       vertex 0.17512 0.152191 0
       vertex 0.153558 0.176776 0
       vertex 0.153558 0.176776 0.1
    endloop
  endfacet
  facet normal 0.751817 0.659372 0
    outer loop
       vertex 0.153558 0.176776 0.1
       vertex 0.17512 0.152191 0.1
       vertex 0.17512 0.152191 0
    endloop
  endfacet
  facet normal 0.659372 0.751817 0
    outer loop
       vertex 0.153558 0.176776 0
       vertex 0.128973 0.198338 0
       vertex 0.128973 0.198338 0.1
    endloop
  endfacet
  facet normal 0.659372 0.751817 0
    outer loop
       vertex 0.128973 0.198338 0.1
       vertex 0.153558 0.176776 0.1
       vertex 0.153558 0.176776 0
    endloop
  endfacet
  facet normal 0.555561 0.831476 0
    outer loop
       vertex 0.128973 0.198338 0
       vertex 0.101782 0.216506 0
       vertex 0.101782 0.216506 0.1
    endloop
  endfacet
  facet normal 0.555561 0.831476 0
    outer loop
       vertex 0.101782 0.216506 0.1
       vertex 0.128973 0.198338 0.1
       vertex 0.128973 0.198338 0
    endloop
  endfacet
  facet normal 0.442302 0.896866 0
    outer loop
       vertex 0.101782 0.216506 0
       vertex 0.072453 0.23097 0
       vertex 0.072453 0.23097 0.1
    endloop
  endfacet
  facet normal 0.442302 0.896866 0
    outer loop
       vertex 0.072453 0.23097 0.1
       vertex 0.101782 0.216506 0.1
       vertex 0.101782 0.216506 0
    endloop
  endfacet
  facet normal 0.321425 0.946935 0
    outer loop
       vertex 0.072453 0.23097 0
       vertex 0.041487 0.241481 0
       vertex 0.041487 0.241481 0.1
    endloop
  endfacet
  facet normal 0.321425 0.946935 0
    outer loop
       vertex 0.041487 0.241481 0.1
       vertex 0.072453 0.23097 0.1
       vertex 0.072453 0.23097 0
    endloop
  endfacet
  facet normal 0.195096 0.980784 0
    outer loop
       vertex 0.041487 0.241481 0
       vertex 0.00941347 0.247861 0
       vertex 0.00941347 0.247861 0.1
    endloop
  endfacet
  facet normal 0.195096 0.980784 0
    outer loop
       vertex 0.00941347 0.247861 0.1
       vertex 0.041487 0.241481 0.1
       vertex 0.041487 0.241481 0
    endloop
  endfacet
  facet normal 0.0654098 0.997858 0
    outer loop
       vertex -0.023218 0.25 0.1
       vertex 0.00941347 0.247861 0.1
       vertex 0.00941347 0.247861 0
    endloop
  endfacet
  facet normal 0.0654098 0.997858 -1.08928e-16
    outer loop
       vertex 0.00941347 0.247861 0
       vertex -0.023218 0.25 0
       vertex -0.023218 0.25 0.1
    endloop
  endfacet
  facet normal -0.0654098 0.997858 0
    outer loop
       vertex -0.023218 0.25 0
       vertex -0.0558495 0.247861 0
       vertex -0.0558495 0.247861 0.1
    endloop
  endfacet
  facet normal -0.0654098 0.997858 1.08928e-16
    outer loop
       vertex -0.0558495 0.247861 0.1
       vertex -0.023218 0.25 0.1
       vertex -0.023218 0.25 0
    endloop
  endfacet
  facet normal -0.195096 0.980784 0
    outer loop
       vertex -0.0558495 0.247861 0
       vertex -0.087923 0.241481 0
       vertex -0.087923 0.241481 0.1
    endloop
  endfacet
  facet normal -0.195096 0.980784 0
    outer loop
       vertex -0.087923 0.241481 0.1
       vertex -0.0558495 0.247861 0.1
       vertex -0.0558495 0.247861 0
    endloop
  endfacet
  facet normal -0.321425 0.946935 0
    outer loop
       vertex -0.087923 0.241481 0
       vertex -0.118889 0.23097 0
       vertex -0.118889 0.23097 0.1
    endloop
  endfacet
  facet normal -0.321425 0.946935 0
    outer loop
       vertex -0.118889 0.23097 0.1
       vertex -0.087923 0.241481 0.1
       vertex -0.087923 0.241481 0
    endloop
  endfacet
  facet normal -0.442302 0.896866 0
    outer loop
       vertex -0.118889 0.23097 0
       vertex -0.148218 0.216506 0
       vertex -0.148218 0.216506 0.1
    endloop
  endfacet
  facet normal -0.442302 0.896866 0
    outer loop
       vertex -0.148218 0.216506 0.1
       vertex -0.118889 0.23097 0.1
       vertex -0.118889 0.23097 0
    endloop
  endfacet
  facet normal -0.555561 0.831476 0
    outer loop
       vertex -0.148218 0.216506 0
       vertex -0.175409 0.198338 0
       vertex -0.175409 0.198338 0.1
    endloop
  endfacet
  facet normal -0.555561 0.831476 0
    outer loop
       vertex -0.175409 0.198338 0.1
       vertex -0.148218 0.216506 0.1
       vertex -0.148218 0.216506 0
    endloop
  endfacet
  facet normal -0.659372 0.751817 0
    outer loop
       vertex -0.175409 0.198338 0
       vertex -0.199994 0.176776 0
       vertex -0.199994 0.176776 0.1
    endloop
  endfacet
  facet normal -0.659372 0.751817 0
    outer loop
       vertex -0.199994 0.176776 0.1
       vertex -0.175409 0.198338 0.1
       vertex -0.175409 0.198338 0
    endloop
  endfacet
  facet normal -0.751817 0.659372 0
    outer loop
       vertex -0.199994 0.176776 0
       vertex -0.221556 0.152191 0
       vertex -0.221556 0.152191 0.1
    endloop
  endfacet
  facet normal -0.751817 0.659372 0
    outer loop
       vertex -0.221556 0.152191 0.1
       vertex -0.199994 0.176776 0.1
       vertex -0.199994 0.176776 0
    endloop
  endfacet
  facet normal -0.831476 0.555561 0
    outer loop
       vertex -0.221556 0.152191 0
       vertex -0.239724 0.125 0
       vertex -0.239724 0.125 0.1
    endloop
  endfacet
  facet normal -0.831476 0.555561 0
    outer loop
       vertex -0.239724 0.125 0.1
       vertex -0.221556 0.152191 0.1
       vertex -0.221556 0.152191 0
    endloop
  endfacet
  facet normal -0.896866 0.442302 0
    outer loop
       vertex -0.239724 0.125 0
       vertex -0.254188 0.095671 0
       vertex -0.254188 0.095671 0.1
    endloop
  endfacet
  facet normal -0.896866 0.442302 0
    outer loop
       vertex -0.254188 0.095671 0.1
       vertex -0.239724 0.125 0.1
       vertex -0.239724 0.125 0
    endloop
  endfacet
  facet normal -0.946935 0.321425 0
    outer loop
       vertex -0.254188 0.095671 0
       vertex -0.264699 0.064705 0
       vertex -0.264699 0.064705 0.1
    endloop
  endfacet
  facet normal -0.946935 0.321425 0
    outer loop
       vertex -0.264699 0.064705 0.1
       vertex -0.254188 0.095671 0.1
       vertex -0.254188 0.095671 0
    endloop
  endfacet
  facet normal -0.980784 0.195096 0
    outer loop
       vertex -0.264699 0.064705 0
       vertex -0.271079 0.0326315 0
       vertex -0.271079 0.0326315 0.1
    endloop
  endfacet
  facet normal -0.980784 0.195096 0
    outer loop
       vertex -0.271079 0.0326315 0.1
       vertex -0.264699 0.064705 0.1
       vertex -0.264699 0.064705 0
    endloop
  endfacet
  facet normal -0.997858 0.0654098 0
    outer loop
       vertex -0.273218 8.32665e-17 0.1
       vertex -0.271079 0.0326315 0.1
       vertex -0.271079 0.0326315 0
    endloop
  endfacet
  facet normal -0.997858 0.0654098 -1.08928e-16
    outer loop
       vertex -0.271079 0.0326315 0
       vertex -0.273218 -8.32665e-17 0
       vertex -0.273218 8.32665e-17 0.1
    endloop
  endfacet
  facet normal -0.997858 -0.0654098 0
    outer loop
       vertex -0.273218 -8.32665e-17 0
       vertex -0.271079 -0.0326315 0
       vertex -0.271079 -0.0326315 0.1
    endloop
  endfacet
  facet normal -0.997858 -0.0654098 1.08928e-16
    outer loop
       vertex -0.271079 -0.0326315 0.1
       vertex -0.273218 8.32665e-17 0.1
       vertex -0.273218 -8.32665e-17 0
    endloop
  endfacet
  facet normal -0.980784 -0.195096 0
    outer loop
       vertex -0.271079 -0.0326315 0
       vertex -0.264699 -0.064705 0
       vertex -0.264699 -0.064705 0.1
    endloop
  endfacet
  facet normal -0.980784 -0.195096 0
    outer loop
       vertex -0.264699 -0.064705 0.1
       vertex -0.271079 -0.0326315 0.1
       vertex -0.271079 -0.0326315 0
    endloop
  endfacet
  facet normal -0.946935 -0.321425 0
    outer loop
       vertex -0.264699 -0.064705 0
       vertex -0.254188 -0.095671 0
       vertex -0.254188 -0.095671 0.1
    endloop
  endfacet
  facet normal -0.946935 -0.321425 0
    outer loop
       vertex -0.254188 -0.095671 0.1
       vertex -0.264699 -0.064705 0.1
       vertex -0.264699 -0.064705 0
    endloop
  endfacet
  facet normal -0.896866 -0.442302 0
    outer loop
       vertex -0.254188 -0.095671 0
       vertex -0.239724 -0.125 0
       vertex -0.239724 -0.125 0.1
    endloop
  endfacet
  facet normal -0.896866 -0.442302 0
    outer loop
       vertex -0.239724 -0.125 0.1
       vertex -0.254188 -0.095671 0.1
       vertex -0.254188 -0.095671 0
    endloop
  endfacet
  facet normal -0.831476 -0.555561 0
    outer loop
       vertex -0.239724 -0.125 0
       vertex -0.221556 -0.152191 0
       vertex -0.221556 -0.152191 0.1
    endloop
  endfacet
  facet normal -0.831476 -0.555561 0
    outer loop
       vertex -0.221556 -0.152191 0.1
       vertex -0.239724 -0.125 0.1
       vertex -0.239724 -0.125 0
    endloop
  endfacet
  facet normal -0.751817 -0.659372 0
    outer loop
       vertex -0.221556 -0.152191 0
       vertex -0.199994 -0.176776 0
       vertex -0.199994 -0.176776 0.1
    endloop
  endfacet
  facet normal -0.751817 -0.659372 0
    outer loop
       vertex -0.199994 -0.176776 0.1
       vertex -0.221556 -0.152191 0.1
       vertex -0.221556 -0.152191 0
    endloop
  endfacet
  facet normal 0.659372 -0.751817 0
    outer loop
       vertex 0.153558 -0.176776 0
       vertex 0.153558 -0.176776 0.1
       vertex 0.128973 -0.198338 0.1
    endloop
  endfacet
  facet normal 0.659372 -0.751817 0
    outer loop
       vertex 0.128973 -0.198338 0.1
       vertex 0.128973 -0.198338 0
       vertex 0.153558 -0.176776 0
    endloop
  endfacet
  facet normal 0.555561 -0.831476 0
    outer loop
       vertex 0.128973 -0.198338 0
       vertex 0.128973 -0.198338 0.1
       vertex 0.101782 -0.216506 0.1
    endloop
  endfacet
  facet normal 0.555561 -0.831476 0
    outer loop
       vertex 0.101782 -0.216506 0.1
       vertex 0.101782 -0.216506 0
       vertex 0.128973 -0.198338 0
    endloop
  endfacet
  facet normal 0.442302 -0.896866 0
    outer loop
       vertex 0.101782 -0.216506 0
       vertex 0.101782 -0.216506 0.1
       vertex 0.072453 -0.23097 0.1
    endloop
  endfacet
  facet normal 0.442302 -0.896866 0
    outer loop
       vertex 0.072453 -0.23097 0.1
       vertex 0.072453 -0.23097 0
       vertex 0.101782 -0.216506 0
    endloop
  endfacet
  facet normal 0.321425 -0.946935 0
    outer loop
       vertex 0.072453 -0.23097 0
       vertex 0.072453 -0.23097 0.1
       vertex 0.041487 -0.241481 0.1
    endloop
  endfacet
  facet normal 0.321425 -0.946935 0
    outer loop
       vertex 0.041487 -0.241481 0.1
       vertex 0.041487 -0.241481 0
       vertex 0.072453 -0.23097 0
    endloop
  endfacet
  facet normal 0.195096 -0.980784 0
    outer loop
       vertex 0.041487 -0.241481 0
       vertex 0.041487 -0.241481 0.1
       vertex 0.00941347 -0.247861 0.1
    endloop
  endfacet
  facet normal 0.195096 -0.980784 0
    outer loop
       vertex 0.00941347 -0.247861 0.1
       vertex 0.00941347 -0.247861 0
       vertex 0.041487 -0.241481 0
    endloop
  endfacet
  facet normal 0.0654098 -0.997858 0
    outer loop
       vertex -0.023218 -0.25 0
       vertex 0.00941347 -0.247861 0
       vertex 0.00941347 -0.247861 0.1
    endloop
  endfacet
  facet normal 0.0654098 -0.997858 1.08928e-16
    outer loop
       vertex 0.00941347 -0.247861 0.1
       vertex -0.023218 -0.25 0.1
       vertex -0.023218 -0.25 0
    endloop
  endfacet
  facet normal -0.0654098 -0.997858 0
    outer loop
       vertex -0.023218 -0.25 0.1
       vertex -0.0558495 -0.247861 0.1
       vertex -0.0558495 -0.247861 0
    endloop
  endfacet
  facet normal -0.0654098 -0.997858 -1.08928e-16
    outer loop
       vertex -0.0558495 -0.247861 0
       vertex -0.023218 -0.25 0
       vertex -0.023218 -0.25 0.1
    endloop
  endfacet
  facet normal -0.195096 -0.980784 0
    outer loop
       vertex -0.0558495 -0.247861 0
       vertex -0.0558495 -0.247861 0.1
       vertex -0.087923 -0.241481 0.1
    endloop
  endfacet
  facet normal -0.195096 -0.980784 -0
    outer loop
       vertex -0.087923 -0.241481 0.1
       vertex -0.087923 -0.241481 0
       vertex -0.0558495 -0.247861 0
    endloop
  endfacet
  facet normal -0.321425 -0.946935 0
    outer loop
       vertex -0.087923 -0.241481 0
       vertex -0.087923 -0.241481 0.1
       vertex -0.118889 -0.23097 0.1
    endloop
  endfacet
  facet normal -0.321425 -0.946935 -0
    outer loop
       vertex -0.118889 -0.23097 0.1
       vertex -0.118889 -0.23097 0
       vertex -0.087923 -0.241481 0
    endloop
  endfacet
  facet normal -0.442302 -0.896866 0
    outer loop
       vertex -0.118889 -0.23097 0
       vertex -0.118889 -0.23097 0.1
       vertex -0.148218 -0.216506 0.1
    endloop
  endfacet
  facet normal -0.442302 -0.896866 -0
    outer loop
       vertex -0.148218 -0.216506 0.1
       vertex -0.148218 -0.216506 0
       vertex -0.118889 -0.23097 0
    endloop
  endfacet
  facet normal -0.555561 -0.831476 0
    outer loop
       vertex -0.148218 -0.216506 0
       vertex -0.148218 -0.216506 0.1
       vertex -0.175409 -0.198338 0.1
    endloop
  endfacet
  facet normal -0.555561 -0.831476 -0
    outer loop
       vertex -0.175409 -0.198338 0.1
       vertex -0.175409 -0.198338 0
       vertex -0.148218 -0.216506 0
    endloop
  endfacet
  facet normal -0.659372 -0.751817 0
    outer loop
       vertex -0.175409 -0.198338 0
       vertex -0.175409 -0.198338 0.1
       vertex -0.199994 -0.176776 0.1
    endloop
  endfacet
  facet normal -0.659372 -0.751817 -0
    outer loop
       vertex -0.199994 -0.176776 0.1
       vertex -0.199994 -0.176776 0
       vertex -0.175409 -0.198338 0
    endloop
  endfacet
endsolid cylinder
