solid cylinder
  facet normal 0.751817 -0.659372 0
    outer loop
       vertex -0.0640712 -0.176776 0
       vertex -0.0425092 -0.152191 0
       vertex -0.0425092 -0.152191 0.1
    endloop
  endfacet
  facet normal 0.751817 -0.659372 0
    outer loop
       vertex -0.0425092 -0.152191 0.1
       vertex -0.0640712 -0.176776 0.1
       vertex -0.0640712 -0.176776 0
    endloop
  endfacet
  facet normal 0.831476 -0.555561 0
    outer loop
       vertex -0.0425092 -0.152191 0
       vertex -0.0243412 -0.125 0
       vertex -0.0243412 -0.125 0.1
    endloop
  endfacet
  facet normal 0.831476 -0.555561 0
    outer loop
       vertex -0.0243412 -0.125 0.1
       vertex -0.0425092 -0.152191 0.1
       vertex -0.0425092 -0.152191 0
    endloop
  endfacet
  facet normal 0.896866 -0.442302 0
    outer loop
       vertex -0.0243412 -0.125 0
       vertex -0.00987724 -0.095671 0
       vertex -0.00987724 -0.095671 0.1
    endloop
  endfacet
  facet normal 0.896866 -0.442302 0
    outer loop
       vertex -0.00987724 -0.095671 0.1
       vertex -0.0243412 -0.125 0.1
       vertex -0.0243412 -0.125 0
    endloop
  endfacet
  facet normal 0.946935 -0.321425 0
    outer loop
       vertex -0.00987724 -0.095671 0
       vertex 0.000633757 -0.064705 0
       vertex 0.000633757 -0.064705 0.1
    endloop
  endfacet
  facet normal 0.946935 -0.321425 0
    outer loop
       vertex 0.000633757 -0.064705 0.1
       vertex -0.00987724 -0.095671 0.1
       vertex -0.00987724 -0.095671 0
    endloop
  endfacet
  facet normal 0.980784 -0.195096 0
    outer loop
       vertex 0.000633757 -0.064705 0
       vertex 0.00701376 -0.0326315 0
       vertex 0.00701376 -0.0326315 0.1
    endloop
  endfacet
  facet normal 0.980784 -0.195096 0
    outer loop
       vertex 0.00701376 -0.0326315 0.1
       vertex 0.000633757 -0.064705 0.1
       vertex 0.000633757 -0.064705 0
    endloop
  endfacet
  facet normal 0.997858 -0.0654098 0
    outer loop
       vertex 0.00915276 -8.32665e-17 0.1
       vertex 0.00701376 -0.0326315 0.1
       vertex 0.00701376 -0.0326315 0
    endloop
  endfacet
  facet normal 0.997858 -0.0654098 -1.08928e-16
    outer loop
       vertex 0.00701376 -0.0326315 0
       vertex 0.00915276 8.32665e-17 0
       vertex 0.00915276 -8.32665e-17 0.1
    endloop
  endfacet
  facet normal 0.997858 0.0654098 0
    outer loop
       vertex 0.00915276 8.32665e-17 0
       vertex 0.00701376 0.0326315 0
       vertex 0.00701376 0.0326315 0.1
    endloop
  endfacet
  facet normal 0.997858 0.0654098 1.08928e-16
    outer loop
       vertex 0.00701376 0.0326315 0.1
       vertex 0.00915276 -8.32665e-17 0.1
       vertex 0.00915276 8.32665e-17 0
    endloop
  endfacet
  facet normal 0.980784 0.195096 0
    outer loop
       vertex 0.00701376 0.0326315 0
       vertex 0.000633757 0.064705 0
       vertex 0.000633757 0.064705 0.1
    endloop
  endfacet
  facet normal 0.980784 0.195096 0
    outer loop
       vertex 0.000633757 0.064705 0.1
       vertex 0.00701376 0.0326315 0.1
       vertex 0.00701376 0.0326315 0
    endloop
  endfacet
  facet normal 0.946935 0.321425 0
    outer loop
       vertex 0.000633757 0.064705 0
       vertex -0.00987724 0.095671 0
       vertex -0.00987724 0.095671 0.1
    endloop
  endfacet
  facet normal 0.946935 0.321425 0
    outer loop
       vertex -0.00987724 0.095671 0.1
       vertex 0.000633757 0.064705 0.1
       vertex 0.000633757 0.064705 0
    endloop
  endfacet
  facet normal 0.896866 0.442302 0
    outer loop
       vertex -0.00987724 0.095671 0
       vertex -0.0243412 0.125 0
       vertex -0.0243412 0.125 0.1
    endloop
  endfacet
  facet normal 0.896866 0.442302 0
    outer loop
       vertex -0.0243412 0.125 0.1
       vertex -0.00987724 0.095671 0.1
       vertex -0.00987724 0.095671 0
    endloop
  endfacet
  facet normal 0.831476 0.555561 0
    outer loop
       vertex -0.0243412 0.125 0
       vertex -0.0425092 0.152191 0
       vertex -0.0425092 0.152191 0.1
    endloop
  endfacet
  facet normal 0.831476 0.555561 0
    outer loop
       vertex -0.0425092 0.152191 0.1
       vertex -0.0243412 0.125 0.1
       vertex -0.0243412 0.125 0
    endloop
  endfacet
  facet normal 0.751817 0.659372 0
    outer loop
       vertex -0.0425092 0.152191 0
       vertex -0.0640712 0.176776 0
       vertex -0.0640712 0.176776 0.1
    endloop
  endfacet
  facet normal 0.751817 0.659372 0
    outer loop
       vertex -0.0640712 0.176776 0.1
       vertex -0.0425092 0.152191 0.1
       vertex -0.0425092 0.152191 0
    endloop
  endfacet
  facet normal 0.659372 0.751817 0
    outer loop
       vertex -0.0640712 0.176776 0
       vertex -0.0886562 0.198338 0
       vertex -0.0886562 0.198338 0.1
    endloop
  endfacet
  facet normal 0.659372 0.751817 0
    outer loop
       vertex -0.0886562 0.198338 0.1
       vertex -0.0640712 0.176776 0.1
       vertex -0.0640712 0.176776 0
    endloop
  endfacet
  facet normal 0.555561 0.831476 0
    outer loop
       vertex -0.0886562 0.198338 0
       vertex -0.115847 0.216506 0
       vertex -0.115847 0.216506 0.1
    endloop
  endfacet
  facet normal 0.555561 0.831476 0
    outer loop
       vertex -0.115847 0.216506 0.1
       vertex -0.0886562 0.198338 0.1
       vertex -0.0886562 0.198338 0
    endloop
  endfacet
  facet normal 0.442302 0.896866 0
    outer loop
       vertex -0.115847 0.216506 0
       vertex -0.145176 0.23097 0
       vertex -0.145176 0.23097 0.1
    endloop
  endfacet
  facet normal 0.442302 0.896866 0
    outer loop
       vertex -0.145176 0.23097 0.1
       vertex -0.115847 0.216506 0.1
       vertex -0.115847 0.216506 0
    endloop
  endfacet
  facet normal 0.321425 0.946935 0
    outer loop
       vertex -0.145176 0.23097 0
       vertex -0.176142 0.241481 0
       vertex -0.176142 0.241481 0.1
    endloop
  endfacet
  facet normal 0.321425 0.946935 0
    outer loop
       vertex -0.176142 0.241481 0.1
       vertex -0.145176 0.23097 0.1
       vertex -0.145176 0.23097 0
    endloop
  endfacet
  facet normal 0.195096 0.980784 0
    outer loop
       vertex -0.176142 0.241481 0
       vertex -0.208216 0.247861 0
       vertex -0.208216 0.247861 0.1
    endloop
  endfacet
  facet normal 0.195096 0.980784 0
    outer loop
       vertex -0.208216 0.247861 0.1
       vertex -0.176142 0.241481 0.1
       vertex -0.176142 0.241481 0
    endloop
  endfacet
  facet normal 0.0654098 0.997858 0
    outer loop
       vertex -0.240847 0.25 0.1
       vertex -0.208216 0.247861 0.1
       vertex -0.208216 0.247861 0
    endloop
  endfacet
  facet normal 0.0654098 0.997858 -1.0893e-16
    outer loop
       vertex -0.208216 0.247861 0
       vertex -0.240847 0.25 0
       vertex -0.240847 0.25 0.1
    endloop
  endfacet
  facet normal -0.0654098 0.997858 0
    outer loop
       vertex -0.240847 0.25 0
       vertex -0.273479 0.247861 0
       vertex -0.273479 0.247861 0.1
    endloop
  endfacet
  facet normal -0.0654098 0.997858 1.0893e-16
    outer loop
       vertex -0.273479 0.247861 0.1
       vertex -0.240847 0.25 0.1
       vertex -0.240847 0.25 0
    endloop
  endfacet
  facet normal -0.195096 0.980784 0
    outer loop
       vertex -0.273479 0.247861 0
       vertex -0.305552 0.241481 0
       vertex -0.305552 0.241481 0.1
    endloop
  endfacet
  facet normal -0.195096 0.980784 0
    outer loop
       vertex -0.305552 0.241481 0.1
       vertex -0.273479 0.247861 0.1
       vertex -0.273479 0.247861 0
    endloop
  endfacet
  facet normal -0.321425 0.946935 0
    outer loop
       vertex -0.305552 0.241481 0
       vertex -0.336518 0.23097 0
       vertex -0.336518 0.23097 0.1
    endloop
  endfacet
  facet normal -0.321425 0.946935 0
    outer loop
       vertex -0.336518 0.23097 0.1
       vertex -0.305552 0.241481 0.1
       vertex -0.305552 0.241481 0
    endloop
  endfacet
  facet normal -0.442302 0.896866 0
    outer loop
       vertex -0.336518 0.23097 0
       vertex -0.365847 0.216506 0
       vertex -0.365847 0.216506 0.1
    endloop
  endfacet
  facet normal -0.442302 0.896866 0
    outer loop
       vertex -0.365847 0.216506 0.1
       vertex -0.336518 0.23097 0.1
       vertex -0.336518 0.23097 0
    endloop
  endfacet
  facet normal -0.555561 0.831476 0
    outer loop
       vertex -0.365847 0.216506 0
       vertex -0.393038 0.198338 0
       vertex -0.393038 0.198338 0.1
    endloop
  endfacet
  facet normal -0.555561 0.831476 0
    outer loop
       vertex -0.393038 0.198338 0.1
       vertex -0.365847 0.216506 0.1
       vertex -0.365847 0.216506 0
    endloop
  endfacet
  facet normal -0.659372 0.751817 0
    outer loop
       vertex -0.393038 0.198338 0
       vertex -0.417623 0.176776 0
       vertex -0.417623 0.176776 0.1
    endloop
  endfacet
  facet normal -0.659372 0.751817 0
    outer loop
       vertex -0.417623 0.176776 0.1
       vertex -0.393038 0.198338 0.1
       vertex -0.393038 0.198338 0
    endloop
  endfacet
  facet normal -0.751817 0.659372 0
    outer loop
       vertex -0.417623 0.176776 0
       vertex -0.439185 0.152191 0
       vertex -0.439185 0.152191 0.1
    endloop
  endfacet
  facet normal -0.751817 0.659372 0
    outer loop
       vertex -0.439185 0.152191 0.1
       vertex -0.417623 0.176776 0.1
       vertex -0.417623 0.176776 0
    endloop
  endfacet
  facet normal -0.831476 0.555561 0
    outer loop
       vertex -0.439185 0.152191 0
       vertex -0.457353 0.125 0
       vertex -0.457353 0.125 0.1
    endloop
  endfacet
  facet normal -0.831476 0.555561 0
    outer loop
       vertex -0.457353 0.125 0.1
       vertex -0.439185 0.152191 0.1
       vertex -0.439185 0.152191 0
    endloop
  endfacet
  facet normal -0.896866 0.442302 0
    outer loop
       vertex -0.457353 0.125 0
       vertex -0.471817 0.095671 0
       vertex -0.471817 0.095671 0.1
    endloop
  endfacet
  facet normal -0.896866 0.442302 0
    outer loop
       vertex -0.471817 0.095671 0.1
       vertex -0.457353 0.125 0.1
       vertex -0.457353 0.125 0
    endloop
  endfacet
  facet normal -0.946935 0.321425 0
    outer loop
       vertex -0.471817 0.095671 0
       vertex -0.482328 0.064705 0
       vertex -0.482328 0.064705 0.1
    endloop
  endfacet
  facet normal -0.946935 0.321425 0
    outer loop
       vertex -0.482328 0.064705 0.1
       vertex -0.471817 0.095671 0.1
       vertex -0.471817 0.095671 0
    endloop
  endfacet
  facet normal -0.980784 0.195096 0
    outer loop
       vertex -0.482328 0.064705 0
       vertex -0.488708 0.0326315 0
       vertex -0.488708 0.0326315 0.1
    endloop
  endfacet
  facet normal -0.980784 0.195096 0
    outer loop
       vertex -0.488708 0.0326315 0.1
       vertex -0.482328 0.064705 0.1
       vertex -0.482328 0.064705 0
    endloop
  endfacet
  facet normal -0.997858 0.0654098 0
    outer loop
       vertex -0.490847 8.32665e-17 0.1
       vertex -0.488708 0.0326315 0.1
       vertex -0.488708 0.0326315 0
    endloop
  endfacet
  facet normal -0.997858 0.0654098 -1.08928e-16
    outer loop
       vertex -0.488708 0.0326315 0
       vertex -0.490847 -8.32665e-17 0
       vertex -0.490847 8.32665e-17 0.1
    endloop
  endfacet
  facet normal -0.997858 -0.0654098 0
    outer loop
       vertex -0.490847 -8.32665e-17 0
       vertex -0.488708 -0.0326315 0
       vertex -0.488708 -0.0326315 0.1
    endloop
  endfacet
  facet normal -0.997858 -0.0654098 1.08928e-16
    outer loop
       vertex -0.488708 -0.0326315 0.1
       vertex -0.490847 8.32665e-17 0.1
       vertex -0.490847 -8.32665e-17 0
    endloop
  endfacet
  facet normal -0.980784 -0.195096 0
    outer loop
       vertex -0.488708 -0.0326315 0
       vertex -0.482328 -0.064705 0
       vertex -0.482328 -0.064705 0.1
    endloop
  endfacet
  facet normal -0.980784 -0.195096 0
    outer loop
       vertex -0.482328 -0.064705 0.1
       vertex -0.488708 -0.0326315 0.1
       vertex -0.488708 -0.0326315 0
    endloop
  endfacet
  facet normal -0.946935 -0.321425 0
    outer loop
       vertex -0.482328 -0.064705 0
       vertex -0.471817 -0.095671 0
       vertex -0.471817 -0.095671 0.1
    endloop
  endfacet
  facet normal -0.946935 -0.321425 0
    outer loop
       vertex -0.471817 -0.095671 0.1
       vertex -0.482328 -0.064705 0.1
       vertex -0.482328 -0.064705 0
    endloop
  endfacet
  facet normal -0.896866 -0.442302 0
    outer loop
       vertex -0.471817 -0.095671 0
       vertex -0.457353 -0.125 0
       vertex -0.457353 -0.125 0.1
    endloop
  endfacet
  facet normal -0.896866 -0.442302 0
    outer loop
       vertex -0.457353 -0.125 0.1
       vertex -0.471817 -0.095671 0.1
       vertex -0.471817 -0.095671 0
    endloop
  endfacet
  facet normal -0.831476 -0.555561 0
    outer loop
       vertex -0.457353 -0.125 0
       vertex -0.439185 -0.152191 0
       vertex -0.439185 -0.152191 0.1
    endloop
  endfacet
  facet normal -0.831476 -0.555561 0
    outer loop
       vertex -0.439185 -0.152191 0.1
       vertex -0.457353 -0.125 0.1
       vertex -0.457353 -0.125 0
    endloop
  endfacet
  facet normal -0.751817 -0.659372 0
    outer loop
       vertex -0.439185 -0.152191 0
       vertex -0.417623 -0.176776 0
       vertex -0.417623 -0.176776 0.1
    endloop
  endfacet
  facet normal -0.751817 -0.659372 0
    outer loop
       vertex -0.417623 -0.176776 0.1
       vertex -0.439185 -0.152191 0.1
       vertex -0.439185 -0.152191 0
    endloop
  endfacet
  facet normal 0.659372 -0.751817 0
    outer loop
       vertex -0.0640712 -0.176776 0
       vertex -0.0640712 -0.176776 0.1
       vertex -0.0886562 -0.198338 0.1
    endloop
  endfacet
  facet normal 0.659372 -0.751817 0
    outer loop
       vertex -0.0886562 -0.198338 0.1
       vertex -0.0886562 -0.198338 0
       vertex -0.0640712 -0.176776 0
    endloop
  endfacet
  facet normal 0.555561 -0.831476 0
    outer loop
       vertex -0.0886562 -0.198338 0
       vertex -0.0886562 -0.198338 0.1
       vertex -0.115847 -0.216506 0.1
    endloop
  endfacet
  facet normal 0.555561 -0.831476 0
    outer loop
       vertex -0.115847 -0.216506 0.1
       vertex -0.115847 -0.216506 0
       vertex -0.0886562 -0.198338 0
    endloop
  endfacet
  facet normal 0.442302 -0.896866 0
    outer loop
       vertex -0.115847 -0.216506 0
       vertex -0.115847 -0.216506 0.1
       vertex -0.145176 -0.23097 0.1
    endloop
  endfacet
  facet normal 0.442302 -0.896866 0
    outer loop
       vertex -0.145176 -0.23097 0.1
       vertex -0.145176 -0.23097 0
       vertex -0.115847 -0.216506 0
    endloop
  endfacet
  facet normal 0.321425 -0.946935 0
    outer loop
       vertex -0.145176 -0.23097 0
       vertex -0.145176 -0.23097 0.1
       vertex -0.176142 -0.241481 0.1
    endloop
  endfacet
  facet normal 0.321425 -0.946935 0
    outer loop
       vertex -0.176142 -0.241481 0.1
       vertex -0.176142 -0.241481 0
       vertex -0.145176 -0.23097 0
    endloop
  endfacet
  facet normal 0.195096 -0.980784 0
    outer loop
       vertex -0.176142 -0.241481 0
       vertex -0.176142 -0.241481 0.1
       vertex -0.208216 -0.247861 0.1
    endloop
  endfacet
  facet normal 0.195096 -0.980784 0
    outer loop
       vertex -0.208216 -0.247861 0.1
       vertex -0.208216 -0.247861 0
       vertex -0.176142 -0.241481 0
    endloop
  endfacet
  facet normal 0.0654098 -0.997858 0
    outer loop
       vertex -0.240847 -0.25 0
       vertex -0.208216 -0.247861 0
       vertex -0.208216 -0.247861 0.1
    endloop
  endfacet
  facet normal 0.0654098 -0.997858 1.0893e-16
    outer loop
       vertex -0.208216 -0.247861 0.1
       vertex -0.240847 -0.25 0.1
       vertex -0.240847 -0.25 0
    endloop
  endfacet
  facet normal -0.0654098 -0.997858 0
    outer loop
       vertex -0.240847 -0.25 0.1
       vertex -0.273479 -0.247861 0.1
       vertex -0.273479 -0.247861 0
    endloop
  endfacet
  facet normal -0.0654098 -0.997858 -1.0893e-16
    outer loop
       vertex -0.273479 -0.247861 0
       vertex -0.240847 -0.25 0
       vertex -0.240847 -0.25 0.1
    endloop
  endfacet
  facet normal -0.195096 -0.980784 0
    outer loop
       vertex -0.273479 -0.247861 0
       vertex -0.273479 -0.247861 0.1
       vertex -0.305552 -0.241481 0.1
    endloop
  endfacet
  facet normal -0.195096 -0.980784 -0
    outer loop
       vertex -0.305552 -0.241481 0.1
       vertex -0.305552 -0.241481 0
       vertex -0.273479 -0.247861 0
    endloop
  endfacet
  facet normal -0.321425 -0.946935 0
    outer loop
       vertex -0.305552 -0.241481 0
       vertex -0.305552 -0.241481 0.1
       vertex -0.336518 -0.23097 0.1
    endloop
  endfacet
  facet normal -0.321425 -0.946935 -0
    outer loop
       vertex -0.336518 -0.23097 0.1
       vertex -0.336518 -0.23097 0
       vertex -0.305552 -0.241481 0
    endloop
  endfacet
  facet normal -0.442302 -0.896866 0
    outer loop
       vertex -0.336518 -0.23097 0
       vertex -0.336518 -0.23097 0.1
       vertex -0.365847 -0.216506 0.1
    endloop
  endfacet
  facet normal -0.442302 -0.896866 -0
    outer loop
       vertex -0.365847 -0.216506 0.1
       vertex -0.365847 -0.216506 0
       vertex -0.336518 -0.23097 0
    endloop
  endfacet
  facet normal -0.555561 -0.831476 0
    outer loop
       vertex -0.365847 -0.216506 0
       vertex -0.365847 -0.216506 0.1
       vertex -0.393038 -0.198338 0.1
    endloop
  endfacet
  facet normal -0.555561 -0.831476 -0
    outer loop
       vertex -0.393038 -0.198338 0.1
       vertex -0.393038 -0.198338 0
       vertex -0.365847 -0.216506 0
    endloop
  endfacet
  facet normal -0.659372 -0.751817 0
    outer loop
       vertex -0.393038 -0.198338 0
       vertex -0.393038 -0.198338 0.1
       vertex -0.417623 -0.176776 0.1
    endloop
  endfacet
  facet normal -0.659372 -0.751817 -0
    outer loop
       vertex -0.417623 -0.176776 0.1
       vertex -0.417623 -0.176776 0
       vertex -0.393038 -0.198338 0
    endloop
  endfacet
endsolid cylinder
