solid cylinder
  facet normal 0.751817 -0.659372 0
    outer loop
       vertex 0.407203 -0.176776 0
       vertex 0.428765 -0.152191 0
       vertex 0.428765 -0.152191 0.1
    endloop
  endfacet
  facet normal 0.751817 -0.659372 0
    outer loop
       vertex 0.428765 -0.152191 0.1
       vertex 0.407203 -0.176776 0.1
       vertex 0.407203 -0.176776 0
    endloop
  endfacet
  facet normal 0.831476 -0.555561 0
    outer loop
       vertex 0.428765 -0.152191 0
       vertex 0.446933 -0.125 0
       vertex 0.446933 -0.125 0.1
    endloop
  endfacet
  facet normal 0.831476 -0.555561 0
    outer loop
       vertex 0.446933 -0.125 0.1
       vertex 0.428765 -0.152191 0.1
       vertex 0.428765 -0.152191 0
    endloop
  endfacet
  facet normal 0.896866 -0.442302 0
    outer loop
       vertex 0.446933 -0.125 0
       vertex 0.461397 -0.095671 0
       vertex 0.461397 -0.095671 0.1
    endloop
  endfacet
  facet normal 0.896866 -0.442302 0
    outer loop
       vertex 0.461397 -0.095671 0.1
       vertex 0.446933 -0.125 0.1
       vertex 0.446933 -0.125 0
    endloop
  endfacet
  facet normal 0.946935 -0.321425 0
    outer loop
       vertex 0.461397 -0.095671 0
       vertex 0.471908 -0.064705 0
       vertex 0.471908 -0.064705 0.1
    endloop
  endfacet
  facet normal 0.946935 -0.321425 0
    outer loop
       vertex 0.471908 -0.064705 0.1
       vertex 0.461397 -0.095671 0.1
       vertex 0.461397 -0.095671 0
    endloop
  endfacet
  facet normal 0.980784 -0.195096 0
    outer loop
       vertex 0.471908 -0.064705 0
       vertex 0.478288 -0.0326315 0
       vertex 0.478288 -0.0326315 0.1
    endloop
  endfacet
  facet normal 0.980784 -0.195096 0
    outer loop
       vertex 0.478288 -0.0326315 0.1
       vertex 0.471908 -0.064705 0.1
       vertex 0.471908 -0.064705 0
    endloop
  endfacet
  facet normal 0.997858 -0.0654098 0
    outer loop
       vertex 0.480427 -8.32665e-17 0.1
       vertex 0.478288 -0.0326315 0.1
       vertex 0.478288 -0.0326315 0
    endloop
  endfacet
  facet normal 0.997858 -0.0654098 -1.08928e-16
    outer loop
       vertex 0.478288 -0.0326315 0
       vertex 0.480427 8.32665e-17 0
       vertex 0.480427 -8.32665e-17 0.1
    endloop
  endfacet
  facet normal 0.997858 0.0654098 0
    outer loop
       vertex 0.480427 8.32665e-17 0
       vertex 0.478288 0.0326315 0
       vertex 0.478288 0.0326315 0.1
    endloop
  endfacet
  facet normal 0.997858 0.0654098 1.08928e-16
    outer loop
       vertex 0.478288 0.0326315 0.1
       vertex 0.480427 -8.32665e-17 0.1
       vertex 0.480427 8.32665e-17 0
    endloop
  endfacet
  facet normal 0.980784 0.195096 0
    outer loop
       vertex 0.478288 0.0326315 0
       vertex 0.471908 0.064705 0
       vertex 0.471908 0.064705 0.1
    endloop
  endfacet
  facet normal 0.980784 0.195096 0
    outer loop
       vertex 0.471908 0.064705 0.1
       vertex 0.478288 0.0326315 0.1
       vertex 0.478288 0.0326315 0
    endloop
  endfacet
  facet normal 0.946935 0.321425 0
    outer loop
       vertex 0.471908 0.064705 0
       vertex 0.461397 0.095671 0
       vertex 0.461397 0.095671 0.1
    endloop
  endfacet
  facet normal 0.946935 0.321425 0
    outer loop
       vertex 0.461397 0.095671 0.1
       vertex 0.471908 0.064705 0.1
       vertex 0.471908 0.064705 0
    endloop
  endfacet
  facet normal 0.896866 0.442302 0
    outer loop
       vertex 0.461397 0.095671 0
       vertex 0.446933 0.125 0
       vertex 0.446933 0.125 0.1
    endloop
  endfacet
  facet normal 0.896866 0.442302 0
    outer loop
       vertex 0.446933 0.125 0.1
       vertex 0.461397 0.095671 0.1
       vertex 0.461397 0.095671 0
    endloop
  endfacet
  facet normal 0.831476 0.555561 0
    outer loop
       vertex 0.446933 0.125 0
       vertex 0.428765 0.152191 0
       vertex 0.428765 0.152191 0.1
    endloop
  endfacet
  facet normal 0.831476 0.555561 0
    outer loop
       vertex 0.428765 0.152191 0.1
       vertex 0.446933 0.125 0.1
       vertex 0.446933 0.125 0
    endloop
  endfacet
  facet normal 0.751817 0.659372 0
    outer loop
       vertex 0.428765 0.152191 0
       vertex 0.407203 0.176776 0
       vertex 0.407203 0.176776 0.1
    endloop
  endfacet
  facet normal 0.751817 0.659372 0
    outer loop
       vertex 0.407203 0.176776 0.1
       vertex 0.428765 0.152191 0.1
       vertex 0.428765 0.152191 0
    endloop
  endfacet
  facet normal 0.659372 0.751817 0
    outer loop
       vertex 0.407203 0.176776 0
       vertex 0.382618 0.198338 0
       vertex 0.382618 0.198338 0.1
    endloop
  endfacet
  facet normal 0.659372 0.751817 0
    outer loop
       vertex 0.382618 0.198338 0.1
       vertex 0.407203 0.176776 0.1
       vertex 0.407203 0.176776 0
    endloop
  endfacet
  facet normal 0.555561 0.831476 0
    outer loop
       vertex 0.382618 0.198338 0
       vertex 0.355427 0.216506 0
       vertex 0.355427 0.216506 0.1
    endloop
  endfacet
  facet normal 0.555561 0.831476 0
    outer loop
       vertex 0.355427 0.216506 0.1
       vertex 0.382618 0.198338 0.1
       vertex 0.382618 0.198338 0
    endloop
  endfacet
  facet normal 0.442302 0.896866 0
    outer loop
       vertex 0.355427 0.216506 0
       vertex 0.326098 0.23097 0
       vertex 0.326098 0.23097 0.1
    endloop
  endfacet
  facet normal 0.442302 0.896866 0
    outer loop
       vertex 0.326098 0.23097 0.1
       vertex 0.355427 0.216506 0.1
       vertex 0.355427 0.216506 0
    endloop
  endfacet
  facet normal 0.321425 0.946935 0
    outer loop
       vertex 0.326098 0.23097 0
       vertex 0.295132 0.241481 0
       vertex 0.295132 0.241481 0.1
    endloop
  endfacet
  facet normal 0.321425 0.946935 0
    outer loop
       vertex 0.295132 0.241481 0.1
       vertex 0.326098 0.23097 0.1
       vertex 0.326098 0.23097 0
    endloop
  endfacet
  facet normal 0.195096 0.980784 0
    outer loop
       vertex 0.295132 0.241481 0
       vertex 0.263059 0.247861 0
       vertex 0.263059 0.247861 0.1
    endloop
  endfacet
  facet normal 0.195096 0.980784 0
    outer loop
       vertex 0.263059 0.247861 0.1
       vertex 0.295132 0.241481 0.1
       vertex 0.295132 0.241481 0
    endloop
  endfacet
  facet normal 0.0654098 0.997858 0
    outer loop
       vertex 0.230427 0.25 0.1
       vertex 0.263059 0.247861 0.1
       vertex 0.263059 0.247861 0
    endloop
  endfacet
  facet normal 0.0654098 0.997858 -1.0893e-16
    outer loop
       vertex 0.263059 0.247861 0
       vertex 0.230427 0.25 0
       vertex 0.230427 0.25 0.1
    endloop
  endfacet
  facet normal -0.0654098 0.997858 0
    outer loop
       vertex 0.230427 0.25 0
       vertex 0.197796 0.247861 0
       vertex 0.197796 0.247861 0.1
    endloop
  endfacet
  facet normal -0.0654098 0.997858 1.0893e-16
    outer loop
       vertex 0.197796 0.247861 0.1
       vertex 0.230427 0.25 0.1
       vertex 0.230427 0.25 0
    endloop
  endfacet
  facet normal -0.195096 0.980784 0
    outer loop
       vertex 0.197796 0.247861 0
       vertex 0.165722 0.241481 0
       vertex 0.165722 0.241481 0.1
    endloop
  endfacet
  facet normal -0.195096 0.980784 0
    outer loop
       vertex 0.165722 0.241481 0.1
       vertex 0.197796 0.247861 0.1
       vertex 0.197796 0.247861 0
    endloop
  endfacet
  facet normal -0.321425 0.946935 0
    outer loop
       vertex 0.165722 0.241481 0
       vertex 0.134756 0.23097 0
       vertex 0.134756 0.23097 0.1
    endloop
  endfacet
  facet normal -0.321425 0.946935 0
    outer loop
       vertex 0.134756 0.23097 0.1
       vertex 0.165722 0.241481 0.1
       vertex 0.165722 0.241481 0
    endloop
  endfacet
  facet normal -0.442302 0.896866 0
    outer loop
       vertex 0.134756 0.23097 0
       vertex 0.105427 0.216506 0
       vertex 0.105427 0.216506 0.1
    endloop
  endfacet
  facet normal -0.442302 0.896866 0
    outer loop
       vertex 0.105427 0.216506 0.1
       vertex 0.134756 0.23097 0.1
       vertex 0.134756 0.23097 0
    endloop
  endfacet
  facet normal -0.555561 0.831476 0
    outer loop
       vertex 0.105427 0.216506 0
       vertex 0.0782363 0.198338 0
       vertex 0.0782363 0.198338 0.1
    endloop
  endfacet
  facet normal -0.555561 0.831476 0
    outer loop
       vertex 0.0782363 0.198338 0.1
       vertex 0.105427 0.216506 0.1
       vertex 0.105427 0.216506 0
    endloop
  endfacet
  facet normal -0.659372 0.751817 0
    outer loop
       vertex 0.0782363 0.198338 0
       vertex 0.0536513 0.176776 0
       vertex 0.0536513 0.176776 0.1
    endloop
  endfacet
  facet normal -0.659372 0.751817 0
    outer loop
       vertex 0.0536513 0.176776 0.1
       vertex 0.0782363 0.198338 0.1
       vertex 0.0782363 0.198338 0
    endloop
  endfacet
  facet normal -0.751817 0.659372 0
    outer loop
       vertex 0.0536513 0.176776 0
       vertex 0.0320893 0.152191 0
       vertex 0.0320893 0.152191 0.1
    endloop
  endfacet
  facet normal -0.751817 0.659372 0
    outer loop
       vertex 0.0320893 0.152191 0.1
       vertex 0.0536513 0.176776 0.1
       vertex 0.0536513 0.176776 0
    endloop
  endfacet
  facet normal -0.831476 0.555561 0
    outer loop
       vertex 0.0320893 0.152191 0
       vertex 0.0139213 0.125 0
       vertex 0.0139213 0.125 0.1
    endloop
  endfacet
  facet normal -0.831476 0.555561 0
    outer loop
       vertex 0.0139213 0.125 0.1
       vertex 0.0320893 0.152191 0.1
       vertex 0.0320893 0.152191 0
    endloop
  endfacet
  facet normal -0.896866 0.442302 0
    outer loop
       vertex 0.0139213 0.125 0
       vertex -0.00054265 0.095671 0
       vertex -0.00054265 0.095671 0.1
    endloop
  endfacet
  facet normal -0.896866 0.442302 0
    outer loop
       vertex -0.00054265 0.095671 0.1
       vertex 0.0139213 0.125 0.1
       vertex 0.0139213 0.125 0
    endloop
  endfacet
  facet normal -0.946935 0.321425 0
    outer loop
       vertex -0.00054265 0.095671 0
       vertex -0.0110537 0.064705 0
       vertex -0.0110537 0.064705 0.1
    endloop
  endfacet
  facet normal -0.946935 0.321425 0
    outer loop
       vertex -0.0110537 0.064705 0.1
       vertex -0.00054265 0.095671 0.1
       vertex -0.00054265 0.095671 0
    endloop
  endfacet
  facet normal -0.980784 0.195096 0
    outer loop
       vertex -0.0110537 0.064705 0
       vertex -0.0174337 0.0326315 0
       vertex -0.0174337 0.0326315 0.1
    endloop
  endfacet
  facet normal -0.980784 0.195096 0
    outer loop
       vertex -0.0174337 0.0326315 0.1
       vertex -0.0110537 0.064705 0.1
       vertex -0.0110537 0.064705 0
    endloop
  endfacet
  facet normal -0.997858 0.0654098 0
    outer loop
       vertex -0.0195727 8.32665e-17 0.1
       vertex -0.0174337 0.0326315 0.1
       vertex -0.0174337 0.0326315 0
    endloop
  endfacet
  facet normal -0.997858 0.0654098 -1.08928e-16
    outer loop
       vertex -0.0174337 0.0326315 0
       vertex -0.0195727 -8.32665e-17 0
       vertex -0.0195727 8.32665e-17 0.1
    endloop
  endfacet
  facet normal -0.997858 -0.0654098 0
    outer loop
       vertex -0.0195727 -8.32665e-17 0
       vertex -0.0174337 -0.0326315 0
       vertex -0.0174337 -0.0326315 0.1
    endloop
  endfacet
  facet normal -0.997858 -0.0654098 1.08928e-16
    outer loop
       vertex -0.0174337 -0.0326315 0.1
       vertex -0.0195727 8.32665e-17 0.1
       vertex -0.0195727 -8.32665e-17 0
    endloop
  endfacet
  facet normal -0.980784 -0.195096 0
    outer loop
       vertex -0.0174337 -0.0326315 0
       vertex -0.0110537 -0.064705 0
       vertex -0.0110537 -0.064705 0.1
    endloop
  endfacet
  facet normal -0.980784 -0.195096 0
    outer loop
       vertex -0.0110537 -0.064705 0.1
       vertex -0.0174337 -0.0326315 0.1
       vertex -0.0174337 -0.0326315 0
    endloop
  endfacet
  facet normal -0.946935 -0.321425 0
    outer loop
       vertex -0.0110537 -0.064705 0
       vertex -0.00054265 -0.095671 0
       vertex -0.00054265 -0.095671 0.1
    endloop
  endfacet
  facet normal -0.946935 -0.321425 0
    outer loop
       vertex -0.00054265 -0.095671 0.1
       vertex -0.0110537 -0.064705 0.1
       vertex -0.0110537 -0.064705 0
    endloop
  endfacet
  facet normal -0.896866 -0.442302 0
    outer loop
       vertex -0.00054265 -0.095671 0
       vertex 0.0139213 -0.125 0
       vertex 0.0139213 -0.125 0.1
    endloop
  endfacet
  facet normal -0.896866 -0.442302 0
    outer loop
       vertex 0.0139213 -0.125 0.1
       vertex -0.00054265 -0.095671 0.1
       vertex -0.00054265 -0.095671 0
    endloop
  endfacet
  facet normal -0.831476 -0.555561 0
    outer loop
       vertex 0.0139213 -0.125 0
       vertex 0.0320893 -0.152191 0
       vertex 0.0320893 -0.152191 0.1
    endloop
  endfacet
  facet normal -0.831476 -0.555561 0
    outer loop
       vertex 0.0320893 -0.152191 0.1
       vertex 0.0139213 -0.125 0.1
       vertex 0.0139213 -0.125 0
    endloop
  endfacet
  facet normal -0.751817 -0.659372 0
    outer loop
       vertex 0.0320893 -0.152191 0
       vertex 0.0536513 -0.176776 0
       vertex 0.0536513 -0.176776 0.1
    endloop
  endfacet
  facet normal -0.751817 -0.659372 0
    outer loop
       vertex 0.0536513 -0.176776 0.1
       vertex 0.0320893 -0.152191 0.1
       vertex 0.0320893 -0.152191 0
    endloop
  endfacet
  facet normal 0.659372 -0.751817 0
    outer loop
       vertex 0.407203 -0.176776 0
       vertex 0.407203 -0.176776 0.1
       vertex 0.382618 -0.198338 0.1
    endloop
  endfacet
  facet normal 0.659372 -0.751817 0
    outer loop
       vertex 0.382618 -0.198338 0.1
       vertex 0.382618 -0.198338 0
       vertex 0.407203 -0.176776 0
    endloop
  endfacet
  facet normal 0.555561 -0.831476 0
    outer loop
       vertex 0.382618 -0.198338 0
       vertex 0.382618 -0.198338 0.1
       vertex 0.355427 -0.216506 0.1
    endloop
  endfacet
  facet normal 0.555561 -0.831476 0
    outer loop
       vertex 0.355427 -0.216506 0.1
       vertex 0.355427 -0.216506 0
       vertex 0.382618 -0.198338 0
    endloop
  endfacet
  facet normal 0.442302 -0.896866 0
    outer loop
       vertex 0.355427 -0.216506 0
       vertex 0.355427 -0.216506 0.1
       vertex 0.326098 -0.23097 0.1
    endloop
  endfacet
  facet normal 0.442302 -0.896866 0
    outer loop
       vertex 0.326098 -0.23097 0.1
       vertex 0.326098 -0.23097 0
       vertex 0.355427 -0.216506 0
    endloop
  endfacet
  facet normal 0.321425 -0.946935 0
    outer loop
       vertex 0.326098 -0.23097 0
       vertex 0.326098 -0.23097 0.1
       vertex 0.295132 -0.241481 0.1
    endloop
  endfacet
  facet normal 0.321425 -0.946935 0
    outer loop
       vertex 0.295132 -0.241481 0.1
       vertex 0.295132 -0.241481 0
       vertex 0.326098 -0.23097 0
    endloop
  endfacet
  facet normal 0.195096 -0.980784 0
    outer loop
       vertex 0.295132 -0.241481 0
       vertex 0.295132 -0.241481 0.1
       vertex 0.263059 -0.247861 0.1
    endloop
  endfacet
  facet normal 0.195096 -0.980784 0
    outer loop
       vertex 0.263059 -0.247861 0.1
       vertex 0.263059 -0.247861 0
       vertex 0.295132 -0.241481 0
    endloop
  endfacet
  facet normal 0.0654098 -0.997858 0
    outer loop
       vertex 0.230427 -0.25 0
       vertex 0.263059 -0.247861 0
       vertex 0.263059 -0.247861 0.1
    endloop
  endfacet
  facet normal 0.0654098 -0.997858 1.0893e-16
    outer loop
       vertex 0.263059 -0.247861 0.1
       vertex 0.230427 -0.25 0.1
       vertex 0.230427 -0.25 0
    endloop
  endfacet
  facet normal -0.0654098 -0.997858 0
    outer loop
       vertex 0.230427 -0.25 0.1
       vertex 0.197796 -0.247861 0.1
       vertex 0.197796 -0.247861 0
    endloop
  endfacet
  facet normal -0.0654098 -0.997858 -1.0893e-16
    outer loop
       vertex 0.197796 -0.247861 0
       vertex 0.230427 -0.25 0
       vertex 0.230427 -0.25 0.1
    endloop
  endfacet
  facet normal -0.195096 -0.980784 0
    outer loop
       vertex 0.197796 -0.247861 0
       vertex 0.197796 -0.247861 0.1
       vertex 0.165722 -0.241481 0.1
    endloop
  endfacet
  facet normal -0.195096 -0.980784 -0
    outer loop
       vertex 0.165722 -0.241481 0.1
       vertex 0.165722 -0.241481 0
       vertex 0.197796 -0.247861 0
    endloop
  endfacet
  facet normal -0.321425 -0.946935 0
    outer loop
       vertex 0.165722 -0.241481 0
       vertex 0.165722 -0.241481 0.1
       vertex 0.134756 -0.23097 0.1
    endloop
  endfacet
  facet normal -0.321425 -0.946935 -0
    outer loop
       vertex 0.134756 -0.23097 0.1
       vertex 0.134756 -0.23097 0
       vertex 0.165722 -0.241481 0
    endloop
  endfacet
  facet normal -0.442302 -0.896866 0
    outer loop
       vertex 0.134756 -0.23097 0
       vertex 0.134756 -0.23097 0.1
       vertex 0.105427 -0.216506 0.1
    endloop
  endfacet
  facet normal -0.442302 -0.896866 -0
    outer loop
       vertex 0.105427 -0.216506 0.1
       vertex 0.105427 -0.216506 0
       vertex 0.134756 -0.23097 0
    endloop
  endfacet
  facet normal -0.555561 -0.831476 0
    outer loop
       vertex 0.105427 -0.216506 0
       vertex 0.105427 -0.216506 0.1
       vertex 0.0782363 -0.198338 0.1
    endloop
  endfacet
  facet normal -0.555561 -0.831476 -0
    outer loop
       vertex 0.0782363 -0.198338 0.1
       vertex 0.0782363 -0.198338 0
       vertex 0.105427 -0.216506 0
    endloop
  endfacet
  facet normal -0.659372 -0.751817 0
    outer loop
       vertex 0.0782363 -0.198338 0
       vertex 0.0782363 -0.198338 0.1
       vertex 0.0536513 -0.176776 0.1
    endloop
  endfacet
  facet normal -0.659372 -0.751817 -0
    outer loop
       vertex 0.0536513 -0.176776 0.1
       vertex 0.0536513 -0.176776 0
       vertex 0.0782363 -0.198338 0
    endloop
  endfacet
endsolid cylinder
