solid cylinder
  facet normal 0.751817 -0.659372 0
    outer loop
       vertex 0.221381 -0.176776 0
       vertex 0.242943 -0.152191 0
       vertex 0.242943 -0.152191 0.1
    endloop
  endfacet
  facet normal 0.751817 -0.659372 0
    outer loop
       vertex 0.242943 -0.152191 0.1
       vertex 0.221381 -0.176776 0.1
       vertex 0.221381 -0.176776 0
    endloop
  endfacet
  facet normal 0.831476 -0.555561 0
    outer loop
       vertex 0.242943 -0.152191 0
       vertex 0.261111 -0.125 0
       vertex 0.261111 -0.125 0.1
    endloop
  endfacet
  facet normal 0.831476 -0.555561 0
    outer loop
       vertex 0.261111 -0.125 0.1
       vertex 0.242943 -0.152191 0.1
       vertex 0.242943 -0.152191 0
    endloop
  endfacet
  facet normal 0.896866 -0.442302 0
    outer loop
       vertex 0.261111 -0.125 0
       vertex 0.275575 -0.095671 0
       vertex 0.275575 -0.095671 0.1
    endloop
  endfacet
  facet normal 0.896866 -0.442302 0
    outer loop
       vertex 0.275575 -0.095671 0.1
       vertex 0.261111 -0.125 0.1
       vertex 0.261111 -0.125 0
    endloop
  endfacet
  facet normal 0.946935 -0.321425 0
    outer loop
       vertex 0.275575 -0.095671 0
       vertex 0.286086 -0.064705 0
       vertex 0.286086 -0.064705 0.1
    endloop
  endfacet
  facet normal 0.946935 -0.321425 0
    outer loop
       vertex 0.286086 -0.064705 0.1
       vertex 0.275575 -0.095671 0.1
       vertex 0.275575 -0.095671 0
    endloop
  endfacet
  facet normal 0.980784 -0.195096 0
    outer loop
       vertex 0.286086 -0.064705 0
       vertex 0.292466 -0.0326315 0
       vertex 0.292466 -0.0326315 0.1
    endloop
  endfacet
  facet normal 0.980784 -0.195096 0
    outer loop
       vertex 0.292466 -0.0326315 0.1
       vertex 0.286086 -0.064705 0.1
       vertex 0.286086 -0.064705 0
    endloop
  endfacet
  facet normal 0.997858 -0.0654098 0
    outer loop
       vertex 0.294605 -8.32665e-17 0.1
       vertex 0.292466 -0.0326315 0.1
       vertex 0.292466 -0.0326315 0
    endloop
  endfacet
  facet normal 0.997858 -0.0654098 -1.08928e-16
    outer loop
       vertex 0.292466 -0.0326315 0
       vertex 0.294605 8.32665e-17 0
       vertex 0.294605 -8.32665e-17 0.1
    endloop
  endfacet
  facet normal 0.997858 0.0654098 0
    outer loop
       vertex 0.294605 8.32665e-17 0
       vertex 0.292466 0.0326315 0
       vertex 0.292466 0.0326315 0.1
    endloop
  endfacet
  facet normal 0.997858 0.0654098 1.08928e-16
    outer loop
       vertex 0.292466 0.0326315 0.1
       vertex 0.294605 -8.32665e-17 0.1
       vertex 0.294605 8.32665e-17 0
    endloop
  endfacet
  facet normal 0.980784 0.195096 0
    outer loop
       vertex 0.292466 0.0326315 0
       vertex 0.286086 0.064705 0
       vertex 0.286086 0.064705 0.1
    endloop
  endfacet
  facet normal 0.980784 0.195096 0
    outer loop
       vertex 0.286086 0.064705 0.1
       vertex 0.292466 0.0326315 0.1
       vertex 0.292466 0.0326315 0
    endloop
  endfacet
  facet normal 0.946935 0.321425 0
    outer loop
       vertex 0.286086 0.064705 0
       vertex 0.275575 0.095671 0
       vertex 0.275575 0.095671 0.1
    endloop
  endfacet
  facet normal 0.946935 0.321425 0
    outer loop
       vertex 0.275575 0.095671 0.1
       vertex 0.286086 0.064705 0.1
       vertex 0.286086 0.064705 0
    endloop
  endfacet
  facet normal 0.896866 0.442302 0
    outer loop
       vertex 0.275575 0.095671 0
       vertex 0.261111 0.125 0
       vertex 0.261111 0.125 0.1
    endloop
  endfacet
  facet normal 0.896866 0.442302 0
    outer loop
       vertex 0.261111 0.125 0.1
       vertex 0.275575 0.095671 0.1
       vertex 0.275575 0.095671 0
    endloop
  endfacet
  facet normal 0.831476 0.555561 0
    outer loop
       vertex 0.261111 0.125 0
       vertex 0.242943 0.152191 0
       vertex 0.242943 0.152191 0.1
    endloop
  endfacet
  facet normal 0.831476 0.555561 0
    outer loop
       vertex 0.242943 0.152191 0.1
       vertex 0.261111 0.125 0.1
       vertex 0.261111 0.125 0
    endloop
  endfacet
  facet normal 0.751817 0.659372 0
    outer loop
       vertex 0.242943 0.152191 0
       vertex 0.221381 0.176776 0
       vertex 0.221381 0.176776 0.1
    endloop
  endfacet
  facet normal 0.751817 0.659372 0
    outer loop
       vertex 0.221381 0.176776 0.1
       vertex 0.242943 0.152191 0.1
       vertex 0.242943 0.152191 0
    endloop
  endfacet
  facet normal 0.659372 0.751817 0
    outer loop
       vertex 0.221381 0.176776 0
       vertex 0.196796 0.198338 0
       vertex 0.196796 0.198338 0.1
    endloop
  endfacet
  facet normal 0.659372 0.751817 0
    outer loop
       vertex 0.196796 0.198338 0.1
       vertex 0.221381 0.176776 0.1
       vertex 0.221381 0.176776 0
    endloop
  endfacet
  facet normal 0.555561 0.831476 0
    outer loop
       vertex 0.196796 0.198338 0
       vertex 0.169605 0.216506 0
       vertex 0.169605 0.216506 0.1
    endloop
  endfacet
  facet normal 0.555561 0.831476 0
    outer loop
       vertex 0.169605 0.216506 0.1
       vertex 0.196796 0.198338 0.1
       vertex 0.196796 0.198338 0
    endloop
  endfacet
  facet normal 0.442302 0.896866 0
    outer loop
       vertex 0.169605 0.216506 0
       vertex 0.140276 0.23097 0
       vertex 0.140276 0.23097 0.1
    endloop
  endfacet
  facet normal 0.442302 0.896866 0
    outer loop
       vertex 0.140276 0.23097 0.1
       vertex 0.169605 0.216506 0.1
       vertex 0.169605 0.216506 0
    endloop
  endfacet
  facet normal 0.321425 0.946935 0
    outer loop
       vertex 0.140276 0.23097 0
       vertex 0.10931 0.241481 0
       vertex 0.10931 0.241481 0.1
    endloop
  endfacet
  facet normal 0.321425 0.946935 0
    outer loop
       vertex 0.10931 0.241481 0.1
       vertex 0.140276 0.23097 0.1
       vertex 0.140276 0.23097 0
    endloop
  endfacet
  facet normal 0.195096 0.980784 0
    outer loop
       vertex 0.10931 0.241481 0
       vertex 0.0772363 0.247861 0
       vertex 0.0772363 0.247861 0.1
    endloop
  endfacet
  facet normal 0.195096 0.980784 0
    outer loop
       vertex 0.0772363 0.247861 0.1
       vertex 0.10931 0.241481 0.1
       vertex 0.10931 0.241481 0
    endloop
  endfacet
  facet normal 0.0654098 0.997858 0
    outer loop
       vertex 0.0446048 0.25 0.1
       vertex 0.0772363 0.247861 0.1
       vertex 0.0772363 0.247861 0
    endloop
  endfacet
  facet normal 0.0654098 0.997858 -1.08928e-16
    outer loop
       vertex 0.0772363 0.247861 0
       vertex 0.0446048 0.25 0
       vertex 0.0446048 0.25 0.1
    endloop
  endfacet
  facet normal -0.0654098 0.997858 0
    outer loop
       vertex 0.0446048 0.25 0
       vertex 0.0119733 0.247861 0
       vertex 0.0119733 0.247861 0.1
    endloop
  endfacet
  facet normal -0.0654098 0.997858 1.08928e-16
    outer loop
       vertex 0.0119733 0.247861 0.1
       vertex 0.0446048 0.25 0.1
       vertex 0.0446048 0.25 0
    endloop
  endfacet
  facet normal -0.195096 0.980784 0
    outer loop
       vertex 0.0119733 0.247861 0
       vertex -0.0201002 0.241481 0
       vertex -0.0201002 0.241481 0.1
    endloop
  endfacet
  facet normal -0.195096 0.980784 0
    outer loop
       vertex -0.0201002 0.241481 0.1
       vertex 0.0119733 0.247861 0.1
       vertex 0.0119733 0.247861 0
    endloop
  endfacet
  facet normal -0.321425 0.946935 0
    outer loop
       vertex -0.0201002 0.241481 0
       vertex -0.0510662 0.23097 0
       vertex -0.0510662 0.23097 0.1
    endloop
  endfacet
  facet normal -0.321425 0.946935 0
    outer loop
       vertex -0.0510662 0.23097 0.1
       vertex -0.0201002 0.241481 0.1
       vertex -0.0201002 0.241481 0
    endloop
  endfacet
  facet normal -0.442302 0.896866 0
    outer loop
       vertex -0.0510662 0.23097 0
       vertex -0.0803952 0.216506 0
       vertex -0.0803952 0.216506 0.1
    endloop
  endfacet
  facet normal -0.442302 0.896866 0
    outer loop
       vertex -0.0803952 0.216506 0.1
       vertex -0.0510662 0.23097 0.1
       vertex -0.0510662 0.23097 0
    endloop
  endfacet
  facet normal -0.555561 0.831476 0
    outer loop
       vertex -0.0803952 0.216506 0
       vertex -0.107586 0.198338 0
       vertex -0.107586 0.198338 0.1
    endloop
  endfacet
  facet normal -0.555561 0.831476 0
    outer loop
       vertex -0.107586 0.198338 0.1
       vertex -0.0803952 0.216506 0.1
       vertex -0.0803952 0.216506 0
    endloop
  endfacet
  facet normal -0.659372 0.751817 0
    outer loop
       vertex -0.107586 0.198338 0
       vertex -0.132171 0.176776 0
       vertex -0.132171 0.176776 0.1
    endloop
  endfacet
  facet normal -0.659372 0.751817 0
    outer loop
       vertex -0.132171 0.176776 0.1
       vertex -0.107586 0.198338 0.1
       vertex -0.107586 0.198338 0
    endloop
  endfacet
  facet normal -0.751817 0.659372 0
    outer loop
       vertex -0.132171 0.176776 0
       vertex -0.153733 0.152191 0
       vertex -0.153733 0.152191 0.1
    endloop
  endfacet
  facet normal -0.751817 0.659372 0
    outer loop
       vertex -0.153733 0.152191 0.1
       vertex -0.132171 0.176776 0.1
       vertex -0.132171 0.176776 0
    endloop
  endfacet
  facet normal -0.831476 0.555561 0
    outer loop
       vertex -0.153733 0.152191 0
       vertex -0.171901 0.125 0
       vertex -0.171901 0.125 0.1
    endloop
  endfacet
  facet normal -0.831476 0.555561 0
    outer loop
       vertex -0.171901 0.125 0.1
       vertex -0.153733 0.152191 0.1
       vertex -0.153733 0.152191 0
    endloop
  endfacet
  facet normal -0.896866 0.442302 0
    outer loop
       vertex -0.171901 0.125 0
       vertex -0.186365 0.095671 0
       vertex -0.186365 0.095671 0.1
    endloop
  endfacet
  facet normal -0.896866 0.442302 0
    outer loop
       vertex -0.186365 0.095671 0.1
       vertex -0.171901 0.125 0.1
       vertex -0.171901 0.125 0
    endloop
  endfacet
  facet normal -0.946935 0.321425 0
    outer loop
       vertex -0.186365 0.095671 0
       vertex -0.196876 0.064705 0
       vertex -0.196876 0.064705 0.1
    endloop
  endfacet
  facet normal -0.946935 0.321425 0
    outer loop
       vertex -0.196876 0.064705 0.1
       vertex -0.186365 0.095671 0.1
       vertex -0.186365 0.095671 0
    endloop
  endfacet
  facet normal -0.980784 0.195096 0
    outer loop
       vertex -0.196876 0.064705 0
       vertex -0.203256 0.0326315 0
       vertex -0.203256 0.0326315 0.1
    endloop
  endfacet
  facet normal -0.980784 0.195096 0
    outer loop
       vertex -0.203256 0.0326315 0.1
       vertex -0.196876 0.064705 0.1
       vertex -0.196876 0.064705 0
    endloop
  endfacet
  facet normal -0.997858 0.0654098 0
    outer loop
       vertex -0.205395 8.32665e-17 0.1
       vertex -0.203256 0.0326315 0.1
       vertex -0.203256 0.0326315 0
    endloop
  endfacet
  facet normal -0.997858 0.0654098 -1.08928e-16
    outer loop
       vertex -0.203256 0.0326315 0
       vertex -0.205395 -8.32665e-17 0
       vertex -0.205395 8.32665e-17 0.1
    endloop
  endfacet
  facet normal -0.997858 -0.0654098 0
    outer loop
       vertex -0.205395 -8.32665e-17 0
       vertex -0.203256 -0.0326315 0
       vertex -0.203256 -0.0326315 0.1
    endloop
  endfacet
  facet normal -0.997858 -0.0654098 1.08928e-16
    outer loop
       vertex -0.203256 -0.0326315 0.1
       vertex -0.205395 8.32665e-17 0.1
       vertex -0.205395 -8.32665e-17 0
    endloop
  endfacet
  facet normal -0.980784 -0.195096 0
    outer loop
       vertex -0.203256 -0.0326315 0
       vertex -0.196876 -0.064705 0
       vertex -0.196876 -0.064705 0.1
    endloop
  endfacet
  facet normal -0.980784 -0.195096 0
    outer loop
       vertex -0.196876 -0.064705 0.1
       vertex -0.203256 -0.0326315 0.1
       vertex -0.203256 -0.0326315 0
    endloop
  endfacet
  facet normal -0.946935 -0.321425 0
    outer loop
       vertex -0.196876 -0.064705 0
       vertex -0.186365 -0.095671 0
       vertex -0.186365 -0.095671 0.1
    endloop
  endfacet
  facet normal -0.946935 -0.321425 0
    outer loop
       vertex -0.186365 -0.095671 0.1
       vertex -0.196876 -0.064705 0.1
       vertex -0.196876 -0.064705 0
    endloop
  endfacet
  facet normal -0.896866 -0.442302 0
    outer loop
       vertex -0.186365 -0.095671 0
       vertex -0.171901 -0.125 0
       vertex -0.171901 -0.125 0.1
    endloop
  endfacet
  facet normal -0.896866 -0.442302 0
    outer loop
       vertex -0.171901 -0.125 0.1
       vertex -0.186365 -0.095671 0.1
       vertex -0.186365 -0.095671 0
    endloop
  endfacet
  facet normal -0.831476 -0.555561 0
    outer loop
       vertex -0.171901 -0.125 0
       vertex -0.153733 -0.152191 0
       vertex -0.153733 -0.152191 0.1
    endloop
  endfacet
  facet normal -0.831476 -0.555561 0
    outer loop
       vertex -0.153733 -0.152191 0.1
       vertex -0.171901 -0.125 0.1
       vertex -0.171901 -0.125 0
    endloop
  endfacet
  facet normal -0.751817 -0.659372 0
    outer loop
       vertex -0.153733 -0.152191 0
       vertex -0.132171 -0.176776 0
       vertex -0.132171 -0.176776 0.1
    endloop
  endfacet
  facet normal -0.751817 -0.659372 0
    outer loop
       vertex -0.132171 -0.176776 0.1
       vertex -0.153733 -0.152191 0.1
       vertex -0.153733 -0.152191 0
    endloop
  endfacet
  facet normal 0.659372 -0.751817 0
    outer loop
       vertex 0.221381 -0.176776 0
       vertex 0.221381 -0.176776 0.1
       vertex 0.196796 -0.198338 0.1
    endloop
  endfacet
  facet normal 0.659372 -0.751817 0
    outer loop
       vertex 0.196796 -0.198338 0.1
       vertex 0.196796 -0.198338 0
       vertex 0.221381 -0.176776 0
    endloop
  endfacet
  facet normal 0.555561 -0.831476 0
    outer loop
       vertex 0.196796 -0.198338 0
       vertex 0.196796 -0.198338 0.1
       vertex 0.169605 -0.216506 0.1
    endloop
  endfacet
  facet normal 0.555561 -0.831476 0
    outer loop
       vertex 0.169605 -0.216506 0.1
       vertex 0.169605 -0.216506 0
       vertex 0.196796 -0.198338 0
    endloop
  endfacet
  facet normal 0.442302 -0.896866 0
    outer loop
       vertex 0.169605 -0.216506 0
       vertex 0.169605 -0.216506 0.1
       vertex 0.140276 -0.23097 0.1
    endloop
  endfacet
  facet normal 0.442302 -0.896866 0
    outer loop
       vertex 0.140276 -0.23097 0.1
       vertex 0.140276 -0.23097 0
       vertex 0.169605 -0.216506 0
    endloop
  endfacet
  facet normal 0.321425 -0.946935 0
    outer loop
       vertex 0.140276 -0.23097 0
       vertex 0.140276 -0.23097 0.1
       vertex 0.10931 -0.241481 0.1
    endloop
  endfacet
  facet normal 0.321425 -0.946935 0
    outer loop
       vertex 0.10931 -0.241481 0.1
       vertex 0.10931 -0.241481 0
       vertex 0.140276 -0.23097 0
    endloop
  endfacet
  facet normal 0.195096 -0.980784 0
    outer loop
       vertex 0.10931 -0.241481 0
       vertex 0.10931 -0.241481 0.1
       vertex 0.0772363 -0.247861 0.1
    endloop
  endfacet
  facet normal 0.195096 -0.980784 0
    outer loop
       vertex 0.0772363 -0.247861 0.1
       vertex 0.0772363 -0.247861 0
       vertex 0.10931 -0.241481 0
    endloop
  endfacet
  facet normal 0.0654098 -0.997858 0
    outer loop
       vertex 0.0446048 -0.25 0
       vertex 0.0772363 -0.247861 0
       vertex 0.0772363 -0.247861 0.1
    endloop
  endfacet
  facet normal 0.0654098 -0.997858 1.08928e-16
    outer loop
       vertex 0.0772363 -0.247861 0.1
       vertex 0.0446048 -0.25 0.1
       vertex 0.0446048 -0.25 0
    endloop
  endfacet
  facet normal -0.0654098 -0.997858 0
    outer loop
       vertex 0.0446048 -0.25 0.1
       vertex 0.0119733 -0.247861 0.1
       vertex 0.0119733 -0.247861 0
    endloop
  endfacet
  facet normal -0.0654098 -0.997858 -1.08928e-16
    outer loop
       vertex 0.0119733 -0.247861 0
       vertex 0.0446048 -0.25 0
       vertex 0.0446048 -0.25 0.1
    endloop
  endfacet
  facet normal -0.195096 -0.980784 0
    outer loop
       vertex 0.0119733 -0.247861 0
       vertex 0.0119733 -0.247861 0.1
       vertex -0.0201002 -0.241481 0.1
    endloop
  endfacet
  facet normal -0.195096 -0.980784 -0
    outer loop
       vertex -0.0201002 -0.241481 0.1
       vertex -0.0201002 -0.241481 0
       vertex 0.0119733 -0.247861 0
    endloop
  endfacet
  facet normal -0.321425 -0.946935 0
    outer loop
       vertex -0.0201002 -0.241481 0
       vertex -0.0201002 -0.241481 0.1
       vertex -0.0510662 -0.23097 0.1
    endloop
  endfacet
  facet normal -0.321425 -0.946935 -0
    outer loop
       vertex -0.0510662 -0.23097 0.1
       vertex -0.0510662 -0.23097 0
       vertex -0.0201002 -0.241481 0
    endloop
  endfacet
  facet normal -0.442302 -0.896866 0
    outer loop
       vertex -0.0510662 -0.23097 0
       vertex -0.0510662 -0.23097 0.1
       vertex -0.0803952 -0.216506 0.1
    endloop
  endfacet
  facet normal -0.442302 -0.896866 -0
    outer loop
       vertex -0.0803952 -0.216506 0.1
       vertex -0.0803952 -0.216506 0
       vertex -0.0510662 -0.23097 0
    endloop
  endfacet
  facet normal -0.555561 -0.831476 0
    outer loop
       vertex -0.0803952 -0.216506 0
       vertex -0.0803952 -0.216506 0.1
       vertex -0.107586 -0.198338 0.1
    endloop
  endfacet
  facet normal -0.555561 -0.831476 -0
    outer loop
       vertex -0.107586 -0.198338 0.1
       vertex -0.107586 -0.198338 0
       vertex -0.0803952 -0.216506 0
    endloop
  endfacet
  facet normal -0.659372 -0.751817 0
    outer loop
       vertex -0.107586 -0.198338 0
       vertex -0.107586 -0.198338 0.1
       vertex -0.132171 -0.176776 0.1
    endloop
  endfacet
  facet normal -0.659372 -0.751817 -0
    outer loop
       vertex -0.132171 -0.176776 0.1
       vertex -0.132171 -0.176776 0
       vertex -0.107586 -0.198338 0
    endloop
  endfacet
endsolid cylinder
