solid cylinder
  facet normal 0.751817 -0.659372 0
    outer loop
       vertex 0.395014 -0.176776 0
       vertex 0.416576 -0.152191 0
       vertex 0.416576 -0.152191 0.1
    endloop
  endfacet
  facet normal 0.751817 -0.659372 0
    outer loop
       vertex 0.416576 -0.152191 0.1
       vertex 0.395014 -0.176776 0.1
       vertex 0.395014 -0.176776 0
    endloop
  endfacet
  facet normal 0.831476 -0.555561 0
    outer loop
       vertex 0.416576 -0.152191 0
       vertex 0.434744 -0.125 0
       vertex 0.434744 -0.125 0.1
    endloop
  endfacet
  facet normal 0.831476 -0.555561 0
    outer loop
       vertex 0.434744 -0.125 0.1
       vertex 0.416576 -0.152191 0.1
       vertex 0.416576 -0.152191 0
    endloop
  endfacet
  facet normal 0.896866 -0.442302 0
    outer loop
       vertex 0.434744 -0.125 0
       vertex 0.449208 -0.095671 0
       vertex 0.449208 -0.095671 0.1
    endloop
  endfacet
  facet normal 0.896866 -0.442302 0
    outer loop
       vertex 0.449208 -0.095671 0.1
       vertex 0.434744 -0.125 0.1
       vertex 0.434744 -0.125 0
    endloop
  endfacet
  facet normal 0.946935 -0.321425 0
    outer loop
       vertex 0.449208 -0.095671 0
       vertex 0.459719 -0.064705 0
       vertex 0.459719 -0.064705 0.1
    endloop
  endfacet
  facet normal 0.946935 -0.321425 0
    outer loop
       vertex 0.459719 -0.064705 0.1
       vertex 0.449208 -0.095671 0.1
       vertex 0.449208 -0.095671 0
    endloop
  endfacet
  facet normal 0.980784 -0.195096 0
    outer loop
       vertex 0.459719 -0.064705 0
       vertex 0.466099 -0.0326315 0
       vertex 0.466099 -0.0326315 0.1
    endloop
  endfacet
  facet normal 0.980784 -0.195096 0
    outer loop
       vertex 0.466099 -0.0326315 0.1
       vertex 0.459719 -0.064705 0.1
       vertex 0.459719 -0.064705 0
    endloop
  endfacet
  facet normal 0.997858 -0.0654098 0
    outer loop
       vertex 0.468238 -8.32665e-17 0.1
       vertex 0.466099 -0.0326315 0.1
       vertex 0.466099 -0.0326315 0
    endloop
  endfacet
  facet normal 0.997858 -0.0654098 -1.08928e-16
    outer loop
       vertex 0.466099 -0.0326315 0
       vertex 0.468238 8.32665e-17 0
       vertex 0.468238 -8.32665e-17 0.1
    endloop
  endfacet
  facet normal 0.997858 0.0654098 0
    outer loop
       vertex 0.468238 8.32665e-17 0
       vertex 0.466099 0.0326315 0
       vertex 0.466099 0.0326315 0.1
    endloop
  endfacet
  facet normal 0.997858 0.0654098 1.08928e-16
    outer loop
       vertex 0.466099 0.0326315 0.1
       vertex 0.468238 -8.32665e-17 0.1
       vertex 0.468238 8.32665e-17 0
    endloop
  endfacet
  facet normal 0.980784 0.195096 0
    outer loop
       vertex 0.466099 0.0326315 0
       vertex 0.459719 0.064705 0
       vertex 0.459719 0.064705 0.1
    endloop
  endfacet
  facet normal 0.980784 0.195096 0
    outer loop
       vertex 0.459719 0.064705 0.1
       vertex 0.466099 0.0326315 0.1
       vertex 0.466099 0.0326315 0
    endloop
  endfacet
  facet normal 0.946935 0.321425 0
    outer loop
       vertex 0.459719 0.064705 0
       vertex 0.449208 0.095671 0
       vertex 0.449208 0.095671 0.1
    endloop
  endfacet
  facet normal 0.946935 0.321425 0
    outer loop
       vertex 0.449208 0.095671 0.1
       vertex 0.459719 0.064705 0.1
       vertex 0.459719 0.064705 0
    endloop
  endfacet
  facet normal 0.896866 0.442302 0
    outer loop
       vertex 0.449208 0.095671 0
       vertex 0.434744 0.125 0
       vertex 0.434744 0.125 0.1
    endloop
  endfacet
  facet normal 0.896866 0.442302 0
    outer loop
       vertex 0.434744 0.125 0.1
       vertex 0.449208 0.095671 0.1
       vertex 0.449208 0.095671 0
    endloop
  endfacet
  facet normal 0.831476 0.555561 0
    outer loop
       vertex 0.434744 0.125 0
       vertex 0.416576 0.152191 0
       vertex 0.416576 0.152191 0.1
    endloop
  endfacet
  facet normal 0.831476 0.555561 0
    outer loop
       vertex 0.416576 0.152191 0.1
       vertex 0.434744 0.125 0.1
       vertex 0.434744 0.125 0
    endloop
  endfacet
  facet normal 0.751817 0.659372 0
    outer loop
       vertex 0.416576 0.152191 0
       vertex 0.395014 0.176776 0
       vertex 0.395014 0.176776 0.1
    endloop
  endfacet
  facet normal 0.751817 0.659372 0
    outer loop
       vertex 0.395014 0.176776 0.1
       vertex 0.416576 0.152191 0.1
       vertex 0.416576 0.152191 0
    endloop
  endfacet
  facet normal 0.659372 0.751817 0
    outer loop
       vertex 0.395014 0.176776 0
       vertex 0.370429 0.198338 0
       vertex 0.370429 0.198338 0.1
    endloop
  endfacet
  facet normal 0.659372 0.751817 0
    outer loop
       vertex 0.370429 0.198338 0.1
       vertex 0.395014 0.176776 0.1
       vertex 0.395014 0.176776 0
    endloop
  endfacet
  facet normal 0.555561 0.831476 0
    outer loop
       vertex 0.370429 0.198338 0
       vertex 0.343238 0.216506 0
       vertex 0.343238 0.216506 0.1
    endloop
  endfacet
  facet normal 0.555561 0.831476 0
    outer loop
       vertex 0.343238 0.216506 0.1
       vertex 0.370429 0.198338 0.1
       vertex 0.370429 0.198338 0
    endloop
  endfacet
  facet normal 0.442302 0.896866 0
    outer loop
       vertex 0.343238 0.216506 0
       vertex 0.313909 0.23097 0
       vertex 0.313909 0.23097 0.1
    endloop
  endfacet
  facet normal 0.442302 0.896866 0
    outer loop
       vertex 0.313909 0.23097 0.1
       vertex 0.343238 0.216506 0.1
       vertex 0.343238 0.216506 0
    endloop
  endfacet
  facet normal 0.321425 0.946935 0
    outer loop
       vertex 0.313909 0.23097 0
       vertex 0.282943 0.241481 0
       vertex 0.282943 0.241481 0.1
    endloop
  endfacet
  facet normal 0.321425 0.946935 0
    outer loop
       vertex 0.282943 0.241481 0.1
       vertex 0.313909 0.23097 0.1
       vertex 0.313909 0.23097 0
    endloop
  endfacet
  facet normal 0.195096 0.980784 0
    outer loop
       vertex 0.282943 0.241481 0
       vertex 0.25087 0.247861 0
       vertex 0.25087 0.247861 0.1
    endloop
  endfacet
  facet normal 0.195096 0.980784 0
    outer loop
       vertex 0.25087 0.247861 0.1
       vertex 0.282943 0.241481 0.1
       vertex 0.282943 0.241481 0
    endloop
  endfacet
  facet normal 0.0654098 0.997858 0
    outer loop
       vertex 0.218238 0.25 0.1
       vertex 0.25087 0.247861 0.1
       vertex 0.25087 0.247861 0
    endloop
  endfacet
  facet normal 0.0654098 0.997858 -1.0893e-16
    outer loop
       vertex 0.25087 0.247861 0
       vertex 0.218238 0.25 0
       vertex 0.218238 0.25 0.1
    endloop
  endfacet
  facet normal -0.0654098 0.997858 0
    outer loop
       vertex 0.218238 0.25 0
       vertex 0.185607 0.247861 0
       vertex 0.185607 0.247861 0.1
    endloop
  endfacet
  facet normal -0.0654098 0.997858 1.0893e-16
    outer loop
       vertex 0.185607 0.247861 0.1
       vertex 0.218238 0.25 0.1
       vertex 0.218238 0.25 0
    endloop
  endfacet
  facet normal -0.195096 0.980784 0
    outer loop
       vertex 0.185607 0.247861 0
       vertex 0.153533 0.241481 0
       vertex 0.153533 0.241481 0.1
    endloop
  endfacet
  facet normal -0.195096 0.980784 0
    outer loop
       vertex 0.153533 0.241481 0.1
       vertex 0.185607 0.247861 0.1
       vertex 0.185607 0.247861 0
    endloop
  endfacet
  facet normal -0.321425 0.946935 0
    outer loop
       vertex 0.153533 0.241481 0
       vertex 0.122567 0.23097 0
       vertex 0.122567 0.23097 0.1
    endloop
  endfacet
  facet normal -0.321425 0.946935 0
    outer loop
       vertex 0.122567 0.23097 0.1
       vertex 0.153533 0.241481 0.1
       vertex 0.153533 0.241481 0
    endloop
  endfacet
  facet normal -0.442302 0.896866 0
    outer loop
       vertex 0.122567 0.23097 0
       vertex 0.0932385 0.216506 0
       vertex 0.0932385 0.216506 0.1
    endloop
  endfacet
  facet normal -0.442302 0.896866 0
    outer loop
       vertex 0.0932385 0.216506 0.1
       vertex 0.122567 0.23097 0.1
       vertex 0.122567 0.23097 0
    endloop
  endfacet
  facet normal -0.555561 0.831476 0
    outer loop
       vertex 0.0932385 0.216506 0
       vertex 0.0660475 0.198338 0
       vertex 0.0660475 0.198338 0.1
    endloop
  endfacet
  facet normal -0.555561 0.831476 0
    outer loop
       vertex 0.0660475 0.198338 0.1
       vertex 0.0932385 0.216506 0.1
       vertex 0.0932385 0.216506 0
    endloop
  endfacet
  facet normal -0.659372 0.751817 0
    outer loop
       vertex 0.0660475 0.198338 0
       vertex 0.0414625 0.176776 0
       vertex 0.0414625 0.176776 0.1
    endloop
  endfacet
  facet normal -0.659372 0.751817 0
    outer loop
       vertex 0.0414625 0.176776 0.1
       vertex 0.0660475 0.198338 0.1
       vertex 0.0660475 0.198338 0
    endloop
  endfacet
  facet normal -0.751817 0.659372 0
    outer loop
       vertex 0.0414625 0.176776 0
       vertex 0.0199005 0.152191 0
       vertex 0.0199005 0.152191 0.1
    endloop
  endfacet
  facet normal -0.751817 0.659372 0
    outer loop
       vertex 0.0199005 0.152191 0.1
       vertex 0.0414625 0.176776 0.1
       vertex 0.0414625 0.176776 0
    endloop
  endfacet
  facet normal -0.831476 0.555561 0
    outer loop
       vertex 0.0199005 0.152191 0
       vertex 0.00173249 0.125 0
       vertex 0.00173249 0.125 0.1
    endloop
  endfacet
  facet normal -0.831476 0.555561 0
    outer loop
       vertex 0.00173249 0.125 0.1
       vertex 0.0199005 0.152191 0.1
       vertex 0.0199005 0.152191 0
    endloop
  endfacet
  facet normal -0.896866 0.442302 0
    outer loop
       vertex 0.00173249 0.125 0
       vertex -0.0127315 0.095671 0
       vertex -0.0127315 0.095671 0.1
    endloop
  endfacet
  facet normal -0.896866 0.442302 0
    outer loop
       vertex -0.0127315 0.095671 0.1
       vertex 0.00173249 0.125 0.1
       vertex 0.00173249 0.125 0
    endloop
  endfacet
  facet normal -0.946935 0.321425 0
    outer loop
       vertex -0.0127315 0.095671 0
       vertex -0.0232425 0.064705 0
       vertex -0.0232425 0.064705 0.1
    endloop
  endfacet
  facet normal -0.946935 0.321425 0
    outer loop
       vertex -0.0232425 0.064705 0.1
       vertex -0.0127315 0.095671 0.1
       vertex -0.0127315 0.095671 0
    endloop
  endfacet
  facet normal -0.980784 0.195096 0
    outer loop
       vertex -0.0232425 0.064705 0
       vertex -0.0296225 0.0326315 0
       vertex -0.0296225 0.0326315 0.1
    endloop
  endfacet
  facet normal -0.980784 0.195096 0
    outer loop
       vertex -0.0296225 0.0326315 0.1
       vertex -0.0232425 0.064705 0.1
       vertex -0.0232425 0.064705 0
    endloop
  endfacet
  facet normal -0.997858 0.0654098 0
    outer loop
       vertex -0.0317615 8.32665e-17 0.1
       vertex -0.0296225 0.0326315 0.1
       vertex -0.0296225 0.0326315 0
    endloop
  endfacet
  facet normal -0.997858 0.0654098 -1.08928e-16
    outer loop
       vertex -0.0296225 0.0326315 0
       vertex -0.0317615 -8.32665e-17 0
       vertex -0.0317615 8.32665e-17 0.1
    endloop
  endfacet
  facet normal -0.997858 -0.0654098 0
    outer loop
       vertex -0.0317615 -8.32665e-17 0
       vertex -0.0296225 -0.0326315 0
       vertex -0.0296225 -0.0326315 0.1
    endloop
  endfacet
  facet normal -0.997858 -0.0654098 1.08928e-16
    outer loop
       vertex -0.0296225 -0.0326315 0.1
       vertex -0.0317615 8.32665e-17 0.1
       vertex -0.0317615 -8.32665e-17 0
    endloop
  endfacet
  facet normal -0.980784 -0.195096 0
    outer loop
       vertex -0.0296225 -0.0326315 0
       vertex -0.0232425 -0.064705 0
       vertex -0.0232425 -0.064705 0.1
    endloop
  endfacet
  facet normal -0.980784 -0.195096 0
    outer loop
       vertex -0.0232425 -0.064705 0.1
       vertex -0.0296225 -0.0326315 0.1
       vertex -0.0296225 -0.0326315 0
    endloop
  endfacet
  facet normal -0.946935 -0.321425 0
    outer loop
       vertex -0.0232425 -0.064705 0
       vertex -0.0127315 -0.095671 0
       vertex -0.0127315 -0.095671 0.1
    endloop
  endfacet
  facet normal -0.946935 -0.321425 0
    outer loop
       vertex -0.0127315 -0.095671 0.1
       vertex -0.0232425 -0.064705 0.1
       vertex -0.0232425 -0.064705 0
    endloop
  endfacet
  facet normal -0.896866 -0.442302 0
    outer loop
       vertex -0.0127315 -0.095671 0
       vertex 0.00173249 -0.125 0
       vertex 0.00173249 -0.125 0.1
    endloop
  endfacet
  facet normal -0.896866 -0.442302 0
    outer loop
       vertex 0.00173249 -0.125 0.1
       vertex -0.0127315 -0.095671 0.1
       vertex -0.0127315 -0.095671 0
    endloop
  endfacet
  facet normal -0.831476 -0.555561 0
    outer loop
       vertex 0.00173249 -0.125 0
       vertex 0.0199005 -0.152191 0
       vertex 0.0199005 -0.152191 0.1
    endloop
  endfacet
  facet normal -0.831476 -0.555561 0
    outer loop
       vertex 0.0199005 -0.152191 0.1
       vertex 0.00173249 -0.125 0.1
       vertex 0.00173249 -0.125 0
    endloop
  endfacet
  facet normal -0.751817 -0.659372 0
    outer loop
       vertex 0.0199005 -0.152191 0
       vertex 0.0414625 -0.176776 0
       vertex 0.0414625 -0.176776 0.1
    endloop
  endfacet
  facet normal -0.751817 -0.659372 0
    outer loop
       vertex 0.0414625 -0.176776 0.1
       vertex 0.0199005 -0.152191 0.1
       vertex 0.0199005 -0.152191 0
    endloop
  endfacet
  facet normal 0.659372 -0.751817 0
    outer loop
       vertex 0.395014 -0.176776 0
       vertex 0.395014 -0.176776 0.1
       vertex 0.370429 -0.198338 0.1
    endloop
  endfacet
  facet normal 0.659372 -0.751817 0
    outer loop
       vertex 0.370429 -0.198338 0.1
       vertex 0.370429 -0.198338 0
       vertex 0.395014 -0.176776 0
    endloop
  endfacet
  facet normal 0.555561 -0.831476 0
    outer loop
       vertex 0.370429 -0.198338 0
       vertex 0.370429 -0.198338 0.1
       vertex 0.343238 -0.216506 0.1
    endloop
  endfacet
  facet normal 0.555561 -0.831476 0
    outer loop
       vertex 0.343238 -0.216506 0.1
       vertex 0.343238 -0.216506 0
       vertex 0.370429 -0.198338 0
    endloop
  endfacet
  facet normal 0.442302 -0.896866 0
    outer loop
       vertex 0.343238 -0.216506 0
       vertex 0.343238 -0.216506 0.1
       vertex 0.313909 -0.23097 0.1
    endloop
  endfacet
  facet normal 0.442302 -0.896866 0
    outer loop
       vertex 0.313909 -0.23097 0.1
       vertex 0.313909 -0.23097 0
       vertex 0.343238 -0.216506 0
    endloop
  endfacet
  facet normal 0.321425 -0.946935 0
    outer loop
       vertex 0.313909 -0.23097 0
       vertex 0.313909 -0.23097 0.1
       vertex 0.282943 -0.241481 0.1
    endloop
  endfacet
  facet normal 0.321425 -0.946935 0
    outer loop
       vertex 0.282943 -0.241481 0.1
       vertex 0.282943 -0.241481 0
       vertex 0.313909 -0.23097 0
    endloop
  endfacet
  facet normal 0.195096 -0.980784 0
    outer loop
       vertex 0.282943 -0.241481 0
       vertex 0.282943 -0.241481 0.1
       vertex 0.25087 -0.247861 0.1
    endloop
  endfacet
  facet normal 0.195096 -0.980784 0
    outer loop
       vertex 0.25087 -0.247861 0.1
       vertex 0.25087 -0.247861 0
       vertex 0.282943 -0.241481 0
    endloop
  endfacet
  facet normal 0.0654098 -0.997858 0
    outer loop
       vertex 0.218238 -0.25 0
       vertex 0.25087 -0.247861 0
       vertex 0.25087 -0.247861 0.1
    endloop
  endfacet
  facet normal 0.0654098 -0.997858 1.0893e-16
    outer loop
       vertex 0.25087 -0.247861 0.1
       vertex 0.218238 -0.25 0.1
       vertex 0.218238 -0.25 0
    endloop
  endfacet
  facet normal -0.0654098 -0.997858 0
    outer loop
       vertex 0.218238 -0.25 0.1
       vertex 0.185607 -0.247861 0.1
       vertex 0.185607 -0.247861 0
    endloop
  endfacet
  facet normal -0.0654098 -0.997858 -1.0893e-16
    outer loop
       vertex 0.185607 -0.247861 0
       vertex 0.218238 -0.25 0
       vertex 0.218238 -0.25 0.1
    endloop
  endfacet
  facet normal -0.195096 -0.980784 0
    outer loop
       vertex 0.185607 -0.247861 0
       vertex 0.185607 -0.247861 0.1
       vertex 0.153533 -0.241481 0.1
    endloop
  endfacet
  facet normal -0.195096 -0.980784 -0
    outer loop
       vertex 0.153533 -0.241481 0.1
       vertex 0.153533 -0.241481 0
       vertex 0.185607 -0.247861 0
    endloop
  endfacet
  facet normal -0.321425 -0.946935 0
    outer loop
       vertex 0.153533 -0.241481 0
       vertex 0.153533 -0.241481 0.1
       vertex 0.122567 -0.23097 0.1
    endloop
  endfacet
  facet normal -0.321425 -0.946935 -0
    outer loop
       vertex 0.122567 -0.23097 0.1
       vertex 0.122567 -0.23097 0
       vertex 0.153533 -0.241481 0
    endloop
  endfacet
  facet normal -0.442302 -0.896866 0
    outer loop
       vertex 0.122567 -0.23097 0
       vertex 0.122567 -0.23097 0.1
       vertex 0.0932385 -0.216506 0.1
    endloop
  endfacet
  facet normal -0.442302 -0.896866 -0
    outer loop
       vertex 0.0932385 -0.216506 0.1
       vertex 0.0932385 -0.216506 0
       vertex 0.122567 -0.23097 0
    endloop
  endfacet
  facet normal -0.555561 -0.831476 0
    outer loop
       vertex 0.0932385 -0.216506 0
       vertex 0.0932385 -0.216506 0.1
       vertex 0.0660475 -0.198338 0.1
    endloop
  endfacet
  facet normal -0.555561 -0.831476 -0
    outer loop
       vertex 0.0660475 -0.198338 0.1
       vertex 0.0660475 -0.198338 0
       vertex 0.0932385 -0.216506 0
    endloop
  endfacet
  facet normal -0.659372 -0.751817 0
    outer loop
       vertex 0.0660475 -0.198338 0
       vertex 0.0660475 -0.198338 0.1
       vertex 0.0414625 -0.176776 0.1
    endloop
  endfacet
  facet normal -0.659372 -0.751817 -0
    outer loop
       vertex 0.0414625 -0.176776 0.1
       vertex 0.0414625 -0.176776 0
       vertex 0.0660475 -0.198338 0
    endloop
  endfacet
endsolid cylinder
