solid cylinder
  facet normal 0.751817 -0.659372 0
    outer loop
       vertex 0.304255 -0.176776 0
       vertex 0.325817 -0.152191 0
       vertex 0.325817 -0.152191 0.1
    endloop
  endfacet
  facet normal 0.751817 -0.659372 0
    outer loop
       vertex 0.325817 -0.152191 0.1
       vertex 0.304255 -0.176776 0.1
       vertex 0.304255 -0.176776 0
    endloop
  endfacet
  facet normal 0.831476 -0.555561 0
    outer loop
       vertex 0.325817 -0.152191 0
       vertex 0.343985 -0.125 0
       vertex 0.343985 -0.125 0.1
    endloop
  endfacet
  facet normal 0.831476 -0.555561 0
    outer loop
       vertex 0.343985 -0.125 0.1
       vertex 0.325817 -0.152191 0.1
       vertex 0.325817 -0.152191 0
    endloop
  endfacet
  facet normal 0.896866 -0.442302 0
    outer loop
       vertex 0.343985 -0.125 0
       vertex 0.358449 -0.095671 0
       vertex 0.358449 -0.095671 0.1
    endloop
  endfacet
  facet normal 0.896866 -0.442302 0
    outer loop
       vertex 0.358449 -0.095671 0.1
       vertex 0.343985 -0.125 0.1
       vertex 0.343985 -0.125 0
    endloop
  endfacet
  facet normal 0.946935 -0.321425 0
    outer loop
       vertex 0.358449 -0.095671 0
       vertex 0.36896 -0.064705 0
       vertex 0.36896 -0.064705 0.1
    endloop
  endfacet
  facet normal 0.946935 -0.321425 0
    outer loop
       vertex 0.36896 -0.064705 0.1
       vertex 0.358449 -0.095671 0.1
       vertex 0.358449 -0.095671 0
    endloop
  endfacet
  facet normal 0.980784 -0.195096 0
    outer loop
       vertex 0.36896 -0.064705 0
       vertex 0.37534 -0.0326315 0
       vertex 0.37534 -0.0326315 0.1
    endloop
  endfacet
  facet normal 0.980784 -0.195096 0
    outer loop
       vertex 0.37534 -0.0326315 0.1
       vertex 0.36896 -0.064705 0.1
       vertex 0.36896 -0.064705 0
    endloop
  endfacet
  facet normal 0.997858 -0.0654098 0
    outer loop
       vertex 0.377479 -8.32665e-17 0.1
       vertex 0.37534 -0.0326315 0.1
       vertex 0.37534 -0.0326315 0
    endloop
  endfacet
  facet normal 0.997858 -0.0654098 -1.08928e-16
    outer loop
       vertex 0.37534 -0.0326315 0
       vertex 0.377479 8.32665e-17 0
       vertex 0.377479 -8.32665e-17 0.1
    endloop
  endfacet
  facet normal 0.997858 0.0654098 0
    outer loop
       vertex 0.377479 8.32665e-17 0
       vertex 0.37534 0.0326315 0
       vertex 0.37534 0.0326315 0.1
    endloop
  endfacet
  facet normal 0.997858 0.0654098 1.08928e-16
    outer loop
       vertex 0.37534 0.0326315 0.1
       vertex 0.377479 -8.32665e-17 0.1
       vertex 0.377479 8.32665e-17 0
    endloop
  endfacet
  facet normal 0.980784 0.195096 0
    outer loop
       vertex 0.37534 0.0326315 0
       vertex 0.36896 0.064705 0
       vertex 0.36896 0.064705 0.1
    endloop
  endfacet
  facet normal 0.980784 0.195096 0
    outer loop
       vertex 0.36896 0.064705 0.1
       vertex 0.37534 0.0326315 0.1
       vertex 0.37534 0.0326315 0
    endloop
  endfacet
  facet normal 0.946935 0.321425 0
    outer loop
       vertex 0.36896 0.064705 0
       vertex 0.358449 0.095671 0
       vertex 0.358449 0.095671 0.1
    endloop
  endfacet
  facet normal 0.946935 0.321425 0
    outer loop
       vertex 0.358449 0.095671 0.1
       vertex 0.36896 0.064705 0.1
       vertex 0.36896 0.064705 0
    endloop
  endfacet
  facet normal 0.896866 0.442302 0
    outer loop
       vertex 0.358449 0.095671 0
       vertex 0.343985 0.125 0
       vertex 0.343985 0.125 0.1
    endloop
  endfacet
  facet normal 0.896866 0.442302 0
    outer loop
       vertex 0.343985 0.125 0.1
       vertex 0.358449 0.095671 0.1
       vertex 0.358449 0.095671 0
    endloop
  endfacet
  facet normal 0.831476 0.555561 0
    outer loop
       vertex 0.343985 0.125 0
       vertex 0.325817 0.152191 0
       vertex 0.325817 0.152191 0.1
    endloop
  endfacet
  facet normal 0.831476 0.555561 0
    outer loop
       vertex 0.325817 0.152191 0.1
       vertex 0.343985 0.125 0.1
       vertex 0.343985 0.125 0
    endloop
  endfacet
  facet normal 0.751817 0.659372 0
    outer loop
       vertex 0.325817 0.152191 0
       vertex 0.304255 0.176776 0
       vertex 0.304255 0.176776 0.1
    endloop
  endfacet
  facet normal 0.751817 0.659372 0
    outer loop
       vertex 0.304255 0.176776 0.1
       vertex 0.325817 0.152191 0.1
       vertex 0.325817 0.152191 0
    endloop
  endfacet
  facet normal 0.659372 0.751817 0
    outer loop
       vertex 0.304255 0.176776 0
       vertex 0.27967 0.198338 0
       vertex 0.27967 0.198338 0.1
    endloop
  endfacet
  facet normal 0.659372 0.751817 0
    outer loop
       vertex 0.27967 0.198338 0.1
       vertex 0.304255 0.176776 0.1
       vertex 0.304255 0.176776 0
    endloop
  endfacet
  facet normal 0.555561 0.831476 0
    outer loop
       vertex 0.27967 0.198338 0
       vertex 0.252479 0.216506 0
       vertex 0.252479 0.216506 0.1
    endloop
  endfacet
  facet normal 0.555561 0.831476 0
    outer loop
       vertex 0.252479 0.216506 0.1
       vertex 0.27967 0.198338 0.1
       vertex 0.27967 0.198338 0
    endloop
  endfacet
  facet normal 0.442302 0.896866 0
    outer loop
       vertex 0.252479 0.216506 0
       vertex 0.22315 0.23097 0
       vertex 0.22315 0.23097 0.1
    endloop
  endfacet
  facet normal 0.442302 0.896866 0
    outer loop
       vertex 0.22315 0.23097 0.1
       vertex 0.252479 0.216506 0.1
       vertex 0.252479 0.216506 0
    endloop
  endfacet
  facet normal 0.321425 0.946935 0
    outer loop
       vertex 0.22315 0.23097 0
       vertex 0.192184 0.241481 0
       vertex 0.192184 0.241481 0.1
    endloop
  endfacet
  facet normal 0.321425 0.946935 0
    outer loop
       vertex 0.192184 0.241481 0.1
       vertex 0.22315 0.23097 0.1
       vertex 0.22315 0.23097 0
    endloop
  endfacet
  facet normal 0.195096 0.980784 0
    outer loop
       vertex 0.192184 0.241481 0
       vertex 0.160111 0.247861 0
       vertex 0.160111 0.247861 0.1
    endloop
  endfacet
  facet normal 0.195096 0.980784 0
    outer loop
       vertex 0.160111 0.247861 0.1
       vertex 0.192184 0.241481 0.1
       vertex 0.192184 0.241481 0
    endloop
  endfacet
  facet normal 0.0654098 0.997858 0
    outer loop
       vertex 0.127479 0.25 0.1
       vertex 0.160111 0.247861 0.1
       vertex 0.160111 0.247861 0
    endloop
  endfacet
  facet normal 0.0654098 0.997858 -1.0893e-16
    outer loop
       vertex 0.160111 0.247861 0
       vertex 0.127479 0.25 0
       vertex 0.127479 0.25 0.1
    endloop
  endfacet
  facet normal -0.0654098 0.997858 0
    outer loop
       vertex 0.127479 0.25 0
       vertex 0.094848 0.247861 0
       vertex 0.094848 0.247861 0.1
    endloop
  endfacet
  facet normal -0.0654098 0.997858 1.0893e-16
    outer loop
       vertex 0.094848 0.247861 0.1
       vertex 0.127479 0.25 0.1
       vertex 0.127479 0.25 0
    endloop
  endfacet
  facet normal -0.195096 0.980784 0
    outer loop
       vertex 0.094848 0.247861 0
       vertex 0.0627745 0.241481 0
       vertex 0.0627745 0.241481 0.1
    endloop
  endfacet
  facet normal -0.195096 0.980784 0
    outer loop
       vertex 0.0627745 0.241481 0.1
       vertex 0.094848 0.247861 0.1
       vertex 0.094848 0.247861 0
    endloop
  endfacet
  facet normal -0.321425 0.946935 0
    outer loop
       vertex 0.0627745 0.241481 0
       vertex 0.0318085 0.23097 0
       vertex 0.0318085 0.23097 0.1
    endloop
  endfacet
  facet normal -0.321425 0.946935 0
    outer loop
       vertex 0.0318085 0.23097 0.1
       vertex 0.0627745 0.241481 0.1
       vertex 0.0627745 0.241481 0
    endloop
  endfacet
  facet normal -0.442302 0.896866 0
    outer loop
       vertex 0.0318085 0.23097 0
       vertex 0.00247946 0.216506 0
       vertex 0.00247946 0.216506 0.1
    endloop
  endfacet
  facet normal -0.442302 0.896866 0
    outer loop
       vertex 0.00247946 0.216506 0.1
       vertex 0.0318085 0.23097 0.1
       vertex 0.0318085 0.23097 0
    endloop
  endfacet
  facet normal -0.555561 0.831476 0
    outer loop
       vertex 0.00247946 0.216506 0
       vertex -0.0247115 0.198338 0
       vertex -0.0247115 0.198338 0.1
    endloop
  endfacet
  facet normal -0.555561 0.831476 0
    outer loop
       vertex -0.0247115 0.198338 0.1
       vertex 0.00247946 0.216506 0.1
       vertex 0.00247946 0.216506 0
    endloop
  endfacet
  facet normal -0.659372 0.751817 0
    outer loop
       vertex -0.0247115 0.198338 0
       vertex -0.0492965 0.176776 0
       vertex -0.0492965 0.176776 0.1
    endloop
  endfacet
  facet normal -0.659372 0.751817 0
    outer loop
       vertex -0.0492965 0.176776 0.1
       vertex -0.0247115 0.198338 0.1
       vertex -0.0247115 0.198338 0
    endloop
  endfacet
  facet normal -0.751817 0.659372 0
    outer loop
       vertex -0.0492965 0.176776 0
       vertex -0.0708585 0.152191 0
       vertex -0.0708585 0.152191 0.1
    endloop
  endfacet
  facet normal -0.751817 0.659372 0
    outer loop
       vertex -0.0708585 0.152191 0.1
       vertex -0.0492965 0.176776 0.1
       vertex -0.0492965 0.176776 0
    endloop
  endfacet
  facet normal -0.831476 0.555561 0
    outer loop
       vertex -0.0708585 0.152191 0
       vertex -0.0890265 0.125 0
       vertex -0.0890265 0.125 0.1
    endloop
  endfacet
  facet normal -0.831476 0.555561 0
    outer loop
       vertex -0.0890265 0.125 0.1
       vertex -0.0708585 0.152191 0.1
       vertex -0.0708585 0.152191 0
    endloop
  endfacet
  facet normal -0.896866 0.442302 0
    outer loop
       vertex -0.0890265 0.125 0
       vertex -0.103491 0.095671 0
       vertex -0.103491 0.095671 0.1
    endloop
  endfacet
  facet normal -0.896866 0.442302 0
    outer loop
       vertex -0.103491 0.095671 0.1
       vertex -0.0890265 0.125 0.1
       vertex -0.0890265 0.125 0
    endloop
  endfacet
  facet normal -0.946935 0.321425 0
    outer loop
       vertex -0.103491 0.095671 0
       vertex -0.114002 0.064705 0
       vertex -0.114002 0.064705 0.1
    endloop
  endfacet
  facet normal -0.946935 0.321425 0
    outer loop
       vertex -0.114002 0.064705 0.1
       vertex -0.103491 0.095671 0.1
       vertex -0.103491 0.095671 0
    endloop
  endfacet
  facet normal -0.980784 0.195096 0
    outer loop
       vertex -0.114002 0.064705 0
       vertex -0.120382 0.0326315 0
       vertex -0.120382 0.0326315 0.1
    endloop
  endfacet
  facet normal -0.980784 0.195096 0
    outer loop
       vertex -0.120382 0.0326315 0.1
       vertex -0.114002 0.064705 0.1
       vertex -0.114002 0.064705 0
    endloop
  endfacet
  facet normal -0.997858 0.0654098 0
    outer loop
       vertex -0.122521 8.32665e-17 0.1
       vertex -0.120382 0.0326315 0.1
       vertex -0.120382 0.0326315 0
    endloop
  endfacet
  facet normal -0.997858 0.0654098 -1.08928e-16
    outer loop
       vertex -0.120382 0.0326315 0
       vertex -0.122521 -8.32665e-17 0
       vertex -0.122521 8.32665e-17 0.1
    endloop
  endfacet
  facet normal -0.997858 -0.0654098 0
    outer loop
       vertex -0.122521 -8.32665e-17 0
       vertex -0.120382 -0.0326315 0
       vertex -0.120382 -0.0326315 0.1
    endloop
  endfacet
  facet normal -0.997858 -0.0654098 1.08928e-16
    outer loop
       vertex -0.120382 -0.0326315 0.1
       vertex -0.122521 8.32665e-17 0.1
       vertex -0.122521 -8.32665e-17 0
    endloop
  endfacet
  facet normal -0.980784 -0.195096 0
    outer loop
       vertex -0.120382 -0.0326315 0
       vertex -0.114002 -0.064705 0
       vertex -0.114002 -0.064705 0.1
    endloop
  endfacet
  facet normal -0.980784 -0.195096 0
    outer loop
       vertex -0.114002 -0.064705 0.1
       vertex -0.120382 -0.0326315 0.1
       vertex -0.120382 -0.0326315 0
    endloop
  endfacet
  facet normal -0.946935 -0.321425 0
    outer loop
       vertex -0.114002 -0.064705 0
       vertex -0.103491 -0.095671 0
       vertex -0.103491 -0.095671 0.1
    endloop
  endfacet
  facet normal -0.946935 -0.321425 0
    outer loop
       vertex -0.103491 -0.095671 0.1
       vertex -0.114002 -0.064705 0.1
       vertex -0.114002 -0.064705 0
    endloop
  endfacet
  facet normal -0.896866 -0.442302 0
    outer loop
       vertex -0.103491 -0.095671 0
       vertex -0.0890265 -0.125 0
       vertex -0.0890265 -0.125 0.1
    endloop
  endfacet
  facet normal -0.896866 -0.442302 0
    outer loop
       vertex -0.0890265 -0.125 0.1
       vertex -0.103491 -0.095671 0.1
       vertex -0.103491 -0.095671 0
    endloop
  endfacet
  facet normal -0.831476 -0.555561 0
    outer loop
       vertex -0.0890265 -0.125 0
       vertex -0.0708585 -0.152191 0
       vertex -0.0708585 -0.152191 0.1
    endloop
  endfacet
  facet normal -0.831476 -0.555561 0
    outer loop
       vertex -0.0708585 -0.152191 0.1
       vertex -0.0890265 -0.125 0.1
       vertex -0.0890265 -0.125 0
    endloop
  endfacet
  facet normal -0.751817 -0.659372 0
    outer loop
       vertex -0.0708585 -0.152191 0
       vertex -0.0492965 -0.176776 0
       vertex -0.0492965 -0.176776 0.1
    endloop
  endfacet
  facet normal -0.751817 -0.659372 0
    outer loop
       vertex -0.0492965 -0.176776 0.1
       vertex -0.0708585 -0.152191 0.1
       vertex -0.0708585 -0.152191 0
    endloop
  endfacet
  facet normal 0.659372 -0.751817 0
    outer loop
       vertex 0.304255 -0.176776 0
       vertex 0.304255 -0.176776 0.1
       vertex 0.27967 -0.198338 0.1
    endloop
  endfacet
  facet normal 0.659372 -0.751817 0
    outer loop
       vertex 0.27967 -0.198338 0.1
       vertex 0.27967 -0.198338 0
       vertex 0.304255 -0.176776 0
    endloop
  endfacet
  facet normal 0.555561 -0.831476 0
    outer loop
       vertex 0.27967 -0.198338 0
       vertex 0.27967 -0.198338 0.1
       vertex 0.252479 -0.216506 0.1
    endloop
  endfacet
  facet normal 0.555561 -0.831476 0
    outer loop
       vertex 0.252479 -0.216506 0.1
       vertex 0.252479 -0.216506 0
       vertex 0.27967 -0.198338 0
    endloop
  endfacet
  facet normal 0.442302 -0.896866 0
    outer loop
       vertex 0.252479 -0.216506 0
       vertex 0.252479 -0.216506 0.1
       vertex 0.22315 -0.23097 0.1
    endloop
  endfacet
  facet normal 0.442302 -0.896866 0
    outer loop
       vertex 0.22315 -0.23097 0.1
       vertex 0.22315 -0.23097 0
       vertex 0.252479 -0.216506 0
    endloop
  endfacet
  facet normal 0.321425 -0.946935 0
    outer loop
       vertex 0.22315 -0.23097 0
       vertex 0.22315 -0.23097 0.1
       vertex 0.192184 -0.241481 0.1
    endloop
  endfacet
  facet normal 0.321425 -0.946935 0
    outer loop
       vertex 0.192184 -0.241481 0.1
       vertex 0.192184 -0.241481 0
       vertex 0.22315 -0.23097 0
    endloop
  endfacet
  facet normal 0.195096 -0.980784 0
    outer loop
       vertex 0.192184 -0.241481 0
       vertex 0.192184 -0.241481 0.1
       vertex 0.160111 -0.247861 0.1
    endloop
  endfacet
  facet normal 0.195096 -0.980784 0
    outer loop
       vertex 0.160111 -0.247861 0.1
       vertex 0.160111 -0.247861 0
       vertex 0.192184 -0.241481 0
    endloop
  endfacet
  facet normal 0.0654098 -0.997858 0
    outer loop
       vertex 0.127479 -0.25 0
       vertex 0.160111 -0.247861 0
       vertex 0.160111 -0.247861 0.1
    endloop
  endfacet
  facet normal 0.0654098 -0.997858 1.0893e-16
    outer loop
       vertex 0.160111 -0.247861 0.1
       vertex 0.127479 -0.25 0.1
       vertex 0.127479 -0.25 0
    endloop
  endfacet
  facet normal -0.0654098 -0.997858 0
    outer loop
       vertex 0.127479 -0.25 0.1
       vertex 0.094848 -0.247861 0.1
       vertex 0.094848 -0.247861 0
    endloop
  endfacet
  facet normal -0.0654098 -0.997858 -1.0893e-16
    outer loop
       vertex 0.094848 -0.247861 0
       vertex 0.127479 -0.25 0
       vertex 0.127479 -0.25 0.1
    endloop
  endfacet
  facet normal -0.195096 -0.980784 0
    outer loop
       vertex 0.094848 -0.247861 0
       vertex 0.094848 -0.247861 0.1
       vertex 0.0627745 -0.241481 0.1
    endloop
  endfacet
  facet normal -0.195096 -0.980784 -0
    outer loop
       vertex 0.0627745 -0.241481 0.1
       vertex 0.0627745 -0.241481 0
       vertex 0.094848 -0.247861 0
    endloop
  endfacet
  facet normal -0.321425 -0.946935 0
    outer loop
       vertex 0.0627745 -0.241481 0
       vertex 0.0627745 -0.241481 0.1
       vertex 0.0318085 -0.23097 0.1
    endloop
  endfacet
  facet normal -0.321425 -0.946935 -0
    outer loop
       vertex 0.0318085 -0.23097 0.1
       vertex 0.0318085 -0.23097 0
       vertex 0.0627745 -0.241481 0
    endloop
  endfacet
  facet normal -0.442302 -0.896866 0
    outer loop
       vertex 0.0318085 -0.23097 0
       vertex 0.0318085 -0.23097 0.1
       vertex 0.00247946 -0.216506 0.1
    endloop
  endfacet
  facet normal -0.442302 -0.896866 -0
    outer loop
       vertex 0.00247946 -0.216506 0.1
       vertex 0.00247946 -0.216506 0
       vertex 0.0318085 -0.23097 0
    endloop
  endfacet
  facet normal -0.555561 -0.831476 0
    outer loop
       vertex 0.00247946 -0.216506 0
       vertex 0.00247946 -0.216506 0.1
       vertex -0.0247115 -0.198338 0.1
    endloop
  endfacet
  facet normal -0.555561 -0.831476 -0
    outer loop
       vertex -0.0247115 -0.198338 0.1
       vertex -0.0247115 -0.198338 0
       vertex 0.00247946 -0.216506 0
    endloop
  endfacet
  facet normal -0.659372 -0.751817 0
    outer loop
       vertex -0.0247115 -0.198338 0
       vertex -0.0247115 -0.198338 0.1
       vertex -0.0492965 -0.176776 0.1
    endloop
  endfacet
  facet normal -0.659372 -0.751817 -0
    outer loop
       vertex -0.0492965 -0.176776 0.1
       vertex -0.0492965 -0.176776 0
       vertex -0.0247115 -0.198338 0
    endloop
  endfacet
endsolid cylinder
