solid cylinder
  facet normal 0.751817 -0.659372 0
    outer loop
       vertex 0.351171 -0.176776 0
       vertex 0.372733 -0.152191 0
       vertex 0.372733 -0.152191 0.1
    endloop
  endfacet
  facet normal 0.751817 -0.659372 0
    outer loop
       vertex 0.372733 -0.152191 0.1
       vertex 0.351171 -0.176776 0.1
       vertex 0.351171 -0.176776 0
    endloop
  endfacet
  facet normal 0.831476 -0.555561 0
    outer loop
       vertex 0.372733 -0.152191 0
       vertex 0.390901 -0.125 0
       vertex 0.390901 -0.125 0.1
    endloop
  endfacet
  facet normal 0.831476 -0.555561 0
    outer loop
       vertex 0.390901 -0.125 0.1
       vertex 0.372733 -0.152191 0.1
       vertex 0.372733 -0.152191 0
    endloop
  endfacet
  facet normal 0.896866 -0.442302 0
    outer loop
       vertex 0.390901 -0.125 0
       vertex 0.405365 -0.095671 0
       vertex 0.405365 -0.095671 0.1
    endloop
  endfacet
  facet normal 0.896866 -0.442302 0
    outer loop
       vertex 0.405365 -0.095671 0.1
       vertex 0.390901 -0.125 0.1
       vertex 0.390901 -0.125 0
    endloop
  endfacet
  facet normal 0.946935 -0.321425 0
    outer loop
       vertex 0.405365 -0.095671 0
       vertex 0.415876 -0.064705 0
       vertex 0.415876 -0.064705 0.1
    endloop
  endfacet
  facet normal 0.946935 -0.321425 0
    outer loop
       vertex 0.415876 -0.064705 0.1
       vertex 0.405365 -0.095671 0.1
       vertex 0.405365 -0.095671 0
    endloop
  endfacet
  facet normal 0.980784 -0.195096 0
    outer loop
       vertex 0.415876 -0.064705 0
       vertex 0.422256 -0.0326315 0
       vertex 0.422256 -0.0326315 0.1
    endloop
  endfacet
  facet normal 0.980784 -0.195096 0
    outer loop
       vertex 0.422256 -0.0326315 0.1
       vertex 0.415876 -0.064705 0.1
       vertex 0.415876 -0.064705 0
    endloop
  endfacet
  facet normal 0.997858 -0.0654098 0
    outer loop
       vertex 0.424395 -8.32665e-17 0.1
       vertex 0.422256 -0.0326315 0.1
       vertex 0.422256 -0.0326315 0
    endloop
  endfacet
  facet normal 0.997858 -0.0654098 -1.08928e-16
    outer loop
       vertex 0.422256 -0.0326315 0
       vertex 0.424395 8.32665e-17 0
       vertex 0.424395 -8.32665e-17 0.1
    endloop
  endfacet
  facet normal 0.997858 0.0654098 0
    outer loop
       vertex 0.424395 8.32665e-17 0
       vertex 0.422256 0.0326315 0
       vertex 0.422256 0.0326315 0.1
    endloop
  endfacet
  facet normal 0.997858 0.0654098 1.08928e-16
    outer loop
       vertex 0.422256 0.0326315 0.1
       vertex 0.424395 -8.32665e-17 0.1
       vertex 0.424395 8.32665e-17 0
    endloop
  endfacet
  facet normal 0.980784 0.195096 0
    outer loop
       vertex 0.422256 0.0326315 0
       vertex 0.415876 0.064705 0
       vertex 0.415876 0.064705 0.1
    endloop
  endfacet
  facet normal 0.980784 0.195096 0
    outer loop
       vertex 0.415876 0.064705 0.1
       vertex 0.422256 0.0326315 0.1
       vertex 0.422256 0.0326315 0
    endloop
  endfacet
  facet normal 0.946935 0.321425 0
    outer loop
       vertex 0.415876 0.064705 0
       vertex 0.405365 0.095671 0
       vertex 0.405365 0.095671 0.1
    endloop
  endfacet
  facet normal 0.946935 0.321425 0
    outer loop
       vertex 0.405365 0.095671 0.1
       vertex 0.415876 0.064705 0.1
       vertex 0.415876 0.064705 0
    endloop
  endfacet
  facet normal 0.896866 0.442302 0
    outer loop
       vertex 0.405365 0.095671 0
       vertex 0.390901 0.125 0
       vertex 0.390901 0.125 0.1
    endloop
  endfacet
  facet normal 0.896866 0.442302 0
    outer loop
       vertex 0.390901 0.125 0.1
       vertex 0.405365 0.095671 0.1
       vertex 0.405365 0.095671 0
    endloop
  endfacet
  facet normal 0.831476 0.555561 0
    outer loop
       vertex 0.390901 0.125 0
       vertex 0.372733 0.152191 0
       vertex 0.372733 0.152191 0.1
    endloop
  endfacet
  facet normal 0.831476 0.555561 0
    outer loop
       vertex 0.372733 0.152191 0.1
       vertex 0.390901 0.125 0.1
       vertex 0.390901 0.125 0
    endloop
  endfacet
  facet normal 0.751817 0.659372 0
    outer loop
       vertex 0.372733 0.152191 0
       vertex 0.351171 0.176776 0
       vertex 0.351171 0.176776 0.1
    endloop
  endfacet
  facet normal 0.751817 0.659372 0
    outer loop
       vertex 0.351171 0.176776 0.1
       vertex 0.372733 0.152191 0.1
       vertex 0.372733 0.152191 0
    endloop
  endfacet
  facet normal 0.659372 0.751817 0
    outer loop
       vertex 0.351171 0.176776 0
       vertex 0.326586 0.198338 0
       vertex 0.326586 0.198338 0.1
    endloop
  endfacet
  facet normal 0.659372 0.751817 0
    outer loop
       vertex 0.326586 0.198338 0.1
       vertex 0.351171 0.176776 0.1
       vertex 0.351171 0.176776 0
    endloop
  endfacet
  facet normal 0.555561 0.831476 0
    outer loop
       vertex 0.326586 0.198338 0
       vertex 0.299395 0.216506 0
       vertex 0.299395 0.216506 0.1
    endloop
  endfacet
  facet normal 0.555561 0.831476 0
    outer loop
       vertex 0.299395 0.216506 0.1
       vertex 0.326586 0.198338 0.1
       vertex 0.326586 0.198338 0
    endloop
  endfacet
  facet normal 0.442302 0.896866 0
    outer loop
       vertex 0.299395 0.216506 0
       vertex 0.270066 0.23097 0
       vertex 0.270066 0.23097 0.1
    endloop
  endfacet
  facet normal 0.442302 0.896866 0
    outer loop
       vertex 0.270066 0.23097 0.1
       vertex 0.299395 0.216506 0.1
       vertex 0.299395 0.216506 0
    endloop
  endfacet
  facet normal 0.321425 0.946935 0
    outer loop
       vertex 0.270066 0.23097 0
       vertex 0.2391 0.241481 0
       vertex 0.2391 0.241481 0.1
    endloop
  endfacet
  facet normal 0.321425 0.946935 0
    outer loop
       vertex 0.2391 0.241481 0.1
       vertex 0.270066 0.23097 0.1
       vertex 0.270066 0.23097 0
    endloop
  endfacet
  facet normal 0.195096 0.980784 0
    outer loop
       vertex 0.2391 0.241481 0
       vertex 0.207026 0.247861 0
       vertex 0.207026 0.247861 0.1
    endloop
  endfacet
  facet normal 0.195096 0.980784 0
    outer loop
       vertex 0.207026 0.247861 0.1
       vertex 0.2391 0.241481 0.1
       vertex 0.2391 0.241481 0
    endloop
  endfacet
  facet normal 0.0654098 0.997858 0
    outer loop
       vertex 0.174395 0.25 0.1
       vertex 0.207026 0.247861 0.1
       vertex 0.207026 0.247861 0
    endloop
  endfacet
  facet normal 0.0654098 0.997858 -1.0893e-16
    outer loop
       vertex 0.207026 0.247861 0
       vertex 0.174395 0.25 0
       vertex 0.174395 0.25 0.1
    endloop
  endfacet
  facet normal -0.0654098 0.997858 0
    outer loop
       vertex 0.174395 0.25 0
       vertex 0.141763 0.247861 0
       vertex 0.141763 0.247861 0.1
    endloop
  endfacet
  facet normal -0.0654098 0.997858 1.0893e-16
    outer loop
       vertex 0.141763 0.247861 0.1
       vertex 0.174395 0.25 0.1
       vertex 0.174395 0.25 0
    endloop
  endfacet
  facet normal -0.195096 0.980784 0
    outer loop
       vertex 0.141763 0.247861 0
       vertex 0.10969 0.241481 0
       vertex 0.10969 0.241481 0.1
    endloop
  endfacet
  facet normal -0.195096 0.980784 0
    outer loop
       vertex 0.10969 0.241481 0.1
       vertex 0.141763 0.247861 0.1
       vertex 0.141763 0.247861 0
    endloop
  endfacet
  facet normal -0.321425 0.946935 0
    outer loop
       vertex 0.10969 0.241481 0
       vertex 0.0787239 0.23097 0
       vertex 0.0787239 0.23097 0.1
    endloop
  endfacet
  facet normal -0.321425 0.946935 0
    outer loop
       vertex 0.0787239 0.23097 0.1
       vertex 0.10969 0.241481 0.1
       vertex 0.10969 0.241481 0
    endloop
  endfacet
  facet normal -0.442302 0.896866 0
    outer loop
       vertex 0.0787239 0.23097 0
       vertex 0.0493949 0.216506 0
       vertex 0.0493949 0.216506 0.1
    endloop
  endfacet
  facet normal -0.442302 0.896866 0
    outer loop
       vertex 0.0493949 0.216506 0.1
       vertex 0.0787239 0.23097 0.1
       vertex 0.0787239 0.23097 0
    endloop
  endfacet
  facet normal -0.555561 0.831476 0
    outer loop
       vertex 0.0493949 0.216506 0
       vertex 0.0222039 0.198338 0
       vertex 0.0222039 0.198338 0.1
    endloop
  endfacet
  facet normal -0.555561 0.831476 0
    outer loop
       vertex 0.0222039 0.198338 0.1
       vertex 0.0493949 0.216506 0.1
       vertex 0.0493949 0.216506 0
    endloop
  endfacet
  facet normal -0.659372 0.751817 0
    outer loop
       vertex 0.0222039 0.198338 0
       vertex -0.00238112 0.176776 0
       vertex -0.00238112 0.176776 0.1
    endloop
  endfacet
  facet normal -0.659372 0.751817 0
    outer loop
       vertex -0.00238112 0.176776 0.1
       vertex 0.0222039 0.198338 0.1
       vertex 0.0222039 0.198338 0
    endloop
  endfacet
  facet normal -0.751817 0.659372 0
    outer loop
       vertex -0.00238112 0.176776 0
       vertex -0.0239431 0.152191 0
       vertex -0.0239431 0.152191 0.1
    endloop
  endfacet
  facet normal -0.751817 0.659372 0
    outer loop
       vertex -0.0239431 0.152191 0.1
       vertex -0.00238112 0.176776 0.1
       vertex -0.00238112 0.176776 0
    endloop
  endfacet
  facet normal -0.831476 0.555561 0
    outer loop
       vertex -0.0239431 0.152191 0
       vertex -0.0421111 0.125 0
       vertex -0.0421111 0.125 0.1
    endloop
  endfacet
  facet normal -0.831476 0.555561 0
    outer loop
       vertex -0.0421111 0.125 0.1
       vertex -0.0239431 0.152191 0.1
       vertex -0.0239431 0.152191 0
    endloop
  endfacet
  facet normal -0.896866 0.442302 0
    outer loop
       vertex -0.0421111 0.125 0
       vertex -0.0565751 0.095671 0
       vertex -0.0565751 0.095671 0.1
    endloop
  endfacet
  facet normal -0.896866 0.442302 0
    outer loop
       vertex -0.0565751 0.095671 0.1
       vertex -0.0421111 0.125 0.1
       vertex -0.0421111 0.125 0
    endloop
  endfacet
  facet normal -0.946935 0.321425 0
    outer loop
       vertex -0.0565751 0.095671 0
       vertex -0.0670861 0.064705 0
       vertex -0.0670861 0.064705 0.1
    endloop
  endfacet
  facet normal -0.946935 0.321425 0
    outer loop
       vertex -0.0670861 0.064705 0.1
       vertex -0.0565751 0.095671 0.1
       vertex -0.0565751 0.095671 0
    endloop
  endfacet
  facet normal -0.980784 0.195096 0
    outer loop
       vertex -0.0670861 0.064705 0
       vertex -0.0734661 0.0326315 0
       vertex -0.0734661 0.0326315 0.1
    endloop
  endfacet
  facet normal -0.980784 0.195096 0
    outer loop
       vertex -0.0734661 0.0326315 0.1
       vertex -0.0670861 0.064705 0.1
       vertex -0.0670861 0.064705 0
    endloop
  endfacet
  facet normal -0.997858 0.0654098 0
    outer loop
       vertex -0.0756051 8.32665e-17 0.1
       vertex -0.0734661 0.0326315 0.1
       vertex -0.0734661 0.0326315 0
    endloop
  endfacet
  facet normal -0.997858 0.0654098 -1.08928e-16
    outer loop
       vertex -0.0734661 0.0326315 0
       vertex -0.0756051 -8.32665e-17 0
       vertex -0.0756051 8.32665e-17 0.1
    endloop
  endfacet
  facet normal -0.997858 -0.0654098 0
    outer loop
       vertex -0.0756051 -8.32665e-17 0
       vertex -0.0734661 -0.0326315 0
       vertex -0.0734661 -0.0326315 0.1
    endloop
  endfacet
  facet normal -0.997858 -0.0654098 1.08928e-16
    outer loop
       vertex -0.0734661 -0.0326315 0.1
       vertex -0.0756051 8.32665e-17 0.1
       vertex -0.0756051 -8.32665e-17 0
    endloop
  endfacet
  facet normal -0.980784 -0.195096 0
    outer loop
       vertex -0.0734661 -0.0326315 0
       vertex -0.0670861 -0.064705 0
       vertex -0.0670861 -0.064705 0.1
    endloop
  endfacet
  facet normal -0.980784 -0.195096 0
    outer loop
       vertex -0.0670861 -0.064705 0.1
       vertex -0.0734661 -0.0326315 0.1
       vertex -0.0734661 -0.0326315 0
    endloop
  endfacet
  facet normal -0.946935 -0.321425 0
    outer loop
       vertex -0.0670861 -0.064705 0
       vertex -0.0565751 -0.095671 0
       vertex -0.0565751 -0.095671 0.1
    endloop
  endfacet
  facet normal -0.946935 -0.321425 0
    outer loop
       vertex -0.0565751 -0.095671 0.1
       vertex -0.0670861 -0.064705 0.1
       vertex -0.0670861 -0.064705 0
    endloop
  endfacet
  facet normal -0.896866 -0.442302 0
    outer loop
       vertex -0.0565751 -0.095671 0
       vertex -0.0421111 -0.125 0
       vertex -0.0421111 -0.125 0.1
    endloop
  endfacet
  facet normal -0.896866 -0.442302 0
    outer loop
       vertex -0.0421111 -0.125 0.1
       vertex -0.0565751 -0.095671 0.1
       vertex -0.0565751 -0.095671 0
    endloop
  endfacet
  facet normal -0.831476 -0.555561 0
    outer loop
       vertex -0.0421111 -0.125 0
       vertex -0.0239431 -0.152191 0
       vertex -0.0239431 -0.152191 0.1
    endloop
  endfacet
  facet normal -0.831476 -0.555561 0
    outer loop
       vertex -0.0239431 -0.152191 0.1
       vertex -0.0421111 -0.125 0.1
       vertex -0.0421111 -0.125 0
    endloop
  endfacet
  facet normal -0.751817 -0.659372 0
    outer loop
       vertex -0.0239431 -0.152191 0
       vertex -0.00238112 -0.176776 0
       vertex -0.00238112 -0.176776 0.1
    endloop
  endfacet
  facet normal -0.751817 -0.659372 0
    outer loop
       vertex -0.00238112 -0.176776 0.1
       vertex -0.0239431 -0.152191 0.1
       vertex -0.0239431 -0.152191 0
    endloop
  endfacet
  facet normal 0.659372 -0.751817 0
    outer loop
       vertex 0.351171 -0.176776 0
       vertex 0.351171 -0.176776 0.1
       vertex 0.326586 -0.198338 0.1
    endloop
  endfacet
  facet normal 0.659372 -0.751817 0
    outer loop
       vertex 0.326586 -0.198338 0.1
       vertex 0.326586 -0.198338 0
       vertex 0.351171 -0.176776 0
    endloop
  endfacet
  facet normal 0.555561 -0.831476 0
    outer loop
       vertex 0.326586 -0.198338 0
       vertex 0.326586 -0.198338 0.1
       vertex 0.299395 -0.216506 0.1
    endloop
  endfacet
  facet normal 0.555561 -0.831476 0
    outer loop
       vertex 0.299395 -0.216506 0.1
       vertex 0.299395 -0.216506 0
       vertex 0.326586 -0.198338 0
    endloop
  endfacet
  facet normal 0.442302 -0.896866 0
    outer loop
       vertex 0.299395 -0.216506 0
       vertex 0.299395 -0.216506 0.1
       vertex 0.270066 -0.23097 0.1
    endloop
  endfacet
  facet normal 0.442302 -0.896866 0
    outer loop
       vertex 0.270066 -0.23097 0.1
       vertex 0.270066 -0.23097 0
       vertex 0.299395 -0.216506 0
    endloop
  endfacet
  facet normal 0.321425 -0.946935 0
    outer loop
       vertex 0.270066 -0.23097 0
       vertex 0.270066 -0.23097 0.1
       vertex 0.2391 -0.241481 0.1
    endloop
  endfacet
  facet normal 0.321425 -0.946935 0
    outer loop
       vertex 0.2391 -0.241481 0.1
       vertex 0.2391 -0.241481 0
       vertex 0.270066 -0.23097 0
    endloop
  endfacet
  facet normal 0.195096 -0.980784 0
    outer loop
       vertex 0.2391 -0.241481 0
       vertex 0.2391 -0.241481 0.1
       vertex 0.207026 -0.247861 0.1
    endloop
  endfacet
  facet normal 0.195096 -0.980784 0
    outer loop
       vertex 0.207026 -0.247861 0.1
       vertex 0.207026 -0.247861 0
       vertex 0.2391 -0.241481 0
    endloop
  endfacet
  facet normal 0.0654098 -0.997858 0
    outer loop
       vertex 0.174395 -0.25 0
       vertex 0.207026 -0.247861 0
       vertex 0.207026 -0.247861 0.1
    endloop
  endfacet
  facet normal 0.0654098 -0.997858 1.0893e-16
    outer loop
       vertex 0.207026 -0.247861 0.1
       vertex 0.174395 -0.25 0.1
       vertex 0.174395 -0.25 0
    endloop
  endfacet
  facet normal -0.0654098 -0.997858 0
    outer loop
       vertex 0.174395 -0.25 0.1
       vertex 0.141763 -0.247861 0.1
       vertex 0.141763 -0.247861 0
    endloop
  endfacet
  facet normal -0.0654098 -0.997858 -1.0893e-16
    outer loop
       vertex 0.141763 -0.247861 0
       vertex 0.174395 -0.25 0
       vertex 0.174395 -0.25 0.1
    endloop
  endfacet
  facet normal -0.195096 -0.980784 0
    outer loop
       vertex 0.141763 -0.247861 0
       vertex 0.141763 -0.247861 0.1
       vertex 0.10969 -0.241481 0.1
    endloop
  endfacet
  facet normal -0.195096 -0.980784 -0
    outer loop
       vertex 0.10969 -0.241481 0.1
       vertex 0.10969 -0.241481 0
       vertex 0.141763 -0.247861 0
    endloop
  endfacet
  facet normal -0.321425 -0.946935 0
    outer loop
       vertex 0.10969 -0.241481 0
       vertex 0.10969 -0.241481 0.1
       vertex 0.0787239 -0.23097 0.1
    endloop
  endfacet
  facet normal -0.321425 -0.946935 -0
    outer loop
       vertex 0.0787239 -0.23097 0.1
       vertex 0.0787239 -0.23097 0
       vertex 0.10969 -0.241481 0
    endloop
  endfacet
  facet normal -0.442302 -0.896866 0
    outer loop
       vertex 0.0787239 -0.23097 0
       vertex 0.0787239 -0.23097 0.1
       vertex 0.0493949 -0.216506 0.1
    endloop
  endfacet
  facet normal -0.442302 -0.896866 -0
    outer loop
       vertex 0.0493949 -0.216506 0.1
       vertex 0.0493949 -0.216506 0
       vertex 0.0787239 -0.23097 0
    endloop
  endfacet
  facet normal -0.555561 -0.831476 0
    outer loop
       vertex 0.0493949 -0.216506 0
       vertex 0.0493949 -0.216506 0.1
       vertex 0.0222039 -0.198338 0.1
    endloop
  endfacet
  facet normal -0.555561 -0.831476 -0
    outer loop
       vertex 0.0222039 -0.198338 0.1
       vertex 0.0222039 -0.198338 0
       vertex 0.0493949 -0.216506 0
    endloop
  endfacet
  facet normal -0.659372 -0.751817 0
    outer loop
       vertex 0.0222039 -0.198338 0
       vertex 0.0222039 -0.198338 0.1
       vertex -0.00238112 -0.176776 0.1
    endloop
  endfacet
  facet normal -0.659372 -0.751817 -0
    outer loop
       vertex -0.00238112 -0.176776 0.1
       vertex -0.00238112 -0.176776 0
       vertex 0.0222039 -0.198338 0
    endloop
  endfacet
endsolid cylinder
