solid cylinder
  facet normal 0.751817 -0.659372 0
    outer loop
       vertex 0.190711 -0.176776 0
       vertex 0.212273 -0.152191 0
       vertex 0.212273 -0.152191 0.1
    endloop
  endfacet
  facet normal 0.751817 -0.659372 0
    outer loop
       vertex 0.212273 -0.152191 0.1
       vertex 0.190711 -0.176776 0.1
       vertex 0.190711 -0.176776 0
    endloop
  endfacet
  facet normal 0.831476 -0.555561 0
    outer loop
       vertex 0.212273 -0.152191 0
       vertex 0.230441 -0.125 0
       vertex 0.230441 -0.125 0.1
    endloop
  endfacet
  facet normal 0.831476 -0.555561 0
    outer loop
       vertex 0.230441 -0.125 0.1
       vertex 0.212273 -0.152191 0.1
       vertex 0.212273 -0.152191 0
    endloop
  endfacet
  facet normal 0.896866 -0.442302 0
    outer loop
       vertex 0.230441 -0.125 0
       vertex 0.244905 -0.095671 0
       vertex 0.244905 -0.095671 0.1
    endloop
  endfacet
  facet normal 0.896866 -0.442302 0
    outer loop
       vertex 0.244905 -0.095671 0.1
       vertex 0.230441 -0.125 0.1
       vertex 0.230441 -0.125 0
    endloop
  endfacet
  facet normal 0.946935 -0.321425 0
    outer loop
       vertex 0.244905 -0.095671 0
       vertex 0.255416 -0.064705 0
       vertex 0.255416 -0.064705 0.1
    endloop
  endfacet
  facet normal 0.946935 -0.321425 0
    outer loop
       vertex 0.255416 -0.064705 0.1
       vertex 0.244905 -0.095671 0.1
       vertex 0.244905 -0.095671 0
    endloop
  endfacet
  facet normal 0.980784 -0.195096 0
    outer loop
       vertex 0.255416 -0.064705 0
       vertex 0.261796 -0.0326315 0
       vertex 0.261796 -0.0326315 0.1
    endloop
  endfacet
  facet normal 0.980784 -0.195096 0
    outer loop
       vertex 0.261796 -0.0326315 0.1
       vertex 0.255416 -0.064705 0.1
       vertex 0.255416 -0.064705 0
    endloop
  endfacet
  facet normal 0.997858 -0.0654098 0
    outer loop
       vertex 0.263935 -8.32665e-17 0.1
       vertex 0.261796 -0.0326315 0.1
       vertex 0.261796 -0.0326315 0
    endloop
  endfacet
  facet normal 0.997858 -0.0654098 -1.08928e-16
    outer loop
       vertex 0.261796 -0.0326315 0
       vertex 0.263935 8.32665e-17 0
       vertex 0.263935 -8.32665e-17 0.1
    endloop
  endfacet
  facet normal 0.997858 0.0654098 0
    outer loop
       vertex 0.263935 8.32665e-17 0
       vertex 0.261796 0.0326315 0
       vertex 0.261796 0.0326315 0.1
    endloop
  endfacet
  facet normal 0.997858 0.0654098 1.08928e-16
    outer loop
       vertex 0.261796 0.0326315 0.1
       vertex 0.263935 -8.32665e-17 0.1
       vertex 0.263935 8.32665e-17 0
    endloop
  endfacet
  facet normal 0.980784 0.195096 0
    outer loop
       vertex 0.261796 0.0326315 0
       vertex 0.255416 0.064705 0
       vertex 0.255416 0.064705 0.1
    endloop
  endfacet
  facet normal 0.980784 0.195096 0
    outer loop
       vertex 0.255416 0.064705 0.1
       vertex 0.261796 0.0326315 0.1
       vertex 0.261796 0.0326315 0
    endloop
  endfacet
  facet normal 0.946935 0.321425 0
    outer loop
       vertex 0.255416 0.064705 0
       vertex 0.244905 0.095671 0
       vertex 0.244905 0.095671 0.1
    endloop
  endfacet
  facet normal 0.946935 0.321425 0
    outer loop
       vertex 0.244905 0.095671 0.1
       vertex 0.255416 0.064705 0.1
       vertex 0.255416 0.064705 0
    endloop
  endfacet
  facet normal 0.896866 0.442302 0
    outer loop
       vertex 0.244905 0.095671 0
       vertex 0.230441 0.125 0
       vertex 0.230441 0.125 0.1
    endloop
  endfacet
  facet normal 0.896866 0.442302 0
    outer loop
       vertex 0.230441 0.125 0.1
       vertex 0.244905 0.095671 0.1
       vertex 0.244905 0.095671 0
    endloop
  endfacet
  facet normal 0.831476 0.555561 0
    outer loop
       vertex 0.230441 0.125 0
       vertex 0.212273 0.152191 0
       vertex 0.212273 0.152191 0.1
    endloop
  endfacet
  facet normal 0.831476 0.555561 0
    outer loop
       vertex 0.212273 0.152191 0.1
       vertex 0.230441 0.125 0.1
       vertex 0.230441 0.125 0
    endloop
  endfacet
  facet normal 0.751817 0.659372 0
    outer loop
       vertex 0.212273 0.152191 0
       vertex 0.190711 0.176776 0
       vertex 0.190711 0.176776 0.1
    endloop
  endfacet
  facet normal 0.751817 0.659372 0
    outer loop
       vertex 0.190711 0.176776 0.1
       vertex 0.212273 0.152191 0.1
       vertex 0.212273 0.152191 0
    endloop
  endfacet
  facet normal 0.659372 0.751817 0
    outer loop
       vertex 0.190711 0.176776 0
       vertex 0.166126 0.198338 0
       vertex 0.166126 0.198338 0.1
    endloop
  endfacet
  facet normal 0.659372 0.751817 0
    outer loop
       vertex 0.166126 0.198338 0.1
       vertex 0.190711 0.176776 0.1
       vertex 0.190711 0.176776 0
    endloop
  endfacet
  facet normal 0.555561 0.831476 0
    outer loop
       vertex 0.166126 0.198338 0
       vertex 0.138935 0.216506 0
       vertex 0.138935 0.216506 0.1
    endloop
  endfacet
  facet normal 0.555561 0.831476 0
    outer loop
       vertex 0.138935 0.216506 0.1
       vertex 0.166126 0.198338 0.1
       vertex 0.166126 0.198338 0
    endloop
  endfacet
  facet normal 0.442302 0.896866 0
    outer loop
       vertex 0.138935 0.216506 0
       vertex 0.109606 0.23097 0
       vertex 0.109606 0.23097 0.1
    endloop
  endfacet
  facet normal 0.442302 0.896866 0
    outer loop
       vertex 0.109606 0.23097 0.1
       vertex 0.138935 0.216506 0.1
       vertex 0.138935 0.216506 0
    endloop
  endfacet
  facet normal 0.321425 0.946935 0
    outer loop
       vertex 0.109606 0.23097 0
       vertex 0.0786402 0.241481 0
       vertex 0.0786402 0.241481 0.1
    endloop
  endfacet
  facet normal 0.321425 0.946935 0
    outer loop
       vertex 0.0786402 0.241481 0.1
       vertex 0.109606 0.23097 0.1
       vertex 0.109606 0.23097 0
    endloop
  endfacet
  facet normal 0.195096 0.980784 0
    outer loop
       vertex 0.0786402 0.241481 0
       vertex 0.0465667 0.247861 0
       vertex 0.0465667 0.247861 0.1
    endloop
  endfacet
  facet normal 0.195096 0.980784 0
    outer loop
       vertex 0.0465667 0.247861 0.1
       vertex 0.0786402 0.241481 0.1
       vertex 0.0786402 0.241481 0
    endloop
  endfacet
  facet normal 0.0654098 0.997858 0
    outer loop
       vertex 0.0139352 0.25 0.1
       vertex 0.0465667 0.247861 0.1
       vertex 0.0465667 0.247861 0
    endloop
  endfacet
  facet normal 0.0654098 0.997858 -1.0893e-16
    outer loop
       vertex 0.0465667 0.247861 0
       vertex 0.0139352 0.25 0
       vertex 0.0139352 0.25 0.1
    endloop
  endfacet
  facet normal -0.0654098 0.997858 0
    outer loop
       vertex 0.0139352 0.25 0
       vertex -0.0186963 0.247861 0
       vertex -0.0186963 0.247861 0.1
    endloop
  endfacet
  facet normal -0.0654098 0.997858 1.0893e-16
    outer loop
       vertex -0.0186963 0.247861 0.1
       vertex 0.0139352 0.25 0.1
       vertex 0.0139352 0.25 0
    endloop
  endfacet
  facet normal -0.195096 0.980784 0
    outer loop
       vertex -0.0186963 0.247861 0
       vertex -0.0507698 0.241481 0
       vertex -0.0507698 0.241481 0.1
    endloop
  endfacet
  facet normal -0.195096 0.980784 0
    outer loop
       vertex -0.0507698 0.241481 0.1
       vertex -0.0186963 0.247861 0.1
       vertex -0.0186963 0.247861 0
    endloop
  endfacet
  facet normal -0.321425 0.946935 0
    outer loop
       vertex -0.0507698 0.241481 0
       vertex -0.0817358 0.23097 0
       vertex -0.0817358 0.23097 0.1
    endloop
  endfacet
  facet normal -0.321425 0.946935 0
    outer loop
       vertex -0.0817358 0.23097 0.1
       vertex -0.0507698 0.241481 0.1
       vertex -0.0507698 0.241481 0
    endloop
  endfacet
  facet normal -0.442302 0.896866 0
    outer loop
       vertex -0.0817358 0.23097 0
       vertex -0.111065 0.216506 0
       vertex -0.111065 0.216506 0.1
    endloop
  endfacet
  facet normal -0.442302 0.896866 0
    outer loop
       vertex -0.111065 0.216506 0.1
       vertex -0.0817358 0.23097 0.1
       vertex -0.0817358 0.23097 0
    endloop
  endfacet
  facet normal -0.555561 0.831476 0
    outer loop
       vertex -0.111065 0.216506 0
       vertex -0.138256 0.198338 0
       vertex -0.138256 0.198338 0.1
    endloop
  endfacet
  facet normal -0.555561 0.831476 0
    outer loop
       vertex -0.138256 0.198338 0.1
       vertex -0.111065 0.216506 0.1
       vertex -0.111065 0.216506 0
    endloop
  endfacet
  facet normal -0.659372 0.751817 0
    outer loop
       vertex -0.138256 0.198338 0
       vertex -0.162841 0.176776 0
       vertex -0.162841 0.176776 0.1
    endloop
  endfacet
  facet normal -0.659372 0.751817 0
    outer loop
       vertex -0.162841 0.176776 0.1
       vertex -0.138256 0.198338 0.1
       vertex -0.138256 0.198338 0
    endloop
  endfacet
  facet normal -0.751817 0.659372 0
    outer loop
       vertex -0.162841 0.176776 0
       vertex -0.184403 0.152191 0
       vertex -0.184403 0.152191 0.1
    endloop
  endfacet
  facet normal -0.751817 0.659372 0
    outer loop
       vertex -0.184403 0.152191 0.1
       vertex -0.162841 0.176776 0.1
       vertex -0.162841 0.176776 0
    endloop
  endfacet
  facet normal -0.831476 0.555561 0
    outer loop
       vertex -0.184403 0.152191 0
       vertex -0.202571 0.125 0
       vertex -0.202571 0.125 0.1
    endloop
  endfacet
  facet normal -0.831476 0.555561 0
    outer loop
       vertex -0.202571 0.125 0.1
       vertex -0.184403 0.152191 0.1
       vertex -0.184403 0.152191 0
    endloop
  endfacet
  facet normal -0.896866 0.442302 0
    outer loop
       vertex -0.202571 0.125 0
       vertex -0.217035 0.095671 0
       vertex -0.217035 0.095671 0.1
    endloop
  endfacet
  facet normal -0.896866 0.442302 0
    outer loop
       vertex -0.217035 0.095671 0.1
       vertex -0.202571 0.125 0.1
       vertex -0.202571 0.125 0
    endloop
  endfacet
  facet normal -0.946935 0.321425 0
    outer loop
       vertex -0.217035 0.095671 0
       vertex -0.227546 0.064705 0
       vertex -0.227546 0.064705 0.1
    endloop
  endfacet
  facet normal -0.946935 0.321425 0
    outer loop
       vertex -0.227546 0.064705 0.1
       vertex -0.217035 0.095671 0.1
       vertex -0.217035 0.095671 0
    endloop
  endfacet
  facet normal -0.980784 0.195096 0
    outer loop
       vertex -0.227546 0.064705 0
       vertex -0.233926 0.0326315 0
       vertex -0.233926 0.0326315 0.1
    endloop
  endfacet
  facet normal -0.980784 0.195096 0
    outer loop
       vertex -0.233926 0.0326315 0.1
       vertex -0.227546 0.064705 0.1
       vertex -0.227546 0.064705 0
    endloop
  endfacet
  facet normal -0.997858 0.0654098 0
    outer loop
       vertex -0.236065 8.32665e-17 0.1
       vertex -0.233926 0.0326315 0.1
       vertex -0.233926 0.0326315 0
    endloop
  endfacet
  facet normal -0.997858 0.0654098 -1.08928e-16
    outer loop
       vertex -0.233926 0.0326315 0
       vertex -0.236065 -8.32665e-17 0
       vertex -0.236065 8.32665e-17 0.1
    endloop
  endfacet
  facet normal -0.997858 -0.0654098 0
    outer loop
       vertex -0.236065 -8.32665e-17 0
       vertex -0.233926 -0.0326315 0
       vertex -0.233926 -0.0326315 0.1
    endloop
  endfacet
  facet normal -0.997858 -0.0654098 1.08928e-16
    outer loop
       vertex -0.233926 -0.0326315 0.1
       vertex -0.236065 8.32665e-17 0.1
       vertex -0.236065 -8.32665e-17 0
    endloop
  endfacet
  facet normal -0.980784 -0.195096 0
    outer loop
       vertex -0.233926 -0.0326315 0
       vertex -0.227546 -0.064705 0
       vertex -0.227546 -0.064705 0.1
    endloop
  endfacet
  facet normal -0.980784 -0.195096 0
    outer loop
       vertex -0.227546 -0.064705 0.1
       vertex -0.233926 -0.0326315 0.1
       vertex -0.233926 -0.0326315 0
    endloop
  endfacet
  facet normal -0.946935 -0.321425 0
    outer loop
       vertex -0.227546 -0.064705 0
       vertex -0.217035 -0.095671 0
       vertex -0.217035 -0.095671 0.1
    endloop
  endfacet
  facet normal -0.946935 -0.321425 0
    outer loop
       vertex -0.217035 -0.095671 0.1
       vertex -0.227546 -0.064705 0.1
       vertex -0.227546 -0.064705 0
    endloop
  endfacet
  facet normal -0.896866 -0.442302 0
    outer loop
       vertex -0.217035 -0.095671 0
       vertex -0.202571 -0.125 0
       vertex -0.202571 -0.125 0.1
    endloop
  endfacet
  facet normal -0.896866 -0.442302 0
    outer loop
       vertex -0.202571 -0.125 0.1
       vertex -0.217035 -0.095671 0.1
       vertex -0.217035 -0.095671 0
    endloop
  endfacet
  facet normal -0.831476 -0.555561 0
    outer loop
       vertex -0.202571 -0.125 0
       vertex -0.184403 -0.152191 0
       vertex -0.184403 -0.152191 0.1
    endloop
  endfacet
  facet normal -0.831476 -0.555561 0
    outer loop
       vertex -0.184403 -0.152191 0.1
       vertex -0.202571 -0.125 0.1
       vertex -0.202571 -0.125 0
    endloop
  endfacet
  facet normal -0.751817 -0.659372 0
    outer loop
       vertex -0.184403 -0.152191 0
       vertex -0.162841 -0.176776 0
       vertex -0.162841 -0.176776 0.1
    endloop
  endfacet
  facet normal -0.751817 -0.659372 0
    outer loop
       vertex -0.162841 -0.176776 0.1
       vertex -0.184403 -0.152191 0.1
       vertex -0.184403 -0.152191 0
    endloop
  endfacet
  facet normal 0.659372 -0.751817 0
    outer loop
       vertex 0.190711 -0.176776 0
       vertex 0.190711 -0.176776 0.1
       vertex 0.166126 -0.198338 0.1
    endloop
  endfacet
  facet normal 0.659372 -0.751817 0
    outer loop
       vertex 0.166126 -0.198338 0.1
       vertex 0.166126 -0.198338 0
       vertex 0.190711 -0.176776 0
    endloop
  endfacet
  facet normal 0.555561 -0.831476 0
    outer loop
       vertex 0.166126 -0.198338 0
       vertex 0.166126 -0.198338 0.1
       vertex 0.138935 -0.216506 0.1
    endloop
  endfacet
  facet normal 0.555561 -0.831476 0
    outer loop
       vertex 0.138935 -0.216506 0.1
       vertex 0.138935 -0.216506 0
       vertex 0.166126 -0.198338 0
    endloop
  endfacet
  facet normal 0.442302 -0.896866 0
    outer loop
       vertex 0.138935 -0.216506 0
       vertex 0.138935 -0.216506 0.1
       vertex 0.109606 -0.23097 0.1
    endloop
  endfacet
  facet normal 0.442302 -0.896866 0
    outer loop
       vertex 0.109606 -0.23097 0.1
       vertex 0.109606 -0.23097 0
       vertex 0.138935 -0.216506 0
    endloop
  endfacet
  facet normal 0.321425 -0.946935 0
    outer loop
       vertex 0.109606 -0.23097 0
       vertex 0.109606 -0.23097 0.1
       vertex 0.0786402 -0.241481 0.1
    endloop
  endfacet
  facet normal 0.321425 -0.946935 0
    outer loop
       vertex 0.0786402 -0.241481 0.1
       vertex 0.0786402 -0.241481 0
       vertex 0.109606 -0.23097 0
    endloop
  endfacet
  facet normal 0.195096 -0.980784 0
    outer loop
       vertex 0.0786402 -0.241481 0
       vertex 0.0786402 -0.241481 0.1
       vertex 0.0465667 -0.247861 0.1
    endloop
  endfacet
  facet normal 0.195096 -0.980784 0
    outer loop
       vertex 0.0465667 -0.247861 0.1
       vertex 0.0465667 -0.247861 0
       vertex 0.0786402 -0.241481 0
    endloop
  endfacet
  facet normal 0.0654098 -0.997858 0
    outer loop
       vertex 0.0139352 -0.25 0
       vertex 0.0465667 -0.247861 0
       vertex 0.0465667 -0.247861 0.1
    endloop
  endfacet
  facet normal 0.0654098 -0.997858 1.0893e-16
    outer loop
       vertex 0.0465667 -0.247861 0.1
       vertex 0.0139352 -0.25 0.1
       vertex 0.0139352 -0.25 0
    endloop
  endfacet
  facet normal -0.0654098 -0.997858 0
    outer loop
       vertex 0.0139352 -0.25 0.1
       vertex -0.0186963 -0.247861 0.1
       vertex -0.0186963 -0.247861 0
    endloop
  endfacet
  facet normal -0.0654098 -0.997858 -1.0893e-16
    outer loop
       vertex -0.0186963 -0.247861 0
       vertex 0.0139352 -0.25 0
       vertex 0.0139352 -0.25 0.1
    endloop
  endfacet
  facet normal -0.195096 -0.980784 0
    outer loop
       vertex -0.0186963 -0.247861 0
       vertex -0.0186963 -0.247861 0.1
       vertex -0.0507698 -0.241481 0.1
    endloop
  endfacet
  facet normal -0.195096 -0.980784 -0
    outer loop
       vertex -0.0507698 -0.241481 0.1
       vertex -0.0507698 -0.241481 0
       vertex -0.0186963 -0.247861 0
    endloop
  endfacet
  facet normal -0.321425 -0.946935 0
    outer loop
       vertex -0.0507698 -0.241481 0
       vertex -0.0507698 -0.241481 0.1
       vertex -0.0817358 -0.23097 0.1
    endloop
  endfacet
  facet normal -0.321425 -0.946935 -0
    outer loop
       vertex -0.0817358 -0.23097 0.1
       vertex -0.0817358 -0.23097 0
       vertex -0.0507698 -0.241481 0
    endloop
  endfacet
  facet normal -0.442302 -0.896866 0
    outer loop
       vertex -0.0817358 -0.23097 0
       vertex -0.0817358 -0.23097 0.1
       vertex -0.111065 -0.216506 0.1
    endloop
  endfacet
  facet normal -0.442302 -0.896866 -0
    outer loop
       vertex -0.111065 -0.216506 0.1
       vertex -0.111065 -0.216506 0
       vertex -0.0817358 -0.23097 0
    endloop
  endfacet
  facet normal -0.555561 -0.831476 0
    outer loop
       vertex -0.111065 -0.216506 0
       vertex -0.111065 -0.216506 0.1
       vertex -0.138256 -0.198338 0.1
    endloop
  endfacet
  facet normal -0.555561 -0.831476 -0
    outer loop
       vertex -0.138256 -0.198338 0.1
       vertex -0.138256 -0.198338 0
       vertex -0.111065 -0.216506 0
    endloop
  endfacet
  facet normal -0.659372 -0.751817 0
    outer loop
       vertex -0.138256 -0.198338 0
       vertex -0.138256 -0.198338 0.1
       vertex -0.162841 -0.176776 0.1
    endloop
  endfacet
  facet normal -0.659372 -0.751817 -0
    outer loop
       vertex -0.162841 -0.176776 0.1
       vertex -0.162841 -0.176776 0
       vertex -0.138256 -0.198338 0
    endloop
  endfacet
endsolid cylinder
