solid cylinder
  facet normal 0.751817 -0.659372 0
    outer loop
       vertex 0.0736982 -0.176776 0
       vertex 0.0952602 -0.152191 0
       vertex 0.0952602 -0.152191 0.1
    endloop
  endfacet
  facet normal 0.751817 -0.659372 0
    outer loop
       vertex 0.0952602 -0.152191 0.1
       vertex 0.0736982 -0.176776 0.1
       vertex 0.0736982 -0.176776 0
    endloop
  endfacet
  facet normal 0.831476 -0.555561 0
    outer loop
       vertex 0.0952602 -0.152191 0
       vertex 0.113428 -0.125 0
       vertex 0.113428 -0.125 0.1
    endloop
  endfacet
  facet normal 0.831476 -0.555561 0
    outer loop
       vertex 0.113428 -0.125 0.1
       vertex 0.0952602 -0.152191 0.1
       vertex 0.0952602 -0.152191 0
    endloop
  endfacet
  facet normal 0.896866 -0.442302 0
    outer loop
       vertex 0.113428 -0.125 0
       vertex 0.127892 -0.095671 0
       vertex 0.127892 -0.095671 0.1
    endloop
  endfacet
  facet normal 0.896866 -0.442302 0
    outer loop
       vertex 0.127892 -0.095671 0.1
       vertex 0.113428 -0.125 0.1
       vertex 0.113428 -0.125 0
    endloop
  endfacet
  facet normal 0.946935 -0.321425 0
    outer loop
       vertex 0.127892 -0.095671 0
       vertex 0.138403 -0.064705 0
       vertex 0.138403 -0.064705 0.1
    endloop
  endfacet
  facet normal 0.946935 -0.321425 0
    outer loop
       vertex 0.138403 -0.064705 0.1
       vertex 0.127892 -0.095671 0.1
       vertex 0.127892 -0.095671 0
    endloop
  endfacet
  facet normal 0.980784 -0.195096 0
    outer loop
       vertex 0.138403 -0.064705 0
       vertex 0.144783 -0.0326315 0
       vertex 0.144783 -0.0326315 0.1
    endloop
  endfacet
  facet normal 0.980784 -0.195096 0
    outer loop
       vertex 0.144783 -0.0326315 0.1
       vertex 0.138403 -0.064705 0.1
       vertex 0.138403 -0.064705 0
    endloop
  endfacet
  facet normal 0.997858 -0.0654098 0
    outer loop
       vertex 0.146922 -8.32665e-17 0.1
       vertex 0.144783 -0.0326315 0.1
       vertex 0.144783 -0.0326315 0
    endloop
  endfacet
  facet normal 0.997858 -0.0654098 -1.08928e-16
    outer loop
       vertex 0.144783 -0.0326315 0
       vertex 0.146922 8.32665e-17 0
       vertex 0.146922 -8.32665e-17 0.1
    endloop
  endfacet
  facet normal 0.997858 0.0654098 0
    outer loop
       vertex 0.146922 8.32665e-17 0
       vertex 0.144783 0.0326315 0
       vertex 0.144783 0.0326315 0.1
    endloop
  endfacet
  facet normal 0.997858 0.0654098 1.08928e-16
    outer loop
       vertex 0.144783 0.0326315 0.1
       vertex 0.146922 -8.32665e-17 0.1
       vertex 0.146922 8.32665e-17 0
    endloop
  endfacet
  facet normal 0.980784 0.195096 0
    outer loop
       vertex 0.144783 0.0326315 0
       vertex 0.138403 0.064705 0
       vertex 0.138403 0.064705 0.1
    endloop
  endfacet
  facet normal 0.980784 0.195096 0
    outer loop
       vertex 0.138403 0.064705 0.1
       vertex 0.144783 0.0326315 0.1
       vertex 0.144783 0.0326315 0
    endloop
  endfacet
  facet normal 0.946935 0.321425 0
    outer loop
       vertex 0.138403 0.064705 0
       vertex 0.127892 0.095671 0
       vertex 0.127892 0.095671 0.1
    endloop
  endfacet
  facet normal 0.946935 0.321425 0
    outer loop
       vertex 0.127892 0.095671 0.1
       vertex 0.138403 0.064705 0.1
       vertex 0.138403 0.064705 0
    endloop
  endfacet
  facet normal 0.896866 0.442302 0
    outer loop
       vertex 0.127892 0.095671 0
       vertex 0.113428 0.125 0
       vertex 0.113428 0.125 0.1
    endloop
  endfacet
  facet normal 0.896866 0.442302 0
    outer loop
       vertex 0.113428 0.125 0.1
       vertex 0.127892 0.095671 0.1
       vertex 0.127892 0.095671 0
    endloop
  endfacet
  facet normal 0.831476 0.555561 0
    outer loop
       vertex 0.113428 0.125 0
       vertex 0.0952602 0.152191 0
       vertex 0.0952602 0.152191 0.1
    endloop
  endfacet
  facet normal 0.831476 0.555561 0
    outer loop
       vertex 0.0952602 0.152191 0.1
       vertex 0.113428 0.125 0.1
       vertex 0.113428 0.125 0
    endloop
  endfacet
  facet normal 0.751817 0.659372 0
    outer loop
       vertex 0.0952602 0.152191 0
       vertex 0.0736982 0.176776 0
       vertex 0.0736982 0.176776 0.1
    endloop
  endfacet
  facet normal 0.751817 0.659372 0
    outer loop
       vertex 0.0736982 0.176776 0.1
       vertex 0.0952602 0.152191 0.1
       vertex 0.0952602 0.152191 0
    endloop
  endfacet
  facet normal 0.659372 0.751817 0
    outer loop
       vertex 0.0736982 0.176776 0
       vertex 0.0491132 0.198338 0
       vertex 0.0491132 0.198338 0.1
    endloop
  endfacet
  facet normal 0.659372 0.751817 0
    outer loop
       vertex 0.0491132 0.198338 0.1
       vertex 0.0736982 0.176776 0.1
       vertex 0.0736982 0.176776 0
    endloop
  endfacet
  facet normal 0.555561 0.831476 0
    outer loop
       vertex 0.0491132 0.198338 0
       vertex 0.0219222 0.216506 0
       vertex 0.0219222 0.216506 0.1
    endloop
  endfacet
  facet normal 0.555561 0.831476 0
    outer loop
       vertex 0.0219222 0.216506 0.1
       vertex 0.0491132 0.198338 0.1
       vertex 0.0491132 0.198338 0
    endloop
  endfacet
  facet normal 0.442302 0.896866 0
    outer loop
       vertex 0.0219222 0.216506 0
       vertex -0.00740677 0.23097 0
       vertex -0.00740677 0.23097 0.1
    endloop
  endfacet
  facet normal 0.442302 0.896866 0
    outer loop
       vertex -0.00740677 0.23097 0.1
       vertex 0.0219222 0.216506 0.1
       vertex 0.0219222 0.216506 0
    endloop
  endfacet
  facet normal 0.321425 0.946935 0
    outer loop
       vertex -0.00740677 0.23097 0
       vertex -0.0383728 0.241481 0
       vertex -0.0383728 0.241481 0.1
    endloop
  endfacet
  facet normal 0.321425 0.946935 0
    outer loop
       vertex -0.0383728 0.241481 0.1
       vertex -0.00740677 0.23097 0.1
       vertex -0.00740677 0.23097 0
    endloop
  endfacet
  facet normal 0.195096 0.980784 0
    outer loop
       vertex -0.0383728 0.241481 0
       vertex -0.0704463 0.247861 0
       vertex -0.0704463 0.247861 0.1
    endloop
  endfacet
  facet normal 0.195096 0.980784 0
    outer loop
       vertex -0.0704463 0.247861 0.1
       vertex -0.0383728 0.241481 0.1
       vertex -0.0383728 0.241481 0
    endloop
  endfacet
  facet normal 0.0654098 0.997858 0
    outer loop
       vertex -0.103078 0.25 0.1
       vertex -0.0704463 0.247861 0.1
       vertex -0.0704463 0.247861 0
    endloop
  endfacet
  facet normal 0.0654098 0.997858 -1.0893e-16
    outer loop
       vertex -0.0704463 0.247861 0
       vertex -0.103078 0.25 0
       vertex -0.103078 0.25 0.1
    endloop
  endfacet
  facet normal -0.0654098 0.997858 0
    outer loop
       vertex -0.103078 0.25 0
       vertex -0.135709 0.247861 0
       vertex -0.135709 0.247861 0.1
    endloop
  endfacet
  facet normal -0.0654098 0.997858 1.0893e-16
    outer loop
       vertex -0.135709 0.247861 0.1
       vertex -0.103078 0.25 0.1
       vertex -0.103078 0.25 0
    endloop
  endfacet
  facet normal -0.195096 0.980784 0
    outer loop
       vertex -0.135709 0.247861 0
       vertex -0.167783 0.241481 0
       vertex -0.167783 0.241481 0.1
    endloop
  endfacet
  facet normal -0.195096 0.980784 0
    outer loop
       vertex -0.167783 0.241481 0.1
       vertex -0.135709 0.247861 0.1
       vertex -0.135709 0.247861 0
    endloop
  endfacet
  facet normal -0.321425 0.946935 0
    outer loop
       vertex -0.167783 0.241481 0
       vertex -0.198749 0.23097 0
       vertex -0.198749 0.23097 0.1
    endloop
  endfacet
  facet normal -0.321425 0.946935 0
    outer loop
       vertex -0.198749 0.23097 0.1
       vertex -0.167783 0.241481 0.1
       vertex -0.167783 0.241481 0
    endloop
  endfacet
  facet normal -0.442302 0.896866 0
    outer loop
       vertex -0.198749 0.23097 0
       vertex -0.228078 0.216506 0
       vertex -0.228078 0.216506 0.1
    endloop
  endfacet
  facet normal -0.442302 0.896866 0
    outer loop
       vertex -0.228078 0.216506 0.1
       vertex -0.198749 0.23097 0.1
       vertex -0.198749 0.23097 0
    endloop
  endfacet
  facet normal -0.555561 0.831476 0
    outer loop
       vertex -0.228078 0.216506 0
       vertex -0.255269 0.198338 0
       vertex -0.255269 0.198338 0.1
    endloop
  endfacet
  facet normal -0.555561 0.831476 0
    outer loop
       vertex -0.255269 0.198338 0.1
       vertex -0.228078 0.216506 0.1
       vertex -0.228078 0.216506 0
    endloop
  endfacet
  facet normal -0.659372 0.751817 0
    outer loop
       vertex -0.255269 0.198338 0
       vertex -0.279854 0.176776 0
       vertex -0.279854 0.176776 0.1
    endloop
  endfacet
  facet normal -0.659372 0.751817 0
    outer loop
       vertex -0.279854 0.176776 0.1
       vertex -0.255269 0.198338 0.1
       vertex -0.255269 0.198338 0
    endloop
  endfacet
  facet normal -0.751817 0.659372 0
    outer loop
       vertex -0.279854 0.176776 0
       vertex -0.301416 0.152191 0
       vertex -0.301416 0.152191 0.1
    endloop
  endfacet
  facet normal -0.751817 0.659372 0
    outer loop
       vertex -0.301416 0.152191 0.1
       vertex -0.279854 0.176776 0.1
       vertex -0.279854 0.176776 0
    endloop
  endfacet
  facet normal -0.831476 0.555561 0
    outer loop
       vertex -0.301416 0.152191 0
       vertex -0.319584 0.125 0
       vertex -0.319584 0.125 0.1
    endloop
  endfacet
  facet normal -0.831476 0.555561 0
    outer loop
       vertex -0.319584 0.125 0.1
       vertex -0.301416 0.152191 0.1
       vertex -0.301416 0.152191 0
    endloop
  endfacet
  facet normal -0.896866 0.442302 0
    outer loop
       vertex -0.319584 0.125 0
       vertex -0.334048 0.095671 0
       vertex -0.334048 0.095671 0.1
    endloop
  endfacet
  facet normal -0.896866 0.442302 0
    outer loop
       vertex -0.334048 0.095671 0.1
       vertex -0.319584 0.125 0.1
       vertex -0.319584 0.125 0
    endloop
  endfacet
  facet normal -0.946935 0.321425 0
    outer loop
       vertex -0.334048 0.095671 0
       vertex -0.344559 0.064705 0
       vertex -0.344559 0.064705 0.1
    endloop
  endfacet
  facet normal -0.946935 0.321425 0
    outer loop
       vertex -0.344559 0.064705 0.1
       vertex -0.334048 0.095671 0.1
       vertex -0.334048 0.095671 0
    endloop
  endfacet
  facet normal -0.980784 0.195096 0
    outer loop
       vertex -0.344559 0.064705 0
       vertex -0.350939 0.0326315 0
       vertex -0.350939 0.0326315 0.1
    endloop
  endfacet
  facet normal -0.980784 0.195096 0
    outer loop
       vertex -0.350939 0.0326315 0.1
       vertex -0.344559 0.064705 0.1
       vertex -0.344559 0.064705 0
    endloop
  endfacet
  facet normal -0.997858 0.0654098 0
    outer loop
       vertex -0.353078 8.32665e-17 0.1
       vertex -0.350939 0.0326315 0.1
       vertex -0.350939 0.0326315 0
    endloop
  endfacet
  facet normal -0.997858 0.0654098 -1.08928e-16
    outer loop
       vertex -0.350939 0.0326315 0
       vertex -0.353078 -8.32665e-17 0
       vertex -0.353078 8.32665e-17 0.1
    endloop
  endfacet
  facet normal -0.997858 -0.0654098 0
    outer loop
       vertex -0.353078 -8.32665e-17 0
       vertex -0.350939 -0.0326315 0
       vertex -0.350939 -0.0326315 0.1
    endloop
  endfacet
  facet normal -0.997858 -0.0654098 1.08928e-16
    outer loop
       vertex -0.350939 -0.0326315 0.1
       vertex -0.353078 8.32665e-17 0.1
       vertex -0.353078 -8.32665e-17 0
    endloop
  endfacet
  facet normal -0.980784 -0.195096 0
    outer loop
       vertex -0.350939 -0.0326315 0
       vertex -0.344559 -0.064705 0
       vertex -0.344559 -0.064705 0.1
    endloop
  endfacet
  facet normal -0.980784 -0.195096 0
    outer loop
       vertex -0.344559 -0.064705 0.1
       vertex -0.350939 -0.0326315 0.1
       vertex -0.350939 -0.0326315 0
    endloop
  endfacet
  facet normal -0.946935 -0.321425 0
    outer loop
       vertex -0.344559 -0.064705 0
       vertex -0.334048 -0.095671 0
       vertex -0.334048 -0.095671 0.1
    endloop
  endfacet
  facet normal -0.946935 -0.321425 0
    outer loop
       vertex -0.334048 -0.095671 0.1
       vertex -0.344559 -0.064705 0.1
       vertex -0.344559 -0.064705 0
    endloop
  endfacet
  facet normal -0.896866 -0.442302 0
    outer loop
       vertex -0.334048 -0.095671 0
       vertex -0.319584 -0.125 0
       vertex -0.319584 -0.125 0.1
    endloop
  endfacet
  facet normal -0.896866 -0.442302 0
    outer loop
       vertex -0.319584 -0.125 0.1
       vertex -0.334048 -0.095671 0.1
       vertex -0.334048 -0.095671 0
    endloop
  endfacet
  facet normal -0.831476 -0.555561 0
    outer loop
       vertex -0.319584 -0.125 0
       vertex -0.301416 -0.152191 0
       vertex -0.301416 -0.152191 0.1
    endloop
  endfacet
  facet normal -0.831476 -0.555561 0
    outer loop
       vertex -0.301416 -0.152191 0.1
       vertex -0.319584 -0.125 0.1
       vertex -0.319584 -0.125 0
    endloop
  endfacet
  facet normal -0.751817 -0.659372 0
    outer loop
       vertex -0.301416 -0.152191 0
       vertex -0.279854 -0.176776 0
       vertex -0.279854 -0.176776 0.1
    endloop
  endfacet
  facet normal -0.751817 -0.659372 0
    outer loop
       vertex -0.279854 -0.176776 0.1
       vertex -0.301416 -0.152191 0.1
       vertex -0.301416 -0.152191 0
    endloop
  endfacet
  facet normal 0.659372 -0.751817 0
    outer loop
       vertex 0.0736982 -0.176776 0
       vertex 0.0736982 -0.176776 0.1
       vertex 0.0491132 -0.198338 0.1
    endloop
  endfacet
  facet normal 0.659372 -0.751817 0
    outer loop
       vertex 0.0491132 -0.198338 0.1
       vertex 0.0491132 -0.198338 0
       vertex 0.0736982 -0.176776 0
    endloop
  endfacet
  facet normal 0.555561 -0.831476 0
    outer loop
       vertex 0.0491132 -0.198338 0
       vertex 0.0491132 -0.198338 0.1
       vertex 0.0219222 -0.216506 0.1
    endloop
  endfacet
  facet normal 0.555561 -0.831476 0
    outer loop
       vertex 0.0219222 -0.216506 0.1
       vertex 0.0219222 -0.216506 0
       vertex 0.0491132 -0.198338 0
    endloop
  endfacet
  facet normal 0.442302 -0.896866 0
    outer loop
       vertex 0.0219222 -0.216506 0
       vertex 0.0219222 -0.216506 0.1
       vertex -0.00740677 -0.23097 0.1
    endloop
  endfacet
  facet normal 0.442302 -0.896866 0
    outer loop
       vertex -0.00740677 -0.23097 0.1
       vertex -0.00740677 -0.23097 0
       vertex 0.0219222 -0.216506 0
    endloop
  endfacet
  facet normal 0.321425 -0.946935 0
    outer loop
       vertex -0.00740677 -0.23097 0
       vertex -0.00740677 -0.23097 0.1
       vertex -0.0383728 -0.241481 0.1
    endloop
  endfacet
  facet normal 0.321425 -0.946935 0
    outer loop
       vertex -0.0383728 -0.241481 0.1
       vertex -0.0383728 -0.241481 0
       vertex -0.00740677 -0.23097 0
    endloop
  endfacet
  facet normal 0.195096 -0.980784 0
    outer loop
       vertex -0.0383728 -0.241481 0
       vertex -0.0383728 -0.241481 0.1
       vertex -0.0704463 -0.247861 0.1
    endloop
  endfacet
  facet normal 0.195096 -0.980784 0
    outer loop
       vertex -0.0704463 -0.247861 0.1
       vertex -0.0704463 -0.247861 0
       vertex -0.0383728 -0.241481 0
    endloop
  endfacet
  facet normal 0.0654098 -0.997858 0
    outer loop
       vertex -0.103078 -0.25 0
       vertex -0.0704463 -0.247861 0
       vertex -0.0704463 -0.247861 0.1
    endloop
  endfacet
  facet normal 0.0654098 -0.997858 1.0893e-16
    outer loop
       vertex -0.0704463 -0.247861 0.1
       vertex -0.103078 -0.25 0.1
       vertex -0.103078 -0.25 0
    endloop
  endfacet
  facet normal -0.0654098 -0.997858 0
    outer loop
       vertex -0.103078 -0.25 0.1
       vertex -0.135709 -0.247861 0.1
       vertex -0.135709 -0.247861 0
    endloop
  endfacet
  facet normal -0.0654098 -0.997858 -1.0893e-16
    outer loop
       vertex -0.135709 -0.247861 0
       vertex -0.103078 -0.25 0
       vertex -0.103078 -0.25 0.1
    endloop
  endfacet
  facet normal -0.195096 -0.980784 0
    outer loop
       vertex -0.135709 -0.247861 0
       vertex -0.135709 -0.247861 0.1
       vertex -0.167783 -0.241481 0.1
    endloop
  endfacet
  facet normal -0.195096 -0.980784 -0
    outer loop
       vertex -0.167783 -0.241481 0.1
       vertex -0.167783 -0.241481 0
       vertex -0.135709 -0.247861 0
    endloop
  endfacet
  facet normal -0.321425 -0.946935 0
    outer loop
       vertex -0.167783 -0.241481 0
       vertex -0.167783 -0.241481 0.1
       vertex -0.198749 -0.23097 0.1
    endloop
  endfacet
  facet normal -0.321425 -0.946935 -0
    outer loop
       vertex -0.198749 -0.23097 0.1
       vertex -0.198749 -0.23097 0
       vertex -0.167783 -0.241481 0
    endloop
  endfacet
  facet normal -0.442302 -0.896866 0
    outer loop
       vertex -0.198749 -0.23097 0
       vertex -0.198749 -0.23097 0.1
       vertex -0.228078 -0.216506 0.1
    endloop
  endfacet
  facet normal -0.442302 -0.896866 -0
    outer loop
       vertex -0.228078 -0.216506 0.1
       vertex -0.228078 -0.216506 0
       vertex -0.198749 -0.23097 0
    endloop
  endfacet
  facet normal -0.555561 -0.831476 0
    outer loop
       vertex -0.228078 -0.216506 0
       vertex -0.228078 -0.216506 0.1
       vertex -0.255269 -0.198338 0.1
    endloop
  endfacet
  facet normal -0.555561 -0.831476 -0
    outer loop
       vertex -0.255269 -0.198338 0.1
       vertex -0.255269 -0.198338 0
       vertex -0.228078 -0.216506 0
    endloop
  endfacet
  facet normal -0.659372 -0.751817 0
    outer loop
       vertex -0.255269 -0.198338 0
       vertex -0.255269 -0.198338 0.1
       vertex -0.279854 -0.176776 0.1
    endloop
  endfacet
  facet normal -0.659372 -0.751817 -0
    outer loop
       vertex -0.279854 -0.176776 0.1
       vertex -0.279854 -0.176776 0
       vertex -0.255269 -0.198338 0
    endloop
  endfacet
endsolid cylinder
