solid cylinder
  facet normal 0.751817 -0.659372 0
    outer loop
       vertex 0.175045 -0.176776 0
       vertex 0.196607 -0.152191 0
       vertex 0.196607 -0.152191 0.1
    endloop
  endfacet
  facet normal 0.751817 -0.659372 0
    outer loop
       vertex 0.196607 -0.152191 0.1
       vertex 0.175045 -0.176776 0.1
       vertex 0.175045 -0.176776 0
    endloop
  endfacet
  facet normal 0.831476 -0.555561 0
    outer loop
       vertex 0.196607 -0.152191 0
       vertex 0.214775 -0.125 0
       vertex 0.214775 -0.125 0.1
    endloop
  endfacet
  facet normal 0.831476 -0.555561 0
    outer loop
       vertex 0.214775 -0.125 0.1
       vertex 0.196607 -0.152191 0.1
       vertex 0.196607 -0.152191 0
    endloop
  endfacet
  facet normal 0.896866 -0.442302 0
    outer loop
       vertex 0.214775 -0.125 0
       vertex 0.229239 -0.095671 0
       vertex 0.229239 -0.095671 0.1
    endloop
  endfacet
  facet normal 0.896866 -0.442302 0
    outer loop
       vertex 0.229239 -0.095671 0.1
       vertex 0.214775 -0.125 0.1
       vertex 0.214775 -0.125 0
    endloop
  endfacet
  facet normal 0.946935 -0.321425 0
    outer loop
       vertex 0.229239 -0.095671 0
       vertex 0.23975 -0.064705 0
       vertex 0.23975 -0.064705 0.1
    endloop
  endfacet
  facet normal 0.946935 -0.321425 0
    outer loop
       vertex 0.23975 -0.064705 0.1
       vertex 0.229239 -0.095671 0.1
       vertex 0.229239 -0.095671 0
    endloop
  endfacet
  facet normal 0.980784 -0.195096 0
    outer loop
       vertex 0.23975 -0.064705 0
       vertex 0.24613 -0.0326315 0
       vertex 0.24613 -0.0326315 0.1
    endloop
  endfacet
  facet normal 0.980784 -0.195096 0
    outer loop
       vertex 0.24613 -0.0326315 0.1
       vertex 0.23975 -0.064705 0.1
       vertex 0.23975 -0.064705 0
    endloop
  endfacet
  facet normal 0.997858 -0.0654098 0
    outer loop
       vertex 0.248269 -8.32665e-17 0.1
       vertex 0.24613 -0.0326315 0.1
       vertex 0.24613 -0.0326315 0
    endloop
  endfacet
  facet normal 0.997858 -0.0654098 -1.08928e-16
    outer loop
       vertex 0.24613 -0.0326315 0
       vertex 0.248269 8.32665e-17 0
       vertex 0.248269 -8.32665e-17 0.1
    endloop
  endfacet
  facet normal 0.997858 0.0654098 0
    outer loop
       vertex 0.248269 8.32665e-17 0
       vertex 0.24613 0.0326315 0
       vertex 0.24613 0.0326315 0.1
    endloop
  endfacet
  facet normal 0.997858 0.0654098 1.08928e-16
    outer loop
       vertex 0.24613 0.0326315 0.1
       vertex 0.248269 -8.32665e-17 0.1
       vertex 0.248269 8.32665e-17 0
    endloop
  endfacet
  facet normal 0.980784 0.195096 0
    outer loop
       vertex 0.24613 0.0326315 0
       vertex 0.23975 0.064705 0
       vertex 0.23975 0.064705 0.1
    endloop
  endfacet
  facet normal 0.980784 0.195096 0
    outer loop
       vertex 0.23975 0.064705 0.1
       vertex 0.24613 0.0326315 0.1
       vertex 0.24613 0.0326315 0
    endloop
  endfacet
  facet normal 0.946935 0.321425 0
    outer loop
       vertex 0.23975 0.064705 0
       vertex 0.229239 0.095671 0
       vertex 0.229239 0.095671 0.1
    endloop
  endfacet
  facet normal 0.946935 0.321425 0
    outer loop
       vertex 0.229239 0.095671 0.1
       vertex 0.23975 0.064705 0.1
       vertex 0.23975 0.064705 0
    endloop
  endfacet
  facet normal 0.896866 0.442302 0
    outer loop
       vertex 0.229239 0.095671 0
       vertex 0.214775 0.125 0
       vertex 0.214775 0.125 0.1
    endloop
  endfacet
  facet normal 0.896866 0.442302 0
    outer loop
       vertex 0.214775 0.125 0.1
       vertex 0.229239 0.095671 0.1
       vertex 0.229239 0.095671 0
    endloop
  endfacet
  facet normal 0.831476 0.555561 0
    outer loop
       vertex 0.214775 0.125 0
       vertex 0.196607 0.152191 0
       vertex 0.196607 0.152191 0.1
    endloop
  endfacet
  facet normal 0.831476 0.555561 0
    outer loop
       vertex 0.196607 0.152191 0.1
       vertex 0.214775 0.125 0.1
       vertex 0.214775 0.125 0
    endloop
  endfacet
  facet normal 0.751817 0.659372 0
    outer loop
       vertex 0.196607 0.152191 0
       vertex 0.175045 0.176776 0
       vertex 0.175045 0.176776 0.1
    endloop
  endfacet
  facet normal 0.751817 0.659372 0
    outer loop
       vertex 0.175045 0.176776 0.1
       vertex 0.196607 0.152191 0.1
       vertex 0.196607 0.152191 0
    endloop
  endfacet
  facet normal 0.659372 0.751817 0
    outer loop
       vertex 0.175045 0.176776 0
       vertex 0.15046 0.198338 0
       vertex 0.15046 0.198338 0.1
    endloop
  endfacet
  facet normal 0.659372 0.751817 0
    outer loop
       vertex 0.15046 0.198338 0.1
       vertex 0.175045 0.176776 0.1
       vertex 0.175045 0.176776 0
    endloop
  endfacet
  facet normal 0.555561 0.831476 0
    outer loop
       vertex 0.15046 0.198338 0
       vertex 0.123269 0.216506 0
       vertex 0.123269 0.216506 0.1
    endloop
  endfacet
  facet normal 0.555561 0.831476 0
    outer loop
       vertex 0.123269 0.216506 0.1
       vertex 0.15046 0.198338 0.1
       vertex 0.15046 0.198338 0
    endloop
  endfacet
  facet normal 0.442302 0.896866 0
    outer loop
       vertex 0.123269 0.216506 0
       vertex 0.0939401 0.23097 0
       vertex 0.0939401 0.23097 0.1
    endloop
  endfacet
  facet normal 0.442302 0.896866 0
    outer loop
       vertex 0.0939401 0.23097 0.1
       vertex 0.123269 0.216506 0.1
       vertex 0.123269 0.216506 0
    endloop
  endfacet
  facet normal 0.321425 0.946935 0
    outer loop
       vertex 0.0939401 0.23097 0
       vertex 0.0629741 0.241481 0
       vertex 0.0629741 0.241481 0.1
    endloop
  endfacet
  facet normal 0.321425 0.946935 0
    outer loop
       vertex 0.0629741 0.241481 0.1
       vertex 0.0939401 0.23097 0.1
       vertex 0.0939401 0.23097 0
    endloop
  endfacet
  facet normal 0.195096 0.980784 0
    outer loop
       vertex 0.0629741 0.241481 0
       vertex 0.0309006 0.247861 0
       vertex 0.0309006 0.247861 0.1
    endloop
  endfacet
  facet normal 0.195096 0.980784 0
    outer loop
       vertex 0.0309006 0.247861 0.1
       vertex 0.0629741 0.241481 0.1
       vertex 0.0629741 0.241481 0
    endloop
  endfacet
  facet normal 0.0654098 0.997858 0
    outer loop
       vertex -0.00173086 0.25 0.1
       vertex 0.0309006 0.247861 0.1
       vertex 0.0309006 0.247861 0
    endloop
  endfacet
  facet normal 0.0654098 0.997858 -1.0893e-16
    outer loop
       vertex 0.0309006 0.247861 0
       vertex -0.00173086 0.25 0
       vertex -0.00173086 0.25 0.1
    endloop
  endfacet
  facet normal -0.0654098 0.997858 0
    outer loop
       vertex -0.00173086 0.25 0
       vertex -0.0343624 0.247861 0
       vertex -0.0343624 0.247861 0.1
    endloop
  endfacet
  facet normal -0.0654098 0.997858 1.0893e-16
    outer loop
       vertex -0.0343624 0.247861 0.1
       vertex -0.00173086 0.25 0.1
       vertex -0.00173086 0.25 0
    endloop
  endfacet
  facet normal -0.195096 0.980784 0
    outer loop
       vertex -0.0343624 0.247861 0
       vertex -0.0664359 0.241481 0
       vertex -0.0664359 0.241481 0.1
    endloop
  endfacet
  facet normal -0.195096 0.980784 0
    outer loop
       vertex -0.0664359 0.241481 0.1
       vertex -0.0343624 0.247861 0.1
       vertex -0.0343624 0.247861 0
    endloop
  endfacet
  facet normal -0.321425 0.946935 0
    outer loop
       vertex -0.0664359 0.241481 0
       vertex -0.0974019 0.23097 0
       vertex -0.0974019 0.23097 0.1
    endloop
  endfacet
  facet normal -0.321425 0.946935 0
    outer loop
       vertex -0.0974019 0.23097 0.1
       vertex -0.0664359 0.241481 0.1
       vertex -0.0664359 0.241481 0
    endloop
  endfacet
  facet normal -0.442302 0.896866 0
    outer loop
       vertex -0.0974019 0.23097 0
       vertex -0.126731 0.216506 0
       vertex -0.126731 0.216506 0.1
    endloop
  endfacet
  facet normal -0.442302 0.896866 0
    outer loop
       vertex -0.126731 0.216506 0.1
       vertex -0.0974019 0.23097 0.1
       vertex -0.0974019 0.23097 0
    endloop
  endfacet
  facet normal -0.555561 0.831476 0
    outer loop
       vertex -0.126731 0.216506 0
       vertex -0.153922 0.198338 0
       vertex -0.153922 0.198338 0.1
    endloop
  endfacet
  facet normal -0.555561 0.831476 0
    outer loop
       vertex -0.153922 0.198338 0.1
       vertex -0.126731 0.216506 0.1
       vertex -0.126731 0.216506 0
    endloop
  endfacet
  facet normal -0.659372 0.751817 0
    outer loop
       vertex -0.153922 0.198338 0
       vertex -0.178507 0.176776 0
       vertex -0.178507 0.176776 0.1
    endloop
  endfacet
  facet normal -0.659372 0.751817 0
    outer loop
       vertex -0.178507 0.176776 0.1
       vertex -0.153922 0.198338 0.1
       vertex -0.153922 0.198338 0
    endloop
  endfacet
  facet normal -0.751817 0.659372 0
    outer loop
       vertex -0.178507 0.176776 0
       vertex -0.200069 0.152191 0
       vertex -0.200069 0.152191 0.1
    endloop
  endfacet
  facet normal -0.751817 0.659372 0
    outer loop
       vertex -0.200069 0.152191 0.1
       vertex -0.178507 0.176776 0.1
       vertex -0.178507 0.176776 0
    endloop
  endfacet
  facet normal -0.831476 0.555561 0
    outer loop
       vertex -0.200069 0.152191 0
       vertex -0.218237 0.125 0
       vertex -0.218237 0.125 0.1
    endloop
  endfacet
  facet normal -0.831476 0.555561 0
    outer loop
       vertex -0.218237 0.125 0.1
       vertex -0.200069 0.152191 0.1
       vertex -0.200069 0.152191 0
    endloop
  endfacet
  facet normal -0.896866 0.442302 0
    outer loop
       vertex -0.218237 0.125 0
       vertex -0.232701 0.095671 0
       vertex -0.232701 0.095671 0.1
    endloop
  endfacet
  facet normal -0.896866 0.442302 0
    outer loop
       vertex -0.232701 0.095671 0.1
       vertex -0.218237 0.125 0.1
       vertex -0.218237 0.125 0
    endloop
  endfacet
  facet normal -0.946935 0.321425 0
    outer loop
       vertex -0.232701 0.095671 0
       vertex -0.243212 0.064705 0
       vertex -0.243212 0.064705 0.1
    endloop
  endfacet
  facet normal -0.946935 0.321425 0
    outer loop
       vertex -0.243212 0.064705 0.1
       vertex -0.232701 0.095671 0.1
       vertex -0.232701 0.095671 0
    endloop
  endfacet
  facet normal -0.980784 0.195096 0
    outer loop
       vertex -0.243212 0.064705 0
       vertex -0.249592 0.0326315 0
       vertex -0.249592 0.0326315 0.1
    endloop
  endfacet
  facet normal -0.980784 0.195096 0
    outer loop
       vertex -0.249592 0.0326315 0.1
       vertex -0.243212 0.064705 0.1
       vertex -0.243212 0.064705 0
    endloop
  endfacet
  facet normal -0.997858 0.0654098 0
    outer loop
       vertex -0.251731 8.32665e-17 0.1
       vertex -0.249592 0.0326315 0.1
       vertex -0.249592 0.0326315 0
    endloop
  endfacet
  facet normal -0.997858 0.0654098 -1.08928e-16
    outer loop
       vertex -0.249592 0.0326315 0
       vertex -0.251731 -8.32665e-17 0
       vertex -0.251731 8.32665e-17 0.1
    endloop
  endfacet
  facet normal -0.997858 -0.0654098 0
    outer loop
       vertex -0.251731 -8.32665e-17 0
       vertex -0.249592 -0.0326315 0
       vertex -0.249592 -0.0326315 0.1
    endloop
  endfacet
  facet normal -0.997858 -0.0654098 1.08928e-16
    outer loop
       vertex -0.249592 -0.0326315 0.1
       vertex -0.251731 8.32665e-17 0.1
       vertex -0.251731 -8.32665e-17 0
    endloop
  endfacet
  facet normal -0.980784 -0.195096 0
    outer loop
       vertex -0.249592 -0.0326315 0
       vertex -0.243212 -0.064705 0
       vertex -0.243212 -0.064705 0.1
    endloop
  endfacet
  facet normal -0.980784 -0.195096 0
    outer loop
       vertex -0.243212 -0.064705 0.1
       vertex -0.249592 -0.0326315 0.1
       vertex -0.249592 -0.0326315 0
    endloop
  endfacet
  facet normal -0.946935 -0.321425 0
    outer loop
       vertex -0.243212 -0.064705 0
       vertex -0.232701 -0.095671 0
       vertex -0.232701 -0.095671 0.1
    endloop
  endfacet
  facet normal -0.946935 -0.321425 0
    outer loop
       vertex -0.232701 -0.095671 0.1
       vertex -0.243212 -0.064705 0.1
       vertex -0.243212 -0.064705 0
    endloop
  endfacet
  facet normal -0.896866 -0.442302 0
    outer loop
       vertex -0.232701 -0.095671 0
       vertex -0.218237 -0.125 0
       vertex -0.218237 -0.125 0.1
    endloop
  endfacet
  facet normal -0.896866 -0.442302 0
    outer loop
       vertex -0.218237 -0.125 0.1
       vertex -0.232701 -0.095671 0.1
       vertex -0.232701 -0.095671 0
    endloop
  endfacet
  facet normal -0.831476 -0.555561 0
    outer loop
       vertex -0.218237 -0.125 0
       vertex -0.200069 -0.152191 0
       vertex -0.200069 -0.152191 0.1
    endloop
  endfacet
  facet normal -0.831476 -0.555561 0
    outer loop
       vertex -0.200069 -0.152191 0.1
       vertex -0.218237 -0.125 0.1
       vertex -0.218237 -0.125 0
    endloop
  endfacet
  facet normal -0.751817 -0.659372 0
    outer loop
       vertex -0.200069 -0.152191 0
       vertex -0.178507 -0.176776 0
       vertex -0.178507 -0.176776 0.1
    endloop
  endfacet
  facet normal -0.751817 -0.659372 0
    outer loop
       vertex -0.178507 -0.176776 0.1
       vertex -0.200069 -0.152191 0.1
       vertex -0.200069 -0.152191 0
    endloop
  endfacet
  facet normal 0.659372 -0.751817 0
    outer loop
       vertex 0.175045 -0.176776 0
       vertex 0.175045 -0.176776 0.1
       vertex 0.15046 -0.198338 0.1
    endloop
  endfacet
  facet normal 0.659372 -0.751817 0
    outer loop
       vertex 0.15046 -0.198338 0.1
       vertex 0.15046 -0.198338 0
       vertex 0.175045 -0.176776 0
    endloop
  endfacet
  facet normal 0.555561 -0.831476 0
    outer loop
       vertex 0.15046 -0.198338 0
       vertex 0.15046 -0.198338 0.1
       vertex 0.123269 -0.216506 0.1
    endloop
  endfacet
  facet normal 0.555561 -0.831476 0
    outer loop
       vertex 0.123269 -0.216506 0.1
       vertex 0.123269 -0.216506 0
       vertex 0.15046 -0.198338 0
    endloop
  endfacet
  facet normal 0.442302 -0.896866 0
    outer loop
       vertex 0.123269 -0.216506 0
       vertex 0.123269 -0.216506 0.1
       vertex 0.0939401 -0.23097 0.1
    endloop
  endfacet
  facet normal 0.442302 -0.896866 0
    outer loop
       vertex 0.0939401 -0.23097 0.1
       vertex 0.0939401 -0.23097 0
       vertex 0.123269 -0.216506 0
    endloop
  endfacet
  facet normal 0.321425 -0.946935 0
    outer loop
       vertex 0.0939401 -0.23097 0
       vertex 0.0939401 -0.23097 0.1
       vertex 0.0629741 -0.241481 0.1
    endloop
  endfacet
  facet normal 0.321425 -0.946935 0
    outer loop
       vertex 0.0629741 -0.241481 0.1
       vertex 0.0629741 -0.241481 0
       vertex 0.0939401 -0.23097 0
    endloop
  endfacet
  facet normal 0.195096 -0.980784 0
    outer loop
       vertex 0.0629741 -0.241481 0
       vertex 0.0629741 -0.241481 0.1
       vertex 0.0309006 -0.247861 0.1
    endloop
  endfacet
  facet normal 0.195096 -0.980784 0
    outer loop
       vertex 0.0309006 -0.247861 0.1
       vertex 0.0309006 -0.247861 0
       vertex 0.0629741 -0.241481 0
    endloop
  endfacet
  facet normal 0.0654098 -0.997858 0
    outer loop
       vertex -0.00173086 -0.25 0
       vertex 0.0309006 -0.247861 0
       vertex 0.0309006 -0.247861 0.1
    endloop
  endfacet
  facet normal 0.0654098 -0.997858 1.0893e-16
    outer loop
       vertex 0.0309006 -0.247861 0.1
       vertex -0.00173086 -0.25 0.1
       vertex -0.00173086 -0.25 0
    endloop
  endfacet
  facet normal -0.0654098 -0.997858 0
    outer loop
       vertex -0.00173086 -0.25 0.1
       vertex -0.0343624 -0.247861 0.1
       vertex -0.0343624 -0.247861 0
    endloop
  endfacet
  facet normal -0.0654098 -0.997858 -1.0893e-16
    outer loop
       vertex -0.0343624 -0.247861 0
       vertex -0.00173086 -0.25 0
       vertex -0.00173086 -0.25 0.1
    endloop
  endfacet
  facet normal -0.195096 -0.980784 0
    outer loop
       vertex -0.0343624 -0.247861 0
       vertex -0.0343624 -0.247861 0.1
       vertex -0.0664359 -0.241481 0.1
    endloop
  endfacet
  facet normal -0.195096 -0.980784 -0
    outer loop
       vertex -0.0664359 -0.241481 0.1
       vertex -0.0664359 -0.241481 0
       vertex -0.0343624 -0.247861 0
    endloop
  endfacet
  facet normal -0.321425 -0.946935 0
    outer loop
       vertex -0.0664359 -0.241481 0
       vertex -0.0664359 -0.241481 0.1
       vertex -0.0974019 -0.23097 0.1
    endloop
  endfacet
  facet normal -0.321425 -0.946935 -0
    outer loop
       vertex -0.0974019 -0.23097 0.1
       vertex -0.0974019 -0.23097 0
       vertex -0.0664359 -0.241481 0
    endloop
  endfacet
  facet normal -0.442302 -0.896866 0
    outer loop
       vertex -0.0974019 -0.23097 0
       vertex -0.0974019 -0.23097 0.1
       vertex -0.126731 -0.216506 0.1
    endloop
  endfacet
  facet normal -0.442302 -0.896866 -0
    outer loop
       vertex -0.126731 -0.216506 0.1
       vertex -0.126731 -0.216506 0
       vertex -0.0974019 -0.23097 0
    endloop
  endfacet
  facet normal -0.555561 -0.831476 0
    outer loop
       vertex -0.126731 -0.216506 0
       vertex -0.126731 -0.216506 0.1
       vertex -0.153922 -0.198338 0.1
    endloop
  endfacet
  facet normal -0.555561 -0.831476 -0
    outer loop
       vertex -0.153922 -0.198338 0.1
       vertex -0.153922 -0.198338 0
       vertex -0.126731 -0.216506 0
    endloop
  endfacet
  facet normal -0.659372 -0.751817 0
    outer loop
       vertex -0.153922 -0.198338 0
       vertex -0.153922 -0.198338 0.1
       vertex -0.178507 -0.176776 0.1
    endloop
  endfacet
  facet normal -0.659372 -0.751817 -0
    outer loop
       vertex -0.178507 -0.176776 0.1
       vertex -0.178507 -0.176776 0
       vertex -0.153922 -0.198338 0
    endloop
  endfacet
endsolid cylinder
