solid cylinder
  facet normal 0.751817 -0.659372 0
    outer loop
       vertex 0.368641 -0.176776 0
       vertex 0.390203 -0.152191 0
       vertex 0.390203 -0.152191 0.1
    endloop
  endfacet
  facet normal 0.751817 -0.659372 0
    outer loop
       vertex 0.390203 -0.152191 0.1
       vertex 0.368641 -0.176776 0.1
       vertex 0.368641 -0.176776 0
    endloop
  endfacet
  facet normal 0.831476 -0.555561 0
    outer loop
       vertex 0.390203 -0.152191 0
       vertex 0.408371 -0.125 0
       vertex 0.408371 -0.125 0.1
    endloop
  endfacet
  facet normal 0.831476 -0.555561 0
    outer loop
       vertex 0.408371 -0.125 0.1
       vertex 0.390203 -0.152191 0.1
       vertex 0.390203 -0.152191 0
    endloop
  endfacet
  facet normal 0.896866 -0.442302 0
    outer loop
       vertex 0.408371 -0.125 0
       vertex 0.422835 -0.095671 0
       vertex 0.422835 -0.095671 0.1
    endloop
  endfacet
  facet normal 0.896866 -0.442302 0
    outer loop
       vertex 0.422835 -0.095671 0.1
       vertex 0.408371 -0.125 0.1
       vertex 0.408371 -0.125 0
    endloop
  endfacet
  facet normal 0.946935 -0.321425 0
    outer loop
       vertex 0.422835 -0.095671 0
       vertex 0.433346 -0.064705 0
       vertex 0.433346 -0.064705 0.1
    endloop
  endfacet
  facet normal 0.946935 -0.321425 0
    outer loop
       vertex 0.433346 -0.064705 0.1
       vertex 0.422835 -0.095671 0.1
       vertex 0.422835 -0.095671 0
    endloop
  endfacet
  facet normal 0.980784 -0.195096 0
    outer loop
       vertex 0.433346 -0.064705 0
       vertex 0.439726 -0.0326315 0
       vertex 0.439726 -0.0326315 0.1
    endloop
  endfacet
  facet normal 0.980784 -0.195096 0
    outer loop
       vertex 0.439726 -0.0326315 0.1
       vertex 0.433346 -0.064705 0.1
       vertex 0.433346 -0.064705 0
    endloop
  endfacet
  facet normal 0.997858 -0.0654098 0
    outer loop
       vertex 0.441865 -8.32665e-17 0.1
       vertex 0.439726 -0.0326315 0.1
       vertex 0.439726 -0.0326315 0
    endloop
  endfacet
  facet normal 0.997858 -0.0654098 -1.08928e-16
    outer loop
       vertex 0.439726 -0.0326315 0
       vertex 0.441865 8.32665e-17 0
       vertex 0.441865 -8.32665e-17 0.1
    endloop
  endfacet
  facet normal 0.997858 0.0654098 0
    outer loop
       vertex 0.441865 8.32665e-17 0
       vertex 0.439726 0.0326315 0
       vertex 0.439726 0.0326315 0.1
    endloop
  endfacet
  facet normal 0.997858 0.0654098 1.08928e-16
    outer loop
       vertex 0.439726 0.0326315 0.1
       vertex 0.441865 -8.32665e-17 0.1
       vertex 0.441865 8.32665e-17 0
    endloop
  endfacet
  facet normal 0.980784 0.195096 0
    outer loop
       vertex 0.439726 0.0326315 0
       vertex 0.433346 0.064705 0
       vertex 0.433346 0.064705 0.1
    endloop
  endfacet
  facet normal 0.980784 0.195096 0
    outer loop
       vertex 0.433346 0.064705 0.1
       vertex 0.439726 0.0326315 0.1
       vertex 0.439726 0.0326315 0
    endloop
  endfacet
  facet normal 0.946935 0.321425 0
    outer loop
       vertex 0.433346 0.064705 0
       vertex 0.422835 0.095671 0
       vertex 0.422835 0.095671 0.1
    endloop
  endfacet
  facet normal 0.946935 0.321425 0
    outer loop
       vertex 0.422835 0.095671 0.1
       vertex 0.433346 0.064705 0.1
       vertex 0.433346 0.064705 0
    endloop
  endfacet
  facet normal 0.896866 0.442302 0
    outer loop
       vertex 0.422835 0.095671 0
       vertex 0.408371 0.125 0
       vertex 0.408371 0.125 0.1
    endloop
  endfacet
  facet normal 0.896866 0.442302 0
    outer loop
       vertex 0.408371 0.125 0.1
       vertex 0.422835 0.095671 0.1
       vertex 0.422835 0.095671 0
    endloop
  endfacet
  facet normal 0.831476 0.555561 0
    outer loop
       vertex 0.408371 0.125 0
       vertex 0.390203 0.152191 0
       vertex 0.390203 0.152191 0.1
    endloop
  endfacet
  facet normal 0.831476 0.555561 0
    outer loop
       vertex 0.390203 0.152191 0.1
       vertex 0.408371 0.125 0.1
       vertex 0.408371 0.125 0
    endloop
  endfacet
  facet normal 0.751817 0.659372 0
    outer loop
       vertex 0.390203 0.152191 0
       vertex 0.368641 0.176776 0
       vertex 0.368641 0.176776 0.1
    endloop
  endfacet
  facet normal 0.751817 0.659372 0
    outer loop
       vertex 0.368641 0.176776 0.1
       vertex 0.390203 0.152191 0.1
       vertex 0.390203 0.152191 0
    endloop
  endfacet
  facet normal 0.659372 0.751817 0
    outer loop
       vertex 0.368641 0.176776 0
       vertex 0.344056 0.198338 0
       vertex 0.344056 0.198338 0.1
    endloop
  endfacet
  facet normal 0.659372 0.751817 0
    outer loop
       vertex 0.344056 0.198338 0.1
       vertex 0.368641 0.176776 0.1
       vertex 0.368641 0.176776 0
    endloop
  endfacet
  facet normal 0.555561 0.831476 0
    outer loop
       vertex 0.344056 0.198338 0
       vertex 0.316865 0.216506 0
       vertex 0.316865 0.216506 0.1
    endloop
  endfacet
  facet normal 0.555561 0.831476 0
    outer loop
       vertex 0.316865 0.216506 0.1
       vertex 0.344056 0.198338 0.1
       vertex 0.344056 0.198338 0
    endloop
  endfacet
  facet normal 0.442302 0.896866 0
    outer loop
       vertex 0.316865 0.216506 0
       vertex 0.287536 0.23097 0
       vertex 0.287536 0.23097 0.1
    endloop
  endfacet
  facet normal 0.442302 0.896866 0
    outer loop
       vertex 0.287536 0.23097 0.1
       vertex 0.316865 0.216506 0.1
       vertex 0.316865 0.216506 0
    endloop
  endfacet
  facet normal 0.321425 0.946935 0
    outer loop
       vertex 0.287536 0.23097 0
       vertex 0.25657 0.241481 0
       vertex 0.25657 0.241481 0.1
    endloop
  endfacet
  facet normal 0.321425 0.946935 0
    outer loop
       vertex 0.25657 0.241481 0.1
       vertex 0.287536 0.23097 0.1
       vertex 0.287536 0.23097 0
    endloop
  endfacet
  facet normal 0.195096 0.980784 0
    outer loop
       vertex 0.25657 0.241481 0
       vertex 0.224497 0.247861 0
       vertex 0.224497 0.247861 0.1
    endloop
  endfacet
  facet normal 0.195096 0.980784 0
    outer loop
       vertex 0.224497 0.247861 0.1
       vertex 0.25657 0.241481 0.1
       vertex 0.25657 0.241481 0
    endloop
  endfacet
  facet normal 0.0654098 0.997858 0
    outer loop
       vertex 0.191865 0.25 0.1
       vertex 0.224497 0.247861 0.1
       vertex 0.224497 0.247861 0
    endloop
  endfacet
  facet normal 0.0654098 0.997858 -1.0893e-16
    outer loop
       vertex 0.224497 0.247861 0
       vertex 0.191865 0.25 0
       vertex 0.191865 0.25 0.1
    endloop
  endfacet
  facet normal -0.0654098 0.997858 0
    outer loop
       vertex 0.191865 0.25 0
       vertex 0.159234 0.247861 0
       vertex 0.159234 0.247861 0.1
    endloop
  endfacet
  facet normal -0.0654098 0.997858 1.0893e-16
    outer loop
       vertex 0.159234 0.247861 0.1
       vertex 0.191865 0.25 0.1
       vertex 0.191865 0.25 0
    endloop
  endfacet
  facet normal -0.195096 0.980784 0
    outer loop
       vertex 0.159234 0.247861 0
       vertex 0.12716 0.241481 0
       vertex 0.12716 0.241481 0.1
    endloop
  endfacet
  facet normal -0.195096 0.980784 0
    outer loop
       vertex 0.12716 0.241481 0.1
       vertex 0.159234 0.247861 0.1
       vertex 0.159234 0.247861 0
    endloop
  endfacet
  facet normal -0.321425 0.946935 0
    outer loop
       vertex 0.12716 0.241481 0
       vertex 0.0961942 0.23097 0
       vertex 0.0961942 0.23097 0.1
    endloop
  endfacet
  facet normal -0.321425 0.946935 0
    outer loop
       vertex 0.0961942 0.23097 0.1
       vertex 0.12716 0.241481 0.1
       vertex 0.12716 0.241481 0
    endloop
  endfacet
  facet normal -0.442302 0.896866 0
    outer loop
       vertex 0.0961942 0.23097 0
       vertex 0.0668652 0.216506 0
       vertex 0.0668652 0.216506 0.1
    endloop
  endfacet
  facet normal -0.442302 0.896866 0
    outer loop
       vertex 0.0668652 0.216506 0.1
       vertex 0.0961942 0.23097 0.1
       vertex 0.0961942 0.23097 0
    endloop
  endfacet
  facet normal -0.555561 0.831476 0
    outer loop
       vertex 0.0668652 0.216506 0
       vertex 0.0396742 0.198338 0
       vertex 0.0396742 0.198338 0.1
    endloop
  endfacet
  facet normal -0.555561 0.831476 0
    outer loop
       vertex 0.0396742 0.198338 0.1
       vertex 0.0668652 0.216506 0.1
       vertex 0.0668652 0.216506 0
    endloop
  endfacet
  facet normal -0.659372 0.751817 0
    outer loop
       vertex 0.0396742 0.198338 0
       vertex 0.0150892 0.176776 0
       vertex 0.0150892 0.176776 0.1
    endloop
  endfacet
  facet normal -0.659372 0.751817 0
    outer loop
       vertex 0.0150892 0.176776 0.1
       vertex 0.0396742 0.198338 0.1
       vertex 0.0396742 0.198338 0
    endloop
  endfacet
  facet normal -0.751817 0.659372 0
    outer loop
       vertex 0.0150892 0.176776 0
       vertex -0.00647283 0.152191 0
       vertex -0.00647283 0.152191 0.1
    endloop
  endfacet
  facet normal -0.751817 0.659372 0
    outer loop
       vertex -0.00647283 0.152191 0.1
       vertex 0.0150892 0.176776 0.1
       vertex 0.0150892 0.176776 0
    endloop
  endfacet
  facet normal -0.831476 0.555561 0
    outer loop
       vertex -0.00647283 0.152191 0
       vertex -0.0246408 0.125 0
       vertex -0.0246408 0.125 0.1
    endloop
  endfacet
  facet normal -0.831476 0.555561 0
    outer loop
       vertex -0.0246408 0.125 0.1
       vertex -0.00647283 0.152191 0.1
       vertex -0.00647283 0.152191 0
    endloop
  endfacet
  facet normal -0.896866 0.442302 0
    outer loop
       vertex -0.0246408 0.125 0
       vertex -0.0391048 0.095671 0
       vertex -0.0391048 0.095671 0.1
    endloop
  endfacet
  facet normal -0.896866 0.442302 0
    outer loop
       vertex -0.0391048 0.095671 0.1
       vertex -0.0246408 0.125 0.1
       vertex -0.0246408 0.125 0
    endloop
  endfacet
  facet normal -0.946935 0.321425 0
    outer loop
       vertex -0.0391048 0.095671 0
       vertex -0.0496158 0.064705 0
       vertex -0.0496158 0.064705 0.1
    endloop
  endfacet
  facet normal -0.946935 0.321425 0
    outer loop
       vertex -0.0496158 0.064705 0.1
       vertex -0.0391048 0.095671 0.1
       vertex -0.0391048 0.095671 0
    endloop
  endfacet
  facet normal -0.980784 0.195096 0
    outer loop
       vertex -0.0496158 0.064705 0
       vertex -0.0559958 0.0326315 0
       vertex -0.0559958 0.0326315 0.1
    endloop
  endfacet
  facet normal -0.980784 0.195096 0
    outer loop
       vertex -0.0559958 0.0326315 0.1
       vertex -0.0496158 0.064705 0.1
       vertex -0.0496158 0.064705 0
    endloop
  endfacet
  facet normal -0.997858 0.0654098 0
    outer loop
       vertex -0.0581348 8.32665e-17 0.1
       vertex -0.0559958 0.0326315 0.1
       vertex -0.0559958 0.0326315 0
    endloop
  endfacet
  facet normal -0.997858 0.0654098 -1.08928e-16
    outer loop
       vertex -0.0559958 0.0326315 0
       vertex -0.0581348 -8.32665e-17 0
       vertex -0.0581348 8.32665e-17 0.1
    endloop
  endfacet
  facet normal -0.997858 -0.0654098 0
    outer loop
       vertex -0.0581348 -8.32665e-17 0
       vertex -0.0559958 -0.0326315 0
       vertex -0.0559958 -0.0326315 0.1
    endloop
  endfacet
  facet normal -0.997858 -0.0654098 1.08928e-16
    outer loop
       vertex -0.0559958 -0.0326315 0.1
       vertex -0.0581348 8.32665e-17 0.1
       vertex -0.0581348 -8.32665e-17 0
    endloop
  endfacet
  facet normal -0.980784 -0.195096 0
    outer loop
       vertex -0.0559958 -0.0326315 0
       vertex -0.0496158 -0.064705 0
       vertex -0.0496158 -0.064705 0.1
    endloop
  endfacet
  facet normal -0.980784 -0.195096 0
    outer loop
       vertex -0.0496158 -0.064705 0.1
       vertex -0.0559958 -0.0326315 0.1
       vertex -0.0559958 -0.0326315 0
    endloop
  endfacet
  facet normal -0.946935 -0.321425 0
    outer loop
       vertex -0.0496158 -0.064705 0
       vertex -0.0391048 -0.095671 0
       vertex -0.0391048 -0.095671 0.1
    endloop
  endfacet
  facet normal -0.946935 -0.321425 0
    outer loop
       vertex -0.0391048 -0.095671 0.1
       vertex -0.0496158 -0.064705 0.1
       vertex -0.0496158 -0.064705 0
    endloop
  endfacet
  facet normal -0.896866 -0.442302 0
    outer loop
       vertex -0.0391048 -0.095671 0
       vertex -0.0246408 -0.125 0
       vertex -0.0246408 -0.125 0.1
    endloop
  endfacet
  facet normal -0.896866 -0.442302 0
    outer loop
       vertex -0.0246408 -0.125 0.1
       vertex -0.0391048 -0.095671 0.1
       vertex -0.0391048 -0.095671 0
    endloop
  endfacet
  facet normal -0.831476 -0.555561 0
    outer loop
       vertex -0.0246408 -0.125 0
       vertex -0.00647283 -0.152191 0
       vertex -0.00647283 -0.152191 0.1
    endloop
  endfacet
  facet normal -0.831476 -0.555561 0
    outer loop
       vertex -0.00647283 -0.152191 0.1
       vertex -0.0246408 -0.125 0.1
       vertex -0.0246408 -0.125 0
    endloop
  endfacet
  facet normal -0.751817 -0.659372 0
    outer loop
       vertex -0.00647283 -0.152191 0
       vertex 0.0150892 -0.176776 0
       vertex 0.0150892 -0.176776 0.1
    endloop
  endfacet
  facet normal -0.751817 -0.659372 0
    outer loop
       vertex 0.0150892 -0.176776 0.1
       vertex -0.00647283 -0.152191 0.1
       vertex -0.00647283 -0.152191 0
    endloop
  endfacet
  facet normal 0.659372 -0.751817 0
    outer loop
       vertex 0.368641 -0.176776 0
       vertex 0.368641 -0.176776 0.1
       vertex 0.344056 -0.198338 0.1
    endloop
  endfacet
  facet normal 0.659372 -0.751817 0
    outer loop
       vertex 0.344056 -0.198338 0.1
       vertex 0.344056 -0.198338 0
       vertex 0.368641 -0.176776 0
    endloop
  endfacet
  facet normal 0.555561 -0.831476 0
    outer loop
       vertex 0.344056 -0.198338 0
       vertex 0.344056 -0.198338 0.1
       vertex 0.316865 -0.216506 0.1
    endloop
  endfacet
  facet normal 0.555561 -0.831476 0
    outer loop
       vertex 0.316865 -0.216506 0.1
       vertex 0.316865 -0.216506 0
       vertex 0.344056 -0.198338 0
    endloop
  endfacet
  facet normal 0.442302 -0.896866 0
    outer loop
       vertex 0.316865 -0.216506 0
       vertex 0.316865 -0.216506 0.1
       vertex 0.287536 -0.23097 0.1
    endloop
  endfacet
  facet normal 0.442302 -0.896866 0
    outer loop
       vertex 0.287536 -0.23097 0.1
       vertex 0.287536 -0.23097 0
       vertex 0.316865 -0.216506 0
    endloop
  endfacet
  facet normal 0.321425 -0.946935 0
    outer loop
       vertex 0.287536 -0.23097 0
       vertex 0.287536 -0.23097 0.1
       vertex 0.25657 -0.241481 0.1
    endloop
  endfacet
  facet normal 0.321425 -0.946935 0
    outer loop
       vertex 0.25657 -0.241481 0.1
       vertex 0.25657 -0.241481 0
       vertex 0.287536 -0.23097 0
    endloop
  endfacet
  facet normal 0.195096 -0.980784 0
    outer loop
       vertex 0.25657 -0.241481 0
       vertex 0.25657 -0.241481 0.1
       vertex 0.224497 -0.247861 0.1
    endloop
  endfacet
  facet normal 0.195096 -0.980784 0
    outer loop
       vertex 0.224497 -0.247861 0.1
       vertex 0.224497 -0.247861 0
       vertex 0.25657 -0.241481 0
    endloop
  endfacet
  facet normal 0.0654098 -0.997858 0
    outer loop
       vertex 0.191865 -0.25 0
       vertex 0.224497 -0.247861 0
       vertex 0.224497 -0.247861 0.1
    endloop
  endfacet
  facet normal 0.0654098 -0.997858 1.0893e-16
    outer loop
       vertex 0.224497 -0.247861 0.1
       vertex 0.191865 -0.25 0.1
       vertex 0.191865 -0.25 0
    endloop
  endfacet
  facet normal -0.0654098 -0.997858 0
    outer loop
       vertex 0.191865 -0.25 0.1
       vertex 0.159234 -0.247861 0.1
       vertex 0.159234 -0.247861 0
    endloop
  endfacet
  facet normal -0.0654098 -0.997858 -1.0893e-16
    outer loop
       vertex 0.159234 -0.247861 0
       vertex 0.191865 -0.25 0
       vertex 0.191865 -0.25 0.1
    endloop
  endfacet
  facet normal -0.195096 -0.980784 0
    outer loop
       vertex 0.159234 -0.247861 0
       vertex 0.159234 -0.247861 0.1
       vertex 0.12716 -0.241481 0.1
    endloop
  endfacet
  facet normal -0.195096 -0.980784 -0
    outer loop
       vertex 0.12716 -0.241481 0.1
       vertex 0.12716 -0.241481 0
       vertex 0.159234 -0.247861 0
    endloop
  endfacet
  facet normal -0.321425 -0.946935 0
    outer loop
       vertex 0.12716 -0.241481 0
       vertex 0.12716 -0.241481 0.1
       vertex 0.0961942 -0.23097 0.1
    endloop
  endfacet
  facet normal -0.321425 -0.946935 -0
    outer loop
       vertex 0.0961942 -0.23097 0.1
       vertex 0.0961942 -0.23097 0
       vertex 0.12716 -0.241481 0
    endloop
  endfacet
  facet normal -0.442302 -0.896866 0
    outer loop
       vertex 0.0961942 -0.23097 0
       vertex 0.0961942 -0.23097 0.1
       vertex 0.0668652 -0.216506 0.1
    endloop
  endfacet
  facet normal -0.442302 -0.896866 -0
    outer loop
       vertex 0.0668652 -0.216506 0.1
       vertex 0.0668652 -0.216506 0
       vertex 0.0961942 -0.23097 0
    endloop
  endfacet
  facet normal -0.555561 -0.831476 0
    outer loop
       vertex 0.0668652 -0.216506 0
       vertex 0.0668652 -0.216506 0.1
       vertex 0.0396742 -0.198338 0.1
    endloop
  endfacet
  facet normal -0.555561 -0.831476 -0
    outer loop
       vertex 0.0396742 -0.198338 0.1
       vertex 0.0396742 -0.198338 0
       vertex 0.0668652 -0.216506 0
    endloop
  endfacet
  facet normal -0.659372 -0.751817 0
    outer loop
       vertex 0.0396742 -0.198338 0
       vertex 0.0396742 -0.198338 0.1
       vertex 0.0150892 -0.176776 0.1
    endloop
  endfacet
  facet normal -0.659372 -0.751817 -0
    outer loop
       vertex 0.0150892 -0.176776 0.1
       vertex 0.0150892 -0.176776 0
       vertex 0.0396742 -0.198338 0
    endloop
  endfacet
endsolid cylinder
