solid cylinder
  facet normal 0.751817 -0.659372 0
    outer loop
       vertex 0.263888 -0.176776 0
       vertex 0.28545 -0.152191 0
       vertex 0.28545 -0.152191 0.1
    endloop
  endfacet
  facet normal 0.751817 -0.659372 0
    outer loop
       vertex 0.28545 -0.152191 0.1
       vertex 0.263888 -0.176776 0.1
       vertex 0.263888 -0.176776 0
    endloop
  endfacet
  facet normal 0.831476 -0.555561 0
    outer loop
       vertex 0.28545 -0.152191 0
       vertex 0.303618 -0.125 0
       vertex 0.303618 -0.125 0.1
    endloop
  endfacet
  facet normal 0.831476 -0.555561 0
    outer loop
       vertex 0.303618 -0.125 0.1
       vertex 0.28545 -0.152191 0.1
       vertex 0.28545 -0.152191 0
    endloop
  endfacet
  facet normal 0.896866 -0.442302 0
    outer loop
       vertex 0.303618 -0.125 0
       vertex 0.318082 -0.095671 0
       vertex 0.318082 -0.095671 0.1
    endloop
  endfacet
  facet normal 0.896866 -0.442302 0
    outer loop
       vertex 0.318082 -0.095671 0.1
       vertex 0.303618 -0.125 0.1
       vertex 0.303618 -0.125 0
    endloop
  endfacet
  facet normal 0.946935 -0.321425 0
    outer loop
       vertex 0.318082 -0.095671 0
       vertex 0.328593 -0.064705 0
       vertex 0.328593 -0.064705 0.1
    endloop
  endfacet
  facet normal 0.946935 -0.321425 0
    outer loop
       vertex 0.328593 -0.064705 0.1
       vertex 0.318082 -0.095671 0.1
       vertex 0.318082 -0.095671 0
    endloop
  endfacet
  facet normal 0.980784 -0.195096 0
    outer loop
       vertex 0.328593 -0.064705 0
       vertex 0.334973 -0.0326315 0
       vertex 0.334973 -0.0326315 0.1
    endloop
  endfacet
  facet normal 0.980784 -0.195096 0
    outer loop
       vertex 0.334973 -0.0326315 0.1
       vertex 0.328593 -0.064705 0.1
       vertex 0.328593 -0.064705 0
    endloop
  endfacet
  facet normal 0.997858 -0.0654098 0
    outer loop
       vertex 0.337112 -8.32665e-17 0.1
       vertex 0.334973 -0.0326315 0.1
       vertex 0.334973 -0.0326315 0
    endloop
  endfacet
  facet normal 0.997858 -0.0654098 -1.08928e-16
    outer loop
       vertex 0.334973 -0.0326315 0
       vertex 0.337112 8.32665e-17 0
       vertex 0.337112 -8.32665e-17 0.1
    endloop
  endfacet
  facet normal 0.997858 0.0654098 0
    outer loop
       vertex 0.337112 8.32665e-17 0
       vertex 0.334973 0.0326315 0
       vertex 0.334973 0.0326315 0.1
    endloop
  endfacet
  facet normal 0.997858 0.0654098 1.08928e-16
    outer loop
       vertex 0.334973 0.0326315 0.1
       vertex 0.337112 -8.32665e-17 0.1
       vertex 0.337112 8.32665e-17 0
    endloop
  endfacet
  facet normal 0.980784 0.195096 0
    outer loop
       vertex 0.334973 0.0326315 0
       vertex 0.328593 0.064705 0
       vertex 0.328593 0.064705 0.1
    endloop
  endfacet
  facet normal 0.980784 0.195096 0
    outer loop
       vertex 0.328593 0.064705 0.1
       vertex 0.334973 0.0326315 0.1
       vertex 0.334973 0.0326315 0
    endloop
  endfacet
  facet normal 0.946935 0.321425 0
    outer loop
       vertex 0.328593 0.064705 0
       vertex 0.318082 0.095671 0
       vertex 0.318082 0.095671 0.1
    endloop
  endfacet
  facet normal 0.946935 0.321425 0
    outer loop
       vertex 0.318082 0.095671 0.1
       vertex 0.328593 0.064705 0.1
       vertex 0.328593 0.064705 0
    endloop
  endfacet
  facet normal 0.896866 0.442302 0
    outer loop
       vertex 0.318082 0.095671 0
       vertex 0.303618 0.125 0
       vertex 0.303618 0.125 0.1
    endloop
  endfacet
  facet normal 0.896866 0.442302 0
    outer loop
       vertex 0.303618 0.125 0.1
       vertex 0.318082 0.095671 0.1
       vertex 0.318082 0.095671 0
    endloop
  endfacet
  facet normal 0.831476 0.555561 0
    outer loop
       vertex 0.303618 0.125 0
       vertex 0.28545 0.152191 0
       vertex 0.28545 0.152191 0.1
    endloop
  endfacet
  facet normal 0.831476 0.555561 0
    outer loop
       vertex 0.28545 0.152191 0.1
       vertex 0.303618 0.125 0.1
       vertex 0.303618 0.125 0
    endloop
  endfacet
  facet normal 0.751817 0.659372 0
    outer loop
       vertex 0.28545 0.152191 0
       vertex 0.263888 0.176776 0
       vertex 0.263888 0.176776 0.1
    endloop
  endfacet
  facet normal 0.751817 0.659372 0
    outer loop
       vertex 0.263888 0.176776 0.1
       vertex 0.28545 0.152191 0.1
       vertex 0.28545 0.152191 0
    endloop
  endfacet
  facet normal 0.659372 0.751817 0
    outer loop
       vertex 0.263888 0.176776 0
       vertex 0.239303 0.198338 0
       vertex 0.239303 0.198338 0.1
    endloop
  endfacet
  facet normal 0.659372 0.751817 0
    outer loop
       vertex 0.239303 0.198338 0.1
       vertex 0.263888 0.176776 0.1
       vertex 0.263888 0.176776 0
    endloop
  endfacet
  facet normal 0.555561 0.831476 0
    outer loop
       vertex 0.239303 0.198338 0
       vertex 0.212112 0.216506 0
       vertex 0.212112 0.216506 0.1
    endloop
  endfacet
  facet normal 0.555561 0.831476 0
    outer loop
       vertex 0.212112 0.216506 0.1
       vertex 0.239303 0.198338 0.1
       vertex 0.239303 0.198338 0
    endloop
  endfacet
  facet normal 0.442302 0.896866 0
    outer loop
       vertex 0.212112 0.216506 0
       vertex 0.182783 0.23097 0
       vertex 0.182783 0.23097 0.1
    endloop
  endfacet
  facet normal 0.442302 0.896866 0
    outer loop
       vertex 0.182783 0.23097 0.1
       vertex 0.212112 0.216506 0.1
       vertex 0.212112 0.216506 0
    endloop
  endfacet
  facet normal 0.321425 0.946935 0
    outer loop
       vertex 0.182783 0.23097 0
       vertex 0.151817 0.241481 0
       vertex 0.151817 0.241481 0.1
    endloop
  endfacet
  facet normal 0.321425 0.946935 0
    outer loop
       vertex 0.151817 0.241481 0.1
       vertex 0.182783 0.23097 0.1
       vertex 0.182783 0.23097 0
    endloop
  endfacet
  facet normal 0.195096 0.980784 0
    outer loop
       vertex 0.151817 0.241481 0
       vertex 0.119743 0.247861 0
       vertex 0.119743 0.247861 0.1
    endloop
  endfacet
  facet normal 0.195096 0.980784 0
    outer loop
       vertex 0.119743 0.247861 0.1
       vertex 0.151817 0.241481 0.1
       vertex 0.151817 0.241481 0
    endloop
  endfacet
  facet normal 0.0654098 0.997858 0
    outer loop
       vertex 0.0871119 0.25 0.1
       vertex 0.119743 0.247861 0.1
       vertex 0.119743 0.247861 0
    endloop
  endfacet
  facet normal 0.0654098 0.997858 -1.0893e-16
    outer loop
       vertex 0.119743 0.247861 0
       vertex 0.0871119 0.25 0
       vertex 0.0871119 0.25 0.1
    endloop
  endfacet
  facet normal -0.0654098 0.997858 0
    outer loop
       vertex 0.0871119 0.25 0
       vertex 0.0544804 0.247861 0
       vertex 0.0544804 0.247861 0.1
    endloop
  endfacet
  facet normal -0.0654098 0.997858 1.08928e-16
    outer loop
       vertex 0.0544804 0.247861 0.1
       vertex 0.0871119 0.25 0.1
       vertex 0.0871119 0.25 0
    endloop
  endfacet
  facet normal -0.195096 0.980784 0
    outer loop
       vertex 0.0544804 0.247861 0
       vertex 0.0224069 0.241481 0
       vertex 0.0224069 0.241481 0.1
    endloop
  endfacet
  facet normal -0.195096 0.980784 0
    outer loop
       vertex 0.0224069 0.241481 0.1
       vertex 0.0544804 0.247861 0.1
       vertex 0.0544804 0.247861 0
    endloop
  endfacet
  facet normal -0.321425 0.946935 0
    outer loop
       vertex 0.0224069 0.241481 0
       vertex -0.00855906 0.23097 0
       vertex -0.00855906 0.23097 0.1
    endloop
  endfacet
  facet normal -0.321425 0.946935 0
    outer loop
       vertex -0.00855906 0.23097 0.1
       vertex 0.0224069 0.241481 0.1
       vertex 0.0224069 0.241481 0
    endloop
  endfacet
  facet normal -0.442302 0.896866 0
    outer loop
       vertex -0.00855906 0.23097 0
       vertex -0.0378881 0.216506 0
       vertex -0.0378881 0.216506 0.1
    endloop
  endfacet
  facet normal -0.442302 0.896866 0
    outer loop
       vertex -0.0378881 0.216506 0.1
       vertex -0.00855906 0.23097 0.1
       vertex -0.00855906 0.23097 0
    endloop
  endfacet
  facet normal -0.555561 0.831476 0
    outer loop
       vertex -0.0378881 0.216506 0
       vertex -0.0650791 0.198338 0
       vertex -0.0650791 0.198338 0.1
    endloop
  endfacet
  facet normal -0.555561 0.831476 0
    outer loop
       vertex -0.0650791 0.198338 0.1
       vertex -0.0378881 0.216506 0.1
       vertex -0.0378881 0.216506 0
    endloop
  endfacet
  facet normal -0.659372 0.751817 0
    outer loop
       vertex -0.0650791 0.198338 0
       vertex -0.0896641 0.176776 0
       vertex -0.0896641 0.176776 0.1
    endloop
  endfacet
  facet normal -0.659372 0.751817 0
    outer loop
       vertex -0.0896641 0.176776 0.1
       vertex -0.0650791 0.198338 0.1
       vertex -0.0650791 0.198338 0
    endloop
  endfacet
  facet normal -0.751817 0.659372 0
    outer loop
       vertex -0.0896641 0.176776 0
       vertex -0.111226 0.152191 0
       vertex -0.111226 0.152191 0.1
    endloop
  endfacet
  facet normal -0.751817 0.659372 0
    outer loop
       vertex -0.111226 0.152191 0.1
       vertex -0.0896641 0.176776 0.1
       vertex -0.0896641 0.176776 0
    endloop
  endfacet
  facet normal -0.831476 0.555561 0
    outer loop
       vertex -0.111226 0.152191 0
       vertex -0.129394 0.125 0
       vertex -0.129394 0.125 0.1
    endloop
  endfacet
  facet normal -0.831476 0.555561 0
    outer loop
       vertex -0.129394 0.125 0.1
       vertex -0.111226 0.152191 0.1
       vertex -0.111226 0.152191 0
    endloop
  endfacet
  facet normal -0.896866 0.442302 0
    outer loop
       vertex -0.129394 0.125 0
       vertex -0.143858 0.095671 0
       vertex -0.143858 0.095671 0.1
    endloop
  endfacet
  facet normal -0.896866 0.442302 0
    outer loop
       vertex -0.143858 0.095671 0.1
       vertex -0.129394 0.125 0.1
       vertex -0.129394 0.125 0
    endloop
  endfacet
  facet normal -0.946935 0.321425 0
    outer loop
       vertex -0.143858 0.095671 0
       vertex -0.154369 0.064705 0
       vertex -0.154369 0.064705 0.1
    endloop
  endfacet
  facet normal -0.946935 0.321425 0
    outer loop
       vertex -0.154369 0.064705 0.1
       vertex -0.143858 0.095671 0.1
       vertex -0.143858 0.095671 0
    endloop
  endfacet
  facet normal -0.980784 0.195096 0
    outer loop
       vertex -0.154369 0.064705 0
       vertex -0.160749 0.0326315 0
       vertex -0.160749 0.0326315 0.1
    endloop
  endfacet
  facet normal -0.980784 0.195096 0
    outer loop
       vertex -0.160749 0.0326315 0.1
       vertex -0.154369 0.064705 0.1
       vertex -0.154369 0.064705 0
    endloop
  endfacet
  facet normal -0.997858 0.0654098 0
    outer loop
       vertex -0.162888 8.32665e-17 0.1
       vertex -0.160749 0.0326315 0.1
       vertex -0.160749 0.0326315 0
    endloop
  endfacet
  facet normal -0.997858 0.0654098 -1.08928e-16
    outer loop
       vertex -0.160749 0.0326315 0
       vertex -0.162888 -8.32665e-17 0
       vertex -0.162888 8.32665e-17 0.1
    endloop
  endfacet
  facet normal -0.997858 -0.0654098 0
    outer loop
       vertex -0.162888 -8.32665e-17 0
       vertex -0.160749 -0.0326315 0
       vertex -0.160749 -0.0326315 0.1
    endloop
  endfacet
  facet normal -0.997858 -0.0654098 1.08928e-16
    outer loop
       vertex -0.160749 -0.0326315 0.1
       vertex -0.162888 8.32665e-17 0.1
       vertex -0.162888 -8.32665e-17 0
    endloop
  endfacet
  facet normal -0.980784 -0.195096 0
    outer loop
       vertex -0.160749 -0.0326315 0
       vertex -0.154369 -0.064705 0
       vertex -0.154369 -0.064705 0.1
    endloop
  endfacet
  facet normal -0.980784 -0.195096 0
    outer loop
       vertex -0.154369 -0.064705 0.1
       vertex -0.160749 -0.0326315 0.1
       vertex -0.160749 -0.0326315 0
    endloop
  endfacet
  facet normal -0.946935 -0.321425 0
    outer loop
       vertex -0.154369 -0.064705 0
       vertex -0.143858 -0.095671 0
       vertex -0.143858 -0.095671 0.1
    endloop
  endfacet
  facet normal -0.946935 -0.321425 0
    outer loop
       vertex -0.143858 -0.095671 0.1
       vertex -0.154369 -0.064705 0.1
       vertex -0.154369 -0.064705 0
    endloop
  endfacet
  facet normal -0.896866 -0.442302 0
    outer loop
       vertex -0.143858 -0.095671 0
       vertex -0.129394 -0.125 0
       vertex -0.129394 -0.125 0.1
    endloop
  endfacet
  facet normal -0.896866 -0.442302 0
    outer loop
       vertex -0.129394 -0.125 0.1
       vertex -0.143858 -0.095671 0.1
       vertex -0.143858 -0.095671 0
    endloop
  endfacet
  facet normal -0.831476 -0.555561 0
    outer loop
       vertex -0.129394 -0.125 0
       vertex -0.111226 -0.152191 0
       vertex -0.111226 -0.152191 0.1
    endloop
  endfacet
  facet normal -0.831476 -0.555561 0
    outer loop
       vertex -0.111226 -0.152191 0.1
       vertex -0.129394 -0.125 0.1
       vertex -0.129394 -0.125 0
    endloop
  endfacet
  facet normal -0.751817 -0.659372 0
    outer loop
       vertex -0.111226 -0.152191 0
       vertex -0.0896641 -0.176776 0
       vertex -0.0896641 -0.176776 0.1
    endloop
  endfacet
  facet normal -0.751817 -0.659372 0
    outer loop
       vertex -0.0896641 -0.176776 0.1
       vertex -0.111226 -0.152191 0.1
       vertex -0.111226 -0.152191 0
    endloop
  endfacet
  facet normal 0.659372 -0.751817 0
    outer loop
       vertex 0.263888 -0.176776 0
       vertex 0.263888 -0.176776 0.1
       vertex 0.239303 -0.198338 0.1
    endloop
  endfacet
  facet normal 0.659372 -0.751817 0
    outer loop
       vertex 0.239303 -0.198338 0.1
       vertex 0.239303 -0.198338 0
       vertex 0.263888 -0.176776 0
    endloop
  endfacet
  facet normal 0.555561 -0.831476 0
    outer loop
       vertex 0.239303 -0.198338 0
       vertex 0.239303 -0.198338 0.1
       vertex 0.212112 -0.216506 0.1
    endloop
  endfacet
  facet normal 0.555561 -0.831476 0
    outer loop
       vertex 0.212112 -0.216506 0.1
       vertex 0.212112 -0.216506 0
       vertex 0.239303 -0.198338 0
    endloop
  endfacet
  facet normal 0.442302 -0.896866 0
    outer loop
       vertex 0.212112 -0.216506 0
       vertex 0.212112 -0.216506 0.1
       vertex 0.182783 -0.23097 0.1
    endloop
  endfacet
  facet normal 0.442302 -0.896866 0
    outer loop
       vertex 0.182783 -0.23097 0.1
       vertex 0.182783 -0.23097 0
       vertex 0.212112 -0.216506 0
    endloop
  endfacet
  facet normal 0.321425 -0.946935 0
    outer loop
       vertex 0.182783 -0.23097 0
       vertex 0.182783 -0.23097 0.1
       vertex 0.151817 -0.241481 0.1
    endloop
  endfacet
  facet normal 0.321425 -0.946935 0
    outer loop
       vertex 0.151817 -0.241481 0.1
       vertex 0.151817 -0.241481 0
       vertex 0.182783 -0.23097 0
    endloop
  endfacet
  facet normal 0.195096 -0.980784 0
    outer loop
       vertex 0.151817 -0.241481 0
       vertex 0.151817 -0.241481 0.1
       vertex 0.119743 -0.247861 0.1
    endloop
  endfacet
  facet normal 0.195096 -0.980784 0
    outer loop
       vertex 0.119743 -0.247861 0.1
       vertex 0.119743 -0.247861 0
       vertex 0.151817 -0.241481 0
    endloop
  endfacet
  facet normal 0.0654098 -0.997858 0
    outer loop
       vertex 0.0871119 -0.25 0
       vertex 0.119743 -0.247861 0
       vertex 0.119743 -0.247861 0.1
    endloop
  endfacet
  facet normal 0.0654098 -0.997858 1.0893e-16
    outer loop
       vertex 0.119743 -0.247861 0.1
       vertex 0.0871119 -0.25 0.1
       vertex 0.0871119 -0.25 0
    endloop
  endfacet
  facet normal -0.0654098 -0.997858 0
    outer loop
       vertex 0.0871119 -0.25 0.1
       vertex 0.0544804 -0.247861 0.1
       vertex 0.0544804 -0.247861 0
    endloop
  endfacet
  facet normal -0.0654098 -0.997858 -1.08928e-16
    outer loop
       vertex 0.0544804 -0.247861 0
       vertex 0.0871119 -0.25 0
       vertex 0.0871119 -0.25 0.1
    endloop
  endfacet
  facet normal -0.195096 -0.980784 0
    outer loop
       vertex 0.0544804 -0.247861 0
       vertex 0.0544804 -0.247861 0.1
       vertex 0.0224069 -0.241481 0.1
    endloop
  endfacet
  facet normal -0.195096 -0.980784 -0
    outer loop
       vertex 0.0224069 -0.241481 0.1
       vertex 0.0224069 -0.241481 0
       vertex 0.0544804 -0.247861 0
    endloop
  endfacet
  facet normal -0.321425 -0.946935 0
    outer loop
       vertex 0.0224069 -0.241481 0
       vertex 0.0224069 -0.241481 0.1
       vertex -0.00855906 -0.23097 0.1
    endloop
  endfacet
  facet normal -0.321425 -0.946935 -0
    outer loop
       vertex -0.00855906 -0.23097 0.1
       vertex -0.00855906 -0.23097 0
       vertex 0.0224069 -0.241481 0
    endloop
  endfacet
  facet normal -0.442302 -0.896866 0
    outer loop
       vertex -0.00855906 -0.23097 0
       vertex -0.00855906 -0.23097 0.1
       vertex -0.0378881 -0.216506 0.1
    endloop
  endfacet
  facet normal -0.442302 -0.896866 -0
    outer loop
       vertex -0.0378881 -0.216506 0.1
       vertex -0.0378881 -0.216506 0
       vertex -0.00855906 -0.23097 0
    endloop
  endfacet
  facet normal -0.555561 -0.831476 0
    outer loop
       vertex -0.0378881 -0.216506 0
       vertex -0.0378881 -0.216506 0.1
       vertex -0.0650791 -0.198338 0.1
    endloop
  endfacet
  facet normal -0.555561 -0.831476 -0
    outer loop
       vertex -0.0650791 -0.198338 0.1
       vertex -0.0650791 -0.198338 0
       vertex -0.0378881 -0.216506 0
    endloop
  endfacet
  facet normal -0.659372 -0.751817 0
    outer loop
       vertex -0.0650791 -0.198338 0
       vertex -0.0650791 -0.198338 0.1
       vertex -0.0896641 -0.176776 0.1
    endloop
  endfacet
  facet normal -0.659372 -0.751817 -0
    outer loop
       vertex -0.0896641 -0.176776 0.1
       vertex -0.0896641 -0.176776 0
       vertex -0.0650791 -0.198338 0
    endloop
  endfacet
endsolid cylinder
