solid cylinder
  facet normal 0.751817 -0.659372 0
    outer loop
       vertex 0.194533 -0.176776 0
       vertex 0.216095 -0.152191 0
       vertex 0.216095 -0.152191 0.1
    endloop
  endfacet
  facet normal 0.751817 -0.659372 0
    outer loop
       vertex 0.216095 -0.152191 0.1
       vertex 0.194533 -0.176776 0.1
       vertex 0.194533 -0.176776 0
    endloop
  endfacet
  facet normal 0.831476 -0.555561 0
    outer loop
       vertex 0.216095 -0.152191 0
       vertex 0.234263 -0.125 0
       vertex 0.234263 -0.125 0.1
    endloop
  endfacet
  facet normal 0.831476 -0.555561 0
    outer loop
       vertex 0.234263 -0.125 0.1
       vertex 0.216095 -0.152191 0.1
       vertex 0.216095 -0.152191 0
    endloop
  endfacet
  facet normal 0.896866 -0.442302 0
    outer loop
       vertex 0.234263 -0.125 0
       vertex 0.248727 -0.095671 0
       vertex 0.248727 -0.095671 0.1
    endloop
  endfacet
  facet normal 0.896866 -0.442302 0
    outer loop
       vertex 0.248727 -0.095671 0.1
       vertex 0.234263 -0.125 0.1
       vertex 0.234263 -0.125 0
    endloop
  endfacet
  facet normal 0.946935 -0.321425 0
    outer loop
       vertex 0.248727 -0.095671 0
       vertex 0.259238 -0.064705 0
       vertex 0.259238 -0.064705 0.1
    endloop
  endfacet
  facet normal 0.946935 -0.321425 0
    outer loop
       vertex 0.259238 -0.064705 0.1
       vertex 0.248727 -0.095671 0.1
       vertex 0.248727 -0.095671 0
    endloop
  endfacet
  facet normal 0.980784 -0.195096 0
    outer loop
       vertex 0.259238 -0.064705 0
       vertex 0.265618 -0.0326315 0
       vertex 0.265618 -0.0326315 0.1
    endloop
  endfacet
  facet normal 0.980784 -0.195096 0
    outer loop
       vertex 0.265618 -0.0326315 0.1
       vertex 0.259238 -0.064705 0.1
       vertex 0.259238 -0.064705 0
    endloop
  endfacet
  facet normal 0.997858 -0.0654098 0
    outer loop
       vertex 0.267757 -8.32665e-17 0.1
       vertex 0.265618 -0.0326315 0.1
       vertex 0.265618 -0.0326315 0
    endloop
  endfacet
  facet normal 0.997858 -0.0654098 -1.08928e-16
    outer loop
       vertex 0.265618 -0.0326315 0
       vertex 0.267757 8.32665e-17 0
       vertex 0.267757 -8.32665e-17 0.1
    endloop
  endfacet
  facet normal 0.997858 0.0654098 0
    outer loop
       vertex 0.267757 8.32665e-17 0
       vertex 0.265618 0.0326315 0
       vertex 0.265618 0.0326315 0.1
    endloop
  endfacet
  facet normal 0.997858 0.0654098 1.08928e-16
    outer loop
       vertex 0.265618 0.0326315 0.1
       vertex 0.267757 -8.32665e-17 0.1
       vertex 0.267757 8.32665e-17 0
    endloop
  endfacet
  facet normal 0.980784 0.195096 0
    outer loop
       vertex 0.265618 0.0326315 0
       vertex 0.259238 0.064705 0
       vertex 0.259238 0.064705 0.1
    endloop
  endfacet
  facet normal 0.980784 0.195096 0
    outer loop
       vertex 0.259238 0.064705 0.1
       vertex 0.265618 0.0326315 0.1
       vertex 0.265618 0.0326315 0
    endloop
  endfacet
  facet normal 0.946935 0.321425 0
    outer loop
       vertex 0.259238 0.064705 0
       vertex 0.248727 0.095671 0
       vertex 0.248727 0.095671 0.1
    endloop
  endfacet
  facet normal 0.946935 0.321425 0
    outer loop
       vertex 0.248727 0.095671 0.1
       vertex 0.259238 0.064705 0.1
       vertex 0.259238 0.064705 0
    endloop
  endfacet
  facet normal 0.896866 0.442302 0
    outer loop
       vertex 0.248727 0.095671 0
       vertex 0.234263 0.125 0
       vertex 0.234263 0.125 0.1
    endloop
  endfacet
  facet normal 0.896866 0.442302 0
    outer loop
       vertex 0.234263 0.125 0.1
       vertex 0.248727 0.095671 0.1
       vertex 0.248727 0.095671 0
    endloop
  endfacet
  facet normal 0.831476 0.555561 0
    outer loop
       vertex 0.234263 0.125 0
       vertex 0.216095 0.152191 0
       vertex 0.216095 0.152191 0.1
    endloop
  endfacet
  facet normal 0.831476 0.555561 0
    outer loop
       vertex 0.216095 0.152191 0.1
       vertex 0.234263 0.125 0.1
       vertex 0.234263 0.125 0
    endloop
  endfacet
  facet normal 0.751817 0.659372 0
    outer loop
       vertex 0.216095 0.152191 0
       vertex 0.194533 0.176776 0
       vertex 0.194533 0.176776 0.1
    endloop
  endfacet
  facet normal 0.751817 0.659372 0
    outer loop
       vertex 0.194533 0.176776 0.1
       vertex 0.216095 0.152191 0.1
       vertex 0.216095 0.152191 0
    endloop
  endfacet
  facet normal 0.659372 0.751817 0
    outer loop
       vertex 0.194533 0.176776 0
       vertex 0.169948 0.198338 0
       vertex 0.169948 0.198338 0.1
    endloop
  endfacet
  facet normal 0.659372 0.751817 0
    outer loop
       vertex 0.169948 0.198338 0.1
       vertex 0.194533 0.176776 0.1
       vertex 0.194533 0.176776 0
    endloop
  endfacet
  facet normal 0.555561 0.831476 0
    outer loop
       vertex 0.169948 0.198338 0
       vertex 0.142757 0.216506 0
       vertex 0.142757 0.216506 0.1
    endloop
  endfacet
  facet normal 0.555561 0.831476 0
    outer loop
       vertex 0.142757 0.216506 0.1
       vertex 0.169948 0.198338 0.1
       vertex 0.169948 0.198338 0
    endloop
  endfacet
  facet normal 0.442302 0.896866 0
    outer loop
       vertex 0.142757 0.216506 0
       vertex 0.113428 0.23097 0
       vertex 0.113428 0.23097 0.1
    endloop
  endfacet
  facet normal 0.442302 0.896866 0
    outer loop
       vertex 0.113428 0.23097 0.1
       vertex 0.142757 0.216506 0.1
       vertex 0.142757 0.216506 0
    endloop
  endfacet
  facet normal 0.321425 0.946935 0
    outer loop
       vertex 0.113428 0.23097 0
       vertex 0.0824621 0.241481 0
       vertex 0.0824621 0.241481 0.1
    endloop
  endfacet
  facet normal 0.321425 0.946935 0
    outer loop
       vertex 0.0824621 0.241481 0.1
       vertex 0.113428 0.23097 0.1
       vertex 0.113428 0.23097 0
    endloop
  endfacet
  facet normal 0.195096 0.980784 0
    outer loop
       vertex 0.0824621 0.241481 0
       vertex 0.0503886 0.247861 0
       vertex 0.0503886 0.247861 0.1
    endloop
  endfacet
  facet normal 0.195096 0.980784 0
    outer loop
       vertex 0.0503886 0.247861 0.1
       vertex 0.0824621 0.241481 0.1
       vertex 0.0824621 0.241481 0
    endloop
  endfacet
  facet normal 0.0654098 0.997858 0
    outer loop
       vertex 0.0177571 0.25 0.1
       vertex 0.0503886 0.247861 0.1
       vertex 0.0503886 0.247861 0
    endloop
  endfacet
  facet normal 0.0654098 0.997858 -1.08928e-16
    outer loop
       vertex 0.0503886 0.247861 0
       vertex 0.0177571 0.25 0
       vertex 0.0177571 0.25 0.1
    endloop
  endfacet
  facet normal -0.0654098 0.997858 0
    outer loop
       vertex 0.0177571 0.25 0
       vertex -0.0148744 0.247861 0
       vertex -0.0148744 0.247861 0.1
    endloop
  endfacet
  facet normal -0.0654098 0.997858 1.08928e-16
    outer loop
       vertex -0.0148744 0.247861 0.1
       vertex 0.0177571 0.25 0.1
       vertex 0.0177571 0.25 0
    endloop
  endfacet
  facet normal -0.195096 0.980784 0
    outer loop
       vertex -0.0148744 0.247861 0
       vertex -0.0469479 0.241481 0
       vertex -0.0469479 0.241481 0.1
    endloop
  endfacet
  facet normal -0.195096 0.980784 0
    outer loop
       vertex -0.0469479 0.241481 0.1
       vertex -0.0148744 0.247861 0.1
       vertex -0.0148744 0.247861 0
    endloop
  endfacet
  facet normal -0.321425 0.946935 0
    outer loop
       vertex -0.0469479 0.241481 0
       vertex -0.0779139 0.23097 0
       vertex -0.0779139 0.23097 0.1
    endloop
  endfacet
  facet normal -0.321425 0.946935 0
    outer loop
       vertex -0.0779139 0.23097 0.1
       vertex -0.0469479 0.241481 0.1
       vertex -0.0469479 0.241481 0
    endloop
  endfacet
  facet normal -0.442302 0.896866 0
    outer loop
       vertex -0.0779139 0.23097 0
       vertex -0.107243 0.216506 0
       vertex -0.107243 0.216506 0.1
    endloop
  endfacet
  facet normal -0.442302 0.896866 0
    outer loop
       vertex -0.107243 0.216506 0.1
       vertex -0.0779139 0.23097 0.1
       vertex -0.0779139 0.23097 0
    endloop
  endfacet
  facet normal -0.555561 0.831476 0
    outer loop
       vertex -0.107243 0.216506 0
       vertex -0.134434 0.198338 0
       vertex -0.134434 0.198338 0.1
    endloop
  endfacet
  facet normal -0.555561 0.831476 0
    outer loop
       vertex -0.134434 0.198338 0.1
       vertex -0.107243 0.216506 0.1
       vertex -0.107243 0.216506 0
    endloop
  endfacet
  facet normal -0.659372 0.751817 0
    outer loop
       vertex -0.134434 0.198338 0
       vertex -0.159019 0.176776 0
       vertex -0.159019 0.176776 0.1
    endloop
  endfacet
  facet normal -0.659372 0.751817 0
    outer loop
       vertex -0.159019 0.176776 0.1
       vertex -0.134434 0.198338 0.1
       vertex -0.134434 0.198338 0
    endloop
  endfacet
  facet normal -0.751817 0.659372 0
    outer loop
       vertex -0.159019 0.176776 0
       vertex -0.180581 0.152191 0
       vertex -0.180581 0.152191 0.1
    endloop
  endfacet
  facet normal -0.751817 0.659372 0
    outer loop
       vertex -0.180581 0.152191 0.1
       vertex -0.159019 0.176776 0.1
       vertex -0.159019 0.176776 0
    endloop
  endfacet
  facet normal -0.831476 0.555561 0
    outer loop
       vertex -0.180581 0.152191 0
       vertex -0.198749 0.125 0
       vertex -0.198749 0.125 0.1
    endloop
  endfacet
  facet normal -0.831476 0.555561 0
    outer loop
       vertex -0.198749 0.125 0.1
       vertex -0.180581 0.152191 0.1
       vertex -0.180581 0.152191 0
    endloop
  endfacet
  facet normal -0.896866 0.442302 0
    outer loop
       vertex -0.198749 0.125 0
       vertex -0.213213 0.095671 0
       vertex -0.213213 0.095671 0.1
    endloop
  endfacet
  facet normal -0.896866 0.442302 0
    outer loop
       vertex -0.213213 0.095671 0.1
       vertex -0.198749 0.125 0.1
       vertex -0.198749 0.125 0
    endloop
  endfacet
  facet normal -0.946935 0.321425 0
    outer loop
       vertex -0.213213 0.095671 0
       vertex -0.223724 0.064705 0
       vertex -0.223724 0.064705 0.1
    endloop
  endfacet
  facet normal -0.946935 0.321425 0
    outer loop
       vertex -0.223724 0.064705 0.1
       vertex -0.213213 0.095671 0.1
       vertex -0.213213 0.095671 0
    endloop
  endfacet
  facet normal -0.980784 0.195096 0
    outer loop
       vertex -0.223724 0.064705 0
       vertex -0.230104 0.0326315 0
       vertex -0.230104 0.0326315 0.1
    endloop
  endfacet
  facet normal -0.980784 0.195096 0
    outer loop
       vertex -0.230104 0.0326315 0.1
       vertex -0.223724 0.064705 0.1
       vertex -0.223724 0.064705 0
    endloop
  endfacet
  facet normal -0.997858 0.0654098 0
    outer loop
       vertex -0.232243 8.32665e-17 0.1
       vertex -0.230104 0.0326315 0.1
       vertex -0.230104 0.0326315 0
    endloop
  endfacet
  facet normal -0.997858 0.0654098 -1.08928e-16
    outer loop
       vertex -0.230104 0.0326315 0
       vertex -0.232243 -8.32665e-17 0
       vertex -0.232243 8.32665e-17 0.1
    endloop
  endfacet
  facet normal -0.997858 -0.0654098 0
    outer loop
       vertex -0.232243 -8.32665e-17 0
       vertex -0.230104 -0.0326315 0
       vertex -0.230104 -0.0326315 0.1
    endloop
  endfacet
  facet normal -0.997858 -0.0654098 1.08928e-16
    outer loop
       vertex -0.230104 -0.0326315 0.1
       vertex -0.232243 8.32665e-17 0.1
       vertex -0.232243 -8.32665e-17 0
    endloop
  endfacet
  facet normal -0.980784 -0.195096 0
    outer loop
       vertex -0.230104 -0.0326315 0
       vertex -0.223724 -0.064705 0
       vertex -0.223724 -0.064705 0.1
    endloop
  endfacet
  facet normal -0.980784 -0.195096 0
    outer loop
       vertex -0.223724 -0.064705 0.1
       vertex -0.230104 -0.0326315 0.1
       vertex -0.230104 -0.0326315 0
    endloop
  endfacet
  facet normal -0.946935 -0.321425 0
    outer loop
       vertex -0.223724 -0.064705 0
       vertex -0.213213 -0.095671 0
       vertex -0.213213 -0.095671 0.1
    endloop
  endfacet
  facet normal -0.946935 -0.321425 0
    outer loop
       vertex -0.213213 -0.095671 0.1
       vertex -0.223724 -0.064705 0.1
       vertex -0.223724 -0.064705 0
    endloop
  endfacet
  facet normal -0.896866 -0.442302 0
    outer loop
       vertex -0.213213 -0.095671 0
       vertex -0.198749 -0.125 0
       vertex -0.198749 -0.125 0.1
    endloop
  endfacet
  facet normal -0.896866 -0.442302 0
    outer loop
       vertex -0.198749 -0.125 0.1
       vertex -0.213213 -0.095671 0.1
       vertex -0.213213 -0.095671 0
    endloop
  endfacet
  facet normal -0.831476 -0.555561 0
    outer loop
       vertex -0.198749 -0.125 0
       vertex -0.180581 -0.152191 0
       vertex -0.180581 -0.152191 0.1
    endloop
  endfacet
  facet normal -0.831476 -0.555561 0
    outer loop
       vertex -0.180581 -0.152191 0.1
       vertex -0.198749 -0.125 0.1
       vertex -0.198749 -0.125 0
    endloop
  endfacet
  facet normal -0.751817 -0.659372 0
    outer loop
       vertex -0.180581 -0.152191 0
       vertex -0.159019 -0.176776 0
       vertex -0.159019 -0.176776 0.1
    endloop
  endfacet
  facet normal -0.751817 -0.659372 0
    outer loop
       vertex -0.159019 -0.176776 0.1
       vertex -0.180581 -0.152191 0.1
       vertex -0.180581 -0.152191 0
    endloop
  endfacet
  facet normal 0.659372 -0.751817 0
    outer loop
       vertex 0.194533 -0.176776 0
       vertex 0.194533 -0.176776 0.1
       vertex 0.169948 -0.198338 0.1
    endloop
  endfacet
  facet normal 0.659372 -0.751817 0
    outer loop
       vertex 0.169948 -0.198338 0.1
       vertex 0.169948 -0.198338 0
       vertex 0.194533 -0.176776 0
    endloop
  endfacet
  facet normal 0.555561 -0.831476 0
    outer loop
       vertex 0.169948 -0.198338 0
       vertex 0.169948 -0.198338 0.1
       vertex 0.142757 -0.216506 0.1
    endloop
  endfacet
  facet normal 0.555561 -0.831476 0
    outer loop
       vertex 0.142757 -0.216506 0.1
       vertex 0.142757 -0.216506 0
       vertex 0.169948 -0.198338 0
    endloop
  endfacet
  facet normal 0.442302 -0.896866 0
    outer loop
       vertex 0.142757 -0.216506 0
       vertex 0.142757 -0.216506 0.1
       vertex 0.113428 -0.23097 0.1
    endloop
  endfacet
  facet normal 0.442302 -0.896866 0
    outer loop
       vertex 0.113428 -0.23097 0.1
       vertex 0.113428 -0.23097 0
       vertex 0.142757 -0.216506 0
    endloop
  endfacet
  facet normal 0.321425 -0.946935 0
    outer loop
       vertex 0.113428 -0.23097 0
       vertex 0.113428 -0.23097 0.1
       vertex 0.0824621 -0.241481 0.1
    endloop
  endfacet
  facet normal 0.321425 -0.946935 0
    outer loop
       vertex 0.0824621 -0.241481 0.1
       vertex 0.0824621 -0.241481 0
       vertex 0.113428 -0.23097 0
    endloop
  endfacet
  facet normal 0.195096 -0.980784 0
    outer loop
       vertex 0.0824621 -0.241481 0
       vertex 0.0824621 -0.241481 0.1
       vertex 0.0503886 -0.247861 0.1
    endloop
  endfacet
  facet normal 0.195096 -0.980784 0
    outer loop
       vertex 0.0503886 -0.247861 0.1
       vertex 0.0503886 -0.247861 0
       vertex 0.0824621 -0.241481 0
    endloop
  endfacet
  facet normal 0.0654098 -0.997858 0
    outer loop
       vertex 0.0177571 -0.25 0
       vertex 0.0503886 -0.247861 0
       vertex 0.0503886 -0.247861 0.1
    endloop
  endfacet
  facet normal 0.0654098 -0.997858 1.08928e-16
    outer loop
       vertex 0.0503886 -0.247861 0.1
       vertex 0.0177571 -0.25 0.1
       vertex 0.0177571 -0.25 0
    endloop
  endfacet
  facet normal -0.0654098 -0.997858 0
    outer loop
       vertex 0.0177571 -0.25 0.1
       vertex -0.0148744 -0.247861 0.1
       vertex -0.0148744 -0.247861 0
    endloop
  endfacet
  facet normal -0.0654098 -0.997858 -1.08928e-16
    outer loop
       vertex -0.0148744 -0.247861 0
       vertex 0.0177571 -0.25 0
       vertex 0.0177571 -0.25 0.1
    endloop
  endfacet
  facet normal -0.195096 -0.980784 0
    outer loop
       vertex -0.0148744 -0.247861 0
       vertex -0.0148744 -0.247861 0.1
       vertex -0.0469479 -0.241481 0.1
    endloop
  endfacet
  facet normal -0.195096 -0.980784 -0
    outer loop
       vertex -0.0469479 -0.241481 0.1
       vertex -0.0469479 -0.241481 0
       vertex -0.0148744 -0.247861 0
    endloop
  endfacet
  facet normal -0.321425 -0.946935 0
    outer loop
       vertex -0.0469479 -0.241481 0
       vertex -0.0469479 -0.241481 0.1
       vertex -0.0779139 -0.23097 0.1
    endloop
  endfacet
  facet normal -0.321425 -0.946935 -0
    outer loop
       vertex -0.0779139 -0.23097 0.1
       vertex -0.0779139 -0.23097 0
       vertex -0.0469479 -0.241481 0
    endloop
  endfacet
  facet normal -0.442302 -0.896866 0
    outer loop
       vertex -0.0779139 -0.23097 0
       vertex -0.0779139 -0.23097 0.1
       vertex -0.107243 -0.216506 0.1
    endloop
  endfacet
  facet normal -0.442302 -0.896866 -0
    outer loop
       vertex -0.107243 -0.216506 0.1
       vertex -0.107243 -0.216506 0
       vertex -0.0779139 -0.23097 0
    endloop
  endfacet
  facet normal -0.555561 -0.831476 0
    outer loop
       vertex -0.107243 -0.216506 0
       vertex -0.107243 -0.216506 0.1
       vertex -0.134434 -0.198338 0.1
    endloop
  endfacet
  facet normal -0.555561 -0.831476 -0
    outer loop
       vertex -0.134434 -0.198338 0.1
       vertex -0.134434 -0.198338 0
       vertex -0.107243 -0.216506 0
    endloop
  endfacet
  facet normal -0.659372 -0.751817 0
    outer loop
       vertex -0.134434 -0.198338 0
       vertex -0.134434 -0.198338 0.1
       vertex -0.159019 -0.176776 0.1
    endloop
  endfacet
  facet normal -0.659372 -0.751817 -0
    outer loop
       vertex -0.159019 -0.176776 0.1
       vertex -0.159019 -0.176776 0
       vertex -0.134434 -0.198338 0
    endloop
  endfacet
endsolid cylinder
