solid cylinder
  facet normal 0.751817 -0.659372 0
    outer loop
       vertex -0.0151054 -0.176776 0
       vertex 0.00645657 -0.152191 0
       vertex 0.00645657 -0.152191 0.1
    endloop
  endfacet
  facet normal 0.751817 -0.659372 0
    outer loop
       vertex 0.00645657 -0.152191 0.1
       vertex -0.0151054 -0.176776 0.1
       vertex -0.0151054 -0.176776 0
    endloop
  endfacet
  facet normal 0.831476 -0.555561 0
    outer loop
       vertex 0.00645657 -0.152191 0
       vertex 0.0246246 -0.125 0
       vertex 0.0246246 -0.125 0.1
    endloop
  endfacet
  facet normal 0.831476 -0.555561 0
    outer loop
       vertex 0.0246246 -0.125 0.1
       vertex 0.00645657 -0.152191 0.1
       vertex 0.00645657 -0.152191 0
    endloop
  endfacet
  facet normal 0.896866 -0.442302 0
    outer loop
       vertex 0.0246246 -0.125 0
       vertex 0.0390886 -0.095671 0
       vertex 0.0390886 -0.095671 0.1
    endloop
  endfacet
  facet normal 0.896866 -0.442302 0
    outer loop
       vertex 0.0390886 -0.095671 0.1
       vertex 0.0246246 -0.125 0.1
       vertex 0.0246246 -0.125 0
    endloop
  endfacet
  facet normal 0.946935 -0.321425 0
    outer loop
       vertex 0.0390886 -0.095671 0
       vertex 0.0495996 -0.064705 0
       vertex 0.0495996 -0.064705 0.1
    endloop
  endfacet
  facet normal 0.946935 -0.321425 0
    outer loop
       vertex 0.0495996 -0.064705 0.1
       vertex 0.0390886 -0.095671 0.1
       vertex 0.0390886 -0.095671 0
    endloop
  endfacet
  facet normal 0.980784 -0.195096 0
    outer loop
       vertex 0.0495996 -0.064705 0
       vertex 0.0559796 -0.0326315 0
       vertex 0.0559796 -0.0326315 0.1
    endloop
  endfacet
  facet normal 0.980784 -0.195096 0
    outer loop
       vertex 0.0559796 -0.0326315 0.1
       vertex 0.0495996 -0.064705 0.1
       vertex 0.0495996 -0.064705 0
    endloop
  endfacet
  facet normal 0.997858 -0.0654098 0
    outer loop
       vertex 0.0581186 -8.32665e-17 0.1
       vertex 0.0559796 -0.0326315 0.1
       vertex 0.0559796 -0.0326315 0
    endloop
  endfacet
  facet normal 0.997858 -0.0654098 -1.08928e-16
    outer loop
       vertex 0.0559796 -0.0326315 0
       vertex 0.0581186 8.32665e-17 0
       vertex 0.0581186 -8.32665e-17 0.1
    endloop
  endfacet
  facet normal 0.997858 0.0654098 0
    outer loop
       vertex 0.0581186 8.32665e-17 0
       vertex 0.0559796 0.0326315 0
       vertex 0.0559796 0.0326315 0.1
    endloop
  endfacet
  facet normal 0.997858 0.0654098 1.08928e-16
    outer loop
       vertex 0.0559796 0.0326315 0.1
       vertex 0.0581186 -8.32665e-17 0.1
       vertex 0.0581186 8.32665e-17 0
    endloop
  endfacet
  facet normal 0.980784 0.195096 0
    outer loop
       vertex 0.0559796 0.0326315 0
       vertex 0.0495996 0.064705 0
       vertex 0.0495996 0.064705 0.1
    endloop
  endfacet
  facet normal 0.980784 0.195096 0
    outer loop
       vertex 0.0495996 0.064705 0.1
       vertex 0.0559796 0.0326315 0.1
       vertex 0.0559796 0.0326315 0
    endloop
  endfacet
  facet normal 0.946935 0.321425 0
    outer loop
       vertex 0.0495996 0.064705 0
       vertex 0.0390886 0.095671 0
       vertex 0.0390886 0.095671 0.1
    endloop
  endfacet
  facet normal 0.946935 0.321425 0
    outer loop
       vertex 0.0390886 0.095671 0.1
       vertex 0.0495996 0.064705 0.1
       vertex 0.0495996 0.064705 0
    endloop
  endfacet
  facet normal 0.896866 0.442302 0
    outer loop
       vertex 0.0390886 0.095671 0
       vertex 0.0246246 0.125 0
       vertex 0.0246246 0.125 0.1
    endloop
  endfacet
  facet normal 0.896866 0.442302 0
    outer loop
       vertex 0.0246246 0.125 0.1
       vertex 0.0390886 0.095671 0.1
       vertex 0.0390886 0.095671 0
    endloop
  endfacet
  facet normal 0.831476 0.555561 0
    outer loop
       vertex 0.0246246 0.125 0
       vertex 0.00645657 0.152191 0
       vertex 0.00645657 0.152191 0.1
    endloop
  endfacet
  facet normal 0.831476 0.555561 0
    outer loop
       vertex 0.00645657 0.152191 0.1
       vertex 0.0246246 0.125 0.1
       vertex 0.0246246 0.125 0
    endloop
  endfacet
  facet normal 0.751817 0.659372 0
    outer loop
       vertex 0.00645657 0.152191 0
       vertex -0.0151054 0.176776 0
       vertex -0.0151054 0.176776 0.1
    endloop
  endfacet
  facet normal 0.751817 0.659372 0
    outer loop
       vertex -0.0151054 0.176776 0.1
       vertex 0.00645657 0.152191 0.1
       vertex 0.00645657 0.152191 0
    endloop
  endfacet
  facet normal 0.659372 0.751817 0
    outer loop
       vertex -0.0151054 0.176776 0
       vertex -0.0396904 0.198338 0
       vertex -0.0396904 0.198338 0.1
    endloop
  endfacet
  facet normal 0.659372 0.751817 0
    outer loop
       vertex -0.0396904 0.198338 0.1
       vertex -0.0151054 0.176776 0.1
       vertex -0.0151054 0.176776 0
    endloop
  endfacet
  facet normal 0.555561 0.831476 0
    outer loop
       vertex -0.0396904 0.198338 0
       vertex -0.0668814 0.216506 0
       vertex -0.0668814 0.216506 0.1
    endloop
  endfacet
  facet normal 0.555561 0.831476 0
    outer loop
       vertex -0.0668814 0.216506 0.1
       vertex -0.0396904 0.198338 0.1
       vertex -0.0396904 0.198338 0
    endloop
  endfacet
  facet normal 0.442302 0.896866 0
    outer loop
       vertex -0.0668814 0.216506 0
       vertex -0.0962104 0.23097 0
       vertex -0.0962104 0.23097 0.1
    endloop
  endfacet
  facet normal 0.442302 0.896866 0
    outer loop
       vertex -0.0962104 0.23097 0.1
       vertex -0.0668814 0.216506 0.1
       vertex -0.0668814 0.216506 0
    endloop
  endfacet
  facet normal 0.321425 0.946935 0
    outer loop
       vertex -0.0962104 0.23097 0
       vertex -0.127176 0.241481 0
       vertex -0.127176 0.241481 0.1
    endloop
  endfacet
  facet normal 0.321425 0.946935 0
    outer loop
       vertex -0.127176 0.241481 0.1
       vertex -0.0962104 0.23097 0.1
       vertex -0.0962104 0.23097 0
    endloop
  endfacet
  facet normal 0.195096 0.980784 0
    outer loop
       vertex -0.127176 0.241481 0
       vertex -0.15925 0.247861 0
       vertex -0.15925 0.247861 0.1
    endloop
  endfacet
  facet normal 0.195096 0.980784 0
    outer loop
       vertex -0.15925 0.247861 0.1
       vertex -0.127176 0.241481 0.1
       vertex -0.127176 0.241481 0
    endloop
  endfacet
  facet normal 0.0654098 0.997858 0
    outer loop
       vertex -0.191881 0.25 0.1
       vertex -0.15925 0.247861 0.1
       vertex -0.15925 0.247861 0
    endloop
  endfacet
  facet normal 0.0654098 0.997858 -1.0893e-16
    outer loop
       vertex -0.15925 0.247861 0
       vertex -0.191881 0.25 0
       vertex -0.191881 0.25 0.1
    endloop
  endfacet
  facet normal -0.0654098 0.997858 0
    outer loop
       vertex -0.191881 0.25 0
       vertex -0.224513 0.247861 0
       vertex -0.224513 0.247861 0.1
    endloop
  endfacet
  facet normal -0.0654098 0.997858 1.0893e-16
    outer loop
       vertex -0.224513 0.247861 0.1
       vertex -0.191881 0.25 0.1
       vertex -0.191881 0.25 0
    endloop
  endfacet
  facet normal -0.195096 0.980784 0
    outer loop
       vertex -0.224513 0.247861 0
       vertex -0.256586 0.241481 0
       vertex -0.256586 0.241481 0.1
    endloop
  endfacet
  facet normal -0.195096 0.980784 0
    outer loop
       vertex -0.256586 0.241481 0.1
       vertex -0.224513 0.247861 0.1
       vertex -0.224513 0.247861 0
    endloop
  endfacet
  facet normal -0.321425 0.946935 0
    outer loop
       vertex -0.256586 0.241481 0
       vertex -0.287552 0.23097 0
       vertex -0.287552 0.23097 0.1
    endloop
  endfacet
  facet normal -0.321425 0.946935 0
    outer loop
       vertex -0.287552 0.23097 0.1
       vertex -0.256586 0.241481 0.1
       vertex -0.256586 0.241481 0
    endloop
  endfacet
  facet normal -0.442302 0.896866 0
    outer loop
       vertex -0.287552 0.23097 0
       vertex -0.316881 0.216506 0
       vertex -0.316881 0.216506 0.1
    endloop
  endfacet
  facet normal -0.442302 0.896866 0
    outer loop
       vertex -0.316881 0.216506 0.1
       vertex -0.287552 0.23097 0.1
       vertex -0.287552 0.23097 0
    endloop
  endfacet
  facet normal -0.555561 0.831476 0
    outer loop
       vertex -0.316881 0.216506 0
       vertex -0.344072 0.198338 0
       vertex -0.344072 0.198338 0.1
    endloop
  endfacet
  facet normal -0.555561 0.831476 0
    outer loop
       vertex -0.344072 0.198338 0.1
       vertex -0.316881 0.216506 0.1
       vertex -0.316881 0.216506 0
    endloop
  endfacet
  facet normal -0.659372 0.751817 0
    outer loop
       vertex -0.344072 0.198338 0
       vertex -0.368657 0.176776 0
       vertex -0.368657 0.176776 0.1
    endloop
  endfacet
  facet normal -0.659372 0.751817 0
    outer loop
       vertex -0.368657 0.176776 0.1
       vertex -0.344072 0.198338 0.1
       vertex -0.344072 0.198338 0
    endloop
  endfacet
  facet normal -0.751817 0.659372 0
    outer loop
       vertex -0.368657 0.176776 0
       vertex -0.390219 0.152191 0
       vertex -0.390219 0.152191 0.1
    endloop
  endfacet
  facet normal -0.751817 0.659372 0
    outer loop
       vertex -0.390219 0.152191 0.1
       vertex -0.368657 0.176776 0.1
       vertex -0.368657 0.176776 0
    endloop
  endfacet
  facet normal -0.831476 0.555561 0
    outer loop
       vertex -0.390219 0.152191 0
       vertex -0.408387 0.125 0
       vertex -0.408387 0.125 0.1
    endloop
  endfacet
  facet normal -0.831476 0.555561 0
    outer loop
       vertex -0.408387 0.125 0.1
       vertex -0.390219 0.152191 0.1
       vertex -0.390219 0.152191 0
    endloop
  endfacet
  facet normal -0.896866 0.442302 0
    outer loop
       vertex -0.408387 0.125 0
       vertex -0.422851 0.095671 0
       vertex -0.422851 0.095671 0.1
    endloop
  endfacet
  facet normal -0.896866 0.442302 0
    outer loop
       vertex -0.422851 0.095671 0.1
       vertex -0.408387 0.125 0.1
       vertex -0.408387 0.125 0
    endloop
  endfacet
  facet normal -0.946935 0.321425 0
    outer loop
       vertex -0.422851 0.095671 0
       vertex -0.433362 0.064705 0
       vertex -0.433362 0.064705 0.1
    endloop
  endfacet
  facet normal -0.946935 0.321425 0
    outer loop
       vertex -0.433362 0.064705 0.1
       vertex -0.422851 0.095671 0.1
       vertex -0.422851 0.095671 0
    endloop
  endfacet
  facet normal -0.980784 0.195096 0
    outer loop
       vertex -0.433362 0.064705 0
       vertex -0.439742 0.0326315 0
       vertex -0.439742 0.0326315 0.1
    endloop
  endfacet
  facet normal -0.980784 0.195096 0
    outer loop
       vertex -0.439742 0.0326315 0.1
       vertex -0.433362 0.064705 0.1
       vertex -0.433362 0.064705 0
    endloop
  endfacet
  facet normal -0.997858 0.0654098 0
    outer loop
       vertex -0.441881 8.32665e-17 0.1
       vertex -0.439742 0.0326315 0.1
       vertex -0.439742 0.0326315 0
    endloop
  endfacet
  facet normal -0.997858 0.0654098 -1.08928e-16
    outer loop
       vertex -0.439742 0.0326315 0
       vertex -0.441881 -8.32665e-17 0
       vertex -0.441881 8.32665e-17 0.1
    endloop
  endfacet
  facet normal -0.997858 -0.0654098 0
    outer loop
       vertex -0.441881 -8.32665e-17 0
       vertex -0.439742 -0.0326315 0
       vertex -0.439742 -0.0326315 0.1
    endloop
  endfacet
  facet normal -0.997858 -0.0654098 1.08928e-16
    outer loop
       vertex -0.439742 -0.0326315 0.1
       vertex -0.441881 8.32665e-17 0.1
       vertex -0.441881 -8.32665e-17 0
    endloop
  endfacet
  facet normal -0.980784 -0.195096 0
    outer loop
       vertex -0.439742 -0.0326315 0
       vertex -0.433362 -0.064705 0
       vertex -0.433362 -0.064705 0.1
    endloop
  endfacet
  facet normal -0.980784 -0.195096 0
    outer loop
       vertex -0.433362 -0.064705 0.1
       vertex -0.439742 -0.0326315 0.1
       vertex -0.439742 -0.0326315 0
    endloop
  endfacet
  facet normal -0.946935 -0.321425 0
    outer loop
       vertex -0.433362 -0.064705 0
       vertex -0.422851 -0.095671 0
       vertex -0.422851 -0.095671 0.1
    endloop
  endfacet
  facet normal -0.946935 -0.321425 0
    outer loop
       vertex -0.422851 -0.095671 0.1
       vertex -0.433362 -0.064705 0.1
       vertex -0.433362 -0.064705 0
    endloop
  endfacet
  facet normal -0.896866 -0.442302 0
    outer loop
       vertex -0.422851 -0.095671 0
       vertex -0.408387 -0.125 0
       vertex -0.408387 -0.125 0.1
    endloop
  endfacet
  facet normal -0.896866 -0.442302 0
    outer loop
       vertex -0.408387 -0.125 0.1
       vertex -0.422851 -0.095671 0.1
       vertex -0.422851 -0.095671 0
    endloop
  endfacet
  facet normal -0.831476 -0.555561 0
    outer loop
       vertex -0.408387 -0.125 0
       vertex -0.390219 -0.152191 0
       vertex -0.390219 -0.152191 0.1
    endloop
  endfacet
  facet normal -0.831476 -0.555561 0
    outer loop
       vertex -0.390219 -0.152191 0.1
       vertex -0.408387 -0.125 0.1
       vertex -0.408387 -0.125 0
    endloop
  endfacet
  facet normal -0.751817 -0.659372 0
    outer loop
       vertex -0.390219 -0.152191 0
       vertex -0.368657 -0.176776 0
       vertex -0.368657 -0.176776 0.1
    endloop
  endfacet
  facet normal -0.751817 -0.659372 0
    outer loop
       vertex -0.368657 -0.176776 0.1
       vertex -0.390219 -0.152191 0.1
       vertex -0.390219 -0.152191 0
    endloop
  endfacet
  facet normal 0.659372 -0.751817 0
    outer loop
       vertex -0.0151054 -0.176776 0
       vertex -0.0151054 -0.176776 0.1
       vertex -0.0396904 -0.198338 0.1
    endloop
  endfacet
  facet normal 0.659372 -0.751817 0
    outer loop
       vertex -0.0396904 -0.198338 0.1
       vertex -0.0396904 -0.198338 0
       vertex -0.0151054 -0.176776 0
    endloop
  endfacet
  facet normal 0.555561 -0.831476 0
    outer loop
       vertex -0.0396904 -0.198338 0
       vertex -0.0396904 -0.198338 0.1
       vertex -0.0668814 -0.216506 0.1
    endloop
  endfacet
  facet normal 0.555561 -0.831476 0
    outer loop
       vertex -0.0668814 -0.216506 0.1
       vertex -0.0668814 -0.216506 0
       vertex -0.0396904 -0.198338 0
    endloop
  endfacet
  facet normal 0.442302 -0.896866 0
    outer loop
       vertex -0.0668814 -0.216506 0
       vertex -0.0668814 -0.216506 0.1
       vertex -0.0962104 -0.23097 0.1
    endloop
  endfacet
  facet normal 0.442302 -0.896866 0
    outer loop
       vertex -0.0962104 -0.23097 0.1
       vertex -0.0962104 -0.23097 0
       vertex -0.0668814 -0.216506 0
    endloop
  endfacet
  facet normal 0.321425 -0.946935 0
    outer loop
       vertex -0.0962104 -0.23097 0
       vertex -0.0962104 -0.23097 0.1
       vertex -0.127176 -0.241481 0.1
    endloop
  endfacet
  facet normal 0.321425 -0.946935 0
    outer loop
       vertex -0.127176 -0.241481 0.1
       vertex -0.127176 -0.241481 0
       vertex -0.0962104 -0.23097 0
    endloop
  endfacet
  facet normal 0.195096 -0.980784 0
    outer loop
       vertex -0.127176 -0.241481 0
       vertex -0.127176 -0.241481 0.1
       vertex -0.15925 -0.247861 0.1
    endloop
  endfacet
  facet normal 0.195096 -0.980784 0
    outer loop
       vertex -0.15925 -0.247861 0.1
       vertex -0.15925 -0.247861 0
       vertex -0.127176 -0.241481 0
    endloop
  endfacet
  facet normal 0.0654098 -0.997858 0
    outer loop
       vertex -0.191881 -0.25 0
       vertex -0.15925 -0.247861 0
       vertex -0.15925 -0.247861 0.1
    endloop
  endfacet
  facet normal 0.0654098 -0.997858 1.0893e-16
    outer loop
       vertex -0.15925 -0.247861 0.1
       vertex -0.191881 -0.25 0.1
       vertex -0.191881 -0.25 0
    endloop
  endfacet
  facet normal -0.0654098 -0.997858 0
    outer loop
       vertex -0.191881 -0.25 0.1
       vertex -0.224513 -0.247861 0.1
       vertex -0.224513 -0.247861 0
    endloop
  endfacet
  facet normal -0.0654098 -0.997858 -1.0893e-16
    outer loop
       vertex -0.224513 -0.247861 0
       vertex -0.191881 -0.25 0
       vertex -0.191881 -0.25 0.1
    endloop
  endfacet
  facet normal -0.195096 -0.980784 0
    outer loop
       vertex -0.224513 -0.247861 0
       vertex -0.224513 -0.247861 0.1
       vertex -0.256586 -0.241481 0.1
    endloop
  endfacet
  facet normal -0.195096 -0.980784 -0
    outer loop
       vertex -0.256586 -0.241481 0.1
       vertex -0.256586 -0.241481 0
       vertex -0.224513 -0.247861 0
    endloop
  endfacet
  facet normal -0.321425 -0.946935 0
    outer loop
       vertex -0.256586 -0.241481 0
       vertex -0.256586 -0.241481 0.1
       vertex -0.287552 -0.23097 0.1
    endloop
  endfacet
  facet normal -0.321425 -0.946935 -0
    outer loop
       vertex -0.287552 -0.23097 0.1
       vertex -0.287552 -0.23097 0
       vertex -0.256586 -0.241481 0
    endloop
  endfacet
  facet normal -0.442302 -0.896866 0
    outer loop
       vertex -0.287552 -0.23097 0
       vertex -0.287552 -0.23097 0.1
       vertex -0.316881 -0.216506 0.1
    endloop
  endfacet
  facet normal -0.442302 -0.896866 -0
    outer loop
       vertex -0.316881 -0.216506 0.1
       vertex -0.316881 -0.216506 0
       vertex -0.287552 -0.23097 0
    endloop
  endfacet
  facet normal -0.555561 -0.831476 0
    outer loop
       vertex -0.316881 -0.216506 0
       vertex -0.316881 -0.216506 0.1
       vertex -0.344072 -0.198338 0.1
    endloop
  endfacet
  facet normal -0.555561 -0.831476 -0
    outer loop
       vertex -0.344072 -0.198338 0.1
       vertex -0.344072 -0.198338 0
       vertex -0.316881 -0.216506 0
    endloop
  endfacet
  facet normal -0.659372 -0.751817 0
    outer loop
       vertex -0.344072 -0.198338 0
       vertex -0.344072 -0.198338 0.1
       vertex -0.368657 -0.176776 0.1
    endloop
  endfacet
  facet normal -0.659372 -0.751817 -0
    outer loop
       vertex -0.368657 -0.176776 0.1
       vertex -0.368657 -0.176776 0
       vertex -0.344072 -0.198338 0
    endloop
  endfacet
endsolid cylinder
