solid cylinder
  facet normal 0.751817 -0.659372 0
    outer loop
       vertex 0.124811 -0.176776 0
       vertex 0.146373 -0.152191 0
       vertex 0.146373 -0.152191 0.1
    endloop
  endfacet
  facet normal 0.751817 -0.659372 0
    outer loop
       vertex 0.146373 -0.152191 0.1
       vertex 0.124811 -0.176776 0.1
       vertex 0.124811 -0.176776 0
    endloop
  endfacet
  facet normal 0.831476 -0.555561 0
    outer loop
       vertex 0.146373 -0.152191 0
       vertex 0.164541 -0.125 0
       vertex 0.164541 -0.125 0.1
    endloop
  endfacet
  facet normal 0.831476 -0.555561 0
    outer loop
       vertex 0.164541 -0.125 0.1
       vertex 0.146373 -0.152191 0.1
       vertex 0.146373 -0.152191 0
    endloop
  endfacet
  facet normal 0.896866 -0.442302 0
    outer loop
       vertex 0.164541 -0.125 0
       vertex 0.179005 -0.095671 0
       vertex 0.179005 -0.095671 0.1
    endloop
  endfacet
  facet normal 0.896866 -0.442302 0
    outer loop
       vertex 0.179005 -0.095671 0.1
       vertex 0.164541 -0.125 0.1
       vertex 0.164541 -0.125 0
    endloop
  endfacet
  facet normal 0.946935 -0.321425 0
    outer loop
       vertex 0.179005 -0.095671 0
       vertex 0.189516 -0.064705 0
       vertex 0.189516 -0.064705 0.1
    endloop
  endfacet
  facet normal 0.946935 -0.321425 0
    outer loop
       vertex 0.189516 -0.064705 0.1
       vertex 0.179005 -0.095671 0.1
       vertex 0.179005 -0.095671 0
    endloop
  endfacet
  facet normal 0.980784 -0.195096 0
    outer loop
       vertex 0.189516 -0.064705 0
       vertex 0.195896 -0.0326315 0
       vertex 0.195896 -0.0326315 0.1
    endloop
  endfacet
  facet normal 0.980784 -0.195096 0
    outer loop
       vertex 0.195896 -0.0326315 0.1
       vertex 0.189516 -0.064705 0.1
       vertex 0.189516 -0.064705 0
    endloop
  endfacet
  facet normal 0.997858 -0.0654098 0
    outer loop
       vertex 0.198035 -8.32665e-17 0.1
       vertex 0.195896 -0.0326315 0.1
       vertex 0.195896 -0.0326315 0
    endloop
  endfacet
  facet normal 0.997858 -0.0654098 -1.08928e-16
    outer loop
       vertex 0.195896 -0.0326315 0
       vertex 0.198035 8.32665e-17 0
       vertex 0.198035 -8.32665e-17 0.1
    endloop
  endfacet
  facet normal 0.997858 0.0654098 0
    outer loop
       vertex 0.198035 8.32665e-17 0
       vertex 0.195896 0.0326315 0
       vertex 0.195896 0.0326315 0.1
    endloop
  endfacet
  facet normal 0.997858 0.0654098 1.08928e-16
    outer loop
       vertex 0.195896 0.0326315 0.1
       vertex 0.198035 -8.32665e-17 0.1
       vertex 0.198035 8.32665e-17 0
    endloop
  endfacet
  facet normal 0.980784 0.195096 0
    outer loop
       vertex 0.195896 0.0326315 0
       vertex 0.189516 0.064705 0
       vertex 0.189516 0.064705 0.1
    endloop
  endfacet
  facet normal 0.980784 0.195096 0
    outer loop
       vertex 0.189516 0.064705 0.1
       vertex 0.195896 0.0326315 0.1
       vertex 0.195896 0.0326315 0
    endloop
  endfacet
  facet normal 0.946935 0.321425 0
    outer loop
       vertex 0.189516 0.064705 0
       vertex 0.179005 0.095671 0
       vertex 0.179005 0.095671 0.1
    endloop
  endfacet
  facet normal 0.946935 0.321425 0
    outer loop
       vertex 0.179005 0.095671 0.1
       vertex 0.189516 0.064705 0.1
       vertex 0.189516 0.064705 0
    endloop
  endfacet
  facet normal 0.896866 0.442302 0
    outer loop
       vertex 0.179005 0.095671 0
       vertex 0.164541 0.125 0
       vertex 0.164541 0.125 0.1
    endloop
  endfacet
  facet normal 0.896866 0.442302 0
    outer loop
       vertex 0.164541 0.125 0.1
       vertex 0.179005 0.095671 0.1
       vertex 0.179005 0.095671 0
    endloop
  endfacet
  facet normal 0.831476 0.555561 0
    outer loop
       vertex 0.164541 0.125 0
       vertex 0.146373 0.152191 0
       vertex 0.146373 0.152191 0.1
    endloop
  endfacet
  facet normal 0.831476 0.555561 0
    outer loop
       vertex 0.146373 0.152191 0.1
       vertex 0.164541 0.125 0.1
       vertex 0.164541 0.125 0
    endloop
  endfacet
  facet normal 0.751817 0.659372 0
    outer loop
       vertex 0.146373 0.152191 0
       vertex 0.124811 0.176776 0
       vertex 0.124811 0.176776 0.1
    endloop
  endfacet
  facet normal 0.751817 0.659372 0
    outer loop
       vertex 0.124811 0.176776 0.1
       vertex 0.146373 0.152191 0.1
       vertex 0.146373 0.152191 0
    endloop
  endfacet
  facet normal 0.659372 0.751817 0
    outer loop
       vertex 0.124811 0.176776 0
       vertex 0.100226 0.198338 0
       vertex 0.100226 0.198338 0.1
    endloop
  endfacet
  facet normal 0.659372 0.751817 0
    outer loop
       vertex 0.100226 0.198338 0.1
       vertex 0.124811 0.176776 0.1
       vertex 0.124811 0.176776 0
    endloop
  endfacet
  facet normal 0.555561 0.831476 0
    outer loop
       vertex 0.100226 0.198338 0
       vertex 0.0730347 0.216506 0
       vertex 0.0730347 0.216506 0.1
    endloop
  endfacet
  facet normal 0.555561 0.831476 0
    outer loop
       vertex 0.0730347 0.216506 0.1
       vertex 0.100226 0.198338 0.1
       vertex 0.100226 0.198338 0
    endloop
  endfacet
  facet normal 0.442302 0.896866 0
    outer loop
       vertex 0.0730347 0.216506 0
       vertex 0.0437057 0.23097 0
       vertex 0.0437057 0.23097 0.1
    endloop
  endfacet
  facet normal 0.442302 0.896866 0
    outer loop
       vertex 0.0437057 0.23097 0.1
       vertex 0.0730347 0.216506 0.1
       vertex 0.0730347 0.216506 0
    endloop
  endfacet
  facet normal 0.321425 0.946935 0
    outer loop
       vertex 0.0437057 0.23097 0
       vertex 0.0127397 0.241481 0
       vertex 0.0127397 0.241481 0.1
    endloop
  endfacet
  facet normal 0.321425 0.946935 0
    outer loop
       vertex 0.0127397 0.241481 0.1
       vertex 0.0437057 0.23097 0.1
       vertex 0.0437057 0.23097 0
    endloop
  endfacet
  facet normal 0.195096 0.980784 0
    outer loop
       vertex 0.0127397 0.241481 0
       vertex -0.0193338 0.247861 0
       vertex -0.0193338 0.247861 0.1
    endloop
  endfacet
  facet normal 0.195096 0.980784 0
    outer loop
       vertex -0.0193338 0.247861 0.1
       vertex 0.0127397 0.241481 0.1
       vertex 0.0127397 0.241481 0
    endloop
  endfacet
  facet normal 0.0654098 0.997858 0
    outer loop
       vertex -0.0519653 0.25 0.1
       vertex -0.0193338 0.247861 0.1
       vertex -0.0193338 0.247861 0
    endloop
  endfacet
  facet normal 0.0654098 0.997858 -1.08928e-16
    outer loop
       vertex -0.0193338 0.247861 0
       vertex -0.0519653 0.25 0
       vertex -0.0519653 0.25 0.1
    endloop
  endfacet
  facet normal -0.0654098 0.997858 0
    outer loop
       vertex -0.0519653 0.25 0
       vertex -0.0845968 0.247861 0
       vertex -0.0845968 0.247861 0.1
    endloop
  endfacet
  facet normal -0.0654098 0.997858 1.08928e-16
    outer loop
       vertex -0.0845968 0.247861 0.1
       vertex -0.0519653 0.25 0.1
       vertex -0.0519653 0.25 0
    endloop
  endfacet
  facet normal -0.195096 0.980784 0
    outer loop
       vertex -0.0845968 0.247861 0
       vertex -0.11667 0.241481 0
       vertex -0.11667 0.241481 0.1
    endloop
  endfacet
  facet normal -0.195096 0.980784 0
    outer loop
       vertex -0.11667 0.241481 0.1
       vertex -0.0845968 0.247861 0.1
       vertex -0.0845968 0.247861 0
    endloop
  endfacet
  facet normal -0.321425 0.946935 0
    outer loop
       vertex -0.11667 0.241481 0
       vertex -0.147636 0.23097 0
       vertex -0.147636 0.23097 0.1
    endloop
  endfacet
  facet normal -0.321425 0.946935 0
    outer loop
       vertex -0.147636 0.23097 0.1
       vertex -0.11667 0.241481 0.1
       vertex -0.11667 0.241481 0
    endloop
  endfacet
  facet normal -0.442302 0.896866 0
    outer loop
       vertex -0.147636 0.23097 0
       vertex -0.176965 0.216506 0
       vertex -0.176965 0.216506 0.1
    endloop
  endfacet
  facet normal -0.442302 0.896866 0
    outer loop
       vertex -0.176965 0.216506 0.1
       vertex -0.147636 0.23097 0.1
       vertex -0.147636 0.23097 0
    endloop
  endfacet
  facet normal -0.555561 0.831476 0
    outer loop
       vertex -0.176965 0.216506 0
       vertex -0.204156 0.198338 0
       vertex -0.204156 0.198338 0.1
    endloop
  endfacet
  facet normal -0.555561 0.831476 0
    outer loop
       vertex -0.204156 0.198338 0.1
       vertex -0.176965 0.216506 0.1
       vertex -0.176965 0.216506 0
    endloop
  endfacet
  facet normal -0.659372 0.751817 0
    outer loop
       vertex -0.204156 0.198338 0
       vertex -0.228741 0.176776 0
       vertex -0.228741 0.176776 0.1
    endloop
  endfacet
  facet normal -0.659372 0.751817 0
    outer loop
       vertex -0.228741 0.176776 0.1
       vertex -0.204156 0.198338 0.1
       vertex -0.204156 0.198338 0
    endloop
  endfacet
  facet normal -0.751817 0.659372 0
    outer loop
       vertex -0.228741 0.176776 0
       vertex -0.250303 0.152191 0
       vertex -0.250303 0.152191 0.1
    endloop
  endfacet
  facet normal -0.751817 0.659372 0
    outer loop
       vertex -0.250303 0.152191 0.1
       vertex -0.228741 0.176776 0.1
       vertex -0.228741 0.176776 0
    endloop
  endfacet
  facet normal -0.831476 0.555561 0
    outer loop
       vertex -0.250303 0.152191 0
       vertex -0.268471 0.125 0
       vertex -0.268471 0.125 0.1
    endloop
  endfacet
  facet normal -0.831476 0.555561 0
    outer loop
       vertex -0.268471 0.125 0.1
       vertex -0.250303 0.152191 0.1
       vertex -0.250303 0.152191 0
    endloop
  endfacet
  facet normal -0.896866 0.442302 0
    outer loop
       vertex -0.268471 0.125 0
       vertex -0.282935 0.095671 0
       vertex -0.282935 0.095671 0.1
    endloop
  endfacet
  facet normal -0.896866 0.442302 0
    outer loop
       vertex -0.282935 0.095671 0.1
       vertex -0.268471 0.125 0.1
       vertex -0.268471 0.125 0
    endloop
  endfacet
  facet normal -0.946935 0.321425 0
    outer loop
       vertex -0.282935 0.095671 0
       vertex -0.293446 0.064705 0
       vertex -0.293446 0.064705 0.1
    endloop
  endfacet
  facet normal -0.946935 0.321425 0
    outer loop
       vertex -0.293446 0.064705 0.1
       vertex -0.282935 0.095671 0.1
       vertex -0.282935 0.095671 0
    endloop
  endfacet
  facet normal -0.980784 0.195096 0
    outer loop
       vertex -0.293446 0.064705 0
       vertex -0.299826 0.0326315 0
       vertex -0.299826 0.0326315 0.1
    endloop
  endfacet
  facet normal -0.980784 0.195096 0
    outer loop
       vertex -0.299826 0.0326315 0.1
       vertex -0.293446 0.064705 0.1
       vertex -0.293446 0.064705 0
    endloop
  endfacet
  facet normal -0.997858 0.0654098 0
    outer loop
       vertex -0.301965 8.32665e-17 0.1
       vertex -0.299826 0.0326315 0.1
       vertex -0.299826 0.0326315 0
    endloop
  endfacet
  facet normal -0.997858 0.0654098 -1.08928e-16
    outer loop
       vertex -0.299826 0.0326315 0
       vertex -0.301965 -8.32665e-17 0
       vertex -0.301965 8.32665e-17 0.1
    endloop
  endfacet
  facet normal -0.997858 -0.0654098 0
    outer loop
       vertex -0.301965 -8.32665e-17 0
       vertex -0.299826 -0.0326315 0
       vertex -0.299826 -0.0326315 0.1
    endloop
  endfacet
  facet normal -0.997858 -0.0654098 1.08928e-16
    outer loop
       vertex -0.299826 -0.0326315 0.1
       vertex -0.301965 8.32665e-17 0.1
       vertex -0.301965 -8.32665e-17 0
    endloop
  endfacet
  facet normal -0.980784 -0.195096 0
    outer loop
       vertex -0.299826 -0.0326315 0
       vertex -0.293446 -0.064705 0
       vertex -0.293446 -0.064705 0.1
    endloop
  endfacet
  facet normal -0.980784 -0.195096 0
    outer loop
       vertex -0.293446 -0.064705 0.1
       vertex -0.299826 -0.0326315 0.1
       vertex -0.299826 -0.0326315 0
    endloop
  endfacet
  facet normal -0.946935 -0.321425 0
    outer loop
       vertex -0.293446 -0.064705 0
       vertex -0.282935 -0.095671 0
       vertex -0.282935 -0.095671 0.1
    endloop
  endfacet
  facet normal -0.946935 -0.321425 0
    outer loop
       vertex -0.282935 -0.095671 0.1
       vertex -0.293446 -0.064705 0.1
       vertex -0.293446 -0.064705 0
    endloop
  endfacet
  facet normal -0.896866 -0.442302 0
    outer loop
       vertex -0.282935 -0.095671 0
       vertex -0.268471 -0.125 0
       vertex -0.268471 -0.125 0.1
    endloop
  endfacet
  facet normal -0.896866 -0.442302 0
    outer loop
       vertex -0.268471 -0.125 0.1
       vertex -0.282935 -0.095671 0.1
       vertex -0.282935 -0.095671 0
    endloop
  endfacet
  facet normal -0.831476 -0.555561 0
    outer loop
       vertex -0.268471 -0.125 0
       vertex -0.250303 -0.152191 0
       vertex -0.250303 -0.152191 0.1
    endloop
  endfacet
  facet normal -0.831476 -0.555561 0
    outer loop
       vertex -0.250303 -0.152191 0.1
       vertex -0.268471 -0.125 0.1
       vertex -0.268471 -0.125 0
    endloop
  endfacet
  facet normal -0.751817 -0.659372 0
    outer loop
       vertex -0.250303 -0.152191 0
       vertex -0.228741 -0.176776 0
       vertex -0.228741 -0.176776 0.1
    endloop
  endfacet
  facet normal -0.751817 -0.659372 0
    outer loop
       vertex -0.228741 -0.176776 0.1
       vertex -0.250303 -0.152191 0.1
       vertex -0.250303 -0.152191 0
    endloop
  endfacet
  facet normal 0.659372 -0.751817 0
    outer loop
       vertex 0.124811 -0.176776 0
       vertex 0.124811 -0.176776 0.1
       vertex 0.100226 -0.198338 0.1
    endloop
  endfacet
  facet normal 0.659372 -0.751817 0
    outer loop
       vertex 0.100226 -0.198338 0.1
       vertex 0.100226 -0.198338 0
       vertex 0.124811 -0.176776 0
    endloop
  endfacet
  facet normal 0.555561 -0.831476 0
    outer loop
       vertex 0.100226 -0.198338 0
       vertex 0.100226 -0.198338 0.1
       vertex 0.0730347 -0.216506 0.1
    endloop
  endfacet
  facet normal 0.555561 -0.831476 0
    outer loop
       vertex 0.0730347 -0.216506 0.1
       vertex 0.0730347 -0.216506 0
       vertex 0.100226 -0.198338 0
    endloop
  endfacet
  facet normal 0.442302 -0.896866 0
    outer loop
       vertex 0.0730347 -0.216506 0
       vertex 0.0730347 -0.216506 0.1
       vertex 0.0437057 -0.23097 0.1
    endloop
  endfacet
  facet normal 0.442302 -0.896866 0
    outer loop
       vertex 0.0437057 -0.23097 0.1
       vertex 0.0437057 -0.23097 0
       vertex 0.0730347 -0.216506 0
    endloop
  endfacet
  facet normal 0.321425 -0.946935 0
    outer loop
       vertex 0.0437057 -0.23097 0
       vertex 0.0437057 -0.23097 0.1
       vertex 0.0127397 -0.241481 0.1
    endloop
  endfacet
  facet normal 0.321425 -0.946935 0
    outer loop
       vertex 0.0127397 -0.241481 0.1
       vertex 0.0127397 -0.241481 0
       vertex 0.0437057 -0.23097 0
    endloop
  endfacet
  facet normal 0.195096 -0.980784 0
    outer loop
       vertex 0.0127397 -0.241481 0
       vertex 0.0127397 -0.241481 0.1
       vertex -0.0193338 -0.247861 0.1
    endloop
  endfacet
  facet normal 0.195096 -0.980784 0
    outer loop
       vertex -0.0193338 -0.247861 0.1
       vertex -0.0193338 -0.247861 0
       vertex 0.0127397 -0.241481 0
    endloop
  endfacet
  facet normal 0.0654098 -0.997858 0
    outer loop
       vertex -0.0519653 -0.25 0
       vertex -0.0193338 -0.247861 0
       vertex -0.0193338 -0.247861 0.1
    endloop
  endfacet
  facet normal 0.0654098 -0.997858 1.08928e-16
    outer loop
       vertex -0.0193338 -0.247861 0.1
       vertex -0.0519653 -0.25 0.1
       vertex -0.0519653 -0.25 0
    endloop
  endfacet
  facet normal -0.0654098 -0.997858 0
    outer loop
       vertex -0.0519653 -0.25 0.1
       vertex -0.0845968 -0.247861 0.1
       vertex -0.0845968 -0.247861 0
    endloop
  endfacet
  facet normal -0.0654098 -0.997858 -1.08928e-16
    outer loop
       vertex -0.0845968 -0.247861 0
       vertex -0.0519653 -0.25 0
       vertex -0.0519653 -0.25 0.1
    endloop
  endfacet
  facet normal -0.195096 -0.980784 0
    outer loop
       vertex -0.0845968 -0.247861 0
       vertex -0.0845968 -0.247861 0.1
       vertex -0.11667 -0.241481 0.1
    endloop
  endfacet
  facet normal -0.195096 -0.980784 -0
    outer loop
       vertex -0.11667 -0.241481 0.1
       vertex -0.11667 -0.241481 0
       vertex -0.0845968 -0.247861 0
    endloop
  endfacet
  facet normal -0.321425 -0.946935 0
    outer loop
       vertex -0.11667 -0.241481 0
       vertex -0.11667 -0.241481 0.1
       vertex -0.147636 -0.23097 0.1
    endloop
  endfacet
  facet normal -0.321425 -0.946935 -0
    outer loop
       vertex -0.147636 -0.23097 0.1
       vertex -0.147636 -0.23097 0
       vertex -0.11667 -0.241481 0
    endloop
  endfacet
  facet normal -0.442302 -0.896866 0
    outer loop
       vertex -0.147636 -0.23097 0
       vertex -0.147636 -0.23097 0.1
       vertex -0.176965 -0.216506 0.1
    endloop
  endfacet
  facet normal -0.442302 -0.896866 -0
    outer loop
       vertex -0.176965 -0.216506 0.1
       vertex -0.176965 -0.216506 0
       vertex -0.147636 -0.23097 0
    endloop
  endfacet
  facet normal -0.555561 -0.831476 0
    outer loop
       vertex -0.176965 -0.216506 0
       vertex -0.176965 -0.216506 0.1
       vertex -0.204156 -0.198338 0.1
    endloop
  endfacet
  facet normal -0.555561 -0.831476 -0
    outer loop
       vertex -0.204156 -0.198338 0.1
       vertex -0.204156 -0.198338 0
       vertex -0.176965 -0.216506 0
    endloop
  endfacet
  facet normal -0.659372 -0.751817 0
    outer loop
       vertex -0.204156 -0.198338 0
       vertex -0.204156 -0.198338 0.1
       vertex -0.228741 -0.176776 0.1
    endloop
  endfacet
  facet normal -0.659372 -0.751817 -0
    outer loop
       vertex -0.228741 -0.176776 0.1
       vertex -0.228741 -0.176776 0
       vertex -0.204156 -0.198338 0
    endloop
  endfacet
endsolid cylinder
