solid cylinder
  facet normal 0.751817 -0.659372 0
    outer loop
       vertex 0.43137 -0.176776 0
       vertex 0.452932 -0.152191 0
       vertex 0.452932 -0.152191 0.1
    endloop
  endfacet
  facet normal 0.751817 -0.659372 0
    outer loop
       vertex 0.452932 -0.152191 0.1
       vertex 0.43137 -0.176776 0.1
       vertex 0.43137 -0.176776 0
    endloop
  endfacet
  facet normal 0.831476 -0.555561 0
    outer loop
       vertex 0.452932 -0.152191 0
       vertex 0.4711 -0.125 0
       vertex 0.4711 -0.125 0.1
    endloop
  endfacet
  facet normal 0.831476 -0.555561 0
    outer loop
       vertex 0.4711 -0.125 0.1
       vertex 0.452932 -0.152191 0.1
       vertex 0.452932 -0.152191 0
    endloop
  endfacet
  facet normal 0.896866 -0.442302 0
    outer loop
       vertex 0.4711 -0.125 0
       vertex 0.485564 -0.095671 0
       vertex 0.485564 -0.095671 0.1
    endloop
  endfacet
  facet normal 0.896866 -0.442302 0
    outer loop
       vertex 0.485564 -0.095671 0.1
       vertex 0.4711 -0.125 0.1
       vertex 0.4711 -0.125 0
    endloop
  endfacet
  facet normal 0.946935 -0.321425 0
    outer loop
       vertex 0.485564 -0.095671 0
       vertex 0.496075 -0.064705 0
       vertex 0.496075 -0.064705 0.1
    endloop
  endfacet
  facet normal 0.946935 -0.321425 0
    outer loop
       vertex 0.496075 -0.064705 0.1
       vertex 0.485564 -0.095671 0.1
       vertex 0.485564 -0.095671 0
    endloop
  endfacet
  facet normal 0.980784 -0.195096 0
    outer loop
       vertex 0.496075 -0.064705 0
       vertex 0.502455 -0.0326315 0
       vertex 0.502455 -0.0326315 0.1
    endloop
  endfacet
  facet normal 0.980784 -0.195096 0
    outer loop
       vertex 0.502455 -0.0326315 0.1
       vertex 0.496075 -0.064705 0.1
       vertex 0.496075 -0.064705 0
    endloop
  endfacet
  facet normal 0.997858 -0.0654098 0
    outer loop
       vertex 0.504594 -8.32665e-17 0.1
       vertex 0.502455 -0.0326315 0.1
       vertex 0.502455 -0.0326315 0
    endloop
  endfacet
  facet normal 0.997858 -0.0654098 -1.08928e-16
    outer loop
       vertex 0.502455 -0.0326315 0
       vertex 0.504594 8.32665e-17 0
       vertex 0.504594 -8.32665e-17 0.1
    endloop
  endfacet
  facet normal 0.997858 0.0654098 0
    outer loop
       vertex 0.504594 8.32665e-17 0
       vertex 0.502455 0.0326315 0
       vertex 0.502455 0.0326315 0.1
    endloop
  endfacet
  facet normal 0.997858 0.0654098 1.08928e-16
    outer loop
       vertex 0.502455 0.0326315 0.1
       vertex 0.504594 -8.32665e-17 0.1
       vertex 0.504594 8.32665e-17 0
    endloop
  endfacet
  facet normal 0.980784 0.195096 0
    outer loop
       vertex 0.502455 0.0326315 0
       vertex 0.496075 0.064705 0
       vertex 0.496075 0.064705 0.1
    endloop
  endfacet
  facet normal 0.980784 0.195096 0
    outer loop
       vertex 0.496075 0.064705 0.1
       vertex 0.502455 0.0326315 0.1
       vertex 0.502455 0.0326315 0
    endloop
  endfacet
  facet normal 0.946935 0.321425 0
    outer loop
       vertex 0.496075 0.064705 0
       vertex 0.485564 0.095671 0
       vertex 0.485564 0.095671 0.1
    endloop
  endfacet
  facet normal 0.946935 0.321425 0
    outer loop
       vertex 0.485564 0.095671 0.1
       vertex 0.496075 0.064705 0.1
       vertex 0.496075 0.064705 0
    endloop
  endfacet
  facet normal 0.896866 0.442302 0
    outer loop
       vertex 0.485564 0.095671 0
       vertex 0.4711 0.125 0
       vertex 0.4711 0.125 0.1
    endloop
  endfacet
  facet normal 0.896866 0.442302 0
    outer loop
       vertex 0.4711 0.125 0.1
       vertex 0.485564 0.095671 0.1
       vertex 0.485564 0.095671 0
    endloop
  endfacet
  facet normal 0.831476 0.555561 0
    outer loop
       vertex 0.4711 0.125 0
       vertex 0.452932 0.152191 0
       vertex 0.452932 0.152191 0.1
    endloop
  endfacet
  facet normal 0.831476 0.555561 0
    outer loop
       vertex 0.452932 0.152191 0.1
       vertex 0.4711 0.125 0.1
       vertex 0.4711 0.125 0
    endloop
  endfacet
  facet normal 0.751817 0.659372 0
    outer loop
       vertex 0.452932 0.152191 0
       vertex 0.43137 0.176776 0
       vertex 0.43137 0.176776 0.1
    endloop
  endfacet
  facet normal 0.751817 0.659372 0
    outer loop
       vertex 0.43137 0.176776 0.1
       vertex 0.452932 0.152191 0.1
       vertex 0.452932 0.152191 0
    endloop
  endfacet
  facet normal 0.659372 0.751817 0
    outer loop
       vertex 0.43137 0.176776 0
       vertex 0.406785 0.198338 0
       vertex 0.406785 0.198338 0.1
    endloop
  endfacet
  facet normal 0.659372 0.751817 0
    outer loop
       vertex 0.406785 0.198338 0.1
       vertex 0.43137 0.176776 0.1
       vertex 0.43137 0.176776 0
    endloop
  endfacet
  facet normal 0.555561 0.831476 0
    outer loop
       vertex 0.406785 0.198338 0
       vertex 0.379594 0.216506 0
       vertex 0.379594 0.216506 0.1
    endloop
  endfacet
  facet normal 0.555561 0.831476 0
    outer loop
       vertex 0.379594 0.216506 0.1
       vertex 0.406785 0.198338 0.1
       vertex 0.406785 0.198338 0
    endloop
  endfacet
  facet normal 0.442302 0.896866 0
    outer loop
       vertex 0.379594 0.216506 0
       vertex 0.350265 0.23097 0
       vertex 0.350265 0.23097 0.1
    endloop
  endfacet
  facet normal 0.442302 0.896866 0
    outer loop
       vertex 0.350265 0.23097 0.1
       vertex 0.379594 0.216506 0.1
       vertex 0.379594 0.216506 0
    endloop
  endfacet
  facet normal 0.321425 0.946935 0
    outer loop
       vertex 0.350265 0.23097 0
       vertex 0.319299 0.241481 0
       vertex 0.319299 0.241481 0.1
    endloop
  endfacet
  facet normal 0.321425 0.946935 0
    outer loop
       vertex 0.319299 0.241481 0.1
       vertex 0.350265 0.23097 0.1
       vertex 0.350265 0.23097 0
    endloop
  endfacet
  facet normal 0.195096 0.980784 0
    outer loop
       vertex 0.319299 0.241481 0
       vertex 0.287225 0.247861 0
       vertex 0.287225 0.247861 0.1
    endloop
  endfacet
  facet normal 0.195096 0.980784 0
    outer loop
       vertex 0.287225 0.247861 0.1
       vertex 0.319299 0.241481 0.1
       vertex 0.319299 0.241481 0
    endloop
  endfacet
  facet normal 0.0654098 0.997858 0
    outer loop
       vertex 0.254594 0.25 0.1
       vertex 0.287225 0.247861 0.1
       vertex 0.287225 0.247861 0
    endloop
  endfacet
  facet normal 0.0654098 0.997858 -1.45239e-16
    outer loop
       vertex 0.287225 0.247861 0
       vertex 0.254594 0.25 0
       vertex 0.254594 0.25 0.1
    endloop
  endfacet
  facet normal -0.0654098 0.997858 0
    outer loop
       vertex 0.254594 0.25 0
       vertex 0.221962 0.247861 0
       vertex 0.221962 0.247861 0.1
    endloop
  endfacet
  facet normal -0.0654098 0.997858 1.45239e-16
    outer loop
       vertex 0.221962 0.247861 0.1
       vertex 0.254594 0.25 0.1
       vertex 0.254594 0.25 0
    endloop
  endfacet
  facet normal -0.195096 0.980784 0
    outer loop
       vertex 0.221962 0.247861 0
       vertex 0.189889 0.241481 0
       vertex 0.189889 0.241481 0.1
    endloop
  endfacet
  facet normal -0.195096 0.980784 0
    outer loop
       vertex 0.189889 0.241481 0.1
       vertex 0.221962 0.247861 0.1
       vertex 0.221962 0.247861 0
    endloop
  endfacet
  facet normal -0.321425 0.946935 0
    outer loop
       vertex 0.189889 0.241481 0
       vertex 0.158923 0.23097 0
       vertex 0.158923 0.23097 0.1
    endloop
  endfacet
  facet normal -0.321425 0.946935 0
    outer loop
       vertex 0.158923 0.23097 0.1
       vertex 0.189889 0.241481 0.1
       vertex 0.189889 0.241481 0
    endloop
  endfacet
  facet normal -0.442302 0.896866 0
    outer loop
       vertex 0.158923 0.23097 0
       vertex 0.129594 0.216506 0
       vertex 0.129594 0.216506 0.1
    endloop
  endfacet
  facet normal -0.442302 0.896866 0
    outer loop
       vertex 0.129594 0.216506 0.1
       vertex 0.158923 0.23097 0.1
       vertex 0.158923 0.23097 0
    endloop
  endfacet
  facet normal -0.555561 0.831476 0
    outer loop
       vertex 0.129594 0.216506 0
       vertex 0.102403 0.198338 0
       vertex 0.102403 0.198338 0.1
    endloop
  endfacet
  facet normal -0.555561 0.831476 0
    outer loop
       vertex 0.102403 0.198338 0.1
       vertex 0.129594 0.216506 0.1
       vertex 0.129594 0.216506 0
    endloop
  endfacet
  facet normal -0.659372 0.751817 0
    outer loop
       vertex 0.102403 0.198338 0
       vertex 0.0778176 0.176776 0
       vertex 0.0778176 0.176776 0.1
    endloop
  endfacet
  facet normal -0.659372 0.751817 0
    outer loop
       vertex 0.0778176 0.176776 0.1
       vertex 0.102403 0.198338 0.1
       vertex 0.102403 0.198338 0
    endloop
  endfacet
  facet normal -0.751817 0.659372 0
    outer loop
       vertex 0.0778176 0.176776 0
       vertex 0.0562556 0.152191 0
       vertex 0.0562556 0.152191 0.1
    endloop
  endfacet
  facet normal -0.751817 0.659372 0
    outer loop
       vertex 0.0562556 0.152191 0.1
       vertex 0.0778176 0.176776 0.1
       vertex 0.0778176 0.176776 0
    endloop
  endfacet
  facet normal -0.831476 0.555561 0
    outer loop
       vertex 0.0562556 0.152191 0
       vertex 0.0380876 0.125 0
       vertex 0.0380876 0.125 0.1
    endloop
  endfacet
  facet normal -0.831476 0.555561 0
    outer loop
       vertex 0.0380876 0.125 0.1
       vertex 0.0562556 0.152191 0.1
       vertex 0.0562556 0.152191 0
    endloop
  endfacet
  facet normal -0.896866 0.442302 0
    outer loop
       vertex 0.0380876 0.125 0
       vertex 0.0236236 0.095671 0
       vertex 0.0236236 0.095671 0.1
    endloop
  endfacet
  facet normal -0.896866 0.442302 0
    outer loop
       vertex 0.0236236 0.095671 0.1
       vertex 0.0380876 0.125 0.1
       vertex 0.0380876 0.125 0
    endloop
  endfacet
  facet normal -0.946935 0.321425 0
    outer loop
       vertex 0.0236236 0.095671 0
       vertex 0.0131126 0.064705 0
       vertex 0.0131126 0.064705 0.1
    endloop
  endfacet
  facet normal -0.946935 0.321425 0
    outer loop
       vertex 0.0131126 0.064705 0.1
       vertex 0.0236236 0.095671 0.1
       vertex 0.0236236 0.095671 0
    endloop
  endfacet
  facet normal -0.980784 0.195096 0
    outer loop
       vertex 0.0131126 0.064705 0
       vertex 0.00673256 0.0326315 0
       vertex 0.00673256 0.0326315 0.1
    endloop
  endfacet
  facet normal -0.980784 0.195096 0
    outer loop
       vertex 0.00673256 0.0326315 0.1
       vertex 0.0131126 0.064705 0.1
       vertex 0.0131126 0.064705 0
    endloop
  endfacet
  facet normal -0.997858 0.0654098 0
    outer loop
       vertex 0.00459356 8.32665e-17 0.1
       vertex 0.00673256 0.0326315 0.1
       vertex 0.00673256 0.0326315 0
    endloop
  endfacet
  facet normal -0.997858 0.0654098 -1.08928e-16
    outer loop
       vertex 0.00673256 0.0326315 0
       vertex 0.00459356 -8.32665e-17 0
       vertex 0.00459356 8.32665e-17 0.1
    endloop
  endfacet
  facet normal -0.997858 -0.0654098 0
    outer loop
       vertex 0.00459356 -8.32665e-17 0
       vertex 0.00673256 -0.0326315 0
       vertex 0.00673256 -0.0326315 0.1
    endloop
  endfacet
  facet normal -0.997858 -0.0654098 1.08928e-16
    outer loop
       vertex 0.00673256 -0.0326315 0.1
       vertex 0.00459356 8.32665e-17 0.1
       vertex 0.00459356 -8.32665e-17 0
    endloop
  endfacet
  facet normal -0.980784 -0.195096 0
    outer loop
       vertex 0.00673256 -0.0326315 0
       vertex 0.0131126 -0.064705 0
       vertex 0.0131126 -0.064705 0.1
    endloop
  endfacet
  facet normal -0.980784 -0.195096 0
    outer loop
       vertex 0.0131126 -0.064705 0.1
       vertex 0.00673256 -0.0326315 0.1
       vertex 0.00673256 -0.0326315 0
    endloop
  endfacet
  facet normal -0.946935 -0.321425 0
    outer loop
       vertex 0.0131126 -0.064705 0
       vertex 0.0236236 -0.095671 0
       vertex 0.0236236 -0.095671 0.1
    endloop
  endfacet
  facet normal -0.946935 -0.321425 0
    outer loop
       vertex 0.0236236 -0.095671 0.1
       vertex 0.0131126 -0.064705 0.1
       vertex 0.0131126 -0.064705 0
    endloop
  endfacet
  facet normal -0.896866 -0.442302 0
    outer loop
       vertex 0.0236236 -0.095671 0
       vertex 0.0380876 -0.125 0
       vertex 0.0380876 -0.125 0.1
    endloop
  endfacet
  facet normal -0.896866 -0.442302 0
    outer loop
       vertex 0.0380876 -0.125 0.1
       vertex 0.0236236 -0.095671 0.1
       vertex 0.0236236 -0.095671 0
    endloop
  endfacet
  facet normal -0.831476 -0.555561 0
    outer loop
       vertex 0.0380876 -0.125 0
       vertex 0.0562556 -0.152191 0
       vertex 0.0562556 -0.152191 0.1
    endloop
  endfacet
  facet normal -0.831476 -0.555561 0
    outer loop
       vertex 0.0562556 -0.152191 0.1
       vertex 0.0380876 -0.125 0.1
       vertex 0.0380876 -0.125 0
    endloop
  endfacet
  facet normal -0.751817 -0.659372 0
    outer loop
       vertex 0.0562556 -0.152191 0
       vertex 0.0778176 -0.176776 0
       vertex 0.0778176 -0.176776 0.1
    endloop
  endfacet
  facet normal -0.751817 -0.659372 0
    outer loop
       vertex 0.0778176 -0.176776 0.1
       vertex 0.0562556 -0.152191 0.1
       vertex 0.0562556 -0.152191 0
    endloop
  endfacet
  facet normal 0.659372 -0.751817 0
    outer loop
       vertex 0.43137 -0.176776 0
       vertex 0.43137 -0.176776 0.1
       vertex 0.406785 -0.198338 0.1
    endloop
  endfacet
  facet normal 0.659372 -0.751817 0
    outer loop
       vertex 0.406785 -0.198338 0.1
       vertex 0.406785 -0.198338 0
       vertex 0.43137 -0.176776 0
    endloop
  endfacet
  facet normal 0.555561 -0.831476 0
    outer loop
       vertex 0.406785 -0.198338 0
       vertex 0.406785 -0.198338 0.1
       vertex 0.379594 -0.216506 0.1
    endloop
  endfacet
  facet normal 0.555561 -0.831476 0
    outer loop
       vertex 0.379594 -0.216506 0.1
       vertex 0.379594 -0.216506 0
       vertex 0.406785 -0.198338 0
    endloop
  endfacet
  facet normal 0.442302 -0.896866 0
    outer loop
       vertex 0.379594 -0.216506 0
       vertex 0.379594 -0.216506 0.1
       vertex 0.350265 -0.23097 0.1
    endloop
  endfacet
  facet normal 0.442302 -0.896866 0
    outer loop
       vertex 0.350265 -0.23097 0.1
       vertex 0.350265 -0.23097 0
       vertex 0.379594 -0.216506 0
    endloop
  endfacet
  facet normal 0.321425 -0.946935 0
    outer loop
       vertex 0.350265 -0.23097 0
       vertex 0.350265 -0.23097 0.1
       vertex 0.319299 -0.241481 0.1
    endloop
  endfacet
  facet normal 0.321425 -0.946935 0
    outer loop
       vertex 0.319299 -0.241481 0.1
       vertex 0.319299 -0.241481 0
       vertex 0.350265 -0.23097 0
    endloop
  endfacet
  facet normal 0.195096 -0.980784 0
    outer loop
       vertex 0.319299 -0.241481 0
       vertex 0.319299 -0.241481 0.1
       vertex 0.287225 -0.247861 0.1
    endloop
  endfacet
  facet normal 0.195096 -0.980784 0
    outer loop
       vertex 0.287225 -0.247861 0.1
       vertex 0.287225 -0.247861 0
       vertex 0.319299 -0.241481 0
    endloop
  endfacet
  facet normal 0.0654098 -0.997858 0
    outer loop
       vertex 0.254594 -0.25 0
       vertex 0.287225 -0.247861 0
       vertex 0.287225 -0.247861 0.1
    endloop
  endfacet
  facet normal 0.0654098 -0.997858 1.45239e-16
    outer loop
       vertex 0.287225 -0.247861 0.1
       vertex 0.254594 -0.25 0.1
       vertex 0.254594 -0.25 0
    endloop
  endfacet
  facet normal -0.0654098 -0.997858 0
    outer loop
       vertex 0.254594 -0.25 0.1
       vertex 0.221962 -0.247861 0.1
       vertex 0.221962 -0.247861 0
    endloop
  endfacet
  facet normal -0.0654098 -0.997858 -1.45239e-16
    outer loop
       vertex 0.221962 -0.247861 0
       vertex 0.254594 -0.25 0
       vertex 0.254594 -0.25 0.1
    endloop
  endfacet
  facet normal -0.195096 -0.980784 0
    outer loop
       vertex 0.221962 -0.247861 0
       vertex 0.221962 -0.247861 0.1
       vertex 0.189889 -0.241481 0.1
    endloop
  endfacet
  facet normal -0.195096 -0.980784 -0
    outer loop
       vertex 0.189889 -0.241481 0.1
       vertex 0.189889 -0.241481 0
       vertex 0.221962 -0.247861 0
    endloop
  endfacet
  facet normal -0.321425 -0.946935 0
    outer loop
       vertex 0.189889 -0.241481 0
       vertex 0.189889 -0.241481 0.1
       vertex 0.158923 -0.23097 0.1
    endloop
  endfacet
  facet normal -0.321425 -0.946935 -0
    outer loop
       vertex 0.158923 -0.23097 0.1
       vertex 0.158923 -0.23097 0
       vertex 0.189889 -0.241481 0
    endloop
  endfacet
  facet normal -0.442302 -0.896866 0
    outer loop
       vertex 0.158923 -0.23097 0
       vertex 0.158923 -0.23097 0.1
       vertex 0.129594 -0.216506 0.1
    endloop
  endfacet
  facet normal -0.442302 -0.896866 -0
    outer loop
       vertex 0.129594 -0.216506 0.1
       vertex 0.129594 -0.216506 0
       vertex 0.158923 -0.23097 0
    endloop
  endfacet
  facet normal -0.555561 -0.831476 0
    outer loop
       vertex 0.129594 -0.216506 0
       vertex 0.129594 -0.216506 0.1
       vertex 0.102403 -0.198338 0.1
    endloop
  endfacet
  facet normal -0.555561 -0.831476 -0
    outer loop
       vertex 0.102403 -0.198338 0.1
       vertex 0.102403 -0.198338 0
       vertex 0.129594 -0.216506 0
    endloop
  endfacet
  facet normal -0.659372 -0.751817 0
    outer loop
       vertex 0.102403 -0.198338 0
       vertex 0.102403 -0.198338 0.1
       vertex 0.0778176 -0.176776 0.1
    endloop
  endfacet
  facet normal -0.659372 -0.751817 -0
    outer loop
       vertex 0.0778176 -0.176776 0.1
       vertex 0.0778176 -0.176776 0
       vertex 0.102403 -0.198338 0
    endloop
  endfacet
endsolid cylinder
