solid cylinder
  facet normal 0.751817 -0.659372 0
    outer loop
       vertex 0.0600781 -0.176776 0
       vertex 0.0816401 -0.152191 0
       vertex 0.0816401 -0.152191 0.1
    endloop
  endfacet
  facet normal 0.751817 -0.659372 0
    outer loop
       vertex 0.0816401 -0.152191 0.1
       vertex 0.0600781 -0.176776 0.1
       vertex 0.0600781 -0.176776 0
    endloop
  endfacet
  facet normal 0.831476 -0.555561 0
    outer loop
       vertex 0.0816401 -0.152191 0
       vertex 0.0998081 -0.125 0
       vertex 0.0998081 -0.125 0.1
    endloop
  endfacet
  facet normal 0.831476 -0.555561 0
    outer loop
       vertex 0.0998081 -0.125 0.1
       vertex 0.0816401 -0.152191 0.1
       vertex 0.0816401 -0.152191 0
    endloop
  endfacet
  facet normal 0.896866 -0.442302 0
    outer loop
       vertex 0.0998081 -0.125 0
       vertex 0.114272 -0.095671 0
       vertex 0.114272 -0.095671 0.1
    endloop
  endfacet
  facet normal 0.896866 -0.442302 0
    outer loop
       vertex 0.114272 -0.095671 0.1
       vertex 0.0998081 -0.125 0.1
       vertex 0.0998081 -0.125 0
    endloop
  endfacet
  facet normal 0.946935 -0.321425 0
    outer loop
       vertex 0.114272 -0.095671 0
       vertex 0.124783 -0.064705 0
       vertex 0.124783 -0.064705 0.1
    endloop
  endfacet
  facet normal 0.946935 -0.321425 0
    outer loop
       vertex 0.124783 -0.064705 0.1
       vertex 0.114272 -0.095671 0.1
       vertex 0.114272 -0.095671 0
    endloop
  endfacet
  facet normal 0.980784 -0.195096 0
    outer loop
       vertex 0.124783 -0.064705 0
       vertex 0.131163 -0.0326315 0
       vertex 0.131163 -0.0326315 0.1
    endloop
  endfacet
  facet normal 0.980784 -0.195096 0
    outer loop
       vertex 0.131163 -0.0326315 0.1
       vertex 0.124783 -0.064705 0.1
       vertex 0.124783 -0.064705 0
    endloop
  endfacet
  facet normal 0.997858 -0.0654098 0
    outer loop
       vertex 0.133302 -8.32665e-17 0.1
       vertex 0.131163 -0.0326315 0.1
       vertex 0.131163 -0.0326315 0
    endloop
  endfacet
  facet normal 0.997858 -0.0654098 -1.08928e-16
    outer loop
       vertex 0.131163 -0.0326315 0
       vertex 0.133302 8.32665e-17 0
       vertex 0.133302 -8.32665e-17 0.1
    endloop
  endfacet
  facet normal 0.997858 0.0654098 0
    outer loop
       vertex 0.133302 8.32665e-17 0
       vertex 0.131163 0.0326315 0
       vertex 0.131163 0.0326315 0.1
    endloop
  endfacet
  facet normal 0.997858 0.0654098 1.08928e-16
    outer loop
       vertex 0.131163 0.0326315 0.1
       vertex 0.133302 -8.32665e-17 0.1
       vertex 0.133302 8.32665e-17 0
    endloop
  endfacet
  facet normal 0.980784 0.195096 0
    outer loop
       vertex 0.131163 0.0326315 0
       vertex 0.124783 0.064705 0
       vertex 0.124783 0.064705 0.1
    endloop
  endfacet
  facet normal 0.980784 0.195096 0
    outer loop
       vertex 0.124783 0.064705 0.1
       vertex 0.131163 0.0326315 0.1
       vertex 0.131163 0.0326315 0
    endloop
  endfacet
  facet normal 0.946935 0.321425 0
    outer loop
       vertex 0.124783 0.064705 0
       vertex 0.114272 0.095671 0
       vertex 0.114272 0.095671 0.1
    endloop
  endfacet
  facet normal 0.946935 0.321425 0
    outer loop
       vertex 0.114272 0.095671 0.1
       vertex 0.124783 0.064705 0.1
       vertex 0.124783 0.064705 0
    endloop
  endfacet
  facet normal 0.896866 0.442302 0
    outer loop
       vertex 0.114272 0.095671 0
       vertex 0.0998081 0.125 0
       vertex 0.0998081 0.125 0.1
    endloop
  endfacet
  facet normal 0.896866 0.442302 0
    outer loop
       vertex 0.0998081 0.125 0.1
       vertex 0.114272 0.095671 0.1
       vertex 0.114272 0.095671 0
    endloop
  endfacet
  facet normal 0.831476 0.555561 0
    outer loop
       vertex 0.0998081 0.125 0
       vertex 0.0816401 0.152191 0
       vertex 0.0816401 0.152191 0.1
    endloop
  endfacet
  facet normal 0.831476 0.555561 0
    outer loop
       vertex 0.0816401 0.152191 0.1
       vertex 0.0998081 0.125 0.1
       vertex 0.0998081 0.125 0
    endloop
  endfacet
  facet normal 0.751817 0.659372 0
    outer loop
       vertex 0.0816401 0.152191 0
       vertex 0.0600781 0.176776 0
       vertex 0.0600781 0.176776 0.1
    endloop
  endfacet
  facet normal 0.751817 0.659372 0
    outer loop
       vertex 0.0600781 0.176776 0.1
       vertex 0.0816401 0.152191 0.1
       vertex 0.0816401 0.152191 0
    endloop
  endfacet
  facet normal 0.659372 0.751817 0
    outer loop
       vertex 0.0600781 0.176776 0
       vertex 0.0354931 0.198338 0
       vertex 0.0354931 0.198338 0.1
    endloop
  endfacet
  facet normal 0.659372 0.751817 0
    outer loop
       vertex 0.0354931 0.198338 0.1
       vertex 0.0600781 0.176776 0.1
       vertex 0.0600781 0.176776 0
    endloop
  endfacet
  facet normal 0.555561 0.831476 0
    outer loop
       vertex 0.0354931 0.198338 0
       vertex 0.0083021 0.216506 0
       vertex 0.0083021 0.216506 0.1
    endloop
  endfacet
  facet normal 0.555561 0.831476 0
    outer loop
       vertex 0.0083021 0.216506 0.1
       vertex 0.0354931 0.198338 0.1
       vertex 0.0354931 0.198338 0
    endloop
  endfacet
  facet normal 0.442302 0.896866 0
    outer loop
       vertex 0.0083021 0.216506 0
       vertex -0.0210269 0.23097 0
       vertex -0.0210269 0.23097 0.1
    endloop
  endfacet
  facet normal 0.442302 0.896866 0
    outer loop
       vertex -0.0210269 0.23097 0.1
       vertex 0.0083021 0.216506 0.1
       vertex 0.0083021 0.216506 0
    endloop
  endfacet
  facet normal 0.321425 0.946935 0
    outer loop
       vertex -0.0210269 0.23097 0
       vertex -0.0519929 0.241481 0
       vertex -0.0519929 0.241481 0.1
    endloop
  endfacet
  facet normal 0.321425 0.946935 0
    outer loop
       vertex -0.0519929 0.241481 0.1
       vertex -0.0210269 0.23097 0.1
       vertex -0.0210269 0.23097 0
    endloop
  endfacet
  facet normal 0.195096 0.980784 0
    outer loop
       vertex -0.0519929 0.241481 0
       vertex -0.0840664 0.247861 0
       vertex -0.0840664 0.247861 0.1
    endloop
  endfacet
  facet normal 0.195096 0.980784 0
    outer loop
       vertex -0.0840664 0.247861 0.1
       vertex -0.0519929 0.241481 0.1
       vertex -0.0519929 0.241481 0
    endloop
  endfacet
  facet normal 0.0654098 0.997858 0
    outer loop
       vertex -0.116698 0.25 0.1
       vertex -0.0840664 0.247861 0.1
       vertex -0.0840664 0.247861 0
    endloop
  endfacet
  facet normal 0.0654098 0.997858 -1.0893e-16
    outer loop
       vertex -0.0840664 0.247861 0
       vertex -0.116698 0.25 0
       vertex -0.116698 0.25 0.1
    endloop
  endfacet
  facet normal -0.0654098 0.997858 0
    outer loop
       vertex -0.116698 0.25 0
       vertex -0.149329 0.247861 0
       vertex -0.149329 0.247861 0.1
    endloop
  endfacet
  facet normal -0.0654098 0.997858 1.0893e-16
    outer loop
       vertex -0.149329 0.247861 0.1
       vertex -0.116698 0.25 0.1
       vertex -0.116698 0.25 0
    endloop
  endfacet
  facet normal -0.195096 0.980784 0
    outer loop
       vertex -0.149329 0.247861 0
       vertex -0.181403 0.241481 0
       vertex -0.181403 0.241481 0.1
    endloop
  endfacet
  facet normal -0.195096 0.980784 0
    outer loop
       vertex -0.181403 0.241481 0.1
       vertex -0.149329 0.247861 0.1
       vertex -0.149329 0.247861 0
    endloop
  endfacet
  facet normal -0.321425 0.946935 0
    outer loop
       vertex -0.181403 0.241481 0
       vertex -0.212369 0.23097 0
       vertex -0.212369 0.23097 0.1
    endloop
  endfacet
  facet normal -0.321425 0.946935 0
    outer loop
       vertex -0.212369 0.23097 0.1
       vertex -0.181403 0.241481 0.1
       vertex -0.181403 0.241481 0
    endloop
  endfacet
  facet normal -0.442302 0.896866 0
    outer loop
       vertex -0.212369 0.23097 0
       vertex -0.241698 0.216506 0
       vertex -0.241698 0.216506 0.1
    endloop
  endfacet
  facet normal -0.442302 0.896866 0
    outer loop
       vertex -0.241698 0.216506 0.1
       vertex -0.212369 0.23097 0.1
       vertex -0.212369 0.23097 0
    endloop
  endfacet
  facet normal -0.555561 0.831476 0
    outer loop
       vertex -0.241698 0.216506 0
       vertex -0.268889 0.198338 0
       vertex -0.268889 0.198338 0.1
    endloop
  endfacet
  facet normal -0.555561 0.831476 0
    outer loop
       vertex -0.268889 0.198338 0.1
       vertex -0.241698 0.216506 0.1
       vertex -0.241698 0.216506 0
    endloop
  endfacet
  facet normal -0.659372 0.751817 0
    outer loop
       vertex -0.268889 0.198338 0
       vertex -0.293474 0.176776 0
       vertex -0.293474 0.176776 0.1
    endloop
  endfacet
  facet normal -0.659372 0.751817 0
    outer loop
       vertex -0.293474 0.176776 0.1
       vertex -0.268889 0.198338 0.1
       vertex -0.268889 0.198338 0
    endloop
  endfacet
  facet normal -0.751817 0.659372 0
    outer loop
       vertex -0.293474 0.176776 0
       vertex -0.315036 0.152191 0
       vertex -0.315036 0.152191 0.1
    endloop
  endfacet
  facet normal -0.751817 0.659372 0
    outer loop
       vertex -0.315036 0.152191 0.1
       vertex -0.293474 0.176776 0.1
       vertex -0.293474 0.176776 0
    endloop
  endfacet
  facet normal -0.831476 0.555561 0
    outer loop
       vertex -0.315036 0.152191 0
       vertex -0.333204 0.125 0
       vertex -0.333204 0.125 0.1
    endloop
  endfacet
  facet normal -0.831476 0.555561 0
    outer loop
       vertex -0.333204 0.125 0.1
       vertex -0.315036 0.152191 0.1
       vertex -0.315036 0.152191 0
    endloop
  endfacet
  facet normal -0.896866 0.442302 0
    outer loop
       vertex -0.333204 0.125 0
       vertex -0.347668 0.095671 0
       vertex -0.347668 0.095671 0.1
    endloop
  endfacet
  facet normal -0.896866 0.442302 0
    outer loop
       vertex -0.347668 0.095671 0.1
       vertex -0.333204 0.125 0.1
       vertex -0.333204 0.125 0
    endloop
  endfacet
  facet normal -0.946935 0.321425 0
    outer loop
       vertex -0.347668 0.095671 0
       vertex -0.358179 0.064705 0
       vertex -0.358179 0.064705 0.1
    endloop
  endfacet
  facet normal -0.946935 0.321425 0
    outer loop
       vertex -0.358179 0.064705 0.1
       vertex -0.347668 0.095671 0.1
       vertex -0.347668 0.095671 0
    endloop
  endfacet
  facet normal -0.980784 0.195096 0
    outer loop
       vertex -0.358179 0.064705 0
       vertex -0.364559 0.0326315 0
       vertex -0.364559 0.0326315 0.1
    endloop
  endfacet
  facet normal -0.980784 0.195096 0
    outer loop
       vertex -0.364559 0.0326315 0.1
       vertex -0.358179 0.064705 0.1
       vertex -0.358179 0.064705 0
    endloop
  endfacet
  facet normal -0.997858 0.0654098 0
    outer loop
       vertex -0.366698 8.32665e-17 0.1
       vertex -0.364559 0.0326315 0.1
       vertex -0.364559 0.0326315 0
    endloop
  endfacet
  facet normal -0.997858 0.0654098 -1.08928e-16
    outer loop
       vertex -0.364559 0.0326315 0
       vertex -0.366698 -8.32665e-17 0
       vertex -0.366698 8.32665e-17 0.1
    endloop
  endfacet
  facet normal -0.997858 -0.0654098 0
    outer loop
       vertex -0.366698 -8.32665e-17 0
       vertex -0.364559 -0.0326315 0
       vertex -0.364559 -0.0326315 0.1
    endloop
  endfacet
  facet normal -0.997858 -0.0654098 1.08928e-16
    outer loop
       vertex -0.364559 -0.0326315 0.1
       vertex -0.366698 8.32665e-17 0.1
       vertex -0.366698 -8.32665e-17 0
    endloop
  endfacet
  facet normal -0.980784 -0.195096 0
    outer loop
       vertex -0.364559 -0.0326315 0
       vertex -0.358179 -0.064705 0
       vertex -0.358179 -0.064705 0.1
    endloop
  endfacet
  facet normal -0.980784 -0.195096 0
    outer loop
       vertex -0.358179 -0.064705 0.1
       vertex -0.364559 -0.0326315 0.1
       vertex -0.364559 -0.0326315 0
    endloop
  endfacet
  facet normal -0.946935 -0.321425 0
    outer loop
       vertex -0.358179 -0.064705 0
       vertex -0.347668 -0.095671 0
       vertex -0.347668 -0.095671 0.1
    endloop
  endfacet
  facet normal -0.946935 -0.321425 0
    outer loop
       vertex -0.347668 -0.095671 0.1
       vertex -0.358179 -0.064705 0.1
       vertex -0.358179 -0.064705 0
    endloop
  endfacet
  facet normal -0.896866 -0.442302 0
    outer loop
       vertex -0.347668 -0.095671 0
       vertex -0.333204 -0.125 0
       vertex -0.333204 -0.125 0.1
    endloop
  endfacet
  facet normal -0.896866 -0.442302 0
    outer loop
       vertex -0.333204 -0.125 0.1
       vertex -0.347668 -0.095671 0.1
       vertex -0.347668 -0.095671 0
    endloop
  endfacet
  facet normal -0.831476 -0.555561 0
    outer loop
       vertex -0.333204 -0.125 0
       vertex -0.315036 -0.152191 0
       vertex -0.315036 -0.152191 0.1
    endloop
  endfacet
  facet normal -0.831476 -0.555561 0
    outer loop
       vertex -0.315036 -0.152191 0.1
       vertex -0.333204 -0.125 0.1
       vertex -0.333204 -0.125 0
    endloop
  endfacet
  facet normal -0.751817 -0.659372 0
    outer loop
       vertex -0.315036 -0.152191 0
       vertex -0.293474 -0.176776 0
       vertex -0.293474 -0.176776 0.1
    endloop
  endfacet
  facet normal -0.751817 -0.659372 0
    outer loop
       vertex -0.293474 -0.176776 0.1
       vertex -0.315036 -0.152191 0.1
       vertex -0.315036 -0.152191 0
    endloop
  endfacet
  facet normal 0.659372 -0.751817 0
    outer loop
       vertex 0.0600781 -0.176776 0
       vertex 0.0600781 -0.176776 0.1
       vertex 0.0354931 -0.198338 0.1
    endloop
  endfacet
  facet normal 0.659372 -0.751817 0
    outer loop
       vertex 0.0354931 -0.198338 0.1
       vertex 0.0354931 -0.198338 0
       vertex 0.0600781 -0.176776 0
    endloop
  endfacet
  facet normal 0.555561 -0.831476 0
    outer loop
       vertex 0.0354931 -0.198338 0
       vertex 0.0354931 -0.198338 0.1
       vertex 0.0083021 -0.216506 0.1
    endloop
  endfacet
  facet normal 0.555561 -0.831476 0
    outer loop
       vertex 0.0083021 -0.216506 0.1
       vertex 0.0083021 -0.216506 0
       vertex 0.0354931 -0.198338 0
    endloop
  endfacet
  facet normal 0.442302 -0.896866 0
    outer loop
       vertex 0.0083021 -0.216506 0
       vertex 0.0083021 -0.216506 0.1
       vertex -0.0210269 -0.23097 0.1
    endloop
  endfacet
  facet normal 0.442302 -0.896866 0
    outer loop
       vertex -0.0210269 -0.23097 0.1
       vertex -0.0210269 -0.23097 0
       vertex 0.0083021 -0.216506 0
    endloop
  endfacet
  facet normal 0.321425 -0.946935 0
    outer loop
       vertex -0.0210269 -0.23097 0
       vertex -0.0210269 -0.23097 0.1
       vertex -0.0519929 -0.241481 0.1
    endloop
  endfacet
  facet normal 0.321425 -0.946935 0
    outer loop
       vertex -0.0519929 -0.241481 0.1
       vertex -0.0519929 -0.241481 0
       vertex -0.0210269 -0.23097 0
    endloop
  endfacet
  facet normal 0.195096 -0.980784 0
    outer loop
       vertex -0.0519929 -0.241481 0
       vertex -0.0519929 -0.241481 0.1
       vertex -0.0840664 -0.247861 0.1
    endloop
  endfacet
  facet normal 0.195096 -0.980784 0
    outer loop
       vertex -0.0840664 -0.247861 0.1
       vertex -0.0840664 -0.247861 0
       vertex -0.0519929 -0.241481 0
    endloop
  endfacet
  facet normal 0.0654098 -0.997858 0
    outer loop
       vertex -0.116698 -0.25 0
       vertex -0.0840664 -0.247861 0
       vertex -0.0840664 -0.247861 0.1
    endloop
  endfacet
  facet normal 0.0654098 -0.997858 1.0893e-16
    outer loop
       vertex -0.0840664 -0.247861 0.1
       vertex -0.116698 -0.25 0.1
       vertex -0.116698 -0.25 0
    endloop
  endfacet
  facet normal -0.0654098 -0.997858 0
    outer loop
       vertex -0.116698 -0.25 0.1
       vertex -0.149329 -0.247861 0.1
       vertex -0.149329 -0.247861 0
    endloop
  endfacet
  facet normal -0.0654098 -0.997858 -1.0893e-16
    outer loop
       vertex -0.149329 -0.247861 0
       vertex -0.116698 -0.25 0
       vertex -0.116698 -0.25 0.1
    endloop
  endfacet
  facet normal -0.195096 -0.980784 0
    outer loop
       vertex -0.149329 -0.247861 0
       vertex -0.149329 -0.247861 0.1
       vertex -0.181403 -0.241481 0.1
    endloop
  endfacet
  facet normal -0.195096 -0.980784 -0
    outer loop
       vertex -0.181403 -0.241481 0.1
       vertex -0.181403 -0.241481 0
       vertex -0.149329 -0.247861 0
    endloop
  endfacet
  facet normal -0.321425 -0.946935 0
    outer loop
       vertex -0.181403 -0.241481 0
       vertex -0.181403 -0.241481 0.1
       vertex -0.212369 -0.23097 0.1
    endloop
  endfacet
  facet normal -0.321425 -0.946935 -0
    outer loop
       vertex -0.212369 -0.23097 0.1
       vertex -0.212369 -0.23097 0
       vertex -0.181403 -0.241481 0
    endloop
  endfacet
  facet normal -0.442302 -0.896866 0
    outer loop
       vertex -0.212369 -0.23097 0
       vertex -0.212369 -0.23097 0.1
       vertex -0.241698 -0.216506 0.1
    endloop
  endfacet
  facet normal -0.442302 -0.896866 -0
    outer loop
       vertex -0.241698 -0.216506 0.1
       vertex -0.241698 -0.216506 0
       vertex -0.212369 -0.23097 0
    endloop
  endfacet
  facet normal -0.555561 -0.831476 0
    outer loop
       vertex -0.241698 -0.216506 0
       vertex -0.241698 -0.216506 0.1
       vertex -0.268889 -0.198338 0.1
    endloop
  endfacet
  facet normal -0.555561 -0.831476 -0
    outer loop
       vertex -0.268889 -0.198338 0.1
       vertex -0.268889 -0.198338 0
       vertex -0.241698 -0.216506 0
    endloop
  endfacet
  facet normal -0.659372 -0.751817 0
    outer loop
       vertex -0.268889 -0.198338 0
       vertex -0.268889 -0.198338 0.1
       vertex -0.293474 -0.176776 0.1
    endloop
  endfacet
  facet normal -0.659372 -0.751817 -0
    outer loop
       vertex -0.293474 -0.176776 0.1
       vertex -0.293474 -0.176776 0
       vertex -0.268889 -0.198338 0
    endloop
  endfacet
endsolid cylinder
