solid cylinder
  facet normal 0.751817 -0.659372 0
    outer loop
       vertex 0.423085 -0.176776 0
       vertex 0.444647 -0.152191 0
       vertex 0.444647 -0.152191 0.1
    endloop
  endfacet
  facet normal 0.751817 -0.659372 0
    outer loop
       vertex 0.444647 -0.152191 0.1
       vertex 0.423085 -0.176776 0.1
       vertex 0.423085 -0.176776 0
    endloop
  endfacet
  facet normal 0.831476 -0.555561 0
    outer loop
       vertex 0.444647 -0.152191 0
       vertex 0.462815 -0.125 0
       vertex 0.462815 -0.125 0.1
    endloop
  endfacet
  facet normal 0.831476 -0.555561 0
    outer loop
       vertex 0.462815 -0.125 0.1
       vertex 0.444647 -0.152191 0.1
       vertex 0.444647 -0.152191 0
    endloop
  endfacet
  facet normal 0.896866 -0.442302 0
    outer loop
       vertex 0.462815 -0.125 0
       vertex 0.477279 -0.095671 0
       vertex 0.477279 -0.095671 0.1
    endloop
  endfacet
  facet normal 0.896866 -0.442302 0
    outer loop
       vertex 0.477279 -0.095671 0.1
       vertex 0.462815 -0.125 0.1
       vertex 0.462815 -0.125 0
    endloop
  endfacet
  facet normal 0.946935 -0.321425 0
    outer loop
       vertex 0.477279 -0.095671 0
       vertex 0.48779 -0.064705 0
       vertex 0.48779 -0.064705 0.1
    endloop
  endfacet
  facet normal 0.946935 -0.321425 0
    outer loop
       vertex 0.48779 -0.064705 0.1
       vertex 0.477279 -0.095671 0.1
       vertex 0.477279 -0.095671 0
    endloop
  endfacet
  facet normal 0.980784 -0.195096 0
    outer loop
       vertex 0.48779 -0.064705 0
       vertex 0.49417 -0.0326315 0
       vertex 0.49417 -0.0326315 0.1
    endloop
  endfacet
  facet normal 0.980784 -0.195096 0
    outer loop
       vertex 0.49417 -0.0326315 0.1
       vertex 0.48779 -0.064705 0.1
       vertex 0.48779 -0.064705 0
    endloop
  endfacet
  facet normal 0.997858 -0.0654098 0
    outer loop
       vertex 0.496309 -8.32665e-17 0.1
       vertex 0.49417 -0.0326315 0.1
       vertex 0.49417 -0.0326315 0
    endloop
  endfacet
  facet normal 0.997858 -0.0654098 -1.08928e-16
    outer loop
       vertex 0.49417 -0.0326315 0
       vertex 0.496309 8.32665e-17 0
       vertex 0.496309 -8.32665e-17 0.1
    endloop
  endfacet
  facet normal 0.997858 0.0654098 0
    outer loop
       vertex 0.496309 8.32665e-17 0
       vertex 0.49417 0.0326315 0
       vertex 0.49417 0.0326315 0.1
    endloop
  endfacet
  facet normal 0.997858 0.0654098 1.08928e-16
    outer loop
       vertex 0.49417 0.0326315 0.1
       vertex 0.496309 -8.32665e-17 0.1
       vertex 0.496309 8.32665e-17 0
    endloop
  endfacet
  facet normal 0.980784 0.195096 0
    outer loop
       vertex 0.49417 0.0326315 0
       vertex 0.48779 0.064705 0
       vertex 0.48779 0.064705 0.1
    endloop
  endfacet
  facet normal 0.980784 0.195096 0
    outer loop
       vertex 0.48779 0.064705 0.1
       vertex 0.49417 0.0326315 0.1
       vertex 0.49417 0.0326315 0
    endloop
  endfacet
  facet normal 0.946935 0.321425 0
    outer loop
       vertex 0.48779 0.064705 0
       vertex 0.477279 0.095671 0
       vertex 0.477279 0.095671 0.1
    endloop
  endfacet
  facet normal 0.946935 0.321425 0
    outer loop
       vertex 0.477279 0.095671 0.1
       vertex 0.48779 0.064705 0.1
       vertex 0.48779 0.064705 0
    endloop
  endfacet
  facet normal 0.896866 0.442302 0
    outer loop
       vertex 0.477279 0.095671 0
       vertex 0.462815 0.125 0
       vertex 0.462815 0.125 0.1
    endloop
  endfacet
  facet normal 0.896866 0.442302 0
    outer loop
       vertex 0.462815 0.125 0.1
       vertex 0.477279 0.095671 0.1
       vertex 0.477279 0.095671 0
    endloop
  endfacet
  facet normal 0.831476 0.555561 0
    outer loop
       vertex 0.462815 0.125 0
       vertex 0.444647 0.152191 0
       vertex 0.444647 0.152191 0.1
    endloop
  endfacet
  facet normal 0.831476 0.555561 0
    outer loop
       vertex 0.444647 0.152191 0.1
       vertex 0.462815 0.125 0.1
       vertex 0.462815 0.125 0
    endloop
  endfacet
  facet normal 0.751817 0.659372 0
    outer loop
       vertex 0.444647 0.152191 0
       vertex 0.423085 0.176776 0
       vertex 0.423085 0.176776 0.1
    endloop
  endfacet
  facet normal 0.751817 0.659372 0
    outer loop
       vertex 0.423085 0.176776 0.1
       vertex 0.444647 0.152191 0.1
       vertex 0.444647 0.152191 0
    endloop
  endfacet
  facet normal 0.659372 0.751817 0
    outer loop
       vertex 0.423085 0.176776 0
       vertex 0.3985 0.198338 0
       vertex 0.3985 0.198338 0.1
    endloop
  endfacet
  facet normal 0.659372 0.751817 0
    outer loop
       vertex 0.3985 0.198338 0.1
       vertex 0.423085 0.176776 0.1
       vertex 0.423085 0.176776 0
    endloop
  endfacet
  facet normal 0.555561 0.831476 0
    outer loop
       vertex 0.3985 0.198338 0
       vertex 0.371309 0.216506 0
       vertex 0.371309 0.216506 0.1
    endloop
  endfacet
  facet normal 0.555561 0.831476 0
    outer loop
       vertex 0.371309 0.216506 0.1
       vertex 0.3985 0.198338 0.1
       vertex 0.3985 0.198338 0
    endloop
  endfacet
  facet normal 0.442302 0.896866 0
    outer loop
       vertex 0.371309 0.216506 0
       vertex 0.34198 0.23097 0
       vertex 0.34198 0.23097 0.1
    endloop
  endfacet
  facet normal 0.442302 0.896866 0
    outer loop
       vertex 0.34198 0.23097 0.1
       vertex 0.371309 0.216506 0.1
       vertex 0.371309 0.216506 0
    endloop
  endfacet
  facet normal 0.321425 0.946935 0
    outer loop
       vertex 0.34198 0.23097 0
       vertex 0.311014 0.241481 0
       vertex 0.311014 0.241481 0.1
    endloop
  endfacet
  facet normal 0.321425 0.946935 0
    outer loop
       vertex 0.311014 0.241481 0.1
       vertex 0.34198 0.23097 0.1
       vertex 0.34198 0.23097 0
    endloop
  endfacet
  facet normal 0.195096 0.980784 0
    outer loop
       vertex 0.311014 0.241481 0
       vertex 0.278941 0.247861 0
       vertex 0.278941 0.247861 0.1
    endloop
  endfacet
  facet normal 0.195096 0.980784 0
    outer loop
       vertex 0.278941 0.247861 0.1
       vertex 0.311014 0.241481 0.1
       vertex 0.311014 0.241481 0
    endloop
  endfacet
  facet normal 0.0654098 0.997858 0
    outer loop
       vertex 0.246309 0.25 0.1
       vertex 0.278941 0.247861 0.1
       vertex 0.278941 0.247861 0
    endloop
  endfacet
  facet normal 0.0654098 0.997858 -1.0893e-16
    outer loop
       vertex 0.278941 0.247861 0
       vertex 0.246309 0.25 0
       vertex 0.246309 0.25 0.1
    endloop
  endfacet
  facet normal -0.0654098 0.997858 0
    outer loop
       vertex 0.246309 0.25 0
       vertex 0.213678 0.247861 0
       vertex 0.213678 0.247861 0.1
    endloop
  endfacet
  facet normal -0.0654098 0.997858 1.0893e-16
    outer loop
       vertex 0.213678 0.247861 0.1
       vertex 0.246309 0.25 0.1
       vertex 0.246309 0.25 0
    endloop
  endfacet
  facet normal -0.195096 0.980784 0
    outer loop
       vertex 0.213678 0.247861 0
       vertex 0.181604 0.241481 0
       vertex 0.181604 0.241481 0.1
    endloop
  endfacet
  facet normal -0.195096 0.980784 0
    outer loop
       vertex 0.181604 0.241481 0.1
       vertex 0.213678 0.247861 0.1
       vertex 0.213678 0.247861 0
    endloop
  endfacet
  facet normal -0.321425 0.946935 0
    outer loop
       vertex 0.181604 0.241481 0
       vertex 0.150638 0.23097 0
       vertex 0.150638 0.23097 0.1
    endloop
  endfacet
  facet normal -0.321425 0.946935 0
    outer loop
       vertex 0.150638 0.23097 0.1
       vertex 0.181604 0.241481 0.1
       vertex 0.181604 0.241481 0
    endloop
  endfacet
  facet normal -0.442302 0.896866 0
    outer loop
       vertex 0.150638 0.23097 0
       vertex 0.121309 0.216506 0
       vertex 0.121309 0.216506 0.1
    endloop
  endfacet
  facet normal -0.442302 0.896866 0
    outer loop
       vertex 0.121309 0.216506 0.1
       vertex 0.150638 0.23097 0.1
       vertex 0.150638 0.23097 0
    endloop
  endfacet
  facet normal -0.555561 0.831476 0
    outer loop
       vertex 0.121309 0.216506 0
       vertex 0.0941182 0.198338 0
       vertex 0.0941182 0.198338 0.1
    endloop
  endfacet
  facet normal -0.555561 0.831476 0
    outer loop
       vertex 0.0941182 0.198338 0.1
       vertex 0.121309 0.216506 0.1
       vertex 0.121309 0.216506 0
    endloop
  endfacet
  facet normal -0.659372 0.751817 0
    outer loop
       vertex 0.0941182 0.198338 0
       vertex 0.0695332 0.176776 0
       vertex 0.0695332 0.176776 0.1
    endloop
  endfacet
  facet normal -0.659372 0.751817 0
    outer loop
       vertex 0.0695332 0.176776 0.1
       vertex 0.0941182 0.198338 0.1
       vertex 0.0941182 0.198338 0
    endloop
  endfacet
  facet normal -0.751817 0.659372 0
    outer loop
       vertex 0.0695332 0.176776 0
       vertex 0.0479712 0.152191 0
       vertex 0.0479712 0.152191 0.1
    endloop
  endfacet
  facet normal -0.751817 0.659372 0
    outer loop
       vertex 0.0479712 0.152191 0.1
       vertex 0.0695332 0.176776 0.1
       vertex 0.0695332 0.176776 0
    endloop
  endfacet
  facet normal -0.831476 0.555561 0
    outer loop
       vertex 0.0479712 0.152191 0
       vertex 0.0298032 0.125 0
       vertex 0.0298032 0.125 0.1
    endloop
  endfacet
  facet normal -0.831476 0.555561 0
    outer loop
       vertex 0.0298032 0.125 0.1
       vertex 0.0479712 0.152191 0.1
       vertex 0.0479712 0.152191 0
    endloop
  endfacet
  facet normal -0.896866 0.442302 0
    outer loop
       vertex 0.0298032 0.125 0
       vertex 0.0153392 0.095671 0
       vertex 0.0153392 0.095671 0.1
    endloop
  endfacet
  facet normal -0.896866 0.442302 0
    outer loop
       vertex 0.0153392 0.095671 0.1
       vertex 0.0298032 0.125 0.1
       vertex 0.0298032 0.125 0
    endloop
  endfacet
  facet normal -0.946935 0.321425 0
    outer loop
       vertex 0.0153392 0.095671 0
       vertex 0.00482825 0.064705 0
       vertex 0.00482825 0.064705 0.1
    endloop
  endfacet
  facet normal -0.946935 0.321425 0
    outer loop
       vertex 0.00482825 0.064705 0.1
       vertex 0.0153392 0.095671 0.1
       vertex 0.0153392 0.095671 0
    endloop
  endfacet
  facet normal -0.980784 0.195096 0
    outer loop
       vertex 0.00482825 0.064705 0
       vertex -0.00155175 0.0326315 0
       vertex -0.00155175 0.0326315 0.1
    endloop
  endfacet
  facet normal -0.980784 0.195096 0
    outer loop
       vertex -0.00155175 0.0326315 0.1
       vertex 0.00482825 0.064705 0.1
       vertex 0.00482825 0.064705 0
    endloop
  endfacet
  facet normal -0.997858 0.0654098 0
    outer loop
       vertex -0.00369075 8.32665e-17 0.1
       vertex -0.00155175 0.0326315 0.1
       vertex -0.00155175 0.0326315 0
    endloop
  endfacet
  facet normal -0.997858 0.0654098 -1.08928e-16
    outer loop
       vertex -0.00155175 0.0326315 0
       vertex -0.00369075 -8.32665e-17 0
       vertex -0.00369075 8.32665e-17 0.1
    endloop
  endfacet
  facet normal -0.997858 -0.0654098 0
    outer loop
       vertex -0.00369075 -8.32665e-17 0
       vertex -0.00155175 -0.0326315 0
       vertex -0.00155175 -0.0326315 0.1
    endloop
  endfacet
  facet normal -0.997858 -0.0654098 1.08928e-16
    outer loop
       vertex -0.00155175 -0.0326315 0.1
       vertex -0.00369075 8.32665e-17 0.1
       vertex -0.00369075 -8.32665e-17 0
    endloop
  endfacet
  facet normal -0.980784 -0.195096 0
    outer loop
       vertex -0.00155175 -0.0326315 0
       vertex 0.00482825 -0.064705 0
       vertex 0.00482825 -0.064705 0.1
    endloop
  endfacet
  facet normal -0.980784 -0.195096 0
    outer loop
       vertex 0.00482825 -0.064705 0.1
       vertex -0.00155175 -0.0326315 0.1
       vertex -0.00155175 -0.0326315 0
    endloop
  endfacet
  facet normal -0.946935 -0.321425 0
    outer loop
       vertex 0.00482825 -0.064705 0
       vertex 0.0153392 -0.095671 0
       vertex 0.0153392 -0.095671 0.1
    endloop
  endfacet
  facet normal -0.946935 -0.321425 0
    outer loop
       vertex 0.0153392 -0.095671 0.1
       vertex 0.00482825 -0.064705 0.1
       vertex 0.00482825 -0.064705 0
    endloop
  endfacet
  facet normal -0.896866 -0.442302 0
    outer loop
       vertex 0.0153392 -0.095671 0
       vertex 0.0298032 -0.125 0
       vertex 0.0298032 -0.125 0.1
    endloop
  endfacet
  facet normal -0.896866 -0.442302 0
    outer loop
       vertex 0.0298032 -0.125 0.1
       vertex 0.0153392 -0.095671 0.1
       vertex 0.0153392 -0.095671 0
    endloop
  endfacet
  facet normal -0.831476 -0.555561 0
    outer loop
       vertex 0.0298032 -0.125 0
       vertex 0.0479712 -0.152191 0
       vertex 0.0479712 -0.152191 0.1
    endloop
  endfacet
  facet normal -0.831476 -0.555561 0
    outer loop
       vertex 0.0479712 -0.152191 0.1
       vertex 0.0298032 -0.125 0.1
       vertex 0.0298032 -0.125 0
    endloop
  endfacet
  facet normal -0.751817 -0.659372 0
    outer loop
       vertex 0.0479712 -0.152191 0
       vertex 0.0695332 -0.176776 0
       vertex 0.0695332 -0.176776 0.1
    endloop
  endfacet
  facet normal -0.751817 -0.659372 0
    outer loop
       vertex 0.0695332 -0.176776 0.1
       vertex 0.0479712 -0.152191 0.1
       vertex 0.0479712 -0.152191 0
    endloop
  endfacet
  facet normal 0.659372 -0.751817 0
    outer loop
       vertex 0.423085 -0.176776 0
       vertex 0.423085 -0.176776 0.1
       vertex 0.3985 -0.198338 0.1
    endloop
  endfacet
  facet normal 0.659372 -0.751817 0
    outer loop
       vertex 0.3985 -0.198338 0.1
       vertex 0.3985 -0.198338 0
       vertex 0.423085 -0.176776 0
    endloop
  endfacet
  facet normal 0.555561 -0.831476 0
    outer loop
       vertex 0.3985 -0.198338 0
       vertex 0.3985 -0.198338 0.1
       vertex 0.371309 -0.216506 0.1
    endloop
  endfacet
  facet normal 0.555561 -0.831476 0
    outer loop
       vertex 0.371309 -0.216506 0.1
       vertex 0.371309 -0.216506 0
       vertex 0.3985 -0.198338 0
    endloop
  endfacet
  facet normal 0.442302 -0.896866 0
    outer loop
       vertex 0.371309 -0.216506 0
       vertex 0.371309 -0.216506 0.1
       vertex 0.34198 -0.23097 0.1
    endloop
  endfacet
  facet normal 0.442302 -0.896866 0
    outer loop
       vertex 0.34198 -0.23097 0.1
       vertex 0.34198 -0.23097 0
       vertex 0.371309 -0.216506 0
    endloop
  endfacet
  facet normal 0.321425 -0.946935 0
    outer loop
       vertex 0.34198 -0.23097 0
       vertex 0.34198 -0.23097 0.1
       vertex 0.311014 -0.241481 0.1
    endloop
  endfacet
  facet normal 0.321425 -0.946935 0
    outer loop
       vertex 0.311014 -0.241481 0.1
       vertex 0.311014 -0.241481 0
       vertex 0.34198 -0.23097 0
    endloop
  endfacet
  facet normal 0.195096 -0.980784 0
    outer loop
       vertex 0.311014 -0.241481 0
       vertex 0.311014 -0.241481 0.1
       vertex 0.278941 -0.247861 0.1
    endloop
  endfacet
  facet normal 0.195096 -0.980784 0
    outer loop
       vertex 0.278941 -0.247861 0.1
       vertex 0.278941 -0.247861 0
       vertex 0.311014 -0.241481 0
    endloop
  endfacet
  facet normal 0.0654098 -0.997858 0
    outer loop
       vertex 0.246309 -0.25 0
       vertex 0.278941 -0.247861 0
       vertex 0.278941 -0.247861 0.1
    endloop
  endfacet
  facet normal 0.0654098 -0.997858 1.0893e-16
    outer loop
       vertex 0.278941 -0.247861 0.1
       vertex 0.246309 -0.25 0.1
       vertex 0.246309 -0.25 0
    endloop
  endfacet
  facet normal -0.0654098 -0.997858 0
    outer loop
       vertex 0.246309 -0.25 0.1
       vertex 0.213678 -0.247861 0.1
       vertex 0.213678 -0.247861 0
    endloop
  endfacet
  facet normal -0.0654098 -0.997858 -1.0893e-16
    outer loop
       vertex 0.213678 -0.247861 0
       vertex 0.246309 -0.25 0
       vertex 0.246309 -0.25 0.1
    endloop
  endfacet
  facet normal -0.195096 -0.980784 0
    outer loop
       vertex 0.213678 -0.247861 0
       vertex 0.213678 -0.247861 0.1
       vertex 0.181604 -0.241481 0.1
    endloop
  endfacet
  facet normal -0.195096 -0.980784 -0
    outer loop
       vertex 0.181604 -0.241481 0.1
       vertex 0.181604 -0.241481 0
       vertex 0.213678 -0.247861 0
    endloop
  endfacet
  facet normal -0.321425 -0.946935 0
    outer loop
       vertex 0.181604 -0.241481 0
       vertex 0.181604 -0.241481 0.1
       vertex 0.150638 -0.23097 0.1
    endloop
  endfacet
  facet normal -0.321425 -0.946935 -0
    outer loop
       vertex 0.150638 -0.23097 0.1
       vertex 0.150638 -0.23097 0
       vertex 0.181604 -0.241481 0
    endloop
  endfacet
  facet normal -0.442302 -0.896866 0
    outer loop
       vertex 0.150638 -0.23097 0
       vertex 0.150638 -0.23097 0.1
       vertex 0.121309 -0.216506 0.1
    endloop
  endfacet
  facet normal -0.442302 -0.896866 -0
    outer loop
       vertex 0.121309 -0.216506 0.1
       vertex 0.121309 -0.216506 0
       vertex 0.150638 -0.23097 0
    endloop
  endfacet
  facet normal -0.555561 -0.831476 0
    outer loop
       vertex 0.121309 -0.216506 0
       vertex 0.121309 -0.216506 0.1
       vertex 0.0941182 -0.198338 0.1
    endloop
  endfacet
  facet normal -0.555561 -0.831476 -0
    outer loop
       vertex 0.0941182 -0.198338 0.1
       vertex 0.0941182 -0.198338 0
       vertex 0.121309 -0.216506 0
    endloop
  endfacet
  facet normal -0.659372 -0.751817 0
    outer loop
       vertex 0.0941182 -0.198338 0
       vertex 0.0941182 -0.198338 0.1
       vertex 0.0695332 -0.176776 0.1
    endloop
  endfacet
  facet normal -0.659372 -0.751817 -0
    outer loop
       vertex 0.0695332 -0.176776 0.1
       vertex 0.0695332 -0.176776 0
       vertex 0.0941182 -0.198338 0
    endloop
  endfacet
endsolid cylinder
