solid cylinder
  facet normal 0.751817 -0.659372 0
    outer loop
       vertex 0.431025 -0.176776 0
       vertex 0.452587 -0.152191 0
       vertex 0.452587 -0.152191 0.1
    endloop
  endfacet
  facet normal 0.751817 -0.659372 0
    outer loop
       vertex 0.452587 -0.152191 0.1
       vertex 0.431025 -0.176776 0.1
       vertex 0.431025 -0.176776 0
    endloop
  endfacet
  facet normal 0.831476 -0.555561 0
    outer loop
       vertex 0.452587 -0.152191 0
       vertex 0.470755 -0.125 0
       vertex 0.470755 -0.125 0.1
    endloop
  endfacet
  facet normal 0.831476 -0.555561 0
    outer loop
       vertex 0.470755 -0.125 0.1
       vertex 0.452587 -0.152191 0.1
       vertex 0.452587 -0.152191 0
    endloop
  endfacet
  facet normal 0.896866 -0.442302 0
    outer loop
       vertex 0.470755 -0.125 0
       vertex 0.485219 -0.095671 0
       vertex 0.485219 -0.095671 0.1
    endloop
  endfacet
  facet normal 0.896866 -0.442302 0
    outer loop
       vertex 0.485219 -0.095671 0.1
       vertex 0.470755 -0.125 0.1
       vertex 0.470755 -0.125 0
    endloop
  endfacet
  facet normal 0.946935 -0.321425 0
    outer loop
       vertex 0.485219 -0.095671 0
       vertex 0.49573 -0.064705 0
       vertex 0.49573 -0.064705 0.1
    endloop
  endfacet
  facet normal 0.946935 -0.321425 0
    outer loop
       vertex 0.49573 -0.064705 0.1
       vertex 0.485219 -0.095671 0.1
       vertex 0.485219 -0.095671 0
    endloop
  endfacet
  facet normal 0.980784 -0.195096 0
    outer loop
       vertex 0.49573 -0.064705 0
       vertex 0.50211 -0.0326315 0
       vertex 0.50211 -0.0326315 0.1
    endloop
  endfacet
  facet normal 0.980784 -0.195096 0
    outer loop
       vertex 0.50211 -0.0326315 0.1
       vertex 0.49573 -0.064705 0.1
       vertex 0.49573 -0.064705 0
    endloop
  endfacet
  facet normal 0.997858 -0.0654098 0
    outer loop
       vertex 0.504249 -8.32665e-17 0.1
       vertex 0.50211 -0.0326315 0.1
       vertex 0.50211 -0.0326315 0
    endloop
  endfacet
  facet normal 0.997858 -0.0654098 -1.0893e-16
    outer loop
       vertex 0.50211 -0.0326315 0
       vertex 0.504249 8.32665e-17 0
       vertex 0.504249 -8.32665e-17 0.1
    endloop
  endfacet
  facet normal 0.997858 0.0654098 0
    outer loop
       vertex 0.504249 8.32665e-17 0
       vertex 0.50211 0.0326315 0
       vertex 0.50211 0.0326315 0.1
    endloop
  endfacet
  facet normal 0.997858 0.0654098 1.0893e-16
    outer loop
       vertex 0.50211 0.0326315 0.1
       vertex 0.504249 -8.32665e-17 0.1
       vertex 0.504249 8.32665e-17 0
    endloop
  endfacet
  facet normal 0.980784 0.195096 0
    outer loop
       vertex 0.50211 0.0326315 0
       vertex 0.49573 0.064705 0
       vertex 0.49573 0.064705 0.1
    endloop
  endfacet
  facet normal 0.980784 0.195096 0
    outer loop
       vertex 0.49573 0.064705 0.1
       vertex 0.50211 0.0326315 0.1
       vertex 0.50211 0.0326315 0
    endloop
  endfacet
  facet normal 0.946935 0.321425 0
    outer loop
       vertex 0.49573 0.064705 0
       vertex 0.485219 0.095671 0
       vertex 0.485219 0.095671 0.1
    endloop
  endfacet
  facet normal 0.946935 0.321425 0
    outer loop
       vertex 0.485219 0.095671 0.1
       vertex 0.49573 0.064705 0.1
       vertex 0.49573 0.064705 0
    endloop
  endfacet
  facet normal 0.896866 0.442302 0
    outer loop
       vertex 0.485219 0.095671 0
       vertex 0.470755 0.125 0
       vertex 0.470755 0.125 0.1
    endloop
  endfacet
  facet normal 0.896866 0.442302 0
    outer loop
       vertex 0.470755 0.125 0.1
       vertex 0.485219 0.095671 0.1
       vertex 0.485219 0.095671 0
    endloop
  endfacet
  facet normal 0.831476 0.555561 0
    outer loop
       vertex 0.470755 0.125 0
       vertex 0.452587 0.152191 0
       vertex 0.452587 0.152191 0.1
    endloop
  endfacet
  facet normal 0.831476 0.555561 0
    outer loop
       vertex 0.452587 0.152191 0.1
       vertex 0.470755 0.125 0.1
       vertex 0.470755 0.125 0
    endloop
  endfacet
  facet normal 0.751817 0.659372 0
    outer loop
       vertex 0.452587 0.152191 0
       vertex 0.431025 0.176776 0
       vertex 0.431025 0.176776 0.1
    endloop
  endfacet
  facet normal 0.751817 0.659372 0
    outer loop
       vertex 0.431025 0.176776 0.1
       vertex 0.452587 0.152191 0.1
       vertex 0.452587 0.152191 0
    endloop
  endfacet
  facet normal 0.659372 0.751817 0
    outer loop
       vertex 0.431025 0.176776 0
       vertex 0.40644 0.198338 0
       vertex 0.40644 0.198338 0.1
    endloop
  endfacet
  facet normal 0.659372 0.751817 0
    outer loop
       vertex 0.40644 0.198338 0.1
       vertex 0.431025 0.176776 0.1
       vertex 0.431025 0.176776 0
    endloop
  endfacet
  facet normal 0.555561 0.831476 0
    outer loop
       vertex 0.40644 0.198338 0
       vertex 0.379249 0.216506 0
       vertex 0.379249 0.216506 0.1
    endloop
  endfacet
  facet normal 0.555561 0.831476 0
    outer loop
       vertex 0.379249 0.216506 0.1
       vertex 0.40644 0.198338 0.1
       vertex 0.40644 0.198338 0
    endloop
  endfacet
  facet normal 0.442302 0.896866 0
    outer loop
       vertex 0.379249 0.216506 0
       vertex 0.34992 0.23097 0
       vertex 0.34992 0.23097 0.1
    endloop
  endfacet
  facet normal 0.442302 0.896866 0
    outer loop
       vertex 0.34992 0.23097 0.1
       vertex 0.379249 0.216506 0.1
       vertex 0.379249 0.216506 0
    endloop
  endfacet
  facet normal 0.321425 0.946935 0
    outer loop
       vertex 0.34992 0.23097 0
       vertex 0.318954 0.241481 0
       vertex 0.318954 0.241481 0.1
    endloop
  endfacet
  facet normal 0.321425 0.946935 0
    outer loop
       vertex 0.318954 0.241481 0.1
       vertex 0.34992 0.23097 0.1
       vertex 0.34992 0.23097 0
    endloop
  endfacet
  facet normal 0.195096 0.980784 0
    outer loop
       vertex 0.318954 0.241481 0
       vertex 0.28688 0.247861 0
       vertex 0.28688 0.247861 0.1
    endloop
  endfacet
  facet normal 0.195096 0.980784 0
    outer loop
       vertex 0.28688 0.247861 0.1
       vertex 0.318954 0.241481 0.1
       vertex 0.318954 0.241481 0
    endloop
  endfacet
  facet normal 0.0654098 0.997858 0
    outer loop
       vertex 0.254249 0.25 0.1
       vertex 0.28688 0.247861 0.1
       vertex 0.28688 0.247861 0
    endloop
  endfacet
  facet normal 0.0654098 0.997858 -7.26205e-17
    outer loop
       vertex 0.28688 0.247861 0
       vertex 0.254249 0.25 0
       vertex 0.254249 0.25 0.1
    endloop
  endfacet
  facet normal -0.0654098 0.997858 0
    outer loop
       vertex 0.254249 0.25 0
       vertex 0.221617 0.247861 0
       vertex 0.221617 0.247861 0.1
    endloop
  endfacet
  facet normal -0.0654098 0.997858 7.26205e-17
    outer loop
       vertex 0.221617 0.247861 0.1
       vertex 0.254249 0.25 0.1
       vertex 0.254249 0.25 0
    endloop
  endfacet
  facet normal -0.195096 0.980784 0
    outer loop
       vertex 0.221617 0.247861 0
       vertex 0.189544 0.241481 0
       vertex 0.189544 0.241481 0.1
    endloop
  endfacet
  facet normal -0.195096 0.980784 0
    outer loop
       vertex 0.189544 0.241481 0.1
       vertex 0.221617 0.247861 0.1
       vertex 0.221617 0.247861 0
    endloop
  endfacet
  facet normal -0.321425 0.946935 0
    outer loop
       vertex 0.189544 0.241481 0
       vertex 0.158578 0.23097 0
       vertex 0.158578 0.23097 0.1
    endloop
  endfacet
  facet normal -0.321425 0.946935 0
    outer loop
       vertex 0.158578 0.23097 0.1
       vertex 0.189544 0.241481 0.1
       vertex 0.189544 0.241481 0
    endloop
  endfacet
  facet normal -0.442302 0.896866 0
    outer loop
       vertex 0.158578 0.23097 0
       vertex 0.129249 0.216506 0
       vertex 0.129249 0.216506 0.1
    endloop
  endfacet
  facet normal -0.442302 0.896866 0
    outer loop
       vertex 0.129249 0.216506 0.1
       vertex 0.158578 0.23097 0.1
       vertex 0.158578 0.23097 0
    endloop
  endfacet
  facet normal -0.555561 0.831476 0
    outer loop
       vertex 0.129249 0.216506 0
       vertex 0.102058 0.198338 0
       vertex 0.102058 0.198338 0.1
    endloop
  endfacet
  facet normal -0.555561 0.831476 0
    outer loop
       vertex 0.102058 0.198338 0.1
       vertex 0.129249 0.216506 0.1
       vertex 0.129249 0.216506 0
    endloop
  endfacet
  facet normal -0.659372 0.751817 0
    outer loop
       vertex 0.102058 0.198338 0
       vertex 0.0774727 0.176776 0
       vertex 0.0774727 0.176776 0.1
    endloop
  endfacet
  facet normal -0.659372 0.751817 0
    outer loop
       vertex 0.0774727 0.176776 0.1
       vertex 0.102058 0.198338 0.1
       vertex 0.102058 0.198338 0
    endloop
  endfacet
  facet normal -0.751817 0.659372 0
    outer loop
       vertex 0.0774727 0.176776 0
       vertex 0.0559107 0.152191 0
       vertex 0.0559107 0.152191 0.1
    endloop
  endfacet
  facet normal -0.751817 0.659372 0
    outer loop
       vertex 0.0559107 0.152191 0.1
       vertex 0.0774727 0.176776 0.1
       vertex 0.0774727 0.176776 0
    endloop
  endfacet
  facet normal -0.831476 0.555561 0
    outer loop
       vertex 0.0559107 0.152191 0
       vertex 0.0377427 0.125 0
       vertex 0.0377427 0.125 0.1
    endloop
  endfacet
  facet normal -0.831476 0.555561 0
    outer loop
       vertex 0.0377427 0.125 0.1
       vertex 0.0559107 0.152191 0.1
       vertex 0.0559107 0.152191 0
    endloop
  endfacet
  facet normal -0.896866 0.442302 0
    outer loop
       vertex 0.0377427 0.125 0
       vertex 0.0232787 0.095671 0
       vertex 0.0232787 0.095671 0.1
    endloop
  endfacet
  facet normal -0.896866 0.442302 0
    outer loop
       vertex 0.0232787 0.095671 0.1
       vertex 0.0377427 0.125 0.1
       vertex 0.0377427 0.125 0
    endloop
  endfacet
  facet normal -0.946935 0.321425 0
    outer loop
       vertex 0.0232787 0.095671 0
       vertex 0.0127677 0.064705 0
       vertex 0.0127677 0.064705 0.1
    endloop
  endfacet
  facet normal -0.946935 0.321425 0
    outer loop
       vertex 0.0127677 0.064705 0.1
       vertex 0.0232787 0.095671 0.1
       vertex 0.0232787 0.095671 0
    endloop
  endfacet
  facet normal -0.980784 0.195096 0
    outer loop
       vertex 0.0127677 0.064705 0
       vertex 0.00638767 0.0326315 0
       vertex 0.00638767 0.0326315 0.1
    endloop
  endfacet
  facet normal -0.980784 0.195096 0
    outer loop
       vertex 0.00638767 0.0326315 0.1
       vertex 0.0127677 0.064705 0.1
       vertex 0.0127677 0.064705 0
    endloop
  endfacet
  facet normal -0.997858 0.0654098 0
    outer loop
       vertex 0.00424867 8.32665e-17 0.1
       vertex 0.00638767 0.0326315 0.1
       vertex 0.00638767 0.0326315 0
    endloop
  endfacet
  facet normal -0.997858 0.0654098 -1.08928e-16
    outer loop
       vertex 0.00638767 0.0326315 0
       vertex 0.00424867 -8.32665e-17 0
       vertex 0.00424867 8.32665e-17 0.1
    endloop
  endfacet
  facet normal -0.997858 -0.0654098 0
    outer loop
       vertex 0.00424867 -8.32665e-17 0
       vertex 0.00638767 -0.0326315 0
       vertex 0.00638767 -0.0326315 0.1
    endloop
  endfacet
  facet normal -0.997858 -0.0654098 1.08928e-16
    outer loop
       vertex 0.00638767 -0.0326315 0.1
       vertex 0.00424867 8.32665e-17 0.1
       vertex 0.00424867 -8.32665e-17 0
    endloop
  endfacet
  facet normal -0.980784 -0.195096 0
    outer loop
       vertex 0.00638767 -0.0326315 0
       vertex 0.0127677 -0.064705 0
       vertex 0.0127677 -0.064705 0.1
    endloop
  endfacet
  facet normal -0.980784 -0.195096 0
    outer loop
       vertex 0.0127677 -0.064705 0.1
       vertex 0.00638767 -0.0326315 0.1
       vertex 0.00638767 -0.0326315 0
    endloop
  endfacet
  facet normal -0.946935 -0.321425 0
    outer loop
       vertex 0.0127677 -0.064705 0
       vertex 0.0232787 -0.095671 0
       vertex 0.0232787 -0.095671 0.1
    endloop
  endfacet
  facet normal -0.946935 -0.321425 0
    outer loop
       vertex 0.0232787 -0.095671 0.1
       vertex 0.0127677 -0.064705 0.1
       vertex 0.0127677 -0.064705 0
    endloop
  endfacet
  facet normal -0.896866 -0.442302 0
    outer loop
       vertex 0.0232787 -0.095671 0
       vertex 0.0377427 -0.125 0
       vertex 0.0377427 -0.125 0.1
    endloop
  endfacet
  facet normal -0.896866 -0.442302 0
    outer loop
       vertex 0.0377427 -0.125 0.1
       vertex 0.0232787 -0.095671 0.1
       vertex 0.0232787 -0.095671 0
    endloop
  endfacet
  facet normal -0.831476 -0.555561 0
    outer loop
       vertex 0.0377427 -0.125 0
       vertex 0.0559107 -0.152191 0
       vertex 0.0559107 -0.152191 0.1
    endloop
  endfacet
  facet normal -0.831476 -0.555561 0
    outer loop
       vertex 0.0559107 -0.152191 0.1
       vertex 0.0377427 -0.125 0.1
       vertex 0.0377427 -0.125 0
    endloop
  endfacet
  facet normal -0.751817 -0.659372 0
    outer loop
       vertex 0.0559107 -0.152191 0
       vertex 0.0774727 -0.176776 0
       vertex 0.0774727 -0.176776 0.1
    endloop
  endfacet
  facet normal -0.751817 -0.659372 0
    outer loop
       vertex 0.0774727 -0.176776 0.1
       vertex 0.0559107 -0.152191 0.1
       vertex 0.0559107 -0.152191 0
    endloop
  endfacet
  facet normal 0.659372 -0.751817 0
    outer loop
       vertex 0.431025 -0.176776 0
       vertex 0.431025 -0.176776 0.1
       vertex 0.40644 -0.198338 0.1
    endloop
  endfacet
  facet normal 0.659372 -0.751817 0
    outer loop
       vertex 0.40644 -0.198338 0.1
       vertex 0.40644 -0.198338 0
       vertex 0.431025 -0.176776 0
    endloop
  endfacet
  facet normal 0.555561 -0.831476 0
    outer loop
       vertex 0.40644 -0.198338 0
       vertex 0.40644 -0.198338 0.1
       vertex 0.379249 -0.216506 0.1
    endloop
  endfacet
  facet normal 0.555561 -0.831476 0
    outer loop
       vertex 0.379249 -0.216506 0.1
       vertex 0.379249 -0.216506 0
       vertex 0.40644 -0.198338 0
    endloop
  endfacet
  facet normal 0.442302 -0.896866 0
    outer loop
       vertex 0.379249 -0.216506 0
       vertex 0.379249 -0.216506 0.1
       vertex 0.34992 -0.23097 0.1
    endloop
  endfacet
  facet normal 0.442302 -0.896866 0
    outer loop
       vertex 0.34992 -0.23097 0.1
       vertex 0.34992 -0.23097 0
       vertex 0.379249 -0.216506 0
    endloop
  endfacet
  facet normal 0.321425 -0.946935 0
    outer loop
       vertex 0.34992 -0.23097 0
       vertex 0.34992 -0.23097 0.1
       vertex 0.318954 -0.241481 0.1
    endloop
  endfacet
  facet normal 0.321425 -0.946935 0
    outer loop
       vertex 0.318954 -0.241481 0.1
       vertex 0.318954 -0.241481 0
       vertex 0.34992 -0.23097 0
    endloop
  endfacet
  facet normal 0.195096 -0.980784 0
    outer loop
       vertex 0.318954 -0.241481 0
       vertex 0.318954 -0.241481 0.1
       vertex 0.28688 -0.247861 0.1
    endloop
  endfacet
  facet normal 0.195096 -0.980784 0
    outer loop
       vertex 0.28688 -0.247861 0.1
       vertex 0.28688 -0.247861 0
       vertex 0.318954 -0.241481 0
    endloop
  endfacet
  facet normal 0.0654098 -0.997858 0
    outer loop
       vertex 0.254249 -0.25 0
       vertex 0.28688 -0.247861 0
       vertex 0.28688 -0.247861 0.1
    endloop
  endfacet
  facet normal 0.0654098 -0.997858 7.26205e-17
    outer loop
       vertex 0.28688 -0.247861 0.1
       vertex 0.254249 -0.25 0.1
       vertex 0.254249 -0.25 0
    endloop
  endfacet
  facet normal -0.0654098 -0.997858 0
    outer loop
       vertex 0.254249 -0.25 0.1
       vertex 0.221617 -0.247861 0.1
       vertex 0.221617 -0.247861 0
    endloop
  endfacet
  facet normal -0.0654098 -0.997858 -7.26205e-17
    outer loop
       vertex 0.221617 -0.247861 0
       vertex 0.254249 -0.25 0
       vertex 0.254249 -0.25 0.1
    endloop
  endfacet
  facet normal -0.195096 -0.980784 0
    outer loop
       vertex 0.221617 -0.247861 0
       vertex 0.221617 -0.247861 0.1
       vertex 0.189544 -0.241481 0.1
    endloop
  endfacet
  facet normal -0.195096 -0.980784 -0
    outer loop
       vertex 0.189544 -0.241481 0.1
       vertex 0.189544 -0.241481 0
       vertex 0.221617 -0.247861 0
    endloop
  endfacet
  facet normal -0.321425 -0.946935 0
    outer loop
       vertex 0.189544 -0.241481 0
       vertex 0.189544 -0.241481 0.1
       vertex 0.158578 -0.23097 0.1
    endloop
  endfacet
  facet normal -0.321425 -0.946935 -0
    outer loop
       vertex 0.158578 -0.23097 0.1
       vertex 0.158578 -0.23097 0
       vertex 0.189544 -0.241481 0
    endloop
  endfacet
  facet normal -0.442302 -0.896866 0
    outer loop
       vertex 0.158578 -0.23097 0
       vertex 0.158578 -0.23097 0.1
       vertex 0.129249 -0.216506 0.1
    endloop
  endfacet
  facet normal -0.442302 -0.896866 -0
    outer loop
       vertex 0.129249 -0.216506 0.1
       vertex 0.129249 -0.216506 0
       vertex 0.158578 -0.23097 0
    endloop
  endfacet
  facet normal -0.555561 -0.831476 0
    outer loop
       vertex 0.129249 -0.216506 0
       vertex 0.129249 -0.216506 0.1
       vertex 0.102058 -0.198338 0.1
    endloop
  endfacet
  facet normal -0.555561 -0.831476 -0
    outer loop
       vertex 0.102058 -0.198338 0.1
       vertex 0.102058 -0.198338 0
       vertex 0.129249 -0.216506 0
    endloop
  endfacet
  facet normal -0.659372 -0.751817 0
    outer loop
       vertex 0.102058 -0.198338 0
       vertex 0.102058 -0.198338 0.1
       vertex 0.0774727 -0.176776 0.1
    endloop
  endfacet
  facet normal -0.659372 -0.751817 -0
    outer loop
       vertex 0.0774727 -0.176776 0.1
       vertex 0.0774727 -0.176776 0
       vertex 0.102058 -0.198338 0
    endloop
  endfacet
endsolid cylinder
