solid cylinder
  facet normal 0.751817 -0.659372 0
    outer loop
       vertex 0.197479 -0.176776 0
       vertex 0.219041 -0.152191 0
       vertex 0.219041 -0.152191 0.1
    endloop
  endfacet
  facet normal 0.751817 -0.659372 0
    outer loop
       vertex 0.219041 -0.152191 0.1
       vertex 0.197479 -0.176776 0.1
       vertex 0.197479 -0.176776 0
    endloop
  endfacet
  facet normal 0.831476 -0.555561 0
    outer loop
       vertex 0.219041 -0.152191 0
       vertex 0.237209 -0.125 0
       vertex 0.237209 -0.125 0.1
    endloop
  endfacet
  facet normal 0.831476 -0.555561 0
    outer loop
       vertex 0.237209 -0.125 0.1
       vertex 0.219041 -0.152191 0.1
       vertex 0.219041 -0.152191 0
    endloop
  endfacet
  facet normal 0.896866 -0.442302 0
    outer loop
       vertex 0.237209 -0.125 0
       vertex 0.251673 -0.095671 0
       vertex 0.251673 -0.095671 0.1
    endloop
  endfacet
  facet normal 0.896866 -0.442302 0
    outer loop
       vertex 0.251673 -0.095671 0.1
       vertex 0.237209 -0.125 0.1
       vertex 0.237209 -0.125 0
    endloop
  endfacet
  facet normal 0.946935 -0.321425 0
    outer loop
       vertex 0.251673 -0.095671 0
       vertex 0.262184 -0.064705 0
       vertex 0.262184 -0.064705 0.1
    endloop
  endfacet
  facet normal 0.946935 -0.321425 0
    outer loop
       vertex 0.262184 -0.064705 0.1
       vertex 0.251673 -0.095671 0.1
       vertex 0.251673 -0.095671 0
    endloop
  endfacet
  facet normal 0.980784 -0.195096 0
    outer loop
       vertex 0.262184 -0.064705 0
       vertex 0.268564 -0.0326315 0
       vertex 0.268564 -0.0326315 0.1
    endloop
  endfacet
  facet normal 0.980784 -0.195096 0
    outer loop
       vertex 0.268564 -0.0326315 0.1
       vertex 0.262184 -0.064705 0.1
       vertex 0.262184 -0.064705 0
    endloop
  endfacet
  facet normal 0.997858 -0.0654098 0
    outer loop
       vertex 0.270703 -8.32665e-17 0.1
       vertex 0.268564 -0.0326315 0.1
       vertex 0.268564 -0.0326315 0
    endloop
  endfacet
  facet normal 0.997858 -0.0654098 -1.08928e-16
    outer loop
       vertex 0.268564 -0.0326315 0
       vertex 0.270703 8.32665e-17 0
       vertex 0.270703 -8.32665e-17 0.1
    endloop
  endfacet
  facet normal 0.997858 0.0654098 0
    outer loop
       vertex 0.270703 8.32665e-17 0
       vertex 0.268564 0.0326315 0
       vertex 0.268564 0.0326315 0.1
    endloop
  endfacet
  facet normal 0.997858 0.0654098 1.08928e-16
    outer loop
       vertex 0.268564 0.0326315 0.1
       vertex 0.270703 -8.32665e-17 0.1
       vertex 0.270703 8.32665e-17 0
    endloop
  endfacet
  facet normal 0.980784 0.195096 0
    outer loop
       vertex 0.268564 0.0326315 0
       vertex 0.262184 0.064705 0
       vertex 0.262184 0.064705 0.1
    endloop
  endfacet
  facet normal 0.980784 0.195096 0
    outer loop
       vertex 0.262184 0.064705 0.1
       vertex 0.268564 0.0326315 0.1
       vertex 0.268564 0.0326315 0
    endloop
  endfacet
  facet normal 0.946935 0.321425 0
    outer loop
       vertex 0.262184 0.064705 0
       vertex 0.251673 0.095671 0
       vertex 0.251673 0.095671 0.1
    endloop
  endfacet
  facet normal 0.946935 0.321425 0
    outer loop
       vertex 0.251673 0.095671 0.1
       vertex 0.262184 0.064705 0.1
       vertex 0.262184 0.064705 0
    endloop
  endfacet
  facet normal 0.896866 0.442302 0
    outer loop
       vertex 0.251673 0.095671 0
       vertex 0.237209 0.125 0
       vertex 0.237209 0.125 0.1
    endloop
  endfacet
  facet normal 0.896866 0.442302 0
    outer loop
       vertex 0.237209 0.125 0.1
       vertex 0.251673 0.095671 0.1
       vertex 0.251673 0.095671 0
    endloop
  endfacet
  facet normal 0.831476 0.555561 0
    outer loop
       vertex 0.237209 0.125 0
       vertex 0.219041 0.152191 0
       vertex 0.219041 0.152191 0.1
    endloop
  endfacet
  facet normal 0.831476 0.555561 0
    outer loop
       vertex 0.219041 0.152191 0.1
       vertex 0.237209 0.125 0.1
       vertex 0.237209 0.125 0
    endloop
  endfacet
  facet normal 0.751817 0.659372 0
    outer loop
       vertex 0.219041 0.152191 0
       vertex 0.197479 0.176776 0
       vertex 0.197479 0.176776 0.1
    endloop
  endfacet
  facet normal 0.751817 0.659372 0
    outer loop
       vertex 0.197479 0.176776 0.1
       vertex 0.219041 0.152191 0.1
       vertex 0.219041 0.152191 0
    endloop
  endfacet
  facet normal 0.659372 0.751817 0
    outer loop
       vertex 0.197479 0.176776 0
       vertex 0.172894 0.198338 0
       vertex 0.172894 0.198338 0.1
    endloop
  endfacet
  facet normal 0.659372 0.751817 0
    outer loop
       vertex 0.172894 0.198338 0.1
       vertex 0.197479 0.176776 0.1
       vertex 0.197479 0.176776 0
    endloop
  endfacet
  facet normal 0.555561 0.831476 0
    outer loop
       vertex 0.172894 0.198338 0
       vertex 0.145703 0.216506 0
       vertex 0.145703 0.216506 0.1
    endloop
  endfacet
  facet normal 0.555561 0.831476 0
    outer loop
       vertex 0.145703 0.216506 0.1
       vertex 0.172894 0.198338 0.1
       vertex 0.172894 0.198338 0
    endloop
  endfacet
  facet normal 0.442302 0.896866 0
    outer loop
       vertex 0.145703 0.216506 0
       vertex 0.116374 0.23097 0
       vertex 0.116374 0.23097 0.1
    endloop
  endfacet
  facet normal 0.442302 0.896866 0
    outer loop
       vertex 0.116374 0.23097 0.1
       vertex 0.145703 0.216506 0.1
       vertex 0.145703 0.216506 0
    endloop
  endfacet
  facet normal 0.321425 0.946935 0
    outer loop
       vertex 0.116374 0.23097 0
       vertex 0.0854079 0.241481 0
       vertex 0.0854079 0.241481 0.1
    endloop
  endfacet
  facet normal 0.321425 0.946935 0
    outer loop
       vertex 0.0854079 0.241481 0.1
       vertex 0.116374 0.23097 0.1
       vertex 0.116374 0.23097 0
    endloop
  endfacet
  facet normal 0.195096 0.980784 0
    outer loop
       vertex 0.0854079 0.241481 0
       vertex 0.0533344 0.247861 0
       vertex 0.0533344 0.247861 0.1
    endloop
  endfacet
  facet normal 0.195096 0.980784 0
    outer loop
       vertex 0.0533344 0.247861 0.1
       vertex 0.0854079 0.241481 0.1
       vertex 0.0854079 0.241481 0
    endloop
  endfacet
  facet normal 0.0654098 0.997858 0
    outer loop
       vertex 0.0207029 0.25 0.1
       vertex 0.0533344 0.247861 0.1
       vertex 0.0533344 0.247861 0
    endloop
  endfacet
  facet normal 0.0654098 0.997858 -1.08928e-16
    outer loop
       vertex 0.0533344 0.247861 0
       vertex 0.0207029 0.25 0
       vertex 0.0207029 0.25 0.1
    endloop
  endfacet
  facet normal -0.0654098 0.997858 0
    outer loop
       vertex 0.0207029 0.25 0
       vertex -0.0119286 0.247861 0
       vertex -0.0119286 0.247861 0.1
    endloop
  endfacet
  facet normal -0.0654098 0.997858 1.08928e-16
    outer loop
       vertex -0.0119286 0.247861 0.1
       vertex 0.0207029 0.25 0.1
       vertex 0.0207029 0.25 0
    endloop
  endfacet
  facet normal -0.195096 0.980784 0
    outer loop
       vertex -0.0119286 0.247861 0
       vertex -0.0440021 0.241481 0
       vertex -0.0440021 0.241481 0.1
    endloop
  endfacet
  facet normal -0.195096 0.980784 0
    outer loop
       vertex -0.0440021 0.241481 0.1
       vertex -0.0119286 0.247861 0.1
       vertex -0.0119286 0.247861 0
    endloop
  endfacet
  facet normal -0.321425 0.946935 0
    outer loop
       vertex -0.0440021 0.241481 0
       vertex -0.0749681 0.23097 0
       vertex -0.0749681 0.23097 0.1
    endloop
  endfacet
  facet normal -0.321425 0.946935 0
    outer loop
       vertex -0.0749681 0.23097 0.1
       vertex -0.0440021 0.241481 0.1
       vertex -0.0440021 0.241481 0
    endloop
  endfacet
  facet normal -0.442302 0.896866 0
    outer loop
       vertex -0.0749681 0.23097 0
       vertex -0.104297 0.216506 0
       vertex -0.104297 0.216506 0.1
    endloop
  endfacet
  facet normal -0.442302 0.896866 0
    outer loop
       vertex -0.104297 0.216506 0.1
       vertex -0.0749681 0.23097 0.1
       vertex -0.0749681 0.23097 0
    endloop
  endfacet
  facet normal -0.555561 0.831476 0
    outer loop
       vertex -0.104297 0.216506 0
       vertex -0.131488 0.198338 0
       vertex -0.131488 0.198338 0.1
    endloop
  endfacet
  facet normal -0.555561 0.831476 0
    outer loop
       vertex -0.131488 0.198338 0.1
       vertex -0.104297 0.216506 0.1
       vertex -0.104297 0.216506 0
    endloop
  endfacet
  facet normal -0.659372 0.751817 0
    outer loop
       vertex -0.131488 0.198338 0
       vertex -0.156073 0.176776 0
       vertex -0.156073 0.176776 0.1
    endloop
  endfacet
  facet normal -0.659372 0.751817 0
    outer loop
       vertex -0.156073 0.176776 0.1
       vertex -0.131488 0.198338 0.1
       vertex -0.131488 0.198338 0
    endloop
  endfacet
  facet normal -0.751817 0.659372 0
    outer loop
       vertex -0.156073 0.176776 0
       vertex -0.177635 0.152191 0
       vertex -0.177635 0.152191 0.1
    endloop
  endfacet
  facet normal -0.751817 0.659372 0
    outer loop
       vertex -0.177635 0.152191 0.1
       vertex -0.156073 0.176776 0.1
       vertex -0.156073 0.176776 0
    endloop
  endfacet
  facet normal -0.831476 0.555561 0
    outer loop
       vertex -0.177635 0.152191 0
       vertex -0.195803 0.125 0
       vertex -0.195803 0.125 0.1
    endloop
  endfacet
  facet normal -0.831476 0.555561 0
    outer loop
       vertex -0.195803 0.125 0.1
       vertex -0.177635 0.152191 0.1
       vertex -0.177635 0.152191 0
    endloop
  endfacet
  facet normal -0.896866 0.442302 0
    outer loop
       vertex -0.195803 0.125 0
       vertex -0.210267 0.095671 0
       vertex -0.210267 0.095671 0.1
    endloop
  endfacet
  facet normal -0.896866 0.442302 0
    outer loop
       vertex -0.210267 0.095671 0.1
       vertex -0.195803 0.125 0.1
       vertex -0.195803 0.125 0
    endloop
  endfacet
  facet normal -0.946935 0.321425 0
    outer loop
       vertex -0.210267 0.095671 0
       vertex -0.220778 0.064705 0
       vertex -0.220778 0.064705 0.1
    endloop
  endfacet
  facet normal -0.946935 0.321425 0
    outer loop
       vertex -0.220778 0.064705 0.1
       vertex -0.210267 0.095671 0.1
       vertex -0.210267 0.095671 0
    endloop
  endfacet
  facet normal -0.980784 0.195096 0
    outer loop
       vertex -0.220778 0.064705 0
       vertex -0.227158 0.0326315 0
       vertex -0.227158 0.0326315 0.1
    endloop
  endfacet
  facet normal -0.980784 0.195096 0
    outer loop
       vertex -0.227158 0.0326315 0.1
       vertex -0.220778 0.064705 0.1
       vertex -0.220778 0.064705 0
    endloop
  endfacet
  facet normal -0.997858 0.0654098 0
    outer loop
       vertex -0.229297 8.32665e-17 0.1
       vertex -0.227158 0.0326315 0.1
       vertex -0.227158 0.0326315 0
    endloop
  endfacet
  facet normal -0.997858 0.0654098 -1.08928e-16
    outer loop
       vertex -0.227158 0.0326315 0
       vertex -0.229297 -8.32665e-17 0
       vertex -0.229297 8.32665e-17 0.1
    endloop
  endfacet
  facet normal -0.997858 -0.0654098 0
    outer loop
       vertex -0.229297 -8.32665e-17 0
       vertex -0.227158 -0.0326315 0
       vertex -0.227158 -0.0326315 0.1
    endloop
  endfacet
  facet normal -0.997858 -0.0654098 1.08928e-16
    outer loop
       vertex -0.227158 -0.0326315 0.1
       vertex -0.229297 8.32665e-17 0.1
       vertex -0.229297 -8.32665e-17 0
    endloop
  endfacet
  facet normal -0.980784 -0.195096 0
    outer loop
       vertex -0.227158 -0.0326315 0
       vertex -0.220778 -0.064705 0
       vertex -0.220778 -0.064705 0.1
    endloop
  endfacet
  facet normal -0.980784 -0.195096 0
    outer loop
       vertex -0.220778 -0.064705 0.1
       vertex -0.227158 -0.0326315 0.1
       vertex -0.227158 -0.0326315 0
    endloop
  endfacet
  facet normal -0.946935 -0.321425 0
    outer loop
       vertex -0.220778 -0.064705 0
       vertex -0.210267 -0.095671 0
       vertex -0.210267 -0.095671 0.1
    endloop
  endfacet
  facet normal -0.946935 -0.321425 0
    outer loop
       vertex -0.210267 -0.095671 0.1
       vertex -0.220778 -0.064705 0.1
       vertex -0.220778 -0.064705 0
    endloop
  endfacet
  facet normal -0.896866 -0.442302 0
    outer loop
       vertex -0.210267 -0.095671 0
       vertex -0.195803 -0.125 0
       vertex -0.195803 -0.125 0.1
    endloop
  endfacet
  facet normal -0.896866 -0.442302 0
    outer loop
       vertex -0.195803 -0.125 0.1
       vertex -0.210267 -0.095671 0.1
       vertex -0.210267 -0.095671 0
    endloop
  endfacet
  facet normal -0.831476 -0.555561 0
    outer loop
       vertex -0.195803 -0.125 0
       vertex -0.177635 -0.152191 0
       vertex -0.177635 -0.152191 0.1
    endloop
  endfacet
  facet normal -0.831476 -0.555561 0
    outer loop
       vertex -0.177635 -0.152191 0.1
       vertex -0.195803 -0.125 0.1
       vertex -0.195803 -0.125 0
    endloop
  endfacet
  facet normal -0.751817 -0.659372 0
    outer loop
       vertex -0.177635 -0.152191 0
       vertex -0.156073 -0.176776 0
       vertex -0.156073 -0.176776 0.1
    endloop
  endfacet
  facet normal -0.751817 -0.659372 0
    outer loop
       vertex -0.156073 -0.176776 0.1
       vertex -0.177635 -0.152191 0.1
       vertex -0.177635 -0.152191 0
    endloop
  endfacet
  facet normal 0.659372 -0.751817 0
    outer loop
       vertex 0.197479 -0.176776 0
       vertex 0.197479 -0.176776 0.1
       vertex 0.172894 -0.198338 0.1
    endloop
  endfacet
  facet normal 0.659372 -0.751817 0
    outer loop
       vertex 0.172894 -0.198338 0.1
       vertex 0.172894 -0.198338 0
       vertex 0.197479 -0.176776 0
    endloop
  endfacet
  facet normal 0.555561 -0.831476 0
    outer loop
       vertex 0.172894 -0.198338 0
       vertex 0.172894 -0.198338 0.1
       vertex 0.145703 -0.216506 0.1
    endloop
  endfacet
  facet normal 0.555561 -0.831476 0
    outer loop
       vertex 0.145703 -0.216506 0.1
       vertex 0.145703 -0.216506 0
       vertex 0.172894 -0.198338 0
    endloop
  endfacet
  facet normal 0.442302 -0.896866 0
    outer loop
       vertex 0.145703 -0.216506 0
       vertex 0.145703 -0.216506 0.1
       vertex 0.116374 -0.23097 0.1
    endloop
  endfacet
  facet normal 0.442302 -0.896866 0
    outer loop
       vertex 0.116374 -0.23097 0.1
       vertex 0.116374 -0.23097 0
       vertex 0.145703 -0.216506 0
    endloop
  endfacet
  facet normal 0.321425 -0.946935 0
    outer loop
       vertex 0.116374 -0.23097 0
       vertex 0.116374 -0.23097 0.1
       vertex 0.0854079 -0.241481 0.1
    endloop
  endfacet
  facet normal 0.321425 -0.946935 0
    outer loop
       vertex 0.0854079 -0.241481 0.1
       vertex 0.0854079 -0.241481 0
       vertex 0.116374 -0.23097 0
    endloop
  endfacet
  facet normal 0.195096 -0.980784 0
    outer loop
       vertex 0.0854079 -0.241481 0
       vertex 0.0854079 -0.241481 0.1
       vertex 0.0533344 -0.247861 0.1
    endloop
  endfacet
  facet normal 0.195096 -0.980784 0
    outer loop
       vertex 0.0533344 -0.247861 0.1
       vertex 0.0533344 -0.247861 0
       vertex 0.0854079 -0.241481 0
    endloop
  endfacet
  facet normal 0.0654098 -0.997858 0
    outer loop
       vertex 0.0207029 -0.25 0
       vertex 0.0533344 -0.247861 0
       vertex 0.0533344 -0.247861 0.1
    endloop
  endfacet
  facet normal 0.0654098 -0.997858 1.08928e-16
    outer loop
       vertex 0.0533344 -0.247861 0.1
       vertex 0.0207029 -0.25 0.1
       vertex 0.0207029 -0.25 0
    endloop
  endfacet
  facet normal -0.0654098 -0.997858 0
    outer loop
       vertex 0.0207029 -0.25 0.1
       vertex -0.0119286 -0.247861 0.1
       vertex -0.0119286 -0.247861 0
    endloop
  endfacet
  facet normal -0.0654098 -0.997858 -1.08928e-16
    outer loop
       vertex -0.0119286 -0.247861 0
       vertex 0.0207029 -0.25 0
       vertex 0.0207029 -0.25 0.1
    endloop
  endfacet
  facet normal -0.195096 -0.980784 0
    outer loop
       vertex -0.0119286 -0.247861 0
       vertex -0.0119286 -0.247861 0.1
       vertex -0.0440021 -0.241481 0.1
    endloop
  endfacet
  facet normal -0.195096 -0.980784 -0
    outer loop
       vertex -0.0440021 -0.241481 0.1
       vertex -0.0440021 -0.241481 0
       vertex -0.0119286 -0.247861 0
    endloop
  endfacet
  facet normal -0.321425 -0.946935 0
    outer loop
       vertex -0.0440021 -0.241481 0
       vertex -0.0440021 -0.241481 0.1
       vertex -0.0749681 -0.23097 0.1
    endloop
  endfacet
  facet normal -0.321425 -0.946935 -0
    outer loop
       vertex -0.0749681 -0.23097 0.1
       vertex -0.0749681 -0.23097 0
       vertex -0.0440021 -0.241481 0
    endloop
  endfacet
  facet normal -0.442302 -0.896866 0
    outer loop
       vertex -0.0749681 -0.23097 0
       vertex -0.0749681 -0.23097 0.1
       vertex -0.104297 -0.216506 0.1
    endloop
  endfacet
  facet normal -0.442302 -0.896866 -0
    outer loop
       vertex -0.104297 -0.216506 0.1
       vertex -0.104297 -0.216506 0
       vertex -0.0749681 -0.23097 0
    endloop
  endfacet
  facet normal -0.555561 -0.831476 0
    outer loop
       vertex -0.104297 -0.216506 0
       vertex -0.104297 -0.216506 0.1
       vertex -0.131488 -0.198338 0.1
    endloop
  endfacet
  facet normal -0.555561 -0.831476 -0
    outer loop
       vertex -0.131488 -0.198338 0.1
       vertex -0.131488 -0.198338 0
       vertex -0.104297 -0.216506 0
    endloop
  endfacet
  facet normal -0.659372 -0.751817 0
    outer loop
       vertex -0.131488 -0.198338 0
       vertex -0.131488 -0.198338 0.1
       vertex -0.156073 -0.176776 0.1
    endloop
  endfacet
  facet normal -0.659372 -0.751817 -0
    outer loop
       vertex -0.156073 -0.176776 0.1
       vertex -0.156073 -0.176776 0
       vertex -0.131488 -0.198338 0
    endloop
  endfacet
endsolid cylinder
