solid cylinder
  facet normal 0.751817 -0.659372 0
    outer loop
       vertex 0.434274 -0.176776 0
       vertex 0.455836 -0.152191 0
       vertex 0.455836 -0.152191 0.1
    endloop
  endfacet
  facet normal 0.751817 -0.659372 0
    outer loop
       vertex 0.455836 -0.152191 0.1
       vertex 0.434274 -0.176776 0.1
       vertex 0.434274 -0.176776 0
    endloop
  endfacet
  facet normal 0.831476 -0.555561 0
    outer loop
       vertex 0.455836 -0.152191 0
       vertex 0.474004 -0.125 0
       vertex 0.474004 -0.125 0.1
    endloop
  endfacet
  facet normal 0.831476 -0.555561 0
    outer loop
       vertex 0.474004 -0.125 0.1
       vertex 0.455836 -0.152191 0.1
       vertex 0.455836 -0.152191 0
    endloop
  endfacet
  facet normal 0.896866 -0.442302 0
    outer loop
       vertex 0.474004 -0.125 0
       vertex 0.488468 -0.095671 0
       vertex 0.488468 -0.095671 0.1
    endloop
  endfacet
  facet normal 0.896866 -0.442302 0
    outer loop
       vertex 0.488468 -0.095671 0.1
       vertex 0.474004 -0.125 0.1
       vertex 0.474004 -0.125 0
    endloop
  endfacet
  facet normal 0.946935 -0.321425 0
    outer loop
       vertex 0.488468 -0.095671 0
       vertex 0.498979 -0.064705 0
       vertex 0.498979 -0.064705 0.1
    endloop
  endfacet
  facet normal 0.946935 -0.321425 0
    outer loop
       vertex 0.498979 -0.064705 0.1
       vertex 0.488468 -0.095671 0.1
       vertex 0.488468 -0.095671 0
    endloop
  endfacet
  facet normal 0.980784 -0.195096 0
    outer loop
       vertex 0.498979 -0.064705 0
       vertex 0.505359 -0.0326315 0
       vertex 0.505359 -0.0326315 0.1
    endloop
  endfacet
  facet normal 0.980784 -0.195096 0
    outer loop
       vertex 0.505359 -0.0326315 0.1
       vertex 0.498979 -0.064705 0.1
       vertex 0.498979 -0.064705 0
    endloop
  endfacet
  facet normal 0.997858 -0.0654098 0
    outer loop
       vertex 0.507498 -8.32665e-17 0.1
       vertex 0.505359 -0.0326315 0.1
       vertex 0.505359 -0.0326315 0
    endloop
  endfacet
  facet normal 0.997858 -0.0654098 -1.0893e-16
    outer loop
       vertex 0.505359 -0.0326315 0
       vertex 0.507498 8.32665e-17 0
       vertex 0.507498 -8.32665e-17 0.1
    endloop
  endfacet
  facet normal 0.997858 0.0654098 0
    outer loop
       vertex 0.507498 8.32665e-17 0
       vertex 0.505359 0.0326315 0
       vertex 0.505359 0.0326315 0.1
    endloop
  endfacet
  facet normal 0.997858 0.0654098 1.0893e-16
    outer loop
       vertex 0.505359 0.0326315 0.1
       vertex 0.507498 -8.32665e-17 0.1
       vertex 0.507498 8.32665e-17 0
    endloop
  endfacet
  facet normal 0.980784 0.195096 0
    outer loop
       vertex 0.505359 0.0326315 0
       vertex 0.498979 0.064705 0
       vertex 0.498979 0.064705 0.1
    endloop
  endfacet
  facet normal 0.980784 0.195096 0
    outer loop
       vertex 0.498979 0.064705 0.1
       vertex 0.505359 0.0326315 0.1
       vertex 0.505359 0.0326315 0
    endloop
  endfacet
  facet normal 0.946935 0.321425 0
    outer loop
       vertex 0.498979 0.064705 0
       vertex 0.488468 0.095671 0
       vertex 0.488468 0.095671 0.1
    endloop
  endfacet
  facet normal 0.946935 0.321425 0
    outer loop
       vertex 0.488468 0.095671 0.1
       vertex 0.498979 0.064705 0.1
       vertex 0.498979 0.064705 0
    endloop
  endfacet
  facet normal 0.896866 0.442302 0
    outer loop
       vertex 0.488468 0.095671 0
       vertex 0.474004 0.125 0
       vertex 0.474004 0.125 0.1
    endloop
  endfacet
  facet normal 0.896866 0.442302 0
    outer loop
       vertex 0.474004 0.125 0.1
       vertex 0.488468 0.095671 0.1
       vertex 0.488468 0.095671 0
    endloop
  endfacet
  facet normal 0.831476 0.555561 0
    outer loop
       vertex 0.474004 0.125 0
       vertex 0.455836 0.152191 0
       vertex 0.455836 0.152191 0.1
    endloop
  endfacet
  facet normal 0.831476 0.555561 0
    outer loop
       vertex 0.455836 0.152191 0.1
       vertex 0.474004 0.125 0.1
       vertex 0.474004 0.125 0
    endloop
  endfacet
  facet normal 0.751817 0.659372 0
    outer loop
       vertex 0.455836 0.152191 0
       vertex 0.434274 0.176776 0
       vertex 0.434274 0.176776 0.1
    endloop
  endfacet
  facet normal 0.751817 0.659372 0
    outer loop
       vertex 0.434274 0.176776 0.1
       vertex 0.455836 0.152191 0.1
       vertex 0.455836 0.152191 0
    endloop
  endfacet
  facet normal 0.659372 0.751817 0
    outer loop
       vertex 0.434274 0.176776 0
       vertex 0.409689 0.198338 0
       vertex 0.409689 0.198338 0.1
    endloop
  endfacet
  facet normal 0.659372 0.751817 0
    outer loop
       vertex 0.409689 0.198338 0.1
       vertex 0.434274 0.176776 0.1
       vertex 0.434274 0.176776 0
    endloop
  endfacet
  facet normal 0.555561 0.831476 0
    outer loop
       vertex 0.409689 0.198338 0
       vertex 0.382498 0.216506 0
       vertex 0.382498 0.216506 0.1
    endloop
  endfacet
  facet normal 0.555561 0.831476 0
    outer loop
       vertex 0.382498 0.216506 0.1
       vertex 0.409689 0.198338 0.1
       vertex 0.409689 0.198338 0
    endloop
  endfacet
  facet normal 0.442302 0.896866 0
    outer loop
       vertex 0.382498 0.216506 0
       vertex 0.353169 0.23097 0
       vertex 0.353169 0.23097 0.1
    endloop
  endfacet
  facet normal 0.442302 0.896866 0
    outer loop
       vertex 0.353169 0.23097 0.1
       vertex 0.382498 0.216506 0.1
       vertex 0.382498 0.216506 0
    endloop
  endfacet
  facet normal 0.321425 0.946935 0
    outer loop
       vertex 0.353169 0.23097 0
       vertex 0.322203 0.241481 0
       vertex 0.322203 0.241481 0.1
    endloop
  endfacet
  facet normal 0.321425 0.946935 0
    outer loop
       vertex 0.322203 0.241481 0.1
       vertex 0.353169 0.23097 0.1
       vertex 0.353169 0.23097 0
    endloop
  endfacet
  facet normal 0.195096 0.980784 0
    outer loop
       vertex 0.322203 0.241481 0
       vertex 0.29013 0.247861 0
       vertex 0.29013 0.247861 0.1
    endloop
  endfacet
  facet normal 0.195096 0.980784 0
    outer loop
       vertex 0.29013 0.247861 0.1
       vertex 0.322203 0.241481 0.1
       vertex 0.322203 0.241481 0
    endloop
  endfacet
  facet normal 0.0654098 0.997858 0
    outer loop
       vertex 0.257498 0.25 0.1
       vertex 0.29013 0.247861 0.1
       vertex 0.29013 0.247861 0
    endloop
  endfacet
  facet normal 0.0654098 0.997858 -7.26205e-17
    outer loop
       vertex 0.29013 0.247861 0
       vertex 0.257498 0.25 0
       vertex 0.257498 0.25 0.1
    endloop
  endfacet
  facet normal -0.0654098 0.997858 0
    outer loop
       vertex 0.257498 0.25 0
       vertex 0.224867 0.247861 0
       vertex 0.224867 0.247861 0.1
    endloop
  endfacet
  facet normal -0.0654098 0.997858 7.26205e-17
    outer loop
       vertex 0.224867 0.247861 0.1
       vertex 0.257498 0.25 0.1
       vertex 0.257498 0.25 0
    endloop
  endfacet
  facet normal -0.195096 0.980784 0
    outer loop
       vertex 0.224867 0.247861 0
       vertex 0.192793 0.241481 0
       vertex 0.192793 0.241481 0.1
    endloop
  endfacet
  facet normal -0.195096 0.980784 0
    outer loop
       vertex 0.192793 0.241481 0.1
       vertex 0.224867 0.247861 0.1
       vertex 0.224867 0.247861 0
    endloop
  endfacet
  facet normal -0.321425 0.946935 0
    outer loop
       vertex 0.192793 0.241481 0
       vertex 0.161827 0.23097 0
       vertex 0.161827 0.23097 0.1
    endloop
  endfacet
  facet normal -0.321425 0.946935 0
    outer loop
       vertex 0.161827 0.23097 0.1
       vertex 0.192793 0.241481 0.1
       vertex 0.192793 0.241481 0
    endloop
  endfacet
  facet normal -0.442302 0.896866 0
    outer loop
       vertex 0.161827 0.23097 0
       vertex 0.132498 0.216506 0
       vertex 0.132498 0.216506 0.1
    endloop
  endfacet
  facet normal -0.442302 0.896866 0
    outer loop
       vertex 0.132498 0.216506 0.1
       vertex 0.161827 0.23097 0.1
       vertex 0.161827 0.23097 0
    endloop
  endfacet
  facet normal -0.555561 0.831476 0
    outer loop
       vertex 0.132498 0.216506 0
       vertex 0.105307 0.198338 0
       vertex 0.105307 0.198338 0.1
    endloop
  endfacet
  facet normal -0.555561 0.831476 0
    outer loop
       vertex 0.105307 0.198338 0.1
       vertex 0.132498 0.216506 0.1
       vertex 0.132498 0.216506 0
    endloop
  endfacet
  facet normal -0.659372 0.751817 0
    outer loop
       vertex 0.105307 0.198338 0
       vertex 0.0807224 0.176776 0
       vertex 0.0807224 0.176776 0.1
    endloop
  endfacet
  facet normal -0.659372 0.751817 0
    outer loop
       vertex 0.0807224 0.176776 0.1
       vertex 0.105307 0.198338 0.1
       vertex 0.105307 0.198338 0
    endloop
  endfacet
  facet normal -0.751817 0.659372 0
    outer loop
       vertex 0.0807224 0.176776 0
       vertex 0.0591604 0.152191 0
       vertex 0.0591604 0.152191 0.1
    endloop
  endfacet
  facet normal -0.751817 0.659372 0
    outer loop
       vertex 0.0591604 0.152191 0.1
       vertex 0.0807224 0.176776 0.1
       vertex 0.0807224 0.176776 0
    endloop
  endfacet
  facet normal -0.831476 0.555561 0
    outer loop
       vertex 0.0591604 0.152191 0
       vertex 0.0409924 0.125 0
       vertex 0.0409924 0.125 0.1
    endloop
  endfacet
  facet normal -0.831476 0.555561 0
    outer loop
       vertex 0.0409924 0.125 0.1
       vertex 0.0591604 0.152191 0.1
       vertex 0.0591604 0.152191 0
    endloop
  endfacet
  facet normal -0.896866 0.442302 0
    outer loop
       vertex 0.0409924 0.125 0
       vertex 0.0265284 0.095671 0
       vertex 0.0265284 0.095671 0.1
    endloop
  endfacet
  facet normal -0.896866 0.442302 0
    outer loop
       vertex 0.0265284 0.095671 0.1
       vertex 0.0409924 0.125 0.1
       vertex 0.0409924 0.125 0
    endloop
  endfacet
  facet normal -0.946935 0.321425 0
    outer loop
       vertex 0.0265284 0.095671 0
       vertex 0.0160174 0.064705 0
       vertex 0.0160174 0.064705 0.1
    endloop
  endfacet
  facet normal -0.946935 0.321425 0
    outer loop
       vertex 0.0160174 0.064705 0.1
       vertex 0.0265284 0.095671 0.1
       vertex 0.0265284 0.095671 0
    endloop
  endfacet
  facet normal -0.980784 0.195096 0
    outer loop
       vertex 0.0160174 0.064705 0
       vertex 0.00963744 0.0326315 0
       vertex 0.00963744 0.0326315 0.1
    endloop
  endfacet
  facet normal -0.980784 0.195096 0
    outer loop
       vertex 0.00963744 0.0326315 0.1
       vertex 0.0160174 0.064705 0.1
       vertex 0.0160174 0.064705 0
    endloop
  endfacet
  facet normal -0.997858 0.0654098 0
    outer loop
       vertex 0.00749844 8.32665e-17 0.1
       vertex 0.00963744 0.0326315 0.1
       vertex 0.00963744 0.0326315 0
    endloop
  endfacet
  facet normal -0.997858 0.0654098 -1.08928e-16
    outer loop
       vertex 0.00963744 0.0326315 0
       vertex 0.00749844 -8.32665e-17 0
       vertex 0.00749844 8.32665e-17 0.1
    endloop
  endfacet
  facet normal -0.997858 -0.0654098 0
    outer loop
       vertex 0.00749844 -8.32665e-17 0
       vertex 0.00963744 -0.0326315 0
       vertex 0.00963744 -0.0326315 0.1
    endloop
  endfacet
  facet normal -0.997858 -0.0654098 1.08928e-16
    outer loop
       vertex 0.00963744 -0.0326315 0.1
       vertex 0.00749844 8.32665e-17 0.1
       vertex 0.00749844 -8.32665e-17 0
    endloop
  endfacet
  facet normal -0.980784 -0.195096 0
    outer loop
       vertex 0.00963744 -0.0326315 0
       vertex 0.0160174 -0.064705 0
       vertex 0.0160174 -0.064705 0.1
    endloop
  endfacet
  facet normal -0.980784 -0.195096 0
    outer loop
       vertex 0.0160174 -0.064705 0.1
       vertex 0.00963744 -0.0326315 0.1
       vertex 0.00963744 -0.0326315 0
    endloop
  endfacet
  facet normal -0.946935 -0.321425 0
    outer loop
       vertex 0.0160174 -0.064705 0
       vertex 0.0265284 -0.095671 0
       vertex 0.0265284 -0.095671 0.1
    endloop
  endfacet
  facet normal -0.946935 -0.321425 0
    outer loop
       vertex 0.0265284 -0.095671 0.1
       vertex 0.0160174 -0.064705 0.1
       vertex 0.0160174 -0.064705 0
    endloop
  endfacet
  facet normal -0.896866 -0.442302 0
    outer loop
       vertex 0.0265284 -0.095671 0
       vertex 0.0409924 -0.125 0
       vertex 0.0409924 -0.125 0.1
    endloop
  endfacet
  facet normal -0.896866 -0.442302 0
    outer loop
       vertex 0.0409924 -0.125 0.1
       vertex 0.0265284 -0.095671 0.1
       vertex 0.0265284 -0.095671 0
    endloop
  endfacet
  facet normal -0.831476 -0.555561 0
    outer loop
       vertex 0.0409924 -0.125 0
       vertex 0.0591604 -0.152191 0
       vertex 0.0591604 -0.152191 0.1
    endloop
  endfacet
  facet normal -0.831476 -0.555561 0
    outer loop
       vertex 0.0591604 -0.152191 0.1
       vertex 0.0409924 -0.125 0.1
       vertex 0.0409924 -0.125 0
    endloop
  endfacet
  facet normal -0.751817 -0.659372 0
    outer loop
       vertex 0.0591604 -0.152191 0
       vertex 0.0807224 -0.176776 0
       vertex 0.0807224 -0.176776 0.1
    endloop
  endfacet
  facet normal -0.751817 -0.659372 0
    outer loop
       vertex 0.0807224 -0.176776 0.1
       vertex 0.0591604 -0.152191 0.1
       vertex 0.0591604 -0.152191 0
    endloop
  endfacet
  facet normal 0.659372 -0.751817 0
    outer loop
       vertex 0.434274 -0.176776 0
       vertex 0.434274 -0.176776 0.1
       vertex 0.409689 -0.198338 0.1
    endloop
  endfacet
  facet normal 0.659372 -0.751817 0
    outer loop
       vertex 0.409689 -0.198338 0.1
       vertex 0.409689 -0.198338 0
       vertex 0.434274 -0.176776 0
    endloop
  endfacet
  facet normal 0.555561 -0.831476 0
    outer loop
       vertex 0.409689 -0.198338 0
       vertex 0.409689 -0.198338 0.1
       vertex 0.382498 -0.216506 0.1
    endloop
  endfacet
  facet normal 0.555561 -0.831476 0
    outer loop
       vertex 0.382498 -0.216506 0.1
       vertex 0.382498 -0.216506 0
       vertex 0.409689 -0.198338 0
    endloop
  endfacet
  facet normal 0.442302 -0.896866 0
    outer loop
       vertex 0.382498 -0.216506 0
       vertex 0.382498 -0.216506 0.1
       vertex 0.353169 -0.23097 0.1
    endloop
  endfacet
  facet normal 0.442302 -0.896866 0
    outer loop
       vertex 0.353169 -0.23097 0.1
       vertex 0.353169 -0.23097 0
       vertex 0.382498 -0.216506 0
    endloop
  endfacet
  facet normal 0.321425 -0.946935 0
    outer loop
       vertex 0.353169 -0.23097 0
       vertex 0.353169 -0.23097 0.1
       vertex 0.322203 -0.241481 0.1
    endloop
  endfacet
  facet normal 0.321425 -0.946935 0
    outer loop
       vertex 0.322203 -0.241481 0.1
       vertex 0.322203 -0.241481 0
       vertex 0.353169 -0.23097 0
    endloop
  endfacet
  facet normal 0.195096 -0.980784 0
    outer loop
       vertex 0.322203 -0.241481 0
       vertex 0.322203 -0.241481 0.1
       vertex 0.29013 -0.247861 0.1
    endloop
  endfacet
  facet normal 0.195096 -0.980784 0
    outer loop
       vertex 0.29013 -0.247861 0.1
       vertex 0.29013 -0.247861 0
       vertex 0.322203 -0.241481 0
    endloop
  endfacet
  facet normal 0.0654098 -0.997858 0
    outer loop
       vertex 0.257498 -0.25 0
       vertex 0.29013 -0.247861 0
       vertex 0.29013 -0.247861 0.1
    endloop
  endfacet
  facet normal 0.0654098 -0.997858 7.26205e-17
    outer loop
       vertex 0.29013 -0.247861 0.1
       vertex 0.257498 -0.25 0.1
       vertex 0.257498 -0.25 0
    endloop
  endfacet
  facet normal -0.0654098 -0.997858 0
    outer loop
       vertex 0.257498 -0.25 0.1
       vertex 0.224867 -0.247861 0.1
       vertex 0.224867 -0.247861 0
    endloop
  endfacet
  facet normal -0.0654098 -0.997858 -7.26205e-17
    outer loop
       vertex 0.224867 -0.247861 0
       vertex 0.257498 -0.25 0
       vertex 0.257498 -0.25 0.1
    endloop
  endfacet
  facet normal -0.195096 -0.980784 0
    outer loop
       vertex 0.224867 -0.247861 0
       vertex 0.224867 -0.247861 0.1
       vertex 0.192793 -0.241481 0.1
    endloop
  endfacet
  facet normal -0.195096 -0.980784 -0
    outer loop
       vertex 0.192793 -0.241481 0.1
       vertex 0.192793 -0.241481 0
       vertex 0.224867 -0.247861 0
    endloop
  endfacet
  facet normal -0.321425 -0.946935 0
    outer loop
       vertex 0.192793 -0.241481 0
       vertex 0.192793 -0.241481 0.1
       vertex 0.161827 -0.23097 0.1
    endloop
  endfacet
  facet normal -0.321425 -0.946935 -0
    outer loop
       vertex 0.161827 -0.23097 0.1
       vertex 0.161827 -0.23097 0
       vertex 0.192793 -0.241481 0
    endloop
  endfacet
  facet normal -0.442302 -0.896866 0
    outer loop
       vertex 0.161827 -0.23097 0
       vertex 0.161827 -0.23097 0.1
       vertex 0.132498 -0.216506 0.1
    endloop
  endfacet
  facet normal -0.442302 -0.896866 -0
    outer loop
       vertex 0.132498 -0.216506 0.1
       vertex 0.132498 -0.216506 0
       vertex 0.161827 -0.23097 0
    endloop
  endfacet
  facet normal -0.555561 -0.831476 0
    outer loop
       vertex 0.132498 -0.216506 0
       vertex 0.132498 -0.216506 0.1
       vertex 0.105307 -0.198338 0.1
    endloop
  endfacet
  facet normal -0.555561 -0.831476 -0
    outer loop
       vertex 0.105307 -0.198338 0.1
       vertex 0.105307 -0.198338 0
       vertex 0.132498 -0.216506 0
    endloop
  endfacet
  facet normal -0.659372 -0.751817 0
    outer loop
       vertex 0.105307 -0.198338 0
       vertex 0.105307 -0.198338 0.1
       vertex 0.0807224 -0.176776 0.1
    endloop
  endfacet
  facet normal -0.659372 -0.751817 -0
    outer loop
       vertex 0.0807224 -0.176776 0.1
       vertex 0.0807224 -0.176776 0
       vertex 0.105307 -0.198338 0
    endloop
  endfacet
endsolid cylinder
