solid cylinder
  facet normal 0.751817 -0.659372 0
    outer loop
       vertex 0.238982 -0.176776 0
       vertex 0.260544 -0.152191 0
       vertex 0.260544 -0.152191 0.1
    endloop
  endfacet
  facet normal 0.751817 -0.659372 0
    outer loop
       vertex 0.260544 -0.152191 0.1
       vertex 0.238982 -0.176776 0.1
       vertex 0.238982 -0.176776 0
    endloop
  endfacet
  facet normal 0.831476 -0.555561 0
    outer loop
       vertex 0.260544 -0.152191 0
       vertex 0.278712 -0.125 0
       vertex 0.278712 -0.125 0.1
    endloop
  endfacet
  facet normal 0.831476 -0.555561 0
    outer loop
       vertex 0.278712 -0.125 0.1
       vertex 0.260544 -0.152191 0.1
       vertex 0.260544 -0.152191 0
    endloop
  endfacet
  facet normal 0.896866 -0.442302 0
    outer loop
       vertex 0.278712 -0.125 0
       vertex 0.293176 -0.095671 0
       vertex 0.293176 -0.095671 0.1
    endloop
  endfacet
  facet normal 0.896866 -0.442302 0
    outer loop
       vertex 0.293176 -0.095671 0.1
       vertex 0.278712 -0.125 0.1
       vertex 0.278712 -0.125 0
    endloop
  endfacet
  facet normal 0.946935 -0.321425 0
    outer loop
       vertex 0.293176 -0.095671 0
       vertex 0.303687 -0.064705 0
       vertex 0.303687 -0.064705 0.1
    endloop
  endfacet
  facet normal 0.946935 -0.321425 0
    outer loop
       vertex 0.303687 -0.064705 0.1
       vertex 0.293176 -0.095671 0.1
       vertex 0.293176 -0.095671 0
    endloop
  endfacet
  facet normal 0.980784 -0.195096 0
    outer loop
       vertex 0.303687 -0.064705 0
       vertex 0.310067 -0.0326315 0
       vertex 0.310067 -0.0326315 0.1
    endloop
  endfacet
  facet normal 0.980784 -0.195096 0
    outer loop
       vertex 0.310067 -0.0326315 0.1
       vertex 0.303687 -0.064705 0.1
       vertex 0.303687 -0.064705 0
    endloop
  endfacet
  facet normal 0.997858 -0.0654098 0
    outer loop
       vertex 0.312206 -8.32665e-17 0.1
       vertex 0.310067 -0.0326315 0.1
       vertex 0.310067 -0.0326315 0
    endloop
  endfacet
  facet normal 0.997858 -0.0654098 -1.08928e-16
    outer loop
       vertex 0.310067 -0.0326315 0
       vertex 0.312206 8.32665e-17 0
       vertex 0.312206 -8.32665e-17 0.1
    endloop
  endfacet
  facet normal 0.997858 0.0654098 0
    outer loop
       vertex 0.312206 8.32665e-17 0
       vertex 0.310067 0.0326315 0
       vertex 0.310067 0.0326315 0.1
    endloop
  endfacet
  facet normal 0.997858 0.0654098 1.08928e-16
    outer loop
       vertex 0.310067 0.0326315 0.1
       vertex 0.312206 -8.32665e-17 0.1
       vertex 0.312206 8.32665e-17 0
    endloop
  endfacet
  facet normal 0.980784 0.195096 0
    outer loop
       vertex 0.310067 0.0326315 0
       vertex 0.303687 0.064705 0
       vertex 0.303687 0.064705 0.1
    endloop
  endfacet
  facet normal 0.980784 0.195096 0
    outer loop
       vertex 0.303687 0.064705 0.1
       vertex 0.310067 0.0326315 0.1
       vertex 0.310067 0.0326315 0
    endloop
  endfacet
  facet normal 0.946935 0.321425 0
    outer loop
       vertex 0.303687 0.064705 0
       vertex 0.293176 0.095671 0
       vertex 0.293176 0.095671 0.1
    endloop
  endfacet
  facet normal 0.946935 0.321425 0
    outer loop
       vertex 0.293176 0.095671 0.1
       vertex 0.303687 0.064705 0.1
       vertex 0.303687 0.064705 0
    endloop
  endfacet
  facet normal 0.896866 0.442302 0
    outer loop
       vertex 0.293176 0.095671 0
       vertex 0.278712 0.125 0
       vertex 0.278712 0.125 0.1
    endloop
  endfacet
  facet normal 0.896866 0.442302 0
    outer loop
       vertex 0.278712 0.125 0.1
       vertex 0.293176 0.095671 0.1
       vertex 0.293176 0.095671 0
    endloop
  endfacet
  facet normal 0.831476 0.555561 0
    outer loop
       vertex 0.278712 0.125 0
       vertex 0.260544 0.152191 0
       vertex 0.260544 0.152191 0.1
    endloop
  endfacet
  facet normal 0.831476 0.555561 0
    outer loop
       vertex 0.260544 0.152191 0.1
       vertex 0.278712 0.125 0.1
       vertex 0.278712 0.125 0
    endloop
  endfacet
  facet normal 0.751817 0.659372 0
    outer loop
       vertex 0.260544 0.152191 0
       vertex 0.238982 0.176776 0
       vertex 0.238982 0.176776 0.1
    endloop
  endfacet
  facet normal 0.751817 0.659372 0
    outer loop
       vertex 0.238982 0.176776 0.1
       vertex 0.260544 0.152191 0.1
       vertex 0.260544 0.152191 0
    endloop
  endfacet
  facet normal 0.659372 0.751817 0
    outer loop
       vertex 0.238982 0.176776 0
       vertex 0.214397 0.198338 0
       vertex 0.214397 0.198338 0.1
    endloop
  endfacet
  facet normal 0.659372 0.751817 0
    outer loop
       vertex 0.214397 0.198338 0.1
       vertex 0.238982 0.176776 0.1
       vertex 0.238982 0.176776 0
    endloop
  endfacet
  facet normal 0.555561 0.831476 0
    outer loop
       vertex 0.214397 0.198338 0
       vertex 0.187206 0.216506 0
       vertex 0.187206 0.216506 0.1
    endloop
  endfacet
  facet normal 0.555561 0.831476 0
    outer loop
       vertex 0.187206 0.216506 0.1
       vertex 0.214397 0.198338 0.1
       vertex 0.214397 0.198338 0
    endloop
  endfacet
  facet normal 0.442302 0.896866 0
    outer loop
       vertex 0.187206 0.216506 0
       vertex 0.157877 0.23097 0
       vertex 0.157877 0.23097 0.1
    endloop
  endfacet
  facet normal 0.442302 0.896866 0
    outer loop
       vertex 0.157877 0.23097 0.1
       vertex 0.187206 0.216506 0.1
       vertex 0.187206 0.216506 0
    endloop
  endfacet
  facet normal 0.321425 0.946935 0
    outer loop
       vertex 0.157877 0.23097 0
       vertex 0.126911 0.241481 0
       vertex 0.126911 0.241481 0.1
    endloop
  endfacet
  facet normal 0.321425 0.946935 0
    outer loop
       vertex 0.126911 0.241481 0.1
       vertex 0.157877 0.23097 0.1
       vertex 0.157877 0.23097 0
    endloop
  endfacet
  facet normal 0.195096 0.980784 0
    outer loop
       vertex 0.126911 0.241481 0
       vertex 0.0948379 0.247861 0
       vertex 0.0948379 0.247861 0.1
    endloop
  endfacet
  facet normal 0.195096 0.980784 0
    outer loop
       vertex 0.0948379 0.247861 0.1
       vertex 0.126911 0.241481 0.1
       vertex 0.126911 0.241481 0
    endloop
  endfacet
  facet normal 0.0654098 0.997858 0
    outer loop
       vertex 0.0622064 0.25 0.1
       vertex 0.0948379 0.247861 0.1
       vertex 0.0948379 0.247861 0
    endloop
  endfacet
  facet normal 0.0654098 0.997858 -1.0893e-16
    outer loop
       vertex 0.0948379 0.247861 0
       vertex 0.0622064 0.25 0
       vertex 0.0622064 0.25 0.1
    endloop
  endfacet
  facet normal -0.0654098 0.997858 0
    outer loop
       vertex 0.0622064 0.25 0
       vertex 0.0295749 0.247861 0
       vertex 0.0295749 0.247861 0.1
    endloop
  endfacet
  facet normal -0.0654098 0.997858 1.08928e-16
    outer loop
       vertex 0.0295749 0.247861 0.1
       vertex 0.0622064 0.25 0.1
       vertex 0.0622064 0.25 0
    endloop
  endfacet
  facet normal -0.195096 0.980784 0
    outer loop
       vertex 0.0295749 0.247861 0
       vertex -0.0024986 0.241481 0
       vertex -0.0024986 0.241481 0.1
    endloop
  endfacet
  facet normal -0.195096 0.980784 0
    outer loop
       vertex -0.0024986 0.241481 0.1
       vertex 0.0295749 0.247861 0.1
       vertex 0.0295749 0.247861 0
    endloop
  endfacet
  facet normal -0.321425 0.946935 0
    outer loop
       vertex -0.0024986 0.241481 0
       vertex -0.0334646 0.23097 0
       vertex -0.0334646 0.23097 0.1
    endloop
  endfacet
  facet normal -0.321425 0.946935 0
    outer loop
       vertex -0.0334646 0.23097 0.1
       vertex -0.0024986 0.241481 0.1
       vertex -0.0024986 0.241481 0
    endloop
  endfacet
  facet normal -0.442302 0.896866 0
    outer loop
       vertex -0.0334646 0.23097 0
       vertex -0.0627936 0.216506 0
       vertex -0.0627936 0.216506 0.1
    endloop
  endfacet
  facet normal -0.442302 0.896866 0
    outer loop
       vertex -0.0627936 0.216506 0.1
       vertex -0.0334646 0.23097 0.1
       vertex -0.0334646 0.23097 0
    endloop
  endfacet
  facet normal -0.555561 0.831476 0
    outer loop
       vertex -0.0627936 0.216506 0
       vertex -0.0899846 0.198338 0
       vertex -0.0899846 0.198338 0.1
    endloop
  endfacet
  facet normal -0.555561 0.831476 0
    outer loop
       vertex -0.0899846 0.198338 0.1
       vertex -0.0627936 0.216506 0.1
       vertex -0.0627936 0.216506 0
    endloop
  endfacet
  facet normal -0.659372 0.751817 0
    outer loop
       vertex -0.0899846 0.198338 0
       vertex -0.11457 0.176776 0
       vertex -0.11457 0.176776 0.1
    endloop
  endfacet
  facet normal -0.659372 0.751817 0
    outer loop
       vertex -0.11457 0.176776 0.1
       vertex -0.0899846 0.198338 0.1
       vertex -0.0899846 0.198338 0
    endloop
  endfacet
  facet normal -0.751817 0.659372 0
    outer loop
       vertex -0.11457 0.176776 0
       vertex -0.136132 0.152191 0
       vertex -0.136132 0.152191 0.1
    endloop
  endfacet
  facet normal -0.751817 0.659372 0
    outer loop
       vertex -0.136132 0.152191 0.1
       vertex -0.11457 0.176776 0.1
       vertex -0.11457 0.176776 0
    endloop
  endfacet
  facet normal -0.831476 0.555561 0
    outer loop
       vertex -0.136132 0.152191 0
       vertex -0.1543 0.125 0
       vertex -0.1543 0.125 0.1
    endloop
  endfacet
  facet normal -0.831476 0.555561 0
    outer loop
       vertex -0.1543 0.125 0.1
       vertex -0.136132 0.152191 0.1
       vertex -0.136132 0.152191 0
    endloop
  endfacet
  facet normal -0.896866 0.442302 0
    outer loop
       vertex -0.1543 0.125 0
       vertex -0.168764 0.095671 0
       vertex -0.168764 0.095671 0.1
    endloop
  endfacet
  facet normal -0.896866 0.442302 0
    outer loop
       vertex -0.168764 0.095671 0.1
       vertex -0.1543 0.125 0.1
       vertex -0.1543 0.125 0
    endloop
  endfacet
  facet normal -0.946935 0.321425 0
    outer loop
       vertex -0.168764 0.095671 0
       vertex -0.179275 0.064705 0
       vertex -0.179275 0.064705 0.1
    endloop
  endfacet
  facet normal -0.946935 0.321425 0
    outer loop
       vertex -0.179275 0.064705 0.1
       vertex -0.168764 0.095671 0.1
       vertex -0.168764 0.095671 0
    endloop
  endfacet
  facet normal -0.980784 0.195096 0
    outer loop
       vertex -0.179275 0.064705 0
       vertex -0.185655 0.0326315 0
       vertex -0.185655 0.0326315 0.1
    endloop
  endfacet
  facet normal -0.980784 0.195096 0
    outer loop
       vertex -0.185655 0.0326315 0.1
       vertex -0.179275 0.064705 0.1
       vertex -0.179275 0.064705 0
    endloop
  endfacet
  facet normal -0.997858 0.0654098 0
    outer loop
       vertex -0.187794 8.32665e-17 0.1
       vertex -0.185655 0.0326315 0.1
       vertex -0.185655 0.0326315 0
    endloop
  endfacet
  facet normal -0.997858 0.0654098 -1.08928e-16
    outer loop
       vertex -0.185655 0.0326315 0
       vertex -0.187794 -8.32665e-17 0
       vertex -0.187794 8.32665e-17 0.1
    endloop
  endfacet
  facet normal -0.997858 -0.0654098 0
    outer loop
       vertex -0.187794 -8.32665e-17 0
       vertex -0.185655 -0.0326315 0
       vertex -0.185655 -0.0326315 0.1
    endloop
  endfacet
  facet normal -0.997858 -0.0654098 1.08928e-16
    outer loop
       vertex -0.185655 -0.0326315 0.1
       vertex -0.187794 8.32665e-17 0.1
       vertex -0.187794 -8.32665e-17 0
    endloop
  endfacet
  facet normal -0.980784 -0.195096 0
    outer loop
       vertex -0.185655 -0.0326315 0
       vertex -0.179275 -0.064705 0
       vertex -0.179275 -0.064705 0.1
    endloop
  endfacet
  facet normal -0.980784 -0.195096 0
    outer loop
       vertex -0.179275 -0.064705 0.1
       vertex -0.185655 -0.0326315 0.1
       vertex -0.185655 -0.0326315 0
    endloop
  endfacet
  facet normal -0.946935 -0.321425 0
    outer loop
       vertex -0.179275 -0.064705 0
       vertex -0.168764 -0.095671 0
       vertex -0.168764 -0.095671 0.1
    endloop
  endfacet
  facet normal -0.946935 -0.321425 0
    outer loop
       vertex -0.168764 -0.095671 0.1
       vertex -0.179275 -0.064705 0.1
       vertex -0.179275 -0.064705 0
    endloop
  endfacet
  facet normal -0.896866 -0.442302 0
    outer loop
       vertex -0.168764 -0.095671 0
       vertex -0.1543 -0.125 0
       vertex -0.1543 -0.125 0.1
    endloop
  endfacet
  facet normal -0.896866 -0.442302 0
    outer loop
       vertex -0.1543 -0.125 0.1
       vertex -0.168764 -0.095671 0.1
       vertex -0.168764 -0.095671 0
    endloop
  endfacet
  facet normal -0.831476 -0.555561 0
    outer loop
       vertex -0.1543 -0.125 0
       vertex -0.136132 -0.152191 0
       vertex -0.136132 -0.152191 0.1
    endloop
  endfacet
  facet normal -0.831476 -0.555561 0
    outer loop
       vertex -0.136132 -0.152191 0.1
       vertex -0.1543 -0.125 0.1
       vertex -0.1543 -0.125 0
    endloop
  endfacet
  facet normal -0.751817 -0.659372 0
    outer loop
       vertex -0.136132 -0.152191 0
       vertex -0.11457 -0.176776 0
       vertex -0.11457 -0.176776 0.1
    endloop
  endfacet
  facet normal -0.751817 -0.659372 0
    outer loop
       vertex -0.11457 -0.176776 0.1
       vertex -0.136132 -0.152191 0.1
       vertex -0.136132 -0.152191 0
    endloop
  endfacet
  facet normal 0.659372 -0.751817 0
    outer loop
       vertex 0.238982 -0.176776 0
       vertex 0.238982 -0.176776 0.1
       vertex 0.214397 -0.198338 0.1
    endloop
  endfacet
  facet normal 0.659372 -0.751817 0
    outer loop
       vertex 0.214397 -0.198338 0.1
       vertex 0.214397 -0.198338 0
       vertex 0.238982 -0.176776 0
    endloop
  endfacet
  facet normal 0.555561 -0.831476 0
    outer loop
       vertex 0.214397 -0.198338 0
       vertex 0.214397 -0.198338 0.1
       vertex 0.187206 -0.216506 0.1
    endloop
  endfacet
  facet normal 0.555561 -0.831476 0
    outer loop
       vertex 0.187206 -0.216506 0.1
       vertex 0.187206 -0.216506 0
       vertex 0.214397 -0.198338 0
    endloop
  endfacet
  facet normal 0.442302 -0.896866 0
    outer loop
       vertex 0.187206 -0.216506 0
       vertex 0.187206 -0.216506 0.1
       vertex 0.157877 -0.23097 0.1
    endloop
  endfacet
  facet normal 0.442302 -0.896866 0
    outer loop
       vertex 0.157877 -0.23097 0.1
       vertex 0.157877 -0.23097 0
       vertex 0.187206 -0.216506 0
    endloop
  endfacet
  facet normal 0.321425 -0.946935 0
    outer loop
       vertex 0.157877 -0.23097 0
       vertex 0.157877 -0.23097 0.1
       vertex 0.126911 -0.241481 0.1
    endloop
  endfacet
  facet normal 0.321425 -0.946935 0
    outer loop
       vertex 0.126911 -0.241481 0.1
       vertex 0.126911 -0.241481 0
       vertex 0.157877 -0.23097 0
    endloop
  endfacet
  facet normal 0.195096 -0.980784 0
    outer loop
       vertex 0.126911 -0.241481 0
       vertex 0.126911 -0.241481 0.1
       vertex 0.0948379 -0.247861 0.1
    endloop
  endfacet
  facet normal 0.195096 -0.980784 0
    outer loop
       vertex 0.0948379 -0.247861 0.1
       vertex 0.0948379 -0.247861 0
       vertex 0.126911 -0.241481 0
    endloop
  endfacet
  facet normal 0.0654098 -0.997858 0
    outer loop
       vertex 0.0622064 -0.25 0
       vertex 0.0948379 -0.247861 0
       vertex 0.0948379 -0.247861 0.1
    endloop
  endfacet
  facet normal 0.0654098 -0.997858 1.0893e-16
    outer loop
       vertex 0.0948379 -0.247861 0.1
       vertex 0.0622064 -0.25 0.1
       vertex 0.0622064 -0.25 0
    endloop
  endfacet
  facet normal -0.0654098 -0.997858 0
    outer loop
       vertex 0.0622064 -0.25 0.1
       vertex 0.0295749 -0.247861 0.1
       vertex 0.0295749 -0.247861 0
    endloop
  endfacet
  facet normal -0.0654098 -0.997858 -1.08928e-16
    outer loop
       vertex 0.0295749 -0.247861 0
       vertex 0.0622064 -0.25 0
       vertex 0.0622064 -0.25 0.1
    endloop
  endfacet
  facet normal -0.195096 -0.980784 0
    outer loop
       vertex 0.0295749 -0.247861 0
       vertex 0.0295749 -0.247861 0.1
       vertex -0.0024986 -0.241481 0.1
    endloop
  endfacet
  facet normal -0.195096 -0.980784 -0
    outer loop
       vertex -0.0024986 -0.241481 0.1
       vertex -0.0024986 -0.241481 0
       vertex 0.0295749 -0.247861 0
    endloop
  endfacet
  facet normal -0.321425 -0.946935 0
    outer loop
       vertex -0.0024986 -0.241481 0
       vertex -0.0024986 -0.241481 0.1
       vertex -0.0334646 -0.23097 0.1
    endloop
  endfacet
  facet normal -0.321425 -0.946935 -0
    outer loop
       vertex -0.0334646 -0.23097 0.1
       vertex -0.0334646 -0.23097 0
       vertex -0.0024986 -0.241481 0
    endloop
  endfacet
  facet normal -0.442302 -0.896866 0
    outer loop
       vertex -0.0334646 -0.23097 0
       vertex -0.0334646 -0.23097 0.1
       vertex -0.0627936 -0.216506 0.1
    endloop
  endfacet
  facet normal -0.442302 -0.896866 -0
    outer loop
       vertex -0.0627936 -0.216506 0.1
       vertex -0.0627936 -0.216506 0
       vertex -0.0334646 -0.23097 0
    endloop
  endfacet
  facet normal -0.555561 -0.831476 0
    outer loop
       vertex -0.0627936 -0.216506 0
       vertex -0.0627936 -0.216506 0.1
       vertex -0.0899846 -0.198338 0.1
    endloop
  endfacet
  facet normal -0.555561 -0.831476 -0
    outer loop
       vertex -0.0899846 -0.198338 0.1
       vertex -0.0899846 -0.198338 0
       vertex -0.0627936 -0.216506 0
    endloop
  endfacet
  facet normal -0.659372 -0.751817 0
    outer loop
       vertex -0.0899846 -0.198338 0
       vertex -0.0899846 -0.198338 0.1
       vertex -0.11457 -0.176776 0.1
    endloop
  endfacet
  facet normal -0.659372 -0.751817 -0
    outer loop
       vertex -0.11457 -0.176776 0.1
       vertex -0.11457 -0.176776 0
       vertex -0.0899846 -0.198338 0
    endloop
  endfacet
endsolid cylinder
