solid cylinder
  facet normal 0.751817 -0.659372 0
    outer loop
       vertex 0.354333 -0.176776 0
       vertex 0.375895 -0.152191 0
       vertex 0.375895 -0.152191 0.1
    endloop
  endfacet
  facet normal 0.751817 -0.659372 0
    outer loop
       vertex 0.375895 -0.152191 0.1
       vertex 0.354333 -0.176776 0.1
       vertex 0.354333 -0.176776 0
    endloop
  endfacet
  facet normal 0.831476 -0.555561 0
    outer loop
       vertex 0.375895 -0.152191 0
       vertex 0.394063 -0.125 0
       vertex 0.394063 -0.125 0.1
    endloop
  endfacet
  facet normal 0.831476 -0.555561 0
    outer loop
       vertex 0.394063 -0.125 0.1
       vertex 0.375895 -0.152191 0.1
       vertex 0.375895 -0.152191 0
    endloop
  endfacet
  facet normal 0.896866 -0.442302 0
    outer loop
       vertex 0.394063 -0.125 0
       vertex 0.408527 -0.095671 0
       vertex 0.408527 -0.095671 0.1
    endloop
  endfacet
  facet normal 0.896866 -0.442302 0
    outer loop
       vertex 0.408527 -0.095671 0.1
       vertex 0.394063 -0.125 0.1
       vertex 0.394063 -0.125 0
    endloop
  endfacet
  facet normal 0.946935 -0.321425 0
    outer loop
       vertex 0.408527 -0.095671 0
       vertex 0.419038 -0.064705 0
       vertex 0.419038 -0.064705 0.1
    endloop
  endfacet
  facet normal 0.946935 -0.321425 0
    outer loop
       vertex 0.419038 -0.064705 0.1
       vertex 0.408527 -0.095671 0.1
       vertex 0.408527 -0.095671 0
    endloop
  endfacet
  facet normal 0.980784 -0.195096 0
    outer loop
       vertex 0.419038 -0.064705 0
       vertex 0.425418 -0.0326315 0
       vertex 0.425418 -0.0326315 0.1
    endloop
  endfacet
  facet normal 0.980784 -0.195096 0
    outer loop
       vertex 0.425418 -0.0326315 0.1
       vertex 0.419038 -0.064705 0.1
       vertex 0.419038 -0.064705 0
    endloop
  endfacet
  facet normal 0.997858 -0.0654098 0
    outer loop
       vertex 0.427557 -8.32665e-17 0.1
       vertex 0.425418 -0.0326315 0.1
       vertex 0.425418 -0.0326315 0
    endloop
  endfacet
  facet normal 0.997858 -0.0654098 -1.08928e-16
    outer loop
       vertex 0.425418 -0.0326315 0
       vertex 0.427557 8.32665e-17 0
       vertex 0.427557 -8.32665e-17 0.1
    endloop
  endfacet
  facet normal 0.997858 0.0654098 0
    outer loop
       vertex 0.427557 8.32665e-17 0
       vertex 0.425418 0.0326315 0
       vertex 0.425418 0.0326315 0.1
    endloop
  endfacet
  facet normal 0.997858 0.0654098 1.08928e-16
    outer loop
       vertex 0.425418 0.0326315 0.1
       vertex 0.427557 -8.32665e-17 0.1
       vertex 0.427557 8.32665e-17 0
    endloop
  endfacet
  facet normal 0.980784 0.195096 0
    outer loop
       vertex 0.425418 0.0326315 0
       vertex 0.419038 0.064705 0
       vertex 0.419038 0.064705 0.1
    endloop
  endfacet
  facet normal 0.980784 0.195096 0
    outer loop
       vertex 0.419038 0.064705 0.1
       vertex 0.425418 0.0326315 0.1
       vertex 0.425418 0.0326315 0
    endloop
  endfacet
  facet normal 0.946935 0.321425 0
    outer loop
       vertex 0.419038 0.064705 0
       vertex 0.408527 0.095671 0
       vertex 0.408527 0.095671 0.1
    endloop
  endfacet
  facet normal 0.946935 0.321425 0
    outer loop
       vertex 0.408527 0.095671 0.1
       vertex 0.419038 0.064705 0.1
       vertex 0.419038 0.064705 0
    endloop
  endfacet
  facet normal 0.896866 0.442302 0
    outer loop
       vertex 0.408527 0.095671 0
       vertex 0.394063 0.125 0
       vertex 0.394063 0.125 0.1
    endloop
  endfacet
  facet normal 0.896866 0.442302 0
    outer loop
       vertex 0.394063 0.125 0.1
       vertex 0.408527 0.095671 0.1
       vertex 0.408527 0.095671 0
    endloop
  endfacet
  facet normal 0.831476 0.555561 0
    outer loop
       vertex 0.394063 0.125 0
       vertex 0.375895 0.152191 0
       vertex 0.375895 0.152191 0.1
    endloop
  endfacet
  facet normal 0.831476 0.555561 0
    outer loop
       vertex 0.375895 0.152191 0.1
       vertex 0.394063 0.125 0.1
       vertex 0.394063 0.125 0
    endloop
  endfacet
  facet normal 0.751817 0.659372 0
    outer loop
       vertex 0.375895 0.152191 0
       vertex 0.354333 0.176776 0
       vertex 0.354333 0.176776 0.1
    endloop
  endfacet
  facet normal 0.751817 0.659372 0
    outer loop
       vertex 0.354333 0.176776 0.1
       vertex 0.375895 0.152191 0.1
       vertex 0.375895 0.152191 0
    endloop
  endfacet
  facet normal 0.659372 0.751817 0
    outer loop
       vertex 0.354333 0.176776 0
       vertex 0.329748 0.198338 0
       vertex 0.329748 0.198338 0.1
    endloop
  endfacet
  facet normal 0.659372 0.751817 0
    outer loop
       vertex 0.329748 0.198338 0.1
       vertex 0.354333 0.176776 0.1
       vertex 0.354333 0.176776 0
    endloop
  endfacet
  facet normal 0.555561 0.831476 0
    outer loop
       vertex 0.329748 0.198338 0
       vertex 0.302557 0.216506 0
       vertex 0.302557 0.216506 0.1
    endloop
  endfacet
  facet normal 0.555561 0.831476 0
    outer loop
       vertex 0.302557 0.216506 0.1
       vertex 0.329748 0.198338 0.1
       vertex 0.329748 0.198338 0
    endloop
  endfacet
  facet normal 0.442302 0.896866 0
    outer loop
       vertex 0.302557 0.216506 0
       vertex 0.273228 0.23097 0
       vertex 0.273228 0.23097 0.1
    endloop
  endfacet
  facet normal 0.442302 0.896866 0
    outer loop
       vertex 0.273228 0.23097 0.1
       vertex 0.302557 0.216506 0.1
       vertex 0.302557 0.216506 0
    endloop
  endfacet
  facet normal 0.321425 0.946935 0
    outer loop
       vertex 0.273228 0.23097 0
       vertex 0.242262 0.241481 0
       vertex 0.242262 0.241481 0.1
    endloop
  endfacet
  facet normal 0.321425 0.946935 0
    outer loop
       vertex 0.242262 0.241481 0.1
       vertex 0.273228 0.23097 0.1
       vertex 0.273228 0.23097 0
    endloop
  endfacet
  facet normal 0.195096 0.980784 0
    outer loop
       vertex 0.242262 0.241481 0
       vertex 0.210189 0.247861 0
       vertex 0.210189 0.247861 0.1
    endloop
  endfacet
  facet normal 0.195096 0.980784 0
    outer loop
       vertex 0.210189 0.247861 0.1
       vertex 0.242262 0.241481 0.1
       vertex 0.242262 0.241481 0
    endloop
  endfacet
  facet normal 0.0654098 0.997858 0
    outer loop
       vertex 0.177557 0.25 0.1
       vertex 0.210189 0.247861 0.1
       vertex 0.210189 0.247861 0
    endloop
  endfacet
  facet normal 0.0654098 0.997858 -1.0893e-16
    outer loop
       vertex 0.210189 0.247861 0
       vertex 0.177557 0.25 0
       vertex 0.177557 0.25 0.1
    endloop
  endfacet
  facet normal -0.0654098 0.997858 0
    outer loop
       vertex 0.177557 0.25 0
       vertex 0.144926 0.247861 0
       vertex 0.144926 0.247861 0.1
    endloop
  endfacet
  facet normal -0.0654098 0.997858 1.0893e-16
    outer loop
       vertex 0.144926 0.247861 0.1
       vertex 0.177557 0.25 0.1
       vertex 0.177557 0.25 0
    endloop
  endfacet
  facet normal -0.195096 0.980784 0
    outer loop
       vertex 0.144926 0.247861 0
       vertex 0.112852 0.241481 0
       vertex 0.112852 0.241481 0.1
    endloop
  endfacet
  facet normal -0.195096 0.980784 0
    outer loop
       vertex 0.112852 0.241481 0.1
       vertex 0.144926 0.247861 0.1
       vertex 0.144926 0.247861 0
    endloop
  endfacet
  facet normal -0.321425 0.946935 0
    outer loop
       vertex 0.112852 0.241481 0
       vertex 0.0818861 0.23097 0
       vertex 0.0818861 0.23097 0.1
    endloop
  endfacet
  facet normal -0.321425 0.946935 0
    outer loop
       vertex 0.0818861 0.23097 0.1
       vertex 0.112852 0.241481 0.1
       vertex 0.112852 0.241481 0
    endloop
  endfacet
  facet normal -0.442302 0.896866 0
    outer loop
       vertex 0.0818861 0.23097 0
       vertex 0.0525571 0.216506 0
       vertex 0.0525571 0.216506 0.1
    endloop
  endfacet
  facet normal -0.442302 0.896866 0
    outer loop
       vertex 0.0525571 0.216506 0.1
       vertex 0.0818861 0.23097 0.1
       vertex 0.0818861 0.23097 0
    endloop
  endfacet
  facet normal -0.555561 0.831476 0
    outer loop
       vertex 0.0525571 0.216506 0
       vertex 0.0253661 0.198338 0
       vertex 0.0253661 0.198338 0.1
    endloop
  endfacet
  facet normal -0.555561 0.831476 0
    outer loop
       vertex 0.0253661 0.198338 0.1
       vertex 0.0525571 0.216506 0.1
       vertex 0.0525571 0.216506 0
    endloop
  endfacet
  facet normal -0.659372 0.751817 0
    outer loop
       vertex 0.0253661 0.198338 0
       vertex 0.000781137 0.176776 0
       vertex 0.000781137 0.176776 0.1
    endloop
  endfacet
  facet normal -0.659372 0.751817 0
    outer loop
       vertex 0.000781137 0.176776 0.1
       vertex 0.0253661 0.198338 0.1
       vertex 0.0253661 0.198338 0
    endloop
  endfacet
  facet normal -0.751817 0.659372 0
    outer loop
       vertex 0.000781137 0.176776 0
       vertex -0.0207809 0.152191 0
       vertex -0.0207809 0.152191 0.1
    endloop
  endfacet
  facet normal -0.751817 0.659372 0
    outer loop
       vertex -0.0207809 0.152191 0.1
       vertex 0.000781137 0.176776 0.1
       vertex 0.000781137 0.176776 0
    endloop
  endfacet
  facet normal -0.831476 0.555561 0
    outer loop
       vertex -0.0207809 0.152191 0
       vertex -0.0389489 0.125 0
       vertex -0.0389489 0.125 0.1
    endloop
  endfacet
  facet normal -0.831476 0.555561 0
    outer loop
       vertex -0.0389489 0.125 0.1
       vertex -0.0207809 0.152191 0.1
       vertex -0.0207809 0.152191 0
    endloop
  endfacet
  facet normal -0.896866 0.442302 0
    outer loop
       vertex -0.0389489 0.125 0
       vertex -0.0534129 0.095671 0
       vertex -0.0534129 0.095671 0.1
    endloop
  endfacet
  facet normal -0.896866 0.442302 0
    outer loop
       vertex -0.0534129 0.095671 0.1
       vertex -0.0389489 0.125 0.1
       vertex -0.0389489 0.125 0
    endloop
  endfacet
  facet normal -0.946935 0.321425 0
    outer loop
       vertex -0.0534129 0.095671 0
       vertex -0.0639239 0.064705 0
       vertex -0.0639239 0.064705 0.1
    endloop
  endfacet
  facet normal -0.946935 0.321425 0
    outer loop
       vertex -0.0639239 0.064705 0.1
       vertex -0.0534129 0.095671 0.1
       vertex -0.0534129 0.095671 0
    endloop
  endfacet
  facet normal -0.980784 0.195096 0
    outer loop
       vertex -0.0639239 0.064705 0
       vertex -0.0703039 0.0326315 0
       vertex -0.0703039 0.0326315 0.1
    endloop
  endfacet
  facet normal -0.980784 0.195096 0
    outer loop
       vertex -0.0703039 0.0326315 0.1
       vertex -0.0639239 0.064705 0.1
       vertex -0.0639239 0.064705 0
    endloop
  endfacet
  facet normal -0.997858 0.0654098 0
    outer loop
       vertex -0.0724429 8.32665e-17 0.1
       vertex -0.0703039 0.0326315 0.1
       vertex -0.0703039 0.0326315 0
    endloop
  endfacet
  facet normal -0.997858 0.0654098 -1.08928e-16
    outer loop
       vertex -0.0703039 0.0326315 0
       vertex -0.0724429 -8.32665e-17 0
       vertex -0.0724429 8.32665e-17 0.1
    endloop
  endfacet
  facet normal -0.997858 -0.0654098 0
    outer loop
       vertex -0.0724429 -8.32665e-17 0
       vertex -0.0703039 -0.0326315 0
       vertex -0.0703039 -0.0326315 0.1
    endloop
  endfacet
  facet normal -0.997858 -0.0654098 1.08928e-16
    outer loop
       vertex -0.0703039 -0.0326315 0.1
       vertex -0.0724429 8.32665e-17 0.1
       vertex -0.0724429 -8.32665e-17 0
    endloop
  endfacet
  facet normal -0.980784 -0.195096 0
    outer loop
       vertex -0.0703039 -0.0326315 0
       vertex -0.0639239 -0.064705 0
       vertex -0.0639239 -0.064705 0.1
    endloop
  endfacet
  facet normal -0.980784 -0.195096 0
    outer loop
       vertex -0.0639239 -0.064705 0.1
       vertex -0.0703039 -0.0326315 0.1
       vertex -0.0703039 -0.0326315 0
    endloop
  endfacet
  facet normal -0.946935 -0.321425 0
    outer loop
       vertex -0.0639239 -0.064705 0
       vertex -0.0534129 -0.095671 0
       vertex -0.0534129 -0.095671 0.1
    endloop
  endfacet
  facet normal -0.946935 -0.321425 0
    outer loop
       vertex -0.0534129 -0.095671 0.1
       vertex -0.0639239 -0.064705 0.1
       vertex -0.0639239 -0.064705 0
    endloop
  endfacet
  facet normal -0.896866 -0.442302 0
    outer loop
       vertex -0.0534129 -0.095671 0
       vertex -0.0389489 -0.125 0
       vertex -0.0389489 -0.125 0.1
    endloop
  endfacet
  facet normal -0.896866 -0.442302 0
    outer loop
       vertex -0.0389489 -0.125 0.1
       vertex -0.0534129 -0.095671 0.1
       vertex -0.0534129 -0.095671 0
    endloop
  endfacet
  facet normal -0.831476 -0.555561 0
    outer loop
       vertex -0.0389489 -0.125 0
       vertex -0.0207809 -0.152191 0
       vertex -0.0207809 -0.152191 0.1
    endloop
  endfacet
  facet normal -0.831476 -0.555561 0
    outer loop
       vertex -0.0207809 -0.152191 0.1
       vertex -0.0389489 -0.125 0.1
       vertex -0.0389489 -0.125 0
    endloop
  endfacet
  facet normal -0.751817 -0.659372 0
    outer loop
       vertex -0.0207809 -0.152191 0
       vertex 0.000781137 -0.176776 0
       vertex 0.000781137 -0.176776 0.1
    endloop
  endfacet
  facet normal -0.751817 -0.659372 0
    outer loop
       vertex 0.000781137 -0.176776 0.1
       vertex -0.0207809 -0.152191 0.1
       vertex -0.0207809 -0.152191 0
    endloop
  endfacet
  facet normal 0.659372 -0.751817 0
    outer loop
       vertex 0.354333 -0.176776 0
       vertex 0.354333 -0.176776 0.1
       vertex 0.329748 -0.198338 0.1
    endloop
  endfacet
  facet normal 0.659372 -0.751817 0
    outer loop
       vertex 0.329748 -0.198338 0.1
       vertex 0.329748 -0.198338 0
       vertex 0.354333 -0.176776 0
    endloop
  endfacet
  facet normal 0.555561 -0.831476 0
    outer loop
       vertex 0.329748 -0.198338 0
       vertex 0.329748 -0.198338 0.1
       vertex 0.302557 -0.216506 0.1
    endloop
  endfacet
  facet normal 0.555561 -0.831476 0
    outer loop
       vertex 0.302557 -0.216506 0.1
       vertex 0.302557 -0.216506 0
       vertex 0.329748 -0.198338 0
    endloop
  endfacet
  facet normal 0.442302 -0.896866 0
    outer loop
       vertex 0.302557 -0.216506 0
       vertex 0.302557 -0.216506 0.1
       vertex 0.273228 -0.23097 0.1
    endloop
  endfacet
  facet normal 0.442302 -0.896866 0
    outer loop
       vertex 0.273228 -0.23097 0.1
       vertex 0.273228 -0.23097 0
       vertex 0.302557 -0.216506 0
    endloop
  endfacet
  facet normal 0.321425 -0.946935 0
    outer loop
       vertex 0.273228 -0.23097 0
       vertex 0.273228 -0.23097 0.1
       vertex 0.242262 -0.241481 0.1
    endloop
  endfacet
  facet normal 0.321425 -0.946935 0
    outer loop
       vertex 0.242262 -0.241481 0.1
       vertex 0.242262 -0.241481 0
       vertex 0.273228 -0.23097 0
    endloop
  endfacet
  facet normal 0.195096 -0.980784 0
    outer loop
       vertex 0.242262 -0.241481 0
       vertex 0.242262 -0.241481 0.1
       vertex 0.210189 -0.247861 0.1
    endloop
  endfacet
  facet normal 0.195096 -0.980784 0
    outer loop
       vertex 0.210189 -0.247861 0.1
       vertex 0.210189 -0.247861 0
       vertex 0.242262 -0.241481 0
    endloop
  endfacet
  facet normal 0.0654098 -0.997858 0
    outer loop
       vertex 0.177557 -0.25 0
       vertex 0.210189 -0.247861 0
       vertex 0.210189 -0.247861 0.1
    endloop
  endfacet
  facet normal 0.0654098 -0.997858 1.0893e-16
    outer loop
       vertex 0.210189 -0.247861 0.1
       vertex 0.177557 -0.25 0.1
       vertex 0.177557 -0.25 0
    endloop
  endfacet
  facet normal -0.0654098 -0.997858 0
    outer loop
       vertex 0.177557 -0.25 0.1
       vertex 0.144926 -0.247861 0.1
       vertex 0.144926 -0.247861 0
    endloop
  endfacet
  facet normal -0.0654098 -0.997858 -1.0893e-16
    outer loop
       vertex 0.144926 -0.247861 0
       vertex 0.177557 -0.25 0
       vertex 0.177557 -0.25 0.1
    endloop
  endfacet
  facet normal -0.195096 -0.980784 0
    outer loop
       vertex 0.144926 -0.247861 0
       vertex 0.144926 -0.247861 0.1
       vertex 0.112852 -0.241481 0.1
    endloop
  endfacet
  facet normal -0.195096 -0.980784 -0
    outer loop
       vertex 0.112852 -0.241481 0.1
       vertex 0.112852 -0.241481 0
       vertex 0.144926 -0.247861 0
    endloop
  endfacet
  facet normal -0.321425 -0.946935 0
    outer loop
       vertex 0.112852 -0.241481 0
       vertex 0.112852 -0.241481 0.1
       vertex 0.0818861 -0.23097 0.1
    endloop
  endfacet
  facet normal -0.321425 -0.946935 -0
    outer loop
       vertex 0.0818861 -0.23097 0.1
       vertex 0.0818861 -0.23097 0
       vertex 0.112852 -0.241481 0
    endloop
  endfacet
  facet normal -0.442302 -0.896866 0
    outer loop
       vertex 0.0818861 -0.23097 0
       vertex 0.0818861 -0.23097 0.1
       vertex 0.0525571 -0.216506 0.1
    endloop
  endfacet
  facet normal -0.442302 -0.896866 -0
    outer loop
       vertex 0.0525571 -0.216506 0.1
       vertex 0.0525571 -0.216506 0
       vertex 0.0818861 -0.23097 0
    endloop
  endfacet
  facet normal -0.555561 -0.831476 0
    outer loop
       vertex 0.0525571 -0.216506 0
       vertex 0.0525571 -0.216506 0.1
       vertex 0.0253661 -0.198338 0.1
    endloop
  endfacet
  facet normal -0.555561 -0.831476 -0
    outer loop
       vertex 0.0253661 -0.198338 0.1
       vertex 0.0253661 -0.198338 0
       vertex 0.0525571 -0.216506 0
    endloop
  endfacet
  facet normal -0.659372 -0.751817 0
    outer loop
       vertex 0.0253661 -0.198338 0
       vertex 0.0253661 -0.198338 0.1
       vertex 0.000781137 -0.176776 0.1
    endloop
  endfacet
  facet normal -0.659372 -0.751817 -0
    outer loop
       vertex 0.000781137 -0.176776 0.1
       vertex 0.000781137 -0.176776 0
       vertex 0.0253661 -0.198338 0
    endloop
  endfacet
endsolid cylinder
