solid cylinder
  facet normal 0.751817 -0.659372 0
    outer loop
       vertex 0.400263 -0.176776 0
       vertex 0.421825 -0.152191 0
       vertex 0.421825 -0.152191 0.1
    endloop
  endfacet
  facet normal 0.751817 -0.659372 0
    outer loop
       vertex 0.421825 -0.152191 0.1
       vertex 0.400263 -0.176776 0.1
       vertex 0.400263 -0.176776 0
    endloop
  endfacet
  facet normal 0.831476 -0.555561 0
    outer loop
       vertex 0.421825 -0.152191 0
       vertex 0.439993 -0.125 0
       vertex 0.439993 -0.125 0.1
    endloop
  endfacet
  facet normal 0.831476 -0.555561 0
    outer loop
       vertex 0.439993 -0.125 0.1
       vertex 0.421825 -0.152191 0.1
       vertex 0.421825 -0.152191 0
    endloop
  endfacet
  facet normal 0.896866 -0.442302 0
    outer loop
       vertex 0.439993 -0.125 0
       vertex 0.454457 -0.095671 0
       vertex 0.454457 -0.095671 0.1
    endloop
  endfacet
  facet normal 0.896866 -0.442302 0
    outer loop
       vertex 0.454457 -0.095671 0.1
       vertex 0.439993 -0.125 0.1
       vertex 0.439993 -0.125 0
    endloop
  endfacet
  facet normal 0.946935 -0.321425 0
    outer loop
       vertex 0.454457 -0.095671 0
       vertex 0.464968 -0.064705 0
       vertex 0.464968 -0.064705 0.1
    endloop
  endfacet
  facet normal 0.946935 -0.321425 0
    outer loop
       vertex 0.464968 -0.064705 0.1
       vertex 0.454457 -0.095671 0.1
       vertex 0.454457 -0.095671 0
    endloop
  endfacet
  facet normal 0.980784 -0.195096 0
    outer loop
       vertex 0.464968 -0.064705 0
       vertex 0.471348 -0.0326315 0
       vertex 0.471348 -0.0326315 0.1
    endloop
  endfacet
  facet normal 0.980784 -0.195096 0
    outer loop
       vertex 0.471348 -0.0326315 0.1
       vertex 0.464968 -0.064705 0.1
       vertex 0.464968 -0.064705 0
    endloop
  endfacet
  facet normal 0.997858 -0.0654098 0
    outer loop
       vertex 0.473487 -8.32665e-17 0.1
       vertex 0.471348 -0.0326315 0.1
       vertex 0.471348 -0.0326315 0
    endloop
  endfacet
  facet normal 0.997858 -0.0654098 -1.08928e-16
    outer loop
       vertex 0.471348 -0.0326315 0
       vertex 0.473487 8.32665e-17 0
       vertex 0.473487 -8.32665e-17 0.1
    endloop
  endfacet
  facet normal 0.997858 0.0654098 0
    outer loop
       vertex 0.473487 8.32665e-17 0
       vertex 0.471348 0.0326315 0
       vertex 0.471348 0.0326315 0.1
    endloop
  endfacet
  facet normal 0.997858 0.0654098 1.08928e-16
    outer loop
       vertex 0.471348 0.0326315 0.1
       vertex 0.473487 -8.32665e-17 0.1
       vertex 0.473487 8.32665e-17 0
    endloop
  endfacet
  facet normal 0.980784 0.195096 0
    outer loop
       vertex 0.471348 0.0326315 0
       vertex 0.464968 0.064705 0
       vertex 0.464968 0.064705 0.1
    endloop
  endfacet
  facet normal 0.980784 0.195096 0
    outer loop
       vertex 0.464968 0.064705 0.1
       vertex 0.471348 0.0326315 0.1
       vertex 0.471348 0.0326315 0
    endloop
  endfacet
  facet normal 0.946935 0.321425 0
    outer loop
       vertex 0.464968 0.064705 0
       vertex 0.454457 0.095671 0
       vertex 0.454457 0.095671 0.1
    endloop
  endfacet
  facet normal 0.946935 0.321425 0
    outer loop
       vertex 0.454457 0.095671 0.1
       vertex 0.464968 0.064705 0.1
       vertex 0.464968 0.064705 0
    endloop
  endfacet
  facet normal 0.896866 0.442302 0
    outer loop
       vertex 0.454457 0.095671 0
       vertex 0.439993 0.125 0
       vertex 0.439993 0.125 0.1
    endloop
  endfacet
  facet normal 0.896866 0.442302 0
    outer loop
       vertex 0.439993 0.125 0.1
       vertex 0.454457 0.095671 0.1
       vertex 0.454457 0.095671 0
    endloop
  endfacet
  facet normal 0.831476 0.555561 0
    outer loop
       vertex 0.439993 0.125 0
       vertex 0.421825 0.152191 0
       vertex 0.421825 0.152191 0.1
    endloop
  endfacet
  facet normal 0.831476 0.555561 0
    outer loop
       vertex 0.421825 0.152191 0.1
       vertex 0.439993 0.125 0.1
       vertex 0.439993 0.125 0
    endloop
  endfacet
  facet normal 0.751817 0.659372 0
    outer loop
       vertex 0.421825 0.152191 0
       vertex 0.400263 0.176776 0
       vertex 0.400263 0.176776 0.1
    endloop
  endfacet
  facet normal 0.751817 0.659372 0
    outer loop
       vertex 0.400263 0.176776 0.1
       vertex 0.421825 0.152191 0.1
       vertex 0.421825 0.152191 0
    endloop
  endfacet
  facet normal 0.659372 0.751817 0
    outer loop
       vertex 0.400263 0.176776 0
       vertex 0.375678 0.198338 0
       vertex 0.375678 0.198338 0.1
    endloop
  endfacet
  facet normal 0.659372 0.751817 0
    outer loop
       vertex 0.375678 0.198338 0.1
       vertex 0.400263 0.176776 0.1
       vertex 0.400263 0.176776 0
    endloop
  endfacet
  facet normal 0.555561 0.831476 0
    outer loop
       vertex 0.375678 0.198338 0
       vertex 0.348487 0.216506 0
       vertex 0.348487 0.216506 0.1
    endloop
  endfacet
  facet normal 0.555561 0.831476 0
    outer loop
       vertex 0.348487 0.216506 0.1
       vertex 0.375678 0.198338 0.1
       vertex 0.375678 0.198338 0
    endloop
  endfacet
  facet normal 0.442302 0.896866 0
    outer loop
       vertex 0.348487 0.216506 0
       vertex 0.319158 0.23097 0
       vertex 0.319158 0.23097 0.1
    endloop
  endfacet
  facet normal 0.442302 0.896866 0
    outer loop
       vertex 0.319158 0.23097 0.1
       vertex 0.348487 0.216506 0.1
       vertex 0.348487 0.216506 0
    endloop
  endfacet
  facet normal 0.321425 0.946935 0
    outer loop
       vertex 0.319158 0.23097 0
       vertex 0.288192 0.241481 0
       vertex 0.288192 0.241481 0.1
    endloop
  endfacet
  facet normal 0.321425 0.946935 0
    outer loop
       vertex 0.288192 0.241481 0.1
       vertex 0.319158 0.23097 0.1
       vertex 0.319158 0.23097 0
    endloop
  endfacet
  facet normal 0.195096 0.980784 0
    outer loop
       vertex 0.288192 0.241481 0
       vertex 0.256119 0.247861 0
       vertex 0.256119 0.247861 0.1
    endloop
  endfacet
  facet normal 0.195096 0.980784 0
    outer loop
       vertex 0.256119 0.247861 0.1
       vertex 0.288192 0.241481 0.1
       vertex 0.288192 0.241481 0
    endloop
  endfacet
  facet normal 0.0654098 0.997858 0
    outer loop
       vertex 0.223487 0.25 0.1
       vertex 0.256119 0.247861 0.1
       vertex 0.256119 0.247861 0
    endloop
  endfacet
  facet normal 0.0654098 0.997858 -1.0893e-16
    outer loop
       vertex 0.256119 0.247861 0
       vertex 0.223487 0.25 0
       vertex 0.223487 0.25 0.1
    endloop
  endfacet
  facet normal -0.0654098 0.997858 0
    outer loop
       vertex 0.223487 0.25 0
       vertex 0.190856 0.247861 0
       vertex 0.190856 0.247861 0.1
    endloop
  endfacet
  facet normal -0.0654098 0.997858 1.0893e-16
    outer loop
       vertex 0.190856 0.247861 0.1
       vertex 0.223487 0.25 0.1
       vertex 0.223487 0.25 0
    endloop
  endfacet
  facet normal -0.195096 0.980784 0
    outer loop
       vertex 0.190856 0.247861 0
       vertex 0.158782 0.241481 0
       vertex 0.158782 0.241481 0.1
    endloop
  endfacet
  facet normal -0.195096 0.980784 0
    outer loop
       vertex 0.158782 0.241481 0.1
       vertex 0.190856 0.247861 0.1
       vertex 0.190856 0.247861 0
    endloop
  endfacet
  facet normal -0.321425 0.946935 0
    outer loop
       vertex 0.158782 0.241481 0
       vertex 0.127816 0.23097 0
       vertex 0.127816 0.23097 0.1
    endloop
  endfacet
  facet normal -0.321425 0.946935 0
    outer loop
       vertex 0.127816 0.23097 0.1
       vertex 0.158782 0.241481 0.1
       vertex 0.158782 0.241481 0
    endloop
  endfacet
  facet normal -0.442302 0.896866 0
    outer loop
       vertex 0.127816 0.23097 0
       vertex 0.0984873 0.216506 0
       vertex 0.0984873 0.216506 0.1
    endloop
  endfacet
  facet normal -0.442302 0.896866 0
    outer loop
       vertex 0.0984873 0.216506 0.1
       vertex 0.127816 0.23097 0.1
       vertex 0.127816 0.23097 0
    endloop
  endfacet
  facet normal -0.555561 0.831476 0
    outer loop
       vertex 0.0984873 0.216506 0
       vertex 0.0712963 0.198338 0
       vertex 0.0712963 0.198338 0.1
    endloop
  endfacet
  facet normal -0.555561 0.831476 0
    outer loop
       vertex 0.0712963 0.198338 0.1
       vertex 0.0984873 0.216506 0.1
       vertex 0.0984873 0.216506 0
    endloop
  endfacet
  facet normal -0.659372 0.751817 0
    outer loop
       vertex 0.0712963 0.198338 0
       vertex 0.0467113 0.176776 0
       vertex 0.0467113 0.176776 0.1
    endloop
  endfacet
  facet normal -0.659372 0.751817 0
    outer loop
       vertex 0.0467113 0.176776 0.1
       vertex 0.0712963 0.198338 0.1
       vertex 0.0712963 0.198338 0
    endloop
  endfacet
  facet normal -0.751817 0.659372 0
    outer loop
       vertex 0.0467113 0.176776 0
       vertex 0.0251493 0.152191 0
       vertex 0.0251493 0.152191 0.1
    endloop
  endfacet
  facet normal -0.751817 0.659372 0
    outer loop
       vertex 0.0251493 0.152191 0.1
       vertex 0.0467113 0.176776 0.1
       vertex 0.0467113 0.176776 0
    endloop
  endfacet
  facet normal -0.831476 0.555561 0
    outer loop
       vertex 0.0251493 0.152191 0
       vertex 0.00698128 0.125 0
       vertex 0.00698128 0.125 0.1
    endloop
  endfacet
  facet normal -0.831476 0.555561 0
    outer loop
       vertex 0.00698128 0.125 0.1
       vertex 0.0251493 0.152191 0.1
       vertex 0.0251493 0.152191 0
    endloop
  endfacet
  facet normal -0.896866 0.442302 0
    outer loop
       vertex 0.00698128 0.125 0
       vertex -0.00748272 0.095671 0
       vertex -0.00748272 0.095671 0.1
    endloop
  endfacet
  facet normal -0.896866 0.442302 0
    outer loop
       vertex -0.00748272 0.095671 0.1
       vertex 0.00698128 0.125 0.1
       vertex 0.00698128 0.125 0
    endloop
  endfacet
  facet normal -0.946935 0.321425 0
    outer loop
       vertex -0.00748272 0.095671 0
       vertex -0.0179937 0.064705 0
       vertex -0.0179937 0.064705 0.1
    endloop
  endfacet
  facet normal -0.946935 0.321425 0
    outer loop
       vertex -0.0179937 0.064705 0.1
       vertex -0.00748272 0.095671 0.1
       vertex -0.00748272 0.095671 0
    endloop
  endfacet
  facet normal -0.980784 0.195096 0
    outer loop
       vertex -0.0179937 0.064705 0
       vertex -0.0243737 0.0326315 0
       vertex -0.0243737 0.0326315 0.1
    endloop
  endfacet
  facet normal -0.980784 0.195096 0
    outer loop
       vertex -0.0243737 0.0326315 0.1
       vertex -0.0179937 0.064705 0.1
       vertex -0.0179937 0.064705 0
    endloop
  endfacet
  facet normal -0.997858 0.0654098 0
    outer loop
       vertex -0.0265127 8.32665e-17 0.1
       vertex -0.0243737 0.0326315 0.1
       vertex -0.0243737 0.0326315 0
    endloop
  endfacet
  facet normal -0.997858 0.0654098 -1.08928e-16
    outer loop
       vertex -0.0243737 0.0326315 0
       vertex -0.0265127 -8.32665e-17 0
       vertex -0.0265127 8.32665e-17 0.1
    endloop
  endfacet
  facet normal -0.997858 -0.0654098 0
    outer loop
       vertex -0.0265127 -8.32665e-17 0
       vertex -0.0243737 -0.0326315 0
       vertex -0.0243737 -0.0326315 0.1
    endloop
  endfacet
  facet normal -0.997858 -0.0654098 1.08928e-16
    outer loop
       vertex -0.0243737 -0.0326315 0.1
       vertex -0.0265127 8.32665e-17 0.1
       vertex -0.0265127 -8.32665e-17 0
    endloop
  endfacet
  facet normal -0.980784 -0.195096 0
    outer loop
       vertex -0.0243737 -0.0326315 0
       vertex -0.0179937 -0.064705 0
       vertex -0.0179937 -0.064705 0.1
    endloop
  endfacet
  facet normal -0.980784 -0.195096 0
    outer loop
       vertex -0.0179937 -0.064705 0.1
       vertex -0.0243737 -0.0326315 0.1
       vertex -0.0243737 -0.0326315 0
    endloop
  endfacet
  facet normal -0.946935 -0.321425 0
    outer loop
       vertex -0.0179937 -0.064705 0
       vertex -0.00748272 -0.095671 0
       vertex -0.00748272 -0.095671 0.1
    endloop
  endfacet
  facet normal -0.946935 -0.321425 0
    outer loop
       vertex -0.00748272 -0.095671 0.1
       vertex -0.0179937 -0.064705 0.1
       vertex -0.0179937 -0.064705 0
    endloop
  endfacet
  facet normal -0.896866 -0.442302 0
    outer loop
       vertex -0.00748272 -0.095671 0
       vertex 0.00698128 -0.125 0
       vertex 0.00698128 -0.125 0.1
    endloop
  endfacet
  facet normal -0.896866 -0.442302 0
    outer loop
       vertex 0.00698128 -0.125 0.1
       vertex -0.00748272 -0.095671 0.1
       vertex -0.00748272 -0.095671 0
    endloop
  endfacet
  facet normal -0.831476 -0.555561 0
    outer loop
       vertex 0.00698128 -0.125 0
       vertex 0.0251493 -0.152191 0
       vertex 0.0251493 -0.152191 0.1
    endloop
  endfacet
  facet normal -0.831476 -0.555561 0
    outer loop
       vertex 0.0251493 -0.152191 0.1
       vertex 0.00698128 -0.125 0.1
       vertex 0.00698128 -0.125 0
    endloop
  endfacet
  facet normal -0.751817 -0.659372 0
    outer loop
       vertex 0.0251493 -0.152191 0
       vertex 0.0467113 -0.176776 0
       vertex 0.0467113 -0.176776 0.1
    endloop
  endfacet
  facet normal -0.751817 -0.659372 0
    outer loop
       vertex 0.0467113 -0.176776 0.1
       vertex 0.0251493 -0.152191 0.1
       vertex 0.0251493 -0.152191 0
    endloop
  endfacet
  facet normal 0.659372 -0.751817 0
    outer loop
       vertex 0.400263 -0.176776 0
       vertex 0.400263 -0.176776 0.1
       vertex 0.375678 -0.198338 0.1
    endloop
  endfacet
  facet normal 0.659372 -0.751817 0
    outer loop
       vertex 0.375678 -0.198338 0.1
       vertex 0.375678 -0.198338 0
       vertex 0.400263 -0.176776 0
    endloop
  endfacet
  facet normal 0.555561 -0.831476 0
    outer loop
       vertex 0.375678 -0.198338 0
       vertex 0.375678 -0.198338 0.1
       vertex 0.348487 -0.216506 0.1
    endloop
  endfacet
  facet normal 0.555561 -0.831476 0
    outer loop
       vertex 0.348487 -0.216506 0.1
       vertex 0.348487 -0.216506 0
       vertex 0.375678 -0.198338 0
    endloop
  endfacet
  facet normal 0.442302 -0.896866 0
    outer loop
       vertex 0.348487 -0.216506 0
       vertex 0.348487 -0.216506 0.1
       vertex 0.319158 -0.23097 0.1
    endloop
  endfacet
  facet normal 0.442302 -0.896866 0
    outer loop
       vertex 0.319158 -0.23097 0.1
       vertex 0.319158 -0.23097 0
       vertex 0.348487 -0.216506 0
    endloop
  endfacet
  facet normal 0.321425 -0.946935 0
    outer loop
       vertex 0.319158 -0.23097 0
       vertex 0.319158 -0.23097 0.1
       vertex 0.288192 -0.241481 0.1
    endloop
  endfacet
  facet normal 0.321425 -0.946935 0
    outer loop
       vertex 0.288192 -0.241481 0.1
       vertex 0.288192 -0.241481 0
       vertex 0.319158 -0.23097 0
    endloop
  endfacet
  facet normal 0.195096 -0.980784 0
    outer loop
       vertex 0.288192 -0.241481 0
       vertex 0.288192 -0.241481 0.1
       vertex 0.256119 -0.247861 0.1
    endloop
  endfacet
  facet normal 0.195096 -0.980784 0
    outer loop
       vertex 0.256119 -0.247861 0.1
       vertex 0.256119 -0.247861 0
       vertex 0.288192 -0.241481 0
    endloop
  endfacet
  facet normal 0.0654098 -0.997858 0
    outer loop
       vertex 0.223487 -0.25 0
       vertex 0.256119 -0.247861 0
       vertex 0.256119 -0.247861 0.1
    endloop
  endfacet
  facet normal 0.0654098 -0.997858 1.0893e-16
    outer loop
       vertex 0.256119 -0.247861 0.1
       vertex 0.223487 -0.25 0.1
       vertex 0.223487 -0.25 0
    endloop
  endfacet
  facet normal -0.0654098 -0.997858 0
    outer loop
       vertex 0.223487 -0.25 0.1
       vertex 0.190856 -0.247861 0.1
       vertex 0.190856 -0.247861 0
    endloop
  endfacet
  facet normal -0.0654098 -0.997858 -1.0893e-16
    outer loop
       vertex 0.190856 -0.247861 0
       vertex 0.223487 -0.25 0
       vertex 0.223487 -0.25 0.1
    endloop
  endfacet
  facet normal -0.195096 -0.980784 0
    outer loop
       vertex 0.190856 -0.247861 0
       vertex 0.190856 -0.247861 0.1
       vertex 0.158782 -0.241481 0.1
    endloop
  endfacet
  facet normal -0.195096 -0.980784 -0
    outer loop
       vertex 0.158782 -0.241481 0.1
       vertex 0.158782 -0.241481 0
       vertex 0.190856 -0.247861 0
    endloop
  endfacet
  facet normal -0.321425 -0.946935 0
    outer loop
       vertex 0.158782 -0.241481 0
       vertex 0.158782 -0.241481 0.1
       vertex 0.127816 -0.23097 0.1
    endloop
  endfacet
  facet normal -0.321425 -0.946935 -0
    outer loop
       vertex 0.127816 -0.23097 0.1
       vertex 0.127816 -0.23097 0
       vertex 0.158782 -0.241481 0
    endloop
  endfacet
  facet normal -0.442302 -0.896866 0
    outer loop
       vertex 0.127816 -0.23097 0
       vertex 0.127816 -0.23097 0.1
       vertex 0.0984873 -0.216506 0.1
    endloop
  endfacet
  facet normal -0.442302 -0.896866 -0
    outer loop
       vertex 0.0984873 -0.216506 0.1
       vertex 0.0984873 -0.216506 0
       vertex 0.127816 -0.23097 0
    endloop
  endfacet
  facet normal -0.555561 -0.831476 0
    outer loop
       vertex 0.0984873 -0.216506 0
       vertex 0.0984873 -0.216506 0.1
       vertex 0.0712963 -0.198338 0.1
    endloop
  endfacet
  facet normal -0.555561 -0.831476 -0
    outer loop
       vertex 0.0712963 -0.198338 0.1
       vertex 0.0712963 -0.198338 0
       vertex 0.0984873 -0.216506 0
    endloop
  endfacet
  facet normal -0.659372 -0.751817 0
    outer loop
       vertex 0.0712963 -0.198338 0
       vertex 0.0712963 -0.198338 0.1
       vertex 0.0467113 -0.176776 0.1
    endloop
  endfacet
  facet normal -0.659372 -0.751817 -0
    outer loop
       vertex 0.0467113 -0.176776 0.1
       vertex 0.0467113 -0.176776 0
       vertex 0.0712963 -0.198338 0
    endloop
  endfacet
endsolid cylinder
