solid cylinder
  facet normal 0.751817 -0.659372 0
    outer loop
       vertex -0.0155891 -0.176776 0
       vertex 0.00597287 -0.152191 0
       vertex 0.00597287 -0.152191 0.1
    endloop
  endfacet
  facet normal 0.751817 -0.659372 0
    outer loop
       vertex 0.00597287 -0.152191 0.1
       vertex -0.0155891 -0.176776 0.1
       vertex -0.0155891 -0.176776 0
    endloop
  endfacet
  facet normal 0.831476 -0.555561 0
    outer loop
       vertex 0.00597287 -0.152191 0
       vertex 0.0241409 -0.125 0
       vertex 0.0241409 -0.125 0.1
    endloop
  endfacet
  facet normal 0.831476 -0.555561 0
    outer loop
       vertex 0.0241409 -0.125 0.1
       vertex 0.00597287 -0.152191 0.1
       vertex 0.00597287 -0.152191 0
    endloop
  endfacet
  facet normal 0.896866 -0.442302 0
    outer loop
       vertex 0.0241409 -0.125 0
       vertex 0.0386049 -0.095671 0
       vertex 0.0386049 -0.095671 0.1
    endloop
  endfacet
  facet normal 0.896866 -0.442302 0
    outer loop
       vertex 0.0386049 -0.095671 0.1
       vertex 0.0241409 -0.125 0.1
       vertex 0.0241409 -0.125 0
    endloop
  endfacet
  facet normal 0.946935 -0.321425 0
    outer loop
       vertex 0.0386049 -0.095671 0
       vertex 0.0491159 -0.064705 0
       vertex 0.0491159 -0.064705 0.1
    endloop
  endfacet
  facet normal 0.946935 -0.321425 0
    outer loop
       vertex 0.0491159 -0.064705 0.1
       vertex 0.0386049 -0.095671 0.1
       vertex 0.0386049 -0.095671 0
    endloop
  endfacet
  facet normal 0.980784 -0.195096 0
    outer loop
       vertex 0.0491159 -0.064705 0
       vertex 0.0554959 -0.0326315 0
       vertex 0.0554959 -0.0326315 0.1
    endloop
  endfacet
  facet normal 0.980784 -0.195096 0
    outer loop
       vertex 0.0554959 -0.0326315 0.1
       vertex 0.0491159 -0.064705 0.1
       vertex 0.0491159 -0.064705 0
    endloop
  endfacet
  facet normal 0.997858 -0.0654098 0
    outer loop
       vertex 0.0576349 -8.32665e-17 0.1
       vertex 0.0554959 -0.0326315 0.1
       vertex 0.0554959 -0.0326315 0
    endloop
  endfacet
  facet normal 0.997858 -0.0654098 -1.08928e-16
    outer loop
       vertex 0.0554959 -0.0326315 0
       vertex 0.0576349 8.32665e-17 0
       vertex 0.0576349 -8.32665e-17 0.1
    endloop
  endfacet
  facet normal 0.997858 0.0654098 0
    outer loop
       vertex 0.0576349 8.32665e-17 0
       vertex 0.0554959 0.0326315 0
       vertex 0.0554959 0.0326315 0.1
    endloop
  endfacet
  facet normal 0.997858 0.0654098 1.08928e-16
    outer loop
       vertex 0.0554959 0.0326315 0.1
       vertex 0.0576349 -8.32665e-17 0.1
       vertex 0.0576349 8.32665e-17 0
    endloop
  endfacet
  facet normal 0.980784 0.195096 0
    outer loop
       vertex 0.0554959 0.0326315 0
       vertex 0.0491159 0.064705 0
       vertex 0.0491159 0.064705 0.1
    endloop
  endfacet
  facet normal 0.980784 0.195096 0
    outer loop
       vertex 0.0491159 0.064705 0.1
       vertex 0.0554959 0.0326315 0.1
       vertex 0.0554959 0.0326315 0
    endloop
  endfacet
  facet normal 0.946935 0.321425 0
    outer loop
       vertex 0.0491159 0.064705 0
       vertex 0.0386049 0.095671 0
       vertex 0.0386049 0.095671 0.1
    endloop
  endfacet
  facet normal 0.946935 0.321425 0
    outer loop
       vertex 0.0386049 0.095671 0.1
       vertex 0.0491159 0.064705 0.1
       vertex 0.0491159 0.064705 0
    endloop
  endfacet
  facet normal 0.896866 0.442302 0
    outer loop
       vertex 0.0386049 0.095671 0
       vertex 0.0241409 0.125 0
       vertex 0.0241409 0.125 0.1
    endloop
  endfacet
  facet normal 0.896866 0.442302 0
    outer loop
       vertex 0.0241409 0.125 0.1
       vertex 0.0386049 0.095671 0.1
       vertex 0.0386049 0.095671 0
    endloop
  endfacet
  facet normal 0.831476 0.555561 0
    outer loop
       vertex 0.0241409 0.125 0
       vertex 0.00597287 0.152191 0
       vertex 0.00597287 0.152191 0.1
    endloop
  endfacet
  facet normal 0.831476 0.555561 0
    outer loop
       vertex 0.00597287 0.152191 0.1
       vertex 0.0241409 0.125 0.1
       vertex 0.0241409 0.125 0
    endloop
  endfacet
  facet normal 0.751817 0.659372 0
    outer loop
       vertex 0.00597287 0.152191 0
       vertex -0.0155891 0.176776 0
       vertex -0.0155891 0.176776 0.1
    endloop
  endfacet
  facet normal 0.751817 0.659372 0
    outer loop
       vertex -0.0155891 0.176776 0.1
       vertex 0.00597287 0.152191 0.1
       vertex 0.00597287 0.152191 0
    endloop
  endfacet
  facet normal 0.659372 0.751817 0
    outer loop
       vertex -0.0155891 0.176776 0
       vertex -0.0401741 0.198338 0
       vertex -0.0401741 0.198338 0.1
    endloop
  endfacet
  facet normal 0.659372 0.751817 0
    outer loop
       vertex -0.0401741 0.198338 0.1
       vertex -0.0155891 0.176776 0.1
       vertex -0.0155891 0.176776 0
    endloop
  endfacet
  facet normal 0.555561 0.831476 0
    outer loop
       vertex -0.0401741 0.198338 0
       vertex -0.0673651 0.216506 0
       vertex -0.0673651 0.216506 0.1
    endloop
  endfacet
  facet normal 0.555561 0.831476 0
    outer loop
       vertex -0.0673651 0.216506 0.1
       vertex -0.0401741 0.198338 0.1
       vertex -0.0401741 0.198338 0
    endloop
  endfacet
  facet normal 0.442302 0.896866 0
    outer loop
       vertex -0.0673651 0.216506 0
       vertex -0.0966941 0.23097 0
       vertex -0.0966941 0.23097 0.1
    endloop
  endfacet
  facet normal 0.442302 0.896866 0
    outer loop
       vertex -0.0966941 0.23097 0.1
       vertex -0.0673651 0.216506 0.1
       vertex -0.0673651 0.216506 0
    endloop
  endfacet
  facet normal 0.321425 0.946935 0
    outer loop
       vertex -0.0966941 0.23097 0
       vertex -0.12766 0.241481 0
       vertex -0.12766 0.241481 0.1
    endloop
  endfacet
  facet normal 0.321425 0.946935 0
    outer loop
       vertex -0.12766 0.241481 0.1
       vertex -0.0966941 0.23097 0.1
       vertex -0.0966941 0.23097 0
    endloop
  endfacet
  facet normal 0.195096 0.980784 0
    outer loop
       vertex -0.12766 0.241481 0
       vertex -0.159734 0.247861 0
       vertex -0.159734 0.247861 0.1
    endloop
  endfacet
  facet normal 0.195096 0.980784 0
    outer loop
       vertex -0.159734 0.247861 0.1
       vertex -0.12766 0.241481 0.1
       vertex -0.12766 0.241481 0
    endloop
  endfacet
  facet normal 0.0654098 0.997858 0
    outer loop
       vertex -0.192365 0.25 0.1
       vertex -0.159734 0.247861 0.1
       vertex -0.159734 0.247861 0
    endloop
  endfacet
  facet normal 0.0654098 0.997858 -1.0893e-16
    outer loop
       vertex -0.159734 0.247861 0
       vertex -0.192365 0.25 0
       vertex -0.192365 0.25 0.1
    endloop
  endfacet
  facet normal -0.0654098 0.997858 0
    outer loop
       vertex -0.192365 0.25 0
       vertex -0.224997 0.247861 0
       vertex -0.224997 0.247861 0.1
    endloop
  endfacet
  facet normal -0.0654098 0.997858 1.0893e-16
    outer loop
       vertex -0.224997 0.247861 0.1
       vertex -0.192365 0.25 0.1
       vertex -0.192365 0.25 0
    endloop
  endfacet
  facet normal -0.195096 0.980784 0
    outer loop
       vertex -0.224997 0.247861 0
       vertex -0.25707 0.241481 0
       vertex -0.25707 0.241481 0.1
    endloop
  endfacet
  facet normal -0.195096 0.980784 0
    outer loop
       vertex -0.25707 0.241481 0.1
       vertex -0.224997 0.247861 0.1
       vertex -0.224997 0.247861 0
    endloop
  endfacet
  facet normal -0.321425 0.946935 0
    outer loop
       vertex -0.25707 0.241481 0
       vertex -0.288036 0.23097 0
       vertex -0.288036 0.23097 0.1
    endloop
  endfacet
  facet normal -0.321425 0.946935 0
    outer loop
       vertex -0.288036 0.23097 0.1
       vertex -0.25707 0.241481 0.1
       vertex -0.25707 0.241481 0
    endloop
  endfacet
  facet normal -0.442302 0.896866 0
    outer loop
       vertex -0.288036 0.23097 0
       vertex -0.317365 0.216506 0
       vertex -0.317365 0.216506 0.1
    endloop
  endfacet
  facet normal -0.442302 0.896866 0
    outer loop
       vertex -0.317365 0.216506 0.1
       vertex -0.288036 0.23097 0.1
       vertex -0.288036 0.23097 0
    endloop
  endfacet
  facet normal -0.555561 0.831476 0
    outer loop
       vertex -0.317365 0.216506 0
       vertex -0.344556 0.198338 0
       vertex -0.344556 0.198338 0.1
    endloop
  endfacet
  facet normal -0.555561 0.831476 0
    outer loop
       vertex -0.344556 0.198338 0.1
       vertex -0.317365 0.216506 0.1
       vertex -0.317365 0.216506 0
    endloop
  endfacet
  facet normal -0.659372 0.751817 0
    outer loop
       vertex -0.344556 0.198338 0
       vertex -0.369141 0.176776 0
       vertex -0.369141 0.176776 0.1
    endloop
  endfacet
  facet normal -0.659372 0.751817 0
    outer loop
       vertex -0.369141 0.176776 0.1
       vertex -0.344556 0.198338 0.1
       vertex -0.344556 0.198338 0
    endloop
  endfacet
  facet normal -0.751817 0.659372 0
    outer loop
       vertex -0.369141 0.176776 0
       vertex -0.390703 0.152191 0
       vertex -0.390703 0.152191 0.1
    endloop
  endfacet
  facet normal -0.751817 0.659372 0
    outer loop
       vertex -0.390703 0.152191 0.1
       vertex -0.369141 0.176776 0.1
       vertex -0.369141 0.176776 0
    endloop
  endfacet
  facet normal -0.831476 0.555561 0
    outer loop
       vertex -0.390703 0.152191 0
       vertex -0.408871 0.125 0
       vertex -0.408871 0.125 0.1
    endloop
  endfacet
  facet normal -0.831476 0.555561 0
    outer loop
       vertex -0.408871 0.125 0.1
       vertex -0.390703 0.152191 0.1
       vertex -0.390703 0.152191 0
    endloop
  endfacet
  facet normal -0.896866 0.442302 0
    outer loop
       vertex -0.408871 0.125 0
       vertex -0.423335 0.095671 0
       vertex -0.423335 0.095671 0.1
    endloop
  endfacet
  facet normal -0.896866 0.442302 0
    outer loop
       vertex -0.423335 0.095671 0.1
       vertex -0.408871 0.125 0.1
       vertex -0.408871 0.125 0
    endloop
  endfacet
  facet normal -0.946935 0.321425 0
    outer loop
       vertex -0.423335 0.095671 0
       vertex -0.433846 0.064705 0
       vertex -0.433846 0.064705 0.1
    endloop
  endfacet
  facet normal -0.946935 0.321425 0
    outer loop
       vertex -0.433846 0.064705 0.1
       vertex -0.423335 0.095671 0.1
       vertex -0.423335 0.095671 0
    endloop
  endfacet
  facet normal -0.980784 0.195096 0
    outer loop
       vertex -0.433846 0.064705 0
       vertex -0.440226 0.0326315 0
       vertex -0.440226 0.0326315 0.1
    endloop
  endfacet
  facet normal -0.980784 0.195096 0
    outer loop
       vertex -0.440226 0.0326315 0.1
       vertex -0.433846 0.064705 0.1
       vertex -0.433846 0.064705 0
    endloop
  endfacet
  facet normal -0.997858 0.0654098 0
    outer loop
       vertex -0.442365 8.32665e-17 0.1
       vertex -0.440226 0.0326315 0.1
       vertex -0.440226 0.0326315 0
    endloop
  endfacet
  facet normal -0.997858 0.0654098 -1.08928e-16
    outer loop
       vertex -0.440226 0.0326315 0
       vertex -0.442365 -8.32665e-17 0
       vertex -0.442365 8.32665e-17 0.1
    endloop
  endfacet
  facet normal -0.997858 -0.0654098 0
    outer loop
       vertex -0.442365 -8.32665e-17 0
       vertex -0.440226 -0.0326315 0
       vertex -0.440226 -0.0326315 0.1
    endloop
  endfacet
  facet normal -0.997858 -0.0654098 1.08928e-16
    outer loop
       vertex -0.440226 -0.0326315 0.1
       vertex -0.442365 8.32665e-17 0.1
       vertex -0.442365 -8.32665e-17 0
    endloop
  endfacet
  facet normal -0.980784 -0.195096 0
    outer loop
       vertex -0.440226 -0.0326315 0
       vertex -0.433846 -0.064705 0
       vertex -0.433846 -0.064705 0.1
    endloop
  endfacet
  facet normal -0.980784 -0.195096 0
    outer loop
       vertex -0.433846 -0.064705 0.1
       vertex -0.440226 -0.0326315 0.1
       vertex -0.440226 -0.0326315 0
    endloop
  endfacet
  facet normal -0.946935 -0.321425 0
    outer loop
       vertex -0.433846 -0.064705 0
       vertex -0.423335 -0.095671 0
       vertex -0.423335 -0.095671 0.1
    endloop
  endfacet
  facet normal -0.946935 -0.321425 0
    outer loop
       vertex -0.423335 -0.095671 0.1
       vertex -0.433846 -0.064705 0.1
       vertex -0.433846 -0.064705 0
    endloop
  endfacet
  facet normal -0.896866 -0.442302 0
    outer loop
       vertex -0.423335 -0.095671 0
       vertex -0.408871 -0.125 0
       vertex -0.408871 -0.125 0.1
    endloop
  endfacet
  facet normal -0.896866 -0.442302 0
    outer loop
       vertex -0.408871 -0.125 0.1
       vertex -0.423335 -0.095671 0.1
       vertex -0.423335 -0.095671 0
    endloop
  endfacet
  facet normal -0.831476 -0.555561 0
    outer loop
       vertex -0.408871 -0.125 0
       vertex -0.390703 -0.152191 0
       vertex -0.390703 -0.152191 0.1
    endloop
  endfacet
  facet normal -0.831476 -0.555561 0
    outer loop
       vertex -0.390703 -0.152191 0.1
       vertex -0.408871 -0.125 0.1
       vertex -0.408871 -0.125 0
    endloop
  endfacet
  facet normal -0.751817 -0.659372 0
    outer loop
       vertex -0.390703 -0.152191 0
       vertex -0.369141 -0.176776 0
       vertex -0.369141 -0.176776 0.1
    endloop
  endfacet
  facet normal -0.751817 -0.659372 0
    outer loop
       vertex -0.369141 -0.176776 0.1
       vertex -0.390703 -0.152191 0.1
       vertex -0.390703 -0.152191 0
    endloop
  endfacet
  facet normal 0.659372 -0.751817 0
    outer loop
       vertex -0.0155891 -0.176776 0
       vertex -0.0155891 -0.176776 0.1
       vertex -0.0401741 -0.198338 0.1
    endloop
  endfacet
  facet normal 0.659372 -0.751817 0
    outer loop
       vertex -0.0401741 -0.198338 0.1
       vertex -0.0401741 -0.198338 0
       vertex -0.0155891 -0.176776 0
    endloop
  endfacet
  facet normal 0.555561 -0.831476 0
    outer loop
       vertex -0.0401741 -0.198338 0
       vertex -0.0401741 -0.198338 0.1
       vertex -0.0673651 -0.216506 0.1
    endloop
  endfacet
  facet normal 0.555561 -0.831476 0
    outer loop
       vertex -0.0673651 -0.216506 0.1
       vertex -0.0673651 -0.216506 0
       vertex -0.0401741 -0.198338 0
    endloop
  endfacet
  facet normal 0.442302 -0.896866 0
    outer loop
       vertex -0.0673651 -0.216506 0
       vertex -0.0673651 -0.216506 0.1
       vertex -0.0966941 -0.23097 0.1
    endloop
  endfacet
  facet normal 0.442302 -0.896866 0
    outer loop
       vertex -0.0966941 -0.23097 0.1
       vertex -0.0966941 -0.23097 0
       vertex -0.0673651 -0.216506 0
    endloop
  endfacet
  facet normal 0.321425 -0.946935 0
    outer loop
       vertex -0.0966941 -0.23097 0
       vertex -0.0966941 -0.23097 0.1
       vertex -0.12766 -0.241481 0.1
    endloop
  endfacet
  facet normal 0.321425 -0.946935 0
    outer loop
       vertex -0.12766 -0.241481 0.1
       vertex -0.12766 -0.241481 0
       vertex -0.0966941 -0.23097 0
    endloop
  endfacet
  facet normal 0.195096 -0.980784 0
    outer loop
       vertex -0.12766 -0.241481 0
       vertex -0.12766 -0.241481 0.1
       vertex -0.159734 -0.247861 0.1
    endloop
  endfacet
  facet normal 0.195096 -0.980784 0
    outer loop
       vertex -0.159734 -0.247861 0.1
       vertex -0.159734 -0.247861 0
       vertex -0.12766 -0.241481 0
    endloop
  endfacet
  facet normal 0.0654098 -0.997858 0
    outer loop
       vertex -0.192365 -0.25 0
       vertex -0.159734 -0.247861 0
       vertex -0.159734 -0.247861 0.1
    endloop
  endfacet
  facet normal 0.0654098 -0.997858 1.0893e-16
    outer loop
       vertex -0.159734 -0.247861 0.1
       vertex -0.192365 -0.25 0.1
       vertex -0.192365 -0.25 0
    endloop
  endfacet
  facet normal -0.0654098 -0.997858 0
    outer loop
       vertex -0.192365 -0.25 0.1
       vertex -0.224997 -0.247861 0.1
       vertex -0.224997 -0.247861 0
    endloop
  endfacet
  facet normal -0.0654098 -0.997858 -1.0893e-16
    outer loop
       vertex -0.224997 -0.247861 0
       vertex -0.192365 -0.25 0
       vertex -0.192365 -0.25 0.1
    endloop
  endfacet
  facet normal -0.195096 -0.980784 0
    outer loop
       vertex -0.224997 -0.247861 0
       vertex -0.224997 -0.247861 0.1
       vertex -0.25707 -0.241481 0.1
    endloop
  endfacet
  facet normal -0.195096 -0.980784 -0
    outer loop
       vertex -0.25707 -0.241481 0.1
       vertex -0.25707 -0.241481 0
       vertex -0.224997 -0.247861 0
    endloop
  endfacet
  facet normal -0.321425 -0.946935 0
    outer loop
       vertex -0.25707 -0.241481 0
       vertex -0.25707 -0.241481 0.1
       vertex -0.288036 -0.23097 0.1
    endloop
  endfacet
  facet normal -0.321425 -0.946935 -0
    outer loop
       vertex -0.288036 -0.23097 0.1
       vertex -0.288036 -0.23097 0
       vertex -0.25707 -0.241481 0
    endloop
  endfacet
  facet normal -0.442302 -0.896866 0
    outer loop
       vertex -0.288036 -0.23097 0
       vertex -0.288036 -0.23097 0.1
       vertex -0.317365 -0.216506 0.1
    endloop
  endfacet
  facet normal -0.442302 -0.896866 -0
    outer loop
       vertex -0.317365 -0.216506 0.1
       vertex -0.317365 -0.216506 0
       vertex -0.288036 -0.23097 0
    endloop
  endfacet
  facet normal -0.555561 -0.831476 0
    outer loop
       vertex -0.317365 -0.216506 0
       vertex -0.317365 -0.216506 0.1
       vertex -0.344556 -0.198338 0.1
    endloop
  endfacet
  facet normal -0.555561 -0.831476 -0
    outer loop
       vertex -0.344556 -0.198338 0.1
       vertex -0.344556 -0.198338 0
       vertex -0.317365 -0.216506 0
    endloop
  endfacet
  facet normal -0.659372 -0.751817 0
    outer loop
       vertex -0.344556 -0.198338 0
       vertex -0.344556 -0.198338 0.1
       vertex -0.369141 -0.176776 0.1
    endloop
  endfacet
  facet normal -0.659372 -0.751817 -0
    outer loop
       vertex -0.369141 -0.176776 0.1
       vertex -0.369141 -0.176776 0
       vertex -0.344556 -0.198338 0
    endloop
  endfacet
endsolid cylinder
