solid cylinder
  facet normal 0.751817 -0.659372 0
    outer loop
       vertex 0.101978 -0.176776 0
       vertex 0.12354 -0.152191 0
       vertex 0.12354 -0.152191 0.1
    endloop
  endfacet
  facet normal 0.751817 -0.659372 0
    outer loop
       vertex 0.12354 -0.152191 0.1
       vertex 0.101978 -0.176776 0.1
       vertex 0.101978 -0.176776 0
    endloop
  endfacet
  facet normal 0.831476 -0.555561 0
    outer loop
       vertex 0.12354 -0.152191 0
       vertex 0.141708 -0.125 0
       vertex 0.141708 -0.125 0.1
    endloop
  endfacet
  facet normal 0.831476 -0.555561 0
    outer loop
       vertex 0.141708 -0.125 0.1
       vertex 0.12354 -0.152191 0.1
       vertex 0.12354 -0.152191 0
    endloop
  endfacet
  facet normal 0.896866 -0.442302 0
    outer loop
       vertex 0.141708 -0.125 0
       vertex 0.156172 -0.095671 0
       vertex 0.156172 -0.095671 0.1
    endloop
  endfacet
  facet normal 0.896866 -0.442302 0
    outer loop
       vertex 0.156172 -0.095671 0.1
       vertex 0.141708 -0.125 0.1
       vertex 0.141708 -0.125 0
    endloop
  endfacet
  facet normal 0.946935 -0.321425 0
    outer loop
       vertex 0.156172 -0.095671 0
       vertex 0.166683 -0.064705 0
       vertex 0.166683 -0.064705 0.1
    endloop
  endfacet
  facet normal 0.946935 -0.321425 0
    outer loop
       vertex 0.166683 -0.064705 0.1
       vertex 0.156172 -0.095671 0.1
       vertex 0.156172 -0.095671 0
    endloop
  endfacet
  facet normal 0.980784 -0.195096 0
    outer loop
       vertex 0.166683 -0.064705 0
       vertex 0.173063 -0.0326315 0
       vertex 0.173063 -0.0326315 0.1
    endloop
  endfacet
  facet normal 0.980784 -0.195096 0
    outer loop
       vertex 0.173063 -0.0326315 0.1
       vertex 0.166683 -0.064705 0.1
       vertex 0.166683 -0.064705 0
    endloop
  endfacet
  facet normal 0.997858 -0.0654098 0
    outer loop
       vertex 0.175202 -8.32665e-17 0.1
       vertex 0.173063 -0.0326315 0.1
       vertex 0.173063 -0.0326315 0
    endloop
  endfacet
  facet normal 0.997858 -0.0654098 -1.08928e-16
    outer loop
       vertex 0.173063 -0.0326315 0
       vertex 0.175202 8.32665e-17 0
       vertex 0.175202 -8.32665e-17 0.1
    endloop
  endfacet
  facet normal 0.997858 0.0654098 0
    outer loop
       vertex 0.175202 8.32665e-17 0
       vertex 0.173063 0.0326315 0
       vertex 0.173063 0.0326315 0.1
    endloop
  endfacet
  facet normal 0.997858 0.0654098 1.08928e-16
    outer loop
       vertex 0.173063 0.0326315 0.1
       vertex 0.175202 -8.32665e-17 0.1
       vertex 0.175202 8.32665e-17 0
    endloop
  endfacet
  facet normal 0.980784 0.195096 0
    outer loop
       vertex 0.173063 0.0326315 0
       vertex 0.166683 0.064705 0
       vertex 0.166683 0.064705 0.1
    endloop
  endfacet
  facet normal 0.980784 0.195096 0
    outer loop
       vertex 0.166683 0.064705 0.1
       vertex 0.173063 0.0326315 0.1
       vertex 0.173063 0.0326315 0
    endloop
  endfacet
  facet normal 0.946935 0.321425 0
    outer loop
       vertex 0.166683 0.064705 0
       vertex 0.156172 0.095671 0
       vertex 0.156172 0.095671 0.1
    endloop
  endfacet
  facet normal 0.946935 0.321425 0
    outer loop
       vertex 0.156172 0.095671 0.1
       vertex 0.166683 0.064705 0.1
       vertex 0.166683 0.064705 0
    endloop
  endfacet
  facet normal 0.896866 0.442302 0
    outer loop
       vertex 0.156172 0.095671 0
       vertex 0.141708 0.125 0
       vertex 0.141708 0.125 0.1
    endloop
  endfacet
  facet normal 0.896866 0.442302 0
    outer loop
       vertex 0.141708 0.125 0.1
       vertex 0.156172 0.095671 0.1
       vertex 0.156172 0.095671 0
    endloop
  endfacet
  facet normal 0.831476 0.555561 0
    outer loop
       vertex 0.141708 0.125 0
       vertex 0.12354 0.152191 0
       vertex 0.12354 0.152191 0.1
    endloop
  endfacet
  facet normal 0.831476 0.555561 0
    outer loop
       vertex 0.12354 0.152191 0.1
       vertex 0.141708 0.125 0.1
       vertex 0.141708 0.125 0
    endloop
  endfacet
  facet normal 0.751817 0.659372 0
    outer loop
       vertex 0.12354 0.152191 0
       vertex 0.101978 0.176776 0
       vertex 0.101978 0.176776 0.1
    endloop
  endfacet
  facet normal 0.751817 0.659372 0
    outer loop
       vertex 0.101978 0.176776 0.1
       vertex 0.12354 0.152191 0.1
       vertex 0.12354 0.152191 0
    endloop
  endfacet
  facet normal 0.659372 0.751817 0
    outer loop
       vertex 0.101978 0.176776 0
       vertex 0.0773929 0.198338 0
       vertex 0.0773929 0.198338 0.1
    endloop
  endfacet
  facet normal 0.659372 0.751817 0
    outer loop
       vertex 0.0773929 0.198338 0.1
       vertex 0.101978 0.176776 0.1
       vertex 0.101978 0.176776 0
    endloop
  endfacet
  facet normal 0.555561 0.831476 0
    outer loop
       vertex 0.0773929 0.198338 0
       vertex 0.0502019 0.216506 0
       vertex 0.0502019 0.216506 0.1
    endloop
  endfacet
  facet normal 0.555561 0.831476 0
    outer loop
       vertex 0.0502019 0.216506 0.1
       vertex 0.0773929 0.198338 0.1
       vertex 0.0773929 0.198338 0
    endloop
  endfacet
  facet normal 0.442302 0.896866 0
    outer loop
       vertex 0.0502019 0.216506 0
       vertex 0.0208729 0.23097 0
       vertex 0.0208729 0.23097 0.1
    endloop
  endfacet
  facet normal 0.442302 0.896866 0
    outer loop
       vertex 0.0208729 0.23097 0.1
       vertex 0.0502019 0.216506 0.1
       vertex 0.0502019 0.216506 0
    endloop
  endfacet
  facet normal 0.321425 0.946935 0
    outer loop
       vertex 0.0208729 0.23097 0
       vertex -0.0100931 0.241481 0
       vertex -0.0100931 0.241481 0.1
    endloop
  endfacet
  facet normal 0.321425 0.946935 0
    outer loop
       vertex -0.0100931 0.241481 0.1
       vertex 0.0208729 0.23097 0.1
       vertex 0.0208729 0.23097 0
    endloop
  endfacet
  facet normal 0.195096 0.980784 0
    outer loop
       vertex -0.0100931 0.241481 0
       vertex -0.0421666 0.247861 0
       vertex -0.0421666 0.247861 0.1
    endloop
  endfacet
  facet normal 0.195096 0.980784 0
    outer loop
       vertex -0.0421666 0.247861 0.1
       vertex -0.0100931 0.241481 0.1
       vertex -0.0100931 0.241481 0
    endloop
  endfacet
  facet normal 0.0654098 0.997858 0
    outer loop
       vertex -0.0747981 0.25 0.1
       vertex -0.0421666 0.247861 0.1
       vertex -0.0421666 0.247861 0
    endloop
  endfacet
  facet normal 0.0654098 0.997858 -1.08928e-16
    outer loop
       vertex -0.0421666 0.247861 0
       vertex -0.0747981 0.25 0
       vertex -0.0747981 0.25 0.1
    endloop
  endfacet
  facet normal -0.0654098 0.997858 0
    outer loop
       vertex -0.0747981 0.25 0
       vertex -0.10743 0.247861 0
       vertex -0.10743 0.247861 0.1
    endloop
  endfacet
  facet normal -0.0654098 0.997858 1.08928e-16
    outer loop
       vertex -0.10743 0.247861 0.1
       vertex -0.0747981 0.25 0.1
       vertex -0.0747981 0.25 0
    endloop
  endfacet
  facet normal -0.195096 0.980784 0
    outer loop
       vertex -0.10743 0.247861 0
       vertex -0.139503 0.241481 0
       vertex -0.139503 0.241481 0.1
    endloop
  endfacet
  facet normal -0.195096 0.980784 0
    outer loop
       vertex -0.139503 0.241481 0.1
       vertex -0.10743 0.247861 0.1
       vertex -0.10743 0.247861 0
    endloop
  endfacet
  facet normal -0.321425 0.946935 0
    outer loop
       vertex -0.139503 0.241481 0
       vertex -0.170469 0.23097 0
       vertex -0.170469 0.23097 0.1
    endloop
  endfacet
  facet normal -0.321425 0.946935 0
    outer loop
       vertex -0.170469 0.23097 0.1
       vertex -0.139503 0.241481 0.1
       vertex -0.139503 0.241481 0
    endloop
  endfacet
  facet normal -0.442302 0.896866 0
    outer loop
       vertex -0.170469 0.23097 0
       vertex -0.199798 0.216506 0
       vertex -0.199798 0.216506 0.1
    endloop
  endfacet
  facet normal -0.442302 0.896866 0
    outer loop
       vertex -0.199798 0.216506 0.1
       vertex -0.170469 0.23097 0.1
       vertex -0.170469 0.23097 0
    endloop
  endfacet
  facet normal -0.555561 0.831476 0
    outer loop
       vertex -0.199798 0.216506 0
       vertex -0.226989 0.198338 0
       vertex -0.226989 0.198338 0.1
    endloop
  endfacet
  facet normal -0.555561 0.831476 0
    outer loop
       vertex -0.226989 0.198338 0.1
       vertex -0.199798 0.216506 0.1
       vertex -0.199798 0.216506 0
    endloop
  endfacet
  facet normal -0.659372 0.751817 0
    outer loop
       vertex -0.226989 0.198338 0
       vertex -0.251574 0.176776 0
       vertex -0.251574 0.176776 0.1
    endloop
  endfacet
  facet normal -0.659372 0.751817 0
    outer loop
       vertex -0.251574 0.176776 0.1
       vertex -0.226989 0.198338 0.1
       vertex -0.226989 0.198338 0
    endloop
  endfacet
  facet normal -0.751817 0.659372 0
    outer loop
       vertex -0.251574 0.176776 0
       vertex -0.273136 0.152191 0
       vertex -0.273136 0.152191 0.1
    endloop
  endfacet
  facet normal -0.751817 0.659372 0
    outer loop
       vertex -0.273136 0.152191 0.1
       vertex -0.251574 0.176776 0.1
       vertex -0.251574 0.176776 0
    endloop
  endfacet
  facet normal -0.831476 0.555561 0
    outer loop
       vertex -0.273136 0.152191 0
       vertex -0.291304 0.125 0
       vertex -0.291304 0.125 0.1
    endloop
  endfacet
  facet normal -0.831476 0.555561 0
    outer loop
       vertex -0.291304 0.125 0.1
       vertex -0.273136 0.152191 0.1
       vertex -0.273136 0.152191 0
    endloop
  endfacet
  facet normal -0.896866 0.442302 0
    outer loop
       vertex -0.291304 0.125 0
       vertex -0.305768 0.095671 0
       vertex -0.305768 0.095671 0.1
    endloop
  endfacet
  facet normal -0.896866 0.442302 0
    outer loop
       vertex -0.305768 0.095671 0.1
       vertex -0.291304 0.125 0.1
       vertex -0.291304 0.125 0
    endloop
  endfacet
  facet normal -0.946935 0.321425 0
    outer loop
       vertex -0.305768 0.095671 0
       vertex -0.316279 0.064705 0
       vertex -0.316279 0.064705 0.1
    endloop
  endfacet
  facet normal -0.946935 0.321425 0
    outer loop
       vertex -0.316279 0.064705 0.1
       vertex -0.305768 0.095671 0.1
       vertex -0.305768 0.095671 0
    endloop
  endfacet
  facet normal -0.980784 0.195096 0
    outer loop
       vertex -0.316279 0.064705 0
       vertex -0.322659 0.0326315 0
       vertex -0.322659 0.0326315 0.1
    endloop
  endfacet
  facet normal -0.980784 0.195096 0
    outer loop
       vertex -0.322659 0.0326315 0.1
       vertex -0.316279 0.064705 0.1
       vertex -0.316279 0.064705 0
    endloop
  endfacet
  facet normal -0.997858 0.0654098 0
    outer loop
       vertex -0.324798 8.32665e-17 0.1
       vertex -0.322659 0.0326315 0.1
       vertex -0.322659 0.0326315 0
    endloop
  endfacet
  facet normal -0.997858 0.0654098 -1.08928e-16
    outer loop
       vertex -0.322659 0.0326315 0
       vertex -0.324798 -8.32665e-17 0
       vertex -0.324798 8.32665e-17 0.1
    endloop
  endfacet
  facet normal -0.997858 -0.0654098 0
    outer loop
       vertex -0.324798 -8.32665e-17 0
       vertex -0.322659 -0.0326315 0
       vertex -0.322659 -0.0326315 0.1
    endloop
  endfacet
  facet normal -0.997858 -0.0654098 1.08928e-16
    outer loop
       vertex -0.322659 -0.0326315 0.1
       vertex -0.324798 8.32665e-17 0.1
       vertex -0.324798 -8.32665e-17 0
    endloop
  endfacet
  facet normal -0.980784 -0.195096 0
    outer loop
       vertex -0.322659 -0.0326315 0
       vertex -0.316279 -0.064705 0
       vertex -0.316279 -0.064705 0.1
    endloop
  endfacet
  facet normal -0.980784 -0.195096 0
    outer loop
       vertex -0.316279 -0.064705 0.1
       vertex -0.322659 -0.0326315 0.1
       vertex -0.322659 -0.0326315 0
    endloop
  endfacet
  facet normal -0.946935 -0.321425 0
    outer loop
       vertex -0.316279 -0.064705 0
       vertex -0.305768 -0.095671 0
       vertex -0.305768 -0.095671 0.1
    endloop
  endfacet
  facet normal -0.946935 -0.321425 0
    outer loop
       vertex -0.305768 -0.095671 0.1
       vertex -0.316279 -0.064705 0.1
       vertex -0.316279 -0.064705 0
    endloop
  endfacet
  facet normal -0.896866 -0.442302 0
    outer loop
       vertex -0.305768 -0.095671 0
       vertex -0.291304 -0.125 0
       vertex -0.291304 -0.125 0.1
    endloop
  endfacet
  facet normal -0.896866 -0.442302 0
    outer loop
       vertex -0.291304 -0.125 0.1
       vertex -0.305768 -0.095671 0.1
       vertex -0.305768 -0.095671 0
    endloop
  endfacet
  facet normal -0.831476 -0.555561 0
    outer loop
       vertex -0.291304 -0.125 0
       vertex -0.273136 -0.152191 0
       vertex -0.273136 -0.152191 0.1
    endloop
  endfacet
  facet normal -0.831476 -0.555561 0
    outer loop
       vertex -0.273136 -0.152191 0.1
       vertex -0.291304 -0.125 0.1
       vertex -0.291304 -0.125 0
    endloop
  endfacet
  facet normal -0.751817 -0.659372 0
    outer loop
       vertex -0.273136 -0.152191 0
       vertex -0.251574 -0.176776 0
       vertex -0.251574 -0.176776 0.1
    endloop
  endfacet
  facet normal -0.751817 -0.659372 0
    outer loop
       vertex -0.251574 -0.176776 0.1
       vertex -0.273136 -0.152191 0.1
       vertex -0.273136 -0.152191 0
    endloop
  endfacet
  facet normal 0.659372 -0.751817 0
    outer loop
       vertex 0.101978 -0.176776 0
       vertex 0.101978 -0.176776 0.1
       vertex 0.0773929 -0.198338 0.1
    endloop
  endfacet
  facet normal 0.659372 -0.751817 0
    outer loop
       vertex 0.0773929 -0.198338 0.1
       vertex 0.0773929 -0.198338 0
       vertex 0.101978 -0.176776 0
    endloop
  endfacet
  facet normal 0.555561 -0.831476 0
    outer loop
       vertex 0.0773929 -0.198338 0
       vertex 0.0773929 -0.198338 0.1
       vertex 0.0502019 -0.216506 0.1
    endloop
  endfacet
  facet normal 0.555561 -0.831476 0
    outer loop
       vertex 0.0502019 -0.216506 0.1
       vertex 0.0502019 -0.216506 0
       vertex 0.0773929 -0.198338 0
    endloop
  endfacet
  facet normal 0.442302 -0.896866 0
    outer loop
       vertex 0.0502019 -0.216506 0
       vertex 0.0502019 -0.216506 0.1
       vertex 0.0208729 -0.23097 0.1
    endloop
  endfacet
  facet normal 0.442302 -0.896866 0
    outer loop
       vertex 0.0208729 -0.23097 0.1
       vertex 0.0208729 -0.23097 0
       vertex 0.0502019 -0.216506 0
    endloop
  endfacet
  facet normal 0.321425 -0.946935 0
    outer loop
       vertex 0.0208729 -0.23097 0
       vertex 0.0208729 -0.23097 0.1
       vertex -0.0100931 -0.241481 0.1
    endloop
  endfacet
  facet normal 0.321425 -0.946935 0
    outer loop
       vertex -0.0100931 -0.241481 0.1
       vertex -0.0100931 -0.241481 0
       vertex 0.0208729 -0.23097 0
    endloop
  endfacet
  facet normal 0.195096 -0.980784 0
    outer loop
       vertex -0.0100931 -0.241481 0
       vertex -0.0100931 -0.241481 0.1
       vertex -0.0421666 -0.247861 0.1
    endloop
  endfacet
  facet normal 0.195096 -0.980784 0
    outer loop
       vertex -0.0421666 -0.247861 0.1
       vertex -0.0421666 -0.247861 0
       vertex -0.0100931 -0.241481 0
    endloop
  endfacet
  facet normal 0.0654098 -0.997858 0
    outer loop
       vertex -0.0747981 -0.25 0
       vertex -0.0421666 -0.247861 0
       vertex -0.0421666 -0.247861 0.1
    endloop
  endfacet
  facet normal 0.0654098 -0.997858 1.08928e-16
    outer loop
       vertex -0.0421666 -0.247861 0.1
       vertex -0.0747981 -0.25 0.1
       vertex -0.0747981 -0.25 0
    endloop
  endfacet
  facet normal -0.0654098 -0.997858 0
    outer loop
       vertex -0.0747981 -0.25 0.1
       vertex -0.10743 -0.247861 0.1
       vertex -0.10743 -0.247861 0
    endloop
  endfacet
  facet normal -0.0654098 -0.997858 -1.08928e-16
    outer loop
       vertex -0.10743 -0.247861 0
       vertex -0.0747981 -0.25 0
       vertex -0.0747981 -0.25 0.1
    endloop
  endfacet
  facet normal -0.195096 -0.980784 0
    outer loop
       vertex -0.10743 -0.247861 0
       vertex -0.10743 -0.247861 0.1
       vertex -0.139503 -0.241481 0.1
    endloop
  endfacet
  facet normal -0.195096 -0.980784 -0
    outer loop
       vertex -0.139503 -0.241481 0.1
       vertex -0.139503 -0.241481 0
       vertex -0.10743 -0.247861 0
    endloop
  endfacet
  facet normal -0.321425 -0.946935 0
    outer loop
       vertex -0.139503 -0.241481 0
       vertex -0.139503 -0.241481 0.1
       vertex -0.170469 -0.23097 0.1
    endloop
  endfacet
  facet normal -0.321425 -0.946935 -0
    outer loop
       vertex -0.170469 -0.23097 0.1
       vertex -0.170469 -0.23097 0
       vertex -0.139503 -0.241481 0
    endloop
  endfacet
  facet normal -0.442302 -0.896866 0
    outer loop
       vertex -0.170469 -0.23097 0
       vertex -0.170469 -0.23097 0.1
       vertex -0.199798 -0.216506 0.1
    endloop
  endfacet
  facet normal -0.442302 -0.896866 -0
    outer loop
       vertex -0.199798 -0.216506 0.1
       vertex -0.199798 -0.216506 0
       vertex -0.170469 -0.23097 0
    endloop
  endfacet
  facet normal -0.555561 -0.831476 0
    outer loop
       vertex -0.199798 -0.216506 0
       vertex -0.199798 -0.216506 0.1
       vertex -0.226989 -0.198338 0.1
    endloop
  endfacet
  facet normal -0.555561 -0.831476 -0
    outer loop
       vertex -0.226989 -0.198338 0.1
       vertex -0.226989 -0.198338 0
       vertex -0.199798 -0.216506 0
    endloop
  endfacet
  facet normal -0.659372 -0.751817 0
    outer loop
       vertex -0.226989 -0.198338 0
       vertex -0.226989 -0.198338 0.1
       vertex -0.251574 -0.176776 0.1
    endloop
  endfacet
  facet normal -0.659372 -0.751817 -0
    outer loop
       vertex -0.251574 -0.176776 0.1
       vertex -0.251574 -0.176776 0
       vertex -0.226989 -0.198338 0
    endloop
  endfacet
endsolid cylinder
