solid cylinder
  facet normal 0.751817 -0.659372 0
    outer loop
       vertex 0.318844 -0.176776 0
       vertex 0.340406 -0.152191 0
       vertex 0.340406 -0.152191 0.1
    endloop
  endfacet
  facet normal 0.751817 -0.659372 0
    outer loop
       vertex 0.340406 -0.152191 0.1
       vertex 0.318844 -0.176776 0.1
       vertex 0.318844 -0.176776 0
    endloop
  endfacet
  facet normal 0.831476 -0.555561 0
    outer loop
       vertex 0.340406 -0.152191 0
       vertex 0.358574 -0.125 0
       vertex 0.358574 -0.125 0.1
    endloop
  endfacet
  facet normal 0.831476 -0.555561 0
    outer loop
       vertex 0.358574 -0.125 0.1
       vertex 0.340406 -0.152191 0.1
       vertex 0.340406 -0.152191 0
    endloop
  endfacet
  facet normal 0.896866 -0.442302 0
    outer loop
       vertex 0.358574 -0.125 0
       vertex 0.373038 -0.095671 0
       vertex 0.373038 -0.095671 0.1
    endloop
  endfacet
  facet normal 0.896866 -0.442302 0
    outer loop
       vertex 0.373038 -0.095671 0.1
       vertex 0.358574 -0.125 0.1
       vertex 0.358574 -0.125 0
    endloop
  endfacet
  facet normal 0.946935 -0.321425 0
    outer loop
       vertex 0.373038 -0.095671 0
       vertex 0.383549 -0.064705 0
       vertex 0.383549 -0.064705 0.1
    endloop
  endfacet
  facet normal 0.946935 -0.321425 0
    outer loop
       vertex 0.383549 -0.064705 0.1
       vertex 0.373038 -0.095671 0.1
       vertex 0.373038 -0.095671 0
    endloop
  endfacet
  facet normal 0.980784 -0.195096 0
    outer loop
       vertex 0.383549 -0.064705 0
       vertex 0.389929 -0.0326315 0
       vertex 0.389929 -0.0326315 0.1
    endloop
  endfacet
  facet normal 0.980784 -0.195096 0
    outer loop
       vertex 0.389929 -0.0326315 0.1
       vertex 0.383549 -0.064705 0.1
       vertex 0.383549 -0.064705 0
    endloop
  endfacet
  facet normal 0.997858 -0.0654098 0
    outer loop
       vertex 0.392068 -8.32665e-17 0.1
       vertex 0.389929 -0.0326315 0.1
       vertex 0.389929 -0.0326315 0
    endloop
  endfacet
  facet normal 0.997858 -0.0654098 -1.08928e-16
    outer loop
       vertex 0.389929 -0.0326315 0
       vertex 0.392068 8.32665e-17 0
       vertex 0.392068 -8.32665e-17 0.1
    endloop
  endfacet
  facet normal 0.997858 0.0654098 0
    outer loop
       vertex 0.392068 8.32665e-17 0
       vertex 0.389929 0.0326315 0
       vertex 0.389929 0.0326315 0.1
    endloop
  endfacet
  facet normal 0.997858 0.0654098 1.08928e-16
    outer loop
       vertex 0.389929 0.0326315 0.1
       vertex 0.392068 -8.32665e-17 0.1
       vertex 0.392068 8.32665e-17 0
    endloop
  endfacet
  facet normal 0.980784 0.195096 0
    outer loop
       vertex 0.389929 0.0326315 0
       vertex 0.383549 0.064705 0
       vertex 0.383549 0.064705 0.1
    endloop
  endfacet
  facet normal 0.980784 0.195096 0
    outer loop
       vertex 0.383549 0.064705 0.1
       vertex 0.389929 0.0326315 0.1
       vertex 0.389929 0.0326315 0
    endloop
  endfacet
  facet normal 0.946935 0.321425 0
    outer loop
       vertex 0.383549 0.064705 0
       vertex 0.373038 0.095671 0
       vertex 0.373038 0.095671 0.1
    endloop
  endfacet
  facet normal 0.946935 0.321425 0
    outer loop
       vertex 0.373038 0.095671 0.1
       vertex 0.383549 0.064705 0.1
       vertex 0.383549 0.064705 0
    endloop
  endfacet
  facet normal 0.896866 0.442302 0
    outer loop
       vertex 0.373038 0.095671 0
       vertex 0.358574 0.125 0
       vertex 0.358574 0.125 0.1
    endloop
  endfacet
  facet normal 0.896866 0.442302 0
    outer loop
       vertex 0.358574 0.125 0.1
       vertex 0.373038 0.095671 0.1
       vertex 0.373038 0.095671 0
    endloop
  endfacet
  facet normal 0.831476 0.555561 0
    outer loop
       vertex 0.358574 0.125 0
       vertex 0.340406 0.152191 0
       vertex 0.340406 0.152191 0.1
    endloop
  endfacet
  facet normal 0.831476 0.555561 0
    outer loop
       vertex 0.340406 0.152191 0.1
       vertex 0.358574 0.125 0.1
       vertex 0.358574 0.125 0
    endloop
  endfacet
  facet normal 0.751817 0.659372 0
    outer loop
       vertex 0.340406 0.152191 0
       vertex 0.318844 0.176776 0
       vertex 0.318844 0.176776 0.1
    endloop
  endfacet
  facet normal 0.751817 0.659372 0
    outer loop
       vertex 0.318844 0.176776 0.1
       vertex 0.340406 0.152191 0.1
       vertex 0.340406 0.152191 0
    endloop
  endfacet
  facet normal 0.659372 0.751817 0
    outer loop
       vertex 0.318844 0.176776 0
       vertex 0.294259 0.198338 0
       vertex 0.294259 0.198338 0.1
    endloop
  endfacet
  facet normal 0.659372 0.751817 0
    outer loop
       vertex 0.294259 0.198338 0.1
       vertex 0.318844 0.176776 0.1
       vertex 0.318844 0.176776 0
    endloop
  endfacet
  facet normal 0.555561 0.831476 0
    outer loop
       vertex 0.294259 0.198338 0
       vertex 0.267068 0.216506 0
       vertex 0.267068 0.216506 0.1
    endloop
  endfacet
  facet normal 0.555561 0.831476 0
    outer loop
       vertex 0.267068 0.216506 0.1
       vertex 0.294259 0.198338 0.1
       vertex 0.294259 0.198338 0
    endloop
  endfacet
  facet normal 0.442302 0.896866 0
    outer loop
       vertex 0.267068 0.216506 0
       vertex 0.237739 0.23097 0
       vertex 0.237739 0.23097 0.1
    endloop
  endfacet
  facet normal 0.442302 0.896866 0
    outer loop
       vertex 0.237739 0.23097 0.1
       vertex 0.267068 0.216506 0.1
       vertex 0.267068 0.216506 0
    endloop
  endfacet
  facet normal 0.321425 0.946935 0
    outer loop
       vertex 0.237739 0.23097 0
       vertex 0.206773 0.241481 0
       vertex 0.206773 0.241481 0.1
    endloop
  endfacet
  facet normal 0.321425 0.946935 0
    outer loop
       vertex 0.206773 0.241481 0.1
       vertex 0.237739 0.23097 0.1
       vertex 0.237739 0.23097 0
    endloop
  endfacet
  facet normal 0.195096 0.980784 0
    outer loop
       vertex 0.206773 0.241481 0
       vertex 0.1747 0.247861 0
       vertex 0.1747 0.247861 0.1
    endloop
  endfacet
  facet normal 0.195096 0.980784 0
    outer loop
       vertex 0.1747 0.247861 0.1
       vertex 0.206773 0.241481 0.1
       vertex 0.206773 0.241481 0
    endloop
  endfacet
  facet normal 0.0654098 0.997858 0
    outer loop
       vertex 0.142068 0.25 0.1
       vertex 0.1747 0.247861 0.1
       vertex 0.1747 0.247861 0
    endloop
  endfacet
  facet normal 0.0654098 0.997858 -1.0893e-16
    outer loop
       vertex 0.1747 0.247861 0
       vertex 0.142068 0.25 0
       vertex 0.142068 0.25 0.1
    endloop
  endfacet
  facet normal -0.0654098 0.997858 0
    outer loop
       vertex 0.142068 0.25 0
       vertex 0.109437 0.247861 0
       vertex 0.109437 0.247861 0.1
    endloop
  endfacet
  facet normal -0.0654098 0.997858 1.0893e-16
    outer loop
       vertex 0.109437 0.247861 0.1
       vertex 0.142068 0.25 0.1
       vertex 0.142068 0.25 0
    endloop
  endfacet
  facet normal -0.195096 0.980784 0
    outer loop
       vertex 0.109437 0.247861 0
       vertex 0.0773635 0.241481 0
       vertex 0.0773635 0.241481 0.1
    endloop
  endfacet
  facet normal -0.195096 0.980784 0
    outer loop
       vertex 0.0773635 0.241481 0.1
       vertex 0.109437 0.247861 0.1
       vertex 0.109437 0.247861 0
    endloop
  endfacet
  facet normal -0.321425 0.946935 0
    outer loop
       vertex 0.0773635 0.241481 0
       vertex 0.0463975 0.23097 0
       vertex 0.0463975 0.23097 0.1
    endloop
  endfacet
  facet normal -0.321425 0.946935 0
    outer loop
       vertex 0.0463975 0.23097 0.1
       vertex 0.0773635 0.241481 0.1
       vertex 0.0773635 0.241481 0
    endloop
  endfacet
  facet normal -0.442302 0.896866 0
    outer loop
       vertex 0.0463975 0.23097 0
       vertex 0.0170685 0.216506 0
       vertex 0.0170685 0.216506 0.1
    endloop
  endfacet
  facet normal -0.442302 0.896866 0
    outer loop
       vertex 0.0170685 0.216506 0.1
       vertex 0.0463975 0.23097 0.1
       vertex 0.0463975 0.23097 0
    endloop
  endfacet
  facet normal -0.555561 0.831476 0
    outer loop
       vertex 0.0170685 0.216506 0
       vertex -0.0101225 0.198338 0
       vertex -0.0101225 0.198338 0.1
    endloop
  endfacet
  facet normal -0.555561 0.831476 0
    outer loop
       vertex -0.0101225 0.198338 0.1
       vertex 0.0170685 0.216506 0.1
       vertex 0.0170685 0.216506 0
    endloop
  endfacet
  facet normal -0.659372 0.751817 0
    outer loop
       vertex -0.0101225 0.198338 0
       vertex -0.0347075 0.176776 0
       vertex -0.0347075 0.176776 0.1
    endloop
  endfacet
  facet normal -0.659372 0.751817 0
    outer loop
       vertex -0.0347075 0.176776 0.1
       vertex -0.0101225 0.198338 0.1
       vertex -0.0101225 0.198338 0
    endloop
  endfacet
  facet normal -0.751817 0.659372 0
    outer loop
       vertex -0.0347075 0.176776 0
       vertex -0.0562695 0.152191 0
       vertex -0.0562695 0.152191 0.1
    endloop
  endfacet
  facet normal -0.751817 0.659372 0
    outer loop
       vertex -0.0562695 0.152191 0.1
       vertex -0.0347075 0.176776 0.1
       vertex -0.0347075 0.176776 0
    endloop
  endfacet
  facet normal -0.831476 0.555561 0
    outer loop
       vertex -0.0562695 0.152191 0
       vertex -0.0744375 0.125 0
       vertex -0.0744375 0.125 0.1
    endloop
  endfacet
  facet normal -0.831476 0.555561 0
    outer loop
       vertex -0.0744375 0.125 0.1
       vertex -0.0562695 0.152191 0.1
       vertex -0.0562695 0.152191 0
    endloop
  endfacet
  facet normal -0.896866 0.442302 0
    outer loop
       vertex -0.0744375 0.125 0
       vertex -0.0889015 0.095671 0
       vertex -0.0889015 0.095671 0.1
    endloop
  endfacet
  facet normal -0.896866 0.442302 0
    outer loop
       vertex -0.0889015 0.095671 0.1
       vertex -0.0744375 0.125 0.1
       vertex -0.0744375 0.125 0
    endloop
  endfacet
  facet normal -0.946935 0.321425 0
    outer loop
       vertex -0.0889015 0.095671 0
       vertex -0.0994125 0.064705 0
       vertex -0.0994125 0.064705 0.1
    endloop
  endfacet
  facet normal -0.946935 0.321425 0
    outer loop
       vertex -0.0994125 0.064705 0.1
       vertex -0.0889015 0.095671 0.1
       vertex -0.0889015 0.095671 0
    endloop
  endfacet
  facet normal -0.980784 0.195096 0
    outer loop
       vertex -0.0994125 0.064705 0
       vertex -0.105793 0.0326315 0
       vertex -0.105793 0.0326315 0.1
    endloop
  endfacet
  facet normal -0.980784 0.195096 0
    outer loop
       vertex -0.105793 0.0326315 0.1
       vertex -0.0994125 0.064705 0.1
       vertex -0.0994125 0.064705 0
    endloop
  endfacet
  facet normal -0.997858 0.0654098 0
    outer loop
       vertex -0.107932 8.32665e-17 0.1
       vertex -0.105793 0.0326315 0.1
       vertex -0.105793 0.0326315 0
    endloop
  endfacet
  facet normal -0.997858 0.0654098 -1.08928e-16
    outer loop
       vertex -0.105793 0.0326315 0
       vertex -0.107932 -8.32665e-17 0
       vertex -0.107932 8.32665e-17 0.1
    endloop
  endfacet
  facet normal -0.997858 -0.0654098 0
    outer loop
       vertex -0.107932 -8.32665e-17 0
       vertex -0.105793 -0.0326315 0
       vertex -0.105793 -0.0326315 0.1
    endloop
  endfacet
  facet normal -0.997858 -0.0654098 1.08928e-16
    outer loop
       vertex -0.105793 -0.0326315 0.1
       vertex -0.107932 8.32665e-17 0.1
       vertex -0.107932 -8.32665e-17 0
    endloop
  endfacet
  facet normal -0.980784 -0.195096 0
    outer loop
       vertex -0.105793 -0.0326315 0
       vertex -0.0994125 -0.064705 0
       vertex -0.0994125 -0.064705 0.1
    endloop
  endfacet
  facet normal -0.980784 -0.195096 0
    outer loop
       vertex -0.0994125 -0.064705 0.1
       vertex -0.105793 -0.0326315 0.1
       vertex -0.105793 -0.0326315 0
    endloop
  endfacet
  facet normal -0.946935 -0.321425 0
    outer loop
       vertex -0.0994125 -0.064705 0
       vertex -0.0889015 -0.095671 0
       vertex -0.0889015 -0.095671 0.1
    endloop
  endfacet
  facet normal -0.946935 -0.321425 0
    outer loop
       vertex -0.0889015 -0.095671 0.1
       vertex -0.0994125 -0.064705 0.1
       vertex -0.0994125 -0.064705 0
    endloop
  endfacet
  facet normal -0.896866 -0.442302 0
    outer loop
       vertex -0.0889015 -0.095671 0
       vertex -0.0744375 -0.125 0
       vertex -0.0744375 -0.125 0.1
    endloop
  endfacet
  facet normal -0.896866 -0.442302 0
    outer loop
       vertex -0.0744375 -0.125 0.1
       vertex -0.0889015 -0.095671 0.1
       vertex -0.0889015 -0.095671 0
    endloop
  endfacet
  facet normal -0.831476 -0.555561 0
    outer loop
       vertex -0.0744375 -0.125 0
       vertex -0.0562695 -0.152191 0
       vertex -0.0562695 -0.152191 0.1
    endloop
  endfacet
  facet normal -0.831476 -0.555561 0
    outer loop
       vertex -0.0562695 -0.152191 0.1
       vertex -0.0744375 -0.125 0.1
       vertex -0.0744375 -0.125 0
    endloop
  endfacet
  facet normal -0.751817 -0.659372 0
    outer loop
       vertex -0.0562695 -0.152191 0
       vertex -0.0347075 -0.176776 0
       vertex -0.0347075 -0.176776 0.1
    endloop
  endfacet
  facet normal -0.751817 -0.659372 0
    outer loop
       vertex -0.0347075 -0.176776 0.1
       vertex -0.0562695 -0.152191 0.1
       vertex -0.0562695 -0.152191 0
    endloop
  endfacet
  facet normal 0.659372 -0.751817 0
    outer loop
       vertex 0.318844 -0.176776 0
       vertex 0.318844 -0.176776 0.1
       vertex 0.294259 -0.198338 0.1
    endloop
  endfacet
  facet normal 0.659372 -0.751817 0
    outer loop
       vertex 0.294259 -0.198338 0.1
       vertex 0.294259 -0.198338 0
       vertex 0.318844 -0.176776 0
    endloop
  endfacet
  facet normal 0.555561 -0.831476 0
    outer loop
       vertex 0.294259 -0.198338 0
       vertex 0.294259 -0.198338 0.1
       vertex 0.267068 -0.216506 0.1
    endloop
  endfacet
  facet normal 0.555561 -0.831476 0
    outer loop
       vertex 0.267068 -0.216506 0.1
       vertex 0.267068 -0.216506 0
       vertex 0.294259 -0.198338 0
    endloop
  endfacet
  facet normal 0.442302 -0.896866 0
    outer loop
       vertex 0.267068 -0.216506 0
       vertex 0.267068 -0.216506 0.1
       vertex 0.237739 -0.23097 0.1
    endloop
  endfacet
  facet normal 0.442302 -0.896866 0
    outer loop
       vertex 0.237739 -0.23097 0.1
       vertex 0.237739 -0.23097 0
       vertex 0.267068 -0.216506 0
    endloop
  endfacet
  facet normal 0.321425 -0.946935 0
    outer loop
       vertex 0.237739 -0.23097 0
       vertex 0.237739 -0.23097 0.1
       vertex 0.206773 -0.241481 0.1
    endloop
  endfacet
  facet normal 0.321425 -0.946935 0
    outer loop
       vertex 0.206773 -0.241481 0.1
       vertex 0.206773 -0.241481 0
       vertex 0.237739 -0.23097 0
    endloop
  endfacet
  facet normal 0.195096 -0.980784 0
    outer loop
       vertex 0.206773 -0.241481 0
       vertex 0.206773 -0.241481 0.1
       vertex 0.1747 -0.247861 0.1
    endloop
  endfacet
  facet normal 0.195096 -0.980784 0
    outer loop
       vertex 0.1747 -0.247861 0.1
       vertex 0.1747 -0.247861 0
       vertex 0.206773 -0.241481 0
    endloop
  endfacet
  facet normal 0.0654098 -0.997858 0
    outer loop
       vertex 0.142068 -0.25 0
       vertex 0.1747 -0.247861 0
       vertex 0.1747 -0.247861 0.1
    endloop
  endfacet
  facet normal 0.0654098 -0.997858 1.0893e-16
    outer loop
       vertex 0.1747 -0.247861 0.1
       vertex 0.142068 -0.25 0.1
       vertex 0.142068 -0.25 0
    endloop
  endfacet
  facet normal -0.0654098 -0.997858 0
    outer loop
       vertex 0.142068 -0.25 0.1
       vertex 0.109437 -0.247861 0.1
       vertex 0.109437 -0.247861 0
    endloop
  endfacet
  facet normal -0.0654098 -0.997858 -1.0893e-16
    outer loop
       vertex 0.109437 -0.247861 0
       vertex 0.142068 -0.25 0
       vertex 0.142068 -0.25 0.1
    endloop
  endfacet
  facet normal -0.195096 -0.980784 0
    outer loop
       vertex 0.109437 -0.247861 0
       vertex 0.109437 -0.247861 0.1
       vertex 0.0773635 -0.241481 0.1
    endloop
  endfacet
  facet normal -0.195096 -0.980784 -0
    outer loop
       vertex 0.0773635 -0.241481 0.1
       vertex 0.0773635 -0.241481 0
       vertex 0.109437 -0.247861 0
    endloop
  endfacet
  facet normal -0.321425 -0.946935 0
    outer loop
       vertex 0.0773635 -0.241481 0
       vertex 0.0773635 -0.241481 0.1
       vertex 0.0463975 -0.23097 0.1
    endloop
  endfacet
  facet normal -0.321425 -0.946935 -0
    outer loop
       vertex 0.0463975 -0.23097 0.1
       vertex 0.0463975 -0.23097 0
       vertex 0.0773635 -0.241481 0
    endloop
  endfacet
  facet normal -0.442302 -0.896866 0
    outer loop
       vertex 0.0463975 -0.23097 0
       vertex 0.0463975 -0.23097 0.1
       vertex 0.0170685 -0.216506 0.1
    endloop
  endfacet
  facet normal -0.442302 -0.896866 -0
    outer loop
       vertex 0.0170685 -0.216506 0.1
       vertex 0.0170685 -0.216506 0
       vertex 0.0463975 -0.23097 0
    endloop
  endfacet
  facet normal -0.555561 -0.831476 0
    outer loop
       vertex 0.0170685 -0.216506 0
       vertex 0.0170685 -0.216506 0.1
       vertex -0.0101225 -0.198338 0.1
    endloop
  endfacet
  facet normal -0.555561 -0.831476 -0
    outer loop
       vertex -0.0101225 -0.198338 0.1
       vertex -0.0101225 -0.198338 0
       vertex 0.0170685 -0.216506 0
    endloop
  endfacet
  facet normal -0.659372 -0.751817 0
    outer loop
       vertex -0.0101225 -0.198338 0
       vertex -0.0101225 -0.198338 0.1
       vertex -0.0347075 -0.176776 0.1
    endloop
  endfacet
  facet normal -0.659372 -0.751817 -0
    outer loop
       vertex -0.0347075 -0.176776 0.1
       vertex -0.0347075 -0.176776 0
       vertex -0.0101225 -0.198338 0
    endloop
  endfacet
endsolid cylinder
