solid cylinder
  facet normal 0.751817 -0.659372 0
    outer loop
       vertex 0.0690468 -0.176776 0
       vertex 0.0906088 -0.152191 0
       vertex 0.0906088 -0.152191 0.1
    endloop
  endfacet
  facet normal 0.751817 -0.659372 0
    outer loop
       vertex 0.0906088 -0.152191 0.1
       vertex 0.0690468 -0.176776 0.1
       vertex 0.0690468 -0.176776 0
    endloop
  endfacet
  facet normal 0.831476 -0.555561 0
    outer loop
       vertex 0.0906088 -0.152191 0
       vertex 0.108777 -0.125 0
       vertex 0.108777 -0.125 0.1
    endloop
  endfacet
  facet normal 0.831476 -0.555561 0
    outer loop
       vertex 0.108777 -0.125 0.1
       vertex 0.0906088 -0.152191 0.1
       vertex 0.0906088 -0.152191 0
    endloop
  endfacet
  facet normal 0.896866 -0.442302 0
    outer loop
       vertex 0.108777 -0.125 0
       vertex 0.123241 -0.095671 0
       vertex 0.123241 -0.095671 0.1
    endloop
  endfacet
  facet normal 0.896866 -0.442302 0
    outer loop
       vertex 0.123241 -0.095671 0.1
       vertex 0.108777 -0.125 0.1
       vertex 0.108777 -0.125 0
    endloop
  endfacet
  facet normal 0.946935 -0.321425 0
    outer loop
       vertex 0.123241 -0.095671 0
       vertex 0.133752 -0.064705 0
       vertex 0.133752 -0.064705 0.1
    endloop
  endfacet
  facet normal 0.946935 -0.321425 0
    outer loop
       vertex 0.133752 -0.064705 0.1
       vertex 0.123241 -0.095671 0.1
       vertex 0.123241 -0.095671 0
    endloop
  endfacet
  facet normal 0.980784 -0.195096 0
    outer loop
       vertex 0.133752 -0.064705 0
       vertex 0.140132 -0.0326315 0
       vertex 0.140132 -0.0326315 0.1
    endloop
  endfacet
  facet normal 0.980784 -0.195096 0
    outer loop
       vertex 0.140132 -0.0326315 0.1
       vertex 0.133752 -0.064705 0.1
       vertex 0.133752 -0.064705 0
    endloop
  endfacet
  facet normal 0.997858 -0.0654098 0
    outer loop
       vertex 0.142271 -8.32665e-17 0.1
       vertex 0.140132 -0.0326315 0.1
       vertex 0.140132 -0.0326315 0
    endloop
  endfacet
  facet normal 0.997858 -0.0654098 -1.08928e-16
    outer loop
       vertex 0.140132 -0.0326315 0
       vertex 0.142271 8.32665e-17 0
       vertex 0.142271 -8.32665e-17 0.1
    endloop
  endfacet
  facet normal 0.997858 0.0654098 0
    outer loop
       vertex 0.142271 8.32665e-17 0
       vertex 0.140132 0.0326315 0
       vertex 0.140132 0.0326315 0.1
    endloop
  endfacet
  facet normal 0.997858 0.0654098 1.08928e-16
    outer loop
       vertex 0.140132 0.0326315 0.1
       vertex 0.142271 -8.32665e-17 0.1
       vertex 0.142271 8.32665e-17 0
    endloop
  endfacet
  facet normal 0.980784 0.195096 0
    outer loop
       vertex 0.140132 0.0326315 0
       vertex 0.133752 0.064705 0
       vertex 0.133752 0.064705 0.1
    endloop
  endfacet
  facet normal 0.980784 0.195096 0
    outer loop
       vertex 0.133752 0.064705 0.1
       vertex 0.140132 0.0326315 0.1
       vertex 0.140132 0.0326315 0
    endloop
  endfacet
  facet normal 0.946935 0.321425 0
    outer loop
       vertex 0.133752 0.064705 0
       vertex 0.123241 0.095671 0
       vertex 0.123241 0.095671 0.1
    endloop
  endfacet
  facet normal 0.946935 0.321425 0
    outer loop
       vertex 0.123241 0.095671 0.1
       vertex 0.133752 0.064705 0.1
       vertex 0.133752 0.064705 0
    endloop
  endfacet
  facet normal 0.896866 0.442302 0
    outer loop
       vertex 0.123241 0.095671 0
       vertex 0.108777 0.125 0
       vertex 0.108777 0.125 0.1
    endloop
  endfacet
  facet normal 0.896866 0.442302 0
    outer loop
       vertex 0.108777 0.125 0.1
       vertex 0.123241 0.095671 0.1
       vertex 0.123241 0.095671 0
    endloop
  endfacet
  facet normal 0.831476 0.555561 0
    outer loop
       vertex 0.108777 0.125 0
       vertex 0.0906088 0.152191 0
       vertex 0.0906088 0.152191 0.1
    endloop
  endfacet
  facet normal 0.831476 0.555561 0
    outer loop
       vertex 0.0906088 0.152191 0.1
       vertex 0.108777 0.125 0.1
       vertex 0.108777 0.125 0
    endloop
  endfacet
  facet normal 0.751817 0.659372 0
    outer loop
       vertex 0.0906088 0.152191 0
       vertex 0.0690468 0.176776 0
       vertex 0.0690468 0.176776 0.1
    endloop
  endfacet
  facet normal 0.751817 0.659372 0
    outer loop
       vertex 0.0690468 0.176776 0.1
       vertex 0.0906088 0.152191 0.1
       vertex 0.0906088 0.152191 0
    endloop
  endfacet
  facet normal 0.659372 0.751817 0
    outer loop
       vertex 0.0690468 0.176776 0
       vertex 0.0444618 0.198338 0
       vertex 0.0444618 0.198338 0.1
    endloop
  endfacet
  facet normal 0.659372 0.751817 0
    outer loop
       vertex 0.0444618 0.198338 0.1
       vertex 0.0690468 0.176776 0.1
       vertex 0.0690468 0.176776 0
    endloop
  endfacet
  facet normal 0.555561 0.831476 0
    outer loop
       vertex 0.0444618 0.198338 0
       vertex 0.0172708 0.216506 0
       vertex 0.0172708 0.216506 0.1
    endloop
  endfacet
  facet normal 0.555561 0.831476 0
    outer loop
       vertex 0.0172708 0.216506 0.1
       vertex 0.0444618 0.198338 0.1
       vertex 0.0444618 0.198338 0
    endloop
  endfacet
  facet normal 0.442302 0.896866 0
    outer loop
       vertex 0.0172708 0.216506 0
       vertex -0.0120582 0.23097 0
       vertex -0.0120582 0.23097 0.1
    endloop
  endfacet
  facet normal 0.442302 0.896866 0
    outer loop
       vertex -0.0120582 0.23097 0.1
       vertex 0.0172708 0.216506 0.1
       vertex 0.0172708 0.216506 0
    endloop
  endfacet
  facet normal 0.321425 0.946935 0
    outer loop
       vertex -0.0120582 0.23097 0
       vertex -0.0430242 0.241481 0
       vertex -0.0430242 0.241481 0.1
    endloop
  endfacet
  facet normal 0.321425 0.946935 0
    outer loop
       vertex -0.0430242 0.241481 0.1
       vertex -0.0120582 0.23097 0.1
       vertex -0.0120582 0.23097 0
    endloop
  endfacet
  facet normal 0.195096 0.980784 0
    outer loop
       vertex -0.0430242 0.241481 0
       vertex -0.0750977 0.247861 0
       vertex -0.0750977 0.247861 0.1
    endloop
  endfacet
  facet normal 0.195096 0.980784 0
    outer loop
       vertex -0.0750977 0.247861 0.1
       vertex -0.0430242 0.241481 0.1
       vertex -0.0430242 0.241481 0
    endloop
  endfacet
  facet normal 0.0654098 0.997858 0
    outer loop
       vertex -0.107729 0.25 0.1
       vertex -0.0750977 0.247861 0.1
       vertex -0.0750977 0.247861 0
    endloop
  endfacet
  facet normal 0.0654098 0.997858 -1.08928e-16
    outer loop
       vertex -0.0750977 0.247861 0
       vertex -0.107729 0.25 0
       vertex -0.107729 0.25 0.1
    endloop
  endfacet
  facet normal -0.0654098 0.997858 0
    outer loop
       vertex -0.107729 0.25 0
       vertex -0.140361 0.247861 0
       vertex -0.140361 0.247861 0.1
    endloop
  endfacet
  facet normal -0.0654098 0.997858 1.08928e-16
    outer loop
       vertex -0.140361 0.247861 0.1
       vertex -0.107729 0.25 0.1
       vertex -0.107729 0.25 0
    endloop
  endfacet
  facet normal -0.195096 0.980784 0
    outer loop
       vertex -0.140361 0.247861 0
       vertex -0.172434 0.241481 0
       vertex -0.172434 0.241481 0.1
    endloop
  endfacet
  facet normal -0.195096 0.980784 0
    outer loop
       vertex -0.172434 0.241481 0.1
       vertex -0.140361 0.247861 0.1
       vertex -0.140361 0.247861 0
    endloop
  endfacet
  facet normal -0.321425 0.946935 0
    outer loop
       vertex -0.172434 0.241481 0
       vertex -0.2034 0.23097 0
       vertex -0.2034 0.23097 0.1
    endloop
  endfacet
  facet normal -0.321425 0.946935 0
    outer loop
       vertex -0.2034 0.23097 0.1
       vertex -0.172434 0.241481 0.1
       vertex -0.172434 0.241481 0
    endloop
  endfacet
  facet normal -0.442302 0.896866 0
    outer loop
       vertex -0.2034 0.23097 0
       vertex -0.232729 0.216506 0
       vertex -0.232729 0.216506 0.1
    endloop
  endfacet
  facet normal -0.442302 0.896866 0
    outer loop
       vertex -0.232729 0.216506 0.1
       vertex -0.2034 0.23097 0.1
       vertex -0.2034 0.23097 0
    endloop
  endfacet
  facet normal -0.555561 0.831476 0
    outer loop
       vertex -0.232729 0.216506 0
       vertex -0.25992 0.198338 0
       vertex -0.25992 0.198338 0.1
    endloop
  endfacet
  facet normal -0.555561 0.831476 0
    outer loop
       vertex -0.25992 0.198338 0.1
       vertex -0.232729 0.216506 0.1
       vertex -0.232729 0.216506 0
    endloop
  endfacet
  facet normal -0.659372 0.751817 0
    outer loop
       vertex -0.25992 0.198338 0
       vertex -0.284505 0.176776 0
       vertex -0.284505 0.176776 0.1
    endloop
  endfacet
  facet normal -0.659372 0.751817 0
    outer loop
       vertex -0.284505 0.176776 0.1
       vertex -0.25992 0.198338 0.1
       vertex -0.25992 0.198338 0
    endloop
  endfacet
  facet normal -0.751817 0.659372 0
    outer loop
       vertex -0.284505 0.176776 0
       vertex -0.306067 0.152191 0
       vertex -0.306067 0.152191 0.1
    endloop
  endfacet
  facet normal -0.751817 0.659372 0
    outer loop
       vertex -0.306067 0.152191 0.1
       vertex -0.284505 0.176776 0.1
       vertex -0.284505 0.176776 0
    endloop
  endfacet
  facet normal -0.831476 0.555561 0
    outer loop
       vertex -0.306067 0.152191 0
       vertex -0.324235 0.125 0
       vertex -0.324235 0.125 0.1
    endloop
  endfacet
  facet normal -0.831476 0.555561 0
    outer loop
       vertex -0.324235 0.125 0.1
       vertex -0.306067 0.152191 0.1
       vertex -0.306067 0.152191 0
    endloop
  endfacet
  facet normal -0.896866 0.442302 0
    outer loop
       vertex -0.324235 0.125 0
       vertex -0.338699 0.095671 0
       vertex -0.338699 0.095671 0.1
    endloop
  endfacet
  facet normal -0.896866 0.442302 0
    outer loop
       vertex -0.338699 0.095671 0.1
       vertex -0.324235 0.125 0.1
       vertex -0.324235 0.125 0
    endloop
  endfacet
  facet normal -0.946935 0.321425 0
    outer loop
       vertex -0.338699 0.095671 0
       vertex -0.34921 0.064705 0
       vertex -0.34921 0.064705 0.1
    endloop
  endfacet
  facet normal -0.946935 0.321425 0
    outer loop
       vertex -0.34921 0.064705 0.1
       vertex -0.338699 0.095671 0.1
       vertex -0.338699 0.095671 0
    endloop
  endfacet
  facet normal -0.980784 0.195096 0
    outer loop
       vertex -0.34921 0.064705 0
       vertex -0.35559 0.0326315 0
       vertex -0.35559 0.0326315 0.1
    endloop
  endfacet
  facet normal -0.980784 0.195096 0
    outer loop
       vertex -0.35559 0.0326315 0.1
       vertex -0.34921 0.064705 0.1
       vertex -0.34921 0.064705 0
    endloop
  endfacet
  facet normal -0.997858 0.0654098 0
    outer loop
       vertex -0.357729 8.32665e-17 0.1
       vertex -0.35559 0.0326315 0.1
       vertex -0.35559 0.0326315 0
    endloop
  endfacet
  facet normal -0.997858 0.0654098 -1.08928e-16
    outer loop
       vertex -0.35559 0.0326315 0
       vertex -0.357729 -8.32665e-17 0
       vertex -0.357729 8.32665e-17 0.1
    endloop
  endfacet
  facet normal -0.997858 -0.0654098 0
    outer loop
       vertex -0.357729 -8.32665e-17 0
       vertex -0.35559 -0.0326315 0
       vertex -0.35559 -0.0326315 0.1
    endloop
  endfacet
  facet normal -0.997858 -0.0654098 1.08928e-16
    outer loop
       vertex -0.35559 -0.0326315 0.1
       vertex -0.357729 8.32665e-17 0.1
       vertex -0.357729 -8.32665e-17 0
    endloop
  endfacet
  facet normal -0.980784 -0.195096 0
    outer loop
       vertex -0.35559 -0.0326315 0
       vertex -0.34921 -0.064705 0
       vertex -0.34921 -0.064705 0.1
    endloop
  endfacet
  facet normal -0.980784 -0.195096 0
    outer loop
       vertex -0.34921 -0.064705 0.1
       vertex -0.35559 -0.0326315 0.1
       vertex -0.35559 -0.0326315 0
    endloop
  endfacet
  facet normal -0.946935 -0.321425 0
    outer loop
       vertex -0.34921 -0.064705 0
       vertex -0.338699 -0.095671 0
       vertex -0.338699 -0.095671 0.1
    endloop
  endfacet
  facet normal -0.946935 -0.321425 0
    outer loop
       vertex -0.338699 -0.095671 0.1
       vertex -0.34921 -0.064705 0.1
       vertex -0.34921 -0.064705 0
    endloop
  endfacet
  facet normal -0.896866 -0.442302 0
    outer loop
       vertex -0.338699 -0.095671 0
       vertex -0.324235 -0.125 0
       vertex -0.324235 -0.125 0.1
    endloop
  endfacet
  facet normal -0.896866 -0.442302 0
    outer loop
       vertex -0.324235 -0.125 0.1
       vertex -0.338699 -0.095671 0.1
       vertex -0.338699 -0.095671 0
    endloop
  endfacet
  facet normal -0.831476 -0.555561 0
    outer loop
       vertex -0.324235 -0.125 0
       vertex -0.306067 -0.152191 0
       vertex -0.306067 -0.152191 0.1
    endloop
  endfacet
  facet normal -0.831476 -0.555561 0
    outer loop
       vertex -0.306067 -0.152191 0.1
       vertex -0.324235 -0.125 0.1
       vertex -0.324235 -0.125 0
    endloop
  endfacet
  facet normal -0.751817 -0.659372 0
    outer loop
       vertex -0.306067 -0.152191 0
       vertex -0.284505 -0.176776 0
       vertex -0.284505 -0.176776 0.1
    endloop
  endfacet
  facet normal -0.751817 -0.659372 0
    outer loop
       vertex -0.284505 -0.176776 0.1
       vertex -0.306067 -0.152191 0.1
       vertex -0.306067 -0.152191 0
    endloop
  endfacet
  facet normal 0.659372 -0.751817 0
    outer loop
       vertex 0.0690468 -0.176776 0
       vertex 0.0690468 -0.176776 0.1
       vertex 0.0444618 -0.198338 0.1
    endloop
  endfacet
  facet normal 0.659372 -0.751817 0
    outer loop
       vertex 0.0444618 -0.198338 0.1
       vertex 0.0444618 -0.198338 0
       vertex 0.0690468 -0.176776 0
    endloop
  endfacet
  facet normal 0.555561 -0.831476 0
    outer loop
       vertex 0.0444618 -0.198338 0
       vertex 0.0444618 -0.198338 0.1
       vertex 0.0172708 -0.216506 0.1
    endloop
  endfacet
  facet normal 0.555561 -0.831476 0
    outer loop
       vertex 0.0172708 -0.216506 0.1
       vertex 0.0172708 -0.216506 0
       vertex 0.0444618 -0.198338 0
    endloop
  endfacet
  facet normal 0.442302 -0.896866 0
    outer loop
       vertex 0.0172708 -0.216506 0
       vertex 0.0172708 -0.216506 0.1
       vertex -0.0120582 -0.23097 0.1
    endloop
  endfacet
  facet normal 0.442302 -0.896866 0
    outer loop
       vertex -0.0120582 -0.23097 0.1
       vertex -0.0120582 -0.23097 0
       vertex 0.0172708 -0.216506 0
    endloop
  endfacet
  facet normal 0.321425 -0.946935 0
    outer loop
       vertex -0.0120582 -0.23097 0
       vertex -0.0120582 -0.23097 0.1
       vertex -0.0430242 -0.241481 0.1
    endloop
  endfacet
  facet normal 0.321425 -0.946935 0
    outer loop
       vertex -0.0430242 -0.241481 0.1
       vertex -0.0430242 -0.241481 0
       vertex -0.0120582 -0.23097 0
    endloop
  endfacet
  facet normal 0.195096 -0.980784 0
    outer loop
       vertex -0.0430242 -0.241481 0
       vertex -0.0430242 -0.241481 0.1
       vertex -0.0750977 -0.247861 0.1
    endloop
  endfacet
  facet normal 0.195096 -0.980784 0
    outer loop
       vertex -0.0750977 -0.247861 0.1
       vertex -0.0750977 -0.247861 0
       vertex -0.0430242 -0.241481 0
    endloop
  endfacet
  facet normal 0.0654098 -0.997858 0
    outer loop
       vertex -0.107729 -0.25 0
       vertex -0.0750977 -0.247861 0
       vertex -0.0750977 -0.247861 0.1
    endloop
  endfacet
  facet normal 0.0654098 -0.997858 1.08928e-16
    outer loop
       vertex -0.0750977 -0.247861 0.1
       vertex -0.107729 -0.25 0.1
       vertex -0.107729 -0.25 0
    endloop
  endfacet
  facet normal -0.0654098 -0.997858 0
    outer loop
       vertex -0.107729 -0.25 0.1
       vertex -0.140361 -0.247861 0.1
       vertex -0.140361 -0.247861 0
    endloop
  endfacet
  facet normal -0.0654098 -0.997858 -1.08928e-16
    outer loop
       vertex -0.140361 -0.247861 0
       vertex -0.107729 -0.25 0
       vertex -0.107729 -0.25 0.1
    endloop
  endfacet
  facet normal -0.195096 -0.980784 0
    outer loop
       vertex -0.140361 -0.247861 0
       vertex -0.140361 -0.247861 0.1
       vertex -0.172434 -0.241481 0.1
    endloop
  endfacet
  facet normal -0.195096 -0.980784 -0
    outer loop
       vertex -0.172434 -0.241481 0.1
       vertex -0.172434 -0.241481 0
       vertex -0.140361 -0.247861 0
    endloop
  endfacet
  facet normal -0.321425 -0.946935 0
    outer loop
       vertex -0.172434 -0.241481 0
       vertex -0.172434 -0.241481 0.1
       vertex -0.2034 -0.23097 0.1
    endloop
  endfacet
  facet normal -0.321425 -0.946935 -0
    outer loop
       vertex -0.2034 -0.23097 0.1
       vertex -0.2034 -0.23097 0
       vertex -0.172434 -0.241481 0
    endloop
  endfacet
  facet normal -0.442302 -0.896866 0
    outer loop
       vertex -0.2034 -0.23097 0
       vertex -0.2034 -0.23097 0.1
       vertex -0.232729 -0.216506 0.1
    endloop
  endfacet
  facet normal -0.442302 -0.896866 -0
    outer loop
       vertex -0.232729 -0.216506 0.1
       vertex -0.232729 -0.216506 0
       vertex -0.2034 -0.23097 0
    endloop
  endfacet
  facet normal -0.555561 -0.831476 0
    outer loop
       vertex -0.232729 -0.216506 0
       vertex -0.232729 -0.216506 0.1
       vertex -0.25992 -0.198338 0.1
    endloop
  endfacet
  facet normal -0.555561 -0.831476 -0
    outer loop
       vertex -0.25992 -0.198338 0.1
       vertex -0.25992 -0.198338 0
       vertex -0.232729 -0.216506 0
    endloop
  endfacet
  facet normal -0.659372 -0.751817 0
    outer loop
       vertex -0.25992 -0.198338 0
       vertex -0.25992 -0.198338 0.1
       vertex -0.284505 -0.176776 0.1
    endloop
  endfacet
  facet normal -0.659372 -0.751817 -0
    outer loop
       vertex -0.284505 -0.176776 0.1
       vertex -0.284505 -0.176776 0
       vertex -0.25992 -0.198338 0
    endloop
  endfacet
endsolid cylinder
