solid cylinder
  facet normal 0.751817 -0.659372 0
    outer loop
       vertex 0.41241 -0.176776 0
       vertex 0.433972 -0.152191 0
       vertex 0.433972 -0.152191 0.1
    endloop
  endfacet
  facet normal 0.751817 -0.659372 0
    outer loop
       vertex 0.433972 -0.152191 0.1
       vertex 0.41241 -0.176776 0.1
       vertex 0.41241 -0.176776 0
    endloop
  endfacet
  facet normal 0.831476 -0.555561 0
    outer loop
       vertex 0.433972 -0.152191 0
       vertex 0.45214 -0.125 0
       vertex 0.45214 -0.125 0.1
    endloop
  endfacet
  facet normal 0.831476 -0.555561 0
    outer loop
       vertex 0.45214 -0.125 0.1
       vertex 0.433972 -0.152191 0.1
       vertex 0.433972 -0.152191 0
    endloop
  endfacet
  facet normal 0.896866 -0.442302 0
    outer loop
       vertex 0.45214 -0.125 0
       vertex 0.466604 -0.095671 0
       vertex 0.466604 -0.095671 0.1
    endloop
  endfacet
  facet normal 0.896866 -0.442302 0
    outer loop
       vertex 0.466604 -0.095671 0.1
       vertex 0.45214 -0.125 0.1
       vertex 0.45214 -0.125 0
    endloop
  endfacet
  facet normal 0.946935 -0.321425 0
    outer loop
       vertex 0.466604 -0.095671 0
       vertex 0.477115 -0.064705 0
       vertex 0.477115 -0.064705 0.1
    endloop
  endfacet
  facet normal 0.946935 -0.321425 0
    outer loop
       vertex 0.477115 -0.064705 0.1
       vertex 0.466604 -0.095671 0.1
       vertex 0.466604 -0.095671 0
    endloop
  endfacet
  facet normal 0.980784 -0.195096 0
    outer loop
       vertex 0.477115 -0.064705 0
       vertex 0.483495 -0.0326315 0
       vertex 0.483495 -0.0326315 0.1
    endloop
  endfacet
  facet normal 0.980784 -0.195096 0
    outer loop
       vertex 0.483495 -0.0326315 0.1
       vertex 0.477115 -0.064705 0.1
       vertex 0.477115 -0.064705 0
    endloop
  endfacet
  facet normal 0.997858 -0.0654098 0
    outer loop
       vertex 0.485634 -8.32665e-17 0.1
       vertex 0.483495 -0.0326315 0.1
       vertex 0.483495 -0.0326315 0
    endloop
  endfacet
  facet normal 0.997858 -0.0654098 -1.08928e-16
    outer loop
       vertex 0.483495 -0.0326315 0
       vertex 0.485634 8.32665e-17 0
       vertex 0.485634 -8.32665e-17 0.1
    endloop
  endfacet
  facet normal 0.997858 0.0654098 0
    outer loop
       vertex 0.485634 8.32665e-17 0
       vertex 0.483495 0.0326315 0
       vertex 0.483495 0.0326315 0.1
    endloop
  endfacet
  facet normal 0.997858 0.0654098 1.08928e-16
    outer loop
       vertex 0.483495 0.0326315 0.1
       vertex 0.485634 -8.32665e-17 0.1
       vertex 0.485634 8.32665e-17 0
    endloop
  endfacet
  facet normal 0.980784 0.195096 0
    outer loop
       vertex 0.483495 0.0326315 0
       vertex 0.477115 0.064705 0
       vertex 0.477115 0.064705 0.1
    endloop
  endfacet
  facet normal 0.980784 0.195096 0
    outer loop
       vertex 0.477115 0.064705 0.1
       vertex 0.483495 0.0326315 0.1
       vertex 0.483495 0.0326315 0
    endloop
  endfacet
  facet normal 0.946935 0.321425 0
    outer loop
       vertex 0.477115 0.064705 0
       vertex 0.466604 0.095671 0
       vertex 0.466604 0.095671 0.1
    endloop
  endfacet
  facet normal 0.946935 0.321425 0
    outer loop
       vertex 0.466604 0.095671 0.1
       vertex 0.477115 0.064705 0.1
       vertex 0.477115 0.064705 0
    endloop
  endfacet
  facet normal 0.896866 0.442302 0
    outer loop
       vertex 0.466604 0.095671 0
       vertex 0.45214 0.125 0
       vertex 0.45214 0.125 0.1
    endloop
  endfacet
  facet normal 0.896866 0.442302 0
    outer loop
       vertex 0.45214 0.125 0.1
       vertex 0.466604 0.095671 0.1
       vertex 0.466604 0.095671 0
    endloop
  endfacet
  facet normal 0.831476 0.555561 0
    outer loop
       vertex 0.45214 0.125 0
       vertex 0.433972 0.152191 0
       vertex 0.433972 0.152191 0.1
    endloop
  endfacet
  facet normal 0.831476 0.555561 0
    outer loop
       vertex 0.433972 0.152191 0.1
       vertex 0.45214 0.125 0.1
       vertex 0.45214 0.125 0
    endloop
  endfacet
  facet normal 0.751817 0.659372 0
    outer loop
       vertex 0.433972 0.152191 0
       vertex 0.41241 0.176776 0
       vertex 0.41241 0.176776 0.1
    endloop
  endfacet
  facet normal 0.751817 0.659372 0
    outer loop
       vertex 0.41241 0.176776 0.1
       vertex 0.433972 0.152191 0.1
       vertex 0.433972 0.152191 0
    endloop
  endfacet
  facet normal 0.659372 0.751817 0
    outer loop
       vertex 0.41241 0.176776 0
       vertex 0.387825 0.198338 0
       vertex 0.387825 0.198338 0.1
    endloop
  endfacet
  facet normal 0.659372 0.751817 0
    outer loop
       vertex 0.387825 0.198338 0.1
       vertex 0.41241 0.176776 0.1
       vertex 0.41241 0.176776 0
    endloop
  endfacet
  facet normal 0.555561 0.831476 0
    outer loop
       vertex 0.387825 0.198338 0
       vertex 0.360634 0.216506 0
       vertex 0.360634 0.216506 0.1
    endloop
  endfacet
  facet normal 0.555561 0.831476 0
    outer loop
       vertex 0.360634 0.216506 0.1
       vertex 0.387825 0.198338 0.1
       vertex 0.387825 0.198338 0
    endloop
  endfacet
  facet normal 0.442302 0.896866 0
    outer loop
       vertex 0.360634 0.216506 0
       vertex 0.331305 0.23097 0
       vertex 0.331305 0.23097 0.1
    endloop
  endfacet
  facet normal 0.442302 0.896866 0
    outer loop
       vertex 0.331305 0.23097 0.1
       vertex 0.360634 0.216506 0.1
       vertex 0.360634 0.216506 0
    endloop
  endfacet
  facet normal 0.321425 0.946935 0
    outer loop
       vertex 0.331305 0.23097 0
       vertex 0.300339 0.241481 0
       vertex 0.300339 0.241481 0.1
    endloop
  endfacet
  facet normal 0.321425 0.946935 0
    outer loop
       vertex 0.300339 0.241481 0.1
       vertex 0.331305 0.23097 0.1
       vertex 0.331305 0.23097 0
    endloop
  endfacet
  facet normal 0.195096 0.980784 0
    outer loop
       vertex 0.300339 0.241481 0
       vertex 0.268265 0.247861 0
       vertex 0.268265 0.247861 0.1
    endloop
  endfacet
  facet normal 0.195096 0.980784 0
    outer loop
       vertex 0.268265 0.247861 0.1
       vertex 0.300339 0.241481 0.1
       vertex 0.300339 0.241481 0
    endloop
  endfacet
  facet normal 0.0654098 0.997858 0
    outer loop
       vertex 0.235634 0.25 0.1
       vertex 0.268265 0.247861 0.1
       vertex 0.268265 0.247861 0
    endloop
  endfacet
  facet normal 0.0654098 0.997858 -1.0893e-16
    outer loop
       vertex 0.268265 0.247861 0
       vertex 0.235634 0.25 0
       vertex 0.235634 0.25 0.1
    endloop
  endfacet
  facet normal -0.0654098 0.997858 0
    outer loop
       vertex 0.235634 0.25 0
       vertex 0.203002 0.247861 0
       vertex 0.203002 0.247861 0.1
    endloop
  endfacet
  facet normal -0.0654098 0.997858 1.0893e-16
    outer loop
       vertex 0.203002 0.247861 0.1
       vertex 0.235634 0.25 0.1
       vertex 0.235634 0.25 0
    endloop
  endfacet
  facet normal -0.195096 0.980784 0
    outer loop
       vertex 0.203002 0.247861 0
       vertex 0.170929 0.241481 0
       vertex 0.170929 0.241481 0.1
    endloop
  endfacet
  facet normal -0.195096 0.980784 0
    outer loop
       vertex 0.170929 0.241481 0.1
       vertex 0.203002 0.247861 0.1
       vertex 0.203002 0.247861 0
    endloop
  endfacet
  facet normal -0.321425 0.946935 0
    outer loop
       vertex 0.170929 0.241481 0
       vertex 0.139963 0.23097 0
       vertex 0.139963 0.23097 0.1
    endloop
  endfacet
  facet normal -0.321425 0.946935 0
    outer loop
       vertex 0.139963 0.23097 0.1
       vertex 0.170929 0.241481 0.1
       vertex 0.170929 0.241481 0
    endloop
  endfacet
  facet normal -0.442302 0.896866 0
    outer loop
       vertex 0.139963 0.23097 0
       vertex 0.110634 0.216506 0
       vertex 0.110634 0.216506 0.1
    endloop
  endfacet
  facet normal -0.442302 0.896866 0
    outer loop
       vertex 0.110634 0.216506 0.1
       vertex 0.139963 0.23097 0.1
       vertex 0.139963 0.23097 0
    endloop
  endfacet
  facet normal -0.555561 0.831476 0
    outer loop
       vertex 0.110634 0.216506 0
       vertex 0.0834427 0.198338 0
       vertex 0.0834427 0.198338 0.1
    endloop
  endfacet
  facet normal -0.555561 0.831476 0
    outer loop
       vertex 0.0834427 0.198338 0.1
       vertex 0.110634 0.216506 0.1
       vertex 0.110634 0.216506 0
    endloop
  endfacet
  facet normal -0.659372 0.751817 0
    outer loop
       vertex 0.0834427 0.198338 0
       vertex 0.0588577 0.176776 0
       vertex 0.0588577 0.176776 0.1
    endloop
  endfacet
  facet normal -0.659372 0.751817 0
    outer loop
       vertex 0.0588577 0.176776 0.1
       vertex 0.0834427 0.198338 0.1
       vertex 0.0834427 0.198338 0
    endloop
  endfacet
  facet normal -0.751817 0.659372 0
    outer loop
       vertex 0.0588577 0.176776 0
       vertex 0.0372957 0.152191 0
       vertex 0.0372957 0.152191 0.1
    endloop
  endfacet
  facet normal -0.751817 0.659372 0
    outer loop
       vertex 0.0372957 0.152191 0.1
       vertex 0.0588577 0.176776 0.1
       vertex 0.0588577 0.176776 0
    endloop
  endfacet
  facet normal -0.831476 0.555561 0
    outer loop
       vertex 0.0372957 0.152191 0
       vertex 0.0191277 0.125 0
       vertex 0.0191277 0.125 0.1
    endloop
  endfacet
  facet normal -0.831476 0.555561 0
    outer loop
       vertex 0.0191277 0.125 0.1
       vertex 0.0372957 0.152191 0.1
       vertex 0.0372957 0.152191 0
    endloop
  endfacet
  facet normal -0.896866 0.442302 0
    outer loop
       vertex 0.0191277 0.125 0
       vertex 0.00466373 0.095671 0
       vertex 0.00466373 0.095671 0.1
    endloop
  endfacet
  facet normal -0.896866 0.442302 0
    outer loop
       vertex 0.00466373 0.095671 0.1
       vertex 0.0191277 0.125 0.1
       vertex 0.0191277 0.125 0
    endloop
  endfacet
  facet normal -0.946935 0.321425 0
    outer loop
       vertex 0.00466373 0.095671 0
       vertex -0.00584727 0.064705 0
       vertex -0.00584727 0.064705 0.1
    endloop
  endfacet
  facet normal -0.946935 0.321425 0
    outer loop
       vertex -0.00584727 0.064705 0.1
       vertex 0.00466373 0.095671 0.1
       vertex 0.00466373 0.095671 0
    endloop
  endfacet
  facet normal -0.980784 0.195096 0
    outer loop
       vertex -0.00584727 0.064705 0
       vertex -0.0122273 0.0326315 0
       vertex -0.0122273 0.0326315 0.1
    endloop
  endfacet
  facet normal -0.980784 0.195096 0
    outer loop
       vertex -0.0122273 0.0326315 0.1
       vertex -0.00584727 0.064705 0.1
       vertex -0.00584727 0.064705 0
    endloop
  endfacet
  facet normal -0.997858 0.0654098 0
    outer loop
       vertex -0.0143663 8.32665e-17 0.1
       vertex -0.0122273 0.0326315 0.1
       vertex -0.0122273 0.0326315 0
    endloop
  endfacet
  facet normal -0.997858 0.0654098 -1.08928e-16
    outer loop
       vertex -0.0122273 0.0326315 0
       vertex -0.0143663 -8.32665e-17 0
       vertex -0.0143663 8.32665e-17 0.1
    endloop
  endfacet
  facet normal -0.997858 -0.0654098 0
    outer loop
       vertex -0.0143663 -8.32665e-17 0
       vertex -0.0122273 -0.0326315 0
       vertex -0.0122273 -0.0326315 0.1
    endloop
  endfacet
  facet normal -0.997858 -0.0654098 1.08928e-16
    outer loop
       vertex -0.0122273 -0.0326315 0.1
       vertex -0.0143663 8.32665e-17 0.1
       vertex -0.0143663 -8.32665e-17 0
    endloop
  endfacet
  facet normal -0.980784 -0.195096 0
    outer loop
       vertex -0.0122273 -0.0326315 0
       vertex -0.00584727 -0.064705 0
       vertex -0.00584727 -0.064705 0.1
    endloop
  endfacet
  facet normal -0.980784 -0.195096 0
    outer loop
       vertex -0.00584727 -0.064705 0.1
       vertex -0.0122273 -0.0326315 0.1
       vertex -0.0122273 -0.0326315 0
    endloop
  endfacet
  facet normal -0.946935 -0.321425 0
    outer loop
       vertex -0.00584727 -0.064705 0
       vertex 0.00466373 -0.095671 0
       vertex 0.00466373 -0.095671 0.1
    endloop
  endfacet
  facet normal -0.946935 -0.321425 0
    outer loop
       vertex 0.00466373 -0.095671 0.1
       vertex -0.00584727 -0.064705 0.1
       vertex -0.00584727 -0.064705 0
    endloop
  endfacet
  facet normal -0.896866 -0.442302 0
    outer loop
       vertex 0.00466373 -0.095671 0
       vertex 0.0191277 -0.125 0
       vertex 0.0191277 -0.125 0.1
    endloop
  endfacet
  facet normal -0.896866 -0.442302 0
    outer loop
       vertex 0.0191277 -0.125 0.1
       vertex 0.00466373 -0.095671 0.1
       vertex 0.00466373 -0.095671 0
    endloop
  endfacet
  facet normal -0.831476 -0.555561 0
    outer loop
       vertex 0.0191277 -0.125 0
       vertex 0.0372957 -0.152191 0
       vertex 0.0372957 -0.152191 0.1
    endloop
  endfacet
  facet normal -0.831476 -0.555561 0
    outer loop
       vertex 0.0372957 -0.152191 0.1
       vertex 0.0191277 -0.125 0.1
       vertex 0.0191277 -0.125 0
    endloop
  endfacet
  facet normal -0.751817 -0.659372 0
    outer loop
       vertex 0.0372957 -0.152191 0
       vertex 0.0588577 -0.176776 0
       vertex 0.0588577 -0.176776 0.1
    endloop
  endfacet
  facet normal -0.751817 -0.659372 0
    outer loop
       vertex 0.0588577 -0.176776 0.1
       vertex 0.0372957 -0.152191 0.1
       vertex 0.0372957 -0.152191 0
    endloop
  endfacet
  facet normal 0.659372 -0.751817 0
    outer loop
       vertex 0.41241 -0.176776 0
       vertex 0.41241 -0.176776 0.1
       vertex 0.387825 -0.198338 0.1
    endloop
  endfacet
  facet normal 0.659372 -0.751817 0
    outer loop
       vertex 0.387825 -0.198338 0.1
       vertex 0.387825 -0.198338 0
       vertex 0.41241 -0.176776 0
    endloop
  endfacet
  facet normal 0.555561 -0.831476 0
    outer loop
       vertex 0.387825 -0.198338 0
       vertex 0.387825 -0.198338 0.1
       vertex 0.360634 -0.216506 0.1
    endloop
  endfacet
  facet normal 0.555561 -0.831476 0
    outer loop
       vertex 0.360634 -0.216506 0.1
       vertex 0.360634 -0.216506 0
       vertex 0.387825 -0.198338 0
    endloop
  endfacet
  facet normal 0.442302 -0.896866 0
    outer loop
       vertex 0.360634 -0.216506 0
       vertex 0.360634 -0.216506 0.1
       vertex 0.331305 -0.23097 0.1
    endloop
  endfacet
  facet normal 0.442302 -0.896866 0
    outer loop
       vertex 0.331305 -0.23097 0.1
       vertex 0.331305 -0.23097 0
       vertex 0.360634 -0.216506 0
    endloop
  endfacet
  facet normal 0.321425 -0.946935 0
    outer loop
       vertex 0.331305 -0.23097 0
       vertex 0.331305 -0.23097 0.1
       vertex 0.300339 -0.241481 0.1
    endloop
  endfacet
  facet normal 0.321425 -0.946935 0
    outer loop
       vertex 0.300339 -0.241481 0.1
       vertex 0.300339 -0.241481 0
       vertex 0.331305 -0.23097 0
    endloop
  endfacet
  facet normal 0.195096 -0.980784 0
    outer loop
       vertex 0.300339 -0.241481 0
       vertex 0.300339 -0.241481 0.1
       vertex 0.268265 -0.247861 0.1
    endloop
  endfacet
  facet normal 0.195096 -0.980784 0
    outer loop
       vertex 0.268265 -0.247861 0.1
       vertex 0.268265 -0.247861 0
       vertex 0.300339 -0.241481 0
    endloop
  endfacet
  facet normal 0.0654098 -0.997858 0
    outer loop
       vertex 0.235634 -0.25 0
       vertex 0.268265 -0.247861 0
       vertex 0.268265 -0.247861 0.1
    endloop
  endfacet
  facet normal 0.0654098 -0.997858 1.0893e-16
    outer loop
       vertex 0.268265 -0.247861 0.1
       vertex 0.235634 -0.25 0.1
       vertex 0.235634 -0.25 0
    endloop
  endfacet
  facet normal -0.0654098 -0.997858 0
    outer loop
       vertex 0.235634 -0.25 0.1
       vertex 0.203002 -0.247861 0.1
       vertex 0.203002 -0.247861 0
    endloop
  endfacet
  facet normal -0.0654098 -0.997858 -1.0893e-16
    outer loop
       vertex 0.203002 -0.247861 0
       vertex 0.235634 -0.25 0
       vertex 0.235634 -0.25 0.1
    endloop
  endfacet
  facet normal -0.195096 -0.980784 0
    outer loop
       vertex 0.203002 -0.247861 0
       vertex 0.203002 -0.247861 0.1
       vertex 0.170929 -0.241481 0.1
    endloop
  endfacet
  facet normal -0.195096 -0.980784 -0
    outer loop
       vertex 0.170929 -0.241481 0.1
       vertex 0.170929 -0.241481 0
       vertex 0.203002 -0.247861 0
    endloop
  endfacet
  facet normal -0.321425 -0.946935 0
    outer loop
       vertex 0.170929 -0.241481 0
       vertex 0.170929 -0.241481 0.1
       vertex 0.139963 -0.23097 0.1
    endloop
  endfacet
  facet normal -0.321425 -0.946935 -0
    outer loop
       vertex 0.139963 -0.23097 0.1
       vertex 0.139963 -0.23097 0
       vertex 0.170929 -0.241481 0
    endloop
  endfacet
  facet normal -0.442302 -0.896866 0
    outer loop
       vertex 0.139963 -0.23097 0
       vertex 0.139963 -0.23097 0.1
       vertex 0.110634 -0.216506 0.1
    endloop
  endfacet
  facet normal -0.442302 -0.896866 -0
    outer loop
       vertex 0.110634 -0.216506 0.1
       vertex 0.110634 -0.216506 0
       vertex 0.139963 -0.23097 0
    endloop
  endfacet
  facet normal -0.555561 -0.831476 0
    outer loop
       vertex 0.110634 -0.216506 0
       vertex 0.110634 -0.216506 0.1
       vertex 0.0834427 -0.198338 0.1
    endloop
  endfacet
  facet normal -0.555561 -0.831476 -0
    outer loop
       vertex 0.0834427 -0.198338 0.1
       vertex 0.0834427 -0.198338 0
       vertex 0.110634 -0.216506 0
    endloop
  endfacet
  facet normal -0.659372 -0.751817 0
    outer loop
       vertex 0.0834427 -0.198338 0
       vertex 0.0834427 -0.198338 0.1
       vertex 0.0588577 -0.176776 0.1
    endloop
  endfacet
  facet normal -0.659372 -0.751817 -0
    outer loop
       vertex 0.0588577 -0.176776 0.1
       vertex 0.0588577 -0.176776 0
       vertex 0.0834427 -0.198338 0
    endloop
  endfacet
endsolid cylinder
