solid cylinder
  facet normal 0.751817 -0.659372 0
    outer loop
       vertex 0.17893 -0.176776 0
       vertex 0.200492 -0.152191 0
       vertex 0.200492 -0.152191 0.1
    endloop
  endfacet
  facet normal 0.751817 -0.659372 0
    outer loop
       vertex 0.200492 -0.152191 0.1
       vertex 0.17893 -0.176776 0.1
       vertex 0.17893 -0.176776 0
    endloop
  endfacet
  facet normal 0.831476 -0.555561 0
    outer loop
       vertex 0.200492 -0.152191 0
       vertex 0.21866 -0.125 0
       vertex 0.21866 -0.125 0.1
    endloop
  endfacet
  facet normal 0.831476 -0.555561 0
    outer loop
       vertex 0.21866 -0.125 0.1
       vertex 0.200492 -0.152191 0.1
       vertex 0.200492 -0.152191 0
    endloop
  endfacet
  facet normal 0.896866 -0.442302 0
    outer loop
       vertex 0.21866 -0.125 0
       vertex 0.233124 -0.095671 0
       vertex 0.233124 -0.095671 0.1
    endloop
  endfacet
  facet normal 0.896866 -0.442302 0
    outer loop
       vertex 0.233124 -0.095671 0.1
       vertex 0.21866 -0.125 0.1
       vertex 0.21866 -0.125 0
    endloop
  endfacet
  facet normal 0.946935 -0.321425 0
    outer loop
       vertex 0.233124 -0.095671 0
       vertex 0.243635 -0.064705 0
       vertex 0.243635 -0.064705 0.1
    endloop
  endfacet
  facet normal 0.946935 -0.321425 0
    outer loop
       vertex 0.243635 -0.064705 0.1
       vertex 0.233124 -0.095671 0.1
       vertex 0.233124 -0.095671 0
    endloop
  endfacet
  facet normal 0.980784 -0.195096 0
    outer loop
       vertex 0.243635 -0.064705 0
       vertex 0.250015 -0.0326315 0
       vertex 0.250015 -0.0326315 0.1
    endloop
  endfacet
  facet normal 0.980784 -0.195096 0
    outer loop
       vertex 0.250015 -0.0326315 0.1
       vertex 0.243635 -0.064705 0.1
       vertex 0.243635 -0.064705 0
    endloop
  endfacet
  facet normal 0.997858 -0.0654098 0
    outer loop
       vertex 0.252154 -8.32665e-17 0.1
       vertex 0.250015 -0.0326315 0.1
       vertex 0.250015 -0.0326315 0
    endloop
  endfacet
  facet normal 0.997858 -0.0654098 -1.08928e-16
    outer loop
       vertex 0.250015 -0.0326315 0
       vertex 0.252154 8.32665e-17 0
       vertex 0.252154 -8.32665e-17 0.1
    endloop
  endfacet
  facet normal 0.997858 0.0654098 0
    outer loop
       vertex 0.252154 8.32665e-17 0
       vertex 0.250015 0.0326315 0
       vertex 0.250015 0.0326315 0.1
    endloop
  endfacet
  facet normal 0.997858 0.0654098 1.08928e-16
    outer loop
       vertex 0.250015 0.0326315 0.1
       vertex 0.252154 -8.32665e-17 0.1
       vertex 0.252154 8.32665e-17 0
    endloop
  endfacet
  facet normal 0.980784 0.195096 0
    outer loop
       vertex 0.250015 0.0326315 0
       vertex 0.243635 0.064705 0
       vertex 0.243635 0.064705 0.1
    endloop
  endfacet
  facet normal 0.980784 0.195096 0
    outer loop
       vertex 0.243635 0.064705 0.1
       vertex 0.250015 0.0326315 0.1
       vertex 0.250015 0.0326315 0
    endloop
  endfacet
  facet normal 0.946935 0.321425 0
    outer loop
       vertex 0.243635 0.064705 0
       vertex 0.233124 0.095671 0
       vertex 0.233124 0.095671 0.1
    endloop
  endfacet
  facet normal 0.946935 0.321425 0
    outer loop
       vertex 0.233124 0.095671 0.1
       vertex 0.243635 0.064705 0.1
       vertex 0.243635 0.064705 0
    endloop
  endfacet
  facet normal 0.896866 0.442302 0
    outer loop
       vertex 0.233124 0.095671 0
       vertex 0.21866 0.125 0
       vertex 0.21866 0.125 0.1
    endloop
  endfacet
  facet normal 0.896866 0.442302 0
    outer loop
       vertex 0.21866 0.125 0.1
       vertex 0.233124 0.095671 0.1
       vertex 0.233124 0.095671 0
    endloop
  endfacet
  facet normal 0.831476 0.555561 0
    outer loop
       vertex 0.21866 0.125 0
       vertex 0.200492 0.152191 0
       vertex 0.200492 0.152191 0.1
    endloop
  endfacet
  facet normal 0.831476 0.555561 0
    outer loop
       vertex 0.200492 0.152191 0.1
       vertex 0.21866 0.125 0.1
       vertex 0.21866 0.125 0
    endloop
  endfacet
  facet normal 0.751817 0.659372 0
    outer loop
       vertex 0.200492 0.152191 0
       vertex 0.17893 0.176776 0
       vertex 0.17893 0.176776 0.1
    endloop
  endfacet
  facet normal 0.751817 0.659372 0
    outer loop
       vertex 0.17893 0.176776 0.1
       vertex 0.200492 0.152191 0.1
       vertex 0.200492 0.152191 0
    endloop
  endfacet
  facet normal 0.659372 0.751817 0
    outer loop
       vertex 0.17893 0.176776 0
       vertex 0.154345 0.198338 0
       vertex 0.154345 0.198338 0.1
    endloop
  endfacet
  facet normal 0.659372 0.751817 0
    outer loop
       vertex 0.154345 0.198338 0.1
       vertex 0.17893 0.176776 0.1
       vertex 0.17893 0.176776 0
    endloop
  endfacet
  facet normal 0.555561 0.831476 0
    outer loop
       vertex 0.154345 0.198338 0
       vertex 0.127154 0.216506 0
       vertex 0.127154 0.216506 0.1
    endloop
  endfacet
  facet normal 0.555561 0.831476 0
    outer loop
       vertex 0.127154 0.216506 0.1
       vertex 0.154345 0.198338 0.1
       vertex 0.154345 0.198338 0
    endloop
  endfacet
  facet normal 0.442302 0.896866 0
    outer loop
       vertex 0.127154 0.216506 0
       vertex 0.0978246 0.23097 0
       vertex 0.0978246 0.23097 0.1
    endloop
  endfacet
  facet normal 0.442302 0.896866 0
    outer loop
       vertex 0.0978246 0.23097 0.1
       vertex 0.127154 0.216506 0.1
       vertex 0.127154 0.216506 0
    endloop
  endfacet
  facet normal 0.321425 0.946935 0
    outer loop
       vertex 0.0978246 0.23097 0
       vertex 0.0668586 0.241481 0
       vertex 0.0668586 0.241481 0.1
    endloop
  endfacet
  facet normal 0.321425 0.946935 0
    outer loop
       vertex 0.0668586 0.241481 0.1
       vertex 0.0978246 0.23097 0.1
       vertex 0.0978246 0.23097 0
    endloop
  endfacet
  facet normal 0.195096 0.980784 0
    outer loop
       vertex 0.0668586 0.241481 0
       vertex 0.0347851 0.247861 0
       vertex 0.0347851 0.247861 0.1
    endloop
  endfacet
  facet normal 0.195096 0.980784 0
    outer loop
       vertex 0.0347851 0.247861 0.1
       vertex 0.0668586 0.241481 0.1
       vertex 0.0668586 0.241481 0
    endloop
  endfacet
  facet normal 0.0654098 0.997858 0
    outer loop
       vertex 0.00215359 0.25 0.1
       vertex 0.0347851 0.247861 0.1
       vertex 0.0347851 0.247861 0
    endloop
  endfacet
  facet normal 0.0654098 0.997858 -1.0893e-16
    outer loop
       vertex 0.0347851 0.247861 0
       vertex 0.00215359 0.25 0
       vertex 0.00215359 0.25 0.1
    endloop
  endfacet
  facet normal -0.0654098 0.997858 0
    outer loop
       vertex 0.00215359 0.25 0
       vertex -0.0304779 0.247861 0
       vertex -0.0304779 0.247861 0.1
    endloop
  endfacet
  facet normal -0.0654098 0.997858 1.0893e-16
    outer loop
       vertex -0.0304779 0.247861 0.1
       vertex 0.00215359 0.25 0.1
       vertex 0.00215359 0.25 0
    endloop
  endfacet
  facet normal -0.195096 0.980784 0
    outer loop
       vertex -0.0304779 0.247861 0
       vertex -0.0625514 0.241481 0
       vertex -0.0625514 0.241481 0.1
    endloop
  endfacet
  facet normal -0.195096 0.980784 0
    outer loop
       vertex -0.0625514 0.241481 0.1
       vertex -0.0304779 0.247861 0.1
       vertex -0.0304779 0.247861 0
    endloop
  endfacet
  facet normal -0.321425 0.946935 0
    outer loop
       vertex -0.0625514 0.241481 0
       vertex -0.0935174 0.23097 0
       vertex -0.0935174 0.23097 0.1
    endloop
  endfacet
  facet normal -0.321425 0.946935 0
    outer loop
       vertex -0.0935174 0.23097 0.1
       vertex -0.0625514 0.241481 0.1
       vertex -0.0625514 0.241481 0
    endloop
  endfacet
  facet normal -0.442302 0.896866 0
    outer loop
       vertex -0.0935174 0.23097 0
       vertex -0.122846 0.216506 0
       vertex -0.122846 0.216506 0.1
    endloop
  endfacet
  facet normal -0.442302 0.896866 0
    outer loop
       vertex -0.122846 0.216506 0.1
       vertex -0.0935174 0.23097 0.1
       vertex -0.0935174 0.23097 0
    endloop
  endfacet
  facet normal -0.555561 0.831476 0
    outer loop
       vertex -0.122846 0.216506 0
       vertex -0.150037 0.198338 0
       vertex -0.150037 0.198338 0.1
    endloop
  endfacet
  facet normal -0.555561 0.831476 0
    outer loop
       vertex -0.150037 0.198338 0.1
       vertex -0.122846 0.216506 0.1
       vertex -0.122846 0.216506 0
    endloop
  endfacet
  facet normal -0.659372 0.751817 0
    outer loop
       vertex -0.150037 0.198338 0
       vertex -0.174622 0.176776 0
       vertex -0.174622 0.176776 0.1
    endloop
  endfacet
  facet normal -0.659372 0.751817 0
    outer loop
       vertex -0.174622 0.176776 0.1
       vertex -0.150037 0.198338 0.1
       vertex -0.150037 0.198338 0
    endloop
  endfacet
  facet normal -0.751817 0.659372 0
    outer loop
       vertex -0.174622 0.176776 0
       vertex -0.196184 0.152191 0
       vertex -0.196184 0.152191 0.1
    endloop
  endfacet
  facet normal -0.751817 0.659372 0
    outer loop
       vertex -0.196184 0.152191 0.1
       vertex -0.174622 0.176776 0.1
       vertex -0.174622 0.176776 0
    endloop
  endfacet
  facet normal -0.831476 0.555561 0
    outer loop
       vertex -0.196184 0.152191 0
       vertex -0.214352 0.125 0
       vertex -0.214352 0.125 0.1
    endloop
  endfacet
  facet normal -0.831476 0.555561 0
    outer loop
       vertex -0.214352 0.125 0.1
       vertex -0.196184 0.152191 0.1
       vertex -0.196184 0.152191 0
    endloop
  endfacet
  facet normal -0.896866 0.442302 0
    outer loop
       vertex -0.214352 0.125 0
       vertex -0.228816 0.095671 0
       vertex -0.228816 0.095671 0.1
    endloop
  endfacet
  facet normal -0.896866 0.442302 0
    outer loop
       vertex -0.228816 0.095671 0.1
       vertex -0.214352 0.125 0.1
       vertex -0.214352 0.125 0
    endloop
  endfacet
  facet normal -0.946935 0.321425 0
    outer loop
       vertex -0.228816 0.095671 0
       vertex -0.239327 0.064705 0
       vertex -0.239327 0.064705 0.1
    endloop
  endfacet
  facet normal -0.946935 0.321425 0
    outer loop
       vertex -0.239327 0.064705 0.1
       vertex -0.228816 0.095671 0.1
       vertex -0.228816 0.095671 0
    endloop
  endfacet
  facet normal -0.980784 0.195096 0
    outer loop
       vertex -0.239327 0.064705 0
       vertex -0.245707 0.0326315 0
       vertex -0.245707 0.0326315 0.1
    endloop
  endfacet
  facet normal -0.980784 0.195096 0
    outer loop
       vertex -0.245707 0.0326315 0.1
       vertex -0.239327 0.064705 0.1
       vertex -0.239327 0.064705 0
    endloop
  endfacet
  facet normal -0.997858 0.0654098 0
    outer loop
       vertex -0.247846 8.32665e-17 0.1
       vertex -0.245707 0.0326315 0.1
       vertex -0.245707 0.0326315 0
    endloop
  endfacet
  facet normal -0.997858 0.0654098 -1.08928e-16
    outer loop
       vertex -0.245707 0.0326315 0
       vertex -0.247846 -8.32665e-17 0
       vertex -0.247846 8.32665e-17 0.1
    endloop
  endfacet
  facet normal -0.997858 -0.0654098 0
    outer loop
       vertex -0.247846 -8.32665e-17 0
       vertex -0.245707 -0.0326315 0
       vertex -0.245707 -0.0326315 0.1
    endloop
  endfacet
  facet normal -0.997858 -0.0654098 1.08928e-16
    outer loop
       vertex -0.245707 -0.0326315 0.1
       vertex -0.247846 8.32665e-17 0.1
       vertex -0.247846 -8.32665e-17 0
    endloop
  endfacet
  facet normal -0.980784 -0.195096 0
    outer loop
       vertex -0.245707 -0.0326315 0
       vertex -0.239327 -0.064705 0
       vertex -0.239327 -0.064705 0.1
    endloop
  endfacet
  facet normal -0.980784 -0.195096 0
    outer loop
       vertex -0.239327 -0.064705 0.1
       vertex -0.245707 -0.0326315 0.1
       vertex -0.245707 -0.0326315 0
    endloop
  endfacet
  facet normal -0.946935 -0.321425 0
    outer loop
       vertex -0.239327 -0.064705 0
       vertex -0.228816 -0.095671 0
       vertex -0.228816 -0.095671 0.1
    endloop
  endfacet
  facet normal -0.946935 -0.321425 0
    outer loop
       vertex -0.228816 -0.095671 0.1
       vertex -0.239327 -0.064705 0.1
       vertex -0.239327 -0.064705 0
    endloop
  endfacet
  facet normal -0.896866 -0.442302 0
    outer loop
       vertex -0.228816 -0.095671 0
       vertex -0.214352 -0.125 0
       vertex -0.214352 -0.125 0.1
    endloop
  endfacet
  facet normal -0.896866 -0.442302 0
    outer loop
       vertex -0.214352 -0.125 0.1
       vertex -0.228816 -0.095671 0.1
       vertex -0.228816 -0.095671 0
    endloop
  endfacet
  facet normal -0.831476 -0.555561 0
    outer loop
       vertex -0.214352 -0.125 0
       vertex -0.196184 -0.152191 0
       vertex -0.196184 -0.152191 0.1
    endloop
  endfacet
  facet normal -0.831476 -0.555561 0
    outer loop
       vertex -0.196184 -0.152191 0.1
       vertex -0.214352 -0.125 0.1
       vertex -0.214352 -0.125 0
    endloop
  endfacet
  facet normal -0.751817 -0.659372 0
    outer loop
       vertex -0.196184 -0.152191 0
       vertex -0.174622 -0.176776 0
       vertex -0.174622 -0.176776 0.1
    endloop
  endfacet
  facet normal -0.751817 -0.659372 0
    outer loop
       vertex -0.174622 -0.176776 0.1
       vertex -0.196184 -0.152191 0.1
       vertex -0.196184 -0.152191 0
    endloop
  endfacet
  facet normal 0.659372 -0.751817 0
    outer loop
       vertex 0.17893 -0.176776 0
       vertex 0.17893 -0.176776 0.1
       vertex 0.154345 -0.198338 0.1
    endloop
  endfacet
  facet normal 0.659372 -0.751817 0
    outer loop
       vertex 0.154345 -0.198338 0.1
       vertex 0.154345 -0.198338 0
       vertex 0.17893 -0.176776 0
    endloop
  endfacet
  facet normal 0.555561 -0.831476 0
    outer loop
       vertex 0.154345 -0.198338 0
       vertex 0.154345 -0.198338 0.1
       vertex 0.127154 -0.216506 0.1
    endloop
  endfacet
  facet normal 0.555561 -0.831476 0
    outer loop
       vertex 0.127154 -0.216506 0.1
       vertex 0.127154 -0.216506 0
       vertex 0.154345 -0.198338 0
    endloop
  endfacet
  facet normal 0.442302 -0.896866 0
    outer loop
       vertex 0.127154 -0.216506 0
       vertex 0.127154 -0.216506 0.1
       vertex 0.0978246 -0.23097 0.1
    endloop
  endfacet
  facet normal 0.442302 -0.896866 0
    outer loop
       vertex 0.0978246 -0.23097 0.1
       vertex 0.0978246 -0.23097 0
       vertex 0.127154 -0.216506 0
    endloop
  endfacet
  facet normal 0.321425 -0.946935 0
    outer loop
       vertex 0.0978246 -0.23097 0
       vertex 0.0978246 -0.23097 0.1
       vertex 0.0668586 -0.241481 0.1
    endloop
  endfacet
  facet normal 0.321425 -0.946935 0
    outer loop
       vertex 0.0668586 -0.241481 0.1
       vertex 0.0668586 -0.241481 0
       vertex 0.0978246 -0.23097 0
    endloop
  endfacet
  facet normal 0.195096 -0.980784 0
    outer loop
       vertex 0.0668586 -0.241481 0
       vertex 0.0668586 -0.241481 0.1
       vertex 0.0347851 -0.247861 0.1
    endloop
  endfacet
  facet normal 0.195096 -0.980784 0
    outer loop
       vertex 0.0347851 -0.247861 0.1
       vertex 0.0347851 -0.247861 0
       vertex 0.0668586 -0.241481 0
    endloop
  endfacet
  facet normal 0.0654098 -0.997858 0
    outer loop
       vertex 0.00215359 -0.25 0
       vertex 0.0347851 -0.247861 0
       vertex 0.0347851 -0.247861 0.1
    endloop
  endfacet
  facet normal 0.0654098 -0.997858 1.0893e-16
    outer loop
       vertex 0.0347851 -0.247861 0.1
       vertex 0.00215359 -0.25 0.1
       vertex 0.00215359 -0.25 0
    endloop
  endfacet
  facet normal -0.0654098 -0.997858 0
    outer loop
       vertex 0.00215359 -0.25 0.1
       vertex -0.0304779 -0.247861 0.1
       vertex -0.0304779 -0.247861 0
    endloop
  endfacet
  facet normal -0.0654098 -0.997858 -1.0893e-16
    outer loop
       vertex -0.0304779 -0.247861 0
       vertex 0.00215359 -0.25 0
       vertex 0.00215359 -0.25 0.1
    endloop
  endfacet
  facet normal -0.195096 -0.980784 0
    outer loop
       vertex -0.0304779 -0.247861 0
       vertex -0.0304779 -0.247861 0.1
       vertex -0.0625514 -0.241481 0.1
    endloop
  endfacet
  facet normal -0.195096 -0.980784 -0
    outer loop
       vertex -0.0625514 -0.241481 0.1
       vertex -0.0625514 -0.241481 0
       vertex -0.0304779 -0.247861 0
    endloop
  endfacet
  facet normal -0.321425 -0.946935 0
    outer loop
       vertex -0.0625514 -0.241481 0
       vertex -0.0625514 -0.241481 0.1
       vertex -0.0935174 -0.23097 0.1
    endloop
  endfacet
  facet normal -0.321425 -0.946935 -0
    outer loop
       vertex -0.0935174 -0.23097 0.1
       vertex -0.0935174 -0.23097 0
       vertex -0.0625514 -0.241481 0
    endloop
  endfacet
  facet normal -0.442302 -0.896866 0
    outer loop
       vertex -0.0935174 -0.23097 0
       vertex -0.0935174 -0.23097 0.1
       vertex -0.122846 -0.216506 0.1
    endloop
  endfacet
  facet normal -0.442302 -0.896866 -0
    outer loop
       vertex -0.122846 -0.216506 0.1
       vertex -0.122846 -0.216506 0
       vertex -0.0935174 -0.23097 0
    endloop
  endfacet
  facet normal -0.555561 -0.831476 0
    outer loop
       vertex -0.122846 -0.216506 0
       vertex -0.122846 -0.216506 0.1
       vertex -0.150037 -0.198338 0.1
    endloop
  endfacet
  facet normal -0.555561 -0.831476 -0
    outer loop
       vertex -0.150037 -0.198338 0.1
       vertex -0.150037 -0.198338 0
       vertex -0.122846 -0.216506 0
    endloop
  endfacet
  facet normal -0.659372 -0.751817 0
    outer loop
       vertex -0.150037 -0.198338 0
       vertex -0.150037 -0.198338 0.1
       vertex -0.174622 -0.176776 0.1
    endloop
  endfacet
  facet normal -0.659372 -0.751817 -0
    outer loop
       vertex -0.174622 -0.176776 0.1
       vertex -0.174622 -0.176776 0
       vertex -0.150037 -0.198338 0
    endloop
  endfacet
endsolid cylinder
