solid cylinder
  facet normal 0.751817 -0.659372 0
    outer loop
       vertex 0.250686 -0.176776 0
       vertex 0.272248 -0.152191 0
       vertex 0.272248 -0.152191 0.1
    endloop
  endfacet
  facet normal 0.751817 -0.659372 0
    outer loop
       vertex 0.272248 -0.152191 0.1
       vertex 0.250686 -0.176776 0.1
       vertex 0.250686 -0.176776 0
    endloop
  endfacet
  facet normal 0.831476 -0.555561 0
    outer loop
       vertex 0.272248 -0.152191 0
       vertex 0.290416 -0.125 0
       vertex 0.290416 -0.125 0.1
    endloop
  endfacet
  facet normal 0.831476 -0.555561 0
    outer loop
       vertex 0.290416 -0.125 0.1
       vertex 0.272248 -0.152191 0.1
       vertex 0.272248 -0.152191 0
    endloop
  endfacet
  facet normal 0.896866 -0.442302 0
    outer loop
       vertex 0.290416 -0.125 0
       vertex 0.30488 -0.095671 0
       vertex 0.30488 -0.095671 0.1
    endloop
  endfacet
  facet normal 0.896866 -0.442302 0
    outer loop
       vertex 0.30488 -0.095671 0.1
       vertex 0.290416 -0.125 0.1
       vertex 0.290416 -0.125 0
    endloop
  endfacet
  facet normal 0.946935 -0.321425 0
    outer loop
       vertex 0.30488 -0.095671 0
       vertex 0.315391 -0.064705 0
       vertex 0.315391 -0.064705 0.1
    endloop
  endfacet
  facet normal 0.946935 -0.321425 0
    outer loop
       vertex 0.315391 -0.064705 0.1
       vertex 0.30488 -0.095671 0.1
       vertex 0.30488 -0.095671 0
    endloop
  endfacet
  facet normal 0.980784 -0.195096 0
    outer loop
       vertex 0.315391 -0.064705 0
       vertex 0.321771 -0.0326315 0
       vertex 0.321771 -0.0326315 0.1
    endloop
  endfacet
  facet normal 0.980784 -0.195096 0
    outer loop
       vertex 0.321771 -0.0326315 0.1
       vertex 0.315391 -0.064705 0.1
       vertex 0.315391 -0.064705 0
    endloop
  endfacet
  facet normal 0.997858 -0.0654098 0
    outer loop
       vertex 0.32391 -8.32665e-17 0.1
       vertex 0.321771 -0.0326315 0.1
       vertex 0.321771 -0.0326315 0
    endloop
  endfacet
  facet normal 0.997858 -0.0654098 -1.08928e-16
    outer loop
       vertex 0.321771 -0.0326315 0
       vertex 0.32391 8.32665e-17 0
       vertex 0.32391 -8.32665e-17 0.1
    endloop
  endfacet
  facet normal 0.997858 0.0654098 0
    outer loop
       vertex 0.32391 8.32665e-17 0
       vertex 0.321771 0.0326315 0
       vertex 0.321771 0.0326315 0.1
    endloop
  endfacet
  facet normal 0.997858 0.0654098 1.08928e-16
    outer loop
       vertex 0.321771 0.0326315 0.1
       vertex 0.32391 -8.32665e-17 0.1
       vertex 0.32391 8.32665e-17 0
    endloop
  endfacet
  facet normal 0.980784 0.195096 0
    outer loop
       vertex 0.321771 0.0326315 0
       vertex 0.315391 0.064705 0
       vertex 0.315391 0.064705 0.1
    endloop
  endfacet
  facet normal 0.980784 0.195096 0
    outer loop
       vertex 0.315391 0.064705 0.1
       vertex 0.321771 0.0326315 0.1
       vertex 0.321771 0.0326315 0
    endloop
  endfacet
  facet normal 0.946935 0.321425 0
    outer loop
       vertex 0.315391 0.064705 0
       vertex 0.30488 0.095671 0
       vertex 0.30488 0.095671 0.1
    endloop
  endfacet
  facet normal 0.946935 0.321425 0
    outer loop
       vertex 0.30488 0.095671 0.1
       vertex 0.315391 0.064705 0.1
       vertex 0.315391 0.064705 0
    endloop
  endfacet
  facet normal 0.896866 0.442302 0
    outer loop
       vertex 0.30488 0.095671 0
       vertex 0.290416 0.125 0
       vertex 0.290416 0.125 0.1
    endloop
  endfacet
  facet normal 0.896866 0.442302 0
    outer loop
       vertex 0.290416 0.125 0.1
       vertex 0.30488 0.095671 0.1
       vertex 0.30488 0.095671 0
    endloop
  endfacet
  facet normal 0.831476 0.555561 0
    outer loop
       vertex 0.290416 0.125 0
       vertex 0.272248 0.152191 0
       vertex 0.272248 0.152191 0.1
    endloop
  endfacet
  facet normal 0.831476 0.555561 0
    outer loop
       vertex 0.272248 0.152191 0.1
       vertex 0.290416 0.125 0.1
       vertex 0.290416 0.125 0
    endloop
  endfacet
  facet normal 0.751817 0.659372 0
    outer loop
       vertex 0.272248 0.152191 0
       vertex 0.250686 0.176776 0
       vertex 0.250686 0.176776 0.1
    endloop
  endfacet
  facet normal 0.751817 0.659372 0
    outer loop
       vertex 0.250686 0.176776 0.1
       vertex 0.272248 0.152191 0.1
       vertex 0.272248 0.152191 0
    endloop
  endfacet
  facet normal 0.659372 0.751817 0
    outer loop
       vertex 0.250686 0.176776 0
       vertex 0.226101 0.198338 0
       vertex 0.226101 0.198338 0.1
    endloop
  endfacet
  facet normal 0.659372 0.751817 0
    outer loop
       vertex 0.226101 0.198338 0.1
       vertex 0.250686 0.176776 0.1
       vertex 0.250686 0.176776 0
    endloop
  endfacet
  facet normal 0.555561 0.831476 0
    outer loop
       vertex 0.226101 0.198338 0
       vertex 0.19891 0.216506 0
       vertex 0.19891 0.216506 0.1
    endloop
  endfacet
  facet normal 0.555561 0.831476 0
    outer loop
       vertex 0.19891 0.216506 0.1
       vertex 0.226101 0.198338 0.1
       vertex 0.226101 0.198338 0
    endloop
  endfacet
  facet normal 0.442302 0.896866 0
    outer loop
       vertex 0.19891 0.216506 0
       vertex 0.169581 0.23097 0
       vertex 0.169581 0.23097 0.1
    endloop
  endfacet
  facet normal 0.442302 0.896866 0
    outer loop
       vertex 0.169581 0.23097 0.1
       vertex 0.19891 0.216506 0.1
       vertex 0.19891 0.216506 0
    endloop
  endfacet
  facet normal 0.321425 0.946935 0
    outer loop
       vertex 0.169581 0.23097 0
       vertex 0.138615 0.241481 0
       vertex 0.138615 0.241481 0.1
    endloop
  endfacet
  facet normal 0.321425 0.946935 0
    outer loop
       vertex 0.138615 0.241481 0.1
       vertex 0.169581 0.23097 0.1
       vertex 0.169581 0.23097 0
    endloop
  endfacet
  facet normal 0.195096 0.980784 0
    outer loop
       vertex 0.138615 0.241481 0
       vertex 0.106541 0.247861 0
       vertex 0.106541 0.247861 0.1
    endloop
  endfacet
  facet normal 0.195096 0.980784 0
    outer loop
       vertex 0.106541 0.247861 0.1
       vertex 0.138615 0.241481 0.1
       vertex 0.138615 0.241481 0
    endloop
  endfacet
  facet normal 0.0654098 0.997858 0
    outer loop
       vertex 0.0739098 0.25 0.1
       vertex 0.106541 0.247861 0.1
       vertex 0.106541 0.247861 0
    endloop
  endfacet
  facet normal 0.0654098 0.997858 -1.0893e-16
    outer loop
       vertex 0.106541 0.247861 0
       vertex 0.0739098 0.25 0
       vertex 0.0739098 0.25 0.1
    endloop
  endfacet
  facet normal -0.0654098 0.997858 0
    outer loop
       vertex 0.0739098 0.25 0
       vertex 0.0412783 0.247861 0
       vertex 0.0412783 0.247861 0.1
    endloop
  endfacet
  facet normal -0.0654098 0.997858 1.08928e-16
    outer loop
       vertex 0.0412783 0.247861 0.1
       vertex 0.0739098 0.25 0.1
       vertex 0.0739098 0.25 0
    endloop
  endfacet
  facet normal -0.195096 0.980784 0
    outer loop
       vertex 0.0412783 0.247861 0
       vertex 0.00920481 0.241481 0
       vertex 0.00920481 0.241481 0.1
    endloop
  endfacet
  facet normal -0.195096 0.980784 0
    outer loop
       vertex 0.00920481 0.241481 0.1
       vertex 0.0412783 0.247861 0.1
       vertex 0.0412783 0.247861 0
    endloop
  endfacet
  facet normal -0.321425 0.946935 0
    outer loop
       vertex 0.00920481 0.241481 0
       vertex -0.0217612 0.23097 0
       vertex -0.0217612 0.23097 0.1
    endloop
  endfacet
  facet normal -0.321425 0.946935 0
    outer loop
       vertex -0.0217612 0.23097 0.1
       vertex 0.00920481 0.241481 0.1
       vertex 0.00920481 0.241481 0
    endloop
  endfacet
  facet normal -0.442302 0.896866 0
    outer loop
       vertex -0.0217612 0.23097 0
       vertex -0.0510902 0.216506 0
       vertex -0.0510902 0.216506 0.1
    endloop
  endfacet
  facet normal -0.442302 0.896866 0
    outer loop
       vertex -0.0510902 0.216506 0.1
       vertex -0.0217612 0.23097 0.1
       vertex -0.0217612 0.23097 0
    endloop
  endfacet
  facet normal -0.555561 0.831476 0
    outer loop
       vertex -0.0510902 0.216506 0
       vertex -0.0782812 0.198338 0
       vertex -0.0782812 0.198338 0.1
    endloop
  endfacet
  facet normal -0.555561 0.831476 0
    outer loop
       vertex -0.0782812 0.198338 0.1
       vertex -0.0510902 0.216506 0.1
       vertex -0.0510902 0.216506 0
    endloop
  endfacet
  facet normal -0.659372 0.751817 0
    outer loop
       vertex -0.0782812 0.198338 0
       vertex -0.102866 0.176776 0
       vertex -0.102866 0.176776 0.1
    endloop
  endfacet
  facet normal -0.659372 0.751817 0
    outer loop
       vertex -0.102866 0.176776 0.1
       vertex -0.0782812 0.198338 0.1
       vertex -0.0782812 0.198338 0
    endloop
  endfacet
  facet normal -0.751817 0.659372 0
    outer loop
       vertex -0.102866 0.176776 0
       vertex -0.124428 0.152191 0
       vertex -0.124428 0.152191 0.1
    endloop
  endfacet
  facet normal -0.751817 0.659372 0
    outer loop
       vertex -0.124428 0.152191 0.1
       vertex -0.102866 0.176776 0.1
       vertex -0.102866 0.176776 0
    endloop
  endfacet
  facet normal -0.831476 0.555561 0
    outer loop
       vertex -0.124428 0.152191 0
       vertex -0.142596 0.125 0
       vertex -0.142596 0.125 0.1
    endloop
  endfacet
  facet normal -0.831476 0.555561 0
    outer loop
       vertex -0.142596 0.125 0.1
       vertex -0.124428 0.152191 0.1
       vertex -0.124428 0.152191 0
    endloop
  endfacet
  facet normal -0.896866 0.442302 0
    outer loop
       vertex -0.142596 0.125 0
       vertex -0.15706 0.095671 0
       vertex -0.15706 0.095671 0.1
    endloop
  endfacet
  facet normal -0.896866 0.442302 0
    outer loop
       vertex -0.15706 0.095671 0.1
       vertex -0.142596 0.125 0.1
       vertex -0.142596 0.125 0
    endloop
  endfacet
  facet normal -0.946935 0.321425 0
    outer loop
       vertex -0.15706 0.095671 0
       vertex -0.167571 0.064705 0
       vertex -0.167571 0.064705 0.1
    endloop
  endfacet
  facet normal -0.946935 0.321425 0
    outer loop
       vertex -0.167571 0.064705 0.1
       vertex -0.15706 0.095671 0.1
       vertex -0.15706 0.095671 0
    endloop
  endfacet
  facet normal -0.980784 0.195096 0
    outer loop
       vertex -0.167571 0.064705 0
       vertex -0.173951 0.0326315 0
       vertex -0.173951 0.0326315 0.1
    endloop
  endfacet
  facet normal -0.980784 0.195096 0
    outer loop
       vertex -0.173951 0.0326315 0.1
       vertex -0.167571 0.064705 0.1
       vertex -0.167571 0.064705 0
    endloop
  endfacet
  facet normal -0.997858 0.0654098 0
    outer loop
       vertex -0.17609 8.32665e-17 0.1
       vertex -0.173951 0.0326315 0.1
       vertex -0.173951 0.0326315 0
    endloop
  endfacet
  facet normal -0.997858 0.0654098 -1.08928e-16
    outer loop
       vertex -0.173951 0.0326315 0
       vertex -0.17609 -8.32665e-17 0
       vertex -0.17609 8.32665e-17 0.1
    endloop
  endfacet
  facet normal -0.997858 -0.0654098 0
    outer loop
       vertex -0.17609 -8.32665e-17 0
       vertex -0.173951 -0.0326315 0
       vertex -0.173951 -0.0326315 0.1
    endloop
  endfacet
  facet normal -0.997858 -0.0654098 1.08928e-16
    outer loop
       vertex -0.173951 -0.0326315 0.1
       vertex -0.17609 8.32665e-17 0.1
       vertex -0.17609 -8.32665e-17 0
    endloop
  endfacet
  facet normal -0.980784 -0.195096 0
    outer loop
       vertex -0.173951 -0.0326315 0
       vertex -0.167571 -0.064705 0
       vertex -0.167571 -0.064705 0.1
    endloop
  endfacet
  facet normal -0.980784 -0.195096 0
    outer loop
       vertex -0.167571 -0.064705 0.1
       vertex -0.173951 -0.0326315 0.1
       vertex -0.173951 -0.0326315 0
    endloop
  endfacet
  facet normal -0.946935 -0.321425 0
    outer loop
       vertex -0.167571 -0.064705 0
       vertex -0.15706 -0.095671 0
       vertex -0.15706 -0.095671 0.1
    endloop
  endfacet
  facet normal -0.946935 -0.321425 0
    outer loop
       vertex -0.15706 -0.095671 0.1
       vertex -0.167571 -0.064705 0.1
       vertex -0.167571 -0.064705 0
    endloop
  endfacet
  facet normal -0.896866 -0.442302 0
    outer loop
       vertex -0.15706 -0.095671 0
       vertex -0.142596 -0.125 0
       vertex -0.142596 -0.125 0.1
    endloop
  endfacet
  facet normal -0.896866 -0.442302 0
    outer loop
       vertex -0.142596 -0.125 0.1
       vertex -0.15706 -0.095671 0.1
       vertex -0.15706 -0.095671 0
    endloop
  endfacet
  facet normal -0.831476 -0.555561 0
    outer loop
       vertex -0.142596 -0.125 0
       vertex -0.124428 -0.152191 0
       vertex -0.124428 -0.152191 0.1
    endloop
  endfacet
  facet normal -0.831476 -0.555561 0
    outer loop
       vertex -0.124428 -0.152191 0.1
       vertex -0.142596 -0.125 0.1
       vertex -0.142596 -0.125 0
    endloop
  endfacet
  facet normal -0.751817 -0.659372 0
    outer loop
       vertex -0.124428 -0.152191 0
       vertex -0.102866 -0.176776 0
       vertex -0.102866 -0.176776 0.1
    endloop
  endfacet
  facet normal -0.751817 -0.659372 0
    outer loop
       vertex -0.102866 -0.176776 0.1
       vertex -0.124428 -0.152191 0.1
       vertex -0.124428 -0.152191 0
    endloop
  endfacet
  facet normal 0.659372 -0.751817 0
    outer loop
       vertex 0.250686 -0.176776 0
       vertex 0.250686 -0.176776 0.1
       vertex 0.226101 -0.198338 0.1
    endloop
  endfacet
  facet normal 0.659372 -0.751817 0
    outer loop
       vertex 0.226101 -0.198338 0.1
       vertex 0.226101 -0.198338 0
       vertex 0.250686 -0.176776 0
    endloop
  endfacet
  facet normal 0.555561 -0.831476 0
    outer loop
       vertex 0.226101 -0.198338 0
       vertex 0.226101 -0.198338 0.1
       vertex 0.19891 -0.216506 0.1
    endloop
  endfacet
  facet normal 0.555561 -0.831476 0
    outer loop
       vertex 0.19891 -0.216506 0.1
       vertex 0.19891 -0.216506 0
       vertex 0.226101 -0.198338 0
    endloop
  endfacet
  facet normal 0.442302 -0.896866 0
    outer loop
       vertex 0.19891 -0.216506 0
       vertex 0.19891 -0.216506 0.1
       vertex 0.169581 -0.23097 0.1
    endloop
  endfacet
  facet normal 0.442302 -0.896866 0
    outer loop
       vertex 0.169581 -0.23097 0.1
       vertex 0.169581 -0.23097 0
       vertex 0.19891 -0.216506 0
    endloop
  endfacet
  facet normal 0.321425 -0.946935 0
    outer loop
       vertex 0.169581 -0.23097 0
       vertex 0.169581 -0.23097 0.1
       vertex 0.138615 -0.241481 0.1
    endloop
  endfacet
  facet normal 0.321425 -0.946935 0
    outer loop
       vertex 0.138615 -0.241481 0.1
       vertex 0.138615 -0.241481 0
       vertex 0.169581 -0.23097 0
    endloop
  endfacet
  facet normal 0.195096 -0.980784 0
    outer loop
       vertex 0.138615 -0.241481 0
       vertex 0.138615 -0.241481 0.1
       vertex 0.106541 -0.247861 0.1
    endloop
  endfacet
  facet normal 0.195096 -0.980784 0
    outer loop
       vertex 0.106541 -0.247861 0.1
       vertex 0.106541 -0.247861 0
       vertex 0.138615 -0.241481 0
    endloop
  endfacet
  facet normal 0.0654098 -0.997858 0
    outer loop
       vertex 0.0739098 -0.25 0
       vertex 0.106541 -0.247861 0
       vertex 0.106541 -0.247861 0.1
    endloop
  endfacet
  facet normal 0.0654098 -0.997858 1.0893e-16
    outer loop
       vertex 0.106541 -0.247861 0.1
       vertex 0.0739098 -0.25 0.1
       vertex 0.0739098 -0.25 0
    endloop
  endfacet
  facet normal -0.0654098 -0.997858 0
    outer loop
       vertex 0.0739098 -0.25 0.1
       vertex 0.0412783 -0.247861 0.1
       vertex 0.0412783 -0.247861 0
    endloop
  endfacet
  facet normal -0.0654098 -0.997858 -1.08928e-16
    outer loop
       vertex 0.0412783 -0.247861 0
       vertex 0.0739098 -0.25 0
       vertex 0.0739098 -0.25 0.1
    endloop
  endfacet
  facet normal -0.195096 -0.980784 0
    outer loop
       vertex 0.0412783 -0.247861 0
       vertex 0.0412783 -0.247861 0.1
       vertex 0.00920481 -0.241481 0.1
    endloop
  endfacet
  facet normal -0.195096 -0.980784 -0
    outer loop
       vertex 0.00920481 -0.241481 0.1
       vertex 0.00920481 -0.241481 0
       vertex 0.0412783 -0.247861 0
    endloop
  endfacet
  facet normal -0.321425 -0.946935 0
    outer loop
       vertex 0.00920481 -0.241481 0
       vertex 0.00920481 -0.241481 0.1
       vertex -0.0217612 -0.23097 0.1
    endloop
  endfacet
  facet normal -0.321425 -0.946935 -0
    outer loop
       vertex -0.0217612 -0.23097 0.1
       vertex -0.0217612 -0.23097 0
       vertex 0.00920481 -0.241481 0
    endloop
  endfacet
  facet normal -0.442302 -0.896866 0
    outer loop
       vertex -0.0217612 -0.23097 0
       vertex -0.0217612 -0.23097 0.1
       vertex -0.0510902 -0.216506 0.1
    endloop
  endfacet
  facet normal -0.442302 -0.896866 -0
    outer loop
       vertex -0.0510902 -0.216506 0.1
       vertex -0.0510902 -0.216506 0
       vertex -0.0217612 -0.23097 0
    endloop
  endfacet
  facet normal -0.555561 -0.831476 0
    outer loop
       vertex -0.0510902 -0.216506 0
       vertex -0.0510902 -0.216506 0.1
       vertex -0.0782812 -0.198338 0.1
    endloop
  endfacet
  facet normal -0.555561 -0.831476 -0
    outer loop
       vertex -0.0782812 -0.198338 0.1
       vertex -0.0782812 -0.198338 0
       vertex -0.0510902 -0.216506 0
    endloop
  endfacet
  facet normal -0.659372 -0.751817 0
    outer loop
       vertex -0.0782812 -0.198338 0
       vertex -0.0782812 -0.198338 0.1
       vertex -0.102866 -0.176776 0.1
    endloop
  endfacet
  facet normal -0.659372 -0.751817 -0
    outer loop
       vertex -0.102866 -0.176776 0.1
       vertex -0.102866 -0.176776 0
       vertex -0.0782812 -0.198338 0
    endloop
  endfacet
endsolid cylinder
