solid cylinder
  facet normal 0.751817 -0.659372 0
    outer loop
       vertex 0.179392 -0.176776 0
       vertex 0.200954 -0.152191 0
       vertex 0.200954 -0.152191 0.1
    endloop
  endfacet
  facet normal 0.751817 -0.659372 0
    outer loop
       vertex 0.200954 -0.152191 0.1
       vertex 0.179392 -0.176776 0.1
       vertex 0.179392 -0.176776 0
    endloop
  endfacet
  facet normal 0.831476 -0.555561 0
    outer loop
       vertex 0.200954 -0.152191 0
       vertex 0.219122 -0.125 0
       vertex 0.219122 -0.125 0.1
    endloop
  endfacet
  facet normal 0.831476 -0.555561 0
    outer loop
       vertex 0.219122 -0.125 0.1
       vertex 0.200954 -0.152191 0.1
       vertex 0.200954 -0.152191 0
    endloop
  endfacet
  facet normal 0.896866 -0.442302 0
    outer loop
       vertex 0.219122 -0.125 0
       vertex 0.233586 -0.095671 0
       vertex 0.233586 -0.095671 0.1
    endloop
  endfacet
  facet normal 0.896866 -0.442302 0
    outer loop
       vertex 0.233586 -0.095671 0.1
       vertex 0.219122 -0.125 0.1
       vertex 0.219122 -0.125 0
    endloop
  endfacet
  facet normal 0.946935 -0.321425 0
    outer loop
       vertex 0.233586 -0.095671 0
       vertex 0.244097 -0.064705 0
       vertex 0.244097 -0.064705 0.1
    endloop
  endfacet
  facet normal 0.946935 -0.321425 0
    outer loop
       vertex 0.244097 -0.064705 0.1
       vertex 0.233586 -0.095671 0.1
       vertex 0.233586 -0.095671 0
    endloop
  endfacet
  facet normal 0.980784 -0.195096 0
    outer loop
       vertex 0.244097 -0.064705 0
       vertex 0.250477 -0.0326315 0
       vertex 0.250477 -0.0326315 0.1
    endloop
  endfacet
  facet normal 0.980784 -0.195096 0
    outer loop
       vertex 0.250477 -0.0326315 0.1
       vertex 0.244097 -0.064705 0.1
       vertex 0.244097 -0.064705 0
    endloop
  endfacet
  facet normal 0.997858 -0.0654098 0
    outer loop
       vertex 0.252616 -8.32665e-17 0.1
       vertex 0.250477 -0.0326315 0.1
       vertex 0.250477 -0.0326315 0
    endloop
  endfacet
  facet normal 0.997858 -0.0654098 -1.08928e-16
    outer loop
       vertex 0.250477 -0.0326315 0
       vertex 0.252616 8.32665e-17 0
       vertex 0.252616 -8.32665e-17 0.1
    endloop
  endfacet
  facet normal 0.997858 0.0654098 0
    outer loop
       vertex 0.252616 8.32665e-17 0
       vertex 0.250477 0.0326315 0
       vertex 0.250477 0.0326315 0.1
    endloop
  endfacet
  facet normal 0.997858 0.0654098 1.08928e-16
    outer loop
       vertex 0.250477 0.0326315 0.1
       vertex 0.252616 -8.32665e-17 0.1
       vertex 0.252616 8.32665e-17 0
    endloop
  endfacet
  facet normal 0.980784 0.195096 0
    outer loop
       vertex 0.250477 0.0326315 0
       vertex 0.244097 0.064705 0
       vertex 0.244097 0.064705 0.1
    endloop
  endfacet
  facet normal 0.980784 0.195096 0
    outer loop
       vertex 0.244097 0.064705 0.1
       vertex 0.250477 0.0326315 0.1
       vertex 0.250477 0.0326315 0
    endloop
  endfacet
  facet normal 0.946935 0.321425 0
    outer loop
       vertex 0.244097 0.064705 0
       vertex 0.233586 0.095671 0
       vertex 0.233586 0.095671 0.1
    endloop
  endfacet
  facet normal 0.946935 0.321425 0
    outer loop
       vertex 0.233586 0.095671 0.1
       vertex 0.244097 0.064705 0.1
       vertex 0.244097 0.064705 0
    endloop
  endfacet
  facet normal 0.896866 0.442302 0
    outer loop
       vertex 0.233586 0.095671 0
       vertex 0.219122 0.125 0
       vertex 0.219122 0.125 0.1
    endloop
  endfacet
  facet normal 0.896866 0.442302 0
    outer loop
       vertex 0.219122 0.125 0.1
       vertex 0.233586 0.095671 0.1
       vertex 0.233586 0.095671 0
    endloop
  endfacet
  facet normal 0.831476 0.555561 0
    outer loop
       vertex 0.219122 0.125 0
       vertex 0.200954 0.152191 0
       vertex 0.200954 0.152191 0.1
    endloop
  endfacet
  facet normal 0.831476 0.555561 0
    outer loop
       vertex 0.200954 0.152191 0.1
       vertex 0.219122 0.125 0.1
       vertex 0.219122 0.125 0
    endloop
  endfacet
  facet normal 0.751817 0.659372 0
    outer loop
       vertex 0.200954 0.152191 0
       vertex 0.179392 0.176776 0
       vertex 0.179392 0.176776 0.1
    endloop
  endfacet
  facet normal 0.751817 0.659372 0
    outer loop
       vertex 0.179392 0.176776 0.1
       vertex 0.200954 0.152191 0.1
       vertex 0.200954 0.152191 0
    endloop
  endfacet
  facet normal 0.659372 0.751817 0
    outer loop
       vertex 0.179392 0.176776 0
       vertex 0.154807 0.198338 0
       vertex 0.154807 0.198338 0.1
    endloop
  endfacet
  facet normal 0.659372 0.751817 0
    outer loop
       vertex 0.154807 0.198338 0.1
       vertex 0.179392 0.176776 0.1
       vertex 0.179392 0.176776 0
    endloop
  endfacet
  facet normal 0.555561 0.831476 0
    outer loop
       vertex 0.154807 0.198338 0
       vertex 0.127616 0.216506 0
       vertex 0.127616 0.216506 0.1
    endloop
  endfacet
  facet normal 0.555561 0.831476 0
    outer loop
       vertex 0.127616 0.216506 0.1
       vertex 0.154807 0.198338 0.1
       vertex 0.154807 0.198338 0
    endloop
  endfacet
  facet normal 0.442302 0.896866 0
    outer loop
       vertex 0.127616 0.216506 0
       vertex 0.0982868 0.23097 0
       vertex 0.0982868 0.23097 0.1
    endloop
  endfacet
  facet normal 0.442302 0.896866 0
    outer loop
       vertex 0.0982868 0.23097 0.1
       vertex 0.127616 0.216506 0.1
       vertex 0.127616 0.216506 0
    endloop
  endfacet
  facet normal 0.321425 0.946935 0
    outer loop
       vertex 0.0982868 0.23097 0
       vertex 0.0673208 0.241481 0
       vertex 0.0673208 0.241481 0.1
    endloop
  endfacet
  facet normal 0.321425 0.946935 0
    outer loop
       vertex 0.0673208 0.241481 0.1
       vertex 0.0982868 0.23097 0.1
       vertex 0.0982868 0.23097 0
    endloop
  endfacet
  facet normal 0.195096 0.980784 0
    outer loop
       vertex 0.0673208 0.241481 0
       vertex 0.0352473 0.247861 0
       vertex 0.0352473 0.247861 0.1
    endloop
  endfacet
  facet normal 0.195096 0.980784 0
    outer loop
       vertex 0.0352473 0.247861 0.1
       vertex 0.0673208 0.241481 0.1
       vertex 0.0673208 0.241481 0
    endloop
  endfacet
  facet normal 0.0654098 0.997858 0
    outer loop
       vertex 0.0026158 0.25 0.1
       vertex 0.0352473 0.247861 0.1
       vertex 0.0352473 0.247861 0
    endloop
  endfacet
  facet normal 0.0654098 0.997858 -1.0893e-16
    outer loop
       vertex 0.0352473 0.247861 0
       vertex 0.0026158 0.25 0
       vertex 0.0026158 0.25 0.1
    endloop
  endfacet
  facet normal -0.0654098 0.997858 0
    outer loop
       vertex 0.0026158 0.25 0
       vertex -0.0300157 0.247861 0
       vertex -0.0300157 0.247861 0.1
    endloop
  endfacet
  facet normal -0.0654098 0.997858 1.0893e-16
    outer loop
       vertex -0.0300157 0.247861 0.1
       vertex 0.0026158 0.25 0.1
       vertex 0.0026158 0.25 0
    endloop
  endfacet
  facet normal -0.195096 0.980784 0
    outer loop
       vertex -0.0300157 0.247861 0
       vertex -0.0620892 0.241481 0
       vertex -0.0620892 0.241481 0.1
    endloop
  endfacet
  facet normal -0.195096 0.980784 0
    outer loop
       vertex -0.0620892 0.241481 0.1
       vertex -0.0300157 0.247861 0.1
       vertex -0.0300157 0.247861 0
    endloop
  endfacet
  facet normal -0.321425 0.946935 0
    outer loop
       vertex -0.0620892 0.241481 0
       vertex -0.0930552 0.23097 0
       vertex -0.0930552 0.23097 0.1
    endloop
  endfacet
  facet normal -0.321425 0.946935 0
    outer loop
       vertex -0.0930552 0.23097 0.1
       vertex -0.0620892 0.241481 0.1
       vertex -0.0620892 0.241481 0
    endloop
  endfacet
  facet normal -0.442302 0.896866 0
    outer loop
       vertex -0.0930552 0.23097 0
       vertex -0.122384 0.216506 0
       vertex -0.122384 0.216506 0.1
    endloop
  endfacet
  facet normal -0.442302 0.896866 0
    outer loop
       vertex -0.122384 0.216506 0.1
       vertex -0.0930552 0.23097 0.1
       vertex -0.0930552 0.23097 0
    endloop
  endfacet
  facet normal -0.555561 0.831476 0
    outer loop
       vertex -0.122384 0.216506 0
       vertex -0.149575 0.198338 0
       vertex -0.149575 0.198338 0.1
    endloop
  endfacet
  facet normal -0.555561 0.831476 0
    outer loop
       vertex -0.149575 0.198338 0.1
       vertex -0.122384 0.216506 0.1
       vertex -0.122384 0.216506 0
    endloop
  endfacet
  facet normal -0.659372 0.751817 0
    outer loop
       vertex -0.149575 0.198338 0
       vertex -0.17416 0.176776 0
       vertex -0.17416 0.176776 0.1
    endloop
  endfacet
  facet normal -0.659372 0.751817 0
    outer loop
       vertex -0.17416 0.176776 0.1
       vertex -0.149575 0.198338 0.1
       vertex -0.149575 0.198338 0
    endloop
  endfacet
  facet normal -0.751817 0.659372 0
    outer loop
       vertex -0.17416 0.176776 0
       vertex -0.195722 0.152191 0
       vertex -0.195722 0.152191 0.1
    endloop
  endfacet
  facet normal -0.751817 0.659372 0
    outer loop
       vertex -0.195722 0.152191 0.1
       vertex -0.17416 0.176776 0.1
       vertex -0.17416 0.176776 0
    endloop
  endfacet
  facet normal -0.831476 0.555561 0
    outer loop
       vertex -0.195722 0.152191 0
       vertex -0.21389 0.125 0
       vertex -0.21389 0.125 0.1
    endloop
  endfacet
  facet normal -0.831476 0.555561 0
    outer loop
       vertex -0.21389 0.125 0.1
       vertex -0.195722 0.152191 0.1
       vertex -0.195722 0.152191 0
    endloop
  endfacet
  facet normal -0.896866 0.442302 0
    outer loop
       vertex -0.21389 0.125 0
       vertex -0.228354 0.095671 0
       vertex -0.228354 0.095671 0.1
    endloop
  endfacet
  facet normal -0.896866 0.442302 0
    outer loop
       vertex -0.228354 0.095671 0.1
       vertex -0.21389 0.125 0.1
       vertex -0.21389 0.125 0
    endloop
  endfacet
  facet normal -0.946935 0.321425 0
    outer loop
       vertex -0.228354 0.095671 0
       vertex -0.238865 0.064705 0
       vertex -0.238865 0.064705 0.1
    endloop
  endfacet
  facet normal -0.946935 0.321425 0
    outer loop
       vertex -0.238865 0.064705 0.1
       vertex -0.228354 0.095671 0.1
       vertex -0.228354 0.095671 0
    endloop
  endfacet
  facet normal -0.980784 0.195096 0
    outer loop
       vertex -0.238865 0.064705 0
       vertex -0.245245 0.0326315 0
       vertex -0.245245 0.0326315 0.1
    endloop
  endfacet
  facet normal -0.980784 0.195096 0
    outer loop
       vertex -0.245245 0.0326315 0.1
       vertex -0.238865 0.064705 0.1
       vertex -0.238865 0.064705 0
    endloop
  endfacet
  facet normal -0.997858 0.0654098 0
    outer loop
       vertex -0.247384 8.32665e-17 0.1
       vertex -0.245245 0.0326315 0.1
       vertex -0.245245 0.0326315 0
    endloop
  endfacet
  facet normal -0.997858 0.0654098 -1.08928e-16
    outer loop
       vertex -0.245245 0.0326315 0
       vertex -0.247384 -8.32665e-17 0
       vertex -0.247384 8.32665e-17 0.1
    endloop
  endfacet
  facet normal -0.997858 -0.0654098 0
    outer loop
       vertex -0.247384 -8.32665e-17 0
       vertex -0.245245 -0.0326315 0
       vertex -0.245245 -0.0326315 0.1
    endloop
  endfacet
  facet normal -0.997858 -0.0654098 1.08928e-16
    outer loop
       vertex -0.245245 -0.0326315 0.1
       vertex -0.247384 8.32665e-17 0.1
       vertex -0.247384 -8.32665e-17 0
    endloop
  endfacet
  facet normal -0.980784 -0.195096 0
    outer loop
       vertex -0.245245 -0.0326315 0
       vertex -0.238865 -0.064705 0
       vertex -0.238865 -0.064705 0.1
    endloop
  endfacet
  facet normal -0.980784 -0.195096 0
    outer loop
       vertex -0.238865 -0.064705 0.1
       vertex -0.245245 -0.0326315 0.1
       vertex -0.245245 -0.0326315 0
    endloop
  endfacet
  facet normal -0.946935 -0.321425 0
    outer loop
       vertex -0.238865 -0.064705 0
       vertex -0.228354 -0.095671 0
       vertex -0.228354 -0.095671 0.1
    endloop
  endfacet
  facet normal -0.946935 -0.321425 0
    outer loop
       vertex -0.228354 -0.095671 0.1
       vertex -0.238865 -0.064705 0.1
       vertex -0.238865 -0.064705 0
    endloop
  endfacet
  facet normal -0.896866 -0.442302 0
    outer loop
       vertex -0.228354 -0.095671 0
       vertex -0.21389 -0.125 0
       vertex -0.21389 -0.125 0.1
    endloop
  endfacet
  facet normal -0.896866 -0.442302 0
    outer loop
       vertex -0.21389 -0.125 0.1
       vertex -0.228354 -0.095671 0.1
       vertex -0.228354 -0.095671 0
    endloop
  endfacet
  facet normal -0.831476 -0.555561 0
    outer loop
       vertex -0.21389 -0.125 0
       vertex -0.195722 -0.152191 0
       vertex -0.195722 -0.152191 0.1
    endloop
  endfacet
  facet normal -0.831476 -0.555561 0
    outer loop
       vertex -0.195722 -0.152191 0.1
       vertex -0.21389 -0.125 0.1
       vertex -0.21389 -0.125 0
    endloop
  endfacet
  facet normal -0.751817 -0.659372 0
    outer loop
       vertex -0.195722 -0.152191 0
       vertex -0.17416 -0.176776 0
       vertex -0.17416 -0.176776 0.1
    endloop
  endfacet
  facet normal -0.751817 -0.659372 0
    outer loop
       vertex -0.17416 -0.176776 0.1
       vertex -0.195722 -0.152191 0.1
       vertex -0.195722 -0.152191 0
    endloop
  endfacet
  facet normal 0.659372 -0.751817 0
    outer loop
       vertex 0.179392 -0.176776 0
       vertex 0.179392 -0.176776 0.1
       vertex 0.154807 -0.198338 0.1
    endloop
  endfacet
  facet normal 0.659372 -0.751817 0
    outer loop
       vertex 0.154807 -0.198338 0.1
       vertex 0.154807 -0.198338 0
       vertex 0.179392 -0.176776 0
    endloop
  endfacet
  facet normal 0.555561 -0.831476 0
    outer loop
       vertex 0.154807 -0.198338 0
       vertex 0.154807 -0.198338 0.1
       vertex 0.127616 -0.216506 0.1
    endloop
  endfacet
  facet normal 0.555561 -0.831476 0
    outer loop
       vertex 0.127616 -0.216506 0.1
       vertex 0.127616 -0.216506 0
       vertex 0.154807 -0.198338 0
    endloop
  endfacet
  facet normal 0.442302 -0.896866 0
    outer loop
       vertex 0.127616 -0.216506 0
       vertex 0.127616 -0.216506 0.1
       vertex 0.0982868 -0.23097 0.1
    endloop
  endfacet
  facet normal 0.442302 -0.896866 0
    outer loop
       vertex 0.0982868 -0.23097 0.1
       vertex 0.0982868 -0.23097 0
       vertex 0.127616 -0.216506 0
    endloop
  endfacet
  facet normal 0.321425 -0.946935 0
    outer loop
       vertex 0.0982868 -0.23097 0
       vertex 0.0982868 -0.23097 0.1
       vertex 0.0673208 -0.241481 0.1
    endloop
  endfacet
  facet normal 0.321425 -0.946935 0
    outer loop
       vertex 0.0673208 -0.241481 0.1
       vertex 0.0673208 -0.241481 0
       vertex 0.0982868 -0.23097 0
    endloop
  endfacet
  facet normal 0.195096 -0.980784 0
    outer loop
       vertex 0.0673208 -0.241481 0
       vertex 0.0673208 -0.241481 0.1
       vertex 0.0352473 -0.247861 0.1
    endloop
  endfacet
  facet normal 0.195096 -0.980784 0
    outer loop
       vertex 0.0352473 -0.247861 0.1
       vertex 0.0352473 -0.247861 0
       vertex 0.0673208 -0.241481 0
    endloop
  endfacet
  facet normal 0.0654098 -0.997858 0
    outer loop
       vertex 0.0026158 -0.25 0
       vertex 0.0352473 -0.247861 0
       vertex 0.0352473 -0.247861 0.1
    endloop
  endfacet
  facet normal 0.0654098 -0.997858 1.0893e-16
    outer loop
       vertex 0.0352473 -0.247861 0.1
       vertex 0.0026158 -0.25 0.1
       vertex 0.0026158 -0.25 0
    endloop
  endfacet
  facet normal -0.0654098 -0.997858 0
    outer loop
       vertex 0.0026158 -0.25 0.1
       vertex -0.0300157 -0.247861 0.1
       vertex -0.0300157 -0.247861 0
    endloop
  endfacet
  facet normal -0.0654098 -0.997858 -1.0893e-16
    outer loop
       vertex -0.0300157 -0.247861 0
       vertex 0.0026158 -0.25 0
       vertex 0.0026158 -0.25 0.1
    endloop
  endfacet
  facet normal -0.195096 -0.980784 0
    outer loop
       vertex -0.0300157 -0.247861 0
       vertex -0.0300157 -0.247861 0.1
       vertex -0.0620892 -0.241481 0.1
    endloop
  endfacet
  facet normal -0.195096 -0.980784 -0
    outer loop
       vertex -0.0620892 -0.241481 0.1
       vertex -0.0620892 -0.241481 0
       vertex -0.0300157 -0.247861 0
    endloop
  endfacet
  facet normal -0.321425 -0.946935 0
    outer loop
       vertex -0.0620892 -0.241481 0
       vertex -0.0620892 -0.241481 0.1
       vertex -0.0930552 -0.23097 0.1
    endloop
  endfacet
  facet normal -0.321425 -0.946935 -0
    outer loop
       vertex -0.0930552 -0.23097 0.1
       vertex -0.0930552 -0.23097 0
       vertex -0.0620892 -0.241481 0
    endloop
  endfacet
  facet normal -0.442302 -0.896866 0
    outer loop
       vertex -0.0930552 -0.23097 0
       vertex -0.0930552 -0.23097 0.1
       vertex -0.122384 -0.216506 0.1
    endloop
  endfacet
  facet normal -0.442302 -0.896866 -0
    outer loop
       vertex -0.122384 -0.216506 0.1
       vertex -0.122384 -0.216506 0
       vertex -0.0930552 -0.23097 0
    endloop
  endfacet
  facet normal -0.555561 -0.831476 0
    outer loop
       vertex -0.122384 -0.216506 0
       vertex -0.122384 -0.216506 0.1
       vertex -0.149575 -0.198338 0.1
    endloop
  endfacet
  facet normal -0.555561 -0.831476 -0
    outer loop
       vertex -0.149575 -0.198338 0.1
       vertex -0.149575 -0.198338 0
       vertex -0.122384 -0.216506 0
    endloop
  endfacet
  facet normal -0.659372 -0.751817 0
    outer loop
       vertex -0.149575 -0.198338 0
       vertex -0.149575 -0.198338 0.1
       vertex -0.17416 -0.176776 0.1
    endloop
  endfacet
  facet normal -0.659372 -0.751817 -0
    outer loop
       vertex -0.17416 -0.176776 0.1
       vertex -0.17416 -0.176776 0
       vertex -0.149575 -0.198338 0
    endloop
  endfacet
endsolid cylinder
