solid cylinder
  facet normal 0.751817 -0.659372 0
    outer loop
       vertex 0.0745232 -0.176776 0
       vertex 0.0960852 -0.152191 0
       vertex 0.0960852 -0.152191 0.1
    endloop
  endfacet
  facet normal 0.751817 -0.659372 0
    outer loop
       vertex 0.0960852 -0.152191 0.1
       vertex 0.0745232 -0.176776 0.1
       vertex 0.0745232 -0.176776 0
    endloop
  endfacet
  facet normal 0.831476 -0.555561 0
    outer loop
       vertex 0.0960852 -0.152191 0
       vertex 0.114253 -0.125 0
       vertex 0.114253 -0.125 0.1
    endloop
  endfacet
  facet normal 0.831476 -0.555561 0
    outer loop
       vertex 0.114253 -0.125 0.1
       vertex 0.0960852 -0.152191 0.1
       vertex 0.0960852 -0.152191 0
    endloop
  endfacet
  facet normal 0.896866 -0.442302 0
    outer loop
       vertex 0.114253 -0.125 0
       vertex 0.128717 -0.095671 0
       vertex 0.128717 -0.095671 0.1
    endloop
  endfacet
  facet normal 0.896866 -0.442302 0
    outer loop
       vertex 0.128717 -0.095671 0.1
       vertex 0.114253 -0.125 0.1
       vertex 0.114253 -0.125 0
    endloop
  endfacet
  facet normal 0.946935 -0.321425 0
    outer loop
       vertex 0.128717 -0.095671 0
       vertex 0.139228 -0.064705 0
       vertex 0.139228 -0.064705 0.1
    endloop
  endfacet
  facet normal 0.946935 -0.321425 0
    outer loop
       vertex 0.139228 -0.064705 0.1
       vertex 0.128717 -0.095671 0.1
       vertex 0.128717 -0.095671 0
    endloop
  endfacet
  facet normal 0.980784 -0.195096 0
    outer loop
       vertex 0.139228 -0.064705 0
       vertex 0.145608 -0.0326315 0
       vertex 0.145608 -0.0326315 0.1
    endloop
  endfacet
  facet normal 0.980784 -0.195096 0
    outer loop
       vertex 0.145608 -0.0326315 0.1
       vertex 0.139228 -0.064705 0.1
       vertex 0.139228 -0.064705 0
    endloop
  endfacet
  facet normal 0.997858 -0.0654098 0
    outer loop
       vertex 0.147747 -8.32665e-17 0.1
       vertex 0.145608 -0.0326315 0.1
       vertex 0.145608 -0.0326315 0
    endloop
  endfacet
  facet normal 0.997858 -0.0654098 -1.08928e-16
    outer loop
       vertex 0.145608 -0.0326315 0
       vertex 0.147747 8.32665e-17 0
       vertex 0.147747 -8.32665e-17 0.1
    endloop
  endfacet
  facet normal 0.997858 0.0654098 0
    outer loop
       vertex 0.147747 8.32665e-17 0
       vertex 0.145608 0.0326315 0
       vertex 0.145608 0.0326315 0.1
    endloop
  endfacet
  facet normal 0.997858 0.0654098 1.08928e-16
    outer loop
       vertex 0.145608 0.0326315 0.1
       vertex 0.147747 -8.32665e-17 0.1
       vertex 0.147747 8.32665e-17 0
    endloop
  endfacet
  facet normal 0.980784 0.195096 0
    outer loop
       vertex 0.145608 0.0326315 0
       vertex 0.139228 0.064705 0
       vertex 0.139228 0.064705 0.1
    endloop
  endfacet
  facet normal 0.980784 0.195096 0
    outer loop
       vertex 0.139228 0.064705 0.1
       vertex 0.145608 0.0326315 0.1
       vertex 0.145608 0.0326315 0
    endloop
  endfacet
  facet normal 0.946935 0.321425 0
    outer loop
       vertex 0.139228 0.064705 0
       vertex 0.128717 0.095671 0
       vertex 0.128717 0.095671 0.1
    endloop
  endfacet
  facet normal 0.946935 0.321425 0
    outer loop
       vertex 0.128717 0.095671 0.1
       vertex 0.139228 0.064705 0.1
       vertex 0.139228 0.064705 0
    endloop
  endfacet
  facet normal 0.896866 0.442302 0
    outer loop
       vertex 0.128717 0.095671 0
       vertex 0.114253 0.125 0
       vertex 0.114253 0.125 0.1
    endloop
  endfacet
  facet normal 0.896866 0.442302 0
    outer loop
       vertex 0.114253 0.125 0.1
       vertex 0.128717 0.095671 0.1
       vertex 0.128717 0.095671 0
    endloop
  endfacet
  facet normal 0.831476 0.555561 0
    outer loop
       vertex 0.114253 0.125 0
       vertex 0.0960852 0.152191 0
       vertex 0.0960852 0.152191 0.1
    endloop
  endfacet
  facet normal 0.831476 0.555561 0
    outer loop
       vertex 0.0960852 0.152191 0.1
       vertex 0.114253 0.125 0.1
       vertex 0.114253 0.125 0
    endloop
  endfacet
  facet normal 0.751817 0.659372 0
    outer loop
       vertex 0.0960852 0.152191 0
       vertex 0.0745232 0.176776 0
       vertex 0.0745232 0.176776 0.1
    endloop
  endfacet
  facet normal 0.751817 0.659372 0
    outer loop
       vertex 0.0745232 0.176776 0.1
       vertex 0.0960852 0.152191 0.1
       vertex 0.0960852 0.152191 0
    endloop
  endfacet
  facet normal 0.659372 0.751817 0
    outer loop
       vertex 0.0745232 0.176776 0
       vertex 0.0499382 0.198338 0
       vertex 0.0499382 0.198338 0.1
    endloop
  endfacet
  facet normal 0.659372 0.751817 0
    outer loop
       vertex 0.0499382 0.198338 0.1
       vertex 0.0745232 0.176776 0.1
       vertex 0.0745232 0.176776 0
    endloop
  endfacet
  facet normal 0.555561 0.831476 0
    outer loop
       vertex 0.0499382 0.198338 0
       vertex 0.0227472 0.216506 0
       vertex 0.0227472 0.216506 0.1
    endloop
  endfacet
  facet normal 0.555561 0.831476 0
    outer loop
       vertex 0.0227472 0.216506 0.1
       vertex 0.0499382 0.198338 0.1
       vertex 0.0499382 0.198338 0
    endloop
  endfacet
  facet normal 0.442302 0.896866 0
    outer loop
       vertex 0.0227472 0.216506 0
       vertex -0.00658176 0.23097 0
       vertex -0.00658176 0.23097 0.1
    endloop
  endfacet
  facet normal 0.442302 0.896866 0
    outer loop
       vertex -0.00658176 0.23097 0.1
       vertex 0.0227472 0.216506 0.1
       vertex 0.0227472 0.216506 0
    endloop
  endfacet
  facet normal 0.321425 0.946935 0
    outer loop
       vertex -0.00658176 0.23097 0
       vertex -0.0375478 0.241481 0
       vertex -0.0375478 0.241481 0.1
    endloop
  endfacet
  facet normal 0.321425 0.946935 0
    outer loop
       vertex -0.0375478 0.241481 0.1
       vertex -0.00658176 0.23097 0.1
       vertex -0.00658176 0.23097 0
    endloop
  endfacet
  facet normal 0.195096 0.980784 0
    outer loop
       vertex -0.0375478 0.241481 0
       vertex -0.0696213 0.247861 0
       vertex -0.0696213 0.247861 0.1
    endloop
  endfacet
  facet normal 0.195096 0.980784 0
    outer loop
       vertex -0.0696213 0.247861 0.1
       vertex -0.0375478 0.241481 0.1
       vertex -0.0375478 0.241481 0
    endloop
  endfacet
  facet normal 0.0654098 0.997858 0
    outer loop
       vertex -0.102253 0.25 0.1
       vertex -0.0696213 0.247861 0.1
       vertex -0.0696213 0.247861 0
    endloop
  endfacet
  facet normal 0.0654098 0.997858 -1.08928e-16
    outer loop
       vertex -0.0696213 0.247861 0
       vertex -0.102253 0.25 0
       vertex -0.102253 0.25 0.1
    endloop
  endfacet
  facet normal -0.0654098 0.997858 0
    outer loop
       vertex -0.102253 0.25 0
       vertex -0.134884 0.247861 0
       vertex -0.134884 0.247861 0.1
    endloop
  endfacet
  facet normal -0.0654098 0.997858 1.08928e-16
    outer loop
       vertex -0.134884 0.247861 0.1
       vertex -0.102253 0.25 0.1
       vertex -0.102253 0.25 0
    endloop
  endfacet
  facet normal -0.195096 0.980784 0
    outer loop
       vertex -0.134884 0.247861 0
       vertex -0.166958 0.241481 0
       vertex -0.166958 0.241481 0.1
    endloop
  endfacet
  facet normal -0.195096 0.980784 0
    outer loop
       vertex -0.166958 0.241481 0.1
       vertex -0.134884 0.247861 0.1
       vertex -0.134884 0.247861 0
    endloop
  endfacet
  facet normal -0.321425 0.946935 0
    outer loop
       vertex -0.166958 0.241481 0
       vertex -0.197924 0.23097 0
       vertex -0.197924 0.23097 0.1
    endloop
  endfacet
  facet normal -0.321425 0.946935 0
    outer loop
       vertex -0.197924 0.23097 0.1
       vertex -0.166958 0.241481 0.1
       vertex -0.166958 0.241481 0
    endloop
  endfacet
  facet normal -0.442302 0.896866 0
    outer loop
       vertex -0.197924 0.23097 0
       vertex -0.227253 0.216506 0
       vertex -0.227253 0.216506 0.1
    endloop
  endfacet
  facet normal -0.442302 0.896866 0
    outer loop
       vertex -0.227253 0.216506 0.1
       vertex -0.197924 0.23097 0.1
       vertex -0.197924 0.23097 0
    endloop
  endfacet
  facet normal -0.555561 0.831476 0
    outer loop
       vertex -0.227253 0.216506 0
       vertex -0.254444 0.198338 0
       vertex -0.254444 0.198338 0.1
    endloop
  endfacet
  facet normal -0.555561 0.831476 0
    outer loop
       vertex -0.254444 0.198338 0.1
       vertex -0.227253 0.216506 0.1
       vertex -0.227253 0.216506 0
    endloop
  endfacet
  facet normal -0.659372 0.751817 0
    outer loop
       vertex -0.254444 0.198338 0
       vertex -0.279029 0.176776 0
       vertex -0.279029 0.176776 0.1
    endloop
  endfacet
  facet normal -0.659372 0.751817 0
    outer loop
       vertex -0.279029 0.176776 0.1
       vertex -0.254444 0.198338 0.1
       vertex -0.254444 0.198338 0
    endloop
  endfacet
  facet normal -0.751817 0.659372 0
    outer loop
       vertex -0.279029 0.176776 0
       vertex -0.300591 0.152191 0
       vertex -0.300591 0.152191 0.1
    endloop
  endfacet
  facet normal -0.751817 0.659372 0
    outer loop
       vertex -0.300591 0.152191 0.1
       vertex -0.279029 0.176776 0.1
       vertex -0.279029 0.176776 0
    endloop
  endfacet
  facet normal -0.831476 0.555561 0
    outer loop
       vertex -0.300591 0.152191 0
       vertex -0.318759 0.125 0
       vertex -0.318759 0.125 0.1
    endloop
  endfacet
  facet normal -0.831476 0.555561 0
    outer loop
       vertex -0.318759 0.125 0.1
       vertex -0.300591 0.152191 0.1
       vertex -0.300591 0.152191 0
    endloop
  endfacet
  facet normal -0.896866 0.442302 0
    outer loop
       vertex -0.318759 0.125 0
       vertex -0.333223 0.095671 0
       vertex -0.333223 0.095671 0.1
    endloop
  endfacet
  facet normal -0.896866 0.442302 0
    outer loop
       vertex -0.333223 0.095671 0.1
       vertex -0.318759 0.125 0.1
       vertex -0.318759 0.125 0
    endloop
  endfacet
  facet normal -0.946935 0.321425 0
    outer loop
       vertex -0.333223 0.095671 0
       vertex -0.343734 0.064705 0
       vertex -0.343734 0.064705 0.1
    endloop
  endfacet
  facet normal -0.946935 0.321425 0
    outer loop
       vertex -0.343734 0.064705 0.1
       vertex -0.333223 0.095671 0.1
       vertex -0.333223 0.095671 0
    endloop
  endfacet
  facet normal -0.980784 0.195096 0
    outer loop
       vertex -0.343734 0.064705 0
       vertex -0.350114 0.0326315 0
       vertex -0.350114 0.0326315 0.1
    endloop
  endfacet
  facet normal -0.980784 0.195096 0
    outer loop
       vertex -0.350114 0.0326315 0.1
       vertex -0.343734 0.064705 0.1
       vertex -0.343734 0.064705 0
    endloop
  endfacet
  facet normal -0.997858 0.0654098 0
    outer loop
       vertex -0.352253 8.32665e-17 0.1
       vertex -0.350114 0.0326315 0.1
       vertex -0.350114 0.0326315 0
    endloop
  endfacet
  facet normal -0.997858 0.0654098 -1.08928e-16
    outer loop
       vertex -0.350114 0.0326315 0
       vertex -0.352253 -8.32665e-17 0
       vertex -0.352253 8.32665e-17 0.1
    endloop
  endfacet
  facet normal -0.997858 -0.0654098 0
    outer loop
       vertex -0.352253 -8.32665e-17 0
       vertex -0.350114 -0.0326315 0
       vertex -0.350114 -0.0326315 0.1
    endloop
  endfacet
  facet normal -0.997858 -0.0654098 1.08928e-16
    outer loop
       vertex -0.350114 -0.0326315 0.1
       vertex -0.352253 8.32665e-17 0.1
       vertex -0.352253 -8.32665e-17 0
    endloop
  endfacet
  facet normal -0.980784 -0.195096 0
    outer loop
       vertex -0.350114 -0.0326315 0
       vertex -0.343734 -0.064705 0
       vertex -0.343734 -0.064705 0.1
    endloop
  endfacet
  facet normal -0.980784 -0.195096 0
    outer loop
       vertex -0.343734 -0.064705 0.1
       vertex -0.350114 -0.0326315 0.1
       vertex -0.350114 -0.0326315 0
    endloop
  endfacet
  facet normal -0.946935 -0.321425 0
    outer loop
       vertex -0.343734 -0.064705 0
       vertex -0.333223 -0.095671 0
       vertex -0.333223 -0.095671 0.1
    endloop
  endfacet
  facet normal -0.946935 -0.321425 0
    outer loop
       vertex -0.333223 -0.095671 0.1
       vertex -0.343734 -0.064705 0.1
       vertex -0.343734 -0.064705 0
    endloop
  endfacet
  facet normal -0.896866 -0.442302 0
    outer loop
       vertex -0.333223 -0.095671 0
       vertex -0.318759 -0.125 0
       vertex -0.318759 -0.125 0.1
    endloop
  endfacet
  facet normal -0.896866 -0.442302 0
    outer loop
       vertex -0.318759 -0.125 0.1
       vertex -0.333223 -0.095671 0.1
       vertex -0.333223 -0.095671 0
    endloop
  endfacet
  facet normal -0.831476 -0.555561 0
    outer loop
       vertex -0.318759 -0.125 0
       vertex -0.300591 -0.152191 0
       vertex -0.300591 -0.152191 0.1
    endloop
  endfacet
  facet normal -0.831476 -0.555561 0
    outer loop
       vertex -0.300591 -0.152191 0.1
       vertex -0.318759 -0.125 0.1
       vertex -0.318759 -0.125 0
    endloop
  endfacet
  facet normal -0.751817 -0.659372 0
    outer loop
       vertex -0.300591 -0.152191 0
       vertex -0.279029 -0.176776 0
       vertex -0.279029 -0.176776 0.1
    endloop
  endfacet
  facet normal -0.751817 -0.659372 0
    outer loop
       vertex -0.279029 -0.176776 0.1
       vertex -0.300591 -0.152191 0.1
       vertex -0.300591 -0.152191 0
    endloop
  endfacet
  facet normal 0.659372 -0.751817 0
    outer loop
       vertex 0.0745232 -0.176776 0
       vertex 0.0745232 -0.176776 0.1
       vertex 0.0499382 -0.198338 0.1
    endloop
  endfacet
  facet normal 0.659372 -0.751817 0
    outer loop
       vertex 0.0499382 -0.198338 0.1
       vertex 0.0499382 -0.198338 0
       vertex 0.0745232 -0.176776 0
    endloop
  endfacet
  facet normal 0.555561 -0.831476 0
    outer loop
       vertex 0.0499382 -0.198338 0
       vertex 0.0499382 -0.198338 0.1
       vertex 0.0227472 -0.216506 0.1
    endloop
  endfacet
  facet normal 0.555561 -0.831476 0
    outer loop
       vertex 0.0227472 -0.216506 0.1
       vertex 0.0227472 -0.216506 0
       vertex 0.0499382 -0.198338 0
    endloop
  endfacet
  facet normal 0.442302 -0.896866 0
    outer loop
       vertex 0.0227472 -0.216506 0
       vertex 0.0227472 -0.216506 0.1
       vertex -0.00658176 -0.23097 0.1
    endloop
  endfacet
  facet normal 0.442302 -0.896866 0
    outer loop
       vertex -0.00658176 -0.23097 0.1
       vertex -0.00658176 -0.23097 0
       vertex 0.0227472 -0.216506 0
    endloop
  endfacet
  facet normal 0.321425 -0.946935 0
    outer loop
       vertex -0.00658176 -0.23097 0
       vertex -0.00658176 -0.23097 0.1
       vertex -0.0375478 -0.241481 0.1
    endloop
  endfacet
  facet normal 0.321425 -0.946935 0
    outer loop
       vertex -0.0375478 -0.241481 0.1
       vertex -0.0375478 -0.241481 0
       vertex -0.00658176 -0.23097 0
    endloop
  endfacet
  facet normal 0.195096 -0.980784 0
    outer loop
       vertex -0.0375478 -0.241481 0
       vertex -0.0375478 -0.241481 0.1
       vertex -0.0696213 -0.247861 0.1
    endloop
  endfacet
  facet normal 0.195096 -0.980784 0
    outer loop
       vertex -0.0696213 -0.247861 0.1
       vertex -0.0696213 -0.247861 0
       vertex -0.0375478 -0.241481 0
    endloop
  endfacet
  facet normal 0.0654098 -0.997858 0
    outer loop
       vertex -0.102253 -0.25 0
       vertex -0.0696213 -0.247861 0
       vertex -0.0696213 -0.247861 0.1
    endloop
  endfacet
  facet normal 0.0654098 -0.997858 1.08928e-16
    outer loop
       vertex -0.0696213 -0.247861 0.1
       vertex -0.102253 -0.25 0.1
       vertex -0.102253 -0.25 0
    endloop
  endfacet
  facet normal -0.0654098 -0.997858 0
    outer loop
       vertex -0.102253 -0.25 0.1
       vertex -0.134884 -0.247861 0.1
       vertex -0.134884 -0.247861 0
    endloop
  endfacet
  facet normal -0.0654098 -0.997858 -1.08928e-16
    outer loop
       vertex -0.134884 -0.247861 0
       vertex -0.102253 -0.25 0
       vertex -0.102253 -0.25 0.1
    endloop
  endfacet
  facet normal -0.195096 -0.980784 0
    outer loop
       vertex -0.134884 -0.247861 0
       vertex -0.134884 -0.247861 0.1
       vertex -0.166958 -0.241481 0.1
    endloop
  endfacet
  facet normal -0.195096 -0.980784 -0
    outer loop
       vertex -0.166958 -0.241481 0.1
       vertex -0.166958 -0.241481 0
       vertex -0.134884 -0.247861 0
    endloop
  endfacet
  facet normal -0.321425 -0.946935 0
    outer loop
       vertex -0.166958 -0.241481 0
       vertex -0.166958 -0.241481 0.1
       vertex -0.197924 -0.23097 0.1
    endloop
  endfacet
  facet normal -0.321425 -0.946935 -0
    outer loop
       vertex -0.197924 -0.23097 0.1
       vertex -0.197924 -0.23097 0
       vertex -0.166958 -0.241481 0
    endloop
  endfacet
  facet normal -0.442302 -0.896866 0
    outer loop
       vertex -0.197924 -0.23097 0
       vertex -0.197924 -0.23097 0.1
       vertex -0.227253 -0.216506 0.1
    endloop
  endfacet
  facet normal -0.442302 -0.896866 -0
    outer loop
       vertex -0.227253 -0.216506 0.1
       vertex -0.227253 -0.216506 0
       vertex -0.197924 -0.23097 0
    endloop
  endfacet
  facet normal -0.555561 -0.831476 0
    outer loop
       vertex -0.227253 -0.216506 0
       vertex -0.227253 -0.216506 0.1
       vertex -0.254444 -0.198338 0.1
    endloop
  endfacet
  facet normal -0.555561 -0.831476 -0
    outer loop
       vertex -0.254444 -0.198338 0.1
       vertex -0.254444 -0.198338 0
       vertex -0.227253 -0.216506 0
    endloop
  endfacet
  facet normal -0.659372 -0.751817 0
    outer loop
       vertex -0.254444 -0.198338 0
       vertex -0.254444 -0.198338 0.1
       vertex -0.279029 -0.176776 0.1
    endloop
  endfacet
  facet normal -0.659372 -0.751817 -0
    outer loop
       vertex -0.279029 -0.176776 0.1
       vertex -0.279029 -0.176776 0
       vertex -0.254444 -0.198338 0
    endloop
  endfacet
endsolid cylinder
