solid cylinder
  facet normal 0.751817 -0.659372 0
    outer loop
       vertex 0.418742 -0.176776 0
       vertex 0.440304 -0.152191 0
       vertex 0.440304 -0.152191 0.1
    endloop
  endfacet
  facet normal 0.751817 -0.659372 0
    outer loop
       vertex 0.440304 -0.152191 0.1
       vertex 0.418742 -0.176776 0.1
       vertex 0.418742 -0.176776 0
    endloop
  endfacet
  facet normal 0.831476 -0.555561 0
    outer loop
       vertex 0.440304 -0.152191 0
       vertex 0.458472 -0.125 0
       vertex 0.458472 -0.125 0.1
    endloop
  endfacet
  facet normal 0.831476 -0.555561 0
    outer loop
       vertex 0.458472 -0.125 0.1
       vertex 0.440304 -0.152191 0.1
       vertex 0.440304 -0.152191 0
    endloop
  endfacet
  facet normal 0.896866 -0.442302 0
    outer loop
       vertex 0.458472 -0.125 0
       vertex 0.472936 -0.095671 0
       vertex 0.472936 -0.095671 0.1
    endloop
  endfacet
  facet normal 0.896866 -0.442302 0
    outer loop
       vertex 0.472936 -0.095671 0.1
       vertex 0.458472 -0.125 0.1
       vertex 0.458472 -0.125 0
    endloop
  endfacet
  facet normal 0.946935 -0.321425 0
    outer loop
       vertex 0.472936 -0.095671 0
       vertex 0.483447 -0.064705 0
       vertex 0.483447 -0.064705 0.1
    endloop
  endfacet
  facet normal 0.946935 -0.321425 0
    outer loop
       vertex 0.483447 -0.064705 0.1
       vertex 0.472936 -0.095671 0.1
       vertex 0.472936 -0.095671 0
    endloop
  endfacet
  facet normal 0.980784 -0.195096 0
    outer loop
       vertex 0.483447 -0.064705 0
       vertex 0.489827 -0.0326315 0
       vertex 0.489827 -0.0326315 0.1
    endloop
  endfacet
  facet normal 0.980784 -0.195096 0
    outer loop
       vertex 0.489827 -0.0326315 0.1
       vertex 0.483447 -0.064705 0.1
       vertex 0.483447 -0.064705 0
    endloop
  endfacet
  facet normal 0.997858 -0.0654098 0
    outer loop
       vertex 0.491966 -8.32665e-17 0.1
       vertex 0.489827 -0.0326315 0.1
       vertex 0.489827 -0.0326315 0
    endloop
  endfacet
  facet normal 0.997858 -0.0654098 -1.08928e-16
    outer loop
       vertex 0.489827 -0.0326315 0
       vertex 0.491966 8.32665e-17 0
       vertex 0.491966 -8.32665e-17 0.1
    endloop
  endfacet
  facet normal 0.997858 0.0654098 0
    outer loop
       vertex 0.491966 8.32665e-17 0
       vertex 0.489827 0.0326315 0
       vertex 0.489827 0.0326315 0.1
    endloop
  endfacet
  facet normal 0.997858 0.0654098 1.08928e-16
    outer loop
       vertex 0.489827 0.0326315 0.1
       vertex 0.491966 -8.32665e-17 0.1
       vertex 0.491966 8.32665e-17 0
    endloop
  endfacet
  facet normal 0.980784 0.195096 0
    outer loop
       vertex 0.489827 0.0326315 0
       vertex 0.483447 0.064705 0
       vertex 0.483447 0.064705 0.1
    endloop
  endfacet
  facet normal 0.980784 0.195096 0
    outer loop
       vertex 0.483447 0.064705 0.1
       vertex 0.489827 0.0326315 0.1
       vertex 0.489827 0.0326315 0
    endloop
  endfacet
  facet normal 0.946935 0.321425 0
    outer loop
       vertex 0.483447 0.064705 0
       vertex 0.472936 0.095671 0
       vertex 0.472936 0.095671 0.1
    endloop
  endfacet
  facet normal 0.946935 0.321425 0
    outer loop
       vertex 0.472936 0.095671 0.1
       vertex 0.483447 0.064705 0.1
       vertex 0.483447 0.064705 0
    endloop
  endfacet
  facet normal 0.896866 0.442302 0
    outer loop
       vertex 0.472936 0.095671 0
       vertex 0.458472 0.125 0
       vertex 0.458472 0.125 0.1
    endloop
  endfacet
  facet normal 0.896866 0.442302 0
    outer loop
       vertex 0.458472 0.125 0.1
       vertex 0.472936 0.095671 0.1
       vertex 0.472936 0.095671 0
    endloop
  endfacet
  facet normal 0.831476 0.555561 0
    outer loop
       vertex 0.458472 0.125 0
       vertex 0.440304 0.152191 0
       vertex 0.440304 0.152191 0.1
    endloop
  endfacet
  facet normal 0.831476 0.555561 0
    outer loop
       vertex 0.440304 0.152191 0.1
       vertex 0.458472 0.125 0.1
       vertex 0.458472 0.125 0
    endloop
  endfacet
  facet normal 0.751817 0.659372 0
    outer loop
       vertex 0.440304 0.152191 0
       vertex 0.418742 0.176776 0
       vertex 0.418742 0.176776 0.1
    endloop
  endfacet
  facet normal 0.751817 0.659372 0
    outer loop
       vertex 0.418742 0.176776 0.1
       vertex 0.440304 0.152191 0.1
       vertex 0.440304 0.152191 0
    endloop
  endfacet
  facet normal 0.659372 0.751817 0
    outer loop
       vertex 0.418742 0.176776 0
       vertex 0.394157 0.198338 0
       vertex 0.394157 0.198338 0.1
    endloop
  endfacet
  facet normal 0.659372 0.751817 0
    outer loop
       vertex 0.394157 0.198338 0.1
       vertex 0.418742 0.176776 0.1
       vertex 0.418742 0.176776 0
    endloop
  endfacet
  facet normal 0.555561 0.831476 0
    outer loop
       vertex 0.394157 0.198338 0
       vertex 0.366966 0.216506 0
       vertex 0.366966 0.216506 0.1
    endloop
  endfacet
  facet normal 0.555561 0.831476 0
    outer loop
       vertex 0.366966 0.216506 0.1
       vertex 0.394157 0.198338 0.1
       vertex 0.394157 0.198338 0
    endloop
  endfacet
  facet normal 0.442302 0.896866 0
    outer loop
       vertex 0.366966 0.216506 0
       vertex 0.337637 0.23097 0
       vertex 0.337637 0.23097 0.1
    endloop
  endfacet
  facet normal 0.442302 0.896866 0
    outer loop
       vertex 0.337637 0.23097 0.1
       vertex 0.366966 0.216506 0.1
       vertex 0.366966 0.216506 0
    endloop
  endfacet
  facet normal 0.321425 0.946935 0
    outer loop
       vertex 0.337637 0.23097 0
       vertex 0.306671 0.241481 0
       vertex 0.306671 0.241481 0.1
    endloop
  endfacet
  facet normal 0.321425 0.946935 0
    outer loop
       vertex 0.306671 0.241481 0.1
       vertex 0.337637 0.23097 0.1
       vertex 0.337637 0.23097 0
    endloop
  endfacet
  facet normal 0.195096 0.980784 0
    outer loop
       vertex 0.306671 0.241481 0
       vertex 0.274597 0.247861 0
       vertex 0.274597 0.247861 0.1
    endloop
  endfacet
  facet normal 0.195096 0.980784 0
    outer loop
       vertex 0.274597 0.247861 0.1
       vertex 0.306671 0.241481 0.1
       vertex 0.306671 0.241481 0
    endloop
  endfacet
  facet normal 0.0654098 0.997858 0
    outer loop
       vertex 0.241966 0.25 0.1
       vertex 0.274597 0.247861 0.1
       vertex 0.274597 0.247861 0
    endloop
  endfacet
  facet normal 0.0654098 0.997858 -1.0893e-16
    outer loop
       vertex 0.274597 0.247861 0
       vertex 0.241966 0.25 0
       vertex 0.241966 0.25 0.1
    endloop
  endfacet
  facet normal -0.0654098 0.997858 0
    outer loop
       vertex 0.241966 0.25 0
       vertex 0.209334 0.247861 0
       vertex 0.209334 0.247861 0.1
    endloop
  endfacet
  facet normal -0.0654098 0.997858 1.0893e-16
    outer loop
       vertex 0.209334 0.247861 0.1
       vertex 0.241966 0.25 0.1
       vertex 0.241966 0.25 0
    endloop
  endfacet
  facet normal -0.195096 0.980784 0
    outer loop
       vertex 0.209334 0.247861 0
       vertex 0.177261 0.241481 0
       vertex 0.177261 0.241481 0.1
    endloop
  endfacet
  facet normal -0.195096 0.980784 0
    outer loop
       vertex 0.177261 0.241481 0.1
       vertex 0.209334 0.247861 0.1
       vertex 0.209334 0.247861 0
    endloop
  endfacet
  facet normal -0.321425 0.946935 0
    outer loop
       vertex 0.177261 0.241481 0
       vertex 0.146295 0.23097 0
       vertex 0.146295 0.23097 0.1
    endloop
  endfacet
  facet normal -0.321425 0.946935 0
    outer loop
       vertex 0.146295 0.23097 0.1
       vertex 0.177261 0.241481 0.1
       vertex 0.177261 0.241481 0
    endloop
  endfacet
  facet normal -0.442302 0.896866 0
    outer loop
       vertex 0.146295 0.23097 0
       vertex 0.116966 0.216506 0
       vertex 0.116966 0.216506 0.1
    endloop
  endfacet
  facet normal -0.442302 0.896866 0
    outer loop
       vertex 0.116966 0.216506 0.1
       vertex 0.146295 0.23097 0.1
       vertex 0.146295 0.23097 0
    endloop
  endfacet
  facet normal -0.555561 0.831476 0
    outer loop
       vertex 0.116966 0.216506 0
       vertex 0.0897749 0.198338 0
       vertex 0.0897749 0.198338 0.1
    endloop
  endfacet
  facet normal -0.555561 0.831476 0
    outer loop
       vertex 0.0897749 0.198338 0.1
       vertex 0.116966 0.216506 0.1
       vertex 0.116966 0.216506 0
    endloop
  endfacet
  facet normal -0.659372 0.751817 0
    outer loop
       vertex 0.0897749 0.198338 0
       vertex 0.0651899 0.176776 0
       vertex 0.0651899 0.176776 0.1
    endloop
  endfacet
  facet normal -0.659372 0.751817 0
    outer loop
       vertex 0.0651899 0.176776 0.1
       vertex 0.0897749 0.198338 0.1
       vertex 0.0897749 0.198338 0
    endloop
  endfacet
  facet normal -0.751817 0.659372 0
    outer loop
       vertex 0.0651899 0.176776 0
       vertex 0.0436279 0.152191 0
       vertex 0.0436279 0.152191 0.1
    endloop
  endfacet
  facet normal -0.751817 0.659372 0
    outer loop
       vertex 0.0436279 0.152191 0.1
       vertex 0.0651899 0.176776 0.1
       vertex 0.0651899 0.176776 0
    endloop
  endfacet
  facet normal -0.831476 0.555561 0
    outer loop
       vertex 0.0436279 0.152191 0
       vertex 0.0254599 0.125 0
       vertex 0.0254599 0.125 0.1
    endloop
  endfacet
  facet normal -0.831476 0.555561 0
    outer loop
       vertex 0.0254599 0.125 0.1
       vertex 0.0436279 0.152191 0.1
       vertex 0.0436279 0.152191 0
    endloop
  endfacet
  facet normal -0.896866 0.442302 0
    outer loop
       vertex 0.0254599 0.125 0
       vertex 0.0109959 0.095671 0
       vertex 0.0109959 0.095671 0.1
    endloop
  endfacet
  facet normal -0.896866 0.442302 0
    outer loop
       vertex 0.0109959 0.095671 0.1
       vertex 0.0254599 0.125 0.1
       vertex 0.0254599 0.125 0
    endloop
  endfacet
  facet normal -0.946935 0.321425 0
    outer loop
       vertex 0.0109959 0.095671 0
       vertex 0.000484925 0.064705 0
       vertex 0.000484925 0.064705 0.1
    endloop
  endfacet
  facet normal -0.946935 0.321425 0
    outer loop
       vertex 0.000484925 0.064705 0.1
       vertex 0.0109959 0.095671 0.1
       vertex 0.0109959 0.095671 0
    endloop
  endfacet
  facet normal -0.980784 0.195096 0
    outer loop
       vertex 0.000484925 0.064705 0
       vertex -0.00589507 0.0326315 0
       vertex -0.00589507 0.0326315 0.1
    endloop
  endfacet
  facet normal -0.980784 0.195096 0
    outer loop
       vertex -0.00589507 0.0326315 0.1
       vertex 0.000484925 0.064705 0.1
       vertex 0.000484925 0.064705 0
    endloop
  endfacet
  facet normal -0.997858 0.0654098 0
    outer loop
       vertex -0.00803407 8.32665e-17 0.1
       vertex -0.00589507 0.0326315 0.1
       vertex -0.00589507 0.0326315 0
    endloop
  endfacet
  facet normal -0.997858 0.0654098 -1.08928e-16
    outer loop
       vertex -0.00589507 0.0326315 0
       vertex -0.00803407 -8.32665e-17 0
       vertex -0.00803407 8.32665e-17 0.1
    endloop
  endfacet
  facet normal -0.997858 -0.0654098 0
    outer loop
       vertex -0.00803407 -8.32665e-17 0
       vertex -0.00589507 -0.0326315 0
       vertex -0.00589507 -0.0326315 0.1
    endloop
  endfacet
  facet normal -0.997858 -0.0654098 1.08928e-16
    outer loop
       vertex -0.00589507 -0.0326315 0.1
       vertex -0.00803407 8.32665e-17 0.1
       vertex -0.00803407 -8.32665e-17 0
    endloop
  endfacet
  facet normal -0.980784 -0.195096 0
    outer loop
       vertex -0.00589507 -0.0326315 0
       vertex 0.000484925 -0.064705 0
       vertex 0.000484925 -0.064705 0.1
    endloop
  endfacet
  facet normal -0.980784 -0.195096 0
    outer loop
       vertex 0.000484925 -0.064705 0.1
       vertex -0.00589507 -0.0326315 0.1
       vertex -0.00589507 -0.0326315 0
    endloop
  endfacet
  facet normal -0.946935 -0.321425 0
    outer loop
       vertex 0.000484925 -0.064705 0
       vertex 0.0109959 -0.095671 0
       vertex 0.0109959 -0.095671 0.1
    endloop
  endfacet
  facet normal -0.946935 -0.321425 0
    outer loop
       vertex 0.0109959 -0.095671 0.1
       vertex 0.000484925 -0.064705 0.1
       vertex 0.000484925 -0.064705 0
    endloop
  endfacet
  facet normal -0.896866 -0.442302 0
    outer loop
       vertex 0.0109959 -0.095671 0
       vertex 0.0254599 -0.125 0
       vertex 0.0254599 -0.125 0.1
    endloop
  endfacet
  facet normal -0.896866 -0.442302 0
    outer loop
       vertex 0.0254599 -0.125 0.1
       vertex 0.0109959 -0.095671 0.1
       vertex 0.0109959 -0.095671 0
    endloop
  endfacet
  facet normal -0.831476 -0.555561 0
    outer loop
       vertex 0.0254599 -0.125 0
       vertex 0.0436279 -0.152191 0
       vertex 0.0436279 -0.152191 0.1
    endloop
  endfacet
  facet normal -0.831476 -0.555561 0
    outer loop
       vertex 0.0436279 -0.152191 0.1
       vertex 0.0254599 -0.125 0.1
       vertex 0.0254599 -0.125 0
    endloop
  endfacet
  facet normal -0.751817 -0.659372 0
    outer loop
       vertex 0.0436279 -0.152191 0
       vertex 0.0651899 -0.176776 0
       vertex 0.0651899 -0.176776 0.1
    endloop
  endfacet
  facet normal -0.751817 -0.659372 0
    outer loop
       vertex 0.0651899 -0.176776 0.1
       vertex 0.0436279 -0.152191 0.1
       vertex 0.0436279 -0.152191 0
    endloop
  endfacet
  facet normal 0.659372 -0.751817 0
    outer loop
       vertex 0.418742 -0.176776 0
       vertex 0.418742 -0.176776 0.1
       vertex 0.394157 -0.198338 0.1
    endloop
  endfacet
  facet normal 0.659372 -0.751817 0
    outer loop
       vertex 0.394157 -0.198338 0.1
       vertex 0.394157 -0.198338 0
       vertex 0.418742 -0.176776 0
    endloop
  endfacet
  facet normal 0.555561 -0.831476 0
    outer loop
       vertex 0.394157 -0.198338 0
       vertex 0.394157 -0.198338 0.1
       vertex 0.366966 -0.216506 0.1
    endloop
  endfacet
  facet normal 0.555561 -0.831476 0
    outer loop
       vertex 0.366966 -0.216506 0.1
       vertex 0.366966 -0.216506 0
       vertex 0.394157 -0.198338 0
    endloop
  endfacet
  facet normal 0.442302 -0.896866 0
    outer loop
       vertex 0.366966 -0.216506 0
       vertex 0.366966 -0.216506 0.1
       vertex 0.337637 -0.23097 0.1
    endloop
  endfacet
  facet normal 0.442302 -0.896866 0
    outer loop
       vertex 0.337637 -0.23097 0.1
       vertex 0.337637 -0.23097 0
       vertex 0.366966 -0.216506 0
    endloop
  endfacet
  facet normal 0.321425 -0.946935 0
    outer loop
       vertex 0.337637 -0.23097 0
       vertex 0.337637 -0.23097 0.1
       vertex 0.306671 -0.241481 0.1
    endloop
  endfacet
  facet normal 0.321425 -0.946935 0
    outer loop
       vertex 0.306671 -0.241481 0.1
       vertex 0.306671 -0.241481 0
       vertex 0.337637 -0.23097 0
    endloop
  endfacet
  facet normal 0.195096 -0.980784 0
    outer loop
       vertex 0.306671 -0.241481 0
       vertex 0.306671 -0.241481 0.1
       vertex 0.274597 -0.247861 0.1
    endloop
  endfacet
  facet normal 0.195096 -0.980784 0
    outer loop
       vertex 0.274597 -0.247861 0.1
       vertex 0.274597 -0.247861 0
       vertex 0.306671 -0.241481 0
    endloop
  endfacet
  facet normal 0.0654098 -0.997858 0
    outer loop
       vertex 0.241966 -0.25 0
       vertex 0.274597 -0.247861 0
       vertex 0.274597 -0.247861 0.1
    endloop
  endfacet
  facet normal 0.0654098 -0.997858 1.0893e-16
    outer loop
       vertex 0.274597 -0.247861 0.1
       vertex 0.241966 -0.25 0.1
       vertex 0.241966 -0.25 0
    endloop
  endfacet
  facet normal -0.0654098 -0.997858 0
    outer loop
       vertex 0.241966 -0.25 0.1
       vertex 0.209334 -0.247861 0.1
       vertex 0.209334 -0.247861 0
    endloop
  endfacet
  facet normal -0.0654098 -0.997858 -1.0893e-16
    outer loop
       vertex 0.209334 -0.247861 0
       vertex 0.241966 -0.25 0
       vertex 0.241966 -0.25 0.1
    endloop
  endfacet
  facet normal -0.195096 -0.980784 0
    outer loop
       vertex 0.209334 -0.247861 0
       vertex 0.209334 -0.247861 0.1
       vertex 0.177261 -0.241481 0.1
    endloop
  endfacet
  facet normal -0.195096 -0.980784 -0
    outer loop
       vertex 0.177261 -0.241481 0.1
       vertex 0.177261 -0.241481 0
       vertex 0.209334 -0.247861 0
    endloop
  endfacet
  facet normal -0.321425 -0.946935 0
    outer loop
       vertex 0.177261 -0.241481 0
       vertex 0.177261 -0.241481 0.1
       vertex 0.146295 -0.23097 0.1
    endloop
  endfacet
  facet normal -0.321425 -0.946935 -0
    outer loop
       vertex 0.146295 -0.23097 0.1
       vertex 0.146295 -0.23097 0
       vertex 0.177261 -0.241481 0
    endloop
  endfacet
  facet normal -0.442302 -0.896866 0
    outer loop
       vertex 0.146295 -0.23097 0
       vertex 0.146295 -0.23097 0.1
       vertex 0.116966 -0.216506 0.1
    endloop
  endfacet
  facet normal -0.442302 -0.896866 -0
    outer loop
       vertex 0.116966 -0.216506 0.1
       vertex 0.116966 -0.216506 0
       vertex 0.146295 -0.23097 0
    endloop
  endfacet
  facet normal -0.555561 -0.831476 0
    outer loop
       vertex 0.116966 -0.216506 0
       vertex 0.116966 -0.216506 0.1
       vertex 0.0897749 -0.198338 0.1
    endloop
  endfacet
  facet normal -0.555561 -0.831476 -0
    outer loop
       vertex 0.0897749 -0.198338 0.1
       vertex 0.0897749 -0.198338 0
       vertex 0.116966 -0.216506 0
    endloop
  endfacet
  facet normal -0.659372 -0.751817 0
    outer loop
       vertex 0.0897749 -0.198338 0
       vertex 0.0897749 -0.198338 0.1
       vertex 0.0651899 -0.176776 0.1
    endloop
  endfacet
  facet normal -0.659372 -0.751817 -0
    outer loop
       vertex 0.0651899 -0.176776 0.1
       vertex 0.0651899 -0.176776 0
       vertex 0.0897749 -0.198338 0
    endloop
  endfacet
endsolid cylinder
