solid cylinder
  facet normal 0.751817 -0.659372 0
    outer loop
       vertex -0.117344 -0.176776 0
       vertex -0.0957817 -0.152191 0
       vertex -0.0957817 -0.152191 0.1
    endloop
  endfacet
  facet normal 0.751817 -0.659372 0
    outer loop
       vertex -0.0957817 -0.152191 0.1
       vertex -0.117344 -0.176776 0.1
       vertex -0.117344 -0.176776 0
    endloop
  endfacet
  facet normal 0.831476 -0.555561 0
    outer loop
       vertex -0.0957817 -0.152191 0
       vertex -0.0776137 -0.125 0
       vertex -0.0776137 -0.125 0.1
    endloop
  endfacet
  facet normal 0.831476 -0.555561 0
    outer loop
       vertex -0.0776137 -0.125 0.1
       vertex -0.0957817 -0.152191 0.1
       vertex -0.0957817 -0.152191 0
    endloop
  endfacet
  facet normal 0.896866 -0.442302 0
    outer loop
       vertex -0.0776137 -0.125 0
       vertex -0.0631497 -0.095671 0
       vertex -0.0631497 -0.095671 0.1
    endloop
  endfacet
  facet normal 0.896866 -0.442302 0
    outer loop
       vertex -0.0631497 -0.095671 0.1
       vertex -0.0776137 -0.125 0.1
       vertex -0.0776137 -0.125 0
    endloop
  endfacet
  facet normal 0.946935 -0.321425 0
    outer loop
       vertex -0.0631497 -0.095671 0
       vertex -0.0526387 -0.064705 0
       vertex -0.0526387 -0.064705 0.1
    endloop
  endfacet
  facet normal 0.946935 -0.321425 0
    outer loop
       vertex -0.0526387 -0.064705 0.1
       vertex -0.0631497 -0.095671 0.1
       vertex -0.0631497 -0.095671 0
    endloop
  endfacet
  facet normal 0.980784 -0.195096 0
    outer loop
       vertex -0.0526387 -0.064705 0
       vertex -0.0462587 -0.0326315 0
       vertex -0.0462587 -0.0326315 0.1
    endloop
  endfacet
  facet normal 0.980784 -0.195096 0
    outer loop
       vertex -0.0462587 -0.0326315 0.1
       vertex -0.0526387 -0.064705 0.1
       vertex -0.0526387 -0.064705 0
    endloop
  endfacet
  facet normal 0.997858 -0.0654098 0
    outer loop
       vertex -0.0441197 -8.32665e-17 0.1
       vertex -0.0462587 -0.0326315 0.1
       vertex -0.0462587 -0.0326315 0
    endloop
  endfacet
  facet normal 0.997858 -0.0654098 -1.08928e-16
    outer loop
       vertex -0.0462587 -0.0326315 0
       vertex -0.0441197 8.32665e-17 0
       vertex -0.0441197 -8.32665e-17 0.1
    endloop
  endfacet
  facet normal 0.997858 0.0654098 0
    outer loop
       vertex -0.0441197 8.32665e-17 0
       vertex -0.0462587 0.0326315 0
       vertex -0.0462587 0.0326315 0.1
    endloop
  endfacet
  facet normal 0.997858 0.0654098 1.08928e-16
    outer loop
       vertex -0.0462587 0.0326315 0.1
       vertex -0.0441197 -8.32665e-17 0.1
       vertex -0.0441197 8.32665e-17 0
    endloop
  endfacet
  facet normal 0.980784 0.195096 0
    outer loop
       vertex -0.0462587 0.0326315 0
       vertex -0.0526387 0.064705 0
       vertex -0.0526387 0.064705 0.1
    endloop
  endfacet
  facet normal 0.980784 0.195096 0
    outer loop
       vertex -0.0526387 0.064705 0.1
       vertex -0.0462587 0.0326315 0.1
       vertex -0.0462587 0.0326315 0
    endloop
  endfacet
  facet normal 0.946935 0.321425 0
    outer loop
       vertex -0.0526387 0.064705 0
       vertex -0.0631497 0.095671 0
       vertex -0.0631497 0.095671 0.1
    endloop
  endfacet
  facet normal 0.946935 0.321425 0
    outer loop
       vertex -0.0631497 0.095671 0.1
       vertex -0.0526387 0.064705 0.1
       vertex -0.0526387 0.064705 0
    endloop
  endfacet
  facet normal 0.896866 0.442302 0
    outer loop
       vertex -0.0631497 0.095671 0
       vertex -0.0776137 0.125 0
       vertex -0.0776137 0.125 0.1
    endloop
  endfacet
  facet normal 0.896866 0.442302 0
    outer loop
       vertex -0.0776137 0.125 0.1
       vertex -0.0631497 0.095671 0.1
       vertex -0.0631497 0.095671 0
    endloop
  endfacet
  facet normal 0.831476 0.555561 0
    outer loop
       vertex -0.0776137 0.125 0
       vertex -0.0957817 0.152191 0
       vertex -0.0957817 0.152191 0.1
    endloop
  endfacet
  facet normal 0.831476 0.555561 0
    outer loop
       vertex -0.0957817 0.152191 0.1
       vertex -0.0776137 0.125 0.1
       vertex -0.0776137 0.125 0
    endloop
  endfacet
  facet normal 0.751817 0.659372 0
    outer loop
       vertex -0.0957817 0.152191 0
       vertex -0.117344 0.176776 0
       vertex -0.117344 0.176776 0.1
    endloop
  endfacet
  facet normal 0.751817 0.659372 0
    outer loop
       vertex -0.117344 0.176776 0.1
       vertex -0.0957817 0.152191 0.1
       vertex -0.0957817 0.152191 0
    endloop
  endfacet
  facet normal 0.659372 0.751817 0
    outer loop
       vertex -0.117344 0.176776 0
       vertex -0.141929 0.198338 0
       vertex -0.141929 0.198338 0.1
    endloop
  endfacet
  facet normal 0.659372 0.751817 0
    outer loop
       vertex -0.141929 0.198338 0.1
       vertex -0.117344 0.176776 0.1
       vertex -0.117344 0.176776 0
    endloop
  endfacet
  facet normal 0.555561 0.831476 0
    outer loop
       vertex -0.141929 0.198338 0
       vertex -0.16912 0.216506 0
       vertex -0.16912 0.216506 0.1
    endloop
  endfacet
  facet normal 0.555561 0.831476 0
    outer loop
       vertex -0.16912 0.216506 0.1
       vertex -0.141929 0.198338 0.1
       vertex -0.141929 0.198338 0
    endloop
  endfacet
  facet normal 0.442302 0.896866 0
    outer loop
       vertex -0.16912 0.216506 0
       vertex -0.198449 0.23097 0
       vertex -0.198449 0.23097 0.1
    endloop
  endfacet
  facet normal 0.442302 0.896866 0
    outer loop
       vertex -0.198449 0.23097 0.1
       vertex -0.16912 0.216506 0.1
       vertex -0.16912 0.216506 0
    endloop
  endfacet
  facet normal 0.321425 0.946935 0
    outer loop
       vertex -0.198449 0.23097 0
       vertex -0.229415 0.241481 0
       vertex -0.229415 0.241481 0.1
    endloop
  endfacet
  facet normal 0.321425 0.946935 0
    outer loop
       vertex -0.229415 0.241481 0.1
       vertex -0.198449 0.23097 0.1
       vertex -0.198449 0.23097 0
    endloop
  endfacet
  facet normal 0.195096 0.980784 0
    outer loop
       vertex -0.229415 0.241481 0
       vertex -0.261488 0.247861 0
       vertex -0.261488 0.247861 0.1
    endloop
  endfacet
  facet normal 0.195096 0.980784 0
    outer loop
       vertex -0.261488 0.247861 0.1
       vertex -0.229415 0.241481 0.1
       vertex -0.229415 0.241481 0
    endloop
  endfacet
  facet normal 0.0654098 0.997858 0
    outer loop
       vertex -0.29412 0.25 0.1
       vertex -0.261488 0.247861 0.1
       vertex -0.261488 0.247861 0
    endloop
  endfacet
  facet normal 0.0654098 0.997858 -7.26205e-17
    outer loop
       vertex -0.261488 0.247861 0
       vertex -0.29412 0.25 0
       vertex -0.29412 0.25 0.1
    endloop
  endfacet
  facet normal -0.0654098 0.997858 0
    outer loop
       vertex -0.29412 0.25 0
       vertex -0.326751 0.247861 0
       vertex -0.326751 0.247861 0.1
    endloop
  endfacet
  facet normal -0.0654098 0.997858 7.26205e-17
    outer loop
       vertex -0.326751 0.247861 0.1
       vertex -0.29412 0.25 0.1
       vertex -0.29412 0.25 0
    endloop
  endfacet
  facet normal -0.195096 0.980784 0
    outer loop
       vertex -0.326751 0.247861 0
       vertex -0.358825 0.241481 0
       vertex -0.358825 0.241481 0.1
    endloop
  endfacet
  facet normal -0.195096 0.980784 0
    outer loop
       vertex -0.358825 0.241481 0.1
       vertex -0.326751 0.247861 0.1
       vertex -0.326751 0.247861 0
    endloop
  endfacet
  facet normal -0.321425 0.946935 0
    outer loop
       vertex -0.358825 0.241481 0
       vertex -0.389791 0.23097 0
       vertex -0.389791 0.23097 0.1
    endloop
  endfacet
  facet normal -0.321425 0.946935 0
    outer loop
       vertex -0.389791 0.23097 0.1
       vertex -0.358825 0.241481 0.1
       vertex -0.358825 0.241481 0
    endloop
  endfacet
  facet normal -0.442302 0.896866 0
    outer loop
       vertex -0.389791 0.23097 0
       vertex -0.41912 0.216506 0
       vertex -0.41912 0.216506 0.1
    endloop
  endfacet
  facet normal -0.442302 0.896866 0
    outer loop
       vertex -0.41912 0.216506 0.1
       vertex -0.389791 0.23097 0.1
       vertex -0.389791 0.23097 0
    endloop
  endfacet
  facet normal -0.555561 0.831476 0
    outer loop
       vertex -0.41912 0.216506 0
       vertex -0.446311 0.198338 0
       vertex -0.446311 0.198338 0.1
    endloop
  endfacet
  facet normal -0.555561 0.831476 0
    outer loop
       vertex -0.446311 0.198338 0.1
       vertex -0.41912 0.216506 0.1
       vertex -0.41912 0.216506 0
    endloop
  endfacet
  facet normal -0.659372 0.751817 0
    outer loop
       vertex -0.446311 0.198338 0
       vertex -0.470896 0.176776 0
       vertex -0.470896 0.176776 0.1
    endloop
  endfacet
  facet normal -0.659372 0.751817 0
    outer loop
       vertex -0.470896 0.176776 0.1
       vertex -0.446311 0.198338 0.1
       vertex -0.446311 0.198338 0
    endloop
  endfacet
  facet normal -0.751817 0.659372 0
    outer loop
       vertex -0.470896 0.176776 0
       vertex -0.492458 0.152191 0
       vertex -0.492458 0.152191 0.1
    endloop
  endfacet
  facet normal -0.751817 0.659372 0
    outer loop
       vertex -0.492458 0.152191 0.1
       vertex -0.470896 0.176776 0.1
       vertex -0.470896 0.176776 0
    endloop
  endfacet
  facet normal -0.831476 0.555561 0
    outer loop
       vertex -0.492458 0.152191 0
       vertex -0.510626 0.125 0
       vertex -0.510626 0.125 0.1
    endloop
  endfacet
  facet normal -0.831476 0.555561 0
    outer loop
       vertex -0.510626 0.125 0.1
       vertex -0.492458 0.152191 0.1
       vertex -0.492458 0.152191 0
    endloop
  endfacet
  facet normal -0.896866 0.442302 0
    outer loop
       vertex -0.510626 0.125 0
       vertex -0.52509 0.095671 0
       vertex -0.52509 0.095671 0.1
    endloop
  endfacet
  facet normal -0.896866 0.442302 0
    outer loop
       vertex -0.52509 0.095671 0.1
       vertex -0.510626 0.125 0.1
       vertex -0.510626 0.125 0
    endloop
  endfacet
  facet normal -0.946935 0.321425 0
    outer loop
       vertex -0.52509 0.095671 0
       vertex -0.535601 0.064705 0
       vertex -0.535601 0.064705 0.1
    endloop
  endfacet
  facet normal -0.946935 0.321425 0
    outer loop
       vertex -0.535601 0.064705 0.1
       vertex -0.52509 0.095671 0.1
       vertex -0.52509 0.095671 0
    endloop
  endfacet
  facet normal -0.980784 0.195096 0
    outer loop
       vertex -0.535601 0.064705 0
       vertex -0.541981 0.0326315 0
       vertex -0.541981 0.0326315 0.1
    endloop
  endfacet
  facet normal -0.980784 0.195096 0
    outer loop
       vertex -0.541981 0.0326315 0.1
       vertex -0.535601 0.064705 0.1
       vertex -0.535601 0.064705 0
    endloop
  endfacet
  facet normal -0.997858 0.0654098 0
    outer loop
       vertex -0.54412 8.32665e-17 0.1
       vertex -0.541981 0.0326315 0.1
       vertex -0.541981 0.0326315 0
    endloop
  endfacet
  facet normal -0.997858 0.0654098 -1.0893e-16
    outer loop
       vertex -0.541981 0.0326315 0
       vertex -0.54412 -8.32665e-17 0
       vertex -0.54412 8.32665e-17 0.1
    endloop
  endfacet
  facet normal -0.997858 -0.0654098 0
    outer loop
       vertex -0.54412 -8.32665e-17 0
       vertex -0.541981 -0.0326315 0
       vertex -0.541981 -0.0326315 0.1
    endloop
  endfacet
  facet normal -0.997858 -0.0654098 1.0893e-16
    outer loop
       vertex -0.541981 -0.0326315 0.1
       vertex -0.54412 8.32665e-17 0.1
       vertex -0.54412 -8.32665e-17 0
    endloop
  endfacet
  facet normal -0.980784 -0.195096 0
    outer loop
       vertex -0.541981 -0.0326315 0
       vertex -0.535601 -0.064705 0
       vertex -0.535601 -0.064705 0.1
    endloop
  endfacet
  facet normal -0.980784 -0.195096 0
    outer loop
       vertex -0.535601 -0.064705 0.1
       vertex -0.541981 -0.0326315 0.1
       vertex -0.541981 -0.0326315 0
    endloop
  endfacet
  facet normal -0.946935 -0.321425 0
    outer loop
       vertex -0.535601 -0.064705 0
       vertex -0.52509 -0.095671 0
       vertex -0.52509 -0.095671 0.1
    endloop
  endfacet
  facet normal -0.946935 -0.321425 0
    outer loop
       vertex -0.52509 -0.095671 0.1
       vertex -0.535601 -0.064705 0.1
       vertex -0.535601 -0.064705 0
    endloop
  endfacet
  facet normal -0.896866 -0.442302 0
    outer loop
       vertex -0.52509 -0.095671 0
       vertex -0.510626 -0.125 0
       vertex -0.510626 -0.125 0.1
    endloop
  endfacet
  facet normal -0.896866 -0.442302 0
    outer loop
       vertex -0.510626 -0.125 0.1
       vertex -0.52509 -0.095671 0.1
       vertex -0.52509 -0.095671 0
    endloop
  endfacet
  facet normal -0.831476 -0.555561 0
    outer loop
       vertex -0.510626 -0.125 0
       vertex -0.492458 -0.152191 0
       vertex -0.492458 -0.152191 0.1
    endloop
  endfacet
  facet normal -0.831476 -0.555561 0
    outer loop
       vertex -0.492458 -0.152191 0.1
       vertex -0.510626 -0.125 0.1
       vertex -0.510626 -0.125 0
    endloop
  endfacet
  facet normal -0.751817 -0.659372 0
    outer loop
       vertex -0.492458 -0.152191 0
       vertex -0.470896 -0.176776 0
       vertex -0.470896 -0.176776 0.1
    endloop
  endfacet
  facet normal -0.751817 -0.659372 0
    outer loop
       vertex -0.470896 -0.176776 0.1
       vertex -0.492458 -0.152191 0.1
       vertex -0.492458 -0.152191 0
    endloop
  endfacet
  facet normal 0.659372 -0.751817 0
    outer loop
       vertex -0.117344 -0.176776 0
       vertex -0.117344 -0.176776 0.1
       vertex -0.141929 -0.198338 0.1
    endloop
  endfacet
  facet normal 0.659372 -0.751817 0
    outer loop
       vertex -0.141929 -0.198338 0.1
       vertex -0.141929 -0.198338 0
       vertex -0.117344 -0.176776 0
    endloop
  endfacet
  facet normal 0.555561 -0.831476 0
    outer loop
       vertex -0.141929 -0.198338 0
       vertex -0.141929 -0.198338 0.1
       vertex -0.16912 -0.216506 0.1
    endloop
  endfacet
  facet normal 0.555561 -0.831476 0
    outer loop
       vertex -0.16912 -0.216506 0.1
       vertex -0.16912 -0.216506 0
       vertex -0.141929 -0.198338 0
    endloop
  endfacet
  facet normal 0.442302 -0.896866 0
    outer loop
       vertex -0.16912 -0.216506 0
       vertex -0.16912 -0.216506 0.1
       vertex -0.198449 -0.23097 0.1
    endloop
  endfacet
  facet normal 0.442302 -0.896866 0
    outer loop
       vertex -0.198449 -0.23097 0.1
       vertex -0.198449 -0.23097 0
       vertex -0.16912 -0.216506 0
    endloop
  endfacet
  facet normal 0.321425 -0.946935 0
    outer loop
       vertex -0.198449 -0.23097 0
       vertex -0.198449 -0.23097 0.1
       vertex -0.229415 -0.241481 0.1
    endloop
  endfacet
  facet normal 0.321425 -0.946935 0
    outer loop
       vertex -0.229415 -0.241481 0.1
       vertex -0.229415 -0.241481 0
       vertex -0.198449 -0.23097 0
    endloop
  endfacet
  facet normal 0.195096 -0.980784 0
    outer loop
       vertex -0.229415 -0.241481 0
       vertex -0.229415 -0.241481 0.1
       vertex -0.261488 -0.247861 0.1
    endloop
  endfacet
  facet normal 0.195096 -0.980784 0
    outer loop
       vertex -0.261488 -0.247861 0.1
       vertex -0.261488 -0.247861 0
       vertex -0.229415 -0.241481 0
    endloop
  endfacet
  facet normal 0.0654098 -0.997858 0
    outer loop
       vertex -0.29412 -0.25 0
       vertex -0.261488 -0.247861 0
       vertex -0.261488 -0.247861 0.1
    endloop
  endfacet
  facet normal 0.0654098 -0.997858 7.26205e-17
    outer loop
       vertex -0.261488 -0.247861 0.1
       vertex -0.29412 -0.25 0.1
       vertex -0.29412 -0.25 0
    endloop
  endfacet
  facet normal -0.0654098 -0.997858 0
    outer loop
       vertex -0.29412 -0.25 0.1
       vertex -0.326751 -0.247861 0.1
       vertex -0.326751 -0.247861 0
    endloop
  endfacet
  facet normal -0.0654098 -0.997858 -7.26205e-17
    outer loop
       vertex -0.326751 -0.247861 0
       vertex -0.29412 -0.25 0
       vertex -0.29412 -0.25 0.1
    endloop
  endfacet
  facet normal -0.195096 -0.980784 0
    outer loop
       vertex -0.326751 -0.247861 0
       vertex -0.326751 -0.247861 0.1
       vertex -0.358825 -0.241481 0.1
    endloop
  endfacet
  facet normal -0.195096 -0.980784 -0
    outer loop
       vertex -0.358825 -0.241481 0.1
       vertex -0.358825 -0.241481 0
       vertex -0.326751 -0.247861 0
    endloop
  endfacet
  facet normal -0.321425 -0.946935 0
    outer loop
       vertex -0.358825 -0.241481 0
       vertex -0.358825 -0.241481 0.1
       vertex -0.389791 -0.23097 0.1
    endloop
  endfacet
  facet normal -0.321425 -0.946935 -0
    outer loop
       vertex -0.389791 -0.23097 0.1
       vertex -0.389791 -0.23097 0
       vertex -0.358825 -0.241481 0
    endloop
  endfacet
  facet normal -0.442302 -0.896866 0
    outer loop
       vertex -0.389791 -0.23097 0
       vertex -0.389791 -0.23097 0.1
       vertex -0.41912 -0.216506 0.1
    endloop
  endfacet
  facet normal -0.442302 -0.896866 -0
    outer loop
       vertex -0.41912 -0.216506 0.1
       vertex -0.41912 -0.216506 0
       vertex -0.389791 -0.23097 0
    endloop
  endfacet
  facet normal -0.555561 -0.831476 0
    outer loop
       vertex -0.41912 -0.216506 0
       vertex -0.41912 -0.216506 0.1
       vertex -0.446311 -0.198338 0.1
    endloop
  endfacet
  facet normal -0.555561 -0.831476 -0
    outer loop
       vertex -0.446311 -0.198338 0.1
       vertex -0.446311 -0.198338 0
       vertex -0.41912 -0.216506 0
    endloop
  endfacet
  facet normal -0.659372 -0.751817 0
    outer loop
       vertex -0.446311 -0.198338 0
       vertex -0.446311 -0.198338 0.1
       vertex -0.470896 -0.176776 0.1
    endloop
  endfacet
  facet normal -0.659372 -0.751817 -0
    outer loop
       vertex -0.470896 -0.176776 0.1
       vertex -0.470896 -0.176776 0
       vertex -0.446311 -0.198338 0
    endloop
  endfacet
endsolid cylinder
