solid cylinder
  facet normal 0.751817 -0.659372 0
    outer loop
       vertex 0.437282 -0.176776 0
       vertex 0.458844 -0.152191 0
       vertex 0.458844 -0.152191 0.1
    endloop
  endfacet
  facet normal 0.751817 -0.659372 0
    outer loop
       vertex 0.458844 -0.152191 0.1
       vertex 0.437282 -0.176776 0.1
       vertex 0.437282 -0.176776 0
    endloop
  endfacet
  facet normal 0.831476 -0.555561 0
    outer loop
       vertex 0.458844 -0.152191 0
       vertex 0.477012 -0.125 0
       vertex 0.477012 -0.125 0.1
    endloop
  endfacet
  facet normal 0.831476 -0.555561 0
    outer loop
       vertex 0.477012 -0.125 0.1
       vertex 0.458844 -0.152191 0.1
       vertex 0.458844 -0.152191 0
    endloop
  endfacet
  facet normal 0.896866 -0.442302 0
    outer loop
       vertex 0.477012 -0.125 0
       vertex 0.491476 -0.095671 0
       vertex 0.491476 -0.095671 0.1
    endloop
  endfacet
  facet normal 0.896866 -0.442302 0
    outer loop
       vertex 0.491476 -0.095671 0.1
       vertex 0.477012 -0.125 0.1
       vertex 0.477012 -0.125 0
    endloop
  endfacet
  facet normal 0.946935 -0.321425 0
    outer loop
       vertex 0.491476 -0.095671 0
       vertex 0.501987 -0.064705 0
       vertex 0.501987 -0.064705 0.1
    endloop
  endfacet
  facet normal 0.946935 -0.321425 0
    outer loop
       vertex 0.501987 -0.064705 0.1
       vertex 0.491476 -0.095671 0.1
       vertex 0.491476 -0.095671 0
    endloop
  endfacet
  facet normal 0.980784 -0.195096 0
    outer loop
       vertex 0.501987 -0.064705 0
       vertex 0.508367 -0.0326315 0
       vertex 0.508367 -0.0326315 0.1
    endloop
  endfacet
  facet normal 0.980784 -0.195096 0
    outer loop
       vertex 0.508367 -0.0326315 0.1
       vertex 0.501987 -0.064705 0.1
       vertex 0.501987 -0.064705 0
    endloop
  endfacet
  facet normal 0.997858 -0.0654098 0
    outer loop
       vertex 0.510506 -8.32665e-17 0.1
       vertex 0.508367 -0.0326315 0.1
       vertex 0.508367 -0.0326315 0
    endloop
  endfacet
  facet normal 0.997858 -0.0654098 -1.08928e-16
    outer loop
       vertex 0.508367 -0.0326315 0
       vertex 0.510506 8.32665e-17 0
       vertex 0.510506 -8.32665e-17 0.1
    endloop
  endfacet
  facet normal 0.997858 0.0654098 0
    outer loop
       vertex 0.510506 8.32665e-17 0
       vertex 0.508367 0.0326315 0
       vertex 0.508367 0.0326315 0.1
    endloop
  endfacet
  facet normal 0.997858 0.0654098 1.08928e-16
    outer loop
       vertex 0.508367 0.0326315 0.1
       vertex 0.510506 -8.32665e-17 0.1
       vertex 0.510506 8.32665e-17 0
    endloop
  endfacet
  facet normal 0.980784 0.195096 0
    outer loop
       vertex 0.508367 0.0326315 0
       vertex 0.501987 0.064705 0
       vertex 0.501987 0.064705 0.1
    endloop
  endfacet
  facet normal 0.980784 0.195096 0
    outer loop
       vertex 0.501987 0.064705 0.1
       vertex 0.508367 0.0326315 0.1
       vertex 0.508367 0.0326315 0
    endloop
  endfacet
  facet normal 0.946935 0.321425 0
    outer loop
       vertex 0.501987 0.064705 0
       vertex 0.491476 0.095671 0
       vertex 0.491476 0.095671 0.1
    endloop
  endfacet
  facet normal 0.946935 0.321425 0
    outer loop
       vertex 0.491476 0.095671 0.1
       vertex 0.501987 0.064705 0.1
       vertex 0.501987 0.064705 0
    endloop
  endfacet
  facet normal 0.896866 0.442302 0
    outer loop
       vertex 0.491476 0.095671 0
       vertex 0.477012 0.125 0
       vertex 0.477012 0.125 0.1
    endloop
  endfacet
  facet normal 0.896866 0.442302 0
    outer loop
       vertex 0.477012 0.125 0.1
       vertex 0.491476 0.095671 0.1
       vertex 0.491476 0.095671 0
    endloop
  endfacet
  facet normal 0.831476 0.555561 0
    outer loop
       vertex 0.477012 0.125 0
       vertex 0.458844 0.152191 0
       vertex 0.458844 0.152191 0.1
    endloop
  endfacet
  facet normal 0.831476 0.555561 0
    outer loop
       vertex 0.458844 0.152191 0.1
       vertex 0.477012 0.125 0.1
       vertex 0.477012 0.125 0
    endloop
  endfacet
  facet normal 0.751817 0.659372 0
    outer loop
       vertex 0.458844 0.152191 0
       vertex 0.437282 0.176776 0
       vertex 0.437282 0.176776 0.1
    endloop
  endfacet
  facet normal 0.751817 0.659372 0
    outer loop
       vertex 0.437282 0.176776 0.1
       vertex 0.458844 0.152191 0.1
       vertex 0.458844 0.152191 0
    endloop
  endfacet
  facet normal 0.659372 0.751817 0
    outer loop
       vertex 0.437282 0.176776 0
       vertex 0.412697 0.198338 0
       vertex 0.412697 0.198338 0.1
    endloop
  endfacet
  facet normal 0.659372 0.751817 0
    outer loop
       vertex 0.412697 0.198338 0.1
       vertex 0.437282 0.176776 0.1
       vertex 0.437282 0.176776 0
    endloop
  endfacet
  facet normal 0.555561 0.831476 0
    outer loop
       vertex 0.412697 0.198338 0
       vertex 0.385506 0.216506 0
       vertex 0.385506 0.216506 0.1
    endloop
  endfacet
  facet normal 0.555561 0.831476 0
    outer loop
       vertex 0.385506 0.216506 0.1
       vertex 0.412697 0.198338 0.1
       vertex 0.412697 0.198338 0
    endloop
  endfacet
  facet normal 0.442302 0.896866 0
    outer loop
       vertex 0.385506 0.216506 0
       vertex 0.356177 0.23097 0
       vertex 0.356177 0.23097 0.1
    endloop
  endfacet
  facet normal 0.442302 0.896866 0
    outer loop
       vertex 0.356177 0.23097 0.1
       vertex 0.385506 0.216506 0.1
       vertex 0.385506 0.216506 0
    endloop
  endfacet
  facet normal 0.321425 0.946935 0
    outer loop
       vertex 0.356177 0.23097 0
       vertex 0.325211 0.241481 0
       vertex 0.325211 0.241481 0.1
    endloop
  endfacet
  facet normal 0.321425 0.946935 0
    outer loop
       vertex 0.325211 0.241481 0.1
       vertex 0.356177 0.23097 0.1
       vertex 0.356177 0.23097 0
    endloop
  endfacet
  facet normal 0.195096 0.980784 0
    outer loop
       vertex 0.325211 0.241481 0
       vertex 0.293137 0.247861 0
       vertex 0.293137 0.247861 0.1
    endloop
  endfacet
  facet normal 0.195096 0.980784 0
    outer loop
       vertex 0.293137 0.247861 0.1
       vertex 0.325211 0.241481 0.1
       vertex 0.325211 0.241481 0
    endloop
  endfacet
  facet normal 0.0654098 0.997858 0
    outer loop
       vertex 0.260506 0.25 0.1
       vertex 0.293137 0.247861 0.1
       vertex 0.293137 0.247861 0
    endloop
  endfacet
  facet normal 0.0654098 0.997858 -1.45239e-16
    outer loop
       vertex 0.293137 0.247861 0
       vertex 0.260506 0.25 0
       vertex 0.260506 0.25 0.1
    endloop
  endfacet
  facet normal -0.0654098 0.997858 0
    outer loop
       vertex 0.260506 0.25 0
       vertex 0.227874 0.247861 0
       vertex 0.227874 0.247861 0.1
    endloop
  endfacet
  facet normal -0.0654098 0.997858 1.45239e-16
    outer loop
       vertex 0.227874 0.247861 0.1
       vertex 0.260506 0.25 0.1
       vertex 0.260506 0.25 0
    endloop
  endfacet
  facet normal -0.195096 0.980784 0
    outer loop
       vertex 0.227874 0.247861 0
       vertex 0.195801 0.241481 0
       vertex 0.195801 0.241481 0.1
    endloop
  endfacet
  facet normal -0.195096 0.980784 0
    outer loop
       vertex 0.195801 0.241481 0.1
       vertex 0.227874 0.247861 0.1
       vertex 0.227874 0.247861 0
    endloop
  endfacet
  facet normal -0.321425 0.946935 0
    outer loop
       vertex 0.195801 0.241481 0
       vertex 0.164835 0.23097 0
       vertex 0.164835 0.23097 0.1
    endloop
  endfacet
  facet normal -0.321425 0.946935 0
    outer loop
       vertex 0.164835 0.23097 0.1
       vertex 0.195801 0.241481 0.1
       vertex 0.195801 0.241481 0
    endloop
  endfacet
  facet normal -0.442302 0.896866 0
    outer loop
       vertex 0.164835 0.23097 0
       vertex 0.135506 0.216506 0
       vertex 0.135506 0.216506 0.1
    endloop
  endfacet
  facet normal -0.442302 0.896866 0
    outer loop
       vertex 0.135506 0.216506 0.1
       vertex 0.164835 0.23097 0.1
       vertex 0.164835 0.23097 0
    endloop
  endfacet
  facet normal -0.555561 0.831476 0
    outer loop
       vertex 0.135506 0.216506 0
       vertex 0.108315 0.198338 0
       vertex 0.108315 0.198338 0.1
    endloop
  endfacet
  facet normal -0.555561 0.831476 0
    outer loop
       vertex 0.108315 0.198338 0.1
       vertex 0.135506 0.216506 0.1
       vertex 0.135506 0.216506 0
    endloop
  endfacet
  facet normal -0.659372 0.751817 0
    outer loop
       vertex 0.108315 0.198338 0
       vertex 0.0837299 0.176776 0
       vertex 0.0837299 0.176776 0.1
    endloop
  endfacet
  facet normal -0.659372 0.751817 0
    outer loop
       vertex 0.0837299 0.176776 0.1
       vertex 0.108315 0.198338 0.1
       vertex 0.108315 0.198338 0
    endloop
  endfacet
  facet normal -0.751817 0.659372 0
    outer loop
       vertex 0.0837299 0.176776 0
       vertex 0.0621679 0.152191 0
       vertex 0.0621679 0.152191 0.1
    endloop
  endfacet
  facet normal -0.751817 0.659372 0
    outer loop
       vertex 0.0621679 0.152191 0.1
       vertex 0.0837299 0.176776 0.1
       vertex 0.0837299 0.176776 0
    endloop
  endfacet
  facet normal -0.831476 0.555561 0
    outer loop
       vertex 0.0621679 0.152191 0
       vertex 0.0439999 0.125 0
       vertex 0.0439999 0.125 0.1
    endloop
  endfacet
  facet normal -0.831476 0.555561 0
    outer loop
       vertex 0.0439999 0.125 0.1
       vertex 0.0621679 0.152191 0.1
       vertex 0.0621679 0.152191 0
    endloop
  endfacet
  facet normal -0.896866 0.442302 0
    outer loop
       vertex 0.0439999 0.125 0
       vertex 0.0295359 0.095671 0
       vertex 0.0295359 0.095671 0.1
    endloop
  endfacet
  facet normal -0.896866 0.442302 0
    outer loop
       vertex 0.0295359 0.095671 0.1
       vertex 0.0439999 0.125 0.1
       vertex 0.0439999 0.125 0
    endloop
  endfacet
  facet normal -0.946935 0.321425 0
    outer loop
       vertex 0.0295359 0.095671 0
       vertex 0.0190249 0.064705 0
       vertex 0.0190249 0.064705 0.1
    endloop
  endfacet
  facet normal -0.946935 0.321425 0
    outer loop
       vertex 0.0190249 0.064705 0.1
       vertex 0.0295359 0.095671 0.1
       vertex 0.0295359 0.095671 0
    endloop
  endfacet
  facet normal -0.980784 0.195096 0
    outer loop
       vertex 0.0190249 0.064705 0
       vertex 0.0126449 0.0326315 0
       vertex 0.0126449 0.0326315 0.1
    endloop
  endfacet
  facet normal -0.980784 0.195096 0
    outer loop
       vertex 0.0126449 0.0326315 0.1
       vertex 0.0190249 0.064705 0.1
       vertex 0.0190249 0.064705 0
    endloop
  endfacet
  facet normal -0.997858 0.0654098 0
    outer loop
       vertex 0.0105059 8.32665e-17 0.1
       vertex 0.0126449 0.0326315 0.1
       vertex 0.0126449 0.0326315 0
    endloop
  endfacet
  facet normal -0.997858 0.0654098 -1.08928e-16
    outer loop
       vertex 0.0126449 0.0326315 0
       vertex 0.0105059 -8.32665e-17 0
       vertex 0.0105059 8.32665e-17 0.1
    endloop
  endfacet
  facet normal -0.997858 -0.0654098 0
    outer loop
       vertex 0.0105059 -8.32665e-17 0
       vertex 0.0126449 -0.0326315 0
       vertex 0.0126449 -0.0326315 0.1
    endloop
  endfacet
  facet normal -0.997858 -0.0654098 1.08928e-16
    outer loop
       vertex 0.0126449 -0.0326315 0.1
       vertex 0.0105059 8.32665e-17 0.1
       vertex 0.0105059 -8.32665e-17 0
    endloop
  endfacet
  facet normal -0.980784 -0.195096 0
    outer loop
       vertex 0.0126449 -0.0326315 0
       vertex 0.0190249 -0.064705 0
       vertex 0.0190249 -0.064705 0.1
    endloop
  endfacet
  facet normal -0.980784 -0.195096 0
    outer loop
       vertex 0.0190249 -0.064705 0.1
       vertex 0.0126449 -0.0326315 0.1
       vertex 0.0126449 -0.0326315 0
    endloop
  endfacet
  facet normal -0.946935 -0.321425 0
    outer loop
       vertex 0.0190249 -0.064705 0
       vertex 0.0295359 -0.095671 0
       vertex 0.0295359 -0.095671 0.1
    endloop
  endfacet
  facet normal -0.946935 -0.321425 0
    outer loop
       vertex 0.0295359 -0.095671 0.1
       vertex 0.0190249 -0.064705 0.1
       vertex 0.0190249 -0.064705 0
    endloop
  endfacet
  facet normal -0.896866 -0.442302 0
    outer loop
       vertex 0.0295359 -0.095671 0
       vertex 0.0439999 -0.125 0
       vertex 0.0439999 -0.125 0.1
    endloop
  endfacet
  facet normal -0.896866 -0.442302 0
    outer loop
       vertex 0.0439999 -0.125 0.1
       vertex 0.0295359 -0.095671 0.1
       vertex 0.0295359 -0.095671 0
    endloop
  endfacet
  facet normal -0.831476 -0.555561 0
    outer loop
       vertex 0.0439999 -0.125 0
       vertex 0.0621679 -0.152191 0
       vertex 0.0621679 -0.152191 0.1
    endloop
  endfacet
  facet normal -0.831476 -0.555561 0
    outer loop
       vertex 0.0621679 -0.152191 0.1
       vertex 0.0439999 -0.125 0.1
       vertex 0.0439999 -0.125 0
    endloop
  endfacet
  facet normal -0.751817 -0.659372 0
    outer loop
       vertex 0.0621679 -0.152191 0
       vertex 0.0837299 -0.176776 0
       vertex 0.0837299 -0.176776 0.1
    endloop
  endfacet
  facet normal -0.751817 -0.659372 0
    outer loop
       vertex 0.0837299 -0.176776 0.1
       vertex 0.0621679 -0.152191 0.1
       vertex 0.0621679 -0.152191 0
    endloop
  endfacet
  facet normal 0.659372 -0.751817 0
    outer loop
       vertex 0.437282 -0.176776 0
       vertex 0.437282 -0.176776 0.1
       vertex 0.412697 -0.198338 0.1
    endloop
  endfacet
  facet normal 0.659372 -0.751817 0
    outer loop
       vertex 0.412697 -0.198338 0.1
       vertex 0.412697 -0.198338 0
       vertex 0.437282 -0.176776 0
    endloop
  endfacet
  facet normal 0.555561 -0.831476 0
    outer loop
       vertex 0.412697 -0.198338 0
       vertex 0.412697 -0.198338 0.1
       vertex 0.385506 -0.216506 0.1
    endloop
  endfacet
  facet normal 0.555561 -0.831476 0
    outer loop
       vertex 0.385506 -0.216506 0.1
       vertex 0.385506 -0.216506 0
       vertex 0.412697 -0.198338 0
    endloop
  endfacet
  facet normal 0.442302 -0.896866 0
    outer loop
       vertex 0.385506 -0.216506 0
       vertex 0.385506 -0.216506 0.1
       vertex 0.356177 -0.23097 0.1
    endloop
  endfacet
  facet normal 0.442302 -0.896866 0
    outer loop
       vertex 0.356177 -0.23097 0.1
       vertex 0.356177 -0.23097 0
       vertex 0.385506 -0.216506 0
    endloop
  endfacet
  facet normal 0.321425 -0.946935 0
    outer loop
       vertex 0.356177 -0.23097 0
       vertex 0.356177 -0.23097 0.1
       vertex 0.325211 -0.241481 0.1
    endloop
  endfacet
  facet normal 0.321425 -0.946935 0
    outer loop
       vertex 0.325211 -0.241481 0.1
       vertex 0.325211 -0.241481 0
       vertex 0.356177 -0.23097 0
    endloop
  endfacet
  facet normal 0.195096 -0.980784 0
    outer loop
       vertex 0.325211 -0.241481 0
       vertex 0.325211 -0.241481 0.1
       vertex 0.293137 -0.247861 0.1
    endloop
  endfacet
  facet normal 0.195096 -0.980784 0
    outer loop
       vertex 0.293137 -0.247861 0.1
       vertex 0.293137 -0.247861 0
       vertex 0.325211 -0.241481 0
    endloop
  endfacet
  facet normal 0.0654098 -0.997858 0
    outer loop
       vertex 0.260506 -0.25 0
       vertex 0.293137 -0.247861 0
       vertex 0.293137 -0.247861 0.1
    endloop
  endfacet
  facet normal 0.0654098 -0.997858 1.45239e-16
    outer loop
       vertex 0.293137 -0.247861 0.1
       vertex 0.260506 -0.25 0.1
       vertex 0.260506 -0.25 0
    endloop
  endfacet
  facet normal -0.0654098 -0.997858 0
    outer loop
       vertex 0.260506 -0.25 0.1
       vertex 0.227874 -0.247861 0.1
       vertex 0.227874 -0.247861 0
    endloop
  endfacet
  facet normal -0.0654098 -0.997858 -1.45239e-16
    outer loop
       vertex 0.227874 -0.247861 0
       vertex 0.260506 -0.25 0
       vertex 0.260506 -0.25 0.1
    endloop
  endfacet
  facet normal -0.195096 -0.980784 0
    outer loop
       vertex 0.227874 -0.247861 0
       vertex 0.227874 -0.247861 0.1
       vertex 0.195801 -0.241481 0.1
    endloop
  endfacet
  facet normal -0.195096 -0.980784 -0
    outer loop
       vertex 0.195801 -0.241481 0.1
       vertex 0.195801 -0.241481 0
       vertex 0.227874 -0.247861 0
    endloop
  endfacet
  facet normal -0.321425 -0.946935 0
    outer loop
       vertex 0.195801 -0.241481 0
       vertex 0.195801 -0.241481 0.1
       vertex 0.164835 -0.23097 0.1
    endloop
  endfacet
  facet normal -0.321425 -0.946935 -0
    outer loop
       vertex 0.164835 -0.23097 0.1
       vertex 0.164835 -0.23097 0
       vertex 0.195801 -0.241481 0
    endloop
  endfacet
  facet normal -0.442302 -0.896866 0
    outer loop
       vertex 0.164835 -0.23097 0
       vertex 0.164835 -0.23097 0.1
       vertex 0.135506 -0.216506 0.1
    endloop
  endfacet
  facet normal -0.442302 -0.896866 -0
    outer loop
       vertex 0.135506 -0.216506 0.1
       vertex 0.135506 -0.216506 0
       vertex 0.164835 -0.23097 0
    endloop
  endfacet
  facet normal -0.555561 -0.831476 0
    outer loop
       vertex 0.135506 -0.216506 0
       vertex 0.135506 -0.216506 0.1
       vertex 0.108315 -0.198338 0.1
    endloop
  endfacet
  facet normal -0.555561 -0.831476 -0
    outer loop
       vertex 0.108315 -0.198338 0.1
       vertex 0.108315 -0.198338 0
       vertex 0.135506 -0.216506 0
    endloop
  endfacet
  facet normal -0.659372 -0.751817 0
    outer loop
       vertex 0.108315 -0.198338 0
       vertex 0.108315 -0.198338 0.1
       vertex 0.0837299 -0.176776 0.1
    endloop
  endfacet
  facet normal -0.659372 -0.751817 -0
    outer loop
       vertex 0.0837299 -0.176776 0.1
       vertex 0.0837299 -0.176776 0
       vertex 0.108315 -0.198338 0
    endloop
  endfacet
endsolid cylinder
