solid cylinder
  facet normal 0.751817 -0.659372 0
    outer loop
       vertex -0.0160596 -0.176776 0
       vertex 0.00550236 -0.152191 0
       vertex 0.00550236 -0.152191 0.1
    endloop
  endfacet
  facet normal 0.751817 -0.659372 0
    outer loop
       vertex 0.00550236 -0.152191 0.1
       vertex -0.0160596 -0.176776 0.1
       vertex -0.0160596 -0.176776 0
    endloop
  endfacet
  facet normal 0.831476 -0.555561 0
    outer loop
       vertex 0.00550236 -0.152191 0
       vertex 0.0236704 -0.125 0
       vertex 0.0236704 -0.125 0.1
    endloop
  endfacet
  facet normal 0.831476 -0.555561 0
    outer loop
       vertex 0.0236704 -0.125 0.1
       vertex 0.00550236 -0.152191 0.1
       vertex 0.00550236 -0.152191 0
    endloop
  endfacet
  facet normal 0.896866 -0.442302 0
    outer loop
       vertex 0.0236704 -0.125 0
       vertex 0.0381344 -0.095671 0
       vertex 0.0381344 -0.095671 0.1
    endloop
  endfacet
  facet normal 0.896866 -0.442302 0
    outer loop
       vertex 0.0381344 -0.095671 0.1
       vertex 0.0236704 -0.125 0.1
       vertex 0.0236704 -0.125 0
    endloop
  endfacet
  facet normal 0.946935 -0.321425 0
    outer loop
       vertex 0.0381344 -0.095671 0
       vertex 0.0486454 -0.064705 0
       vertex 0.0486454 -0.064705 0.1
    endloop
  endfacet
  facet normal 0.946935 -0.321425 0
    outer loop
       vertex 0.0486454 -0.064705 0.1
       vertex 0.0381344 -0.095671 0.1
       vertex 0.0381344 -0.095671 0
    endloop
  endfacet
  facet normal 0.980784 -0.195096 0
    outer loop
       vertex 0.0486454 -0.064705 0
       vertex 0.0550254 -0.0326315 0
       vertex 0.0550254 -0.0326315 0.1
    endloop
  endfacet
  facet normal 0.980784 -0.195096 0
    outer loop
       vertex 0.0550254 -0.0326315 0.1
       vertex 0.0486454 -0.064705 0.1
       vertex 0.0486454 -0.064705 0
    endloop
  endfacet
  facet normal 0.997858 -0.0654098 0
    outer loop
       vertex 0.0571644 -8.32665e-17 0.1
       vertex 0.0550254 -0.0326315 0.1
       vertex 0.0550254 -0.0326315 0
    endloop
  endfacet
  facet normal 0.997858 -0.0654098 -1.08928e-16
    outer loop
       vertex 0.0550254 -0.0326315 0
       vertex 0.0571644 8.32665e-17 0
       vertex 0.0571644 -8.32665e-17 0.1
    endloop
  endfacet
  facet normal 0.997858 0.0654098 0
    outer loop
       vertex 0.0571644 8.32665e-17 0
       vertex 0.0550254 0.0326315 0
       vertex 0.0550254 0.0326315 0.1
    endloop
  endfacet
  facet normal 0.997858 0.0654098 1.08928e-16
    outer loop
       vertex 0.0550254 0.0326315 0.1
       vertex 0.0571644 -8.32665e-17 0.1
       vertex 0.0571644 8.32665e-17 0
    endloop
  endfacet
  facet normal 0.980784 0.195096 0
    outer loop
       vertex 0.0550254 0.0326315 0
       vertex 0.0486454 0.064705 0
       vertex 0.0486454 0.064705 0.1
    endloop
  endfacet
  facet normal 0.980784 0.195096 0
    outer loop
       vertex 0.0486454 0.064705 0.1
       vertex 0.0550254 0.0326315 0.1
       vertex 0.0550254 0.0326315 0
    endloop
  endfacet
  facet normal 0.946935 0.321425 0
    outer loop
       vertex 0.0486454 0.064705 0
       vertex 0.0381344 0.095671 0
       vertex 0.0381344 0.095671 0.1
    endloop
  endfacet
  facet normal 0.946935 0.321425 0
    outer loop
       vertex 0.0381344 0.095671 0.1
       vertex 0.0486454 0.064705 0.1
       vertex 0.0486454 0.064705 0
    endloop
  endfacet
  facet normal 0.896866 0.442302 0
    outer loop
       vertex 0.0381344 0.095671 0
       vertex 0.0236704 0.125 0
       vertex 0.0236704 0.125 0.1
    endloop
  endfacet
  facet normal 0.896866 0.442302 0
    outer loop
       vertex 0.0236704 0.125 0.1
       vertex 0.0381344 0.095671 0.1
       vertex 0.0381344 0.095671 0
    endloop
  endfacet
  facet normal 0.831476 0.555561 0
    outer loop
       vertex 0.0236704 0.125 0
       vertex 0.00550236 0.152191 0
       vertex 0.00550236 0.152191 0.1
    endloop
  endfacet
  facet normal 0.831476 0.555561 0
    outer loop
       vertex 0.00550236 0.152191 0.1
       vertex 0.0236704 0.125 0.1
       vertex 0.0236704 0.125 0
    endloop
  endfacet
  facet normal 0.751817 0.659372 0
    outer loop
       vertex 0.00550236 0.152191 0
       vertex -0.0160596 0.176776 0
       vertex -0.0160596 0.176776 0.1
    endloop
  endfacet
  facet normal 0.751817 0.659372 0
    outer loop
       vertex -0.0160596 0.176776 0.1
       vertex 0.00550236 0.152191 0.1
       vertex 0.00550236 0.152191 0
    endloop
  endfacet
  facet normal 0.659372 0.751817 0
    outer loop
       vertex -0.0160596 0.176776 0
       vertex -0.0406446 0.198338 0
       vertex -0.0406446 0.198338 0.1
    endloop
  endfacet
  facet normal 0.659372 0.751817 0
    outer loop
       vertex -0.0406446 0.198338 0.1
       vertex -0.0160596 0.176776 0.1
       vertex -0.0160596 0.176776 0
    endloop
  endfacet
  facet normal 0.555561 0.831476 0
    outer loop
       vertex -0.0406446 0.198338 0
       vertex -0.0678356 0.216506 0
       vertex -0.0678356 0.216506 0.1
    endloop
  endfacet
  facet normal 0.555561 0.831476 0
    outer loop
       vertex -0.0678356 0.216506 0.1
       vertex -0.0406446 0.198338 0.1
       vertex -0.0406446 0.198338 0
    endloop
  endfacet
  facet normal 0.442302 0.896866 0
    outer loop
       vertex -0.0678356 0.216506 0
       vertex -0.0971646 0.23097 0
       vertex -0.0971646 0.23097 0.1
    endloop
  endfacet
  facet normal 0.442302 0.896866 0
    outer loop
       vertex -0.0971646 0.23097 0.1
       vertex -0.0678356 0.216506 0.1
       vertex -0.0678356 0.216506 0
    endloop
  endfacet
  facet normal 0.321425 0.946935 0
    outer loop
       vertex -0.0971646 0.23097 0
       vertex -0.128131 0.241481 0
       vertex -0.128131 0.241481 0.1
    endloop
  endfacet
  facet normal 0.321425 0.946935 0
    outer loop
       vertex -0.128131 0.241481 0.1
       vertex -0.0971646 0.23097 0.1
       vertex -0.0971646 0.23097 0
    endloop
  endfacet
  facet normal 0.195096 0.980784 0
    outer loop
       vertex -0.128131 0.241481 0
       vertex -0.160204 0.247861 0
       vertex -0.160204 0.247861 0.1
    endloop
  endfacet
  facet normal 0.195096 0.980784 0
    outer loop
       vertex -0.160204 0.247861 0.1
       vertex -0.128131 0.241481 0.1
       vertex -0.128131 0.241481 0
    endloop
  endfacet
  facet normal 0.0654098 0.997858 0
    outer loop
       vertex -0.192836 0.25 0.1
       vertex -0.160204 0.247861 0.1
       vertex -0.160204 0.247861 0
    endloop
  endfacet
  facet normal 0.0654098 0.997858 -1.0893e-16
    outer loop
       vertex -0.160204 0.247861 0
       vertex -0.192836 0.25 0
       vertex -0.192836 0.25 0.1
    endloop
  endfacet
  facet normal -0.0654098 0.997858 0
    outer loop
       vertex -0.192836 0.25 0
       vertex -0.225467 0.247861 0
       vertex -0.225467 0.247861 0.1
    endloop
  endfacet
  facet normal -0.0654098 0.997858 1.0893e-16
    outer loop
       vertex -0.225467 0.247861 0.1
       vertex -0.192836 0.25 0.1
       vertex -0.192836 0.25 0
    endloop
  endfacet
  facet normal -0.195096 0.980784 0
    outer loop
       vertex -0.225467 0.247861 0
       vertex -0.257541 0.241481 0
       vertex -0.257541 0.241481 0.1
    endloop
  endfacet
  facet normal -0.195096 0.980784 0
    outer loop
       vertex -0.257541 0.241481 0.1
       vertex -0.225467 0.247861 0.1
       vertex -0.225467 0.247861 0
    endloop
  endfacet
  facet normal -0.321425 0.946935 0
    outer loop
       vertex -0.257541 0.241481 0
       vertex -0.288507 0.23097 0
       vertex -0.288507 0.23097 0.1
    endloop
  endfacet
  facet normal -0.321425 0.946935 0
    outer loop
       vertex -0.288507 0.23097 0.1
       vertex -0.257541 0.241481 0.1
       vertex -0.257541 0.241481 0
    endloop
  endfacet
  facet normal -0.442302 0.896866 0
    outer loop
       vertex -0.288507 0.23097 0
       vertex -0.317836 0.216506 0
       vertex -0.317836 0.216506 0.1
    endloop
  endfacet
  facet normal -0.442302 0.896866 0
    outer loop
       vertex -0.317836 0.216506 0.1
       vertex -0.288507 0.23097 0.1
       vertex -0.288507 0.23097 0
    endloop
  endfacet
  facet normal -0.555561 0.831476 0
    outer loop
       vertex -0.317836 0.216506 0
       vertex -0.345027 0.198338 0
       vertex -0.345027 0.198338 0.1
    endloop
  endfacet
  facet normal -0.555561 0.831476 0
    outer loop
       vertex -0.345027 0.198338 0.1
       vertex -0.317836 0.216506 0.1
       vertex -0.317836 0.216506 0
    endloop
  endfacet
  facet normal -0.659372 0.751817 0
    outer loop
       vertex -0.345027 0.198338 0
       vertex -0.369612 0.176776 0
       vertex -0.369612 0.176776 0.1
    endloop
  endfacet
  facet normal -0.659372 0.751817 0
    outer loop
       vertex -0.369612 0.176776 0.1
       vertex -0.345027 0.198338 0.1
       vertex -0.345027 0.198338 0
    endloop
  endfacet
  facet normal -0.751817 0.659372 0
    outer loop
       vertex -0.369612 0.176776 0
       vertex -0.391174 0.152191 0
       vertex -0.391174 0.152191 0.1
    endloop
  endfacet
  facet normal -0.751817 0.659372 0
    outer loop
       vertex -0.391174 0.152191 0.1
       vertex -0.369612 0.176776 0.1
       vertex -0.369612 0.176776 0
    endloop
  endfacet
  facet normal -0.831476 0.555561 0
    outer loop
       vertex -0.391174 0.152191 0
       vertex -0.409342 0.125 0
       vertex -0.409342 0.125 0.1
    endloop
  endfacet
  facet normal -0.831476 0.555561 0
    outer loop
       vertex -0.409342 0.125 0.1
       vertex -0.391174 0.152191 0.1
       vertex -0.391174 0.152191 0
    endloop
  endfacet
  facet normal -0.896866 0.442302 0
    outer loop
       vertex -0.409342 0.125 0
       vertex -0.423806 0.095671 0
       vertex -0.423806 0.095671 0.1
    endloop
  endfacet
  facet normal -0.896866 0.442302 0
    outer loop
       vertex -0.423806 0.095671 0.1
       vertex -0.409342 0.125 0.1
       vertex -0.409342 0.125 0
    endloop
  endfacet
  facet normal -0.946935 0.321425 0
    outer loop
       vertex -0.423806 0.095671 0
       vertex -0.434317 0.064705 0
       vertex -0.434317 0.064705 0.1
    endloop
  endfacet
  facet normal -0.946935 0.321425 0
    outer loop
       vertex -0.434317 0.064705 0.1
       vertex -0.423806 0.095671 0.1
       vertex -0.423806 0.095671 0
    endloop
  endfacet
  facet normal -0.980784 0.195096 0
    outer loop
       vertex -0.434317 0.064705 0
       vertex -0.440697 0.0326315 0
       vertex -0.440697 0.0326315 0.1
    endloop
  endfacet
  facet normal -0.980784 0.195096 0
    outer loop
       vertex -0.440697 0.0326315 0.1
       vertex -0.434317 0.064705 0.1
       vertex -0.434317 0.064705 0
    endloop
  endfacet
  facet normal -0.997858 0.0654098 0
    outer loop
       vertex -0.442836 8.32665e-17 0.1
       vertex -0.440697 0.0326315 0.1
       vertex -0.440697 0.0326315 0
    endloop
  endfacet
  facet normal -0.997858 0.0654098 -1.08928e-16
    outer loop
       vertex -0.440697 0.0326315 0
       vertex -0.442836 -8.32665e-17 0
       vertex -0.442836 8.32665e-17 0.1
    endloop
  endfacet
  facet normal -0.997858 -0.0654098 0
    outer loop
       vertex -0.442836 -8.32665e-17 0
       vertex -0.440697 -0.0326315 0
       vertex -0.440697 -0.0326315 0.1
    endloop
  endfacet
  facet normal -0.997858 -0.0654098 1.08928e-16
    outer loop
       vertex -0.440697 -0.0326315 0.1
       vertex -0.442836 8.32665e-17 0.1
       vertex -0.442836 -8.32665e-17 0
    endloop
  endfacet
  facet normal -0.980784 -0.195096 0
    outer loop
       vertex -0.440697 -0.0326315 0
       vertex -0.434317 -0.064705 0
       vertex -0.434317 -0.064705 0.1
    endloop
  endfacet
  facet normal -0.980784 -0.195096 0
    outer loop
       vertex -0.434317 -0.064705 0.1
       vertex -0.440697 -0.0326315 0.1
       vertex -0.440697 -0.0326315 0
    endloop
  endfacet
  facet normal -0.946935 -0.321425 0
    outer loop
       vertex -0.434317 -0.064705 0
       vertex -0.423806 -0.095671 0
       vertex -0.423806 -0.095671 0.1
    endloop
  endfacet
  facet normal -0.946935 -0.321425 0
    outer loop
       vertex -0.423806 -0.095671 0.1
       vertex -0.434317 -0.064705 0.1
       vertex -0.434317 -0.064705 0
    endloop
  endfacet
  facet normal -0.896866 -0.442302 0
    outer loop
       vertex -0.423806 -0.095671 0
       vertex -0.409342 -0.125 0
       vertex -0.409342 -0.125 0.1
    endloop
  endfacet
  facet normal -0.896866 -0.442302 0
    outer loop
       vertex -0.409342 -0.125 0.1
       vertex -0.423806 -0.095671 0.1
       vertex -0.423806 -0.095671 0
    endloop
  endfacet
  facet normal -0.831476 -0.555561 0
    outer loop
       vertex -0.409342 -0.125 0
       vertex -0.391174 -0.152191 0
       vertex -0.391174 -0.152191 0.1
    endloop
  endfacet
  facet normal -0.831476 -0.555561 0
    outer loop
       vertex -0.391174 -0.152191 0.1
       vertex -0.409342 -0.125 0.1
       vertex -0.409342 -0.125 0
    endloop
  endfacet
  facet normal -0.751817 -0.659372 0
    outer loop
       vertex -0.391174 -0.152191 0
       vertex -0.369612 -0.176776 0
       vertex -0.369612 -0.176776 0.1
    endloop
  endfacet
  facet normal -0.751817 -0.659372 0
    outer loop
       vertex -0.369612 -0.176776 0.1
       vertex -0.391174 -0.152191 0.1
       vertex -0.391174 -0.152191 0
    endloop
  endfacet
  facet normal 0.659372 -0.751817 0
    outer loop
       vertex -0.0160596 -0.176776 0
       vertex -0.0160596 -0.176776 0.1
       vertex -0.0406446 -0.198338 0.1
    endloop
  endfacet
  facet normal 0.659372 -0.751817 0
    outer loop
       vertex -0.0406446 -0.198338 0.1
       vertex -0.0406446 -0.198338 0
       vertex -0.0160596 -0.176776 0
    endloop
  endfacet
  facet normal 0.555561 -0.831476 0
    outer loop
       vertex -0.0406446 -0.198338 0
       vertex -0.0406446 -0.198338 0.1
       vertex -0.0678356 -0.216506 0.1
    endloop
  endfacet
  facet normal 0.555561 -0.831476 0
    outer loop
       vertex -0.0678356 -0.216506 0.1
       vertex -0.0678356 -0.216506 0
       vertex -0.0406446 -0.198338 0
    endloop
  endfacet
  facet normal 0.442302 -0.896866 0
    outer loop
       vertex -0.0678356 -0.216506 0
       vertex -0.0678356 -0.216506 0.1
       vertex -0.0971646 -0.23097 0.1
    endloop
  endfacet
  facet normal 0.442302 -0.896866 0
    outer loop
       vertex -0.0971646 -0.23097 0.1
       vertex -0.0971646 -0.23097 0
       vertex -0.0678356 -0.216506 0
    endloop
  endfacet
  facet normal 0.321425 -0.946935 0
    outer loop
       vertex -0.0971646 -0.23097 0
       vertex -0.0971646 -0.23097 0.1
       vertex -0.128131 -0.241481 0.1
    endloop
  endfacet
  facet normal 0.321425 -0.946935 0
    outer loop
       vertex -0.128131 -0.241481 0.1
       vertex -0.128131 -0.241481 0
       vertex -0.0971646 -0.23097 0
    endloop
  endfacet
  facet normal 0.195096 -0.980784 0
    outer loop
       vertex -0.128131 -0.241481 0
       vertex -0.128131 -0.241481 0.1
       vertex -0.160204 -0.247861 0.1
    endloop
  endfacet
  facet normal 0.195096 -0.980784 0
    outer loop
       vertex -0.160204 -0.247861 0.1
       vertex -0.160204 -0.247861 0
       vertex -0.128131 -0.241481 0
    endloop
  endfacet
  facet normal 0.0654098 -0.997858 0
    outer loop
       vertex -0.192836 -0.25 0
       vertex -0.160204 -0.247861 0
       vertex -0.160204 -0.247861 0.1
    endloop
  endfacet
  facet normal 0.0654098 -0.997858 1.0893e-16
    outer loop
       vertex -0.160204 -0.247861 0.1
       vertex -0.192836 -0.25 0.1
       vertex -0.192836 -0.25 0
    endloop
  endfacet
  facet normal -0.0654098 -0.997858 0
    outer loop
       vertex -0.192836 -0.25 0.1
       vertex -0.225467 -0.247861 0.1
       vertex -0.225467 -0.247861 0
    endloop
  endfacet
  facet normal -0.0654098 -0.997858 -1.0893e-16
    outer loop
       vertex -0.225467 -0.247861 0
       vertex -0.192836 -0.25 0
       vertex -0.192836 -0.25 0.1
    endloop
  endfacet
  facet normal -0.195096 -0.980784 0
    outer loop
       vertex -0.225467 -0.247861 0
       vertex -0.225467 -0.247861 0.1
       vertex -0.257541 -0.241481 0.1
    endloop
  endfacet
  facet normal -0.195096 -0.980784 -0
    outer loop
       vertex -0.257541 -0.241481 0.1
       vertex -0.257541 -0.241481 0
       vertex -0.225467 -0.247861 0
    endloop
  endfacet
  facet normal -0.321425 -0.946935 0
    outer loop
       vertex -0.257541 -0.241481 0
       vertex -0.257541 -0.241481 0.1
       vertex -0.288507 -0.23097 0.1
    endloop
  endfacet
  facet normal -0.321425 -0.946935 -0
    outer loop
       vertex -0.288507 -0.23097 0.1
       vertex -0.288507 -0.23097 0
       vertex -0.257541 -0.241481 0
    endloop
  endfacet
  facet normal -0.442302 -0.896866 0
    outer loop
       vertex -0.288507 -0.23097 0
       vertex -0.288507 -0.23097 0.1
       vertex -0.317836 -0.216506 0.1
    endloop
  endfacet
  facet normal -0.442302 -0.896866 -0
    outer loop
       vertex -0.317836 -0.216506 0.1
       vertex -0.317836 -0.216506 0
       vertex -0.288507 -0.23097 0
    endloop
  endfacet
  facet normal -0.555561 -0.831476 0
    outer loop
       vertex -0.317836 -0.216506 0
       vertex -0.317836 -0.216506 0.1
       vertex -0.345027 -0.198338 0.1
    endloop
  endfacet
  facet normal -0.555561 -0.831476 -0
    outer loop
       vertex -0.345027 -0.198338 0.1
       vertex -0.345027 -0.198338 0
       vertex -0.317836 -0.216506 0
    endloop
  endfacet
  facet normal -0.659372 -0.751817 0
    outer loop
       vertex -0.345027 -0.198338 0
       vertex -0.345027 -0.198338 0.1
       vertex -0.369612 -0.176776 0.1
    endloop
  endfacet
  facet normal -0.659372 -0.751817 -0
    outer loop
       vertex -0.369612 -0.176776 0.1
       vertex -0.369612 -0.176776 0
       vertex -0.345027 -0.198338 0
    endloop
  endfacet
endsolid cylinder
