solid cylinder
  facet normal 0.751817 -0.659372 0
    outer loop
       vertex 0.216016 -0.176776 0
       vertex 0.237578 -0.152191 0
       vertex 0.237578 -0.152191 0.1
    endloop
  endfacet
  facet normal 0.751817 -0.659372 0
    outer loop
       vertex 0.237578 -0.152191 0.1
       vertex 0.216016 -0.176776 0.1
       vertex 0.216016 -0.176776 0
    endloop
  endfacet
  facet normal 0.831476 -0.555561 0
    outer loop
       vertex 0.237578 -0.152191 0
       vertex 0.255746 -0.125 0
       vertex 0.255746 -0.125 0.1
    endloop
  endfacet
  facet normal 0.831476 -0.555561 0
    outer loop
       vertex 0.255746 -0.125 0.1
       vertex 0.237578 -0.152191 0.1
       vertex 0.237578 -0.152191 0
    endloop
  endfacet
  facet normal 0.896866 -0.442302 0
    outer loop
       vertex 0.255746 -0.125 0
       vertex 0.27021 -0.095671 0
       vertex 0.27021 -0.095671 0.1
    endloop
  endfacet
  facet normal 0.896866 -0.442302 0
    outer loop
       vertex 0.27021 -0.095671 0.1
       vertex 0.255746 -0.125 0.1
       vertex 0.255746 -0.125 0
    endloop
  endfacet
  facet normal 0.946935 -0.321425 0
    outer loop
       vertex 0.27021 -0.095671 0
       vertex 0.280721 -0.064705 0
       vertex 0.280721 -0.064705 0.1
    endloop
  endfacet
  facet normal 0.946935 -0.321425 0
    outer loop
       vertex 0.280721 -0.064705 0.1
       vertex 0.27021 -0.095671 0.1
       vertex 0.27021 -0.095671 0
    endloop
  endfacet
  facet normal 0.980784 -0.195096 0
    outer loop
       vertex 0.280721 -0.064705 0
       vertex 0.287101 -0.0326315 0
       vertex 0.287101 -0.0326315 0.1
    endloop
  endfacet
  facet normal 0.980784 -0.195096 0
    outer loop
       vertex 0.287101 -0.0326315 0.1
       vertex 0.280721 -0.064705 0.1
       vertex 0.280721 -0.064705 0
    endloop
  endfacet
  facet normal 0.997858 -0.0654098 0
    outer loop
       vertex 0.28924 -8.32665e-17 0.1
       vertex 0.287101 -0.0326315 0.1
       vertex 0.287101 -0.0326315 0
    endloop
  endfacet
  facet normal 0.997858 -0.0654098 -1.08928e-16
    outer loop
       vertex 0.287101 -0.0326315 0
       vertex 0.28924 8.32665e-17 0
       vertex 0.28924 -8.32665e-17 0.1
    endloop
  endfacet
  facet normal 0.997858 0.0654098 0
    outer loop
       vertex 0.28924 8.32665e-17 0
       vertex 0.287101 0.0326315 0
       vertex 0.287101 0.0326315 0.1
    endloop
  endfacet
  facet normal 0.997858 0.0654098 1.08928e-16
    outer loop
       vertex 0.287101 0.0326315 0.1
       vertex 0.28924 -8.32665e-17 0.1
       vertex 0.28924 8.32665e-17 0
    endloop
  endfacet
  facet normal 0.980784 0.195096 0
    outer loop
       vertex 0.287101 0.0326315 0
       vertex 0.280721 0.064705 0
       vertex 0.280721 0.064705 0.1
    endloop
  endfacet
  facet normal 0.980784 0.195096 0
    outer loop
       vertex 0.280721 0.064705 0.1
       vertex 0.287101 0.0326315 0.1
       vertex 0.287101 0.0326315 0
    endloop
  endfacet
  facet normal 0.946935 0.321425 0
    outer loop
       vertex 0.280721 0.064705 0
       vertex 0.27021 0.095671 0
       vertex 0.27021 0.095671 0.1
    endloop
  endfacet
  facet normal 0.946935 0.321425 0
    outer loop
       vertex 0.27021 0.095671 0.1
       vertex 0.280721 0.064705 0.1
       vertex 0.280721 0.064705 0
    endloop
  endfacet
  facet normal 0.896866 0.442302 0
    outer loop
       vertex 0.27021 0.095671 0
       vertex 0.255746 0.125 0
       vertex 0.255746 0.125 0.1
    endloop
  endfacet
  facet normal 0.896866 0.442302 0
    outer loop
       vertex 0.255746 0.125 0.1
       vertex 0.27021 0.095671 0.1
       vertex 0.27021 0.095671 0
    endloop
  endfacet
  facet normal 0.831476 0.555561 0
    outer loop
       vertex 0.255746 0.125 0
       vertex 0.237578 0.152191 0
       vertex 0.237578 0.152191 0.1
    endloop
  endfacet
  facet normal 0.831476 0.555561 0
    outer loop
       vertex 0.237578 0.152191 0.1
       vertex 0.255746 0.125 0.1
       vertex 0.255746 0.125 0
    endloop
  endfacet
  facet normal 0.751817 0.659372 0
    outer loop
       vertex 0.237578 0.152191 0
       vertex 0.216016 0.176776 0
       vertex 0.216016 0.176776 0.1
    endloop
  endfacet
  facet normal 0.751817 0.659372 0
    outer loop
       vertex 0.216016 0.176776 0.1
       vertex 0.237578 0.152191 0.1
       vertex 0.237578 0.152191 0
    endloop
  endfacet
  facet normal 0.659372 0.751817 0
    outer loop
       vertex 0.216016 0.176776 0
       vertex 0.191431 0.198338 0
       vertex 0.191431 0.198338 0.1
    endloop
  endfacet
  facet normal 0.659372 0.751817 0
    outer loop
       vertex 0.191431 0.198338 0.1
       vertex 0.216016 0.176776 0.1
       vertex 0.216016 0.176776 0
    endloop
  endfacet
  facet normal 0.555561 0.831476 0
    outer loop
       vertex 0.191431 0.198338 0
       vertex 0.16424 0.216506 0
       vertex 0.16424 0.216506 0.1
    endloop
  endfacet
  facet normal 0.555561 0.831476 0
    outer loop
       vertex 0.16424 0.216506 0.1
       vertex 0.191431 0.198338 0.1
       vertex 0.191431 0.198338 0
    endloop
  endfacet
  facet normal 0.442302 0.896866 0
    outer loop
       vertex 0.16424 0.216506 0
       vertex 0.134911 0.23097 0
       vertex 0.134911 0.23097 0.1
    endloop
  endfacet
  facet normal 0.442302 0.896866 0
    outer loop
       vertex 0.134911 0.23097 0.1
       vertex 0.16424 0.216506 0.1
       vertex 0.16424 0.216506 0
    endloop
  endfacet
  facet normal 0.321425 0.946935 0
    outer loop
       vertex 0.134911 0.23097 0
       vertex 0.103945 0.241481 0
       vertex 0.103945 0.241481 0.1
    endloop
  endfacet
  facet normal 0.321425 0.946935 0
    outer loop
       vertex 0.103945 0.241481 0.1
       vertex 0.134911 0.23097 0.1
       vertex 0.134911 0.23097 0
    endloop
  endfacet
  facet normal 0.195096 0.980784 0
    outer loop
       vertex 0.103945 0.241481 0
       vertex 0.0718714 0.247861 0
       vertex 0.0718714 0.247861 0.1
    endloop
  endfacet
  facet normal 0.195096 0.980784 0
    outer loop
       vertex 0.0718714 0.247861 0.1
       vertex 0.103945 0.241481 0.1
       vertex 0.103945 0.241481 0
    endloop
  endfacet
  facet normal 0.0654098 0.997858 0
    outer loop
       vertex 0.0392399 0.25 0.1
       vertex 0.0718714 0.247861 0.1
       vertex 0.0718714 0.247861 0
    endloop
  endfacet
  facet normal 0.0654098 0.997858 -1.08928e-16
    outer loop
       vertex 0.0718714 0.247861 0
       vertex 0.0392399 0.25 0
       vertex 0.0392399 0.25 0.1
    endloop
  endfacet
  facet normal -0.0654098 0.997858 0
    outer loop
       vertex 0.0392399 0.25 0
       vertex 0.00660837 0.247861 0
       vertex 0.00660837 0.247861 0.1
    endloop
  endfacet
  facet normal -0.0654098 0.997858 1.08928e-16
    outer loop
       vertex 0.00660837 0.247861 0.1
       vertex 0.0392399 0.25 0.1
       vertex 0.0392399 0.25 0
    endloop
  endfacet
  facet normal -0.195096 0.980784 0
    outer loop
       vertex 0.00660837 0.247861 0
       vertex -0.0254651 0.241481 0
       vertex -0.0254651 0.241481 0.1
    endloop
  endfacet
  facet normal -0.195096 0.980784 0
    outer loop
       vertex -0.0254651 0.241481 0.1
       vertex 0.00660837 0.247861 0.1
       vertex 0.00660837 0.247861 0
    endloop
  endfacet
  facet normal -0.321425 0.946935 0
    outer loop
       vertex -0.0254651 0.241481 0
       vertex -0.0564311 0.23097 0
       vertex -0.0564311 0.23097 0.1
    endloop
  endfacet
  facet normal -0.321425 0.946935 0
    outer loop
       vertex -0.0564311 0.23097 0.1
       vertex -0.0254651 0.241481 0.1
       vertex -0.0254651 0.241481 0
    endloop
  endfacet
  facet normal -0.442302 0.896866 0
    outer loop
       vertex -0.0564311 0.23097 0
       vertex -0.0857601 0.216506 0
       vertex -0.0857601 0.216506 0.1
    endloop
  endfacet
  facet normal -0.442302 0.896866 0
    outer loop
       vertex -0.0857601 0.216506 0.1
       vertex -0.0564311 0.23097 0.1
       vertex -0.0564311 0.23097 0
    endloop
  endfacet
  facet normal -0.555561 0.831476 0
    outer loop
       vertex -0.0857601 0.216506 0
       vertex -0.112951 0.198338 0
       vertex -0.112951 0.198338 0.1
    endloop
  endfacet
  facet normal -0.555561 0.831476 0
    outer loop
       vertex -0.112951 0.198338 0.1
       vertex -0.0857601 0.216506 0.1
       vertex -0.0857601 0.216506 0
    endloop
  endfacet
  facet normal -0.659372 0.751817 0
    outer loop
       vertex -0.112951 0.198338 0
       vertex -0.137536 0.176776 0
       vertex -0.137536 0.176776 0.1
    endloop
  endfacet
  facet normal -0.659372 0.751817 0
    outer loop
       vertex -0.137536 0.176776 0.1
       vertex -0.112951 0.198338 0.1
       vertex -0.112951 0.198338 0
    endloop
  endfacet
  facet normal -0.751817 0.659372 0
    outer loop
       vertex -0.137536 0.176776 0
       vertex -0.159098 0.152191 0
       vertex -0.159098 0.152191 0.1
    endloop
  endfacet
  facet normal -0.751817 0.659372 0
    outer loop
       vertex -0.159098 0.152191 0.1
       vertex -0.137536 0.176776 0.1
       vertex -0.137536 0.176776 0
    endloop
  endfacet
  facet normal -0.831476 0.555561 0
    outer loop
       vertex -0.159098 0.152191 0
       vertex -0.177266 0.125 0
       vertex -0.177266 0.125 0.1
    endloop
  endfacet
  facet normal -0.831476 0.555561 0
    outer loop
       vertex -0.177266 0.125 0.1
       vertex -0.159098 0.152191 0.1
       vertex -0.159098 0.152191 0
    endloop
  endfacet
  facet normal -0.896866 0.442302 0
    outer loop
       vertex -0.177266 0.125 0
       vertex -0.19173 0.095671 0
       vertex -0.19173 0.095671 0.1
    endloop
  endfacet
  facet normal -0.896866 0.442302 0
    outer loop
       vertex -0.19173 0.095671 0.1
       vertex -0.177266 0.125 0.1
       vertex -0.177266 0.125 0
    endloop
  endfacet
  facet normal -0.946935 0.321425 0
    outer loop
       vertex -0.19173 0.095671 0
       vertex -0.202241 0.064705 0
       vertex -0.202241 0.064705 0.1
    endloop
  endfacet
  facet normal -0.946935 0.321425 0
    outer loop
       vertex -0.202241 0.064705 0.1
       vertex -0.19173 0.095671 0.1
       vertex -0.19173 0.095671 0
    endloop
  endfacet
  facet normal -0.980784 0.195096 0
    outer loop
       vertex -0.202241 0.064705 0
       vertex -0.208621 0.0326315 0
       vertex -0.208621 0.0326315 0.1
    endloop
  endfacet
  facet normal -0.980784 0.195096 0
    outer loop
       vertex -0.208621 0.0326315 0.1
       vertex -0.202241 0.064705 0.1
       vertex -0.202241 0.064705 0
    endloop
  endfacet
  facet normal -0.997858 0.0654098 0
    outer loop
       vertex -0.21076 8.32665e-17 0.1
       vertex -0.208621 0.0326315 0.1
       vertex -0.208621 0.0326315 0
    endloop
  endfacet
  facet normal -0.997858 0.0654098 -1.08928e-16
    outer loop
       vertex -0.208621 0.0326315 0
       vertex -0.21076 -8.32665e-17 0
       vertex -0.21076 8.32665e-17 0.1
    endloop
  endfacet
  facet normal -0.997858 -0.0654098 0
    outer loop
       vertex -0.21076 -8.32665e-17 0
       vertex -0.208621 -0.0326315 0
       vertex -0.208621 -0.0326315 0.1
    endloop
  endfacet
  facet normal -0.997858 -0.0654098 1.08928e-16
    outer loop
       vertex -0.208621 -0.0326315 0.1
       vertex -0.21076 8.32665e-17 0.1
       vertex -0.21076 -8.32665e-17 0
    endloop
  endfacet
  facet normal -0.980784 -0.195096 0
    outer loop
       vertex -0.208621 -0.0326315 0
       vertex -0.202241 -0.064705 0
       vertex -0.202241 -0.064705 0.1
    endloop
  endfacet
  facet normal -0.980784 -0.195096 0
    outer loop
       vertex -0.202241 -0.064705 0.1
       vertex -0.208621 -0.0326315 0.1
       vertex -0.208621 -0.0326315 0
    endloop
  endfacet
  facet normal -0.946935 -0.321425 0
    outer loop
       vertex -0.202241 -0.064705 0
       vertex -0.19173 -0.095671 0
       vertex -0.19173 -0.095671 0.1
    endloop
  endfacet
  facet normal -0.946935 -0.321425 0
    outer loop
       vertex -0.19173 -0.095671 0.1
       vertex -0.202241 -0.064705 0.1
       vertex -0.202241 -0.064705 0
    endloop
  endfacet
  facet normal -0.896866 -0.442302 0
    outer loop
       vertex -0.19173 -0.095671 0
       vertex -0.177266 -0.125 0
       vertex -0.177266 -0.125 0.1
    endloop
  endfacet
  facet normal -0.896866 -0.442302 0
    outer loop
       vertex -0.177266 -0.125 0.1
       vertex -0.19173 -0.095671 0.1
       vertex -0.19173 -0.095671 0
    endloop
  endfacet
  facet normal -0.831476 -0.555561 0
    outer loop
       vertex -0.177266 -0.125 0
       vertex -0.159098 -0.152191 0
       vertex -0.159098 -0.152191 0.1
    endloop
  endfacet
  facet normal -0.831476 -0.555561 0
    outer loop
       vertex -0.159098 -0.152191 0.1
       vertex -0.177266 -0.125 0.1
       vertex -0.177266 -0.125 0
    endloop
  endfacet
  facet normal -0.751817 -0.659372 0
    outer loop
       vertex -0.159098 -0.152191 0
       vertex -0.137536 -0.176776 0
       vertex -0.137536 -0.176776 0.1
    endloop
  endfacet
  facet normal -0.751817 -0.659372 0
    outer loop
       vertex -0.137536 -0.176776 0.1
       vertex -0.159098 -0.152191 0.1
       vertex -0.159098 -0.152191 0
    endloop
  endfacet
  facet normal 0.659372 -0.751817 0
    outer loop
       vertex 0.216016 -0.176776 0
       vertex 0.216016 -0.176776 0.1
       vertex 0.191431 -0.198338 0.1
    endloop
  endfacet
  facet normal 0.659372 -0.751817 0
    outer loop
       vertex 0.191431 -0.198338 0.1
       vertex 0.191431 -0.198338 0
       vertex 0.216016 -0.176776 0
    endloop
  endfacet
  facet normal 0.555561 -0.831476 0
    outer loop
       vertex 0.191431 -0.198338 0
       vertex 0.191431 -0.198338 0.1
       vertex 0.16424 -0.216506 0.1
    endloop
  endfacet
  facet normal 0.555561 -0.831476 0
    outer loop
       vertex 0.16424 -0.216506 0.1
       vertex 0.16424 -0.216506 0
       vertex 0.191431 -0.198338 0
    endloop
  endfacet
  facet normal 0.442302 -0.896866 0
    outer loop
       vertex 0.16424 -0.216506 0
       vertex 0.16424 -0.216506 0.1
       vertex 0.134911 -0.23097 0.1
    endloop
  endfacet
  facet normal 0.442302 -0.896866 0
    outer loop
       vertex 0.134911 -0.23097 0.1
       vertex 0.134911 -0.23097 0
       vertex 0.16424 -0.216506 0
    endloop
  endfacet
  facet normal 0.321425 -0.946935 0
    outer loop
       vertex 0.134911 -0.23097 0
       vertex 0.134911 -0.23097 0.1
       vertex 0.103945 -0.241481 0.1
    endloop
  endfacet
  facet normal 0.321425 -0.946935 0
    outer loop
       vertex 0.103945 -0.241481 0.1
       vertex 0.103945 -0.241481 0
       vertex 0.134911 -0.23097 0
    endloop
  endfacet
  facet normal 0.195096 -0.980784 0
    outer loop
       vertex 0.103945 -0.241481 0
       vertex 0.103945 -0.241481 0.1
       vertex 0.0718714 -0.247861 0.1
    endloop
  endfacet
  facet normal 0.195096 -0.980784 0
    outer loop
       vertex 0.0718714 -0.247861 0.1
       vertex 0.0718714 -0.247861 0
       vertex 0.103945 -0.241481 0
    endloop
  endfacet
  facet normal 0.0654098 -0.997858 0
    outer loop
       vertex 0.0392399 -0.25 0
       vertex 0.0718714 -0.247861 0
       vertex 0.0718714 -0.247861 0.1
    endloop
  endfacet
  facet normal 0.0654098 -0.997858 1.08928e-16
    outer loop
       vertex 0.0718714 -0.247861 0.1
       vertex 0.0392399 -0.25 0.1
       vertex 0.0392399 -0.25 0
    endloop
  endfacet
  facet normal -0.0654098 -0.997858 0
    outer loop
       vertex 0.0392399 -0.25 0.1
       vertex 0.00660837 -0.247861 0.1
       vertex 0.00660837 -0.247861 0
    endloop
  endfacet
  facet normal -0.0654098 -0.997858 -1.08928e-16
    outer loop
       vertex 0.00660837 -0.247861 0
       vertex 0.0392399 -0.25 0
       vertex 0.0392399 -0.25 0.1
    endloop
  endfacet
  facet normal -0.195096 -0.980784 0
    outer loop
       vertex 0.00660837 -0.247861 0
       vertex 0.00660837 -0.247861 0.1
       vertex -0.0254651 -0.241481 0.1
    endloop
  endfacet
  facet normal -0.195096 -0.980784 -0
    outer loop
       vertex -0.0254651 -0.241481 0.1
       vertex -0.0254651 -0.241481 0
       vertex 0.00660837 -0.247861 0
    endloop
  endfacet
  facet normal -0.321425 -0.946935 0
    outer loop
       vertex -0.0254651 -0.241481 0
       vertex -0.0254651 -0.241481 0.1
       vertex -0.0564311 -0.23097 0.1
    endloop
  endfacet
  facet normal -0.321425 -0.946935 -0
    outer loop
       vertex -0.0564311 -0.23097 0.1
       vertex -0.0564311 -0.23097 0
       vertex -0.0254651 -0.241481 0
    endloop
  endfacet
  facet normal -0.442302 -0.896866 0
    outer loop
       vertex -0.0564311 -0.23097 0
       vertex -0.0564311 -0.23097 0.1
       vertex -0.0857601 -0.216506 0.1
    endloop
  endfacet
  facet normal -0.442302 -0.896866 -0
    outer loop
       vertex -0.0857601 -0.216506 0.1
       vertex -0.0857601 -0.216506 0
       vertex -0.0564311 -0.23097 0
    endloop
  endfacet
  facet normal -0.555561 -0.831476 0
    outer loop
       vertex -0.0857601 -0.216506 0
       vertex -0.0857601 -0.216506 0.1
       vertex -0.112951 -0.198338 0.1
    endloop
  endfacet
  facet normal -0.555561 -0.831476 -0
    outer loop
       vertex -0.112951 -0.198338 0.1
       vertex -0.112951 -0.198338 0
       vertex -0.0857601 -0.216506 0
    endloop
  endfacet
  facet normal -0.659372 -0.751817 0
    outer loop
       vertex -0.112951 -0.198338 0
       vertex -0.112951 -0.198338 0.1
       vertex -0.137536 -0.176776 0.1
    endloop
  endfacet
  facet normal -0.659372 -0.751817 -0
    outer loop
       vertex -0.137536 -0.176776 0.1
       vertex -0.137536 -0.176776 0
       vertex -0.112951 -0.198338 0
    endloop
  endfacet
endsolid cylinder
