solid cylinder
  facet normal 0.751817 -0.659372 0
    outer loop
       vertex 0.310107 -0.176776 0
       vertex 0.331669 -0.152191 0
       vertex 0.331669 -0.152191 0.1
    endloop
  endfacet
  facet normal 0.751817 -0.659372 0
    outer loop
       vertex 0.331669 -0.152191 0.1
       vertex 0.310107 -0.176776 0.1
       vertex 0.310107 -0.176776 0
    endloop
  endfacet
  facet normal 0.831476 -0.555561 0
    outer loop
       vertex 0.331669 -0.152191 0
       vertex 0.349837 -0.125 0
       vertex 0.349837 -0.125 0.1
    endloop
  endfacet
  facet normal 0.831476 -0.555561 0
    outer loop
       vertex 0.349837 -0.125 0.1
       vertex 0.331669 -0.152191 0.1
       vertex 0.331669 -0.152191 0
    endloop
  endfacet
  facet normal 0.896866 -0.442302 0
    outer loop
       vertex 0.349837 -0.125 0
       vertex 0.364301 -0.095671 0
       vertex 0.364301 -0.095671 0.1
    endloop
  endfacet
  facet normal 0.896866 -0.442302 0
    outer loop
       vertex 0.364301 -0.095671 0.1
       vertex 0.349837 -0.125 0.1
       vertex 0.349837 -0.125 0
    endloop
  endfacet
  facet normal 0.946935 -0.321425 0
    outer loop
       vertex 0.364301 -0.095671 0
       vertex 0.374812 -0.064705 0
       vertex 0.374812 -0.064705 0.1
    endloop
  endfacet
  facet normal 0.946935 -0.321425 0
    outer loop
       vertex 0.374812 -0.064705 0.1
       vertex 0.364301 -0.095671 0.1
       vertex 0.364301 -0.095671 0
    endloop
  endfacet
  facet normal 0.980784 -0.195096 0
    outer loop
       vertex 0.374812 -0.064705 0
       vertex 0.381192 -0.0326315 0
       vertex 0.381192 -0.0326315 0.1
    endloop
  endfacet
  facet normal 0.980784 -0.195096 0
    outer loop
       vertex 0.381192 -0.0326315 0.1
       vertex 0.374812 -0.064705 0.1
       vertex 0.374812 -0.064705 0
    endloop
  endfacet
  facet normal 0.997858 -0.0654098 0
    outer loop
       vertex 0.383331 -8.32665e-17 0.1
       vertex 0.381192 -0.0326315 0.1
       vertex 0.381192 -0.0326315 0
    endloop
  endfacet
  facet normal 0.997858 -0.0654098 -1.08928e-16
    outer loop
       vertex 0.381192 -0.0326315 0
       vertex 0.383331 8.32665e-17 0
       vertex 0.383331 -8.32665e-17 0.1
    endloop
  endfacet
  facet normal 0.997858 0.0654098 0
    outer loop
       vertex 0.383331 8.32665e-17 0
       vertex 0.381192 0.0326315 0
       vertex 0.381192 0.0326315 0.1
    endloop
  endfacet
  facet normal 0.997858 0.0654098 1.08928e-16
    outer loop
       vertex 0.381192 0.0326315 0.1
       vertex 0.383331 -8.32665e-17 0.1
       vertex 0.383331 8.32665e-17 0
    endloop
  endfacet
  facet normal 0.980784 0.195096 0
    outer loop
       vertex 0.381192 0.0326315 0
       vertex 0.374812 0.064705 0
       vertex 0.374812 0.064705 0.1
    endloop
  endfacet
  facet normal 0.980784 0.195096 0
    outer loop
       vertex 0.374812 0.064705 0.1
       vertex 0.381192 0.0326315 0.1
       vertex 0.381192 0.0326315 0
    endloop
  endfacet
  facet normal 0.946935 0.321425 0
    outer loop
       vertex 0.374812 0.064705 0
       vertex 0.364301 0.095671 0
       vertex 0.364301 0.095671 0.1
    endloop
  endfacet
  facet normal 0.946935 0.321425 0
    outer loop
       vertex 0.364301 0.095671 0.1
       vertex 0.374812 0.064705 0.1
       vertex 0.374812 0.064705 0
    endloop
  endfacet
  facet normal 0.896866 0.442302 0
    outer loop
       vertex 0.364301 0.095671 0
       vertex 0.349837 0.125 0
       vertex 0.349837 0.125 0.1
    endloop
  endfacet
  facet normal 0.896866 0.442302 0
    outer loop
       vertex 0.349837 0.125 0.1
       vertex 0.364301 0.095671 0.1
       vertex 0.364301 0.095671 0
    endloop
  endfacet
  facet normal 0.831476 0.555561 0
    outer loop
       vertex 0.349837 0.125 0
       vertex 0.331669 0.152191 0
       vertex 0.331669 0.152191 0.1
    endloop
  endfacet
  facet normal 0.831476 0.555561 0
    outer loop
       vertex 0.331669 0.152191 0.1
       vertex 0.349837 0.125 0.1
       vertex 0.349837 0.125 0
    endloop
  endfacet
  facet normal 0.751817 0.659372 0
    outer loop
       vertex 0.331669 0.152191 0
       vertex 0.310107 0.176776 0
       vertex 0.310107 0.176776 0.1
    endloop
  endfacet
  facet normal 0.751817 0.659372 0
    outer loop
       vertex 0.310107 0.176776 0.1
       vertex 0.331669 0.152191 0.1
       vertex 0.331669 0.152191 0
    endloop
  endfacet
  facet normal 0.659372 0.751817 0
    outer loop
       vertex 0.310107 0.176776 0
       vertex 0.285522 0.198338 0
       vertex 0.285522 0.198338 0.1
    endloop
  endfacet
  facet normal 0.659372 0.751817 0
    outer loop
       vertex 0.285522 0.198338 0.1
       vertex 0.310107 0.176776 0.1
       vertex 0.310107 0.176776 0
    endloop
  endfacet
  facet normal 0.555561 0.831476 0
    outer loop
       vertex 0.285522 0.198338 0
       vertex 0.258331 0.216506 0
       vertex 0.258331 0.216506 0.1
    endloop
  endfacet
  facet normal 0.555561 0.831476 0
    outer loop
       vertex 0.258331 0.216506 0.1
       vertex 0.285522 0.198338 0.1
       vertex 0.285522 0.198338 0
    endloop
  endfacet
  facet normal 0.442302 0.896866 0
    outer loop
       vertex 0.258331 0.216506 0
       vertex 0.229002 0.23097 0
       vertex 0.229002 0.23097 0.1
    endloop
  endfacet
  facet normal 0.442302 0.896866 0
    outer loop
       vertex 0.229002 0.23097 0.1
       vertex 0.258331 0.216506 0.1
       vertex 0.258331 0.216506 0
    endloop
  endfacet
  facet normal 0.321425 0.946935 0
    outer loop
       vertex 0.229002 0.23097 0
       vertex 0.198036 0.241481 0
       vertex 0.198036 0.241481 0.1
    endloop
  endfacet
  facet normal 0.321425 0.946935 0
    outer loop
       vertex 0.198036 0.241481 0.1
       vertex 0.229002 0.23097 0.1
       vertex 0.229002 0.23097 0
    endloop
  endfacet
  facet normal 0.195096 0.980784 0
    outer loop
       vertex 0.198036 0.241481 0
       vertex 0.165962 0.247861 0
       vertex 0.165962 0.247861 0.1
    endloop
  endfacet
  facet normal 0.195096 0.980784 0
    outer loop
       vertex 0.165962 0.247861 0.1
       vertex 0.198036 0.241481 0.1
       vertex 0.198036 0.241481 0
    endloop
  endfacet
  facet normal 0.0654098 0.997858 0
    outer loop
       vertex 0.133331 0.25 0.1
       vertex 0.165962 0.247861 0.1
       vertex 0.165962 0.247861 0
    endloop
  endfacet
  facet normal 0.0654098 0.997858 -1.0893e-16
    outer loop
       vertex 0.165962 0.247861 0
       vertex 0.133331 0.25 0
       vertex 0.133331 0.25 0.1
    endloop
  endfacet
  facet normal -0.0654098 0.997858 0
    outer loop
       vertex 0.133331 0.25 0
       vertex 0.100699 0.247861 0
       vertex 0.100699 0.247861 0.1
    endloop
  endfacet
  facet normal -0.0654098 0.997858 1.0893e-16
    outer loop
       vertex 0.100699 0.247861 0.1
       vertex 0.133331 0.25 0.1
       vertex 0.133331 0.25 0
    endloop
  endfacet
  facet normal -0.195096 0.980784 0
    outer loop
       vertex 0.100699 0.247861 0
       vertex 0.0686256 0.241481 0
       vertex 0.0686256 0.241481 0.1
    endloop
  endfacet
  facet normal -0.195096 0.980784 0
    outer loop
       vertex 0.0686256 0.241481 0.1
       vertex 0.100699 0.247861 0.1
       vertex 0.100699 0.247861 0
    endloop
  endfacet
  facet normal -0.321425 0.946935 0
    outer loop
       vertex 0.0686256 0.241481 0
       vertex 0.0376596 0.23097 0
       vertex 0.0376596 0.23097 0.1
    endloop
  endfacet
  facet normal -0.321425 0.946935 0
    outer loop
       vertex 0.0376596 0.23097 0.1
       vertex 0.0686256 0.241481 0.1
       vertex 0.0686256 0.241481 0
    endloop
  endfacet
  facet normal -0.442302 0.896866 0
    outer loop
       vertex 0.0376596 0.23097 0
       vertex 0.00833061 0.216506 0
       vertex 0.00833061 0.216506 0.1
    endloop
  endfacet
  facet normal -0.442302 0.896866 0
    outer loop
       vertex 0.00833061 0.216506 0.1
       vertex 0.0376596 0.23097 0.1
       vertex 0.0376596 0.23097 0
    endloop
  endfacet
  facet normal -0.555561 0.831476 0
    outer loop
       vertex 0.00833061 0.216506 0
       vertex -0.0188604 0.198338 0
       vertex -0.0188604 0.198338 0.1
    endloop
  endfacet
  facet normal -0.555561 0.831476 0
    outer loop
       vertex -0.0188604 0.198338 0.1
       vertex 0.00833061 0.216506 0.1
       vertex 0.00833061 0.216506 0
    endloop
  endfacet
  facet normal -0.659372 0.751817 0
    outer loop
       vertex -0.0188604 0.198338 0
       vertex -0.0434454 0.176776 0
       vertex -0.0434454 0.176776 0.1
    endloop
  endfacet
  facet normal -0.659372 0.751817 0
    outer loop
       vertex -0.0434454 0.176776 0.1
       vertex -0.0188604 0.198338 0.1
       vertex -0.0188604 0.198338 0
    endloop
  endfacet
  facet normal -0.751817 0.659372 0
    outer loop
       vertex -0.0434454 0.176776 0
       vertex -0.0650074 0.152191 0
       vertex -0.0650074 0.152191 0.1
    endloop
  endfacet
  facet normal -0.751817 0.659372 0
    outer loop
       vertex -0.0650074 0.152191 0.1
       vertex -0.0434454 0.176776 0.1
       vertex -0.0434454 0.176776 0
    endloop
  endfacet
  facet normal -0.831476 0.555561 0
    outer loop
       vertex -0.0650074 0.152191 0
       vertex -0.0831754 0.125 0
       vertex -0.0831754 0.125 0.1
    endloop
  endfacet
  facet normal -0.831476 0.555561 0
    outer loop
       vertex -0.0831754 0.125 0.1
       vertex -0.0650074 0.152191 0.1
       vertex -0.0650074 0.152191 0
    endloop
  endfacet
  facet normal -0.896866 0.442302 0
    outer loop
       vertex -0.0831754 0.125 0
       vertex -0.0976394 0.095671 0
       vertex -0.0976394 0.095671 0.1
    endloop
  endfacet
  facet normal -0.896866 0.442302 0
    outer loop
       vertex -0.0976394 0.095671 0.1
       vertex -0.0831754 0.125 0.1
       vertex -0.0831754 0.125 0
    endloop
  endfacet
  facet normal -0.946935 0.321425 0
    outer loop
       vertex -0.0976394 0.095671 0
       vertex -0.10815 0.064705 0
       vertex -0.10815 0.064705 0.1
    endloop
  endfacet
  facet normal -0.946935 0.321425 0
    outer loop
       vertex -0.10815 0.064705 0.1
       vertex -0.0976394 0.095671 0.1
       vertex -0.0976394 0.095671 0
    endloop
  endfacet
  facet normal -0.980784 0.195096 0
    outer loop
       vertex -0.10815 0.064705 0
       vertex -0.11453 0.0326315 0
       vertex -0.11453 0.0326315 0.1
    endloop
  endfacet
  facet normal -0.980784 0.195096 0
    outer loop
       vertex -0.11453 0.0326315 0.1
       vertex -0.10815 0.064705 0.1
       vertex -0.10815 0.064705 0
    endloop
  endfacet
  facet normal -0.997858 0.0654098 0
    outer loop
       vertex -0.116669 8.32665e-17 0.1
       vertex -0.11453 0.0326315 0.1
       vertex -0.11453 0.0326315 0
    endloop
  endfacet
  facet normal -0.997858 0.0654098 -1.08928e-16
    outer loop
       vertex -0.11453 0.0326315 0
       vertex -0.116669 -8.32665e-17 0
       vertex -0.116669 8.32665e-17 0.1
    endloop
  endfacet
  facet normal -0.997858 -0.0654098 0
    outer loop
       vertex -0.116669 -8.32665e-17 0
       vertex -0.11453 -0.0326315 0
       vertex -0.11453 -0.0326315 0.1
    endloop
  endfacet
  facet normal -0.997858 -0.0654098 1.08928e-16
    outer loop
       vertex -0.11453 -0.0326315 0.1
       vertex -0.116669 8.32665e-17 0.1
       vertex -0.116669 -8.32665e-17 0
    endloop
  endfacet
  facet normal -0.980784 -0.195096 0
    outer loop
       vertex -0.11453 -0.0326315 0
       vertex -0.10815 -0.064705 0
       vertex -0.10815 -0.064705 0.1
    endloop
  endfacet
  facet normal -0.980784 -0.195096 0
    outer loop
       vertex -0.10815 -0.064705 0.1
       vertex -0.11453 -0.0326315 0.1
       vertex -0.11453 -0.0326315 0
    endloop
  endfacet
  facet normal -0.946935 -0.321425 0
    outer loop
       vertex -0.10815 -0.064705 0
       vertex -0.0976394 -0.095671 0
       vertex -0.0976394 -0.095671 0.1
    endloop
  endfacet
  facet normal -0.946935 -0.321425 0
    outer loop
       vertex -0.0976394 -0.095671 0.1
       vertex -0.10815 -0.064705 0.1
       vertex -0.10815 -0.064705 0
    endloop
  endfacet
  facet normal -0.896866 -0.442302 0
    outer loop
       vertex -0.0976394 -0.095671 0
       vertex -0.0831754 -0.125 0
       vertex -0.0831754 -0.125 0.1
    endloop
  endfacet
  facet normal -0.896866 -0.442302 0
    outer loop
       vertex -0.0831754 -0.125 0.1
       vertex -0.0976394 -0.095671 0.1
       vertex -0.0976394 -0.095671 0
    endloop
  endfacet
  facet normal -0.831476 -0.555561 0
    outer loop
       vertex -0.0831754 -0.125 0
       vertex -0.0650074 -0.152191 0
       vertex -0.0650074 -0.152191 0.1
    endloop
  endfacet
  facet normal -0.831476 -0.555561 0
    outer loop
       vertex -0.0650074 -0.152191 0.1
       vertex -0.0831754 -0.125 0.1
       vertex -0.0831754 -0.125 0
    endloop
  endfacet
  facet normal -0.751817 -0.659372 0
    outer loop
       vertex -0.0650074 -0.152191 0
       vertex -0.0434454 -0.176776 0
       vertex -0.0434454 -0.176776 0.1
    endloop
  endfacet
  facet normal -0.751817 -0.659372 0
    outer loop
       vertex -0.0434454 -0.176776 0.1
       vertex -0.0650074 -0.152191 0.1
       vertex -0.0650074 -0.152191 0
    endloop
  endfacet
  facet normal 0.659372 -0.751817 0
    outer loop
       vertex 0.310107 -0.176776 0
       vertex 0.310107 -0.176776 0.1
       vertex 0.285522 -0.198338 0.1
    endloop
  endfacet
  facet normal 0.659372 -0.751817 0
    outer loop
       vertex 0.285522 -0.198338 0.1
       vertex 0.285522 -0.198338 0
       vertex 0.310107 -0.176776 0
    endloop
  endfacet
  facet normal 0.555561 -0.831476 0
    outer loop
       vertex 0.285522 -0.198338 0
       vertex 0.285522 -0.198338 0.1
       vertex 0.258331 -0.216506 0.1
    endloop
  endfacet
  facet normal 0.555561 -0.831476 0
    outer loop
       vertex 0.258331 -0.216506 0.1
       vertex 0.258331 -0.216506 0
       vertex 0.285522 -0.198338 0
    endloop
  endfacet
  facet normal 0.442302 -0.896866 0
    outer loop
       vertex 0.258331 -0.216506 0
       vertex 0.258331 -0.216506 0.1
       vertex 0.229002 -0.23097 0.1
    endloop
  endfacet
  facet normal 0.442302 -0.896866 0
    outer loop
       vertex 0.229002 -0.23097 0.1
       vertex 0.229002 -0.23097 0
       vertex 0.258331 -0.216506 0
    endloop
  endfacet
  facet normal 0.321425 -0.946935 0
    outer loop
       vertex 0.229002 -0.23097 0
       vertex 0.229002 -0.23097 0.1
       vertex 0.198036 -0.241481 0.1
    endloop
  endfacet
  facet normal 0.321425 -0.946935 0
    outer loop
       vertex 0.198036 -0.241481 0.1
       vertex 0.198036 -0.241481 0
       vertex 0.229002 -0.23097 0
    endloop
  endfacet
  facet normal 0.195096 -0.980784 0
    outer loop
       vertex 0.198036 -0.241481 0
       vertex 0.198036 -0.241481 0.1
       vertex 0.165962 -0.247861 0.1
    endloop
  endfacet
  facet normal 0.195096 -0.980784 0
    outer loop
       vertex 0.165962 -0.247861 0.1
       vertex 0.165962 -0.247861 0
       vertex 0.198036 -0.241481 0
    endloop
  endfacet
  facet normal 0.0654098 -0.997858 0
    outer loop
       vertex 0.133331 -0.25 0
       vertex 0.165962 -0.247861 0
       vertex 0.165962 -0.247861 0.1
    endloop
  endfacet
  facet normal 0.0654098 -0.997858 1.0893e-16
    outer loop
       vertex 0.165962 -0.247861 0.1
       vertex 0.133331 -0.25 0.1
       vertex 0.133331 -0.25 0
    endloop
  endfacet
  facet normal -0.0654098 -0.997858 0
    outer loop
       vertex 0.133331 -0.25 0.1
       vertex 0.100699 -0.247861 0.1
       vertex 0.100699 -0.247861 0
    endloop
  endfacet
  facet normal -0.0654098 -0.997858 -1.0893e-16
    outer loop
       vertex 0.100699 -0.247861 0
       vertex 0.133331 -0.25 0
       vertex 0.133331 -0.25 0.1
    endloop
  endfacet
  facet normal -0.195096 -0.980784 0
    outer loop
       vertex 0.100699 -0.247861 0
       vertex 0.100699 -0.247861 0.1
       vertex 0.0686256 -0.241481 0.1
    endloop
  endfacet
  facet normal -0.195096 -0.980784 -0
    outer loop
       vertex 0.0686256 -0.241481 0.1
       vertex 0.0686256 -0.241481 0
       vertex 0.100699 -0.247861 0
    endloop
  endfacet
  facet normal -0.321425 -0.946935 0
    outer loop
       vertex 0.0686256 -0.241481 0
       vertex 0.0686256 -0.241481 0.1
       vertex 0.0376596 -0.23097 0.1
    endloop
  endfacet
  facet normal -0.321425 -0.946935 -0
    outer loop
       vertex 0.0376596 -0.23097 0.1
       vertex 0.0376596 -0.23097 0
       vertex 0.0686256 -0.241481 0
    endloop
  endfacet
  facet normal -0.442302 -0.896866 0
    outer loop
       vertex 0.0376596 -0.23097 0
       vertex 0.0376596 -0.23097 0.1
       vertex 0.00833061 -0.216506 0.1
    endloop
  endfacet
  facet normal -0.442302 -0.896866 -0
    outer loop
       vertex 0.00833061 -0.216506 0.1
       vertex 0.00833061 -0.216506 0
       vertex 0.0376596 -0.23097 0
    endloop
  endfacet
  facet normal -0.555561 -0.831476 0
    outer loop
       vertex 0.00833061 -0.216506 0
       vertex 0.00833061 -0.216506 0.1
       vertex -0.0188604 -0.198338 0.1
    endloop
  endfacet
  facet normal -0.555561 -0.831476 -0
    outer loop
       vertex -0.0188604 -0.198338 0.1
       vertex -0.0188604 -0.198338 0
       vertex 0.00833061 -0.216506 0
    endloop
  endfacet
  facet normal -0.659372 -0.751817 0
    outer loop
       vertex -0.0188604 -0.198338 0
       vertex -0.0188604 -0.198338 0.1
       vertex -0.0434454 -0.176776 0.1
    endloop
  endfacet
  facet normal -0.659372 -0.751817 -0
    outer loop
       vertex -0.0434454 -0.176776 0.1
       vertex -0.0434454 -0.176776 0
       vertex -0.0188604 -0.198338 0
    endloop
  endfacet
endsolid cylinder
