solid cylinder
  facet normal 0.751817 -0.659372 0
    outer loop
       vertex 0.460677 -0.176776 0
       vertex 0.482239 -0.152191 0
       vertex 0.482239 -0.152191 0.1
    endloop
  endfacet
  facet normal 0.751817 -0.659372 0
    outer loop
       vertex 0.482239 -0.152191 0.1
       vertex 0.460677 -0.176776 0.1
       vertex 0.460677 -0.176776 0
    endloop
  endfacet
  facet normal 0.831476 -0.555561 0
    outer loop
       vertex 0.482239 -0.152191 0
       vertex 0.500407 -0.125 0
       vertex 0.500407 -0.125 0.1
    endloop
  endfacet
  facet normal 0.831476 -0.555561 0
    outer loop
       vertex 0.500407 -0.125 0.1
       vertex 0.482239 -0.152191 0.1
       vertex 0.482239 -0.152191 0
    endloop
  endfacet
  facet normal 0.896866 -0.442302 0
    outer loop
       vertex 0.500407 -0.125 0
       vertex 0.514871 -0.095671 0
       vertex 0.514871 -0.095671 0.1
    endloop
  endfacet
  facet normal 0.896866 -0.442302 0
    outer loop
       vertex 0.514871 -0.095671 0.1
       vertex 0.500407 -0.125 0.1
       vertex 0.500407 -0.125 0
    endloop
  endfacet
  facet normal 0.946935 -0.321425 0
    outer loop
       vertex 0.514871 -0.095671 0
       vertex 0.525382 -0.064705 0
       vertex 0.525382 -0.064705 0.1
    endloop
  endfacet
  facet normal 0.946935 -0.321425 0
    outer loop
       vertex 0.525382 -0.064705 0.1
       vertex 0.514871 -0.095671 0.1
       vertex 0.514871 -0.095671 0
    endloop
  endfacet
  facet normal 0.980784 -0.195096 0
    outer loop
       vertex 0.525382 -0.064705 0
       vertex 0.531762 -0.0326315 0
       vertex 0.531762 -0.0326315 0.1
    endloop
  endfacet
  facet normal 0.980784 -0.195096 0
    outer loop
       vertex 0.531762 -0.0326315 0.1
       vertex 0.525382 -0.064705 0.1
       vertex 0.525382 -0.064705 0
    endloop
  endfacet
  facet normal 0.997858 -0.0654098 0
    outer loop
       vertex 0.533901 -8.32665e-17 0.1
       vertex 0.531762 -0.0326315 0.1
       vertex 0.531762 -0.0326315 0
    endloop
  endfacet
  facet normal 0.997858 -0.0654098 -1.0893e-16
    outer loop
       vertex 0.531762 -0.0326315 0
       vertex 0.533901 8.32665e-17 0
       vertex 0.533901 -8.32665e-17 0.1
    endloop
  endfacet
  facet normal 0.997858 0.0654098 0
    outer loop
       vertex 0.533901 8.32665e-17 0
       vertex 0.531762 0.0326315 0
       vertex 0.531762 0.0326315 0.1
    endloop
  endfacet
  facet normal 0.997858 0.0654098 1.0893e-16
    outer loop
       vertex 0.531762 0.0326315 0.1
       vertex 0.533901 -8.32665e-17 0.1
       vertex 0.533901 8.32665e-17 0
    endloop
  endfacet
  facet normal 0.980784 0.195096 0
    outer loop
       vertex 0.531762 0.0326315 0
       vertex 0.525382 0.064705 0
       vertex 0.525382 0.064705 0.1
    endloop
  endfacet
  facet normal 0.980784 0.195096 0
    outer loop
       vertex 0.525382 0.064705 0.1
       vertex 0.531762 0.0326315 0.1
       vertex 0.531762 0.0326315 0
    endloop
  endfacet
  facet normal 0.946935 0.321425 0
    outer loop
       vertex 0.525382 0.064705 0
       vertex 0.514871 0.095671 0
       vertex 0.514871 0.095671 0.1
    endloop
  endfacet
  facet normal 0.946935 0.321425 0
    outer loop
       vertex 0.514871 0.095671 0.1
       vertex 0.525382 0.064705 0.1
       vertex 0.525382 0.064705 0
    endloop
  endfacet
  facet normal 0.896866 0.442302 0
    outer loop
       vertex 0.514871 0.095671 0
       vertex 0.500407 0.125 0
       vertex 0.500407 0.125 0.1
    endloop
  endfacet
  facet normal 0.896866 0.442302 0
    outer loop
       vertex 0.500407 0.125 0.1
       vertex 0.514871 0.095671 0.1
       vertex 0.514871 0.095671 0
    endloop
  endfacet
  facet normal 0.831476 0.555561 0
    outer loop
       vertex 0.500407 0.125 0
       vertex 0.482239 0.152191 0
       vertex 0.482239 0.152191 0.1
    endloop
  endfacet
  facet normal 0.831476 0.555561 0
    outer loop
       vertex 0.482239 0.152191 0.1
       vertex 0.500407 0.125 0.1
       vertex 0.500407 0.125 0
    endloop
  endfacet
  facet normal 0.751817 0.659372 0
    outer loop
       vertex 0.482239 0.152191 0
       vertex 0.460677 0.176776 0
       vertex 0.460677 0.176776 0.1
    endloop
  endfacet
  facet normal 0.751817 0.659372 0
    outer loop
       vertex 0.460677 0.176776 0.1
       vertex 0.482239 0.152191 0.1
       vertex 0.482239 0.152191 0
    endloop
  endfacet
  facet normal 0.659372 0.751817 0
    outer loop
       vertex 0.460677 0.176776 0
       vertex 0.436092 0.198338 0
       vertex 0.436092 0.198338 0.1
    endloop
  endfacet
  facet normal 0.659372 0.751817 0
    outer loop
       vertex 0.436092 0.198338 0.1
       vertex 0.460677 0.176776 0.1
       vertex 0.460677 0.176776 0
    endloop
  endfacet
  facet normal 0.555561 0.831476 0
    outer loop
       vertex 0.436092 0.198338 0
       vertex 0.408901 0.216506 0
       vertex 0.408901 0.216506 0.1
    endloop
  endfacet
  facet normal 0.555561 0.831476 0
    outer loop
       vertex 0.408901 0.216506 0.1
       vertex 0.436092 0.198338 0.1
       vertex 0.436092 0.198338 0
    endloop
  endfacet
  facet normal 0.442302 0.896866 0
    outer loop
       vertex 0.408901 0.216506 0
       vertex 0.379572 0.23097 0
       vertex 0.379572 0.23097 0.1
    endloop
  endfacet
  facet normal 0.442302 0.896866 0
    outer loop
       vertex 0.379572 0.23097 0.1
       vertex 0.408901 0.216506 0.1
       vertex 0.408901 0.216506 0
    endloop
  endfacet
  facet normal 0.321425 0.946935 0
    outer loop
       vertex 0.379572 0.23097 0
       vertex 0.348606 0.241481 0
       vertex 0.348606 0.241481 0.1
    endloop
  endfacet
  facet normal 0.321425 0.946935 0
    outer loop
       vertex 0.348606 0.241481 0.1
       vertex 0.379572 0.23097 0.1
       vertex 0.379572 0.23097 0
    endloop
  endfacet
  facet normal 0.195096 0.980784 0
    outer loop
       vertex 0.348606 0.241481 0
       vertex 0.316532 0.247861 0
       vertex 0.316532 0.247861 0.1
    endloop
  endfacet
  facet normal 0.195096 0.980784 0
    outer loop
       vertex 0.316532 0.247861 0.1
       vertex 0.348606 0.241481 0.1
       vertex 0.348606 0.241481 0
    endloop
  endfacet
  facet normal 0.0654098 0.997858 0
    outer loop
       vertex 0.283901 0.25 0.1
       vertex 0.316532 0.247861 0.1
       vertex 0.316532 0.247861 0
    endloop
  endfacet
  facet normal 0.0654098 0.997858 -7.26205e-17
    outer loop
       vertex 0.316532 0.247861 0
       vertex 0.283901 0.25 0
       vertex 0.283901 0.25 0.1
    endloop
  endfacet
  facet normal -0.0654098 0.997858 0
    outer loop
       vertex 0.283901 0.25 0
       vertex 0.251269 0.247861 0
       vertex 0.251269 0.247861 0.1
    endloop
  endfacet
  facet normal -0.0654098 0.997858 7.26205e-17
    outer loop
       vertex 0.251269 0.247861 0.1
       vertex 0.283901 0.25 0.1
       vertex 0.283901 0.25 0
    endloop
  endfacet
  facet normal -0.195096 0.980784 0
    outer loop
       vertex 0.251269 0.247861 0
       vertex 0.219196 0.241481 0
       vertex 0.219196 0.241481 0.1
    endloop
  endfacet
  facet normal -0.195096 0.980784 0
    outer loop
       vertex 0.219196 0.241481 0.1
       vertex 0.251269 0.247861 0.1
       vertex 0.251269 0.247861 0
    endloop
  endfacet
  facet normal -0.321425 0.946935 0
    outer loop
       vertex 0.219196 0.241481 0
       vertex 0.18823 0.23097 0
       vertex 0.18823 0.23097 0.1
    endloop
  endfacet
  facet normal -0.321425 0.946935 0
    outer loop
       vertex 0.18823 0.23097 0.1
       vertex 0.219196 0.241481 0.1
       vertex 0.219196 0.241481 0
    endloop
  endfacet
  facet normal -0.442302 0.896866 0
    outer loop
       vertex 0.18823 0.23097 0
       vertex 0.158901 0.216506 0
       vertex 0.158901 0.216506 0.1
    endloop
  endfacet
  facet normal -0.442302 0.896866 0
    outer loop
       vertex 0.158901 0.216506 0.1
       vertex 0.18823 0.23097 0.1
       vertex 0.18823 0.23097 0
    endloop
  endfacet
  facet normal -0.555561 0.831476 0
    outer loop
       vertex 0.158901 0.216506 0
       vertex 0.13171 0.198338 0
       vertex 0.13171 0.198338 0.1
    endloop
  endfacet
  facet normal -0.555561 0.831476 0
    outer loop
       vertex 0.13171 0.198338 0.1
       vertex 0.158901 0.216506 0.1
       vertex 0.158901 0.216506 0
    endloop
  endfacet
  facet normal -0.659372 0.751817 0
    outer loop
       vertex 0.13171 0.198338 0
       vertex 0.107125 0.176776 0
       vertex 0.107125 0.176776 0.1
    endloop
  endfacet
  facet normal -0.659372 0.751817 0
    outer loop
       vertex 0.107125 0.176776 0.1
       vertex 0.13171 0.198338 0.1
       vertex 0.13171 0.198338 0
    endloop
  endfacet
  facet normal -0.751817 0.659372 0
    outer loop
       vertex 0.107125 0.176776 0
       vertex 0.0855625 0.152191 0
       vertex 0.0855625 0.152191 0.1
    endloop
  endfacet
  facet normal -0.751817 0.659372 0
    outer loop
       vertex 0.0855625 0.152191 0.1
       vertex 0.107125 0.176776 0.1
       vertex 0.107125 0.176776 0
    endloop
  endfacet
  facet normal -0.831476 0.555561 0
    outer loop
       vertex 0.0855625 0.152191 0
       vertex 0.0673945 0.125 0
       vertex 0.0673945 0.125 0.1
    endloop
  endfacet
  facet normal -0.831476 0.555561 0
    outer loop
       vertex 0.0673945 0.125 0.1
       vertex 0.0855625 0.152191 0.1
       vertex 0.0855625 0.152191 0
    endloop
  endfacet
  facet normal -0.896866 0.442302 0
    outer loop
       vertex 0.0673945 0.125 0
       vertex 0.0529305 0.095671 0
       vertex 0.0529305 0.095671 0.1
    endloop
  endfacet
  facet normal -0.896866 0.442302 0
    outer loop
       vertex 0.0529305 0.095671 0.1
       vertex 0.0673945 0.125 0.1
       vertex 0.0673945 0.125 0
    endloop
  endfacet
  facet normal -0.946935 0.321425 0
    outer loop
       vertex 0.0529305 0.095671 0
       vertex 0.0424195 0.064705 0
       vertex 0.0424195 0.064705 0.1
    endloop
  endfacet
  facet normal -0.946935 0.321425 0
    outer loop
       vertex 0.0424195 0.064705 0.1
       vertex 0.0529305 0.095671 0.1
       vertex 0.0529305 0.095671 0
    endloop
  endfacet
  facet normal -0.980784 0.195096 0
    outer loop
       vertex 0.0424195 0.064705 0
       vertex 0.0360395 0.0326315 0
       vertex 0.0360395 0.0326315 0.1
    endloop
  endfacet
  facet normal -0.980784 0.195096 0
    outer loop
       vertex 0.0360395 0.0326315 0.1
       vertex 0.0424195 0.064705 0.1
       vertex 0.0424195 0.064705 0
    endloop
  endfacet
  facet normal -0.997858 0.0654098 0
    outer loop
       vertex 0.0339005 8.32665e-17 0.1
       vertex 0.0360395 0.0326315 0.1
       vertex 0.0360395 0.0326315 0
    endloop
  endfacet
  facet normal -0.997858 0.0654098 -1.08928e-16
    outer loop
       vertex 0.0360395 0.0326315 0
       vertex 0.0339005 -8.32665e-17 0
       vertex 0.0339005 8.32665e-17 0.1
    endloop
  endfacet
  facet normal -0.997858 -0.0654098 0
    outer loop
       vertex 0.0339005 -8.32665e-17 0
       vertex 0.0360395 -0.0326315 0
       vertex 0.0360395 -0.0326315 0.1
    endloop
  endfacet
  facet normal -0.997858 -0.0654098 1.08928e-16
    outer loop
       vertex 0.0360395 -0.0326315 0.1
       vertex 0.0339005 8.32665e-17 0.1
       vertex 0.0339005 -8.32665e-17 0
    endloop
  endfacet
  facet normal -0.980784 -0.195096 0
    outer loop
       vertex 0.0360395 -0.0326315 0
       vertex 0.0424195 -0.064705 0
       vertex 0.0424195 -0.064705 0.1
    endloop
  endfacet
  facet normal -0.980784 -0.195096 0
    outer loop
       vertex 0.0424195 -0.064705 0.1
       vertex 0.0360395 -0.0326315 0.1
       vertex 0.0360395 -0.0326315 0
    endloop
  endfacet
  facet normal -0.946935 -0.321425 0
    outer loop
       vertex 0.0424195 -0.064705 0
       vertex 0.0529305 -0.095671 0
       vertex 0.0529305 -0.095671 0.1
    endloop
  endfacet
  facet normal -0.946935 -0.321425 0
    outer loop
       vertex 0.0529305 -0.095671 0.1
       vertex 0.0424195 -0.064705 0.1
       vertex 0.0424195 -0.064705 0
    endloop
  endfacet
  facet normal -0.896866 -0.442302 0
    outer loop
       vertex 0.0529305 -0.095671 0
       vertex 0.0673945 -0.125 0
       vertex 0.0673945 -0.125 0.1
    endloop
  endfacet
  facet normal -0.896866 -0.442302 0
    outer loop
       vertex 0.0673945 -0.125 0.1
       vertex 0.0529305 -0.095671 0.1
       vertex 0.0529305 -0.095671 0
    endloop
  endfacet
  facet normal -0.831476 -0.555561 0
    outer loop
       vertex 0.0673945 -0.125 0
       vertex 0.0855625 -0.152191 0
       vertex 0.0855625 -0.152191 0.1
    endloop
  endfacet
  facet normal -0.831476 -0.555561 0
    outer loop
       vertex 0.0855625 -0.152191 0.1
       vertex 0.0673945 -0.125 0.1
       vertex 0.0673945 -0.125 0
    endloop
  endfacet
  facet normal -0.751817 -0.659372 0
    outer loop
       vertex 0.0855625 -0.152191 0
       vertex 0.107125 -0.176776 0
       vertex 0.107125 -0.176776 0.1
    endloop
  endfacet
  facet normal -0.751817 -0.659372 0
    outer loop
       vertex 0.107125 -0.176776 0.1
       vertex 0.0855625 -0.152191 0.1
       vertex 0.0855625 -0.152191 0
    endloop
  endfacet
  facet normal 0.659372 -0.751817 0
    outer loop
       vertex 0.460677 -0.176776 0
       vertex 0.460677 -0.176776 0.1
       vertex 0.436092 -0.198338 0.1
    endloop
  endfacet
  facet normal 0.659372 -0.751817 0
    outer loop
       vertex 0.436092 -0.198338 0.1
       vertex 0.436092 -0.198338 0
       vertex 0.460677 -0.176776 0
    endloop
  endfacet
  facet normal 0.555561 -0.831476 0
    outer loop
       vertex 0.436092 -0.198338 0
       vertex 0.436092 -0.198338 0.1
       vertex 0.408901 -0.216506 0.1
    endloop
  endfacet
  facet normal 0.555561 -0.831476 0
    outer loop
       vertex 0.408901 -0.216506 0.1
       vertex 0.408901 -0.216506 0
       vertex 0.436092 -0.198338 0
    endloop
  endfacet
  facet normal 0.442302 -0.896866 0
    outer loop
       vertex 0.408901 -0.216506 0
       vertex 0.408901 -0.216506 0.1
       vertex 0.379572 -0.23097 0.1
    endloop
  endfacet
  facet normal 0.442302 -0.896866 0
    outer loop
       vertex 0.379572 -0.23097 0.1
       vertex 0.379572 -0.23097 0
       vertex 0.408901 -0.216506 0
    endloop
  endfacet
  facet normal 0.321425 -0.946935 0
    outer loop
       vertex 0.379572 -0.23097 0
       vertex 0.379572 -0.23097 0.1
       vertex 0.348606 -0.241481 0.1
    endloop
  endfacet
  facet normal 0.321425 -0.946935 0
    outer loop
       vertex 0.348606 -0.241481 0.1
       vertex 0.348606 -0.241481 0
       vertex 0.379572 -0.23097 0
    endloop
  endfacet
  facet normal 0.195096 -0.980784 0
    outer loop
       vertex 0.348606 -0.241481 0
       vertex 0.348606 -0.241481 0.1
       vertex 0.316532 -0.247861 0.1
    endloop
  endfacet
  facet normal 0.195096 -0.980784 0
    outer loop
       vertex 0.316532 -0.247861 0.1
       vertex 0.316532 -0.247861 0
       vertex 0.348606 -0.241481 0
    endloop
  endfacet
  facet normal 0.0654098 -0.997858 0
    outer loop
       vertex 0.283901 -0.25 0
       vertex 0.316532 -0.247861 0
       vertex 0.316532 -0.247861 0.1
    endloop
  endfacet
  facet normal 0.0654098 -0.997858 7.26205e-17
    outer loop
       vertex 0.316532 -0.247861 0.1
       vertex 0.283901 -0.25 0.1
       vertex 0.283901 -0.25 0
    endloop
  endfacet
  facet normal -0.0654098 -0.997858 0
    outer loop
       vertex 0.283901 -0.25 0.1
       vertex 0.251269 -0.247861 0.1
       vertex 0.251269 -0.247861 0
    endloop
  endfacet
  facet normal -0.0654098 -0.997858 -7.26205e-17
    outer loop
       vertex 0.251269 -0.247861 0
       vertex 0.283901 -0.25 0
       vertex 0.283901 -0.25 0.1
    endloop
  endfacet
  facet normal -0.195096 -0.980784 0
    outer loop
       vertex 0.251269 -0.247861 0
       vertex 0.251269 -0.247861 0.1
       vertex 0.219196 -0.241481 0.1
    endloop
  endfacet
  facet normal -0.195096 -0.980784 -0
    outer loop
       vertex 0.219196 -0.241481 0.1
       vertex 0.219196 -0.241481 0
       vertex 0.251269 -0.247861 0
    endloop
  endfacet
  facet normal -0.321425 -0.946935 0
    outer loop
       vertex 0.219196 -0.241481 0
       vertex 0.219196 -0.241481 0.1
       vertex 0.18823 -0.23097 0.1
    endloop
  endfacet
  facet normal -0.321425 -0.946935 -0
    outer loop
       vertex 0.18823 -0.23097 0.1
       vertex 0.18823 -0.23097 0
       vertex 0.219196 -0.241481 0
    endloop
  endfacet
  facet normal -0.442302 -0.896866 0
    outer loop
       vertex 0.18823 -0.23097 0
       vertex 0.18823 -0.23097 0.1
       vertex 0.158901 -0.216506 0.1
    endloop
  endfacet
  facet normal -0.442302 -0.896866 -0
    outer loop
       vertex 0.158901 -0.216506 0.1
       vertex 0.158901 -0.216506 0
       vertex 0.18823 -0.23097 0
    endloop
  endfacet
  facet normal -0.555561 -0.831476 0
    outer loop
       vertex 0.158901 -0.216506 0
       vertex 0.158901 -0.216506 0.1
       vertex 0.13171 -0.198338 0.1
    endloop
  endfacet
  facet normal -0.555561 -0.831476 -0
    outer loop
       vertex 0.13171 -0.198338 0.1
       vertex 0.13171 -0.198338 0
       vertex 0.158901 -0.216506 0
    endloop
  endfacet
  facet normal -0.659372 -0.751817 0
    outer loop
       vertex 0.13171 -0.198338 0
       vertex 0.13171 -0.198338 0.1
       vertex 0.107125 -0.176776 0.1
    endloop
  endfacet
  facet normal -0.659372 -0.751817 -0
    outer loop
       vertex 0.107125 -0.176776 0.1
       vertex 0.107125 -0.176776 0
       vertex 0.13171 -0.198338 0
    endloop
  endfacet
endsolid cylinder
