solid cylinder
  facet normal 0.751817 -0.659372 0
    outer loop
       vertex 0.00663657 -0.176776 0
       vertex 0.0281986 -0.152191 0
       vertex 0.0281986 -0.152191 0.1
    endloop
  endfacet
  facet normal 0.751817 -0.659372 0
    outer loop
       vertex 0.0281986 -0.152191 0.1
       vertex 0.00663657 -0.176776 0.1
       vertex 0.00663657 -0.176776 0
    endloop
  endfacet
  facet normal 0.831476 -0.555561 0
    outer loop
       vertex 0.0281986 -0.152191 0
       vertex 0.0463666 -0.125 0
       vertex 0.0463666 -0.125 0.1
    endloop
  endfacet
  facet normal 0.831476 -0.555561 0
    outer loop
       vertex 0.0463666 -0.125 0.1
       vertex 0.0281986 -0.152191 0.1
       vertex 0.0281986 -0.152191 0
    endloop
  endfacet
  facet normal 0.896866 -0.442302 0
    outer loop
       vertex 0.0463666 -0.125 0
       vertex 0.0608306 -0.095671 0
       vertex 0.0608306 -0.095671 0.1
    endloop
  endfacet
  facet normal 0.896866 -0.442302 0
    outer loop
       vertex 0.0608306 -0.095671 0.1
       vertex 0.0463666 -0.125 0.1
       vertex 0.0463666 -0.125 0
    endloop
  endfacet
  facet normal 0.946935 -0.321425 0
    outer loop
       vertex 0.0608306 -0.095671 0
       vertex 0.0713416 -0.064705 0
       vertex 0.0713416 -0.064705 0.1
    endloop
  endfacet
  facet normal 0.946935 -0.321425 0
    outer loop
       vertex 0.0713416 -0.064705 0.1
       vertex 0.0608306 -0.095671 0.1
       vertex 0.0608306 -0.095671 0
    endloop
  endfacet
  facet normal 0.980784 -0.195096 0
    outer loop
       vertex 0.0713416 -0.064705 0
       vertex 0.0777216 -0.0326315 0
       vertex 0.0777216 -0.0326315 0.1
    endloop
  endfacet
  facet normal 0.980784 -0.195096 0
    outer loop
       vertex 0.0777216 -0.0326315 0.1
       vertex 0.0713416 -0.064705 0.1
       vertex 0.0713416 -0.064705 0
    endloop
  endfacet
  facet normal 0.997858 -0.0654098 0
    outer loop
       vertex 0.0798606 -8.32665e-17 0.1
       vertex 0.0777216 -0.0326315 0.1
       vertex 0.0777216 -0.0326315 0
    endloop
  endfacet
  facet normal 0.997858 -0.0654098 -1.08928e-16
    outer loop
       vertex 0.0777216 -0.0326315 0
       vertex 0.0798606 8.32665e-17 0
       vertex 0.0798606 -8.32665e-17 0.1
    endloop
  endfacet
  facet normal 0.997858 0.0654098 0
    outer loop
       vertex 0.0798606 8.32665e-17 0
       vertex 0.0777216 0.0326315 0
       vertex 0.0777216 0.0326315 0.1
    endloop
  endfacet
  facet normal 0.997858 0.0654098 1.08928e-16
    outer loop
       vertex 0.0777216 0.0326315 0.1
       vertex 0.0798606 -8.32665e-17 0.1
       vertex 0.0798606 8.32665e-17 0
    endloop
  endfacet
  facet normal 0.980784 0.195096 0
    outer loop
       vertex 0.0777216 0.0326315 0
       vertex 0.0713416 0.064705 0
       vertex 0.0713416 0.064705 0.1
    endloop
  endfacet
  facet normal 0.980784 0.195096 0
    outer loop
       vertex 0.0713416 0.064705 0.1
       vertex 0.0777216 0.0326315 0.1
       vertex 0.0777216 0.0326315 0
    endloop
  endfacet
  facet normal 0.946935 0.321425 0
    outer loop
       vertex 0.0713416 0.064705 0
       vertex 0.0608306 0.095671 0
       vertex 0.0608306 0.095671 0.1
    endloop
  endfacet
  facet normal 0.946935 0.321425 0
    outer loop
       vertex 0.0608306 0.095671 0.1
       vertex 0.0713416 0.064705 0.1
       vertex 0.0713416 0.064705 0
    endloop
  endfacet
  facet normal 0.896866 0.442302 0
    outer loop
       vertex 0.0608306 0.095671 0
       vertex 0.0463666 0.125 0
       vertex 0.0463666 0.125 0.1
    endloop
  endfacet
  facet normal 0.896866 0.442302 0
    outer loop
       vertex 0.0463666 0.125 0.1
       vertex 0.0608306 0.095671 0.1
       vertex 0.0608306 0.095671 0
    endloop
  endfacet
  facet normal 0.831476 0.555561 0
    outer loop
       vertex 0.0463666 0.125 0
       vertex 0.0281986 0.152191 0
       vertex 0.0281986 0.152191 0.1
    endloop
  endfacet
  facet normal 0.831476 0.555561 0
    outer loop
       vertex 0.0281986 0.152191 0.1
       vertex 0.0463666 0.125 0.1
       vertex 0.0463666 0.125 0
    endloop
  endfacet
  facet normal 0.751817 0.659372 0
    outer loop
       vertex 0.0281986 0.152191 0
       vertex 0.00663657 0.176776 0
       vertex 0.00663657 0.176776 0.1
    endloop
  endfacet
  facet normal 0.751817 0.659372 0
    outer loop
       vertex 0.00663657 0.176776 0.1
       vertex 0.0281986 0.152191 0.1
       vertex 0.0281986 0.152191 0
    endloop
  endfacet
  facet normal 0.659372 0.751817 0
    outer loop
       vertex 0.00663657 0.176776 0
       vertex -0.0179484 0.198338 0
       vertex -0.0179484 0.198338 0.1
    endloop
  endfacet
  facet normal 0.659372 0.751817 0
    outer loop
       vertex -0.0179484 0.198338 0.1
       vertex 0.00663657 0.176776 0.1
       vertex 0.00663657 0.176776 0
    endloop
  endfacet
  facet normal 0.555561 0.831476 0
    outer loop
       vertex -0.0179484 0.198338 0
       vertex -0.0451394 0.216506 0
       vertex -0.0451394 0.216506 0.1
    endloop
  endfacet
  facet normal 0.555561 0.831476 0
    outer loop
       vertex -0.0451394 0.216506 0.1
       vertex -0.0179484 0.198338 0.1
       vertex -0.0179484 0.198338 0
    endloop
  endfacet
  facet normal 0.442302 0.896866 0
    outer loop
       vertex -0.0451394 0.216506 0
       vertex -0.0744684 0.23097 0
       vertex -0.0744684 0.23097 0.1
    endloop
  endfacet
  facet normal 0.442302 0.896866 0
    outer loop
       vertex -0.0744684 0.23097 0.1
       vertex -0.0451394 0.216506 0.1
       vertex -0.0451394 0.216506 0
    endloop
  endfacet
  facet normal 0.321425 0.946935 0
    outer loop
       vertex -0.0744684 0.23097 0
       vertex -0.105434 0.241481 0
       vertex -0.105434 0.241481 0.1
    endloop
  endfacet
  facet normal 0.321425 0.946935 0
    outer loop
       vertex -0.105434 0.241481 0.1
       vertex -0.0744684 0.23097 0.1
       vertex -0.0744684 0.23097 0
    endloop
  endfacet
  facet normal 0.195096 0.980784 0
    outer loop
       vertex -0.105434 0.241481 0
       vertex -0.137508 0.247861 0
       vertex -0.137508 0.247861 0.1
    endloop
  endfacet
  facet normal 0.195096 0.980784 0
    outer loop
       vertex -0.137508 0.247861 0.1
       vertex -0.105434 0.241481 0.1
       vertex -0.105434 0.241481 0
    endloop
  endfacet
  facet normal 0.0654098 0.997858 0
    outer loop
       vertex -0.170139 0.25 0.1
       vertex -0.137508 0.247861 0.1
       vertex -0.137508 0.247861 0
    endloop
  endfacet
  facet normal 0.0654098 0.997858 -1.0893e-16
    outer loop
       vertex -0.137508 0.247861 0
       vertex -0.170139 0.25 0
       vertex -0.170139 0.25 0.1
    endloop
  endfacet
  facet normal -0.0654098 0.997858 0
    outer loop
       vertex -0.170139 0.25 0
       vertex -0.202771 0.247861 0
       vertex -0.202771 0.247861 0.1
    endloop
  endfacet
  facet normal -0.0654098 0.997858 1.0893e-16
    outer loop
       vertex -0.202771 0.247861 0.1
       vertex -0.170139 0.25 0.1
       vertex -0.170139 0.25 0
    endloop
  endfacet
  facet normal -0.195096 0.980784 0
    outer loop
       vertex -0.202771 0.247861 0
       vertex -0.234844 0.241481 0
       vertex -0.234844 0.241481 0.1
    endloop
  endfacet
  facet normal -0.195096 0.980784 0
    outer loop
       vertex -0.234844 0.241481 0.1
       vertex -0.202771 0.247861 0.1
       vertex -0.202771 0.247861 0
    endloop
  endfacet
  facet normal -0.321425 0.946935 0
    outer loop
       vertex -0.234844 0.241481 0
       vertex -0.26581 0.23097 0
       vertex -0.26581 0.23097 0.1
    endloop
  endfacet
  facet normal -0.321425 0.946935 0
    outer loop
       vertex -0.26581 0.23097 0.1
       vertex -0.234844 0.241481 0.1
       vertex -0.234844 0.241481 0
    endloop
  endfacet
  facet normal -0.442302 0.896866 0
    outer loop
       vertex -0.26581 0.23097 0
       vertex -0.295139 0.216506 0
       vertex -0.295139 0.216506 0.1
    endloop
  endfacet
  facet normal -0.442302 0.896866 0
    outer loop
       vertex -0.295139 0.216506 0.1
       vertex -0.26581 0.23097 0.1
       vertex -0.26581 0.23097 0
    endloop
  endfacet
  facet normal -0.555561 0.831476 0
    outer loop
       vertex -0.295139 0.216506 0
       vertex -0.32233 0.198338 0
       vertex -0.32233 0.198338 0.1
    endloop
  endfacet
  facet normal -0.555561 0.831476 0
    outer loop
       vertex -0.32233 0.198338 0.1
       vertex -0.295139 0.216506 0.1
       vertex -0.295139 0.216506 0
    endloop
  endfacet
  facet normal -0.659372 0.751817 0
    outer loop
       vertex -0.32233 0.198338 0
       vertex -0.346915 0.176776 0
       vertex -0.346915 0.176776 0.1
    endloop
  endfacet
  facet normal -0.659372 0.751817 0
    outer loop
       vertex -0.346915 0.176776 0.1
       vertex -0.32233 0.198338 0.1
       vertex -0.32233 0.198338 0
    endloop
  endfacet
  facet normal -0.751817 0.659372 0
    outer loop
       vertex -0.346915 0.176776 0
       vertex -0.368477 0.152191 0
       vertex -0.368477 0.152191 0.1
    endloop
  endfacet
  facet normal -0.751817 0.659372 0
    outer loop
       vertex -0.368477 0.152191 0.1
       vertex -0.346915 0.176776 0.1
       vertex -0.346915 0.176776 0
    endloop
  endfacet
  facet normal -0.831476 0.555561 0
    outer loop
       vertex -0.368477 0.152191 0
       vertex -0.386645 0.125 0
       vertex -0.386645 0.125 0.1
    endloop
  endfacet
  facet normal -0.831476 0.555561 0
    outer loop
       vertex -0.386645 0.125 0.1
       vertex -0.368477 0.152191 0.1
       vertex -0.368477 0.152191 0
    endloop
  endfacet
  facet normal -0.896866 0.442302 0
    outer loop
       vertex -0.386645 0.125 0
       vertex -0.401109 0.095671 0
       vertex -0.401109 0.095671 0.1
    endloop
  endfacet
  facet normal -0.896866 0.442302 0
    outer loop
       vertex -0.401109 0.095671 0.1
       vertex -0.386645 0.125 0.1
       vertex -0.386645 0.125 0
    endloop
  endfacet
  facet normal -0.946935 0.321425 0
    outer loop
       vertex -0.401109 0.095671 0
       vertex -0.41162 0.064705 0
       vertex -0.41162 0.064705 0.1
    endloop
  endfacet
  facet normal -0.946935 0.321425 0
    outer loop
       vertex -0.41162 0.064705 0.1
       vertex -0.401109 0.095671 0.1
       vertex -0.401109 0.095671 0
    endloop
  endfacet
  facet normal -0.980784 0.195096 0
    outer loop
       vertex -0.41162 0.064705 0
       vertex -0.418 0.0326315 0
       vertex -0.418 0.0326315 0.1
    endloop
  endfacet
  facet normal -0.980784 0.195096 0
    outer loop
       vertex -0.418 0.0326315 0.1
       vertex -0.41162 0.064705 0.1
       vertex -0.41162 0.064705 0
    endloop
  endfacet
  facet normal -0.997858 0.0654098 0
    outer loop
       vertex -0.420139 8.32665e-17 0.1
       vertex -0.418 0.0326315 0.1
       vertex -0.418 0.0326315 0
    endloop
  endfacet
  facet normal -0.997858 0.0654098 -1.08928e-16
    outer loop
       vertex -0.418 0.0326315 0
       vertex -0.420139 -8.32665e-17 0
       vertex -0.420139 8.32665e-17 0.1
    endloop
  endfacet
  facet normal -0.997858 -0.0654098 0
    outer loop
       vertex -0.420139 -8.32665e-17 0
       vertex -0.418 -0.0326315 0
       vertex -0.418 -0.0326315 0.1
    endloop
  endfacet
  facet normal -0.997858 -0.0654098 1.08928e-16
    outer loop
       vertex -0.418 -0.0326315 0.1
       vertex -0.420139 8.32665e-17 0.1
       vertex -0.420139 -8.32665e-17 0
    endloop
  endfacet
  facet normal -0.980784 -0.195096 0
    outer loop
       vertex -0.418 -0.0326315 0
       vertex -0.41162 -0.064705 0
       vertex -0.41162 -0.064705 0.1
    endloop
  endfacet
  facet normal -0.980784 -0.195096 0
    outer loop
       vertex -0.41162 -0.064705 0.1
       vertex -0.418 -0.0326315 0.1
       vertex -0.418 -0.0326315 0
    endloop
  endfacet
  facet normal -0.946935 -0.321425 0
    outer loop
       vertex -0.41162 -0.064705 0
       vertex -0.401109 -0.095671 0
       vertex -0.401109 -0.095671 0.1
    endloop
  endfacet
  facet normal -0.946935 -0.321425 0
    outer loop
       vertex -0.401109 -0.095671 0.1
       vertex -0.41162 -0.064705 0.1
       vertex -0.41162 -0.064705 0
    endloop
  endfacet
  facet normal -0.896866 -0.442302 0
    outer loop
       vertex -0.401109 -0.095671 0
       vertex -0.386645 -0.125 0
       vertex -0.386645 -0.125 0.1
    endloop
  endfacet
  facet normal -0.896866 -0.442302 0
    outer loop
       vertex -0.386645 -0.125 0.1
       vertex -0.401109 -0.095671 0.1
       vertex -0.401109 -0.095671 0
    endloop
  endfacet
  facet normal -0.831476 -0.555561 0
    outer loop
       vertex -0.386645 -0.125 0
       vertex -0.368477 -0.152191 0
       vertex -0.368477 -0.152191 0.1
    endloop
  endfacet
  facet normal -0.831476 -0.555561 0
    outer loop
       vertex -0.368477 -0.152191 0.1
       vertex -0.386645 -0.125 0.1
       vertex -0.386645 -0.125 0
    endloop
  endfacet
  facet normal -0.751817 -0.659372 0
    outer loop
       vertex -0.368477 -0.152191 0
       vertex -0.346915 -0.176776 0
       vertex -0.346915 -0.176776 0.1
    endloop
  endfacet
  facet normal -0.751817 -0.659372 0
    outer loop
       vertex -0.346915 -0.176776 0.1
       vertex -0.368477 -0.152191 0.1
       vertex -0.368477 -0.152191 0
    endloop
  endfacet
  facet normal 0.659372 -0.751817 0
    outer loop
       vertex 0.00663657 -0.176776 0
       vertex 0.00663657 -0.176776 0.1
       vertex -0.0179484 -0.198338 0.1
    endloop
  endfacet
  facet normal 0.659372 -0.751817 0
    outer loop
       vertex -0.0179484 -0.198338 0.1
       vertex -0.0179484 -0.198338 0
       vertex 0.00663657 -0.176776 0
    endloop
  endfacet
  facet normal 0.555561 -0.831476 0
    outer loop
       vertex -0.0179484 -0.198338 0
       vertex -0.0179484 -0.198338 0.1
       vertex -0.0451394 -0.216506 0.1
    endloop
  endfacet
  facet normal 0.555561 -0.831476 0
    outer loop
       vertex -0.0451394 -0.216506 0.1
       vertex -0.0451394 -0.216506 0
       vertex -0.0179484 -0.198338 0
    endloop
  endfacet
  facet normal 0.442302 -0.896866 0
    outer loop
       vertex -0.0451394 -0.216506 0
       vertex -0.0451394 -0.216506 0.1
       vertex -0.0744684 -0.23097 0.1
    endloop
  endfacet
  facet normal 0.442302 -0.896866 0
    outer loop
       vertex -0.0744684 -0.23097 0.1
       vertex -0.0744684 -0.23097 0
       vertex -0.0451394 -0.216506 0
    endloop
  endfacet
  facet normal 0.321425 -0.946935 0
    outer loop
       vertex -0.0744684 -0.23097 0
       vertex -0.0744684 -0.23097 0.1
       vertex -0.105434 -0.241481 0.1
    endloop
  endfacet
  facet normal 0.321425 -0.946935 0
    outer loop
       vertex -0.105434 -0.241481 0.1
       vertex -0.105434 -0.241481 0
       vertex -0.0744684 -0.23097 0
    endloop
  endfacet
  facet normal 0.195096 -0.980784 0
    outer loop
       vertex -0.105434 -0.241481 0
       vertex -0.105434 -0.241481 0.1
       vertex -0.137508 -0.247861 0.1
    endloop
  endfacet
  facet normal 0.195096 -0.980784 0
    outer loop
       vertex -0.137508 -0.247861 0.1
       vertex -0.137508 -0.247861 0
       vertex -0.105434 -0.241481 0
    endloop
  endfacet
  facet normal 0.0654098 -0.997858 0
    outer loop
       vertex -0.170139 -0.25 0
       vertex -0.137508 -0.247861 0
       vertex -0.137508 -0.247861 0.1
    endloop
  endfacet
  facet normal 0.0654098 -0.997858 1.0893e-16
    outer loop
       vertex -0.137508 -0.247861 0.1
       vertex -0.170139 -0.25 0.1
       vertex -0.170139 -0.25 0
    endloop
  endfacet
  facet normal -0.0654098 -0.997858 0
    outer loop
       vertex -0.170139 -0.25 0.1
       vertex -0.202771 -0.247861 0.1
       vertex -0.202771 -0.247861 0
    endloop
  endfacet
  facet normal -0.0654098 -0.997858 -1.0893e-16
    outer loop
       vertex -0.202771 -0.247861 0
       vertex -0.170139 -0.25 0
       vertex -0.170139 -0.25 0.1
    endloop
  endfacet
  facet normal -0.195096 -0.980784 0
    outer loop
       vertex -0.202771 -0.247861 0
       vertex -0.202771 -0.247861 0.1
       vertex -0.234844 -0.241481 0.1
    endloop
  endfacet
  facet normal -0.195096 -0.980784 -0
    outer loop
       vertex -0.234844 -0.241481 0.1
       vertex -0.234844 -0.241481 0
       vertex -0.202771 -0.247861 0
    endloop
  endfacet
  facet normal -0.321425 -0.946935 0
    outer loop
       vertex -0.234844 -0.241481 0
       vertex -0.234844 -0.241481 0.1
       vertex -0.26581 -0.23097 0.1
    endloop
  endfacet
  facet normal -0.321425 -0.946935 -0
    outer loop
       vertex -0.26581 -0.23097 0.1
       vertex -0.26581 -0.23097 0
       vertex -0.234844 -0.241481 0
    endloop
  endfacet
  facet normal -0.442302 -0.896866 0
    outer loop
       vertex -0.26581 -0.23097 0
       vertex -0.26581 -0.23097 0.1
       vertex -0.295139 -0.216506 0.1
    endloop
  endfacet
  facet normal -0.442302 -0.896866 -0
    outer loop
       vertex -0.295139 -0.216506 0.1
       vertex -0.295139 -0.216506 0
       vertex -0.26581 -0.23097 0
    endloop
  endfacet
  facet normal -0.555561 -0.831476 0
    outer loop
       vertex -0.295139 -0.216506 0
       vertex -0.295139 -0.216506 0.1
       vertex -0.32233 -0.198338 0.1
    endloop
  endfacet
  facet normal -0.555561 -0.831476 -0
    outer loop
       vertex -0.32233 -0.198338 0.1
       vertex -0.32233 -0.198338 0
       vertex -0.295139 -0.216506 0
    endloop
  endfacet
  facet normal -0.659372 -0.751817 0
    outer loop
       vertex -0.32233 -0.198338 0
       vertex -0.32233 -0.198338 0.1
       vertex -0.346915 -0.176776 0.1
    endloop
  endfacet
  facet normal -0.659372 -0.751817 -0
    outer loop
       vertex -0.346915 -0.176776 0.1
       vertex -0.346915 -0.176776 0
       vertex -0.32233 -0.198338 0
    endloop
  endfacet
endsolid cylinder
