solid cylinder
  facet normal 0.751817 -0.659372 0
    outer loop
       vertex -0.027336 -0.176776 0
       vertex -0.00577399 -0.152191 0
       vertex -0.00577399 -0.152191 0.1
    endloop
  endfacet
  facet normal 0.751817 -0.659372 0
    outer loop
       vertex -0.00577399 -0.152191 0.1
       vertex -0.027336 -0.176776 0.1
       vertex -0.027336 -0.176776 0
    endloop
  endfacet
  facet normal 0.831476 -0.555561 0
    outer loop
       vertex -0.00577399 -0.152191 0
       vertex 0.012394 -0.125 0
       vertex 0.012394 -0.125 0.1
    endloop
  endfacet
  facet normal 0.831476 -0.555561 0
    outer loop
       vertex 0.012394 -0.125 0.1
       vertex -0.00577399 -0.152191 0.1
       vertex -0.00577399 -0.152191 0
    endloop
  endfacet
  facet normal 0.896866 -0.442302 0
    outer loop
       vertex 0.012394 -0.125 0
       vertex 0.026858 -0.095671 0
       vertex 0.026858 -0.095671 0.1
    endloop
  endfacet
  facet normal 0.896866 -0.442302 0
    outer loop
       vertex 0.026858 -0.095671 0.1
       vertex 0.012394 -0.125 0.1
       vertex 0.012394 -0.125 0
    endloop
  endfacet
  facet normal 0.946935 -0.321425 0
    outer loop
       vertex 0.026858 -0.095671 0
       vertex 0.037369 -0.064705 0
       vertex 0.037369 -0.064705 0.1
    endloop
  endfacet
  facet normal 0.946935 -0.321425 0
    outer loop
       vertex 0.037369 -0.064705 0.1
       vertex 0.026858 -0.095671 0.1
       vertex 0.026858 -0.095671 0
    endloop
  endfacet
  facet normal 0.980784 -0.195096 0
    outer loop
       vertex 0.037369 -0.064705 0
       vertex 0.043749 -0.0326315 0
       vertex 0.043749 -0.0326315 0.1
    endloop
  endfacet
  facet normal 0.980784 -0.195096 0
    outer loop
       vertex 0.043749 -0.0326315 0.1
       vertex 0.037369 -0.064705 0.1
       vertex 0.037369 -0.064705 0
    endloop
  endfacet
  facet normal 0.997858 -0.0654098 0
    outer loop
       vertex 0.045888 -8.32665e-17 0.1
       vertex 0.043749 -0.0326315 0.1
       vertex 0.043749 -0.0326315 0
    endloop
  endfacet
  facet normal 0.997858 -0.0654098 -1.08928e-16
    outer loop
       vertex 0.043749 -0.0326315 0
       vertex 0.045888 8.32665e-17 0
       vertex 0.045888 -8.32665e-17 0.1
    endloop
  endfacet
  facet normal 0.997858 0.0654098 0
    outer loop
       vertex 0.045888 8.32665e-17 0
       vertex 0.043749 0.0326315 0
       vertex 0.043749 0.0326315 0.1
    endloop
  endfacet
  facet normal 0.997858 0.0654098 1.08928e-16
    outer loop
       vertex 0.043749 0.0326315 0.1
       vertex 0.045888 -8.32665e-17 0.1
       vertex 0.045888 8.32665e-17 0
    endloop
  endfacet
  facet normal 0.980784 0.195096 0
    outer loop
       vertex 0.043749 0.0326315 0
       vertex 0.037369 0.064705 0
       vertex 0.037369 0.064705 0.1
    endloop
  endfacet
  facet normal 0.980784 0.195096 0
    outer loop
       vertex 0.037369 0.064705 0.1
       vertex 0.043749 0.0326315 0.1
       vertex 0.043749 0.0326315 0
    endloop
  endfacet
  facet normal 0.946935 0.321425 0
    outer loop
       vertex 0.037369 0.064705 0
       vertex 0.026858 0.095671 0
       vertex 0.026858 0.095671 0.1
    endloop
  endfacet
  facet normal 0.946935 0.321425 0
    outer loop
       vertex 0.026858 0.095671 0.1
       vertex 0.037369 0.064705 0.1
       vertex 0.037369 0.064705 0
    endloop
  endfacet
  facet normal 0.896866 0.442302 0
    outer loop
       vertex 0.026858 0.095671 0
       vertex 0.012394 0.125 0
       vertex 0.012394 0.125 0.1
    endloop
  endfacet
  facet normal 0.896866 0.442302 0
    outer loop
       vertex 0.012394 0.125 0.1
       vertex 0.026858 0.095671 0.1
       vertex 0.026858 0.095671 0
    endloop
  endfacet
  facet normal 0.831476 0.555561 0
    outer loop
       vertex 0.012394 0.125 0
       vertex -0.00577399 0.152191 0
       vertex -0.00577399 0.152191 0.1
    endloop
  endfacet
  facet normal 0.831476 0.555561 0
    outer loop
       vertex -0.00577399 0.152191 0.1
       vertex 0.012394 0.125 0.1
       vertex 0.012394 0.125 0
    endloop
  endfacet
  facet normal 0.751817 0.659372 0
    outer loop
       vertex -0.00577399 0.152191 0
       vertex -0.027336 0.176776 0
       vertex -0.027336 0.176776 0.1
    endloop
  endfacet
  facet normal 0.751817 0.659372 0
    outer loop
       vertex -0.027336 0.176776 0.1
       vertex -0.00577399 0.152191 0.1
       vertex -0.00577399 0.152191 0
    endloop
  endfacet
  facet normal 0.659372 0.751817 0
    outer loop
       vertex -0.027336 0.176776 0
       vertex -0.051921 0.198338 0
       vertex -0.051921 0.198338 0.1
    endloop
  endfacet
  facet normal 0.659372 0.751817 0
    outer loop
       vertex -0.051921 0.198338 0.1
       vertex -0.027336 0.176776 0.1
       vertex -0.027336 0.176776 0
    endloop
  endfacet
  facet normal 0.555561 0.831476 0
    outer loop
       vertex -0.051921 0.198338 0
       vertex -0.079112 0.216506 0
       vertex -0.079112 0.216506 0.1
    endloop
  endfacet
  facet normal 0.555561 0.831476 0
    outer loop
       vertex -0.079112 0.216506 0.1
       vertex -0.051921 0.198338 0.1
       vertex -0.051921 0.198338 0
    endloop
  endfacet
  facet normal 0.442302 0.896866 0
    outer loop
       vertex -0.079112 0.216506 0
       vertex -0.108441 0.23097 0
       vertex -0.108441 0.23097 0.1
    endloop
  endfacet
  facet normal 0.442302 0.896866 0
    outer loop
       vertex -0.108441 0.23097 0.1
       vertex -0.079112 0.216506 0.1
       vertex -0.079112 0.216506 0
    endloop
  endfacet
  facet normal 0.321425 0.946935 0
    outer loop
       vertex -0.108441 0.23097 0
       vertex -0.139407 0.241481 0
       vertex -0.139407 0.241481 0.1
    endloop
  endfacet
  facet normal 0.321425 0.946935 0
    outer loop
       vertex -0.139407 0.241481 0.1
       vertex -0.108441 0.23097 0.1
       vertex -0.108441 0.23097 0
    endloop
  endfacet
  facet normal 0.195096 0.980784 0
    outer loop
       vertex -0.139407 0.241481 0
       vertex -0.17148 0.247861 0
       vertex -0.17148 0.247861 0.1
    endloop
  endfacet
  facet normal 0.195096 0.980784 0
    outer loop
       vertex -0.17148 0.247861 0.1
       vertex -0.139407 0.241481 0.1
       vertex -0.139407 0.241481 0
    endloop
  endfacet
  facet normal 0.0654098 0.997858 0
    outer loop
       vertex -0.204112 0.25 0.1
       vertex -0.17148 0.247861 0.1
       vertex -0.17148 0.247861 0
    endloop
  endfacet
  facet normal 0.0654098 0.997858 -1.0893e-16
    outer loop
       vertex -0.17148 0.247861 0
       vertex -0.204112 0.25 0
       vertex -0.204112 0.25 0.1
    endloop
  endfacet
  facet normal -0.0654098 0.997858 0
    outer loop
       vertex -0.204112 0.25 0
       vertex -0.236743 0.247861 0
       vertex -0.236743 0.247861 0.1
    endloop
  endfacet
  facet normal -0.0654098 0.997858 1.0893e-16
    outer loop
       vertex -0.236743 0.247861 0.1
       vertex -0.204112 0.25 0.1
       vertex -0.204112 0.25 0
    endloop
  endfacet
  facet normal -0.195096 0.980784 0
    outer loop
       vertex -0.236743 0.247861 0
       vertex -0.268817 0.241481 0
       vertex -0.268817 0.241481 0.1
    endloop
  endfacet
  facet normal -0.195096 0.980784 0
    outer loop
       vertex -0.268817 0.241481 0.1
       vertex -0.236743 0.247861 0.1
       vertex -0.236743 0.247861 0
    endloop
  endfacet
  facet normal -0.321425 0.946935 0
    outer loop
       vertex -0.268817 0.241481 0
       vertex -0.299783 0.23097 0
       vertex -0.299783 0.23097 0.1
    endloop
  endfacet
  facet normal -0.321425 0.946935 0
    outer loop
       vertex -0.299783 0.23097 0.1
       vertex -0.268817 0.241481 0.1
       vertex -0.268817 0.241481 0
    endloop
  endfacet
  facet normal -0.442302 0.896866 0
    outer loop
       vertex -0.299783 0.23097 0
       vertex -0.329112 0.216506 0
       vertex -0.329112 0.216506 0.1
    endloop
  endfacet
  facet normal -0.442302 0.896866 0
    outer loop
       vertex -0.329112 0.216506 0.1
       vertex -0.299783 0.23097 0.1
       vertex -0.299783 0.23097 0
    endloop
  endfacet
  facet normal -0.555561 0.831476 0
    outer loop
       vertex -0.329112 0.216506 0
       vertex -0.356303 0.198338 0
       vertex -0.356303 0.198338 0.1
    endloop
  endfacet
  facet normal -0.555561 0.831476 0
    outer loop
       vertex -0.356303 0.198338 0.1
       vertex -0.329112 0.216506 0.1
       vertex -0.329112 0.216506 0
    endloop
  endfacet
  facet normal -0.659372 0.751817 0
    outer loop
       vertex -0.356303 0.198338 0
       vertex -0.380888 0.176776 0
       vertex -0.380888 0.176776 0.1
    endloop
  endfacet
  facet normal -0.659372 0.751817 0
    outer loop
       vertex -0.380888 0.176776 0.1
       vertex -0.356303 0.198338 0.1
       vertex -0.356303 0.198338 0
    endloop
  endfacet
  facet normal -0.751817 0.659372 0
    outer loop
       vertex -0.380888 0.176776 0
       vertex -0.40245 0.152191 0
       vertex -0.40245 0.152191 0.1
    endloop
  endfacet
  facet normal -0.751817 0.659372 0
    outer loop
       vertex -0.40245 0.152191 0.1
       vertex -0.380888 0.176776 0.1
       vertex -0.380888 0.176776 0
    endloop
  endfacet
  facet normal -0.831476 0.555561 0
    outer loop
       vertex -0.40245 0.152191 0
       vertex -0.420618 0.125 0
       vertex -0.420618 0.125 0.1
    endloop
  endfacet
  facet normal -0.831476 0.555561 0
    outer loop
       vertex -0.420618 0.125 0.1
       vertex -0.40245 0.152191 0.1
       vertex -0.40245 0.152191 0
    endloop
  endfacet
  facet normal -0.896866 0.442302 0
    outer loop
       vertex -0.420618 0.125 0
       vertex -0.435082 0.095671 0
       vertex -0.435082 0.095671 0.1
    endloop
  endfacet
  facet normal -0.896866 0.442302 0
    outer loop
       vertex -0.435082 0.095671 0.1
       vertex -0.420618 0.125 0.1
       vertex -0.420618 0.125 0
    endloop
  endfacet
  facet normal -0.946935 0.321425 0
    outer loop
       vertex -0.435082 0.095671 0
       vertex -0.445593 0.064705 0
       vertex -0.445593 0.064705 0.1
    endloop
  endfacet
  facet normal -0.946935 0.321425 0
    outer loop
       vertex -0.445593 0.064705 0.1
       vertex -0.435082 0.095671 0.1
       vertex -0.435082 0.095671 0
    endloop
  endfacet
  facet normal -0.980784 0.195096 0
    outer loop
       vertex -0.445593 0.064705 0
       vertex -0.451973 0.0326315 0
       vertex -0.451973 0.0326315 0.1
    endloop
  endfacet
  facet normal -0.980784 0.195096 0
    outer loop
       vertex -0.451973 0.0326315 0.1
       vertex -0.445593 0.064705 0.1
       vertex -0.445593 0.064705 0
    endloop
  endfacet
  facet normal -0.997858 0.0654098 0
    outer loop
       vertex -0.454112 8.32665e-17 0.1
       vertex -0.451973 0.0326315 0.1
       vertex -0.451973 0.0326315 0
    endloop
  endfacet
  facet normal -0.997858 0.0654098 -1.08928e-16
    outer loop
       vertex -0.451973 0.0326315 0
       vertex -0.454112 -8.32665e-17 0
       vertex -0.454112 8.32665e-17 0.1
    endloop
  endfacet
  facet normal -0.997858 -0.0654098 0
    outer loop
       vertex -0.454112 -8.32665e-17 0
       vertex -0.451973 -0.0326315 0
       vertex -0.451973 -0.0326315 0.1
    endloop
  endfacet
  facet normal -0.997858 -0.0654098 1.08928e-16
    outer loop
       vertex -0.451973 -0.0326315 0.1
       vertex -0.454112 8.32665e-17 0.1
       vertex -0.454112 -8.32665e-17 0
    endloop
  endfacet
  facet normal -0.980784 -0.195096 0
    outer loop
       vertex -0.451973 -0.0326315 0
       vertex -0.445593 -0.064705 0
       vertex -0.445593 -0.064705 0.1
    endloop
  endfacet
  facet normal -0.980784 -0.195096 0
    outer loop
       vertex -0.445593 -0.064705 0.1
       vertex -0.451973 -0.0326315 0.1
       vertex -0.451973 -0.0326315 0
    endloop
  endfacet
  facet normal -0.946935 -0.321425 0
    outer loop
       vertex -0.445593 -0.064705 0
       vertex -0.435082 -0.095671 0
       vertex -0.435082 -0.095671 0.1
    endloop
  endfacet
  facet normal -0.946935 -0.321425 0
    outer loop
       vertex -0.435082 -0.095671 0.1
       vertex -0.445593 -0.064705 0.1
       vertex -0.445593 -0.064705 0
    endloop
  endfacet
  facet normal -0.896866 -0.442302 0
    outer loop
       vertex -0.435082 -0.095671 0
       vertex -0.420618 -0.125 0
       vertex -0.420618 -0.125 0.1
    endloop
  endfacet
  facet normal -0.896866 -0.442302 0
    outer loop
       vertex -0.420618 -0.125 0.1
       vertex -0.435082 -0.095671 0.1
       vertex -0.435082 -0.095671 0
    endloop
  endfacet
  facet normal -0.831476 -0.555561 0
    outer loop
       vertex -0.420618 -0.125 0
       vertex -0.40245 -0.152191 0
       vertex -0.40245 -0.152191 0.1
    endloop
  endfacet
  facet normal -0.831476 -0.555561 0
    outer loop
       vertex -0.40245 -0.152191 0.1
       vertex -0.420618 -0.125 0.1
       vertex -0.420618 -0.125 0
    endloop
  endfacet
  facet normal -0.751817 -0.659372 0
    outer loop
       vertex -0.40245 -0.152191 0
       vertex -0.380888 -0.176776 0
       vertex -0.380888 -0.176776 0.1
    endloop
  endfacet
  facet normal -0.751817 -0.659372 0
    outer loop
       vertex -0.380888 -0.176776 0.1
       vertex -0.40245 -0.152191 0.1
       vertex -0.40245 -0.152191 0
    endloop
  endfacet
  facet normal 0.659372 -0.751817 0
    outer loop
       vertex -0.027336 -0.176776 0
       vertex -0.027336 -0.176776 0.1
       vertex -0.051921 -0.198338 0.1
    endloop
  endfacet
  facet normal 0.659372 -0.751817 0
    outer loop
       vertex -0.051921 -0.198338 0.1
       vertex -0.051921 -0.198338 0
       vertex -0.027336 -0.176776 0
    endloop
  endfacet
  facet normal 0.555561 -0.831476 0
    outer loop
       vertex -0.051921 -0.198338 0
       vertex -0.051921 -0.198338 0.1
       vertex -0.079112 -0.216506 0.1
    endloop
  endfacet
  facet normal 0.555561 -0.831476 0
    outer loop
       vertex -0.079112 -0.216506 0.1
       vertex -0.079112 -0.216506 0
       vertex -0.051921 -0.198338 0
    endloop
  endfacet
  facet normal 0.442302 -0.896866 0
    outer loop
       vertex -0.079112 -0.216506 0
       vertex -0.079112 -0.216506 0.1
       vertex -0.108441 -0.23097 0.1
    endloop
  endfacet
  facet normal 0.442302 -0.896866 0
    outer loop
       vertex -0.108441 -0.23097 0.1
       vertex -0.108441 -0.23097 0
       vertex -0.079112 -0.216506 0
    endloop
  endfacet
  facet normal 0.321425 -0.946935 0
    outer loop
       vertex -0.108441 -0.23097 0
       vertex -0.108441 -0.23097 0.1
       vertex -0.139407 -0.241481 0.1
    endloop
  endfacet
  facet normal 0.321425 -0.946935 0
    outer loop
       vertex -0.139407 -0.241481 0.1
       vertex -0.139407 -0.241481 0
       vertex -0.108441 -0.23097 0
    endloop
  endfacet
  facet normal 0.195096 -0.980784 0
    outer loop
       vertex -0.139407 -0.241481 0
       vertex -0.139407 -0.241481 0.1
       vertex -0.17148 -0.247861 0.1
    endloop
  endfacet
  facet normal 0.195096 -0.980784 0
    outer loop
       vertex -0.17148 -0.247861 0.1
       vertex -0.17148 -0.247861 0
       vertex -0.139407 -0.241481 0
    endloop
  endfacet
  facet normal 0.0654098 -0.997858 0
    outer loop
       vertex -0.204112 -0.25 0
       vertex -0.17148 -0.247861 0
       vertex -0.17148 -0.247861 0.1
    endloop
  endfacet
  facet normal 0.0654098 -0.997858 1.0893e-16
    outer loop
       vertex -0.17148 -0.247861 0.1
       vertex -0.204112 -0.25 0.1
       vertex -0.204112 -0.25 0
    endloop
  endfacet
  facet normal -0.0654098 -0.997858 0
    outer loop
       vertex -0.204112 -0.25 0.1
       vertex -0.236743 -0.247861 0.1
       vertex -0.236743 -0.247861 0
    endloop
  endfacet
  facet normal -0.0654098 -0.997858 -1.0893e-16
    outer loop
       vertex -0.236743 -0.247861 0
       vertex -0.204112 -0.25 0
       vertex -0.204112 -0.25 0.1
    endloop
  endfacet
  facet normal -0.195096 -0.980784 0
    outer loop
       vertex -0.236743 -0.247861 0
       vertex -0.236743 -0.247861 0.1
       vertex -0.268817 -0.241481 0.1
    endloop
  endfacet
  facet normal -0.195096 -0.980784 -0
    outer loop
       vertex -0.268817 -0.241481 0.1
       vertex -0.268817 -0.241481 0
       vertex -0.236743 -0.247861 0
    endloop
  endfacet
  facet normal -0.321425 -0.946935 0
    outer loop
       vertex -0.268817 -0.241481 0
       vertex -0.268817 -0.241481 0.1
       vertex -0.299783 -0.23097 0.1
    endloop
  endfacet
  facet normal -0.321425 -0.946935 -0
    outer loop
       vertex -0.299783 -0.23097 0.1
       vertex -0.299783 -0.23097 0
       vertex -0.268817 -0.241481 0
    endloop
  endfacet
  facet normal -0.442302 -0.896866 0
    outer loop
       vertex -0.299783 -0.23097 0
       vertex -0.299783 -0.23097 0.1
       vertex -0.329112 -0.216506 0.1
    endloop
  endfacet
  facet normal -0.442302 -0.896866 -0
    outer loop
       vertex -0.329112 -0.216506 0.1
       vertex -0.329112 -0.216506 0
       vertex -0.299783 -0.23097 0
    endloop
  endfacet
  facet normal -0.555561 -0.831476 0
    outer loop
       vertex -0.329112 -0.216506 0
       vertex -0.329112 -0.216506 0.1
       vertex -0.356303 -0.198338 0.1
    endloop
  endfacet
  facet normal -0.555561 -0.831476 -0
    outer loop
       vertex -0.356303 -0.198338 0.1
       vertex -0.356303 -0.198338 0
       vertex -0.329112 -0.216506 0
    endloop
  endfacet
  facet normal -0.659372 -0.751817 0
    outer loop
       vertex -0.356303 -0.198338 0
       vertex -0.356303 -0.198338 0.1
       vertex -0.380888 -0.176776 0.1
    endloop
  endfacet
  facet normal -0.659372 -0.751817 -0
    outer loop
       vertex -0.380888 -0.176776 0.1
       vertex -0.380888 -0.176776 0
       vertex -0.356303 -0.198338 0
    endloop
  endfacet
endsolid cylinder
