solid cylinder
  facet normal 0.751817 -0.659372 0
    outer loop
       vertex 0.205504 -0.176776 0
       vertex 0.227066 -0.152191 0
       vertex 0.227066 -0.152191 0.1
    endloop
  endfacet
  facet normal 0.751817 -0.659372 0
    outer loop
       vertex 0.227066 -0.152191 0.1
       vertex 0.205504 -0.176776 0.1
       vertex 0.205504 -0.176776 0
    endloop
  endfacet
  facet normal 0.831476 -0.555561 0
    outer loop
       vertex 0.227066 -0.152191 0
       vertex 0.245234 -0.125 0
       vertex 0.245234 -0.125 0.1
    endloop
  endfacet
  facet normal 0.831476 -0.555561 0
    outer loop
       vertex 0.245234 -0.125 0.1
       vertex 0.227066 -0.152191 0.1
       vertex 0.227066 -0.152191 0
    endloop
  endfacet
  facet normal 0.896866 -0.442302 0
    outer loop
       vertex 0.245234 -0.125 0
       vertex 0.259698 -0.095671 0
       vertex 0.259698 -0.095671 0.1
    endloop
  endfacet
  facet normal 0.896866 -0.442302 0
    outer loop
       vertex 0.259698 -0.095671 0.1
       vertex 0.245234 -0.125 0.1
       vertex 0.245234 -0.125 0
    endloop
  endfacet
  facet normal 0.946935 -0.321425 0
    outer loop
       vertex 0.259698 -0.095671 0
       vertex 0.270209 -0.064705 0
       vertex 0.270209 -0.064705 0.1
    endloop
  endfacet
  facet normal 0.946935 -0.321425 0
    outer loop
       vertex 0.270209 -0.064705 0.1
       vertex 0.259698 -0.095671 0.1
       vertex 0.259698 -0.095671 0
    endloop
  endfacet
  facet normal 0.980784 -0.195096 0
    outer loop
       vertex 0.270209 -0.064705 0
       vertex 0.276589 -0.0326315 0
       vertex 0.276589 -0.0326315 0.1
    endloop
  endfacet
  facet normal 0.980784 -0.195096 0
    outer loop
       vertex 0.276589 -0.0326315 0.1
       vertex 0.270209 -0.064705 0.1
       vertex 0.270209 -0.064705 0
    endloop
  endfacet
  facet normal 0.997858 -0.0654098 0
    outer loop
       vertex 0.278728 -8.32665e-17 0.1
       vertex 0.276589 -0.0326315 0.1
       vertex 0.276589 -0.0326315 0
    endloop
  endfacet
  facet normal 0.997858 -0.0654098 -1.08928e-16
    outer loop
       vertex 0.276589 -0.0326315 0
       vertex 0.278728 8.32665e-17 0
       vertex 0.278728 -8.32665e-17 0.1
    endloop
  endfacet
  facet normal 0.997858 0.0654098 0
    outer loop
       vertex 0.278728 8.32665e-17 0
       vertex 0.276589 0.0326315 0
       vertex 0.276589 0.0326315 0.1
    endloop
  endfacet
  facet normal 0.997858 0.0654098 1.08928e-16
    outer loop
       vertex 0.276589 0.0326315 0.1
       vertex 0.278728 -8.32665e-17 0.1
       vertex 0.278728 8.32665e-17 0
    endloop
  endfacet
  facet normal 0.980784 0.195096 0
    outer loop
       vertex 0.276589 0.0326315 0
       vertex 0.270209 0.064705 0
       vertex 0.270209 0.064705 0.1
    endloop
  endfacet
  facet normal 0.980784 0.195096 0
    outer loop
       vertex 0.270209 0.064705 0.1
       vertex 0.276589 0.0326315 0.1
       vertex 0.276589 0.0326315 0
    endloop
  endfacet
  facet normal 0.946935 0.321425 0
    outer loop
       vertex 0.270209 0.064705 0
       vertex 0.259698 0.095671 0
       vertex 0.259698 0.095671 0.1
    endloop
  endfacet
  facet normal 0.946935 0.321425 0
    outer loop
       vertex 0.259698 0.095671 0.1
       vertex 0.270209 0.064705 0.1
       vertex 0.270209 0.064705 0
    endloop
  endfacet
  facet normal 0.896866 0.442302 0
    outer loop
       vertex 0.259698 0.095671 0
       vertex 0.245234 0.125 0
       vertex 0.245234 0.125 0.1
    endloop
  endfacet
  facet normal 0.896866 0.442302 0
    outer loop
       vertex 0.245234 0.125 0.1
       vertex 0.259698 0.095671 0.1
       vertex 0.259698 0.095671 0
    endloop
  endfacet
  facet normal 0.831476 0.555561 0
    outer loop
       vertex 0.245234 0.125 0
       vertex 0.227066 0.152191 0
       vertex 0.227066 0.152191 0.1
    endloop
  endfacet
  facet normal 0.831476 0.555561 0
    outer loop
       vertex 0.227066 0.152191 0.1
       vertex 0.245234 0.125 0.1
       vertex 0.245234 0.125 0
    endloop
  endfacet
  facet normal 0.751817 0.659372 0
    outer loop
       vertex 0.227066 0.152191 0
       vertex 0.205504 0.176776 0
       vertex 0.205504 0.176776 0.1
    endloop
  endfacet
  facet normal 0.751817 0.659372 0
    outer loop
       vertex 0.205504 0.176776 0.1
       vertex 0.227066 0.152191 0.1
       vertex 0.227066 0.152191 0
    endloop
  endfacet
  facet normal 0.659372 0.751817 0
    outer loop
       vertex 0.205504 0.176776 0
       vertex 0.180919 0.198338 0
       vertex 0.180919 0.198338 0.1
    endloop
  endfacet
  facet normal 0.659372 0.751817 0
    outer loop
       vertex 0.180919 0.198338 0.1
       vertex 0.205504 0.176776 0.1
       vertex 0.205504 0.176776 0
    endloop
  endfacet
  facet normal 0.555561 0.831476 0
    outer loop
       vertex 0.180919 0.198338 0
       vertex 0.153728 0.216506 0
       vertex 0.153728 0.216506 0.1
    endloop
  endfacet
  facet normal 0.555561 0.831476 0
    outer loop
       vertex 0.153728 0.216506 0.1
       vertex 0.180919 0.198338 0.1
       vertex 0.180919 0.198338 0
    endloop
  endfacet
  facet normal 0.442302 0.896866 0
    outer loop
       vertex 0.153728 0.216506 0
       vertex 0.124399 0.23097 0
       vertex 0.124399 0.23097 0.1
    endloop
  endfacet
  facet normal 0.442302 0.896866 0
    outer loop
       vertex 0.124399 0.23097 0.1
       vertex 0.153728 0.216506 0.1
       vertex 0.153728 0.216506 0
    endloop
  endfacet
  facet normal 0.321425 0.946935 0
    outer loop
       vertex 0.124399 0.23097 0
       vertex 0.0934325 0.241481 0
       vertex 0.0934325 0.241481 0.1
    endloop
  endfacet
  facet normal 0.321425 0.946935 0
    outer loop
       vertex 0.0934325 0.241481 0.1
       vertex 0.124399 0.23097 0.1
       vertex 0.124399 0.23097 0
    endloop
  endfacet
  facet normal 0.195096 0.980784 0
    outer loop
       vertex 0.0934325 0.241481 0
       vertex 0.061359 0.247861 0
       vertex 0.061359 0.247861 0.1
    endloop
  endfacet
  facet normal 0.195096 0.980784 0
    outer loop
       vertex 0.061359 0.247861 0.1
       vertex 0.0934325 0.241481 0.1
       vertex 0.0934325 0.241481 0
    endloop
  endfacet
  facet normal 0.0654098 0.997858 0
    outer loop
       vertex 0.0287275 0.25 0.1
       vertex 0.061359 0.247861 0.1
       vertex 0.061359 0.247861 0
    endloop
  endfacet
  facet normal 0.0654098 0.997858 -1.08928e-16
    outer loop
       vertex 0.061359 0.247861 0
       vertex 0.0287275 0.25 0
       vertex 0.0287275 0.25 0.1
    endloop
  endfacet
  facet normal -0.0654098 0.997858 0
    outer loop
       vertex 0.0287275 0.25 0
       vertex -0.00390396 0.247861 0
       vertex -0.00390396 0.247861 0.1
    endloop
  endfacet
  facet normal -0.0654098 0.997858 1.08928e-16
    outer loop
       vertex -0.00390396 0.247861 0.1
       vertex 0.0287275 0.25 0.1
       vertex 0.0287275 0.25 0
    endloop
  endfacet
  facet normal -0.195096 0.980784 0
    outer loop
       vertex -0.00390396 0.247861 0
       vertex -0.0359775 0.241481 0
       vertex -0.0359775 0.241481 0.1
    endloop
  endfacet
  facet normal -0.195096 0.980784 0
    outer loop
       vertex -0.0359775 0.241481 0.1
       vertex -0.00390396 0.247861 0.1
       vertex -0.00390396 0.247861 0
    endloop
  endfacet
  facet normal -0.321425 0.946935 0
    outer loop
       vertex -0.0359775 0.241481 0
       vertex -0.0669435 0.23097 0
       vertex -0.0669435 0.23097 0.1
    endloop
  endfacet
  facet normal -0.321425 0.946935 0
    outer loop
       vertex -0.0669435 0.23097 0.1
       vertex -0.0359775 0.241481 0.1
       vertex -0.0359775 0.241481 0
    endloop
  endfacet
  facet normal -0.442302 0.896866 0
    outer loop
       vertex -0.0669435 0.23097 0
       vertex -0.0962725 0.216506 0
       vertex -0.0962725 0.216506 0.1
    endloop
  endfacet
  facet normal -0.442302 0.896866 0
    outer loop
       vertex -0.0962725 0.216506 0.1
       vertex -0.0669435 0.23097 0.1
       vertex -0.0669435 0.23097 0
    endloop
  endfacet
  facet normal -0.555561 0.831476 0
    outer loop
       vertex -0.0962725 0.216506 0
       vertex -0.123463 0.198338 0
       vertex -0.123463 0.198338 0.1
    endloop
  endfacet
  facet normal -0.555561 0.831476 0
    outer loop
       vertex -0.123463 0.198338 0.1
       vertex -0.0962725 0.216506 0.1
       vertex -0.0962725 0.216506 0
    endloop
  endfacet
  facet normal -0.659372 0.751817 0
    outer loop
       vertex -0.123463 0.198338 0
       vertex -0.148048 0.176776 0
       vertex -0.148048 0.176776 0.1
    endloop
  endfacet
  facet normal -0.659372 0.751817 0
    outer loop
       vertex -0.148048 0.176776 0.1
       vertex -0.123463 0.198338 0.1
       vertex -0.123463 0.198338 0
    endloop
  endfacet
  facet normal -0.751817 0.659372 0
    outer loop
       vertex -0.148048 0.176776 0
       vertex -0.16961 0.152191 0
       vertex -0.16961 0.152191 0.1
    endloop
  endfacet
  facet normal -0.751817 0.659372 0
    outer loop
       vertex -0.16961 0.152191 0.1
       vertex -0.148048 0.176776 0.1
       vertex -0.148048 0.176776 0
    endloop
  endfacet
  facet normal -0.831476 0.555561 0
    outer loop
       vertex -0.16961 0.152191 0
       vertex -0.187778 0.125 0
       vertex -0.187778 0.125 0.1
    endloop
  endfacet
  facet normal -0.831476 0.555561 0
    outer loop
       vertex -0.187778 0.125 0.1
       vertex -0.16961 0.152191 0.1
       vertex -0.16961 0.152191 0
    endloop
  endfacet
  facet normal -0.896866 0.442302 0
    outer loop
       vertex -0.187778 0.125 0
       vertex -0.202242 0.095671 0
       vertex -0.202242 0.095671 0.1
    endloop
  endfacet
  facet normal -0.896866 0.442302 0
    outer loop
       vertex -0.202242 0.095671 0.1
       vertex -0.187778 0.125 0.1
       vertex -0.187778 0.125 0
    endloop
  endfacet
  facet normal -0.946935 0.321425 0
    outer loop
       vertex -0.202242 0.095671 0
       vertex -0.212753 0.064705 0
       vertex -0.212753 0.064705 0.1
    endloop
  endfacet
  facet normal -0.946935 0.321425 0
    outer loop
       vertex -0.212753 0.064705 0.1
       vertex -0.202242 0.095671 0.1
       vertex -0.202242 0.095671 0
    endloop
  endfacet
  facet normal -0.980784 0.195096 0
    outer loop
       vertex -0.212753 0.064705 0
       vertex -0.219133 0.0326315 0
       vertex -0.219133 0.0326315 0.1
    endloop
  endfacet
  facet normal -0.980784 0.195096 0
    outer loop
       vertex -0.219133 0.0326315 0.1
       vertex -0.212753 0.064705 0.1
       vertex -0.212753 0.064705 0
    endloop
  endfacet
  facet normal -0.997858 0.0654098 0
    outer loop
       vertex -0.221272 8.32665e-17 0.1
       vertex -0.219133 0.0326315 0.1
       vertex -0.219133 0.0326315 0
    endloop
  endfacet
  facet normal -0.997858 0.0654098 -1.08928e-16
    outer loop
       vertex -0.219133 0.0326315 0
       vertex -0.221272 -8.32665e-17 0
       vertex -0.221272 8.32665e-17 0.1
    endloop
  endfacet
  facet normal -0.997858 -0.0654098 0
    outer loop
       vertex -0.221272 -8.32665e-17 0
       vertex -0.219133 -0.0326315 0
       vertex -0.219133 -0.0326315 0.1
    endloop
  endfacet
  facet normal -0.997858 -0.0654098 1.08928e-16
    outer loop
       vertex -0.219133 -0.0326315 0.1
       vertex -0.221272 8.32665e-17 0.1
       vertex -0.221272 -8.32665e-17 0
    endloop
  endfacet
  facet normal -0.980784 -0.195096 0
    outer loop
       vertex -0.219133 -0.0326315 0
       vertex -0.212753 -0.064705 0
       vertex -0.212753 -0.064705 0.1
    endloop
  endfacet
  facet normal -0.980784 -0.195096 0
    outer loop
       vertex -0.212753 -0.064705 0.1
       vertex -0.219133 -0.0326315 0.1
       vertex -0.219133 -0.0326315 0
    endloop
  endfacet
  facet normal -0.946935 -0.321425 0
    outer loop
       vertex -0.212753 -0.064705 0
       vertex -0.202242 -0.095671 0
       vertex -0.202242 -0.095671 0.1
    endloop
  endfacet
  facet normal -0.946935 -0.321425 0
    outer loop
       vertex -0.202242 -0.095671 0.1
       vertex -0.212753 -0.064705 0.1
       vertex -0.212753 -0.064705 0
    endloop
  endfacet
  facet normal -0.896866 -0.442302 0
    outer loop
       vertex -0.202242 -0.095671 0
       vertex -0.187778 -0.125 0
       vertex -0.187778 -0.125 0.1
    endloop
  endfacet
  facet normal -0.896866 -0.442302 0
    outer loop
       vertex -0.187778 -0.125 0.1
       vertex -0.202242 -0.095671 0.1
       vertex -0.202242 -0.095671 0
    endloop
  endfacet
  facet normal -0.831476 -0.555561 0
    outer loop
       vertex -0.187778 -0.125 0
       vertex -0.16961 -0.152191 0
       vertex -0.16961 -0.152191 0.1
    endloop
  endfacet
  facet normal -0.831476 -0.555561 0
    outer loop
       vertex -0.16961 -0.152191 0.1
       vertex -0.187778 -0.125 0.1
       vertex -0.187778 -0.125 0
    endloop
  endfacet
  facet normal -0.751817 -0.659372 0
    outer loop
       vertex -0.16961 -0.152191 0
       vertex -0.148048 -0.176776 0
       vertex -0.148048 -0.176776 0.1
    endloop
  endfacet
  facet normal -0.751817 -0.659372 0
    outer loop
       vertex -0.148048 -0.176776 0.1
       vertex -0.16961 -0.152191 0.1
       vertex -0.16961 -0.152191 0
    endloop
  endfacet
  facet normal 0.659372 -0.751817 0
    outer loop
       vertex 0.205504 -0.176776 0
       vertex 0.205504 -0.176776 0.1
       vertex 0.180919 -0.198338 0.1
    endloop
  endfacet
  facet normal 0.659372 -0.751817 0
    outer loop
       vertex 0.180919 -0.198338 0.1
       vertex 0.180919 -0.198338 0
       vertex 0.205504 -0.176776 0
    endloop
  endfacet
  facet normal 0.555561 -0.831476 0
    outer loop
       vertex 0.180919 -0.198338 0
       vertex 0.180919 -0.198338 0.1
       vertex 0.153728 -0.216506 0.1
    endloop
  endfacet
  facet normal 0.555561 -0.831476 0
    outer loop
       vertex 0.153728 -0.216506 0.1
       vertex 0.153728 -0.216506 0
       vertex 0.180919 -0.198338 0
    endloop
  endfacet
  facet normal 0.442302 -0.896866 0
    outer loop
       vertex 0.153728 -0.216506 0
       vertex 0.153728 -0.216506 0.1
       vertex 0.124399 -0.23097 0.1
    endloop
  endfacet
  facet normal 0.442302 -0.896866 0
    outer loop
       vertex 0.124399 -0.23097 0.1
       vertex 0.124399 -0.23097 0
       vertex 0.153728 -0.216506 0
    endloop
  endfacet
  facet normal 0.321425 -0.946935 0
    outer loop
       vertex 0.124399 -0.23097 0
       vertex 0.124399 -0.23097 0.1
       vertex 0.0934325 -0.241481 0.1
    endloop
  endfacet
  facet normal 0.321425 -0.946935 0
    outer loop
       vertex 0.0934325 -0.241481 0.1
       vertex 0.0934325 -0.241481 0
       vertex 0.124399 -0.23097 0
    endloop
  endfacet
  facet normal 0.195096 -0.980784 0
    outer loop
       vertex 0.0934325 -0.241481 0
       vertex 0.0934325 -0.241481 0.1
       vertex 0.061359 -0.247861 0.1
    endloop
  endfacet
  facet normal 0.195096 -0.980784 0
    outer loop
       vertex 0.061359 -0.247861 0.1
       vertex 0.061359 -0.247861 0
       vertex 0.0934325 -0.241481 0
    endloop
  endfacet
  facet normal 0.0654098 -0.997858 0
    outer loop
       vertex 0.0287275 -0.25 0
       vertex 0.061359 -0.247861 0
       vertex 0.061359 -0.247861 0.1
    endloop
  endfacet
  facet normal 0.0654098 -0.997858 1.08928e-16
    outer loop
       vertex 0.061359 -0.247861 0.1
       vertex 0.0287275 -0.25 0.1
       vertex 0.0287275 -0.25 0
    endloop
  endfacet
  facet normal -0.0654098 -0.997858 0
    outer loop
       vertex 0.0287275 -0.25 0.1
       vertex -0.00390396 -0.247861 0.1
       vertex -0.00390396 -0.247861 0
    endloop
  endfacet
  facet normal -0.0654098 -0.997858 -1.08928e-16
    outer loop
       vertex -0.00390396 -0.247861 0
       vertex 0.0287275 -0.25 0
       vertex 0.0287275 -0.25 0.1
    endloop
  endfacet
  facet normal -0.195096 -0.980784 0
    outer loop
       vertex -0.00390396 -0.247861 0
       vertex -0.00390396 -0.247861 0.1
       vertex -0.0359775 -0.241481 0.1
    endloop
  endfacet
  facet normal -0.195096 -0.980784 -0
    outer loop
       vertex -0.0359775 -0.241481 0.1
       vertex -0.0359775 -0.241481 0
       vertex -0.00390396 -0.247861 0
    endloop
  endfacet
  facet normal -0.321425 -0.946935 0
    outer loop
       vertex -0.0359775 -0.241481 0
       vertex -0.0359775 -0.241481 0.1
       vertex -0.0669435 -0.23097 0.1
    endloop
  endfacet
  facet normal -0.321425 -0.946935 -0
    outer loop
       vertex -0.0669435 -0.23097 0.1
       vertex -0.0669435 -0.23097 0
       vertex -0.0359775 -0.241481 0
    endloop
  endfacet
  facet normal -0.442302 -0.896866 0
    outer loop
       vertex -0.0669435 -0.23097 0
       vertex -0.0669435 -0.23097 0.1
       vertex -0.0962725 -0.216506 0.1
    endloop
  endfacet
  facet normal -0.442302 -0.896866 -0
    outer loop
       vertex -0.0962725 -0.216506 0.1
       vertex -0.0962725 -0.216506 0
       vertex -0.0669435 -0.23097 0
    endloop
  endfacet
  facet normal -0.555561 -0.831476 0
    outer loop
       vertex -0.0962725 -0.216506 0
       vertex -0.0962725 -0.216506 0.1
       vertex -0.123463 -0.198338 0.1
    endloop
  endfacet
  facet normal -0.555561 -0.831476 -0
    outer loop
       vertex -0.123463 -0.198338 0.1
       vertex -0.123463 -0.198338 0
       vertex -0.0962725 -0.216506 0
    endloop
  endfacet
  facet normal -0.659372 -0.751817 0
    outer loop
       vertex -0.123463 -0.198338 0
       vertex -0.123463 -0.198338 0.1
       vertex -0.148048 -0.176776 0.1
    endloop
  endfacet
  facet normal -0.659372 -0.751817 -0
    outer loop
       vertex -0.148048 -0.176776 0.1
       vertex -0.148048 -0.176776 0
       vertex -0.123463 -0.198338 0
    endloop
  endfacet
endsolid cylinder
