solid cylinder
  facet normal 0.751817 -0.659372 0
    outer loop
       vertex 0.107632 -0.176776 0
       vertex 0.129194 -0.152191 0
       vertex 0.129194 -0.152191 0.1
    endloop
  endfacet
  facet normal 0.751817 -0.659372 0
    outer loop
       vertex 0.129194 -0.152191 0.1
       vertex 0.107632 -0.176776 0.1
       vertex 0.107632 -0.176776 0
    endloop
  endfacet
  facet normal 0.831476 -0.555561 0
    outer loop
       vertex 0.129194 -0.152191 0
       vertex 0.147362 -0.125 0
       vertex 0.147362 -0.125 0.1
    endloop
  endfacet
  facet normal 0.831476 -0.555561 0
    outer loop
       vertex 0.147362 -0.125 0.1
       vertex 0.129194 -0.152191 0.1
       vertex 0.129194 -0.152191 0
    endloop
  endfacet
  facet normal 0.896866 -0.442302 0
    outer loop
       vertex 0.147362 -0.125 0
       vertex 0.161826 -0.095671 0
       vertex 0.161826 -0.095671 0.1
    endloop
  endfacet
  facet normal 0.896866 -0.442302 0
    outer loop
       vertex 0.161826 -0.095671 0.1
       vertex 0.147362 -0.125 0.1
       vertex 0.147362 -0.125 0
    endloop
  endfacet
  facet normal 0.946935 -0.321425 0
    outer loop
       vertex 0.161826 -0.095671 0
       vertex 0.172337 -0.064705 0
       vertex 0.172337 -0.064705 0.1
    endloop
  endfacet
  facet normal 0.946935 -0.321425 0
    outer loop
       vertex 0.172337 -0.064705 0.1
       vertex 0.161826 -0.095671 0.1
       vertex 0.161826 -0.095671 0
    endloop
  endfacet
  facet normal 0.980784 -0.195096 0
    outer loop
       vertex 0.172337 -0.064705 0
       vertex 0.178717 -0.0326315 0
       vertex 0.178717 -0.0326315 0.1
    endloop
  endfacet
  facet normal 0.980784 -0.195096 0
    outer loop
       vertex 0.178717 -0.0326315 0.1
       vertex 0.172337 -0.064705 0.1
       vertex 0.172337 -0.064705 0
    endloop
  endfacet
  facet normal 0.997858 -0.0654098 0
    outer loop
       vertex 0.180856 -8.32665e-17 0.1
       vertex 0.178717 -0.0326315 0.1
       vertex 0.178717 -0.0326315 0
    endloop
  endfacet
  facet normal 0.997858 -0.0654098 -1.08928e-16
    outer loop
       vertex 0.178717 -0.0326315 0
       vertex 0.180856 8.32665e-17 0
       vertex 0.180856 -8.32665e-17 0.1
    endloop
  endfacet
  facet normal 0.997858 0.0654098 0
    outer loop
       vertex 0.180856 8.32665e-17 0
       vertex 0.178717 0.0326315 0
       vertex 0.178717 0.0326315 0.1
    endloop
  endfacet
  facet normal 0.997858 0.0654098 1.08928e-16
    outer loop
       vertex 0.178717 0.0326315 0.1
       vertex 0.180856 -8.32665e-17 0.1
       vertex 0.180856 8.32665e-17 0
    endloop
  endfacet
  facet normal 0.980784 0.195096 0
    outer loop
       vertex 0.178717 0.0326315 0
       vertex 0.172337 0.064705 0
       vertex 0.172337 0.064705 0.1
    endloop
  endfacet
  facet normal 0.980784 0.195096 0
    outer loop
       vertex 0.172337 0.064705 0.1
       vertex 0.178717 0.0326315 0.1
       vertex 0.178717 0.0326315 0
    endloop
  endfacet
  facet normal 0.946935 0.321425 0
    outer loop
       vertex 0.172337 0.064705 0
       vertex 0.161826 0.095671 0
       vertex 0.161826 0.095671 0.1
    endloop
  endfacet
  facet normal 0.946935 0.321425 0
    outer loop
       vertex 0.161826 0.095671 0.1
       vertex 0.172337 0.064705 0.1
       vertex 0.172337 0.064705 0
    endloop
  endfacet
  facet normal 0.896866 0.442302 0
    outer loop
       vertex 0.161826 0.095671 0
       vertex 0.147362 0.125 0
       vertex 0.147362 0.125 0.1
    endloop
  endfacet
  facet normal 0.896866 0.442302 0
    outer loop
       vertex 0.147362 0.125 0.1
       vertex 0.161826 0.095671 0.1
       vertex 0.161826 0.095671 0
    endloop
  endfacet
  facet normal 0.831476 0.555561 0
    outer loop
       vertex 0.147362 0.125 0
       vertex 0.129194 0.152191 0
       vertex 0.129194 0.152191 0.1
    endloop
  endfacet
  facet normal 0.831476 0.555561 0
    outer loop
       vertex 0.129194 0.152191 0.1
       vertex 0.147362 0.125 0.1
       vertex 0.147362 0.125 0
    endloop
  endfacet
  facet normal 0.751817 0.659372 0
    outer loop
       vertex 0.129194 0.152191 0
       vertex 0.107632 0.176776 0
       vertex 0.107632 0.176776 0.1
    endloop
  endfacet
  facet normal 0.751817 0.659372 0
    outer loop
       vertex 0.107632 0.176776 0.1
       vertex 0.129194 0.152191 0.1
       vertex 0.129194 0.152191 0
    endloop
  endfacet
  facet normal 0.659372 0.751817 0
    outer loop
       vertex 0.107632 0.176776 0
       vertex 0.0830468 0.198338 0
       vertex 0.0830468 0.198338 0.1
    endloop
  endfacet
  facet normal 0.659372 0.751817 0
    outer loop
       vertex 0.0830468 0.198338 0.1
       vertex 0.107632 0.176776 0.1
       vertex 0.107632 0.176776 0
    endloop
  endfacet
  facet normal 0.555561 0.831476 0
    outer loop
       vertex 0.0830468 0.198338 0
       vertex 0.0558558 0.216506 0
       vertex 0.0558558 0.216506 0.1
    endloop
  endfacet
  facet normal 0.555561 0.831476 0
    outer loop
       vertex 0.0558558 0.216506 0.1
       vertex 0.0830468 0.198338 0.1
       vertex 0.0830468 0.198338 0
    endloop
  endfacet
  facet normal 0.442302 0.896866 0
    outer loop
       vertex 0.0558558 0.216506 0
       vertex 0.0265268 0.23097 0
       vertex 0.0265268 0.23097 0.1
    endloop
  endfacet
  facet normal 0.442302 0.896866 0
    outer loop
       vertex 0.0265268 0.23097 0.1
       vertex 0.0558558 0.216506 0.1
       vertex 0.0558558 0.216506 0
    endloop
  endfacet
  facet normal 0.321425 0.946935 0
    outer loop
       vertex 0.0265268 0.23097 0
       vertex -0.00443916 0.241481 0
       vertex -0.00443916 0.241481 0.1
    endloop
  endfacet
  facet normal 0.321425 0.946935 0
    outer loop
       vertex -0.00443916 0.241481 0.1
       vertex 0.0265268 0.23097 0.1
       vertex 0.0265268 0.23097 0
    endloop
  endfacet
  facet normal 0.195096 0.980784 0
    outer loop
       vertex -0.00443916 0.241481 0
       vertex -0.0365127 0.247861 0
       vertex -0.0365127 0.247861 0.1
    endloop
  endfacet
  facet normal 0.195096 0.980784 0
    outer loop
       vertex -0.0365127 0.247861 0.1
       vertex -0.00443916 0.241481 0.1
       vertex -0.00443916 0.241481 0
    endloop
  endfacet
  facet normal 0.0654098 0.997858 0
    outer loop
       vertex -0.0691442 0.25 0.1
       vertex -0.0365127 0.247861 0.1
       vertex -0.0365127 0.247861 0
    endloop
  endfacet
  facet normal 0.0654098 0.997858 -1.08928e-16
    outer loop
       vertex -0.0365127 0.247861 0
       vertex -0.0691442 0.25 0
       vertex -0.0691442 0.25 0.1
    endloop
  endfacet
  facet normal -0.0654098 0.997858 0
    outer loop
       vertex -0.0691442 0.25 0
       vertex -0.101776 0.247861 0
       vertex -0.101776 0.247861 0.1
    endloop
  endfacet
  facet normal -0.0654098 0.997858 1.08928e-16
    outer loop
       vertex -0.101776 0.247861 0.1
       vertex -0.0691442 0.25 0.1
       vertex -0.0691442 0.25 0
    endloop
  endfacet
  facet normal -0.195096 0.980784 0
    outer loop
       vertex -0.101776 0.247861 0
       vertex -0.133849 0.241481 0
       vertex -0.133849 0.241481 0.1
    endloop
  endfacet
  facet normal -0.195096 0.980784 0
    outer loop
       vertex -0.133849 0.241481 0.1
       vertex -0.101776 0.247861 0.1
       vertex -0.101776 0.247861 0
    endloop
  endfacet
  facet normal -0.321425 0.946935 0
    outer loop
       vertex -0.133849 0.241481 0
       vertex -0.164815 0.23097 0
       vertex -0.164815 0.23097 0.1
    endloop
  endfacet
  facet normal -0.321425 0.946935 0
    outer loop
       vertex -0.164815 0.23097 0.1
       vertex -0.133849 0.241481 0.1
       vertex -0.133849 0.241481 0
    endloop
  endfacet
  facet normal -0.442302 0.896866 0
    outer loop
       vertex -0.164815 0.23097 0
       vertex -0.194144 0.216506 0
       vertex -0.194144 0.216506 0.1
    endloop
  endfacet
  facet normal -0.442302 0.896866 0
    outer loop
       vertex -0.194144 0.216506 0.1
       vertex -0.164815 0.23097 0.1
       vertex -0.164815 0.23097 0
    endloop
  endfacet
  facet normal -0.555561 0.831476 0
    outer loop
       vertex -0.194144 0.216506 0
       vertex -0.221335 0.198338 0
       vertex -0.221335 0.198338 0.1
    endloop
  endfacet
  facet normal -0.555561 0.831476 0
    outer loop
       vertex -0.221335 0.198338 0.1
       vertex -0.194144 0.216506 0.1
       vertex -0.194144 0.216506 0
    endloop
  endfacet
  facet normal -0.659372 0.751817 0
    outer loop
       vertex -0.221335 0.198338 0
       vertex -0.24592 0.176776 0
       vertex -0.24592 0.176776 0.1
    endloop
  endfacet
  facet normal -0.659372 0.751817 0
    outer loop
       vertex -0.24592 0.176776 0.1
       vertex -0.221335 0.198338 0.1
       vertex -0.221335 0.198338 0
    endloop
  endfacet
  facet normal -0.751817 0.659372 0
    outer loop
       vertex -0.24592 0.176776 0
       vertex -0.267482 0.152191 0
       vertex -0.267482 0.152191 0.1
    endloop
  endfacet
  facet normal -0.751817 0.659372 0
    outer loop
       vertex -0.267482 0.152191 0.1
       vertex -0.24592 0.176776 0.1
       vertex -0.24592 0.176776 0
    endloop
  endfacet
  facet normal -0.831476 0.555561 0
    outer loop
       vertex -0.267482 0.152191 0
       vertex -0.28565 0.125 0
       vertex -0.28565 0.125 0.1
    endloop
  endfacet
  facet normal -0.831476 0.555561 0
    outer loop
       vertex -0.28565 0.125 0.1
       vertex -0.267482 0.152191 0.1
       vertex -0.267482 0.152191 0
    endloop
  endfacet
  facet normal -0.896866 0.442302 0
    outer loop
       vertex -0.28565 0.125 0
       vertex -0.300114 0.095671 0
       vertex -0.300114 0.095671 0.1
    endloop
  endfacet
  facet normal -0.896866 0.442302 0
    outer loop
       vertex -0.300114 0.095671 0.1
       vertex -0.28565 0.125 0.1
       vertex -0.28565 0.125 0
    endloop
  endfacet
  facet normal -0.946935 0.321425 0
    outer loop
       vertex -0.300114 0.095671 0
       vertex -0.310625 0.064705 0
       vertex -0.310625 0.064705 0.1
    endloop
  endfacet
  facet normal -0.946935 0.321425 0
    outer loop
       vertex -0.310625 0.064705 0.1
       vertex -0.300114 0.095671 0.1
       vertex -0.300114 0.095671 0
    endloop
  endfacet
  facet normal -0.980784 0.195096 0
    outer loop
       vertex -0.310625 0.064705 0
       vertex -0.317005 0.0326315 0
       vertex -0.317005 0.0326315 0.1
    endloop
  endfacet
  facet normal -0.980784 0.195096 0
    outer loop
       vertex -0.317005 0.0326315 0.1
       vertex -0.310625 0.064705 0.1
       vertex -0.310625 0.064705 0
    endloop
  endfacet
  facet normal -0.997858 0.0654098 0
    outer loop
       vertex -0.319144 8.32665e-17 0.1
       vertex -0.317005 0.0326315 0.1
       vertex -0.317005 0.0326315 0
    endloop
  endfacet
  facet normal -0.997858 0.0654098 -1.08928e-16
    outer loop
       vertex -0.317005 0.0326315 0
       vertex -0.319144 -8.32665e-17 0
       vertex -0.319144 8.32665e-17 0.1
    endloop
  endfacet
  facet normal -0.997858 -0.0654098 0
    outer loop
       vertex -0.319144 -8.32665e-17 0
       vertex -0.317005 -0.0326315 0
       vertex -0.317005 -0.0326315 0.1
    endloop
  endfacet
  facet normal -0.997858 -0.0654098 1.08928e-16
    outer loop
       vertex -0.317005 -0.0326315 0.1
       vertex -0.319144 8.32665e-17 0.1
       vertex -0.319144 -8.32665e-17 0
    endloop
  endfacet
  facet normal -0.980784 -0.195096 0
    outer loop
       vertex -0.317005 -0.0326315 0
       vertex -0.310625 -0.064705 0
       vertex -0.310625 -0.064705 0.1
    endloop
  endfacet
  facet normal -0.980784 -0.195096 0
    outer loop
       vertex -0.310625 -0.064705 0.1
       vertex -0.317005 -0.0326315 0.1
       vertex -0.317005 -0.0326315 0
    endloop
  endfacet
  facet normal -0.946935 -0.321425 0
    outer loop
       vertex -0.310625 -0.064705 0
       vertex -0.300114 -0.095671 0
       vertex -0.300114 -0.095671 0.1
    endloop
  endfacet
  facet normal -0.946935 -0.321425 0
    outer loop
       vertex -0.300114 -0.095671 0.1
       vertex -0.310625 -0.064705 0.1
       vertex -0.310625 -0.064705 0
    endloop
  endfacet
  facet normal -0.896866 -0.442302 0
    outer loop
       vertex -0.300114 -0.095671 0
       vertex -0.28565 -0.125 0
       vertex -0.28565 -0.125 0.1
    endloop
  endfacet
  facet normal -0.896866 -0.442302 0
    outer loop
       vertex -0.28565 -0.125 0.1
       vertex -0.300114 -0.095671 0.1
       vertex -0.300114 -0.095671 0
    endloop
  endfacet
  facet normal -0.831476 -0.555561 0
    outer loop
       vertex -0.28565 -0.125 0
       vertex -0.267482 -0.152191 0
       vertex -0.267482 -0.152191 0.1
    endloop
  endfacet
  facet normal -0.831476 -0.555561 0
    outer loop
       vertex -0.267482 -0.152191 0.1
       vertex -0.28565 -0.125 0.1
       vertex -0.28565 -0.125 0
    endloop
  endfacet
  facet normal -0.751817 -0.659372 0
    outer loop
       vertex -0.267482 -0.152191 0
       vertex -0.24592 -0.176776 0
       vertex -0.24592 -0.176776 0.1
    endloop
  endfacet
  facet normal -0.751817 -0.659372 0
    outer loop
       vertex -0.24592 -0.176776 0.1
       vertex -0.267482 -0.152191 0.1
       vertex -0.267482 -0.152191 0
    endloop
  endfacet
  facet normal 0.659372 -0.751817 0
    outer loop
       vertex 0.107632 -0.176776 0
       vertex 0.107632 -0.176776 0.1
       vertex 0.0830468 -0.198338 0.1
    endloop
  endfacet
  facet normal 0.659372 -0.751817 0
    outer loop
       vertex 0.0830468 -0.198338 0.1
       vertex 0.0830468 -0.198338 0
       vertex 0.107632 -0.176776 0
    endloop
  endfacet
  facet normal 0.555561 -0.831476 0
    outer loop
       vertex 0.0830468 -0.198338 0
       vertex 0.0830468 -0.198338 0.1
       vertex 0.0558558 -0.216506 0.1
    endloop
  endfacet
  facet normal 0.555561 -0.831476 0
    outer loop
       vertex 0.0558558 -0.216506 0.1
       vertex 0.0558558 -0.216506 0
       vertex 0.0830468 -0.198338 0
    endloop
  endfacet
  facet normal 0.442302 -0.896866 0
    outer loop
       vertex 0.0558558 -0.216506 0
       vertex 0.0558558 -0.216506 0.1
       vertex 0.0265268 -0.23097 0.1
    endloop
  endfacet
  facet normal 0.442302 -0.896866 0
    outer loop
       vertex 0.0265268 -0.23097 0.1
       vertex 0.0265268 -0.23097 0
       vertex 0.0558558 -0.216506 0
    endloop
  endfacet
  facet normal 0.321425 -0.946935 0
    outer loop
       vertex 0.0265268 -0.23097 0
       vertex 0.0265268 -0.23097 0.1
       vertex -0.00443916 -0.241481 0.1
    endloop
  endfacet
  facet normal 0.321425 -0.946935 0
    outer loop
       vertex -0.00443916 -0.241481 0.1
       vertex -0.00443916 -0.241481 0
       vertex 0.0265268 -0.23097 0
    endloop
  endfacet
  facet normal 0.195096 -0.980784 0
    outer loop
       vertex -0.00443916 -0.241481 0
       vertex -0.00443916 -0.241481 0.1
       vertex -0.0365127 -0.247861 0.1
    endloop
  endfacet
  facet normal 0.195096 -0.980784 0
    outer loop
       vertex -0.0365127 -0.247861 0.1
       vertex -0.0365127 -0.247861 0
       vertex -0.00443916 -0.241481 0
    endloop
  endfacet
  facet normal 0.0654098 -0.997858 0
    outer loop
       vertex -0.0691442 -0.25 0
       vertex -0.0365127 -0.247861 0
       vertex -0.0365127 -0.247861 0.1
    endloop
  endfacet
  facet normal 0.0654098 -0.997858 1.08928e-16
    outer loop
       vertex -0.0365127 -0.247861 0.1
       vertex -0.0691442 -0.25 0.1
       vertex -0.0691442 -0.25 0
    endloop
  endfacet
  facet normal -0.0654098 -0.997858 0
    outer loop
       vertex -0.0691442 -0.25 0.1
       vertex -0.101776 -0.247861 0.1
       vertex -0.101776 -0.247861 0
    endloop
  endfacet
  facet normal -0.0654098 -0.997858 -1.08928e-16
    outer loop
       vertex -0.101776 -0.247861 0
       vertex -0.0691442 -0.25 0
       vertex -0.0691442 -0.25 0.1
    endloop
  endfacet
  facet normal -0.195096 -0.980784 0
    outer loop
       vertex -0.101776 -0.247861 0
       vertex -0.101776 -0.247861 0.1
       vertex -0.133849 -0.241481 0.1
    endloop
  endfacet
  facet normal -0.195096 -0.980784 -0
    outer loop
       vertex -0.133849 -0.241481 0.1
       vertex -0.133849 -0.241481 0
       vertex -0.101776 -0.247861 0
    endloop
  endfacet
  facet normal -0.321425 -0.946935 0
    outer loop
       vertex -0.133849 -0.241481 0
       vertex -0.133849 -0.241481 0.1
       vertex -0.164815 -0.23097 0.1
    endloop
  endfacet
  facet normal -0.321425 -0.946935 -0
    outer loop
       vertex -0.164815 -0.23097 0.1
       vertex -0.164815 -0.23097 0
       vertex -0.133849 -0.241481 0
    endloop
  endfacet
  facet normal -0.442302 -0.896866 0
    outer loop
       vertex -0.164815 -0.23097 0
       vertex -0.164815 -0.23097 0.1
       vertex -0.194144 -0.216506 0.1
    endloop
  endfacet
  facet normal -0.442302 -0.896866 -0
    outer loop
       vertex -0.194144 -0.216506 0.1
       vertex -0.194144 -0.216506 0
       vertex -0.164815 -0.23097 0
    endloop
  endfacet
  facet normal -0.555561 -0.831476 0
    outer loop
       vertex -0.194144 -0.216506 0
       vertex -0.194144 -0.216506 0.1
       vertex -0.221335 -0.198338 0.1
    endloop
  endfacet
  facet normal -0.555561 -0.831476 -0
    outer loop
       vertex -0.221335 -0.198338 0.1
       vertex -0.221335 -0.198338 0
       vertex -0.194144 -0.216506 0
    endloop
  endfacet
  facet normal -0.659372 -0.751817 0
    outer loop
       vertex -0.221335 -0.198338 0
       vertex -0.221335 -0.198338 0.1
       vertex -0.24592 -0.176776 0.1
    endloop
  endfacet
  facet normal -0.659372 -0.751817 -0
    outer loop
       vertex -0.24592 -0.176776 0.1
       vertex -0.24592 -0.176776 0
       vertex -0.221335 -0.198338 0
    endloop
  endfacet
endsolid cylinder
