solid cylinder
  facet normal 0.751817 -0.659372 0
    outer loop
       vertex 0.446432 -0.176776 0
       vertex 0.467994 -0.152191 0
       vertex 0.467994 -0.152191 0.1
    endloop
  endfacet
  facet normal 0.751817 -0.659372 0
    outer loop
       vertex 0.467994 -0.152191 0.1
       vertex 0.446432 -0.176776 0.1
       vertex 0.446432 -0.176776 0
    endloop
  endfacet
  facet normal 0.831476 -0.555561 0
    outer loop
       vertex 0.467994 -0.152191 0
       vertex 0.486162 -0.125 0
       vertex 0.486162 -0.125 0.1
    endloop
  endfacet
  facet normal 0.831476 -0.555561 0
    outer loop
       vertex 0.486162 -0.125 0.1
       vertex 0.467994 -0.152191 0.1
       vertex 0.467994 -0.152191 0
    endloop
  endfacet
  facet normal 0.896866 -0.442302 0
    outer loop
       vertex 0.486162 -0.125 0
       vertex 0.500626 -0.095671 0
       vertex 0.500626 -0.095671 0.1
    endloop
  endfacet
  facet normal 0.896866 -0.442302 0
    outer loop
       vertex 0.500626 -0.095671 0.1
       vertex 0.486162 -0.125 0.1
       vertex 0.486162 -0.125 0
    endloop
  endfacet
  facet normal 0.946935 -0.321425 0
    outer loop
       vertex 0.500626 -0.095671 0
       vertex 0.511137 -0.064705 0
       vertex 0.511137 -0.064705 0.1
    endloop
  endfacet
  facet normal 0.946935 -0.321425 0
    outer loop
       vertex 0.511137 -0.064705 0.1
       vertex 0.500626 -0.095671 0.1
       vertex 0.500626 -0.095671 0
    endloop
  endfacet
  facet normal 0.980784 -0.195096 0
    outer loop
       vertex 0.511137 -0.064705 0
       vertex 0.517517 -0.0326315 0
       vertex 0.517517 -0.0326315 0.1
    endloop
  endfacet
  facet normal 0.980784 -0.195096 0
    outer loop
       vertex 0.517517 -0.0326315 0.1
       vertex 0.511137 -0.064705 0.1
       vertex 0.511137 -0.064705 0
    endloop
  endfacet
  facet normal 0.997858 -0.0654098 0
    outer loop
       vertex 0.519656 -8.32665e-17 0.1
       vertex 0.517517 -0.0326315 0.1
       vertex 0.517517 -0.0326315 0
    endloop
  endfacet
  facet normal 0.997858 -0.0654098 -1.08928e-16
    outer loop
       vertex 0.517517 -0.0326315 0
       vertex 0.519656 8.32665e-17 0
       vertex 0.519656 -8.32665e-17 0.1
    endloop
  endfacet
  facet normal 0.997858 0.0654098 0
    outer loop
       vertex 0.519656 8.32665e-17 0
       vertex 0.517517 0.0326315 0
       vertex 0.517517 0.0326315 0.1
    endloop
  endfacet
  facet normal 0.997858 0.0654098 1.08928e-16
    outer loop
       vertex 0.517517 0.0326315 0.1
       vertex 0.519656 -8.32665e-17 0.1
       vertex 0.519656 8.32665e-17 0
    endloop
  endfacet
  facet normal 0.980784 0.195096 0
    outer loop
       vertex 0.517517 0.0326315 0
       vertex 0.511137 0.064705 0
       vertex 0.511137 0.064705 0.1
    endloop
  endfacet
  facet normal 0.980784 0.195096 0
    outer loop
       vertex 0.511137 0.064705 0.1
       vertex 0.517517 0.0326315 0.1
       vertex 0.517517 0.0326315 0
    endloop
  endfacet
  facet normal 0.946935 0.321425 0
    outer loop
       vertex 0.511137 0.064705 0
       vertex 0.500626 0.095671 0
       vertex 0.500626 0.095671 0.1
    endloop
  endfacet
  facet normal 0.946935 0.321425 0
    outer loop
       vertex 0.500626 0.095671 0.1
       vertex 0.511137 0.064705 0.1
       vertex 0.511137 0.064705 0
    endloop
  endfacet
  facet normal 0.896866 0.442302 0
    outer loop
       vertex 0.500626 0.095671 0
       vertex 0.486162 0.125 0
       vertex 0.486162 0.125 0.1
    endloop
  endfacet
  facet normal 0.896866 0.442302 0
    outer loop
       vertex 0.486162 0.125 0.1
       vertex 0.500626 0.095671 0.1
       vertex 0.500626 0.095671 0
    endloop
  endfacet
  facet normal 0.831476 0.555561 0
    outer loop
       vertex 0.486162 0.125 0
       vertex 0.467994 0.152191 0
       vertex 0.467994 0.152191 0.1
    endloop
  endfacet
  facet normal 0.831476 0.555561 0
    outer loop
       vertex 0.467994 0.152191 0.1
       vertex 0.486162 0.125 0.1
       vertex 0.486162 0.125 0
    endloop
  endfacet
  facet normal 0.751817 0.659372 0
    outer loop
       vertex 0.467994 0.152191 0
       vertex 0.446432 0.176776 0
       vertex 0.446432 0.176776 0.1
    endloop
  endfacet
  facet normal 0.751817 0.659372 0
    outer loop
       vertex 0.446432 0.176776 0.1
       vertex 0.467994 0.152191 0.1
       vertex 0.467994 0.152191 0
    endloop
  endfacet
  facet normal 0.659372 0.751817 0
    outer loop
       vertex 0.446432 0.176776 0
       vertex 0.421847 0.198338 0
       vertex 0.421847 0.198338 0.1
    endloop
  endfacet
  facet normal 0.659372 0.751817 0
    outer loop
       vertex 0.421847 0.198338 0.1
       vertex 0.446432 0.176776 0.1
       vertex 0.446432 0.176776 0
    endloop
  endfacet
  facet normal 0.555561 0.831476 0
    outer loop
       vertex 0.421847 0.198338 0
       vertex 0.394656 0.216506 0
       vertex 0.394656 0.216506 0.1
    endloop
  endfacet
  facet normal 0.555561 0.831476 0
    outer loop
       vertex 0.394656 0.216506 0.1
       vertex 0.421847 0.198338 0.1
       vertex 0.421847 0.198338 0
    endloop
  endfacet
  facet normal 0.442302 0.896866 0
    outer loop
       vertex 0.394656 0.216506 0
       vertex 0.365327 0.23097 0
       vertex 0.365327 0.23097 0.1
    endloop
  endfacet
  facet normal 0.442302 0.896866 0
    outer loop
       vertex 0.365327 0.23097 0.1
       vertex 0.394656 0.216506 0.1
       vertex 0.394656 0.216506 0
    endloop
  endfacet
  facet normal 0.321425 0.946935 0
    outer loop
       vertex 0.365327 0.23097 0
       vertex 0.334361 0.241481 0
       vertex 0.334361 0.241481 0.1
    endloop
  endfacet
  facet normal 0.321425 0.946935 0
    outer loop
       vertex 0.334361 0.241481 0.1
       vertex 0.365327 0.23097 0.1
       vertex 0.365327 0.23097 0
    endloop
  endfacet
  facet normal 0.195096 0.980784 0
    outer loop
       vertex 0.334361 0.241481 0
       vertex 0.302287 0.247861 0
       vertex 0.302287 0.247861 0.1
    endloop
  endfacet
  facet normal 0.195096 0.980784 0
    outer loop
       vertex 0.302287 0.247861 0.1
       vertex 0.334361 0.241481 0.1
       vertex 0.334361 0.241481 0
    endloop
  endfacet
  facet normal 0.0654098 0.997858 0
    outer loop
       vertex 0.269656 0.25 0.1
       vertex 0.302287 0.247861 0.1
       vertex 0.302287 0.247861 0
    endloop
  endfacet
  facet normal 0.0654098 0.997858 -1.45239e-16
    outer loop
       vertex 0.302287 0.247861 0
       vertex 0.269656 0.25 0
       vertex 0.269656 0.25 0.1
    endloop
  endfacet
  facet normal -0.0654098 0.997858 0
    outer loop
       vertex 0.269656 0.25 0
       vertex 0.237024 0.247861 0
       vertex 0.237024 0.247861 0.1
    endloop
  endfacet
  facet normal -0.0654098 0.997858 1.45239e-16
    outer loop
       vertex 0.237024 0.247861 0.1
       vertex 0.269656 0.25 0.1
       vertex 0.269656 0.25 0
    endloop
  endfacet
  facet normal -0.195096 0.980784 0
    outer loop
       vertex 0.237024 0.247861 0
       vertex 0.204951 0.241481 0
       vertex 0.204951 0.241481 0.1
    endloop
  endfacet
  facet normal -0.195096 0.980784 0
    outer loop
       vertex 0.204951 0.241481 0.1
       vertex 0.237024 0.247861 0.1
       vertex 0.237024 0.247861 0
    endloop
  endfacet
  facet normal -0.321425 0.946935 0
    outer loop
       vertex 0.204951 0.241481 0
       vertex 0.173985 0.23097 0
       vertex 0.173985 0.23097 0.1
    endloop
  endfacet
  facet normal -0.321425 0.946935 0
    outer loop
       vertex 0.173985 0.23097 0.1
       vertex 0.204951 0.241481 0.1
       vertex 0.204951 0.241481 0
    endloop
  endfacet
  facet normal -0.442302 0.896866 0
    outer loop
       vertex 0.173985 0.23097 0
       vertex 0.144656 0.216506 0
       vertex 0.144656 0.216506 0.1
    endloop
  endfacet
  facet normal -0.442302 0.896866 0
    outer loop
       vertex 0.144656 0.216506 0.1
       vertex 0.173985 0.23097 0.1
       vertex 0.173985 0.23097 0
    endloop
  endfacet
  facet normal -0.555561 0.831476 0
    outer loop
       vertex 0.144656 0.216506 0
       vertex 0.117465 0.198338 0
       vertex 0.117465 0.198338 0.1
    endloop
  endfacet
  facet normal -0.555561 0.831476 0
    outer loop
       vertex 0.117465 0.198338 0.1
       vertex 0.144656 0.216506 0.1
       vertex 0.144656 0.216506 0
    endloop
  endfacet
  facet normal -0.659372 0.751817 0
    outer loop
       vertex 0.117465 0.198338 0
       vertex 0.0928796 0.176776 0
       vertex 0.0928796 0.176776 0.1
    endloop
  endfacet
  facet normal -0.659372 0.751817 0
    outer loop
       vertex 0.0928796 0.176776 0.1
       vertex 0.117465 0.198338 0.1
       vertex 0.117465 0.198338 0
    endloop
  endfacet
  facet normal -0.751817 0.659372 0
    outer loop
       vertex 0.0928796 0.176776 0
       vertex 0.0713176 0.152191 0
       vertex 0.0713176 0.152191 0.1
    endloop
  endfacet
  facet normal -0.751817 0.659372 0
    outer loop
       vertex 0.0713176 0.152191 0.1
       vertex 0.0928796 0.176776 0.1
       vertex 0.0928796 0.176776 0
    endloop
  endfacet
  facet normal -0.831476 0.555561 0
    outer loop
       vertex 0.0713176 0.152191 0
       vertex 0.0531496 0.125 0
       vertex 0.0531496 0.125 0.1
    endloop
  endfacet
  facet normal -0.831476 0.555561 0
    outer loop
       vertex 0.0531496 0.125 0.1
       vertex 0.0713176 0.152191 0.1
       vertex 0.0713176 0.152191 0
    endloop
  endfacet
  facet normal -0.896866 0.442302 0
    outer loop
       vertex 0.0531496 0.125 0
       vertex 0.0386856 0.095671 0
       vertex 0.0386856 0.095671 0.1
    endloop
  endfacet
  facet normal -0.896866 0.442302 0
    outer loop
       vertex 0.0386856 0.095671 0.1
       vertex 0.0531496 0.125 0.1
       vertex 0.0531496 0.125 0
    endloop
  endfacet
  facet normal -0.946935 0.321425 0
    outer loop
       vertex 0.0386856 0.095671 0
       vertex 0.0281746 0.064705 0
       vertex 0.0281746 0.064705 0.1
    endloop
  endfacet
  facet normal -0.946935 0.321425 0
    outer loop
       vertex 0.0281746 0.064705 0.1
       vertex 0.0386856 0.095671 0.1
       vertex 0.0386856 0.095671 0
    endloop
  endfacet
  facet normal -0.980784 0.195096 0
    outer loop
       vertex 0.0281746 0.064705 0
       vertex 0.0217946 0.0326315 0
       vertex 0.0217946 0.0326315 0.1
    endloop
  endfacet
  facet normal -0.980784 0.195096 0
    outer loop
       vertex 0.0217946 0.0326315 0.1
       vertex 0.0281746 0.064705 0.1
       vertex 0.0281746 0.064705 0
    endloop
  endfacet
  facet normal -0.997858 0.0654098 0
    outer loop
       vertex 0.0196556 8.32665e-17 0.1
       vertex 0.0217946 0.0326315 0.1
       vertex 0.0217946 0.0326315 0
    endloop
  endfacet
  facet normal -0.997858 0.0654098 -1.08928e-16
    outer loop
       vertex 0.0217946 0.0326315 0
       vertex 0.0196556 -8.32665e-17 0
       vertex 0.0196556 8.32665e-17 0.1
    endloop
  endfacet
  facet normal -0.997858 -0.0654098 0
    outer loop
       vertex 0.0196556 -8.32665e-17 0
       vertex 0.0217946 -0.0326315 0
       vertex 0.0217946 -0.0326315 0.1
    endloop
  endfacet
  facet normal -0.997858 -0.0654098 1.08928e-16
    outer loop
       vertex 0.0217946 -0.0326315 0.1
       vertex 0.0196556 8.32665e-17 0.1
       vertex 0.0196556 -8.32665e-17 0
    endloop
  endfacet
  facet normal -0.980784 -0.195096 0
    outer loop
       vertex 0.0217946 -0.0326315 0
       vertex 0.0281746 -0.064705 0
       vertex 0.0281746 -0.064705 0.1
    endloop
  endfacet
  facet normal -0.980784 -0.195096 0
    outer loop
       vertex 0.0281746 -0.064705 0.1
       vertex 0.0217946 -0.0326315 0.1
       vertex 0.0217946 -0.0326315 0
    endloop
  endfacet
  facet normal -0.946935 -0.321425 0
    outer loop
       vertex 0.0281746 -0.064705 0
       vertex 0.0386856 -0.095671 0
       vertex 0.0386856 -0.095671 0.1
    endloop
  endfacet
  facet normal -0.946935 -0.321425 0
    outer loop
       vertex 0.0386856 -0.095671 0.1
       vertex 0.0281746 -0.064705 0.1
       vertex 0.0281746 -0.064705 0
    endloop
  endfacet
  facet normal -0.896866 -0.442302 0
    outer loop
       vertex 0.0386856 -0.095671 0
       vertex 0.0531496 -0.125 0
       vertex 0.0531496 -0.125 0.1
    endloop
  endfacet
  facet normal -0.896866 -0.442302 0
    outer loop
       vertex 0.0531496 -0.125 0.1
       vertex 0.0386856 -0.095671 0.1
       vertex 0.0386856 -0.095671 0
    endloop
  endfacet
  facet normal -0.831476 -0.555561 0
    outer loop
       vertex 0.0531496 -0.125 0
       vertex 0.0713176 -0.152191 0
       vertex 0.0713176 -0.152191 0.1
    endloop
  endfacet
  facet normal -0.831476 -0.555561 0
    outer loop
       vertex 0.0713176 -0.152191 0.1
       vertex 0.0531496 -0.125 0.1
       vertex 0.0531496 -0.125 0
    endloop
  endfacet
  facet normal -0.751817 -0.659372 0
    outer loop
       vertex 0.0713176 -0.152191 0
       vertex 0.0928796 -0.176776 0
       vertex 0.0928796 -0.176776 0.1
    endloop
  endfacet
  facet normal -0.751817 -0.659372 0
    outer loop
       vertex 0.0928796 -0.176776 0.1
       vertex 0.0713176 -0.152191 0.1
       vertex 0.0713176 -0.152191 0
    endloop
  endfacet
  facet normal 0.659372 -0.751817 0
    outer loop
       vertex 0.446432 -0.176776 0
       vertex 0.446432 -0.176776 0.1
       vertex 0.421847 -0.198338 0.1
    endloop
  endfacet
  facet normal 0.659372 -0.751817 0
    outer loop
       vertex 0.421847 -0.198338 0.1
       vertex 0.421847 -0.198338 0
       vertex 0.446432 -0.176776 0
    endloop
  endfacet
  facet normal 0.555561 -0.831476 0
    outer loop
       vertex 0.421847 -0.198338 0
       vertex 0.421847 -0.198338 0.1
       vertex 0.394656 -0.216506 0.1
    endloop
  endfacet
  facet normal 0.555561 -0.831476 0
    outer loop
       vertex 0.394656 -0.216506 0.1
       vertex 0.394656 -0.216506 0
       vertex 0.421847 -0.198338 0
    endloop
  endfacet
  facet normal 0.442302 -0.896866 0
    outer loop
       vertex 0.394656 -0.216506 0
       vertex 0.394656 -0.216506 0.1
       vertex 0.365327 -0.23097 0.1
    endloop
  endfacet
  facet normal 0.442302 -0.896866 0
    outer loop
       vertex 0.365327 -0.23097 0.1
       vertex 0.365327 -0.23097 0
       vertex 0.394656 -0.216506 0
    endloop
  endfacet
  facet normal 0.321425 -0.946935 0
    outer loop
       vertex 0.365327 -0.23097 0
       vertex 0.365327 -0.23097 0.1
       vertex 0.334361 -0.241481 0.1
    endloop
  endfacet
  facet normal 0.321425 -0.946935 0
    outer loop
       vertex 0.334361 -0.241481 0.1
       vertex 0.334361 -0.241481 0
       vertex 0.365327 -0.23097 0
    endloop
  endfacet
  facet normal 0.195096 -0.980784 0
    outer loop
       vertex 0.334361 -0.241481 0
       vertex 0.334361 -0.241481 0.1
       vertex 0.302287 -0.247861 0.1
    endloop
  endfacet
  facet normal 0.195096 -0.980784 0
    outer loop
       vertex 0.302287 -0.247861 0.1
       vertex 0.302287 -0.247861 0
       vertex 0.334361 -0.241481 0
    endloop
  endfacet
  facet normal 0.0654098 -0.997858 0
    outer loop
       vertex 0.269656 -0.25 0
       vertex 0.302287 -0.247861 0
       vertex 0.302287 -0.247861 0.1
    endloop
  endfacet
  facet normal 0.0654098 -0.997858 1.45239e-16
    outer loop
       vertex 0.302287 -0.247861 0.1
       vertex 0.269656 -0.25 0.1
       vertex 0.269656 -0.25 0
    endloop
  endfacet
  facet normal -0.0654098 -0.997858 0
    outer loop
       vertex 0.269656 -0.25 0.1
       vertex 0.237024 -0.247861 0.1
       vertex 0.237024 -0.247861 0
    endloop
  endfacet
  facet normal -0.0654098 -0.997858 -1.45239e-16
    outer loop
       vertex 0.237024 -0.247861 0
       vertex 0.269656 -0.25 0
       vertex 0.269656 -0.25 0.1
    endloop
  endfacet
  facet normal -0.195096 -0.980784 0
    outer loop
       vertex 0.237024 -0.247861 0
       vertex 0.237024 -0.247861 0.1
       vertex 0.204951 -0.241481 0.1
    endloop
  endfacet
  facet normal -0.195096 -0.980784 -0
    outer loop
       vertex 0.204951 -0.241481 0.1
       vertex 0.204951 -0.241481 0
       vertex 0.237024 -0.247861 0
    endloop
  endfacet
  facet normal -0.321425 -0.946935 0
    outer loop
       vertex 0.204951 -0.241481 0
       vertex 0.204951 -0.241481 0.1
       vertex 0.173985 -0.23097 0.1
    endloop
  endfacet
  facet normal -0.321425 -0.946935 -0
    outer loop
       vertex 0.173985 -0.23097 0.1
       vertex 0.173985 -0.23097 0
       vertex 0.204951 -0.241481 0
    endloop
  endfacet
  facet normal -0.442302 -0.896866 0
    outer loop
       vertex 0.173985 -0.23097 0
       vertex 0.173985 -0.23097 0.1
       vertex 0.144656 -0.216506 0.1
    endloop
  endfacet
  facet normal -0.442302 -0.896866 -0
    outer loop
       vertex 0.144656 -0.216506 0.1
       vertex 0.144656 -0.216506 0
       vertex 0.173985 -0.23097 0
    endloop
  endfacet
  facet normal -0.555561 -0.831476 0
    outer loop
       vertex 0.144656 -0.216506 0
       vertex 0.144656 -0.216506 0.1
       vertex 0.117465 -0.198338 0.1
    endloop
  endfacet
  facet normal -0.555561 -0.831476 -0
    outer loop
       vertex 0.117465 -0.198338 0.1
       vertex 0.117465 -0.198338 0
       vertex 0.144656 -0.216506 0
    endloop
  endfacet
  facet normal -0.659372 -0.751817 0
    outer loop
       vertex 0.117465 -0.198338 0
       vertex 0.117465 -0.198338 0.1
       vertex 0.0928796 -0.176776 0.1
    endloop
  endfacet
  facet normal -0.659372 -0.751817 -0
    outer loop
       vertex 0.0928796 -0.176776 0.1
       vertex 0.0928796 -0.176776 0
       vertex 0.117465 -0.198338 0
    endloop
  endfacet
endsolid cylinder
