solid cylinder
  facet normal 0.751817 -0.659372 0
    outer loop
       vertex 0.41421 -0.176776 0
       vertex 0.435772 -0.152191 0
       vertex 0.435772 -0.152191 0.1
    endloop
  endfacet
  facet normal 0.751817 -0.659372 0
    outer loop
       vertex 0.435772 -0.152191 0.1
       vertex 0.41421 -0.176776 0.1
       vertex 0.41421 -0.176776 0
    endloop
  endfacet
  facet normal 0.831476 -0.555561 0
    outer loop
       vertex 0.435772 -0.152191 0
       vertex 0.45394 -0.125 0
       vertex 0.45394 -0.125 0.1
    endloop
  endfacet
  facet normal 0.831476 -0.555561 0
    outer loop
       vertex 0.45394 -0.125 0.1
       vertex 0.435772 -0.152191 0.1
       vertex 0.435772 -0.152191 0
    endloop
  endfacet
  facet normal 0.896866 -0.442302 0
    outer loop
       vertex 0.45394 -0.125 0
       vertex 0.468404 -0.095671 0
       vertex 0.468404 -0.095671 0.1
    endloop
  endfacet
  facet normal 0.896866 -0.442302 0
    outer loop
       vertex 0.468404 -0.095671 0.1
       vertex 0.45394 -0.125 0.1
       vertex 0.45394 -0.125 0
    endloop
  endfacet
  facet normal 0.946935 -0.321425 0
    outer loop
       vertex 0.468404 -0.095671 0
       vertex 0.478915 -0.064705 0
       vertex 0.478915 -0.064705 0.1
    endloop
  endfacet
  facet normal 0.946935 -0.321425 0
    outer loop
       vertex 0.478915 -0.064705 0.1
       vertex 0.468404 -0.095671 0.1
       vertex 0.468404 -0.095671 0
    endloop
  endfacet
  facet normal 0.980784 -0.195096 0
    outer loop
       vertex 0.478915 -0.064705 0
       vertex 0.485295 -0.0326315 0
       vertex 0.485295 -0.0326315 0.1
    endloop
  endfacet
  facet normal 0.980784 -0.195096 0
    outer loop
       vertex 0.485295 -0.0326315 0.1
       vertex 0.478915 -0.064705 0.1
       vertex 0.478915 -0.064705 0
    endloop
  endfacet
  facet normal 0.997858 -0.0654098 0
    outer loop
       vertex 0.487434 -8.32665e-17 0.1
       vertex 0.485295 -0.0326315 0.1
       vertex 0.485295 -0.0326315 0
    endloop
  endfacet
  facet normal 0.997858 -0.0654098 -1.08928e-16
    outer loop
       vertex 0.485295 -0.0326315 0
       vertex 0.487434 8.32665e-17 0
       vertex 0.487434 -8.32665e-17 0.1
    endloop
  endfacet
  facet normal 0.997858 0.0654098 0
    outer loop
       vertex 0.487434 8.32665e-17 0
       vertex 0.485295 0.0326315 0
       vertex 0.485295 0.0326315 0.1
    endloop
  endfacet
  facet normal 0.997858 0.0654098 1.08928e-16
    outer loop
       vertex 0.485295 0.0326315 0.1
       vertex 0.487434 -8.32665e-17 0.1
       vertex 0.487434 8.32665e-17 0
    endloop
  endfacet
  facet normal 0.980784 0.195096 0
    outer loop
       vertex 0.485295 0.0326315 0
       vertex 0.478915 0.064705 0
       vertex 0.478915 0.064705 0.1
    endloop
  endfacet
  facet normal 0.980784 0.195096 0
    outer loop
       vertex 0.478915 0.064705 0.1
       vertex 0.485295 0.0326315 0.1
       vertex 0.485295 0.0326315 0
    endloop
  endfacet
  facet normal 0.946935 0.321425 0
    outer loop
       vertex 0.478915 0.064705 0
       vertex 0.468404 0.095671 0
       vertex 0.468404 0.095671 0.1
    endloop
  endfacet
  facet normal 0.946935 0.321425 0
    outer loop
       vertex 0.468404 0.095671 0.1
       vertex 0.478915 0.064705 0.1
       vertex 0.478915 0.064705 0
    endloop
  endfacet
  facet normal 0.896866 0.442302 0
    outer loop
       vertex 0.468404 0.095671 0
       vertex 0.45394 0.125 0
       vertex 0.45394 0.125 0.1
    endloop
  endfacet
  facet normal 0.896866 0.442302 0
    outer loop
       vertex 0.45394 0.125 0.1
       vertex 0.468404 0.095671 0.1
       vertex 0.468404 0.095671 0
    endloop
  endfacet
  facet normal 0.831476 0.555561 0
    outer loop
       vertex 0.45394 0.125 0
       vertex 0.435772 0.152191 0
       vertex 0.435772 0.152191 0.1
    endloop
  endfacet
  facet normal 0.831476 0.555561 0
    outer loop
       vertex 0.435772 0.152191 0.1
       vertex 0.45394 0.125 0.1
       vertex 0.45394 0.125 0
    endloop
  endfacet
  facet normal 0.751817 0.659372 0
    outer loop
       vertex 0.435772 0.152191 0
       vertex 0.41421 0.176776 0
       vertex 0.41421 0.176776 0.1
    endloop
  endfacet
  facet normal 0.751817 0.659372 0
    outer loop
       vertex 0.41421 0.176776 0.1
       vertex 0.435772 0.152191 0.1
       vertex 0.435772 0.152191 0
    endloop
  endfacet
  facet normal 0.659372 0.751817 0
    outer loop
       vertex 0.41421 0.176776 0
       vertex 0.389625 0.198338 0
       vertex 0.389625 0.198338 0.1
    endloop
  endfacet
  facet normal 0.659372 0.751817 0
    outer loop
       vertex 0.389625 0.198338 0.1
       vertex 0.41421 0.176776 0.1
       vertex 0.41421 0.176776 0
    endloop
  endfacet
  facet normal 0.555561 0.831476 0
    outer loop
       vertex 0.389625 0.198338 0
       vertex 0.362434 0.216506 0
       vertex 0.362434 0.216506 0.1
    endloop
  endfacet
  facet normal 0.555561 0.831476 0
    outer loop
       vertex 0.362434 0.216506 0.1
       vertex 0.389625 0.198338 0.1
       vertex 0.389625 0.198338 0
    endloop
  endfacet
  facet normal 0.442302 0.896866 0
    outer loop
       vertex 0.362434 0.216506 0
       vertex 0.333105 0.23097 0
       vertex 0.333105 0.23097 0.1
    endloop
  endfacet
  facet normal 0.442302 0.896866 0
    outer loop
       vertex 0.333105 0.23097 0.1
       vertex 0.362434 0.216506 0.1
       vertex 0.362434 0.216506 0
    endloop
  endfacet
  facet normal 0.321425 0.946935 0
    outer loop
       vertex 0.333105 0.23097 0
       vertex 0.302139 0.241481 0
       vertex 0.302139 0.241481 0.1
    endloop
  endfacet
  facet normal 0.321425 0.946935 0
    outer loop
       vertex 0.302139 0.241481 0.1
       vertex 0.333105 0.23097 0.1
       vertex 0.333105 0.23097 0
    endloop
  endfacet
  facet normal 0.195096 0.980784 0
    outer loop
       vertex 0.302139 0.241481 0
       vertex 0.270066 0.247861 0
       vertex 0.270066 0.247861 0.1
    endloop
  endfacet
  facet normal 0.195096 0.980784 0
    outer loop
       vertex 0.270066 0.247861 0.1
       vertex 0.302139 0.241481 0.1
       vertex 0.302139 0.241481 0
    endloop
  endfacet
  facet normal 0.0654098 0.997858 0
    outer loop
       vertex 0.237434 0.25 0.1
       vertex 0.270066 0.247861 0.1
       vertex 0.270066 0.247861 0
    endloop
  endfacet
  facet normal 0.0654098 0.997858 -1.0893e-16
    outer loop
       vertex 0.270066 0.247861 0
       vertex 0.237434 0.25 0
       vertex 0.237434 0.25 0.1
    endloop
  endfacet
  facet normal -0.0654098 0.997858 0
    outer loop
       vertex 0.237434 0.25 0
       vertex 0.204803 0.247861 0
       vertex 0.204803 0.247861 0.1
    endloop
  endfacet
  facet normal -0.0654098 0.997858 1.0893e-16
    outer loop
       vertex 0.204803 0.247861 0.1
       vertex 0.237434 0.25 0.1
       vertex 0.237434 0.25 0
    endloop
  endfacet
  facet normal -0.195096 0.980784 0
    outer loop
       vertex 0.204803 0.247861 0
       vertex 0.172729 0.241481 0
       vertex 0.172729 0.241481 0.1
    endloop
  endfacet
  facet normal -0.195096 0.980784 0
    outer loop
       vertex 0.172729 0.241481 0.1
       vertex 0.204803 0.247861 0.1
       vertex 0.204803 0.247861 0
    endloop
  endfacet
  facet normal -0.321425 0.946935 0
    outer loop
       vertex 0.172729 0.241481 0
       vertex 0.141763 0.23097 0
       vertex 0.141763 0.23097 0.1
    endloop
  endfacet
  facet normal -0.321425 0.946935 0
    outer loop
       vertex 0.141763 0.23097 0.1
       vertex 0.172729 0.241481 0.1
       vertex 0.172729 0.241481 0
    endloop
  endfacet
  facet normal -0.442302 0.896866 0
    outer loop
       vertex 0.141763 0.23097 0
       vertex 0.112434 0.216506 0
       vertex 0.112434 0.216506 0.1
    endloop
  endfacet
  facet normal -0.442302 0.896866 0
    outer loop
       vertex 0.112434 0.216506 0.1
       vertex 0.141763 0.23097 0.1
       vertex 0.141763 0.23097 0
    endloop
  endfacet
  facet normal -0.555561 0.831476 0
    outer loop
       vertex 0.112434 0.216506 0
       vertex 0.0852431 0.198338 0
       vertex 0.0852431 0.198338 0.1
    endloop
  endfacet
  facet normal -0.555561 0.831476 0
    outer loop
       vertex 0.0852431 0.198338 0.1
       vertex 0.112434 0.216506 0.1
       vertex 0.112434 0.216506 0
    endloop
  endfacet
  facet normal -0.659372 0.751817 0
    outer loop
       vertex 0.0852431 0.198338 0
       vertex 0.0606581 0.176776 0
       vertex 0.0606581 0.176776 0.1
    endloop
  endfacet
  facet normal -0.659372 0.751817 0
    outer loop
       vertex 0.0606581 0.176776 0.1
       vertex 0.0852431 0.198338 0.1
       vertex 0.0852431 0.198338 0
    endloop
  endfacet
  facet normal -0.751817 0.659372 0
    outer loop
       vertex 0.0606581 0.176776 0
       vertex 0.0390961 0.152191 0
       vertex 0.0390961 0.152191 0.1
    endloop
  endfacet
  facet normal -0.751817 0.659372 0
    outer loop
       vertex 0.0390961 0.152191 0.1
       vertex 0.0606581 0.176776 0.1
       vertex 0.0606581 0.176776 0
    endloop
  endfacet
  facet normal -0.831476 0.555561 0
    outer loop
       vertex 0.0390961 0.152191 0
       vertex 0.0209281 0.125 0
       vertex 0.0209281 0.125 0.1
    endloop
  endfacet
  facet normal -0.831476 0.555561 0
    outer loop
       vertex 0.0209281 0.125 0.1
       vertex 0.0390961 0.152191 0.1
       vertex 0.0390961 0.152191 0
    endloop
  endfacet
  facet normal -0.896866 0.442302 0
    outer loop
       vertex 0.0209281 0.125 0
       vertex 0.0064641 0.095671 0
       vertex 0.0064641 0.095671 0.1
    endloop
  endfacet
  facet normal -0.896866 0.442302 0
    outer loop
       vertex 0.0064641 0.095671 0.1
       vertex 0.0209281 0.125 0.1
       vertex 0.0209281 0.125 0
    endloop
  endfacet
  facet normal -0.946935 0.321425 0
    outer loop
       vertex 0.0064641 0.095671 0
       vertex -0.0040469 0.064705 0
       vertex -0.0040469 0.064705 0.1
    endloop
  endfacet
  facet normal -0.946935 0.321425 0
    outer loop
       vertex -0.0040469 0.064705 0.1
       vertex 0.0064641 0.095671 0.1
       vertex 0.0064641 0.095671 0
    endloop
  endfacet
  facet normal -0.980784 0.195096 0
    outer loop
       vertex -0.0040469 0.064705 0
       vertex -0.0104269 0.0326315 0
       vertex -0.0104269 0.0326315 0.1
    endloop
  endfacet
  facet normal -0.980784 0.195096 0
    outer loop
       vertex -0.0104269 0.0326315 0.1
       vertex -0.0040469 0.064705 0.1
       vertex -0.0040469 0.064705 0
    endloop
  endfacet
  facet normal -0.997858 0.0654098 0
    outer loop
       vertex -0.0125659 8.32665e-17 0.1
       vertex -0.0104269 0.0326315 0.1
       vertex -0.0104269 0.0326315 0
    endloop
  endfacet
  facet normal -0.997858 0.0654098 -1.08928e-16
    outer loop
       vertex -0.0104269 0.0326315 0
       vertex -0.0125659 -8.32665e-17 0
       vertex -0.0125659 8.32665e-17 0.1
    endloop
  endfacet
  facet normal -0.997858 -0.0654098 0
    outer loop
       vertex -0.0125659 -8.32665e-17 0
       vertex -0.0104269 -0.0326315 0
       vertex -0.0104269 -0.0326315 0.1
    endloop
  endfacet
  facet normal -0.997858 -0.0654098 1.08928e-16
    outer loop
       vertex -0.0104269 -0.0326315 0.1
       vertex -0.0125659 8.32665e-17 0.1
       vertex -0.0125659 -8.32665e-17 0
    endloop
  endfacet
  facet normal -0.980784 -0.195096 0
    outer loop
       vertex -0.0104269 -0.0326315 0
       vertex -0.0040469 -0.064705 0
       vertex -0.0040469 -0.064705 0.1
    endloop
  endfacet
  facet normal -0.980784 -0.195096 0
    outer loop
       vertex -0.0040469 -0.064705 0.1
       vertex -0.0104269 -0.0326315 0.1
       vertex -0.0104269 -0.0326315 0
    endloop
  endfacet
  facet normal -0.946935 -0.321425 0
    outer loop
       vertex -0.0040469 -0.064705 0
       vertex 0.0064641 -0.095671 0
       vertex 0.0064641 -0.095671 0.1
    endloop
  endfacet
  facet normal -0.946935 -0.321425 0
    outer loop
       vertex 0.0064641 -0.095671 0.1
       vertex -0.0040469 -0.064705 0.1
       vertex -0.0040469 -0.064705 0
    endloop
  endfacet
  facet normal -0.896866 -0.442302 0
    outer loop
       vertex 0.0064641 -0.095671 0
       vertex 0.0209281 -0.125 0
       vertex 0.0209281 -0.125 0.1
    endloop
  endfacet
  facet normal -0.896866 -0.442302 0
    outer loop
       vertex 0.0209281 -0.125 0.1
       vertex 0.0064641 -0.095671 0.1
       vertex 0.0064641 -0.095671 0
    endloop
  endfacet
  facet normal -0.831476 -0.555561 0
    outer loop
       vertex 0.0209281 -0.125 0
       vertex 0.0390961 -0.152191 0
       vertex 0.0390961 -0.152191 0.1
    endloop
  endfacet
  facet normal -0.831476 -0.555561 0
    outer loop
       vertex 0.0390961 -0.152191 0.1
       vertex 0.0209281 -0.125 0.1
       vertex 0.0209281 -0.125 0
    endloop
  endfacet
  facet normal -0.751817 -0.659372 0
    outer loop
       vertex 0.0390961 -0.152191 0
       vertex 0.0606581 -0.176776 0
       vertex 0.0606581 -0.176776 0.1
    endloop
  endfacet
  facet normal -0.751817 -0.659372 0
    outer loop
       vertex 0.0606581 -0.176776 0.1
       vertex 0.0390961 -0.152191 0.1
       vertex 0.0390961 -0.152191 0
    endloop
  endfacet
  facet normal 0.659372 -0.751817 0
    outer loop
       vertex 0.41421 -0.176776 0
       vertex 0.41421 -0.176776 0.1
       vertex 0.389625 -0.198338 0.1
    endloop
  endfacet
  facet normal 0.659372 -0.751817 0
    outer loop
       vertex 0.389625 -0.198338 0.1
       vertex 0.389625 -0.198338 0
       vertex 0.41421 -0.176776 0
    endloop
  endfacet
  facet normal 0.555561 -0.831476 0
    outer loop
       vertex 0.389625 -0.198338 0
       vertex 0.389625 -0.198338 0.1
       vertex 0.362434 -0.216506 0.1
    endloop
  endfacet
  facet normal 0.555561 -0.831476 0
    outer loop
       vertex 0.362434 -0.216506 0.1
       vertex 0.362434 -0.216506 0
       vertex 0.389625 -0.198338 0
    endloop
  endfacet
  facet normal 0.442302 -0.896866 0
    outer loop
       vertex 0.362434 -0.216506 0
       vertex 0.362434 -0.216506 0.1
       vertex 0.333105 -0.23097 0.1
    endloop
  endfacet
  facet normal 0.442302 -0.896866 0
    outer loop
       vertex 0.333105 -0.23097 0.1
       vertex 0.333105 -0.23097 0
       vertex 0.362434 -0.216506 0
    endloop
  endfacet
  facet normal 0.321425 -0.946935 0
    outer loop
       vertex 0.333105 -0.23097 0
       vertex 0.333105 -0.23097 0.1
       vertex 0.302139 -0.241481 0.1
    endloop
  endfacet
  facet normal 0.321425 -0.946935 0
    outer loop
       vertex 0.302139 -0.241481 0.1
       vertex 0.302139 -0.241481 0
       vertex 0.333105 -0.23097 0
    endloop
  endfacet
  facet normal 0.195096 -0.980784 0
    outer loop
       vertex 0.302139 -0.241481 0
       vertex 0.302139 -0.241481 0.1
       vertex 0.270066 -0.247861 0.1
    endloop
  endfacet
  facet normal 0.195096 -0.980784 0
    outer loop
       vertex 0.270066 -0.247861 0.1
       vertex 0.270066 -0.247861 0
       vertex 0.302139 -0.241481 0
    endloop
  endfacet
  facet normal 0.0654098 -0.997858 0
    outer loop
       vertex 0.237434 -0.25 0
       vertex 0.270066 -0.247861 0
       vertex 0.270066 -0.247861 0.1
    endloop
  endfacet
  facet normal 0.0654098 -0.997858 1.0893e-16
    outer loop
       vertex 0.270066 -0.247861 0.1
       vertex 0.237434 -0.25 0.1
       vertex 0.237434 -0.25 0
    endloop
  endfacet
  facet normal -0.0654098 -0.997858 0
    outer loop
       vertex 0.237434 -0.25 0.1
       vertex 0.204803 -0.247861 0.1
       vertex 0.204803 -0.247861 0
    endloop
  endfacet
  facet normal -0.0654098 -0.997858 -1.0893e-16
    outer loop
       vertex 0.204803 -0.247861 0
       vertex 0.237434 -0.25 0
       vertex 0.237434 -0.25 0.1
    endloop
  endfacet
  facet normal -0.195096 -0.980784 0
    outer loop
       vertex 0.204803 -0.247861 0
       vertex 0.204803 -0.247861 0.1
       vertex 0.172729 -0.241481 0.1
    endloop
  endfacet
  facet normal -0.195096 -0.980784 -0
    outer loop
       vertex 0.172729 -0.241481 0.1
       vertex 0.172729 -0.241481 0
       vertex 0.204803 -0.247861 0
    endloop
  endfacet
  facet normal -0.321425 -0.946935 0
    outer loop
       vertex 0.172729 -0.241481 0
       vertex 0.172729 -0.241481 0.1
       vertex 0.141763 -0.23097 0.1
    endloop
  endfacet
  facet normal -0.321425 -0.946935 -0
    outer loop
       vertex 0.141763 -0.23097 0.1
       vertex 0.141763 -0.23097 0
       vertex 0.172729 -0.241481 0
    endloop
  endfacet
  facet normal -0.442302 -0.896866 0
    outer loop
       vertex 0.141763 -0.23097 0
       vertex 0.141763 -0.23097 0.1
       vertex 0.112434 -0.216506 0.1
    endloop
  endfacet
  facet normal -0.442302 -0.896866 -0
    outer loop
       vertex 0.112434 -0.216506 0.1
       vertex 0.112434 -0.216506 0
       vertex 0.141763 -0.23097 0
    endloop
  endfacet
  facet normal -0.555561 -0.831476 0
    outer loop
       vertex 0.112434 -0.216506 0
       vertex 0.112434 -0.216506 0.1
       vertex 0.0852431 -0.198338 0.1
    endloop
  endfacet
  facet normal -0.555561 -0.831476 -0
    outer loop
       vertex 0.0852431 -0.198338 0.1
       vertex 0.0852431 -0.198338 0
       vertex 0.112434 -0.216506 0
    endloop
  endfacet
  facet normal -0.659372 -0.751817 0
    outer loop
       vertex 0.0852431 -0.198338 0
       vertex 0.0852431 -0.198338 0.1
       vertex 0.0606581 -0.176776 0.1
    endloop
  endfacet
  facet normal -0.659372 -0.751817 -0
    outer loop
       vertex 0.0606581 -0.176776 0.1
       vertex 0.0606581 -0.176776 0
       vertex 0.0852431 -0.198338 0
    endloop
  endfacet
endsolid cylinder
