solid cylinder
  facet normal 0.751817 -0.659372 0
    outer loop
       vertex -0.0037608 -0.176776 0
       vertex 0.0178012 -0.152191 0
       vertex 0.0178012 -0.152191 0.1
    endloop
  endfacet
  facet normal 0.751817 -0.659372 0
    outer loop
       vertex 0.0178012 -0.152191 0.1
       vertex -0.0037608 -0.176776 0.1
       vertex -0.0037608 -0.176776 0
    endloop
  endfacet
  facet normal 0.831476 -0.555561 0
    outer loop
       vertex 0.0178012 -0.152191 0
       vertex 0.0359692 -0.125 0
       vertex 0.0359692 -0.125 0.1
    endloop
  endfacet
  facet normal 0.831476 -0.555561 0
    outer loop
       vertex 0.0359692 -0.125 0.1
       vertex 0.0178012 -0.152191 0.1
       vertex 0.0178012 -0.152191 0
    endloop
  endfacet
  facet normal 0.896866 -0.442302 0
    outer loop
       vertex 0.0359692 -0.125 0
       vertex 0.0504332 -0.095671 0
       vertex 0.0504332 -0.095671 0.1
    endloop
  endfacet
  facet normal 0.896866 -0.442302 0
    outer loop
       vertex 0.0504332 -0.095671 0.1
       vertex 0.0359692 -0.125 0.1
       vertex 0.0359692 -0.125 0
    endloop
  endfacet
  facet normal 0.946935 -0.321425 0
    outer loop
       vertex 0.0504332 -0.095671 0
       vertex 0.0609442 -0.064705 0
       vertex 0.0609442 -0.064705 0.1
    endloop
  endfacet
  facet normal 0.946935 -0.321425 0
    outer loop
       vertex 0.0609442 -0.064705 0.1
       vertex 0.0504332 -0.095671 0.1
       vertex 0.0504332 -0.095671 0
    endloop
  endfacet
  facet normal 0.980784 -0.195096 0
    outer loop
       vertex 0.0609442 -0.064705 0
       vertex 0.0673242 -0.0326315 0
       vertex 0.0673242 -0.0326315 0.1
    endloop
  endfacet
  facet normal 0.980784 -0.195096 0
    outer loop
       vertex 0.0673242 -0.0326315 0.1
       vertex 0.0609442 -0.064705 0.1
       vertex 0.0609442 -0.064705 0
    endloop
  endfacet
  facet normal 0.997858 -0.0654098 0
    outer loop
       vertex 0.0694632 -8.32665e-17 0.1
       vertex 0.0673242 -0.0326315 0.1
       vertex 0.0673242 -0.0326315 0
    endloop
  endfacet
  facet normal 0.997858 -0.0654098 -1.08928e-16
    outer loop
       vertex 0.0673242 -0.0326315 0
       vertex 0.0694632 8.32665e-17 0
       vertex 0.0694632 -8.32665e-17 0.1
    endloop
  endfacet
  facet normal 0.997858 0.0654098 0
    outer loop
       vertex 0.0694632 8.32665e-17 0
       vertex 0.0673242 0.0326315 0
       vertex 0.0673242 0.0326315 0.1
    endloop
  endfacet
  facet normal 0.997858 0.0654098 1.08928e-16
    outer loop
       vertex 0.0673242 0.0326315 0.1
       vertex 0.0694632 -8.32665e-17 0.1
       vertex 0.0694632 8.32665e-17 0
    endloop
  endfacet
  facet normal 0.980784 0.195096 0
    outer loop
       vertex 0.0673242 0.0326315 0
       vertex 0.0609442 0.064705 0
       vertex 0.0609442 0.064705 0.1
    endloop
  endfacet
  facet normal 0.980784 0.195096 0
    outer loop
       vertex 0.0609442 0.064705 0.1
       vertex 0.0673242 0.0326315 0.1
       vertex 0.0673242 0.0326315 0
    endloop
  endfacet
  facet normal 0.946935 0.321425 0
    outer loop
       vertex 0.0609442 0.064705 0
       vertex 0.0504332 0.095671 0
       vertex 0.0504332 0.095671 0.1
    endloop
  endfacet
  facet normal 0.946935 0.321425 0
    outer loop
       vertex 0.0504332 0.095671 0.1
       vertex 0.0609442 0.064705 0.1
       vertex 0.0609442 0.064705 0
    endloop
  endfacet
  facet normal 0.896866 0.442302 0
    outer loop
       vertex 0.0504332 0.095671 0
       vertex 0.0359692 0.125 0
       vertex 0.0359692 0.125 0.1
    endloop
  endfacet
  facet normal 0.896866 0.442302 0
    outer loop
       vertex 0.0359692 0.125 0.1
       vertex 0.0504332 0.095671 0.1
       vertex 0.0504332 0.095671 0
    endloop
  endfacet
  facet normal 0.831476 0.555561 0
    outer loop
       vertex 0.0359692 0.125 0
       vertex 0.0178012 0.152191 0
       vertex 0.0178012 0.152191 0.1
    endloop
  endfacet
  facet normal 0.831476 0.555561 0
    outer loop
       vertex 0.0178012 0.152191 0.1
       vertex 0.0359692 0.125 0.1
       vertex 0.0359692 0.125 0
    endloop
  endfacet
  facet normal 0.751817 0.659372 0
    outer loop
       vertex 0.0178012 0.152191 0
       vertex -0.0037608 0.176776 0
       vertex -0.0037608 0.176776 0.1
    endloop
  endfacet
  facet normal 0.751817 0.659372 0
    outer loop
       vertex -0.0037608 0.176776 0.1
       vertex 0.0178012 0.152191 0.1
       vertex 0.0178012 0.152191 0
    endloop
  endfacet
  facet normal 0.659372 0.751817 0
    outer loop
       vertex -0.0037608 0.176776 0
       vertex -0.0283458 0.198338 0
       vertex -0.0283458 0.198338 0.1
    endloop
  endfacet
  facet normal 0.659372 0.751817 0
    outer loop
       vertex -0.0283458 0.198338 0.1
       vertex -0.0037608 0.176776 0.1
       vertex -0.0037608 0.176776 0
    endloop
  endfacet
  facet normal 0.555561 0.831476 0
    outer loop
       vertex -0.0283458 0.198338 0
       vertex -0.0555368 0.216506 0
       vertex -0.0555368 0.216506 0.1
    endloop
  endfacet
  facet normal 0.555561 0.831476 0
    outer loop
       vertex -0.0555368 0.216506 0.1
       vertex -0.0283458 0.198338 0.1
       vertex -0.0283458 0.198338 0
    endloop
  endfacet
  facet normal 0.442302 0.896866 0
    outer loop
       vertex -0.0555368 0.216506 0
       vertex -0.0848658 0.23097 0
       vertex -0.0848658 0.23097 0.1
    endloop
  endfacet
  facet normal 0.442302 0.896866 0
    outer loop
       vertex -0.0848658 0.23097 0.1
       vertex -0.0555368 0.216506 0.1
       vertex -0.0555368 0.216506 0
    endloop
  endfacet
  facet normal 0.321425 0.946935 0
    outer loop
       vertex -0.0848658 0.23097 0
       vertex -0.115832 0.241481 0
       vertex -0.115832 0.241481 0.1
    endloop
  endfacet
  facet normal 0.321425 0.946935 0
    outer loop
       vertex -0.115832 0.241481 0.1
       vertex -0.0848658 0.23097 0.1
       vertex -0.0848658 0.23097 0
    endloop
  endfacet
  facet normal 0.195096 0.980784 0
    outer loop
       vertex -0.115832 0.241481 0
       vertex -0.147905 0.247861 0
       vertex -0.147905 0.247861 0.1
    endloop
  endfacet
  facet normal 0.195096 0.980784 0
    outer loop
       vertex -0.147905 0.247861 0.1
       vertex -0.115832 0.241481 0.1
       vertex -0.115832 0.241481 0
    endloop
  endfacet
  facet normal 0.0654098 0.997858 0
    outer loop
       vertex -0.180537 0.25 0.1
       vertex -0.147905 0.247861 0.1
       vertex -0.147905 0.247861 0
    endloop
  endfacet
  facet normal 0.0654098 0.997858 -1.0893e-16
    outer loop
       vertex -0.147905 0.247861 0
       vertex -0.180537 0.25 0
       vertex -0.180537 0.25 0.1
    endloop
  endfacet
  facet normal -0.0654098 0.997858 0
    outer loop
       vertex -0.180537 0.25 0
       vertex -0.213168 0.247861 0
       vertex -0.213168 0.247861 0.1
    endloop
  endfacet
  facet normal -0.0654098 0.997858 1.0893e-16
    outer loop
       vertex -0.213168 0.247861 0.1
       vertex -0.180537 0.25 0.1
       vertex -0.180537 0.25 0
    endloop
  endfacet
  facet normal -0.195096 0.980784 0
    outer loop
       vertex -0.213168 0.247861 0
       vertex -0.245242 0.241481 0
       vertex -0.245242 0.241481 0.1
    endloop
  endfacet
  facet normal -0.195096 0.980784 0
    outer loop
       vertex -0.245242 0.241481 0.1
       vertex -0.213168 0.247861 0.1
       vertex -0.213168 0.247861 0
    endloop
  endfacet
  facet normal -0.321425 0.946935 0
    outer loop
       vertex -0.245242 0.241481 0
       vertex -0.276208 0.23097 0
       vertex -0.276208 0.23097 0.1
    endloop
  endfacet
  facet normal -0.321425 0.946935 0
    outer loop
       vertex -0.276208 0.23097 0.1
       vertex -0.245242 0.241481 0.1
       vertex -0.245242 0.241481 0
    endloop
  endfacet
  facet normal -0.442302 0.896866 0
    outer loop
       vertex -0.276208 0.23097 0
       vertex -0.305537 0.216506 0
       vertex -0.305537 0.216506 0.1
    endloop
  endfacet
  facet normal -0.442302 0.896866 0
    outer loop
       vertex -0.305537 0.216506 0.1
       vertex -0.276208 0.23097 0.1
       vertex -0.276208 0.23097 0
    endloop
  endfacet
  facet normal -0.555561 0.831476 0
    outer loop
       vertex -0.305537 0.216506 0
       vertex -0.332728 0.198338 0
       vertex -0.332728 0.198338 0.1
    endloop
  endfacet
  facet normal -0.555561 0.831476 0
    outer loop
       vertex -0.332728 0.198338 0.1
       vertex -0.305537 0.216506 0.1
       vertex -0.305537 0.216506 0
    endloop
  endfacet
  facet normal -0.659372 0.751817 0
    outer loop
       vertex -0.332728 0.198338 0
       vertex -0.357313 0.176776 0
       vertex -0.357313 0.176776 0.1
    endloop
  endfacet
  facet normal -0.659372 0.751817 0
    outer loop
       vertex -0.357313 0.176776 0.1
       vertex -0.332728 0.198338 0.1
       vertex -0.332728 0.198338 0
    endloop
  endfacet
  facet normal -0.751817 0.659372 0
    outer loop
       vertex -0.357313 0.176776 0
       vertex -0.378875 0.152191 0
       vertex -0.378875 0.152191 0.1
    endloop
  endfacet
  facet normal -0.751817 0.659372 0
    outer loop
       vertex -0.378875 0.152191 0.1
       vertex -0.357313 0.176776 0.1
       vertex -0.357313 0.176776 0
    endloop
  endfacet
  facet normal -0.831476 0.555561 0
    outer loop
       vertex -0.378875 0.152191 0
       vertex -0.397043 0.125 0
       vertex -0.397043 0.125 0.1
    endloop
  endfacet
  facet normal -0.831476 0.555561 0
    outer loop
       vertex -0.397043 0.125 0.1
       vertex -0.378875 0.152191 0.1
       vertex -0.378875 0.152191 0
    endloop
  endfacet
  facet normal -0.896866 0.442302 0
    outer loop
       vertex -0.397043 0.125 0
       vertex -0.411507 0.095671 0
       vertex -0.411507 0.095671 0.1
    endloop
  endfacet
  facet normal -0.896866 0.442302 0
    outer loop
       vertex -0.411507 0.095671 0.1
       vertex -0.397043 0.125 0.1
       vertex -0.397043 0.125 0
    endloop
  endfacet
  facet normal -0.946935 0.321425 0
    outer loop
       vertex -0.411507 0.095671 0
       vertex -0.422018 0.064705 0
       vertex -0.422018 0.064705 0.1
    endloop
  endfacet
  facet normal -0.946935 0.321425 0
    outer loop
       vertex -0.422018 0.064705 0.1
       vertex -0.411507 0.095671 0.1
       vertex -0.411507 0.095671 0
    endloop
  endfacet
  facet normal -0.980784 0.195096 0
    outer loop
       vertex -0.422018 0.064705 0
       vertex -0.428398 0.0326315 0
       vertex -0.428398 0.0326315 0.1
    endloop
  endfacet
  facet normal -0.980784 0.195096 0
    outer loop
       vertex -0.428398 0.0326315 0.1
       vertex -0.422018 0.064705 0.1
       vertex -0.422018 0.064705 0
    endloop
  endfacet
  facet normal -0.997858 0.0654098 0
    outer loop
       vertex -0.430537 8.32665e-17 0.1
       vertex -0.428398 0.0326315 0.1
       vertex -0.428398 0.0326315 0
    endloop
  endfacet
  facet normal -0.997858 0.0654098 -1.08928e-16
    outer loop
       vertex -0.428398 0.0326315 0
       vertex -0.430537 -8.32665e-17 0
       vertex -0.430537 8.32665e-17 0.1
    endloop
  endfacet
  facet normal -0.997858 -0.0654098 0
    outer loop
       vertex -0.430537 -8.32665e-17 0
       vertex -0.428398 -0.0326315 0
       vertex -0.428398 -0.0326315 0.1
    endloop
  endfacet
  facet normal -0.997858 -0.0654098 1.08928e-16
    outer loop
       vertex -0.428398 -0.0326315 0.1
       vertex -0.430537 8.32665e-17 0.1
       vertex -0.430537 -8.32665e-17 0
    endloop
  endfacet
  facet normal -0.980784 -0.195096 0
    outer loop
       vertex -0.428398 -0.0326315 0
       vertex -0.422018 -0.064705 0
       vertex -0.422018 -0.064705 0.1
    endloop
  endfacet
  facet normal -0.980784 -0.195096 0
    outer loop
       vertex -0.422018 -0.064705 0.1
       vertex -0.428398 -0.0326315 0.1
       vertex -0.428398 -0.0326315 0
    endloop
  endfacet
  facet normal -0.946935 -0.321425 0
    outer loop
       vertex -0.422018 -0.064705 0
       vertex -0.411507 -0.095671 0
       vertex -0.411507 -0.095671 0.1
    endloop
  endfacet
  facet normal -0.946935 -0.321425 0
    outer loop
       vertex -0.411507 -0.095671 0.1
       vertex -0.422018 -0.064705 0.1
       vertex -0.422018 -0.064705 0
    endloop
  endfacet
  facet normal -0.896866 -0.442302 0
    outer loop
       vertex -0.411507 -0.095671 0
       vertex -0.397043 -0.125 0
       vertex -0.397043 -0.125 0.1
    endloop
  endfacet
  facet normal -0.896866 -0.442302 0
    outer loop
       vertex -0.397043 -0.125 0.1
       vertex -0.411507 -0.095671 0.1
       vertex -0.411507 -0.095671 0
    endloop
  endfacet
  facet normal -0.831476 -0.555561 0
    outer loop
       vertex -0.397043 -0.125 0
       vertex -0.378875 -0.152191 0
       vertex -0.378875 -0.152191 0.1
    endloop
  endfacet
  facet normal -0.831476 -0.555561 0
    outer loop
       vertex -0.378875 -0.152191 0.1
       vertex -0.397043 -0.125 0.1
       vertex -0.397043 -0.125 0
    endloop
  endfacet
  facet normal -0.751817 -0.659372 0
    outer loop
       vertex -0.378875 -0.152191 0
       vertex -0.357313 -0.176776 0
       vertex -0.357313 -0.176776 0.1
    endloop
  endfacet
  facet normal -0.751817 -0.659372 0
    outer loop
       vertex -0.357313 -0.176776 0.1
       vertex -0.378875 -0.152191 0.1
       vertex -0.378875 -0.152191 0
    endloop
  endfacet
  facet normal 0.659372 -0.751817 0
    outer loop
       vertex -0.0037608 -0.176776 0
       vertex -0.0037608 -0.176776 0.1
       vertex -0.0283458 -0.198338 0.1
    endloop
  endfacet
  facet normal 0.659372 -0.751817 0
    outer loop
       vertex -0.0283458 -0.198338 0.1
       vertex -0.0283458 -0.198338 0
       vertex -0.0037608 -0.176776 0
    endloop
  endfacet
  facet normal 0.555561 -0.831476 0
    outer loop
       vertex -0.0283458 -0.198338 0
       vertex -0.0283458 -0.198338 0.1
       vertex -0.0555368 -0.216506 0.1
    endloop
  endfacet
  facet normal 0.555561 -0.831476 0
    outer loop
       vertex -0.0555368 -0.216506 0.1
       vertex -0.0555368 -0.216506 0
       vertex -0.0283458 -0.198338 0
    endloop
  endfacet
  facet normal 0.442302 -0.896866 0
    outer loop
       vertex -0.0555368 -0.216506 0
       vertex -0.0555368 -0.216506 0.1
       vertex -0.0848658 -0.23097 0.1
    endloop
  endfacet
  facet normal 0.442302 -0.896866 0
    outer loop
       vertex -0.0848658 -0.23097 0.1
       vertex -0.0848658 -0.23097 0
       vertex -0.0555368 -0.216506 0
    endloop
  endfacet
  facet normal 0.321425 -0.946935 0
    outer loop
       vertex -0.0848658 -0.23097 0
       vertex -0.0848658 -0.23097 0.1
       vertex -0.115832 -0.241481 0.1
    endloop
  endfacet
  facet normal 0.321425 -0.946935 0
    outer loop
       vertex -0.115832 -0.241481 0.1
       vertex -0.115832 -0.241481 0
       vertex -0.0848658 -0.23097 0
    endloop
  endfacet
  facet normal 0.195096 -0.980784 0
    outer loop
       vertex -0.115832 -0.241481 0
       vertex -0.115832 -0.241481 0.1
       vertex -0.147905 -0.247861 0.1
    endloop
  endfacet
  facet normal 0.195096 -0.980784 0
    outer loop
       vertex -0.147905 -0.247861 0.1
       vertex -0.147905 -0.247861 0
       vertex -0.115832 -0.241481 0
    endloop
  endfacet
  facet normal 0.0654098 -0.997858 0
    outer loop
       vertex -0.180537 -0.25 0
       vertex -0.147905 -0.247861 0
       vertex -0.147905 -0.247861 0.1
    endloop
  endfacet
  facet normal 0.0654098 -0.997858 1.0893e-16
    outer loop
       vertex -0.147905 -0.247861 0.1
       vertex -0.180537 -0.25 0.1
       vertex -0.180537 -0.25 0
    endloop
  endfacet
  facet normal -0.0654098 -0.997858 0
    outer loop
       vertex -0.180537 -0.25 0.1
       vertex -0.213168 -0.247861 0.1
       vertex -0.213168 -0.247861 0
    endloop
  endfacet
  facet normal -0.0654098 -0.997858 -1.0893e-16
    outer loop
       vertex -0.213168 -0.247861 0
       vertex -0.180537 -0.25 0
       vertex -0.180537 -0.25 0.1
    endloop
  endfacet
  facet normal -0.195096 -0.980784 0
    outer loop
       vertex -0.213168 -0.247861 0
       vertex -0.213168 -0.247861 0.1
       vertex -0.245242 -0.241481 0.1
    endloop
  endfacet
  facet normal -0.195096 -0.980784 -0
    outer loop
       vertex -0.245242 -0.241481 0.1
       vertex -0.245242 -0.241481 0
       vertex -0.213168 -0.247861 0
    endloop
  endfacet
  facet normal -0.321425 -0.946935 0
    outer loop
       vertex -0.245242 -0.241481 0
       vertex -0.245242 -0.241481 0.1
       vertex -0.276208 -0.23097 0.1
    endloop
  endfacet
  facet normal -0.321425 -0.946935 -0
    outer loop
       vertex -0.276208 -0.23097 0.1
       vertex -0.276208 -0.23097 0
       vertex -0.245242 -0.241481 0
    endloop
  endfacet
  facet normal -0.442302 -0.896866 0
    outer loop
       vertex -0.276208 -0.23097 0
       vertex -0.276208 -0.23097 0.1
       vertex -0.305537 -0.216506 0.1
    endloop
  endfacet
  facet normal -0.442302 -0.896866 -0
    outer loop
       vertex -0.305537 -0.216506 0.1
       vertex -0.305537 -0.216506 0
       vertex -0.276208 -0.23097 0
    endloop
  endfacet
  facet normal -0.555561 -0.831476 0
    outer loop
       vertex -0.305537 -0.216506 0
       vertex -0.305537 -0.216506 0.1
       vertex -0.332728 -0.198338 0.1
    endloop
  endfacet
  facet normal -0.555561 -0.831476 -0
    outer loop
       vertex -0.332728 -0.198338 0.1
       vertex -0.332728 -0.198338 0
       vertex -0.305537 -0.216506 0
    endloop
  endfacet
  facet normal -0.659372 -0.751817 0
    outer loop
       vertex -0.332728 -0.198338 0
       vertex -0.332728 -0.198338 0.1
       vertex -0.357313 -0.176776 0.1
    endloop
  endfacet
  facet normal -0.659372 -0.751817 -0
    outer loop
       vertex -0.357313 -0.176776 0.1
       vertex -0.357313 -0.176776 0
       vertex -0.332728 -0.198338 0
    endloop
  endfacet
endsolid cylinder
