solid cylinder
  facet normal 0.751817 -0.659372 0
    outer loop
       vertex 0.285073 -0.176776 0
       vertex 0.306635 -0.152191 0
       vertex 0.306635 -0.152191 0.1
    endloop
  endfacet
  facet normal 0.751817 -0.659372 0
    outer loop
       vertex 0.306635 -0.152191 0.1
       vertex 0.285073 -0.176776 0.1
       vertex 0.285073 -0.176776 0
    endloop
  endfacet
  facet normal 0.831476 -0.555561 0
    outer loop
       vertex 0.306635 -0.152191 0
       vertex 0.324803 -0.125 0
       vertex 0.324803 -0.125 0.1
    endloop
  endfacet
  facet normal 0.831476 -0.555561 0
    outer loop
       vertex 0.324803 -0.125 0.1
       vertex 0.306635 -0.152191 0.1
       vertex 0.306635 -0.152191 0
    endloop
  endfacet
  facet normal 0.896866 -0.442302 0
    outer loop
       vertex 0.324803 -0.125 0
       vertex 0.339267 -0.095671 0
       vertex 0.339267 -0.095671 0.1
    endloop
  endfacet
  facet normal 0.896866 -0.442302 0
    outer loop
       vertex 0.339267 -0.095671 0.1
       vertex 0.324803 -0.125 0.1
       vertex 0.324803 -0.125 0
    endloop
  endfacet
  facet normal 0.946935 -0.321425 0
    outer loop
       vertex 0.339267 -0.095671 0
       vertex 0.349778 -0.064705 0
       vertex 0.349778 -0.064705 0.1
    endloop
  endfacet
  facet normal 0.946935 -0.321425 0
    outer loop
       vertex 0.349778 -0.064705 0.1
       vertex 0.339267 -0.095671 0.1
       vertex 0.339267 -0.095671 0
    endloop
  endfacet
  facet normal 0.980784 -0.195096 0
    outer loop
       vertex 0.349778 -0.064705 0
       vertex 0.356158 -0.0326315 0
       vertex 0.356158 -0.0326315 0.1
    endloop
  endfacet
  facet normal 0.980784 -0.195096 0
    outer loop
       vertex 0.356158 -0.0326315 0.1
       vertex 0.349778 -0.064705 0.1
       vertex 0.349778 -0.064705 0
    endloop
  endfacet
  facet normal 0.997858 -0.0654098 0
    outer loop
       vertex 0.358297 -8.32665e-17 0.1
       vertex 0.356158 -0.0326315 0.1
       vertex 0.356158 -0.0326315 0
    endloop
  endfacet
  facet normal 0.997858 -0.0654098 -1.08928e-16
    outer loop
       vertex 0.356158 -0.0326315 0
       vertex 0.358297 8.32665e-17 0
       vertex 0.358297 -8.32665e-17 0.1
    endloop
  endfacet
  facet normal 0.997858 0.0654098 0
    outer loop
       vertex 0.358297 8.32665e-17 0
       vertex 0.356158 0.0326315 0
       vertex 0.356158 0.0326315 0.1
    endloop
  endfacet
  facet normal 0.997858 0.0654098 1.08928e-16
    outer loop
       vertex 0.356158 0.0326315 0.1
       vertex 0.358297 -8.32665e-17 0.1
       vertex 0.358297 8.32665e-17 0
    endloop
  endfacet
  facet normal 0.980784 0.195096 0
    outer loop
       vertex 0.356158 0.0326315 0
       vertex 0.349778 0.064705 0
       vertex 0.349778 0.064705 0.1
    endloop
  endfacet
  facet normal 0.980784 0.195096 0
    outer loop
       vertex 0.349778 0.064705 0.1
       vertex 0.356158 0.0326315 0.1
       vertex 0.356158 0.0326315 0
    endloop
  endfacet
  facet normal 0.946935 0.321425 0
    outer loop
       vertex 0.349778 0.064705 0
       vertex 0.339267 0.095671 0
       vertex 0.339267 0.095671 0.1
    endloop
  endfacet
  facet normal 0.946935 0.321425 0
    outer loop
       vertex 0.339267 0.095671 0.1
       vertex 0.349778 0.064705 0.1
       vertex 0.349778 0.064705 0
    endloop
  endfacet
  facet normal 0.896866 0.442302 0
    outer loop
       vertex 0.339267 0.095671 0
       vertex 0.324803 0.125 0
       vertex 0.324803 0.125 0.1
    endloop
  endfacet
  facet normal 0.896866 0.442302 0
    outer loop
       vertex 0.324803 0.125 0.1
       vertex 0.339267 0.095671 0.1
       vertex 0.339267 0.095671 0
    endloop
  endfacet
  facet normal 0.831476 0.555561 0
    outer loop
       vertex 0.324803 0.125 0
       vertex 0.306635 0.152191 0
       vertex 0.306635 0.152191 0.1
    endloop
  endfacet
  facet normal 0.831476 0.555561 0
    outer loop
       vertex 0.306635 0.152191 0.1
       vertex 0.324803 0.125 0.1
       vertex 0.324803 0.125 0
    endloop
  endfacet
  facet normal 0.751817 0.659372 0
    outer loop
       vertex 0.306635 0.152191 0
       vertex 0.285073 0.176776 0
       vertex 0.285073 0.176776 0.1
    endloop
  endfacet
  facet normal 0.751817 0.659372 0
    outer loop
       vertex 0.285073 0.176776 0.1
       vertex 0.306635 0.152191 0.1
       vertex 0.306635 0.152191 0
    endloop
  endfacet
  facet normal 0.659372 0.751817 0
    outer loop
       vertex 0.285073 0.176776 0
       vertex 0.260488 0.198338 0
       vertex 0.260488 0.198338 0.1
    endloop
  endfacet
  facet normal 0.659372 0.751817 0
    outer loop
       vertex 0.260488 0.198338 0.1
       vertex 0.285073 0.176776 0.1
       vertex 0.285073 0.176776 0
    endloop
  endfacet
  facet normal 0.555561 0.831476 0
    outer loop
       vertex 0.260488 0.198338 0
       vertex 0.233297 0.216506 0
       vertex 0.233297 0.216506 0.1
    endloop
  endfacet
  facet normal 0.555561 0.831476 0
    outer loop
       vertex 0.233297 0.216506 0.1
       vertex 0.260488 0.198338 0.1
       vertex 0.260488 0.198338 0
    endloop
  endfacet
  facet normal 0.442302 0.896866 0
    outer loop
       vertex 0.233297 0.216506 0
       vertex 0.203968 0.23097 0
       vertex 0.203968 0.23097 0.1
    endloop
  endfacet
  facet normal 0.442302 0.896866 0
    outer loop
       vertex 0.203968 0.23097 0.1
       vertex 0.233297 0.216506 0.1
       vertex 0.233297 0.216506 0
    endloop
  endfacet
  facet normal 0.321425 0.946935 0
    outer loop
       vertex 0.203968 0.23097 0
       vertex 0.173002 0.241481 0
       vertex 0.173002 0.241481 0.1
    endloop
  endfacet
  facet normal 0.321425 0.946935 0
    outer loop
       vertex 0.173002 0.241481 0.1
       vertex 0.203968 0.23097 0.1
       vertex 0.203968 0.23097 0
    endloop
  endfacet
  facet normal 0.195096 0.980784 0
    outer loop
       vertex 0.173002 0.241481 0
       vertex 0.140929 0.247861 0
       vertex 0.140929 0.247861 0.1
    endloop
  endfacet
  facet normal 0.195096 0.980784 0
    outer loop
       vertex 0.140929 0.247861 0.1
       vertex 0.173002 0.241481 0.1
       vertex 0.173002 0.241481 0
    endloop
  endfacet
  facet normal 0.0654098 0.997858 0
    outer loop
       vertex 0.108297 0.25 0.1
       vertex 0.140929 0.247861 0.1
       vertex 0.140929 0.247861 0
    endloop
  endfacet
  facet normal 0.0654098 0.997858 -1.08928e-16
    outer loop
       vertex 0.140929 0.247861 0
       vertex 0.108297 0.25 0
       vertex 0.108297 0.25 0.1
    endloop
  endfacet
  facet normal -0.0654098 0.997858 0
    outer loop
       vertex 0.108297 0.25 0
       vertex 0.0756659 0.247861 0
       vertex 0.0756659 0.247861 0.1
    endloop
  endfacet
  facet normal -0.0654098 0.997858 1.08928e-16
    outer loop
       vertex 0.0756659 0.247861 0.1
       vertex 0.108297 0.25 0.1
       vertex 0.108297 0.25 0
    endloop
  endfacet
  facet normal -0.195096 0.980784 0
    outer loop
       vertex 0.0756659 0.247861 0
       vertex 0.0435924 0.241481 0
       vertex 0.0435924 0.241481 0.1
    endloop
  endfacet
  facet normal -0.195096 0.980784 0
    outer loop
       vertex 0.0435924 0.241481 0.1
       vertex 0.0756659 0.247861 0.1
       vertex 0.0756659 0.247861 0
    endloop
  endfacet
  facet normal -0.321425 0.946935 0
    outer loop
       vertex 0.0435924 0.241481 0
       vertex 0.0126264 0.23097 0
       vertex 0.0126264 0.23097 0.1
    endloop
  endfacet
  facet normal -0.321425 0.946935 0
    outer loop
       vertex 0.0126264 0.23097 0.1
       vertex 0.0435924 0.241481 0.1
       vertex 0.0435924 0.241481 0
    endloop
  endfacet
  facet normal -0.442302 0.896866 0
    outer loop
       vertex 0.0126264 0.23097 0
       vertex -0.0167026 0.216506 0
       vertex -0.0167026 0.216506 0.1
    endloop
  endfacet
  facet normal -0.442302 0.896866 0
    outer loop
       vertex -0.0167026 0.216506 0.1
       vertex 0.0126264 0.23097 0.1
       vertex 0.0126264 0.23097 0
    endloop
  endfacet
  facet normal -0.555561 0.831476 0
    outer loop
       vertex -0.0167026 0.216506 0
       vertex -0.0438936 0.198338 0
       vertex -0.0438936 0.198338 0.1
    endloop
  endfacet
  facet normal -0.555561 0.831476 0
    outer loop
       vertex -0.0438936 0.198338 0.1
       vertex -0.0167026 0.216506 0.1
       vertex -0.0167026 0.216506 0
    endloop
  endfacet
  facet normal -0.659372 0.751817 0
    outer loop
       vertex -0.0438936 0.198338 0
       vertex -0.0684786 0.176776 0
       vertex -0.0684786 0.176776 0.1
    endloop
  endfacet
  facet normal -0.659372 0.751817 0
    outer loop
       vertex -0.0684786 0.176776 0.1
       vertex -0.0438936 0.198338 0.1
       vertex -0.0438936 0.198338 0
    endloop
  endfacet
  facet normal -0.751817 0.659372 0
    outer loop
       vertex -0.0684786 0.176776 0
       vertex -0.0900406 0.152191 0
       vertex -0.0900406 0.152191 0.1
    endloop
  endfacet
  facet normal -0.751817 0.659372 0
    outer loop
       vertex -0.0900406 0.152191 0.1
       vertex -0.0684786 0.176776 0.1
       vertex -0.0684786 0.176776 0
    endloop
  endfacet
  facet normal -0.831476 0.555561 0
    outer loop
       vertex -0.0900406 0.152191 0
       vertex -0.108209 0.125 0
       vertex -0.108209 0.125 0.1
    endloop
  endfacet
  facet normal -0.831476 0.555561 0
    outer loop
       vertex -0.108209 0.125 0.1
       vertex -0.0900406 0.152191 0.1
       vertex -0.0900406 0.152191 0
    endloop
  endfacet
  facet normal -0.896866 0.442302 0
    outer loop
       vertex -0.108209 0.125 0
       vertex -0.122673 0.095671 0
       vertex -0.122673 0.095671 0.1
    endloop
  endfacet
  facet normal -0.896866 0.442302 0
    outer loop
       vertex -0.122673 0.095671 0.1
       vertex -0.108209 0.125 0.1
       vertex -0.108209 0.125 0
    endloop
  endfacet
  facet normal -0.946935 0.321425 0
    outer loop
       vertex -0.122673 0.095671 0
       vertex -0.133184 0.064705 0
       vertex -0.133184 0.064705 0.1
    endloop
  endfacet
  facet normal -0.946935 0.321425 0
    outer loop
       vertex -0.133184 0.064705 0.1
       vertex -0.122673 0.095671 0.1
       vertex -0.122673 0.095671 0
    endloop
  endfacet
  facet normal -0.980784 0.195096 0
    outer loop
       vertex -0.133184 0.064705 0
       vertex -0.139564 0.0326315 0
       vertex -0.139564 0.0326315 0.1
    endloop
  endfacet
  facet normal -0.980784 0.195096 0
    outer loop
       vertex -0.139564 0.0326315 0.1
       vertex -0.133184 0.064705 0.1
       vertex -0.133184 0.064705 0
    endloop
  endfacet
  facet normal -0.997858 0.0654098 0
    outer loop
       vertex -0.141703 8.32665e-17 0.1
       vertex -0.139564 0.0326315 0.1
       vertex -0.139564 0.0326315 0
    endloop
  endfacet
  facet normal -0.997858 0.0654098 -1.08928e-16
    outer loop
       vertex -0.139564 0.0326315 0
       vertex -0.141703 -8.32665e-17 0
       vertex -0.141703 8.32665e-17 0.1
    endloop
  endfacet
  facet normal -0.997858 -0.0654098 0
    outer loop
       vertex -0.141703 -8.32665e-17 0
       vertex -0.139564 -0.0326315 0
       vertex -0.139564 -0.0326315 0.1
    endloop
  endfacet
  facet normal -0.997858 -0.0654098 1.08928e-16
    outer loop
       vertex -0.139564 -0.0326315 0.1
       vertex -0.141703 8.32665e-17 0.1
       vertex -0.141703 -8.32665e-17 0
    endloop
  endfacet
  facet normal -0.980784 -0.195096 0
    outer loop
       vertex -0.139564 -0.0326315 0
       vertex -0.133184 -0.064705 0
       vertex -0.133184 -0.064705 0.1
    endloop
  endfacet
  facet normal -0.980784 -0.195096 0
    outer loop
       vertex -0.133184 -0.064705 0.1
       vertex -0.139564 -0.0326315 0.1
       vertex -0.139564 -0.0326315 0
    endloop
  endfacet
  facet normal -0.946935 -0.321425 0
    outer loop
       vertex -0.133184 -0.064705 0
       vertex -0.122673 -0.095671 0
       vertex -0.122673 -0.095671 0.1
    endloop
  endfacet
  facet normal -0.946935 -0.321425 0
    outer loop
       vertex -0.122673 -0.095671 0.1
       vertex -0.133184 -0.064705 0.1
       vertex -0.133184 -0.064705 0
    endloop
  endfacet
  facet normal -0.896866 -0.442302 0
    outer loop
       vertex -0.122673 -0.095671 0
       vertex -0.108209 -0.125 0
       vertex -0.108209 -0.125 0.1
    endloop
  endfacet
  facet normal -0.896866 -0.442302 0
    outer loop
       vertex -0.108209 -0.125 0.1
       vertex -0.122673 -0.095671 0.1
       vertex -0.122673 -0.095671 0
    endloop
  endfacet
  facet normal -0.831476 -0.555561 0
    outer loop
       vertex -0.108209 -0.125 0
       vertex -0.0900406 -0.152191 0
       vertex -0.0900406 -0.152191 0.1
    endloop
  endfacet
  facet normal -0.831476 -0.555561 0
    outer loop
       vertex -0.0900406 -0.152191 0.1
       vertex -0.108209 -0.125 0.1
       vertex -0.108209 -0.125 0
    endloop
  endfacet
  facet normal -0.751817 -0.659372 0
    outer loop
       vertex -0.0900406 -0.152191 0
       vertex -0.0684786 -0.176776 0
       vertex -0.0684786 -0.176776 0.1
    endloop
  endfacet
  facet normal -0.751817 -0.659372 0
    outer loop
       vertex -0.0684786 -0.176776 0.1
       vertex -0.0900406 -0.152191 0.1
       vertex -0.0900406 -0.152191 0
    endloop
  endfacet
  facet normal 0.659372 -0.751817 0
    outer loop
       vertex 0.285073 -0.176776 0
       vertex 0.285073 -0.176776 0.1
       vertex 0.260488 -0.198338 0.1
    endloop
  endfacet
  facet normal 0.659372 -0.751817 0
    outer loop
       vertex 0.260488 -0.198338 0.1
       vertex 0.260488 -0.198338 0
       vertex 0.285073 -0.176776 0
    endloop
  endfacet
  facet normal 0.555561 -0.831476 0
    outer loop
       vertex 0.260488 -0.198338 0
       vertex 0.260488 -0.198338 0.1
       vertex 0.233297 -0.216506 0.1
    endloop
  endfacet
  facet normal 0.555561 -0.831476 0
    outer loop
       vertex 0.233297 -0.216506 0.1
       vertex 0.233297 -0.216506 0
       vertex 0.260488 -0.198338 0
    endloop
  endfacet
  facet normal 0.442302 -0.896866 0
    outer loop
       vertex 0.233297 -0.216506 0
       vertex 0.233297 -0.216506 0.1
       vertex 0.203968 -0.23097 0.1
    endloop
  endfacet
  facet normal 0.442302 -0.896866 0
    outer loop
       vertex 0.203968 -0.23097 0.1
       vertex 0.203968 -0.23097 0
       vertex 0.233297 -0.216506 0
    endloop
  endfacet
  facet normal 0.321425 -0.946935 0
    outer loop
       vertex 0.203968 -0.23097 0
       vertex 0.203968 -0.23097 0.1
       vertex 0.173002 -0.241481 0.1
    endloop
  endfacet
  facet normal 0.321425 -0.946935 0
    outer loop
       vertex 0.173002 -0.241481 0.1
       vertex 0.173002 -0.241481 0
       vertex 0.203968 -0.23097 0
    endloop
  endfacet
  facet normal 0.195096 -0.980784 0
    outer loop
       vertex 0.173002 -0.241481 0
       vertex 0.173002 -0.241481 0.1
       vertex 0.140929 -0.247861 0.1
    endloop
  endfacet
  facet normal 0.195096 -0.980784 0
    outer loop
       vertex 0.140929 -0.247861 0.1
       vertex 0.140929 -0.247861 0
       vertex 0.173002 -0.241481 0
    endloop
  endfacet
  facet normal 0.0654098 -0.997858 0
    outer loop
       vertex 0.108297 -0.25 0
       vertex 0.140929 -0.247861 0
       vertex 0.140929 -0.247861 0.1
    endloop
  endfacet
  facet normal 0.0654098 -0.997858 1.08928e-16
    outer loop
       vertex 0.140929 -0.247861 0.1
       vertex 0.108297 -0.25 0.1
       vertex 0.108297 -0.25 0
    endloop
  endfacet
  facet normal -0.0654098 -0.997858 0
    outer loop
       vertex 0.108297 -0.25 0.1
       vertex 0.0756659 -0.247861 0.1
       vertex 0.0756659 -0.247861 0
    endloop
  endfacet
  facet normal -0.0654098 -0.997858 -1.08928e-16
    outer loop
       vertex 0.0756659 -0.247861 0
       vertex 0.108297 -0.25 0
       vertex 0.108297 -0.25 0.1
    endloop
  endfacet
  facet normal -0.195096 -0.980784 0
    outer loop
       vertex 0.0756659 -0.247861 0
       vertex 0.0756659 -0.247861 0.1
       vertex 0.0435924 -0.241481 0.1
    endloop
  endfacet
  facet normal -0.195096 -0.980784 -0
    outer loop
       vertex 0.0435924 -0.241481 0.1
       vertex 0.0435924 -0.241481 0
       vertex 0.0756659 -0.247861 0
    endloop
  endfacet
  facet normal -0.321425 -0.946935 0
    outer loop
       vertex 0.0435924 -0.241481 0
       vertex 0.0435924 -0.241481 0.1
       vertex 0.0126264 -0.23097 0.1
    endloop
  endfacet
  facet normal -0.321425 -0.946935 -0
    outer loop
       vertex 0.0126264 -0.23097 0.1
       vertex 0.0126264 -0.23097 0
       vertex 0.0435924 -0.241481 0
    endloop
  endfacet
  facet normal -0.442302 -0.896866 0
    outer loop
       vertex 0.0126264 -0.23097 0
       vertex 0.0126264 -0.23097 0.1
       vertex -0.0167026 -0.216506 0.1
    endloop
  endfacet
  facet normal -0.442302 -0.896866 -0
    outer loop
       vertex -0.0167026 -0.216506 0.1
       vertex -0.0167026 -0.216506 0
       vertex 0.0126264 -0.23097 0
    endloop
  endfacet
  facet normal -0.555561 -0.831476 0
    outer loop
       vertex -0.0167026 -0.216506 0
       vertex -0.0167026 -0.216506 0.1
       vertex -0.0438936 -0.198338 0.1
    endloop
  endfacet
  facet normal -0.555561 -0.831476 -0
    outer loop
       vertex -0.0438936 -0.198338 0.1
       vertex -0.0438936 -0.198338 0
       vertex -0.0167026 -0.216506 0
    endloop
  endfacet
  facet normal -0.659372 -0.751817 0
    outer loop
       vertex -0.0438936 -0.198338 0
       vertex -0.0438936 -0.198338 0.1
       vertex -0.0684786 -0.176776 0.1
    endloop
  endfacet
  facet normal -0.659372 -0.751817 -0
    outer loop
       vertex -0.0684786 -0.176776 0.1
       vertex -0.0684786 -0.176776 0
       vertex -0.0438936 -0.198338 0
    endloop
  endfacet
endsolid cylinder
