solid cylinder
  facet normal 0.751817 -0.659372 0
    outer loop
       vertex 0.470837 -0.176776 0
       vertex 0.492399 -0.152191 0
       vertex 0.492399 -0.152191 0.1
    endloop
  endfacet
  facet normal 0.751817 -0.659372 0
    outer loop
       vertex 0.492399 -0.152191 0.1
       vertex 0.470837 -0.176776 0.1
       vertex 0.470837 -0.176776 0
    endloop
  endfacet
  facet normal 0.831476 -0.555561 0
    outer loop
       vertex 0.492399 -0.152191 0
       vertex 0.510567 -0.125 0
       vertex 0.510567 -0.125 0.1
    endloop
  endfacet
  facet normal 0.831476 -0.555561 0
    outer loop
       vertex 0.510567 -0.125 0.1
       vertex 0.492399 -0.152191 0.1
       vertex 0.492399 -0.152191 0
    endloop
  endfacet
  facet normal 0.896866 -0.442302 0
    outer loop
       vertex 0.510567 -0.125 0
       vertex 0.525031 -0.095671 0
       vertex 0.525031 -0.095671 0.1
    endloop
  endfacet
  facet normal 0.896866 -0.442302 0
    outer loop
       vertex 0.525031 -0.095671 0.1
       vertex 0.510567 -0.125 0.1
       vertex 0.510567 -0.125 0
    endloop
  endfacet
  facet normal 0.946935 -0.321425 0
    outer loop
       vertex 0.525031 -0.095671 0
       vertex 0.535542 -0.064705 0
       vertex 0.535542 -0.064705 0.1
    endloop
  endfacet
  facet normal 0.946935 -0.321425 0
    outer loop
       vertex 0.535542 -0.064705 0.1
       vertex 0.525031 -0.095671 0.1
       vertex 0.525031 -0.095671 0
    endloop
  endfacet
  facet normal 0.980784 -0.195096 0
    outer loop
       vertex 0.535542 -0.064705 0
       vertex 0.541922 -0.0326315 0
       vertex 0.541922 -0.0326315 0.1
    endloop
  endfacet
  facet normal 0.980784 -0.195096 0
    outer loop
       vertex 0.541922 -0.0326315 0.1
       vertex 0.535542 -0.064705 0.1
       vertex 0.535542 -0.064705 0
    endloop
  endfacet
  facet normal 0.997858 -0.0654098 0
    outer loop
       vertex 0.544061 -8.32665e-17 0.1
       vertex 0.541922 -0.0326315 0.1
       vertex 0.541922 -0.0326315 0
    endloop
  endfacet
  facet normal 0.997858 -0.0654098 -1.08928e-16
    outer loop
       vertex 0.541922 -0.0326315 0
       vertex 0.544061 8.32665e-17 0
       vertex 0.544061 -8.32665e-17 0.1
    endloop
  endfacet
  facet normal 0.997858 0.0654098 0
    outer loop
       vertex 0.544061 8.32665e-17 0
       vertex 0.541922 0.0326315 0
       vertex 0.541922 0.0326315 0.1
    endloop
  endfacet
  facet normal 0.997858 0.0654098 1.08928e-16
    outer loop
       vertex 0.541922 0.0326315 0.1
       vertex 0.544061 -8.32665e-17 0.1
       vertex 0.544061 8.32665e-17 0
    endloop
  endfacet
  facet normal 0.980784 0.195096 0
    outer loop
       vertex 0.541922 0.0326315 0
       vertex 0.535542 0.064705 0
       vertex 0.535542 0.064705 0.1
    endloop
  endfacet
  facet normal 0.980784 0.195096 0
    outer loop
       vertex 0.535542 0.064705 0.1
       vertex 0.541922 0.0326315 0.1
       vertex 0.541922 0.0326315 0
    endloop
  endfacet
  facet normal 0.946935 0.321425 0
    outer loop
       vertex 0.535542 0.064705 0
       vertex 0.525031 0.095671 0
       vertex 0.525031 0.095671 0.1
    endloop
  endfacet
  facet normal 0.946935 0.321425 0
    outer loop
       vertex 0.525031 0.095671 0.1
       vertex 0.535542 0.064705 0.1
       vertex 0.535542 0.064705 0
    endloop
  endfacet
  facet normal 0.896866 0.442302 0
    outer loop
       vertex 0.525031 0.095671 0
       vertex 0.510567 0.125 0
       vertex 0.510567 0.125 0.1
    endloop
  endfacet
  facet normal 0.896866 0.442302 0
    outer loop
       vertex 0.510567 0.125 0.1
       vertex 0.525031 0.095671 0.1
       vertex 0.525031 0.095671 0
    endloop
  endfacet
  facet normal 0.831476 0.555561 0
    outer loop
       vertex 0.510567 0.125 0
       vertex 0.492399 0.152191 0
       vertex 0.492399 0.152191 0.1
    endloop
  endfacet
  facet normal 0.831476 0.555561 0
    outer loop
       vertex 0.492399 0.152191 0.1
       vertex 0.510567 0.125 0.1
       vertex 0.510567 0.125 0
    endloop
  endfacet
  facet normal 0.751817 0.659372 0
    outer loop
       vertex 0.492399 0.152191 0
       vertex 0.470837 0.176776 0
       vertex 0.470837 0.176776 0.1
    endloop
  endfacet
  facet normal 0.751817 0.659372 0
    outer loop
       vertex 0.470837 0.176776 0.1
       vertex 0.492399 0.152191 0.1
       vertex 0.492399 0.152191 0
    endloop
  endfacet
  facet normal 0.659372 0.751817 0
    outer loop
       vertex 0.470837 0.176776 0
       vertex 0.446252 0.198338 0
       vertex 0.446252 0.198338 0.1
    endloop
  endfacet
  facet normal 0.659372 0.751817 0
    outer loop
       vertex 0.446252 0.198338 0.1
       vertex 0.470837 0.176776 0.1
       vertex 0.470837 0.176776 0
    endloop
  endfacet
  facet normal 0.555561 0.831476 0
    outer loop
       vertex 0.446252 0.198338 0
       vertex 0.419061 0.216506 0
       vertex 0.419061 0.216506 0.1
    endloop
  endfacet
  facet normal 0.555561 0.831476 0
    outer loop
       vertex 0.419061 0.216506 0.1
       vertex 0.446252 0.198338 0.1
       vertex 0.446252 0.198338 0
    endloop
  endfacet
  facet normal 0.442302 0.896866 0
    outer loop
       vertex 0.419061 0.216506 0
       vertex 0.389732 0.23097 0
       vertex 0.389732 0.23097 0.1
    endloop
  endfacet
  facet normal 0.442302 0.896866 0
    outer loop
       vertex 0.389732 0.23097 0.1
       vertex 0.419061 0.216506 0.1
       vertex 0.419061 0.216506 0
    endloop
  endfacet
  facet normal 0.321425 0.946935 0
    outer loop
       vertex 0.389732 0.23097 0
       vertex 0.358766 0.241481 0
       vertex 0.358766 0.241481 0.1
    endloop
  endfacet
  facet normal 0.321425 0.946935 0
    outer loop
       vertex 0.358766 0.241481 0.1
       vertex 0.389732 0.23097 0.1
       vertex 0.389732 0.23097 0
    endloop
  endfacet
  facet normal 0.195096 0.980784 0
    outer loop
       vertex 0.358766 0.241481 0
       vertex 0.326692 0.247861 0
       vertex 0.326692 0.247861 0.1
    endloop
  endfacet
  facet normal 0.195096 0.980784 0
    outer loop
       vertex 0.326692 0.247861 0.1
       vertex 0.358766 0.241481 0.1
       vertex 0.358766 0.241481 0
    endloop
  endfacet
  facet normal 0.0654098 0.997858 0
    outer loop
       vertex 0.294061 0.25 0.1
       vertex 0.326692 0.247861 0.1
       vertex 0.326692 0.247861 0
    endloop
  endfacet
  facet normal 0.0654098 0.997858 -1.45239e-16
    outer loop
       vertex 0.326692 0.247861 0
       vertex 0.294061 0.25 0
       vertex 0.294061 0.25 0.1
    endloop
  endfacet
  facet normal -0.0654098 0.997858 0
    outer loop
       vertex 0.294061 0.25 0
       vertex 0.261429 0.247861 0
       vertex 0.261429 0.247861 0.1
    endloop
  endfacet
  facet normal -0.0654098 0.997858 1.45239e-16
    outer loop
       vertex 0.261429 0.247861 0.1
       vertex 0.294061 0.25 0.1
       vertex 0.294061 0.25 0
    endloop
  endfacet
  facet normal -0.195096 0.980784 0
    outer loop
       vertex 0.261429 0.247861 0
       vertex 0.229356 0.241481 0
       vertex 0.229356 0.241481 0.1
    endloop
  endfacet
  facet normal -0.195096 0.980784 0
    outer loop
       vertex 0.229356 0.241481 0.1
       vertex 0.261429 0.247861 0.1
       vertex 0.261429 0.247861 0
    endloop
  endfacet
  facet normal -0.321425 0.946935 0
    outer loop
       vertex 0.229356 0.241481 0
       vertex 0.19839 0.23097 0
       vertex 0.19839 0.23097 0.1
    endloop
  endfacet
  facet normal -0.321425 0.946935 0
    outer loop
       vertex 0.19839 0.23097 0.1
       vertex 0.229356 0.241481 0.1
       vertex 0.229356 0.241481 0
    endloop
  endfacet
  facet normal -0.442302 0.896866 0
    outer loop
       vertex 0.19839 0.23097 0
       vertex 0.169061 0.216506 0
       vertex 0.169061 0.216506 0.1
    endloop
  endfacet
  facet normal -0.442302 0.896866 0
    outer loop
       vertex 0.169061 0.216506 0.1
       vertex 0.19839 0.23097 0.1
       vertex 0.19839 0.23097 0
    endloop
  endfacet
  facet normal -0.555561 0.831476 0
    outer loop
       vertex 0.169061 0.216506 0
       vertex 0.14187 0.198338 0
       vertex 0.14187 0.198338 0.1
    endloop
  endfacet
  facet normal -0.555561 0.831476 0
    outer loop
       vertex 0.14187 0.198338 0.1
       vertex 0.169061 0.216506 0.1
       vertex 0.169061 0.216506 0
    endloop
  endfacet
  facet normal -0.659372 0.751817 0
    outer loop
       vertex 0.14187 0.198338 0
       vertex 0.117285 0.176776 0
       vertex 0.117285 0.176776 0.1
    endloop
  endfacet
  facet normal -0.659372 0.751817 0
    outer loop
       vertex 0.117285 0.176776 0.1
       vertex 0.14187 0.198338 0.1
       vertex 0.14187 0.198338 0
    endloop
  endfacet
  facet normal -0.751817 0.659372 0
    outer loop
       vertex 0.117285 0.176776 0
       vertex 0.0957228 0.152191 0
       vertex 0.0957228 0.152191 0.1
    endloop
  endfacet
  facet normal -0.751817 0.659372 0
    outer loop
       vertex 0.0957228 0.152191 0.1
       vertex 0.117285 0.176776 0.1
       vertex 0.117285 0.176776 0
    endloop
  endfacet
  facet normal -0.831476 0.555561 0
    outer loop
       vertex 0.0957228 0.152191 0
       vertex 0.0775548 0.125 0
       vertex 0.0775548 0.125 0.1
    endloop
  endfacet
  facet normal -0.831476 0.555561 0
    outer loop
       vertex 0.0775548 0.125 0.1
       vertex 0.0957228 0.152191 0.1
       vertex 0.0957228 0.152191 0
    endloop
  endfacet
  facet normal -0.896866 0.442302 0
    outer loop
       vertex 0.0775548 0.125 0
       vertex 0.0630908 0.095671 0
       vertex 0.0630908 0.095671 0.1
    endloop
  endfacet
  facet normal -0.896866 0.442302 0
    outer loop
       vertex 0.0630908 0.095671 0.1
       vertex 0.0775548 0.125 0.1
       vertex 0.0775548 0.125 0
    endloop
  endfacet
  facet normal -0.946935 0.321425 0
    outer loop
       vertex 0.0630908 0.095671 0
       vertex 0.0525798 0.064705 0
       vertex 0.0525798 0.064705 0.1
    endloop
  endfacet
  facet normal -0.946935 0.321425 0
    outer loop
       vertex 0.0525798 0.064705 0.1
       vertex 0.0630908 0.095671 0.1
       vertex 0.0630908 0.095671 0
    endloop
  endfacet
  facet normal -0.980784 0.195096 0
    outer loop
       vertex 0.0525798 0.064705 0
       vertex 0.0461998 0.0326315 0
       vertex 0.0461998 0.0326315 0.1
    endloop
  endfacet
  facet normal -0.980784 0.195096 0
    outer loop
       vertex 0.0461998 0.0326315 0.1
       vertex 0.0525798 0.064705 0.1
       vertex 0.0525798 0.064705 0
    endloop
  endfacet
  facet normal -0.997858 0.0654098 0
    outer loop
       vertex 0.0440608 8.32665e-17 0.1
       vertex 0.0461998 0.0326315 0.1
       vertex 0.0461998 0.0326315 0
    endloop
  endfacet
  facet normal -0.997858 0.0654098 -1.08928e-16
    outer loop
       vertex 0.0461998 0.0326315 0
       vertex 0.0440608 -8.32665e-17 0
       vertex 0.0440608 8.32665e-17 0.1
    endloop
  endfacet
  facet normal -0.997858 -0.0654098 0
    outer loop
       vertex 0.0440608 -8.32665e-17 0
       vertex 0.0461998 -0.0326315 0
       vertex 0.0461998 -0.0326315 0.1
    endloop
  endfacet
  facet normal -0.997858 -0.0654098 1.08928e-16
    outer loop
       vertex 0.0461998 -0.0326315 0.1
       vertex 0.0440608 8.32665e-17 0.1
       vertex 0.0440608 -8.32665e-17 0
    endloop
  endfacet
  facet normal -0.980784 -0.195096 0
    outer loop
       vertex 0.0461998 -0.0326315 0
       vertex 0.0525798 -0.064705 0
       vertex 0.0525798 -0.064705 0.1
    endloop
  endfacet
  facet normal -0.980784 -0.195096 0
    outer loop
       vertex 0.0525798 -0.064705 0.1
       vertex 0.0461998 -0.0326315 0.1
       vertex 0.0461998 -0.0326315 0
    endloop
  endfacet
  facet normal -0.946935 -0.321425 0
    outer loop
       vertex 0.0525798 -0.064705 0
       vertex 0.0630908 -0.095671 0
       vertex 0.0630908 -0.095671 0.1
    endloop
  endfacet
  facet normal -0.946935 -0.321425 0
    outer loop
       vertex 0.0630908 -0.095671 0.1
       vertex 0.0525798 -0.064705 0.1
       vertex 0.0525798 -0.064705 0
    endloop
  endfacet
  facet normal -0.896866 -0.442302 0
    outer loop
       vertex 0.0630908 -0.095671 0
       vertex 0.0775548 -0.125 0
       vertex 0.0775548 -0.125 0.1
    endloop
  endfacet
  facet normal -0.896866 -0.442302 0
    outer loop
       vertex 0.0775548 -0.125 0.1
       vertex 0.0630908 -0.095671 0.1
       vertex 0.0630908 -0.095671 0
    endloop
  endfacet
  facet normal -0.831476 -0.555561 0
    outer loop
       vertex 0.0775548 -0.125 0
       vertex 0.0957228 -0.152191 0
       vertex 0.0957228 -0.152191 0.1
    endloop
  endfacet
  facet normal -0.831476 -0.555561 0
    outer loop
       vertex 0.0957228 -0.152191 0.1
       vertex 0.0775548 -0.125 0.1
       vertex 0.0775548 -0.125 0
    endloop
  endfacet
  facet normal -0.751817 -0.659372 0
    outer loop
       vertex 0.0957228 -0.152191 0
       vertex 0.117285 -0.176776 0
       vertex 0.117285 -0.176776 0.1
    endloop
  endfacet
  facet normal -0.751817 -0.659372 0
    outer loop
       vertex 0.117285 -0.176776 0.1
       vertex 0.0957228 -0.152191 0.1
       vertex 0.0957228 -0.152191 0
    endloop
  endfacet
  facet normal 0.659372 -0.751817 0
    outer loop
       vertex 0.470837 -0.176776 0
       vertex 0.470837 -0.176776 0.1
       vertex 0.446252 -0.198338 0.1
    endloop
  endfacet
  facet normal 0.659372 -0.751817 0
    outer loop
       vertex 0.446252 -0.198338 0.1
       vertex 0.446252 -0.198338 0
       vertex 0.470837 -0.176776 0
    endloop
  endfacet
  facet normal 0.555561 -0.831476 0
    outer loop
       vertex 0.446252 -0.198338 0
       vertex 0.446252 -0.198338 0.1
       vertex 0.419061 -0.216506 0.1
    endloop
  endfacet
  facet normal 0.555561 -0.831476 0
    outer loop
       vertex 0.419061 -0.216506 0.1
       vertex 0.419061 -0.216506 0
       vertex 0.446252 -0.198338 0
    endloop
  endfacet
  facet normal 0.442302 -0.896866 0
    outer loop
       vertex 0.419061 -0.216506 0
       vertex 0.419061 -0.216506 0.1
       vertex 0.389732 -0.23097 0.1
    endloop
  endfacet
  facet normal 0.442302 -0.896866 0
    outer loop
       vertex 0.389732 -0.23097 0.1
       vertex 0.389732 -0.23097 0
       vertex 0.419061 -0.216506 0
    endloop
  endfacet
  facet normal 0.321425 -0.946935 0
    outer loop
       vertex 0.389732 -0.23097 0
       vertex 0.389732 -0.23097 0.1
       vertex 0.358766 -0.241481 0.1
    endloop
  endfacet
  facet normal 0.321425 -0.946935 0
    outer loop
       vertex 0.358766 -0.241481 0.1
       vertex 0.358766 -0.241481 0
       vertex 0.389732 -0.23097 0
    endloop
  endfacet
  facet normal 0.195096 -0.980784 0
    outer loop
       vertex 0.358766 -0.241481 0
       vertex 0.358766 -0.241481 0.1
       vertex 0.326692 -0.247861 0.1
    endloop
  endfacet
  facet normal 0.195096 -0.980784 0
    outer loop
       vertex 0.326692 -0.247861 0.1
       vertex 0.326692 -0.247861 0
       vertex 0.358766 -0.241481 0
    endloop
  endfacet
  facet normal 0.0654098 -0.997858 0
    outer loop
       vertex 0.294061 -0.25 0
       vertex 0.326692 -0.247861 0
       vertex 0.326692 -0.247861 0.1
    endloop
  endfacet
  facet normal 0.0654098 -0.997858 1.45239e-16
    outer loop
       vertex 0.326692 -0.247861 0.1
       vertex 0.294061 -0.25 0.1
       vertex 0.294061 -0.25 0
    endloop
  endfacet
  facet normal -0.0654098 -0.997858 0
    outer loop
       vertex 0.294061 -0.25 0.1
       vertex 0.261429 -0.247861 0.1
       vertex 0.261429 -0.247861 0
    endloop
  endfacet
  facet normal -0.0654098 -0.997858 -1.45239e-16
    outer loop
       vertex 0.261429 -0.247861 0
       vertex 0.294061 -0.25 0
       vertex 0.294061 -0.25 0.1
    endloop
  endfacet
  facet normal -0.195096 -0.980784 0
    outer loop
       vertex 0.261429 -0.247861 0
       vertex 0.261429 -0.247861 0.1
       vertex 0.229356 -0.241481 0.1
    endloop
  endfacet
  facet normal -0.195096 -0.980784 -0
    outer loop
       vertex 0.229356 -0.241481 0.1
       vertex 0.229356 -0.241481 0
       vertex 0.261429 -0.247861 0
    endloop
  endfacet
  facet normal -0.321425 -0.946935 0
    outer loop
       vertex 0.229356 -0.241481 0
       vertex 0.229356 -0.241481 0.1
       vertex 0.19839 -0.23097 0.1
    endloop
  endfacet
  facet normal -0.321425 -0.946935 -0
    outer loop
       vertex 0.19839 -0.23097 0.1
       vertex 0.19839 -0.23097 0
       vertex 0.229356 -0.241481 0
    endloop
  endfacet
  facet normal -0.442302 -0.896866 0
    outer loop
       vertex 0.19839 -0.23097 0
       vertex 0.19839 -0.23097 0.1
       vertex 0.169061 -0.216506 0.1
    endloop
  endfacet
  facet normal -0.442302 -0.896866 -0
    outer loop
       vertex 0.169061 -0.216506 0.1
       vertex 0.169061 -0.216506 0
       vertex 0.19839 -0.23097 0
    endloop
  endfacet
  facet normal -0.555561 -0.831476 0
    outer loop
       vertex 0.169061 -0.216506 0
       vertex 0.169061 -0.216506 0.1
       vertex 0.14187 -0.198338 0.1
    endloop
  endfacet
  facet normal -0.555561 -0.831476 -0
    outer loop
       vertex 0.14187 -0.198338 0.1
       vertex 0.14187 -0.198338 0
       vertex 0.169061 -0.216506 0
    endloop
  endfacet
  facet normal -0.659372 -0.751817 0
    outer loop
       vertex 0.14187 -0.198338 0
       vertex 0.14187 -0.198338 0.1
       vertex 0.117285 -0.176776 0.1
    endloop
  endfacet
  facet normal -0.659372 -0.751817 -0
    outer loop
       vertex 0.117285 -0.176776 0.1
       vertex 0.117285 -0.176776 0
       vertex 0.14187 -0.198338 0
    endloop
  endfacet
endsolid cylinder
