solid cylinder
  facet normal 0.751817 -0.659372 0
    outer loop
       vertex 0.313684 -0.176776 0
       vertex 0.335246 -0.152191 0
       vertex 0.335246 -0.152191 0.1
    endloop
  endfacet
  facet normal 0.751817 -0.659372 0
    outer loop
       vertex 0.335246 -0.152191 0.1
       vertex 0.313684 -0.176776 0.1
       vertex 0.313684 -0.176776 0
    endloop
  endfacet
  facet normal 0.831476 -0.555561 0
    outer loop
       vertex 0.335246 -0.152191 0
       vertex 0.353414 -0.125 0
       vertex 0.353414 -0.125 0.1
    endloop
  endfacet
  facet normal 0.831476 -0.555561 0
    outer loop
       vertex 0.353414 -0.125 0.1
       vertex 0.335246 -0.152191 0.1
       vertex 0.335246 -0.152191 0
    endloop
  endfacet
  facet normal 0.896866 -0.442302 0
    outer loop
       vertex 0.353414 -0.125 0
       vertex 0.367878 -0.095671 0
       vertex 0.367878 -0.095671 0.1
    endloop
  endfacet
  facet normal 0.896866 -0.442302 0
    outer loop
       vertex 0.367878 -0.095671 0.1
       vertex 0.353414 -0.125 0.1
       vertex 0.353414 -0.125 0
    endloop
  endfacet
  facet normal 0.946935 -0.321425 0
    outer loop
       vertex 0.367878 -0.095671 0
       vertex 0.378389 -0.064705 0
       vertex 0.378389 -0.064705 0.1
    endloop
  endfacet
  facet normal 0.946935 -0.321425 0
    outer loop
       vertex 0.378389 -0.064705 0.1
       vertex 0.367878 -0.095671 0.1
       vertex 0.367878 -0.095671 0
    endloop
  endfacet
  facet normal 0.980784 -0.195096 0
    outer loop
       vertex 0.378389 -0.064705 0
       vertex 0.384769 -0.0326315 0
       vertex 0.384769 -0.0326315 0.1
    endloop
  endfacet
  facet normal 0.980784 -0.195096 0
    outer loop
       vertex 0.384769 -0.0326315 0.1
       vertex 0.378389 -0.064705 0.1
       vertex 0.378389 -0.064705 0
    endloop
  endfacet
  facet normal 0.997858 -0.0654098 0
    outer loop
       vertex 0.386908 -8.32665e-17 0.1
       vertex 0.384769 -0.0326315 0.1
       vertex 0.384769 -0.0326315 0
    endloop
  endfacet
  facet normal 0.997858 -0.0654098 -1.08928e-16
    outer loop
       vertex 0.384769 -0.0326315 0
       vertex 0.386908 8.32665e-17 0
       vertex 0.386908 -8.32665e-17 0.1
    endloop
  endfacet
  facet normal 0.997858 0.0654098 0
    outer loop
       vertex 0.386908 8.32665e-17 0
       vertex 0.384769 0.0326315 0
       vertex 0.384769 0.0326315 0.1
    endloop
  endfacet
  facet normal 0.997858 0.0654098 1.08928e-16
    outer loop
       vertex 0.384769 0.0326315 0.1
       vertex 0.386908 -8.32665e-17 0.1
       vertex 0.386908 8.32665e-17 0
    endloop
  endfacet
  facet normal 0.980784 0.195096 0
    outer loop
       vertex 0.384769 0.0326315 0
       vertex 0.378389 0.064705 0
       vertex 0.378389 0.064705 0.1
    endloop
  endfacet
  facet normal 0.980784 0.195096 0
    outer loop
       vertex 0.378389 0.064705 0.1
       vertex 0.384769 0.0326315 0.1
       vertex 0.384769 0.0326315 0
    endloop
  endfacet
  facet normal 0.946935 0.321425 0
    outer loop
       vertex 0.378389 0.064705 0
       vertex 0.367878 0.095671 0
       vertex 0.367878 0.095671 0.1
    endloop
  endfacet
  facet normal 0.946935 0.321425 0
    outer loop
       vertex 0.367878 0.095671 0.1
       vertex 0.378389 0.064705 0.1
       vertex 0.378389 0.064705 0
    endloop
  endfacet
  facet normal 0.896866 0.442302 0
    outer loop
       vertex 0.367878 0.095671 0
       vertex 0.353414 0.125 0
       vertex 0.353414 0.125 0.1
    endloop
  endfacet
  facet normal 0.896866 0.442302 0
    outer loop
       vertex 0.353414 0.125 0.1
       vertex 0.367878 0.095671 0.1
       vertex 0.367878 0.095671 0
    endloop
  endfacet
  facet normal 0.831476 0.555561 0
    outer loop
       vertex 0.353414 0.125 0
       vertex 0.335246 0.152191 0
       vertex 0.335246 0.152191 0.1
    endloop
  endfacet
  facet normal 0.831476 0.555561 0
    outer loop
       vertex 0.335246 0.152191 0.1
       vertex 0.353414 0.125 0.1
       vertex 0.353414 0.125 0
    endloop
  endfacet
  facet normal 0.751817 0.659372 0
    outer loop
       vertex 0.335246 0.152191 0
       vertex 0.313684 0.176776 0
       vertex 0.313684 0.176776 0.1
    endloop
  endfacet
  facet normal 0.751817 0.659372 0
    outer loop
       vertex 0.313684 0.176776 0.1
       vertex 0.335246 0.152191 0.1
       vertex 0.335246 0.152191 0
    endloop
  endfacet
  facet normal 0.659372 0.751817 0
    outer loop
       vertex 0.313684 0.176776 0
       vertex 0.289099 0.198338 0
       vertex 0.289099 0.198338 0.1
    endloop
  endfacet
  facet normal 0.659372 0.751817 0
    outer loop
       vertex 0.289099 0.198338 0.1
       vertex 0.313684 0.176776 0.1
       vertex 0.313684 0.176776 0
    endloop
  endfacet
  facet normal 0.555561 0.831476 0
    outer loop
       vertex 0.289099 0.198338 0
       vertex 0.261908 0.216506 0
       vertex 0.261908 0.216506 0.1
    endloop
  endfacet
  facet normal 0.555561 0.831476 0
    outer loop
       vertex 0.261908 0.216506 0.1
       vertex 0.289099 0.198338 0.1
       vertex 0.289099 0.198338 0
    endloop
  endfacet
  facet normal 0.442302 0.896866 0
    outer loop
       vertex 0.261908 0.216506 0
       vertex 0.232579 0.23097 0
       vertex 0.232579 0.23097 0.1
    endloop
  endfacet
  facet normal 0.442302 0.896866 0
    outer loop
       vertex 0.232579 0.23097 0.1
       vertex 0.261908 0.216506 0.1
       vertex 0.261908 0.216506 0
    endloop
  endfacet
  facet normal 0.321425 0.946935 0
    outer loop
       vertex 0.232579 0.23097 0
       vertex 0.201613 0.241481 0
       vertex 0.201613 0.241481 0.1
    endloop
  endfacet
  facet normal 0.321425 0.946935 0
    outer loop
       vertex 0.201613 0.241481 0.1
       vertex 0.232579 0.23097 0.1
       vertex 0.232579 0.23097 0
    endloop
  endfacet
  facet normal 0.195096 0.980784 0
    outer loop
       vertex 0.201613 0.241481 0
       vertex 0.16954 0.247861 0
       vertex 0.16954 0.247861 0.1
    endloop
  endfacet
  facet normal 0.195096 0.980784 0
    outer loop
       vertex 0.16954 0.247861 0.1
       vertex 0.201613 0.241481 0.1
       vertex 0.201613 0.241481 0
    endloop
  endfacet
  facet normal 0.0654098 0.997858 0
    outer loop
       vertex 0.136908 0.25 0.1
       vertex 0.16954 0.247861 0.1
       vertex 0.16954 0.247861 0
    endloop
  endfacet
  facet normal 0.0654098 0.997858 -1.0893e-16
    outer loop
       vertex 0.16954 0.247861 0
       vertex 0.136908 0.25 0
       vertex 0.136908 0.25 0.1
    endloop
  endfacet
  facet normal -0.0654098 0.997858 0
    outer loop
       vertex 0.136908 0.25 0
       vertex 0.104277 0.247861 0
       vertex 0.104277 0.247861 0.1
    endloop
  endfacet
  facet normal -0.0654098 0.997858 1.0893e-16
    outer loop
       vertex 0.104277 0.247861 0.1
       vertex 0.136908 0.25 0.1
       vertex 0.136908 0.25 0
    endloop
  endfacet
  facet normal -0.195096 0.980784 0
    outer loop
       vertex 0.104277 0.247861 0
       vertex 0.0722033 0.241481 0
       vertex 0.0722033 0.241481 0.1
    endloop
  endfacet
  facet normal -0.195096 0.980784 0
    outer loop
       vertex 0.0722033 0.241481 0.1
       vertex 0.104277 0.247861 0.1
       vertex 0.104277 0.247861 0
    endloop
  endfacet
  facet normal -0.321425 0.946935 0
    outer loop
       vertex 0.0722033 0.241481 0
       vertex 0.0412373 0.23097 0
       vertex 0.0412373 0.23097 0.1
    endloop
  endfacet
  facet normal -0.321425 0.946935 0
    outer loop
       vertex 0.0412373 0.23097 0.1
       vertex 0.0722033 0.241481 0.1
       vertex 0.0722033 0.241481 0
    endloop
  endfacet
  facet normal -0.442302 0.896866 0
    outer loop
       vertex 0.0412373 0.23097 0
       vertex 0.0119083 0.216506 0
       vertex 0.0119083 0.216506 0.1
    endloop
  endfacet
  facet normal -0.442302 0.896866 0
    outer loop
       vertex 0.0119083 0.216506 0.1
       vertex 0.0412373 0.23097 0.1
       vertex 0.0412373 0.23097 0
    endloop
  endfacet
  facet normal -0.555561 0.831476 0
    outer loop
       vertex 0.0119083 0.216506 0
       vertex -0.0152827 0.198338 0
       vertex -0.0152827 0.198338 0.1
    endloop
  endfacet
  facet normal -0.555561 0.831476 0
    outer loop
       vertex -0.0152827 0.198338 0.1
       vertex 0.0119083 0.216506 0.1
       vertex 0.0119083 0.216506 0
    endloop
  endfacet
  facet normal -0.659372 0.751817 0
    outer loop
       vertex -0.0152827 0.198338 0
       vertex -0.0398677 0.176776 0
       vertex -0.0398677 0.176776 0.1
    endloop
  endfacet
  facet normal -0.659372 0.751817 0
    outer loop
       vertex -0.0398677 0.176776 0.1
       vertex -0.0152827 0.198338 0.1
       vertex -0.0152827 0.198338 0
    endloop
  endfacet
  facet normal -0.751817 0.659372 0
    outer loop
       vertex -0.0398677 0.176776 0
       vertex -0.0614297 0.152191 0
       vertex -0.0614297 0.152191 0.1
    endloop
  endfacet
  facet normal -0.751817 0.659372 0
    outer loop
       vertex -0.0614297 0.152191 0.1
       vertex -0.0398677 0.176776 0.1
       vertex -0.0398677 0.176776 0
    endloop
  endfacet
  facet normal -0.831476 0.555561 0
    outer loop
       vertex -0.0614297 0.152191 0
       vertex -0.0795977 0.125 0
       vertex -0.0795977 0.125 0.1
    endloop
  endfacet
  facet normal -0.831476 0.555561 0
    outer loop
       vertex -0.0795977 0.125 0.1
       vertex -0.0614297 0.152191 0.1
       vertex -0.0614297 0.152191 0
    endloop
  endfacet
  facet normal -0.896866 0.442302 0
    outer loop
       vertex -0.0795977 0.125 0
       vertex -0.0940617 0.095671 0
       vertex -0.0940617 0.095671 0.1
    endloop
  endfacet
  facet normal -0.896866 0.442302 0
    outer loop
       vertex -0.0940617 0.095671 0.1
       vertex -0.0795977 0.125 0.1
       vertex -0.0795977 0.125 0
    endloop
  endfacet
  facet normal -0.946935 0.321425 0
    outer loop
       vertex -0.0940617 0.095671 0
       vertex -0.104573 0.064705 0
       vertex -0.104573 0.064705 0.1
    endloop
  endfacet
  facet normal -0.946935 0.321425 0
    outer loop
       vertex -0.104573 0.064705 0.1
       vertex -0.0940617 0.095671 0.1
       vertex -0.0940617 0.095671 0
    endloop
  endfacet
  facet normal -0.980784 0.195096 0
    outer loop
       vertex -0.104573 0.064705 0
       vertex -0.110953 0.0326315 0
       vertex -0.110953 0.0326315 0.1
    endloop
  endfacet
  facet normal -0.980784 0.195096 0
    outer loop
       vertex -0.110953 0.0326315 0.1
       vertex -0.104573 0.064705 0.1
       vertex -0.104573 0.064705 0
    endloop
  endfacet
  facet normal -0.997858 0.0654098 0
    outer loop
       vertex -0.113092 8.32665e-17 0.1
       vertex -0.110953 0.0326315 0.1
       vertex -0.110953 0.0326315 0
    endloop
  endfacet
  facet normal -0.997858 0.0654098 -1.08928e-16
    outer loop
       vertex -0.110953 0.0326315 0
       vertex -0.113092 -8.32665e-17 0
       vertex -0.113092 8.32665e-17 0.1
    endloop
  endfacet
  facet normal -0.997858 -0.0654098 0
    outer loop
       vertex -0.113092 -8.32665e-17 0
       vertex -0.110953 -0.0326315 0
       vertex -0.110953 -0.0326315 0.1
    endloop
  endfacet
  facet normal -0.997858 -0.0654098 1.08928e-16
    outer loop
       vertex -0.110953 -0.0326315 0.1
       vertex -0.113092 8.32665e-17 0.1
       vertex -0.113092 -8.32665e-17 0
    endloop
  endfacet
  facet normal -0.980784 -0.195096 0
    outer loop
       vertex -0.110953 -0.0326315 0
       vertex -0.104573 -0.064705 0
       vertex -0.104573 -0.064705 0.1
    endloop
  endfacet
  facet normal -0.980784 -0.195096 0
    outer loop
       vertex -0.104573 -0.064705 0.1
       vertex -0.110953 -0.0326315 0.1
       vertex -0.110953 -0.0326315 0
    endloop
  endfacet
  facet normal -0.946935 -0.321425 0
    outer loop
       vertex -0.104573 -0.064705 0
       vertex -0.0940617 -0.095671 0
       vertex -0.0940617 -0.095671 0.1
    endloop
  endfacet
  facet normal -0.946935 -0.321425 0
    outer loop
       vertex -0.0940617 -0.095671 0.1
       vertex -0.104573 -0.064705 0.1
       vertex -0.104573 -0.064705 0
    endloop
  endfacet
  facet normal -0.896866 -0.442302 0
    outer loop
       vertex -0.0940617 -0.095671 0
       vertex -0.0795977 -0.125 0
       vertex -0.0795977 -0.125 0.1
    endloop
  endfacet
  facet normal -0.896866 -0.442302 0
    outer loop
       vertex -0.0795977 -0.125 0.1
       vertex -0.0940617 -0.095671 0.1
       vertex -0.0940617 -0.095671 0
    endloop
  endfacet
  facet normal -0.831476 -0.555561 0
    outer loop
       vertex -0.0795977 -0.125 0
       vertex -0.0614297 -0.152191 0
       vertex -0.0614297 -0.152191 0.1
    endloop
  endfacet
  facet normal -0.831476 -0.555561 0
    outer loop
       vertex -0.0614297 -0.152191 0.1
       vertex -0.0795977 -0.125 0.1
       vertex -0.0795977 -0.125 0
    endloop
  endfacet
  facet normal -0.751817 -0.659372 0
    outer loop
       vertex -0.0614297 -0.152191 0
       vertex -0.0398677 -0.176776 0
       vertex -0.0398677 -0.176776 0.1
    endloop
  endfacet
  facet normal -0.751817 -0.659372 0
    outer loop
       vertex -0.0398677 -0.176776 0.1
       vertex -0.0614297 -0.152191 0.1
       vertex -0.0614297 -0.152191 0
    endloop
  endfacet
  facet normal 0.659372 -0.751817 0
    outer loop
       vertex 0.313684 -0.176776 0
       vertex 0.313684 -0.176776 0.1
       vertex 0.289099 -0.198338 0.1
    endloop
  endfacet
  facet normal 0.659372 -0.751817 0
    outer loop
       vertex 0.289099 -0.198338 0.1
       vertex 0.289099 -0.198338 0
       vertex 0.313684 -0.176776 0
    endloop
  endfacet
  facet normal 0.555561 -0.831476 0
    outer loop
       vertex 0.289099 -0.198338 0
       vertex 0.289099 -0.198338 0.1
       vertex 0.261908 -0.216506 0.1
    endloop
  endfacet
  facet normal 0.555561 -0.831476 0
    outer loop
       vertex 0.261908 -0.216506 0.1
       vertex 0.261908 -0.216506 0
       vertex 0.289099 -0.198338 0
    endloop
  endfacet
  facet normal 0.442302 -0.896866 0
    outer loop
       vertex 0.261908 -0.216506 0
       vertex 0.261908 -0.216506 0.1
       vertex 0.232579 -0.23097 0.1
    endloop
  endfacet
  facet normal 0.442302 -0.896866 0
    outer loop
       vertex 0.232579 -0.23097 0.1
       vertex 0.232579 -0.23097 0
       vertex 0.261908 -0.216506 0
    endloop
  endfacet
  facet normal 0.321425 -0.946935 0
    outer loop
       vertex 0.232579 -0.23097 0
       vertex 0.232579 -0.23097 0.1
       vertex 0.201613 -0.241481 0.1
    endloop
  endfacet
  facet normal 0.321425 -0.946935 0
    outer loop
       vertex 0.201613 -0.241481 0.1
       vertex 0.201613 -0.241481 0
       vertex 0.232579 -0.23097 0
    endloop
  endfacet
  facet normal 0.195096 -0.980784 0
    outer loop
       vertex 0.201613 -0.241481 0
       vertex 0.201613 -0.241481 0.1
       vertex 0.16954 -0.247861 0.1
    endloop
  endfacet
  facet normal 0.195096 -0.980784 0
    outer loop
       vertex 0.16954 -0.247861 0.1
       vertex 0.16954 -0.247861 0
       vertex 0.201613 -0.241481 0
    endloop
  endfacet
  facet normal 0.0654098 -0.997858 0
    outer loop
       vertex 0.136908 -0.25 0
       vertex 0.16954 -0.247861 0
       vertex 0.16954 -0.247861 0.1
    endloop
  endfacet
  facet normal 0.0654098 -0.997858 1.0893e-16
    outer loop
       vertex 0.16954 -0.247861 0.1
       vertex 0.136908 -0.25 0.1
       vertex 0.136908 -0.25 0
    endloop
  endfacet
  facet normal -0.0654098 -0.997858 0
    outer loop
       vertex 0.136908 -0.25 0.1
       vertex 0.104277 -0.247861 0.1
       vertex 0.104277 -0.247861 0
    endloop
  endfacet
  facet normal -0.0654098 -0.997858 -1.0893e-16
    outer loop
       vertex 0.104277 -0.247861 0
       vertex 0.136908 -0.25 0
       vertex 0.136908 -0.25 0.1
    endloop
  endfacet
  facet normal -0.195096 -0.980784 0
    outer loop
       vertex 0.104277 -0.247861 0
       vertex 0.104277 -0.247861 0.1
       vertex 0.0722033 -0.241481 0.1
    endloop
  endfacet
  facet normal -0.195096 -0.980784 -0
    outer loop
       vertex 0.0722033 -0.241481 0.1
       vertex 0.0722033 -0.241481 0
       vertex 0.104277 -0.247861 0
    endloop
  endfacet
  facet normal -0.321425 -0.946935 0
    outer loop
       vertex 0.0722033 -0.241481 0
       vertex 0.0722033 -0.241481 0.1
       vertex 0.0412373 -0.23097 0.1
    endloop
  endfacet
  facet normal -0.321425 -0.946935 -0
    outer loop
       vertex 0.0412373 -0.23097 0.1
       vertex 0.0412373 -0.23097 0
       vertex 0.0722033 -0.241481 0
    endloop
  endfacet
  facet normal -0.442302 -0.896866 0
    outer loop
       vertex 0.0412373 -0.23097 0
       vertex 0.0412373 -0.23097 0.1
       vertex 0.0119083 -0.216506 0.1
    endloop
  endfacet
  facet normal -0.442302 -0.896866 -0
    outer loop
       vertex 0.0119083 -0.216506 0.1
       vertex 0.0119083 -0.216506 0
       vertex 0.0412373 -0.23097 0
    endloop
  endfacet
  facet normal -0.555561 -0.831476 0
    outer loop
       vertex 0.0119083 -0.216506 0
       vertex 0.0119083 -0.216506 0.1
       vertex -0.0152827 -0.198338 0.1
    endloop
  endfacet
  facet normal -0.555561 -0.831476 -0
    outer loop
       vertex -0.0152827 -0.198338 0.1
       vertex -0.0152827 -0.198338 0
       vertex 0.0119083 -0.216506 0
    endloop
  endfacet
  facet normal -0.659372 -0.751817 0
    outer loop
       vertex -0.0152827 -0.198338 0
       vertex -0.0152827 -0.198338 0.1
       vertex -0.0398677 -0.176776 0.1
    endloop
  endfacet
  facet normal -0.659372 -0.751817 -0
    outer loop
       vertex -0.0398677 -0.176776 0.1
       vertex -0.0398677 -0.176776 0
       vertex -0.0152827 -0.198338 0
    endloop
  endfacet
endsolid cylinder
