solid cylinder
  facet normal 0.751817 -0.659372 0
    outer loop
       vertex 0.454755 -0.176776 0
       vertex 0.476317 -0.152191 0
       vertex 0.476317 -0.152191 0.1
    endloop
  endfacet
  facet normal 0.751817 -0.659372 0
    outer loop
       vertex 0.476317 -0.152191 0.1
       vertex 0.454755 -0.176776 0.1
       vertex 0.454755 -0.176776 0
    endloop
  endfacet
  facet normal 0.831476 -0.555561 0
    outer loop
       vertex 0.476317 -0.152191 0
       vertex 0.494485 -0.125 0
       vertex 0.494485 -0.125 0.1
    endloop
  endfacet
  facet normal 0.831476 -0.555561 0
    outer loop
       vertex 0.494485 -0.125 0.1
       vertex 0.476317 -0.152191 0.1
       vertex 0.476317 -0.152191 0
    endloop
  endfacet
  facet normal 0.896866 -0.442302 0
    outer loop
       vertex 0.494485 -0.125 0
       vertex 0.508949 -0.095671 0
       vertex 0.508949 -0.095671 0.1
    endloop
  endfacet
  facet normal 0.896866 -0.442302 0
    outer loop
       vertex 0.508949 -0.095671 0.1
       vertex 0.494485 -0.125 0.1
       vertex 0.494485 -0.125 0
    endloop
  endfacet
  facet normal 0.946935 -0.321425 0
    outer loop
       vertex 0.508949 -0.095671 0
       vertex 0.51946 -0.064705 0
       vertex 0.51946 -0.064705 0.1
    endloop
  endfacet
  facet normal 0.946935 -0.321425 0
    outer loop
       vertex 0.51946 -0.064705 0.1
       vertex 0.508949 -0.095671 0.1
       vertex 0.508949 -0.095671 0
    endloop
  endfacet
  facet normal 0.980784 -0.195096 0
    outer loop
       vertex 0.51946 -0.064705 0
       vertex 0.52584 -0.0326315 0
       vertex 0.52584 -0.0326315 0.1
    endloop
  endfacet
  facet normal 0.980784 -0.195096 0
    outer loop
       vertex 0.52584 -0.0326315 0.1
       vertex 0.51946 -0.064705 0.1
       vertex 0.51946 -0.064705 0
    endloop
  endfacet
  facet normal 0.997858 -0.0654098 0
    outer loop
       vertex 0.527979 -8.32665e-17 0.1
       vertex 0.52584 -0.0326315 0.1
       vertex 0.52584 -0.0326315 0
    endloop
  endfacet
  facet normal 0.997858 -0.0654098 -1.0893e-16
    outer loop
       vertex 0.52584 -0.0326315 0
       vertex 0.527979 8.32665e-17 0
       vertex 0.527979 -8.32665e-17 0.1
    endloop
  endfacet
  facet normal 0.997858 0.0654098 0
    outer loop
       vertex 0.527979 8.32665e-17 0
       vertex 0.52584 0.0326315 0
       vertex 0.52584 0.0326315 0.1
    endloop
  endfacet
  facet normal 0.997858 0.0654098 1.0893e-16
    outer loop
       vertex 0.52584 0.0326315 0.1
       vertex 0.527979 -8.32665e-17 0.1
       vertex 0.527979 8.32665e-17 0
    endloop
  endfacet
  facet normal 0.980784 0.195096 0
    outer loop
       vertex 0.52584 0.0326315 0
       vertex 0.51946 0.064705 0
       vertex 0.51946 0.064705 0.1
    endloop
  endfacet
  facet normal 0.980784 0.195096 0
    outer loop
       vertex 0.51946 0.064705 0.1
       vertex 0.52584 0.0326315 0.1
       vertex 0.52584 0.0326315 0
    endloop
  endfacet
  facet normal 0.946935 0.321425 0
    outer loop
       vertex 0.51946 0.064705 0
       vertex 0.508949 0.095671 0
       vertex 0.508949 0.095671 0.1
    endloop
  endfacet
  facet normal 0.946935 0.321425 0
    outer loop
       vertex 0.508949 0.095671 0.1
       vertex 0.51946 0.064705 0.1
       vertex 0.51946 0.064705 0
    endloop
  endfacet
  facet normal 0.896866 0.442302 0
    outer loop
       vertex 0.508949 0.095671 0
       vertex 0.494485 0.125 0
       vertex 0.494485 0.125 0.1
    endloop
  endfacet
  facet normal 0.896866 0.442302 0
    outer loop
       vertex 0.494485 0.125 0.1
       vertex 0.508949 0.095671 0.1
       vertex 0.508949 0.095671 0
    endloop
  endfacet
  facet normal 0.831476 0.555561 0
    outer loop
       vertex 0.494485 0.125 0
       vertex 0.476317 0.152191 0
       vertex 0.476317 0.152191 0.1
    endloop
  endfacet
  facet normal 0.831476 0.555561 0
    outer loop
       vertex 0.476317 0.152191 0.1
       vertex 0.494485 0.125 0.1
       vertex 0.494485 0.125 0
    endloop
  endfacet
  facet normal 0.751817 0.659372 0
    outer loop
       vertex 0.476317 0.152191 0
       vertex 0.454755 0.176776 0
       vertex 0.454755 0.176776 0.1
    endloop
  endfacet
  facet normal 0.751817 0.659372 0
    outer loop
       vertex 0.454755 0.176776 0.1
       vertex 0.476317 0.152191 0.1
       vertex 0.476317 0.152191 0
    endloop
  endfacet
  facet normal 0.659372 0.751817 0
    outer loop
       vertex 0.454755 0.176776 0
       vertex 0.43017 0.198338 0
       vertex 0.43017 0.198338 0.1
    endloop
  endfacet
  facet normal 0.659372 0.751817 0
    outer loop
       vertex 0.43017 0.198338 0.1
       vertex 0.454755 0.176776 0.1
       vertex 0.454755 0.176776 0
    endloop
  endfacet
  facet normal 0.555561 0.831476 0
    outer loop
       vertex 0.43017 0.198338 0
       vertex 0.402979 0.216506 0
       vertex 0.402979 0.216506 0.1
    endloop
  endfacet
  facet normal 0.555561 0.831476 0
    outer loop
       vertex 0.402979 0.216506 0.1
       vertex 0.43017 0.198338 0.1
       vertex 0.43017 0.198338 0
    endloop
  endfacet
  facet normal 0.442302 0.896866 0
    outer loop
       vertex 0.402979 0.216506 0
       vertex 0.37365 0.23097 0
       vertex 0.37365 0.23097 0.1
    endloop
  endfacet
  facet normal 0.442302 0.896866 0
    outer loop
       vertex 0.37365 0.23097 0.1
       vertex 0.402979 0.216506 0.1
       vertex 0.402979 0.216506 0
    endloop
  endfacet
  facet normal 0.321425 0.946935 0
    outer loop
       vertex 0.37365 0.23097 0
       vertex 0.342684 0.241481 0
       vertex 0.342684 0.241481 0.1
    endloop
  endfacet
  facet normal 0.321425 0.946935 0
    outer loop
       vertex 0.342684 0.241481 0.1
       vertex 0.37365 0.23097 0.1
       vertex 0.37365 0.23097 0
    endloop
  endfacet
  facet normal 0.195096 0.980784 0
    outer loop
       vertex 0.342684 0.241481 0
       vertex 0.310611 0.247861 0
       vertex 0.310611 0.247861 0.1
    endloop
  endfacet
  facet normal 0.195096 0.980784 0
    outer loop
       vertex 0.310611 0.247861 0.1
       vertex 0.342684 0.241481 0.1
       vertex 0.342684 0.241481 0
    endloop
  endfacet
  facet normal 0.0654098 0.997858 0
    outer loop
       vertex 0.277979 0.25 0.1
       vertex 0.310611 0.247861 0.1
       vertex 0.310611 0.247861 0
    endloop
  endfacet
  facet normal 0.0654098 0.997858 -7.26205e-17
    outer loop
       vertex 0.310611 0.247861 0
       vertex 0.277979 0.25 0
       vertex 0.277979 0.25 0.1
    endloop
  endfacet
  facet normal -0.0654098 0.997858 0
    outer loop
       vertex 0.277979 0.25 0
       vertex 0.245348 0.247861 0
       vertex 0.245348 0.247861 0.1
    endloop
  endfacet
  facet normal -0.0654098 0.997858 7.26205e-17
    outer loop
       vertex 0.245348 0.247861 0.1
       vertex 0.277979 0.25 0.1
       vertex 0.277979 0.25 0
    endloop
  endfacet
  facet normal -0.195096 0.980784 0
    outer loop
       vertex 0.245348 0.247861 0
       vertex 0.213274 0.241481 0
       vertex 0.213274 0.241481 0.1
    endloop
  endfacet
  facet normal -0.195096 0.980784 0
    outer loop
       vertex 0.213274 0.241481 0.1
       vertex 0.245348 0.247861 0.1
       vertex 0.245348 0.247861 0
    endloop
  endfacet
  facet normal -0.321425 0.946935 0
    outer loop
       vertex 0.213274 0.241481 0
       vertex 0.182308 0.23097 0
       vertex 0.182308 0.23097 0.1
    endloop
  endfacet
  facet normal -0.321425 0.946935 0
    outer loop
       vertex 0.182308 0.23097 0.1
       vertex 0.213274 0.241481 0.1
       vertex 0.213274 0.241481 0
    endloop
  endfacet
  facet normal -0.442302 0.896866 0
    outer loop
       vertex 0.182308 0.23097 0
       vertex 0.152979 0.216506 0
       vertex 0.152979 0.216506 0.1
    endloop
  endfacet
  facet normal -0.442302 0.896866 0
    outer loop
       vertex 0.152979 0.216506 0.1
       vertex 0.182308 0.23097 0.1
       vertex 0.182308 0.23097 0
    endloop
  endfacet
  facet normal -0.555561 0.831476 0
    outer loop
       vertex 0.152979 0.216506 0
       vertex 0.125788 0.198338 0
       vertex 0.125788 0.198338 0.1
    endloop
  endfacet
  facet normal -0.555561 0.831476 0
    outer loop
       vertex 0.125788 0.198338 0.1
       vertex 0.152979 0.216506 0.1
       vertex 0.152979 0.216506 0
    endloop
  endfacet
  facet normal -0.659372 0.751817 0
    outer loop
       vertex 0.125788 0.198338 0
       vertex 0.101203 0.176776 0
       vertex 0.101203 0.176776 0.1
    endloop
  endfacet
  facet normal -0.659372 0.751817 0
    outer loop
       vertex 0.101203 0.176776 0.1
       vertex 0.125788 0.198338 0.1
       vertex 0.125788 0.198338 0
    endloop
  endfacet
  facet normal -0.751817 0.659372 0
    outer loop
       vertex 0.101203 0.176776 0
       vertex 0.0796412 0.152191 0
       vertex 0.0796412 0.152191 0.1
    endloop
  endfacet
  facet normal -0.751817 0.659372 0
    outer loop
       vertex 0.0796412 0.152191 0.1
       vertex 0.101203 0.176776 0.1
       vertex 0.101203 0.176776 0
    endloop
  endfacet
  facet normal -0.831476 0.555561 0
    outer loop
       vertex 0.0796412 0.152191 0
       vertex 0.0614732 0.125 0
       vertex 0.0614732 0.125 0.1
    endloop
  endfacet
  facet normal -0.831476 0.555561 0
    outer loop
       vertex 0.0614732 0.125 0.1
       vertex 0.0796412 0.152191 0.1
       vertex 0.0796412 0.152191 0
    endloop
  endfacet
  facet normal -0.896866 0.442302 0
    outer loop
       vertex 0.0614732 0.125 0
       vertex 0.0470092 0.095671 0
       vertex 0.0470092 0.095671 0.1
    endloop
  endfacet
  facet normal -0.896866 0.442302 0
    outer loop
       vertex 0.0470092 0.095671 0.1
       vertex 0.0614732 0.125 0.1
       vertex 0.0614732 0.125 0
    endloop
  endfacet
  facet normal -0.946935 0.321425 0
    outer loop
       vertex 0.0470092 0.095671 0
       vertex 0.0364982 0.064705 0
       vertex 0.0364982 0.064705 0.1
    endloop
  endfacet
  facet normal -0.946935 0.321425 0
    outer loop
       vertex 0.0364982 0.064705 0.1
       vertex 0.0470092 0.095671 0.1
       vertex 0.0470092 0.095671 0
    endloop
  endfacet
  facet normal -0.980784 0.195096 0
    outer loop
       vertex 0.0364982 0.064705 0
       vertex 0.0301182 0.0326315 0
       vertex 0.0301182 0.0326315 0.1
    endloop
  endfacet
  facet normal -0.980784 0.195096 0
    outer loop
       vertex 0.0301182 0.0326315 0.1
       vertex 0.0364982 0.064705 0.1
       vertex 0.0364982 0.064705 0
    endloop
  endfacet
  facet normal -0.997858 0.0654098 0
    outer loop
       vertex 0.0279792 8.32665e-17 0.1
       vertex 0.0301182 0.0326315 0.1
       vertex 0.0301182 0.0326315 0
    endloop
  endfacet
  facet normal -0.997858 0.0654098 -1.08928e-16
    outer loop
       vertex 0.0301182 0.0326315 0
       vertex 0.0279792 -8.32665e-17 0
       vertex 0.0279792 8.32665e-17 0.1
    endloop
  endfacet
  facet normal -0.997858 -0.0654098 0
    outer loop
       vertex 0.0279792 -8.32665e-17 0
       vertex 0.0301182 -0.0326315 0
       vertex 0.0301182 -0.0326315 0.1
    endloop
  endfacet
  facet normal -0.997858 -0.0654098 1.08928e-16
    outer loop
       vertex 0.0301182 -0.0326315 0.1
       vertex 0.0279792 8.32665e-17 0.1
       vertex 0.0279792 -8.32665e-17 0
    endloop
  endfacet
  facet normal -0.980784 -0.195096 0
    outer loop
       vertex 0.0301182 -0.0326315 0
       vertex 0.0364982 -0.064705 0
       vertex 0.0364982 -0.064705 0.1
    endloop
  endfacet
  facet normal -0.980784 -0.195096 0
    outer loop
       vertex 0.0364982 -0.064705 0.1
       vertex 0.0301182 -0.0326315 0.1
       vertex 0.0301182 -0.0326315 0
    endloop
  endfacet
  facet normal -0.946935 -0.321425 0
    outer loop
       vertex 0.0364982 -0.064705 0
       vertex 0.0470092 -0.095671 0
       vertex 0.0470092 -0.095671 0.1
    endloop
  endfacet
  facet normal -0.946935 -0.321425 0
    outer loop
       vertex 0.0470092 -0.095671 0.1
       vertex 0.0364982 -0.064705 0.1
       vertex 0.0364982 -0.064705 0
    endloop
  endfacet
  facet normal -0.896866 -0.442302 0
    outer loop
       vertex 0.0470092 -0.095671 0
       vertex 0.0614732 -0.125 0
       vertex 0.0614732 -0.125 0.1
    endloop
  endfacet
  facet normal -0.896866 -0.442302 0
    outer loop
       vertex 0.0614732 -0.125 0.1
       vertex 0.0470092 -0.095671 0.1
       vertex 0.0470092 -0.095671 0
    endloop
  endfacet
  facet normal -0.831476 -0.555561 0
    outer loop
       vertex 0.0614732 -0.125 0
       vertex 0.0796412 -0.152191 0
       vertex 0.0796412 -0.152191 0.1
    endloop
  endfacet
  facet normal -0.831476 -0.555561 0
    outer loop
       vertex 0.0796412 -0.152191 0.1
       vertex 0.0614732 -0.125 0.1
       vertex 0.0614732 -0.125 0
    endloop
  endfacet
  facet normal -0.751817 -0.659372 0
    outer loop
       vertex 0.0796412 -0.152191 0
       vertex 0.101203 -0.176776 0
       vertex 0.101203 -0.176776 0.1
    endloop
  endfacet
  facet normal -0.751817 -0.659372 0
    outer loop
       vertex 0.101203 -0.176776 0.1
       vertex 0.0796412 -0.152191 0.1
       vertex 0.0796412 -0.152191 0
    endloop
  endfacet
  facet normal 0.659372 -0.751817 0
    outer loop
       vertex 0.454755 -0.176776 0
       vertex 0.454755 -0.176776 0.1
       vertex 0.43017 -0.198338 0.1
    endloop
  endfacet
  facet normal 0.659372 -0.751817 0
    outer loop
       vertex 0.43017 -0.198338 0.1
       vertex 0.43017 -0.198338 0
       vertex 0.454755 -0.176776 0
    endloop
  endfacet
  facet normal 0.555561 -0.831476 0
    outer loop
       vertex 0.43017 -0.198338 0
       vertex 0.43017 -0.198338 0.1
       vertex 0.402979 -0.216506 0.1
    endloop
  endfacet
  facet normal 0.555561 -0.831476 0
    outer loop
       vertex 0.402979 -0.216506 0.1
       vertex 0.402979 -0.216506 0
       vertex 0.43017 -0.198338 0
    endloop
  endfacet
  facet normal 0.442302 -0.896866 0
    outer loop
       vertex 0.402979 -0.216506 0
       vertex 0.402979 -0.216506 0.1
       vertex 0.37365 -0.23097 0.1
    endloop
  endfacet
  facet normal 0.442302 -0.896866 0
    outer loop
       vertex 0.37365 -0.23097 0.1
       vertex 0.37365 -0.23097 0
       vertex 0.402979 -0.216506 0
    endloop
  endfacet
  facet normal 0.321425 -0.946935 0
    outer loop
       vertex 0.37365 -0.23097 0
       vertex 0.37365 -0.23097 0.1
       vertex 0.342684 -0.241481 0.1
    endloop
  endfacet
  facet normal 0.321425 -0.946935 0
    outer loop
       vertex 0.342684 -0.241481 0.1
       vertex 0.342684 -0.241481 0
       vertex 0.37365 -0.23097 0
    endloop
  endfacet
  facet normal 0.195096 -0.980784 0
    outer loop
       vertex 0.342684 -0.241481 0
       vertex 0.342684 -0.241481 0.1
       vertex 0.310611 -0.247861 0.1
    endloop
  endfacet
  facet normal 0.195096 -0.980784 0
    outer loop
       vertex 0.310611 -0.247861 0.1
       vertex 0.310611 -0.247861 0
       vertex 0.342684 -0.241481 0
    endloop
  endfacet
  facet normal 0.0654098 -0.997858 0
    outer loop
       vertex 0.277979 -0.25 0
       vertex 0.310611 -0.247861 0
       vertex 0.310611 -0.247861 0.1
    endloop
  endfacet
  facet normal 0.0654098 -0.997858 7.26205e-17
    outer loop
       vertex 0.310611 -0.247861 0.1
       vertex 0.277979 -0.25 0.1
       vertex 0.277979 -0.25 0
    endloop
  endfacet
  facet normal -0.0654098 -0.997858 0
    outer loop
       vertex 0.277979 -0.25 0.1
       vertex 0.245348 -0.247861 0.1
       vertex 0.245348 -0.247861 0
    endloop
  endfacet
  facet normal -0.0654098 -0.997858 -7.26205e-17
    outer loop
       vertex 0.245348 -0.247861 0
       vertex 0.277979 -0.25 0
       vertex 0.277979 -0.25 0.1
    endloop
  endfacet
  facet normal -0.195096 -0.980784 0
    outer loop
       vertex 0.245348 -0.247861 0
       vertex 0.245348 -0.247861 0.1
       vertex 0.213274 -0.241481 0.1
    endloop
  endfacet
  facet normal -0.195096 -0.980784 -0
    outer loop
       vertex 0.213274 -0.241481 0.1
       vertex 0.213274 -0.241481 0
       vertex 0.245348 -0.247861 0
    endloop
  endfacet
  facet normal -0.321425 -0.946935 0
    outer loop
       vertex 0.213274 -0.241481 0
       vertex 0.213274 -0.241481 0.1
       vertex 0.182308 -0.23097 0.1
    endloop
  endfacet
  facet normal -0.321425 -0.946935 -0
    outer loop
       vertex 0.182308 -0.23097 0.1
       vertex 0.182308 -0.23097 0
       vertex 0.213274 -0.241481 0
    endloop
  endfacet
  facet normal -0.442302 -0.896866 0
    outer loop
       vertex 0.182308 -0.23097 0
       vertex 0.182308 -0.23097 0.1
       vertex 0.152979 -0.216506 0.1
    endloop
  endfacet
  facet normal -0.442302 -0.896866 -0
    outer loop
       vertex 0.152979 -0.216506 0.1
       vertex 0.152979 -0.216506 0
       vertex 0.182308 -0.23097 0
    endloop
  endfacet
  facet normal -0.555561 -0.831476 0
    outer loop
       vertex 0.152979 -0.216506 0
       vertex 0.152979 -0.216506 0.1
       vertex 0.125788 -0.198338 0.1
    endloop
  endfacet
  facet normal -0.555561 -0.831476 -0
    outer loop
       vertex 0.125788 -0.198338 0.1
       vertex 0.125788 -0.198338 0
       vertex 0.152979 -0.216506 0
    endloop
  endfacet
  facet normal -0.659372 -0.751817 0
    outer loop
       vertex 0.125788 -0.198338 0
       vertex 0.125788 -0.198338 0.1
       vertex 0.101203 -0.176776 0.1
    endloop
  endfacet
  facet normal -0.659372 -0.751817 -0
    outer loop
       vertex 0.101203 -0.176776 0.1
       vertex 0.101203 -0.176776 0
       vertex 0.125788 -0.198338 0
    endloop
  endfacet
endsolid cylinder
