solid cylinder
  facet normal 0.751817 -0.659372 0
    outer loop
       vertex 0.458285 -0.176776 0
       vertex 0.479847 -0.152191 0
       vertex 0.479847 -0.152191 0.1
    endloop
  endfacet
  facet normal 0.751817 -0.659372 0
    outer loop
       vertex 0.479847 -0.152191 0.1
       vertex 0.458285 -0.176776 0.1
       vertex 0.458285 -0.176776 0
    endloop
  endfacet
  facet normal 0.831476 -0.555561 0
    outer loop
       vertex 0.479847 -0.152191 0
       vertex 0.498015 -0.125 0
       vertex 0.498015 -0.125 0.1
    endloop
  endfacet
  facet normal 0.831476 -0.555561 0
    outer loop
       vertex 0.498015 -0.125 0.1
       vertex 0.479847 -0.152191 0.1
       vertex 0.479847 -0.152191 0
    endloop
  endfacet
  facet normal 0.896866 -0.442302 0
    outer loop
       vertex 0.498015 -0.125 0
       vertex 0.512479 -0.095671 0
       vertex 0.512479 -0.095671 0.1
    endloop
  endfacet
  facet normal 0.896866 -0.442302 0
    outer loop
       vertex 0.512479 -0.095671 0.1
       vertex 0.498015 -0.125 0.1
       vertex 0.498015 -0.125 0
    endloop
  endfacet
  facet normal 0.946935 -0.321425 0
    outer loop
       vertex 0.512479 -0.095671 0
       vertex 0.52299 -0.064705 0
       vertex 0.52299 -0.064705 0.1
    endloop
  endfacet
  facet normal 0.946935 -0.321425 0
    outer loop
       vertex 0.52299 -0.064705 0.1
       vertex 0.512479 -0.095671 0.1
       vertex 0.512479 -0.095671 0
    endloop
  endfacet
  facet normal 0.980784 -0.195096 0
    outer loop
       vertex 0.52299 -0.064705 0
       vertex 0.52937 -0.0326315 0
       vertex 0.52937 -0.0326315 0.1
    endloop
  endfacet
  facet normal 0.980784 -0.195096 0
    outer loop
       vertex 0.52937 -0.0326315 0.1
       vertex 0.52299 -0.064705 0.1
       vertex 0.52299 -0.064705 0
    endloop
  endfacet
  facet normal 0.997858 -0.0654098 0
    outer loop
       vertex 0.531509 -8.32665e-17 0.1
       vertex 0.52937 -0.0326315 0.1
       vertex 0.52937 -0.0326315 0
    endloop
  endfacet
  facet normal 0.997858 -0.0654098 -1.0893e-16
    outer loop
       vertex 0.52937 -0.0326315 0
       vertex 0.531509 8.32665e-17 0
       vertex 0.531509 -8.32665e-17 0.1
    endloop
  endfacet
  facet normal 0.997858 0.0654098 0
    outer loop
       vertex 0.531509 8.32665e-17 0
       vertex 0.52937 0.0326315 0
       vertex 0.52937 0.0326315 0.1
    endloop
  endfacet
  facet normal 0.997858 0.0654098 1.0893e-16
    outer loop
       vertex 0.52937 0.0326315 0.1
       vertex 0.531509 -8.32665e-17 0.1
       vertex 0.531509 8.32665e-17 0
    endloop
  endfacet
  facet normal 0.980784 0.195096 0
    outer loop
       vertex 0.52937 0.0326315 0
       vertex 0.52299 0.064705 0
       vertex 0.52299 0.064705 0.1
    endloop
  endfacet
  facet normal 0.980784 0.195096 0
    outer loop
       vertex 0.52299 0.064705 0.1
       vertex 0.52937 0.0326315 0.1
       vertex 0.52937 0.0326315 0
    endloop
  endfacet
  facet normal 0.946935 0.321425 0
    outer loop
       vertex 0.52299 0.064705 0
       vertex 0.512479 0.095671 0
       vertex 0.512479 0.095671 0.1
    endloop
  endfacet
  facet normal 0.946935 0.321425 0
    outer loop
       vertex 0.512479 0.095671 0.1
       vertex 0.52299 0.064705 0.1
       vertex 0.52299 0.064705 0
    endloop
  endfacet
  facet normal 0.896866 0.442302 0
    outer loop
       vertex 0.512479 0.095671 0
       vertex 0.498015 0.125 0
       vertex 0.498015 0.125 0.1
    endloop
  endfacet
  facet normal 0.896866 0.442302 0
    outer loop
       vertex 0.498015 0.125 0.1
       vertex 0.512479 0.095671 0.1
       vertex 0.512479 0.095671 0
    endloop
  endfacet
  facet normal 0.831476 0.555561 0
    outer loop
       vertex 0.498015 0.125 0
       vertex 0.479847 0.152191 0
       vertex 0.479847 0.152191 0.1
    endloop
  endfacet
  facet normal 0.831476 0.555561 0
    outer loop
       vertex 0.479847 0.152191 0.1
       vertex 0.498015 0.125 0.1
       vertex 0.498015 0.125 0
    endloop
  endfacet
  facet normal 0.751817 0.659372 0
    outer loop
       vertex 0.479847 0.152191 0
       vertex 0.458285 0.176776 0
       vertex 0.458285 0.176776 0.1
    endloop
  endfacet
  facet normal 0.751817 0.659372 0
    outer loop
       vertex 0.458285 0.176776 0.1
       vertex 0.479847 0.152191 0.1
       vertex 0.479847 0.152191 0
    endloop
  endfacet
  facet normal 0.659372 0.751817 0
    outer loop
       vertex 0.458285 0.176776 0
       vertex 0.4337 0.198338 0
       vertex 0.4337 0.198338 0.1
    endloop
  endfacet
  facet normal 0.659372 0.751817 0
    outer loop
       vertex 0.4337 0.198338 0.1
       vertex 0.458285 0.176776 0.1
       vertex 0.458285 0.176776 0
    endloop
  endfacet
  facet normal 0.555561 0.831476 0
    outer loop
       vertex 0.4337 0.198338 0
       vertex 0.406509 0.216506 0
       vertex 0.406509 0.216506 0.1
    endloop
  endfacet
  facet normal 0.555561 0.831476 0
    outer loop
       vertex 0.406509 0.216506 0.1
       vertex 0.4337 0.198338 0.1
       vertex 0.4337 0.198338 0
    endloop
  endfacet
  facet normal 0.442302 0.896866 0
    outer loop
       vertex 0.406509 0.216506 0
       vertex 0.37718 0.23097 0
       vertex 0.37718 0.23097 0.1
    endloop
  endfacet
  facet normal 0.442302 0.896866 0
    outer loop
       vertex 0.37718 0.23097 0.1
       vertex 0.406509 0.216506 0.1
       vertex 0.406509 0.216506 0
    endloop
  endfacet
  facet normal 0.321425 0.946935 0
    outer loop
       vertex 0.37718 0.23097 0
       vertex 0.346214 0.241481 0
       vertex 0.346214 0.241481 0.1
    endloop
  endfacet
  facet normal 0.321425 0.946935 0
    outer loop
       vertex 0.346214 0.241481 0.1
       vertex 0.37718 0.23097 0.1
       vertex 0.37718 0.23097 0
    endloop
  endfacet
  facet normal 0.195096 0.980784 0
    outer loop
       vertex 0.346214 0.241481 0
       vertex 0.31414 0.247861 0
       vertex 0.31414 0.247861 0.1
    endloop
  endfacet
  facet normal 0.195096 0.980784 0
    outer loop
       vertex 0.31414 0.247861 0.1
       vertex 0.346214 0.241481 0.1
       vertex 0.346214 0.241481 0
    endloop
  endfacet
  facet normal 0.0654098 0.997858 0
    outer loop
       vertex 0.281509 0.25 0.1
       vertex 0.31414 0.247861 0.1
       vertex 0.31414 0.247861 0
    endloop
  endfacet
  facet normal 0.0654098 0.997858 -7.26205e-17
    outer loop
       vertex 0.31414 0.247861 0
       vertex 0.281509 0.25 0
       vertex 0.281509 0.25 0.1
    endloop
  endfacet
  facet normal -0.0654098 0.997858 0
    outer loop
       vertex 0.281509 0.25 0
       vertex 0.248877 0.247861 0
       vertex 0.248877 0.247861 0.1
    endloop
  endfacet
  facet normal -0.0654098 0.997858 7.26205e-17
    outer loop
       vertex 0.248877 0.247861 0.1
       vertex 0.281509 0.25 0.1
       vertex 0.281509 0.25 0
    endloop
  endfacet
  facet normal -0.195096 0.980784 0
    outer loop
       vertex 0.248877 0.247861 0
       vertex 0.216804 0.241481 0
       vertex 0.216804 0.241481 0.1
    endloop
  endfacet
  facet normal -0.195096 0.980784 0
    outer loop
       vertex 0.216804 0.241481 0.1
       vertex 0.248877 0.247861 0.1
       vertex 0.248877 0.247861 0
    endloop
  endfacet
  facet normal -0.321425 0.946935 0
    outer loop
       vertex 0.216804 0.241481 0
       vertex 0.185838 0.23097 0
       vertex 0.185838 0.23097 0.1
    endloop
  endfacet
  facet normal -0.321425 0.946935 0
    outer loop
       vertex 0.185838 0.23097 0.1
       vertex 0.216804 0.241481 0.1
       vertex 0.216804 0.241481 0
    endloop
  endfacet
  facet normal -0.442302 0.896866 0
    outer loop
       vertex 0.185838 0.23097 0
       vertex 0.156509 0.216506 0
       vertex 0.156509 0.216506 0.1
    endloop
  endfacet
  facet normal -0.442302 0.896866 0
    outer loop
       vertex 0.156509 0.216506 0.1
       vertex 0.185838 0.23097 0.1
       vertex 0.185838 0.23097 0
    endloop
  endfacet
  facet normal -0.555561 0.831476 0
    outer loop
       vertex 0.156509 0.216506 0
       vertex 0.129318 0.198338 0
       vertex 0.129318 0.198338 0.1
    endloop
  endfacet
  facet normal -0.555561 0.831476 0
    outer loop
       vertex 0.129318 0.198338 0.1
       vertex 0.156509 0.216506 0.1
       vertex 0.156509 0.216506 0
    endloop
  endfacet
  facet normal -0.659372 0.751817 0
    outer loop
       vertex 0.129318 0.198338 0
       vertex 0.104733 0.176776 0
       vertex 0.104733 0.176776 0.1
    endloop
  endfacet
  facet normal -0.659372 0.751817 0
    outer loop
       vertex 0.104733 0.176776 0.1
       vertex 0.129318 0.198338 0.1
       vertex 0.129318 0.198338 0
    endloop
  endfacet
  facet normal -0.751817 0.659372 0
    outer loop
       vertex 0.104733 0.176776 0
       vertex 0.083171 0.152191 0
       vertex 0.083171 0.152191 0.1
    endloop
  endfacet
  facet normal -0.751817 0.659372 0
    outer loop
       vertex 0.083171 0.152191 0.1
       vertex 0.104733 0.176776 0.1
       vertex 0.104733 0.176776 0
    endloop
  endfacet
  facet normal -0.831476 0.555561 0
    outer loop
       vertex 0.083171 0.152191 0
       vertex 0.065003 0.125 0
       vertex 0.065003 0.125 0.1
    endloop
  endfacet
  facet normal -0.831476 0.555561 0
    outer loop
       vertex 0.065003 0.125 0.1
       vertex 0.083171 0.152191 0.1
       vertex 0.083171 0.152191 0
    endloop
  endfacet
  facet normal -0.896866 0.442302 0
    outer loop
       vertex 0.065003 0.125 0
       vertex 0.050539 0.095671 0
       vertex 0.050539 0.095671 0.1
    endloop
  endfacet
  facet normal -0.896866 0.442302 0
    outer loop
       vertex 0.050539 0.095671 0.1
       vertex 0.065003 0.125 0.1
       vertex 0.065003 0.125 0
    endloop
  endfacet
  facet normal -0.946935 0.321425 0
    outer loop
       vertex 0.050539 0.095671 0
       vertex 0.040028 0.064705 0
       vertex 0.040028 0.064705 0.1
    endloop
  endfacet
  facet normal -0.946935 0.321425 0
    outer loop
       vertex 0.040028 0.064705 0.1
       vertex 0.050539 0.095671 0.1
       vertex 0.050539 0.095671 0
    endloop
  endfacet
  facet normal -0.980784 0.195096 0
    outer loop
       vertex 0.040028 0.064705 0
       vertex 0.033648 0.0326315 0
       vertex 0.033648 0.0326315 0.1
    endloop
  endfacet
  facet normal -0.980784 0.195096 0
    outer loop
       vertex 0.033648 0.0326315 0.1
       vertex 0.040028 0.064705 0.1
       vertex 0.040028 0.064705 0
    endloop
  endfacet
  facet normal -0.997858 0.0654098 0
    outer loop
       vertex 0.031509 8.32665e-17 0.1
       vertex 0.033648 0.0326315 0.1
       vertex 0.033648 0.0326315 0
    endloop
  endfacet
  facet normal -0.997858 0.0654098 -1.08928e-16
    outer loop
       vertex 0.033648 0.0326315 0
       vertex 0.031509 -8.32665e-17 0
       vertex 0.031509 8.32665e-17 0.1
    endloop
  endfacet
  facet normal -0.997858 -0.0654098 0
    outer loop
       vertex 0.031509 -8.32665e-17 0
       vertex 0.033648 -0.0326315 0
       vertex 0.033648 -0.0326315 0.1
    endloop
  endfacet
  facet normal -0.997858 -0.0654098 1.08928e-16
    outer loop
       vertex 0.033648 -0.0326315 0.1
       vertex 0.031509 8.32665e-17 0.1
       vertex 0.031509 -8.32665e-17 0
    endloop
  endfacet
  facet normal -0.980784 -0.195096 0
    outer loop
       vertex 0.033648 -0.0326315 0
       vertex 0.040028 -0.064705 0
       vertex 0.040028 -0.064705 0.1
    endloop
  endfacet
  facet normal -0.980784 -0.195096 0
    outer loop
       vertex 0.040028 -0.064705 0.1
       vertex 0.033648 -0.0326315 0.1
       vertex 0.033648 -0.0326315 0
    endloop
  endfacet
  facet normal -0.946935 -0.321425 0
    outer loop
       vertex 0.040028 -0.064705 0
       vertex 0.050539 -0.095671 0
       vertex 0.050539 -0.095671 0.1
    endloop
  endfacet
  facet normal -0.946935 -0.321425 0
    outer loop
       vertex 0.050539 -0.095671 0.1
       vertex 0.040028 -0.064705 0.1
       vertex 0.040028 -0.064705 0
    endloop
  endfacet
  facet normal -0.896866 -0.442302 0
    outer loop
       vertex 0.050539 -0.095671 0
       vertex 0.065003 -0.125 0
       vertex 0.065003 -0.125 0.1
    endloop
  endfacet
  facet normal -0.896866 -0.442302 0
    outer loop
       vertex 0.065003 -0.125 0.1
       vertex 0.050539 -0.095671 0.1
       vertex 0.050539 -0.095671 0
    endloop
  endfacet
  facet normal -0.831476 -0.555561 0
    outer loop
       vertex 0.065003 -0.125 0
       vertex 0.083171 -0.152191 0
       vertex 0.083171 -0.152191 0.1
    endloop
  endfacet
  facet normal -0.831476 -0.555561 0
    outer loop
       vertex 0.083171 -0.152191 0.1
       vertex 0.065003 -0.125 0.1
       vertex 0.065003 -0.125 0
    endloop
  endfacet
  facet normal -0.751817 -0.659372 0
    outer loop
       vertex 0.083171 -0.152191 0
       vertex 0.104733 -0.176776 0
       vertex 0.104733 -0.176776 0.1
    endloop
  endfacet
  facet normal -0.751817 -0.659372 0
    outer loop
       vertex 0.104733 -0.176776 0.1
       vertex 0.083171 -0.152191 0.1
       vertex 0.083171 -0.152191 0
    endloop
  endfacet
  facet normal 0.659372 -0.751817 0
    outer loop
       vertex 0.458285 -0.176776 0
       vertex 0.458285 -0.176776 0.1
       vertex 0.4337 -0.198338 0.1
    endloop
  endfacet
  facet normal 0.659372 -0.751817 0
    outer loop
       vertex 0.4337 -0.198338 0.1
       vertex 0.4337 -0.198338 0
       vertex 0.458285 -0.176776 0
    endloop
  endfacet
  facet normal 0.555561 -0.831476 0
    outer loop
       vertex 0.4337 -0.198338 0
       vertex 0.4337 -0.198338 0.1
       vertex 0.406509 -0.216506 0.1
    endloop
  endfacet
  facet normal 0.555561 -0.831476 0
    outer loop
       vertex 0.406509 -0.216506 0.1
       vertex 0.406509 -0.216506 0
       vertex 0.4337 -0.198338 0
    endloop
  endfacet
  facet normal 0.442302 -0.896866 0
    outer loop
       vertex 0.406509 -0.216506 0
       vertex 0.406509 -0.216506 0.1
       vertex 0.37718 -0.23097 0.1
    endloop
  endfacet
  facet normal 0.442302 -0.896866 0
    outer loop
       vertex 0.37718 -0.23097 0.1
       vertex 0.37718 -0.23097 0
       vertex 0.406509 -0.216506 0
    endloop
  endfacet
  facet normal 0.321425 -0.946935 0
    outer loop
       vertex 0.37718 -0.23097 0
       vertex 0.37718 -0.23097 0.1
       vertex 0.346214 -0.241481 0.1
    endloop
  endfacet
  facet normal 0.321425 -0.946935 0
    outer loop
       vertex 0.346214 -0.241481 0.1
       vertex 0.346214 -0.241481 0
       vertex 0.37718 -0.23097 0
    endloop
  endfacet
  facet normal 0.195096 -0.980784 0
    outer loop
       vertex 0.346214 -0.241481 0
       vertex 0.346214 -0.241481 0.1
       vertex 0.31414 -0.247861 0.1
    endloop
  endfacet
  facet normal 0.195096 -0.980784 0
    outer loop
       vertex 0.31414 -0.247861 0.1
       vertex 0.31414 -0.247861 0
       vertex 0.346214 -0.241481 0
    endloop
  endfacet
  facet normal 0.0654098 -0.997858 0
    outer loop
       vertex 0.281509 -0.25 0
       vertex 0.31414 -0.247861 0
       vertex 0.31414 -0.247861 0.1
    endloop
  endfacet
  facet normal 0.0654098 -0.997858 7.26205e-17
    outer loop
       vertex 0.31414 -0.247861 0.1
       vertex 0.281509 -0.25 0.1
       vertex 0.281509 -0.25 0
    endloop
  endfacet
  facet normal -0.0654098 -0.997858 0
    outer loop
       vertex 0.281509 -0.25 0.1
       vertex 0.248877 -0.247861 0.1
       vertex 0.248877 -0.247861 0
    endloop
  endfacet
  facet normal -0.0654098 -0.997858 -7.26205e-17
    outer loop
       vertex 0.248877 -0.247861 0
       vertex 0.281509 -0.25 0
       vertex 0.281509 -0.25 0.1
    endloop
  endfacet
  facet normal -0.195096 -0.980784 0
    outer loop
       vertex 0.248877 -0.247861 0
       vertex 0.248877 -0.247861 0.1
       vertex 0.216804 -0.241481 0.1
    endloop
  endfacet
  facet normal -0.195096 -0.980784 -0
    outer loop
       vertex 0.216804 -0.241481 0.1
       vertex 0.216804 -0.241481 0
       vertex 0.248877 -0.247861 0
    endloop
  endfacet
  facet normal -0.321425 -0.946935 0
    outer loop
       vertex 0.216804 -0.241481 0
       vertex 0.216804 -0.241481 0.1
       vertex 0.185838 -0.23097 0.1
    endloop
  endfacet
  facet normal -0.321425 -0.946935 -0
    outer loop
       vertex 0.185838 -0.23097 0.1
       vertex 0.185838 -0.23097 0
       vertex 0.216804 -0.241481 0
    endloop
  endfacet
  facet normal -0.442302 -0.896866 0
    outer loop
       vertex 0.185838 -0.23097 0
       vertex 0.185838 -0.23097 0.1
       vertex 0.156509 -0.216506 0.1
    endloop
  endfacet
  facet normal -0.442302 -0.896866 -0
    outer loop
       vertex 0.156509 -0.216506 0.1
       vertex 0.156509 -0.216506 0
       vertex 0.185838 -0.23097 0
    endloop
  endfacet
  facet normal -0.555561 -0.831476 0
    outer loop
       vertex 0.156509 -0.216506 0
       vertex 0.156509 -0.216506 0.1
       vertex 0.129318 -0.198338 0.1
    endloop
  endfacet
  facet normal -0.555561 -0.831476 -0
    outer loop
       vertex 0.129318 -0.198338 0.1
       vertex 0.129318 -0.198338 0
       vertex 0.156509 -0.216506 0
    endloop
  endfacet
  facet normal -0.659372 -0.751817 0
    outer loop
       vertex 0.129318 -0.198338 0
       vertex 0.129318 -0.198338 0.1
       vertex 0.104733 -0.176776 0.1
    endloop
  endfacet
  facet normal -0.659372 -0.751817 -0
    outer loop
       vertex 0.104733 -0.176776 0.1
       vertex 0.104733 -0.176776 0
       vertex 0.129318 -0.198338 0
    endloop
  endfacet
endsolid cylinder
