solid cylinder
  facet normal 0.751817 -0.659372 0
    outer loop
       vertex 0.240375 -0.176776 0
       vertex 0.261937 -0.152191 0
       vertex 0.261937 -0.152191 0.1
    endloop
  endfacet
  facet normal 0.751817 -0.659372 0
    outer loop
       vertex 0.261937 -0.152191 0.1
       vertex 0.240375 -0.176776 0.1
       vertex 0.240375 -0.176776 0
    endloop
  endfacet
  facet normal 0.831476 -0.555561 0
    outer loop
       vertex 0.261937 -0.152191 0
       vertex 0.280105 -0.125 0
       vertex 0.280105 -0.125 0.1
    endloop
  endfacet
  facet normal 0.831476 -0.555561 0
    outer loop
       vertex 0.280105 -0.125 0.1
       vertex 0.261937 -0.152191 0.1
       vertex 0.261937 -0.152191 0
    endloop
  endfacet
  facet normal 0.896866 -0.442302 0
    outer loop
       vertex 0.280105 -0.125 0
       vertex 0.294569 -0.095671 0
       vertex 0.294569 -0.095671 0.1
    endloop
  endfacet
  facet normal 0.896866 -0.442302 0
    outer loop
       vertex 0.294569 -0.095671 0.1
       vertex 0.280105 -0.125 0.1
       vertex 0.280105 -0.125 0
    endloop
  endfacet
  facet normal 0.946935 -0.321425 0
    outer loop
       vertex 0.294569 -0.095671 0
       vertex 0.30508 -0.064705 0
       vertex 0.30508 -0.064705 0.1
    endloop
  endfacet
  facet normal 0.946935 -0.321425 0
    outer loop
       vertex 0.30508 -0.064705 0.1
       vertex 0.294569 -0.095671 0.1
       vertex 0.294569 -0.095671 0
    endloop
  endfacet
  facet normal 0.980784 -0.195096 0
    outer loop
       vertex 0.30508 -0.064705 0
       vertex 0.31146 -0.0326315 0
       vertex 0.31146 -0.0326315 0.1
    endloop
  endfacet
  facet normal 0.980784 -0.195096 0
    outer loop
       vertex 0.31146 -0.0326315 0.1
       vertex 0.30508 -0.064705 0.1
       vertex 0.30508 -0.064705 0
    endloop
  endfacet
  facet normal 0.997858 -0.0654098 0
    outer loop
       vertex 0.313599 -8.32665e-17 0.1
       vertex 0.31146 -0.0326315 0.1
       vertex 0.31146 -0.0326315 0
    endloop
  endfacet
  facet normal 0.997858 -0.0654098 -1.08928e-16
    outer loop
       vertex 0.31146 -0.0326315 0
       vertex 0.313599 8.32665e-17 0
       vertex 0.313599 -8.32665e-17 0.1
    endloop
  endfacet
  facet normal 0.997858 0.0654098 0
    outer loop
       vertex 0.313599 8.32665e-17 0
       vertex 0.31146 0.0326315 0
       vertex 0.31146 0.0326315 0.1
    endloop
  endfacet
  facet normal 0.997858 0.0654098 1.08928e-16
    outer loop
       vertex 0.31146 0.0326315 0.1
       vertex 0.313599 -8.32665e-17 0.1
       vertex 0.313599 8.32665e-17 0
    endloop
  endfacet
  facet normal 0.980784 0.195096 0
    outer loop
       vertex 0.31146 0.0326315 0
       vertex 0.30508 0.064705 0
       vertex 0.30508 0.064705 0.1
    endloop
  endfacet
  facet normal 0.980784 0.195096 0
    outer loop
       vertex 0.30508 0.064705 0.1
       vertex 0.31146 0.0326315 0.1
       vertex 0.31146 0.0326315 0
    endloop
  endfacet
  facet normal 0.946935 0.321425 0
    outer loop
       vertex 0.30508 0.064705 0
       vertex 0.294569 0.095671 0
       vertex 0.294569 0.095671 0.1
    endloop
  endfacet
  facet normal 0.946935 0.321425 0
    outer loop
       vertex 0.294569 0.095671 0.1
       vertex 0.30508 0.064705 0.1
       vertex 0.30508 0.064705 0
    endloop
  endfacet
  facet normal 0.896866 0.442302 0
    outer loop
       vertex 0.294569 0.095671 0
       vertex 0.280105 0.125 0
       vertex 0.280105 0.125 0.1
    endloop
  endfacet
  facet normal 0.896866 0.442302 0
    outer loop
       vertex 0.280105 0.125 0.1
       vertex 0.294569 0.095671 0.1
       vertex 0.294569 0.095671 0
    endloop
  endfacet
  facet normal 0.831476 0.555561 0
    outer loop
       vertex 0.280105 0.125 0
       vertex 0.261937 0.152191 0
       vertex 0.261937 0.152191 0.1
    endloop
  endfacet
  facet normal 0.831476 0.555561 0
    outer loop
       vertex 0.261937 0.152191 0.1
       vertex 0.280105 0.125 0.1
       vertex 0.280105 0.125 0
    endloop
  endfacet
  facet normal 0.751817 0.659372 0
    outer loop
       vertex 0.261937 0.152191 0
       vertex 0.240375 0.176776 0
       vertex 0.240375 0.176776 0.1
    endloop
  endfacet
  facet normal 0.751817 0.659372 0
    outer loop
       vertex 0.240375 0.176776 0.1
       vertex 0.261937 0.152191 0.1
       vertex 0.261937 0.152191 0
    endloop
  endfacet
  facet normal 0.659372 0.751817 0
    outer loop
       vertex 0.240375 0.176776 0
       vertex 0.21579 0.198338 0
       vertex 0.21579 0.198338 0.1
    endloop
  endfacet
  facet normal 0.659372 0.751817 0
    outer loop
       vertex 0.21579 0.198338 0.1
       vertex 0.240375 0.176776 0.1
       vertex 0.240375 0.176776 0
    endloop
  endfacet
  facet normal 0.555561 0.831476 0
    outer loop
       vertex 0.21579 0.198338 0
       vertex 0.188599 0.216506 0
       vertex 0.188599 0.216506 0.1
    endloop
  endfacet
  facet normal 0.555561 0.831476 0
    outer loop
       vertex 0.188599 0.216506 0.1
       vertex 0.21579 0.198338 0.1
       vertex 0.21579 0.198338 0
    endloop
  endfacet
  facet normal 0.442302 0.896866 0
    outer loop
       vertex 0.188599 0.216506 0
       vertex 0.15927 0.23097 0
       vertex 0.15927 0.23097 0.1
    endloop
  endfacet
  facet normal 0.442302 0.896866 0
    outer loop
       vertex 0.15927 0.23097 0.1
       vertex 0.188599 0.216506 0.1
       vertex 0.188599 0.216506 0
    endloop
  endfacet
  facet normal 0.321425 0.946935 0
    outer loop
       vertex 0.15927 0.23097 0
       vertex 0.128304 0.241481 0
       vertex 0.128304 0.241481 0.1
    endloop
  endfacet
  facet normal 0.321425 0.946935 0
    outer loop
       vertex 0.128304 0.241481 0.1
       vertex 0.15927 0.23097 0.1
       vertex 0.15927 0.23097 0
    endloop
  endfacet
  facet normal 0.195096 0.980784 0
    outer loop
       vertex 0.128304 0.241481 0
       vertex 0.0962306 0.247861 0
       vertex 0.0962306 0.247861 0.1
    endloop
  endfacet
  facet normal 0.195096 0.980784 0
    outer loop
       vertex 0.0962306 0.247861 0.1
       vertex 0.128304 0.241481 0.1
       vertex 0.128304 0.241481 0
    endloop
  endfacet
  facet normal 0.0654098 0.997858 0
    outer loop
       vertex 0.0635991 0.25 0.1
       vertex 0.0962306 0.247861 0.1
       vertex 0.0962306 0.247861 0
    endloop
  endfacet
  facet normal 0.0654098 0.997858 -1.0893e-16
    outer loop
       vertex 0.0962306 0.247861 0
       vertex 0.0635991 0.25 0
       vertex 0.0635991 0.25 0.1
    endloop
  endfacet
  facet normal -0.0654098 0.997858 0
    outer loop
       vertex 0.0635991 0.25 0
       vertex 0.0309676 0.247861 0
       vertex 0.0309676 0.247861 0.1
    endloop
  endfacet
  facet normal -0.0654098 0.997858 1.08928e-16
    outer loop
       vertex 0.0309676 0.247861 0.1
       vertex 0.0635991 0.25 0.1
       vertex 0.0635991 0.25 0
    endloop
  endfacet
  facet normal -0.195096 0.980784 0
    outer loop
       vertex 0.0309676 0.247861 0
       vertex -0.00110592 0.241481 0
       vertex -0.00110592 0.241481 0.1
    endloop
  endfacet
  facet normal -0.195096 0.980784 0
    outer loop
       vertex -0.00110592 0.241481 0.1
       vertex 0.0309676 0.247861 0.1
       vertex 0.0309676 0.247861 0
    endloop
  endfacet
  facet normal -0.321425 0.946935 0
    outer loop
       vertex -0.00110592 0.241481 0
       vertex -0.0320719 0.23097 0
       vertex -0.0320719 0.23097 0.1
    endloop
  endfacet
  facet normal -0.321425 0.946935 0
    outer loop
       vertex -0.0320719 0.23097 0.1
       vertex -0.00110592 0.241481 0.1
       vertex -0.00110592 0.241481 0
    endloop
  endfacet
  facet normal -0.442302 0.896866 0
    outer loop
       vertex -0.0320719 0.23097 0
       vertex -0.0614009 0.216506 0
       vertex -0.0614009 0.216506 0.1
    endloop
  endfacet
  facet normal -0.442302 0.896866 0
    outer loop
       vertex -0.0614009 0.216506 0.1
       vertex -0.0320719 0.23097 0.1
       vertex -0.0320719 0.23097 0
    endloop
  endfacet
  facet normal -0.555561 0.831476 0
    outer loop
       vertex -0.0614009 0.216506 0
       vertex -0.0885919 0.198338 0
       vertex -0.0885919 0.198338 0.1
    endloop
  endfacet
  facet normal -0.555561 0.831476 0
    outer loop
       vertex -0.0885919 0.198338 0.1
       vertex -0.0614009 0.216506 0.1
       vertex -0.0614009 0.216506 0
    endloop
  endfacet
  facet normal -0.659372 0.751817 0
    outer loop
       vertex -0.0885919 0.198338 0
       vertex -0.113177 0.176776 0
       vertex -0.113177 0.176776 0.1
    endloop
  endfacet
  facet normal -0.659372 0.751817 0
    outer loop
       vertex -0.113177 0.176776 0.1
       vertex -0.0885919 0.198338 0.1
       vertex -0.0885919 0.198338 0
    endloop
  endfacet
  facet normal -0.751817 0.659372 0
    outer loop
       vertex -0.113177 0.176776 0
       vertex -0.134739 0.152191 0
       vertex -0.134739 0.152191 0.1
    endloop
  endfacet
  facet normal -0.751817 0.659372 0
    outer loop
       vertex -0.134739 0.152191 0.1
       vertex -0.113177 0.176776 0.1
       vertex -0.113177 0.176776 0
    endloop
  endfacet
  facet normal -0.831476 0.555561 0
    outer loop
       vertex -0.134739 0.152191 0
       vertex -0.152907 0.125 0
       vertex -0.152907 0.125 0.1
    endloop
  endfacet
  facet normal -0.831476 0.555561 0
    outer loop
       vertex -0.152907 0.125 0.1
       vertex -0.134739 0.152191 0.1
       vertex -0.134739 0.152191 0
    endloop
  endfacet
  facet normal -0.896866 0.442302 0
    outer loop
       vertex -0.152907 0.125 0
       vertex -0.167371 0.095671 0
       vertex -0.167371 0.095671 0.1
    endloop
  endfacet
  facet normal -0.896866 0.442302 0
    outer loop
       vertex -0.167371 0.095671 0.1
       vertex -0.152907 0.125 0.1
       vertex -0.152907 0.125 0
    endloop
  endfacet
  facet normal -0.946935 0.321425 0
    outer loop
       vertex -0.167371 0.095671 0
       vertex -0.177882 0.064705 0
       vertex -0.177882 0.064705 0.1
    endloop
  endfacet
  facet normal -0.946935 0.321425 0
    outer loop
       vertex -0.177882 0.064705 0.1
       vertex -0.167371 0.095671 0.1
       vertex -0.167371 0.095671 0
    endloop
  endfacet
  facet normal -0.980784 0.195096 0
    outer loop
       vertex -0.177882 0.064705 0
       vertex -0.184262 0.0326315 0
       vertex -0.184262 0.0326315 0.1
    endloop
  endfacet
  facet normal -0.980784 0.195096 0
    outer loop
       vertex -0.184262 0.0326315 0.1
       vertex -0.177882 0.064705 0.1
       vertex -0.177882 0.064705 0
    endloop
  endfacet
  facet normal -0.997858 0.0654098 0
    outer loop
       vertex -0.186401 8.32665e-17 0.1
       vertex -0.184262 0.0326315 0.1
       vertex -0.184262 0.0326315 0
    endloop
  endfacet
  facet normal -0.997858 0.0654098 -1.08928e-16
    outer loop
       vertex -0.184262 0.0326315 0
       vertex -0.186401 -8.32665e-17 0
       vertex -0.186401 8.32665e-17 0.1
    endloop
  endfacet
  facet normal -0.997858 -0.0654098 0
    outer loop
       vertex -0.186401 -8.32665e-17 0
       vertex -0.184262 -0.0326315 0
       vertex -0.184262 -0.0326315 0.1
    endloop
  endfacet
  facet normal -0.997858 -0.0654098 1.08928e-16
    outer loop
       vertex -0.184262 -0.0326315 0.1
       vertex -0.186401 8.32665e-17 0.1
       vertex -0.186401 -8.32665e-17 0
    endloop
  endfacet
  facet normal -0.980784 -0.195096 0
    outer loop
       vertex -0.184262 -0.0326315 0
       vertex -0.177882 -0.064705 0
       vertex -0.177882 -0.064705 0.1
    endloop
  endfacet
  facet normal -0.980784 -0.195096 0
    outer loop
       vertex -0.177882 -0.064705 0.1
       vertex -0.184262 -0.0326315 0.1
       vertex -0.184262 -0.0326315 0
    endloop
  endfacet
  facet normal -0.946935 -0.321425 0
    outer loop
       vertex -0.177882 -0.064705 0
       vertex -0.167371 -0.095671 0
       vertex -0.167371 -0.095671 0.1
    endloop
  endfacet
  facet normal -0.946935 -0.321425 0
    outer loop
       vertex -0.167371 -0.095671 0.1
       vertex -0.177882 -0.064705 0.1
       vertex -0.177882 -0.064705 0
    endloop
  endfacet
  facet normal -0.896866 -0.442302 0
    outer loop
       vertex -0.167371 -0.095671 0
       vertex -0.152907 -0.125 0
       vertex -0.152907 -0.125 0.1
    endloop
  endfacet
  facet normal -0.896866 -0.442302 0
    outer loop
       vertex -0.152907 -0.125 0.1
       vertex -0.167371 -0.095671 0.1
       vertex -0.167371 -0.095671 0
    endloop
  endfacet
  facet normal -0.831476 -0.555561 0
    outer loop
       vertex -0.152907 -0.125 0
       vertex -0.134739 -0.152191 0
       vertex -0.134739 -0.152191 0.1
    endloop
  endfacet
  facet normal -0.831476 -0.555561 0
    outer loop
       vertex -0.134739 -0.152191 0.1
       vertex -0.152907 -0.125 0.1
       vertex -0.152907 -0.125 0
    endloop
  endfacet
  facet normal -0.751817 -0.659372 0
    outer loop
       vertex -0.134739 -0.152191 0
       vertex -0.113177 -0.176776 0
       vertex -0.113177 -0.176776 0.1
    endloop
  endfacet
  facet normal -0.751817 -0.659372 0
    outer loop
       vertex -0.113177 -0.176776 0.1
       vertex -0.134739 -0.152191 0.1
       vertex -0.134739 -0.152191 0
    endloop
  endfacet
  facet normal 0.659372 -0.751817 0
    outer loop
       vertex 0.240375 -0.176776 0
       vertex 0.240375 -0.176776 0.1
       vertex 0.21579 -0.198338 0.1
    endloop
  endfacet
  facet normal 0.659372 -0.751817 0
    outer loop
       vertex 0.21579 -0.198338 0.1
       vertex 0.21579 -0.198338 0
       vertex 0.240375 -0.176776 0
    endloop
  endfacet
  facet normal 0.555561 -0.831476 0
    outer loop
       vertex 0.21579 -0.198338 0
       vertex 0.21579 -0.198338 0.1
       vertex 0.188599 -0.216506 0.1
    endloop
  endfacet
  facet normal 0.555561 -0.831476 0
    outer loop
       vertex 0.188599 -0.216506 0.1
       vertex 0.188599 -0.216506 0
       vertex 0.21579 -0.198338 0
    endloop
  endfacet
  facet normal 0.442302 -0.896866 0
    outer loop
       vertex 0.188599 -0.216506 0
       vertex 0.188599 -0.216506 0.1
       vertex 0.15927 -0.23097 0.1
    endloop
  endfacet
  facet normal 0.442302 -0.896866 0
    outer loop
       vertex 0.15927 -0.23097 0.1
       vertex 0.15927 -0.23097 0
       vertex 0.188599 -0.216506 0
    endloop
  endfacet
  facet normal 0.321425 -0.946935 0
    outer loop
       vertex 0.15927 -0.23097 0
       vertex 0.15927 -0.23097 0.1
       vertex 0.128304 -0.241481 0.1
    endloop
  endfacet
  facet normal 0.321425 -0.946935 0
    outer loop
       vertex 0.128304 -0.241481 0.1
       vertex 0.128304 -0.241481 0
       vertex 0.15927 -0.23097 0
    endloop
  endfacet
  facet normal 0.195096 -0.980784 0
    outer loop
       vertex 0.128304 -0.241481 0
       vertex 0.128304 -0.241481 0.1
       vertex 0.0962306 -0.247861 0.1
    endloop
  endfacet
  facet normal 0.195096 -0.980784 0
    outer loop
       vertex 0.0962306 -0.247861 0.1
       vertex 0.0962306 -0.247861 0
       vertex 0.128304 -0.241481 0
    endloop
  endfacet
  facet normal 0.0654098 -0.997858 0
    outer loop
       vertex 0.0635991 -0.25 0
       vertex 0.0962306 -0.247861 0
       vertex 0.0962306 -0.247861 0.1
    endloop
  endfacet
  facet normal 0.0654098 -0.997858 1.0893e-16
    outer loop
       vertex 0.0962306 -0.247861 0.1
       vertex 0.0635991 -0.25 0.1
       vertex 0.0635991 -0.25 0
    endloop
  endfacet
  facet normal -0.0654098 -0.997858 0
    outer loop
       vertex 0.0635991 -0.25 0.1
       vertex 0.0309676 -0.247861 0.1
       vertex 0.0309676 -0.247861 0
    endloop
  endfacet
  facet normal -0.0654098 -0.997858 -1.08928e-16
    outer loop
       vertex 0.0309676 -0.247861 0
       vertex 0.0635991 -0.25 0
       vertex 0.0635991 -0.25 0.1
    endloop
  endfacet
  facet normal -0.195096 -0.980784 0
    outer loop
       vertex 0.0309676 -0.247861 0
       vertex 0.0309676 -0.247861 0.1
       vertex -0.00110592 -0.241481 0.1
    endloop
  endfacet
  facet normal -0.195096 -0.980784 -0
    outer loop
       vertex -0.00110592 -0.241481 0.1
       vertex -0.00110592 -0.241481 0
       vertex 0.0309676 -0.247861 0
    endloop
  endfacet
  facet normal -0.321425 -0.946935 0
    outer loop
       vertex -0.00110592 -0.241481 0
       vertex -0.00110592 -0.241481 0.1
       vertex -0.0320719 -0.23097 0.1
    endloop
  endfacet
  facet normal -0.321425 -0.946935 -0
    outer loop
       vertex -0.0320719 -0.23097 0.1
       vertex -0.0320719 -0.23097 0
       vertex -0.00110592 -0.241481 0
    endloop
  endfacet
  facet normal -0.442302 -0.896866 0
    outer loop
       vertex -0.0320719 -0.23097 0
       vertex -0.0320719 -0.23097 0.1
       vertex -0.0614009 -0.216506 0.1
    endloop
  endfacet
  facet normal -0.442302 -0.896866 -0
    outer loop
       vertex -0.0614009 -0.216506 0.1
       vertex -0.0614009 -0.216506 0
       vertex -0.0320719 -0.23097 0
    endloop
  endfacet
  facet normal -0.555561 -0.831476 0
    outer loop
       vertex -0.0614009 -0.216506 0
       vertex -0.0614009 -0.216506 0.1
       vertex -0.0885919 -0.198338 0.1
    endloop
  endfacet
  facet normal -0.555561 -0.831476 -0
    outer loop
       vertex -0.0885919 -0.198338 0.1
       vertex -0.0885919 -0.198338 0
       vertex -0.0614009 -0.216506 0
    endloop
  endfacet
  facet normal -0.659372 -0.751817 0
    outer loop
       vertex -0.0885919 -0.198338 0
       vertex -0.0885919 -0.198338 0.1
       vertex -0.113177 -0.176776 0.1
    endloop
  endfacet
  facet normal -0.659372 -0.751817 -0
    outer loop
       vertex -0.113177 -0.176776 0.1
       vertex -0.113177 -0.176776 0
       vertex -0.0885919 -0.198338 0
    endloop
  endfacet
endsolid cylinder
