solid cylinder
  facet normal 0.751817 -0.659372 0
    outer loop
       vertex 0.283155 -0.176776 0
       vertex 0.304717 -0.152191 0
       vertex 0.304717 -0.152191 0.1
    endloop
  endfacet
  facet normal 0.751817 -0.659372 0
    outer loop
       vertex 0.304717 -0.152191 0.1
       vertex 0.283155 -0.176776 0.1
       vertex 0.283155 -0.176776 0
    endloop
  endfacet
  facet normal 0.831476 -0.555561 0
    outer loop
       vertex 0.304717 -0.152191 0
       vertex 0.322885 -0.125 0
       vertex 0.322885 -0.125 0.1
    endloop
  endfacet
  facet normal 0.831476 -0.555561 0
    outer loop
       vertex 0.322885 -0.125 0.1
       vertex 0.304717 -0.152191 0.1
       vertex 0.304717 -0.152191 0
    endloop
  endfacet
  facet normal 0.896866 -0.442302 0
    outer loop
       vertex 0.322885 -0.125 0
       vertex 0.337349 -0.095671 0
       vertex 0.337349 -0.095671 0.1
    endloop
  endfacet
  facet normal 0.896866 -0.442302 0
    outer loop
       vertex 0.337349 -0.095671 0.1
       vertex 0.322885 -0.125 0.1
       vertex 0.322885 -0.125 0
    endloop
  endfacet
  facet normal 0.946935 -0.321425 0
    outer loop
       vertex 0.337349 -0.095671 0
       vertex 0.34786 -0.064705 0
       vertex 0.34786 -0.064705 0.1
    endloop
  endfacet
  facet normal 0.946935 -0.321425 0
    outer loop
       vertex 0.34786 -0.064705 0.1
       vertex 0.337349 -0.095671 0.1
       vertex 0.337349 -0.095671 0
    endloop
  endfacet
  facet normal 0.980784 -0.195096 0
    outer loop
       vertex 0.34786 -0.064705 0
       vertex 0.35424 -0.0326315 0
       vertex 0.35424 -0.0326315 0.1
    endloop
  endfacet
  facet normal 0.980784 -0.195096 0
    outer loop
       vertex 0.35424 -0.0326315 0.1
       vertex 0.34786 -0.064705 0.1
       vertex 0.34786 -0.064705 0
    endloop
  endfacet
  facet normal 0.997858 -0.0654098 0
    outer loop
       vertex 0.356379 -8.32665e-17 0.1
       vertex 0.35424 -0.0326315 0.1
       vertex 0.35424 -0.0326315 0
    endloop
  endfacet
  facet normal 0.997858 -0.0654098 -1.08928e-16
    outer loop
       vertex 0.35424 -0.0326315 0
       vertex 0.356379 8.32665e-17 0
       vertex 0.356379 -8.32665e-17 0.1
    endloop
  endfacet
  facet normal 0.997858 0.0654098 0
    outer loop
       vertex 0.356379 8.32665e-17 0
       vertex 0.35424 0.0326315 0
       vertex 0.35424 0.0326315 0.1
    endloop
  endfacet
  facet normal 0.997858 0.0654098 1.08928e-16
    outer loop
       vertex 0.35424 0.0326315 0.1
       vertex 0.356379 -8.32665e-17 0.1
       vertex 0.356379 8.32665e-17 0
    endloop
  endfacet
  facet normal 0.980784 0.195096 0
    outer loop
       vertex 0.35424 0.0326315 0
       vertex 0.34786 0.064705 0
       vertex 0.34786 0.064705 0.1
    endloop
  endfacet
  facet normal 0.980784 0.195096 0
    outer loop
       vertex 0.34786 0.064705 0.1
       vertex 0.35424 0.0326315 0.1
       vertex 0.35424 0.0326315 0
    endloop
  endfacet
  facet normal 0.946935 0.321425 0
    outer loop
       vertex 0.34786 0.064705 0
       vertex 0.337349 0.095671 0
       vertex 0.337349 0.095671 0.1
    endloop
  endfacet
  facet normal 0.946935 0.321425 0
    outer loop
       vertex 0.337349 0.095671 0.1
       vertex 0.34786 0.064705 0.1
       vertex 0.34786 0.064705 0
    endloop
  endfacet
  facet normal 0.896866 0.442302 0
    outer loop
       vertex 0.337349 0.095671 0
       vertex 0.322885 0.125 0
       vertex 0.322885 0.125 0.1
    endloop
  endfacet
  facet normal 0.896866 0.442302 0
    outer loop
       vertex 0.322885 0.125 0.1
       vertex 0.337349 0.095671 0.1
       vertex 0.337349 0.095671 0
    endloop
  endfacet
  facet normal 0.831476 0.555561 0
    outer loop
       vertex 0.322885 0.125 0
       vertex 0.304717 0.152191 0
       vertex 0.304717 0.152191 0.1
    endloop
  endfacet
  facet normal 0.831476 0.555561 0
    outer loop
       vertex 0.304717 0.152191 0.1
       vertex 0.322885 0.125 0.1
       vertex 0.322885 0.125 0
    endloop
  endfacet
  facet normal 0.751817 0.659372 0
    outer loop
       vertex 0.304717 0.152191 0
       vertex 0.283155 0.176776 0
       vertex 0.283155 0.176776 0.1
    endloop
  endfacet
  facet normal 0.751817 0.659372 0
    outer loop
       vertex 0.283155 0.176776 0.1
       vertex 0.304717 0.152191 0.1
       vertex 0.304717 0.152191 0
    endloop
  endfacet
  facet normal 0.659372 0.751817 0
    outer loop
       vertex 0.283155 0.176776 0
       vertex 0.25857 0.198338 0
       vertex 0.25857 0.198338 0.1
    endloop
  endfacet
  facet normal 0.659372 0.751817 0
    outer loop
       vertex 0.25857 0.198338 0.1
       vertex 0.283155 0.176776 0.1
       vertex 0.283155 0.176776 0
    endloop
  endfacet
  facet normal 0.555561 0.831476 0
    outer loop
       vertex 0.25857 0.198338 0
       vertex 0.231379 0.216506 0
       vertex 0.231379 0.216506 0.1
    endloop
  endfacet
  facet normal 0.555561 0.831476 0
    outer loop
       vertex 0.231379 0.216506 0.1
       vertex 0.25857 0.198338 0.1
       vertex 0.25857 0.198338 0
    endloop
  endfacet
  facet normal 0.442302 0.896866 0
    outer loop
       vertex 0.231379 0.216506 0
       vertex 0.20205 0.23097 0
       vertex 0.20205 0.23097 0.1
    endloop
  endfacet
  facet normal 0.442302 0.896866 0
    outer loop
       vertex 0.20205 0.23097 0.1
       vertex 0.231379 0.216506 0.1
       vertex 0.231379 0.216506 0
    endloop
  endfacet
  facet normal 0.321425 0.946935 0
    outer loop
       vertex 0.20205 0.23097 0
       vertex 0.171084 0.241481 0
       vertex 0.171084 0.241481 0.1
    endloop
  endfacet
  facet normal 0.321425 0.946935 0
    outer loop
       vertex 0.171084 0.241481 0.1
       vertex 0.20205 0.23097 0.1
       vertex 0.20205 0.23097 0
    endloop
  endfacet
  facet normal 0.195096 0.980784 0
    outer loop
       vertex 0.171084 0.241481 0
       vertex 0.139011 0.247861 0
       vertex 0.139011 0.247861 0.1
    endloop
  endfacet
  facet normal 0.195096 0.980784 0
    outer loop
       vertex 0.139011 0.247861 0.1
       vertex 0.171084 0.241481 0.1
       vertex 0.171084 0.241481 0
    endloop
  endfacet
  facet normal 0.0654098 0.997858 0
    outer loop
       vertex 0.106379 0.25 0.1
       vertex 0.139011 0.247861 0.1
       vertex 0.139011 0.247861 0
    endloop
  endfacet
  facet normal 0.0654098 0.997858 -1.08928e-16
    outer loop
       vertex 0.139011 0.247861 0
       vertex 0.106379 0.25 0
       vertex 0.106379 0.25 0.1
    endloop
  endfacet
  facet normal -0.0654098 0.997858 0
    outer loop
       vertex 0.106379 0.25 0
       vertex 0.0737478 0.247861 0
       vertex 0.0737478 0.247861 0.1
    endloop
  endfacet
  facet normal -0.0654098 0.997858 1.08928e-16
    outer loop
       vertex 0.0737478 0.247861 0.1
       vertex 0.106379 0.25 0.1
       vertex 0.106379 0.25 0
    endloop
  endfacet
  facet normal -0.195096 0.980784 0
    outer loop
       vertex 0.0737478 0.247861 0
       vertex 0.0416743 0.241481 0
       vertex 0.0416743 0.241481 0.1
    endloop
  endfacet
  facet normal -0.195096 0.980784 0
    outer loop
       vertex 0.0416743 0.241481 0.1
       vertex 0.0737478 0.247861 0.1
       vertex 0.0737478 0.247861 0
    endloop
  endfacet
  facet normal -0.321425 0.946935 0
    outer loop
       vertex 0.0416743 0.241481 0
       vertex 0.0107083 0.23097 0
       vertex 0.0107083 0.23097 0.1
    endloop
  endfacet
  facet normal -0.321425 0.946935 0
    outer loop
       vertex 0.0107083 0.23097 0.1
       vertex 0.0416743 0.241481 0.1
       vertex 0.0416743 0.241481 0
    endloop
  endfacet
  facet normal -0.442302 0.896866 0
    outer loop
       vertex 0.0107083 0.23097 0
       vertex -0.0186207 0.216506 0
       vertex -0.0186207 0.216506 0.1
    endloop
  endfacet
  facet normal -0.442302 0.896866 0
    outer loop
       vertex -0.0186207 0.216506 0.1
       vertex 0.0107083 0.23097 0.1
       vertex 0.0107083 0.23097 0
    endloop
  endfacet
  facet normal -0.555561 0.831476 0
    outer loop
       vertex -0.0186207 0.216506 0
       vertex -0.0458117 0.198338 0
       vertex -0.0458117 0.198338 0.1
    endloop
  endfacet
  facet normal -0.555561 0.831476 0
    outer loop
       vertex -0.0458117 0.198338 0.1
       vertex -0.0186207 0.216506 0.1
       vertex -0.0186207 0.216506 0
    endloop
  endfacet
  facet normal -0.659372 0.751817 0
    outer loop
       vertex -0.0458117 0.198338 0
       vertex -0.0703967 0.176776 0
       vertex -0.0703967 0.176776 0.1
    endloop
  endfacet
  facet normal -0.659372 0.751817 0
    outer loop
       vertex -0.0703967 0.176776 0.1
       vertex -0.0458117 0.198338 0.1
       vertex -0.0458117 0.198338 0
    endloop
  endfacet
  facet normal -0.751817 0.659372 0
    outer loop
       vertex -0.0703967 0.176776 0
       vertex -0.0919587 0.152191 0
       vertex -0.0919587 0.152191 0.1
    endloop
  endfacet
  facet normal -0.751817 0.659372 0
    outer loop
       vertex -0.0919587 0.152191 0.1
       vertex -0.0703967 0.176776 0.1
       vertex -0.0703967 0.176776 0
    endloop
  endfacet
  facet normal -0.831476 0.555561 0
    outer loop
       vertex -0.0919587 0.152191 0
       vertex -0.110127 0.125 0
       vertex -0.110127 0.125 0.1
    endloop
  endfacet
  facet normal -0.831476 0.555561 0
    outer loop
       vertex -0.110127 0.125 0.1
       vertex -0.0919587 0.152191 0.1
       vertex -0.0919587 0.152191 0
    endloop
  endfacet
  facet normal -0.896866 0.442302 0
    outer loop
       vertex -0.110127 0.125 0
       vertex -0.124591 0.095671 0
       vertex -0.124591 0.095671 0.1
    endloop
  endfacet
  facet normal -0.896866 0.442302 0
    outer loop
       vertex -0.124591 0.095671 0.1
       vertex -0.110127 0.125 0.1
       vertex -0.110127 0.125 0
    endloop
  endfacet
  facet normal -0.946935 0.321425 0
    outer loop
       vertex -0.124591 0.095671 0
       vertex -0.135102 0.064705 0
       vertex -0.135102 0.064705 0.1
    endloop
  endfacet
  facet normal -0.946935 0.321425 0
    outer loop
       vertex -0.135102 0.064705 0.1
       vertex -0.124591 0.095671 0.1
       vertex -0.124591 0.095671 0
    endloop
  endfacet
  facet normal -0.980784 0.195096 0
    outer loop
       vertex -0.135102 0.064705 0
       vertex -0.141482 0.0326315 0
       vertex -0.141482 0.0326315 0.1
    endloop
  endfacet
  facet normal -0.980784 0.195096 0
    outer loop
       vertex -0.141482 0.0326315 0.1
       vertex -0.135102 0.064705 0.1
       vertex -0.135102 0.064705 0
    endloop
  endfacet
  facet normal -0.997858 0.0654098 0
    outer loop
       vertex -0.143621 8.32665e-17 0.1
       vertex -0.141482 0.0326315 0.1
       vertex -0.141482 0.0326315 0
    endloop
  endfacet
  facet normal -0.997858 0.0654098 -1.08928e-16
    outer loop
       vertex -0.141482 0.0326315 0
       vertex -0.143621 -8.32665e-17 0
       vertex -0.143621 8.32665e-17 0.1
    endloop
  endfacet
  facet normal -0.997858 -0.0654098 0
    outer loop
       vertex -0.143621 -8.32665e-17 0
       vertex -0.141482 -0.0326315 0
       vertex -0.141482 -0.0326315 0.1
    endloop
  endfacet
  facet normal -0.997858 -0.0654098 1.08928e-16
    outer loop
       vertex -0.141482 -0.0326315 0.1
       vertex -0.143621 8.32665e-17 0.1
       vertex -0.143621 -8.32665e-17 0
    endloop
  endfacet
  facet normal -0.980784 -0.195096 0
    outer loop
       vertex -0.141482 -0.0326315 0
       vertex -0.135102 -0.064705 0
       vertex -0.135102 -0.064705 0.1
    endloop
  endfacet
  facet normal -0.980784 -0.195096 0
    outer loop
       vertex -0.135102 -0.064705 0.1
       vertex -0.141482 -0.0326315 0.1
       vertex -0.141482 -0.0326315 0
    endloop
  endfacet
  facet normal -0.946935 -0.321425 0
    outer loop
       vertex -0.135102 -0.064705 0
       vertex -0.124591 -0.095671 0
       vertex -0.124591 -0.095671 0.1
    endloop
  endfacet
  facet normal -0.946935 -0.321425 0
    outer loop
       vertex -0.124591 -0.095671 0.1
       vertex -0.135102 -0.064705 0.1
       vertex -0.135102 -0.064705 0
    endloop
  endfacet
  facet normal -0.896866 -0.442302 0
    outer loop
       vertex -0.124591 -0.095671 0
       vertex -0.110127 -0.125 0
       vertex -0.110127 -0.125 0.1
    endloop
  endfacet
  facet normal -0.896866 -0.442302 0
    outer loop
       vertex -0.110127 -0.125 0.1
       vertex -0.124591 -0.095671 0.1
       vertex -0.124591 -0.095671 0
    endloop
  endfacet
  facet normal -0.831476 -0.555561 0
    outer loop
       vertex -0.110127 -0.125 0
       vertex -0.0919587 -0.152191 0
       vertex -0.0919587 -0.152191 0.1
    endloop
  endfacet
  facet normal -0.831476 -0.555561 0
    outer loop
       vertex -0.0919587 -0.152191 0.1
       vertex -0.110127 -0.125 0.1
       vertex -0.110127 -0.125 0
    endloop
  endfacet
  facet normal -0.751817 -0.659372 0
    outer loop
       vertex -0.0919587 -0.152191 0
       vertex -0.0703967 -0.176776 0
       vertex -0.0703967 -0.176776 0.1
    endloop
  endfacet
  facet normal -0.751817 -0.659372 0
    outer loop
       vertex -0.0703967 -0.176776 0.1
       vertex -0.0919587 -0.152191 0.1
       vertex -0.0919587 -0.152191 0
    endloop
  endfacet
  facet normal 0.659372 -0.751817 0
    outer loop
       vertex 0.283155 -0.176776 0
       vertex 0.283155 -0.176776 0.1
       vertex 0.25857 -0.198338 0.1
    endloop
  endfacet
  facet normal 0.659372 -0.751817 0
    outer loop
       vertex 0.25857 -0.198338 0.1
       vertex 0.25857 -0.198338 0
       vertex 0.283155 -0.176776 0
    endloop
  endfacet
  facet normal 0.555561 -0.831476 0
    outer loop
       vertex 0.25857 -0.198338 0
       vertex 0.25857 -0.198338 0.1
       vertex 0.231379 -0.216506 0.1
    endloop
  endfacet
  facet normal 0.555561 -0.831476 0
    outer loop
       vertex 0.231379 -0.216506 0.1
       vertex 0.231379 -0.216506 0
       vertex 0.25857 -0.198338 0
    endloop
  endfacet
  facet normal 0.442302 -0.896866 0
    outer loop
       vertex 0.231379 -0.216506 0
       vertex 0.231379 -0.216506 0.1
       vertex 0.20205 -0.23097 0.1
    endloop
  endfacet
  facet normal 0.442302 -0.896866 0
    outer loop
       vertex 0.20205 -0.23097 0.1
       vertex 0.20205 -0.23097 0
       vertex 0.231379 -0.216506 0
    endloop
  endfacet
  facet normal 0.321425 -0.946935 0
    outer loop
       vertex 0.20205 -0.23097 0
       vertex 0.20205 -0.23097 0.1
       vertex 0.171084 -0.241481 0.1
    endloop
  endfacet
  facet normal 0.321425 -0.946935 0
    outer loop
       vertex 0.171084 -0.241481 0.1
       vertex 0.171084 -0.241481 0
       vertex 0.20205 -0.23097 0
    endloop
  endfacet
  facet normal 0.195096 -0.980784 0
    outer loop
       vertex 0.171084 -0.241481 0
       vertex 0.171084 -0.241481 0.1
       vertex 0.139011 -0.247861 0.1
    endloop
  endfacet
  facet normal 0.195096 -0.980784 0
    outer loop
       vertex 0.139011 -0.247861 0.1
       vertex 0.139011 -0.247861 0
       vertex 0.171084 -0.241481 0
    endloop
  endfacet
  facet normal 0.0654098 -0.997858 0
    outer loop
       vertex 0.106379 -0.25 0
       vertex 0.139011 -0.247861 0
       vertex 0.139011 -0.247861 0.1
    endloop
  endfacet
  facet normal 0.0654098 -0.997858 1.08928e-16
    outer loop
       vertex 0.139011 -0.247861 0.1
       vertex 0.106379 -0.25 0.1
       vertex 0.106379 -0.25 0
    endloop
  endfacet
  facet normal -0.0654098 -0.997858 0
    outer loop
       vertex 0.106379 -0.25 0.1
       vertex 0.0737478 -0.247861 0.1
       vertex 0.0737478 -0.247861 0
    endloop
  endfacet
  facet normal -0.0654098 -0.997858 -1.08928e-16
    outer loop
       vertex 0.0737478 -0.247861 0
       vertex 0.106379 -0.25 0
       vertex 0.106379 -0.25 0.1
    endloop
  endfacet
  facet normal -0.195096 -0.980784 0
    outer loop
       vertex 0.0737478 -0.247861 0
       vertex 0.0737478 -0.247861 0.1
       vertex 0.0416743 -0.241481 0.1
    endloop
  endfacet
  facet normal -0.195096 -0.980784 -0
    outer loop
       vertex 0.0416743 -0.241481 0.1
       vertex 0.0416743 -0.241481 0
       vertex 0.0737478 -0.247861 0
    endloop
  endfacet
  facet normal -0.321425 -0.946935 0
    outer loop
       vertex 0.0416743 -0.241481 0
       vertex 0.0416743 -0.241481 0.1
       vertex 0.0107083 -0.23097 0.1
    endloop
  endfacet
  facet normal -0.321425 -0.946935 -0
    outer loop
       vertex 0.0107083 -0.23097 0.1
       vertex 0.0107083 -0.23097 0
       vertex 0.0416743 -0.241481 0
    endloop
  endfacet
  facet normal -0.442302 -0.896866 0
    outer loop
       vertex 0.0107083 -0.23097 0
       vertex 0.0107083 -0.23097 0.1
       vertex -0.0186207 -0.216506 0.1
    endloop
  endfacet
  facet normal -0.442302 -0.896866 -0
    outer loop
       vertex -0.0186207 -0.216506 0.1
       vertex -0.0186207 -0.216506 0
       vertex 0.0107083 -0.23097 0
    endloop
  endfacet
  facet normal -0.555561 -0.831476 0
    outer loop
       vertex -0.0186207 -0.216506 0
       vertex -0.0186207 -0.216506 0.1
       vertex -0.0458117 -0.198338 0.1
    endloop
  endfacet
  facet normal -0.555561 -0.831476 -0
    outer loop
       vertex -0.0458117 -0.198338 0.1
       vertex -0.0458117 -0.198338 0
       vertex -0.0186207 -0.216506 0
    endloop
  endfacet
  facet normal -0.659372 -0.751817 0
    outer loop
       vertex -0.0458117 -0.198338 0
       vertex -0.0458117 -0.198338 0.1
       vertex -0.0703967 -0.176776 0.1
    endloop
  endfacet
  facet normal -0.659372 -0.751817 -0
    outer loop
       vertex -0.0703967 -0.176776 0.1
       vertex -0.0703967 -0.176776 0
       vertex -0.0458117 -0.198338 0
    endloop
  endfacet
endsolid cylinder
