solid cylinder
  facet normal 0.751817 -0.659372 0
    outer loop
       vertex 0.379299 -0.176776 0
       vertex 0.400861 -0.152191 0
       vertex 0.400861 -0.152191 0.1
    endloop
  endfacet
  facet normal 0.751817 -0.659372 0
    outer loop
       vertex 0.400861 -0.152191 0.1
       vertex 0.379299 -0.176776 0.1
       vertex 0.379299 -0.176776 0
    endloop
  endfacet
  facet normal 0.831476 -0.555561 0
    outer loop
       vertex 0.400861 -0.152191 0
       vertex 0.419029 -0.125 0
       vertex 0.419029 -0.125 0.1
    endloop
  endfacet
  facet normal 0.831476 -0.555561 0
    outer loop
       vertex 0.419029 -0.125 0.1
       vertex 0.400861 -0.152191 0.1
       vertex 0.400861 -0.152191 0
    endloop
  endfacet
  facet normal 0.896866 -0.442302 0
    outer loop
       vertex 0.419029 -0.125 0
       vertex 0.433493 -0.095671 0
       vertex 0.433493 -0.095671 0.1
    endloop
  endfacet
  facet normal 0.896866 -0.442302 0
    outer loop
       vertex 0.433493 -0.095671 0.1
       vertex 0.419029 -0.125 0.1
       vertex 0.419029 -0.125 0
    endloop
  endfacet
  facet normal 0.946935 -0.321425 0
    outer loop
       vertex 0.433493 -0.095671 0
       vertex 0.444004 -0.064705 0
       vertex 0.444004 -0.064705 0.1
    endloop
  endfacet
  facet normal 0.946935 -0.321425 0
    outer loop
       vertex 0.444004 -0.064705 0.1
       vertex 0.433493 -0.095671 0.1
       vertex 0.433493 -0.095671 0
    endloop
  endfacet
  facet normal 0.980784 -0.195096 0
    outer loop
       vertex 0.444004 -0.064705 0
       vertex 0.450384 -0.0326315 0
       vertex 0.450384 -0.0326315 0.1
    endloop
  endfacet
  facet normal 0.980784 -0.195096 0
    outer loop
       vertex 0.450384 -0.0326315 0.1
       vertex 0.444004 -0.064705 0.1
       vertex 0.444004 -0.064705 0
    endloop
  endfacet
  facet normal 0.997858 -0.0654098 0
    outer loop
       vertex 0.452523 -8.32665e-17 0.1
       vertex 0.450384 -0.0326315 0.1
       vertex 0.450384 -0.0326315 0
    endloop
  endfacet
  facet normal 0.997858 -0.0654098 -1.08928e-16
    outer loop
       vertex 0.450384 -0.0326315 0
       vertex 0.452523 8.32665e-17 0
       vertex 0.452523 -8.32665e-17 0.1
    endloop
  endfacet
  facet normal 0.997858 0.0654098 0
    outer loop
       vertex 0.452523 8.32665e-17 0
       vertex 0.450384 0.0326315 0
       vertex 0.450384 0.0326315 0.1
    endloop
  endfacet
  facet normal 0.997858 0.0654098 1.08928e-16
    outer loop
       vertex 0.450384 0.0326315 0.1
       vertex 0.452523 -8.32665e-17 0.1
       vertex 0.452523 8.32665e-17 0
    endloop
  endfacet
  facet normal 0.980784 0.195096 0
    outer loop
       vertex 0.450384 0.0326315 0
       vertex 0.444004 0.064705 0
       vertex 0.444004 0.064705 0.1
    endloop
  endfacet
  facet normal 0.980784 0.195096 0
    outer loop
       vertex 0.444004 0.064705 0.1
       vertex 0.450384 0.0326315 0.1
       vertex 0.450384 0.0326315 0
    endloop
  endfacet
  facet normal 0.946935 0.321425 0
    outer loop
       vertex 0.444004 0.064705 0
       vertex 0.433493 0.095671 0
       vertex 0.433493 0.095671 0.1
    endloop
  endfacet
  facet normal 0.946935 0.321425 0
    outer loop
       vertex 0.433493 0.095671 0.1
       vertex 0.444004 0.064705 0.1
       vertex 0.444004 0.064705 0
    endloop
  endfacet
  facet normal 0.896866 0.442302 0
    outer loop
       vertex 0.433493 0.095671 0
       vertex 0.419029 0.125 0
       vertex 0.419029 0.125 0.1
    endloop
  endfacet
  facet normal 0.896866 0.442302 0
    outer loop
       vertex 0.419029 0.125 0.1
       vertex 0.433493 0.095671 0.1
       vertex 0.433493 0.095671 0
    endloop
  endfacet
  facet normal 0.831476 0.555561 0
    outer loop
       vertex 0.419029 0.125 0
       vertex 0.400861 0.152191 0
       vertex 0.400861 0.152191 0.1
    endloop
  endfacet
  facet normal 0.831476 0.555561 0
    outer loop
       vertex 0.400861 0.152191 0.1
       vertex 0.419029 0.125 0.1
       vertex 0.419029 0.125 0
    endloop
  endfacet
  facet normal 0.751817 0.659372 0
    outer loop
       vertex 0.400861 0.152191 0
       vertex 0.379299 0.176776 0
       vertex 0.379299 0.176776 0.1
    endloop
  endfacet
  facet normal 0.751817 0.659372 0
    outer loop
       vertex 0.379299 0.176776 0.1
       vertex 0.400861 0.152191 0.1
       vertex 0.400861 0.152191 0
    endloop
  endfacet
  facet normal 0.659372 0.751817 0
    outer loop
       vertex 0.379299 0.176776 0
       vertex 0.354714 0.198338 0
       vertex 0.354714 0.198338 0.1
    endloop
  endfacet
  facet normal 0.659372 0.751817 0
    outer loop
       vertex 0.354714 0.198338 0.1
       vertex 0.379299 0.176776 0.1
       vertex 0.379299 0.176776 0
    endloop
  endfacet
  facet normal 0.555561 0.831476 0
    outer loop
       vertex 0.354714 0.198338 0
       vertex 0.327523 0.216506 0
       vertex 0.327523 0.216506 0.1
    endloop
  endfacet
  facet normal 0.555561 0.831476 0
    outer loop
       vertex 0.327523 0.216506 0.1
       vertex 0.354714 0.198338 0.1
       vertex 0.354714 0.198338 0
    endloop
  endfacet
  facet normal 0.442302 0.896866 0
    outer loop
       vertex 0.327523 0.216506 0
       vertex 0.298194 0.23097 0
       vertex 0.298194 0.23097 0.1
    endloop
  endfacet
  facet normal 0.442302 0.896866 0
    outer loop
       vertex 0.298194 0.23097 0.1
       vertex 0.327523 0.216506 0.1
       vertex 0.327523 0.216506 0
    endloop
  endfacet
  facet normal 0.321425 0.946935 0
    outer loop
       vertex 0.298194 0.23097 0
       vertex 0.267228 0.241481 0
       vertex 0.267228 0.241481 0.1
    endloop
  endfacet
  facet normal 0.321425 0.946935 0
    outer loop
       vertex 0.267228 0.241481 0.1
       vertex 0.298194 0.23097 0.1
       vertex 0.298194 0.23097 0
    endloop
  endfacet
  facet normal 0.195096 0.980784 0
    outer loop
       vertex 0.267228 0.241481 0
       vertex 0.235154 0.247861 0
       vertex 0.235154 0.247861 0.1
    endloop
  endfacet
  facet normal 0.195096 0.980784 0
    outer loop
       vertex 0.235154 0.247861 0.1
       vertex 0.267228 0.241481 0.1
       vertex 0.267228 0.241481 0
    endloop
  endfacet
  facet normal 0.0654098 0.997858 0
    outer loop
       vertex 0.202523 0.25 0.1
       vertex 0.235154 0.247861 0.1
       vertex 0.235154 0.247861 0
    endloop
  endfacet
  facet normal 0.0654098 0.997858 -1.0893e-16
    outer loop
       vertex 0.235154 0.247861 0
       vertex 0.202523 0.25 0
       vertex 0.202523 0.25 0.1
    endloop
  endfacet
  facet normal -0.0654098 0.997858 0
    outer loop
       vertex 0.202523 0.25 0
       vertex 0.169891 0.247861 0
       vertex 0.169891 0.247861 0.1
    endloop
  endfacet
  facet normal -0.0654098 0.997858 1.0893e-16
    outer loop
       vertex 0.169891 0.247861 0.1
       vertex 0.202523 0.25 0.1
       vertex 0.202523 0.25 0
    endloop
  endfacet
  facet normal -0.195096 0.980784 0
    outer loop
       vertex 0.169891 0.247861 0
       vertex 0.137818 0.241481 0
       vertex 0.137818 0.241481 0.1
    endloop
  endfacet
  facet normal -0.195096 0.980784 0
    outer loop
       vertex 0.137818 0.241481 0.1
       vertex 0.169891 0.247861 0.1
       vertex 0.169891 0.247861 0
    endloop
  endfacet
  facet normal -0.321425 0.946935 0
    outer loop
       vertex 0.137818 0.241481 0
       vertex 0.106852 0.23097 0
       vertex 0.106852 0.23097 0.1
    endloop
  endfacet
  facet normal -0.321425 0.946935 0
    outer loop
       vertex 0.106852 0.23097 0.1
       vertex 0.137818 0.241481 0.1
       vertex 0.137818 0.241481 0
    endloop
  endfacet
  facet normal -0.442302 0.896866 0
    outer loop
       vertex 0.106852 0.23097 0
       vertex 0.077523 0.216506 0
       vertex 0.077523 0.216506 0.1
    endloop
  endfacet
  facet normal -0.442302 0.896866 0
    outer loop
       vertex 0.077523 0.216506 0.1
       vertex 0.106852 0.23097 0.1
       vertex 0.106852 0.23097 0
    endloop
  endfacet
  facet normal -0.555561 0.831476 0
    outer loop
       vertex 0.077523 0.216506 0
       vertex 0.050332 0.198338 0
       vertex 0.050332 0.198338 0.1
    endloop
  endfacet
  facet normal -0.555561 0.831476 0
    outer loop
       vertex 0.050332 0.198338 0.1
       vertex 0.077523 0.216506 0.1
       vertex 0.077523 0.216506 0
    endloop
  endfacet
  facet normal -0.659372 0.751817 0
    outer loop
       vertex 0.050332 0.198338 0
       vertex 0.025747 0.176776 0
       vertex 0.025747 0.176776 0.1
    endloop
  endfacet
  facet normal -0.659372 0.751817 0
    outer loop
       vertex 0.025747 0.176776 0.1
       vertex 0.050332 0.198338 0.1
       vertex 0.050332 0.198338 0
    endloop
  endfacet
  facet normal -0.751817 0.659372 0
    outer loop
       vertex 0.025747 0.176776 0
       vertex 0.00418496 0.152191 0
       vertex 0.00418496 0.152191 0.1
    endloop
  endfacet
  facet normal -0.751817 0.659372 0
    outer loop
       vertex 0.00418496 0.152191 0.1
       vertex 0.025747 0.176776 0.1
       vertex 0.025747 0.176776 0
    endloop
  endfacet
  facet normal -0.831476 0.555561 0
    outer loop
       vertex 0.00418496 0.152191 0
       vertex -0.013983 0.125 0
       vertex -0.013983 0.125 0.1
    endloop
  endfacet
  facet normal -0.831476 0.555561 0
    outer loop
       vertex -0.013983 0.125 0.1
       vertex 0.00418496 0.152191 0.1
       vertex 0.00418496 0.152191 0
    endloop
  endfacet
  facet normal -0.896866 0.442302 0
    outer loop
       vertex -0.013983 0.125 0
       vertex -0.028447 0.095671 0
       vertex -0.028447 0.095671 0.1
    endloop
  endfacet
  facet normal -0.896866 0.442302 0
    outer loop
       vertex -0.028447 0.095671 0.1
       vertex -0.013983 0.125 0.1
       vertex -0.013983 0.125 0
    endloop
  endfacet
  facet normal -0.946935 0.321425 0
    outer loop
       vertex -0.028447 0.095671 0
       vertex -0.038958 0.064705 0
       vertex -0.038958 0.064705 0.1
    endloop
  endfacet
  facet normal -0.946935 0.321425 0
    outer loop
       vertex -0.038958 0.064705 0.1
       vertex -0.028447 0.095671 0.1
       vertex -0.028447 0.095671 0
    endloop
  endfacet
  facet normal -0.980784 0.195096 0
    outer loop
       vertex -0.038958 0.064705 0
       vertex -0.045338 0.0326315 0
       vertex -0.045338 0.0326315 0.1
    endloop
  endfacet
  facet normal -0.980784 0.195096 0
    outer loop
       vertex -0.045338 0.0326315 0.1
       vertex -0.038958 0.064705 0.1
       vertex -0.038958 0.064705 0
    endloop
  endfacet
  facet normal -0.997858 0.0654098 0
    outer loop
       vertex -0.047477 8.32665e-17 0.1
       vertex -0.045338 0.0326315 0.1
       vertex -0.045338 0.0326315 0
    endloop
  endfacet
  facet normal -0.997858 0.0654098 -1.08928e-16
    outer loop
       vertex -0.045338 0.0326315 0
       vertex -0.047477 -8.32665e-17 0
       vertex -0.047477 8.32665e-17 0.1
    endloop
  endfacet
  facet normal -0.997858 -0.0654098 0
    outer loop
       vertex -0.047477 -8.32665e-17 0
       vertex -0.045338 -0.0326315 0
       vertex -0.045338 -0.0326315 0.1
    endloop
  endfacet
  facet normal -0.997858 -0.0654098 1.08928e-16
    outer loop
       vertex -0.045338 -0.0326315 0.1
       vertex -0.047477 8.32665e-17 0.1
       vertex -0.047477 -8.32665e-17 0
    endloop
  endfacet
  facet normal -0.980784 -0.195096 0
    outer loop
       vertex -0.045338 -0.0326315 0
       vertex -0.038958 -0.064705 0
       vertex -0.038958 -0.064705 0.1
    endloop
  endfacet
  facet normal -0.980784 -0.195096 0
    outer loop
       vertex -0.038958 -0.064705 0.1
       vertex -0.045338 -0.0326315 0.1
       vertex -0.045338 -0.0326315 0
    endloop
  endfacet
  facet normal -0.946935 -0.321425 0
    outer loop
       vertex -0.038958 -0.064705 0
       vertex -0.028447 -0.095671 0
       vertex -0.028447 -0.095671 0.1
    endloop
  endfacet
  facet normal -0.946935 -0.321425 0
    outer loop
       vertex -0.028447 -0.095671 0.1
       vertex -0.038958 -0.064705 0.1
       vertex -0.038958 -0.064705 0
    endloop
  endfacet
  facet normal -0.896866 -0.442302 0
    outer loop
       vertex -0.028447 -0.095671 0
       vertex -0.013983 -0.125 0
       vertex -0.013983 -0.125 0.1
    endloop
  endfacet
  facet normal -0.896866 -0.442302 0
    outer loop
       vertex -0.013983 -0.125 0.1
       vertex -0.028447 -0.095671 0.1
       vertex -0.028447 -0.095671 0
    endloop
  endfacet
  facet normal -0.831476 -0.555561 0
    outer loop
       vertex -0.013983 -0.125 0
       vertex 0.00418496 -0.152191 0
       vertex 0.00418496 -0.152191 0.1
    endloop
  endfacet
  facet normal -0.831476 -0.555561 0
    outer loop
       vertex 0.00418496 -0.152191 0.1
       vertex -0.013983 -0.125 0.1
       vertex -0.013983 -0.125 0
    endloop
  endfacet
  facet normal -0.751817 -0.659372 0
    outer loop
       vertex 0.00418496 -0.152191 0
       vertex 0.025747 -0.176776 0
       vertex 0.025747 -0.176776 0.1
    endloop
  endfacet
  facet normal -0.751817 -0.659372 0
    outer loop
       vertex 0.025747 -0.176776 0.1
       vertex 0.00418496 -0.152191 0.1
       vertex 0.00418496 -0.152191 0
    endloop
  endfacet
  facet normal 0.659372 -0.751817 0
    outer loop
       vertex 0.379299 -0.176776 0
       vertex 0.379299 -0.176776 0.1
       vertex 0.354714 -0.198338 0.1
    endloop
  endfacet
  facet normal 0.659372 -0.751817 0
    outer loop
       vertex 0.354714 -0.198338 0.1
       vertex 0.354714 -0.198338 0
       vertex 0.379299 -0.176776 0
    endloop
  endfacet
  facet normal 0.555561 -0.831476 0
    outer loop
       vertex 0.354714 -0.198338 0
       vertex 0.354714 -0.198338 0.1
       vertex 0.327523 -0.216506 0.1
    endloop
  endfacet
  facet normal 0.555561 -0.831476 0
    outer loop
       vertex 0.327523 -0.216506 0.1
       vertex 0.327523 -0.216506 0
       vertex 0.354714 -0.198338 0
    endloop
  endfacet
  facet normal 0.442302 -0.896866 0
    outer loop
       vertex 0.327523 -0.216506 0
       vertex 0.327523 -0.216506 0.1
       vertex 0.298194 -0.23097 0.1
    endloop
  endfacet
  facet normal 0.442302 -0.896866 0
    outer loop
       vertex 0.298194 -0.23097 0.1
       vertex 0.298194 -0.23097 0
       vertex 0.327523 -0.216506 0
    endloop
  endfacet
  facet normal 0.321425 -0.946935 0
    outer loop
       vertex 0.298194 -0.23097 0
       vertex 0.298194 -0.23097 0.1
       vertex 0.267228 -0.241481 0.1
    endloop
  endfacet
  facet normal 0.321425 -0.946935 0
    outer loop
       vertex 0.267228 -0.241481 0.1
       vertex 0.267228 -0.241481 0
       vertex 0.298194 -0.23097 0
    endloop
  endfacet
  facet normal 0.195096 -0.980784 0
    outer loop
       vertex 0.267228 -0.241481 0
       vertex 0.267228 -0.241481 0.1
       vertex 0.235154 -0.247861 0.1
    endloop
  endfacet
  facet normal 0.195096 -0.980784 0
    outer loop
       vertex 0.235154 -0.247861 0.1
       vertex 0.235154 -0.247861 0
       vertex 0.267228 -0.241481 0
    endloop
  endfacet
  facet normal 0.0654098 -0.997858 0
    outer loop
       vertex 0.202523 -0.25 0
       vertex 0.235154 -0.247861 0
       vertex 0.235154 -0.247861 0.1
    endloop
  endfacet
  facet normal 0.0654098 -0.997858 1.0893e-16
    outer loop
       vertex 0.235154 -0.247861 0.1
       vertex 0.202523 -0.25 0.1
       vertex 0.202523 -0.25 0
    endloop
  endfacet
  facet normal -0.0654098 -0.997858 0
    outer loop
       vertex 0.202523 -0.25 0.1
       vertex 0.169891 -0.247861 0.1
       vertex 0.169891 -0.247861 0
    endloop
  endfacet
  facet normal -0.0654098 -0.997858 -1.0893e-16
    outer loop
       vertex 0.169891 -0.247861 0
       vertex 0.202523 -0.25 0
       vertex 0.202523 -0.25 0.1
    endloop
  endfacet
  facet normal -0.195096 -0.980784 0
    outer loop
       vertex 0.169891 -0.247861 0
       vertex 0.169891 -0.247861 0.1
       vertex 0.137818 -0.241481 0.1
    endloop
  endfacet
  facet normal -0.195096 -0.980784 -0
    outer loop
       vertex 0.137818 -0.241481 0.1
       vertex 0.137818 -0.241481 0
       vertex 0.169891 -0.247861 0
    endloop
  endfacet
  facet normal -0.321425 -0.946935 0
    outer loop
       vertex 0.137818 -0.241481 0
       vertex 0.137818 -0.241481 0.1
       vertex 0.106852 -0.23097 0.1
    endloop
  endfacet
  facet normal -0.321425 -0.946935 -0
    outer loop
       vertex 0.106852 -0.23097 0.1
       vertex 0.106852 -0.23097 0
       vertex 0.137818 -0.241481 0
    endloop
  endfacet
  facet normal -0.442302 -0.896866 0
    outer loop
       vertex 0.106852 -0.23097 0
       vertex 0.106852 -0.23097 0.1
       vertex 0.077523 -0.216506 0.1
    endloop
  endfacet
  facet normal -0.442302 -0.896866 -0
    outer loop
       vertex 0.077523 -0.216506 0.1
       vertex 0.077523 -0.216506 0
       vertex 0.106852 -0.23097 0
    endloop
  endfacet
  facet normal -0.555561 -0.831476 0
    outer loop
       vertex 0.077523 -0.216506 0
       vertex 0.077523 -0.216506 0.1
       vertex 0.050332 -0.198338 0.1
    endloop
  endfacet
  facet normal -0.555561 -0.831476 -0
    outer loop
       vertex 0.050332 -0.198338 0.1
       vertex 0.050332 -0.198338 0
       vertex 0.077523 -0.216506 0
    endloop
  endfacet
  facet normal -0.659372 -0.751817 0
    outer loop
       vertex 0.050332 -0.198338 0
       vertex 0.050332 -0.198338 0.1
       vertex 0.025747 -0.176776 0.1
    endloop
  endfacet
  facet normal -0.659372 -0.751817 -0
    outer loop
       vertex 0.025747 -0.176776 0.1
       vertex 0.025747 -0.176776 0
       vertex 0.050332 -0.198338 0
    endloop
  endfacet
endsolid cylinder
