solid cylinder
  facet normal 0.751817 -0.659372 0
    outer loop
       vertex 0.272529 -0.176776 0
       vertex 0.294091 -0.152191 0
       vertex 0.294091 -0.152191 0.1
    endloop
  endfacet
  facet normal 0.751817 -0.659372 0
    outer loop
       vertex 0.294091 -0.152191 0.1
       vertex 0.272529 -0.176776 0.1
       vertex 0.272529 -0.176776 0
    endloop
  endfacet
  facet normal 0.831476 -0.555561 0
    outer loop
       vertex 0.294091 -0.152191 0
       vertex 0.312259 -0.125 0
       vertex 0.312259 -0.125 0.1
    endloop
  endfacet
  facet normal 0.831476 -0.555561 0
    outer loop
       vertex 0.312259 -0.125 0.1
       vertex 0.294091 -0.152191 0.1
       vertex 0.294091 -0.152191 0
    endloop
  endfacet
  facet normal 0.896866 -0.442302 0
    outer loop
       vertex 0.312259 -0.125 0
       vertex 0.326723 -0.095671 0
       vertex 0.326723 -0.095671 0.1
    endloop
  endfacet
  facet normal 0.896866 -0.442302 0
    outer loop
       vertex 0.326723 -0.095671 0.1
       vertex 0.312259 -0.125 0.1
       vertex 0.312259 -0.125 0
    endloop
  endfacet
  facet normal 0.946935 -0.321425 0
    outer loop
       vertex 0.326723 -0.095671 0
       vertex 0.337234 -0.064705 0
       vertex 0.337234 -0.064705 0.1
    endloop
  endfacet
  facet normal 0.946935 -0.321425 0
    outer loop
       vertex 0.337234 -0.064705 0.1
       vertex 0.326723 -0.095671 0.1
       vertex 0.326723 -0.095671 0
    endloop
  endfacet
  facet normal 0.980784 -0.195096 0
    outer loop
       vertex 0.337234 -0.064705 0
       vertex 0.343614 -0.0326315 0
       vertex 0.343614 -0.0326315 0.1
    endloop
  endfacet
  facet normal 0.980784 -0.195096 0
    outer loop
       vertex 0.343614 -0.0326315 0.1
       vertex 0.337234 -0.064705 0.1
       vertex 0.337234 -0.064705 0
    endloop
  endfacet
  facet normal 0.997858 -0.0654098 0
    outer loop
       vertex 0.345753 -8.32665e-17 0.1
       vertex 0.343614 -0.0326315 0.1
       vertex 0.343614 -0.0326315 0
    endloop
  endfacet
  facet normal 0.997858 -0.0654098 -1.08928e-16
    outer loop
       vertex 0.343614 -0.0326315 0
       vertex 0.345753 8.32665e-17 0
       vertex 0.345753 -8.32665e-17 0.1
    endloop
  endfacet
  facet normal 0.997858 0.0654098 0
    outer loop
       vertex 0.345753 8.32665e-17 0
       vertex 0.343614 0.0326315 0
       vertex 0.343614 0.0326315 0.1
    endloop
  endfacet
  facet normal 0.997858 0.0654098 1.08928e-16
    outer loop
       vertex 0.343614 0.0326315 0.1
       vertex 0.345753 -8.32665e-17 0.1
       vertex 0.345753 8.32665e-17 0
    endloop
  endfacet
  facet normal 0.980784 0.195096 0
    outer loop
       vertex 0.343614 0.0326315 0
       vertex 0.337234 0.064705 0
       vertex 0.337234 0.064705 0.1
    endloop
  endfacet
  facet normal 0.980784 0.195096 0
    outer loop
       vertex 0.337234 0.064705 0.1
       vertex 0.343614 0.0326315 0.1
       vertex 0.343614 0.0326315 0
    endloop
  endfacet
  facet normal 0.946935 0.321425 0
    outer loop
       vertex 0.337234 0.064705 0
       vertex 0.326723 0.095671 0
       vertex 0.326723 0.095671 0.1
    endloop
  endfacet
  facet normal 0.946935 0.321425 0
    outer loop
       vertex 0.326723 0.095671 0.1
       vertex 0.337234 0.064705 0.1
       vertex 0.337234 0.064705 0
    endloop
  endfacet
  facet normal 0.896866 0.442302 0
    outer loop
       vertex 0.326723 0.095671 0
       vertex 0.312259 0.125 0
       vertex 0.312259 0.125 0.1
    endloop
  endfacet
  facet normal 0.896866 0.442302 0
    outer loop
       vertex 0.312259 0.125 0.1
       vertex 0.326723 0.095671 0.1
       vertex 0.326723 0.095671 0
    endloop
  endfacet
  facet normal 0.831476 0.555561 0
    outer loop
       vertex 0.312259 0.125 0
       vertex 0.294091 0.152191 0
       vertex 0.294091 0.152191 0.1
    endloop
  endfacet
  facet normal 0.831476 0.555561 0
    outer loop
       vertex 0.294091 0.152191 0.1
       vertex 0.312259 0.125 0.1
       vertex 0.312259 0.125 0
    endloop
  endfacet
  facet normal 0.751817 0.659372 0
    outer loop
       vertex 0.294091 0.152191 0
       vertex 0.272529 0.176776 0
       vertex 0.272529 0.176776 0.1
    endloop
  endfacet
  facet normal 0.751817 0.659372 0
    outer loop
       vertex 0.272529 0.176776 0.1
       vertex 0.294091 0.152191 0.1
       vertex 0.294091 0.152191 0
    endloop
  endfacet
  facet normal 0.659372 0.751817 0
    outer loop
       vertex 0.272529 0.176776 0
       vertex 0.247944 0.198338 0
       vertex 0.247944 0.198338 0.1
    endloop
  endfacet
  facet normal 0.659372 0.751817 0
    outer loop
       vertex 0.247944 0.198338 0.1
       vertex 0.272529 0.176776 0.1
       vertex 0.272529 0.176776 0
    endloop
  endfacet
  facet normal 0.555561 0.831476 0
    outer loop
       vertex 0.247944 0.198338 0
       vertex 0.220753 0.216506 0
       vertex 0.220753 0.216506 0.1
    endloop
  endfacet
  facet normal 0.555561 0.831476 0
    outer loop
       vertex 0.220753 0.216506 0.1
       vertex 0.247944 0.198338 0.1
       vertex 0.247944 0.198338 0
    endloop
  endfacet
  facet normal 0.442302 0.896866 0
    outer loop
       vertex 0.220753 0.216506 0
       vertex 0.191424 0.23097 0
       vertex 0.191424 0.23097 0.1
    endloop
  endfacet
  facet normal 0.442302 0.896866 0
    outer loop
       vertex 0.191424 0.23097 0.1
       vertex 0.220753 0.216506 0.1
       vertex 0.220753 0.216506 0
    endloop
  endfacet
  facet normal 0.321425 0.946935 0
    outer loop
       vertex 0.191424 0.23097 0
       vertex 0.160458 0.241481 0
       vertex 0.160458 0.241481 0.1
    endloop
  endfacet
  facet normal 0.321425 0.946935 0
    outer loop
       vertex 0.160458 0.241481 0.1
       vertex 0.191424 0.23097 0.1
       vertex 0.191424 0.23097 0
    endloop
  endfacet
  facet normal 0.195096 0.980784 0
    outer loop
       vertex 0.160458 0.241481 0
       vertex 0.128385 0.247861 0
       vertex 0.128385 0.247861 0.1
    endloop
  endfacet
  facet normal 0.195096 0.980784 0
    outer loop
       vertex 0.128385 0.247861 0.1
       vertex 0.160458 0.241481 0.1
       vertex 0.160458 0.241481 0
    endloop
  endfacet
  facet normal 0.0654098 0.997858 0
    outer loop
       vertex 0.0957531 0.25 0.1
       vertex 0.128385 0.247861 0.1
       vertex 0.128385 0.247861 0
    endloop
  endfacet
  facet normal 0.0654098 0.997858 -1.08928e-16
    outer loop
       vertex 0.128385 0.247861 0
       vertex 0.0957531 0.25 0
       vertex 0.0957531 0.25 0.1
    endloop
  endfacet
  facet normal -0.0654098 0.997858 0
    outer loop
       vertex 0.0957531 0.25 0
       vertex 0.0631216 0.247861 0
       vertex 0.0631216 0.247861 0.1
    endloop
  endfacet
  facet normal -0.0654098 0.997858 1.08928e-16
    outer loop
       vertex 0.0631216 0.247861 0.1
       vertex 0.0957531 0.25 0.1
       vertex 0.0957531 0.25 0
    endloop
  endfacet
  facet normal -0.195096 0.980784 0
    outer loop
       vertex 0.0631216 0.247861 0
       vertex 0.0310481 0.241481 0
       vertex 0.0310481 0.241481 0.1
    endloop
  endfacet
  facet normal -0.195096 0.980784 0
    outer loop
       vertex 0.0310481 0.241481 0.1
       vertex 0.0631216 0.247861 0.1
       vertex 0.0631216 0.247861 0
    endloop
  endfacet
  facet normal -0.321425 0.946935 0
    outer loop
       vertex 0.0310481 0.241481 0
       vertex 8.20869e-05 0.23097 0
       vertex 8.20869e-05 0.23097 0.1
    endloop
  endfacet
  facet normal -0.321425 0.946935 0
    outer loop
       vertex 8.20869e-05 0.23097 0.1
       vertex 0.0310481 0.241481 0.1
       vertex 0.0310481 0.241481 0
    endloop
  endfacet
  facet normal -0.442302 0.896866 0
    outer loop
       vertex 8.20869e-05 0.23097 0
       vertex -0.0292469 0.216506 0
       vertex -0.0292469 0.216506 0.1
    endloop
  endfacet
  facet normal -0.442302 0.896866 0
    outer loop
       vertex -0.0292469 0.216506 0.1
       vertex 8.20869e-05 0.23097 0.1
       vertex 8.20869e-05 0.23097 0
    endloop
  endfacet
  facet normal -0.555561 0.831476 0
    outer loop
       vertex -0.0292469 0.216506 0
       vertex -0.0564379 0.198338 0
       vertex -0.0564379 0.198338 0.1
    endloop
  endfacet
  facet normal -0.555561 0.831476 0
    outer loop
       vertex -0.0564379 0.198338 0.1
       vertex -0.0292469 0.216506 0.1
       vertex -0.0292469 0.216506 0
    endloop
  endfacet
  facet normal -0.659372 0.751817 0
    outer loop
       vertex -0.0564379 0.198338 0
       vertex -0.0810229 0.176776 0
       vertex -0.0810229 0.176776 0.1
    endloop
  endfacet
  facet normal -0.659372 0.751817 0
    outer loop
       vertex -0.0810229 0.176776 0.1
       vertex -0.0564379 0.198338 0.1
       vertex -0.0564379 0.198338 0
    endloop
  endfacet
  facet normal -0.751817 0.659372 0
    outer loop
       vertex -0.0810229 0.176776 0
       vertex -0.102585 0.152191 0
       vertex -0.102585 0.152191 0.1
    endloop
  endfacet
  facet normal -0.751817 0.659372 0
    outer loop
       vertex -0.102585 0.152191 0.1
       vertex -0.0810229 0.176776 0.1
       vertex -0.0810229 0.176776 0
    endloop
  endfacet
  facet normal -0.831476 0.555561 0
    outer loop
       vertex -0.102585 0.152191 0
       vertex -0.120753 0.125 0
       vertex -0.120753 0.125 0.1
    endloop
  endfacet
  facet normal -0.831476 0.555561 0
    outer loop
       vertex -0.120753 0.125 0.1
       vertex -0.102585 0.152191 0.1
       vertex -0.102585 0.152191 0
    endloop
  endfacet
  facet normal -0.896866 0.442302 0
    outer loop
       vertex -0.120753 0.125 0
       vertex -0.135217 0.095671 0
       vertex -0.135217 0.095671 0.1
    endloop
  endfacet
  facet normal -0.896866 0.442302 0
    outer loop
       vertex -0.135217 0.095671 0.1
       vertex -0.120753 0.125 0.1
       vertex -0.120753 0.125 0
    endloop
  endfacet
  facet normal -0.946935 0.321425 0
    outer loop
       vertex -0.135217 0.095671 0
       vertex -0.145728 0.064705 0
       vertex -0.145728 0.064705 0.1
    endloop
  endfacet
  facet normal -0.946935 0.321425 0
    outer loop
       vertex -0.145728 0.064705 0.1
       vertex -0.135217 0.095671 0.1
       vertex -0.135217 0.095671 0
    endloop
  endfacet
  facet normal -0.980784 0.195096 0
    outer loop
       vertex -0.145728 0.064705 0
       vertex -0.152108 0.0326315 0
       vertex -0.152108 0.0326315 0.1
    endloop
  endfacet
  facet normal -0.980784 0.195096 0
    outer loop
       vertex -0.152108 0.0326315 0.1
       vertex -0.145728 0.064705 0.1
       vertex -0.145728 0.064705 0
    endloop
  endfacet
  facet normal -0.997858 0.0654098 0
    outer loop
       vertex -0.154247 8.32665e-17 0.1
       vertex -0.152108 0.0326315 0.1
       vertex -0.152108 0.0326315 0
    endloop
  endfacet
  facet normal -0.997858 0.0654098 -1.08928e-16
    outer loop
       vertex -0.152108 0.0326315 0
       vertex -0.154247 -8.32665e-17 0
       vertex -0.154247 8.32665e-17 0.1
    endloop
  endfacet
  facet normal -0.997858 -0.0654098 0
    outer loop
       vertex -0.154247 -8.32665e-17 0
       vertex -0.152108 -0.0326315 0
       vertex -0.152108 -0.0326315 0.1
    endloop
  endfacet
  facet normal -0.997858 -0.0654098 1.08928e-16
    outer loop
       vertex -0.152108 -0.0326315 0.1
       vertex -0.154247 8.32665e-17 0.1
       vertex -0.154247 -8.32665e-17 0
    endloop
  endfacet
  facet normal -0.980784 -0.195096 0
    outer loop
       vertex -0.152108 -0.0326315 0
       vertex -0.145728 -0.064705 0
       vertex -0.145728 -0.064705 0.1
    endloop
  endfacet
  facet normal -0.980784 -0.195096 0
    outer loop
       vertex -0.145728 -0.064705 0.1
       vertex -0.152108 -0.0326315 0.1
       vertex -0.152108 -0.0326315 0
    endloop
  endfacet
  facet normal -0.946935 -0.321425 0
    outer loop
       vertex -0.145728 -0.064705 0
       vertex -0.135217 -0.095671 0
       vertex -0.135217 -0.095671 0.1
    endloop
  endfacet
  facet normal -0.946935 -0.321425 0
    outer loop
       vertex -0.135217 -0.095671 0.1
       vertex -0.145728 -0.064705 0.1
       vertex -0.145728 -0.064705 0
    endloop
  endfacet
  facet normal -0.896866 -0.442302 0
    outer loop
       vertex -0.135217 -0.095671 0
       vertex -0.120753 -0.125 0
       vertex -0.120753 -0.125 0.1
    endloop
  endfacet
  facet normal -0.896866 -0.442302 0
    outer loop
       vertex -0.120753 -0.125 0.1
       vertex -0.135217 -0.095671 0.1
       vertex -0.135217 -0.095671 0
    endloop
  endfacet
  facet normal -0.831476 -0.555561 0
    outer loop
       vertex -0.120753 -0.125 0
       vertex -0.102585 -0.152191 0
       vertex -0.102585 -0.152191 0.1
    endloop
  endfacet
  facet normal -0.831476 -0.555561 0
    outer loop
       vertex -0.102585 -0.152191 0.1
       vertex -0.120753 -0.125 0.1
       vertex -0.120753 -0.125 0
    endloop
  endfacet
  facet normal -0.751817 -0.659372 0
    outer loop
       vertex -0.102585 -0.152191 0
       vertex -0.0810229 -0.176776 0
       vertex -0.0810229 -0.176776 0.1
    endloop
  endfacet
  facet normal -0.751817 -0.659372 0
    outer loop
       vertex -0.0810229 -0.176776 0.1
       vertex -0.102585 -0.152191 0.1
       vertex -0.102585 -0.152191 0
    endloop
  endfacet
  facet normal 0.659372 -0.751817 0
    outer loop
       vertex 0.272529 -0.176776 0
       vertex 0.272529 -0.176776 0.1
       vertex 0.247944 -0.198338 0.1
    endloop
  endfacet
  facet normal 0.659372 -0.751817 0
    outer loop
       vertex 0.247944 -0.198338 0.1
       vertex 0.247944 -0.198338 0
       vertex 0.272529 -0.176776 0
    endloop
  endfacet
  facet normal 0.555561 -0.831476 0
    outer loop
       vertex 0.247944 -0.198338 0
       vertex 0.247944 -0.198338 0.1
       vertex 0.220753 -0.216506 0.1
    endloop
  endfacet
  facet normal 0.555561 -0.831476 0
    outer loop
       vertex 0.220753 -0.216506 0.1
       vertex 0.220753 -0.216506 0
       vertex 0.247944 -0.198338 0
    endloop
  endfacet
  facet normal 0.442302 -0.896866 0
    outer loop
       vertex 0.220753 -0.216506 0
       vertex 0.220753 -0.216506 0.1
       vertex 0.191424 -0.23097 0.1
    endloop
  endfacet
  facet normal 0.442302 -0.896866 0
    outer loop
       vertex 0.191424 -0.23097 0.1
       vertex 0.191424 -0.23097 0
       vertex 0.220753 -0.216506 0
    endloop
  endfacet
  facet normal 0.321425 -0.946935 0
    outer loop
       vertex 0.191424 -0.23097 0
       vertex 0.191424 -0.23097 0.1
       vertex 0.160458 -0.241481 0.1
    endloop
  endfacet
  facet normal 0.321425 -0.946935 0
    outer loop
       vertex 0.160458 -0.241481 0.1
       vertex 0.160458 -0.241481 0
       vertex 0.191424 -0.23097 0
    endloop
  endfacet
  facet normal 0.195096 -0.980784 0
    outer loop
       vertex 0.160458 -0.241481 0
       vertex 0.160458 -0.241481 0.1
       vertex 0.128385 -0.247861 0.1
    endloop
  endfacet
  facet normal 0.195096 -0.980784 0
    outer loop
       vertex 0.128385 -0.247861 0.1
       vertex 0.128385 -0.247861 0
       vertex 0.160458 -0.241481 0
    endloop
  endfacet
  facet normal 0.0654098 -0.997858 0
    outer loop
       vertex 0.0957531 -0.25 0
       vertex 0.128385 -0.247861 0
       vertex 0.128385 -0.247861 0.1
    endloop
  endfacet
  facet normal 0.0654098 -0.997858 1.08928e-16
    outer loop
       vertex 0.128385 -0.247861 0.1
       vertex 0.0957531 -0.25 0.1
       vertex 0.0957531 -0.25 0
    endloop
  endfacet
  facet normal -0.0654098 -0.997858 0
    outer loop
       vertex 0.0957531 -0.25 0.1
       vertex 0.0631216 -0.247861 0.1
       vertex 0.0631216 -0.247861 0
    endloop
  endfacet
  facet normal -0.0654098 -0.997858 -1.08928e-16
    outer loop
       vertex 0.0631216 -0.247861 0
       vertex 0.0957531 -0.25 0
       vertex 0.0957531 -0.25 0.1
    endloop
  endfacet
  facet normal -0.195096 -0.980784 0
    outer loop
       vertex 0.0631216 -0.247861 0
       vertex 0.0631216 -0.247861 0.1
       vertex 0.0310481 -0.241481 0.1
    endloop
  endfacet
  facet normal -0.195096 -0.980784 -0
    outer loop
       vertex 0.0310481 -0.241481 0.1
       vertex 0.0310481 -0.241481 0
       vertex 0.0631216 -0.247861 0
    endloop
  endfacet
  facet normal -0.321425 -0.946935 0
    outer loop
       vertex 0.0310481 -0.241481 0
       vertex 0.0310481 -0.241481 0.1
       vertex 8.20869e-05 -0.23097 0.1
    endloop
  endfacet
  facet normal -0.321425 -0.946935 -0
    outer loop
       vertex 8.20869e-05 -0.23097 0.1
       vertex 8.20869e-05 -0.23097 0
       vertex 0.0310481 -0.241481 0
    endloop
  endfacet
  facet normal -0.442302 -0.896866 0
    outer loop
       vertex 8.20869e-05 -0.23097 0
       vertex 8.20869e-05 -0.23097 0.1
       vertex -0.0292469 -0.216506 0.1
    endloop
  endfacet
  facet normal -0.442302 -0.896866 -0
    outer loop
       vertex -0.0292469 -0.216506 0.1
       vertex -0.0292469 -0.216506 0
       vertex 8.20869e-05 -0.23097 0
    endloop
  endfacet
  facet normal -0.555561 -0.831476 0
    outer loop
       vertex -0.0292469 -0.216506 0
       vertex -0.0292469 -0.216506 0.1
       vertex -0.0564379 -0.198338 0.1
    endloop
  endfacet
  facet normal -0.555561 -0.831476 -0
    outer loop
       vertex -0.0564379 -0.198338 0.1
       vertex -0.0564379 -0.198338 0
       vertex -0.0292469 -0.216506 0
    endloop
  endfacet
  facet normal -0.659372 -0.751817 0
    outer loop
       vertex -0.0564379 -0.198338 0
       vertex -0.0564379 -0.198338 0.1
       vertex -0.0810229 -0.176776 0.1
    endloop
  endfacet
  facet normal -0.659372 -0.751817 -0
    outer loop
       vertex -0.0810229 -0.176776 0.1
       vertex -0.0810229 -0.176776 0
       vertex -0.0564379 -0.198338 0
    endloop
  endfacet
endsolid cylinder
