solid cylinder
  facet normal 0.751817 -0.659372 0
    outer loop
       vertex 0.152755 -0.176776 0
       vertex 0.174317 -0.152191 0
       vertex 0.174317 -0.152191 0.1
    endloop
  endfacet
  facet normal 0.751817 -0.659372 0
    outer loop
       vertex 0.174317 -0.152191 0.1
       vertex 0.152755 -0.176776 0.1
       vertex 0.152755 -0.176776 0
    endloop
  endfacet
  facet normal 0.831476 -0.555561 0
    outer loop
       vertex 0.174317 -0.152191 0
       vertex 0.192485 -0.125 0
       vertex 0.192485 -0.125 0.1
    endloop
  endfacet
  facet normal 0.831476 -0.555561 0
    outer loop
       vertex 0.192485 -0.125 0.1
       vertex 0.174317 -0.152191 0.1
       vertex 0.174317 -0.152191 0
    endloop
  endfacet
  facet normal 0.896866 -0.442302 0
    outer loop
       vertex 0.192485 -0.125 0
       vertex 0.206949 -0.095671 0
       vertex 0.206949 -0.095671 0.1
    endloop
  endfacet
  facet normal 0.896866 -0.442302 0
    outer loop
       vertex 0.206949 -0.095671 0.1
       vertex 0.192485 -0.125 0.1
       vertex 0.192485 -0.125 0
    endloop
  endfacet
  facet normal 0.946935 -0.321425 0
    outer loop
       vertex 0.206949 -0.095671 0
       vertex 0.21746 -0.064705 0
       vertex 0.21746 -0.064705 0.1
    endloop
  endfacet
  facet normal 0.946935 -0.321425 0
    outer loop
       vertex 0.21746 -0.064705 0.1
       vertex 0.206949 -0.095671 0.1
       vertex 0.206949 -0.095671 0
    endloop
  endfacet
  facet normal 0.980784 -0.195096 0
    outer loop
       vertex 0.21746 -0.064705 0
       vertex 0.22384 -0.0326315 0
       vertex 0.22384 -0.0326315 0.1
    endloop
  endfacet
  facet normal 0.980784 -0.195096 0
    outer loop
       vertex 0.22384 -0.0326315 0.1
       vertex 0.21746 -0.064705 0.1
       vertex 0.21746 -0.064705 0
    endloop
  endfacet
  facet normal 0.997858 -0.0654098 0
    outer loop
       vertex 0.225979 -8.32665e-17 0.1
       vertex 0.22384 -0.0326315 0.1
       vertex 0.22384 -0.0326315 0
    endloop
  endfacet
  facet normal 0.997858 -0.0654098 -1.08928e-16
    outer loop
       vertex 0.22384 -0.0326315 0
       vertex 0.225979 8.32665e-17 0
       vertex 0.225979 -8.32665e-17 0.1
    endloop
  endfacet
  facet normal 0.997858 0.0654098 0
    outer loop
       vertex 0.225979 8.32665e-17 0
       vertex 0.22384 0.0326315 0
       vertex 0.22384 0.0326315 0.1
    endloop
  endfacet
  facet normal 0.997858 0.0654098 1.08928e-16
    outer loop
       vertex 0.22384 0.0326315 0.1
       vertex 0.225979 -8.32665e-17 0.1
       vertex 0.225979 8.32665e-17 0
    endloop
  endfacet
  facet normal 0.980784 0.195096 0
    outer loop
       vertex 0.22384 0.0326315 0
       vertex 0.21746 0.064705 0
       vertex 0.21746 0.064705 0.1
    endloop
  endfacet
  facet normal 0.980784 0.195096 0
    outer loop
       vertex 0.21746 0.064705 0.1
       vertex 0.22384 0.0326315 0.1
       vertex 0.22384 0.0326315 0
    endloop
  endfacet
  facet normal 0.946935 0.321425 0
    outer loop
       vertex 0.21746 0.064705 0
       vertex 0.206949 0.095671 0
       vertex 0.206949 0.095671 0.1
    endloop
  endfacet
  facet normal 0.946935 0.321425 0
    outer loop
       vertex 0.206949 0.095671 0.1
       vertex 0.21746 0.064705 0.1
       vertex 0.21746 0.064705 0
    endloop
  endfacet
  facet normal 0.896866 0.442302 0
    outer loop
       vertex 0.206949 0.095671 0
       vertex 0.192485 0.125 0
       vertex 0.192485 0.125 0.1
    endloop
  endfacet
  facet normal 0.896866 0.442302 0
    outer loop
       vertex 0.192485 0.125 0.1
       vertex 0.206949 0.095671 0.1
       vertex 0.206949 0.095671 0
    endloop
  endfacet
  facet normal 0.831476 0.555561 0
    outer loop
       vertex 0.192485 0.125 0
       vertex 0.174317 0.152191 0
       vertex 0.174317 0.152191 0.1
    endloop
  endfacet
  facet normal 0.831476 0.555561 0
    outer loop
       vertex 0.174317 0.152191 0.1
       vertex 0.192485 0.125 0.1
       vertex 0.192485 0.125 0
    endloop
  endfacet
  facet normal 0.751817 0.659372 0
    outer loop
       vertex 0.174317 0.152191 0
       vertex 0.152755 0.176776 0
       vertex 0.152755 0.176776 0.1
    endloop
  endfacet
  facet normal 0.751817 0.659372 0
    outer loop
       vertex 0.152755 0.176776 0.1
       vertex 0.174317 0.152191 0.1
       vertex 0.174317 0.152191 0
    endloop
  endfacet
  facet normal 0.659372 0.751817 0
    outer loop
       vertex 0.152755 0.176776 0
       vertex 0.12817 0.198338 0
       vertex 0.12817 0.198338 0.1
    endloop
  endfacet
  facet normal 0.659372 0.751817 0
    outer loop
       vertex 0.12817 0.198338 0.1
       vertex 0.152755 0.176776 0.1
       vertex 0.152755 0.176776 0
    endloop
  endfacet
  facet normal 0.555561 0.831476 0
    outer loop
       vertex 0.12817 0.198338 0
       vertex 0.100979 0.216506 0
       vertex 0.100979 0.216506 0.1
    endloop
  endfacet
  facet normal 0.555561 0.831476 0
    outer loop
       vertex 0.100979 0.216506 0.1
       vertex 0.12817 0.198338 0.1
       vertex 0.12817 0.198338 0
    endloop
  endfacet
  facet normal 0.442302 0.896866 0
    outer loop
       vertex 0.100979 0.216506 0
       vertex 0.0716505 0.23097 0
       vertex 0.0716505 0.23097 0.1
    endloop
  endfacet
  facet normal 0.442302 0.896866 0
    outer loop
       vertex 0.0716505 0.23097 0.1
       vertex 0.100979 0.216506 0.1
       vertex 0.100979 0.216506 0
    endloop
  endfacet
  facet normal 0.321425 0.946935 0
    outer loop
       vertex 0.0716505 0.23097 0
       vertex 0.0406845 0.241481 0
       vertex 0.0406845 0.241481 0.1
    endloop
  endfacet
  facet normal 0.321425 0.946935 0
    outer loop
       vertex 0.0406845 0.241481 0.1
       vertex 0.0716505 0.23097 0.1
       vertex 0.0716505 0.23097 0
    endloop
  endfacet
  facet normal 0.195096 0.980784 0
    outer loop
       vertex 0.0406845 0.241481 0
       vertex 0.00861096 0.247861 0
       vertex 0.00861096 0.247861 0.1
    endloop
  endfacet
  facet normal 0.195096 0.980784 0
    outer loop
       vertex 0.00861096 0.247861 0.1
       vertex 0.0406845 0.241481 0.1
       vertex 0.0406845 0.241481 0
    endloop
  endfacet
  facet normal 0.0654098 0.997858 0
    outer loop
       vertex -0.0240205 0.25 0.1
       vertex 0.00861096 0.247861 0.1
       vertex 0.00861096 0.247861 0
    endloop
  endfacet
  facet normal 0.0654098 0.997858 -1.08928e-16
    outer loop
       vertex 0.00861096 0.247861 0
       vertex -0.0240205 0.25 0
       vertex -0.0240205 0.25 0.1
    endloop
  endfacet
  facet normal -0.0654098 0.997858 0
    outer loop
       vertex -0.0240205 0.25 0
       vertex -0.056652 0.247861 0
       vertex -0.056652 0.247861 0.1
    endloop
  endfacet
  facet normal -0.0654098 0.997858 1.0893e-16
    outer loop
       vertex -0.056652 0.247861 0.1
       vertex -0.0240205 0.25 0.1
       vertex -0.0240205 0.25 0
    endloop
  endfacet
  facet normal -0.195096 0.980784 0
    outer loop
       vertex -0.056652 0.247861 0
       vertex -0.0887255 0.241481 0
       vertex -0.0887255 0.241481 0.1
    endloop
  endfacet
  facet normal -0.195096 0.980784 0
    outer loop
       vertex -0.0887255 0.241481 0.1
       vertex -0.056652 0.247861 0.1
       vertex -0.056652 0.247861 0
    endloop
  endfacet
  facet normal -0.321425 0.946935 0
    outer loop
       vertex -0.0887255 0.241481 0
       vertex -0.119692 0.23097 0
       vertex -0.119692 0.23097 0.1
    endloop
  endfacet
  facet normal -0.321425 0.946935 0
    outer loop
       vertex -0.119692 0.23097 0.1
       vertex -0.0887255 0.241481 0.1
       vertex -0.0887255 0.241481 0
    endloop
  endfacet
  facet normal -0.442302 0.896866 0
    outer loop
       vertex -0.119692 0.23097 0
       vertex -0.149021 0.216506 0
       vertex -0.149021 0.216506 0.1
    endloop
  endfacet
  facet normal -0.442302 0.896866 0
    outer loop
       vertex -0.149021 0.216506 0.1
       vertex -0.119692 0.23097 0.1
       vertex -0.119692 0.23097 0
    endloop
  endfacet
  facet normal -0.555561 0.831476 0
    outer loop
       vertex -0.149021 0.216506 0
       vertex -0.176212 0.198338 0
       vertex -0.176212 0.198338 0.1
    endloop
  endfacet
  facet normal -0.555561 0.831476 0
    outer loop
       vertex -0.176212 0.198338 0.1
       vertex -0.149021 0.216506 0.1
       vertex -0.149021 0.216506 0
    endloop
  endfacet
  facet normal -0.659372 0.751817 0
    outer loop
       vertex -0.176212 0.198338 0
       vertex -0.200797 0.176776 0
       vertex -0.200797 0.176776 0.1
    endloop
  endfacet
  facet normal -0.659372 0.751817 0
    outer loop
       vertex -0.200797 0.176776 0.1
       vertex -0.176212 0.198338 0.1
       vertex -0.176212 0.198338 0
    endloop
  endfacet
  facet normal -0.751817 0.659372 0
    outer loop
       vertex -0.200797 0.176776 0
       vertex -0.222359 0.152191 0
       vertex -0.222359 0.152191 0.1
    endloop
  endfacet
  facet normal -0.751817 0.659372 0
    outer loop
       vertex -0.222359 0.152191 0.1
       vertex -0.200797 0.176776 0.1
       vertex -0.200797 0.176776 0
    endloop
  endfacet
  facet normal -0.831476 0.555561 0
    outer loop
       vertex -0.222359 0.152191 0
       vertex -0.240527 0.125 0
       vertex -0.240527 0.125 0.1
    endloop
  endfacet
  facet normal -0.831476 0.555561 0
    outer loop
       vertex -0.240527 0.125 0.1
       vertex -0.222359 0.152191 0.1
       vertex -0.222359 0.152191 0
    endloop
  endfacet
  facet normal -0.896866 0.442302 0
    outer loop
       vertex -0.240527 0.125 0
       vertex -0.254991 0.095671 0
       vertex -0.254991 0.095671 0.1
    endloop
  endfacet
  facet normal -0.896866 0.442302 0
    outer loop
       vertex -0.254991 0.095671 0.1
       vertex -0.240527 0.125 0.1
       vertex -0.240527 0.125 0
    endloop
  endfacet
  facet normal -0.946935 0.321425 0
    outer loop
       vertex -0.254991 0.095671 0
       vertex -0.265502 0.064705 0
       vertex -0.265502 0.064705 0.1
    endloop
  endfacet
  facet normal -0.946935 0.321425 0
    outer loop
       vertex -0.265502 0.064705 0.1
       vertex -0.254991 0.095671 0.1
       vertex -0.254991 0.095671 0
    endloop
  endfacet
  facet normal -0.980784 0.195096 0
    outer loop
       vertex -0.265502 0.064705 0
       vertex -0.271882 0.0326315 0
       vertex -0.271882 0.0326315 0.1
    endloop
  endfacet
  facet normal -0.980784 0.195096 0
    outer loop
       vertex -0.271882 0.0326315 0.1
       vertex -0.265502 0.064705 0.1
       vertex -0.265502 0.064705 0
    endloop
  endfacet
  facet normal -0.997858 0.0654098 0
    outer loop
       vertex -0.274021 8.32665e-17 0.1
       vertex -0.271882 0.0326315 0.1
       vertex -0.271882 0.0326315 0
    endloop
  endfacet
  facet normal -0.997858 0.0654098 -1.08928e-16
    outer loop
       vertex -0.271882 0.0326315 0
       vertex -0.274021 -8.32665e-17 0
       vertex -0.274021 8.32665e-17 0.1
    endloop
  endfacet
  facet normal -0.997858 -0.0654098 0
    outer loop
       vertex -0.274021 -8.32665e-17 0
       vertex -0.271882 -0.0326315 0
       vertex -0.271882 -0.0326315 0.1
    endloop
  endfacet
  facet normal -0.997858 -0.0654098 1.08928e-16
    outer loop
       vertex -0.271882 -0.0326315 0.1
       vertex -0.274021 8.32665e-17 0.1
       vertex -0.274021 -8.32665e-17 0
    endloop
  endfacet
  facet normal -0.980784 -0.195096 0
    outer loop
       vertex -0.271882 -0.0326315 0
       vertex -0.265502 -0.064705 0
       vertex -0.265502 -0.064705 0.1
    endloop
  endfacet
  facet normal -0.980784 -0.195096 0
    outer loop
       vertex -0.265502 -0.064705 0.1
       vertex -0.271882 -0.0326315 0.1
       vertex -0.271882 -0.0326315 0
    endloop
  endfacet
  facet normal -0.946935 -0.321425 0
    outer loop
       vertex -0.265502 -0.064705 0
       vertex -0.254991 -0.095671 0
       vertex -0.254991 -0.095671 0.1
    endloop
  endfacet
  facet normal -0.946935 -0.321425 0
    outer loop
       vertex -0.254991 -0.095671 0.1
       vertex -0.265502 -0.064705 0.1
       vertex -0.265502 -0.064705 0
    endloop
  endfacet
  facet normal -0.896866 -0.442302 0
    outer loop
       vertex -0.254991 -0.095671 0
       vertex -0.240527 -0.125 0
       vertex -0.240527 -0.125 0.1
    endloop
  endfacet
  facet normal -0.896866 -0.442302 0
    outer loop
       vertex -0.240527 -0.125 0.1
       vertex -0.254991 -0.095671 0.1
       vertex -0.254991 -0.095671 0
    endloop
  endfacet
  facet normal -0.831476 -0.555561 0
    outer loop
       vertex -0.240527 -0.125 0
       vertex -0.222359 -0.152191 0
       vertex -0.222359 -0.152191 0.1
    endloop
  endfacet
  facet normal -0.831476 -0.555561 0
    outer loop
       vertex -0.222359 -0.152191 0.1
       vertex -0.240527 -0.125 0.1
       vertex -0.240527 -0.125 0
    endloop
  endfacet
  facet normal -0.751817 -0.659372 0
    outer loop
       vertex -0.222359 -0.152191 0
       vertex -0.200797 -0.176776 0
       vertex -0.200797 -0.176776 0.1
    endloop
  endfacet
  facet normal -0.751817 -0.659372 0
    outer loop
       vertex -0.200797 -0.176776 0.1
       vertex -0.222359 -0.152191 0.1
       vertex -0.222359 -0.152191 0
    endloop
  endfacet
  facet normal 0.659372 -0.751817 0
    outer loop
       vertex 0.152755 -0.176776 0
       vertex 0.152755 -0.176776 0.1
       vertex 0.12817 -0.198338 0.1
    endloop
  endfacet
  facet normal 0.659372 -0.751817 0
    outer loop
       vertex 0.12817 -0.198338 0.1
       vertex 0.12817 -0.198338 0
       vertex 0.152755 -0.176776 0
    endloop
  endfacet
  facet normal 0.555561 -0.831476 0
    outer loop
       vertex 0.12817 -0.198338 0
       vertex 0.12817 -0.198338 0.1
       vertex 0.100979 -0.216506 0.1
    endloop
  endfacet
  facet normal 0.555561 -0.831476 0
    outer loop
       vertex 0.100979 -0.216506 0.1
       vertex 0.100979 -0.216506 0
       vertex 0.12817 -0.198338 0
    endloop
  endfacet
  facet normal 0.442302 -0.896866 0
    outer loop
       vertex 0.100979 -0.216506 0
       vertex 0.100979 -0.216506 0.1
       vertex 0.0716505 -0.23097 0.1
    endloop
  endfacet
  facet normal 0.442302 -0.896866 0
    outer loop
       vertex 0.0716505 -0.23097 0.1
       vertex 0.0716505 -0.23097 0
       vertex 0.100979 -0.216506 0
    endloop
  endfacet
  facet normal 0.321425 -0.946935 0
    outer loop
       vertex 0.0716505 -0.23097 0
       vertex 0.0716505 -0.23097 0.1
       vertex 0.0406845 -0.241481 0.1
    endloop
  endfacet
  facet normal 0.321425 -0.946935 0
    outer loop
       vertex 0.0406845 -0.241481 0.1
       vertex 0.0406845 -0.241481 0
       vertex 0.0716505 -0.23097 0
    endloop
  endfacet
  facet normal 0.195096 -0.980784 0
    outer loop
       vertex 0.0406845 -0.241481 0
       vertex 0.0406845 -0.241481 0.1
       vertex 0.00861096 -0.247861 0.1
    endloop
  endfacet
  facet normal 0.195096 -0.980784 0
    outer loop
       vertex 0.00861096 -0.247861 0.1
       vertex 0.00861096 -0.247861 0
       vertex 0.0406845 -0.241481 0
    endloop
  endfacet
  facet normal 0.0654098 -0.997858 0
    outer loop
       vertex -0.0240205 -0.25 0
       vertex 0.00861096 -0.247861 0
       vertex 0.00861096 -0.247861 0.1
    endloop
  endfacet
  facet normal 0.0654098 -0.997858 1.08928e-16
    outer loop
       vertex 0.00861096 -0.247861 0.1
       vertex -0.0240205 -0.25 0.1
       vertex -0.0240205 -0.25 0
    endloop
  endfacet
  facet normal -0.0654098 -0.997858 0
    outer loop
       vertex -0.0240205 -0.25 0.1
       vertex -0.056652 -0.247861 0.1
       vertex -0.056652 -0.247861 0
    endloop
  endfacet
  facet normal -0.0654098 -0.997858 -1.0893e-16
    outer loop
       vertex -0.056652 -0.247861 0
       vertex -0.0240205 -0.25 0
       vertex -0.0240205 -0.25 0.1
    endloop
  endfacet
  facet normal -0.195096 -0.980784 0
    outer loop
       vertex -0.056652 -0.247861 0
       vertex -0.056652 -0.247861 0.1
       vertex -0.0887255 -0.241481 0.1
    endloop
  endfacet
  facet normal -0.195096 -0.980784 -0
    outer loop
       vertex -0.0887255 -0.241481 0.1
       vertex -0.0887255 -0.241481 0
       vertex -0.056652 -0.247861 0
    endloop
  endfacet
  facet normal -0.321425 -0.946935 0
    outer loop
       vertex -0.0887255 -0.241481 0
       vertex -0.0887255 -0.241481 0.1
       vertex -0.119692 -0.23097 0.1
    endloop
  endfacet
  facet normal -0.321425 -0.946935 -0
    outer loop
       vertex -0.119692 -0.23097 0.1
       vertex -0.119692 -0.23097 0
       vertex -0.0887255 -0.241481 0
    endloop
  endfacet
  facet normal -0.442302 -0.896866 0
    outer loop
       vertex -0.119692 -0.23097 0
       vertex -0.119692 -0.23097 0.1
       vertex -0.149021 -0.216506 0.1
    endloop
  endfacet
  facet normal -0.442302 -0.896866 -0
    outer loop
       vertex -0.149021 -0.216506 0.1
       vertex -0.149021 -0.216506 0
       vertex -0.119692 -0.23097 0
    endloop
  endfacet
  facet normal -0.555561 -0.831476 0
    outer loop
       vertex -0.149021 -0.216506 0
       vertex -0.149021 -0.216506 0.1
       vertex -0.176212 -0.198338 0.1
    endloop
  endfacet
  facet normal -0.555561 -0.831476 -0
    outer loop
       vertex -0.176212 -0.198338 0.1
       vertex -0.176212 -0.198338 0
       vertex -0.149021 -0.216506 0
    endloop
  endfacet
  facet normal -0.659372 -0.751817 0
    outer loop
       vertex -0.176212 -0.198338 0
       vertex -0.176212 -0.198338 0.1
       vertex -0.200797 -0.176776 0.1
    endloop
  endfacet
  facet normal -0.659372 -0.751817 -0
    outer loop
       vertex -0.200797 -0.176776 0.1
       vertex -0.200797 -0.176776 0
       vertex -0.176212 -0.198338 0
    endloop
  endfacet
endsolid cylinder
