solid cylinder
  facet normal 0.751817 -0.659372 0
    outer loop
       vertex 0.304653 -0.176776 0
       vertex 0.326215 -0.152191 0
       vertex 0.326215 -0.152191 0.1
    endloop
  endfacet
  facet normal 0.751817 -0.659372 0
    outer loop
       vertex 0.326215 -0.152191 0.1
       vertex 0.304653 -0.176776 0.1
       vertex 0.304653 -0.176776 0
    endloop
  endfacet
  facet normal 0.831476 -0.555561 0
    outer loop
       vertex 0.326215 -0.152191 0
       vertex 0.344383 -0.125 0
       vertex 0.344383 -0.125 0.1
    endloop
  endfacet
  facet normal 0.831476 -0.555561 0
    outer loop
       vertex 0.344383 -0.125 0.1
       vertex 0.326215 -0.152191 0.1
       vertex 0.326215 -0.152191 0
    endloop
  endfacet
  facet normal 0.896866 -0.442302 0
    outer loop
       vertex 0.344383 -0.125 0
       vertex 0.358847 -0.095671 0
       vertex 0.358847 -0.095671 0.1
    endloop
  endfacet
  facet normal 0.896866 -0.442302 0
    outer loop
       vertex 0.358847 -0.095671 0.1
       vertex 0.344383 -0.125 0.1
       vertex 0.344383 -0.125 0
    endloop
  endfacet
  facet normal 0.946935 -0.321425 0
    outer loop
       vertex 0.358847 -0.095671 0
       vertex 0.369358 -0.064705 0
       vertex 0.369358 -0.064705 0.1
    endloop
  endfacet
  facet normal 0.946935 -0.321425 0
    outer loop
       vertex 0.369358 -0.064705 0.1
       vertex 0.358847 -0.095671 0.1
       vertex 0.358847 -0.095671 0
    endloop
  endfacet
  facet normal 0.980784 -0.195096 0
    outer loop
       vertex 0.369358 -0.064705 0
       vertex 0.375738 -0.0326315 0
       vertex 0.375738 -0.0326315 0.1
    endloop
  endfacet
  facet normal 0.980784 -0.195096 0
    outer loop
       vertex 0.375738 -0.0326315 0.1
       vertex 0.369358 -0.064705 0.1
       vertex 0.369358 -0.064705 0
    endloop
  endfacet
  facet normal 0.997858 -0.0654098 0
    outer loop
       vertex 0.377877 -8.32665e-17 0.1
       vertex 0.375738 -0.0326315 0.1
       vertex 0.375738 -0.0326315 0
    endloop
  endfacet
  facet normal 0.997858 -0.0654098 -1.08928e-16
    outer loop
       vertex 0.375738 -0.0326315 0
       vertex 0.377877 8.32665e-17 0
       vertex 0.377877 -8.32665e-17 0.1
    endloop
  endfacet
  facet normal 0.997858 0.0654098 0
    outer loop
       vertex 0.377877 8.32665e-17 0
       vertex 0.375738 0.0326315 0
       vertex 0.375738 0.0326315 0.1
    endloop
  endfacet
  facet normal 0.997858 0.0654098 1.08928e-16
    outer loop
       vertex 0.375738 0.0326315 0.1
       vertex 0.377877 -8.32665e-17 0.1
       vertex 0.377877 8.32665e-17 0
    endloop
  endfacet
  facet normal 0.980784 0.195096 0
    outer loop
       vertex 0.375738 0.0326315 0
       vertex 0.369358 0.064705 0
       vertex 0.369358 0.064705 0.1
    endloop
  endfacet
  facet normal 0.980784 0.195096 0
    outer loop
       vertex 0.369358 0.064705 0.1
       vertex 0.375738 0.0326315 0.1
       vertex 0.375738 0.0326315 0
    endloop
  endfacet
  facet normal 0.946935 0.321425 0
    outer loop
       vertex 0.369358 0.064705 0
       vertex 0.358847 0.095671 0
       vertex 0.358847 0.095671 0.1
    endloop
  endfacet
  facet normal 0.946935 0.321425 0
    outer loop
       vertex 0.358847 0.095671 0.1
       vertex 0.369358 0.064705 0.1
       vertex 0.369358 0.064705 0
    endloop
  endfacet
  facet normal 0.896866 0.442302 0
    outer loop
       vertex 0.358847 0.095671 0
       vertex 0.344383 0.125 0
       vertex 0.344383 0.125 0.1
    endloop
  endfacet
  facet normal 0.896866 0.442302 0
    outer loop
       vertex 0.344383 0.125 0.1
       vertex 0.358847 0.095671 0.1
       vertex 0.358847 0.095671 0
    endloop
  endfacet
  facet normal 0.831476 0.555561 0
    outer loop
       vertex 0.344383 0.125 0
       vertex 0.326215 0.152191 0
       vertex 0.326215 0.152191 0.1
    endloop
  endfacet
  facet normal 0.831476 0.555561 0
    outer loop
       vertex 0.326215 0.152191 0.1
       vertex 0.344383 0.125 0.1
       vertex 0.344383 0.125 0
    endloop
  endfacet
  facet normal 0.751817 0.659372 0
    outer loop
       vertex 0.326215 0.152191 0
       vertex 0.304653 0.176776 0
       vertex 0.304653 0.176776 0.1
    endloop
  endfacet
  facet normal 0.751817 0.659372 0
    outer loop
       vertex 0.304653 0.176776 0.1
       vertex 0.326215 0.152191 0.1
       vertex 0.326215 0.152191 0
    endloop
  endfacet
  facet normal 0.659372 0.751817 0
    outer loop
       vertex 0.304653 0.176776 0
       vertex 0.280068 0.198338 0
       vertex 0.280068 0.198338 0.1
    endloop
  endfacet
  facet normal 0.659372 0.751817 0
    outer loop
       vertex 0.280068 0.198338 0.1
       vertex 0.304653 0.176776 0.1
       vertex 0.304653 0.176776 0
    endloop
  endfacet
  facet normal 0.555561 0.831476 0
    outer loop
       vertex 0.280068 0.198338 0
       vertex 0.252877 0.216506 0
       vertex 0.252877 0.216506 0.1
    endloop
  endfacet
  facet normal 0.555561 0.831476 0
    outer loop
       vertex 0.252877 0.216506 0.1
       vertex 0.280068 0.198338 0.1
       vertex 0.280068 0.198338 0
    endloop
  endfacet
  facet normal 0.442302 0.896866 0
    outer loop
       vertex 0.252877 0.216506 0
       vertex 0.223548 0.23097 0
       vertex 0.223548 0.23097 0.1
    endloop
  endfacet
  facet normal 0.442302 0.896866 0
    outer loop
       vertex 0.223548 0.23097 0.1
       vertex 0.252877 0.216506 0.1
       vertex 0.252877 0.216506 0
    endloop
  endfacet
  facet normal 0.321425 0.946935 0
    outer loop
       vertex 0.223548 0.23097 0
       vertex 0.192582 0.241481 0
       vertex 0.192582 0.241481 0.1
    endloop
  endfacet
  facet normal 0.321425 0.946935 0
    outer loop
       vertex 0.192582 0.241481 0.1
       vertex 0.223548 0.23097 0.1
       vertex 0.223548 0.23097 0
    endloop
  endfacet
  facet normal 0.195096 0.980784 0
    outer loop
       vertex 0.192582 0.241481 0
       vertex 0.160508 0.247861 0
       vertex 0.160508 0.247861 0.1
    endloop
  endfacet
  facet normal 0.195096 0.980784 0
    outer loop
       vertex 0.160508 0.247861 0.1
       vertex 0.192582 0.241481 0.1
       vertex 0.192582 0.241481 0
    endloop
  endfacet
  facet normal 0.0654098 0.997858 0
    outer loop
       vertex 0.127877 0.25 0.1
       vertex 0.160508 0.247861 0.1
       vertex 0.160508 0.247861 0
    endloop
  endfacet
  facet normal 0.0654098 0.997858 -1.0893e-16
    outer loop
       vertex 0.160508 0.247861 0
       vertex 0.127877 0.25 0
       vertex 0.127877 0.25 0.1
    endloop
  endfacet
  facet normal -0.0654098 0.997858 0
    outer loop
       vertex 0.127877 0.25 0
       vertex 0.0952451 0.247861 0
       vertex 0.0952451 0.247861 0.1
    endloop
  endfacet
  facet normal -0.0654098 0.997858 1.0893e-16
    outer loop
       vertex 0.0952451 0.247861 0.1
       vertex 0.127877 0.25 0.1
       vertex 0.127877 0.25 0
    endloop
  endfacet
  facet normal -0.195096 0.980784 0
    outer loop
       vertex 0.0952451 0.247861 0
       vertex 0.0631716 0.241481 0
       vertex 0.0631716 0.241481 0.1
    endloop
  endfacet
  facet normal -0.195096 0.980784 0
    outer loop
       vertex 0.0631716 0.241481 0.1
       vertex 0.0952451 0.247861 0.1
       vertex 0.0952451 0.247861 0
    endloop
  endfacet
  facet normal -0.321425 0.946935 0
    outer loop
       vertex 0.0631716 0.241481 0
       vertex 0.0322056 0.23097 0
       vertex 0.0322056 0.23097 0.1
    endloop
  endfacet
  facet normal -0.321425 0.946935 0
    outer loop
       vertex 0.0322056 0.23097 0.1
       vertex 0.0631716 0.241481 0.1
       vertex 0.0631716 0.241481 0
    endloop
  endfacet
  facet normal -0.442302 0.896866 0
    outer loop
       vertex 0.0322056 0.23097 0
       vertex 0.00287661 0.216506 0
       vertex 0.00287661 0.216506 0.1
    endloop
  endfacet
  facet normal -0.442302 0.896866 0
    outer loop
       vertex 0.00287661 0.216506 0.1
       vertex 0.0322056 0.23097 0.1
       vertex 0.0322056 0.23097 0
    endloop
  endfacet
  facet normal -0.555561 0.831476 0
    outer loop
       vertex 0.00287661 0.216506 0
       vertex -0.0243144 0.198338 0
       vertex -0.0243144 0.198338 0.1
    endloop
  endfacet
  facet normal -0.555561 0.831476 0
    outer loop
       vertex -0.0243144 0.198338 0.1
       vertex 0.00287661 0.216506 0.1
       vertex 0.00287661 0.216506 0
    endloop
  endfacet
  facet normal -0.659372 0.751817 0
    outer loop
       vertex -0.0243144 0.198338 0
       vertex -0.0488994 0.176776 0
       vertex -0.0488994 0.176776 0.1
    endloop
  endfacet
  facet normal -0.659372 0.751817 0
    outer loop
       vertex -0.0488994 0.176776 0.1
       vertex -0.0243144 0.198338 0.1
       vertex -0.0243144 0.198338 0
    endloop
  endfacet
  facet normal -0.751817 0.659372 0
    outer loop
       vertex -0.0488994 0.176776 0
       vertex -0.0704614 0.152191 0
       vertex -0.0704614 0.152191 0.1
    endloop
  endfacet
  facet normal -0.751817 0.659372 0
    outer loop
       vertex -0.0704614 0.152191 0.1
       vertex -0.0488994 0.176776 0.1
       vertex -0.0488994 0.176776 0
    endloop
  endfacet
  facet normal -0.831476 0.555561 0
    outer loop
       vertex -0.0704614 0.152191 0
       vertex -0.0886294 0.125 0
       vertex -0.0886294 0.125 0.1
    endloop
  endfacet
  facet normal -0.831476 0.555561 0
    outer loop
       vertex -0.0886294 0.125 0.1
       vertex -0.0704614 0.152191 0.1
       vertex -0.0704614 0.152191 0
    endloop
  endfacet
  facet normal -0.896866 0.442302 0
    outer loop
       vertex -0.0886294 0.125 0
       vertex -0.103093 0.095671 0
       vertex -0.103093 0.095671 0.1
    endloop
  endfacet
  facet normal -0.896866 0.442302 0
    outer loop
       vertex -0.103093 0.095671 0.1
       vertex -0.0886294 0.125 0.1
       vertex -0.0886294 0.125 0
    endloop
  endfacet
  facet normal -0.946935 0.321425 0
    outer loop
       vertex -0.103093 0.095671 0
       vertex -0.113604 0.064705 0
       vertex -0.113604 0.064705 0.1
    endloop
  endfacet
  facet normal -0.946935 0.321425 0
    outer loop
       vertex -0.113604 0.064705 0.1
       vertex -0.103093 0.095671 0.1
       vertex -0.103093 0.095671 0
    endloop
  endfacet
  facet normal -0.980784 0.195096 0
    outer loop
       vertex -0.113604 0.064705 0
       vertex -0.119984 0.0326315 0
       vertex -0.119984 0.0326315 0.1
    endloop
  endfacet
  facet normal -0.980784 0.195096 0
    outer loop
       vertex -0.119984 0.0326315 0.1
       vertex -0.113604 0.064705 0.1
       vertex -0.113604 0.064705 0
    endloop
  endfacet
  facet normal -0.997858 0.0654098 0
    outer loop
       vertex -0.122123 8.32665e-17 0.1
       vertex -0.119984 0.0326315 0.1
       vertex -0.119984 0.0326315 0
    endloop
  endfacet
  facet normal -0.997858 0.0654098 -1.08928e-16
    outer loop
       vertex -0.119984 0.0326315 0
       vertex -0.122123 -8.32665e-17 0
       vertex -0.122123 8.32665e-17 0.1
    endloop
  endfacet
  facet normal -0.997858 -0.0654098 0
    outer loop
       vertex -0.122123 -8.32665e-17 0
       vertex -0.119984 -0.0326315 0
       vertex -0.119984 -0.0326315 0.1
    endloop
  endfacet
  facet normal -0.997858 -0.0654098 1.08928e-16
    outer loop
       vertex -0.119984 -0.0326315 0.1
       vertex -0.122123 8.32665e-17 0.1
       vertex -0.122123 -8.32665e-17 0
    endloop
  endfacet
  facet normal -0.980784 -0.195096 0
    outer loop
       vertex -0.119984 -0.0326315 0
       vertex -0.113604 -0.064705 0
       vertex -0.113604 -0.064705 0.1
    endloop
  endfacet
  facet normal -0.980784 -0.195096 0
    outer loop
       vertex -0.113604 -0.064705 0.1
       vertex -0.119984 -0.0326315 0.1
       vertex -0.119984 -0.0326315 0
    endloop
  endfacet
  facet normal -0.946935 -0.321425 0
    outer loop
       vertex -0.113604 -0.064705 0
       vertex -0.103093 -0.095671 0
       vertex -0.103093 -0.095671 0.1
    endloop
  endfacet
  facet normal -0.946935 -0.321425 0
    outer loop
       vertex -0.103093 -0.095671 0.1
       vertex -0.113604 -0.064705 0.1
       vertex -0.113604 -0.064705 0
    endloop
  endfacet
  facet normal -0.896866 -0.442302 0
    outer loop
       vertex -0.103093 -0.095671 0
       vertex -0.0886294 -0.125 0
       vertex -0.0886294 -0.125 0.1
    endloop
  endfacet
  facet normal -0.896866 -0.442302 0
    outer loop
       vertex -0.0886294 -0.125 0.1
       vertex -0.103093 -0.095671 0.1
       vertex -0.103093 -0.095671 0
    endloop
  endfacet
  facet normal -0.831476 -0.555561 0
    outer loop
       vertex -0.0886294 -0.125 0
       vertex -0.0704614 -0.152191 0
       vertex -0.0704614 -0.152191 0.1
    endloop
  endfacet
  facet normal -0.831476 -0.555561 0
    outer loop
       vertex -0.0704614 -0.152191 0.1
       vertex -0.0886294 -0.125 0.1
       vertex -0.0886294 -0.125 0
    endloop
  endfacet
  facet normal -0.751817 -0.659372 0
    outer loop
       vertex -0.0704614 -0.152191 0
       vertex -0.0488994 -0.176776 0
       vertex -0.0488994 -0.176776 0.1
    endloop
  endfacet
  facet normal -0.751817 -0.659372 0
    outer loop
       vertex -0.0488994 -0.176776 0.1
       vertex -0.0704614 -0.152191 0.1
       vertex -0.0704614 -0.152191 0
    endloop
  endfacet
  facet normal 0.659372 -0.751817 0
    outer loop
       vertex 0.304653 -0.176776 0
       vertex 0.304653 -0.176776 0.1
       vertex 0.280068 -0.198338 0.1
    endloop
  endfacet
  facet normal 0.659372 -0.751817 0
    outer loop
       vertex 0.280068 -0.198338 0.1
       vertex 0.280068 -0.198338 0
       vertex 0.304653 -0.176776 0
    endloop
  endfacet
  facet normal 0.555561 -0.831476 0
    outer loop
       vertex 0.280068 -0.198338 0
       vertex 0.280068 -0.198338 0.1
       vertex 0.252877 -0.216506 0.1
    endloop
  endfacet
  facet normal 0.555561 -0.831476 0
    outer loop
       vertex 0.252877 -0.216506 0.1
       vertex 0.252877 -0.216506 0
       vertex 0.280068 -0.198338 0
    endloop
  endfacet
  facet normal 0.442302 -0.896866 0
    outer loop
       vertex 0.252877 -0.216506 0
       vertex 0.252877 -0.216506 0.1
       vertex 0.223548 -0.23097 0.1
    endloop
  endfacet
  facet normal 0.442302 -0.896866 0
    outer loop
       vertex 0.223548 -0.23097 0.1
       vertex 0.223548 -0.23097 0
       vertex 0.252877 -0.216506 0
    endloop
  endfacet
  facet normal 0.321425 -0.946935 0
    outer loop
       vertex 0.223548 -0.23097 0
       vertex 0.223548 -0.23097 0.1
       vertex 0.192582 -0.241481 0.1
    endloop
  endfacet
  facet normal 0.321425 -0.946935 0
    outer loop
       vertex 0.192582 -0.241481 0.1
       vertex 0.192582 -0.241481 0
       vertex 0.223548 -0.23097 0
    endloop
  endfacet
  facet normal 0.195096 -0.980784 0
    outer loop
       vertex 0.192582 -0.241481 0
       vertex 0.192582 -0.241481 0.1
       vertex 0.160508 -0.247861 0.1
    endloop
  endfacet
  facet normal 0.195096 -0.980784 0
    outer loop
       vertex 0.160508 -0.247861 0.1
       vertex 0.160508 -0.247861 0
       vertex 0.192582 -0.241481 0
    endloop
  endfacet
  facet normal 0.0654098 -0.997858 0
    outer loop
       vertex 0.127877 -0.25 0
       vertex 0.160508 -0.247861 0
       vertex 0.160508 -0.247861 0.1
    endloop
  endfacet
  facet normal 0.0654098 -0.997858 1.0893e-16
    outer loop
       vertex 0.160508 -0.247861 0.1
       vertex 0.127877 -0.25 0.1
       vertex 0.127877 -0.25 0
    endloop
  endfacet
  facet normal -0.0654098 -0.997858 0
    outer loop
       vertex 0.127877 -0.25 0.1
       vertex 0.0952451 -0.247861 0.1
       vertex 0.0952451 -0.247861 0
    endloop
  endfacet
  facet normal -0.0654098 -0.997858 -1.0893e-16
    outer loop
       vertex 0.0952451 -0.247861 0
       vertex 0.127877 -0.25 0
       vertex 0.127877 -0.25 0.1
    endloop
  endfacet
  facet normal -0.195096 -0.980784 0
    outer loop
       vertex 0.0952451 -0.247861 0
       vertex 0.0952451 -0.247861 0.1
       vertex 0.0631716 -0.241481 0.1
    endloop
  endfacet
  facet normal -0.195096 -0.980784 -0
    outer loop
       vertex 0.0631716 -0.241481 0.1
       vertex 0.0631716 -0.241481 0
       vertex 0.0952451 -0.247861 0
    endloop
  endfacet
  facet normal -0.321425 -0.946935 0
    outer loop
       vertex 0.0631716 -0.241481 0
       vertex 0.0631716 -0.241481 0.1
       vertex 0.0322056 -0.23097 0.1
    endloop
  endfacet
  facet normal -0.321425 -0.946935 -0
    outer loop
       vertex 0.0322056 -0.23097 0.1
       vertex 0.0322056 -0.23097 0
       vertex 0.0631716 -0.241481 0
    endloop
  endfacet
  facet normal -0.442302 -0.896866 0
    outer loop
       vertex 0.0322056 -0.23097 0
       vertex 0.0322056 -0.23097 0.1
       vertex 0.00287661 -0.216506 0.1
    endloop
  endfacet
  facet normal -0.442302 -0.896866 -0
    outer loop
       vertex 0.00287661 -0.216506 0.1
       vertex 0.00287661 -0.216506 0
       vertex 0.0322056 -0.23097 0
    endloop
  endfacet
  facet normal -0.555561 -0.831476 0
    outer loop
       vertex 0.00287661 -0.216506 0
       vertex 0.00287661 -0.216506 0.1
       vertex -0.0243144 -0.198338 0.1
    endloop
  endfacet
  facet normal -0.555561 -0.831476 -0
    outer loop
       vertex -0.0243144 -0.198338 0.1
       vertex -0.0243144 -0.198338 0
       vertex 0.00287661 -0.216506 0
    endloop
  endfacet
  facet normal -0.659372 -0.751817 0
    outer loop
       vertex -0.0243144 -0.198338 0
       vertex -0.0243144 -0.198338 0.1
       vertex -0.0488994 -0.176776 0.1
    endloop
  endfacet
  facet normal -0.659372 -0.751817 -0
    outer loop
       vertex -0.0488994 -0.176776 0.1
       vertex -0.0488994 -0.176776 0
       vertex -0.0243144 -0.198338 0
    endloop
  endfacet
endsolid cylinder
