solid cylinder
  facet normal 0.751817 -0.659372 0
    outer loop
       vertex 0.40155 -0.176776 0
       vertex 0.423112 -0.152191 0
       vertex 0.423112 -0.152191 0.1
    endloop
  endfacet
  facet normal 0.751817 -0.659372 0
    outer loop
       vertex 0.423112 -0.152191 0.1
       vertex 0.40155 -0.176776 0.1
       vertex 0.40155 -0.176776 0
    endloop
  endfacet
  facet normal 0.831476 -0.555561 0
    outer loop
       vertex 0.423112 -0.152191 0
       vertex 0.44128 -0.125 0
       vertex 0.44128 -0.125 0.1
    endloop
  endfacet
  facet normal 0.831476 -0.555561 0
    outer loop
       vertex 0.44128 -0.125 0.1
       vertex 0.423112 -0.152191 0.1
       vertex 0.423112 -0.152191 0
    endloop
  endfacet
  facet normal 0.896866 -0.442302 0
    outer loop
       vertex 0.44128 -0.125 0
       vertex 0.455744 -0.095671 0
       vertex 0.455744 -0.095671 0.1
    endloop
  endfacet
  facet normal 0.896866 -0.442302 0
    outer loop
       vertex 0.455744 -0.095671 0.1
       vertex 0.44128 -0.125 0.1
       vertex 0.44128 -0.125 0
    endloop
  endfacet
  facet normal 0.946935 -0.321425 0
    outer loop
       vertex 0.455744 -0.095671 0
       vertex 0.466255 -0.064705 0
       vertex 0.466255 -0.064705 0.1
    endloop
  endfacet
  facet normal 0.946935 -0.321425 0
    outer loop
       vertex 0.466255 -0.064705 0.1
       vertex 0.455744 -0.095671 0.1
       vertex 0.455744 -0.095671 0
    endloop
  endfacet
  facet normal 0.980784 -0.195096 0
    outer loop
       vertex 0.466255 -0.064705 0
       vertex 0.472635 -0.0326315 0
       vertex 0.472635 -0.0326315 0.1
    endloop
  endfacet
  facet normal 0.980784 -0.195096 0
    outer loop
       vertex 0.472635 -0.0326315 0.1
       vertex 0.466255 -0.064705 0.1
       vertex 0.466255 -0.064705 0
    endloop
  endfacet
  facet normal 0.997858 -0.0654098 0
    outer loop
       vertex 0.474774 -8.32665e-17 0.1
       vertex 0.472635 -0.0326315 0.1
       vertex 0.472635 -0.0326315 0
    endloop
  endfacet
  facet normal 0.997858 -0.0654098 -1.08928e-16
    outer loop
       vertex 0.472635 -0.0326315 0
       vertex 0.474774 8.32665e-17 0
       vertex 0.474774 -8.32665e-17 0.1
    endloop
  endfacet
  facet normal 0.997858 0.0654098 0
    outer loop
       vertex 0.474774 8.32665e-17 0
       vertex 0.472635 0.0326315 0
       vertex 0.472635 0.0326315 0.1
    endloop
  endfacet
  facet normal 0.997858 0.0654098 1.08928e-16
    outer loop
       vertex 0.472635 0.0326315 0.1
       vertex 0.474774 -8.32665e-17 0.1
       vertex 0.474774 8.32665e-17 0
    endloop
  endfacet
  facet normal 0.980784 0.195096 0
    outer loop
       vertex 0.472635 0.0326315 0
       vertex 0.466255 0.064705 0
       vertex 0.466255 0.064705 0.1
    endloop
  endfacet
  facet normal 0.980784 0.195096 0
    outer loop
       vertex 0.466255 0.064705 0.1
       vertex 0.472635 0.0326315 0.1
       vertex 0.472635 0.0326315 0
    endloop
  endfacet
  facet normal 0.946935 0.321425 0
    outer loop
       vertex 0.466255 0.064705 0
       vertex 0.455744 0.095671 0
       vertex 0.455744 0.095671 0.1
    endloop
  endfacet
  facet normal 0.946935 0.321425 0
    outer loop
       vertex 0.455744 0.095671 0.1
       vertex 0.466255 0.064705 0.1
       vertex 0.466255 0.064705 0
    endloop
  endfacet
  facet normal 0.896866 0.442302 0
    outer loop
       vertex 0.455744 0.095671 0
       vertex 0.44128 0.125 0
       vertex 0.44128 0.125 0.1
    endloop
  endfacet
  facet normal 0.896866 0.442302 0
    outer loop
       vertex 0.44128 0.125 0.1
       vertex 0.455744 0.095671 0.1
       vertex 0.455744 0.095671 0
    endloop
  endfacet
  facet normal 0.831476 0.555561 0
    outer loop
       vertex 0.44128 0.125 0
       vertex 0.423112 0.152191 0
       vertex 0.423112 0.152191 0.1
    endloop
  endfacet
  facet normal 0.831476 0.555561 0
    outer loop
       vertex 0.423112 0.152191 0.1
       vertex 0.44128 0.125 0.1
       vertex 0.44128 0.125 0
    endloop
  endfacet
  facet normal 0.751817 0.659372 0
    outer loop
       vertex 0.423112 0.152191 0
       vertex 0.40155 0.176776 0
       vertex 0.40155 0.176776 0.1
    endloop
  endfacet
  facet normal 0.751817 0.659372 0
    outer loop
       vertex 0.40155 0.176776 0.1
       vertex 0.423112 0.152191 0.1
       vertex 0.423112 0.152191 0
    endloop
  endfacet
  facet normal 0.659372 0.751817 0
    outer loop
       vertex 0.40155 0.176776 0
       vertex 0.376965 0.198338 0
       vertex 0.376965 0.198338 0.1
    endloop
  endfacet
  facet normal 0.659372 0.751817 0
    outer loop
       vertex 0.376965 0.198338 0.1
       vertex 0.40155 0.176776 0.1
       vertex 0.40155 0.176776 0
    endloop
  endfacet
  facet normal 0.555561 0.831476 0
    outer loop
       vertex 0.376965 0.198338 0
       vertex 0.349774 0.216506 0
       vertex 0.349774 0.216506 0.1
    endloop
  endfacet
  facet normal 0.555561 0.831476 0
    outer loop
       vertex 0.349774 0.216506 0.1
       vertex 0.376965 0.198338 0.1
       vertex 0.376965 0.198338 0
    endloop
  endfacet
  facet normal 0.442302 0.896866 0
    outer loop
       vertex 0.349774 0.216506 0
       vertex 0.320445 0.23097 0
       vertex 0.320445 0.23097 0.1
    endloop
  endfacet
  facet normal 0.442302 0.896866 0
    outer loop
       vertex 0.320445 0.23097 0.1
       vertex 0.349774 0.216506 0.1
       vertex 0.349774 0.216506 0
    endloop
  endfacet
  facet normal 0.321425 0.946935 0
    outer loop
       vertex 0.320445 0.23097 0
       vertex 0.289479 0.241481 0
       vertex 0.289479 0.241481 0.1
    endloop
  endfacet
  facet normal 0.321425 0.946935 0
    outer loop
       vertex 0.289479 0.241481 0.1
       vertex 0.320445 0.23097 0.1
       vertex 0.320445 0.23097 0
    endloop
  endfacet
  facet normal 0.195096 0.980784 0
    outer loop
       vertex 0.289479 0.241481 0
       vertex 0.257405 0.247861 0
       vertex 0.257405 0.247861 0.1
    endloop
  endfacet
  facet normal 0.195096 0.980784 0
    outer loop
       vertex 0.257405 0.247861 0.1
       vertex 0.289479 0.241481 0.1
       vertex 0.289479 0.241481 0
    endloop
  endfacet
  facet normal 0.0654098 0.997858 0
    outer loop
       vertex 0.224774 0.25 0.1
       vertex 0.257405 0.247861 0.1
       vertex 0.257405 0.247861 0
    endloop
  endfacet
  facet normal 0.0654098 0.997858 -1.0893e-16
    outer loop
       vertex 0.257405 0.247861 0
       vertex 0.224774 0.25 0
       vertex 0.224774 0.25 0.1
    endloop
  endfacet
  facet normal -0.0654098 0.997858 0
    outer loop
       vertex 0.224774 0.25 0
       vertex 0.192142 0.247861 0
       vertex 0.192142 0.247861 0.1
    endloop
  endfacet
  facet normal -0.0654098 0.997858 1.0893e-16
    outer loop
       vertex 0.192142 0.247861 0.1
       vertex 0.224774 0.25 0.1
       vertex 0.224774 0.25 0
    endloop
  endfacet
  facet normal -0.195096 0.980784 0
    outer loop
       vertex 0.192142 0.247861 0
       vertex 0.160069 0.241481 0
       vertex 0.160069 0.241481 0.1
    endloop
  endfacet
  facet normal -0.195096 0.980784 0
    outer loop
       vertex 0.160069 0.241481 0.1
       vertex 0.192142 0.247861 0.1
       vertex 0.192142 0.247861 0
    endloop
  endfacet
  facet normal -0.321425 0.946935 0
    outer loop
       vertex 0.160069 0.241481 0
       vertex 0.129103 0.23097 0
       vertex 0.129103 0.23097 0.1
    endloop
  endfacet
  facet normal -0.321425 0.946935 0
    outer loop
       vertex 0.129103 0.23097 0.1
       vertex 0.160069 0.241481 0.1
       vertex 0.160069 0.241481 0
    endloop
  endfacet
  facet normal -0.442302 0.896866 0
    outer loop
       vertex 0.129103 0.23097 0
       vertex 0.0997737 0.216506 0
       vertex 0.0997737 0.216506 0.1
    endloop
  endfacet
  facet normal -0.442302 0.896866 0
    outer loop
       vertex 0.0997737 0.216506 0.1
       vertex 0.129103 0.23097 0.1
       vertex 0.129103 0.23097 0
    endloop
  endfacet
  facet normal -0.555561 0.831476 0
    outer loop
       vertex 0.0997737 0.216506 0
       vertex 0.0725827 0.198338 0
       vertex 0.0725827 0.198338 0.1
    endloop
  endfacet
  facet normal -0.555561 0.831476 0
    outer loop
       vertex 0.0725827 0.198338 0.1
       vertex 0.0997737 0.216506 0.1
       vertex 0.0997737 0.216506 0
    endloop
  endfacet
  facet normal -0.659372 0.751817 0
    outer loop
       vertex 0.0725827 0.198338 0
       vertex 0.0479977 0.176776 0
       vertex 0.0479977 0.176776 0.1
    endloop
  endfacet
  facet normal -0.659372 0.751817 0
    outer loop
       vertex 0.0479977 0.176776 0.1
       vertex 0.0725827 0.198338 0.1
       vertex 0.0725827 0.198338 0
    endloop
  endfacet
  facet normal -0.751817 0.659372 0
    outer loop
       vertex 0.0479977 0.176776 0
       vertex 0.0264357 0.152191 0
       vertex 0.0264357 0.152191 0.1
    endloop
  endfacet
  facet normal -0.751817 0.659372 0
    outer loop
       vertex 0.0264357 0.152191 0.1
       vertex 0.0479977 0.176776 0.1
       vertex 0.0479977 0.176776 0
    endloop
  endfacet
  facet normal -0.831476 0.555561 0
    outer loop
       vertex 0.0264357 0.152191 0
       vertex 0.00826771 0.125 0
       vertex 0.00826771 0.125 0.1
    endloop
  endfacet
  facet normal -0.831476 0.555561 0
    outer loop
       vertex 0.00826771 0.125 0.1
       vertex 0.0264357 0.152191 0.1
       vertex 0.0264357 0.152191 0
    endloop
  endfacet
  facet normal -0.896866 0.442302 0
    outer loop
       vertex 0.00826771 0.125 0
       vertex -0.00619629 0.095671 0
       vertex -0.00619629 0.095671 0.1
    endloop
  endfacet
  facet normal -0.896866 0.442302 0
    outer loop
       vertex -0.00619629 0.095671 0.1
       vertex 0.00826771 0.125 0.1
       vertex 0.00826771 0.125 0
    endloop
  endfacet
  facet normal -0.946935 0.321425 0
    outer loop
       vertex -0.00619629 0.095671 0
       vertex -0.0167073 0.064705 0
       vertex -0.0167073 0.064705 0.1
    endloop
  endfacet
  facet normal -0.946935 0.321425 0
    outer loop
       vertex -0.0167073 0.064705 0.1
       vertex -0.00619629 0.095671 0.1
       vertex -0.00619629 0.095671 0
    endloop
  endfacet
  facet normal -0.980784 0.195096 0
    outer loop
       vertex -0.0167073 0.064705 0
       vertex -0.0230873 0.0326315 0
       vertex -0.0230873 0.0326315 0.1
    endloop
  endfacet
  facet normal -0.980784 0.195096 0
    outer loop
       vertex -0.0230873 0.0326315 0.1
       vertex -0.0167073 0.064705 0.1
       vertex -0.0167073 0.064705 0
    endloop
  endfacet
  facet normal -0.997858 0.0654098 0
    outer loop
       vertex -0.0252263 8.32665e-17 0.1
       vertex -0.0230873 0.0326315 0.1
       vertex -0.0230873 0.0326315 0
    endloop
  endfacet
  facet normal -0.997858 0.0654098 -1.08928e-16
    outer loop
       vertex -0.0230873 0.0326315 0
       vertex -0.0252263 -8.32665e-17 0
       vertex -0.0252263 8.32665e-17 0.1
    endloop
  endfacet
  facet normal -0.997858 -0.0654098 0
    outer loop
       vertex -0.0252263 -8.32665e-17 0
       vertex -0.0230873 -0.0326315 0
       vertex -0.0230873 -0.0326315 0.1
    endloop
  endfacet
  facet normal -0.997858 -0.0654098 1.08928e-16
    outer loop
       vertex -0.0230873 -0.0326315 0.1
       vertex -0.0252263 8.32665e-17 0.1
       vertex -0.0252263 -8.32665e-17 0
    endloop
  endfacet
  facet normal -0.980784 -0.195096 0
    outer loop
       vertex -0.0230873 -0.0326315 0
       vertex -0.0167073 -0.064705 0
       vertex -0.0167073 -0.064705 0.1
    endloop
  endfacet
  facet normal -0.980784 -0.195096 0
    outer loop
       vertex -0.0167073 -0.064705 0.1
       vertex -0.0230873 -0.0326315 0.1
       vertex -0.0230873 -0.0326315 0
    endloop
  endfacet
  facet normal -0.946935 -0.321425 0
    outer loop
       vertex -0.0167073 -0.064705 0
       vertex -0.00619629 -0.095671 0
       vertex -0.00619629 -0.095671 0.1
    endloop
  endfacet
  facet normal -0.946935 -0.321425 0
    outer loop
       vertex -0.00619629 -0.095671 0.1
       vertex -0.0167073 -0.064705 0.1
       vertex -0.0167073 -0.064705 0
    endloop
  endfacet
  facet normal -0.896866 -0.442302 0
    outer loop
       vertex -0.00619629 -0.095671 0
       vertex 0.00826771 -0.125 0
       vertex 0.00826771 -0.125 0.1
    endloop
  endfacet
  facet normal -0.896866 -0.442302 0
    outer loop
       vertex 0.00826771 -0.125 0.1
       vertex -0.00619629 -0.095671 0.1
       vertex -0.00619629 -0.095671 0
    endloop
  endfacet
  facet normal -0.831476 -0.555561 0
    outer loop
       vertex 0.00826771 -0.125 0
       vertex 0.0264357 -0.152191 0
       vertex 0.0264357 -0.152191 0.1
    endloop
  endfacet
  facet normal -0.831476 -0.555561 0
    outer loop
       vertex 0.0264357 -0.152191 0.1
       vertex 0.00826771 -0.125 0.1
       vertex 0.00826771 -0.125 0
    endloop
  endfacet
  facet normal -0.751817 -0.659372 0
    outer loop
       vertex 0.0264357 -0.152191 0
       vertex 0.0479977 -0.176776 0
       vertex 0.0479977 -0.176776 0.1
    endloop
  endfacet
  facet normal -0.751817 -0.659372 0
    outer loop
       vertex 0.0479977 -0.176776 0.1
       vertex 0.0264357 -0.152191 0.1
       vertex 0.0264357 -0.152191 0
    endloop
  endfacet
  facet normal 0.659372 -0.751817 0
    outer loop
       vertex 0.40155 -0.176776 0
       vertex 0.40155 -0.176776 0.1
       vertex 0.376965 -0.198338 0.1
    endloop
  endfacet
  facet normal 0.659372 -0.751817 0
    outer loop
       vertex 0.376965 -0.198338 0.1
       vertex 0.376965 -0.198338 0
       vertex 0.40155 -0.176776 0
    endloop
  endfacet
  facet normal 0.555561 -0.831476 0
    outer loop
       vertex 0.376965 -0.198338 0
       vertex 0.376965 -0.198338 0.1
       vertex 0.349774 -0.216506 0.1
    endloop
  endfacet
  facet normal 0.555561 -0.831476 0
    outer loop
       vertex 0.349774 -0.216506 0.1
       vertex 0.349774 -0.216506 0
       vertex 0.376965 -0.198338 0
    endloop
  endfacet
  facet normal 0.442302 -0.896866 0
    outer loop
       vertex 0.349774 -0.216506 0
       vertex 0.349774 -0.216506 0.1
       vertex 0.320445 -0.23097 0.1
    endloop
  endfacet
  facet normal 0.442302 -0.896866 0
    outer loop
       vertex 0.320445 -0.23097 0.1
       vertex 0.320445 -0.23097 0
       vertex 0.349774 -0.216506 0
    endloop
  endfacet
  facet normal 0.321425 -0.946935 0
    outer loop
       vertex 0.320445 -0.23097 0
       vertex 0.320445 -0.23097 0.1
       vertex 0.289479 -0.241481 0.1
    endloop
  endfacet
  facet normal 0.321425 -0.946935 0
    outer loop
       vertex 0.289479 -0.241481 0.1
       vertex 0.289479 -0.241481 0
       vertex 0.320445 -0.23097 0
    endloop
  endfacet
  facet normal 0.195096 -0.980784 0
    outer loop
       vertex 0.289479 -0.241481 0
       vertex 0.289479 -0.241481 0.1
       vertex 0.257405 -0.247861 0.1
    endloop
  endfacet
  facet normal 0.195096 -0.980784 0
    outer loop
       vertex 0.257405 -0.247861 0.1
       vertex 0.257405 -0.247861 0
       vertex 0.289479 -0.241481 0
    endloop
  endfacet
  facet normal 0.0654098 -0.997858 0
    outer loop
       vertex 0.224774 -0.25 0
       vertex 0.257405 -0.247861 0
       vertex 0.257405 -0.247861 0.1
    endloop
  endfacet
  facet normal 0.0654098 -0.997858 1.0893e-16
    outer loop
       vertex 0.257405 -0.247861 0.1
       vertex 0.224774 -0.25 0.1
       vertex 0.224774 -0.25 0
    endloop
  endfacet
  facet normal -0.0654098 -0.997858 0
    outer loop
       vertex 0.224774 -0.25 0.1
       vertex 0.192142 -0.247861 0.1
       vertex 0.192142 -0.247861 0
    endloop
  endfacet
  facet normal -0.0654098 -0.997858 -1.0893e-16
    outer loop
       vertex 0.192142 -0.247861 0
       vertex 0.224774 -0.25 0
       vertex 0.224774 -0.25 0.1
    endloop
  endfacet
  facet normal -0.195096 -0.980784 0
    outer loop
       vertex 0.192142 -0.247861 0
       vertex 0.192142 -0.247861 0.1
       vertex 0.160069 -0.241481 0.1
    endloop
  endfacet
  facet normal -0.195096 -0.980784 -0
    outer loop
       vertex 0.160069 -0.241481 0.1
       vertex 0.160069 -0.241481 0
       vertex 0.192142 -0.247861 0
    endloop
  endfacet
  facet normal -0.321425 -0.946935 0
    outer loop
       vertex 0.160069 -0.241481 0
       vertex 0.160069 -0.241481 0.1
       vertex 0.129103 -0.23097 0.1
    endloop
  endfacet
  facet normal -0.321425 -0.946935 -0
    outer loop
       vertex 0.129103 -0.23097 0.1
       vertex 0.129103 -0.23097 0
       vertex 0.160069 -0.241481 0
    endloop
  endfacet
  facet normal -0.442302 -0.896866 0
    outer loop
       vertex 0.129103 -0.23097 0
       vertex 0.129103 -0.23097 0.1
       vertex 0.0997737 -0.216506 0.1
    endloop
  endfacet
  facet normal -0.442302 -0.896866 -0
    outer loop
       vertex 0.0997737 -0.216506 0.1
       vertex 0.0997737 -0.216506 0
       vertex 0.129103 -0.23097 0
    endloop
  endfacet
  facet normal -0.555561 -0.831476 0
    outer loop
       vertex 0.0997737 -0.216506 0
       vertex 0.0997737 -0.216506 0.1
       vertex 0.0725827 -0.198338 0.1
    endloop
  endfacet
  facet normal -0.555561 -0.831476 -0
    outer loop
       vertex 0.0725827 -0.198338 0.1
       vertex 0.0725827 -0.198338 0
       vertex 0.0997737 -0.216506 0
    endloop
  endfacet
  facet normal -0.659372 -0.751817 0
    outer loop
       vertex 0.0725827 -0.198338 0
       vertex 0.0725827 -0.198338 0.1
       vertex 0.0479977 -0.176776 0.1
    endloop
  endfacet
  facet normal -0.659372 -0.751817 -0
    outer loop
       vertex 0.0479977 -0.176776 0.1
       vertex 0.0479977 -0.176776 0
       vertex 0.0725827 -0.198338 0
    endloop
  endfacet
endsolid cylinder
