solid cylinder
  facet normal 0.751817 -0.659372 0
    outer loop
       vertex 0.330747 -0.176776 0
       vertex 0.352309 -0.152191 0
       vertex 0.352309 -0.152191 0.1
    endloop
  endfacet
  facet normal 0.751817 -0.659372 0
    outer loop
       vertex 0.352309 -0.152191 0.1
       vertex 0.330747 -0.176776 0.1
       vertex 0.330747 -0.176776 0
    endloop
  endfacet
  facet normal 0.831476 -0.555561 0
    outer loop
       vertex 0.352309 -0.152191 0
       vertex 0.370477 -0.125 0
       vertex 0.370477 -0.125 0.1
    endloop
  endfacet
  facet normal 0.831476 -0.555561 0
    outer loop
       vertex 0.370477 -0.125 0.1
       vertex 0.352309 -0.152191 0.1
       vertex 0.352309 -0.152191 0
    endloop
  endfacet
  facet normal 0.896866 -0.442302 0
    outer loop
       vertex 0.370477 -0.125 0
       vertex 0.384941 -0.095671 0
       vertex 0.384941 -0.095671 0.1
    endloop
  endfacet
  facet normal 0.896866 -0.442302 0
    outer loop
       vertex 0.384941 -0.095671 0.1
       vertex 0.370477 -0.125 0.1
       vertex 0.370477 -0.125 0
    endloop
  endfacet
  facet normal 0.946935 -0.321425 0
    outer loop
       vertex 0.384941 -0.095671 0
       vertex 0.395452 -0.064705 0
       vertex 0.395452 -0.064705 0.1
    endloop
  endfacet
  facet normal 0.946935 -0.321425 0
    outer loop
       vertex 0.395452 -0.064705 0.1
       vertex 0.384941 -0.095671 0.1
       vertex 0.384941 -0.095671 0
    endloop
  endfacet
  facet normal 0.980784 -0.195096 0
    outer loop
       vertex 0.395452 -0.064705 0
       vertex 0.401832 -0.0326315 0
       vertex 0.401832 -0.0326315 0.1
    endloop
  endfacet
  facet normal 0.980784 -0.195096 0
    outer loop
       vertex 0.401832 -0.0326315 0.1
       vertex 0.395452 -0.064705 0.1
       vertex 0.395452 -0.064705 0
    endloop
  endfacet
  facet normal 0.997858 -0.0654098 0
    outer loop
       vertex 0.403971 -8.32665e-17 0.1
       vertex 0.401832 -0.0326315 0.1
       vertex 0.401832 -0.0326315 0
    endloop
  endfacet
  facet normal 0.997858 -0.0654098 -1.08928e-16
    outer loop
       vertex 0.401832 -0.0326315 0
       vertex 0.403971 8.32665e-17 0
       vertex 0.403971 -8.32665e-17 0.1
    endloop
  endfacet
  facet normal 0.997858 0.0654098 0
    outer loop
       vertex 0.403971 8.32665e-17 0
       vertex 0.401832 0.0326315 0
       vertex 0.401832 0.0326315 0.1
    endloop
  endfacet
  facet normal 0.997858 0.0654098 1.08928e-16
    outer loop
       vertex 0.401832 0.0326315 0.1
       vertex 0.403971 -8.32665e-17 0.1
       vertex 0.403971 8.32665e-17 0
    endloop
  endfacet
  facet normal 0.980784 0.195096 0
    outer loop
       vertex 0.401832 0.0326315 0
       vertex 0.395452 0.064705 0
       vertex 0.395452 0.064705 0.1
    endloop
  endfacet
  facet normal 0.980784 0.195096 0
    outer loop
       vertex 0.395452 0.064705 0.1
       vertex 0.401832 0.0326315 0.1
       vertex 0.401832 0.0326315 0
    endloop
  endfacet
  facet normal 0.946935 0.321425 0
    outer loop
       vertex 0.395452 0.064705 0
       vertex 0.384941 0.095671 0
       vertex 0.384941 0.095671 0.1
    endloop
  endfacet
  facet normal 0.946935 0.321425 0
    outer loop
       vertex 0.384941 0.095671 0.1
       vertex 0.395452 0.064705 0.1
       vertex 0.395452 0.064705 0
    endloop
  endfacet
  facet normal 0.896866 0.442302 0
    outer loop
       vertex 0.384941 0.095671 0
       vertex 0.370477 0.125 0
       vertex 0.370477 0.125 0.1
    endloop
  endfacet
  facet normal 0.896866 0.442302 0
    outer loop
       vertex 0.370477 0.125 0.1
       vertex 0.384941 0.095671 0.1
       vertex 0.384941 0.095671 0
    endloop
  endfacet
  facet normal 0.831476 0.555561 0
    outer loop
       vertex 0.370477 0.125 0
       vertex 0.352309 0.152191 0
       vertex 0.352309 0.152191 0.1
    endloop
  endfacet
  facet normal 0.831476 0.555561 0
    outer loop
       vertex 0.352309 0.152191 0.1
       vertex 0.370477 0.125 0.1
       vertex 0.370477 0.125 0
    endloop
  endfacet
  facet normal 0.751817 0.659372 0
    outer loop
       vertex 0.352309 0.152191 0
       vertex 0.330747 0.176776 0
       vertex 0.330747 0.176776 0.1
    endloop
  endfacet
  facet normal 0.751817 0.659372 0
    outer loop
       vertex 0.330747 0.176776 0.1
       vertex 0.352309 0.152191 0.1
       vertex 0.352309 0.152191 0
    endloop
  endfacet
  facet normal 0.659372 0.751817 0
    outer loop
       vertex 0.330747 0.176776 0
       vertex 0.306162 0.198338 0
       vertex 0.306162 0.198338 0.1
    endloop
  endfacet
  facet normal 0.659372 0.751817 0
    outer loop
       vertex 0.306162 0.198338 0.1
       vertex 0.330747 0.176776 0.1
       vertex 0.330747 0.176776 0
    endloop
  endfacet
  facet normal 0.555561 0.831476 0
    outer loop
       vertex 0.306162 0.198338 0
       vertex 0.278971 0.216506 0
       vertex 0.278971 0.216506 0.1
    endloop
  endfacet
  facet normal 0.555561 0.831476 0
    outer loop
       vertex 0.278971 0.216506 0.1
       vertex 0.306162 0.198338 0.1
       vertex 0.306162 0.198338 0
    endloop
  endfacet
  facet normal 0.442302 0.896866 0
    outer loop
       vertex 0.278971 0.216506 0
       vertex 0.249642 0.23097 0
       vertex 0.249642 0.23097 0.1
    endloop
  endfacet
  facet normal 0.442302 0.896866 0
    outer loop
       vertex 0.249642 0.23097 0.1
       vertex 0.278971 0.216506 0.1
       vertex 0.278971 0.216506 0
    endloop
  endfacet
  facet normal 0.321425 0.946935 0
    outer loop
       vertex 0.249642 0.23097 0
       vertex 0.218676 0.241481 0
       vertex 0.218676 0.241481 0.1
    endloop
  endfacet
  facet normal 0.321425 0.946935 0
    outer loop
       vertex 0.218676 0.241481 0.1
       vertex 0.249642 0.23097 0.1
       vertex 0.249642 0.23097 0
    endloop
  endfacet
  facet normal 0.195096 0.980784 0
    outer loop
       vertex 0.218676 0.241481 0
       vertex 0.186602 0.247861 0
       vertex 0.186602 0.247861 0.1
    endloop
  endfacet
  facet normal 0.195096 0.980784 0
    outer loop
       vertex 0.186602 0.247861 0.1
       vertex 0.218676 0.241481 0.1
       vertex 0.218676 0.241481 0
    endloop
  endfacet
  facet normal 0.0654098 0.997858 0
    outer loop
       vertex 0.153971 0.25 0.1
       vertex 0.186602 0.247861 0.1
       vertex 0.186602 0.247861 0
    endloop
  endfacet
  facet normal 0.0654098 0.997858 -1.0893e-16
    outer loop
       vertex 0.186602 0.247861 0
       vertex 0.153971 0.25 0
       vertex 0.153971 0.25 0.1
    endloop
  endfacet
  facet normal -0.0654098 0.997858 0
    outer loop
       vertex 0.153971 0.25 0
       vertex 0.121339 0.247861 0
       vertex 0.121339 0.247861 0.1
    endloop
  endfacet
  facet normal -0.0654098 0.997858 1.0893e-16
    outer loop
       vertex 0.121339 0.247861 0.1
       vertex 0.153971 0.25 0.1
       vertex 0.153971 0.25 0
    endloop
  endfacet
  facet normal -0.195096 0.980784 0
    outer loop
       vertex 0.121339 0.247861 0
       vertex 0.0892658 0.241481 0
       vertex 0.0892658 0.241481 0.1
    endloop
  endfacet
  facet normal -0.195096 0.980784 0
    outer loop
       vertex 0.0892658 0.241481 0.1
       vertex 0.121339 0.247861 0.1
       vertex 0.121339 0.247861 0
    endloop
  endfacet
  facet normal -0.321425 0.946935 0
    outer loop
       vertex 0.0892658 0.241481 0
       vertex 0.0582998 0.23097 0
       vertex 0.0582998 0.23097 0.1
    endloop
  endfacet
  facet normal -0.321425 0.946935 0
    outer loop
       vertex 0.0582998 0.23097 0.1
       vertex 0.0892658 0.241481 0.1
       vertex 0.0892658 0.241481 0
    endloop
  endfacet
  facet normal -0.442302 0.896866 0
    outer loop
       vertex 0.0582998 0.23097 0
       vertex 0.0289708 0.216506 0
       vertex 0.0289708 0.216506 0.1
    endloop
  endfacet
  facet normal -0.442302 0.896866 0
    outer loop
       vertex 0.0289708 0.216506 0.1
       vertex 0.0582998 0.23097 0.1
       vertex 0.0582998 0.23097 0
    endloop
  endfacet
  facet normal -0.555561 0.831476 0
    outer loop
       vertex 0.0289708 0.216506 0
       vertex 0.00177983 0.198338 0
       vertex 0.00177983 0.198338 0.1
    endloop
  endfacet
  facet normal -0.555561 0.831476 0
    outer loop
       vertex 0.00177983 0.198338 0.1
       vertex 0.0289708 0.216506 0.1
       vertex 0.0289708 0.216506 0
    endloop
  endfacet
  facet normal -0.659372 0.751817 0
    outer loop
       vertex 0.00177983 0.198338 0
       vertex -0.0228052 0.176776 0
       vertex -0.0228052 0.176776 0.1
    endloop
  endfacet
  facet normal -0.659372 0.751817 0
    outer loop
       vertex -0.0228052 0.176776 0.1
       vertex 0.00177983 0.198338 0.1
       vertex 0.00177983 0.198338 0
    endloop
  endfacet
  facet normal -0.751817 0.659372 0
    outer loop
       vertex -0.0228052 0.176776 0
       vertex -0.0443672 0.152191 0
       vertex -0.0443672 0.152191 0.1
    endloop
  endfacet
  facet normal -0.751817 0.659372 0
    outer loop
       vertex -0.0443672 0.152191 0.1
       vertex -0.0228052 0.176776 0.1
       vertex -0.0228052 0.176776 0
    endloop
  endfacet
  facet normal -0.831476 0.555561 0
    outer loop
       vertex -0.0443672 0.152191 0
       vertex -0.0625352 0.125 0
       vertex -0.0625352 0.125 0.1
    endloop
  endfacet
  facet normal -0.831476 0.555561 0
    outer loop
       vertex -0.0625352 0.125 0.1
       vertex -0.0443672 0.152191 0.1
       vertex -0.0443672 0.152191 0
    endloop
  endfacet
  facet normal -0.896866 0.442302 0
    outer loop
       vertex -0.0625352 0.125 0
       vertex -0.0769992 0.095671 0
       vertex -0.0769992 0.095671 0.1
    endloop
  endfacet
  facet normal -0.896866 0.442302 0
    outer loop
       vertex -0.0769992 0.095671 0.1
       vertex -0.0625352 0.125 0.1
       vertex -0.0625352 0.125 0
    endloop
  endfacet
  facet normal -0.946935 0.321425 0
    outer loop
       vertex -0.0769992 0.095671 0
       vertex -0.0875102 0.064705 0
       vertex -0.0875102 0.064705 0.1
    endloop
  endfacet
  facet normal -0.946935 0.321425 0
    outer loop
       vertex -0.0875102 0.064705 0.1
       vertex -0.0769992 0.095671 0.1
       vertex -0.0769992 0.095671 0
    endloop
  endfacet
  facet normal -0.980784 0.195096 0
    outer loop
       vertex -0.0875102 0.064705 0
       vertex -0.0938902 0.0326315 0
       vertex -0.0938902 0.0326315 0.1
    endloop
  endfacet
  facet normal -0.980784 0.195096 0
    outer loop
       vertex -0.0938902 0.0326315 0.1
       vertex -0.0875102 0.064705 0.1
       vertex -0.0875102 0.064705 0
    endloop
  endfacet
  facet normal -0.997858 0.0654098 0
    outer loop
       vertex -0.0960292 8.32665e-17 0.1
       vertex -0.0938902 0.0326315 0.1
       vertex -0.0938902 0.0326315 0
    endloop
  endfacet
  facet normal -0.997858 0.0654098 -1.08928e-16
    outer loop
       vertex -0.0938902 0.0326315 0
       vertex -0.0960292 -8.32665e-17 0
       vertex -0.0960292 8.32665e-17 0.1
    endloop
  endfacet
  facet normal -0.997858 -0.0654098 0
    outer loop
       vertex -0.0960292 -8.32665e-17 0
       vertex -0.0938902 -0.0326315 0
       vertex -0.0938902 -0.0326315 0.1
    endloop
  endfacet
  facet normal -0.997858 -0.0654098 1.08928e-16
    outer loop
       vertex -0.0938902 -0.0326315 0.1
       vertex -0.0960292 8.32665e-17 0.1
       vertex -0.0960292 -8.32665e-17 0
    endloop
  endfacet
  facet normal -0.980784 -0.195096 0
    outer loop
       vertex -0.0938902 -0.0326315 0
       vertex -0.0875102 -0.064705 0
       vertex -0.0875102 -0.064705 0.1
    endloop
  endfacet
  facet normal -0.980784 -0.195096 0
    outer loop
       vertex -0.0875102 -0.064705 0.1
       vertex -0.0938902 -0.0326315 0.1
       vertex -0.0938902 -0.0326315 0
    endloop
  endfacet
  facet normal -0.946935 -0.321425 0
    outer loop
       vertex -0.0875102 -0.064705 0
       vertex -0.0769992 -0.095671 0
       vertex -0.0769992 -0.095671 0.1
    endloop
  endfacet
  facet normal -0.946935 -0.321425 0
    outer loop
       vertex -0.0769992 -0.095671 0.1
       vertex -0.0875102 -0.064705 0.1
       vertex -0.0875102 -0.064705 0
    endloop
  endfacet
  facet normal -0.896866 -0.442302 0
    outer loop
       vertex -0.0769992 -0.095671 0
       vertex -0.0625352 -0.125 0
       vertex -0.0625352 -0.125 0.1
    endloop
  endfacet
  facet normal -0.896866 -0.442302 0
    outer loop
       vertex -0.0625352 -0.125 0.1
       vertex -0.0769992 -0.095671 0.1
       vertex -0.0769992 -0.095671 0
    endloop
  endfacet
  facet normal -0.831476 -0.555561 0
    outer loop
       vertex -0.0625352 -0.125 0
       vertex -0.0443672 -0.152191 0
       vertex -0.0443672 -0.152191 0.1
    endloop
  endfacet
  facet normal -0.831476 -0.555561 0
    outer loop
       vertex -0.0443672 -0.152191 0.1
       vertex -0.0625352 -0.125 0.1
       vertex -0.0625352 -0.125 0
    endloop
  endfacet
  facet normal -0.751817 -0.659372 0
    outer loop
       vertex -0.0443672 -0.152191 0
       vertex -0.0228052 -0.176776 0
       vertex -0.0228052 -0.176776 0.1
    endloop
  endfacet
  facet normal -0.751817 -0.659372 0
    outer loop
       vertex -0.0228052 -0.176776 0.1
       vertex -0.0443672 -0.152191 0.1
       vertex -0.0443672 -0.152191 0
    endloop
  endfacet
  facet normal 0.659372 -0.751817 0
    outer loop
       vertex 0.330747 -0.176776 0
       vertex 0.330747 -0.176776 0.1
       vertex 0.306162 -0.198338 0.1
    endloop
  endfacet
  facet normal 0.659372 -0.751817 0
    outer loop
       vertex 0.306162 -0.198338 0.1
       vertex 0.306162 -0.198338 0
       vertex 0.330747 -0.176776 0
    endloop
  endfacet
  facet normal 0.555561 -0.831476 0
    outer loop
       vertex 0.306162 -0.198338 0
       vertex 0.306162 -0.198338 0.1
       vertex 0.278971 -0.216506 0.1
    endloop
  endfacet
  facet normal 0.555561 -0.831476 0
    outer loop
       vertex 0.278971 -0.216506 0.1
       vertex 0.278971 -0.216506 0
       vertex 0.306162 -0.198338 0
    endloop
  endfacet
  facet normal 0.442302 -0.896866 0
    outer loop
       vertex 0.278971 -0.216506 0
       vertex 0.278971 -0.216506 0.1
       vertex 0.249642 -0.23097 0.1
    endloop
  endfacet
  facet normal 0.442302 -0.896866 0
    outer loop
       vertex 0.249642 -0.23097 0.1
       vertex 0.249642 -0.23097 0
       vertex 0.278971 -0.216506 0
    endloop
  endfacet
  facet normal 0.321425 -0.946935 0
    outer loop
       vertex 0.249642 -0.23097 0
       vertex 0.249642 -0.23097 0.1
       vertex 0.218676 -0.241481 0.1
    endloop
  endfacet
  facet normal 0.321425 -0.946935 0
    outer loop
       vertex 0.218676 -0.241481 0.1
       vertex 0.218676 -0.241481 0
       vertex 0.249642 -0.23097 0
    endloop
  endfacet
  facet normal 0.195096 -0.980784 0
    outer loop
       vertex 0.218676 -0.241481 0
       vertex 0.218676 -0.241481 0.1
       vertex 0.186602 -0.247861 0.1
    endloop
  endfacet
  facet normal 0.195096 -0.980784 0
    outer loop
       vertex 0.186602 -0.247861 0.1
       vertex 0.186602 -0.247861 0
       vertex 0.218676 -0.241481 0
    endloop
  endfacet
  facet normal 0.0654098 -0.997858 0
    outer loop
       vertex 0.153971 -0.25 0
       vertex 0.186602 -0.247861 0
       vertex 0.186602 -0.247861 0.1
    endloop
  endfacet
  facet normal 0.0654098 -0.997858 1.0893e-16
    outer loop
       vertex 0.186602 -0.247861 0.1
       vertex 0.153971 -0.25 0.1
       vertex 0.153971 -0.25 0
    endloop
  endfacet
  facet normal -0.0654098 -0.997858 0
    outer loop
       vertex 0.153971 -0.25 0.1
       vertex 0.121339 -0.247861 0.1
       vertex 0.121339 -0.247861 0
    endloop
  endfacet
  facet normal -0.0654098 -0.997858 -1.0893e-16
    outer loop
       vertex 0.121339 -0.247861 0
       vertex 0.153971 -0.25 0
       vertex 0.153971 -0.25 0.1
    endloop
  endfacet
  facet normal -0.195096 -0.980784 0
    outer loop
       vertex 0.121339 -0.247861 0
       vertex 0.121339 -0.247861 0.1
       vertex 0.0892658 -0.241481 0.1
    endloop
  endfacet
  facet normal -0.195096 -0.980784 -0
    outer loop
       vertex 0.0892658 -0.241481 0.1
       vertex 0.0892658 -0.241481 0
       vertex 0.121339 -0.247861 0
    endloop
  endfacet
  facet normal -0.321425 -0.946935 0
    outer loop
       vertex 0.0892658 -0.241481 0
       vertex 0.0892658 -0.241481 0.1
       vertex 0.0582998 -0.23097 0.1
    endloop
  endfacet
  facet normal -0.321425 -0.946935 -0
    outer loop
       vertex 0.0582998 -0.23097 0.1
       vertex 0.0582998 -0.23097 0
       vertex 0.0892658 -0.241481 0
    endloop
  endfacet
  facet normal -0.442302 -0.896866 0
    outer loop
       vertex 0.0582998 -0.23097 0
       vertex 0.0582998 -0.23097 0.1
       vertex 0.0289708 -0.216506 0.1
    endloop
  endfacet
  facet normal -0.442302 -0.896866 -0
    outer loop
       vertex 0.0289708 -0.216506 0.1
       vertex 0.0289708 -0.216506 0
       vertex 0.0582998 -0.23097 0
    endloop
  endfacet
  facet normal -0.555561 -0.831476 0
    outer loop
       vertex 0.0289708 -0.216506 0
       vertex 0.0289708 -0.216506 0.1
       vertex 0.00177983 -0.198338 0.1
    endloop
  endfacet
  facet normal -0.555561 -0.831476 -0
    outer loop
       vertex 0.00177983 -0.198338 0.1
       vertex 0.00177983 -0.198338 0
       vertex 0.0289708 -0.216506 0
    endloop
  endfacet
  facet normal -0.659372 -0.751817 0
    outer loop
       vertex 0.00177983 -0.198338 0
       vertex 0.00177983 -0.198338 0.1
       vertex -0.0228052 -0.176776 0.1
    endloop
  endfacet
  facet normal -0.659372 -0.751817 -0
    outer loop
       vertex -0.0228052 -0.176776 0.1
       vertex -0.0228052 -0.176776 0
       vertex 0.00177983 -0.198338 0
    endloop
  endfacet
endsolid cylinder
