solid cylinder
  facet normal 0.751817 -0.659372 0
    outer loop
       vertex 0.225051 -0.176776 0
       vertex 0.246613 -0.152191 0
       vertex 0.246613 -0.152191 0.1
    endloop
  endfacet
  facet normal 0.751817 -0.659372 0
    outer loop
       vertex 0.246613 -0.152191 0.1
       vertex 0.225051 -0.176776 0.1
       vertex 0.225051 -0.176776 0
    endloop
  endfacet
  facet normal 0.831476 -0.555561 0
    outer loop
       vertex 0.246613 -0.152191 0
       vertex 0.264781 -0.125 0
       vertex 0.264781 -0.125 0.1
    endloop
  endfacet
  facet normal 0.831476 -0.555561 0
    outer loop
       vertex 0.264781 -0.125 0.1
       vertex 0.246613 -0.152191 0.1
       vertex 0.246613 -0.152191 0
    endloop
  endfacet
  facet normal 0.896866 -0.442302 0
    outer loop
       vertex 0.264781 -0.125 0
       vertex 0.279245 -0.095671 0
       vertex 0.279245 -0.095671 0.1
    endloop
  endfacet
  facet normal 0.896866 -0.442302 0
    outer loop
       vertex 0.279245 -0.095671 0.1
       vertex 0.264781 -0.125 0.1
       vertex 0.264781 -0.125 0
    endloop
  endfacet
  facet normal 0.946935 -0.321425 0
    outer loop
       vertex 0.279245 -0.095671 0
       vertex 0.289756 -0.064705 0
       vertex 0.289756 -0.064705 0.1
    endloop
  endfacet
  facet normal 0.946935 -0.321425 0
    outer loop
       vertex 0.289756 -0.064705 0.1
       vertex 0.279245 -0.095671 0.1
       vertex 0.279245 -0.095671 0
    endloop
  endfacet
  facet normal 0.980784 -0.195096 0
    outer loop
       vertex 0.289756 -0.064705 0
       vertex 0.296136 -0.0326315 0
       vertex 0.296136 -0.0326315 0.1
    endloop
  endfacet
  facet normal 0.980784 -0.195096 0
    outer loop
       vertex 0.296136 -0.0326315 0.1
       vertex 0.289756 -0.064705 0.1
       vertex 0.289756 -0.064705 0
    endloop
  endfacet
  facet normal 0.997858 -0.0654098 0
    outer loop
       vertex 0.298275 -8.32665e-17 0.1
       vertex 0.296136 -0.0326315 0.1
       vertex 0.296136 -0.0326315 0
    endloop
  endfacet
  facet normal 0.997858 -0.0654098 -1.08928e-16
    outer loop
       vertex 0.296136 -0.0326315 0
       vertex 0.298275 8.32665e-17 0
       vertex 0.298275 -8.32665e-17 0.1
    endloop
  endfacet
  facet normal 0.997858 0.0654098 0
    outer loop
       vertex 0.298275 8.32665e-17 0
       vertex 0.296136 0.0326315 0
       vertex 0.296136 0.0326315 0.1
    endloop
  endfacet
  facet normal 0.997858 0.0654098 1.08928e-16
    outer loop
       vertex 0.296136 0.0326315 0.1
       vertex 0.298275 -8.32665e-17 0.1
       vertex 0.298275 8.32665e-17 0
    endloop
  endfacet
  facet normal 0.980784 0.195096 0
    outer loop
       vertex 0.296136 0.0326315 0
       vertex 0.289756 0.064705 0
       vertex 0.289756 0.064705 0.1
    endloop
  endfacet
  facet normal 0.980784 0.195096 0
    outer loop
       vertex 0.289756 0.064705 0.1
       vertex 0.296136 0.0326315 0.1
       vertex 0.296136 0.0326315 0
    endloop
  endfacet
  facet normal 0.946935 0.321425 0
    outer loop
       vertex 0.289756 0.064705 0
       vertex 0.279245 0.095671 0
       vertex 0.279245 0.095671 0.1
    endloop
  endfacet
  facet normal 0.946935 0.321425 0
    outer loop
       vertex 0.279245 0.095671 0.1
       vertex 0.289756 0.064705 0.1
       vertex 0.289756 0.064705 0
    endloop
  endfacet
  facet normal 0.896866 0.442302 0
    outer loop
       vertex 0.279245 0.095671 0
       vertex 0.264781 0.125 0
       vertex 0.264781 0.125 0.1
    endloop
  endfacet
  facet normal 0.896866 0.442302 0
    outer loop
       vertex 0.264781 0.125 0.1
       vertex 0.279245 0.095671 0.1
       vertex 0.279245 0.095671 0
    endloop
  endfacet
  facet normal 0.831476 0.555561 0
    outer loop
       vertex 0.264781 0.125 0
       vertex 0.246613 0.152191 0
       vertex 0.246613 0.152191 0.1
    endloop
  endfacet
  facet normal 0.831476 0.555561 0
    outer loop
       vertex 0.246613 0.152191 0.1
       vertex 0.264781 0.125 0.1
       vertex 0.264781 0.125 0
    endloop
  endfacet
  facet normal 0.751817 0.659372 0
    outer loop
       vertex 0.246613 0.152191 0
       vertex 0.225051 0.176776 0
       vertex 0.225051 0.176776 0.1
    endloop
  endfacet
  facet normal 0.751817 0.659372 0
    outer loop
       vertex 0.225051 0.176776 0.1
       vertex 0.246613 0.152191 0.1
       vertex 0.246613 0.152191 0
    endloop
  endfacet
  facet normal 0.659372 0.751817 0
    outer loop
       vertex 0.225051 0.176776 0
       vertex 0.200466 0.198338 0
       vertex 0.200466 0.198338 0.1
    endloop
  endfacet
  facet normal 0.659372 0.751817 0
    outer loop
       vertex 0.200466 0.198338 0.1
       vertex 0.225051 0.176776 0.1
       vertex 0.225051 0.176776 0
    endloop
  endfacet
  facet normal 0.555561 0.831476 0
    outer loop
       vertex 0.200466 0.198338 0
       vertex 0.173275 0.216506 0
       vertex 0.173275 0.216506 0.1
    endloop
  endfacet
  facet normal 0.555561 0.831476 0
    outer loop
       vertex 0.173275 0.216506 0.1
       vertex 0.200466 0.198338 0.1
       vertex 0.200466 0.198338 0
    endloop
  endfacet
  facet normal 0.442302 0.896866 0
    outer loop
       vertex 0.173275 0.216506 0
       vertex 0.143946 0.23097 0
       vertex 0.143946 0.23097 0.1
    endloop
  endfacet
  facet normal 0.442302 0.896866 0
    outer loop
       vertex 0.143946 0.23097 0.1
       vertex 0.173275 0.216506 0.1
       vertex 0.173275 0.216506 0
    endloop
  endfacet
  facet normal 0.321425 0.946935 0
    outer loop
       vertex 0.143946 0.23097 0
       vertex 0.11298 0.241481 0
       vertex 0.11298 0.241481 0.1
    endloop
  endfacet
  facet normal 0.321425 0.946935 0
    outer loop
       vertex 0.11298 0.241481 0.1
       vertex 0.143946 0.23097 0.1
       vertex 0.143946 0.23097 0
    endloop
  endfacet
  facet normal 0.195096 0.980784 0
    outer loop
       vertex 0.11298 0.241481 0
       vertex 0.080907 0.247861 0
       vertex 0.080907 0.247861 0.1
    endloop
  endfacet
  facet normal 0.195096 0.980784 0
    outer loop
       vertex 0.080907 0.247861 0.1
       vertex 0.11298 0.241481 0.1
       vertex 0.11298 0.241481 0
    endloop
  endfacet
  facet normal 0.0654098 0.997858 0
    outer loop
       vertex 0.0482755 0.25 0.1
       vertex 0.080907 0.247861 0.1
       vertex 0.080907 0.247861 0
    endloop
  endfacet
  facet normal 0.0654098 0.997858 -1.08928e-16
    outer loop
       vertex 0.080907 0.247861 0
       vertex 0.0482755 0.25 0
       vertex 0.0482755 0.25 0.1
    endloop
  endfacet
  facet normal -0.0654098 0.997858 0
    outer loop
       vertex 0.0482755 0.25 0
       vertex 0.015644 0.247861 0
       vertex 0.015644 0.247861 0.1
    endloop
  endfacet
  facet normal -0.0654098 0.997858 1.08928e-16
    outer loop
       vertex 0.015644 0.247861 0.1
       vertex 0.0482755 0.25 0.1
       vertex 0.0482755 0.25 0
    endloop
  endfacet
  facet normal -0.195096 0.980784 0
    outer loop
       vertex 0.015644 0.247861 0
       vertex -0.0164295 0.241481 0
       vertex -0.0164295 0.241481 0.1
    endloop
  endfacet
  facet normal -0.195096 0.980784 0
    outer loop
       vertex -0.0164295 0.241481 0.1
       vertex 0.015644 0.247861 0.1
       vertex 0.015644 0.247861 0
    endloop
  endfacet
  facet normal -0.321425 0.946935 0
    outer loop
       vertex -0.0164295 0.241481 0
       vertex -0.0473955 0.23097 0
       vertex -0.0473955 0.23097 0.1
    endloop
  endfacet
  facet normal -0.321425 0.946935 0
    outer loop
       vertex -0.0473955 0.23097 0.1
       vertex -0.0164295 0.241481 0.1
       vertex -0.0164295 0.241481 0
    endloop
  endfacet
  facet normal -0.442302 0.896866 0
    outer loop
       vertex -0.0473955 0.23097 0
       vertex -0.0767245 0.216506 0
       vertex -0.0767245 0.216506 0.1
    endloop
  endfacet
  facet normal -0.442302 0.896866 0
    outer loop
       vertex -0.0767245 0.216506 0.1
       vertex -0.0473955 0.23097 0.1
       vertex -0.0473955 0.23097 0
    endloop
  endfacet
  facet normal -0.555561 0.831476 0
    outer loop
       vertex -0.0767245 0.216506 0
       vertex -0.103916 0.198338 0
       vertex -0.103916 0.198338 0.1
    endloop
  endfacet
  facet normal -0.555561 0.831476 0
    outer loop
       vertex -0.103916 0.198338 0.1
       vertex -0.0767245 0.216506 0.1
       vertex -0.0767245 0.216506 0
    endloop
  endfacet
  facet normal -0.659372 0.751817 0
    outer loop
       vertex -0.103916 0.198338 0
       vertex -0.128501 0.176776 0
       vertex -0.128501 0.176776 0.1
    endloop
  endfacet
  facet normal -0.659372 0.751817 0
    outer loop
       vertex -0.128501 0.176776 0.1
       vertex -0.103916 0.198338 0.1
       vertex -0.103916 0.198338 0
    endloop
  endfacet
  facet normal -0.751817 0.659372 0
    outer loop
       vertex -0.128501 0.176776 0
       vertex -0.150063 0.152191 0
       vertex -0.150063 0.152191 0.1
    endloop
  endfacet
  facet normal -0.751817 0.659372 0
    outer loop
       vertex -0.150063 0.152191 0.1
       vertex -0.128501 0.176776 0.1
       vertex -0.128501 0.176776 0
    endloop
  endfacet
  facet normal -0.831476 0.555561 0
    outer loop
       vertex -0.150063 0.152191 0
       vertex -0.168231 0.125 0
       vertex -0.168231 0.125 0.1
    endloop
  endfacet
  facet normal -0.831476 0.555561 0
    outer loop
       vertex -0.168231 0.125 0.1
       vertex -0.150063 0.152191 0.1
       vertex -0.150063 0.152191 0
    endloop
  endfacet
  facet normal -0.896866 0.442302 0
    outer loop
       vertex -0.168231 0.125 0
       vertex -0.182695 0.095671 0
       vertex -0.182695 0.095671 0.1
    endloop
  endfacet
  facet normal -0.896866 0.442302 0
    outer loop
       vertex -0.182695 0.095671 0.1
       vertex -0.168231 0.125 0.1
       vertex -0.168231 0.125 0
    endloop
  endfacet
  facet normal -0.946935 0.321425 0
    outer loop
       vertex -0.182695 0.095671 0
       vertex -0.193206 0.064705 0
       vertex -0.193206 0.064705 0.1
    endloop
  endfacet
  facet normal -0.946935 0.321425 0
    outer loop
       vertex -0.193206 0.064705 0.1
       vertex -0.182695 0.095671 0.1
       vertex -0.182695 0.095671 0
    endloop
  endfacet
  facet normal -0.980784 0.195096 0
    outer loop
       vertex -0.193206 0.064705 0
       vertex -0.199586 0.0326315 0
       vertex -0.199586 0.0326315 0.1
    endloop
  endfacet
  facet normal -0.980784 0.195096 0
    outer loop
       vertex -0.199586 0.0326315 0.1
       vertex -0.193206 0.064705 0.1
       vertex -0.193206 0.064705 0
    endloop
  endfacet
  facet normal -0.997858 0.0654098 0
    outer loop
       vertex -0.201725 8.32665e-17 0.1
       vertex -0.199586 0.0326315 0.1
       vertex -0.199586 0.0326315 0
    endloop
  endfacet
  facet normal -0.997858 0.0654098 -1.08928e-16
    outer loop
       vertex -0.199586 0.0326315 0
       vertex -0.201725 -8.32665e-17 0
       vertex -0.201725 8.32665e-17 0.1
    endloop
  endfacet
  facet normal -0.997858 -0.0654098 0
    outer loop
       vertex -0.201725 -8.32665e-17 0
       vertex -0.199586 -0.0326315 0
       vertex -0.199586 -0.0326315 0.1
    endloop
  endfacet
  facet normal -0.997858 -0.0654098 1.08928e-16
    outer loop
       vertex -0.199586 -0.0326315 0.1
       vertex -0.201725 8.32665e-17 0.1
       vertex -0.201725 -8.32665e-17 0
    endloop
  endfacet
  facet normal -0.980784 -0.195096 0
    outer loop
       vertex -0.199586 -0.0326315 0
       vertex -0.193206 -0.064705 0
       vertex -0.193206 -0.064705 0.1
    endloop
  endfacet
  facet normal -0.980784 -0.195096 0
    outer loop
       vertex -0.193206 -0.064705 0.1
       vertex -0.199586 -0.0326315 0.1
       vertex -0.199586 -0.0326315 0
    endloop
  endfacet
  facet normal -0.946935 -0.321425 0
    outer loop
       vertex -0.193206 -0.064705 0
       vertex -0.182695 -0.095671 0
       vertex -0.182695 -0.095671 0.1
    endloop
  endfacet
  facet normal -0.946935 -0.321425 0
    outer loop
       vertex -0.182695 -0.095671 0.1
       vertex -0.193206 -0.064705 0.1
       vertex -0.193206 -0.064705 0
    endloop
  endfacet
  facet normal -0.896866 -0.442302 0
    outer loop
       vertex -0.182695 -0.095671 0
       vertex -0.168231 -0.125 0
       vertex -0.168231 -0.125 0.1
    endloop
  endfacet
  facet normal -0.896866 -0.442302 0
    outer loop
       vertex -0.168231 -0.125 0.1
       vertex -0.182695 -0.095671 0.1
       vertex -0.182695 -0.095671 0
    endloop
  endfacet
  facet normal -0.831476 -0.555561 0
    outer loop
       vertex -0.168231 -0.125 0
       vertex -0.150063 -0.152191 0
       vertex -0.150063 -0.152191 0.1
    endloop
  endfacet
  facet normal -0.831476 -0.555561 0
    outer loop
       vertex -0.150063 -0.152191 0.1
       vertex -0.168231 -0.125 0.1
       vertex -0.168231 -0.125 0
    endloop
  endfacet
  facet normal -0.751817 -0.659372 0
    outer loop
       vertex -0.150063 -0.152191 0
       vertex -0.128501 -0.176776 0
       vertex -0.128501 -0.176776 0.1
    endloop
  endfacet
  facet normal -0.751817 -0.659372 0
    outer loop
       vertex -0.128501 -0.176776 0.1
       vertex -0.150063 -0.152191 0.1
       vertex -0.150063 -0.152191 0
    endloop
  endfacet
  facet normal 0.659372 -0.751817 0
    outer loop
       vertex 0.225051 -0.176776 0
       vertex 0.225051 -0.176776 0.1
       vertex 0.200466 -0.198338 0.1
    endloop
  endfacet
  facet normal 0.659372 -0.751817 0
    outer loop
       vertex 0.200466 -0.198338 0.1
       vertex 0.200466 -0.198338 0
       vertex 0.225051 -0.176776 0
    endloop
  endfacet
  facet normal 0.555561 -0.831476 0
    outer loop
       vertex 0.200466 -0.198338 0
       vertex 0.200466 -0.198338 0.1
       vertex 0.173275 -0.216506 0.1
    endloop
  endfacet
  facet normal 0.555561 -0.831476 0
    outer loop
       vertex 0.173275 -0.216506 0.1
       vertex 0.173275 -0.216506 0
       vertex 0.200466 -0.198338 0
    endloop
  endfacet
  facet normal 0.442302 -0.896866 0
    outer loop
       vertex 0.173275 -0.216506 0
       vertex 0.173275 -0.216506 0.1
       vertex 0.143946 -0.23097 0.1
    endloop
  endfacet
  facet normal 0.442302 -0.896866 0
    outer loop
       vertex 0.143946 -0.23097 0.1
       vertex 0.143946 -0.23097 0
       vertex 0.173275 -0.216506 0
    endloop
  endfacet
  facet normal 0.321425 -0.946935 0
    outer loop
       vertex 0.143946 -0.23097 0
       vertex 0.143946 -0.23097 0.1
       vertex 0.11298 -0.241481 0.1
    endloop
  endfacet
  facet normal 0.321425 -0.946935 0
    outer loop
       vertex 0.11298 -0.241481 0.1
       vertex 0.11298 -0.241481 0
       vertex 0.143946 -0.23097 0
    endloop
  endfacet
  facet normal 0.195096 -0.980784 0
    outer loop
       vertex 0.11298 -0.241481 0
       vertex 0.11298 -0.241481 0.1
       vertex 0.080907 -0.247861 0.1
    endloop
  endfacet
  facet normal 0.195096 -0.980784 0
    outer loop
       vertex 0.080907 -0.247861 0.1
       vertex 0.080907 -0.247861 0
       vertex 0.11298 -0.241481 0
    endloop
  endfacet
  facet normal 0.0654098 -0.997858 0
    outer loop
       vertex 0.0482755 -0.25 0
       vertex 0.080907 -0.247861 0
       vertex 0.080907 -0.247861 0.1
    endloop
  endfacet
  facet normal 0.0654098 -0.997858 1.08928e-16
    outer loop
       vertex 0.080907 -0.247861 0.1
       vertex 0.0482755 -0.25 0.1
       vertex 0.0482755 -0.25 0
    endloop
  endfacet
  facet normal -0.0654098 -0.997858 0
    outer loop
       vertex 0.0482755 -0.25 0.1
       vertex 0.015644 -0.247861 0.1
       vertex 0.015644 -0.247861 0
    endloop
  endfacet
  facet normal -0.0654098 -0.997858 -1.08928e-16
    outer loop
       vertex 0.015644 -0.247861 0
       vertex 0.0482755 -0.25 0
       vertex 0.0482755 -0.25 0.1
    endloop
  endfacet
  facet normal -0.195096 -0.980784 0
    outer loop
       vertex 0.015644 -0.247861 0
       vertex 0.015644 -0.247861 0.1
       vertex -0.0164295 -0.241481 0.1
    endloop
  endfacet
  facet normal -0.195096 -0.980784 -0
    outer loop
       vertex -0.0164295 -0.241481 0.1
       vertex -0.0164295 -0.241481 0
       vertex 0.015644 -0.247861 0
    endloop
  endfacet
  facet normal -0.321425 -0.946935 0
    outer loop
       vertex -0.0164295 -0.241481 0
       vertex -0.0164295 -0.241481 0.1
       vertex -0.0473955 -0.23097 0.1
    endloop
  endfacet
  facet normal -0.321425 -0.946935 -0
    outer loop
       vertex -0.0473955 -0.23097 0.1
       vertex -0.0473955 -0.23097 0
       vertex -0.0164295 -0.241481 0
    endloop
  endfacet
  facet normal -0.442302 -0.896866 0
    outer loop
       vertex -0.0473955 -0.23097 0
       vertex -0.0473955 -0.23097 0.1
       vertex -0.0767245 -0.216506 0.1
    endloop
  endfacet
  facet normal -0.442302 -0.896866 -0
    outer loop
       vertex -0.0767245 -0.216506 0.1
       vertex -0.0767245 -0.216506 0
       vertex -0.0473955 -0.23097 0
    endloop
  endfacet
  facet normal -0.555561 -0.831476 0
    outer loop
       vertex -0.0767245 -0.216506 0
       vertex -0.0767245 -0.216506 0.1
       vertex -0.103916 -0.198338 0.1
    endloop
  endfacet
  facet normal -0.555561 -0.831476 -0
    outer loop
       vertex -0.103916 -0.198338 0.1
       vertex -0.103916 -0.198338 0
       vertex -0.0767245 -0.216506 0
    endloop
  endfacet
  facet normal -0.659372 -0.751817 0
    outer loop
       vertex -0.103916 -0.198338 0
       vertex -0.103916 -0.198338 0.1
       vertex -0.128501 -0.176776 0.1
    endloop
  endfacet
  facet normal -0.659372 -0.751817 -0
    outer loop
       vertex -0.128501 -0.176776 0.1
       vertex -0.128501 -0.176776 0
       vertex -0.103916 -0.198338 0
    endloop
  endfacet
endsolid cylinder
