solid cylinder
  facet normal 0.751817 -0.659372 0
    outer loop
       vertex 0.37334 -0.176776 0
       vertex 0.394902 -0.152191 0
       vertex 0.394902 -0.152191 0.1
    endloop
  endfacet
  facet normal 0.751817 -0.659372 0
    outer loop
       vertex 0.394902 -0.152191 0.1
       vertex 0.37334 -0.176776 0.1
       vertex 0.37334 -0.176776 0
    endloop
  endfacet
  facet normal 0.831476 -0.555561 0
    outer loop
       vertex 0.394902 -0.152191 0
       vertex 0.41307 -0.125 0
       vertex 0.41307 -0.125 0.1
    endloop
  endfacet
  facet normal 0.831476 -0.555561 0
    outer loop
       vertex 0.41307 -0.125 0.1
       vertex 0.394902 -0.152191 0.1
       vertex 0.394902 -0.152191 0
    endloop
  endfacet
  facet normal 0.896866 -0.442302 0
    outer loop
       vertex 0.41307 -0.125 0
       vertex 0.427534 -0.095671 0
       vertex 0.427534 -0.095671 0.1
    endloop
  endfacet
  facet normal 0.896866 -0.442302 0
    outer loop
       vertex 0.427534 -0.095671 0.1
       vertex 0.41307 -0.125 0.1
       vertex 0.41307 -0.125 0
    endloop
  endfacet
  facet normal 0.946935 -0.321425 0
    outer loop
       vertex 0.427534 -0.095671 0
       vertex 0.438045 -0.064705 0
       vertex 0.438045 -0.064705 0.1
    endloop
  endfacet
  facet normal 0.946935 -0.321425 0
    outer loop
       vertex 0.438045 -0.064705 0.1
       vertex 0.427534 -0.095671 0.1
       vertex 0.427534 -0.095671 0
    endloop
  endfacet
  facet normal 0.980784 -0.195096 0
    outer loop
       vertex 0.438045 -0.064705 0
       vertex 0.444425 -0.0326315 0
       vertex 0.444425 -0.0326315 0.1
    endloop
  endfacet
  facet normal 0.980784 -0.195096 0
    outer loop
       vertex 0.444425 -0.0326315 0.1
       vertex 0.438045 -0.064705 0.1
       vertex 0.438045 -0.064705 0
    endloop
  endfacet
  facet normal 0.997858 -0.0654098 0
    outer loop
       vertex 0.446564 -8.32665e-17 0.1
       vertex 0.444425 -0.0326315 0.1
       vertex 0.444425 -0.0326315 0
    endloop
  endfacet
  facet normal 0.997858 -0.0654098 -1.08928e-16
    outer loop
       vertex 0.444425 -0.0326315 0
       vertex 0.446564 8.32665e-17 0
       vertex 0.446564 -8.32665e-17 0.1
    endloop
  endfacet
  facet normal 0.997858 0.0654098 0
    outer loop
       vertex 0.446564 8.32665e-17 0
       vertex 0.444425 0.0326315 0
       vertex 0.444425 0.0326315 0.1
    endloop
  endfacet
  facet normal 0.997858 0.0654098 1.08928e-16
    outer loop
       vertex 0.444425 0.0326315 0.1
       vertex 0.446564 -8.32665e-17 0.1
       vertex 0.446564 8.32665e-17 0
    endloop
  endfacet
  facet normal 0.980784 0.195096 0
    outer loop
       vertex 0.444425 0.0326315 0
       vertex 0.438045 0.064705 0
       vertex 0.438045 0.064705 0.1
    endloop
  endfacet
  facet normal 0.980784 0.195096 0
    outer loop
       vertex 0.438045 0.064705 0.1
       vertex 0.444425 0.0326315 0.1
       vertex 0.444425 0.0326315 0
    endloop
  endfacet
  facet normal 0.946935 0.321425 0
    outer loop
       vertex 0.438045 0.064705 0
       vertex 0.427534 0.095671 0
       vertex 0.427534 0.095671 0.1
    endloop
  endfacet
  facet normal 0.946935 0.321425 0
    outer loop
       vertex 0.427534 0.095671 0.1
       vertex 0.438045 0.064705 0.1
       vertex 0.438045 0.064705 0
    endloop
  endfacet
  facet normal 0.896866 0.442302 0
    outer loop
       vertex 0.427534 0.095671 0
       vertex 0.41307 0.125 0
       vertex 0.41307 0.125 0.1
    endloop
  endfacet
  facet normal 0.896866 0.442302 0
    outer loop
       vertex 0.41307 0.125 0.1
       vertex 0.427534 0.095671 0.1
       vertex 0.427534 0.095671 0
    endloop
  endfacet
  facet normal 0.831476 0.555561 0
    outer loop
       vertex 0.41307 0.125 0
       vertex 0.394902 0.152191 0
       vertex 0.394902 0.152191 0.1
    endloop
  endfacet
  facet normal 0.831476 0.555561 0
    outer loop
       vertex 0.394902 0.152191 0.1
       vertex 0.41307 0.125 0.1
       vertex 0.41307 0.125 0
    endloop
  endfacet
  facet normal 0.751817 0.659372 0
    outer loop
       vertex 0.394902 0.152191 0
       vertex 0.37334 0.176776 0
       vertex 0.37334 0.176776 0.1
    endloop
  endfacet
  facet normal 0.751817 0.659372 0
    outer loop
       vertex 0.37334 0.176776 0.1
       vertex 0.394902 0.152191 0.1
       vertex 0.394902 0.152191 0
    endloop
  endfacet
  facet normal 0.659372 0.751817 0
    outer loop
       vertex 0.37334 0.176776 0
       vertex 0.348755 0.198338 0
       vertex 0.348755 0.198338 0.1
    endloop
  endfacet
  facet normal 0.659372 0.751817 0
    outer loop
       vertex 0.348755 0.198338 0.1
       vertex 0.37334 0.176776 0.1
       vertex 0.37334 0.176776 0
    endloop
  endfacet
  facet normal 0.555561 0.831476 0
    outer loop
       vertex 0.348755 0.198338 0
       vertex 0.321564 0.216506 0
       vertex 0.321564 0.216506 0.1
    endloop
  endfacet
  facet normal 0.555561 0.831476 0
    outer loop
       vertex 0.321564 0.216506 0.1
       vertex 0.348755 0.198338 0.1
       vertex 0.348755 0.198338 0
    endloop
  endfacet
  facet normal 0.442302 0.896866 0
    outer loop
       vertex 0.321564 0.216506 0
       vertex 0.292235 0.23097 0
       vertex 0.292235 0.23097 0.1
    endloop
  endfacet
  facet normal 0.442302 0.896866 0
    outer loop
       vertex 0.292235 0.23097 0.1
       vertex 0.321564 0.216506 0.1
       vertex 0.321564 0.216506 0
    endloop
  endfacet
  facet normal 0.321425 0.946935 0
    outer loop
       vertex 0.292235 0.23097 0
       vertex 0.261269 0.241481 0
       vertex 0.261269 0.241481 0.1
    endloop
  endfacet
  facet normal 0.321425 0.946935 0
    outer loop
       vertex 0.261269 0.241481 0.1
       vertex 0.292235 0.23097 0.1
       vertex 0.292235 0.23097 0
    endloop
  endfacet
  facet normal 0.195096 0.980784 0
    outer loop
       vertex 0.261269 0.241481 0
       vertex 0.229196 0.247861 0
       vertex 0.229196 0.247861 0.1
    endloop
  endfacet
  facet normal 0.195096 0.980784 0
    outer loop
       vertex 0.229196 0.247861 0.1
       vertex 0.261269 0.241481 0.1
       vertex 0.261269 0.241481 0
    endloop
  endfacet
  facet normal 0.0654098 0.997858 0
    outer loop
       vertex 0.196564 0.25 0.1
       vertex 0.229196 0.247861 0.1
       vertex 0.229196 0.247861 0
    endloop
  endfacet
  facet normal 0.0654098 0.997858 -1.0893e-16
    outer loop
       vertex 0.229196 0.247861 0
       vertex 0.196564 0.25 0
       vertex 0.196564 0.25 0.1
    endloop
  endfacet
  facet normal -0.0654098 0.997858 0
    outer loop
       vertex 0.196564 0.25 0
       vertex 0.163933 0.247861 0
       vertex 0.163933 0.247861 0.1
    endloop
  endfacet
  facet normal -0.0654098 0.997858 1.0893e-16
    outer loop
       vertex 0.163933 0.247861 0.1
       vertex 0.196564 0.25 0.1
       vertex 0.196564 0.25 0
    endloop
  endfacet
  facet normal -0.195096 0.980784 0
    outer loop
       vertex 0.163933 0.247861 0
       vertex 0.131859 0.241481 0
       vertex 0.131859 0.241481 0.1
    endloop
  endfacet
  facet normal -0.195096 0.980784 0
    outer loop
       vertex 0.131859 0.241481 0.1
       vertex 0.163933 0.247861 0.1
       vertex 0.163933 0.247861 0
    endloop
  endfacet
  facet normal -0.321425 0.946935 0
    outer loop
       vertex 0.131859 0.241481 0
       vertex 0.100893 0.23097 0
       vertex 0.100893 0.23097 0.1
    endloop
  endfacet
  facet normal -0.321425 0.946935 0
    outer loop
       vertex 0.100893 0.23097 0.1
       vertex 0.131859 0.241481 0.1
       vertex 0.131859 0.241481 0
    endloop
  endfacet
  facet normal -0.442302 0.896866 0
    outer loop
       vertex 0.100893 0.23097 0
       vertex 0.0715641 0.216506 0
       vertex 0.0715641 0.216506 0.1
    endloop
  endfacet
  facet normal -0.442302 0.896866 0
    outer loop
       vertex 0.0715641 0.216506 0.1
       vertex 0.100893 0.23097 0.1
       vertex 0.100893 0.23097 0
    endloop
  endfacet
  facet normal -0.555561 0.831476 0
    outer loop
       vertex 0.0715641 0.216506 0
       vertex 0.0443731 0.198338 0
       vertex 0.0443731 0.198338 0.1
    endloop
  endfacet
  facet normal -0.555561 0.831476 0
    outer loop
       vertex 0.0443731 0.198338 0.1
       vertex 0.0715641 0.216506 0.1
       vertex 0.0715641 0.216506 0
    endloop
  endfacet
  facet normal -0.659372 0.751817 0
    outer loop
       vertex 0.0443731 0.198338 0
       vertex 0.0197881 0.176776 0
       vertex 0.0197881 0.176776 0.1
    endloop
  endfacet
  facet normal -0.659372 0.751817 0
    outer loop
       vertex 0.0197881 0.176776 0.1
       vertex 0.0443731 0.198338 0.1
       vertex 0.0443731 0.198338 0
    endloop
  endfacet
  facet normal -0.751817 0.659372 0
    outer loop
       vertex 0.0197881 0.176776 0
       vertex -0.00177386 0.152191 0
       vertex -0.00177386 0.152191 0.1
    endloop
  endfacet
  facet normal -0.751817 0.659372 0
    outer loop
       vertex -0.00177386 0.152191 0.1
       vertex 0.0197881 0.176776 0.1
       vertex 0.0197881 0.176776 0
    endloop
  endfacet
  facet normal -0.831476 0.555561 0
    outer loop
       vertex -0.00177386 0.152191 0
       vertex -0.0199419 0.125 0
       vertex -0.0199419 0.125 0.1
    endloop
  endfacet
  facet normal -0.831476 0.555561 0
    outer loop
       vertex -0.0199419 0.125 0.1
       vertex -0.00177386 0.152191 0.1
       vertex -0.00177386 0.152191 0
    endloop
  endfacet
  facet normal -0.896866 0.442302 0
    outer loop
       vertex -0.0199419 0.125 0
       vertex -0.0344059 0.095671 0
       vertex -0.0344059 0.095671 0.1
    endloop
  endfacet
  facet normal -0.896866 0.442302 0
    outer loop
       vertex -0.0344059 0.095671 0.1
       vertex -0.0199419 0.125 0.1
       vertex -0.0199419 0.125 0
    endloop
  endfacet
  facet normal -0.946935 0.321425 0
    outer loop
       vertex -0.0344059 0.095671 0
       vertex -0.0449169 0.064705 0
       vertex -0.0449169 0.064705 0.1
    endloop
  endfacet
  facet normal -0.946935 0.321425 0
    outer loop
       vertex -0.0449169 0.064705 0.1
       vertex -0.0344059 0.095671 0.1
       vertex -0.0344059 0.095671 0
    endloop
  endfacet
  facet normal -0.980784 0.195096 0
    outer loop
       vertex -0.0449169 0.064705 0
       vertex -0.0512969 0.0326315 0
       vertex -0.0512969 0.0326315 0.1
    endloop
  endfacet
  facet normal -0.980784 0.195096 0
    outer loop
       vertex -0.0512969 0.0326315 0.1
       vertex -0.0449169 0.064705 0.1
       vertex -0.0449169 0.064705 0
    endloop
  endfacet
  facet normal -0.997858 0.0654098 0
    outer loop
       vertex -0.0534359 8.32665e-17 0.1
       vertex -0.0512969 0.0326315 0.1
       vertex -0.0512969 0.0326315 0
    endloop
  endfacet
  facet normal -0.997858 0.0654098 -1.08928e-16
    outer loop
       vertex -0.0512969 0.0326315 0
       vertex -0.0534359 -8.32665e-17 0
       vertex -0.0534359 8.32665e-17 0.1
    endloop
  endfacet
  facet normal -0.997858 -0.0654098 0
    outer loop
       vertex -0.0534359 -8.32665e-17 0
       vertex -0.0512969 -0.0326315 0
       vertex -0.0512969 -0.0326315 0.1
    endloop
  endfacet
  facet normal -0.997858 -0.0654098 1.08928e-16
    outer loop
       vertex -0.0512969 -0.0326315 0.1
       vertex -0.0534359 8.32665e-17 0.1
       vertex -0.0534359 -8.32665e-17 0
    endloop
  endfacet
  facet normal -0.980784 -0.195096 0
    outer loop
       vertex -0.0512969 -0.0326315 0
       vertex -0.0449169 -0.064705 0
       vertex -0.0449169 -0.064705 0.1
    endloop
  endfacet
  facet normal -0.980784 -0.195096 0
    outer loop
       vertex -0.0449169 -0.064705 0.1
       vertex -0.0512969 -0.0326315 0.1
       vertex -0.0512969 -0.0326315 0
    endloop
  endfacet
  facet normal -0.946935 -0.321425 0
    outer loop
       vertex -0.0449169 -0.064705 0
       vertex -0.0344059 -0.095671 0
       vertex -0.0344059 -0.095671 0.1
    endloop
  endfacet
  facet normal -0.946935 -0.321425 0
    outer loop
       vertex -0.0344059 -0.095671 0.1
       vertex -0.0449169 -0.064705 0.1
       vertex -0.0449169 -0.064705 0
    endloop
  endfacet
  facet normal -0.896866 -0.442302 0
    outer loop
       vertex -0.0344059 -0.095671 0
       vertex -0.0199419 -0.125 0
       vertex -0.0199419 -0.125 0.1
    endloop
  endfacet
  facet normal -0.896866 -0.442302 0
    outer loop
       vertex -0.0199419 -0.125 0.1
       vertex -0.0344059 -0.095671 0.1
       vertex -0.0344059 -0.095671 0
    endloop
  endfacet
  facet normal -0.831476 -0.555561 0
    outer loop
       vertex -0.0199419 -0.125 0
       vertex -0.00177386 -0.152191 0
       vertex -0.00177386 -0.152191 0.1
    endloop
  endfacet
  facet normal -0.831476 -0.555561 0
    outer loop
       vertex -0.00177386 -0.152191 0.1
       vertex -0.0199419 -0.125 0.1
       vertex -0.0199419 -0.125 0
    endloop
  endfacet
  facet normal -0.751817 -0.659372 0
    outer loop
       vertex -0.00177386 -0.152191 0
       vertex 0.0197881 -0.176776 0
       vertex 0.0197881 -0.176776 0.1
    endloop
  endfacet
  facet normal -0.751817 -0.659372 0
    outer loop
       vertex 0.0197881 -0.176776 0.1
       vertex -0.00177386 -0.152191 0.1
       vertex -0.00177386 -0.152191 0
    endloop
  endfacet
  facet normal 0.659372 -0.751817 0
    outer loop
       vertex 0.37334 -0.176776 0
       vertex 0.37334 -0.176776 0.1
       vertex 0.348755 -0.198338 0.1
    endloop
  endfacet
  facet normal 0.659372 -0.751817 0
    outer loop
       vertex 0.348755 -0.198338 0.1
       vertex 0.348755 -0.198338 0
       vertex 0.37334 -0.176776 0
    endloop
  endfacet
  facet normal 0.555561 -0.831476 0
    outer loop
       vertex 0.348755 -0.198338 0
       vertex 0.348755 -0.198338 0.1
       vertex 0.321564 -0.216506 0.1
    endloop
  endfacet
  facet normal 0.555561 -0.831476 0
    outer loop
       vertex 0.321564 -0.216506 0.1
       vertex 0.321564 -0.216506 0
       vertex 0.348755 -0.198338 0
    endloop
  endfacet
  facet normal 0.442302 -0.896866 0
    outer loop
       vertex 0.321564 -0.216506 0
       vertex 0.321564 -0.216506 0.1
       vertex 0.292235 -0.23097 0.1
    endloop
  endfacet
  facet normal 0.442302 -0.896866 0
    outer loop
       vertex 0.292235 -0.23097 0.1
       vertex 0.292235 -0.23097 0
       vertex 0.321564 -0.216506 0
    endloop
  endfacet
  facet normal 0.321425 -0.946935 0
    outer loop
       vertex 0.292235 -0.23097 0
       vertex 0.292235 -0.23097 0.1
       vertex 0.261269 -0.241481 0.1
    endloop
  endfacet
  facet normal 0.321425 -0.946935 0
    outer loop
       vertex 0.261269 -0.241481 0.1
       vertex 0.261269 -0.241481 0
       vertex 0.292235 -0.23097 0
    endloop
  endfacet
  facet normal 0.195096 -0.980784 0
    outer loop
       vertex 0.261269 -0.241481 0
       vertex 0.261269 -0.241481 0.1
       vertex 0.229196 -0.247861 0.1
    endloop
  endfacet
  facet normal 0.195096 -0.980784 0
    outer loop
       vertex 0.229196 -0.247861 0.1
       vertex 0.229196 -0.247861 0
       vertex 0.261269 -0.241481 0
    endloop
  endfacet
  facet normal 0.0654098 -0.997858 0
    outer loop
       vertex 0.196564 -0.25 0
       vertex 0.229196 -0.247861 0
       vertex 0.229196 -0.247861 0.1
    endloop
  endfacet
  facet normal 0.0654098 -0.997858 1.0893e-16
    outer loop
       vertex 0.229196 -0.247861 0.1
       vertex 0.196564 -0.25 0.1
       vertex 0.196564 -0.25 0
    endloop
  endfacet
  facet normal -0.0654098 -0.997858 0
    outer loop
       vertex 0.196564 -0.25 0.1
       vertex 0.163933 -0.247861 0.1
       vertex 0.163933 -0.247861 0
    endloop
  endfacet
  facet normal -0.0654098 -0.997858 -1.0893e-16
    outer loop
       vertex 0.163933 -0.247861 0
       vertex 0.196564 -0.25 0
       vertex 0.196564 -0.25 0.1
    endloop
  endfacet
  facet normal -0.195096 -0.980784 0
    outer loop
       vertex 0.163933 -0.247861 0
       vertex 0.163933 -0.247861 0.1
       vertex 0.131859 -0.241481 0.1
    endloop
  endfacet
  facet normal -0.195096 -0.980784 -0
    outer loop
       vertex 0.131859 -0.241481 0.1
       vertex 0.131859 -0.241481 0
       vertex 0.163933 -0.247861 0
    endloop
  endfacet
  facet normal -0.321425 -0.946935 0
    outer loop
       vertex 0.131859 -0.241481 0
       vertex 0.131859 -0.241481 0.1
       vertex 0.100893 -0.23097 0.1
    endloop
  endfacet
  facet normal -0.321425 -0.946935 -0
    outer loop
       vertex 0.100893 -0.23097 0.1
       vertex 0.100893 -0.23097 0
       vertex 0.131859 -0.241481 0
    endloop
  endfacet
  facet normal -0.442302 -0.896866 0
    outer loop
       vertex 0.100893 -0.23097 0
       vertex 0.100893 -0.23097 0.1
       vertex 0.0715641 -0.216506 0.1
    endloop
  endfacet
  facet normal -0.442302 -0.896866 -0
    outer loop
       vertex 0.0715641 -0.216506 0.1
       vertex 0.0715641 -0.216506 0
       vertex 0.100893 -0.23097 0
    endloop
  endfacet
  facet normal -0.555561 -0.831476 0
    outer loop
       vertex 0.0715641 -0.216506 0
       vertex 0.0715641 -0.216506 0.1
       vertex 0.0443731 -0.198338 0.1
    endloop
  endfacet
  facet normal -0.555561 -0.831476 -0
    outer loop
       vertex 0.0443731 -0.198338 0.1
       vertex 0.0443731 -0.198338 0
       vertex 0.0715641 -0.216506 0
    endloop
  endfacet
  facet normal -0.659372 -0.751817 0
    outer loop
       vertex 0.0443731 -0.198338 0
       vertex 0.0443731 -0.198338 0.1
       vertex 0.0197881 -0.176776 0.1
    endloop
  endfacet
  facet normal -0.659372 -0.751817 -0
    outer loop
       vertex 0.0197881 -0.176776 0.1
       vertex 0.0197881 -0.176776 0
       vertex 0.0443731 -0.198338 0
    endloop
  endfacet
endsolid cylinder
