solid cylinder
  facet normal 0.751817 -0.659372 0
    outer loop
       vertex 0.276712 -0.176776 0
       vertex 0.298274 -0.152191 0
       vertex 0.298274 -0.152191 0.1
    endloop
  endfacet
  facet normal 0.751817 -0.659372 0
    outer loop
       vertex 0.298274 -0.152191 0.1
       vertex 0.276712 -0.176776 0.1
       vertex 0.276712 -0.176776 0
    endloop
  endfacet
  facet normal 0.831476 -0.555561 0
    outer loop
       vertex 0.298274 -0.152191 0
       vertex 0.316442 -0.125 0
       vertex 0.316442 -0.125 0.1
    endloop
  endfacet
  facet normal 0.831476 -0.555561 0
    outer loop
       vertex 0.316442 -0.125 0.1
       vertex 0.298274 -0.152191 0.1
       vertex 0.298274 -0.152191 0
    endloop
  endfacet
  facet normal 0.896866 -0.442302 0
    outer loop
       vertex 0.316442 -0.125 0
       vertex 0.330906 -0.095671 0
       vertex 0.330906 -0.095671 0.1
    endloop
  endfacet
  facet normal 0.896866 -0.442302 0
    outer loop
       vertex 0.330906 -0.095671 0.1
       vertex 0.316442 -0.125 0.1
       vertex 0.316442 -0.125 0
    endloop
  endfacet
  facet normal 0.946935 -0.321425 0
    outer loop
       vertex 0.330906 -0.095671 0
       vertex 0.341417 -0.064705 0
       vertex 0.341417 -0.064705 0.1
    endloop
  endfacet
  facet normal 0.946935 -0.321425 0
    outer loop
       vertex 0.341417 -0.064705 0.1
       vertex 0.330906 -0.095671 0.1
       vertex 0.330906 -0.095671 0
    endloop
  endfacet
  facet normal 0.980784 -0.195096 0
    outer loop
       vertex 0.341417 -0.064705 0
       vertex 0.347797 -0.0326315 0
       vertex 0.347797 -0.0326315 0.1
    endloop
  endfacet
  facet normal 0.980784 -0.195096 0
    outer loop
       vertex 0.347797 -0.0326315 0.1
       vertex 0.341417 -0.064705 0.1
       vertex 0.341417 -0.064705 0
    endloop
  endfacet
  facet normal 0.997858 -0.0654098 0
    outer loop
       vertex 0.349936 -8.32665e-17 0.1
       vertex 0.347797 -0.0326315 0.1
       vertex 0.347797 -0.0326315 0
    endloop
  endfacet
  facet normal 0.997858 -0.0654098 -1.08928e-16
    outer loop
       vertex 0.347797 -0.0326315 0
       vertex 0.349936 8.32665e-17 0
       vertex 0.349936 -8.32665e-17 0.1
    endloop
  endfacet
  facet normal 0.997858 0.0654098 0
    outer loop
       vertex 0.349936 8.32665e-17 0
       vertex 0.347797 0.0326315 0
       vertex 0.347797 0.0326315 0.1
    endloop
  endfacet
  facet normal 0.997858 0.0654098 1.08928e-16
    outer loop
       vertex 0.347797 0.0326315 0.1
       vertex 0.349936 -8.32665e-17 0.1
       vertex 0.349936 8.32665e-17 0
    endloop
  endfacet
  facet normal 0.980784 0.195096 0
    outer loop
       vertex 0.347797 0.0326315 0
       vertex 0.341417 0.064705 0
       vertex 0.341417 0.064705 0.1
    endloop
  endfacet
  facet normal 0.980784 0.195096 0
    outer loop
       vertex 0.341417 0.064705 0.1
       vertex 0.347797 0.0326315 0.1
       vertex 0.347797 0.0326315 0
    endloop
  endfacet
  facet normal 0.946935 0.321425 0
    outer loop
       vertex 0.341417 0.064705 0
       vertex 0.330906 0.095671 0
       vertex 0.330906 0.095671 0.1
    endloop
  endfacet
  facet normal 0.946935 0.321425 0
    outer loop
       vertex 0.330906 0.095671 0.1
       vertex 0.341417 0.064705 0.1
       vertex 0.341417 0.064705 0
    endloop
  endfacet
  facet normal 0.896866 0.442302 0
    outer loop
       vertex 0.330906 0.095671 0
       vertex 0.316442 0.125 0
       vertex 0.316442 0.125 0.1
    endloop
  endfacet
  facet normal 0.896866 0.442302 0
    outer loop
       vertex 0.316442 0.125 0.1
       vertex 0.330906 0.095671 0.1
       vertex 0.330906 0.095671 0
    endloop
  endfacet
  facet normal 0.831476 0.555561 0
    outer loop
       vertex 0.316442 0.125 0
       vertex 0.298274 0.152191 0
       vertex 0.298274 0.152191 0.1
    endloop
  endfacet
  facet normal 0.831476 0.555561 0
    outer loop
       vertex 0.298274 0.152191 0.1
       vertex 0.316442 0.125 0.1
       vertex 0.316442 0.125 0
    endloop
  endfacet
  facet normal 0.751817 0.659372 0
    outer loop
       vertex 0.298274 0.152191 0
       vertex 0.276712 0.176776 0
       vertex 0.276712 0.176776 0.1
    endloop
  endfacet
  facet normal 0.751817 0.659372 0
    outer loop
       vertex 0.276712 0.176776 0.1
       vertex 0.298274 0.152191 0.1
       vertex 0.298274 0.152191 0
    endloop
  endfacet
  facet normal 0.659372 0.751817 0
    outer loop
       vertex 0.276712 0.176776 0
       vertex 0.252127 0.198338 0
       vertex 0.252127 0.198338 0.1
    endloop
  endfacet
  facet normal 0.659372 0.751817 0
    outer loop
       vertex 0.252127 0.198338 0.1
       vertex 0.276712 0.176776 0.1
       vertex 0.276712 0.176776 0
    endloop
  endfacet
  facet normal 0.555561 0.831476 0
    outer loop
       vertex 0.252127 0.198338 0
       vertex 0.224936 0.216506 0
       vertex 0.224936 0.216506 0.1
    endloop
  endfacet
  facet normal 0.555561 0.831476 0
    outer loop
       vertex 0.224936 0.216506 0.1
       vertex 0.252127 0.198338 0.1
       vertex 0.252127 0.198338 0
    endloop
  endfacet
  facet normal 0.442302 0.896866 0
    outer loop
       vertex 0.224936 0.216506 0
       vertex 0.195607 0.23097 0
       vertex 0.195607 0.23097 0.1
    endloop
  endfacet
  facet normal 0.442302 0.896866 0
    outer loop
       vertex 0.195607 0.23097 0.1
       vertex 0.224936 0.216506 0.1
       vertex 0.224936 0.216506 0
    endloop
  endfacet
  facet normal 0.321425 0.946935 0
    outer loop
       vertex 0.195607 0.23097 0
       vertex 0.164641 0.241481 0
       vertex 0.164641 0.241481 0.1
    endloop
  endfacet
  facet normal 0.321425 0.946935 0
    outer loop
       vertex 0.164641 0.241481 0.1
       vertex 0.195607 0.23097 0.1
       vertex 0.195607 0.23097 0
    endloop
  endfacet
  facet normal 0.195096 0.980784 0
    outer loop
       vertex 0.164641 0.241481 0
       vertex 0.132568 0.247861 0
       vertex 0.132568 0.247861 0.1
    endloop
  endfacet
  facet normal 0.195096 0.980784 0
    outer loop
       vertex 0.132568 0.247861 0.1
       vertex 0.164641 0.241481 0.1
       vertex 0.164641 0.241481 0
    endloop
  endfacet
  facet normal 0.0654098 0.997858 0
    outer loop
       vertex 0.0999365 0.25 0.1
       vertex 0.132568 0.247861 0.1
       vertex 0.132568 0.247861 0
    endloop
  endfacet
  facet normal 0.0654098 0.997858 -1.0893e-16
    outer loop
       vertex 0.132568 0.247861 0
       vertex 0.0999365 0.25 0
       vertex 0.0999365 0.25 0.1
    endloop
  endfacet
  facet normal -0.0654098 0.997858 0
    outer loop
       vertex 0.0999365 0.25 0
       vertex 0.067305 0.247861 0
       vertex 0.067305 0.247861 0.1
    endloop
  endfacet
  facet normal -0.0654098 0.997858 1.0893e-16
    outer loop
       vertex 0.067305 0.247861 0.1
       vertex 0.0999365 0.25 0.1
       vertex 0.0999365 0.25 0
    endloop
  endfacet
  facet normal -0.195096 0.980784 0
    outer loop
       vertex 0.067305 0.247861 0
       vertex 0.0352315 0.241481 0
       vertex 0.0352315 0.241481 0.1
    endloop
  endfacet
  facet normal -0.195096 0.980784 0
    outer loop
       vertex 0.0352315 0.241481 0.1
       vertex 0.067305 0.247861 0.1
       vertex 0.067305 0.247861 0
    endloop
  endfacet
  facet normal -0.321425 0.946935 0
    outer loop
       vertex 0.0352315 0.241481 0
       vertex 0.00426547 0.23097 0
       vertex 0.00426547 0.23097 0.1
    endloop
  endfacet
  facet normal -0.321425 0.946935 0
    outer loop
       vertex 0.00426547 0.23097 0.1
       vertex 0.0352315 0.241481 0.1
       vertex 0.0352315 0.241481 0
    endloop
  endfacet
  facet normal -0.442302 0.896866 0
    outer loop
       vertex 0.00426547 0.23097 0
       vertex -0.0250635 0.216506 0
       vertex -0.0250635 0.216506 0.1
    endloop
  endfacet
  facet normal -0.442302 0.896866 0
    outer loop
       vertex -0.0250635 0.216506 0.1
       vertex 0.00426547 0.23097 0.1
       vertex 0.00426547 0.23097 0
    endloop
  endfacet
  facet normal -0.555561 0.831476 0
    outer loop
       vertex -0.0250635 0.216506 0
       vertex -0.0522545 0.198338 0
       vertex -0.0522545 0.198338 0.1
    endloop
  endfacet
  facet normal -0.555561 0.831476 0
    outer loop
       vertex -0.0522545 0.198338 0.1
       vertex -0.0250635 0.216506 0.1
       vertex -0.0250635 0.216506 0
    endloop
  endfacet
  facet normal -0.659372 0.751817 0
    outer loop
       vertex -0.0522545 0.198338 0
       vertex -0.0768395 0.176776 0
       vertex -0.0768395 0.176776 0.1
    endloop
  endfacet
  facet normal -0.659372 0.751817 0
    outer loop
       vertex -0.0768395 0.176776 0.1
       vertex -0.0522545 0.198338 0.1
       vertex -0.0522545 0.198338 0
    endloop
  endfacet
  facet normal -0.751817 0.659372 0
    outer loop
       vertex -0.0768395 0.176776 0
       vertex -0.0984015 0.152191 0
       vertex -0.0984015 0.152191 0.1
    endloop
  endfacet
  facet normal -0.751817 0.659372 0
    outer loop
       vertex -0.0984015 0.152191 0.1
       vertex -0.0768395 0.176776 0.1
       vertex -0.0768395 0.176776 0
    endloop
  endfacet
  facet normal -0.831476 0.555561 0
    outer loop
       vertex -0.0984015 0.152191 0
       vertex -0.11657 0.125 0
       vertex -0.11657 0.125 0.1
    endloop
  endfacet
  facet normal -0.831476 0.555561 0
    outer loop
       vertex -0.11657 0.125 0.1
       vertex -0.0984015 0.152191 0.1
       vertex -0.0984015 0.152191 0
    endloop
  endfacet
  facet normal -0.896866 0.442302 0
    outer loop
       vertex -0.11657 0.125 0
       vertex -0.131034 0.095671 0
       vertex -0.131034 0.095671 0.1
    endloop
  endfacet
  facet normal -0.896866 0.442302 0
    outer loop
       vertex -0.131034 0.095671 0.1
       vertex -0.11657 0.125 0.1
       vertex -0.11657 0.125 0
    endloop
  endfacet
  facet normal -0.946935 0.321425 0
    outer loop
       vertex -0.131034 0.095671 0
       vertex -0.141545 0.064705 0
       vertex -0.141545 0.064705 0.1
    endloop
  endfacet
  facet normal -0.946935 0.321425 0
    outer loop
       vertex -0.141545 0.064705 0.1
       vertex -0.131034 0.095671 0.1
       vertex -0.131034 0.095671 0
    endloop
  endfacet
  facet normal -0.980784 0.195096 0
    outer loop
       vertex -0.141545 0.064705 0
       vertex -0.147925 0.0326315 0
       vertex -0.147925 0.0326315 0.1
    endloop
  endfacet
  facet normal -0.980784 0.195096 0
    outer loop
       vertex -0.147925 0.0326315 0.1
       vertex -0.141545 0.064705 0.1
       vertex -0.141545 0.064705 0
    endloop
  endfacet
  facet normal -0.997858 0.0654098 0
    outer loop
       vertex -0.150064 8.32665e-17 0.1
       vertex -0.147925 0.0326315 0.1
       vertex -0.147925 0.0326315 0
    endloop
  endfacet
  facet normal -0.997858 0.0654098 -1.08928e-16
    outer loop
       vertex -0.147925 0.0326315 0
       vertex -0.150064 -8.32665e-17 0
       vertex -0.150064 8.32665e-17 0.1
    endloop
  endfacet
  facet normal -0.997858 -0.0654098 0
    outer loop
       vertex -0.150064 -8.32665e-17 0
       vertex -0.147925 -0.0326315 0
       vertex -0.147925 -0.0326315 0.1
    endloop
  endfacet
  facet normal -0.997858 -0.0654098 1.08928e-16
    outer loop
       vertex -0.147925 -0.0326315 0.1
       vertex -0.150064 8.32665e-17 0.1
       vertex -0.150064 -8.32665e-17 0
    endloop
  endfacet
  facet normal -0.980784 -0.195096 0
    outer loop
       vertex -0.147925 -0.0326315 0
       vertex -0.141545 -0.064705 0
       vertex -0.141545 -0.064705 0.1
    endloop
  endfacet
  facet normal -0.980784 -0.195096 0
    outer loop
       vertex -0.141545 -0.064705 0.1
       vertex -0.147925 -0.0326315 0.1
       vertex -0.147925 -0.0326315 0
    endloop
  endfacet
  facet normal -0.946935 -0.321425 0
    outer loop
       vertex -0.141545 -0.064705 0
       vertex -0.131034 -0.095671 0
       vertex -0.131034 -0.095671 0.1
    endloop
  endfacet
  facet normal -0.946935 -0.321425 0
    outer loop
       vertex -0.131034 -0.095671 0.1
       vertex -0.141545 -0.064705 0.1
       vertex -0.141545 -0.064705 0
    endloop
  endfacet
  facet normal -0.896866 -0.442302 0
    outer loop
       vertex -0.131034 -0.095671 0
       vertex -0.11657 -0.125 0
       vertex -0.11657 -0.125 0.1
    endloop
  endfacet
  facet normal -0.896866 -0.442302 0
    outer loop
       vertex -0.11657 -0.125 0.1
       vertex -0.131034 -0.095671 0.1
       vertex -0.131034 -0.095671 0
    endloop
  endfacet
  facet normal -0.831476 -0.555561 0
    outer loop
       vertex -0.11657 -0.125 0
       vertex -0.0984015 -0.152191 0
       vertex -0.0984015 -0.152191 0.1
    endloop
  endfacet
  facet normal -0.831476 -0.555561 0
    outer loop
       vertex -0.0984015 -0.152191 0.1
       vertex -0.11657 -0.125 0.1
       vertex -0.11657 -0.125 0
    endloop
  endfacet
  facet normal -0.751817 -0.659372 0
    outer loop
       vertex -0.0984015 -0.152191 0
       vertex -0.0768395 -0.176776 0
       vertex -0.0768395 -0.176776 0.1
    endloop
  endfacet
  facet normal -0.751817 -0.659372 0
    outer loop
       vertex -0.0768395 -0.176776 0.1
       vertex -0.0984015 -0.152191 0.1
       vertex -0.0984015 -0.152191 0
    endloop
  endfacet
  facet normal 0.659372 -0.751817 0
    outer loop
       vertex 0.276712 -0.176776 0
       vertex 0.276712 -0.176776 0.1
       vertex 0.252127 -0.198338 0.1
    endloop
  endfacet
  facet normal 0.659372 -0.751817 0
    outer loop
       vertex 0.252127 -0.198338 0.1
       vertex 0.252127 -0.198338 0
       vertex 0.276712 -0.176776 0
    endloop
  endfacet
  facet normal 0.555561 -0.831476 0
    outer loop
       vertex 0.252127 -0.198338 0
       vertex 0.252127 -0.198338 0.1
       vertex 0.224936 -0.216506 0.1
    endloop
  endfacet
  facet normal 0.555561 -0.831476 0
    outer loop
       vertex 0.224936 -0.216506 0.1
       vertex 0.224936 -0.216506 0
       vertex 0.252127 -0.198338 0
    endloop
  endfacet
  facet normal 0.442302 -0.896866 0
    outer loop
       vertex 0.224936 -0.216506 0
       vertex 0.224936 -0.216506 0.1
       vertex 0.195607 -0.23097 0.1
    endloop
  endfacet
  facet normal 0.442302 -0.896866 0
    outer loop
       vertex 0.195607 -0.23097 0.1
       vertex 0.195607 -0.23097 0
       vertex 0.224936 -0.216506 0
    endloop
  endfacet
  facet normal 0.321425 -0.946935 0
    outer loop
       vertex 0.195607 -0.23097 0
       vertex 0.195607 -0.23097 0.1
       vertex 0.164641 -0.241481 0.1
    endloop
  endfacet
  facet normal 0.321425 -0.946935 0
    outer loop
       vertex 0.164641 -0.241481 0.1
       vertex 0.164641 -0.241481 0
       vertex 0.195607 -0.23097 0
    endloop
  endfacet
  facet normal 0.195096 -0.980784 0
    outer loop
       vertex 0.164641 -0.241481 0
       vertex 0.164641 -0.241481 0.1
       vertex 0.132568 -0.247861 0.1
    endloop
  endfacet
  facet normal 0.195096 -0.980784 0
    outer loop
       vertex 0.132568 -0.247861 0.1
       vertex 0.132568 -0.247861 0
       vertex 0.164641 -0.241481 0
    endloop
  endfacet
  facet normal 0.0654098 -0.997858 0
    outer loop
       vertex 0.0999365 -0.25 0
       vertex 0.132568 -0.247861 0
       vertex 0.132568 -0.247861 0.1
    endloop
  endfacet
  facet normal 0.0654098 -0.997858 1.0893e-16
    outer loop
       vertex 0.132568 -0.247861 0.1
       vertex 0.0999365 -0.25 0.1
       vertex 0.0999365 -0.25 0
    endloop
  endfacet
  facet normal -0.0654098 -0.997858 0
    outer loop
       vertex 0.0999365 -0.25 0.1
       vertex 0.067305 -0.247861 0.1
       vertex 0.067305 -0.247861 0
    endloop
  endfacet
  facet normal -0.0654098 -0.997858 -1.0893e-16
    outer loop
       vertex 0.067305 -0.247861 0
       vertex 0.0999365 -0.25 0
       vertex 0.0999365 -0.25 0.1
    endloop
  endfacet
  facet normal -0.195096 -0.980784 0
    outer loop
       vertex 0.067305 -0.247861 0
       vertex 0.067305 -0.247861 0.1
       vertex 0.0352315 -0.241481 0.1
    endloop
  endfacet
  facet normal -0.195096 -0.980784 -0
    outer loop
       vertex 0.0352315 -0.241481 0.1
       vertex 0.0352315 -0.241481 0
       vertex 0.067305 -0.247861 0
    endloop
  endfacet
  facet normal -0.321425 -0.946935 0
    outer loop
       vertex 0.0352315 -0.241481 0
       vertex 0.0352315 -0.241481 0.1
       vertex 0.00426547 -0.23097 0.1
    endloop
  endfacet
  facet normal -0.321425 -0.946935 -0
    outer loop
       vertex 0.00426547 -0.23097 0.1
       vertex 0.00426547 -0.23097 0
       vertex 0.0352315 -0.241481 0
    endloop
  endfacet
  facet normal -0.442302 -0.896866 0
    outer loop
       vertex 0.00426547 -0.23097 0
       vertex 0.00426547 -0.23097 0.1
       vertex -0.0250635 -0.216506 0.1
    endloop
  endfacet
  facet normal -0.442302 -0.896866 -0
    outer loop
       vertex -0.0250635 -0.216506 0.1
       vertex -0.0250635 -0.216506 0
       vertex 0.00426547 -0.23097 0
    endloop
  endfacet
  facet normal -0.555561 -0.831476 0
    outer loop
       vertex -0.0250635 -0.216506 0
       vertex -0.0250635 -0.216506 0.1
       vertex -0.0522545 -0.198338 0.1
    endloop
  endfacet
  facet normal -0.555561 -0.831476 -0
    outer loop
       vertex -0.0522545 -0.198338 0.1
       vertex -0.0522545 -0.198338 0
       vertex -0.0250635 -0.216506 0
    endloop
  endfacet
  facet normal -0.659372 -0.751817 0
    outer loop
       vertex -0.0522545 -0.198338 0
       vertex -0.0522545 -0.198338 0.1
       vertex -0.0768395 -0.176776 0.1
    endloop
  endfacet
  facet normal -0.659372 -0.751817 -0
    outer loop
       vertex -0.0768395 -0.176776 0.1
       vertex -0.0768395 -0.176776 0
       vertex -0.0522545 -0.198338 0
    endloop
  endfacet
endsolid cylinder
