solid cylinder
  facet normal 0.751817 -0.659372 0
    outer loop
       vertex 0.227013 -0.176776 0
       vertex 0.248575 -0.152191 0
       vertex 0.248575 -0.152191 0.1
    endloop
  endfacet
  facet normal 0.751817 -0.659372 0
    outer loop
       vertex 0.248575 -0.152191 0.1
       vertex 0.227013 -0.176776 0.1
       vertex 0.227013 -0.176776 0
    endloop
  endfacet
  facet normal 0.831476 -0.555561 0
    outer loop
       vertex 0.248575 -0.152191 0
       vertex 0.266743 -0.125 0
       vertex 0.266743 -0.125 0.1
    endloop
  endfacet
  facet normal 0.831476 -0.555561 0
    outer loop
       vertex 0.266743 -0.125 0.1
       vertex 0.248575 -0.152191 0.1
       vertex 0.248575 -0.152191 0
    endloop
  endfacet
  facet normal 0.896866 -0.442302 0
    outer loop
       vertex 0.266743 -0.125 0
       vertex 0.281207 -0.095671 0
       vertex 0.281207 -0.095671 0.1
    endloop
  endfacet
  facet normal 0.896866 -0.442302 0
    outer loop
       vertex 0.281207 -0.095671 0.1
       vertex 0.266743 -0.125 0.1
       vertex 0.266743 -0.125 0
    endloop
  endfacet
  facet normal 0.946935 -0.321425 0
    outer loop
       vertex 0.281207 -0.095671 0
       vertex 0.291718 -0.064705 0
       vertex 0.291718 -0.064705 0.1
    endloop
  endfacet
  facet normal 0.946935 -0.321425 0
    outer loop
       vertex 0.291718 -0.064705 0.1
       vertex 0.281207 -0.095671 0.1
       vertex 0.281207 -0.095671 0
    endloop
  endfacet
  facet normal 0.980784 -0.195096 0
    outer loop
       vertex 0.291718 -0.064705 0
       vertex 0.298098 -0.0326315 0
       vertex 0.298098 -0.0326315 0.1
    endloop
  endfacet
  facet normal 0.980784 -0.195096 0
    outer loop
       vertex 0.298098 -0.0326315 0.1
       vertex 0.291718 -0.064705 0.1
       vertex 0.291718 -0.064705 0
    endloop
  endfacet
  facet normal 0.997858 -0.0654098 0
    outer loop
       vertex 0.300237 -8.32665e-17 0.1
       vertex 0.298098 -0.0326315 0.1
       vertex 0.298098 -0.0326315 0
    endloop
  endfacet
  facet normal 0.997858 -0.0654098 -1.08928e-16
    outer loop
       vertex 0.298098 -0.0326315 0
       vertex 0.300237 8.32665e-17 0
       vertex 0.300237 -8.32665e-17 0.1
    endloop
  endfacet
  facet normal 0.997858 0.0654098 0
    outer loop
       vertex 0.300237 8.32665e-17 0
       vertex 0.298098 0.0326315 0
       vertex 0.298098 0.0326315 0.1
    endloop
  endfacet
  facet normal 0.997858 0.0654098 1.08928e-16
    outer loop
       vertex 0.298098 0.0326315 0.1
       vertex 0.300237 -8.32665e-17 0.1
       vertex 0.300237 8.32665e-17 0
    endloop
  endfacet
  facet normal 0.980784 0.195096 0
    outer loop
       vertex 0.298098 0.0326315 0
       vertex 0.291718 0.064705 0
       vertex 0.291718 0.064705 0.1
    endloop
  endfacet
  facet normal 0.980784 0.195096 0
    outer loop
       vertex 0.291718 0.064705 0.1
       vertex 0.298098 0.0326315 0.1
       vertex 0.298098 0.0326315 0
    endloop
  endfacet
  facet normal 0.946935 0.321425 0
    outer loop
       vertex 0.291718 0.064705 0
       vertex 0.281207 0.095671 0
       vertex 0.281207 0.095671 0.1
    endloop
  endfacet
  facet normal 0.946935 0.321425 0
    outer loop
       vertex 0.281207 0.095671 0.1
       vertex 0.291718 0.064705 0.1
       vertex 0.291718 0.064705 0
    endloop
  endfacet
  facet normal 0.896866 0.442302 0
    outer loop
       vertex 0.281207 0.095671 0
       vertex 0.266743 0.125 0
       vertex 0.266743 0.125 0.1
    endloop
  endfacet
  facet normal 0.896866 0.442302 0
    outer loop
       vertex 0.266743 0.125 0.1
       vertex 0.281207 0.095671 0.1
       vertex 0.281207 0.095671 0
    endloop
  endfacet
  facet normal 0.831476 0.555561 0
    outer loop
       vertex 0.266743 0.125 0
       vertex 0.248575 0.152191 0
       vertex 0.248575 0.152191 0.1
    endloop
  endfacet
  facet normal 0.831476 0.555561 0
    outer loop
       vertex 0.248575 0.152191 0.1
       vertex 0.266743 0.125 0.1
       vertex 0.266743 0.125 0
    endloop
  endfacet
  facet normal 0.751817 0.659372 0
    outer loop
       vertex 0.248575 0.152191 0
       vertex 0.227013 0.176776 0
       vertex 0.227013 0.176776 0.1
    endloop
  endfacet
  facet normal 0.751817 0.659372 0
    outer loop
       vertex 0.227013 0.176776 0.1
       vertex 0.248575 0.152191 0.1
       vertex 0.248575 0.152191 0
    endloop
  endfacet
  facet normal 0.659372 0.751817 0
    outer loop
       vertex 0.227013 0.176776 0
       vertex 0.202428 0.198338 0
       vertex 0.202428 0.198338 0.1
    endloop
  endfacet
  facet normal 0.659372 0.751817 0
    outer loop
       vertex 0.202428 0.198338 0.1
       vertex 0.227013 0.176776 0.1
       vertex 0.227013 0.176776 0
    endloop
  endfacet
  facet normal 0.555561 0.831476 0
    outer loop
       vertex 0.202428 0.198338 0
       vertex 0.175237 0.216506 0
       vertex 0.175237 0.216506 0.1
    endloop
  endfacet
  facet normal 0.555561 0.831476 0
    outer loop
       vertex 0.175237 0.216506 0.1
       vertex 0.202428 0.198338 0.1
       vertex 0.202428 0.198338 0
    endloop
  endfacet
  facet normal 0.442302 0.896866 0
    outer loop
       vertex 0.175237 0.216506 0
       vertex 0.145908 0.23097 0
       vertex 0.145908 0.23097 0.1
    endloop
  endfacet
  facet normal 0.442302 0.896866 0
    outer loop
       vertex 0.145908 0.23097 0.1
       vertex 0.175237 0.216506 0.1
       vertex 0.175237 0.216506 0
    endloop
  endfacet
  facet normal 0.321425 0.946935 0
    outer loop
       vertex 0.145908 0.23097 0
       vertex 0.114942 0.241481 0
       vertex 0.114942 0.241481 0.1
    endloop
  endfacet
  facet normal 0.321425 0.946935 0
    outer loop
       vertex 0.114942 0.241481 0.1
       vertex 0.145908 0.23097 0.1
       vertex 0.145908 0.23097 0
    endloop
  endfacet
  facet normal 0.195096 0.980784 0
    outer loop
       vertex 0.114942 0.241481 0
       vertex 0.0828688 0.247861 0
       vertex 0.0828688 0.247861 0.1
    endloop
  endfacet
  facet normal 0.195096 0.980784 0
    outer loop
       vertex 0.0828688 0.247861 0.1
       vertex 0.114942 0.241481 0.1
       vertex 0.114942 0.241481 0
    endloop
  endfacet
  facet normal 0.0654098 0.997858 0
    outer loop
       vertex 0.0502373 0.25 0.1
       vertex 0.0828688 0.247861 0.1
       vertex 0.0828688 0.247861 0
    endloop
  endfacet
  facet normal 0.0654098 0.997858 -1.08928e-16
    outer loop
       vertex 0.0828688 0.247861 0
       vertex 0.0502373 0.25 0
       vertex 0.0502373 0.25 0.1
    endloop
  endfacet
  facet normal -0.0654098 0.997858 0
    outer loop
       vertex 0.0502373 0.25 0
       vertex 0.0176058 0.247861 0
       vertex 0.0176058 0.247861 0.1
    endloop
  endfacet
  facet normal -0.0654098 0.997858 1.08928e-16
    outer loop
       vertex 0.0176058 0.247861 0.1
       vertex 0.0502373 0.25 0.1
       vertex 0.0502373 0.25 0
    endloop
  endfacet
  facet normal -0.195096 0.980784 0
    outer loop
       vertex 0.0176058 0.247861 0
       vertex -0.0144677 0.241481 0
       vertex -0.0144677 0.241481 0.1
    endloop
  endfacet
  facet normal -0.195096 0.980784 0
    outer loop
       vertex -0.0144677 0.241481 0.1
       vertex 0.0176058 0.247861 0.1
       vertex 0.0176058 0.247861 0
    endloop
  endfacet
  facet normal -0.321425 0.946935 0
    outer loop
       vertex -0.0144677 0.241481 0
       vertex -0.0454337 0.23097 0
       vertex -0.0454337 0.23097 0.1
    endloop
  endfacet
  facet normal -0.321425 0.946935 0
    outer loop
       vertex -0.0454337 0.23097 0.1
       vertex -0.0144677 0.241481 0.1
       vertex -0.0144677 0.241481 0
    endloop
  endfacet
  facet normal -0.442302 0.896866 0
    outer loop
       vertex -0.0454337 0.23097 0
       vertex -0.0747627 0.216506 0
       vertex -0.0747627 0.216506 0.1
    endloop
  endfacet
  facet normal -0.442302 0.896866 0
    outer loop
       vertex -0.0747627 0.216506 0.1
       vertex -0.0454337 0.23097 0.1
       vertex -0.0454337 0.23097 0
    endloop
  endfacet
  facet normal -0.555561 0.831476 0
    outer loop
       vertex -0.0747627 0.216506 0
       vertex -0.101954 0.198338 0
       vertex -0.101954 0.198338 0.1
    endloop
  endfacet
  facet normal -0.555561 0.831476 0
    outer loop
       vertex -0.101954 0.198338 0.1
       vertex -0.0747627 0.216506 0.1
       vertex -0.0747627 0.216506 0
    endloop
  endfacet
  facet normal -0.659372 0.751817 0
    outer loop
       vertex -0.101954 0.198338 0
       vertex -0.126539 0.176776 0
       vertex -0.126539 0.176776 0.1
    endloop
  endfacet
  facet normal -0.659372 0.751817 0
    outer loop
       vertex -0.126539 0.176776 0.1
       vertex -0.101954 0.198338 0.1
       vertex -0.101954 0.198338 0
    endloop
  endfacet
  facet normal -0.751817 0.659372 0
    outer loop
       vertex -0.126539 0.176776 0
       vertex -0.148101 0.152191 0
       vertex -0.148101 0.152191 0.1
    endloop
  endfacet
  facet normal -0.751817 0.659372 0
    outer loop
       vertex -0.148101 0.152191 0.1
       vertex -0.126539 0.176776 0.1
       vertex -0.126539 0.176776 0
    endloop
  endfacet
  facet normal -0.831476 0.555561 0
    outer loop
       vertex -0.148101 0.152191 0
       vertex -0.166269 0.125 0
       vertex -0.166269 0.125 0.1
    endloop
  endfacet
  facet normal -0.831476 0.555561 0
    outer loop
       vertex -0.166269 0.125 0.1
       vertex -0.148101 0.152191 0.1
       vertex -0.148101 0.152191 0
    endloop
  endfacet
  facet normal -0.896866 0.442302 0
    outer loop
       vertex -0.166269 0.125 0
       vertex -0.180733 0.095671 0
       vertex -0.180733 0.095671 0.1
    endloop
  endfacet
  facet normal -0.896866 0.442302 0
    outer loop
       vertex -0.180733 0.095671 0.1
       vertex -0.166269 0.125 0.1
       vertex -0.166269 0.125 0
    endloop
  endfacet
  facet normal -0.946935 0.321425 0
    outer loop
       vertex -0.180733 0.095671 0
       vertex -0.191244 0.064705 0
       vertex -0.191244 0.064705 0.1
    endloop
  endfacet
  facet normal -0.946935 0.321425 0
    outer loop
       vertex -0.191244 0.064705 0.1
       vertex -0.180733 0.095671 0.1
       vertex -0.180733 0.095671 0
    endloop
  endfacet
  facet normal -0.980784 0.195096 0
    outer loop
       vertex -0.191244 0.064705 0
       vertex -0.197624 0.0326315 0
       vertex -0.197624 0.0326315 0.1
    endloop
  endfacet
  facet normal -0.980784 0.195096 0
    outer loop
       vertex -0.197624 0.0326315 0.1
       vertex -0.191244 0.064705 0.1
       vertex -0.191244 0.064705 0
    endloop
  endfacet
  facet normal -0.997858 0.0654098 0
    outer loop
       vertex -0.199763 8.32665e-17 0.1
       vertex -0.197624 0.0326315 0.1
       vertex -0.197624 0.0326315 0
    endloop
  endfacet
  facet normal -0.997858 0.0654098 -1.08928e-16
    outer loop
       vertex -0.197624 0.0326315 0
       vertex -0.199763 -8.32665e-17 0
       vertex -0.199763 8.32665e-17 0.1
    endloop
  endfacet
  facet normal -0.997858 -0.0654098 0
    outer loop
       vertex -0.199763 -8.32665e-17 0
       vertex -0.197624 -0.0326315 0
       vertex -0.197624 -0.0326315 0.1
    endloop
  endfacet
  facet normal -0.997858 -0.0654098 1.08928e-16
    outer loop
       vertex -0.197624 -0.0326315 0.1
       vertex -0.199763 8.32665e-17 0.1
       vertex -0.199763 -8.32665e-17 0
    endloop
  endfacet
  facet normal -0.980784 -0.195096 0
    outer loop
       vertex -0.197624 -0.0326315 0
       vertex -0.191244 -0.064705 0
       vertex -0.191244 -0.064705 0.1
    endloop
  endfacet
  facet normal -0.980784 -0.195096 0
    outer loop
       vertex -0.191244 -0.064705 0.1
       vertex -0.197624 -0.0326315 0.1
       vertex -0.197624 -0.0326315 0
    endloop
  endfacet
  facet normal -0.946935 -0.321425 0
    outer loop
       vertex -0.191244 -0.064705 0
       vertex -0.180733 -0.095671 0
       vertex -0.180733 -0.095671 0.1
    endloop
  endfacet
  facet normal -0.946935 -0.321425 0
    outer loop
       vertex -0.180733 -0.095671 0.1
       vertex -0.191244 -0.064705 0.1
       vertex -0.191244 -0.064705 0
    endloop
  endfacet
  facet normal -0.896866 -0.442302 0
    outer loop
       vertex -0.180733 -0.095671 0
       vertex -0.166269 -0.125 0
       vertex -0.166269 -0.125 0.1
    endloop
  endfacet
  facet normal -0.896866 -0.442302 0
    outer loop
       vertex -0.166269 -0.125 0.1
       vertex -0.180733 -0.095671 0.1
       vertex -0.180733 -0.095671 0
    endloop
  endfacet
  facet normal -0.831476 -0.555561 0
    outer loop
       vertex -0.166269 -0.125 0
       vertex -0.148101 -0.152191 0
       vertex -0.148101 -0.152191 0.1
    endloop
  endfacet
  facet normal -0.831476 -0.555561 0
    outer loop
       vertex -0.148101 -0.152191 0.1
       vertex -0.166269 -0.125 0.1
       vertex -0.166269 -0.125 0
    endloop
  endfacet
  facet normal -0.751817 -0.659372 0
    outer loop
       vertex -0.148101 -0.152191 0
       vertex -0.126539 -0.176776 0
       vertex -0.126539 -0.176776 0.1
    endloop
  endfacet
  facet normal -0.751817 -0.659372 0
    outer loop
       vertex -0.126539 -0.176776 0.1
       vertex -0.148101 -0.152191 0.1
       vertex -0.148101 -0.152191 0
    endloop
  endfacet
  facet normal 0.659372 -0.751817 0
    outer loop
       vertex 0.227013 -0.176776 0
       vertex 0.227013 -0.176776 0.1
       vertex 0.202428 -0.198338 0.1
    endloop
  endfacet
  facet normal 0.659372 -0.751817 0
    outer loop
       vertex 0.202428 -0.198338 0.1
       vertex 0.202428 -0.198338 0
       vertex 0.227013 -0.176776 0
    endloop
  endfacet
  facet normal 0.555561 -0.831476 0
    outer loop
       vertex 0.202428 -0.198338 0
       vertex 0.202428 -0.198338 0.1
       vertex 0.175237 -0.216506 0.1
    endloop
  endfacet
  facet normal 0.555561 -0.831476 0
    outer loop
       vertex 0.175237 -0.216506 0.1
       vertex 0.175237 -0.216506 0
       vertex 0.202428 -0.198338 0
    endloop
  endfacet
  facet normal 0.442302 -0.896866 0
    outer loop
       vertex 0.175237 -0.216506 0
       vertex 0.175237 -0.216506 0.1
       vertex 0.145908 -0.23097 0.1
    endloop
  endfacet
  facet normal 0.442302 -0.896866 0
    outer loop
       vertex 0.145908 -0.23097 0.1
       vertex 0.145908 -0.23097 0
       vertex 0.175237 -0.216506 0
    endloop
  endfacet
  facet normal 0.321425 -0.946935 0
    outer loop
       vertex 0.145908 -0.23097 0
       vertex 0.145908 -0.23097 0.1
       vertex 0.114942 -0.241481 0.1
    endloop
  endfacet
  facet normal 0.321425 -0.946935 0
    outer loop
       vertex 0.114942 -0.241481 0.1
       vertex 0.114942 -0.241481 0
       vertex 0.145908 -0.23097 0
    endloop
  endfacet
  facet normal 0.195096 -0.980784 0
    outer loop
       vertex 0.114942 -0.241481 0
       vertex 0.114942 -0.241481 0.1
       vertex 0.0828688 -0.247861 0.1
    endloop
  endfacet
  facet normal 0.195096 -0.980784 0
    outer loop
       vertex 0.0828688 -0.247861 0.1
       vertex 0.0828688 -0.247861 0
       vertex 0.114942 -0.241481 0
    endloop
  endfacet
  facet normal 0.0654098 -0.997858 0
    outer loop
       vertex 0.0502373 -0.25 0
       vertex 0.0828688 -0.247861 0
       vertex 0.0828688 -0.247861 0.1
    endloop
  endfacet
  facet normal 0.0654098 -0.997858 1.08928e-16
    outer loop
       vertex 0.0828688 -0.247861 0.1
       vertex 0.0502373 -0.25 0.1
       vertex 0.0502373 -0.25 0
    endloop
  endfacet
  facet normal -0.0654098 -0.997858 0
    outer loop
       vertex 0.0502373 -0.25 0.1
       vertex 0.0176058 -0.247861 0.1
       vertex 0.0176058 -0.247861 0
    endloop
  endfacet
  facet normal -0.0654098 -0.997858 -1.08928e-16
    outer loop
       vertex 0.0176058 -0.247861 0
       vertex 0.0502373 -0.25 0
       vertex 0.0502373 -0.25 0.1
    endloop
  endfacet
  facet normal -0.195096 -0.980784 0
    outer loop
       vertex 0.0176058 -0.247861 0
       vertex 0.0176058 -0.247861 0.1
       vertex -0.0144677 -0.241481 0.1
    endloop
  endfacet
  facet normal -0.195096 -0.980784 -0
    outer loop
       vertex -0.0144677 -0.241481 0.1
       vertex -0.0144677 -0.241481 0
       vertex 0.0176058 -0.247861 0
    endloop
  endfacet
  facet normal -0.321425 -0.946935 0
    outer loop
       vertex -0.0144677 -0.241481 0
       vertex -0.0144677 -0.241481 0.1
       vertex -0.0454337 -0.23097 0.1
    endloop
  endfacet
  facet normal -0.321425 -0.946935 -0
    outer loop
       vertex -0.0454337 -0.23097 0.1
       vertex -0.0454337 -0.23097 0
       vertex -0.0144677 -0.241481 0
    endloop
  endfacet
  facet normal -0.442302 -0.896866 0
    outer loop
       vertex -0.0454337 -0.23097 0
       vertex -0.0454337 -0.23097 0.1
       vertex -0.0747627 -0.216506 0.1
    endloop
  endfacet
  facet normal -0.442302 -0.896866 -0
    outer loop
       vertex -0.0747627 -0.216506 0.1
       vertex -0.0747627 -0.216506 0
       vertex -0.0454337 -0.23097 0
    endloop
  endfacet
  facet normal -0.555561 -0.831476 0
    outer loop
       vertex -0.0747627 -0.216506 0
       vertex -0.0747627 -0.216506 0.1
       vertex -0.101954 -0.198338 0.1
    endloop
  endfacet
  facet normal -0.555561 -0.831476 -0
    outer loop
       vertex -0.101954 -0.198338 0.1
       vertex -0.101954 -0.198338 0
       vertex -0.0747627 -0.216506 0
    endloop
  endfacet
  facet normal -0.659372 -0.751817 0
    outer loop
       vertex -0.101954 -0.198338 0
       vertex -0.101954 -0.198338 0.1
       vertex -0.126539 -0.176776 0.1
    endloop
  endfacet
  facet normal -0.659372 -0.751817 -0
    outer loop
       vertex -0.126539 -0.176776 0.1
       vertex -0.126539 -0.176776 0
       vertex -0.101954 -0.198338 0
    endloop
  endfacet
endsolid cylinder
