solid cylinder
  facet normal 0.751817 -0.659372 0
    outer loop
       vertex 0.44023 -0.176776 0
       vertex 0.461792 -0.152191 0
       vertex 0.461792 -0.152191 0.1
    endloop
  endfacet
  facet normal 0.751817 -0.659372 0
    outer loop
       vertex 0.461792 -0.152191 0.1
       vertex 0.44023 -0.176776 0.1
       vertex 0.44023 -0.176776 0
    endloop
  endfacet
  facet normal 0.831476 -0.555561 0
    outer loop
       vertex 0.461792 -0.152191 0
       vertex 0.47996 -0.125 0
       vertex 0.47996 -0.125 0.1
    endloop
  endfacet
  facet normal 0.831476 -0.555561 0
    outer loop
       vertex 0.47996 -0.125 0.1
       vertex 0.461792 -0.152191 0.1
       vertex 0.461792 -0.152191 0
    endloop
  endfacet
  facet normal 0.896866 -0.442302 0
    outer loop
       vertex 0.47996 -0.125 0
       vertex 0.494424 -0.095671 0
       vertex 0.494424 -0.095671 0.1
    endloop
  endfacet
  facet normal 0.896866 -0.442302 0
    outer loop
       vertex 0.494424 -0.095671 0.1
       vertex 0.47996 -0.125 0.1
       vertex 0.47996 -0.125 0
    endloop
  endfacet
  facet normal 0.946935 -0.321425 0
    outer loop
       vertex 0.494424 -0.095671 0
       vertex 0.504935 -0.064705 0
       vertex 0.504935 -0.064705 0.1
    endloop
  endfacet
  facet normal 0.946935 -0.321425 0
    outer loop
       vertex 0.504935 -0.064705 0.1
       vertex 0.494424 -0.095671 0.1
       vertex 0.494424 -0.095671 0
    endloop
  endfacet
  facet normal 0.980784 -0.195096 0
    outer loop
       vertex 0.504935 -0.064705 0
       vertex 0.511315 -0.0326315 0
       vertex 0.511315 -0.0326315 0.1
    endloop
  endfacet
  facet normal 0.980784 -0.195096 0
    outer loop
       vertex 0.511315 -0.0326315 0.1
       vertex 0.504935 -0.064705 0.1
       vertex 0.504935 -0.064705 0
    endloop
  endfacet
  facet normal 0.997858 -0.0654098 0
    outer loop
       vertex 0.513454 -8.32665e-17 0.1
       vertex 0.511315 -0.0326315 0.1
       vertex 0.511315 -0.0326315 0
    endloop
  endfacet
  facet normal 0.997858 -0.0654098 -1.0893e-16
    outer loop
       vertex 0.511315 -0.0326315 0
       vertex 0.513454 8.32665e-17 0
       vertex 0.513454 -8.32665e-17 0.1
    endloop
  endfacet
  facet normal 0.997858 0.0654098 0
    outer loop
       vertex 0.513454 8.32665e-17 0
       vertex 0.511315 0.0326315 0
       vertex 0.511315 0.0326315 0.1
    endloop
  endfacet
  facet normal 0.997858 0.0654098 1.0893e-16
    outer loop
       vertex 0.511315 0.0326315 0.1
       vertex 0.513454 -8.32665e-17 0.1
       vertex 0.513454 8.32665e-17 0
    endloop
  endfacet
  facet normal 0.980784 0.195096 0
    outer loop
       vertex 0.511315 0.0326315 0
       vertex 0.504935 0.064705 0
       vertex 0.504935 0.064705 0.1
    endloop
  endfacet
  facet normal 0.980784 0.195096 0
    outer loop
       vertex 0.504935 0.064705 0.1
       vertex 0.511315 0.0326315 0.1
       vertex 0.511315 0.0326315 0
    endloop
  endfacet
  facet normal 0.946935 0.321425 0
    outer loop
       vertex 0.504935 0.064705 0
       vertex 0.494424 0.095671 0
       vertex 0.494424 0.095671 0.1
    endloop
  endfacet
  facet normal 0.946935 0.321425 0
    outer loop
       vertex 0.494424 0.095671 0.1
       vertex 0.504935 0.064705 0.1
       vertex 0.504935 0.064705 0
    endloop
  endfacet
  facet normal 0.896866 0.442302 0
    outer loop
       vertex 0.494424 0.095671 0
       vertex 0.47996 0.125 0
       vertex 0.47996 0.125 0.1
    endloop
  endfacet
  facet normal 0.896866 0.442302 0
    outer loop
       vertex 0.47996 0.125 0.1
       vertex 0.494424 0.095671 0.1
       vertex 0.494424 0.095671 0
    endloop
  endfacet
  facet normal 0.831476 0.555561 0
    outer loop
       vertex 0.47996 0.125 0
       vertex 0.461792 0.152191 0
       vertex 0.461792 0.152191 0.1
    endloop
  endfacet
  facet normal 0.831476 0.555561 0
    outer loop
       vertex 0.461792 0.152191 0.1
       vertex 0.47996 0.125 0.1
       vertex 0.47996 0.125 0
    endloop
  endfacet
  facet normal 0.751817 0.659372 0
    outer loop
       vertex 0.461792 0.152191 0
       vertex 0.44023 0.176776 0
       vertex 0.44023 0.176776 0.1
    endloop
  endfacet
  facet normal 0.751817 0.659372 0
    outer loop
       vertex 0.44023 0.176776 0.1
       vertex 0.461792 0.152191 0.1
       vertex 0.461792 0.152191 0
    endloop
  endfacet
  facet normal 0.659372 0.751817 0
    outer loop
       vertex 0.44023 0.176776 0
       vertex 0.415645 0.198338 0
       vertex 0.415645 0.198338 0.1
    endloop
  endfacet
  facet normal 0.659372 0.751817 0
    outer loop
       vertex 0.415645 0.198338 0.1
       vertex 0.44023 0.176776 0.1
       vertex 0.44023 0.176776 0
    endloop
  endfacet
  facet normal 0.555561 0.831476 0
    outer loop
       vertex 0.415645 0.198338 0
       vertex 0.388454 0.216506 0
       vertex 0.388454 0.216506 0.1
    endloop
  endfacet
  facet normal 0.555561 0.831476 0
    outer loop
       vertex 0.388454 0.216506 0.1
       vertex 0.415645 0.198338 0.1
       vertex 0.415645 0.198338 0
    endloop
  endfacet
  facet normal 0.442302 0.896866 0
    outer loop
       vertex 0.388454 0.216506 0
       vertex 0.359125 0.23097 0
       vertex 0.359125 0.23097 0.1
    endloop
  endfacet
  facet normal 0.442302 0.896866 0
    outer loop
       vertex 0.359125 0.23097 0.1
       vertex 0.388454 0.216506 0.1
       vertex 0.388454 0.216506 0
    endloop
  endfacet
  facet normal 0.321425 0.946935 0
    outer loop
       vertex 0.359125 0.23097 0
       vertex 0.328159 0.241481 0
       vertex 0.328159 0.241481 0.1
    endloop
  endfacet
  facet normal 0.321425 0.946935 0
    outer loop
       vertex 0.328159 0.241481 0.1
       vertex 0.359125 0.23097 0.1
       vertex 0.359125 0.23097 0
    endloop
  endfacet
  facet normal 0.195096 0.980784 0
    outer loop
       vertex 0.328159 0.241481 0
       vertex 0.296085 0.247861 0
       vertex 0.296085 0.247861 0.1
    endloop
  endfacet
  facet normal 0.195096 0.980784 0
    outer loop
       vertex 0.296085 0.247861 0.1
       vertex 0.328159 0.241481 0.1
       vertex 0.328159 0.241481 0
    endloop
  endfacet
  facet normal 0.0654098 0.997858 0
    outer loop
       vertex 0.263454 0.25 0.1
       vertex 0.296085 0.247861 0.1
       vertex 0.296085 0.247861 0
    endloop
  endfacet
  facet normal 0.0654098 0.997858 -7.26205e-17
    outer loop
       vertex 0.296085 0.247861 0
       vertex 0.263454 0.25 0
       vertex 0.263454 0.25 0.1
    endloop
  endfacet
  facet normal -0.0654098 0.997858 0
    outer loop
       vertex 0.263454 0.25 0
       vertex 0.230822 0.247861 0
       vertex 0.230822 0.247861 0.1
    endloop
  endfacet
  facet normal -0.0654098 0.997858 7.26205e-17
    outer loop
       vertex 0.230822 0.247861 0.1
       vertex 0.263454 0.25 0.1
       vertex 0.263454 0.25 0
    endloop
  endfacet
  facet normal -0.195096 0.980784 0
    outer loop
       vertex 0.230822 0.247861 0
       vertex 0.198749 0.241481 0
       vertex 0.198749 0.241481 0.1
    endloop
  endfacet
  facet normal -0.195096 0.980784 0
    outer loop
       vertex 0.198749 0.241481 0.1
       vertex 0.230822 0.247861 0.1
       vertex 0.230822 0.247861 0
    endloop
  endfacet
  facet normal -0.321425 0.946935 0
    outer loop
       vertex 0.198749 0.241481 0
       vertex 0.167783 0.23097 0
       vertex 0.167783 0.23097 0.1
    endloop
  endfacet
  facet normal -0.321425 0.946935 0
    outer loop
       vertex 0.167783 0.23097 0.1
       vertex 0.198749 0.241481 0.1
       vertex 0.198749 0.241481 0
    endloop
  endfacet
  facet normal -0.442302 0.896866 0
    outer loop
       vertex 0.167783 0.23097 0
       vertex 0.138454 0.216506 0
       vertex 0.138454 0.216506 0.1
    endloop
  endfacet
  facet normal -0.442302 0.896866 0
    outer loop
       vertex 0.138454 0.216506 0.1
       vertex 0.167783 0.23097 0.1
       vertex 0.167783 0.23097 0
    endloop
  endfacet
  facet normal -0.555561 0.831476 0
    outer loop
       vertex 0.138454 0.216506 0
       vertex 0.111263 0.198338 0
       vertex 0.111263 0.198338 0.1
    endloop
  endfacet
  facet normal -0.555561 0.831476 0
    outer loop
       vertex 0.111263 0.198338 0.1
       vertex 0.138454 0.216506 0.1
       vertex 0.138454 0.216506 0
    endloop
  endfacet
  facet normal -0.659372 0.751817 0
    outer loop
       vertex 0.111263 0.198338 0
       vertex 0.0866778 0.176776 0
       vertex 0.0866778 0.176776 0.1
    endloop
  endfacet
  facet normal -0.659372 0.751817 0
    outer loop
       vertex 0.0866778 0.176776 0.1
       vertex 0.111263 0.198338 0.1
       vertex 0.111263 0.198338 0
    endloop
  endfacet
  facet normal -0.751817 0.659372 0
    outer loop
       vertex 0.0866778 0.176776 0
       vertex 0.0651158 0.152191 0
       vertex 0.0651158 0.152191 0.1
    endloop
  endfacet
  facet normal -0.751817 0.659372 0
    outer loop
       vertex 0.0651158 0.152191 0.1
       vertex 0.0866778 0.176776 0.1
       vertex 0.0866778 0.176776 0
    endloop
  endfacet
  facet normal -0.831476 0.555561 0
    outer loop
       vertex 0.0651158 0.152191 0
       vertex 0.0469478 0.125 0
       vertex 0.0469478 0.125 0.1
    endloop
  endfacet
  facet normal -0.831476 0.555561 0
    outer loop
       vertex 0.0469478 0.125 0.1
       vertex 0.0651158 0.152191 0.1
       vertex 0.0651158 0.152191 0
    endloop
  endfacet
  facet normal -0.896866 0.442302 0
    outer loop
       vertex 0.0469478 0.125 0
       vertex 0.0324838 0.095671 0
       vertex 0.0324838 0.095671 0.1
    endloop
  endfacet
  facet normal -0.896866 0.442302 0
    outer loop
       vertex 0.0324838 0.095671 0.1
       vertex 0.0469478 0.125 0.1
       vertex 0.0469478 0.125 0
    endloop
  endfacet
  facet normal -0.946935 0.321425 0
    outer loop
       vertex 0.0324838 0.095671 0
       vertex 0.0219728 0.064705 0
       vertex 0.0219728 0.064705 0.1
    endloop
  endfacet
  facet normal -0.946935 0.321425 0
    outer loop
       vertex 0.0219728 0.064705 0.1
       vertex 0.0324838 0.095671 0.1
       vertex 0.0324838 0.095671 0
    endloop
  endfacet
  facet normal -0.980784 0.195096 0
    outer loop
       vertex 0.0219728 0.064705 0
       vertex 0.0155928 0.0326315 0
       vertex 0.0155928 0.0326315 0.1
    endloop
  endfacet
  facet normal -0.980784 0.195096 0
    outer loop
       vertex 0.0155928 0.0326315 0.1
       vertex 0.0219728 0.064705 0.1
       vertex 0.0219728 0.064705 0
    endloop
  endfacet
  facet normal -0.997858 0.0654098 0
    outer loop
       vertex 0.0134538 8.32665e-17 0.1
       vertex 0.0155928 0.0326315 0.1
       vertex 0.0155928 0.0326315 0
    endloop
  endfacet
  facet normal -0.997858 0.0654098 -1.08928e-16
    outer loop
       vertex 0.0155928 0.0326315 0
       vertex 0.0134538 -8.32665e-17 0
       vertex 0.0134538 8.32665e-17 0.1
    endloop
  endfacet
  facet normal -0.997858 -0.0654098 0
    outer loop
       vertex 0.0134538 -8.32665e-17 0
       vertex 0.0155928 -0.0326315 0
       vertex 0.0155928 -0.0326315 0.1
    endloop
  endfacet
  facet normal -0.997858 -0.0654098 1.08928e-16
    outer loop
       vertex 0.0155928 -0.0326315 0.1
       vertex 0.0134538 8.32665e-17 0.1
       vertex 0.0134538 -8.32665e-17 0
    endloop
  endfacet
  facet normal -0.980784 -0.195096 0
    outer loop
       vertex 0.0155928 -0.0326315 0
       vertex 0.0219728 -0.064705 0
       vertex 0.0219728 -0.064705 0.1
    endloop
  endfacet
  facet normal -0.980784 -0.195096 0
    outer loop
       vertex 0.0219728 -0.064705 0.1
       vertex 0.0155928 -0.0326315 0.1
       vertex 0.0155928 -0.0326315 0
    endloop
  endfacet
  facet normal -0.946935 -0.321425 0
    outer loop
       vertex 0.0219728 -0.064705 0
       vertex 0.0324838 -0.095671 0
       vertex 0.0324838 -0.095671 0.1
    endloop
  endfacet
  facet normal -0.946935 -0.321425 0
    outer loop
       vertex 0.0324838 -0.095671 0.1
       vertex 0.0219728 -0.064705 0.1
       vertex 0.0219728 -0.064705 0
    endloop
  endfacet
  facet normal -0.896866 -0.442302 0
    outer loop
       vertex 0.0324838 -0.095671 0
       vertex 0.0469478 -0.125 0
       vertex 0.0469478 -0.125 0.1
    endloop
  endfacet
  facet normal -0.896866 -0.442302 0
    outer loop
       vertex 0.0469478 -0.125 0.1
       vertex 0.0324838 -0.095671 0.1
       vertex 0.0324838 -0.095671 0
    endloop
  endfacet
  facet normal -0.831476 -0.555561 0
    outer loop
       vertex 0.0469478 -0.125 0
       vertex 0.0651158 -0.152191 0
       vertex 0.0651158 -0.152191 0.1
    endloop
  endfacet
  facet normal -0.831476 -0.555561 0
    outer loop
       vertex 0.0651158 -0.152191 0.1
       vertex 0.0469478 -0.125 0.1
       vertex 0.0469478 -0.125 0
    endloop
  endfacet
  facet normal -0.751817 -0.659372 0
    outer loop
       vertex 0.0651158 -0.152191 0
       vertex 0.0866778 -0.176776 0
       vertex 0.0866778 -0.176776 0.1
    endloop
  endfacet
  facet normal -0.751817 -0.659372 0
    outer loop
       vertex 0.0866778 -0.176776 0.1
       vertex 0.0651158 -0.152191 0.1
       vertex 0.0651158 -0.152191 0
    endloop
  endfacet
  facet normal 0.659372 -0.751817 0
    outer loop
       vertex 0.44023 -0.176776 0
       vertex 0.44023 -0.176776 0.1
       vertex 0.415645 -0.198338 0.1
    endloop
  endfacet
  facet normal 0.659372 -0.751817 0
    outer loop
       vertex 0.415645 -0.198338 0.1
       vertex 0.415645 -0.198338 0
       vertex 0.44023 -0.176776 0
    endloop
  endfacet
  facet normal 0.555561 -0.831476 0
    outer loop
       vertex 0.415645 -0.198338 0
       vertex 0.415645 -0.198338 0.1
       vertex 0.388454 -0.216506 0.1
    endloop
  endfacet
  facet normal 0.555561 -0.831476 0
    outer loop
       vertex 0.388454 -0.216506 0.1
       vertex 0.388454 -0.216506 0
       vertex 0.415645 -0.198338 0
    endloop
  endfacet
  facet normal 0.442302 -0.896866 0
    outer loop
       vertex 0.388454 -0.216506 0
       vertex 0.388454 -0.216506 0.1
       vertex 0.359125 -0.23097 0.1
    endloop
  endfacet
  facet normal 0.442302 -0.896866 0
    outer loop
       vertex 0.359125 -0.23097 0.1
       vertex 0.359125 -0.23097 0
       vertex 0.388454 -0.216506 0
    endloop
  endfacet
  facet normal 0.321425 -0.946935 0
    outer loop
       vertex 0.359125 -0.23097 0
       vertex 0.359125 -0.23097 0.1
       vertex 0.328159 -0.241481 0.1
    endloop
  endfacet
  facet normal 0.321425 -0.946935 0
    outer loop
       vertex 0.328159 -0.241481 0.1
       vertex 0.328159 -0.241481 0
       vertex 0.359125 -0.23097 0
    endloop
  endfacet
  facet normal 0.195096 -0.980784 0
    outer loop
       vertex 0.328159 -0.241481 0
       vertex 0.328159 -0.241481 0.1
       vertex 0.296085 -0.247861 0.1
    endloop
  endfacet
  facet normal 0.195096 -0.980784 0
    outer loop
       vertex 0.296085 -0.247861 0.1
       vertex 0.296085 -0.247861 0
       vertex 0.328159 -0.241481 0
    endloop
  endfacet
  facet normal 0.0654098 -0.997858 0
    outer loop
       vertex 0.263454 -0.25 0
       vertex 0.296085 -0.247861 0
       vertex 0.296085 -0.247861 0.1
    endloop
  endfacet
  facet normal 0.0654098 -0.997858 7.26205e-17
    outer loop
       vertex 0.296085 -0.247861 0.1
       vertex 0.263454 -0.25 0.1
       vertex 0.263454 -0.25 0
    endloop
  endfacet
  facet normal -0.0654098 -0.997858 0
    outer loop
       vertex 0.263454 -0.25 0.1
       vertex 0.230822 -0.247861 0.1
       vertex 0.230822 -0.247861 0
    endloop
  endfacet
  facet normal -0.0654098 -0.997858 -7.26205e-17
    outer loop
       vertex 0.230822 -0.247861 0
       vertex 0.263454 -0.25 0
       vertex 0.263454 -0.25 0.1
    endloop
  endfacet
  facet normal -0.195096 -0.980784 0
    outer loop
       vertex 0.230822 -0.247861 0
       vertex 0.230822 -0.247861 0.1
       vertex 0.198749 -0.241481 0.1
    endloop
  endfacet
  facet normal -0.195096 -0.980784 -0
    outer loop
       vertex 0.198749 -0.241481 0.1
       vertex 0.198749 -0.241481 0
       vertex 0.230822 -0.247861 0
    endloop
  endfacet
  facet normal -0.321425 -0.946935 0
    outer loop
       vertex 0.198749 -0.241481 0
       vertex 0.198749 -0.241481 0.1
       vertex 0.167783 -0.23097 0.1
    endloop
  endfacet
  facet normal -0.321425 -0.946935 -0
    outer loop
       vertex 0.167783 -0.23097 0.1
       vertex 0.167783 -0.23097 0
       vertex 0.198749 -0.241481 0
    endloop
  endfacet
  facet normal -0.442302 -0.896866 0
    outer loop
       vertex 0.167783 -0.23097 0
       vertex 0.167783 -0.23097 0.1
       vertex 0.138454 -0.216506 0.1
    endloop
  endfacet
  facet normal -0.442302 -0.896866 -0
    outer loop
       vertex 0.138454 -0.216506 0.1
       vertex 0.138454 -0.216506 0
       vertex 0.167783 -0.23097 0
    endloop
  endfacet
  facet normal -0.555561 -0.831476 0
    outer loop
       vertex 0.138454 -0.216506 0
       vertex 0.138454 -0.216506 0.1
       vertex 0.111263 -0.198338 0.1
    endloop
  endfacet
  facet normal -0.555561 -0.831476 -0
    outer loop
       vertex 0.111263 -0.198338 0.1
       vertex 0.111263 -0.198338 0
       vertex 0.138454 -0.216506 0
    endloop
  endfacet
  facet normal -0.659372 -0.751817 0
    outer loop
       vertex 0.111263 -0.198338 0
       vertex 0.111263 -0.198338 0.1
       vertex 0.0866778 -0.176776 0.1
    endloop
  endfacet
  facet normal -0.659372 -0.751817 -0
    outer loop
       vertex 0.0866778 -0.176776 0.1
       vertex 0.0866778 -0.176776 0
       vertex 0.111263 -0.198338 0
    endloop
  endfacet
endsolid cylinder
