solid cylinder
  facet normal 0.751817 -0.659372 0
    outer loop
       vertex 0.48256 -0.176776 0
       vertex 0.504122 -0.152191 0
       vertex 0.504122 -0.152191 0.1
    endloop
  endfacet
  facet normal 0.751817 -0.659372 0
    outer loop
       vertex 0.504122 -0.152191 0.1
       vertex 0.48256 -0.176776 0.1
       vertex 0.48256 -0.176776 0
    endloop
  endfacet
  facet normal 0.831476 -0.555561 0
    outer loop
       vertex 0.504122 -0.152191 0
       vertex 0.52229 -0.125 0
       vertex 0.52229 -0.125 0.1
    endloop
  endfacet
  facet normal 0.831476 -0.555561 0
    outer loop
       vertex 0.52229 -0.125 0.1
       vertex 0.504122 -0.152191 0.1
       vertex 0.504122 -0.152191 0
    endloop
  endfacet
  facet normal 0.896866 -0.442302 0
    outer loop
       vertex 0.52229 -0.125 0
       vertex 0.536754 -0.095671 0
       vertex 0.536754 -0.095671 0.1
    endloop
  endfacet
  facet normal 0.896866 -0.442302 0
    outer loop
       vertex 0.536754 -0.095671 0.1
       vertex 0.52229 -0.125 0.1
       vertex 0.52229 -0.125 0
    endloop
  endfacet
  facet normal 0.946935 -0.321425 0
    outer loop
       vertex 0.536754 -0.095671 0
       vertex 0.547265 -0.064705 0
       vertex 0.547265 -0.064705 0.1
    endloop
  endfacet
  facet normal 0.946935 -0.321425 0
    outer loop
       vertex 0.547265 -0.064705 0.1
       vertex 0.536754 -0.095671 0.1
       vertex 0.536754 -0.095671 0
    endloop
  endfacet
  facet normal 0.980784 -0.195096 0
    outer loop
       vertex 0.547265 -0.064705 0
       vertex 0.553645 -0.0326315 0
       vertex 0.553645 -0.0326315 0.1
    endloop
  endfacet
  facet normal 0.980784 -0.195096 0
    outer loop
       vertex 0.553645 -0.0326315 0.1
       vertex 0.547265 -0.064705 0.1
       vertex 0.547265 -0.064705 0
    endloop
  endfacet
  facet normal 0.997858 -0.0654098 0
    outer loop
       vertex 0.555784 -8.32665e-17 0.1
       vertex 0.553645 -0.0326315 0.1
       vertex 0.553645 -0.0326315 0
    endloop
  endfacet
  facet normal 0.997858 -0.0654098 -1.0893e-16
    outer loop
       vertex 0.553645 -0.0326315 0
       vertex 0.555784 8.32665e-17 0
       vertex 0.555784 -8.32665e-17 0.1
    endloop
  endfacet
  facet normal 0.997858 0.0654098 0
    outer loop
       vertex 0.555784 8.32665e-17 0
       vertex 0.553645 0.0326315 0
       vertex 0.553645 0.0326315 0.1
    endloop
  endfacet
  facet normal 0.997858 0.0654098 1.0893e-16
    outer loop
       vertex 0.553645 0.0326315 0.1
       vertex 0.555784 -8.32665e-17 0.1
       vertex 0.555784 8.32665e-17 0
    endloop
  endfacet
  facet normal 0.980784 0.195096 0
    outer loop
       vertex 0.553645 0.0326315 0
       vertex 0.547265 0.064705 0
       vertex 0.547265 0.064705 0.1
    endloop
  endfacet
  facet normal 0.980784 0.195096 0
    outer loop
       vertex 0.547265 0.064705 0.1
       vertex 0.553645 0.0326315 0.1
       vertex 0.553645 0.0326315 0
    endloop
  endfacet
  facet normal 0.946935 0.321425 0
    outer loop
       vertex 0.547265 0.064705 0
       vertex 0.536754 0.095671 0
       vertex 0.536754 0.095671 0.1
    endloop
  endfacet
  facet normal 0.946935 0.321425 0
    outer loop
       vertex 0.536754 0.095671 0.1
       vertex 0.547265 0.064705 0.1
       vertex 0.547265 0.064705 0
    endloop
  endfacet
  facet normal 0.896866 0.442302 0
    outer loop
       vertex 0.536754 0.095671 0
       vertex 0.52229 0.125 0
       vertex 0.52229 0.125 0.1
    endloop
  endfacet
  facet normal 0.896866 0.442302 0
    outer loop
       vertex 0.52229 0.125 0.1
       vertex 0.536754 0.095671 0.1
       vertex 0.536754 0.095671 0
    endloop
  endfacet
  facet normal 0.831476 0.555561 0
    outer loop
       vertex 0.52229 0.125 0
       vertex 0.504122 0.152191 0
       vertex 0.504122 0.152191 0.1
    endloop
  endfacet
  facet normal 0.831476 0.555561 0
    outer loop
       vertex 0.504122 0.152191 0.1
       vertex 0.52229 0.125 0.1
       vertex 0.52229 0.125 0
    endloop
  endfacet
  facet normal 0.751817 0.659372 0
    outer loop
       vertex 0.504122 0.152191 0
       vertex 0.48256 0.176776 0
       vertex 0.48256 0.176776 0.1
    endloop
  endfacet
  facet normal 0.751817 0.659372 0
    outer loop
       vertex 0.48256 0.176776 0.1
       vertex 0.504122 0.152191 0.1
       vertex 0.504122 0.152191 0
    endloop
  endfacet
  facet normal 0.659372 0.751817 0
    outer loop
       vertex 0.48256 0.176776 0
       vertex 0.457975 0.198338 0
       vertex 0.457975 0.198338 0.1
    endloop
  endfacet
  facet normal 0.659372 0.751817 0
    outer loop
       vertex 0.457975 0.198338 0.1
       vertex 0.48256 0.176776 0.1
       vertex 0.48256 0.176776 0
    endloop
  endfacet
  facet normal 0.555561 0.831476 0
    outer loop
       vertex 0.457975 0.198338 0
       vertex 0.430784 0.216506 0
       vertex 0.430784 0.216506 0.1
    endloop
  endfacet
  facet normal 0.555561 0.831476 0
    outer loop
       vertex 0.430784 0.216506 0.1
       vertex 0.457975 0.198338 0.1
       vertex 0.457975 0.198338 0
    endloop
  endfacet
  facet normal 0.442302 0.896866 0
    outer loop
       vertex 0.430784 0.216506 0
       vertex 0.401455 0.23097 0
       vertex 0.401455 0.23097 0.1
    endloop
  endfacet
  facet normal 0.442302 0.896866 0
    outer loop
       vertex 0.401455 0.23097 0.1
       vertex 0.430784 0.216506 0.1
       vertex 0.430784 0.216506 0
    endloop
  endfacet
  facet normal 0.321425 0.946935 0
    outer loop
       vertex 0.401455 0.23097 0
       vertex 0.370489 0.241481 0
       vertex 0.370489 0.241481 0.1
    endloop
  endfacet
  facet normal 0.321425 0.946935 0
    outer loop
       vertex 0.370489 0.241481 0.1
       vertex 0.401455 0.23097 0.1
       vertex 0.401455 0.23097 0
    endloop
  endfacet
  facet normal 0.195096 0.980784 0
    outer loop
       vertex 0.370489 0.241481 0
       vertex 0.338415 0.247861 0
       vertex 0.338415 0.247861 0.1
    endloop
  endfacet
  facet normal 0.195096 0.980784 0
    outer loop
       vertex 0.338415 0.247861 0.1
       vertex 0.370489 0.241481 0.1
       vertex 0.370489 0.241481 0
    endloop
  endfacet
  facet normal 0.0654098 0.997858 0
    outer loop
       vertex 0.305784 0.25 0.1
       vertex 0.338415 0.247861 0.1
       vertex 0.338415 0.247861 0
    endloop
  endfacet
  facet normal 0.0654098 0.997858 -7.26205e-17
    outer loop
       vertex 0.338415 0.247861 0
       vertex 0.305784 0.25 0
       vertex 0.305784 0.25 0.1
    endloop
  endfacet
  facet normal -0.0654098 0.997858 0
    outer loop
       vertex 0.305784 0.25 0
       vertex 0.273152 0.247861 0
       vertex 0.273152 0.247861 0.1
    endloop
  endfacet
  facet normal -0.0654098 0.997858 7.26205e-17
    outer loop
       vertex 0.273152 0.247861 0.1
       vertex 0.305784 0.25 0.1
       vertex 0.305784 0.25 0
    endloop
  endfacet
  facet normal -0.195096 0.980784 0
    outer loop
       vertex 0.273152 0.247861 0
       vertex 0.241079 0.241481 0
       vertex 0.241079 0.241481 0.1
    endloop
  endfacet
  facet normal -0.195096 0.980784 0
    outer loop
       vertex 0.241079 0.241481 0.1
       vertex 0.273152 0.247861 0.1
       vertex 0.273152 0.247861 0
    endloop
  endfacet
  facet normal -0.321425 0.946935 0
    outer loop
       vertex 0.241079 0.241481 0
       vertex 0.210113 0.23097 0
       vertex 0.210113 0.23097 0.1
    endloop
  endfacet
  facet normal -0.321425 0.946935 0
    outer loop
       vertex 0.210113 0.23097 0.1
       vertex 0.241079 0.241481 0.1
       vertex 0.241079 0.241481 0
    endloop
  endfacet
  facet normal -0.442302 0.896866 0
    outer loop
       vertex 0.210113 0.23097 0
       vertex 0.180784 0.216506 0
       vertex 0.180784 0.216506 0.1
    endloop
  endfacet
  facet normal -0.442302 0.896866 0
    outer loop
       vertex 0.180784 0.216506 0.1
       vertex 0.210113 0.23097 0.1
       vertex 0.210113 0.23097 0
    endloop
  endfacet
  facet normal -0.555561 0.831476 0
    outer loop
       vertex 0.180784 0.216506 0
       vertex 0.153593 0.198338 0
       vertex 0.153593 0.198338 0.1
    endloop
  endfacet
  facet normal -0.555561 0.831476 0
    outer loop
       vertex 0.153593 0.198338 0.1
       vertex 0.180784 0.216506 0.1
       vertex 0.180784 0.216506 0
    endloop
  endfacet
  facet normal -0.659372 0.751817 0
    outer loop
       vertex 0.153593 0.198338 0
       vertex 0.129008 0.176776 0
       vertex 0.129008 0.176776 0.1
    endloop
  endfacet
  facet normal -0.659372 0.751817 0
    outer loop
       vertex 0.129008 0.176776 0.1
       vertex 0.153593 0.198338 0.1
       vertex 0.153593 0.198338 0
    endloop
  endfacet
  facet normal -0.751817 0.659372 0
    outer loop
       vertex 0.129008 0.176776 0
       vertex 0.107446 0.152191 0
       vertex 0.107446 0.152191 0.1
    endloop
  endfacet
  facet normal -0.751817 0.659372 0
    outer loop
       vertex 0.107446 0.152191 0.1
       vertex 0.129008 0.176776 0.1
       vertex 0.129008 0.176776 0
    endloop
  endfacet
  facet normal -0.831476 0.555561 0
    outer loop
       vertex 0.107446 0.152191 0
       vertex 0.0892779 0.125 0
       vertex 0.0892779 0.125 0.1
    endloop
  endfacet
  facet normal -0.831476 0.555561 0
    outer loop
       vertex 0.0892779 0.125 0.1
       vertex 0.107446 0.152191 0.1
       vertex 0.107446 0.152191 0
    endloop
  endfacet
  facet normal -0.896866 0.442302 0
    outer loop
       vertex 0.0892779 0.125 0
       vertex 0.0748139 0.095671 0
       vertex 0.0748139 0.095671 0.1
    endloop
  endfacet
  facet normal -0.896866 0.442302 0
    outer loop
       vertex 0.0748139 0.095671 0.1
       vertex 0.0892779 0.125 0.1
       vertex 0.0892779 0.125 0
    endloop
  endfacet
  facet normal -0.946935 0.321425 0
    outer loop
       vertex 0.0748139 0.095671 0
       vertex 0.0643029 0.064705 0
       vertex 0.0643029 0.064705 0.1
    endloop
  endfacet
  facet normal -0.946935 0.321425 0
    outer loop
       vertex 0.0643029 0.064705 0.1
       vertex 0.0748139 0.095671 0.1
       vertex 0.0748139 0.095671 0
    endloop
  endfacet
  facet normal -0.980784 0.195096 0
    outer loop
       vertex 0.0643029 0.064705 0
       vertex 0.0579229 0.0326315 0
       vertex 0.0579229 0.0326315 0.1
    endloop
  endfacet
  facet normal -0.980784 0.195096 0
    outer loop
       vertex 0.0579229 0.0326315 0.1
       vertex 0.0643029 0.064705 0.1
       vertex 0.0643029 0.064705 0
    endloop
  endfacet
  facet normal -0.997858 0.0654098 0
    outer loop
       vertex 0.0557839 8.32665e-17 0.1
       vertex 0.0579229 0.0326315 0.1
       vertex 0.0579229 0.0326315 0
    endloop
  endfacet
  facet normal -0.997858 0.0654098 -1.08928e-16
    outer loop
       vertex 0.0579229 0.0326315 0
       vertex 0.0557839 -8.32665e-17 0
       vertex 0.0557839 8.32665e-17 0.1
    endloop
  endfacet
  facet normal -0.997858 -0.0654098 0
    outer loop
       vertex 0.0557839 -8.32665e-17 0
       vertex 0.0579229 -0.0326315 0
       vertex 0.0579229 -0.0326315 0.1
    endloop
  endfacet
  facet normal -0.997858 -0.0654098 1.08928e-16
    outer loop
       vertex 0.0579229 -0.0326315 0.1
       vertex 0.0557839 8.32665e-17 0.1
       vertex 0.0557839 -8.32665e-17 0
    endloop
  endfacet
  facet normal -0.980784 -0.195096 0
    outer loop
       vertex 0.0579229 -0.0326315 0
       vertex 0.0643029 -0.064705 0
       vertex 0.0643029 -0.064705 0.1
    endloop
  endfacet
  facet normal -0.980784 -0.195096 0
    outer loop
       vertex 0.0643029 -0.064705 0.1
       vertex 0.0579229 -0.0326315 0.1
       vertex 0.0579229 -0.0326315 0
    endloop
  endfacet
  facet normal -0.946935 -0.321425 0
    outer loop
       vertex 0.0643029 -0.064705 0
       vertex 0.0748139 -0.095671 0
       vertex 0.0748139 -0.095671 0.1
    endloop
  endfacet
  facet normal -0.946935 -0.321425 0
    outer loop
       vertex 0.0748139 -0.095671 0.1
       vertex 0.0643029 -0.064705 0.1
       vertex 0.0643029 -0.064705 0
    endloop
  endfacet
  facet normal -0.896866 -0.442302 0
    outer loop
       vertex 0.0748139 -0.095671 0
       vertex 0.0892779 -0.125 0
       vertex 0.0892779 -0.125 0.1
    endloop
  endfacet
  facet normal -0.896866 -0.442302 0
    outer loop
       vertex 0.0892779 -0.125 0.1
       vertex 0.0748139 -0.095671 0.1
       vertex 0.0748139 -0.095671 0
    endloop
  endfacet
  facet normal -0.831476 -0.555561 0
    outer loop
       vertex 0.0892779 -0.125 0
       vertex 0.107446 -0.152191 0
       vertex 0.107446 -0.152191 0.1
    endloop
  endfacet
  facet normal -0.831476 -0.555561 0
    outer loop
       vertex 0.107446 -0.152191 0.1
       vertex 0.0892779 -0.125 0.1
       vertex 0.0892779 -0.125 0
    endloop
  endfacet
  facet normal -0.751817 -0.659372 0
    outer loop
       vertex 0.107446 -0.152191 0
       vertex 0.129008 -0.176776 0
       vertex 0.129008 -0.176776 0.1
    endloop
  endfacet
  facet normal -0.751817 -0.659372 0
    outer loop
       vertex 0.129008 -0.176776 0.1
       vertex 0.107446 -0.152191 0.1
       vertex 0.107446 -0.152191 0
    endloop
  endfacet
  facet normal 0.659372 -0.751817 0
    outer loop
       vertex 0.48256 -0.176776 0
       vertex 0.48256 -0.176776 0.1
       vertex 0.457975 -0.198338 0.1
    endloop
  endfacet
  facet normal 0.659372 -0.751817 0
    outer loop
       vertex 0.457975 -0.198338 0.1
       vertex 0.457975 -0.198338 0
       vertex 0.48256 -0.176776 0
    endloop
  endfacet
  facet normal 0.555561 -0.831476 0
    outer loop
       vertex 0.457975 -0.198338 0
       vertex 0.457975 -0.198338 0.1
       vertex 0.430784 -0.216506 0.1
    endloop
  endfacet
  facet normal 0.555561 -0.831476 0
    outer loop
       vertex 0.430784 -0.216506 0.1
       vertex 0.430784 -0.216506 0
       vertex 0.457975 -0.198338 0
    endloop
  endfacet
  facet normal 0.442302 -0.896866 0
    outer loop
       vertex 0.430784 -0.216506 0
       vertex 0.430784 -0.216506 0.1
       vertex 0.401455 -0.23097 0.1
    endloop
  endfacet
  facet normal 0.442302 -0.896866 0
    outer loop
       vertex 0.401455 -0.23097 0.1
       vertex 0.401455 -0.23097 0
       vertex 0.430784 -0.216506 0
    endloop
  endfacet
  facet normal 0.321425 -0.946935 0
    outer loop
       vertex 0.401455 -0.23097 0
       vertex 0.401455 -0.23097 0.1
       vertex 0.370489 -0.241481 0.1
    endloop
  endfacet
  facet normal 0.321425 -0.946935 0
    outer loop
       vertex 0.370489 -0.241481 0.1
       vertex 0.370489 -0.241481 0
       vertex 0.401455 -0.23097 0
    endloop
  endfacet
  facet normal 0.195096 -0.980784 0
    outer loop
       vertex 0.370489 -0.241481 0
       vertex 0.370489 -0.241481 0.1
       vertex 0.338415 -0.247861 0.1
    endloop
  endfacet
  facet normal 0.195096 -0.980784 0
    outer loop
       vertex 0.338415 -0.247861 0.1
       vertex 0.338415 -0.247861 0
       vertex 0.370489 -0.241481 0
    endloop
  endfacet
  facet normal 0.0654098 -0.997858 0
    outer loop
       vertex 0.305784 -0.25 0
       vertex 0.338415 -0.247861 0
       vertex 0.338415 -0.247861 0.1
    endloop
  endfacet
  facet normal 0.0654098 -0.997858 7.26205e-17
    outer loop
       vertex 0.338415 -0.247861 0.1
       vertex 0.305784 -0.25 0.1
       vertex 0.305784 -0.25 0
    endloop
  endfacet
  facet normal -0.0654098 -0.997858 0
    outer loop
       vertex 0.305784 -0.25 0.1
       vertex 0.273152 -0.247861 0.1
       vertex 0.273152 -0.247861 0
    endloop
  endfacet
  facet normal -0.0654098 -0.997858 -7.26205e-17
    outer loop
       vertex 0.273152 -0.247861 0
       vertex 0.305784 -0.25 0
       vertex 0.305784 -0.25 0.1
    endloop
  endfacet
  facet normal -0.195096 -0.980784 0
    outer loop
       vertex 0.273152 -0.247861 0
       vertex 0.273152 -0.247861 0.1
       vertex 0.241079 -0.241481 0.1
    endloop
  endfacet
  facet normal -0.195096 -0.980784 -0
    outer loop
       vertex 0.241079 -0.241481 0.1
       vertex 0.241079 -0.241481 0
       vertex 0.273152 -0.247861 0
    endloop
  endfacet
  facet normal -0.321425 -0.946935 0
    outer loop
       vertex 0.241079 -0.241481 0
       vertex 0.241079 -0.241481 0.1
       vertex 0.210113 -0.23097 0.1
    endloop
  endfacet
  facet normal -0.321425 -0.946935 -0
    outer loop
       vertex 0.210113 -0.23097 0.1
       vertex 0.210113 -0.23097 0
       vertex 0.241079 -0.241481 0
    endloop
  endfacet
  facet normal -0.442302 -0.896866 0
    outer loop
       vertex 0.210113 -0.23097 0
       vertex 0.210113 -0.23097 0.1
       vertex 0.180784 -0.216506 0.1
    endloop
  endfacet
  facet normal -0.442302 -0.896866 -0
    outer loop
       vertex 0.180784 -0.216506 0.1
       vertex 0.180784 -0.216506 0
       vertex 0.210113 -0.23097 0
    endloop
  endfacet
  facet normal -0.555561 -0.831476 0
    outer loop
       vertex 0.180784 -0.216506 0
       vertex 0.180784 -0.216506 0.1
       vertex 0.153593 -0.198338 0.1
    endloop
  endfacet
  facet normal -0.555561 -0.831476 -0
    outer loop
       vertex 0.153593 -0.198338 0.1
       vertex 0.153593 -0.198338 0
       vertex 0.180784 -0.216506 0
    endloop
  endfacet
  facet normal -0.659372 -0.751817 0
    outer loop
       vertex 0.153593 -0.198338 0
       vertex 0.153593 -0.198338 0.1
       vertex 0.129008 -0.176776 0.1
    endloop
  endfacet
  facet normal -0.659372 -0.751817 -0
    outer loop
       vertex 0.129008 -0.176776 0.1
       vertex 0.129008 -0.176776 0
       vertex 0.153593 -0.198338 0
    endloop
  endfacet
endsolid cylinder
