solid cylinder
  facet normal 0.751817 -0.659372 0
    outer loop
       vertex -0.0603274 -0.176776 0
       vertex -0.0387654 -0.152191 0
       vertex -0.0387654 -0.152191 0.1
    endloop
  endfacet
  facet normal 0.751817 -0.659372 0
    outer loop
       vertex -0.0387654 -0.152191 0.1
       vertex -0.0603274 -0.176776 0.1
       vertex -0.0603274 -0.176776 0
    endloop
  endfacet
  facet normal 0.831476 -0.555561 0
    outer loop
       vertex -0.0387654 -0.152191 0
       vertex -0.0205974 -0.125 0
       vertex -0.0205974 -0.125 0.1
    endloop
  endfacet
  facet normal 0.831476 -0.555561 0
    outer loop
       vertex -0.0205974 -0.125 0.1
       vertex -0.0387654 -0.152191 0.1
       vertex -0.0387654 -0.152191 0
    endloop
  endfacet
  facet normal 0.896866 -0.442302 0
    outer loop
       vertex -0.0205974 -0.125 0
       vertex -0.00613336 -0.095671 0
       vertex -0.00613336 -0.095671 0.1
    endloop
  endfacet
  facet normal 0.896866 -0.442302 0
    outer loop
       vertex -0.00613336 -0.095671 0.1
       vertex -0.0205974 -0.125 0.1
       vertex -0.0205974 -0.125 0
    endloop
  endfacet
  facet normal 0.946935 -0.321425 0
    outer loop
       vertex -0.00613336 -0.095671 0
       vertex 0.00437764 -0.064705 0
       vertex 0.00437764 -0.064705 0.1
    endloop
  endfacet
  facet normal 0.946935 -0.321425 0
    outer loop
       vertex 0.00437764 -0.064705 0.1
       vertex -0.00613336 -0.095671 0.1
       vertex -0.00613336 -0.095671 0
    endloop
  endfacet
  facet normal 0.980784 -0.195096 0
    outer loop
       vertex 0.00437764 -0.064705 0
       vertex 0.0107576 -0.0326315 0
       vertex 0.0107576 -0.0326315 0.1
    endloop
  endfacet
  facet normal 0.980784 -0.195096 0
    outer loop
       vertex 0.0107576 -0.0326315 0.1
       vertex 0.00437764 -0.064705 0.1
       vertex 0.00437764 -0.064705 0
    endloop
  endfacet
  facet normal 0.997858 -0.0654098 0
    outer loop
       vertex 0.0128966 -8.32665e-17 0.1
       vertex 0.0107576 -0.0326315 0.1
       vertex 0.0107576 -0.0326315 0
    endloop
  endfacet
  facet normal 0.997858 -0.0654098 -1.08928e-16
    outer loop
       vertex 0.0107576 -0.0326315 0
       vertex 0.0128966 8.32665e-17 0
       vertex 0.0128966 -8.32665e-17 0.1
    endloop
  endfacet
  facet normal 0.997858 0.0654098 0
    outer loop
       vertex 0.0128966 8.32665e-17 0
       vertex 0.0107576 0.0326315 0
       vertex 0.0107576 0.0326315 0.1
    endloop
  endfacet
  facet normal 0.997858 0.0654098 1.08928e-16
    outer loop
       vertex 0.0107576 0.0326315 0.1
       vertex 0.0128966 -8.32665e-17 0.1
       vertex 0.0128966 8.32665e-17 0
    endloop
  endfacet
  facet normal 0.980784 0.195096 0
    outer loop
       vertex 0.0107576 0.0326315 0
       vertex 0.00437764 0.064705 0
       vertex 0.00437764 0.064705 0.1
    endloop
  endfacet
  facet normal 0.980784 0.195096 0
    outer loop
       vertex 0.00437764 0.064705 0.1
       vertex 0.0107576 0.0326315 0.1
       vertex 0.0107576 0.0326315 0
    endloop
  endfacet
  facet normal 0.946935 0.321425 0
    outer loop
       vertex 0.00437764 0.064705 0
       vertex -0.00613336 0.095671 0
       vertex -0.00613336 0.095671 0.1
    endloop
  endfacet
  facet normal 0.946935 0.321425 0
    outer loop
       vertex -0.00613336 0.095671 0.1
       vertex 0.00437764 0.064705 0.1
       vertex 0.00437764 0.064705 0
    endloop
  endfacet
  facet normal 0.896866 0.442302 0
    outer loop
       vertex -0.00613336 0.095671 0
       vertex -0.0205974 0.125 0
       vertex -0.0205974 0.125 0.1
    endloop
  endfacet
  facet normal 0.896866 0.442302 0
    outer loop
       vertex -0.0205974 0.125 0.1
       vertex -0.00613336 0.095671 0.1
       vertex -0.00613336 0.095671 0
    endloop
  endfacet
  facet normal 0.831476 0.555561 0
    outer loop
       vertex -0.0205974 0.125 0
       vertex -0.0387654 0.152191 0
       vertex -0.0387654 0.152191 0.1
    endloop
  endfacet
  facet normal 0.831476 0.555561 0
    outer loop
       vertex -0.0387654 0.152191 0.1
       vertex -0.0205974 0.125 0.1
       vertex -0.0205974 0.125 0
    endloop
  endfacet
  facet normal 0.751817 0.659372 0
    outer loop
       vertex -0.0387654 0.152191 0
       vertex -0.0603274 0.176776 0
       vertex -0.0603274 0.176776 0.1
    endloop
  endfacet
  facet normal 0.751817 0.659372 0
    outer loop
       vertex -0.0603274 0.176776 0.1
       vertex -0.0387654 0.152191 0.1
       vertex -0.0387654 0.152191 0
    endloop
  endfacet
  facet normal 0.659372 0.751817 0
    outer loop
       vertex -0.0603274 0.176776 0
       vertex -0.0849124 0.198338 0
       vertex -0.0849124 0.198338 0.1
    endloop
  endfacet
  facet normal 0.659372 0.751817 0
    outer loop
       vertex -0.0849124 0.198338 0.1
       vertex -0.0603274 0.176776 0.1
       vertex -0.0603274 0.176776 0
    endloop
  endfacet
  facet normal 0.555561 0.831476 0
    outer loop
       vertex -0.0849124 0.198338 0
       vertex -0.112103 0.216506 0
       vertex -0.112103 0.216506 0.1
    endloop
  endfacet
  facet normal 0.555561 0.831476 0
    outer loop
       vertex -0.112103 0.216506 0.1
       vertex -0.0849124 0.198338 0.1
       vertex -0.0849124 0.198338 0
    endloop
  endfacet
  facet normal 0.442302 0.896866 0
    outer loop
       vertex -0.112103 0.216506 0
       vertex -0.141432 0.23097 0
       vertex -0.141432 0.23097 0.1
    endloop
  endfacet
  facet normal 0.442302 0.896866 0
    outer loop
       vertex -0.141432 0.23097 0.1
       vertex -0.112103 0.216506 0.1
       vertex -0.112103 0.216506 0
    endloop
  endfacet
  facet normal 0.321425 0.946935 0
    outer loop
       vertex -0.141432 0.23097 0
       vertex -0.172398 0.241481 0
       vertex -0.172398 0.241481 0.1
    endloop
  endfacet
  facet normal 0.321425 0.946935 0
    outer loop
       vertex -0.172398 0.241481 0.1
       vertex -0.141432 0.23097 0.1
       vertex -0.141432 0.23097 0
    endloop
  endfacet
  facet normal 0.195096 0.980784 0
    outer loop
       vertex -0.172398 0.241481 0
       vertex -0.204472 0.247861 0
       vertex -0.204472 0.247861 0.1
    endloop
  endfacet
  facet normal 0.195096 0.980784 0
    outer loop
       vertex -0.204472 0.247861 0.1
       vertex -0.172398 0.241481 0.1
       vertex -0.172398 0.241481 0
    endloop
  endfacet
  facet normal 0.0654098 0.997858 0
    outer loop
       vertex -0.237103 0.25 0.1
       vertex -0.204472 0.247861 0.1
       vertex -0.204472 0.247861 0
    endloop
  endfacet
  facet normal 0.0654098 0.997858 -1.0893e-16
    outer loop
       vertex -0.204472 0.247861 0
       vertex -0.237103 0.25 0
       vertex -0.237103 0.25 0.1
    endloop
  endfacet
  facet normal -0.0654098 0.997858 0
    outer loop
       vertex -0.237103 0.25 0
       vertex -0.269735 0.247861 0
       vertex -0.269735 0.247861 0.1
    endloop
  endfacet
  facet normal -0.0654098 0.997858 1.0893e-16
    outer loop
       vertex -0.269735 0.247861 0.1
       vertex -0.237103 0.25 0.1
       vertex -0.237103 0.25 0
    endloop
  endfacet
  facet normal -0.195096 0.980784 0
    outer loop
       vertex -0.269735 0.247861 0
       vertex -0.301808 0.241481 0
       vertex -0.301808 0.241481 0.1
    endloop
  endfacet
  facet normal -0.195096 0.980784 0
    outer loop
       vertex -0.301808 0.241481 0.1
       vertex -0.269735 0.247861 0.1
       vertex -0.269735 0.247861 0
    endloop
  endfacet
  facet normal -0.321425 0.946935 0
    outer loop
       vertex -0.301808 0.241481 0
       vertex -0.332774 0.23097 0
       vertex -0.332774 0.23097 0.1
    endloop
  endfacet
  facet normal -0.321425 0.946935 0
    outer loop
       vertex -0.332774 0.23097 0.1
       vertex -0.301808 0.241481 0.1
       vertex -0.301808 0.241481 0
    endloop
  endfacet
  facet normal -0.442302 0.896866 0
    outer loop
       vertex -0.332774 0.23097 0
       vertex -0.362103 0.216506 0
       vertex -0.362103 0.216506 0.1
    endloop
  endfacet
  facet normal -0.442302 0.896866 0
    outer loop
       vertex -0.362103 0.216506 0.1
       vertex -0.332774 0.23097 0.1
       vertex -0.332774 0.23097 0
    endloop
  endfacet
  facet normal -0.555561 0.831476 0
    outer loop
       vertex -0.362103 0.216506 0
       vertex -0.389294 0.198338 0
       vertex -0.389294 0.198338 0.1
    endloop
  endfacet
  facet normal -0.555561 0.831476 0
    outer loop
       vertex -0.389294 0.198338 0.1
       vertex -0.362103 0.216506 0.1
       vertex -0.362103 0.216506 0
    endloop
  endfacet
  facet normal -0.659372 0.751817 0
    outer loop
       vertex -0.389294 0.198338 0
       vertex -0.413879 0.176776 0
       vertex -0.413879 0.176776 0.1
    endloop
  endfacet
  facet normal -0.659372 0.751817 0
    outer loop
       vertex -0.413879 0.176776 0.1
       vertex -0.389294 0.198338 0.1
       vertex -0.389294 0.198338 0
    endloop
  endfacet
  facet normal -0.751817 0.659372 0
    outer loop
       vertex -0.413879 0.176776 0
       vertex -0.435441 0.152191 0
       vertex -0.435441 0.152191 0.1
    endloop
  endfacet
  facet normal -0.751817 0.659372 0
    outer loop
       vertex -0.435441 0.152191 0.1
       vertex -0.413879 0.176776 0.1
       vertex -0.413879 0.176776 0
    endloop
  endfacet
  facet normal -0.831476 0.555561 0
    outer loop
       vertex -0.435441 0.152191 0
       vertex -0.453609 0.125 0
       vertex -0.453609 0.125 0.1
    endloop
  endfacet
  facet normal -0.831476 0.555561 0
    outer loop
       vertex -0.453609 0.125 0.1
       vertex -0.435441 0.152191 0.1
       vertex -0.435441 0.152191 0
    endloop
  endfacet
  facet normal -0.896866 0.442302 0
    outer loop
       vertex -0.453609 0.125 0
       vertex -0.468073 0.095671 0
       vertex -0.468073 0.095671 0.1
    endloop
  endfacet
  facet normal -0.896866 0.442302 0
    outer loop
       vertex -0.468073 0.095671 0.1
       vertex -0.453609 0.125 0.1
       vertex -0.453609 0.125 0
    endloop
  endfacet
  facet normal -0.946935 0.321425 0
    outer loop
       vertex -0.468073 0.095671 0
       vertex -0.478584 0.064705 0
       vertex -0.478584 0.064705 0.1
    endloop
  endfacet
  facet normal -0.946935 0.321425 0
    outer loop
       vertex -0.478584 0.064705 0.1
       vertex -0.468073 0.095671 0.1
       vertex -0.468073 0.095671 0
    endloop
  endfacet
  facet normal -0.980784 0.195096 0
    outer loop
       vertex -0.478584 0.064705 0
       vertex -0.484964 0.0326315 0
       vertex -0.484964 0.0326315 0.1
    endloop
  endfacet
  facet normal -0.980784 0.195096 0
    outer loop
       vertex -0.484964 0.0326315 0.1
       vertex -0.478584 0.064705 0.1
       vertex -0.478584 0.064705 0
    endloop
  endfacet
  facet normal -0.997858 0.0654098 0
    outer loop
       vertex -0.487103 8.32665e-17 0.1
       vertex -0.484964 0.0326315 0.1
       vertex -0.484964 0.0326315 0
    endloop
  endfacet
  facet normal -0.997858 0.0654098 -1.08928e-16
    outer loop
       vertex -0.484964 0.0326315 0
       vertex -0.487103 -8.32665e-17 0
       vertex -0.487103 8.32665e-17 0.1
    endloop
  endfacet
  facet normal -0.997858 -0.0654098 0
    outer loop
       vertex -0.487103 -8.32665e-17 0
       vertex -0.484964 -0.0326315 0
       vertex -0.484964 -0.0326315 0.1
    endloop
  endfacet
  facet normal -0.997858 -0.0654098 1.08928e-16
    outer loop
       vertex -0.484964 -0.0326315 0.1
       vertex -0.487103 8.32665e-17 0.1
       vertex -0.487103 -8.32665e-17 0
    endloop
  endfacet
  facet normal -0.980784 -0.195096 0
    outer loop
       vertex -0.484964 -0.0326315 0
       vertex -0.478584 -0.064705 0
       vertex -0.478584 -0.064705 0.1
    endloop
  endfacet
  facet normal -0.980784 -0.195096 0
    outer loop
       vertex -0.478584 -0.064705 0.1
       vertex -0.484964 -0.0326315 0.1
       vertex -0.484964 -0.0326315 0
    endloop
  endfacet
  facet normal -0.946935 -0.321425 0
    outer loop
       vertex -0.478584 -0.064705 0
       vertex -0.468073 -0.095671 0
       vertex -0.468073 -0.095671 0.1
    endloop
  endfacet
  facet normal -0.946935 -0.321425 0
    outer loop
       vertex -0.468073 -0.095671 0.1
       vertex -0.478584 -0.064705 0.1
       vertex -0.478584 -0.064705 0
    endloop
  endfacet
  facet normal -0.896866 -0.442302 0
    outer loop
       vertex -0.468073 -0.095671 0
       vertex -0.453609 -0.125 0
       vertex -0.453609 -0.125 0.1
    endloop
  endfacet
  facet normal -0.896866 -0.442302 0
    outer loop
       vertex -0.453609 -0.125 0.1
       vertex -0.468073 -0.095671 0.1
       vertex -0.468073 -0.095671 0
    endloop
  endfacet
  facet normal -0.831476 -0.555561 0
    outer loop
       vertex -0.453609 -0.125 0
       vertex -0.435441 -0.152191 0
       vertex -0.435441 -0.152191 0.1
    endloop
  endfacet
  facet normal -0.831476 -0.555561 0
    outer loop
       vertex -0.435441 -0.152191 0.1
       vertex -0.453609 -0.125 0.1
       vertex -0.453609 -0.125 0
    endloop
  endfacet
  facet normal -0.751817 -0.659372 0
    outer loop
       vertex -0.435441 -0.152191 0
       vertex -0.413879 -0.176776 0
       vertex -0.413879 -0.176776 0.1
    endloop
  endfacet
  facet normal -0.751817 -0.659372 0
    outer loop
       vertex -0.413879 -0.176776 0.1
       vertex -0.435441 -0.152191 0.1
       vertex -0.435441 -0.152191 0
    endloop
  endfacet
  facet normal 0.659372 -0.751817 0
    outer loop
       vertex -0.0603274 -0.176776 0
       vertex -0.0603274 -0.176776 0.1
       vertex -0.0849124 -0.198338 0.1
    endloop
  endfacet
  facet normal 0.659372 -0.751817 0
    outer loop
       vertex -0.0849124 -0.198338 0.1
       vertex -0.0849124 -0.198338 0
       vertex -0.0603274 -0.176776 0
    endloop
  endfacet
  facet normal 0.555561 -0.831476 0
    outer loop
       vertex -0.0849124 -0.198338 0
       vertex -0.0849124 -0.198338 0.1
       vertex -0.112103 -0.216506 0.1
    endloop
  endfacet
  facet normal 0.555561 -0.831476 0
    outer loop
       vertex -0.112103 -0.216506 0.1
       vertex -0.112103 -0.216506 0
       vertex -0.0849124 -0.198338 0
    endloop
  endfacet
  facet normal 0.442302 -0.896866 0
    outer loop
       vertex -0.112103 -0.216506 0
       vertex -0.112103 -0.216506 0.1
       vertex -0.141432 -0.23097 0.1
    endloop
  endfacet
  facet normal 0.442302 -0.896866 0
    outer loop
       vertex -0.141432 -0.23097 0.1
       vertex -0.141432 -0.23097 0
       vertex -0.112103 -0.216506 0
    endloop
  endfacet
  facet normal 0.321425 -0.946935 0
    outer loop
       vertex -0.141432 -0.23097 0
       vertex -0.141432 -0.23097 0.1
       vertex -0.172398 -0.241481 0.1
    endloop
  endfacet
  facet normal 0.321425 -0.946935 0
    outer loop
       vertex -0.172398 -0.241481 0.1
       vertex -0.172398 -0.241481 0
       vertex -0.141432 -0.23097 0
    endloop
  endfacet
  facet normal 0.195096 -0.980784 0
    outer loop
       vertex -0.172398 -0.241481 0
       vertex -0.172398 -0.241481 0.1
       vertex -0.204472 -0.247861 0.1
    endloop
  endfacet
  facet normal 0.195096 -0.980784 0
    outer loop
       vertex -0.204472 -0.247861 0.1
       vertex -0.204472 -0.247861 0
       vertex -0.172398 -0.241481 0
    endloop
  endfacet
  facet normal 0.0654098 -0.997858 0
    outer loop
       vertex -0.237103 -0.25 0
       vertex -0.204472 -0.247861 0
       vertex -0.204472 -0.247861 0.1
    endloop
  endfacet
  facet normal 0.0654098 -0.997858 1.0893e-16
    outer loop
       vertex -0.204472 -0.247861 0.1
       vertex -0.237103 -0.25 0.1
       vertex -0.237103 -0.25 0
    endloop
  endfacet
  facet normal -0.0654098 -0.997858 0
    outer loop
       vertex -0.237103 -0.25 0.1
       vertex -0.269735 -0.247861 0.1
       vertex -0.269735 -0.247861 0
    endloop
  endfacet
  facet normal -0.0654098 -0.997858 -1.0893e-16
    outer loop
       vertex -0.269735 -0.247861 0
       vertex -0.237103 -0.25 0
       vertex -0.237103 -0.25 0.1
    endloop
  endfacet
  facet normal -0.195096 -0.980784 0
    outer loop
       vertex -0.269735 -0.247861 0
       vertex -0.269735 -0.247861 0.1
       vertex -0.301808 -0.241481 0.1
    endloop
  endfacet
  facet normal -0.195096 -0.980784 -0
    outer loop
       vertex -0.301808 -0.241481 0.1
       vertex -0.301808 -0.241481 0
       vertex -0.269735 -0.247861 0
    endloop
  endfacet
  facet normal -0.321425 -0.946935 0
    outer loop
       vertex -0.301808 -0.241481 0
       vertex -0.301808 -0.241481 0.1
       vertex -0.332774 -0.23097 0.1
    endloop
  endfacet
  facet normal -0.321425 -0.946935 -0
    outer loop
       vertex -0.332774 -0.23097 0.1
       vertex -0.332774 -0.23097 0
       vertex -0.301808 -0.241481 0
    endloop
  endfacet
  facet normal -0.442302 -0.896866 0
    outer loop
       vertex -0.332774 -0.23097 0
       vertex -0.332774 -0.23097 0.1
       vertex -0.362103 -0.216506 0.1
    endloop
  endfacet
  facet normal -0.442302 -0.896866 -0
    outer loop
       vertex -0.362103 -0.216506 0.1
       vertex -0.362103 -0.216506 0
       vertex -0.332774 -0.23097 0
    endloop
  endfacet
  facet normal -0.555561 -0.831476 0
    outer loop
       vertex -0.362103 -0.216506 0
       vertex -0.362103 -0.216506 0.1
       vertex -0.389294 -0.198338 0.1
    endloop
  endfacet
  facet normal -0.555561 -0.831476 -0
    outer loop
       vertex -0.389294 -0.198338 0.1
       vertex -0.389294 -0.198338 0
       vertex -0.362103 -0.216506 0
    endloop
  endfacet
  facet normal -0.659372 -0.751817 0
    outer loop
       vertex -0.389294 -0.198338 0
       vertex -0.389294 -0.198338 0.1
       vertex -0.413879 -0.176776 0.1
    endloop
  endfacet
  facet normal -0.659372 -0.751817 -0
    outer loop
       vertex -0.413879 -0.176776 0.1
       vertex -0.413879 -0.176776 0
       vertex -0.389294 -0.198338 0
    endloop
  endfacet
endsolid cylinder
