solid cylinder
  facet normal 0.751817 -0.659372 0
    outer loop
       vertex 0.292623 -0.176776 0
       vertex 0.314185 -0.152191 0
       vertex 0.314185 -0.152191 0.1
    endloop
  endfacet
  facet normal 0.751817 -0.659372 0
    outer loop
       vertex 0.314185 -0.152191 0.1
       vertex 0.292623 -0.176776 0.1
       vertex 0.292623 -0.176776 0
    endloop
  endfacet
  facet normal 0.831476 -0.555561 0
    outer loop
       vertex 0.314185 -0.152191 0
       vertex 0.332353 -0.125 0
       vertex 0.332353 -0.125 0.1
    endloop
  endfacet
  facet normal 0.831476 -0.555561 0
    outer loop
       vertex 0.332353 -0.125 0.1
       vertex 0.314185 -0.152191 0.1
       vertex 0.314185 -0.152191 0
    endloop
  endfacet
  facet normal 0.896866 -0.442302 0
    outer loop
       vertex 0.332353 -0.125 0
       vertex 0.346817 -0.095671 0
       vertex 0.346817 -0.095671 0.1
    endloop
  endfacet
  facet normal 0.896866 -0.442302 0
    outer loop
       vertex 0.346817 -0.095671 0.1
       vertex 0.332353 -0.125 0.1
       vertex 0.332353 -0.125 0
    endloop
  endfacet
  facet normal 0.946935 -0.321425 0
    outer loop
       vertex 0.346817 -0.095671 0
       vertex 0.357328 -0.064705 0
       vertex 0.357328 -0.064705 0.1
    endloop
  endfacet
  facet normal 0.946935 -0.321425 0
    outer loop
       vertex 0.357328 -0.064705 0.1
       vertex 0.346817 -0.095671 0.1
       vertex 0.346817 -0.095671 0
    endloop
  endfacet
  facet normal 0.980784 -0.195096 0
    outer loop
       vertex 0.357328 -0.064705 0
       vertex 0.363708 -0.0326315 0
       vertex 0.363708 -0.0326315 0.1
    endloop
  endfacet
  facet normal 0.980784 -0.195096 0
    outer loop
       vertex 0.363708 -0.0326315 0.1
       vertex 0.357328 -0.064705 0.1
       vertex 0.357328 -0.064705 0
    endloop
  endfacet
  facet normal 0.997858 -0.0654098 0
    outer loop
       vertex 0.365847 -8.32665e-17 0.1
       vertex 0.363708 -0.0326315 0.1
       vertex 0.363708 -0.0326315 0
    endloop
  endfacet
  facet normal 0.997858 -0.0654098 -1.08928e-16
    outer loop
       vertex 0.363708 -0.0326315 0
       vertex 0.365847 8.32665e-17 0
       vertex 0.365847 -8.32665e-17 0.1
    endloop
  endfacet
  facet normal 0.997858 0.0654098 0
    outer loop
       vertex 0.365847 8.32665e-17 0
       vertex 0.363708 0.0326315 0
       vertex 0.363708 0.0326315 0.1
    endloop
  endfacet
  facet normal 0.997858 0.0654098 1.08928e-16
    outer loop
       vertex 0.363708 0.0326315 0.1
       vertex 0.365847 -8.32665e-17 0.1
       vertex 0.365847 8.32665e-17 0
    endloop
  endfacet
  facet normal 0.980784 0.195096 0
    outer loop
       vertex 0.363708 0.0326315 0
       vertex 0.357328 0.064705 0
       vertex 0.357328 0.064705 0.1
    endloop
  endfacet
  facet normal 0.980784 0.195096 0
    outer loop
       vertex 0.357328 0.064705 0.1
       vertex 0.363708 0.0326315 0.1
       vertex 0.363708 0.0326315 0
    endloop
  endfacet
  facet normal 0.946935 0.321425 0
    outer loop
       vertex 0.357328 0.064705 0
       vertex 0.346817 0.095671 0
       vertex 0.346817 0.095671 0.1
    endloop
  endfacet
  facet normal 0.946935 0.321425 0
    outer loop
       vertex 0.346817 0.095671 0.1
       vertex 0.357328 0.064705 0.1
       vertex 0.357328 0.064705 0
    endloop
  endfacet
  facet normal 0.896866 0.442302 0
    outer loop
       vertex 0.346817 0.095671 0
       vertex 0.332353 0.125 0
       vertex 0.332353 0.125 0.1
    endloop
  endfacet
  facet normal 0.896866 0.442302 0
    outer loop
       vertex 0.332353 0.125 0.1
       vertex 0.346817 0.095671 0.1
       vertex 0.346817 0.095671 0
    endloop
  endfacet
  facet normal 0.831476 0.555561 0
    outer loop
       vertex 0.332353 0.125 0
       vertex 0.314185 0.152191 0
       vertex 0.314185 0.152191 0.1
    endloop
  endfacet
  facet normal 0.831476 0.555561 0
    outer loop
       vertex 0.314185 0.152191 0.1
       vertex 0.332353 0.125 0.1
       vertex 0.332353 0.125 0
    endloop
  endfacet
  facet normal 0.751817 0.659372 0
    outer loop
       vertex 0.314185 0.152191 0
       vertex 0.292623 0.176776 0
       vertex 0.292623 0.176776 0.1
    endloop
  endfacet
  facet normal 0.751817 0.659372 0
    outer loop
       vertex 0.292623 0.176776 0.1
       vertex 0.314185 0.152191 0.1
       vertex 0.314185 0.152191 0
    endloop
  endfacet
  facet normal 0.659372 0.751817 0
    outer loop
       vertex 0.292623 0.176776 0
       vertex 0.268038 0.198338 0
       vertex 0.268038 0.198338 0.1
    endloop
  endfacet
  facet normal 0.659372 0.751817 0
    outer loop
       vertex 0.268038 0.198338 0.1
       vertex 0.292623 0.176776 0.1
       vertex 0.292623 0.176776 0
    endloop
  endfacet
  facet normal 0.555561 0.831476 0
    outer loop
       vertex 0.268038 0.198338 0
       vertex 0.240847 0.216506 0
       vertex 0.240847 0.216506 0.1
    endloop
  endfacet
  facet normal 0.555561 0.831476 0
    outer loop
       vertex 0.240847 0.216506 0.1
       vertex 0.268038 0.198338 0.1
       vertex 0.268038 0.198338 0
    endloop
  endfacet
  facet normal 0.442302 0.896866 0
    outer loop
       vertex 0.240847 0.216506 0
       vertex 0.211518 0.23097 0
       vertex 0.211518 0.23097 0.1
    endloop
  endfacet
  facet normal 0.442302 0.896866 0
    outer loop
       vertex 0.211518 0.23097 0.1
       vertex 0.240847 0.216506 0.1
       vertex 0.240847 0.216506 0
    endloop
  endfacet
  facet normal 0.321425 0.946935 0
    outer loop
       vertex 0.211518 0.23097 0
       vertex 0.180552 0.241481 0
       vertex 0.180552 0.241481 0.1
    endloop
  endfacet
  facet normal 0.321425 0.946935 0
    outer loop
       vertex 0.180552 0.241481 0.1
       vertex 0.211518 0.23097 0.1
       vertex 0.211518 0.23097 0
    endloop
  endfacet
  facet normal 0.195096 0.980784 0
    outer loop
       vertex 0.180552 0.241481 0
       vertex 0.148479 0.247861 0
       vertex 0.148479 0.247861 0.1
    endloop
  endfacet
  facet normal 0.195096 0.980784 0
    outer loop
       vertex 0.148479 0.247861 0.1
       vertex 0.180552 0.241481 0.1
       vertex 0.180552 0.241481 0
    endloop
  endfacet
  facet normal 0.0654098 0.997858 0
    outer loop
       vertex 0.115847 0.25 0.1
       vertex 0.148479 0.247861 0.1
       vertex 0.148479 0.247861 0
    endloop
  endfacet
  facet normal 0.0654098 0.997858 -1.08928e-16
    outer loop
       vertex 0.148479 0.247861 0
       vertex 0.115847 0.25 0
       vertex 0.115847 0.25 0.1
    endloop
  endfacet
  facet normal -0.0654098 0.997858 0
    outer loop
       vertex 0.115847 0.25 0
       vertex 0.0832158 0.247861 0
       vertex 0.0832158 0.247861 0.1
    endloop
  endfacet
  facet normal -0.0654098 0.997858 1.08928e-16
    outer loop
       vertex 0.0832158 0.247861 0.1
       vertex 0.115847 0.25 0.1
       vertex 0.115847 0.25 0
    endloop
  endfacet
  facet normal -0.195096 0.980784 0
    outer loop
       vertex 0.0832158 0.247861 0
       vertex 0.0511423 0.241481 0
       vertex 0.0511423 0.241481 0.1
    endloop
  endfacet
  facet normal -0.195096 0.980784 0
    outer loop
       vertex 0.0511423 0.241481 0.1
       vertex 0.0832158 0.247861 0.1
       vertex 0.0832158 0.247861 0
    endloop
  endfacet
  facet normal -0.321425 0.946935 0
    outer loop
       vertex 0.0511423 0.241481 0
       vertex 0.0201763 0.23097 0
       vertex 0.0201763 0.23097 0.1
    endloop
  endfacet
  facet normal -0.321425 0.946935 0
    outer loop
       vertex 0.0201763 0.23097 0.1
       vertex 0.0511423 0.241481 0.1
       vertex 0.0511423 0.241481 0
    endloop
  endfacet
  facet normal -0.442302 0.896866 0
    outer loop
       vertex 0.0201763 0.23097 0
       vertex -0.00915269 0.216506 0
       vertex -0.00915269 0.216506 0.1
    endloop
  endfacet
  facet normal -0.442302 0.896866 0
    outer loop
       vertex -0.00915269 0.216506 0.1
       vertex 0.0201763 0.23097 0.1
       vertex 0.0201763 0.23097 0
    endloop
  endfacet
  facet normal -0.555561 0.831476 0
    outer loop
       vertex -0.00915269 0.216506 0
       vertex -0.0363437 0.198338 0
       vertex -0.0363437 0.198338 0.1
    endloop
  endfacet
  facet normal -0.555561 0.831476 0
    outer loop
       vertex -0.0363437 0.198338 0.1
       vertex -0.00915269 0.216506 0.1
       vertex -0.00915269 0.216506 0
    endloop
  endfacet
  facet normal -0.659372 0.751817 0
    outer loop
       vertex -0.0363437 0.198338 0
       vertex -0.0609287 0.176776 0
       vertex -0.0609287 0.176776 0.1
    endloop
  endfacet
  facet normal -0.659372 0.751817 0
    outer loop
       vertex -0.0609287 0.176776 0.1
       vertex -0.0363437 0.198338 0.1
       vertex -0.0363437 0.198338 0
    endloop
  endfacet
  facet normal -0.751817 0.659372 0
    outer loop
       vertex -0.0609287 0.176776 0
       vertex -0.0824907 0.152191 0
       vertex -0.0824907 0.152191 0.1
    endloop
  endfacet
  facet normal -0.751817 0.659372 0
    outer loop
       vertex -0.0824907 0.152191 0.1
       vertex -0.0609287 0.176776 0.1
       vertex -0.0609287 0.176776 0
    endloop
  endfacet
  facet normal -0.831476 0.555561 0
    outer loop
       vertex -0.0824907 0.152191 0
       vertex -0.100659 0.125 0
       vertex -0.100659 0.125 0.1
    endloop
  endfacet
  facet normal -0.831476 0.555561 0
    outer loop
       vertex -0.100659 0.125 0.1
       vertex -0.0824907 0.152191 0.1
       vertex -0.0824907 0.152191 0
    endloop
  endfacet
  facet normal -0.896866 0.442302 0
    outer loop
       vertex -0.100659 0.125 0
       vertex -0.115123 0.095671 0
       vertex -0.115123 0.095671 0.1
    endloop
  endfacet
  facet normal -0.896866 0.442302 0
    outer loop
       vertex -0.115123 0.095671 0.1
       vertex -0.100659 0.125 0.1
       vertex -0.100659 0.125 0
    endloop
  endfacet
  facet normal -0.946935 0.321425 0
    outer loop
       vertex -0.115123 0.095671 0
       vertex -0.125634 0.064705 0
       vertex -0.125634 0.064705 0.1
    endloop
  endfacet
  facet normal -0.946935 0.321425 0
    outer loop
       vertex -0.125634 0.064705 0.1
       vertex -0.115123 0.095671 0.1
       vertex -0.115123 0.095671 0
    endloop
  endfacet
  facet normal -0.980784 0.195096 0
    outer loop
       vertex -0.125634 0.064705 0
       vertex -0.132014 0.0326315 0
       vertex -0.132014 0.0326315 0.1
    endloop
  endfacet
  facet normal -0.980784 0.195096 0
    outer loop
       vertex -0.132014 0.0326315 0.1
       vertex -0.125634 0.064705 0.1
       vertex -0.125634 0.064705 0
    endloop
  endfacet
  facet normal -0.997858 0.0654098 0
    outer loop
       vertex -0.134153 8.32665e-17 0.1
       vertex -0.132014 0.0326315 0.1
       vertex -0.132014 0.0326315 0
    endloop
  endfacet
  facet normal -0.997858 0.0654098 -1.08928e-16
    outer loop
       vertex -0.132014 0.0326315 0
       vertex -0.134153 -8.32665e-17 0
       vertex -0.134153 8.32665e-17 0.1
    endloop
  endfacet
  facet normal -0.997858 -0.0654098 0
    outer loop
       vertex -0.134153 -8.32665e-17 0
       vertex -0.132014 -0.0326315 0
       vertex -0.132014 -0.0326315 0.1
    endloop
  endfacet
  facet normal -0.997858 -0.0654098 1.08928e-16
    outer loop
       vertex -0.132014 -0.0326315 0.1
       vertex -0.134153 8.32665e-17 0.1
       vertex -0.134153 -8.32665e-17 0
    endloop
  endfacet
  facet normal -0.980784 -0.195096 0
    outer loop
       vertex -0.132014 -0.0326315 0
       vertex -0.125634 -0.064705 0
       vertex -0.125634 -0.064705 0.1
    endloop
  endfacet
  facet normal -0.980784 -0.195096 0
    outer loop
       vertex -0.125634 -0.064705 0.1
       vertex -0.132014 -0.0326315 0.1
       vertex -0.132014 -0.0326315 0
    endloop
  endfacet
  facet normal -0.946935 -0.321425 0
    outer loop
       vertex -0.125634 -0.064705 0
       vertex -0.115123 -0.095671 0
       vertex -0.115123 -0.095671 0.1
    endloop
  endfacet
  facet normal -0.946935 -0.321425 0
    outer loop
       vertex -0.115123 -0.095671 0.1
       vertex -0.125634 -0.064705 0.1
       vertex -0.125634 -0.064705 0
    endloop
  endfacet
  facet normal -0.896866 -0.442302 0
    outer loop
       vertex -0.115123 -0.095671 0
       vertex -0.100659 -0.125 0
       vertex -0.100659 -0.125 0.1
    endloop
  endfacet
  facet normal -0.896866 -0.442302 0
    outer loop
       vertex -0.100659 -0.125 0.1
       vertex -0.115123 -0.095671 0.1
       vertex -0.115123 -0.095671 0
    endloop
  endfacet
  facet normal -0.831476 -0.555561 0
    outer loop
       vertex -0.100659 -0.125 0
       vertex -0.0824907 -0.152191 0
       vertex -0.0824907 -0.152191 0.1
    endloop
  endfacet
  facet normal -0.831476 -0.555561 0
    outer loop
       vertex -0.0824907 -0.152191 0.1
       vertex -0.100659 -0.125 0.1
       vertex -0.100659 -0.125 0
    endloop
  endfacet
  facet normal -0.751817 -0.659372 0
    outer loop
       vertex -0.0824907 -0.152191 0
       vertex -0.0609287 -0.176776 0
       vertex -0.0609287 -0.176776 0.1
    endloop
  endfacet
  facet normal -0.751817 -0.659372 0
    outer loop
       vertex -0.0609287 -0.176776 0.1
       vertex -0.0824907 -0.152191 0.1
       vertex -0.0824907 -0.152191 0
    endloop
  endfacet
  facet normal 0.659372 -0.751817 0
    outer loop
       vertex 0.292623 -0.176776 0
       vertex 0.292623 -0.176776 0.1
       vertex 0.268038 -0.198338 0.1
    endloop
  endfacet
  facet normal 0.659372 -0.751817 0
    outer loop
       vertex 0.268038 -0.198338 0.1
       vertex 0.268038 -0.198338 0
       vertex 0.292623 -0.176776 0
    endloop
  endfacet
  facet normal 0.555561 -0.831476 0
    outer loop
       vertex 0.268038 -0.198338 0
       vertex 0.268038 -0.198338 0.1
       vertex 0.240847 -0.216506 0.1
    endloop
  endfacet
  facet normal 0.555561 -0.831476 0
    outer loop
       vertex 0.240847 -0.216506 0.1
       vertex 0.240847 -0.216506 0
       vertex 0.268038 -0.198338 0
    endloop
  endfacet
  facet normal 0.442302 -0.896866 0
    outer loop
       vertex 0.240847 -0.216506 0
       vertex 0.240847 -0.216506 0.1
       vertex 0.211518 -0.23097 0.1
    endloop
  endfacet
  facet normal 0.442302 -0.896866 0
    outer loop
       vertex 0.211518 -0.23097 0.1
       vertex 0.211518 -0.23097 0
       vertex 0.240847 -0.216506 0
    endloop
  endfacet
  facet normal 0.321425 -0.946935 0
    outer loop
       vertex 0.211518 -0.23097 0
       vertex 0.211518 -0.23097 0.1
       vertex 0.180552 -0.241481 0.1
    endloop
  endfacet
  facet normal 0.321425 -0.946935 0
    outer loop
       vertex 0.180552 -0.241481 0.1
       vertex 0.180552 -0.241481 0
       vertex 0.211518 -0.23097 0
    endloop
  endfacet
  facet normal 0.195096 -0.980784 0
    outer loop
       vertex 0.180552 -0.241481 0
       vertex 0.180552 -0.241481 0.1
       vertex 0.148479 -0.247861 0.1
    endloop
  endfacet
  facet normal 0.195096 -0.980784 0
    outer loop
       vertex 0.148479 -0.247861 0.1
       vertex 0.148479 -0.247861 0
       vertex 0.180552 -0.241481 0
    endloop
  endfacet
  facet normal 0.0654098 -0.997858 0
    outer loop
       vertex 0.115847 -0.25 0
       vertex 0.148479 -0.247861 0
       vertex 0.148479 -0.247861 0.1
    endloop
  endfacet
  facet normal 0.0654098 -0.997858 1.08928e-16
    outer loop
       vertex 0.148479 -0.247861 0.1
       vertex 0.115847 -0.25 0.1
       vertex 0.115847 -0.25 0
    endloop
  endfacet
  facet normal -0.0654098 -0.997858 0
    outer loop
       vertex 0.115847 -0.25 0.1
       vertex 0.0832158 -0.247861 0.1
       vertex 0.0832158 -0.247861 0
    endloop
  endfacet
  facet normal -0.0654098 -0.997858 -1.08928e-16
    outer loop
       vertex 0.0832158 -0.247861 0
       vertex 0.115847 -0.25 0
       vertex 0.115847 -0.25 0.1
    endloop
  endfacet
  facet normal -0.195096 -0.980784 0
    outer loop
       vertex 0.0832158 -0.247861 0
       vertex 0.0832158 -0.247861 0.1
       vertex 0.0511423 -0.241481 0.1
    endloop
  endfacet
  facet normal -0.195096 -0.980784 -0
    outer loop
       vertex 0.0511423 -0.241481 0.1
       vertex 0.0511423 -0.241481 0
       vertex 0.0832158 -0.247861 0
    endloop
  endfacet
  facet normal -0.321425 -0.946935 0
    outer loop
       vertex 0.0511423 -0.241481 0
       vertex 0.0511423 -0.241481 0.1
       vertex 0.0201763 -0.23097 0.1
    endloop
  endfacet
  facet normal -0.321425 -0.946935 -0
    outer loop
       vertex 0.0201763 -0.23097 0.1
       vertex 0.0201763 -0.23097 0
       vertex 0.0511423 -0.241481 0
    endloop
  endfacet
  facet normal -0.442302 -0.896866 0
    outer loop
       vertex 0.0201763 -0.23097 0
       vertex 0.0201763 -0.23097 0.1
       vertex -0.00915269 -0.216506 0.1
    endloop
  endfacet
  facet normal -0.442302 -0.896866 -0
    outer loop
       vertex -0.00915269 -0.216506 0.1
       vertex -0.00915269 -0.216506 0
       vertex 0.0201763 -0.23097 0
    endloop
  endfacet
  facet normal -0.555561 -0.831476 0
    outer loop
       vertex -0.00915269 -0.216506 0
       vertex -0.00915269 -0.216506 0.1
       vertex -0.0363437 -0.198338 0.1
    endloop
  endfacet
  facet normal -0.555561 -0.831476 -0
    outer loop
       vertex -0.0363437 -0.198338 0.1
       vertex -0.0363437 -0.198338 0
       vertex -0.00915269 -0.216506 0
    endloop
  endfacet
  facet normal -0.659372 -0.751817 0
    outer loop
       vertex -0.0363437 -0.198338 0
       vertex -0.0363437 -0.198338 0.1
       vertex -0.0609287 -0.176776 0.1
    endloop
  endfacet
  facet normal -0.659372 -0.751817 -0
    outer loop
       vertex -0.0609287 -0.176776 0.1
       vertex -0.0609287 -0.176776 0
       vertex -0.0363437 -0.198338 0
    endloop
  endfacet
endsolid cylinder
