solid cylinder
  facet normal 0.751817 -0.659372 0
    outer loop
       vertex 0.328553 -0.176776 0
       vertex 0.350115 -0.152191 0
       vertex 0.350115 -0.152191 0.1
    endloop
  endfacet
  facet normal 0.751817 -0.659372 0
    outer loop
       vertex 0.350115 -0.152191 0.1
       vertex 0.328553 -0.176776 0.1
       vertex 0.328553 -0.176776 0
    endloop
  endfacet
  facet normal 0.831476 -0.555561 0
    outer loop
       vertex 0.350115 -0.152191 0
       vertex 0.368283 -0.125 0
       vertex 0.368283 -0.125 0.1
    endloop
  endfacet
  facet normal 0.831476 -0.555561 0
    outer loop
       vertex 0.368283 -0.125 0.1
       vertex 0.350115 -0.152191 0.1
       vertex 0.350115 -0.152191 0
    endloop
  endfacet
  facet normal 0.896866 -0.442302 0
    outer loop
       vertex 0.368283 -0.125 0
       vertex 0.382747 -0.095671 0
       vertex 0.382747 -0.095671 0.1
    endloop
  endfacet
  facet normal 0.896866 -0.442302 0
    outer loop
       vertex 0.382747 -0.095671 0.1
       vertex 0.368283 -0.125 0.1
       vertex 0.368283 -0.125 0
    endloop
  endfacet
  facet normal 0.946935 -0.321425 0
    outer loop
       vertex 0.382747 -0.095671 0
       vertex 0.393258 -0.064705 0
       vertex 0.393258 -0.064705 0.1
    endloop
  endfacet
  facet normal 0.946935 -0.321425 0
    outer loop
       vertex 0.393258 -0.064705 0.1
       vertex 0.382747 -0.095671 0.1
       vertex 0.382747 -0.095671 0
    endloop
  endfacet
  facet normal 0.980784 -0.195096 0
    outer loop
       vertex 0.393258 -0.064705 0
       vertex 0.399638 -0.0326315 0
       vertex 0.399638 -0.0326315 0.1
    endloop
  endfacet
  facet normal 0.980784 -0.195096 0
    outer loop
       vertex 0.399638 -0.0326315 0.1
       vertex 0.393258 -0.064705 0.1
       vertex 0.393258 -0.064705 0
    endloop
  endfacet
  facet normal 0.997858 -0.0654098 0
    outer loop
       vertex 0.401777 -8.32665e-17 0.1
       vertex 0.399638 -0.0326315 0.1
       vertex 0.399638 -0.0326315 0
    endloop
  endfacet
  facet normal 0.997858 -0.0654098 -1.08928e-16
    outer loop
       vertex 0.399638 -0.0326315 0
       vertex 0.401777 8.32665e-17 0
       vertex 0.401777 -8.32665e-17 0.1
    endloop
  endfacet
  facet normal 0.997858 0.0654098 0
    outer loop
       vertex 0.401777 8.32665e-17 0
       vertex 0.399638 0.0326315 0
       vertex 0.399638 0.0326315 0.1
    endloop
  endfacet
  facet normal 0.997858 0.0654098 1.08928e-16
    outer loop
       vertex 0.399638 0.0326315 0.1
       vertex 0.401777 -8.32665e-17 0.1
       vertex 0.401777 8.32665e-17 0
    endloop
  endfacet
  facet normal 0.980784 0.195096 0
    outer loop
       vertex 0.399638 0.0326315 0
       vertex 0.393258 0.064705 0
       vertex 0.393258 0.064705 0.1
    endloop
  endfacet
  facet normal 0.980784 0.195096 0
    outer loop
       vertex 0.393258 0.064705 0.1
       vertex 0.399638 0.0326315 0.1
       vertex 0.399638 0.0326315 0
    endloop
  endfacet
  facet normal 0.946935 0.321425 0
    outer loop
       vertex 0.393258 0.064705 0
       vertex 0.382747 0.095671 0
       vertex 0.382747 0.095671 0.1
    endloop
  endfacet
  facet normal 0.946935 0.321425 0
    outer loop
       vertex 0.382747 0.095671 0.1
       vertex 0.393258 0.064705 0.1
       vertex 0.393258 0.064705 0
    endloop
  endfacet
  facet normal 0.896866 0.442302 0
    outer loop
       vertex 0.382747 0.095671 0
       vertex 0.368283 0.125 0
       vertex 0.368283 0.125 0.1
    endloop
  endfacet
  facet normal 0.896866 0.442302 0
    outer loop
       vertex 0.368283 0.125 0.1
       vertex 0.382747 0.095671 0.1
       vertex 0.382747 0.095671 0
    endloop
  endfacet
  facet normal 0.831476 0.555561 0
    outer loop
       vertex 0.368283 0.125 0
       vertex 0.350115 0.152191 0
       vertex 0.350115 0.152191 0.1
    endloop
  endfacet
  facet normal 0.831476 0.555561 0
    outer loop
       vertex 0.350115 0.152191 0.1
       vertex 0.368283 0.125 0.1
       vertex 0.368283 0.125 0
    endloop
  endfacet
  facet normal 0.751817 0.659372 0
    outer loop
       vertex 0.350115 0.152191 0
       vertex 0.328553 0.176776 0
       vertex 0.328553 0.176776 0.1
    endloop
  endfacet
  facet normal 0.751817 0.659372 0
    outer loop
       vertex 0.328553 0.176776 0.1
       vertex 0.350115 0.152191 0.1
       vertex 0.350115 0.152191 0
    endloop
  endfacet
  facet normal 0.659372 0.751817 0
    outer loop
       vertex 0.328553 0.176776 0
       vertex 0.303968 0.198338 0
       vertex 0.303968 0.198338 0.1
    endloop
  endfacet
  facet normal 0.659372 0.751817 0
    outer loop
       vertex 0.303968 0.198338 0.1
       vertex 0.328553 0.176776 0.1
       vertex 0.328553 0.176776 0
    endloop
  endfacet
  facet normal 0.555561 0.831476 0
    outer loop
       vertex 0.303968 0.198338 0
       vertex 0.276777 0.216506 0
       vertex 0.276777 0.216506 0.1
    endloop
  endfacet
  facet normal 0.555561 0.831476 0
    outer loop
       vertex 0.276777 0.216506 0.1
       vertex 0.303968 0.198338 0.1
       vertex 0.303968 0.198338 0
    endloop
  endfacet
  facet normal 0.442302 0.896866 0
    outer loop
       vertex 0.276777 0.216506 0
       vertex 0.247448 0.23097 0
       vertex 0.247448 0.23097 0.1
    endloop
  endfacet
  facet normal 0.442302 0.896866 0
    outer loop
       vertex 0.247448 0.23097 0.1
       vertex 0.276777 0.216506 0.1
       vertex 0.276777 0.216506 0
    endloop
  endfacet
  facet normal 0.321425 0.946935 0
    outer loop
       vertex 0.247448 0.23097 0
       vertex 0.216482 0.241481 0
       vertex 0.216482 0.241481 0.1
    endloop
  endfacet
  facet normal 0.321425 0.946935 0
    outer loop
       vertex 0.216482 0.241481 0.1
       vertex 0.247448 0.23097 0.1
       vertex 0.247448 0.23097 0
    endloop
  endfacet
  facet normal 0.195096 0.980784 0
    outer loop
       vertex 0.216482 0.241481 0
       vertex 0.184408 0.247861 0
       vertex 0.184408 0.247861 0.1
    endloop
  endfacet
  facet normal 0.195096 0.980784 0
    outer loop
       vertex 0.184408 0.247861 0.1
       vertex 0.216482 0.241481 0.1
       vertex 0.216482 0.241481 0
    endloop
  endfacet
  facet normal 0.0654098 0.997858 0
    outer loop
       vertex 0.151777 0.25 0.1
       vertex 0.184408 0.247861 0.1
       vertex 0.184408 0.247861 0
    endloop
  endfacet
  facet normal 0.0654098 0.997858 -1.0893e-16
    outer loop
       vertex 0.184408 0.247861 0
       vertex 0.151777 0.25 0
       vertex 0.151777 0.25 0.1
    endloop
  endfacet
  facet normal -0.0654098 0.997858 0
    outer loop
       vertex 0.151777 0.25 0
       vertex 0.119145 0.247861 0
       vertex 0.119145 0.247861 0.1
    endloop
  endfacet
  facet normal -0.0654098 0.997858 1.0893e-16
    outer loop
       vertex 0.119145 0.247861 0.1
       vertex 0.151777 0.25 0.1
       vertex 0.151777 0.25 0
    endloop
  endfacet
  facet normal -0.195096 0.980784 0
    outer loop
       vertex 0.119145 0.247861 0
       vertex 0.0870715 0.241481 0
       vertex 0.0870715 0.241481 0.1
    endloop
  endfacet
  facet normal -0.195096 0.980784 0
    outer loop
       vertex 0.0870715 0.241481 0.1
       vertex 0.119145 0.247861 0.1
       vertex 0.119145 0.247861 0
    endloop
  endfacet
  facet normal -0.321425 0.946935 0
    outer loop
       vertex 0.0870715 0.241481 0
       vertex 0.0561055 0.23097 0
       vertex 0.0561055 0.23097 0.1
    endloop
  endfacet
  facet normal -0.321425 0.946935 0
    outer loop
       vertex 0.0561055 0.23097 0.1
       vertex 0.0870715 0.241481 0.1
       vertex 0.0870715 0.241481 0
    endloop
  endfacet
  facet normal -0.442302 0.896866 0
    outer loop
       vertex 0.0561055 0.23097 0
       vertex 0.0267765 0.216506 0
       vertex 0.0267765 0.216506 0.1
    endloop
  endfacet
  facet normal -0.442302 0.896866 0
    outer loop
       vertex 0.0267765 0.216506 0.1
       vertex 0.0561055 0.23097 0.1
       vertex 0.0561055 0.23097 0
    endloop
  endfacet
  facet normal -0.555561 0.831476 0
    outer loop
       vertex 0.0267765 0.216506 0
       vertex -0.000414499 0.198338 0
       vertex -0.000414499 0.198338 0.1
    endloop
  endfacet
  facet normal -0.555561 0.831476 0
    outer loop
       vertex -0.000414499 0.198338 0.1
       vertex 0.0267765 0.216506 0.1
       vertex 0.0267765 0.216506 0
    endloop
  endfacet
  facet normal -0.659372 0.751817 0
    outer loop
       vertex -0.000414499 0.198338 0
       vertex -0.0249995 0.176776 0
       vertex -0.0249995 0.176776 0.1
    endloop
  endfacet
  facet normal -0.659372 0.751817 0
    outer loop
       vertex -0.0249995 0.176776 0.1
       vertex -0.000414499 0.198338 0.1
       vertex -0.000414499 0.198338 0
    endloop
  endfacet
  facet normal -0.751817 0.659372 0
    outer loop
       vertex -0.0249995 0.176776 0
       vertex -0.0465615 0.152191 0
       vertex -0.0465615 0.152191 0.1
    endloop
  endfacet
  facet normal -0.751817 0.659372 0
    outer loop
       vertex -0.0465615 0.152191 0.1
       vertex -0.0249995 0.176776 0.1
       vertex -0.0249995 0.176776 0
    endloop
  endfacet
  facet normal -0.831476 0.555561 0
    outer loop
       vertex -0.0465615 0.152191 0
       vertex -0.0647295 0.125 0
       vertex -0.0647295 0.125 0.1
    endloop
  endfacet
  facet normal -0.831476 0.555561 0
    outer loop
       vertex -0.0647295 0.125 0.1
       vertex -0.0465615 0.152191 0.1
       vertex -0.0465615 0.152191 0
    endloop
  endfacet
  facet normal -0.896866 0.442302 0
    outer loop
       vertex -0.0647295 0.125 0
       vertex -0.0791935 0.095671 0
       vertex -0.0791935 0.095671 0.1
    endloop
  endfacet
  facet normal -0.896866 0.442302 0
    outer loop
       vertex -0.0791935 0.095671 0.1
       vertex -0.0647295 0.125 0.1
       vertex -0.0647295 0.125 0
    endloop
  endfacet
  facet normal -0.946935 0.321425 0
    outer loop
       vertex -0.0791935 0.095671 0
       vertex -0.0897045 0.064705 0
       vertex -0.0897045 0.064705 0.1
    endloop
  endfacet
  facet normal -0.946935 0.321425 0
    outer loop
       vertex -0.0897045 0.064705 0.1
       vertex -0.0791935 0.095671 0.1
       vertex -0.0791935 0.095671 0
    endloop
  endfacet
  facet normal -0.980784 0.195096 0
    outer loop
       vertex -0.0897045 0.064705 0
       vertex -0.0960845 0.0326315 0
       vertex -0.0960845 0.0326315 0.1
    endloop
  endfacet
  facet normal -0.980784 0.195096 0
    outer loop
       vertex -0.0960845 0.0326315 0.1
       vertex -0.0897045 0.064705 0.1
       vertex -0.0897045 0.064705 0
    endloop
  endfacet
  facet normal -0.997858 0.0654098 0
    outer loop
       vertex -0.0982235 8.32665e-17 0.1
       vertex -0.0960845 0.0326315 0.1
       vertex -0.0960845 0.0326315 0
    endloop
  endfacet
  facet normal -0.997858 0.0654098 -1.08928e-16
    outer loop
       vertex -0.0960845 0.0326315 0
       vertex -0.0982235 -8.32665e-17 0
       vertex -0.0982235 8.32665e-17 0.1
    endloop
  endfacet
  facet normal -0.997858 -0.0654098 0
    outer loop
       vertex -0.0982235 -8.32665e-17 0
       vertex -0.0960845 -0.0326315 0
       vertex -0.0960845 -0.0326315 0.1
    endloop
  endfacet
  facet normal -0.997858 -0.0654098 1.08928e-16
    outer loop
       vertex -0.0960845 -0.0326315 0.1
       vertex -0.0982235 8.32665e-17 0.1
       vertex -0.0982235 -8.32665e-17 0
    endloop
  endfacet
  facet normal -0.980784 -0.195096 0
    outer loop
       vertex -0.0960845 -0.0326315 0
       vertex -0.0897045 -0.064705 0
       vertex -0.0897045 -0.064705 0.1
    endloop
  endfacet
  facet normal -0.980784 -0.195096 0
    outer loop
       vertex -0.0897045 -0.064705 0.1
       vertex -0.0960845 -0.0326315 0.1
       vertex -0.0960845 -0.0326315 0
    endloop
  endfacet
  facet normal -0.946935 -0.321425 0
    outer loop
       vertex -0.0897045 -0.064705 0
       vertex -0.0791935 -0.095671 0
       vertex -0.0791935 -0.095671 0.1
    endloop
  endfacet
  facet normal -0.946935 -0.321425 0
    outer loop
       vertex -0.0791935 -0.095671 0.1
       vertex -0.0897045 -0.064705 0.1
       vertex -0.0897045 -0.064705 0
    endloop
  endfacet
  facet normal -0.896866 -0.442302 0
    outer loop
       vertex -0.0791935 -0.095671 0
       vertex -0.0647295 -0.125 0
       vertex -0.0647295 -0.125 0.1
    endloop
  endfacet
  facet normal -0.896866 -0.442302 0
    outer loop
       vertex -0.0647295 -0.125 0.1
       vertex -0.0791935 -0.095671 0.1
       vertex -0.0791935 -0.095671 0
    endloop
  endfacet
  facet normal -0.831476 -0.555561 0
    outer loop
       vertex -0.0647295 -0.125 0
       vertex -0.0465615 -0.152191 0
       vertex -0.0465615 -0.152191 0.1
    endloop
  endfacet
  facet normal -0.831476 -0.555561 0
    outer loop
       vertex -0.0465615 -0.152191 0.1
       vertex -0.0647295 -0.125 0.1
       vertex -0.0647295 -0.125 0
    endloop
  endfacet
  facet normal -0.751817 -0.659372 0
    outer loop
       vertex -0.0465615 -0.152191 0
       vertex -0.0249995 -0.176776 0
       vertex -0.0249995 -0.176776 0.1
    endloop
  endfacet
  facet normal -0.751817 -0.659372 0
    outer loop
       vertex -0.0249995 -0.176776 0.1
       vertex -0.0465615 -0.152191 0.1
       vertex -0.0465615 -0.152191 0
    endloop
  endfacet
  facet normal 0.659372 -0.751817 0
    outer loop
       vertex 0.328553 -0.176776 0
       vertex 0.328553 -0.176776 0.1
       vertex 0.303968 -0.198338 0.1
    endloop
  endfacet
  facet normal 0.659372 -0.751817 0
    outer loop
       vertex 0.303968 -0.198338 0.1
       vertex 0.303968 -0.198338 0
       vertex 0.328553 -0.176776 0
    endloop
  endfacet
  facet normal 0.555561 -0.831476 0
    outer loop
       vertex 0.303968 -0.198338 0
       vertex 0.303968 -0.198338 0.1
       vertex 0.276777 -0.216506 0.1
    endloop
  endfacet
  facet normal 0.555561 -0.831476 0
    outer loop
       vertex 0.276777 -0.216506 0.1
       vertex 0.276777 -0.216506 0
       vertex 0.303968 -0.198338 0
    endloop
  endfacet
  facet normal 0.442302 -0.896866 0
    outer loop
       vertex 0.276777 -0.216506 0
       vertex 0.276777 -0.216506 0.1
       vertex 0.247448 -0.23097 0.1
    endloop
  endfacet
  facet normal 0.442302 -0.896866 0
    outer loop
       vertex 0.247448 -0.23097 0.1
       vertex 0.247448 -0.23097 0
       vertex 0.276777 -0.216506 0
    endloop
  endfacet
  facet normal 0.321425 -0.946935 0
    outer loop
       vertex 0.247448 -0.23097 0
       vertex 0.247448 -0.23097 0.1
       vertex 0.216482 -0.241481 0.1
    endloop
  endfacet
  facet normal 0.321425 -0.946935 0
    outer loop
       vertex 0.216482 -0.241481 0.1
       vertex 0.216482 -0.241481 0
       vertex 0.247448 -0.23097 0
    endloop
  endfacet
  facet normal 0.195096 -0.980784 0
    outer loop
       vertex 0.216482 -0.241481 0
       vertex 0.216482 -0.241481 0.1
       vertex 0.184408 -0.247861 0.1
    endloop
  endfacet
  facet normal 0.195096 -0.980784 0
    outer loop
       vertex 0.184408 -0.247861 0.1
       vertex 0.184408 -0.247861 0
       vertex 0.216482 -0.241481 0
    endloop
  endfacet
  facet normal 0.0654098 -0.997858 0
    outer loop
       vertex 0.151777 -0.25 0
       vertex 0.184408 -0.247861 0
       vertex 0.184408 -0.247861 0.1
    endloop
  endfacet
  facet normal 0.0654098 -0.997858 1.0893e-16
    outer loop
       vertex 0.184408 -0.247861 0.1
       vertex 0.151777 -0.25 0.1
       vertex 0.151777 -0.25 0
    endloop
  endfacet
  facet normal -0.0654098 -0.997858 0
    outer loop
       vertex 0.151777 -0.25 0.1
       vertex 0.119145 -0.247861 0.1
       vertex 0.119145 -0.247861 0
    endloop
  endfacet
  facet normal -0.0654098 -0.997858 -1.0893e-16
    outer loop
       vertex 0.119145 -0.247861 0
       vertex 0.151777 -0.25 0
       vertex 0.151777 -0.25 0.1
    endloop
  endfacet
  facet normal -0.195096 -0.980784 0
    outer loop
       vertex 0.119145 -0.247861 0
       vertex 0.119145 -0.247861 0.1
       vertex 0.0870715 -0.241481 0.1
    endloop
  endfacet
  facet normal -0.195096 -0.980784 -0
    outer loop
       vertex 0.0870715 -0.241481 0.1
       vertex 0.0870715 -0.241481 0
       vertex 0.119145 -0.247861 0
    endloop
  endfacet
  facet normal -0.321425 -0.946935 0
    outer loop
       vertex 0.0870715 -0.241481 0
       vertex 0.0870715 -0.241481 0.1
       vertex 0.0561055 -0.23097 0.1
    endloop
  endfacet
  facet normal -0.321425 -0.946935 -0
    outer loop
       vertex 0.0561055 -0.23097 0.1
       vertex 0.0561055 -0.23097 0
       vertex 0.0870715 -0.241481 0
    endloop
  endfacet
  facet normal -0.442302 -0.896866 0
    outer loop
       vertex 0.0561055 -0.23097 0
       vertex 0.0561055 -0.23097 0.1
       vertex 0.0267765 -0.216506 0.1
    endloop
  endfacet
  facet normal -0.442302 -0.896866 -0
    outer loop
       vertex 0.0267765 -0.216506 0.1
       vertex 0.0267765 -0.216506 0
       vertex 0.0561055 -0.23097 0
    endloop
  endfacet
  facet normal -0.555561 -0.831476 0
    outer loop
       vertex 0.0267765 -0.216506 0
       vertex 0.0267765 -0.216506 0.1
       vertex -0.000414499 -0.198338 0.1
    endloop
  endfacet
  facet normal -0.555561 -0.831476 -0
    outer loop
       vertex -0.000414499 -0.198338 0.1
       vertex -0.000414499 -0.198338 0
       vertex 0.0267765 -0.216506 0
    endloop
  endfacet
  facet normal -0.659372 -0.751817 0
    outer loop
       vertex -0.000414499 -0.198338 0
       vertex -0.000414499 -0.198338 0.1
       vertex -0.0249995 -0.176776 0.1
    endloop
  endfacet
  facet normal -0.659372 -0.751817 -0
    outer loop
       vertex -0.0249995 -0.176776 0.1
       vertex -0.0249995 -0.176776 0
       vertex -0.000414499 -0.198338 0
    endloop
  endfacet
endsolid cylinder
