solid cylinder
  facet normal 0.751817 -0.659372 0
    outer loop
       vertex 0.174388 -0.176776 0
       vertex 0.19595 -0.152191 0
       vertex 0.19595 -0.152191 0.1
    endloop
  endfacet
  facet normal 0.751817 -0.659372 0
    outer loop
       vertex 0.19595 -0.152191 0.1
       vertex 0.174388 -0.176776 0.1
       vertex 0.174388 -0.176776 0
    endloop
  endfacet
  facet normal 0.831476 -0.555561 0
    outer loop
       vertex 0.19595 -0.152191 0
       vertex 0.214118 -0.125 0
       vertex 0.214118 -0.125 0.1
    endloop
  endfacet
  facet normal 0.831476 -0.555561 0
    outer loop
       vertex 0.214118 -0.125 0.1
       vertex 0.19595 -0.152191 0.1
       vertex 0.19595 -0.152191 0
    endloop
  endfacet
  facet normal 0.896866 -0.442302 0
    outer loop
       vertex 0.214118 -0.125 0
       vertex 0.228582 -0.095671 0
       vertex 0.228582 -0.095671 0.1
    endloop
  endfacet
  facet normal 0.896866 -0.442302 0
    outer loop
       vertex 0.228582 -0.095671 0.1
       vertex 0.214118 -0.125 0.1
       vertex 0.214118 -0.125 0
    endloop
  endfacet
  facet normal 0.946935 -0.321425 0
    outer loop
       vertex 0.228582 -0.095671 0
       vertex 0.239093 -0.064705 0
       vertex 0.239093 -0.064705 0.1
    endloop
  endfacet
  facet normal 0.946935 -0.321425 0
    outer loop
       vertex 0.239093 -0.064705 0.1
       vertex 0.228582 -0.095671 0.1
       vertex 0.228582 -0.095671 0
    endloop
  endfacet
  facet normal 0.980784 -0.195096 0
    outer loop
       vertex 0.239093 -0.064705 0
       vertex 0.245473 -0.0326315 0
       vertex 0.245473 -0.0326315 0.1
    endloop
  endfacet
  facet normal 0.980784 -0.195096 0
    outer loop
       vertex 0.245473 -0.0326315 0.1
       vertex 0.239093 -0.064705 0.1
       vertex 0.239093 -0.064705 0
    endloop
  endfacet
  facet normal 0.997858 -0.0654098 0
    outer loop
       vertex 0.247612 -8.32665e-17 0.1
       vertex 0.245473 -0.0326315 0.1
       vertex 0.245473 -0.0326315 0
    endloop
  endfacet
  facet normal 0.997858 -0.0654098 -1.08928e-16
    outer loop
       vertex 0.245473 -0.0326315 0
       vertex 0.247612 8.32665e-17 0
       vertex 0.247612 -8.32665e-17 0.1
    endloop
  endfacet
  facet normal 0.997858 0.0654098 0
    outer loop
       vertex 0.247612 8.32665e-17 0
       vertex 0.245473 0.0326315 0
       vertex 0.245473 0.0326315 0.1
    endloop
  endfacet
  facet normal 0.997858 0.0654098 1.08928e-16
    outer loop
       vertex 0.245473 0.0326315 0.1
       vertex 0.247612 -8.32665e-17 0.1
       vertex 0.247612 8.32665e-17 0
    endloop
  endfacet
  facet normal 0.980784 0.195096 0
    outer loop
       vertex 0.245473 0.0326315 0
       vertex 0.239093 0.064705 0
       vertex 0.239093 0.064705 0.1
    endloop
  endfacet
  facet normal 0.980784 0.195096 0
    outer loop
       vertex 0.239093 0.064705 0.1
       vertex 0.245473 0.0326315 0.1
       vertex 0.245473 0.0326315 0
    endloop
  endfacet
  facet normal 0.946935 0.321425 0
    outer loop
       vertex 0.239093 0.064705 0
       vertex 0.228582 0.095671 0
       vertex 0.228582 0.095671 0.1
    endloop
  endfacet
  facet normal 0.946935 0.321425 0
    outer loop
       vertex 0.228582 0.095671 0.1
       vertex 0.239093 0.064705 0.1
       vertex 0.239093 0.064705 0
    endloop
  endfacet
  facet normal 0.896866 0.442302 0
    outer loop
       vertex 0.228582 0.095671 0
       vertex 0.214118 0.125 0
       vertex 0.214118 0.125 0.1
    endloop
  endfacet
  facet normal 0.896866 0.442302 0
    outer loop
       vertex 0.214118 0.125 0.1
       vertex 0.228582 0.095671 0.1
       vertex 0.228582 0.095671 0
    endloop
  endfacet
  facet normal 0.831476 0.555561 0
    outer loop
       vertex 0.214118 0.125 0
       vertex 0.19595 0.152191 0
       vertex 0.19595 0.152191 0.1
    endloop
  endfacet
  facet normal 0.831476 0.555561 0
    outer loop
       vertex 0.19595 0.152191 0.1
       vertex 0.214118 0.125 0.1
       vertex 0.214118 0.125 0
    endloop
  endfacet
  facet normal 0.751817 0.659372 0
    outer loop
       vertex 0.19595 0.152191 0
       vertex 0.174388 0.176776 0
       vertex 0.174388 0.176776 0.1
    endloop
  endfacet
  facet normal 0.751817 0.659372 0
    outer loop
       vertex 0.174388 0.176776 0.1
       vertex 0.19595 0.152191 0.1
       vertex 0.19595 0.152191 0
    endloop
  endfacet
  facet normal 0.659372 0.751817 0
    outer loop
       vertex 0.174388 0.176776 0
       vertex 0.149803 0.198338 0
       vertex 0.149803 0.198338 0.1
    endloop
  endfacet
  facet normal 0.659372 0.751817 0
    outer loop
       vertex 0.149803 0.198338 0.1
       vertex 0.174388 0.176776 0.1
       vertex 0.174388 0.176776 0
    endloop
  endfacet
  facet normal 0.555561 0.831476 0
    outer loop
       vertex 0.149803 0.198338 0
       vertex 0.122612 0.216506 0
       vertex 0.122612 0.216506 0.1
    endloop
  endfacet
  facet normal 0.555561 0.831476 0
    outer loop
       vertex 0.122612 0.216506 0.1
       vertex 0.149803 0.198338 0.1
       vertex 0.149803 0.198338 0
    endloop
  endfacet
  facet normal 0.442302 0.896866 0
    outer loop
       vertex 0.122612 0.216506 0
       vertex 0.0932829 0.23097 0
       vertex 0.0932829 0.23097 0.1
    endloop
  endfacet
  facet normal 0.442302 0.896866 0
    outer loop
       vertex 0.0932829 0.23097 0.1
       vertex 0.122612 0.216506 0.1
       vertex 0.122612 0.216506 0
    endloop
  endfacet
  facet normal 0.321425 0.946935 0
    outer loop
       vertex 0.0932829 0.23097 0
       vertex 0.0623169 0.241481 0
       vertex 0.0623169 0.241481 0.1
    endloop
  endfacet
  facet normal 0.321425 0.946935 0
    outer loop
       vertex 0.0623169 0.241481 0.1
       vertex 0.0932829 0.23097 0.1
       vertex 0.0932829 0.23097 0
    endloop
  endfacet
  facet normal 0.195096 0.980784 0
    outer loop
       vertex 0.0623169 0.241481 0
       vertex 0.0302434 0.247861 0
       vertex 0.0302434 0.247861 0.1
    endloop
  endfacet
  facet normal 0.195096 0.980784 0
    outer loop
       vertex 0.0302434 0.247861 0.1
       vertex 0.0623169 0.241481 0.1
       vertex 0.0623169 0.241481 0
    endloop
  endfacet
  facet normal 0.0654098 0.997858 0
    outer loop
       vertex -0.00238814 0.25 0.1
       vertex 0.0302434 0.247861 0.1
       vertex 0.0302434 0.247861 0
    endloop
  endfacet
  facet normal 0.0654098 0.997858 -1.0893e-16
    outer loop
       vertex 0.0302434 0.247861 0
       vertex -0.00238814 0.25 0
       vertex -0.00238814 0.25 0.1
    endloop
  endfacet
  facet normal -0.0654098 0.997858 0
    outer loop
       vertex -0.00238814 0.25 0
       vertex -0.0350196 0.247861 0
       vertex -0.0350196 0.247861 0.1
    endloop
  endfacet
  facet normal -0.0654098 0.997858 1.08928e-16
    outer loop
       vertex -0.0350196 0.247861 0.1
       vertex -0.00238814 0.25 0.1
       vertex -0.00238814 0.25 0
    endloop
  endfacet
  facet normal -0.195096 0.980784 0
    outer loop
       vertex -0.0350196 0.247861 0
       vertex -0.0670931 0.241481 0
       vertex -0.0670931 0.241481 0.1
    endloop
  endfacet
  facet normal -0.195096 0.980784 0
    outer loop
       vertex -0.0670931 0.241481 0.1
       vertex -0.0350196 0.247861 0.1
       vertex -0.0350196 0.247861 0
    endloop
  endfacet
  facet normal -0.321425 0.946935 0
    outer loop
       vertex -0.0670931 0.241481 0
       vertex -0.0980591 0.23097 0
       vertex -0.0980591 0.23097 0.1
    endloop
  endfacet
  facet normal -0.321425 0.946935 0
    outer loop
       vertex -0.0980591 0.23097 0.1
       vertex -0.0670931 0.241481 0.1
       vertex -0.0670931 0.241481 0
    endloop
  endfacet
  facet normal -0.442302 0.896866 0
    outer loop
       vertex -0.0980591 0.23097 0
       vertex -0.127388 0.216506 0
       vertex -0.127388 0.216506 0.1
    endloop
  endfacet
  facet normal -0.442302 0.896866 0
    outer loop
       vertex -0.127388 0.216506 0.1
       vertex -0.0980591 0.23097 0.1
       vertex -0.0980591 0.23097 0
    endloop
  endfacet
  facet normal -0.555561 0.831476 0
    outer loop
       vertex -0.127388 0.216506 0
       vertex -0.154579 0.198338 0
       vertex -0.154579 0.198338 0.1
    endloop
  endfacet
  facet normal -0.555561 0.831476 0
    outer loop
       vertex -0.154579 0.198338 0.1
       vertex -0.127388 0.216506 0.1
       vertex -0.127388 0.216506 0
    endloop
  endfacet
  facet normal -0.659372 0.751817 0
    outer loop
       vertex -0.154579 0.198338 0
       vertex -0.179164 0.176776 0
       vertex -0.179164 0.176776 0.1
    endloop
  endfacet
  facet normal -0.659372 0.751817 0
    outer loop
       vertex -0.179164 0.176776 0.1
       vertex -0.154579 0.198338 0.1
       vertex -0.154579 0.198338 0
    endloop
  endfacet
  facet normal -0.751817 0.659372 0
    outer loop
       vertex -0.179164 0.176776 0
       vertex -0.200726 0.152191 0
       vertex -0.200726 0.152191 0.1
    endloop
  endfacet
  facet normal -0.751817 0.659372 0
    outer loop
       vertex -0.200726 0.152191 0.1
       vertex -0.179164 0.176776 0.1
       vertex -0.179164 0.176776 0
    endloop
  endfacet
  facet normal -0.831476 0.555561 0
    outer loop
       vertex -0.200726 0.152191 0
       vertex -0.218894 0.125 0
       vertex -0.218894 0.125 0.1
    endloop
  endfacet
  facet normal -0.831476 0.555561 0
    outer loop
       vertex -0.218894 0.125 0.1
       vertex -0.200726 0.152191 0.1
       vertex -0.200726 0.152191 0
    endloop
  endfacet
  facet normal -0.896866 0.442302 0
    outer loop
       vertex -0.218894 0.125 0
       vertex -0.233358 0.095671 0
       vertex -0.233358 0.095671 0.1
    endloop
  endfacet
  facet normal -0.896866 0.442302 0
    outer loop
       vertex -0.233358 0.095671 0.1
       vertex -0.218894 0.125 0.1
       vertex -0.218894 0.125 0
    endloop
  endfacet
  facet normal -0.946935 0.321425 0
    outer loop
       vertex -0.233358 0.095671 0
       vertex -0.243869 0.064705 0
       vertex -0.243869 0.064705 0.1
    endloop
  endfacet
  facet normal -0.946935 0.321425 0
    outer loop
       vertex -0.243869 0.064705 0.1
       vertex -0.233358 0.095671 0.1
       vertex -0.233358 0.095671 0
    endloop
  endfacet
  facet normal -0.980784 0.195096 0
    outer loop
       vertex -0.243869 0.064705 0
       vertex -0.250249 0.0326315 0
       vertex -0.250249 0.0326315 0.1
    endloop
  endfacet
  facet normal -0.980784 0.195096 0
    outer loop
       vertex -0.250249 0.0326315 0.1
       vertex -0.243869 0.064705 0.1
       vertex -0.243869 0.064705 0
    endloop
  endfacet
  facet normal -0.997858 0.0654098 0
    outer loop
       vertex -0.252388 8.32665e-17 0.1
       vertex -0.250249 0.0326315 0.1
       vertex -0.250249 0.0326315 0
    endloop
  endfacet
  facet normal -0.997858 0.0654098 -1.08928e-16
    outer loop
       vertex -0.250249 0.0326315 0
       vertex -0.252388 -8.32665e-17 0
       vertex -0.252388 8.32665e-17 0.1
    endloop
  endfacet
  facet normal -0.997858 -0.0654098 0
    outer loop
       vertex -0.252388 -8.32665e-17 0
       vertex -0.250249 -0.0326315 0
       vertex -0.250249 -0.0326315 0.1
    endloop
  endfacet
  facet normal -0.997858 -0.0654098 1.08928e-16
    outer loop
       vertex -0.250249 -0.0326315 0.1
       vertex -0.252388 8.32665e-17 0.1
       vertex -0.252388 -8.32665e-17 0
    endloop
  endfacet
  facet normal -0.980784 -0.195096 0
    outer loop
       vertex -0.250249 -0.0326315 0
       vertex -0.243869 -0.064705 0
       vertex -0.243869 -0.064705 0.1
    endloop
  endfacet
  facet normal -0.980784 -0.195096 0
    outer loop
       vertex -0.243869 -0.064705 0.1
       vertex -0.250249 -0.0326315 0.1
       vertex -0.250249 -0.0326315 0
    endloop
  endfacet
  facet normal -0.946935 -0.321425 0
    outer loop
       vertex -0.243869 -0.064705 0
       vertex -0.233358 -0.095671 0
       vertex -0.233358 -0.095671 0.1
    endloop
  endfacet
  facet normal -0.946935 -0.321425 0
    outer loop
       vertex -0.233358 -0.095671 0.1
       vertex -0.243869 -0.064705 0.1
       vertex -0.243869 -0.064705 0
    endloop
  endfacet
  facet normal -0.896866 -0.442302 0
    outer loop
       vertex -0.233358 -0.095671 0
       vertex -0.218894 -0.125 0
       vertex -0.218894 -0.125 0.1
    endloop
  endfacet
  facet normal -0.896866 -0.442302 0
    outer loop
       vertex -0.218894 -0.125 0.1
       vertex -0.233358 -0.095671 0.1
       vertex -0.233358 -0.095671 0
    endloop
  endfacet
  facet normal -0.831476 -0.555561 0
    outer loop
       vertex -0.218894 -0.125 0
       vertex -0.200726 -0.152191 0
       vertex -0.200726 -0.152191 0.1
    endloop
  endfacet
  facet normal -0.831476 -0.555561 0
    outer loop
       vertex -0.200726 -0.152191 0.1
       vertex -0.218894 -0.125 0.1
       vertex -0.218894 -0.125 0
    endloop
  endfacet
  facet normal -0.751817 -0.659372 0
    outer loop
       vertex -0.200726 -0.152191 0
       vertex -0.179164 -0.176776 0
       vertex -0.179164 -0.176776 0.1
    endloop
  endfacet
  facet normal -0.751817 -0.659372 0
    outer loop
       vertex -0.179164 -0.176776 0.1
       vertex -0.200726 -0.152191 0.1
       vertex -0.200726 -0.152191 0
    endloop
  endfacet
  facet normal 0.659372 -0.751817 0
    outer loop
       vertex 0.174388 -0.176776 0
       vertex 0.174388 -0.176776 0.1
       vertex 0.149803 -0.198338 0.1
    endloop
  endfacet
  facet normal 0.659372 -0.751817 0
    outer loop
       vertex 0.149803 -0.198338 0.1
       vertex 0.149803 -0.198338 0
       vertex 0.174388 -0.176776 0
    endloop
  endfacet
  facet normal 0.555561 -0.831476 0
    outer loop
       vertex 0.149803 -0.198338 0
       vertex 0.149803 -0.198338 0.1
       vertex 0.122612 -0.216506 0.1
    endloop
  endfacet
  facet normal 0.555561 -0.831476 0
    outer loop
       vertex 0.122612 -0.216506 0.1
       vertex 0.122612 -0.216506 0
       vertex 0.149803 -0.198338 0
    endloop
  endfacet
  facet normal 0.442302 -0.896866 0
    outer loop
       vertex 0.122612 -0.216506 0
       vertex 0.122612 -0.216506 0.1
       vertex 0.0932829 -0.23097 0.1
    endloop
  endfacet
  facet normal 0.442302 -0.896866 0
    outer loop
       vertex 0.0932829 -0.23097 0.1
       vertex 0.0932829 -0.23097 0
       vertex 0.122612 -0.216506 0
    endloop
  endfacet
  facet normal 0.321425 -0.946935 0
    outer loop
       vertex 0.0932829 -0.23097 0
       vertex 0.0932829 -0.23097 0.1
       vertex 0.0623169 -0.241481 0.1
    endloop
  endfacet
  facet normal 0.321425 -0.946935 0
    outer loop
       vertex 0.0623169 -0.241481 0.1
       vertex 0.0623169 -0.241481 0
       vertex 0.0932829 -0.23097 0
    endloop
  endfacet
  facet normal 0.195096 -0.980784 0
    outer loop
       vertex 0.0623169 -0.241481 0
       vertex 0.0623169 -0.241481 0.1
       vertex 0.0302434 -0.247861 0.1
    endloop
  endfacet
  facet normal 0.195096 -0.980784 0
    outer loop
       vertex 0.0302434 -0.247861 0.1
       vertex 0.0302434 -0.247861 0
       vertex 0.0623169 -0.241481 0
    endloop
  endfacet
  facet normal 0.0654098 -0.997858 0
    outer loop
       vertex -0.00238814 -0.25 0
       vertex 0.0302434 -0.247861 0
       vertex 0.0302434 -0.247861 0.1
    endloop
  endfacet
  facet normal 0.0654098 -0.997858 1.0893e-16
    outer loop
       vertex 0.0302434 -0.247861 0.1
       vertex -0.00238814 -0.25 0.1
       vertex -0.00238814 -0.25 0
    endloop
  endfacet
  facet normal -0.0654098 -0.997858 0
    outer loop
       vertex -0.00238814 -0.25 0.1
       vertex -0.0350196 -0.247861 0.1
       vertex -0.0350196 -0.247861 0
    endloop
  endfacet
  facet normal -0.0654098 -0.997858 -1.08928e-16
    outer loop
       vertex -0.0350196 -0.247861 0
       vertex -0.00238814 -0.25 0
       vertex -0.00238814 -0.25 0.1
    endloop
  endfacet
  facet normal -0.195096 -0.980784 0
    outer loop
       vertex -0.0350196 -0.247861 0
       vertex -0.0350196 -0.247861 0.1
       vertex -0.0670931 -0.241481 0.1
    endloop
  endfacet
  facet normal -0.195096 -0.980784 -0
    outer loop
       vertex -0.0670931 -0.241481 0.1
       vertex -0.0670931 -0.241481 0
       vertex -0.0350196 -0.247861 0
    endloop
  endfacet
  facet normal -0.321425 -0.946935 0
    outer loop
       vertex -0.0670931 -0.241481 0
       vertex -0.0670931 -0.241481 0.1
       vertex -0.0980591 -0.23097 0.1
    endloop
  endfacet
  facet normal -0.321425 -0.946935 -0
    outer loop
       vertex -0.0980591 -0.23097 0.1
       vertex -0.0980591 -0.23097 0
       vertex -0.0670931 -0.241481 0
    endloop
  endfacet
  facet normal -0.442302 -0.896866 0
    outer loop
       vertex -0.0980591 -0.23097 0
       vertex -0.0980591 -0.23097 0.1
       vertex -0.127388 -0.216506 0.1
    endloop
  endfacet
  facet normal -0.442302 -0.896866 -0
    outer loop
       vertex -0.127388 -0.216506 0.1
       vertex -0.127388 -0.216506 0
       vertex -0.0980591 -0.23097 0
    endloop
  endfacet
  facet normal -0.555561 -0.831476 0
    outer loop
       vertex -0.127388 -0.216506 0
       vertex -0.127388 -0.216506 0.1
       vertex -0.154579 -0.198338 0.1
    endloop
  endfacet
  facet normal -0.555561 -0.831476 -0
    outer loop
       vertex -0.154579 -0.198338 0.1
       vertex -0.154579 -0.198338 0
       vertex -0.127388 -0.216506 0
    endloop
  endfacet
  facet normal -0.659372 -0.751817 0
    outer loop
       vertex -0.154579 -0.198338 0
       vertex -0.154579 -0.198338 0.1
       vertex -0.179164 -0.176776 0.1
    endloop
  endfacet
  facet normal -0.659372 -0.751817 -0
    outer loop
       vertex -0.179164 -0.176776 0.1
       vertex -0.179164 -0.176776 0
       vertex -0.154579 -0.198338 0
    endloop
  endfacet
endsolid cylinder
