solid cylinder
  facet normal 0.751817 -0.659372 0
    outer loop
       vertex 0.254651 -0.176776 0
       vertex 0.276213 -0.152191 0
       vertex 0.276213 -0.152191 0.1
    endloop
  endfacet
  facet normal 0.751817 -0.659372 0
    outer loop
       vertex 0.276213 -0.152191 0.1
       vertex 0.254651 -0.176776 0.1
       vertex 0.254651 -0.176776 0
    endloop
  endfacet
  facet normal 0.831476 -0.555561 0
    outer loop
       vertex 0.276213 -0.152191 0
       vertex 0.294381 -0.125 0
       vertex 0.294381 -0.125 0.1
    endloop
  endfacet
  facet normal 0.831476 -0.555561 0
    outer loop
       vertex 0.294381 -0.125 0.1
       vertex 0.276213 -0.152191 0.1
       vertex 0.276213 -0.152191 0
    endloop
  endfacet
  facet normal 0.896866 -0.442302 0
    outer loop
       vertex 0.294381 -0.125 0
       vertex 0.308845 -0.095671 0
       vertex 0.308845 -0.095671 0.1
    endloop
  endfacet
  facet normal 0.896866 -0.442302 0
    outer loop
       vertex 0.308845 -0.095671 0.1
       vertex 0.294381 -0.125 0.1
       vertex 0.294381 -0.125 0
    endloop
  endfacet
  facet normal 0.946935 -0.321425 0
    outer loop
       vertex 0.308845 -0.095671 0
       vertex 0.319356 -0.064705 0
       vertex 0.319356 -0.064705 0.1
    endloop
  endfacet
  facet normal 0.946935 -0.321425 0
    outer loop
       vertex 0.319356 -0.064705 0.1
       vertex 0.308845 -0.095671 0.1
       vertex 0.308845 -0.095671 0
    endloop
  endfacet
  facet normal 0.980784 -0.195096 0
    outer loop
       vertex 0.319356 -0.064705 0
       vertex 0.325736 -0.0326315 0
       vertex 0.325736 -0.0326315 0.1
    endloop
  endfacet
  facet normal 0.980784 -0.195096 0
    outer loop
       vertex 0.325736 -0.0326315 0.1
       vertex 0.319356 -0.064705 0.1
       vertex 0.319356 -0.064705 0
    endloop
  endfacet
  facet normal 0.997858 -0.0654098 0
    outer loop
       vertex 0.327875 -8.32665e-17 0.1
       vertex 0.325736 -0.0326315 0.1
       vertex 0.325736 -0.0326315 0
    endloop
  endfacet
  facet normal 0.997858 -0.0654098 -1.08928e-16
    outer loop
       vertex 0.325736 -0.0326315 0
       vertex 0.327875 8.32665e-17 0
       vertex 0.327875 -8.32665e-17 0.1
    endloop
  endfacet
  facet normal 0.997858 0.0654098 0
    outer loop
       vertex 0.327875 8.32665e-17 0
       vertex 0.325736 0.0326315 0
       vertex 0.325736 0.0326315 0.1
    endloop
  endfacet
  facet normal 0.997858 0.0654098 1.08928e-16
    outer loop
       vertex 0.325736 0.0326315 0.1
       vertex 0.327875 -8.32665e-17 0.1
       vertex 0.327875 8.32665e-17 0
    endloop
  endfacet
  facet normal 0.980784 0.195096 0
    outer loop
       vertex 0.325736 0.0326315 0
       vertex 0.319356 0.064705 0
       vertex 0.319356 0.064705 0.1
    endloop
  endfacet
  facet normal 0.980784 0.195096 0
    outer loop
       vertex 0.319356 0.064705 0.1
       vertex 0.325736 0.0326315 0.1
       vertex 0.325736 0.0326315 0
    endloop
  endfacet
  facet normal 0.946935 0.321425 0
    outer loop
       vertex 0.319356 0.064705 0
       vertex 0.308845 0.095671 0
       vertex 0.308845 0.095671 0.1
    endloop
  endfacet
  facet normal 0.946935 0.321425 0
    outer loop
       vertex 0.308845 0.095671 0.1
       vertex 0.319356 0.064705 0.1
       vertex 0.319356 0.064705 0
    endloop
  endfacet
  facet normal 0.896866 0.442302 0
    outer loop
       vertex 0.308845 0.095671 0
       vertex 0.294381 0.125 0
       vertex 0.294381 0.125 0.1
    endloop
  endfacet
  facet normal 0.896866 0.442302 0
    outer loop
       vertex 0.294381 0.125 0.1
       vertex 0.308845 0.095671 0.1
       vertex 0.308845 0.095671 0
    endloop
  endfacet
  facet normal 0.831476 0.555561 0
    outer loop
       vertex 0.294381 0.125 0
       vertex 0.276213 0.152191 0
       vertex 0.276213 0.152191 0.1
    endloop
  endfacet
  facet normal 0.831476 0.555561 0
    outer loop
       vertex 0.276213 0.152191 0.1
       vertex 0.294381 0.125 0.1
       vertex 0.294381 0.125 0
    endloop
  endfacet
  facet normal 0.751817 0.659372 0
    outer loop
       vertex 0.276213 0.152191 0
       vertex 0.254651 0.176776 0
       vertex 0.254651 0.176776 0.1
    endloop
  endfacet
  facet normal 0.751817 0.659372 0
    outer loop
       vertex 0.254651 0.176776 0.1
       vertex 0.276213 0.152191 0.1
       vertex 0.276213 0.152191 0
    endloop
  endfacet
  facet normal 0.659372 0.751817 0
    outer loop
       vertex 0.254651 0.176776 0
       vertex 0.230066 0.198338 0
       vertex 0.230066 0.198338 0.1
    endloop
  endfacet
  facet normal 0.659372 0.751817 0
    outer loop
       vertex 0.230066 0.198338 0.1
       vertex 0.254651 0.176776 0.1
       vertex 0.254651 0.176776 0
    endloop
  endfacet
  facet normal 0.555561 0.831476 0
    outer loop
       vertex 0.230066 0.198338 0
       vertex 0.202875 0.216506 0
       vertex 0.202875 0.216506 0.1
    endloop
  endfacet
  facet normal 0.555561 0.831476 0
    outer loop
       vertex 0.202875 0.216506 0.1
       vertex 0.230066 0.198338 0.1
       vertex 0.230066 0.198338 0
    endloop
  endfacet
  facet normal 0.442302 0.896866 0
    outer loop
       vertex 0.202875 0.216506 0
       vertex 0.173546 0.23097 0
       vertex 0.173546 0.23097 0.1
    endloop
  endfacet
  facet normal 0.442302 0.896866 0
    outer loop
       vertex 0.173546 0.23097 0.1
       vertex 0.202875 0.216506 0.1
       vertex 0.202875 0.216506 0
    endloop
  endfacet
  facet normal 0.321425 0.946935 0
    outer loop
       vertex 0.173546 0.23097 0
       vertex 0.14258 0.241481 0
       vertex 0.14258 0.241481 0.1
    endloop
  endfacet
  facet normal 0.321425 0.946935 0
    outer loop
       vertex 0.14258 0.241481 0.1
       vertex 0.173546 0.23097 0.1
       vertex 0.173546 0.23097 0
    endloop
  endfacet
  facet normal 0.195096 0.980784 0
    outer loop
       vertex 0.14258 0.241481 0
       vertex 0.110507 0.247861 0
       vertex 0.110507 0.247861 0.1
    endloop
  endfacet
  facet normal 0.195096 0.980784 0
    outer loop
       vertex 0.110507 0.247861 0.1
       vertex 0.14258 0.241481 0.1
       vertex 0.14258 0.241481 0
    endloop
  endfacet
  facet normal 0.0654098 0.997858 0
    outer loop
       vertex 0.0778751 0.25 0.1
       vertex 0.110507 0.247861 0.1
       vertex 0.110507 0.247861 0
    endloop
  endfacet
  facet normal 0.0654098 0.997858 -1.08928e-16
    outer loop
       vertex 0.110507 0.247861 0
       vertex 0.0778751 0.25 0
       vertex 0.0778751 0.25 0.1
    endloop
  endfacet
  facet normal -0.0654098 0.997858 0
    outer loop
       vertex 0.0778751 0.25 0
       vertex 0.0452436 0.247861 0
       vertex 0.0452436 0.247861 0.1
    endloop
  endfacet
  facet normal -0.0654098 0.997858 1.08928e-16
    outer loop
       vertex 0.0452436 0.247861 0.1
       vertex 0.0778751 0.25 0.1
       vertex 0.0778751 0.25 0
    endloop
  endfacet
  facet normal -0.195096 0.980784 0
    outer loop
       vertex 0.0452436 0.247861 0
       vertex 0.0131701 0.241481 0
       vertex 0.0131701 0.241481 0.1
    endloop
  endfacet
  facet normal -0.195096 0.980784 0
    outer loop
       vertex 0.0131701 0.241481 0.1
       vertex 0.0452436 0.247861 0.1
       vertex 0.0452436 0.247861 0
    endloop
  endfacet
  facet normal -0.321425 0.946935 0
    outer loop
       vertex 0.0131701 0.241481 0
       vertex -0.0177959 0.23097 0
       vertex -0.0177959 0.23097 0.1
    endloop
  endfacet
  facet normal -0.321425 0.946935 0
    outer loop
       vertex -0.0177959 0.23097 0.1
       vertex 0.0131701 0.241481 0.1
       vertex 0.0131701 0.241481 0
    endloop
  endfacet
  facet normal -0.442302 0.896866 0
    outer loop
       vertex -0.0177959 0.23097 0
       vertex -0.0471249 0.216506 0
       vertex -0.0471249 0.216506 0.1
    endloop
  endfacet
  facet normal -0.442302 0.896866 0
    outer loop
       vertex -0.0471249 0.216506 0.1
       vertex -0.0177959 0.23097 0.1
       vertex -0.0177959 0.23097 0
    endloop
  endfacet
  facet normal -0.555561 0.831476 0
    outer loop
       vertex -0.0471249 0.216506 0
       vertex -0.0743159 0.198338 0
       vertex -0.0743159 0.198338 0.1
    endloop
  endfacet
  facet normal -0.555561 0.831476 0
    outer loop
       vertex -0.0743159 0.198338 0.1
       vertex -0.0471249 0.216506 0.1
       vertex -0.0471249 0.216506 0
    endloop
  endfacet
  facet normal -0.659372 0.751817 0
    outer loop
       vertex -0.0743159 0.198338 0
       vertex -0.0989009 0.176776 0
       vertex -0.0989009 0.176776 0.1
    endloop
  endfacet
  facet normal -0.659372 0.751817 0
    outer loop
       vertex -0.0989009 0.176776 0.1
       vertex -0.0743159 0.198338 0.1
       vertex -0.0743159 0.198338 0
    endloop
  endfacet
  facet normal -0.751817 0.659372 0
    outer loop
       vertex -0.0989009 0.176776 0
       vertex -0.120463 0.152191 0
       vertex -0.120463 0.152191 0.1
    endloop
  endfacet
  facet normal -0.751817 0.659372 0
    outer loop
       vertex -0.120463 0.152191 0.1
       vertex -0.0989009 0.176776 0.1
       vertex -0.0989009 0.176776 0
    endloop
  endfacet
  facet normal -0.831476 0.555561 0
    outer loop
       vertex -0.120463 0.152191 0
       vertex -0.138631 0.125 0
       vertex -0.138631 0.125 0.1
    endloop
  endfacet
  facet normal -0.831476 0.555561 0
    outer loop
       vertex -0.138631 0.125 0.1
       vertex -0.120463 0.152191 0.1
       vertex -0.120463 0.152191 0
    endloop
  endfacet
  facet normal -0.896866 0.442302 0
    outer loop
       vertex -0.138631 0.125 0
       vertex -0.153095 0.095671 0
       vertex -0.153095 0.095671 0.1
    endloop
  endfacet
  facet normal -0.896866 0.442302 0
    outer loop
       vertex -0.153095 0.095671 0.1
       vertex -0.138631 0.125 0.1
       vertex -0.138631 0.125 0
    endloop
  endfacet
  facet normal -0.946935 0.321425 0
    outer loop
       vertex -0.153095 0.095671 0
       vertex -0.163606 0.064705 0
       vertex -0.163606 0.064705 0.1
    endloop
  endfacet
  facet normal -0.946935 0.321425 0
    outer loop
       vertex -0.163606 0.064705 0.1
       vertex -0.153095 0.095671 0.1
       vertex -0.153095 0.095671 0
    endloop
  endfacet
  facet normal -0.980784 0.195096 0
    outer loop
       vertex -0.163606 0.064705 0
       vertex -0.169986 0.0326315 0
       vertex -0.169986 0.0326315 0.1
    endloop
  endfacet
  facet normal -0.980784 0.195096 0
    outer loop
       vertex -0.169986 0.0326315 0.1
       vertex -0.163606 0.064705 0.1
       vertex -0.163606 0.064705 0
    endloop
  endfacet
  facet normal -0.997858 0.0654098 0
    outer loop
       vertex -0.172125 8.32665e-17 0.1
       vertex -0.169986 0.0326315 0.1
       vertex -0.169986 0.0326315 0
    endloop
  endfacet
  facet normal -0.997858 0.0654098 -1.08928e-16
    outer loop
       vertex -0.169986 0.0326315 0
       vertex -0.172125 -8.32665e-17 0
       vertex -0.172125 8.32665e-17 0.1
    endloop
  endfacet
  facet normal -0.997858 -0.0654098 0
    outer loop
       vertex -0.172125 -8.32665e-17 0
       vertex -0.169986 -0.0326315 0
       vertex -0.169986 -0.0326315 0.1
    endloop
  endfacet
  facet normal -0.997858 -0.0654098 1.08928e-16
    outer loop
       vertex -0.169986 -0.0326315 0.1
       vertex -0.172125 8.32665e-17 0.1
       vertex -0.172125 -8.32665e-17 0
    endloop
  endfacet
  facet normal -0.980784 -0.195096 0
    outer loop
       vertex -0.169986 -0.0326315 0
       vertex -0.163606 -0.064705 0
       vertex -0.163606 -0.064705 0.1
    endloop
  endfacet
  facet normal -0.980784 -0.195096 0
    outer loop
       vertex -0.163606 -0.064705 0.1
       vertex -0.169986 -0.0326315 0.1
       vertex -0.169986 -0.0326315 0
    endloop
  endfacet
  facet normal -0.946935 -0.321425 0
    outer loop
       vertex -0.163606 -0.064705 0
       vertex -0.153095 -0.095671 0
       vertex -0.153095 -0.095671 0.1
    endloop
  endfacet
  facet normal -0.946935 -0.321425 0
    outer loop
       vertex -0.153095 -0.095671 0.1
       vertex -0.163606 -0.064705 0.1
       vertex -0.163606 -0.064705 0
    endloop
  endfacet
  facet normal -0.896866 -0.442302 0
    outer loop
       vertex -0.153095 -0.095671 0
       vertex -0.138631 -0.125 0
       vertex -0.138631 -0.125 0.1
    endloop
  endfacet
  facet normal -0.896866 -0.442302 0
    outer loop
       vertex -0.138631 -0.125 0.1
       vertex -0.153095 -0.095671 0.1
       vertex -0.153095 -0.095671 0
    endloop
  endfacet
  facet normal -0.831476 -0.555561 0
    outer loop
       vertex -0.138631 -0.125 0
       vertex -0.120463 -0.152191 0
       vertex -0.120463 -0.152191 0.1
    endloop
  endfacet
  facet normal -0.831476 -0.555561 0
    outer loop
       vertex -0.120463 -0.152191 0.1
       vertex -0.138631 -0.125 0.1
       vertex -0.138631 -0.125 0
    endloop
  endfacet
  facet normal -0.751817 -0.659372 0
    outer loop
       vertex -0.120463 -0.152191 0
       vertex -0.0989009 -0.176776 0
       vertex -0.0989009 -0.176776 0.1
    endloop
  endfacet
  facet normal -0.751817 -0.659372 0
    outer loop
       vertex -0.0989009 -0.176776 0.1
       vertex -0.120463 -0.152191 0.1
       vertex -0.120463 -0.152191 0
    endloop
  endfacet
  facet normal 0.659372 -0.751817 0
    outer loop
       vertex 0.254651 -0.176776 0
       vertex 0.254651 -0.176776 0.1
       vertex 0.230066 -0.198338 0.1
    endloop
  endfacet
  facet normal 0.659372 -0.751817 0
    outer loop
       vertex 0.230066 -0.198338 0.1
       vertex 0.230066 -0.198338 0
       vertex 0.254651 -0.176776 0
    endloop
  endfacet
  facet normal 0.555561 -0.831476 0
    outer loop
       vertex 0.230066 -0.198338 0
       vertex 0.230066 -0.198338 0.1
       vertex 0.202875 -0.216506 0.1
    endloop
  endfacet
  facet normal 0.555561 -0.831476 0
    outer loop
       vertex 0.202875 -0.216506 0.1
       vertex 0.202875 -0.216506 0
       vertex 0.230066 -0.198338 0
    endloop
  endfacet
  facet normal 0.442302 -0.896866 0
    outer loop
       vertex 0.202875 -0.216506 0
       vertex 0.202875 -0.216506 0.1
       vertex 0.173546 -0.23097 0.1
    endloop
  endfacet
  facet normal 0.442302 -0.896866 0
    outer loop
       vertex 0.173546 -0.23097 0.1
       vertex 0.173546 -0.23097 0
       vertex 0.202875 -0.216506 0
    endloop
  endfacet
  facet normal 0.321425 -0.946935 0
    outer loop
       vertex 0.173546 -0.23097 0
       vertex 0.173546 -0.23097 0.1
       vertex 0.14258 -0.241481 0.1
    endloop
  endfacet
  facet normal 0.321425 -0.946935 0
    outer loop
       vertex 0.14258 -0.241481 0.1
       vertex 0.14258 -0.241481 0
       vertex 0.173546 -0.23097 0
    endloop
  endfacet
  facet normal 0.195096 -0.980784 0
    outer loop
       vertex 0.14258 -0.241481 0
       vertex 0.14258 -0.241481 0.1
       vertex 0.110507 -0.247861 0.1
    endloop
  endfacet
  facet normal 0.195096 -0.980784 0
    outer loop
       vertex 0.110507 -0.247861 0.1
       vertex 0.110507 -0.247861 0
       vertex 0.14258 -0.241481 0
    endloop
  endfacet
  facet normal 0.0654098 -0.997858 0
    outer loop
       vertex 0.0778751 -0.25 0
       vertex 0.110507 -0.247861 0
       vertex 0.110507 -0.247861 0.1
    endloop
  endfacet
  facet normal 0.0654098 -0.997858 1.08928e-16
    outer loop
       vertex 0.110507 -0.247861 0.1
       vertex 0.0778751 -0.25 0.1
       vertex 0.0778751 -0.25 0
    endloop
  endfacet
  facet normal -0.0654098 -0.997858 0
    outer loop
       vertex 0.0778751 -0.25 0.1
       vertex 0.0452436 -0.247861 0.1
       vertex 0.0452436 -0.247861 0
    endloop
  endfacet
  facet normal -0.0654098 -0.997858 -1.08928e-16
    outer loop
       vertex 0.0452436 -0.247861 0
       vertex 0.0778751 -0.25 0
       vertex 0.0778751 -0.25 0.1
    endloop
  endfacet
  facet normal -0.195096 -0.980784 0
    outer loop
       vertex 0.0452436 -0.247861 0
       vertex 0.0452436 -0.247861 0.1
       vertex 0.0131701 -0.241481 0.1
    endloop
  endfacet
  facet normal -0.195096 -0.980784 -0
    outer loop
       vertex 0.0131701 -0.241481 0.1
       vertex 0.0131701 -0.241481 0
       vertex 0.0452436 -0.247861 0
    endloop
  endfacet
  facet normal -0.321425 -0.946935 0
    outer loop
       vertex 0.0131701 -0.241481 0
       vertex 0.0131701 -0.241481 0.1
       vertex -0.0177959 -0.23097 0.1
    endloop
  endfacet
  facet normal -0.321425 -0.946935 -0
    outer loop
       vertex -0.0177959 -0.23097 0.1
       vertex -0.0177959 -0.23097 0
       vertex 0.0131701 -0.241481 0
    endloop
  endfacet
  facet normal -0.442302 -0.896866 0
    outer loop
       vertex -0.0177959 -0.23097 0
       vertex -0.0177959 -0.23097 0.1
       vertex -0.0471249 -0.216506 0.1
    endloop
  endfacet
  facet normal -0.442302 -0.896866 -0
    outer loop
       vertex -0.0471249 -0.216506 0.1
       vertex -0.0471249 -0.216506 0
       vertex -0.0177959 -0.23097 0
    endloop
  endfacet
  facet normal -0.555561 -0.831476 0
    outer loop
       vertex -0.0471249 -0.216506 0
       vertex -0.0471249 -0.216506 0.1
       vertex -0.0743159 -0.198338 0.1
    endloop
  endfacet
  facet normal -0.555561 -0.831476 -0
    outer loop
       vertex -0.0743159 -0.198338 0.1
       vertex -0.0743159 -0.198338 0
       vertex -0.0471249 -0.216506 0
    endloop
  endfacet
  facet normal -0.659372 -0.751817 0
    outer loop
       vertex -0.0743159 -0.198338 0
       vertex -0.0743159 -0.198338 0.1
       vertex -0.0989009 -0.176776 0.1
    endloop
  endfacet
  facet normal -0.659372 -0.751817 -0
    outer loop
       vertex -0.0989009 -0.176776 0.1
       vertex -0.0989009 -0.176776 0
       vertex -0.0743159 -0.198338 0
    endloop
  endfacet
endsolid cylinder
