solid cylinder
  facet normal 0.751817 -0.659372 0
    outer loop
       vertex -0.0841735 -0.176776 0
       vertex -0.0626115 -0.152191 0
       vertex -0.0626115 -0.152191 0.1
    endloop
  endfacet
  facet normal 0.751817 -0.659372 0
    outer loop
       vertex -0.0626115 -0.152191 0.1
       vertex -0.0841735 -0.176776 0.1
       vertex -0.0841735 -0.176776 0
    endloop
  endfacet
  facet normal 0.831476 -0.555561 0
    outer loop
       vertex -0.0626115 -0.152191 0
       vertex -0.0444435 -0.125 0
       vertex -0.0444435 -0.125 0.1
    endloop
  endfacet
  facet normal 0.831476 -0.555561 0
    outer loop
       vertex -0.0444435 -0.125 0.1
       vertex -0.0626115 -0.152191 0.1
       vertex -0.0626115 -0.152191 0
    endloop
  endfacet
  facet normal 0.896866 -0.442302 0
    outer loop
       vertex -0.0444435 -0.125 0
       vertex -0.0299795 -0.095671 0
       vertex -0.0299795 -0.095671 0.1
    endloop
  endfacet
  facet normal 0.896866 -0.442302 0
    outer loop
       vertex -0.0299795 -0.095671 0.1
       vertex -0.0444435 -0.125 0.1
       vertex -0.0444435 -0.125 0
    endloop
  endfacet
  facet normal 0.946935 -0.321425 0
    outer loop
       vertex -0.0299795 -0.095671 0
       vertex -0.0194685 -0.064705 0
       vertex -0.0194685 -0.064705 0.1
    endloop
  endfacet
  facet normal 0.946935 -0.321425 0
    outer loop
       vertex -0.0194685 -0.064705 0.1
       vertex -0.0299795 -0.095671 0.1
       vertex -0.0299795 -0.095671 0
    endloop
  endfacet
  facet normal 0.980784 -0.195096 0
    outer loop
       vertex -0.0194685 -0.064705 0
       vertex -0.0130885 -0.0326315 0
       vertex -0.0130885 -0.0326315 0.1
    endloop
  endfacet
  facet normal 0.980784 -0.195096 0
    outer loop
       vertex -0.0130885 -0.0326315 0.1
       vertex -0.0194685 -0.064705 0.1
       vertex -0.0194685 -0.064705 0
    endloop
  endfacet
  facet normal 0.997858 -0.0654098 0
    outer loop
       vertex -0.0109495 -8.32665e-17 0.1
       vertex -0.0130885 -0.0326315 0.1
       vertex -0.0130885 -0.0326315 0
    endloop
  endfacet
  facet normal 0.997858 -0.0654098 -1.08928e-16
    outer loop
       vertex -0.0130885 -0.0326315 0
       vertex -0.0109495 8.32665e-17 0
       vertex -0.0109495 -8.32665e-17 0.1
    endloop
  endfacet
  facet normal 0.997858 0.0654098 0
    outer loop
       vertex -0.0109495 8.32665e-17 0
       vertex -0.0130885 0.0326315 0
       vertex -0.0130885 0.0326315 0.1
    endloop
  endfacet
  facet normal 0.997858 0.0654098 1.08928e-16
    outer loop
       vertex -0.0130885 0.0326315 0.1
       vertex -0.0109495 -8.32665e-17 0.1
       vertex -0.0109495 8.32665e-17 0
    endloop
  endfacet
  facet normal 0.980784 0.195096 0
    outer loop
       vertex -0.0130885 0.0326315 0
       vertex -0.0194685 0.064705 0
       vertex -0.0194685 0.064705 0.1
    endloop
  endfacet
  facet normal 0.980784 0.195096 0
    outer loop
       vertex -0.0194685 0.064705 0.1
       vertex -0.0130885 0.0326315 0.1
       vertex -0.0130885 0.0326315 0
    endloop
  endfacet
  facet normal 0.946935 0.321425 0
    outer loop
       vertex -0.0194685 0.064705 0
       vertex -0.0299795 0.095671 0
       vertex -0.0299795 0.095671 0.1
    endloop
  endfacet
  facet normal 0.946935 0.321425 0
    outer loop
       vertex -0.0299795 0.095671 0.1
       vertex -0.0194685 0.064705 0.1
       vertex -0.0194685 0.064705 0
    endloop
  endfacet
  facet normal 0.896866 0.442302 0
    outer loop
       vertex -0.0299795 0.095671 0
       vertex -0.0444435 0.125 0
       vertex -0.0444435 0.125 0.1
    endloop
  endfacet
  facet normal 0.896866 0.442302 0
    outer loop
       vertex -0.0444435 0.125 0.1
       vertex -0.0299795 0.095671 0.1
       vertex -0.0299795 0.095671 0
    endloop
  endfacet
  facet normal 0.831476 0.555561 0
    outer loop
       vertex -0.0444435 0.125 0
       vertex -0.0626115 0.152191 0
       vertex -0.0626115 0.152191 0.1
    endloop
  endfacet
  facet normal 0.831476 0.555561 0
    outer loop
       vertex -0.0626115 0.152191 0.1
       vertex -0.0444435 0.125 0.1
       vertex -0.0444435 0.125 0
    endloop
  endfacet
  facet normal 0.751817 0.659372 0
    outer loop
       vertex -0.0626115 0.152191 0
       vertex -0.0841735 0.176776 0
       vertex -0.0841735 0.176776 0.1
    endloop
  endfacet
  facet normal 0.751817 0.659372 0
    outer loop
       vertex -0.0841735 0.176776 0.1
       vertex -0.0626115 0.152191 0.1
       vertex -0.0626115 0.152191 0
    endloop
  endfacet
  facet normal 0.659372 0.751817 0
    outer loop
       vertex -0.0841735 0.176776 0
       vertex -0.108759 0.198338 0
       vertex -0.108759 0.198338 0.1
    endloop
  endfacet
  facet normal 0.659372 0.751817 0
    outer loop
       vertex -0.108759 0.198338 0.1
       vertex -0.0841735 0.176776 0.1
       vertex -0.0841735 0.176776 0
    endloop
  endfacet
  facet normal 0.555561 0.831476 0
    outer loop
       vertex -0.108759 0.198338 0
       vertex -0.13595 0.216506 0
       vertex -0.13595 0.216506 0.1
    endloop
  endfacet
  facet normal 0.555561 0.831476 0
    outer loop
       vertex -0.13595 0.216506 0.1
       vertex -0.108759 0.198338 0.1
       vertex -0.108759 0.198338 0
    endloop
  endfacet
  facet normal 0.442302 0.896866 0
    outer loop
       vertex -0.13595 0.216506 0
       vertex -0.165279 0.23097 0
       vertex -0.165279 0.23097 0.1
    endloop
  endfacet
  facet normal 0.442302 0.896866 0
    outer loop
       vertex -0.165279 0.23097 0.1
       vertex -0.13595 0.216506 0.1
       vertex -0.13595 0.216506 0
    endloop
  endfacet
  facet normal 0.321425 0.946935 0
    outer loop
       vertex -0.165279 0.23097 0
       vertex -0.196245 0.241481 0
       vertex -0.196245 0.241481 0.1
    endloop
  endfacet
  facet normal 0.321425 0.946935 0
    outer loop
       vertex -0.196245 0.241481 0.1
       vertex -0.165279 0.23097 0.1
       vertex -0.165279 0.23097 0
    endloop
  endfacet
  facet normal 0.195096 0.980784 0
    outer loop
       vertex -0.196245 0.241481 0
       vertex -0.228318 0.247861 0
       vertex -0.228318 0.247861 0.1
    endloop
  endfacet
  facet normal 0.195096 0.980784 0
    outer loop
       vertex -0.228318 0.247861 0.1
       vertex -0.196245 0.241481 0.1
       vertex -0.196245 0.241481 0
    endloop
  endfacet
  facet normal 0.0654098 0.997858 0
    outer loop
       vertex -0.26095 0.25 0.1
       vertex -0.228318 0.247861 0.1
       vertex -0.228318 0.247861 0
    endloop
  endfacet
  facet normal 0.0654098 0.997858 -1.45239e-16
    outer loop
       vertex -0.228318 0.247861 0
       vertex -0.26095 0.25 0
       vertex -0.26095 0.25 0.1
    endloop
  endfacet
  facet normal -0.0654098 0.997858 0
    outer loop
       vertex -0.26095 0.25 0
       vertex -0.293581 0.247861 0
       vertex -0.293581 0.247861 0.1
    endloop
  endfacet
  facet normal -0.0654098 0.997858 1.45239e-16
    outer loop
       vertex -0.293581 0.247861 0.1
       vertex -0.26095 0.25 0.1
       vertex -0.26095 0.25 0
    endloop
  endfacet
  facet normal -0.195096 0.980784 0
    outer loop
       vertex -0.293581 0.247861 0
       vertex -0.325655 0.241481 0
       vertex -0.325655 0.241481 0.1
    endloop
  endfacet
  facet normal -0.195096 0.980784 0
    outer loop
       vertex -0.325655 0.241481 0.1
       vertex -0.293581 0.247861 0.1
       vertex -0.293581 0.247861 0
    endloop
  endfacet
  facet normal -0.321425 0.946935 0
    outer loop
       vertex -0.325655 0.241481 0
       vertex -0.356621 0.23097 0
       vertex -0.356621 0.23097 0.1
    endloop
  endfacet
  facet normal -0.321425 0.946935 0
    outer loop
       vertex -0.356621 0.23097 0.1
       vertex -0.325655 0.241481 0.1
       vertex -0.325655 0.241481 0
    endloop
  endfacet
  facet normal -0.442302 0.896866 0
    outer loop
       vertex -0.356621 0.23097 0
       vertex -0.38595 0.216506 0
       vertex -0.38595 0.216506 0.1
    endloop
  endfacet
  facet normal -0.442302 0.896866 0
    outer loop
       vertex -0.38595 0.216506 0.1
       vertex -0.356621 0.23097 0.1
       vertex -0.356621 0.23097 0
    endloop
  endfacet
  facet normal -0.555561 0.831476 0
    outer loop
       vertex -0.38595 0.216506 0
       vertex -0.413141 0.198338 0
       vertex -0.413141 0.198338 0.1
    endloop
  endfacet
  facet normal -0.555561 0.831476 0
    outer loop
       vertex -0.413141 0.198338 0.1
       vertex -0.38595 0.216506 0.1
       vertex -0.38595 0.216506 0
    endloop
  endfacet
  facet normal -0.659372 0.751817 0
    outer loop
       vertex -0.413141 0.198338 0
       vertex -0.437726 0.176776 0
       vertex -0.437726 0.176776 0.1
    endloop
  endfacet
  facet normal -0.659372 0.751817 0
    outer loop
       vertex -0.437726 0.176776 0.1
       vertex -0.413141 0.198338 0.1
       vertex -0.413141 0.198338 0
    endloop
  endfacet
  facet normal -0.751817 0.659372 0
    outer loop
       vertex -0.437726 0.176776 0
       vertex -0.459288 0.152191 0
       vertex -0.459288 0.152191 0.1
    endloop
  endfacet
  facet normal -0.751817 0.659372 0
    outer loop
       vertex -0.459288 0.152191 0.1
       vertex -0.437726 0.176776 0.1
       vertex -0.437726 0.176776 0
    endloop
  endfacet
  facet normal -0.831476 0.555561 0
    outer loop
       vertex -0.459288 0.152191 0
       vertex -0.477456 0.125 0
       vertex -0.477456 0.125 0.1
    endloop
  endfacet
  facet normal -0.831476 0.555561 0
    outer loop
       vertex -0.477456 0.125 0.1
       vertex -0.459288 0.152191 0.1
       vertex -0.459288 0.152191 0
    endloop
  endfacet
  facet normal -0.896866 0.442302 0
    outer loop
       vertex -0.477456 0.125 0
       vertex -0.49192 0.095671 0
       vertex -0.49192 0.095671 0.1
    endloop
  endfacet
  facet normal -0.896866 0.442302 0
    outer loop
       vertex -0.49192 0.095671 0.1
       vertex -0.477456 0.125 0.1
       vertex -0.477456 0.125 0
    endloop
  endfacet
  facet normal -0.946935 0.321425 0
    outer loop
       vertex -0.49192 0.095671 0
       vertex -0.502431 0.064705 0
       vertex -0.502431 0.064705 0.1
    endloop
  endfacet
  facet normal -0.946935 0.321425 0
    outer loop
       vertex -0.502431 0.064705 0.1
       vertex -0.49192 0.095671 0.1
       vertex -0.49192 0.095671 0
    endloop
  endfacet
  facet normal -0.980784 0.195096 0
    outer loop
       vertex -0.502431 0.064705 0
       vertex -0.508811 0.0326315 0
       vertex -0.508811 0.0326315 0.1
    endloop
  endfacet
  facet normal -0.980784 0.195096 0
    outer loop
       vertex -0.508811 0.0326315 0.1
       vertex -0.502431 0.064705 0.1
       vertex -0.502431 0.064705 0
    endloop
  endfacet
  facet normal -0.997858 0.0654098 0
    outer loop
       vertex -0.51095 8.32665e-17 0.1
       vertex -0.508811 0.0326315 0.1
       vertex -0.508811 0.0326315 0
    endloop
  endfacet
  facet normal -0.997858 0.0654098 -1.08928e-16
    outer loop
       vertex -0.508811 0.0326315 0
       vertex -0.51095 -8.32665e-17 0
       vertex -0.51095 8.32665e-17 0.1
    endloop
  endfacet
  facet normal -0.997858 -0.0654098 0
    outer loop
       vertex -0.51095 -8.32665e-17 0
       vertex -0.508811 -0.0326315 0
       vertex -0.508811 -0.0326315 0.1
    endloop
  endfacet
  facet normal -0.997858 -0.0654098 1.08928e-16
    outer loop
       vertex -0.508811 -0.0326315 0.1
       vertex -0.51095 8.32665e-17 0.1
       vertex -0.51095 -8.32665e-17 0
    endloop
  endfacet
  facet normal -0.980784 -0.195096 0
    outer loop
       vertex -0.508811 -0.0326315 0
       vertex -0.502431 -0.064705 0
       vertex -0.502431 -0.064705 0.1
    endloop
  endfacet
  facet normal -0.980784 -0.195096 0
    outer loop
       vertex -0.502431 -0.064705 0.1
       vertex -0.508811 -0.0326315 0.1
       vertex -0.508811 -0.0326315 0
    endloop
  endfacet
  facet normal -0.946935 -0.321425 0
    outer loop
       vertex -0.502431 -0.064705 0
       vertex -0.49192 -0.095671 0
       vertex -0.49192 -0.095671 0.1
    endloop
  endfacet
  facet normal -0.946935 -0.321425 0
    outer loop
       vertex -0.49192 -0.095671 0.1
       vertex -0.502431 -0.064705 0.1
       vertex -0.502431 -0.064705 0
    endloop
  endfacet
  facet normal -0.896866 -0.442302 0
    outer loop
       vertex -0.49192 -0.095671 0
       vertex -0.477456 -0.125 0
       vertex -0.477456 -0.125 0.1
    endloop
  endfacet
  facet normal -0.896866 -0.442302 0
    outer loop
       vertex -0.477456 -0.125 0.1
       vertex -0.49192 -0.095671 0.1
       vertex -0.49192 -0.095671 0
    endloop
  endfacet
  facet normal -0.831476 -0.555561 0
    outer loop
       vertex -0.477456 -0.125 0
       vertex -0.459288 -0.152191 0
       vertex -0.459288 -0.152191 0.1
    endloop
  endfacet
  facet normal -0.831476 -0.555561 0
    outer loop
       vertex -0.459288 -0.152191 0.1
       vertex -0.477456 -0.125 0.1
       vertex -0.477456 -0.125 0
    endloop
  endfacet
  facet normal -0.751817 -0.659372 0
    outer loop
       vertex -0.459288 -0.152191 0
       vertex -0.437726 -0.176776 0
       vertex -0.437726 -0.176776 0.1
    endloop
  endfacet
  facet normal -0.751817 -0.659372 0
    outer loop
       vertex -0.437726 -0.176776 0.1
       vertex -0.459288 -0.152191 0.1
       vertex -0.459288 -0.152191 0
    endloop
  endfacet
  facet normal 0.659372 -0.751817 0
    outer loop
       vertex -0.0841735 -0.176776 0
       vertex -0.0841735 -0.176776 0.1
       vertex -0.108759 -0.198338 0.1
    endloop
  endfacet
  facet normal 0.659372 -0.751817 0
    outer loop
       vertex -0.108759 -0.198338 0.1
       vertex -0.108759 -0.198338 0
       vertex -0.0841735 -0.176776 0
    endloop
  endfacet
  facet normal 0.555561 -0.831476 0
    outer loop
       vertex -0.108759 -0.198338 0
       vertex -0.108759 -0.198338 0.1
       vertex -0.13595 -0.216506 0.1
    endloop
  endfacet
  facet normal 0.555561 -0.831476 0
    outer loop
       vertex -0.13595 -0.216506 0.1
       vertex -0.13595 -0.216506 0
       vertex -0.108759 -0.198338 0
    endloop
  endfacet
  facet normal 0.442302 -0.896866 0
    outer loop
       vertex -0.13595 -0.216506 0
       vertex -0.13595 -0.216506 0.1
       vertex -0.165279 -0.23097 0.1
    endloop
  endfacet
  facet normal 0.442302 -0.896866 0
    outer loop
       vertex -0.165279 -0.23097 0.1
       vertex -0.165279 -0.23097 0
       vertex -0.13595 -0.216506 0
    endloop
  endfacet
  facet normal 0.321425 -0.946935 0
    outer loop
       vertex -0.165279 -0.23097 0
       vertex -0.165279 -0.23097 0.1
       vertex -0.196245 -0.241481 0.1
    endloop
  endfacet
  facet normal 0.321425 -0.946935 0
    outer loop
       vertex -0.196245 -0.241481 0.1
       vertex -0.196245 -0.241481 0
       vertex -0.165279 -0.23097 0
    endloop
  endfacet
  facet normal 0.195096 -0.980784 0
    outer loop
       vertex -0.196245 -0.241481 0
       vertex -0.196245 -0.241481 0.1
       vertex -0.228318 -0.247861 0.1
    endloop
  endfacet
  facet normal 0.195096 -0.980784 0
    outer loop
       vertex -0.228318 -0.247861 0.1
       vertex -0.228318 -0.247861 0
       vertex -0.196245 -0.241481 0
    endloop
  endfacet
  facet normal 0.0654098 -0.997858 0
    outer loop
       vertex -0.26095 -0.25 0
       vertex -0.228318 -0.247861 0
       vertex -0.228318 -0.247861 0.1
    endloop
  endfacet
  facet normal 0.0654098 -0.997858 1.45239e-16
    outer loop
       vertex -0.228318 -0.247861 0.1
       vertex -0.26095 -0.25 0.1
       vertex -0.26095 -0.25 0
    endloop
  endfacet
  facet normal -0.0654098 -0.997858 0
    outer loop
       vertex -0.26095 -0.25 0.1
       vertex -0.293581 -0.247861 0.1
       vertex -0.293581 -0.247861 0
    endloop
  endfacet
  facet normal -0.0654098 -0.997858 -1.45239e-16
    outer loop
       vertex -0.293581 -0.247861 0
       vertex -0.26095 -0.25 0
       vertex -0.26095 -0.25 0.1
    endloop
  endfacet
  facet normal -0.195096 -0.980784 0
    outer loop
       vertex -0.293581 -0.247861 0
       vertex -0.293581 -0.247861 0.1
       vertex -0.325655 -0.241481 0.1
    endloop
  endfacet
  facet normal -0.195096 -0.980784 -0
    outer loop
       vertex -0.325655 -0.241481 0.1
       vertex -0.325655 -0.241481 0
       vertex -0.293581 -0.247861 0
    endloop
  endfacet
  facet normal -0.321425 -0.946935 0
    outer loop
       vertex -0.325655 -0.241481 0
       vertex -0.325655 -0.241481 0.1
       vertex -0.356621 -0.23097 0.1
    endloop
  endfacet
  facet normal -0.321425 -0.946935 -0
    outer loop
       vertex -0.356621 -0.23097 0.1
       vertex -0.356621 -0.23097 0
       vertex -0.325655 -0.241481 0
    endloop
  endfacet
  facet normal -0.442302 -0.896866 0
    outer loop
       vertex -0.356621 -0.23097 0
       vertex -0.356621 -0.23097 0.1
       vertex -0.38595 -0.216506 0.1
    endloop
  endfacet
  facet normal -0.442302 -0.896866 -0
    outer loop
       vertex -0.38595 -0.216506 0.1
       vertex -0.38595 -0.216506 0
       vertex -0.356621 -0.23097 0
    endloop
  endfacet
  facet normal -0.555561 -0.831476 0
    outer loop
       vertex -0.38595 -0.216506 0
       vertex -0.38595 -0.216506 0.1
       vertex -0.413141 -0.198338 0.1
    endloop
  endfacet
  facet normal -0.555561 -0.831476 -0
    outer loop
       vertex -0.413141 -0.198338 0.1
       vertex -0.413141 -0.198338 0
       vertex -0.38595 -0.216506 0
    endloop
  endfacet
  facet normal -0.659372 -0.751817 0
    outer loop
       vertex -0.413141 -0.198338 0
       vertex -0.413141 -0.198338 0.1
       vertex -0.437726 -0.176776 0.1
    endloop
  endfacet
  facet normal -0.659372 -0.751817 -0
    outer loop
       vertex -0.437726 -0.176776 0.1
       vertex -0.437726 -0.176776 0
       vertex -0.413141 -0.198338 0
    endloop
  endfacet
endsolid cylinder
