solid cylinder
  facet normal 0.751817 -0.659372 0
    outer loop
       vertex 0.266868 -0.176776 0
       vertex 0.28843 -0.152191 0
       vertex 0.28843 -0.152191 0.1
    endloop
  endfacet
  facet normal 0.751817 -0.659372 0
    outer loop
       vertex 0.28843 -0.152191 0.1
       vertex 0.266868 -0.176776 0.1
       vertex 0.266868 -0.176776 0
    endloop
  endfacet
  facet normal 0.831476 -0.555561 0
    outer loop
       vertex 0.28843 -0.152191 0
       vertex 0.306598 -0.125 0
       vertex 0.306598 -0.125 0.1
    endloop
  endfacet
  facet normal 0.831476 -0.555561 0
    outer loop
       vertex 0.306598 -0.125 0.1
       vertex 0.28843 -0.152191 0.1
       vertex 0.28843 -0.152191 0
    endloop
  endfacet
  facet normal 0.896866 -0.442302 0
    outer loop
       vertex 0.306598 -0.125 0
       vertex 0.321062 -0.095671 0
       vertex 0.321062 -0.095671 0.1
    endloop
  endfacet
  facet normal 0.896866 -0.442302 0
    outer loop
       vertex 0.321062 -0.095671 0.1
       vertex 0.306598 -0.125 0.1
       vertex 0.306598 -0.125 0
    endloop
  endfacet
  facet normal 0.946935 -0.321425 0
    outer loop
       vertex 0.321062 -0.095671 0
       vertex 0.331573 -0.064705 0
       vertex 0.331573 -0.064705 0.1
    endloop
  endfacet
  facet normal 0.946935 -0.321425 0
    outer loop
       vertex 0.331573 -0.064705 0.1
       vertex 0.321062 -0.095671 0.1
       vertex 0.321062 -0.095671 0
    endloop
  endfacet
  facet normal 0.980784 -0.195096 0
    outer loop
       vertex 0.331573 -0.064705 0
       vertex 0.337953 -0.0326315 0
       vertex 0.337953 -0.0326315 0.1
    endloop
  endfacet
  facet normal 0.980784 -0.195096 0
    outer loop
       vertex 0.337953 -0.0326315 0.1
       vertex 0.331573 -0.064705 0.1
       vertex 0.331573 -0.064705 0
    endloop
  endfacet
  facet normal 0.997858 -0.0654098 0
    outer loop
       vertex 0.340092 -8.32665e-17 0.1
       vertex 0.337953 -0.0326315 0.1
       vertex 0.337953 -0.0326315 0
    endloop
  endfacet
  facet normal 0.997858 -0.0654098 -1.08928e-16
    outer loop
       vertex 0.337953 -0.0326315 0
       vertex 0.340092 8.32665e-17 0
       vertex 0.340092 -8.32665e-17 0.1
    endloop
  endfacet
  facet normal 0.997858 0.0654098 0
    outer loop
       vertex 0.340092 8.32665e-17 0
       vertex 0.337953 0.0326315 0
       vertex 0.337953 0.0326315 0.1
    endloop
  endfacet
  facet normal 0.997858 0.0654098 1.08928e-16
    outer loop
       vertex 0.337953 0.0326315 0.1
       vertex 0.340092 -8.32665e-17 0.1
       vertex 0.340092 8.32665e-17 0
    endloop
  endfacet
  facet normal 0.980784 0.195096 0
    outer loop
       vertex 0.337953 0.0326315 0
       vertex 0.331573 0.064705 0
       vertex 0.331573 0.064705 0.1
    endloop
  endfacet
  facet normal 0.980784 0.195096 0
    outer loop
       vertex 0.331573 0.064705 0.1
       vertex 0.337953 0.0326315 0.1
       vertex 0.337953 0.0326315 0
    endloop
  endfacet
  facet normal 0.946935 0.321425 0
    outer loop
       vertex 0.331573 0.064705 0
       vertex 0.321062 0.095671 0
       vertex 0.321062 0.095671 0.1
    endloop
  endfacet
  facet normal 0.946935 0.321425 0
    outer loop
       vertex 0.321062 0.095671 0.1
       vertex 0.331573 0.064705 0.1
       vertex 0.331573 0.064705 0
    endloop
  endfacet
  facet normal 0.896866 0.442302 0
    outer loop
       vertex 0.321062 0.095671 0
       vertex 0.306598 0.125 0
       vertex 0.306598 0.125 0.1
    endloop
  endfacet
  facet normal 0.896866 0.442302 0
    outer loop
       vertex 0.306598 0.125 0.1
       vertex 0.321062 0.095671 0.1
       vertex 0.321062 0.095671 0
    endloop
  endfacet
  facet normal 0.831476 0.555561 0
    outer loop
       vertex 0.306598 0.125 0
       vertex 0.28843 0.152191 0
       vertex 0.28843 0.152191 0.1
    endloop
  endfacet
  facet normal 0.831476 0.555561 0
    outer loop
       vertex 0.28843 0.152191 0.1
       vertex 0.306598 0.125 0.1
       vertex 0.306598 0.125 0
    endloop
  endfacet
  facet normal 0.751817 0.659372 0
    outer loop
       vertex 0.28843 0.152191 0
       vertex 0.266868 0.176776 0
       vertex 0.266868 0.176776 0.1
    endloop
  endfacet
  facet normal 0.751817 0.659372 0
    outer loop
       vertex 0.266868 0.176776 0.1
       vertex 0.28843 0.152191 0.1
       vertex 0.28843 0.152191 0
    endloop
  endfacet
  facet normal 0.659372 0.751817 0
    outer loop
       vertex 0.266868 0.176776 0
       vertex 0.242283 0.198338 0
       vertex 0.242283 0.198338 0.1
    endloop
  endfacet
  facet normal 0.659372 0.751817 0
    outer loop
       vertex 0.242283 0.198338 0.1
       vertex 0.266868 0.176776 0.1
       vertex 0.266868 0.176776 0
    endloop
  endfacet
  facet normal 0.555561 0.831476 0
    outer loop
       vertex 0.242283 0.198338 0
       vertex 0.215092 0.216506 0
       vertex 0.215092 0.216506 0.1
    endloop
  endfacet
  facet normal 0.555561 0.831476 0
    outer loop
       vertex 0.215092 0.216506 0.1
       vertex 0.242283 0.198338 0.1
       vertex 0.242283 0.198338 0
    endloop
  endfacet
  facet normal 0.442302 0.896866 0
    outer loop
       vertex 0.215092 0.216506 0
       vertex 0.185763 0.23097 0
       vertex 0.185763 0.23097 0.1
    endloop
  endfacet
  facet normal 0.442302 0.896866 0
    outer loop
       vertex 0.185763 0.23097 0.1
       vertex 0.215092 0.216506 0.1
       vertex 0.215092 0.216506 0
    endloop
  endfacet
  facet normal 0.321425 0.946935 0
    outer loop
       vertex 0.185763 0.23097 0
       vertex 0.154797 0.241481 0
       vertex 0.154797 0.241481 0.1
    endloop
  endfacet
  facet normal 0.321425 0.946935 0
    outer loop
       vertex 0.154797 0.241481 0.1
       vertex 0.185763 0.23097 0.1
       vertex 0.185763 0.23097 0
    endloop
  endfacet
  facet normal 0.195096 0.980784 0
    outer loop
       vertex 0.154797 0.241481 0
       vertex 0.122723 0.247861 0
       vertex 0.122723 0.247861 0.1
    endloop
  endfacet
  facet normal 0.195096 0.980784 0
    outer loop
       vertex 0.122723 0.247861 0.1
       vertex 0.154797 0.241481 0.1
       vertex 0.154797 0.241481 0
    endloop
  endfacet
  facet normal 0.0654098 0.997858 0
    outer loop
       vertex 0.090092 0.25 0.1
       vertex 0.122723 0.247861 0.1
       vertex 0.122723 0.247861 0
    endloop
  endfacet
  facet normal 0.0654098 0.997858 -1.08928e-16
    outer loop
       vertex 0.122723 0.247861 0
       vertex 0.090092 0.25 0
       vertex 0.090092 0.25 0.1
    endloop
  endfacet
  facet normal -0.0654098 0.997858 0
    outer loop
       vertex 0.090092 0.25 0
       vertex 0.0574605 0.247861 0
       vertex 0.0574605 0.247861 0.1
    endloop
  endfacet
  facet normal -0.0654098 0.997858 1.08928e-16
    outer loop
       vertex 0.0574605 0.247861 0.1
       vertex 0.090092 0.25 0.1
       vertex 0.090092 0.25 0
    endloop
  endfacet
  facet normal -0.195096 0.980784 0
    outer loop
       vertex 0.0574605 0.247861 0
       vertex 0.025387 0.241481 0
       vertex 0.025387 0.241481 0.1
    endloop
  endfacet
  facet normal -0.195096 0.980784 0
    outer loop
       vertex 0.025387 0.241481 0.1
       vertex 0.0574605 0.247861 0.1
       vertex 0.0574605 0.247861 0
    endloop
  endfacet
  facet normal -0.321425 0.946935 0
    outer loop
       vertex 0.025387 0.241481 0
       vertex -0.00557901 0.23097 0
       vertex -0.00557901 0.23097 0.1
    endloop
  endfacet
  facet normal -0.321425 0.946935 0
    outer loop
       vertex -0.00557901 0.23097 0.1
       vertex 0.025387 0.241481 0.1
       vertex 0.025387 0.241481 0
    endloop
  endfacet
  facet normal -0.442302 0.896866 0
    outer loop
       vertex -0.00557901 0.23097 0
       vertex -0.034908 0.216506 0
       vertex -0.034908 0.216506 0.1
    endloop
  endfacet
  facet normal -0.442302 0.896866 0
    outer loop
       vertex -0.034908 0.216506 0.1
       vertex -0.00557901 0.23097 0.1
       vertex -0.00557901 0.23097 0
    endloop
  endfacet
  facet normal -0.555561 0.831476 0
    outer loop
       vertex -0.034908 0.216506 0
       vertex -0.062099 0.198338 0
       vertex -0.062099 0.198338 0.1
    endloop
  endfacet
  facet normal -0.555561 0.831476 0
    outer loop
       vertex -0.062099 0.198338 0.1
       vertex -0.034908 0.216506 0.1
       vertex -0.034908 0.216506 0
    endloop
  endfacet
  facet normal -0.659372 0.751817 0
    outer loop
       vertex -0.062099 0.198338 0
       vertex -0.086684 0.176776 0
       vertex -0.086684 0.176776 0.1
    endloop
  endfacet
  facet normal -0.659372 0.751817 0
    outer loop
       vertex -0.086684 0.176776 0.1
       vertex -0.062099 0.198338 0.1
       vertex -0.062099 0.198338 0
    endloop
  endfacet
  facet normal -0.751817 0.659372 0
    outer loop
       vertex -0.086684 0.176776 0
       vertex -0.108246 0.152191 0
       vertex -0.108246 0.152191 0.1
    endloop
  endfacet
  facet normal -0.751817 0.659372 0
    outer loop
       vertex -0.108246 0.152191 0.1
       vertex -0.086684 0.176776 0.1
       vertex -0.086684 0.176776 0
    endloop
  endfacet
  facet normal -0.831476 0.555561 0
    outer loop
       vertex -0.108246 0.152191 0
       vertex -0.126414 0.125 0
       vertex -0.126414 0.125 0.1
    endloop
  endfacet
  facet normal -0.831476 0.555561 0
    outer loop
       vertex -0.126414 0.125 0.1
       vertex -0.108246 0.152191 0.1
       vertex -0.108246 0.152191 0
    endloop
  endfacet
  facet normal -0.896866 0.442302 0
    outer loop
       vertex -0.126414 0.125 0
       vertex -0.140878 0.095671 0
       vertex -0.140878 0.095671 0.1
    endloop
  endfacet
  facet normal -0.896866 0.442302 0
    outer loop
       vertex -0.140878 0.095671 0.1
       vertex -0.126414 0.125 0.1
       vertex -0.126414 0.125 0
    endloop
  endfacet
  facet normal -0.946935 0.321425 0
    outer loop
       vertex -0.140878 0.095671 0
       vertex -0.151389 0.064705 0
       vertex -0.151389 0.064705 0.1
    endloop
  endfacet
  facet normal -0.946935 0.321425 0
    outer loop
       vertex -0.151389 0.064705 0.1
       vertex -0.140878 0.095671 0.1
       vertex -0.140878 0.095671 0
    endloop
  endfacet
  facet normal -0.980784 0.195096 0
    outer loop
       vertex -0.151389 0.064705 0
       vertex -0.157769 0.0326315 0
       vertex -0.157769 0.0326315 0.1
    endloop
  endfacet
  facet normal -0.980784 0.195096 0
    outer loop
       vertex -0.157769 0.0326315 0.1
       vertex -0.151389 0.064705 0.1
       vertex -0.151389 0.064705 0
    endloop
  endfacet
  facet normal -0.997858 0.0654098 0
    outer loop
       vertex -0.159908 8.32665e-17 0.1
       vertex -0.157769 0.0326315 0.1
       vertex -0.157769 0.0326315 0
    endloop
  endfacet
  facet normal -0.997858 0.0654098 -1.08928e-16
    outer loop
       vertex -0.157769 0.0326315 0
       vertex -0.159908 -8.32665e-17 0
       vertex -0.159908 8.32665e-17 0.1
    endloop
  endfacet
  facet normal -0.997858 -0.0654098 0
    outer loop
       vertex -0.159908 -8.32665e-17 0
       vertex -0.157769 -0.0326315 0
       vertex -0.157769 -0.0326315 0.1
    endloop
  endfacet
  facet normal -0.997858 -0.0654098 1.08928e-16
    outer loop
       vertex -0.157769 -0.0326315 0.1
       vertex -0.159908 8.32665e-17 0.1
       vertex -0.159908 -8.32665e-17 0
    endloop
  endfacet
  facet normal -0.980784 -0.195096 0
    outer loop
       vertex -0.157769 -0.0326315 0
       vertex -0.151389 -0.064705 0
       vertex -0.151389 -0.064705 0.1
    endloop
  endfacet
  facet normal -0.980784 -0.195096 0
    outer loop
       vertex -0.151389 -0.064705 0.1
       vertex -0.157769 -0.0326315 0.1
       vertex -0.157769 -0.0326315 0
    endloop
  endfacet
  facet normal -0.946935 -0.321425 0
    outer loop
       vertex -0.151389 -0.064705 0
       vertex -0.140878 -0.095671 0
       vertex -0.140878 -0.095671 0.1
    endloop
  endfacet
  facet normal -0.946935 -0.321425 0
    outer loop
       vertex -0.140878 -0.095671 0.1
       vertex -0.151389 -0.064705 0.1
       vertex -0.151389 -0.064705 0
    endloop
  endfacet
  facet normal -0.896866 -0.442302 0
    outer loop
       vertex -0.140878 -0.095671 0
       vertex -0.126414 -0.125 0
       vertex -0.126414 -0.125 0.1
    endloop
  endfacet
  facet normal -0.896866 -0.442302 0
    outer loop
       vertex -0.126414 -0.125 0.1
       vertex -0.140878 -0.095671 0.1
       vertex -0.140878 -0.095671 0
    endloop
  endfacet
  facet normal -0.831476 -0.555561 0
    outer loop
       vertex -0.126414 -0.125 0
       vertex -0.108246 -0.152191 0
       vertex -0.108246 -0.152191 0.1
    endloop
  endfacet
  facet normal -0.831476 -0.555561 0
    outer loop
       vertex -0.108246 -0.152191 0.1
       vertex -0.126414 -0.125 0.1
       vertex -0.126414 -0.125 0
    endloop
  endfacet
  facet normal -0.751817 -0.659372 0
    outer loop
       vertex -0.108246 -0.152191 0
       vertex -0.086684 -0.176776 0
       vertex -0.086684 -0.176776 0.1
    endloop
  endfacet
  facet normal -0.751817 -0.659372 0
    outer loop
       vertex -0.086684 -0.176776 0.1
       vertex -0.108246 -0.152191 0.1
       vertex -0.108246 -0.152191 0
    endloop
  endfacet
  facet normal 0.659372 -0.751817 0
    outer loop
       vertex 0.266868 -0.176776 0
       vertex 0.266868 -0.176776 0.1
       vertex 0.242283 -0.198338 0.1
    endloop
  endfacet
  facet normal 0.659372 -0.751817 0
    outer loop
       vertex 0.242283 -0.198338 0.1
       vertex 0.242283 -0.198338 0
       vertex 0.266868 -0.176776 0
    endloop
  endfacet
  facet normal 0.555561 -0.831476 0
    outer loop
       vertex 0.242283 -0.198338 0
       vertex 0.242283 -0.198338 0.1
       vertex 0.215092 -0.216506 0.1
    endloop
  endfacet
  facet normal 0.555561 -0.831476 0
    outer loop
       vertex 0.215092 -0.216506 0.1
       vertex 0.215092 -0.216506 0
       vertex 0.242283 -0.198338 0
    endloop
  endfacet
  facet normal 0.442302 -0.896866 0
    outer loop
       vertex 0.215092 -0.216506 0
       vertex 0.215092 -0.216506 0.1
       vertex 0.185763 -0.23097 0.1
    endloop
  endfacet
  facet normal 0.442302 -0.896866 0
    outer loop
       vertex 0.185763 -0.23097 0.1
       vertex 0.185763 -0.23097 0
       vertex 0.215092 -0.216506 0
    endloop
  endfacet
  facet normal 0.321425 -0.946935 0
    outer loop
       vertex 0.185763 -0.23097 0
       vertex 0.185763 -0.23097 0.1
       vertex 0.154797 -0.241481 0.1
    endloop
  endfacet
  facet normal 0.321425 -0.946935 0
    outer loop
       vertex 0.154797 -0.241481 0.1
       vertex 0.154797 -0.241481 0
       vertex 0.185763 -0.23097 0
    endloop
  endfacet
  facet normal 0.195096 -0.980784 0
    outer loop
       vertex 0.154797 -0.241481 0
       vertex 0.154797 -0.241481 0.1
       vertex 0.122723 -0.247861 0.1
    endloop
  endfacet
  facet normal 0.195096 -0.980784 0
    outer loop
       vertex 0.122723 -0.247861 0.1
       vertex 0.122723 -0.247861 0
       vertex 0.154797 -0.241481 0
    endloop
  endfacet
  facet normal 0.0654098 -0.997858 0
    outer loop
       vertex 0.090092 -0.25 0
       vertex 0.122723 -0.247861 0
       vertex 0.122723 -0.247861 0.1
    endloop
  endfacet
  facet normal 0.0654098 -0.997858 1.08928e-16
    outer loop
       vertex 0.122723 -0.247861 0.1
       vertex 0.090092 -0.25 0.1
       vertex 0.090092 -0.25 0
    endloop
  endfacet
  facet normal -0.0654098 -0.997858 0
    outer loop
       vertex 0.090092 -0.25 0.1
       vertex 0.0574605 -0.247861 0.1
       vertex 0.0574605 -0.247861 0
    endloop
  endfacet
  facet normal -0.0654098 -0.997858 -1.08928e-16
    outer loop
       vertex 0.0574605 -0.247861 0
       vertex 0.090092 -0.25 0
       vertex 0.090092 -0.25 0.1
    endloop
  endfacet
  facet normal -0.195096 -0.980784 0
    outer loop
       vertex 0.0574605 -0.247861 0
       vertex 0.0574605 -0.247861 0.1
       vertex 0.025387 -0.241481 0.1
    endloop
  endfacet
  facet normal -0.195096 -0.980784 -0
    outer loop
       vertex 0.025387 -0.241481 0.1
       vertex 0.025387 -0.241481 0
       vertex 0.0574605 -0.247861 0
    endloop
  endfacet
  facet normal -0.321425 -0.946935 0
    outer loop
       vertex 0.025387 -0.241481 0
       vertex 0.025387 -0.241481 0.1
       vertex -0.00557901 -0.23097 0.1
    endloop
  endfacet
  facet normal -0.321425 -0.946935 -0
    outer loop
       vertex -0.00557901 -0.23097 0.1
       vertex -0.00557901 -0.23097 0
       vertex 0.025387 -0.241481 0
    endloop
  endfacet
  facet normal -0.442302 -0.896866 0
    outer loop
       vertex -0.00557901 -0.23097 0
       vertex -0.00557901 -0.23097 0.1
       vertex -0.034908 -0.216506 0.1
    endloop
  endfacet
  facet normal -0.442302 -0.896866 -0
    outer loop
       vertex -0.034908 -0.216506 0.1
       vertex -0.034908 -0.216506 0
       vertex -0.00557901 -0.23097 0
    endloop
  endfacet
  facet normal -0.555561 -0.831476 0
    outer loop
       vertex -0.034908 -0.216506 0
       vertex -0.034908 -0.216506 0.1
       vertex -0.062099 -0.198338 0.1
    endloop
  endfacet
  facet normal -0.555561 -0.831476 -0
    outer loop
       vertex -0.062099 -0.198338 0.1
       vertex -0.062099 -0.198338 0
       vertex -0.034908 -0.216506 0
    endloop
  endfacet
  facet normal -0.659372 -0.751817 0
    outer loop
       vertex -0.062099 -0.198338 0
       vertex -0.062099 -0.198338 0.1
       vertex -0.086684 -0.176776 0.1
    endloop
  endfacet
  facet normal -0.659372 -0.751817 -0
    outer loop
       vertex -0.086684 -0.176776 0.1
       vertex -0.086684 -0.176776 0
       vertex -0.062099 -0.198338 0
    endloop
  endfacet
endsolid cylinder
