solid cylinder
  facet normal 0.751817 -0.659372 0
    outer loop
       vertex 0.0126698 -0.176776 0
       vertex 0.0342318 -0.152191 0
       vertex 0.0342318 -0.152191 0.1
    endloop
  endfacet
  facet normal 0.751817 -0.659372 0
    outer loop
       vertex 0.0342318 -0.152191 0.1
       vertex 0.0126698 -0.176776 0.1
       vertex 0.0126698 -0.176776 0
    endloop
  endfacet
  facet normal 0.831476 -0.555561 0
    outer loop
       vertex 0.0342318 -0.152191 0
       vertex 0.0523998 -0.125 0
       vertex 0.0523998 -0.125 0.1
    endloop
  endfacet
  facet normal 0.831476 -0.555561 0
    outer loop
       vertex 0.0523998 -0.125 0.1
       vertex 0.0342318 -0.152191 0.1
       vertex 0.0342318 -0.152191 0
    endloop
  endfacet
  facet normal 0.896866 -0.442302 0
    outer loop
       vertex 0.0523998 -0.125 0
       vertex 0.0668638 -0.095671 0
       vertex 0.0668638 -0.095671 0.1
    endloop
  endfacet
  facet normal 0.896866 -0.442302 0
    outer loop
       vertex 0.0668638 -0.095671 0.1
       vertex 0.0523998 -0.125 0.1
       vertex 0.0523998 -0.125 0
    endloop
  endfacet
  facet normal 0.946935 -0.321425 0
    outer loop
       vertex 0.0668638 -0.095671 0
       vertex 0.0773748 -0.064705 0
       vertex 0.0773748 -0.064705 0.1
    endloop
  endfacet
  facet normal 0.946935 -0.321425 0
    outer loop
       vertex 0.0773748 -0.064705 0.1
       vertex 0.0668638 -0.095671 0.1
       vertex 0.0668638 -0.095671 0
    endloop
  endfacet
  facet normal 0.980784 -0.195096 0
    outer loop
       vertex 0.0773748 -0.064705 0
       vertex 0.0837548 -0.0326315 0
       vertex 0.0837548 -0.0326315 0.1
    endloop
  endfacet
  facet normal 0.980784 -0.195096 0
    outer loop
       vertex 0.0837548 -0.0326315 0.1
       vertex 0.0773748 -0.064705 0.1
       vertex 0.0773748 -0.064705 0
    endloop
  endfacet
  facet normal 0.997858 -0.0654098 0
    outer loop
       vertex 0.0858938 -8.32665e-17 0.1
       vertex 0.0837548 -0.0326315 0.1
       vertex 0.0837548 -0.0326315 0
    endloop
  endfacet
  facet normal 0.997858 -0.0654098 -1.08928e-16
    outer loop
       vertex 0.0837548 -0.0326315 0
       vertex 0.0858938 8.32665e-17 0
       vertex 0.0858938 -8.32665e-17 0.1
    endloop
  endfacet
  facet normal 0.997858 0.0654098 0
    outer loop
       vertex 0.0858938 8.32665e-17 0
       vertex 0.0837548 0.0326315 0
       vertex 0.0837548 0.0326315 0.1
    endloop
  endfacet
  facet normal 0.997858 0.0654098 1.08928e-16
    outer loop
       vertex 0.0837548 0.0326315 0.1
       vertex 0.0858938 -8.32665e-17 0.1
       vertex 0.0858938 8.32665e-17 0
    endloop
  endfacet
  facet normal 0.980784 0.195096 0
    outer loop
       vertex 0.0837548 0.0326315 0
       vertex 0.0773748 0.064705 0
       vertex 0.0773748 0.064705 0.1
    endloop
  endfacet
  facet normal 0.980784 0.195096 0
    outer loop
       vertex 0.0773748 0.064705 0.1
       vertex 0.0837548 0.0326315 0.1
       vertex 0.0837548 0.0326315 0
    endloop
  endfacet
  facet normal 0.946935 0.321425 0
    outer loop
       vertex 0.0773748 0.064705 0
       vertex 0.0668638 0.095671 0
       vertex 0.0668638 0.095671 0.1
    endloop
  endfacet
  facet normal 0.946935 0.321425 0
    outer loop
       vertex 0.0668638 0.095671 0.1
       vertex 0.0773748 0.064705 0.1
       vertex 0.0773748 0.064705 0
    endloop
  endfacet
  facet normal 0.896866 0.442302 0
    outer loop
       vertex 0.0668638 0.095671 0
       vertex 0.0523998 0.125 0
       vertex 0.0523998 0.125 0.1
    endloop
  endfacet
  facet normal 0.896866 0.442302 0
    outer loop
       vertex 0.0523998 0.125 0.1
       vertex 0.0668638 0.095671 0.1
       vertex 0.0668638 0.095671 0
    endloop
  endfacet
  facet normal 0.831476 0.555561 0
    outer loop
       vertex 0.0523998 0.125 0
       vertex 0.0342318 0.152191 0
       vertex 0.0342318 0.152191 0.1
    endloop
  endfacet
  facet normal 0.831476 0.555561 0
    outer loop
       vertex 0.0342318 0.152191 0.1
       vertex 0.0523998 0.125 0.1
       vertex 0.0523998 0.125 0
    endloop
  endfacet
  facet normal 0.751817 0.659372 0
    outer loop
       vertex 0.0342318 0.152191 0
       vertex 0.0126698 0.176776 0
       vertex 0.0126698 0.176776 0.1
    endloop
  endfacet
  facet normal 0.751817 0.659372 0
    outer loop
       vertex 0.0126698 0.176776 0.1
       vertex 0.0342318 0.152191 0.1
       vertex 0.0342318 0.152191 0
    endloop
  endfacet
  facet normal 0.659372 0.751817 0
    outer loop
       vertex 0.0126698 0.176776 0
       vertex -0.0119152 0.198338 0
       vertex -0.0119152 0.198338 0.1
    endloop
  endfacet
  facet normal 0.659372 0.751817 0
    outer loop
       vertex -0.0119152 0.198338 0.1
       vertex 0.0126698 0.176776 0.1
       vertex 0.0126698 0.176776 0
    endloop
  endfacet
  facet normal 0.555561 0.831476 0
    outer loop
       vertex -0.0119152 0.198338 0
       vertex -0.0391062 0.216506 0
       vertex -0.0391062 0.216506 0.1
    endloop
  endfacet
  facet normal 0.555561 0.831476 0
    outer loop
       vertex -0.0391062 0.216506 0.1
       vertex -0.0119152 0.198338 0.1
       vertex -0.0119152 0.198338 0
    endloop
  endfacet
  facet normal 0.442302 0.896866 0
    outer loop
       vertex -0.0391062 0.216506 0
       vertex -0.0684352 0.23097 0
       vertex -0.0684352 0.23097 0.1
    endloop
  endfacet
  facet normal 0.442302 0.896866 0
    outer loop
       vertex -0.0684352 0.23097 0.1
       vertex -0.0391062 0.216506 0.1
       vertex -0.0391062 0.216506 0
    endloop
  endfacet
  facet normal 0.321425 0.946935 0
    outer loop
       vertex -0.0684352 0.23097 0
       vertex -0.0994012 0.241481 0
       vertex -0.0994012 0.241481 0.1
    endloop
  endfacet
  facet normal 0.321425 0.946935 0
    outer loop
       vertex -0.0994012 0.241481 0.1
       vertex -0.0684352 0.23097 0.1
       vertex -0.0684352 0.23097 0
    endloop
  endfacet
  facet normal 0.195096 0.980784 0
    outer loop
       vertex -0.0994012 0.241481 0
       vertex -0.131475 0.247861 0
       vertex -0.131475 0.247861 0.1
    endloop
  endfacet
  facet normal 0.195096 0.980784 0
    outer loop
       vertex -0.131475 0.247861 0.1
       vertex -0.0994012 0.241481 0.1
       vertex -0.0994012 0.241481 0
    endloop
  endfacet
  facet normal 0.0654098 0.997858 0
    outer loop
       vertex -0.164106 0.25 0.1
       vertex -0.131475 0.247861 0.1
       vertex -0.131475 0.247861 0
    endloop
  endfacet
  facet normal 0.0654098 0.997858 -1.0893e-16
    outer loop
       vertex -0.131475 0.247861 0
       vertex -0.164106 0.25 0
       vertex -0.164106 0.25 0.1
    endloop
  endfacet
  facet normal -0.0654098 0.997858 0
    outer loop
       vertex -0.164106 0.25 0
       vertex -0.196738 0.247861 0
       vertex -0.196738 0.247861 0.1
    endloop
  endfacet
  facet normal -0.0654098 0.997858 1.0893e-16
    outer loop
       vertex -0.196738 0.247861 0.1
       vertex -0.164106 0.25 0.1
       vertex -0.164106 0.25 0
    endloop
  endfacet
  facet normal -0.195096 0.980784 0
    outer loop
       vertex -0.196738 0.247861 0
       vertex -0.228811 0.241481 0
       vertex -0.228811 0.241481 0.1
    endloop
  endfacet
  facet normal -0.195096 0.980784 0
    outer loop
       vertex -0.228811 0.241481 0.1
       vertex -0.196738 0.247861 0.1
       vertex -0.196738 0.247861 0
    endloop
  endfacet
  facet normal -0.321425 0.946935 0
    outer loop
       vertex -0.228811 0.241481 0
       vertex -0.259777 0.23097 0
       vertex -0.259777 0.23097 0.1
    endloop
  endfacet
  facet normal -0.321425 0.946935 0
    outer loop
       vertex -0.259777 0.23097 0.1
       vertex -0.228811 0.241481 0.1
       vertex -0.228811 0.241481 0
    endloop
  endfacet
  facet normal -0.442302 0.896866 0
    outer loop
       vertex -0.259777 0.23097 0
       vertex -0.289106 0.216506 0
       vertex -0.289106 0.216506 0.1
    endloop
  endfacet
  facet normal -0.442302 0.896866 0
    outer loop
       vertex -0.289106 0.216506 0.1
       vertex -0.259777 0.23097 0.1
       vertex -0.259777 0.23097 0
    endloop
  endfacet
  facet normal -0.555561 0.831476 0
    outer loop
       vertex -0.289106 0.216506 0
       vertex -0.316297 0.198338 0
       vertex -0.316297 0.198338 0.1
    endloop
  endfacet
  facet normal -0.555561 0.831476 0
    outer loop
       vertex -0.316297 0.198338 0.1
       vertex -0.289106 0.216506 0.1
       vertex -0.289106 0.216506 0
    endloop
  endfacet
  facet normal -0.659372 0.751817 0
    outer loop
       vertex -0.316297 0.198338 0
       vertex -0.340882 0.176776 0
       vertex -0.340882 0.176776 0.1
    endloop
  endfacet
  facet normal -0.659372 0.751817 0
    outer loop
       vertex -0.340882 0.176776 0.1
       vertex -0.316297 0.198338 0.1
       vertex -0.316297 0.198338 0
    endloop
  endfacet
  facet normal -0.751817 0.659372 0
    outer loop
       vertex -0.340882 0.176776 0
       vertex -0.362444 0.152191 0
       vertex -0.362444 0.152191 0.1
    endloop
  endfacet
  facet normal -0.751817 0.659372 0
    outer loop
       vertex -0.362444 0.152191 0.1
       vertex -0.340882 0.176776 0.1
       vertex -0.340882 0.176776 0
    endloop
  endfacet
  facet normal -0.831476 0.555561 0
    outer loop
       vertex -0.362444 0.152191 0
       vertex -0.380612 0.125 0
       vertex -0.380612 0.125 0.1
    endloop
  endfacet
  facet normal -0.831476 0.555561 0
    outer loop
       vertex -0.380612 0.125 0.1
       vertex -0.362444 0.152191 0.1
       vertex -0.362444 0.152191 0
    endloop
  endfacet
  facet normal -0.896866 0.442302 0
    outer loop
       vertex -0.380612 0.125 0
       vertex -0.395076 0.095671 0
       vertex -0.395076 0.095671 0.1
    endloop
  endfacet
  facet normal -0.896866 0.442302 0
    outer loop
       vertex -0.395076 0.095671 0.1
       vertex -0.380612 0.125 0.1
       vertex -0.380612 0.125 0
    endloop
  endfacet
  facet normal -0.946935 0.321425 0
    outer loop
       vertex -0.395076 0.095671 0
       vertex -0.405587 0.064705 0
       vertex -0.405587 0.064705 0.1
    endloop
  endfacet
  facet normal -0.946935 0.321425 0
    outer loop
       vertex -0.405587 0.064705 0.1
       vertex -0.395076 0.095671 0.1
       vertex -0.395076 0.095671 0
    endloop
  endfacet
  facet normal -0.980784 0.195096 0
    outer loop
       vertex -0.405587 0.064705 0
       vertex -0.411967 0.0326315 0
       vertex -0.411967 0.0326315 0.1
    endloop
  endfacet
  facet normal -0.980784 0.195096 0
    outer loop
       vertex -0.411967 0.0326315 0.1
       vertex -0.405587 0.064705 0.1
       vertex -0.405587 0.064705 0
    endloop
  endfacet
  facet normal -0.997858 0.0654098 0
    outer loop
       vertex -0.414106 8.32665e-17 0.1
       vertex -0.411967 0.0326315 0.1
       vertex -0.411967 0.0326315 0
    endloop
  endfacet
  facet normal -0.997858 0.0654098 -1.08928e-16
    outer loop
       vertex -0.411967 0.0326315 0
       vertex -0.414106 -8.32665e-17 0
       vertex -0.414106 8.32665e-17 0.1
    endloop
  endfacet
  facet normal -0.997858 -0.0654098 0
    outer loop
       vertex -0.414106 -8.32665e-17 0
       vertex -0.411967 -0.0326315 0
       vertex -0.411967 -0.0326315 0.1
    endloop
  endfacet
  facet normal -0.997858 -0.0654098 1.08928e-16
    outer loop
       vertex -0.411967 -0.0326315 0.1
       vertex -0.414106 8.32665e-17 0.1
       vertex -0.414106 -8.32665e-17 0
    endloop
  endfacet
  facet normal -0.980784 -0.195096 0
    outer loop
       vertex -0.411967 -0.0326315 0
       vertex -0.405587 -0.064705 0
       vertex -0.405587 -0.064705 0.1
    endloop
  endfacet
  facet normal -0.980784 -0.195096 0
    outer loop
       vertex -0.405587 -0.064705 0.1
       vertex -0.411967 -0.0326315 0.1
       vertex -0.411967 -0.0326315 0
    endloop
  endfacet
  facet normal -0.946935 -0.321425 0
    outer loop
       vertex -0.405587 -0.064705 0
       vertex -0.395076 -0.095671 0
       vertex -0.395076 -0.095671 0.1
    endloop
  endfacet
  facet normal -0.946935 -0.321425 0
    outer loop
       vertex -0.395076 -0.095671 0.1
       vertex -0.405587 -0.064705 0.1
       vertex -0.405587 -0.064705 0
    endloop
  endfacet
  facet normal -0.896866 -0.442302 0
    outer loop
       vertex -0.395076 -0.095671 0
       vertex -0.380612 -0.125 0
       vertex -0.380612 -0.125 0.1
    endloop
  endfacet
  facet normal -0.896866 -0.442302 0
    outer loop
       vertex -0.380612 -0.125 0.1
       vertex -0.395076 -0.095671 0.1
       vertex -0.395076 -0.095671 0
    endloop
  endfacet
  facet normal -0.831476 -0.555561 0
    outer loop
       vertex -0.380612 -0.125 0
       vertex -0.362444 -0.152191 0
       vertex -0.362444 -0.152191 0.1
    endloop
  endfacet
  facet normal -0.831476 -0.555561 0
    outer loop
       vertex -0.362444 -0.152191 0.1
       vertex -0.380612 -0.125 0.1
       vertex -0.380612 -0.125 0
    endloop
  endfacet
  facet normal -0.751817 -0.659372 0
    outer loop
       vertex -0.362444 -0.152191 0
       vertex -0.340882 -0.176776 0
       vertex -0.340882 -0.176776 0.1
    endloop
  endfacet
  facet normal -0.751817 -0.659372 0
    outer loop
       vertex -0.340882 -0.176776 0.1
       vertex -0.362444 -0.152191 0.1
       vertex -0.362444 -0.152191 0
    endloop
  endfacet
  facet normal 0.659372 -0.751817 0
    outer loop
       vertex 0.0126698 -0.176776 0
       vertex 0.0126698 -0.176776 0.1
       vertex -0.0119152 -0.198338 0.1
    endloop
  endfacet
  facet normal 0.659372 -0.751817 0
    outer loop
       vertex -0.0119152 -0.198338 0.1
       vertex -0.0119152 -0.198338 0
       vertex 0.0126698 -0.176776 0
    endloop
  endfacet
  facet normal 0.555561 -0.831476 0
    outer loop
       vertex -0.0119152 -0.198338 0
       vertex -0.0119152 -0.198338 0.1
       vertex -0.0391062 -0.216506 0.1
    endloop
  endfacet
  facet normal 0.555561 -0.831476 0
    outer loop
       vertex -0.0391062 -0.216506 0.1
       vertex -0.0391062 -0.216506 0
       vertex -0.0119152 -0.198338 0
    endloop
  endfacet
  facet normal 0.442302 -0.896866 0
    outer loop
       vertex -0.0391062 -0.216506 0
       vertex -0.0391062 -0.216506 0.1
       vertex -0.0684352 -0.23097 0.1
    endloop
  endfacet
  facet normal 0.442302 -0.896866 0
    outer loop
       vertex -0.0684352 -0.23097 0.1
       vertex -0.0684352 -0.23097 0
       vertex -0.0391062 -0.216506 0
    endloop
  endfacet
  facet normal 0.321425 -0.946935 0
    outer loop
       vertex -0.0684352 -0.23097 0
       vertex -0.0684352 -0.23097 0.1
       vertex -0.0994012 -0.241481 0.1
    endloop
  endfacet
  facet normal 0.321425 -0.946935 0
    outer loop
       vertex -0.0994012 -0.241481 0.1
       vertex -0.0994012 -0.241481 0
       vertex -0.0684352 -0.23097 0
    endloop
  endfacet
  facet normal 0.195096 -0.980784 0
    outer loop
       vertex -0.0994012 -0.241481 0
       vertex -0.0994012 -0.241481 0.1
       vertex -0.131475 -0.247861 0.1
    endloop
  endfacet
  facet normal 0.195096 -0.980784 0
    outer loop
       vertex -0.131475 -0.247861 0.1
       vertex -0.131475 -0.247861 0
       vertex -0.0994012 -0.241481 0
    endloop
  endfacet
  facet normal 0.0654098 -0.997858 0
    outer loop
       vertex -0.164106 -0.25 0
       vertex -0.131475 -0.247861 0
       vertex -0.131475 -0.247861 0.1
    endloop
  endfacet
  facet normal 0.0654098 -0.997858 1.0893e-16
    outer loop
       vertex -0.131475 -0.247861 0.1
       vertex -0.164106 -0.25 0.1
       vertex -0.164106 -0.25 0
    endloop
  endfacet
  facet normal -0.0654098 -0.997858 0
    outer loop
       vertex -0.164106 -0.25 0.1
       vertex -0.196738 -0.247861 0.1
       vertex -0.196738 -0.247861 0
    endloop
  endfacet
  facet normal -0.0654098 -0.997858 -1.0893e-16
    outer loop
       vertex -0.196738 -0.247861 0
       vertex -0.164106 -0.25 0
       vertex -0.164106 -0.25 0.1
    endloop
  endfacet
  facet normal -0.195096 -0.980784 0
    outer loop
       vertex -0.196738 -0.247861 0
       vertex -0.196738 -0.247861 0.1
       vertex -0.228811 -0.241481 0.1
    endloop
  endfacet
  facet normal -0.195096 -0.980784 -0
    outer loop
       vertex -0.228811 -0.241481 0.1
       vertex -0.228811 -0.241481 0
       vertex -0.196738 -0.247861 0
    endloop
  endfacet
  facet normal -0.321425 -0.946935 0
    outer loop
       vertex -0.228811 -0.241481 0
       vertex -0.228811 -0.241481 0.1
       vertex -0.259777 -0.23097 0.1
    endloop
  endfacet
  facet normal -0.321425 -0.946935 -0
    outer loop
       vertex -0.259777 -0.23097 0.1
       vertex -0.259777 -0.23097 0
       vertex -0.228811 -0.241481 0
    endloop
  endfacet
  facet normal -0.442302 -0.896866 0
    outer loop
       vertex -0.259777 -0.23097 0
       vertex -0.259777 -0.23097 0.1
       vertex -0.289106 -0.216506 0.1
    endloop
  endfacet
  facet normal -0.442302 -0.896866 -0
    outer loop
       vertex -0.289106 -0.216506 0.1
       vertex -0.289106 -0.216506 0
       vertex -0.259777 -0.23097 0
    endloop
  endfacet
  facet normal -0.555561 -0.831476 0
    outer loop
       vertex -0.289106 -0.216506 0
       vertex -0.289106 -0.216506 0.1
       vertex -0.316297 -0.198338 0.1
    endloop
  endfacet
  facet normal -0.555561 -0.831476 -0
    outer loop
       vertex -0.316297 -0.198338 0.1
       vertex -0.316297 -0.198338 0
       vertex -0.289106 -0.216506 0
    endloop
  endfacet
  facet normal -0.659372 -0.751817 0
    outer loop
       vertex -0.316297 -0.198338 0
       vertex -0.316297 -0.198338 0.1
       vertex -0.340882 -0.176776 0.1
    endloop
  endfacet
  facet normal -0.659372 -0.751817 -0
    outer loop
       vertex -0.340882 -0.176776 0.1
       vertex -0.340882 -0.176776 0
       vertex -0.316297 -0.198338 0
    endloop
  endfacet
endsolid cylinder
