solid cylinder
  facet normal 0.751817 -0.659372 0
    outer loop
       vertex 0.330776 -0.176776 0
       vertex 0.352338 -0.152191 0
       vertex 0.352338 -0.152191 0.1
    endloop
  endfacet
  facet normal 0.751817 -0.659372 0
    outer loop
       vertex 0.352338 -0.152191 0.1
       vertex 0.330776 -0.176776 0.1
       vertex 0.330776 -0.176776 0
    endloop
  endfacet
  facet normal 0.831476 -0.555561 0
    outer loop
       vertex 0.352338 -0.152191 0
       vertex 0.370506 -0.125 0
       vertex 0.370506 -0.125 0.1
    endloop
  endfacet
  facet normal 0.831476 -0.555561 0
    outer loop
       vertex 0.370506 -0.125 0.1
       vertex 0.352338 -0.152191 0.1
       vertex 0.352338 -0.152191 0
    endloop
  endfacet
  facet normal 0.896866 -0.442302 0
    outer loop
       vertex 0.370506 -0.125 0
       vertex 0.38497 -0.095671 0
       vertex 0.38497 -0.095671 0.1
    endloop
  endfacet
  facet normal 0.896866 -0.442302 0
    outer loop
       vertex 0.38497 -0.095671 0.1
       vertex 0.370506 -0.125 0.1
       vertex 0.370506 -0.125 0
    endloop
  endfacet
  facet normal 0.946935 -0.321425 0
    outer loop
       vertex 0.38497 -0.095671 0
       vertex 0.395481 -0.064705 0
       vertex 0.395481 -0.064705 0.1
    endloop
  endfacet
  facet normal 0.946935 -0.321425 0
    outer loop
       vertex 0.395481 -0.064705 0.1
       vertex 0.38497 -0.095671 0.1
       vertex 0.38497 -0.095671 0
    endloop
  endfacet
  facet normal 0.980784 -0.195096 0
    outer loop
       vertex 0.395481 -0.064705 0
       vertex 0.401861 -0.0326315 0
       vertex 0.401861 -0.0326315 0.1
    endloop
  endfacet
  facet normal 0.980784 -0.195096 0
    outer loop
       vertex 0.401861 -0.0326315 0.1
       vertex 0.395481 -0.064705 0.1
       vertex 0.395481 -0.064705 0
    endloop
  endfacet
  facet normal 0.997858 -0.0654098 0
    outer loop
       vertex 0.404 -8.32665e-17 0.1
       vertex 0.401861 -0.0326315 0.1
       vertex 0.401861 -0.0326315 0
    endloop
  endfacet
  facet normal 0.997858 -0.0654098 -1.08928e-16
    outer loop
       vertex 0.401861 -0.0326315 0
       vertex 0.404 8.32665e-17 0
       vertex 0.404 -8.32665e-17 0.1
    endloop
  endfacet
  facet normal 0.997858 0.0654098 0
    outer loop
       vertex 0.404 8.32665e-17 0
       vertex 0.401861 0.0326315 0
       vertex 0.401861 0.0326315 0.1
    endloop
  endfacet
  facet normal 0.997858 0.0654098 1.08928e-16
    outer loop
       vertex 0.401861 0.0326315 0.1
       vertex 0.404 -8.32665e-17 0.1
       vertex 0.404 8.32665e-17 0
    endloop
  endfacet
  facet normal 0.980784 0.195096 0
    outer loop
       vertex 0.401861 0.0326315 0
       vertex 0.395481 0.064705 0
       vertex 0.395481 0.064705 0.1
    endloop
  endfacet
  facet normal 0.980784 0.195096 0
    outer loop
       vertex 0.395481 0.064705 0.1
       vertex 0.401861 0.0326315 0.1
       vertex 0.401861 0.0326315 0
    endloop
  endfacet
  facet normal 0.946935 0.321425 0
    outer loop
       vertex 0.395481 0.064705 0
       vertex 0.38497 0.095671 0
       vertex 0.38497 0.095671 0.1
    endloop
  endfacet
  facet normal 0.946935 0.321425 0
    outer loop
       vertex 0.38497 0.095671 0.1
       vertex 0.395481 0.064705 0.1
       vertex 0.395481 0.064705 0
    endloop
  endfacet
  facet normal 0.896866 0.442302 0
    outer loop
       vertex 0.38497 0.095671 0
       vertex 0.370506 0.125 0
       vertex 0.370506 0.125 0.1
    endloop
  endfacet
  facet normal 0.896866 0.442302 0
    outer loop
       vertex 0.370506 0.125 0.1
       vertex 0.38497 0.095671 0.1
       vertex 0.38497 0.095671 0
    endloop
  endfacet
  facet normal 0.831476 0.555561 0
    outer loop
       vertex 0.370506 0.125 0
       vertex 0.352338 0.152191 0
       vertex 0.352338 0.152191 0.1
    endloop
  endfacet
  facet normal 0.831476 0.555561 0
    outer loop
       vertex 0.352338 0.152191 0.1
       vertex 0.370506 0.125 0.1
       vertex 0.370506 0.125 0
    endloop
  endfacet
  facet normal 0.751817 0.659372 0
    outer loop
       vertex 0.352338 0.152191 0
       vertex 0.330776 0.176776 0
       vertex 0.330776 0.176776 0.1
    endloop
  endfacet
  facet normal 0.751817 0.659372 0
    outer loop
       vertex 0.330776 0.176776 0.1
       vertex 0.352338 0.152191 0.1
       vertex 0.352338 0.152191 0
    endloop
  endfacet
  facet normal 0.659372 0.751817 0
    outer loop
       vertex 0.330776 0.176776 0
       vertex 0.306191 0.198338 0
       vertex 0.306191 0.198338 0.1
    endloop
  endfacet
  facet normal 0.659372 0.751817 0
    outer loop
       vertex 0.306191 0.198338 0.1
       vertex 0.330776 0.176776 0.1
       vertex 0.330776 0.176776 0
    endloop
  endfacet
  facet normal 0.555561 0.831476 0
    outer loop
       vertex 0.306191 0.198338 0
       vertex 0.279 0.216506 0
       vertex 0.279 0.216506 0.1
    endloop
  endfacet
  facet normal 0.555561 0.831476 0
    outer loop
       vertex 0.279 0.216506 0.1
       vertex 0.306191 0.198338 0.1
       vertex 0.306191 0.198338 0
    endloop
  endfacet
  facet normal 0.442302 0.896866 0
    outer loop
       vertex 0.279 0.216506 0
       vertex 0.249671 0.23097 0
       vertex 0.249671 0.23097 0.1
    endloop
  endfacet
  facet normal 0.442302 0.896866 0
    outer loop
       vertex 0.249671 0.23097 0.1
       vertex 0.279 0.216506 0.1
       vertex 0.279 0.216506 0
    endloop
  endfacet
  facet normal 0.321425 0.946935 0
    outer loop
       vertex 0.249671 0.23097 0
       vertex 0.218705 0.241481 0
       vertex 0.218705 0.241481 0.1
    endloop
  endfacet
  facet normal 0.321425 0.946935 0
    outer loop
       vertex 0.218705 0.241481 0.1
       vertex 0.249671 0.23097 0.1
       vertex 0.249671 0.23097 0
    endloop
  endfacet
  facet normal 0.195096 0.980784 0
    outer loop
       vertex 0.218705 0.241481 0
       vertex 0.186632 0.247861 0
       vertex 0.186632 0.247861 0.1
    endloop
  endfacet
  facet normal 0.195096 0.980784 0
    outer loop
       vertex 0.186632 0.247861 0.1
       vertex 0.218705 0.241481 0.1
       vertex 0.218705 0.241481 0
    endloop
  endfacet
  facet normal 0.0654098 0.997858 0
    outer loop
       vertex 0.154 0.25 0.1
       vertex 0.186632 0.247861 0.1
       vertex 0.186632 0.247861 0
    endloop
  endfacet
  facet normal 0.0654098 0.997858 -1.0893e-16
    outer loop
       vertex 0.186632 0.247861 0
       vertex 0.154 0.25 0
       vertex 0.154 0.25 0.1
    endloop
  endfacet
  facet normal -0.0654098 0.997858 0
    outer loop
       vertex 0.154 0.25 0
       vertex 0.121369 0.247861 0
       vertex 0.121369 0.247861 0.1
    endloop
  endfacet
  facet normal -0.0654098 0.997858 1.0893e-16
    outer loop
       vertex 0.121369 0.247861 0.1
       vertex 0.154 0.25 0.1
       vertex 0.154 0.25 0
    endloop
  endfacet
  facet normal -0.195096 0.980784 0
    outer loop
       vertex 0.121369 0.247861 0
       vertex 0.089295 0.241481 0
       vertex 0.089295 0.241481 0.1
    endloop
  endfacet
  facet normal -0.195096 0.980784 0
    outer loop
       vertex 0.089295 0.241481 0.1
       vertex 0.121369 0.247861 0.1
       vertex 0.121369 0.247861 0
    endloop
  endfacet
  facet normal -0.321425 0.946935 0
    outer loop
       vertex 0.089295 0.241481 0
       vertex 0.058329 0.23097 0
       vertex 0.058329 0.23097 0.1
    endloop
  endfacet
  facet normal -0.321425 0.946935 0
    outer loop
       vertex 0.058329 0.23097 0.1
       vertex 0.089295 0.241481 0.1
       vertex 0.089295 0.241481 0
    endloop
  endfacet
  facet normal -0.442302 0.896866 0
    outer loop
       vertex 0.058329 0.23097 0
       vertex 0.029 0.216506 0
       vertex 0.029 0.216506 0.1
    endloop
  endfacet
  facet normal -0.442302 0.896866 0
    outer loop
       vertex 0.029 0.216506 0.1
       vertex 0.058329 0.23097 0.1
       vertex 0.058329 0.23097 0
    endloop
  endfacet
  facet normal -0.555561 0.831476 0
    outer loop
       vertex 0.029 0.216506 0
       vertex 0.00180903 0.198338 0
       vertex 0.00180903 0.198338 0.1
    endloop
  endfacet
  facet normal -0.555561 0.831476 0
    outer loop
       vertex 0.00180903 0.198338 0.1
       vertex 0.029 0.216506 0.1
       vertex 0.029 0.216506 0
    endloop
  endfacet
  facet normal -0.659372 0.751817 0
    outer loop
       vertex 0.00180903 0.198338 0
       vertex -0.022776 0.176776 0
       vertex -0.022776 0.176776 0.1
    endloop
  endfacet
  facet normal -0.659372 0.751817 0
    outer loop
       vertex -0.022776 0.176776 0.1
       vertex 0.00180903 0.198338 0.1
       vertex 0.00180903 0.198338 0
    endloop
  endfacet
  facet normal -0.751817 0.659372 0
    outer loop
       vertex -0.022776 0.176776 0
       vertex -0.044338 0.152191 0
       vertex -0.044338 0.152191 0.1
    endloop
  endfacet
  facet normal -0.751817 0.659372 0
    outer loop
       vertex -0.044338 0.152191 0.1
       vertex -0.022776 0.176776 0.1
       vertex -0.022776 0.176776 0
    endloop
  endfacet
  facet normal -0.831476 0.555561 0
    outer loop
       vertex -0.044338 0.152191 0
       vertex -0.062506 0.125 0
       vertex -0.062506 0.125 0.1
    endloop
  endfacet
  facet normal -0.831476 0.555561 0
    outer loop
       vertex -0.062506 0.125 0.1
       vertex -0.044338 0.152191 0.1
       vertex -0.044338 0.152191 0
    endloop
  endfacet
  facet normal -0.896866 0.442302 0
    outer loop
       vertex -0.062506 0.125 0
       vertex -0.07697 0.095671 0
       vertex -0.07697 0.095671 0.1
    endloop
  endfacet
  facet normal -0.896866 0.442302 0
    outer loop
       vertex -0.07697 0.095671 0.1
       vertex -0.062506 0.125 0.1
       vertex -0.062506 0.125 0
    endloop
  endfacet
  facet normal -0.946935 0.321425 0
    outer loop
       vertex -0.07697 0.095671 0
       vertex -0.087481 0.064705 0
       vertex -0.087481 0.064705 0.1
    endloop
  endfacet
  facet normal -0.946935 0.321425 0
    outer loop
       vertex -0.087481 0.064705 0.1
       vertex -0.07697 0.095671 0.1
       vertex -0.07697 0.095671 0
    endloop
  endfacet
  facet normal -0.980784 0.195096 0
    outer loop
       vertex -0.087481 0.064705 0
       vertex -0.093861 0.0326315 0
       vertex -0.093861 0.0326315 0.1
    endloop
  endfacet
  facet normal -0.980784 0.195096 0
    outer loop
       vertex -0.093861 0.0326315 0.1
       vertex -0.087481 0.064705 0.1
       vertex -0.087481 0.064705 0
    endloop
  endfacet
  facet normal -0.997858 0.0654098 0
    outer loop
       vertex -0.096 8.32665e-17 0.1
       vertex -0.093861 0.0326315 0.1
       vertex -0.093861 0.0326315 0
    endloop
  endfacet
  facet normal -0.997858 0.0654098 -1.08928e-16
    outer loop
       vertex -0.093861 0.0326315 0
       vertex -0.096 -8.32665e-17 0
       vertex -0.096 8.32665e-17 0.1
    endloop
  endfacet
  facet normal -0.997858 -0.0654098 0
    outer loop
       vertex -0.096 -8.32665e-17 0
       vertex -0.093861 -0.0326315 0
       vertex -0.093861 -0.0326315 0.1
    endloop
  endfacet
  facet normal -0.997858 -0.0654098 1.08928e-16
    outer loop
       vertex -0.093861 -0.0326315 0.1
       vertex -0.096 8.32665e-17 0.1
       vertex -0.096 -8.32665e-17 0
    endloop
  endfacet
  facet normal -0.980784 -0.195096 0
    outer loop
       vertex -0.093861 -0.0326315 0
       vertex -0.087481 -0.064705 0
       vertex -0.087481 -0.064705 0.1
    endloop
  endfacet
  facet normal -0.980784 -0.195096 0
    outer loop
       vertex -0.087481 -0.064705 0.1
       vertex -0.093861 -0.0326315 0.1
       vertex -0.093861 -0.0326315 0
    endloop
  endfacet
  facet normal -0.946935 -0.321425 0
    outer loop
       vertex -0.087481 -0.064705 0
       vertex -0.07697 -0.095671 0
       vertex -0.07697 -0.095671 0.1
    endloop
  endfacet
  facet normal -0.946935 -0.321425 0
    outer loop
       vertex -0.07697 -0.095671 0.1
       vertex -0.087481 -0.064705 0.1
       vertex -0.087481 -0.064705 0
    endloop
  endfacet
  facet normal -0.896866 -0.442302 0
    outer loop
       vertex -0.07697 -0.095671 0
       vertex -0.062506 -0.125 0
       vertex -0.062506 -0.125 0.1
    endloop
  endfacet
  facet normal -0.896866 -0.442302 0
    outer loop
       vertex -0.062506 -0.125 0.1
       vertex -0.07697 -0.095671 0.1
       vertex -0.07697 -0.095671 0
    endloop
  endfacet
  facet normal -0.831476 -0.555561 0
    outer loop
       vertex -0.062506 -0.125 0
       vertex -0.044338 -0.152191 0
       vertex -0.044338 -0.152191 0.1
    endloop
  endfacet
  facet normal -0.831476 -0.555561 0
    outer loop
       vertex -0.044338 -0.152191 0.1
       vertex -0.062506 -0.125 0.1
       vertex -0.062506 -0.125 0
    endloop
  endfacet
  facet normal -0.751817 -0.659372 0
    outer loop
       vertex -0.044338 -0.152191 0
       vertex -0.022776 -0.176776 0
       vertex -0.022776 -0.176776 0.1
    endloop
  endfacet
  facet normal -0.751817 -0.659372 0
    outer loop
       vertex -0.022776 -0.176776 0.1
       vertex -0.044338 -0.152191 0.1
       vertex -0.044338 -0.152191 0
    endloop
  endfacet
  facet normal 0.659372 -0.751817 0
    outer loop
       vertex 0.330776 -0.176776 0
       vertex 0.330776 -0.176776 0.1
       vertex 0.306191 -0.198338 0.1
    endloop
  endfacet
  facet normal 0.659372 -0.751817 0
    outer loop
       vertex 0.306191 -0.198338 0.1
       vertex 0.306191 -0.198338 0
       vertex 0.330776 -0.176776 0
    endloop
  endfacet
  facet normal 0.555561 -0.831476 0
    outer loop
       vertex 0.306191 -0.198338 0
       vertex 0.306191 -0.198338 0.1
       vertex 0.279 -0.216506 0.1
    endloop
  endfacet
  facet normal 0.555561 -0.831476 0
    outer loop
       vertex 0.279 -0.216506 0.1
       vertex 0.279 -0.216506 0
       vertex 0.306191 -0.198338 0
    endloop
  endfacet
  facet normal 0.442302 -0.896866 0
    outer loop
       vertex 0.279 -0.216506 0
       vertex 0.279 -0.216506 0.1
       vertex 0.249671 -0.23097 0.1
    endloop
  endfacet
  facet normal 0.442302 -0.896866 0
    outer loop
       vertex 0.249671 -0.23097 0.1
       vertex 0.249671 -0.23097 0
       vertex 0.279 -0.216506 0
    endloop
  endfacet
  facet normal 0.321425 -0.946935 0
    outer loop
       vertex 0.249671 -0.23097 0
       vertex 0.249671 -0.23097 0.1
       vertex 0.218705 -0.241481 0.1
    endloop
  endfacet
  facet normal 0.321425 -0.946935 0
    outer loop
       vertex 0.218705 -0.241481 0.1
       vertex 0.218705 -0.241481 0
       vertex 0.249671 -0.23097 0
    endloop
  endfacet
  facet normal 0.195096 -0.980784 0
    outer loop
       vertex 0.218705 -0.241481 0
       vertex 0.218705 -0.241481 0.1
       vertex 0.186632 -0.247861 0.1
    endloop
  endfacet
  facet normal 0.195096 -0.980784 0
    outer loop
       vertex 0.186632 -0.247861 0.1
       vertex 0.186632 -0.247861 0
       vertex 0.218705 -0.241481 0
    endloop
  endfacet
  facet normal 0.0654098 -0.997858 0
    outer loop
       vertex 0.154 -0.25 0
       vertex 0.186632 -0.247861 0
       vertex 0.186632 -0.247861 0.1
    endloop
  endfacet
  facet normal 0.0654098 -0.997858 1.0893e-16
    outer loop
       vertex 0.186632 -0.247861 0.1
       vertex 0.154 -0.25 0.1
       vertex 0.154 -0.25 0
    endloop
  endfacet
  facet normal -0.0654098 -0.997858 0
    outer loop
       vertex 0.154 -0.25 0.1
       vertex 0.121369 -0.247861 0.1
       vertex 0.121369 -0.247861 0
    endloop
  endfacet
  facet normal -0.0654098 -0.997858 -1.0893e-16
    outer loop
       vertex 0.121369 -0.247861 0
       vertex 0.154 -0.25 0
       vertex 0.154 -0.25 0.1
    endloop
  endfacet
  facet normal -0.195096 -0.980784 0
    outer loop
       vertex 0.121369 -0.247861 0
       vertex 0.121369 -0.247861 0.1
       vertex 0.089295 -0.241481 0.1
    endloop
  endfacet
  facet normal -0.195096 -0.980784 -0
    outer loop
       vertex 0.089295 -0.241481 0.1
       vertex 0.089295 -0.241481 0
       vertex 0.121369 -0.247861 0
    endloop
  endfacet
  facet normal -0.321425 -0.946935 0
    outer loop
       vertex 0.089295 -0.241481 0
       vertex 0.089295 -0.241481 0.1
       vertex 0.058329 -0.23097 0.1
    endloop
  endfacet
  facet normal -0.321425 -0.946935 -0
    outer loop
       vertex 0.058329 -0.23097 0.1
       vertex 0.058329 -0.23097 0
       vertex 0.089295 -0.241481 0
    endloop
  endfacet
  facet normal -0.442302 -0.896866 0
    outer loop
       vertex 0.058329 -0.23097 0
       vertex 0.058329 -0.23097 0.1
       vertex 0.029 -0.216506 0.1
    endloop
  endfacet
  facet normal -0.442302 -0.896866 -0
    outer loop
       vertex 0.029 -0.216506 0.1
       vertex 0.029 -0.216506 0
       vertex 0.058329 -0.23097 0
    endloop
  endfacet
  facet normal -0.555561 -0.831476 0
    outer loop
       vertex 0.029 -0.216506 0
       vertex 0.029 -0.216506 0.1
       vertex 0.00180903 -0.198338 0.1
    endloop
  endfacet
  facet normal -0.555561 -0.831476 -0
    outer loop
       vertex 0.00180903 -0.198338 0.1
       vertex 0.00180903 -0.198338 0
       vertex 0.029 -0.216506 0
    endloop
  endfacet
  facet normal -0.659372 -0.751817 0
    outer loop
       vertex 0.00180903 -0.198338 0
       vertex 0.00180903 -0.198338 0.1
       vertex -0.022776 -0.176776 0.1
    endloop
  endfacet
  facet normal -0.659372 -0.751817 -0
    outer loop
       vertex -0.022776 -0.176776 0.1
       vertex -0.022776 -0.176776 0
       vertex 0.00180903 -0.198338 0
    endloop
  endfacet
endsolid cylinder
