solid cylinder
  facet normal 0.751817 -0.659372 0
    outer loop
       vertex 0.40103 -0.176776 0
       vertex 0.422592 -0.152191 0
       vertex 0.422592 -0.152191 0.1
    endloop
  endfacet
  facet normal 0.751817 -0.659372 0
    outer loop
       vertex 0.422592 -0.152191 0.1
       vertex 0.40103 -0.176776 0.1
       vertex 0.40103 -0.176776 0
    endloop
  endfacet
  facet normal 0.831476 -0.555561 0
    outer loop
       vertex 0.422592 -0.152191 0
       vertex 0.44076 -0.125 0
       vertex 0.44076 -0.125 0.1
    endloop
  endfacet
  facet normal 0.831476 -0.555561 0
    outer loop
       vertex 0.44076 -0.125 0.1
       vertex 0.422592 -0.152191 0.1
       vertex 0.422592 -0.152191 0
    endloop
  endfacet
  facet normal 0.896866 -0.442302 0
    outer loop
       vertex 0.44076 -0.125 0
       vertex 0.455224 -0.095671 0
       vertex 0.455224 -0.095671 0.1
    endloop
  endfacet
  facet normal 0.896866 -0.442302 0
    outer loop
       vertex 0.455224 -0.095671 0.1
       vertex 0.44076 -0.125 0.1
       vertex 0.44076 -0.125 0
    endloop
  endfacet
  facet normal 0.946935 -0.321425 0
    outer loop
       vertex 0.455224 -0.095671 0
       vertex 0.465735 -0.064705 0
       vertex 0.465735 -0.064705 0.1
    endloop
  endfacet
  facet normal 0.946935 -0.321425 0
    outer loop
       vertex 0.465735 -0.064705 0.1
       vertex 0.455224 -0.095671 0.1
       vertex 0.455224 -0.095671 0
    endloop
  endfacet
  facet normal 0.980784 -0.195096 0
    outer loop
       vertex 0.465735 -0.064705 0
       vertex 0.472115 -0.0326315 0
       vertex 0.472115 -0.0326315 0.1
    endloop
  endfacet
  facet normal 0.980784 -0.195096 0
    outer loop
       vertex 0.472115 -0.0326315 0.1
       vertex 0.465735 -0.064705 0.1
       vertex 0.465735 -0.064705 0
    endloop
  endfacet
  facet normal 0.997858 -0.0654098 0
    outer loop
       vertex 0.474254 -8.32665e-17 0.1
       vertex 0.472115 -0.0326315 0.1
       vertex 0.472115 -0.0326315 0
    endloop
  endfacet
  facet normal 0.997858 -0.0654098 -1.08928e-16
    outer loop
       vertex 0.472115 -0.0326315 0
       vertex 0.474254 8.32665e-17 0
       vertex 0.474254 -8.32665e-17 0.1
    endloop
  endfacet
  facet normal 0.997858 0.0654098 0
    outer loop
       vertex 0.474254 8.32665e-17 0
       vertex 0.472115 0.0326315 0
       vertex 0.472115 0.0326315 0.1
    endloop
  endfacet
  facet normal 0.997858 0.0654098 1.08928e-16
    outer loop
       vertex 0.472115 0.0326315 0.1
       vertex 0.474254 -8.32665e-17 0.1
       vertex 0.474254 8.32665e-17 0
    endloop
  endfacet
  facet normal 0.980784 0.195096 0
    outer loop
       vertex 0.472115 0.0326315 0
       vertex 0.465735 0.064705 0
       vertex 0.465735 0.064705 0.1
    endloop
  endfacet
  facet normal 0.980784 0.195096 0
    outer loop
       vertex 0.465735 0.064705 0.1
       vertex 0.472115 0.0326315 0.1
       vertex 0.472115 0.0326315 0
    endloop
  endfacet
  facet normal 0.946935 0.321425 0
    outer loop
       vertex 0.465735 0.064705 0
       vertex 0.455224 0.095671 0
       vertex 0.455224 0.095671 0.1
    endloop
  endfacet
  facet normal 0.946935 0.321425 0
    outer loop
       vertex 0.455224 0.095671 0.1
       vertex 0.465735 0.064705 0.1
       vertex 0.465735 0.064705 0
    endloop
  endfacet
  facet normal 0.896866 0.442302 0
    outer loop
       vertex 0.455224 0.095671 0
       vertex 0.44076 0.125 0
       vertex 0.44076 0.125 0.1
    endloop
  endfacet
  facet normal 0.896866 0.442302 0
    outer loop
       vertex 0.44076 0.125 0.1
       vertex 0.455224 0.095671 0.1
       vertex 0.455224 0.095671 0
    endloop
  endfacet
  facet normal 0.831476 0.555561 0
    outer loop
       vertex 0.44076 0.125 0
       vertex 0.422592 0.152191 0
       vertex 0.422592 0.152191 0.1
    endloop
  endfacet
  facet normal 0.831476 0.555561 0
    outer loop
       vertex 0.422592 0.152191 0.1
       vertex 0.44076 0.125 0.1
       vertex 0.44076 0.125 0
    endloop
  endfacet
  facet normal 0.751817 0.659372 0
    outer loop
       vertex 0.422592 0.152191 0
       vertex 0.40103 0.176776 0
       vertex 0.40103 0.176776 0.1
    endloop
  endfacet
  facet normal 0.751817 0.659372 0
    outer loop
       vertex 0.40103 0.176776 0.1
       vertex 0.422592 0.152191 0.1
       vertex 0.422592 0.152191 0
    endloop
  endfacet
  facet normal 0.659372 0.751817 0
    outer loop
       vertex 0.40103 0.176776 0
       vertex 0.376445 0.198338 0
       vertex 0.376445 0.198338 0.1
    endloop
  endfacet
  facet normal 0.659372 0.751817 0
    outer loop
       vertex 0.376445 0.198338 0.1
       vertex 0.40103 0.176776 0.1
       vertex 0.40103 0.176776 0
    endloop
  endfacet
  facet normal 0.555561 0.831476 0
    outer loop
       vertex 0.376445 0.198338 0
       vertex 0.349254 0.216506 0
       vertex 0.349254 0.216506 0.1
    endloop
  endfacet
  facet normal 0.555561 0.831476 0
    outer loop
       vertex 0.349254 0.216506 0.1
       vertex 0.376445 0.198338 0.1
       vertex 0.376445 0.198338 0
    endloop
  endfacet
  facet normal 0.442302 0.896866 0
    outer loop
       vertex 0.349254 0.216506 0
       vertex 0.319925 0.23097 0
       vertex 0.319925 0.23097 0.1
    endloop
  endfacet
  facet normal 0.442302 0.896866 0
    outer loop
       vertex 0.319925 0.23097 0.1
       vertex 0.349254 0.216506 0.1
       vertex 0.349254 0.216506 0
    endloop
  endfacet
  facet normal 0.321425 0.946935 0
    outer loop
       vertex 0.319925 0.23097 0
       vertex 0.288959 0.241481 0
       vertex 0.288959 0.241481 0.1
    endloop
  endfacet
  facet normal 0.321425 0.946935 0
    outer loop
       vertex 0.288959 0.241481 0.1
       vertex 0.319925 0.23097 0.1
       vertex 0.319925 0.23097 0
    endloop
  endfacet
  facet normal 0.195096 0.980784 0
    outer loop
       vertex 0.288959 0.241481 0
       vertex 0.256885 0.247861 0
       vertex 0.256885 0.247861 0.1
    endloop
  endfacet
  facet normal 0.195096 0.980784 0
    outer loop
       vertex 0.256885 0.247861 0.1
       vertex 0.288959 0.241481 0.1
       vertex 0.288959 0.241481 0
    endloop
  endfacet
  facet normal 0.0654098 0.997858 0
    outer loop
       vertex 0.224254 0.25 0.1
       vertex 0.256885 0.247861 0.1
       vertex 0.256885 0.247861 0
    endloop
  endfacet
  facet normal 0.0654098 0.997858 -1.0893e-16
    outer loop
       vertex 0.256885 0.247861 0
       vertex 0.224254 0.25 0
       vertex 0.224254 0.25 0.1
    endloop
  endfacet
  facet normal -0.0654098 0.997858 0
    outer loop
       vertex 0.224254 0.25 0
       vertex 0.191622 0.247861 0
       vertex 0.191622 0.247861 0.1
    endloop
  endfacet
  facet normal -0.0654098 0.997858 1.0893e-16
    outer loop
       vertex 0.191622 0.247861 0.1
       vertex 0.224254 0.25 0.1
       vertex 0.224254 0.25 0
    endloop
  endfacet
  facet normal -0.195096 0.980784 0
    outer loop
       vertex 0.191622 0.247861 0
       vertex 0.159549 0.241481 0
       vertex 0.159549 0.241481 0.1
    endloop
  endfacet
  facet normal -0.195096 0.980784 0
    outer loop
       vertex 0.159549 0.241481 0.1
       vertex 0.191622 0.247861 0.1
       vertex 0.191622 0.247861 0
    endloop
  endfacet
  facet normal -0.321425 0.946935 0
    outer loop
       vertex 0.159549 0.241481 0
       vertex 0.128583 0.23097 0
       vertex 0.128583 0.23097 0.1
    endloop
  endfacet
  facet normal -0.321425 0.946935 0
    outer loop
       vertex 0.128583 0.23097 0.1
       vertex 0.159549 0.241481 0.1
       vertex 0.159549 0.241481 0
    endloop
  endfacet
  facet normal -0.442302 0.896866 0
    outer loop
       vertex 0.128583 0.23097 0
       vertex 0.0992535 0.216506 0
       vertex 0.0992535 0.216506 0.1
    endloop
  endfacet
  facet normal -0.442302 0.896866 0
    outer loop
       vertex 0.0992535 0.216506 0.1
       vertex 0.128583 0.23097 0.1
       vertex 0.128583 0.23097 0
    endloop
  endfacet
  facet normal -0.555561 0.831476 0
    outer loop
       vertex 0.0992535 0.216506 0
       vertex 0.0720625 0.198338 0
       vertex 0.0720625 0.198338 0.1
    endloop
  endfacet
  facet normal -0.555561 0.831476 0
    outer loop
       vertex 0.0720625 0.198338 0.1
       vertex 0.0992535 0.216506 0.1
       vertex 0.0992535 0.216506 0
    endloop
  endfacet
  facet normal -0.659372 0.751817 0
    outer loop
       vertex 0.0720625 0.198338 0
       vertex 0.0474775 0.176776 0
       vertex 0.0474775 0.176776 0.1
    endloop
  endfacet
  facet normal -0.659372 0.751817 0
    outer loop
       vertex 0.0474775 0.176776 0.1
       vertex 0.0720625 0.198338 0.1
       vertex 0.0720625 0.198338 0
    endloop
  endfacet
  facet normal -0.751817 0.659372 0
    outer loop
       vertex 0.0474775 0.176776 0
       vertex 0.0259155 0.152191 0
       vertex 0.0259155 0.152191 0.1
    endloop
  endfacet
  facet normal -0.751817 0.659372 0
    outer loop
       vertex 0.0259155 0.152191 0.1
       vertex 0.0474775 0.176776 0.1
       vertex 0.0474775 0.176776 0
    endloop
  endfacet
  facet normal -0.831476 0.555561 0
    outer loop
       vertex 0.0259155 0.152191 0
       vertex 0.0077475 0.125 0
       vertex 0.0077475 0.125 0.1
    endloop
  endfacet
  facet normal -0.831476 0.555561 0
    outer loop
       vertex 0.0077475 0.125 0.1
       vertex 0.0259155 0.152191 0.1
       vertex 0.0259155 0.152191 0
    endloop
  endfacet
  facet normal -0.896866 0.442302 0
    outer loop
       vertex 0.0077475 0.125 0
       vertex -0.0067165 0.095671 0
       vertex -0.0067165 0.095671 0.1
    endloop
  endfacet
  facet normal -0.896866 0.442302 0
    outer loop
       vertex -0.0067165 0.095671 0.1
       vertex 0.0077475 0.125 0.1
       vertex 0.0077475 0.125 0
    endloop
  endfacet
  facet normal -0.946935 0.321425 0
    outer loop
       vertex -0.0067165 0.095671 0
       vertex -0.0172275 0.064705 0
       vertex -0.0172275 0.064705 0.1
    endloop
  endfacet
  facet normal -0.946935 0.321425 0
    outer loop
       vertex -0.0172275 0.064705 0.1
       vertex -0.0067165 0.095671 0.1
       vertex -0.0067165 0.095671 0
    endloop
  endfacet
  facet normal -0.980784 0.195096 0
    outer loop
       vertex -0.0172275 0.064705 0
       vertex -0.0236075 0.0326315 0
       vertex -0.0236075 0.0326315 0.1
    endloop
  endfacet
  facet normal -0.980784 0.195096 0
    outer loop
       vertex -0.0236075 0.0326315 0.1
       vertex -0.0172275 0.064705 0.1
       vertex -0.0172275 0.064705 0
    endloop
  endfacet
  facet normal -0.997858 0.0654098 0
    outer loop
       vertex -0.0257465 8.32665e-17 0.1
       vertex -0.0236075 0.0326315 0.1
       vertex -0.0236075 0.0326315 0
    endloop
  endfacet
  facet normal -0.997858 0.0654098 -1.08928e-16
    outer loop
       vertex -0.0236075 0.0326315 0
       vertex -0.0257465 -8.32665e-17 0
       vertex -0.0257465 8.32665e-17 0.1
    endloop
  endfacet
  facet normal -0.997858 -0.0654098 0
    outer loop
       vertex -0.0257465 -8.32665e-17 0
       vertex -0.0236075 -0.0326315 0
       vertex -0.0236075 -0.0326315 0.1
    endloop
  endfacet
  facet normal -0.997858 -0.0654098 1.08928e-16
    outer loop
       vertex -0.0236075 -0.0326315 0.1
       vertex -0.0257465 8.32665e-17 0.1
       vertex -0.0257465 -8.32665e-17 0
    endloop
  endfacet
  facet normal -0.980784 -0.195096 0
    outer loop
       vertex -0.0236075 -0.0326315 0
       vertex -0.0172275 -0.064705 0
       vertex -0.0172275 -0.064705 0.1
    endloop
  endfacet
  facet normal -0.980784 -0.195096 0
    outer loop
       vertex -0.0172275 -0.064705 0.1
       vertex -0.0236075 -0.0326315 0.1
       vertex -0.0236075 -0.0326315 0
    endloop
  endfacet
  facet normal -0.946935 -0.321425 0
    outer loop
       vertex -0.0172275 -0.064705 0
       vertex -0.0067165 -0.095671 0
       vertex -0.0067165 -0.095671 0.1
    endloop
  endfacet
  facet normal -0.946935 -0.321425 0
    outer loop
       vertex -0.0067165 -0.095671 0.1
       vertex -0.0172275 -0.064705 0.1
       vertex -0.0172275 -0.064705 0
    endloop
  endfacet
  facet normal -0.896866 -0.442302 0
    outer loop
       vertex -0.0067165 -0.095671 0
       vertex 0.0077475 -0.125 0
       vertex 0.0077475 -0.125 0.1
    endloop
  endfacet
  facet normal -0.896866 -0.442302 0
    outer loop
       vertex 0.0077475 -0.125 0.1
       vertex -0.0067165 -0.095671 0.1
       vertex -0.0067165 -0.095671 0
    endloop
  endfacet
  facet normal -0.831476 -0.555561 0
    outer loop
       vertex 0.0077475 -0.125 0
       vertex 0.0259155 -0.152191 0
       vertex 0.0259155 -0.152191 0.1
    endloop
  endfacet
  facet normal -0.831476 -0.555561 0
    outer loop
       vertex 0.0259155 -0.152191 0.1
       vertex 0.0077475 -0.125 0.1
       vertex 0.0077475 -0.125 0
    endloop
  endfacet
  facet normal -0.751817 -0.659372 0
    outer loop
       vertex 0.0259155 -0.152191 0
       vertex 0.0474775 -0.176776 0
       vertex 0.0474775 -0.176776 0.1
    endloop
  endfacet
  facet normal -0.751817 -0.659372 0
    outer loop
       vertex 0.0474775 -0.176776 0.1
       vertex 0.0259155 -0.152191 0.1
       vertex 0.0259155 -0.152191 0
    endloop
  endfacet
  facet normal 0.659372 -0.751817 0
    outer loop
       vertex 0.40103 -0.176776 0
       vertex 0.40103 -0.176776 0.1
       vertex 0.376445 -0.198338 0.1
    endloop
  endfacet
  facet normal 0.659372 -0.751817 0
    outer loop
       vertex 0.376445 -0.198338 0.1
       vertex 0.376445 -0.198338 0
       vertex 0.40103 -0.176776 0
    endloop
  endfacet
  facet normal 0.555561 -0.831476 0
    outer loop
       vertex 0.376445 -0.198338 0
       vertex 0.376445 -0.198338 0.1
       vertex 0.349254 -0.216506 0.1
    endloop
  endfacet
  facet normal 0.555561 -0.831476 0
    outer loop
       vertex 0.349254 -0.216506 0.1
       vertex 0.349254 -0.216506 0
       vertex 0.376445 -0.198338 0
    endloop
  endfacet
  facet normal 0.442302 -0.896866 0
    outer loop
       vertex 0.349254 -0.216506 0
       vertex 0.349254 -0.216506 0.1
       vertex 0.319925 -0.23097 0.1
    endloop
  endfacet
  facet normal 0.442302 -0.896866 0
    outer loop
       vertex 0.319925 -0.23097 0.1
       vertex 0.319925 -0.23097 0
       vertex 0.349254 -0.216506 0
    endloop
  endfacet
  facet normal 0.321425 -0.946935 0
    outer loop
       vertex 0.319925 -0.23097 0
       vertex 0.319925 -0.23097 0.1
       vertex 0.288959 -0.241481 0.1
    endloop
  endfacet
  facet normal 0.321425 -0.946935 0
    outer loop
       vertex 0.288959 -0.241481 0.1
       vertex 0.288959 -0.241481 0
       vertex 0.319925 -0.23097 0
    endloop
  endfacet
  facet normal 0.195096 -0.980784 0
    outer loop
       vertex 0.288959 -0.241481 0
       vertex 0.288959 -0.241481 0.1
       vertex 0.256885 -0.247861 0.1
    endloop
  endfacet
  facet normal 0.195096 -0.980784 0
    outer loop
       vertex 0.256885 -0.247861 0.1
       vertex 0.256885 -0.247861 0
       vertex 0.288959 -0.241481 0
    endloop
  endfacet
  facet normal 0.0654098 -0.997858 0
    outer loop
       vertex 0.224254 -0.25 0
       vertex 0.256885 -0.247861 0
       vertex 0.256885 -0.247861 0.1
    endloop
  endfacet
  facet normal 0.0654098 -0.997858 1.0893e-16
    outer loop
       vertex 0.256885 -0.247861 0.1
       vertex 0.224254 -0.25 0.1
       vertex 0.224254 -0.25 0
    endloop
  endfacet
  facet normal -0.0654098 -0.997858 0
    outer loop
       vertex 0.224254 -0.25 0.1
       vertex 0.191622 -0.247861 0.1
       vertex 0.191622 -0.247861 0
    endloop
  endfacet
  facet normal -0.0654098 -0.997858 -1.0893e-16
    outer loop
       vertex 0.191622 -0.247861 0
       vertex 0.224254 -0.25 0
       vertex 0.224254 -0.25 0.1
    endloop
  endfacet
  facet normal -0.195096 -0.980784 0
    outer loop
       vertex 0.191622 -0.247861 0
       vertex 0.191622 -0.247861 0.1
       vertex 0.159549 -0.241481 0.1
    endloop
  endfacet
  facet normal -0.195096 -0.980784 -0
    outer loop
       vertex 0.159549 -0.241481 0.1
       vertex 0.159549 -0.241481 0
       vertex 0.191622 -0.247861 0
    endloop
  endfacet
  facet normal -0.321425 -0.946935 0
    outer loop
       vertex 0.159549 -0.241481 0
       vertex 0.159549 -0.241481 0.1
       vertex 0.128583 -0.23097 0.1
    endloop
  endfacet
  facet normal -0.321425 -0.946935 -0
    outer loop
       vertex 0.128583 -0.23097 0.1
       vertex 0.128583 -0.23097 0
       vertex 0.159549 -0.241481 0
    endloop
  endfacet
  facet normal -0.442302 -0.896866 0
    outer loop
       vertex 0.128583 -0.23097 0
       vertex 0.128583 -0.23097 0.1
       vertex 0.0992535 -0.216506 0.1
    endloop
  endfacet
  facet normal -0.442302 -0.896866 -0
    outer loop
       vertex 0.0992535 -0.216506 0.1
       vertex 0.0992535 -0.216506 0
       vertex 0.128583 -0.23097 0
    endloop
  endfacet
  facet normal -0.555561 -0.831476 0
    outer loop
       vertex 0.0992535 -0.216506 0
       vertex 0.0992535 -0.216506 0.1
       vertex 0.0720625 -0.198338 0.1
    endloop
  endfacet
  facet normal -0.555561 -0.831476 -0
    outer loop
       vertex 0.0720625 -0.198338 0.1
       vertex 0.0720625 -0.198338 0
       vertex 0.0992535 -0.216506 0
    endloop
  endfacet
  facet normal -0.659372 -0.751817 0
    outer loop
       vertex 0.0720625 -0.198338 0
       vertex 0.0720625 -0.198338 0.1
       vertex 0.0474775 -0.176776 0.1
    endloop
  endfacet
  facet normal -0.659372 -0.751817 -0
    outer loop
       vertex 0.0474775 -0.176776 0.1
       vertex 0.0474775 -0.176776 0
       vertex 0.0720625 -0.198338 0
    endloop
  endfacet
endsolid cylinder
