solid cylinder
  facet normal 0.751817 -0.659372 0
    outer loop
       vertex 0.343567 -0.176776 0
       vertex 0.365129 -0.152191 0
       vertex 0.365129 -0.152191 0.1
    endloop
  endfacet
  facet normal 0.751817 -0.659372 0
    outer loop
       vertex 0.365129 -0.152191 0.1
       vertex 0.343567 -0.176776 0.1
       vertex 0.343567 -0.176776 0
    endloop
  endfacet
  facet normal 0.831476 -0.555561 0
    outer loop
       vertex 0.365129 -0.152191 0
       vertex 0.383297 -0.125 0
       vertex 0.383297 -0.125 0.1
    endloop
  endfacet
  facet normal 0.831476 -0.555561 0
    outer loop
       vertex 0.383297 -0.125 0.1
       vertex 0.365129 -0.152191 0.1
       vertex 0.365129 -0.152191 0
    endloop
  endfacet
  facet normal 0.896866 -0.442302 0
    outer loop
       vertex 0.383297 -0.125 0
       vertex 0.397761 -0.095671 0
       vertex 0.397761 -0.095671 0.1
    endloop
  endfacet
  facet normal 0.896866 -0.442302 0
    outer loop
       vertex 0.397761 -0.095671 0.1
       vertex 0.383297 -0.125 0.1
       vertex 0.383297 -0.125 0
    endloop
  endfacet
  facet normal 0.946935 -0.321425 0
    outer loop
       vertex 0.397761 -0.095671 0
       vertex 0.408272 -0.064705 0
       vertex 0.408272 -0.064705 0.1
    endloop
  endfacet
  facet normal 0.946935 -0.321425 0
    outer loop
       vertex 0.408272 -0.064705 0.1
       vertex 0.397761 -0.095671 0.1
       vertex 0.397761 -0.095671 0
    endloop
  endfacet
  facet normal 0.980784 -0.195096 0
    outer loop
       vertex 0.408272 -0.064705 0
       vertex 0.414652 -0.0326315 0
       vertex 0.414652 -0.0326315 0.1
    endloop
  endfacet
  facet normal 0.980784 -0.195096 0
    outer loop
       vertex 0.414652 -0.0326315 0.1
       vertex 0.408272 -0.064705 0.1
       vertex 0.408272 -0.064705 0
    endloop
  endfacet
  facet normal 0.997858 -0.0654098 0
    outer loop
       vertex 0.416791 -8.32665e-17 0.1
       vertex 0.414652 -0.0326315 0.1
       vertex 0.414652 -0.0326315 0
    endloop
  endfacet
  facet normal 0.997858 -0.0654098 -1.08928e-16
    outer loop
       vertex 0.414652 -0.0326315 0
       vertex 0.416791 8.32665e-17 0
       vertex 0.416791 -8.32665e-17 0.1
    endloop
  endfacet
  facet normal 0.997858 0.0654098 0
    outer loop
       vertex 0.416791 8.32665e-17 0
       vertex 0.414652 0.0326315 0
       vertex 0.414652 0.0326315 0.1
    endloop
  endfacet
  facet normal 0.997858 0.0654098 1.08928e-16
    outer loop
       vertex 0.414652 0.0326315 0.1
       vertex 0.416791 -8.32665e-17 0.1
       vertex 0.416791 8.32665e-17 0
    endloop
  endfacet
  facet normal 0.980784 0.195096 0
    outer loop
       vertex 0.414652 0.0326315 0
       vertex 0.408272 0.064705 0
       vertex 0.408272 0.064705 0.1
    endloop
  endfacet
  facet normal 0.980784 0.195096 0
    outer loop
       vertex 0.408272 0.064705 0.1
       vertex 0.414652 0.0326315 0.1
       vertex 0.414652 0.0326315 0
    endloop
  endfacet
  facet normal 0.946935 0.321425 0
    outer loop
       vertex 0.408272 0.064705 0
       vertex 0.397761 0.095671 0
       vertex 0.397761 0.095671 0.1
    endloop
  endfacet
  facet normal 0.946935 0.321425 0
    outer loop
       vertex 0.397761 0.095671 0.1
       vertex 0.408272 0.064705 0.1
       vertex 0.408272 0.064705 0
    endloop
  endfacet
  facet normal 0.896866 0.442302 0
    outer loop
       vertex 0.397761 0.095671 0
       vertex 0.383297 0.125 0
       vertex 0.383297 0.125 0.1
    endloop
  endfacet
  facet normal 0.896866 0.442302 0
    outer loop
       vertex 0.383297 0.125 0.1
       vertex 0.397761 0.095671 0.1
       vertex 0.397761 0.095671 0
    endloop
  endfacet
  facet normal 0.831476 0.555561 0
    outer loop
       vertex 0.383297 0.125 0
       vertex 0.365129 0.152191 0
       vertex 0.365129 0.152191 0.1
    endloop
  endfacet
  facet normal 0.831476 0.555561 0
    outer loop
       vertex 0.365129 0.152191 0.1
       vertex 0.383297 0.125 0.1
       vertex 0.383297 0.125 0
    endloop
  endfacet
  facet normal 0.751817 0.659372 0
    outer loop
       vertex 0.365129 0.152191 0
       vertex 0.343567 0.176776 0
       vertex 0.343567 0.176776 0.1
    endloop
  endfacet
  facet normal 0.751817 0.659372 0
    outer loop
       vertex 0.343567 0.176776 0.1
       vertex 0.365129 0.152191 0.1
       vertex 0.365129 0.152191 0
    endloop
  endfacet
  facet normal 0.659372 0.751817 0
    outer loop
       vertex 0.343567 0.176776 0
       vertex 0.318982 0.198338 0
       vertex 0.318982 0.198338 0.1
    endloop
  endfacet
  facet normal 0.659372 0.751817 0
    outer loop
       vertex 0.318982 0.198338 0.1
       vertex 0.343567 0.176776 0.1
       vertex 0.343567 0.176776 0
    endloop
  endfacet
  facet normal 0.555561 0.831476 0
    outer loop
       vertex 0.318982 0.198338 0
       vertex 0.291791 0.216506 0
       vertex 0.291791 0.216506 0.1
    endloop
  endfacet
  facet normal 0.555561 0.831476 0
    outer loop
       vertex 0.291791 0.216506 0.1
       vertex 0.318982 0.198338 0.1
       vertex 0.318982 0.198338 0
    endloop
  endfacet
  facet normal 0.442302 0.896866 0
    outer loop
       vertex 0.291791 0.216506 0
       vertex 0.262462 0.23097 0
       vertex 0.262462 0.23097 0.1
    endloop
  endfacet
  facet normal 0.442302 0.896866 0
    outer loop
       vertex 0.262462 0.23097 0.1
       vertex 0.291791 0.216506 0.1
       vertex 0.291791 0.216506 0
    endloop
  endfacet
  facet normal 0.321425 0.946935 0
    outer loop
       vertex 0.262462 0.23097 0
       vertex 0.231496 0.241481 0
       vertex 0.231496 0.241481 0.1
    endloop
  endfacet
  facet normal 0.321425 0.946935 0
    outer loop
       vertex 0.231496 0.241481 0.1
       vertex 0.262462 0.23097 0.1
       vertex 0.262462 0.23097 0
    endloop
  endfacet
  facet normal 0.195096 0.980784 0
    outer loop
       vertex 0.231496 0.241481 0
       vertex 0.199423 0.247861 0
       vertex 0.199423 0.247861 0.1
    endloop
  endfacet
  facet normal 0.195096 0.980784 0
    outer loop
       vertex 0.199423 0.247861 0.1
       vertex 0.231496 0.241481 0.1
       vertex 0.231496 0.241481 0
    endloop
  endfacet
  facet normal 0.0654098 0.997858 0
    outer loop
       vertex 0.166791 0.25 0.1
       vertex 0.199423 0.247861 0.1
       vertex 0.199423 0.247861 0
    endloop
  endfacet
  facet normal 0.0654098 0.997858 -1.0893e-16
    outer loop
       vertex 0.199423 0.247861 0
       vertex 0.166791 0.25 0
       vertex 0.166791 0.25 0.1
    endloop
  endfacet
  facet normal -0.0654098 0.997858 0
    outer loop
       vertex 0.166791 0.25 0
       vertex 0.13416 0.247861 0
       vertex 0.13416 0.247861 0.1
    endloop
  endfacet
  facet normal -0.0654098 0.997858 1.0893e-16
    outer loop
       vertex 0.13416 0.247861 0.1
       vertex 0.166791 0.25 0.1
       vertex 0.166791 0.25 0
    endloop
  endfacet
  facet normal -0.195096 0.980784 0
    outer loop
       vertex 0.13416 0.247861 0
       vertex 0.102086 0.241481 0
       vertex 0.102086 0.241481 0.1
    endloop
  endfacet
  facet normal -0.195096 0.980784 0
    outer loop
       vertex 0.102086 0.241481 0.1
       vertex 0.13416 0.247861 0.1
       vertex 0.13416 0.247861 0
    endloop
  endfacet
  facet normal -0.321425 0.946935 0
    outer loop
       vertex 0.102086 0.241481 0
       vertex 0.07112 0.23097 0
       vertex 0.07112 0.23097 0.1
    endloop
  endfacet
  facet normal -0.321425 0.946935 0
    outer loop
       vertex 0.07112 0.23097 0.1
       vertex 0.102086 0.241481 0.1
       vertex 0.102086 0.241481 0
    endloop
  endfacet
  facet normal -0.442302 0.896866 0
    outer loop
       vertex 0.07112 0.23097 0
       vertex 0.041791 0.216506 0
       vertex 0.041791 0.216506 0.1
    endloop
  endfacet
  facet normal -0.442302 0.896866 0
    outer loop
       vertex 0.041791 0.216506 0.1
       vertex 0.07112 0.23097 0.1
       vertex 0.07112 0.23097 0
    endloop
  endfacet
  facet normal -0.555561 0.831476 0
    outer loop
       vertex 0.041791 0.216506 0
       vertex 0.0146 0.198338 0
       vertex 0.0146 0.198338 0.1
    endloop
  endfacet
  facet normal -0.555561 0.831476 0
    outer loop
       vertex 0.0146 0.198338 0.1
       vertex 0.041791 0.216506 0.1
       vertex 0.041791 0.216506 0
    endloop
  endfacet
  facet normal -0.659372 0.751817 0
    outer loop
       vertex 0.0146 0.198338 0
       vertex -0.00998496 0.176776 0
       vertex -0.00998496 0.176776 0.1
    endloop
  endfacet
  facet normal -0.659372 0.751817 0
    outer loop
       vertex -0.00998496 0.176776 0.1
       vertex 0.0146 0.198338 0.1
       vertex 0.0146 0.198338 0
    endloop
  endfacet
  facet normal -0.751817 0.659372 0
    outer loop
       vertex -0.00998496 0.176776 0
       vertex -0.031547 0.152191 0
       vertex -0.031547 0.152191 0.1
    endloop
  endfacet
  facet normal -0.751817 0.659372 0
    outer loop
       vertex -0.031547 0.152191 0.1
       vertex -0.00998496 0.176776 0.1
       vertex -0.00998496 0.176776 0
    endloop
  endfacet
  facet normal -0.831476 0.555561 0
    outer loop
       vertex -0.031547 0.152191 0
       vertex -0.049715 0.125 0
       vertex -0.049715 0.125 0.1
    endloop
  endfacet
  facet normal -0.831476 0.555561 0
    outer loop
       vertex -0.049715 0.125 0.1
       vertex -0.031547 0.152191 0.1
       vertex -0.031547 0.152191 0
    endloop
  endfacet
  facet normal -0.896866 0.442302 0
    outer loop
       vertex -0.049715 0.125 0
       vertex -0.064179 0.095671 0
       vertex -0.064179 0.095671 0.1
    endloop
  endfacet
  facet normal -0.896866 0.442302 0
    outer loop
       vertex -0.064179 0.095671 0.1
       vertex -0.049715 0.125 0.1
       vertex -0.049715 0.125 0
    endloop
  endfacet
  facet normal -0.946935 0.321425 0
    outer loop
       vertex -0.064179 0.095671 0
       vertex -0.07469 0.064705 0
       vertex -0.07469 0.064705 0.1
    endloop
  endfacet
  facet normal -0.946935 0.321425 0
    outer loop
       vertex -0.07469 0.064705 0.1
       vertex -0.064179 0.095671 0.1
       vertex -0.064179 0.095671 0
    endloop
  endfacet
  facet normal -0.980784 0.195096 0
    outer loop
       vertex -0.07469 0.064705 0
       vertex -0.08107 0.0326315 0
       vertex -0.08107 0.0326315 0.1
    endloop
  endfacet
  facet normal -0.980784 0.195096 0
    outer loop
       vertex -0.08107 0.0326315 0.1
       vertex -0.07469 0.064705 0.1
       vertex -0.07469 0.064705 0
    endloop
  endfacet
  facet normal -0.997858 0.0654098 0
    outer loop
       vertex -0.083209 8.32665e-17 0.1
       vertex -0.08107 0.0326315 0.1
       vertex -0.08107 0.0326315 0
    endloop
  endfacet
  facet normal -0.997858 0.0654098 -1.08928e-16
    outer loop
       vertex -0.08107 0.0326315 0
       vertex -0.083209 -8.32665e-17 0
       vertex -0.083209 8.32665e-17 0.1
    endloop
  endfacet
  facet normal -0.997858 -0.0654098 0
    outer loop
       vertex -0.083209 -8.32665e-17 0
       vertex -0.08107 -0.0326315 0
       vertex -0.08107 -0.0326315 0.1
    endloop
  endfacet
  facet normal -0.997858 -0.0654098 1.08928e-16
    outer loop
       vertex -0.08107 -0.0326315 0.1
       vertex -0.083209 8.32665e-17 0.1
       vertex -0.083209 -8.32665e-17 0
    endloop
  endfacet
  facet normal -0.980784 -0.195096 0
    outer loop
       vertex -0.08107 -0.0326315 0
       vertex -0.07469 -0.064705 0
       vertex -0.07469 -0.064705 0.1
    endloop
  endfacet
  facet normal -0.980784 -0.195096 0
    outer loop
       vertex -0.07469 -0.064705 0.1
       vertex -0.08107 -0.0326315 0.1
       vertex -0.08107 -0.0326315 0
    endloop
  endfacet
  facet normal -0.946935 -0.321425 0
    outer loop
       vertex -0.07469 -0.064705 0
       vertex -0.064179 -0.095671 0
       vertex -0.064179 -0.095671 0.1
    endloop
  endfacet
  facet normal -0.946935 -0.321425 0
    outer loop
       vertex -0.064179 -0.095671 0.1
       vertex -0.07469 -0.064705 0.1
       vertex -0.07469 -0.064705 0
    endloop
  endfacet
  facet normal -0.896866 -0.442302 0
    outer loop
       vertex -0.064179 -0.095671 0
       vertex -0.049715 -0.125 0
       vertex -0.049715 -0.125 0.1
    endloop
  endfacet
  facet normal -0.896866 -0.442302 0
    outer loop
       vertex -0.049715 -0.125 0.1
       vertex -0.064179 -0.095671 0.1
       vertex -0.064179 -0.095671 0
    endloop
  endfacet
  facet normal -0.831476 -0.555561 0
    outer loop
       vertex -0.049715 -0.125 0
       vertex -0.031547 -0.152191 0
       vertex -0.031547 -0.152191 0.1
    endloop
  endfacet
  facet normal -0.831476 -0.555561 0
    outer loop
       vertex -0.031547 -0.152191 0.1
       vertex -0.049715 -0.125 0.1
       vertex -0.049715 -0.125 0
    endloop
  endfacet
  facet normal -0.751817 -0.659372 0
    outer loop
       vertex -0.031547 -0.152191 0
       vertex -0.00998496 -0.176776 0
       vertex -0.00998496 -0.176776 0.1
    endloop
  endfacet
  facet normal -0.751817 -0.659372 0
    outer loop
       vertex -0.00998496 -0.176776 0.1
       vertex -0.031547 -0.152191 0.1
       vertex -0.031547 -0.152191 0
    endloop
  endfacet
  facet normal 0.659372 -0.751817 0
    outer loop
       vertex 0.343567 -0.176776 0
       vertex 0.343567 -0.176776 0.1
       vertex 0.318982 -0.198338 0.1
    endloop
  endfacet
  facet normal 0.659372 -0.751817 0
    outer loop
       vertex 0.318982 -0.198338 0.1
       vertex 0.318982 -0.198338 0
       vertex 0.343567 -0.176776 0
    endloop
  endfacet
  facet normal 0.555561 -0.831476 0
    outer loop
       vertex 0.318982 -0.198338 0
       vertex 0.318982 -0.198338 0.1
       vertex 0.291791 -0.216506 0.1
    endloop
  endfacet
  facet normal 0.555561 -0.831476 0
    outer loop
       vertex 0.291791 -0.216506 0.1
       vertex 0.291791 -0.216506 0
       vertex 0.318982 -0.198338 0
    endloop
  endfacet
  facet normal 0.442302 -0.896866 0
    outer loop
       vertex 0.291791 -0.216506 0
       vertex 0.291791 -0.216506 0.1
       vertex 0.262462 -0.23097 0.1
    endloop
  endfacet
  facet normal 0.442302 -0.896866 0
    outer loop
       vertex 0.262462 -0.23097 0.1
       vertex 0.262462 -0.23097 0
       vertex 0.291791 -0.216506 0
    endloop
  endfacet
  facet normal 0.321425 -0.946935 0
    outer loop
       vertex 0.262462 -0.23097 0
       vertex 0.262462 -0.23097 0.1
       vertex 0.231496 -0.241481 0.1
    endloop
  endfacet
  facet normal 0.321425 -0.946935 0
    outer loop
       vertex 0.231496 -0.241481 0.1
       vertex 0.231496 -0.241481 0
       vertex 0.262462 -0.23097 0
    endloop
  endfacet
  facet normal 0.195096 -0.980784 0
    outer loop
       vertex 0.231496 -0.241481 0
       vertex 0.231496 -0.241481 0.1
       vertex 0.199423 -0.247861 0.1
    endloop
  endfacet
  facet normal 0.195096 -0.980784 0
    outer loop
       vertex 0.199423 -0.247861 0.1
       vertex 0.199423 -0.247861 0
       vertex 0.231496 -0.241481 0
    endloop
  endfacet
  facet normal 0.0654098 -0.997858 0
    outer loop
       vertex 0.166791 -0.25 0
       vertex 0.199423 -0.247861 0
       vertex 0.199423 -0.247861 0.1
    endloop
  endfacet
  facet normal 0.0654098 -0.997858 1.0893e-16
    outer loop
       vertex 0.199423 -0.247861 0.1
       vertex 0.166791 -0.25 0.1
       vertex 0.166791 -0.25 0
    endloop
  endfacet
  facet normal -0.0654098 -0.997858 0
    outer loop
       vertex 0.166791 -0.25 0.1
       vertex 0.13416 -0.247861 0.1
       vertex 0.13416 -0.247861 0
    endloop
  endfacet
  facet normal -0.0654098 -0.997858 -1.0893e-16
    outer loop
       vertex 0.13416 -0.247861 0
       vertex 0.166791 -0.25 0
       vertex 0.166791 -0.25 0.1
    endloop
  endfacet
  facet normal -0.195096 -0.980784 0
    outer loop
       vertex 0.13416 -0.247861 0
       vertex 0.13416 -0.247861 0.1
       vertex 0.102086 -0.241481 0.1
    endloop
  endfacet
  facet normal -0.195096 -0.980784 -0
    outer loop
       vertex 0.102086 -0.241481 0.1
       vertex 0.102086 -0.241481 0
       vertex 0.13416 -0.247861 0
    endloop
  endfacet
  facet normal -0.321425 -0.946935 0
    outer loop
       vertex 0.102086 -0.241481 0
       vertex 0.102086 -0.241481 0.1
       vertex 0.07112 -0.23097 0.1
    endloop
  endfacet
  facet normal -0.321425 -0.946935 -0
    outer loop
       vertex 0.07112 -0.23097 0.1
       vertex 0.07112 -0.23097 0
       vertex 0.102086 -0.241481 0
    endloop
  endfacet
  facet normal -0.442302 -0.896866 0
    outer loop
       vertex 0.07112 -0.23097 0
       vertex 0.07112 -0.23097 0.1
       vertex 0.041791 -0.216506 0.1
    endloop
  endfacet
  facet normal -0.442302 -0.896866 -0
    outer loop
       vertex 0.041791 -0.216506 0.1
       vertex 0.041791 -0.216506 0
       vertex 0.07112 -0.23097 0
    endloop
  endfacet
  facet normal -0.555561 -0.831476 0
    outer loop
       vertex 0.041791 -0.216506 0
       vertex 0.041791 -0.216506 0.1
       vertex 0.0146 -0.198338 0.1
    endloop
  endfacet
  facet normal -0.555561 -0.831476 -0
    outer loop
       vertex 0.0146 -0.198338 0.1
       vertex 0.0146 -0.198338 0
       vertex 0.041791 -0.216506 0
    endloop
  endfacet
  facet normal -0.659372 -0.751817 0
    outer loop
       vertex 0.0146 -0.198338 0
       vertex 0.0146 -0.198338 0.1
       vertex -0.00998496 -0.176776 0.1
    endloop
  endfacet
  facet normal -0.659372 -0.751817 -0
    outer loop
       vertex -0.00998496 -0.176776 0.1
       vertex -0.00998496 -0.176776 0
       vertex 0.0146 -0.198338 0
    endloop
  endfacet
endsolid cylinder
