solid cylinder
  facet normal 0.751817 -0.659372 0
    outer loop
       vertex 0.332875 -0.176776 0
       vertex 0.354437 -0.152191 0
       vertex 0.354437 -0.152191 0.1
    endloop
  endfacet
  facet normal 0.751817 -0.659372 0
    outer loop
       vertex 0.354437 -0.152191 0.1
       vertex 0.332875 -0.176776 0.1
       vertex 0.332875 -0.176776 0
    endloop
  endfacet
  facet normal 0.831476 -0.555561 0
    outer loop
       vertex 0.354437 -0.152191 0
       vertex 0.372605 -0.125 0
       vertex 0.372605 -0.125 0.1
    endloop
  endfacet
  facet normal 0.831476 -0.555561 0
    outer loop
       vertex 0.372605 -0.125 0.1
       vertex 0.354437 -0.152191 0.1
       vertex 0.354437 -0.152191 0
    endloop
  endfacet
  facet normal 0.896866 -0.442302 0
    outer loop
       vertex 0.372605 -0.125 0
       vertex 0.387069 -0.095671 0
       vertex 0.387069 -0.095671 0.1
    endloop
  endfacet
  facet normal 0.896866 -0.442302 0
    outer loop
       vertex 0.387069 -0.095671 0.1
       vertex 0.372605 -0.125 0.1
       vertex 0.372605 -0.125 0
    endloop
  endfacet
  facet normal 0.946935 -0.321425 0
    outer loop
       vertex 0.387069 -0.095671 0
       vertex 0.39758 -0.064705 0
       vertex 0.39758 -0.064705 0.1
    endloop
  endfacet
  facet normal 0.946935 -0.321425 0
    outer loop
       vertex 0.39758 -0.064705 0.1
       vertex 0.387069 -0.095671 0.1
       vertex 0.387069 -0.095671 0
    endloop
  endfacet
  facet normal 0.980784 -0.195096 0
    outer loop
       vertex 0.39758 -0.064705 0
       vertex 0.40396 -0.0326315 0
       vertex 0.40396 -0.0326315 0.1
    endloop
  endfacet
  facet normal 0.980784 -0.195096 0
    outer loop
       vertex 0.40396 -0.0326315 0.1
       vertex 0.39758 -0.064705 0.1
       vertex 0.39758 -0.064705 0
    endloop
  endfacet
  facet normal 0.997858 -0.0654098 0
    outer loop
       vertex 0.406099 -8.32665e-17 0.1
       vertex 0.40396 -0.0326315 0.1
       vertex 0.40396 -0.0326315 0
    endloop
  endfacet
  facet normal 0.997858 -0.0654098 -1.08928e-16
    outer loop
       vertex 0.40396 -0.0326315 0
       vertex 0.406099 8.32665e-17 0
       vertex 0.406099 -8.32665e-17 0.1
    endloop
  endfacet
  facet normal 0.997858 0.0654098 0
    outer loop
       vertex 0.406099 8.32665e-17 0
       vertex 0.40396 0.0326315 0
       vertex 0.40396 0.0326315 0.1
    endloop
  endfacet
  facet normal 0.997858 0.0654098 1.08928e-16
    outer loop
       vertex 0.40396 0.0326315 0.1
       vertex 0.406099 -8.32665e-17 0.1
       vertex 0.406099 8.32665e-17 0
    endloop
  endfacet
  facet normal 0.980784 0.195096 0
    outer loop
       vertex 0.40396 0.0326315 0
       vertex 0.39758 0.064705 0
       vertex 0.39758 0.064705 0.1
    endloop
  endfacet
  facet normal 0.980784 0.195096 0
    outer loop
       vertex 0.39758 0.064705 0.1
       vertex 0.40396 0.0326315 0.1
       vertex 0.40396 0.0326315 0
    endloop
  endfacet
  facet normal 0.946935 0.321425 0
    outer loop
       vertex 0.39758 0.064705 0
       vertex 0.387069 0.095671 0
       vertex 0.387069 0.095671 0.1
    endloop
  endfacet
  facet normal 0.946935 0.321425 0
    outer loop
       vertex 0.387069 0.095671 0.1
       vertex 0.39758 0.064705 0.1
       vertex 0.39758 0.064705 0
    endloop
  endfacet
  facet normal 0.896866 0.442302 0
    outer loop
       vertex 0.387069 0.095671 0
       vertex 0.372605 0.125 0
       vertex 0.372605 0.125 0.1
    endloop
  endfacet
  facet normal 0.896866 0.442302 0
    outer loop
       vertex 0.372605 0.125 0.1
       vertex 0.387069 0.095671 0.1
       vertex 0.387069 0.095671 0
    endloop
  endfacet
  facet normal 0.831476 0.555561 0
    outer loop
       vertex 0.372605 0.125 0
       vertex 0.354437 0.152191 0
       vertex 0.354437 0.152191 0.1
    endloop
  endfacet
  facet normal 0.831476 0.555561 0
    outer loop
       vertex 0.354437 0.152191 0.1
       vertex 0.372605 0.125 0.1
       vertex 0.372605 0.125 0
    endloop
  endfacet
  facet normal 0.751817 0.659372 0
    outer loop
       vertex 0.354437 0.152191 0
       vertex 0.332875 0.176776 0
       vertex 0.332875 0.176776 0.1
    endloop
  endfacet
  facet normal 0.751817 0.659372 0
    outer loop
       vertex 0.332875 0.176776 0.1
       vertex 0.354437 0.152191 0.1
       vertex 0.354437 0.152191 0
    endloop
  endfacet
  facet normal 0.659372 0.751817 0
    outer loop
       vertex 0.332875 0.176776 0
       vertex 0.30829 0.198338 0
       vertex 0.30829 0.198338 0.1
    endloop
  endfacet
  facet normal 0.659372 0.751817 0
    outer loop
       vertex 0.30829 0.198338 0.1
       vertex 0.332875 0.176776 0.1
       vertex 0.332875 0.176776 0
    endloop
  endfacet
  facet normal 0.555561 0.831476 0
    outer loop
       vertex 0.30829 0.198338 0
       vertex 0.281099 0.216506 0
       vertex 0.281099 0.216506 0.1
    endloop
  endfacet
  facet normal 0.555561 0.831476 0
    outer loop
       vertex 0.281099 0.216506 0.1
       vertex 0.30829 0.198338 0.1
       vertex 0.30829 0.198338 0
    endloop
  endfacet
  facet normal 0.442302 0.896866 0
    outer loop
       vertex 0.281099 0.216506 0
       vertex 0.25177 0.23097 0
       vertex 0.25177 0.23097 0.1
    endloop
  endfacet
  facet normal 0.442302 0.896866 0
    outer loop
       vertex 0.25177 0.23097 0.1
       vertex 0.281099 0.216506 0.1
       vertex 0.281099 0.216506 0
    endloop
  endfacet
  facet normal 0.321425 0.946935 0
    outer loop
       vertex 0.25177 0.23097 0
       vertex 0.220804 0.241481 0
       vertex 0.220804 0.241481 0.1
    endloop
  endfacet
  facet normal 0.321425 0.946935 0
    outer loop
       vertex 0.220804 0.241481 0.1
       vertex 0.25177 0.23097 0.1
       vertex 0.25177 0.23097 0
    endloop
  endfacet
  facet normal 0.195096 0.980784 0
    outer loop
       vertex 0.220804 0.241481 0
       vertex 0.188731 0.247861 0
       vertex 0.188731 0.247861 0.1
    endloop
  endfacet
  facet normal 0.195096 0.980784 0
    outer loop
       vertex 0.188731 0.247861 0.1
       vertex 0.220804 0.241481 0.1
       vertex 0.220804 0.241481 0
    endloop
  endfacet
  facet normal 0.0654098 0.997858 0
    outer loop
       vertex 0.156099 0.25 0.1
       vertex 0.188731 0.247861 0.1
       vertex 0.188731 0.247861 0
    endloop
  endfacet
  facet normal 0.0654098 0.997858 -1.0893e-16
    outer loop
       vertex 0.188731 0.247861 0
       vertex 0.156099 0.25 0
       vertex 0.156099 0.25 0.1
    endloop
  endfacet
  facet normal -0.0654098 0.997858 0
    outer loop
       vertex 0.156099 0.25 0
       vertex 0.123468 0.247861 0
       vertex 0.123468 0.247861 0.1
    endloop
  endfacet
  facet normal -0.0654098 0.997858 1.0893e-16
    outer loop
       vertex 0.123468 0.247861 0.1
       vertex 0.156099 0.25 0.1
       vertex 0.156099 0.25 0
    endloop
  endfacet
  facet normal -0.195096 0.980784 0
    outer loop
       vertex 0.123468 0.247861 0
       vertex 0.0913944 0.241481 0
       vertex 0.0913944 0.241481 0.1
    endloop
  endfacet
  facet normal -0.195096 0.980784 0
    outer loop
       vertex 0.0913944 0.241481 0.1
       vertex 0.123468 0.247861 0.1
       vertex 0.123468 0.247861 0
    endloop
  endfacet
  facet normal -0.321425 0.946935 0
    outer loop
       vertex 0.0913944 0.241481 0
       vertex 0.0604284 0.23097 0
       vertex 0.0604284 0.23097 0.1
    endloop
  endfacet
  facet normal -0.321425 0.946935 0
    outer loop
       vertex 0.0604284 0.23097 0.1
       vertex 0.0913944 0.241481 0.1
       vertex 0.0913944 0.241481 0
    endloop
  endfacet
  facet normal -0.442302 0.896866 0
    outer loop
       vertex 0.0604284 0.23097 0
       vertex 0.0310994 0.216506 0
       vertex 0.0310994 0.216506 0.1
    endloop
  endfacet
  facet normal -0.442302 0.896866 0
    outer loop
       vertex 0.0310994 0.216506 0.1
       vertex 0.0604284 0.23097 0.1
       vertex 0.0604284 0.23097 0
    endloop
  endfacet
  facet normal -0.555561 0.831476 0
    outer loop
       vertex 0.0310994 0.216506 0
       vertex 0.0039084 0.198338 0
       vertex 0.0039084 0.198338 0.1
    endloop
  endfacet
  facet normal -0.555561 0.831476 0
    outer loop
       vertex 0.0039084 0.198338 0.1
       vertex 0.0310994 0.216506 0.1
       vertex 0.0310994 0.216506 0
    endloop
  endfacet
  facet normal -0.659372 0.751817 0
    outer loop
       vertex 0.0039084 0.198338 0
       vertex -0.0206766 0.176776 0
       vertex -0.0206766 0.176776 0.1
    endloop
  endfacet
  facet normal -0.659372 0.751817 0
    outer loop
       vertex -0.0206766 0.176776 0.1
       vertex 0.0039084 0.198338 0.1
       vertex 0.0039084 0.198338 0
    endloop
  endfacet
  facet normal -0.751817 0.659372 0
    outer loop
       vertex -0.0206766 0.176776 0
       vertex -0.0422386 0.152191 0
       vertex -0.0422386 0.152191 0.1
    endloop
  endfacet
  facet normal -0.751817 0.659372 0
    outer loop
       vertex -0.0422386 0.152191 0.1
       vertex -0.0206766 0.176776 0.1
       vertex -0.0206766 0.176776 0
    endloop
  endfacet
  facet normal -0.831476 0.555561 0
    outer loop
       vertex -0.0422386 0.152191 0
       vertex -0.0604066 0.125 0
       vertex -0.0604066 0.125 0.1
    endloop
  endfacet
  facet normal -0.831476 0.555561 0
    outer loop
       vertex -0.0604066 0.125 0.1
       vertex -0.0422386 0.152191 0.1
       vertex -0.0422386 0.152191 0
    endloop
  endfacet
  facet normal -0.896866 0.442302 0
    outer loop
       vertex -0.0604066 0.125 0
       vertex -0.0748706 0.095671 0
       vertex -0.0748706 0.095671 0.1
    endloop
  endfacet
  facet normal -0.896866 0.442302 0
    outer loop
       vertex -0.0748706 0.095671 0.1
       vertex -0.0604066 0.125 0.1
       vertex -0.0604066 0.125 0
    endloop
  endfacet
  facet normal -0.946935 0.321425 0
    outer loop
       vertex -0.0748706 0.095671 0
       vertex -0.0853816 0.064705 0
       vertex -0.0853816 0.064705 0.1
    endloop
  endfacet
  facet normal -0.946935 0.321425 0
    outer loop
       vertex -0.0853816 0.064705 0.1
       vertex -0.0748706 0.095671 0.1
       vertex -0.0748706 0.095671 0
    endloop
  endfacet
  facet normal -0.980784 0.195096 0
    outer loop
       vertex -0.0853816 0.064705 0
       vertex -0.0917616 0.0326315 0
       vertex -0.0917616 0.0326315 0.1
    endloop
  endfacet
  facet normal -0.980784 0.195096 0
    outer loop
       vertex -0.0917616 0.0326315 0.1
       vertex -0.0853816 0.064705 0.1
       vertex -0.0853816 0.064705 0
    endloop
  endfacet
  facet normal -0.997858 0.0654098 0
    outer loop
       vertex -0.0939006 8.32665e-17 0.1
       vertex -0.0917616 0.0326315 0.1
       vertex -0.0917616 0.0326315 0
    endloop
  endfacet
  facet normal -0.997858 0.0654098 -1.08928e-16
    outer loop
       vertex -0.0917616 0.0326315 0
       vertex -0.0939006 -8.32665e-17 0
       vertex -0.0939006 8.32665e-17 0.1
    endloop
  endfacet
  facet normal -0.997858 -0.0654098 0
    outer loop
       vertex -0.0939006 -8.32665e-17 0
       vertex -0.0917616 -0.0326315 0
       vertex -0.0917616 -0.0326315 0.1
    endloop
  endfacet
  facet normal -0.997858 -0.0654098 1.08928e-16
    outer loop
       vertex -0.0917616 -0.0326315 0.1
       vertex -0.0939006 8.32665e-17 0.1
       vertex -0.0939006 -8.32665e-17 0
    endloop
  endfacet
  facet normal -0.980784 -0.195096 0
    outer loop
       vertex -0.0917616 -0.0326315 0
       vertex -0.0853816 -0.064705 0
       vertex -0.0853816 -0.064705 0.1
    endloop
  endfacet
  facet normal -0.980784 -0.195096 0
    outer loop
       vertex -0.0853816 -0.064705 0.1
       vertex -0.0917616 -0.0326315 0.1
       vertex -0.0917616 -0.0326315 0
    endloop
  endfacet
  facet normal -0.946935 -0.321425 0
    outer loop
       vertex -0.0853816 -0.064705 0
       vertex -0.0748706 -0.095671 0
       vertex -0.0748706 -0.095671 0.1
    endloop
  endfacet
  facet normal -0.946935 -0.321425 0
    outer loop
       vertex -0.0748706 -0.095671 0.1
       vertex -0.0853816 -0.064705 0.1
       vertex -0.0853816 -0.064705 0
    endloop
  endfacet
  facet normal -0.896866 -0.442302 0
    outer loop
       vertex -0.0748706 -0.095671 0
       vertex -0.0604066 -0.125 0
       vertex -0.0604066 -0.125 0.1
    endloop
  endfacet
  facet normal -0.896866 -0.442302 0
    outer loop
       vertex -0.0604066 -0.125 0.1
       vertex -0.0748706 -0.095671 0.1
       vertex -0.0748706 -0.095671 0
    endloop
  endfacet
  facet normal -0.831476 -0.555561 0
    outer loop
       vertex -0.0604066 -0.125 0
       vertex -0.0422386 -0.152191 0
       vertex -0.0422386 -0.152191 0.1
    endloop
  endfacet
  facet normal -0.831476 -0.555561 0
    outer loop
       vertex -0.0422386 -0.152191 0.1
       vertex -0.0604066 -0.125 0.1
       vertex -0.0604066 -0.125 0
    endloop
  endfacet
  facet normal -0.751817 -0.659372 0
    outer loop
       vertex -0.0422386 -0.152191 0
       vertex -0.0206766 -0.176776 0
       vertex -0.0206766 -0.176776 0.1
    endloop
  endfacet
  facet normal -0.751817 -0.659372 0
    outer loop
       vertex -0.0206766 -0.176776 0.1
       vertex -0.0422386 -0.152191 0.1
       vertex -0.0422386 -0.152191 0
    endloop
  endfacet
  facet normal 0.659372 -0.751817 0
    outer loop
       vertex 0.332875 -0.176776 0
       vertex 0.332875 -0.176776 0.1
       vertex 0.30829 -0.198338 0.1
    endloop
  endfacet
  facet normal 0.659372 -0.751817 0
    outer loop
       vertex 0.30829 -0.198338 0.1
       vertex 0.30829 -0.198338 0
       vertex 0.332875 -0.176776 0
    endloop
  endfacet
  facet normal 0.555561 -0.831476 0
    outer loop
       vertex 0.30829 -0.198338 0
       vertex 0.30829 -0.198338 0.1
       vertex 0.281099 -0.216506 0.1
    endloop
  endfacet
  facet normal 0.555561 -0.831476 0
    outer loop
       vertex 0.281099 -0.216506 0.1
       vertex 0.281099 -0.216506 0
       vertex 0.30829 -0.198338 0
    endloop
  endfacet
  facet normal 0.442302 -0.896866 0
    outer loop
       vertex 0.281099 -0.216506 0
       vertex 0.281099 -0.216506 0.1
       vertex 0.25177 -0.23097 0.1
    endloop
  endfacet
  facet normal 0.442302 -0.896866 0
    outer loop
       vertex 0.25177 -0.23097 0.1
       vertex 0.25177 -0.23097 0
       vertex 0.281099 -0.216506 0
    endloop
  endfacet
  facet normal 0.321425 -0.946935 0
    outer loop
       vertex 0.25177 -0.23097 0
       vertex 0.25177 -0.23097 0.1
       vertex 0.220804 -0.241481 0.1
    endloop
  endfacet
  facet normal 0.321425 -0.946935 0
    outer loop
       vertex 0.220804 -0.241481 0.1
       vertex 0.220804 -0.241481 0
       vertex 0.25177 -0.23097 0
    endloop
  endfacet
  facet normal 0.195096 -0.980784 0
    outer loop
       vertex 0.220804 -0.241481 0
       vertex 0.220804 -0.241481 0.1
       vertex 0.188731 -0.247861 0.1
    endloop
  endfacet
  facet normal 0.195096 -0.980784 0
    outer loop
       vertex 0.188731 -0.247861 0.1
       vertex 0.188731 -0.247861 0
       vertex 0.220804 -0.241481 0
    endloop
  endfacet
  facet normal 0.0654098 -0.997858 0
    outer loop
       vertex 0.156099 -0.25 0
       vertex 0.188731 -0.247861 0
       vertex 0.188731 -0.247861 0.1
    endloop
  endfacet
  facet normal 0.0654098 -0.997858 1.0893e-16
    outer loop
       vertex 0.188731 -0.247861 0.1
       vertex 0.156099 -0.25 0.1
       vertex 0.156099 -0.25 0
    endloop
  endfacet
  facet normal -0.0654098 -0.997858 0
    outer loop
       vertex 0.156099 -0.25 0.1
       vertex 0.123468 -0.247861 0.1
       vertex 0.123468 -0.247861 0
    endloop
  endfacet
  facet normal -0.0654098 -0.997858 -1.0893e-16
    outer loop
       vertex 0.123468 -0.247861 0
       vertex 0.156099 -0.25 0
       vertex 0.156099 -0.25 0.1
    endloop
  endfacet
  facet normal -0.195096 -0.980784 0
    outer loop
       vertex 0.123468 -0.247861 0
       vertex 0.123468 -0.247861 0.1
       vertex 0.0913944 -0.241481 0.1
    endloop
  endfacet
  facet normal -0.195096 -0.980784 -0
    outer loop
       vertex 0.0913944 -0.241481 0.1
       vertex 0.0913944 -0.241481 0
       vertex 0.123468 -0.247861 0
    endloop
  endfacet
  facet normal -0.321425 -0.946935 0
    outer loop
       vertex 0.0913944 -0.241481 0
       vertex 0.0913944 -0.241481 0.1
       vertex 0.0604284 -0.23097 0.1
    endloop
  endfacet
  facet normal -0.321425 -0.946935 -0
    outer loop
       vertex 0.0604284 -0.23097 0.1
       vertex 0.0604284 -0.23097 0
       vertex 0.0913944 -0.241481 0
    endloop
  endfacet
  facet normal -0.442302 -0.896866 0
    outer loop
       vertex 0.0604284 -0.23097 0
       vertex 0.0604284 -0.23097 0.1
       vertex 0.0310994 -0.216506 0.1
    endloop
  endfacet
  facet normal -0.442302 -0.896866 -0
    outer loop
       vertex 0.0310994 -0.216506 0.1
       vertex 0.0310994 -0.216506 0
       vertex 0.0604284 -0.23097 0
    endloop
  endfacet
  facet normal -0.555561 -0.831476 0
    outer loop
       vertex 0.0310994 -0.216506 0
       vertex 0.0310994 -0.216506 0.1
       vertex 0.0039084 -0.198338 0.1
    endloop
  endfacet
  facet normal -0.555561 -0.831476 -0
    outer loop
       vertex 0.0039084 -0.198338 0.1
       vertex 0.0039084 -0.198338 0
       vertex 0.0310994 -0.216506 0
    endloop
  endfacet
  facet normal -0.659372 -0.751817 0
    outer loop
       vertex 0.0039084 -0.198338 0
       vertex 0.0039084 -0.198338 0.1
       vertex -0.0206766 -0.176776 0.1
    endloop
  endfacet
  facet normal -0.659372 -0.751817 -0
    outer loop
       vertex -0.0206766 -0.176776 0.1
       vertex -0.0206766 -0.176776 0
       vertex 0.0039084 -0.198338 0
    endloop
  endfacet
endsolid cylinder
