solid cylinder
  facet normal 0.751817 -0.659372 0
    outer loop
       vertex 0.0578529 -0.176776 0
       vertex 0.0794149 -0.152191 0
       vertex 0.0794149 -0.152191 0.1
    endloop
  endfacet
  facet normal 0.751817 -0.659372 0
    outer loop
       vertex 0.0794149 -0.152191 0.1
       vertex 0.0578529 -0.176776 0.1
       vertex 0.0578529 -0.176776 0
    endloop
  endfacet
  facet normal 0.831476 -0.555561 0
    outer loop
       vertex 0.0794149 -0.152191 0
       vertex 0.0975829 -0.125 0
       vertex 0.0975829 -0.125 0.1
    endloop
  endfacet
  facet normal 0.831476 -0.555561 0
    outer loop
       vertex 0.0975829 -0.125 0.1
       vertex 0.0794149 -0.152191 0.1
       vertex 0.0794149 -0.152191 0
    endloop
  endfacet
  facet normal 0.896866 -0.442302 0
    outer loop
       vertex 0.0975829 -0.125 0
       vertex 0.112047 -0.095671 0
       vertex 0.112047 -0.095671 0.1
    endloop
  endfacet
  facet normal 0.896866 -0.442302 0
    outer loop
       vertex 0.112047 -0.095671 0.1
       vertex 0.0975829 -0.125 0.1
       vertex 0.0975829 -0.125 0
    endloop
  endfacet
  facet normal 0.946935 -0.321425 0
    outer loop
       vertex 0.112047 -0.095671 0
       vertex 0.122558 -0.064705 0
       vertex 0.122558 -0.064705 0.1
    endloop
  endfacet
  facet normal 0.946935 -0.321425 0
    outer loop
       vertex 0.122558 -0.064705 0.1
       vertex 0.112047 -0.095671 0.1
       vertex 0.112047 -0.095671 0
    endloop
  endfacet
  facet normal 0.980784 -0.195096 0
    outer loop
       vertex 0.122558 -0.064705 0
       vertex 0.128938 -0.0326315 0
       vertex 0.128938 -0.0326315 0.1
    endloop
  endfacet
  facet normal 0.980784 -0.195096 0
    outer loop
       vertex 0.128938 -0.0326315 0.1
       vertex 0.122558 -0.064705 0.1
       vertex 0.122558 -0.064705 0
    endloop
  endfacet
  facet normal 0.997858 -0.0654098 0
    outer loop
       vertex 0.131077 -8.32665e-17 0.1
       vertex 0.128938 -0.0326315 0.1
       vertex 0.128938 -0.0326315 0
    endloop
  endfacet
  facet normal 0.997858 -0.0654098 -1.08928e-16
    outer loop
       vertex 0.128938 -0.0326315 0
       vertex 0.131077 8.32665e-17 0
       vertex 0.131077 -8.32665e-17 0.1
    endloop
  endfacet
  facet normal 0.997858 0.0654098 0
    outer loop
       vertex 0.131077 8.32665e-17 0
       vertex 0.128938 0.0326315 0
       vertex 0.128938 0.0326315 0.1
    endloop
  endfacet
  facet normal 0.997858 0.0654098 1.08928e-16
    outer loop
       vertex 0.128938 0.0326315 0.1
       vertex 0.131077 -8.32665e-17 0.1
       vertex 0.131077 8.32665e-17 0
    endloop
  endfacet
  facet normal 0.980784 0.195096 0
    outer loop
       vertex 0.128938 0.0326315 0
       vertex 0.122558 0.064705 0
       vertex 0.122558 0.064705 0.1
    endloop
  endfacet
  facet normal 0.980784 0.195096 0
    outer loop
       vertex 0.122558 0.064705 0.1
       vertex 0.128938 0.0326315 0.1
       vertex 0.128938 0.0326315 0
    endloop
  endfacet
  facet normal 0.946935 0.321425 0
    outer loop
       vertex 0.122558 0.064705 0
       vertex 0.112047 0.095671 0
       vertex 0.112047 0.095671 0.1
    endloop
  endfacet
  facet normal 0.946935 0.321425 0
    outer loop
       vertex 0.112047 0.095671 0.1
       vertex 0.122558 0.064705 0.1
       vertex 0.122558 0.064705 0
    endloop
  endfacet
  facet normal 0.896866 0.442302 0
    outer loop
       vertex 0.112047 0.095671 0
       vertex 0.0975829 0.125 0
       vertex 0.0975829 0.125 0.1
    endloop
  endfacet
  facet normal 0.896866 0.442302 0
    outer loop
       vertex 0.0975829 0.125 0.1
       vertex 0.112047 0.095671 0.1
       vertex 0.112047 0.095671 0
    endloop
  endfacet
  facet normal 0.831476 0.555561 0
    outer loop
       vertex 0.0975829 0.125 0
       vertex 0.0794149 0.152191 0
       vertex 0.0794149 0.152191 0.1
    endloop
  endfacet
  facet normal 0.831476 0.555561 0
    outer loop
       vertex 0.0794149 0.152191 0.1
       vertex 0.0975829 0.125 0.1
       vertex 0.0975829 0.125 0
    endloop
  endfacet
  facet normal 0.751817 0.659372 0
    outer loop
       vertex 0.0794149 0.152191 0
       vertex 0.0578529 0.176776 0
       vertex 0.0578529 0.176776 0.1
    endloop
  endfacet
  facet normal 0.751817 0.659372 0
    outer loop
       vertex 0.0578529 0.176776 0.1
       vertex 0.0794149 0.152191 0.1
       vertex 0.0794149 0.152191 0
    endloop
  endfacet
  facet normal 0.659372 0.751817 0
    outer loop
       vertex 0.0578529 0.176776 0
       vertex 0.0332679 0.198338 0
       vertex 0.0332679 0.198338 0.1
    endloop
  endfacet
  facet normal 0.659372 0.751817 0
    outer loop
       vertex 0.0332679 0.198338 0.1
       vertex 0.0578529 0.176776 0.1
       vertex 0.0578529 0.176776 0
    endloop
  endfacet
  facet normal 0.555561 0.831476 0
    outer loop
       vertex 0.0332679 0.198338 0
       vertex 0.00607691 0.216506 0
       vertex 0.00607691 0.216506 0.1
    endloop
  endfacet
  facet normal 0.555561 0.831476 0
    outer loop
       vertex 0.00607691 0.216506 0.1
       vertex 0.0332679 0.198338 0.1
       vertex 0.0332679 0.198338 0
    endloop
  endfacet
  facet normal 0.442302 0.896866 0
    outer loop
       vertex 0.00607691 0.216506 0
       vertex -0.0232521 0.23097 0
       vertex -0.0232521 0.23097 0.1
    endloop
  endfacet
  facet normal 0.442302 0.896866 0
    outer loop
       vertex -0.0232521 0.23097 0.1
       vertex 0.00607691 0.216506 0.1
       vertex 0.00607691 0.216506 0
    endloop
  endfacet
  facet normal 0.321425 0.946935 0
    outer loop
       vertex -0.0232521 0.23097 0
       vertex -0.0542181 0.241481 0
       vertex -0.0542181 0.241481 0.1
    endloop
  endfacet
  facet normal 0.321425 0.946935 0
    outer loop
       vertex -0.0542181 0.241481 0.1
       vertex -0.0232521 0.23097 0.1
       vertex -0.0232521 0.23097 0
    endloop
  endfacet
  facet normal 0.195096 0.980784 0
    outer loop
       vertex -0.0542181 0.241481 0
       vertex -0.0862916 0.247861 0
       vertex -0.0862916 0.247861 0.1
    endloop
  endfacet
  facet normal 0.195096 0.980784 0
    outer loop
       vertex -0.0862916 0.247861 0.1
       vertex -0.0542181 0.241481 0.1
       vertex -0.0542181 0.241481 0
    endloop
  endfacet
  facet normal 0.0654098 0.997858 0
    outer loop
       vertex -0.118923 0.25 0.1
       vertex -0.0862916 0.247861 0.1
       vertex -0.0862916 0.247861 0
    endloop
  endfacet
  facet normal 0.0654098 0.997858 -1.08928e-16
    outer loop
       vertex -0.0862916 0.247861 0
       vertex -0.118923 0.25 0
       vertex -0.118923 0.25 0.1
    endloop
  endfacet
  facet normal -0.0654098 0.997858 0
    outer loop
       vertex -0.118923 0.25 0
       vertex -0.151555 0.247861 0
       vertex -0.151555 0.247861 0.1
    endloop
  endfacet
  facet normal -0.0654098 0.997858 1.08928e-16
    outer loop
       vertex -0.151555 0.247861 0.1
       vertex -0.118923 0.25 0.1
       vertex -0.118923 0.25 0
    endloop
  endfacet
  facet normal -0.195096 0.980784 0
    outer loop
       vertex -0.151555 0.247861 0
       vertex -0.183628 0.241481 0
       vertex -0.183628 0.241481 0.1
    endloop
  endfacet
  facet normal -0.195096 0.980784 0
    outer loop
       vertex -0.183628 0.241481 0.1
       vertex -0.151555 0.247861 0.1
       vertex -0.151555 0.247861 0
    endloop
  endfacet
  facet normal -0.321425 0.946935 0
    outer loop
       vertex -0.183628 0.241481 0
       vertex -0.214594 0.23097 0
       vertex -0.214594 0.23097 0.1
    endloop
  endfacet
  facet normal -0.321425 0.946935 0
    outer loop
       vertex -0.214594 0.23097 0.1
       vertex -0.183628 0.241481 0.1
       vertex -0.183628 0.241481 0
    endloop
  endfacet
  facet normal -0.442302 0.896866 0
    outer loop
       vertex -0.214594 0.23097 0
       vertex -0.243923 0.216506 0
       vertex -0.243923 0.216506 0.1
    endloop
  endfacet
  facet normal -0.442302 0.896866 0
    outer loop
       vertex -0.243923 0.216506 0.1
       vertex -0.214594 0.23097 0.1
       vertex -0.214594 0.23097 0
    endloop
  endfacet
  facet normal -0.555561 0.831476 0
    outer loop
       vertex -0.243923 0.216506 0
       vertex -0.271114 0.198338 0
       vertex -0.271114 0.198338 0.1
    endloop
  endfacet
  facet normal -0.555561 0.831476 0
    outer loop
       vertex -0.271114 0.198338 0.1
       vertex -0.243923 0.216506 0.1
       vertex -0.243923 0.216506 0
    endloop
  endfacet
  facet normal -0.659372 0.751817 0
    outer loop
       vertex -0.271114 0.198338 0
       vertex -0.295699 0.176776 0
       vertex -0.295699 0.176776 0.1
    endloop
  endfacet
  facet normal -0.659372 0.751817 0
    outer loop
       vertex -0.295699 0.176776 0.1
       vertex -0.271114 0.198338 0.1
       vertex -0.271114 0.198338 0
    endloop
  endfacet
  facet normal -0.751817 0.659372 0
    outer loop
       vertex -0.295699 0.176776 0
       vertex -0.317261 0.152191 0
       vertex -0.317261 0.152191 0.1
    endloop
  endfacet
  facet normal -0.751817 0.659372 0
    outer loop
       vertex -0.317261 0.152191 0.1
       vertex -0.295699 0.176776 0.1
       vertex -0.295699 0.176776 0
    endloop
  endfacet
  facet normal -0.831476 0.555561 0
    outer loop
       vertex -0.317261 0.152191 0
       vertex -0.335429 0.125 0
       vertex -0.335429 0.125 0.1
    endloop
  endfacet
  facet normal -0.831476 0.555561 0
    outer loop
       vertex -0.335429 0.125 0.1
       vertex -0.317261 0.152191 0.1
       vertex -0.317261 0.152191 0
    endloop
  endfacet
  facet normal -0.896866 0.442302 0
    outer loop
       vertex -0.335429 0.125 0
       vertex -0.349893 0.095671 0
       vertex -0.349893 0.095671 0.1
    endloop
  endfacet
  facet normal -0.896866 0.442302 0
    outer loop
       vertex -0.349893 0.095671 0.1
       vertex -0.335429 0.125 0.1
       vertex -0.335429 0.125 0
    endloop
  endfacet
  facet normal -0.946935 0.321425 0
    outer loop
       vertex -0.349893 0.095671 0
       vertex -0.360404 0.064705 0
       vertex -0.360404 0.064705 0.1
    endloop
  endfacet
  facet normal -0.946935 0.321425 0
    outer loop
       vertex -0.360404 0.064705 0.1
       vertex -0.349893 0.095671 0.1
       vertex -0.349893 0.095671 0
    endloop
  endfacet
  facet normal -0.980784 0.195096 0
    outer loop
       vertex -0.360404 0.064705 0
       vertex -0.366784 0.0326315 0
       vertex -0.366784 0.0326315 0.1
    endloop
  endfacet
  facet normal -0.980784 0.195096 0
    outer loop
       vertex -0.366784 0.0326315 0.1
       vertex -0.360404 0.064705 0.1
       vertex -0.360404 0.064705 0
    endloop
  endfacet
  facet normal -0.997858 0.0654098 0
    outer loop
       vertex -0.368923 8.32665e-17 0.1
       vertex -0.366784 0.0326315 0.1
       vertex -0.366784 0.0326315 0
    endloop
  endfacet
  facet normal -0.997858 0.0654098 -1.08928e-16
    outer loop
       vertex -0.366784 0.0326315 0
       vertex -0.368923 -8.32665e-17 0
       vertex -0.368923 8.32665e-17 0.1
    endloop
  endfacet
  facet normal -0.997858 -0.0654098 0
    outer loop
       vertex -0.368923 -8.32665e-17 0
       vertex -0.366784 -0.0326315 0
       vertex -0.366784 -0.0326315 0.1
    endloop
  endfacet
  facet normal -0.997858 -0.0654098 1.08928e-16
    outer loop
       vertex -0.366784 -0.0326315 0.1
       vertex -0.368923 8.32665e-17 0.1
       vertex -0.368923 -8.32665e-17 0
    endloop
  endfacet
  facet normal -0.980784 -0.195096 0
    outer loop
       vertex -0.366784 -0.0326315 0
       vertex -0.360404 -0.064705 0
       vertex -0.360404 -0.064705 0.1
    endloop
  endfacet
  facet normal -0.980784 -0.195096 0
    outer loop
       vertex -0.360404 -0.064705 0.1
       vertex -0.366784 -0.0326315 0.1
       vertex -0.366784 -0.0326315 0
    endloop
  endfacet
  facet normal -0.946935 -0.321425 0
    outer loop
       vertex -0.360404 -0.064705 0
       vertex -0.349893 -0.095671 0
       vertex -0.349893 -0.095671 0.1
    endloop
  endfacet
  facet normal -0.946935 -0.321425 0
    outer loop
       vertex -0.349893 -0.095671 0.1
       vertex -0.360404 -0.064705 0.1
       vertex -0.360404 -0.064705 0
    endloop
  endfacet
  facet normal -0.896866 -0.442302 0
    outer loop
       vertex -0.349893 -0.095671 0
       vertex -0.335429 -0.125 0
       vertex -0.335429 -0.125 0.1
    endloop
  endfacet
  facet normal -0.896866 -0.442302 0
    outer loop
       vertex -0.335429 -0.125 0.1
       vertex -0.349893 -0.095671 0.1
       vertex -0.349893 -0.095671 0
    endloop
  endfacet
  facet normal -0.831476 -0.555561 0
    outer loop
       vertex -0.335429 -0.125 0
       vertex -0.317261 -0.152191 0
       vertex -0.317261 -0.152191 0.1
    endloop
  endfacet
  facet normal -0.831476 -0.555561 0
    outer loop
       vertex -0.317261 -0.152191 0.1
       vertex -0.335429 -0.125 0.1
       vertex -0.335429 -0.125 0
    endloop
  endfacet
  facet normal -0.751817 -0.659372 0
    outer loop
       vertex -0.317261 -0.152191 0
       vertex -0.295699 -0.176776 0
       vertex -0.295699 -0.176776 0.1
    endloop
  endfacet
  facet normal -0.751817 -0.659372 0
    outer loop
       vertex -0.295699 -0.176776 0.1
       vertex -0.317261 -0.152191 0.1
       vertex -0.317261 -0.152191 0
    endloop
  endfacet
  facet normal 0.659372 -0.751817 0
    outer loop
       vertex 0.0578529 -0.176776 0
       vertex 0.0578529 -0.176776 0.1
       vertex 0.0332679 -0.198338 0.1
    endloop
  endfacet
  facet normal 0.659372 -0.751817 0
    outer loop
       vertex 0.0332679 -0.198338 0.1
       vertex 0.0332679 -0.198338 0
       vertex 0.0578529 -0.176776 0
    endloop
  endfacet
  facet normal 0.555561 -0.831476 0
    outer loop
       vertex 0.0332679 -0.198338 0
       vertex 0.0332679 -0.198338 0.1
       vertex 0.00607691 -0.216506 0.1
    endloop
  endfacet
  facet normal 0.555561 -0.831476 0
    outer loop
       vertex 0.00607691 -0.216506 0.1
       vertex 0.00607691 -0.216506 0
       vertex 0.0332679 -0.198338 0
    endloop
  endfacet
  facet normal 0.442302 -0.896866 0
    outer loop
       vertex 0.00607691 -0.216506 0
       vertex 0.00607691 -0.216506 0.1
       vertex -0.0232521 -0.23097 0.1
    endloop
  endfacet
  facet normal 0.442302 -0.896866 0
    outer loop
       vertex -0.0232521 -0.23097 0.1
       vertex -0.0232521 -0.23097 0
       vertex 0.00607691 -0.216506 0
    endloop
  endfacet
  facet normal 0.321425 -0.946935 0
    outer loop
       vertex -0.0232521 -0.23097 0
       vertex -0.0232521 -0.23097 0.1
       vertex -0.0542181 -0.241481 0.1
    endloop
  endfacet
  facet normal 0.321425 -0.946935 0
    outer loop
       vertex -0.0542181 -0.241481 0.1
       vertex -0.0542181 -0.241481 0
       vertex -0.0232521 -0.23097 0
    endloop
  endfacet
  facet normal 0.195096 -0.980784 0
    outer loop
       vertex -0.0542181 -0.241481 0
       vertex -0.0542181 -0.241481 0.1
       vertex -0.0862916 -0.247861 0.1
    endloop
  endfacet
  facet normal 0.195096 -0.980784 0
    outer loop
       vertex -0.0862916 -0.247861 0.1
       vertex -0.0862916 -0.247861 0
       vertex -0.0542181 -0.241481 0
    endloop
  endfacet
  facet normal 0.0654098 -0.997858 0
    outer loop
       vertex -0.118923 -0.25 0
       vertex -0.0862916 -0.247861 0
       vertex -0.0862916 -0.247861 0.1
    endloop
  endfacet
  facet normal 0.0654098 -0.997858 1.08928e-16
    outer loop
       vertex -0.0862916 -0.247861 0.1
       vertex -0.118923 -0.25 0.1
       vertex -0.118923 -0.25 0
    endloop
  endfacet
  facet normal -0.0654098 -0.997858 0
    outer loop
       vertex -0.118923 -0.25 0.1
       vertex -0.151555 -0.247861 0.1
       vertex -0.151555 -0.247861 0
    endloop
  endfacet
  facet normal -0.0654098 -0.997858 -1.08928e-16
    outer loop
       vertex -0.151555 -0.247861 0
       vertex -0.118923 -0.25 0
       vertex -0.118923 -0.25 0.1
    endloop
  endfacet
  facet normal -0.195096 -0.980784 0
    outer loop
       vertex -0.151555 -0.247861 0
       vertex -0.151555 -0.247861 0.1
       vertex -0.183628 -0.241481 0.1
    endloop
  endfacet
  facet normal -0.195096 -0.980784 -0
    outer loop
       vertex -0.183628 -0.241481 0.1
       vertex -0.183628 -0.241481 0
       vertex -0.151555 -0.247861 0
    endloop
  endfacet
  facet normal -0.321425 -0.946935 0
    outer loop
       vertex -0.183628 -0.241481 0
       vertex -0.183628 -0.241481 0.1
       vertex -0.214594 -0.23097 0.1
    endloop
  endfacet
  facet normal -0.321425 -0.946935 -0
    outer loop
       vertex -0.214594 -0.23097 0.1
       vertex -0.214594 -0.23097 0
       vertex -0.183628 -0.241481 0
    endloop
  endfacet
  facet normal -0.442302 -0.896866 0
    outer loop
       vertex -0.214594 -0.23097 0
       vertex -0.214594 -0.23097 0.1
       vertex -0.243923 -0.216506 0.1
    endloop
  endfacet
  facet normal -0.442302 -0.896866 -0
    outer loop
       vertex -0.243923 -0.216506 0.1
       vertex -0.243923 -0.216506 0
       vertex -0.214594 -0.23097 0
    endloop
  endfacet
  facet normal -0.555561 -0.831476 0
    outer loop
       vertex -0.243923 -0.216506 0
       vertex -0.243923 -0.216506 0.1
       vertex -0.271114 -0.198338 0.1
    endloop
  endfacet
  facet normal -0.555561 -0.831476 -0
    outer loop
       vertex -0.271114 -0.198338 0.1
       vertex -0.271114 -0.198338 0
       vertex -0.243923 -0.216506 0
    endloop
  endfacet
  facet normal -0.659372 -0.751817 0
    outer loop
       vertex -0.271114 -0.198338 0
       vertex -0.271114 -0.198338 0.1
       vertex -0.295699 -0.176776 0.1
    endloop
  endfacet
  facet normal -0.659372 -0.751817 -0
    outer loop
       vertex -0.295699 -0.176776 0.1
       vertex -0.295699 -0.176776 0
       vertex -0.271114 -0.198338 0
    endloop
  endfacet
endsolid cylinder
