solid cylinder
  facet normal 0.751817 -0.659372 0
    outer loop
       vertex 0.135585 -0.176776 0
       vertex 0.157147 -0.152191 0
       vertex 0.157147 -0.152191 0.1
    endloop
  endfacet
  facet normal 0.751817 -0.659372 0
    outer loop
       vertex 0.157147 -0.152191 0.1
       vertex 0.135585 -0.176776 0.1
       vertex 0.135585 -0.176776 0
    endloop
  endfacet
  facet normal 0.831476 -0.555561 0
    outer loop
       vertex 0.157147 -0.152191 0
       vertex 0.175315 -0.125 0
       vertex 0.175315 -0.125 0.1
    endloop
  endfacet
  facet normal 0.831476 -0.555561 0
    outer loop
       vertex 0.175315 -0.125 0.1
       vertex 0.157147 -0.152191 0.1
       vertex 0.157147 -0.152191 0
    endloop
  endfacet
  facet normal 0.896866 -0.442302 0
    outer loop
       vertex 0.175315 -0.125 0
       vertex 0.189779 -0.095671 0
       vertex 0.189779 -0.095671 0.1
    endloop
  endfacet
  facet normal 0.896866 -0.442302 0
    outer loop
       vertex 0.189779 -0.095671 0.1
       vertex 0.175315 -0.125 0.1
       vertex 0.175315 -0.125 0
    endloop
  endfacet
  facet normal 0.946935 -0.321425 0
    outer loop
       vertex 0.189779 -0.095671 0
       vertex 0.20029 -0.064705 0
       vertex 0.20029 -0.064705 0.1
    endloop
  endfacet
  facet normal 0.946935 -0.321425 0
    outer loop
       vertex 0.20029 -0.064705 0.1
       vertex 0.189779 -0.095671 0.1
       vertex 0.189779 -0.095671 0
    endloop
  endfacet
  facet normal 0.980784 -0.195096 0
    outer loop
       vertex 0.20029 -0.064705 0
       vertex 0.20667 -0.0326315 0
       vertex 0.20667 -0.0326315 0.1
    endloop
  endfacet
  facet normal 0.980784 -0.195096 0
    outer loop
       vertex 0.20667 -0.0326315 0.1
       vertex 0.20029 -0.064705 0.1
       vertex 0.20029 -0.064705 0
    endloop
  endfacet
  facet normal 0.997858 -0.0654098 0
    outer loop
       vertex 0.208809 -8.32665e-17 0.1
       vertex 0.20667 -0.0326315 0.1
       vertex 0.20667 -0.0326315 0
    endloop
  endfacet
  facet normal 0.997858 -0.0654098 -1.08928e-16
    outer loop
       vertex 0.20667 -0.0326315 0
       vertex 0.208809 8.32665e-17 0
       vertex 0.208809 -8.32665e-17 0.1
    endloop
  endfacet
  facet normal 0.997858 0.0654098 0
    outer loop
       vertex 0.208809 8.32665e-17 0
       vertex 0.20667 0.0326315 0
       vertex 0.20667 0.0326315 0.1
    endloop
  endfacet
  facet normal 0.997858 0.0654098 1.08928e-16
    outer loop
       vertex 0.20667 0.0326315 0.1
       vertex 0.208809 -8.32665e-17 0.1
       vertex 0.208809 8.32665e-17 0
    endloop
  endfacet
  facet normal 0.980784 0.195096 0
    outer loop
       vertex 0.20667 0.0326315 0
       vertex 0.20029 0.064705 0
       vertex 0.20029 0.064705 0.1
    endloop
  endfacet
  facet normal 0.980784 0.195096 0
    outer loop
       vertex 0.20029 0.064705 0.1
       vertex 0.20667 0.0326315 0.1
       vertex 0.20667 0.0326315 0
    endloop
  endfacet
  facet normal 0.946935 0.321425 0
    outer loop
       vertex 0.20029 0.064705 0
       vertex 0.189779 0.095671 0
       vertex 0.189779 0.095671 0.1
    endloop
  endfacet
  facet normal 0.946935 0.321425 0
    outer loop
       vertex 0.189779 0.095671 0.1
       vertex 0.20029 0.064705 0.1
       vertex 0.20029 0.064705 0
    endloop
  endfacet
  facet normal 0.896866 0.442302 0
    outer loop
       vertex 0.189779 0.095671 0
       vertex 0.175315 0.125 0
       vertex 0.175315 0.125 0.1
    endloop
  endfacet
  facet normal 0.896866 0.442302 0
    outer loop
       vertex 0.175315 0.125 0.1
       vertex 0.189779 0.095671 0.1
       vertex 0.189779 0.095671 0
    endloop
  endfacet
  facet normal 0.831476 0.555561 0
    outer loop
       vertex 0.175315 0.125 0
       vertex 0.157147 0.152191 0
       vertex 0.157147 0.152191 0.1
    endloop
  endfacet
  facet normal 0.831476 0.555561 0
    outer loop
       vertex 0.157147 0.152191 0.1
       vertex 0.175315 0.125 0.1
       vertex 0.175315 0.125 0
    endloop
  endfacet
  facet normal 0.751817 0.659372 0
    outer loop
       vertex 0.157147 0.152191 0
       vertex 0.135585 0.176776 0
       vertex 0.135585 0.176776 0.1
    endloop
  endfacet
  facet normal 0.751817 0.659372 0
    outer loop
       vertex 0.135585 0.176776 0.1
       vertex 0.157147 0.152191 0.1
       vertex 0.157147 0.152191 0
    endloop
  endfacet
  facet normal 0.659372 0.751817 0
    outer loop
       vertex 0.135585 0.176776 0
       vertex 0.111 0.198338 0
       vertex 0.111 0.198338 0.1
    endloop
  endfacet
  facet normal 0.659372 0.751817 0
    outer loop
       vertex 0.111 0.198338 0.1
       vertex 0.135585 0.176776 0.1
       vertex 0.135585 0.176776 0
    endloop
  endfacet
  facet normal 0.555561 0.831476 0
    outer loop
       vertex 0.111 0.198338 0
       vertex 0.083809 0.216506 0
       vertex 0.083809 0.216506 0.1
    endloop
  endfacet
  facet normal 0.555561 0.831476 0
    outer loop
       vertex 0.083809 0.216506 0.1
       vertex 0.111 0.198338 0.1
       vertex 0.111 0.198338 0
    endloop
  endfacet
  facet normal 0.442302 0.896866 0
    outer loop
       vertex 0.083809 0.216506 0
       vertex 0.05448 0.23097 0
       vertex 0.05448 0.23097 0.1
    endloop
  endfacet
  facet normal 0.442302 0.896866 0
    outer loop
       vertex 0.05448 0.23097 0.1
       vertex 0.083809 0.216506 0.1
       vertex 0.083809 0.216506 0
    endloop
  endfacet
  facet normal 0.321425 0.946935 0
    outer loop
       vertex 0.05448 0.23097 0
       vertex 0.023514 0.241481 0
       vertex 0.023514 0.241481 0.1
    endloop
  endfacet
  facet normal 0.321425 0.946935 0
    outer loop
       vertex 0.023514 0.241481 0.1
       vertex 0.05448 0.23097 0.1
       vertex 0.05448 0.23097 0
    endloop
  endfacet
  facet normal 0.195096 0.980784 0
    outer loop
       vertex 0.023514 0.241481 0
       vertex -0.00855947 0.247861 0
       vertex -0.00855947 0.247861 0.1
    endloop
  endfacet
  facet normal 0.195096 0.980784 0
    outer loop
       vertex -0.00855947 0.247861 0.1
       vertex 0.023514 0.241481 0.1
       vertex 0.023514 0.241481 0
    endloop
  endfacet
  facet normal 0.0654098 0.997858 0
    outer loop
       vertex -0.041191 0.25 0.1
       vertex -0.00855947 0.247861 0.1
       vertex -0.00855947 0.247861 0
    endloop
  endfacet
  facet normal 0.0654098 0.997858 -1.08928e-16
    outer loop
       vertex -0.00855947 0.247861 0
       vertex -0.041191 0.25 0
       vertex -0.041191 0.25 0.1
    endloop
  endfacet
  facet normal -0.0654098 0.997858 0
    outer loop
       vertex -0.041191 0.25 0
       vertex -0.0738225 0.247861 0
       vertex -0.0738225 0.247861 0.1
    endloop
  endfacet
  facet normal -0.0654098 0.997858 1.08928e-16
    outer loop
       vertex -0.0738225 0.247861 0.1
       vertex -0.041191 0.25 0.1
       vertex -0.041191 0.25 0
    endloop
  endfacet
  facet normal -0.195096 0.980784 0
    outer loop
       vertex -0.0738225 0.247861 0
       vertex -0.105896 0.241481 0
       vertex -0.105896 0.241481 0.1
    endloop
  endfacet
  facet normal -0.195096 0.980784 0
    outer loop
       vertex -0.105896 0.241481 0.1
       vertex -0.0738225 0.247861 0.1
       vertex -0.0738225 0.247861 0
    endloop
  endfacet
  facet normal -0.321425 0.946935 0
    outer loop
       vertex -0.105896 0.241481 0
       vertex -0.136862 0.23097 0
       vertex -0.136862 0.23097 0.1
    endloop
  endfacet
  facet normal -0.321425 0.946935 0
    outer loop
       vertex -0.136862 0.23097 0.1
       vertex -0.105896 0.241481 0.1
       vertex -0.105896 0.241481 0
    endloop
  endfacet
  facet normal -0.442302 0.896866 0
    outer loop
       vertex -0.136862 0.23097 0
       vertex -0.166191 0.216506 0
       vertex -0.166191 0.216506 0.1
    endloop
  endfacet
  facet normal -0.442302 0.896866 0
    outer loop
       vertex -0.166191 0.216506 0.1
       vertex -0.136862 0.23097 0.1
       vertex -0.136862 0.23097 0
    endloop
  endfacet
  facet normal -0.555561 0.831476 0
    outer loop
       vertex -0.166191 0.216506 0
       vertex -0.193382 0.198338 0
       vertex -0.193382 0.198338 0.1
    endloop
  endfacet
  facet normal -0.555561 0.831476 0
    outer loop
       vertex -0.193382 0.198338 0.1
       vertex -0.166191 0.216506 0.1
       vertex -0.166191 0.216506 0
    endloop
  endfacet
  facet normal -0.659372 0.751817 0
    outer loop
       vertex -0.193382 0.198338 0
       vertex -0.217967 0.176776 0
       vertex -0.217967 0.176776 0.1
    endloop
  endfacet
  facet normal -0.659372 0.751817 0
    outer loop
       vertex -0.217967 0.176776 0.1
       vertex -0.193382 0.198338 0.1
       vertex -0.193382 0.198338 0
    endloop
  endfacet
  facet normal -0.751817 0.659372 0
    outer loop
       vertex -0.217967 0.176776 0
       vertex -0.239529 0.152191 0
       vertex -0.239529 0.152191 0.1
    endloop
  endfacet
  facet normal -0.751817 0.659372 0
    outer loop
       vertex -0.239529 0.152191 0.1
       vertex -0.217967 0.176776 0.1
       vertex -0.217967 0.176776 0
    endloop
  endfacet
  facet normal -0.831476 0.555561 0
    outer loop
       vertex -0.239529 0.152191 0
       vertex -0.257697 0.125 0
       vertex -0.257697 0.125 0.1
    endloop
  endfacet
  facet normal -0.831476 0.555561 0
    outer loop
       vertex -0.257697 0.125 0.1
       vertex -0.239529 0.152191 0.1
       vertex -0.239529 0.152191 0
    endloop
  endfacet
  facet normal -0.896866 0.442302 0
    outer loop
       vertex -0.257697 0.125 0
       vertex -0.272161 0.095671 0
       vertex -0.272161 0.095671 0.1
    endloop
  endfacet
  facet normal -0.896866 0.442302 0
    outer loop
       vertex -0.272161 0.095671 0.1
       vertex -0.257697 0.125 0.1
       vertex -0.257697 0.125 0
    endloop
  endfacet
  facet normal -0.946935 0.321425 0
    outer loop
       vertex -0.272161 0.095671 0
       vertex -0.282672 0.064705 0
       vertex -0.282672 0.064705 0.1
    endloop
  endfacet
  facet normal -0.946935 0.321425 0
    outer loop
       vertex -0.282672 0.064705 0.1
       vertex -0.272161 0.095671 0.1
       vertex -0.272161 0.095671 0
    endloop
  endfacet
  facet normal -0.980784 0.195096 0
    outer loop
       vertex -0.282672 0.064705 0
       vertex -0.289052 0.0326315 0
       vertex -0.289052 0.0326315 0.1
    endloop
  endfacet
  facet normal -0.980784 0.195096 0
    outer loop
       vertex -0.289052 0.0326315 0.1
       vertex -0.282672 0.064705 0.1
       vertex -0.282672 0.064705 0
    endloop
  endfacet
  facet normal -0.997858 0.0654098 0
    outer loop
       vertex -0.291191 8.32665e-17 0.1
       vertex -0.289052 0.0326315 0.1
       vertex -0.289052 0.0326315 0
    endloop
  endfacet
  facet normal -0.997858 0.0654098 -1.08928e-16
    outer loop
       vertex -0.289052 0.0326315 0
       vertex -0.291191 -8.32665e-17 0
       vertex -0.291191 8.32665e-17 0.1
    endloop
  endfacet
  facet normal -0.997858 -0.0654098 0
    outer loop
       vertex -0.291191 -8.32665e-17 0
       vertex -0.289052 -0.0326315 0
       vertex -0.289052 -0.0326315 0.1
    endloop
  endfacet
  facet normal -0.997858 -0.0654098 1.08928e-16
    outer loop
       vertex -0.289052 -0.0326315 0.1
       vertex -0.291191 8.32665e-17 0.1
       vertex -0.291191 -8.32665e-17 0
    endloop
  endfacet
  facet normal -0.980784 -0.195096 0
    outer loop
       vertex -0.289052 -0.0326315 0
       vertex -0.282672 -0.064705 0
       vertex -0.282672 -0.064705 0.1
    endloop
  endfacet
  facet normal -0.980784 -0.195096 0
    outer loop
       vertex -0.282672 -0.064705 0.1
       vertex -0.289052 -0.0326315 0.1
       vertex -0.289052 -0.0326315 0
    endloop
  endfacet
  facet normal -0.946935 -0.321425 0
    outer loop
       vertex -0.282672 -0.064705 0
       vertex -0.272161 -0.095671 0
       vertex -0.272161 -0.095671 0.1
    endloop
  endfacet
  facet normal -0.946935 -0.321425 0
    outer loop
       vertex -0.272161 -0.095671 0.1
       vertex -0.282672 -0.064705 0.1
       vertex -0.282672 -0.064705 0
    endloop
  endfacet
  facet normal -0.896866 -0.442302 0
    outer loop
       vertex -0.272161 -0.095671 0
       vertex -0.257697 -0.125 0
       vertex -0.257697 -0.125 0.1
    endloop
  endfacet
  facet normal -0.896866 -0.442302 0
    outer loop
       vertex -0.257697 -0.125 0.1
       vertex -0.272161 -0.095671 0.1
       vertex -0.272161 -0.095671 0
    endloop
  endfacet
  facet normal -0.831476 -0.555561 0
    outer loop
       vertex -0.257697 -0.125 0
       vertex -0.239529 -0.152191 0
       vertex -0.239529 -0.152191 0.1
    endloop
  endfacet
  facet normal -0.831476 -0.555561 0
    outer loop
       vertex -0.239529 -0.152191 0.1
       vertex -0.257697 -0.125 0.1
       vertex -0.257697 -0.125 0
    endloop
  endfacet
  facet normal -0.751817 -0.659372 0
    outer loop
       vertex -0.239529 -0.152191 0
       vertex -0.217967 -0.176776 0
       vertex -0.217967 -0.176776 0.1
    endloop
  endfacet
  facet normal -0.751817 -0.659372 0
    outer loop
       vertex -0.217967 -0.176776 0.1
       vertex -0.239529 -0.152191 0.1
       vertex -0.239529 -0.152191 0
    endloop
  endfacet
  facet normal 0.659372 -0.751817 0
    outer loop
       vertex 0.135585 -0.176776 0
       vertex 0.135585 -0.176776 0.1
       vertex 0.111 -0.198338 0.1
    endloop
  endfacet
  facet normal 0.659372 -0.751817 0
    outer loop
       vertex 0.111 -0.198338 0.1
       vertex 0.111 -0.198338 0
       vertex 0.135585 -0.176776 0
    endloop
  endfacet
  facet normal 0.555561 -0.831476 0
    outer loop
       vertex 0.111 -0.198338 0
       vertex 0.111 -0.198338 0.1
       vertex 0.083809 -0.216506 0.1
    endloop
  endfacet
  facet normal 0.555561 -0.831476 0
    outer loop
       vertex 0.083809 -0.216506 0.1
       vertex 0.083809 -0.216506 0
       vertex 0.111 -0.198338 0
    endloop
  endfacet
  facet normal 0.442302 -0.896866 0
    outer loop
       vertex 0.083809 -0.216506 0
       vertex 0.083809 -0.216506 0.1
       vertex 0.05448 -0.23097 0.1
    endloop
  endfacet
  facet normal 0.442302 -0.896866 0
    outer loop
       vertex 0.05448 -0.23097 0.1
       vertex 0.05448 -0.23097 0
       vertex 0.083809 -0.216506 0
    endloop
  endfacet
  facet normal 0.321425 -0.946935 0
    outer loop
       vertex 0.05448 -0.23097 0
       vertex 0.05448 -0.23097 0.1
       vertex 0.023514 -0.241481 0.1
    endloop
  endfacet
  facet normal 0.321425 -0.946935 0
    outer loop
       vertex 0.023514 -0.241481 0.1
       vertex 0.023514 -0.241481 0
       vertex 0.05448 -0.23097 0
    endloop
  endfacet
  facet normal 0.195096 -0.980784 0
    outer loop
       vertex 0.023514 -0.241481 0
       vertex 0.023514 -0.241481 0.1
       vertex -0.00855947 -0.247861 0.1
    endloop
  endfacet
  facet normal 0.195096 -0.980784 0
    outer loop
       vertex -0.00855947 -0.247861 0.1
       vertex -0.00855947 -0.247861 0
       vertex 0.023514 -0.241481 0
    endloop
  endfacet
  facet normal 0.0654098 -0.997858 0
    outer loop
       vertex -0.041191 -0.25 0
       vertex -0.00855947 -0.247861 0
       vertex -0.00855947 -0.247861 0.1
    endloop
  endfacet
  facet normal 0.0654098 -0.997858 1.08928e-16
    outer loop
       vertex -0.00855947 -0.247861 0.1
       vertex -0.041191 -0.25 0.1
       vertex -0.041191 -0.25 0
    endloop
  endfacet
  facet normal -0.0654098 -0.997858 0
    outer loop
       vertex -0.041191 -0.25 0.1
       vertex -0.0738225 -0.247861 0.1
       vertex -0.0738225 -0.247861 0
    endloop
  endfacet
  facet normal -0.0654098 -0.997858 -1.08928e-16
    outer loop
       vertex -0.0738225 -0.247861 0
       vertex -0.041191 -0.25 0
       vertex -0.041191 -0.25 0.1
    endloop
  endfacet
  facet normal -0.195096 -0.980784 0
    outer loop
       vertex -0.0738225 -0.247861 0
       vertex -0.0738225 -0.247861 0.1
       vertex -0.105896 -0.241481 0.1
    endloop
  endfacet
  facet normal -0.195096 -0.980784 -0
    outer loop
       vertex -0.105896 -0.241481 0.1
       vertex -0.105896 -0.241481 0
       vertex -0.0738225 -0.247861 0
    endloop
  endfacet
  facet normal -0.321425 -0.946935 0
    outer loop
       vertex -0.105896 -0.241481 0
       vertex -0.105896 -0.241481 0.1
       vertex -0.136862 -0.23097 0.1
    endloop
  endfacet
  facet normal -0.321425 -0.946935 -0
    outer loop
       vertex -0.136862 -0.23097 0.1
       vertex -0.136862 -0.23097 0
       vertex -0.105896 -0.241481 0
    endloop
  endfacet
  facet normal -0.442302 -0.896866 0
    outer loop
       vertex -0.136862 -0.23097 0
       vertex -0.136862 -0.23097 0.1
       vertex -0.166191 -0.216506 0.1
    endloop
  endfacet
  facet normal -0.442302 -0.896866 -0
    outer loop
       vertex -0.166191 -0.216506 0.1
       vertex -0.166191 -0.216506 0
       vertex -0.136862 -0.23097 0
    endloop
  endfacet
  facet normal -0.555561 -0.831476 0
    outer loop
       vertex -0.166191 -0.216506 0
       vertex -0.166191 -0.216506 0.1
       vertex -0.193382 -0.198338 0.1
    endloop
  endfacet
  facet normal -0.555561 -0.831476 -0
    outer loop
       vertex -0.193382 -0.198338 0.1
       vertex -0.193382 -0.198338 0
       vertex -0.166191 -0.216506 0
    endloop
  endfacet
  facet normal -0.659372 -0.751817 0
    outer loop
       vertex -0.193382 -0.198338 0
       vertex -0.193382 -0.198338 0.1
       vertex -0.217967 -0.176776 0.1
    endloop
  endfacet
  facet normal -0.659372 -0.751817 -0
    outer loop
       vertex -0.217967 -0.176776 0.1
       vertex -0.217967 -0.176776 0
       vertex -0.193382 -0.198338 0
    endloop
  endfacet
endsolid cylinder
