solid cylinder
  facet normal 0.751817 -0.659372 0
    outer loop
       vertex 0.469789 -0.176776 0
       vertex 0.491351 -0.152191 0
       vertex 0.491351 -0.152191 0.1
    endloop
  endfacet
  facet normal 0.751817 -0.659372 0
    outer loop
       vertex 0.491351 -0.152191 0.1
       vertex 0.469789 -0.176776 0.1
       vertex 0.469789 -0.176776 0
    endloop
  endfacet
  facet normal 0.831476 -0.555561 0
    outer loop
       vertex 0.491351 -0.152191 0
       vertex 0.509519 -0.125 0
       vertex 0.509519 -0.125 0.1
    endloop
  endfacet
  facet normal 0.831476 -0.555561 0
    outer loop
       vertex 0.509519 -0.125 0.1
       vertex 0.491351 -0.152191 0.1
       vertex 0.491351 -0.152191 0
    endloop
  endfacet
  facet normal 0.896866 -0.442302 0
    outer loop
       vertex 0.509519 -0.125 0
       vertex 0.523983 -0.095671 0
       vertex 0.523983 -0.095671 0.1
    endloop
  endfacet
  facet normal 0.896866 -0.442302 0
    outer loop
       vertex 0.523983 -0.095671 0.1
       vertex 0.509519 -0.125 0.1
       vertex 0.509519 -0.125 0
    endloop
  endfacet
  facet normal 0.946935 -0.321425 0
    outer loop
       vertex 0.523983 -0.095671 0
       vertex 0.534494 -0.064705 0
       vertex 0.534494 -0.064705 0.1
    endloop
  endfacet
  facet normal 0.946935 -0.321425 0
    outer loop
       vertex 0.534494 -0.064705 0.1
       vertex 0.523983 -0.095671 0.1
       vertex 0.523983 -0.095671 0
    endloop
  endfacet
  facet normal 0.980784 -0.195096 0
    outer loop
       vertex 0.534494 -0.064705 0
       vertex 0.540874 -0.0326315 0
       vertex 0.540874 -0.0326315 0.1
    endloop
  endfacet
  facet normal 0.980784 -0.195096 0
    outer loop
       vertex 0.540874 -0.0326315 0.1
       vertex 0.534494 -0.064705 0.1
       vertex 0.534494 -0.064705 0
    endloop
  endfacet
  facet normal 0.997858 -0.0654098 0
    outer loop
       vertex 0.543013 -8.32665e-17 0.1
       vertex 0.540874 -0.0326315 0.1
       vertex 0.540874 -0.0326315 0
    endloop
  endfacet
  facet normal 0.997858 -0.0654098 -1.08928e-16
    outer loop
       vertex 0.540874 -0.0326315 0
       vertex 0.543013 8.32665e-17 0
       vertex 0.543013 -8.32665e-17 0.1
    endloop
  endfacet
  facet normal 0.997858 0.0654098 0
    outer loop
       vertex 0.543013 8.32665e-17 0
       vertex 0.540874 0.0326315 0
       vertex 0.540874 0.0326315 0.1
    endloop
  endfacet
  facet normal 0.997858 0.0654098 1.08928e-16
    outer loop
       vertex 0.540874 0.0326315 0.1
       vertex 0.543013 -8.32665e-17 0.1
       vertex 0.543013 8.32665e-17 0
    endloop
  endfacet
  facet normal 0.980784 0.195096 0
    outer loop
       vertex 0.540874 0.0326315 0
       vertex 0.534494 0.064705 0
       vertex 0.534494 0.064705 0.1
    endloop
  endfacet
  facet normal 0.980784 0.195096 0
    outer loop
       vertex 0.534494 0.064705 0.1
       vertex 0.540874 0.0326315 0.1
       vertex 0.540874 0.0326315 0
    endloop
  endfacet
  facet normal 0.946935 0.321425 0
    outer loop
       vertex 0.534494 0.064705 0
       vertex 0.523983 0.095671 0
       vertex 0.523983 0.095671 0.1
    endloop
  endfacet
  facet normal 0.946935 0.321425 0
    outer loop
       vertex 0.523983 0.095671 0.1
       vertex 0.534494 0.064705 0.1
       vertex 0.534494 0.064705 0
    endloop
  endfacet
  facet normal 0.896866 0.442302 0
    outer loop
       vertex 0.523983 0.095671 0
       vertex 0.509519 0.125 0
       vertex 0.509519 0.125 0.1
    endloop
  endfacet
  facet normal 0.896866 0.442302 0
    outer loop
       vertex 0.509519 0.125 0.1
       vertex 0.523983 0.095671 0.1
       vertex 0.523983 0.095671 0
    endloop
  endfacet
  facet normal 0.831476 0.555561 0
    outer loop
       vertex 0.509519 0.125 0
       vertex 0.491351 0.152191 0
       vertex 0.491351 0.152191 0.1
    endloop
  endfacet
  facet normal 0.831476 0.555561 0
    outer loop
       vertex 0.491351 0.152191 0.1
       vertex 0.509519 0.125 0.1
       vertex 0.509519 0.125 0
    endloop
  endfacet
  facet normal 0.751817 0.659372 0
    outer loop
       vertex 0.491351 0.152191 0
       vertex 0.469789 0.176776 0
       vertex 0.469789 0.176776 0.1
    endloop
  endfacet
  facet normal 0.751817 0.659372 0
    outer loop
       vertex 0.469789 0.176776 0.1
       vertex 0.491351 0.152191 0.1
       vertex 0.491351 0.152191 0
    endloop
  endfacet
  facet normal 0.659372 0.751817 0
    outer loop
       vertex 0.469789 0.176776 0
       vertex 0.445204 0.198338 0
       vertex 0.445204 0.198338 0.1
    endloop
  endfacet
  facet normal 0.659372 0.751817 0
    outer loop
       vertex 0.445204 0.198338 0.1
       vertex 0.469789 0.176776 0.1
       vertex 0.469789 0.176776 0
    endloop
  endfacet
  facet normal 0.555561 0.831476 0
    outer loop
       vertex 0.445204 0.198338 0
       vertex 0.418013 0.216506 0
       vertex 0.418013 0.216506 0.1
    endloop
  endfacet
  facet normal 0.555561 0.831476 0
    outer loop
       vertex 0.418013 0.216506 0.1
       vertex 0.445204 0.198338 0.1
       vertex 0.445204 0.198338 0
    endloop
  endfacet
  facet normal 0.442302 0.896866 0
    outer loop
       vertex 0.418013 0.216506 0
       vertex 0.388684 0.23097 0
       vertex 0.388684 0.23097 0.1
    endloop
  endfacet
  facet normal 0.442302 0.896866 0
    outer loop
       vertex 0.388684 0.23097 0.1
       vertex 0.418013 0.216506 0.1
       vertex 0.418013 0.216506 0
    endloop
  endfacet
  facet normal 0.321425 0.946935 0
    outer loop
       vertex 0.388684 0.23097 0
       vertex 0.357718 0.241481 0
       vertex 0.357718 0.241481 0.1
    endloop
  endfacet
  facet normal 0.321425 0.946935 0
    outer loop
       vertex 0.357718 0.241481 0.1
       vertex 0.388684 0.23097 0.1
       vertex 0.388684 0.23097 0
    endloop
  endfacet
  facet normal 0.195096 0.980784 0
    outer loop
       vertex 0.357718 0.241481 0
       vertex 0.325645 0.247861 0
       vertex 0.325645 0.247861 0.1
    endloop
  endfacet
  facet normal 0.195096 0.980784 0
    outer loop
       vertex 0.325645 0.247861 0.1
       vertex 0.357718 0.241481 0.1
       vertex 0.357718 0.241481 0
    endloop
  endfacet
  facet normal 0.0654098 0.997858 0
    outer loop
       vertex 0.293013 0.25 0.1
       vertex 0.325645 0.247861 0.1
       vertex 0.325645 0.247861 0
    endloop
  endfacet
  facet normal 0.0654098 0.997858 -1.45239e-16
    outer loop
       vertex 0.325645 0.247861 0
       vertex 0.293013 0.25 0
       vertex 0.293013 0.25 0.1
    endloop
  endfacet
  facet normal -0.0654098 0.997858 0
    outer loop
       vertex 0.293013 0.25 0
       vertex 0.260382 0.247861 0
       vertex 0.260382 0.247861 0.1
    endloop
  endfacet
  facet normal -0.0654098 0.997858 1.45239e-16
    outer loop
       vertex 0.260382 0.247861 0.1
       vertex 0.293013 0.25 0.1
       vertex 0.293013 0.25 0
    endloop
  endfacet
  facet normal -0.195096 0.980784 0
    outer loop
       vertex 0.260382 0.247861 0
       vertex 0.228308 0.241481 0
       vertex 0.228308 0.241481 0.1
    endloop
  endfacet
  facet normal -0.195096 0.980784 0
    outer loop
       vertex 0.228308 0.241481 0.1
       vertex 0.260382 0.247861 0.1
       vertex 0.260382 0.247861 0
    endloop
  endfacet
  facet normal -0.321425 0.946935 0
    outer loop
       vertex 0.228308 0.241481 0
       vertex 0.197342 0.23097 0
       vertex 0.197342 0.23097 0.1
    endloop
  endfacet
  facet normal -0.321425 0.946935 0
    outer loop
       vertex 0.197342 0.23097 0.1
       vertex 0.228308 0.241481 0.1
       vertex 0.228308 0.241481 0
    endloop
  endfacet
  facet normal -0.442302 0.896866 0
    outer loop
       vertex 0.197342 0.23097 0
       vertex 0.168013 0.216506 0
       vertex 0.168013 0.216506 0.1
    endloop
  endfacet
  facet normal -0.442302 0.896866 0
    outer loop
       vertex 0.168013 0.216506 0.1
       vertex 0.197342 0.23097 0.1
       vertex 0.197342 0.23097 0
    endloop
  endfacet
  facet normal -0.555561 0.831476 0
    outer loop
       vertex 0.168013 0.216506 0
       vertex 0.140822 0.198338 0
       vertex 0.140822 0.198338 0.1
    endloop
  endfacet
  facet normal -0.555561 0.831476 0
    outer loop
       vertex 0.140822 0.198338 0.1
       vertex 0.168013 0.216506 0.1
       vertex 0.168013 0.216506 0
    endloop
  endfacet
  facet normal -0.659372 0.751817 0
    outer loop
       vertex 0.140822 0.198338 0
       vertex 0.116237 0.176776 0
       vertex 0.116237 0.176776 0.1
    endloop
  endfacet
  facet normal -0.659372 0.751817 0
    outer loop
       vertex 0.116237 0.176776 0.1
       vertex 0.140822 0.198338 0.1
       vertex 0.140822 0.198338 0
    endloop
  endfacet
  facet normal -0.751817 0.659372 0
    outer loop
       vertex 0.116237 0.176776 0
       vertex 0.094675 0.152191 0
       vertex 0.094675 0.152191 0.1
    endloop
  endfacet
  facet normal -0.751817 0.659372 0
    outer loop
       vertex 0.094675 0.152191 0.1
       vertex 0.116237 0.176776 0.1
       vertex 0.116237 0.176776 0
    endloop
  endfacet
  facet normal -0.831476 0.555561 0
    outer loop
       vertex 0.094675 0.152191 0
       vertex 0.076507 0.125 0
       vertex 0.076507 0.125 0.1
    endloop
  endfacet
  facet normal -0.831476 0.555561 0
    outer loop
       vertex 0.076507 0.125 0.1
       vertex 0.094675 0.152191 0.1
       vertex 0.094675 0.152191 0
    endloop
  endfacet
  facet normal -0.896866 0.442302 0
    outer loop
       vertex 0.076507 0.125 0
       vertex 0.062043 0.095671 0
       vertex 0.062043 0.095671 0.1
    endloop
  endfacet
  facet normal -0.896866 0.442302 0
    outer loop
       vertex 0.062043 0.095671 0.1
       vertex 0.076507 0.125 0.1
       vertex 0.076507 0.125 0
    endloop
  endfacet
  facet normal -0.946935 0.321425 0
    outer loop
       vertex 0.062043 0.095671 0
       vertex 0.051532 0.064705 0
       vertex 0.051532 0.064705 0.1
    endloop
  endfacet
  facet normal -0.946935 0.321425 0
    outer loop
       vertex 0.051532 0.064705 0.1
       vertex 0.062043 0.095671 0.1
       vertex 0.062043 0.095671 0
    endloop
  endfacet
  facet normal -0.980784 0.195096 0
    outer loop
       vertex 0.051532 0.064705 0
       vertex 0.045152 0.0326315 0
       vertex 0.045152 0.0326315 0.1
    endloop
  endfacet
  facet normal -0.980784 0.195096 0
    outer loop
       vertex 0.045152 0.0326315 0.1
       vertex 0.051532 0.064705 0.1
       vertex 0.051532 0.064705 0
    endloop
  endfacet
  facet normal -0.997858 0.0654098 0
    outer loop
       vertex 0.043013 8.32665e-17 0.1
       vertex 0.045152 0.0326315 0.1
       vertex 0.045152 0.0326315 0
    endloop
  endfacet
  facet normal -0.997858 0.0654098 -1.08928e-16
    outer loop
       vertex 0.045152 0.0326315 0
       vertex 0.043013 -8.32665e-17 0
       vertex 0.043013 8.32665e-17 0.1
    endloop
  endfacet
  facet normal -0.997858 -0.0654098 0
    outer loop
       vertex 0.043013 -8.32665e-17 0
       vertex 0.045152 -0.0326315 0
       vertex 0.045152 -0.0326315 0.1
    endloop
  endfacet
  facet normal -0.997858 -0.0654098 1.08928e-16
    outer loop
       vertex 0.045152 -0.0326315 0.1
       vertex 0.043013 8.32665e-17 0.1
       vertex 0.043013 -8.32665e-17 0
    endloop
  endfacet
  facet normal -0.980784 -0.195096 0
    outer loop
       vertex 0.045152 -0.0326315 0
       vertex 0.051532 -0.064705 0
       vertex 0.051532 -0.064705 0.1
    endloop
  endfacet
  facet normal -0.980784 -0.195096 0
    outer loop
       vertex 0.051532 -0.064705 0.1
       vertex 0.045152 -0.0326315 0.1
       vertex 0.045152 -0.0326315 0
    endloop
  endfacet
  facet normal -0.946935 -0.321425 0
    outer loop
       vertex 0.051532 -0.064705 0
       vertex 0.062043 -0.095671 0
       vertex 0.062043 -0.095671 0.1
    endloop
  endfacet
  facet normal -0.946935 -0.321425 0
    outer loop
       vertex 0.062043 -0.095671 0.1
       vertex 0.051532 -0.064705 0.1
       vertex 0.051532 -0.064705 0
    endloop
  endfacet
  facet normal -0.896866 -0.442302 0
    outer loop
       vertex 0.062043 -0.095671 0
       vertex 0.076507 -0.125 0
       vertex 0.076507 -0.125 0.1
    endloop
  endfacet
  facet normal -0.896866 -0.442302 0
    outer loop
       vertex 0.076507 -0.125 0.1
       vertex 0.062043 -0.095671 0.1
       vertex 0.062043 -0.095671 0
    endloop
  endfacet
  facet normal -0.831476 -0.555561 0
    outer loop
       vertex 0.076507 -0.125 0
       vertex 0.094675 -0.152191 0
       vertex 0.094675 -0.152191 0.1
    endloop
  endfacet
  facet normal -0.831476 -0.555561 0
    outer loop
       vertex 0.094675 -0.152191 0.1
       vertex 0.076507 -0.125 0.1
       vertex 0.076507 -0.125 0
    endloop
  endfacet
  facet normal -0.751817 -0.659372 0
    outer loop
       vertex 0.094675 -0.152191 0
       vertex 0.116237 -0.176776 0
       vertex 0.116237 -0.176776 0.1
    endloop
  endfacet
  facet normal -0.751817 -0.659372 0
    outer loop
       vertex 0.116237 -0.176776 0.1
       vertex 0.094675 -0.152191 0.1
       vertex 0.094675 -0.152191 0
    endloop
  endfacet
  facet normal 0.659372 -0.751817 0
    outer loop
       vertex 0.469789 -0.176776 0
       vertex 0.469789 -0.176776 0.1
       vertex 0.445204 -0.198338 0.1
    endloop
  endfacet
  facet normal 0.659372 -0.751817 0
    outer loop
       vertex 0.445204 -0.198338 0.1
       vertex 0.445204 -0.198338 0
       vertex 0.469789 -0.176776 0
    endloop
  endfacet
  facet normal 0.555561 -0.831476 0
    outer loop
       vertex 0.445204 -0.198338 0
       vertex 0.445204 -0.198338 0.1
       vertex 0.418013 -0.216506 0.1
    endloop
  endfacet
  facet normal 0.555561 -0.831476 0
    outer loop
       vertex 0.418013 -0.216506 0.1
       vertex 0.418013 -0.216506 0
       vertex 0.445204 -0.198338 0
    endloop
  endfacet
  facet normal 0.442302 -0.896866 0
    outer loop
       vertex 0.418013 -0.216506 0
       vertex 0.418013 -0.216506 0.1
       vertex 0.388684 -0.23097 0.1
    endloop
  endfacet
  facet normal 0.442302 -0.896866 0
    outer loop
       vertex 0.388684 -0.23097 0.1
       vertex 0.388684 -0.23097 0
       vertex 0.418013 -0.216506 0
    endloop
  endfacet
  facet normal 0.321425 -0.946935 0
    outer loop
       vertex 0.388684 -0.23097 0
       vertex 0.388684 -0.23097 0.1
       vertex 0.357718 -0.241481 0.1
    endloop
  endfacet
  facet normal 0.321425 -0.946935 0
    outer loop
       vertex 0.357718 -0.241481 0.1
       vertex 0.357718 -0.241481 0
       vertex 0.388684 -0.23097 0
    endloop
  endfacet
  facet normal 0.195096 -0.980784 0
    outer loop
       vertex 0.357718 -0.241481 0
       vertex 0.357718 -0.241481 0.1
       vertex 0.325645 -0.247861 0.1
    endloop
  endfacet
  facet normal 0.195096 -0.980784 0
    outer loop
       vertex 0.325645 -0.247861 0.1
       vertex 0.325645 -0.247861 0
       vertex 0.357718 -0.241481 0
    endloop
  endfacet
  facet normal 0.0654098 -0.997858 0
    outer loop
       vertex 0.293013 -0.25 0
       vertex 0.325645 -0.247861 0
       vertex 0.325645 -0.247861 0.1
    endloop
  endfacet
  facet normal 0.0654098 -0.997858 1.45239e-16
    outer loop
       vertex 0.325645 -0.247861 0.1
       vertex 0.293013 -0.25 0.1
       vertex 0.293013 -0.25 0
    endloop
  endfacet
  facet normal -0.0654098 -0.997858 0
    outer loop
       vertex 0.293013 -0.25 0.1
       vertex 0.260382 -0.247861 0.1
       vertex 0.260382 -0.247861 0
    endloop
  endfacet
  facet normal -0.0654098 -0.997858 -1.45239e-16
    outer loop
       vertex 0.260382 -0.247861 0
       vertex 0.293013 -0.25 0
       vertex 0.293013 -0.25 0.1
    endloop
  endfacet
  facet normal -0.195096 -0.980784 0
    outer loop
       vertex 0.260382 -0.247861 0
       vertex 0.260382 -0.247861 0.1
       vertex 0.228308 -0.241481 0.1
    endloop
  endfacet
  facet normal -0.195096 -0.980784 -0
    outer loop
       vertex 0.228308 -0.241481 0.1
       vertex 0.228308 -0.241481 0
       vertex 0.260382 -0.247861 0
    endloop
  endfacet
  facet normal -0.321425 -0.946935 0
    outer loop
       vertex 0.228308 -0.241481 0
       vertex 0.228308 -0.241481 0.1
       vertex 0.197342 -0.23097 0.1
    endloop
  endfacet
  facet normal -0.321425 -0.946935 -0
    outer loop
       vertex 0.197342 -0.23097 0.1
       vertex 0.197342 -0.23097 0
       vertex 0.228308 -0.241481 0
    endloop
  endfacet
  facet normal -0.442302 -0.896866 0
    outer loop
       vertex 0.197342 -0.23097 0
       vertex 0.197342 -0.23097 0.1
       vertex 0.168013 -0.216506 0.1
    endloop
  endfacet
  facet normal -0.442302 -0.896866 -0
    outer loop
       vertex 0.168013 -0.216506 0.1
       vertex 0.168013 -0.216506 0
       vertex 0.197342 -0.23097 0
    endloop
  endfacet
  facet normal -0.555561 -0.831476 0
    outer loop
       vertex 0.168013 -0.216506 0
       vertex 0.168013 -0.216506 0.1
       vertex 0.140822 -0.198338 0.1
    endloop
  endfacet
  facet normal -0.555561 -0.831476 -0
    outer loop
       vertex 0.140822 -0.198338 0.1
       vertex 0.140822 -0.198338 0
       vertex 0.168013 -0.216506 0
    endloop
  endfacet
  facet normal -0.659372 -0.751817 0
    outer loop
       vertex 0.140822 -0.198338 0
       vertex 0.140822 -0.198338 0.1
       vertex 0.116237 -0.176776 0.1
    endloop
  endfacet
  facet normal -0.659372 -0.751817 -0
    outer loop
       vertex 0.116237 -0.176776 0.1
       vertex 0.116237 -0.176776 0
       vertex 0.140822 -0.198338 0
    endloop
  endfacet
endsolid cylinder
