solid cylinder
  facet normal 0.751817 -0.659372 0
    outer loop
       vertex 0.196039 -0.176776 0
       vertex 0.217601 -0.152191 0
       vertex 0.217601 -0.152191 0.1
    endloop
  endfacet
  facet normal 0.751817 -0.659372 0
    outer loop
       vertex 0.217601 -0.152191 0.1
       vertex 0.196039 -0.176776 0.1
       vertex 0.196039 -0.176776 0
    endloop
  endfacet
  facet normal 0.831476 -0.555561 0
    outer loop
       vertex 0.217601 -0.152191 0
       vertex 0.235769 -0.125 0
       vertex 0.235769 -0.125 0.1
    endloop
  endfacet
  facet normal 0.831476 -0.555561 0
    outer loop
       vertex 0.235769 -0.125 0.1
       vertex 0.217601 -0.152191 0.1
       vertex 0.217601 -0.152191 0
    endloop
  endfacet
  facet normal 0.896866 -0.442302 0
    outer loop
       vertex 0.235769 -0.125 0
       vertex 0.250233 -0.095671 0
       vertex 0.250233 -0.095671 0.1
    endloop
  endfacet
  facet normal 0.896866 -0.442302 0
    outer loop
       vertex 0.250233 -0.095671 0.1
       vertex 0.235769 -0.125 0.1
       vertex 0.235769 -0.125 0
    endloop
  endfacet
  facet normal 0.946935 -0.321425 0
    outer loop
       vertex 0.250233 -0.095671 0
       vertex 0.260744 -0.064705 0
       vertex 0.260744 -0.064705 0.1
    endloop
  endfacet
  facet normal 0.946935 -0.321425 0
    outer loop
       vertex 0.260744 -0.064705 0.1
       vertex 0.250233 -0.095671 0.1
       vertex 0.250233 -0.095671 0
    endloop
  endfacet
  facet normal 0.980784 -0.195096 0
    outer loop
       vertex 0.260744 -0.064705 0
       vertex 0.267124 -0.0326315 0
       vertex 0.267124 -0.0326315 0.1
    endloop
  endfacet
  facet normal 0.980784 -0.195096 0
    outer loop
       vertex 0.267124 -0.0326315 0.1
       vertex 0.260744 -0.064705 0.1
       vertex 0.260744 -0.064705 0
    endloop
  endfacet
  facet normal 0.997858 -0.0654098 0
    outer loop
       vertex 0.269263 -8.32665e-17 0.1
       vertex 0.267124 -0.0326315 0.1
       vertex 0.267124 -0.0326315 0
    endloop
  endfacet
  facet normal 0.997858 -0.0654098 -1.08928e-16
    outer loop
       vertex 0.267124 -0.0326315 0
       vertex 0.269263 8.32665e-17 0
       vertex 0.269263 -8.32665e-17 0.1
    endloop
  endfacet
  facet normal 0.997858 0.0654098 0
    outer loop
       vertex 0.269263 8.32665e-17 0
       vertex 0.267124 0.0326315 0
       vertex 0.267124 0.0326315 0.1
    endloop
  endfacet
  facet normal 0.997858 0.0654098 1.08928e-16
    outer loop
       vertex 0.267124 0.0326315 0.1
       vertex 0.269263 -8.32665e-17 0.1
       vertex 0.269263 8.32665e-17 0
    endloop
  endfacet
  facet normal 0.980784 0.195096 0
    outer loop
       vertex 0.267124 0.0326315 0
       vertex 0.260744 0.064705 0
       vertex 0.260744 0.064705 0.1
    endloop
  endfacet
  facet normal 0.980784 0.195096 0
    outer loop
       vertex 0.260744 0.064705 0.1
       vertex 0.267124 0.0326315 0.1
       vertex 0.267124 0.0326315 0
    endloop
  endfacet
  facet normal 0.946935 0.321425 0
    outer loop
       vertex 0.260744 0.064705 0
       vertex 0.250233 0.095671 0
       vertex 0.250233 0.095671 0.1
    endloop
  endfacet
  facet normal 0.946935 0.321425 0
    outer loop
       vertex 0.250233 0.095671 0.1
       vertex 0.260744 0.064705 0.1
       vertex 0.260744 0.064705 0
    endloop
  endfacet
  facet normal 0.896866 0.442302 0
    outer loop
       vertex 0.250233 0.095671 0
       vertex 0.235769 0.125 0
       vertex 0.235769 0.125 0.1
    endloop
  endfacet
  facet normal 0.896866 0.442302 0
    outer loop
       vertex 0.235769 0.125 0.1
       vertex 0.250233 0.095671 0.1
       vertex 0.250233 0.095671 0
    endloop
  endfacet
  facet normal 0.831476 0.555561 0
    outer loop
       vertex 0.235769 0.125 0
       vertex 0.217601 0.152191 0
       vertex 0.217601 0.152191 0.1
    endloop
  endfacet
  facet normal 0.831476 0.555561 0
    outer loop
       vertex 0.217601 0.152191 0.1
       vertex 0.235769 0.125 0.1
       vertex 0.235769 0.125 0
    endloop
  endfacet
  facet normal 0.751817 0.659372 0
    outer loop
       vertex 0.217601 0.152191 0
       vertex 0.196039 0.176776 0
       vertex 0.196039 0.176776 0.1
    endloop
  endfacet
  facet normal 0.751817 0.659372 0
    outer loop
       vertex 0.196039 0.176776 0.1
       vertex 0.217601 0.152191 0.1
       vertex 0.217601 0.152191 0
    endloop
  endfacet
  facet normal 0.659372 0.751817 0
    outer loop
       vertex 0.196039 0.176776 0
       vertex 0.171454 0.198338 0
       vertex 0.171454 0.198338 0.1
    endloop
  endfacet
  facet normal 0.659372 0.751817 0
    outer loop
       vertex 0.171454 0.198338 0.1
       vertex 0.196039 0.176776 0.1
       vertex 0.196039 0.176776 0
    endloop
  endfacet
  facet normal 0.555561 0.831476 0
    outer loop
       vertex 0.171454 0.198338 0
       vertex 0.144263 0.216506 0
       vertex 0.144263 0.216506 0.1
    endloop
  endfacet
  facet normal 0.555561 0.831476 0
    outer loop
       vertex 0.144263 0.216506 0.1
       vertex 0.171454 0.198338 0.1
       vertex 0.171454 0.198338 0
    endloop
  endfacet
  facet normal 0.442302 0.896866 0
    outer loop
       vertex 0.144263 0.216506 0
       vertex 0.114934 0.23097 0
       vertex 0.114934 0.23097 0.1
    endloop
  endfacet
  facet normal 0.442302 0.896866 0
    outer loop
       vertex 0.114934 0.23097 0.1
       vertex 0.144263 0.216506 0.1
       vertex 0.144263 0.216506 0
    endloop
  endfacet
  facet normal 0.321425 0.946935 0
    outer loop
       vertex 0.114934 0.23097 0
       vertex 0.0839681 0.241481 0
       vertex 0.0839681 0.241481 0.1
    endloop
  endfacet
  facet normal 0.321425 0.946935 0
    outer loop
       vertex 0.0839681 0.241481 0.1
       vertex 0.114934 0.23097 0.1
       vertex 0.114934 0.23097 0
    endloop
  endfacet
  facet normal 0.195096 0.980784 0
    outer loop
       vertex 0.0839681 0.241481 0
       vertex 0.0518946 0.247861 0
       vertex 0.0518946 0.247861 0.1
    endloop
  endfacet
  facet normal 0.195096 0.980784 0
    outer loop
       vertex 0.0518946 0.247861 0.1
       vertex 0.0839681 0.241481 0.1
       vertex 0.0839681 0.241481 0
    endloop
  endfacet
  facet normal 0.0654098 0.997858 0
    outer loop
       vertex 0.0192631 0.25 0.1
       vertex 0.0518946 0.247861 0.1
       vertex 0.0518946 0.247861 0
    endloop
  endfacet
  facet normal 0.0654098 0.997858 -1.08928e-16
    outer loop
       vertex 0.0518946 0.247861 0
       vertex 0.0192631 0.25 0
       vertex 0.0192631 0.25 0.1
    endloop
  endfacet
  facet normal -0.0654098 0.997858 0
    outer loop
       vertex 0.0192631 0.25 0
       vertex -0.0133684 0.247861 0
       vertex -0.0133684 0.247861 0.1
    endloop
  endfacet
  facet normal -0.0654098 0.997858 1.08928e-16
    outer loop
       vertex -0.0133684 0.247861 0.1
       vertex 0.0192631 0.25 0.1
       vertex 0.0192631 0.25 0
    endloop
  endfacet
  facet normal -0.195096 0.980784 0
    outer loop
       vertex -0.0133684 0.247861 0
       vertex -0.0454419 0.241481 0
       vertex -0.0454419 0.241481 0.1
    endloop
  endfacet
  facet normal -0.195096 0.980784 0
    outer loop
       vertex -0.0454419 0.241481 0.1
       vertex -0.0133684 0.247861 0.1
       vertex -0.0133684 0.247861 0
    endloop
  endfacet
  facet normal -0.321425 0.946935 0
    outer loop
       vertex -0.0454419 0.241481 0
       vertex -0.0764079 0.23097 0
       vertex -0.0764079 0.23097 0.1
    endloop
  endfacet
  facet normal -0.321425 0.946935 0
    outer loop
       vertex -0.0764079 0.23097 0.1
       vertex -0.0454419 0.241481 0.1
       vertex -0.0454419 0.241481 0
    endloop
  endfacet
  facet normal -0.442302 0.896866 0
    outer loop
       vertex -0.0764079 0.23097 0
       vertex -0.105737 0.216506 0
       vertex -0.105737 0.216506 0.1
    endloop
  endfacet
  facet normal -0.442302 0.896866 0
    outer loop
       vertex -0.105737 0.216506 0.1
       vertex -0.0764079 0.23097 0.1
       vertex -0.0764079 0.23097 0
    endloop
  endfacet
  facet normal -0.555561 0.831476 0
    outer loop
       vertex -0.105737 0.216506 0
       vertex -0.132928 0.198338 0
       vertex -0.132928 0.198338 0.1
    endloop
  endfacet
  facet normal -0.555561 0.831476 0
    outer loop
       vertex -0.132928 0.198338 0.1
       vertex -0.105737 0.216506 0.1
       vertex -0.105737 0.216506 0
    endloop
  endfacet
  facet normal -0.659372 0.751817 0
    outer loop
       vertex -0.132928 0.198338 0
       vertex -0.157513 0.176776 0
       vertex -0.157513 0.176776 0.1
    endloop
  endfacet
  facet normal -0.659372 0.751817 0
    outer loop
       vertex -0.157513 0.176776 0.1
       vertex -0.132928 0.198338 0.1
       vertex -0.132928 0.198338 0
    endloop
  endfacet
  facet normal -0.751817 0.659372 0
    outer loop
       vertex -0.157513 0.176776 0
       vertex -0.179075 0.152191 0
       vertex -0.179075 0.152191 0.1
    endloop
  endfacet
  facet normal -0.751817 0.659372 0
    outer loop
       vertex -0.179075 0.152191 0.1
       vertex -0.157513 0.176776 0.1
       vertex -0.157513 0.176776 0
    endloop
  endfacet
  facet normal -0.831476 0.555561 0
    outer loop
       vertex -0.179075 0.152191 0
       vertex -0.197243 0.125 0
       vertex -0.197243 0.125 0.1
    endloop
  endfacet
  facet normal -0.831476 0.555561 0
    outer loop
       vertex -0.197243 0.125 0.1
       vertex -0.179075 0.152191 0.1
       vertex -0.179075 0.152191 0
    endloop
  endfacet
  facet normal -0.896866 0.442302 0
    outer loop
       vertex -0.197243 0.125 0
       vertex -0.211707 0.095671 0
       vertex -0.211707 0.095671 0.1
    endloop
  endfacet
  facet normal -0.896866 0.442302 0
    outer loop
       vertex -0.211707 0.095671 0.1
       vertex -0.197243 0.125 0.1
       vertex -0.197243 0.125 0
    endloop
  endfacet
  facet normal -0.946935 0.321425 0
    outer loop
       vertex -0.211707 0.095671 0
       vertex -0.222218 0.064705 0
       vertex -0.222218 0.064705 0.1
    endloop
  endfacet
  facet normal -0.946935 0.321425 0
    outer loop
       vertex -0.222218 0.064705 0.1
       vertex -0.211707 0.095671 0.1
       vertex -0.211707 0.095671 0
    endloop
  endfacet
  facet normal -0.980784 0.195096 0
    outer loop
       vertex -0.222218 0.064705 0
       vertex -0.228598 0.0326315 0
       vertex -0.228598 0.0326315 0.1
    endloop
  endfacet
  facet normal -0.980784 0.195096 0
    outer loop
       vertex -0.228598 0.0326315 0.1
       vertex -0.222218 0.064705 0.1
       vertex -0.222218 0.064705 0
    endloop
  endfacet
  facet normal -0.997858 0.0654098 0
    outer loop
       vertex -0.230737 8.32665e-17 0.1
       vertex -0.228598 0.0326315 0.1
       vertex -0.228598 0.0326315 0
    endloop
  endfacet
  facet normal -0.997858 0.0654098 -1.08928e-16
    outer loop
       vertex -0.228598 0.0326315 0
       vertex -0.230737 -8.32665e-17 0
       vertex -0.230737 8.32665e-17 0.1
    endloop
  endfacet
  facet normal -0.997858 -0.0654098 0
    outer loop
       vertex -0.230737 -8.32665e-17 0
       vertex -0.228598 -0.0326315 0
       vertex -0.228598 -0.0326315 0.1
    endloop
  endfacet
  facet normal -0.997858 -0.0654098 1.08928e-16
    outer loop
       vertex -0.228598 -0.0326315 0.1
       vertex -0.230737 8.32665e-17 0.1
       vertex -0.230737 -8.32665e-17 0
    endloop
  endfacet
  facet normal -0.980784 -0.195096 0
    outer loop
       vertex -0.228598 -0.0326315 0
       vertex -0.222218 -0.064705 0
       vertex -0.222218 -0.064705 0.1
    endloop
  endfacet
  facet normal -0.980784 -0.195096 0
    outer loop
       vertex -0.222218 -0.064705 0.1
       vertex -0.228598 -0.0326315 0.1
       vertex -0.228598 -0.0326315 0
    endloop
  endfacet
  facet normal -0.946935 -0.321425 0
    outer loop
       vertex -0.222218 -0.064705 0
       vertex -0.211707 -0.095671 0
       vertex -0.211707 -0.095671 0.1
    endloop
  endfacet
  facet normal -0.946935 -0.321425 0
    outer loop
       vertex -0.211707 -0.095671 0.1
       vertex -0.222218 -0.064705 0.1
       vertex -0.222218 -0.064705 0
    endloop
  endfacet
  facet normal -0.896866 -0.442302 0
    outer loop
       vertex -0.211707 -0.095671 0
       vertex -0.197243 -0.125 0
       vertex -0.197243 -0.125 0.1
    endloop
  endfacet
  facet normal -0.896866 -0.442302 0
    outer loop
       vertex -0.197243 -0.125 0.1
       vertex -0.211707 -0.095671 0.1
       vertex -0.211707 -0.095671 0
    endloop
  endfacet
  facet normal -0.831476 -0.555561 0
    outer loop
       vertex -0.197243 -0.125 0
       vertex -0.179075 -0.152191 0
       vertex -0.179075 -0.152191 0.1
    endloop
  endfacet
  facet normal -0.831476 -0.555561 0
    outer loop
       vertex -0.179075 -0.152191 0.1
       vertex -0.197243 -0.125 0.1
       vertex -0.197243 -0.125 0
    endloop
  endfacet
  facet normal -0.751817 -0.659372 0
    outer loop
       vertex -0.179075 -0.152191 0
       vertex -0.157513 -0.176776 0
       vertex -0.157513 -0.176776 0.1
    endloop
  endfacet
  facet normal -0.751817 -0.659372 0
    outer loop
       vertex -0.157513 -0.176776 0.1
       vertex -0.179075 -0.152191 0.1
       vertex -0.179075 -0.152191 0
    endloop
  endfacet
  facet normal 0.659372 -0.751817 0
    outer loop
       vertex 0.196039 -0.176776 0
       vertex 0.196039 -0.176776 0.1
       vertex 0.171454 -0.198338 0.1
    endloop
  endfacet
  facet normal 0.659372 -0.751817 0
    outer loop
       vertex 0.171454 -0.198338 0.1
       vertex 0.171454 -0.198338 0
       vertex 0.196039 -0.176776 0
    endloop
  endfacet
  facet normal 0.555561 -0.831476 0
    outer loop
       vertex 0.171454 -0.198338 0
       vertex 0.171454 -0.198338 0.1
       vertex 0.144263 -0.216506 0.1
    endloop
  endfacet
  facet normal 0.555561 -0.831476 0
    outer loop
       vertex 0.144263 -0.216506 0.1
       vertex 0.144263 -0.216506 0
       vertex 0.171454 -0.198338 0
    endloop
  endfacet
  facet normal 0.442302 -0.896866 0
    outer loop
       vertex 0.144263 -0.216506 0
       vertex 0.144263 -0.216506 0.1
       vertex 0.114934 -0.23097 0.1
    endloop
  endfacet
  facet normal 0.442302 -0.896866 0
    outer loop
       vertex 0.114934 -0.23097 0.1
       vertex 0.114934 -0.23097 0
       vertex 0.144263 -0.216506 0
    endloop
  endfacet
  facet normal 0.321425 -0.946935 0
    outer loop
       vertex 0.114934 -0.23097 0
       vertex 0.114934 -0.23097 0.1
       vertex 0.0839681 -0.241481 0.1
    endloop
  endfacet
  facet normal 0.321425 -0.946935 0
    outer loop
       vertex 0.0839681 -0.241481 0.1
       vertex 0.0839681 -0.241481 0
       vertex 0.114934 -0.23097 0
    endloop
  endfacet
  facet normal 0.195096 -0.980784 0
    outer loop
       vertex 0.0839681 -0.241481 0
       vertex 0.0839681 -0.241481 0.1
       vertex 0.0518946 -0.247861 0.1
    endloop
  endfacet
  facet normal 0.195096 -0.980784 0
    outer loop
       vertex 0.0518946 -0.247861 0.1
       vertex 0.0518946 -0.247861 0
       vertex 0.0839681 -0.241481 0
    endloop
  endfacet
  facet normal 0.0654098 -0.997858 0
    outer loop
       vertex 0.0192631 -0.25 0
       vertex 0.0518946 -0.247861 0
       vertex 0.0518946 -0.247861 0.1
    endloop
  endfacet
  facet normal 0.0654098 -0.997858 1.08928e-16
    outer loop
       vertex 0.0518946 -0.247861 0.1
       vertex 0.0192631 -0.25 0.1
       vertex 0.0192631 -0.25 0
    endloop
  endfacet
  facet normal -0.0654098 -0.997858 0
    outer loop
       vertex 0.0192631 -0.25 0.1
       vertex -0.0133684 -0.247861 0.1
       vertex -0.0133684 -0.247861 0
    endloop
  endfacet
  facet normal -0.0654098 -0.997858 -1.08928e-16
    outer loop
       vertex -0.0133684 -0.247861 0
       vertex 0.0192631 -0.25 0
       vertex 0.0192631 -0.25 0.1
    endloop
  endfacet
  facet normal -0.195096 -0.980784 0
    outer loop
       vertex -0.0133684 -0.247861 0
       vertex -0.0133684 -0.247861 0.1
       vertex -0.0454419 -0.241481 0.1
    endloop
  endfacet
  facet normal -0.195096 -0.980784 -0
    outer loop
       vertex -0.0454419 -0.241481 0.1
       vertex -0.0454419 -0.241481 0
       vertex -0.0133684 -0.247861 0
    endloop
  endfacet
  facet normal -0.321425 -0.946935 0
    outer loop
       vertex -0.0454419 -0.241481 0
       vertex -0.0454419 -0.241481 0.1
       vertex -0.0764079 -0.23097 0.1
    endloop
  endfacet
  facet normal -0.321425 -0.946935 -0
    outer loop
       vertex -0.0764079 -0.23097 0.1
       vertex -0.0764079 -0.23097 0
       vertex -0.0454419 -0.241481 0
    endloop
  endfacet
  facet normal -0.442302 -0.896866 0
    outer loop
       vertex -0.0764079 -0.23097 0
       vertex -0.0764079 -0.23097 0.1
       vertex -0.105737 -0.216506 0.1
    endloop
  endfacet
  facet normal -0.442302 -0.896866 -0
    outer loop
       vertex -0.105737 -0.216506 0.1
       vertex -0.105737 -0.216506 0
       vertex -0.0764079 -0.23097 0
    endloop
  endfacet
  facet normal -0.555561 -0.831476 0
    outer loop
       vertex -0.105737 -0.216506 0
       vertex -0.105737 -0.216506 0.1
       vertex -0.132928 -0.198338 0.1
    endloop
  endfacet
  facet normal -0.555561 -0.831476 -0
    outer loop
       vertex -0.132928 -0.198338 0.1
       vertex -0.132928 -0.198338 0
       vertex -0.105737 -0.216506 0
    endloop
  endfacet
  facet normal -0.659372 -0.751817 0
    outer loop
       vertex -0.132928 -0.198338 0
       vertex -0.132928 -0.198338 0.1
       vertex -0.157513 -0.176776 0.1
    endloop
  endfacet
  facet normal -0.659372 -0.751817 -0
    outer loop
       vertex -0.157513 -0.176776 0.1
       vertex -0.157513 -0.176776 0
       vertex -0.132928 -0.198338 0
    endloop
  endfacet
endsolid cylinder
