solid cylinder
  facet normal 0.751817 -0.659372 0
    outer loop
       vertex 0.0832615 -0.176776 0
       vertex 0.104824 -0.152191 0
       vertex 0.104824 -0.152191 0.1
    endloop
  endfacet
  facet normal 0.751817 -0.659372 0
    outer loop
       vertex 0.104824 -0.152191 0.1
       vertex 0.0832615 -0.176776 0.1
       vertex 0.0832615 -0.176776 0
    endloop
  endfacet
  facet normal 0.831476 -0.555561 0
    outer loop
       vertex 0.104824 -0.152191 0
       vertex 0.122992 -0.125 0
       vertex 0.122992 -0.125 0.1
    endloop
  endfacet
  facet normal 0.831476 -0.555561 0
    outer loop
       vertex 0.122992 -0.125 0.1
       vertex 0.104824 -0.152191 0.1
       vertex 0.104824 -0.152191 0
    endloop
  endfacet
  facet normal 0.896866 -0.442302 0
    outer loop
       vertex 0.122992 -0.125 0
       vertex 0.137456 -0.095671 0
       vertex 0.137456 -0.095671 0.1
    endloop
  endfacet
  facet normal 0.896866 -0.442302 0
    outer loop
       vertex 0.137456 -0.095671 0.1
       vertex 0.122992 -0.125 0.1
       vertex 0.122992 -0.125 0
    endloop
  endfacet
  facet normal 0.946935 -0.321425 0
    outer loop
       vertex 0.137456 -0.095671 0
       vertex 0.147967 -0.064705 0
       vertex 0.147967 -0.064705 0.1
    endloop
  endfacet
  facet normal 0.946935 -0.321425 0
    outer loop
       vertex 0.147967 -0.064705 0.1
       vertex 0.137456 -0.095671 0.1
       vertex 0.137456 -0.095671 0
    endloop
  endfacet
  facet normal 0.980784 -0.195096 0
    outer loop
       vertex 0.147967 -0.064705 0
       vertex 0.154347 -0.0326315 0
       vertex 0.154347 -0.0326315 0.1
    endloop
  endfacet
  facet normal 0.980784 -0.195096 0
    outer loop
       vertex 0.154347 -0.0326315 0.1
       vertex 0.147967 -0.064705 0.1
       vertex 0.147967 -0.064705 0
    endloop
  endfacet
  facet normal 0.997858 -0.0654098 0
    outer loop
       vertex 0.156486 -8.32665e-17 0.1
       vertex 0.154347 -0.0326315 0.1
       vertex 0.154347 -0.0326315 0
    endloop
  endfacet
  facet normal 0.997858 -0.0654098 -1.08928e-16
    outer loop
       vertex 0.154347 -0.0326315 0
       vertex 0.156486 8.32665e-17 0
       vertex 0.156486 -8.32665e-17 0.1
    endloop
  endfacet
  facet normal 0.997858 0.0654098 0
    outer loop
       vertex 0.156486 8.32665e-17 0
       vertex 0.154347 0.0326315 0
       vertex 0.154347 0.0326315 0.1
    endloop
  endfacet
  facet normal 0.997858 0.0654098 1.08928e-16
    outer loop
       vertex 0.154347 0.0326315 0.1
       vertex 0.156486 -8.32665e-17 0.1
       vertex 0.156486 8.32665e-17 0
    endloop
  endfacet
  facet normal 0.980784 0.195096 0
    outer loop
       vertex 0.154347 0.0326315 0
       vertex 0.147967 0.064705 0
       vertex 0.147967 0.064705 0.1
    endloop
  endfacet
  facet normal 0.980784 0.195096 0
    outer loop
       vertex 0.147967 0.064705 0.1
       vertex 0.154347 0.0326315 0.1
       vertex 0.154347 0.0326315 0
    endloop
  endfacet
  facet normal 0.946935 0.321425 0
    outer loop
       vertex 0.147967 0.064705 0
       vertex 0.137456 0.095671 0
       vertex 0.137456 0.095671 0.1
    endloop
  endfacet
  facet normal 0.946935 0.321425 0
    outer loop
       vertex 0.137456 0.095671 0.1
       vertex 0.147967 0.064705 0.1
       vertex 0.147967 0.064705 0
    endloop
  endfacet
  facet normal 0.896866 0.442302 0
    outer loop
       vertex 0.137456 0.095671 0
       vertex 0.122992 0.125 0
       vertex 0.122992 0.125 0.1
    endloop
  endfacet
  facet normal 0.896866 0.442302 0
    outer loop
       vertex 0.122992 0.125 0.1
       vertex 0.137456 0.095671 0.1
       vertex 0.137456 0.095671 0
    endloop
  endfacet
  facet normal 0.831476 0.555561 0
    outer loop
       vertex 0.122992 0.125 0
       vertex 0.104824 0.152191 0
       vertex 0.104824 0.152191 0.1
    endloop
  endfacet
  facet normal 0.831476 0.555561 0
    outer loop
       vertex 0.104824 0.152191 0.1
       vertex 0.122992 0.125 0.1
       vertex 0.122992 0.125 0
    endloop
  endfacet
  facet normal 0.751817 0.659372 0
    outer loop
       vertex 0.104824 0.152191 0
       vertex 0.0832615 0.176776 0
       vertex 0.0832615 0.176776 0.1
    endloop
  endfacet
  facet normal 0.751817 0.659372 0
    outer loop
       vertex 0.0832615 0.176776 0.1
       vertex 0.104824 0.152191 0.1
       vertex 0.104824 0.152191 0
    endloop
  endfacet
  facet normal 0.659372 0.751817 0
    outer loop
       vertex 0.0832615 0.176776 0
       vertex 0.0586765 0.198338 0
       vertex 0.0586765 0.198338 0.1
    endloop
  endfacet
  facet normal 0.659372 0.751817 0
    outer loop
       vertex 0.0586765 0.198338 0.1
       vertex 0.0832615 0.176776 0.1
       vertex 0.0832615 0.176776 0
    endloop
  endfacet
  facet normal 0.555561 0.831476 0
    outer loop
       vertex 0.0586765 0.198338 0
       vertex 0.0314855 0.216506 0
       vertex 0.0314855 0.216506 0.1
    endloop
  endfacet
  facet normal 0.555561 0.831476 0
    outer loop
       vertex 0.0314855 0.216506 0.1
       vertex 0.0586765 0.198338 0.1
       vertex 0.0586765 0.198338 0
    endloop
  endfacet
  facet normal 0.442302 0.896866 0
    outer loop
       vertex 0.0314855 0.216506 0
       vertex 0.00215655 0.23097 0
       vertex 0.00215655 0.23097 0.1
    endloop
  endfacet
  facet normal 0.442302 0.896866 0
    outer loop
       vertex 0.00215655 0.23097 0.1
       vertex 0.0314855 0.216506 0.1
       vertex 0.0314855 0.216506 0
    endloop
  endfacet
  facet normal 0.321425 0.946935 0
    outer loop
       vertex 0.00215655 0.23097 0
       vertex -0.0288095 0.241481 0
       vertex -0.0288095 0.241481 0.1
    endloop
  endfacet
  facet normal 0.321425 0.946935 0
    outer loop
       vertex -0.0288095 0.241481 0.1
       vertex 0.00215655 0.23097 0.1
       vertex 0.00215655 0.23097 0
    endloop
  endfacet
  facet normal 0.195096 0.980784 0
    outer loop
       vertex -0.0288095 0.241481 0
       vertex -0.060883 0.247861 0
       vertex -0.060883 0.247861 0.1
    endloop
  endfacet
  facet normal 0.195096 0.980784 0
    outer loop
       vertex -0.060883 0.247861 0.1
       vertex -0.0288095 0.241481 0.1
       vertex -0.0288095 0.241481 0
    endloop
  endfacet
  facet normal 0.0654098 0.997858 0
    outer loop
       vertex -0.0935145 0.25 0.1
       vertex -0.060883 0.247861 0.1
       vertex -0.060883 0.247861 0
    endloop
  endfacet
  facet normal 0.0654098 0.997858 -1.08928e-16
    outer loop
       vertex -0.060883 0.247861 0
       vertex -0.0935145 0.25 0
       vertex -0.0935145 0.25 0.1
    endloop
  endfacet
  facet normal -0.0654098 0.997858 0
    outer loop
       vertex -0.0935145 0.25 0
       vertex -0.126146 0.247861 0
       vertex -0.126146 0.247861 0.1
    endloop
  endfacet
  facet normal -0.0654098 0.997858 1.0893e-16
    outer loop
       vertex -0.126146 0.247861 0.1
       vertex -0.0935145 0.25 0.1
       vertex -0.0935145 0.25 0
    endloop
  endfacet
  facet normal -0.195096 0.980784 0
    outer loop
       vertex -0.126146 0.247861 0
       vertex -0.158219 0.241481 0
       vertex -0.158219 0.241481 0.1
    endloop
  endfacet
  facet normal -0.195096 0.980784 0
    outer loop
       vertex -0.158219 0.241481 0.1
       vertex -0.126146 0.247861 0.1
       vertex -0.126146 0.247861 0
    endloop
  endfacet
  facet normal -0.321425 0.946935 0
    outer loop
       vertex -0.158219 0.241481 0
       vertex -0.189185 0.23097 0
       vertex -0.189185 0.23097 0.1
    endloop
  endfacet
  facet normal -0.321425 0.946935 0
    outer loop
       vertex -0.189185 0.23097 0.1
       vertex -0.158219 0.241481 0.1
       vertex -0.158219 0.241481 0
    endloop
  endfacet
  facet normal -0.442302 0.896866 0
    outer loop
       vertex -0.189185 0.23097 0
       vertex -0.218514 0.216506 0
       vertex -0.218514 0.216506 0.1
    endloop
  endfacet
  facet normal -0.442302 0.896866 0
    outer loop
       vertex -0.218514 0.216506 0.1
       vertex -0.189185 0.23097 0.1
       vertex -0.189185 0.23097 0
    endloop
  endfacet
  facet normal -0.555561 0.831476 0
    outer loop
       vertex -0.218514 0.216506 0
       vertex -0.245705 0.198338 0
       vertex -0.245705 0.198338 0.1
    endloop
  endfacet
  facet normal -0.555561 0.831476 0
    outer loop
       vertex -0.245705 0.198338 0.1
       vertex -0.218514 0.216506 0.1
       vertex -0.218514 0.216506 0
    endloop
  endfacet
  facet normal -0.659372 0.751817 0
    outer loop
       vertex -0.245705 0.198338 0
       vertex -0.27029 0.176776 0
       vertex -0.27029 0.176776 0.1
    endloop
  endfacet
  facet normal -0.659372 0.751817 0
    outer loop
       vertex -0.27029 0.176776 0.1
       vertex -0.245705 0.198338 0.1
       vertex -0.245705 0.198338 0
    endloop
  endfacet
  facet normal -0.751817 0.659372 0
    outer loop
       vertex -0.27029 0.176776 0
       vertex -0.291852 0.152191 0
       vertex -0.291852 0.152191 0.1
    endloop
  endfacet
  facet normal -0.751817 0.659372 0
    outer loop
       vertex -0.291852 0.152191 0.1
       vertex -0.27029 0.176776 0.1
       vertex -0.27029 0.176776 0
    endloop
  endfacet
  facet normal -0.831476 0.555561 0
    outer loop
       vertex -0.291852 0.152191 0
       vertex -0.31002 0.125 0
       vertex -0.31002 0.125 0.1
    endloop
  endfacet
  facet normal -0.831476 0.555561 0
    outer loop
       vertex -0.31002 0.125 0.1
       vertex -0.291852 0.152191 0.1
       vertex -0.291852 0.152191 0
    endloop
  endfacet
  facet normal -0.896866 0.442302 0
    outer loop
       vertex -0.31002 0.125 0
       vertex -0.324484 0.095671 0
       vertex -0.324484 0.095671 0.1
    endloop
  endfacet
  facet normal -0.896866 0.442302 0
    outer loop
       vertex -0.324484 0.095671 0.1
       vertex -0.31002 0.125 0.1
       vertex -0.31002 0.125 0
    endloop
  endfacet
  facet normal -0.946935 0.321425 0
    outer loop
       vertex -0.324484 0.095671 0
       vertex -0.334995 0.064705 0
       vertex -0.334995 0.064705 0.1
    endloop
  endfacet
  facet normal -0.946935 0.321425 0
    outer loop
       vertex -0.334995 0.064705 0.1
       vertex -0.324484 0.095671 0.1
       vertex -0.324484 0.095671 0
    endloop
  endfacet
  facet normal -0.980784 0.195096 0
    outer loop
       vertex -0.334995 0.064705 0
       vertex -0.341375 0.0326315 0
       vertex -0.341375 0.0326315 0.1
    endloop
  endfacet
  facet normal -0.980784 0.195096 0
    outer loop
       vertex -0.341375 0.0326315 0.1
       vertex -0.334995 0.064705 0.1
       vertex -0.334995 0.064705 0
    endloop
  endfacet
  facet normal -0.997858 0.0654098 0
    outer loop
       vertex -0.343514 8.32665e-17 0.1
       vertex -0.341375 0.0326315 0.1
       vertex -0.341375 0.0326315 0
    endloop
  endfacet
  facet normal -0.997858 0.0654098 -1.08928e-16
    outer loop
       vertex -0.341375 0.0326315 0
       vertex -0.343514 -8.32665e-17 0
       vertex -0.343514 8.32665e-17 0.1
    endloop
  endfacet
  facet normal -0.997858 -0.0654098 0
    outer loop
       vertex -0.343514 -8.32665e-17 0
       vertex -0.341375 -0.0326315 0
       vertex -0.341375 -0.0326315 0.1
    endloop
  endfacet
  facet normal -0.997858 -0.0654098 1.08928e-16
    outer loop
       vertex -0.341375 -0.0326315 0.1
       vertex -0.343514 8.32665e-17 0.1
       vertex -0.343514 -8.32665e-17 0
    endloop
  endfacet
  facet normal -0.980784 -0.195096 0
    outer loop
       vertex -0.341375 -0.0326315 0
       vertex -0.334995 -0.064705 0
       vertex -0.334995 -0.064705 0.1
    endloop
  endfacet
  facet normal -0.980784 -0.195096 0
    outer loop
       vertex -0.334995 -0.064705 0.1
       vertex -0.341375 -0.0326315 0.1
       vertex -0.341375 -0.0326315 0
    endloop
  endfacet
  facet normal -0.946935 -0.321425 0
    outer loop
       vertex -0.334995 -0.064705 0
       vertex -0.324484 -0.095671 0
       vertex -0.324484 -0.095671 0.1
    endloop
  endfacet
  facet normal -0.946935 -0.321425 0
    outer loop
       vertex -0.324484 -0.095671 0.1
       vertex -0.334995 -0.064705 0.1
       vertex -0.334995 -0.064705 0
    endloop
  endfacet
  facet normal -0.896866 -0.442302 0
    outer loop
       vertex -0.324484 -0.095671 0
       vertex -0.31002 -0.125 0
       vertex -0.31002 -0.125 0.1
    endloop
  endfacet
  facet normal -0.896866 -0.442302 0
    outer loop
       vertex -0.31002 -0.125 0.1
       vertex -0.324484 -0.095671 0.1
       vertex -0.324484 -0.095671 0
    endloop
  endfacet
  facet normal -0.831476 -0.555561 0
    outer loop
       vertex -0.31002 -0.125 0
       vertex -0.291852 -0.152191 0
       vertex -0.291852 -0.152191 0.1
    endloop
  endfacet
  facet normal -0.831476 -0.555561 0
    outer loop
       vertex -0.291852 -0.152191 0.1
       vertex -0.31002 -0.125 0.1
       vertex -0.31002 -0.125 0
    endloop
  endfacet
  facet normal -0.751817 -0.659372 0
    outer loop
       vertex -0.291852 -0.152191 0
       vertex -0.27029 -0.176776 0
       vertex -0.27029 -0.176776 0.1
    endloop
  endfacet
  facet normal -0.751817 -0.659372 0
    outer loop
       vertex -0.27029 -0.176776 0.1
       vertex -0.291852 -0.152191 0.1
       vertex -0.291852 -0.152191 0
    endloop
  endfacet
  facet normal 0.659372 -0.751817 0
    outer loop
       vertex 0.0832615 -0.176776 0
       vertex 0.0832615 -0.176776 0.1
       vertex 0.0586765 -0.198338 0.1
    endloop
  endfacet
  facet normal 0.659372 -0.751817 0
    outer loop
       vertex 0.0586765 -0.198338 0.1
       vertex 0.0586765 -0.198338 0
       vertex 0.0832615 -0.176776 0
    endloop
  endfacet
  facet normal 0.555561 -0.831476 0
    outer loop
       vertex 0.0586765 -0.198338 0
       vertex 0.0586765 -0.198338 0.1
       vertex 0.0314855 -0.216506 0.1
    endloop
  endfacet
  facet normal 0.555561 -0.831476 0
    outer loop
       vertex 0.0314855 -0.216506 0.1
       vertex 0.0314855 -0.216506 0
       vertex 0.0586765 -0.198338 0
    endloop
  endfacet
  facet normal 0.442302 -0.896866 0
    outer loop
       vertex 0.0314855 -0.216506 0
       vertex 0.0314855 -0.216506 0.1
       vertex 0.00215655 -0.23097 0.1
    endloop
  endfacet
  facet normal 0.442302 -0.896866 0
    outer loop
       vertex 0.00215655 -0.23097 0.1
       vertex 0.00215655 -0.23097 0
       vertex 0.0314855 -0.216506 0
    endloop
  endfacet
  facet normal 0.321425 -0.946935 0
    outer loop
       vertex 0.00215655 -0.23097 0
       vertex 0.00215655 -0.23097 0.1
       vertex -0.0288095 -0.241481 0.1
    endloop
  endfacet
  facet normal 0.321425 -0.946935 0
    outer loop
       vertex -0.0288095 -0.241481 0.1
       vertex -0.0288095 -0.241481 0
       vertex 0.00215655 -0.23097 0
    endloop
  endfacet
  facet normal 0.195096 -0.980784 0
    outer loop
       vertex -0.0288095 -0.241481 0
       vertex -0.0288095 -0.241481 0.1
       vertex -0.060883 -0.247861 0.1
    endloop
  endfacet
  facet normal 0.195096 -0.980784 0
    outer loop
       vertex -0.060883 -0.247861 0.1
       vertex -0.060883 -0.247861 0
       vertex -0.0288095 -0.241481 0
    endloop
  endfacet
  facet normal 0.0654098 -0.997858 0
    outer loop
       vertex -0.0935145 -0.25 0
       vertex -0.060883 -0.247861 0
       vertex -0.060883 -0.247861 0.1
    endloop
  endfacet
  facet normal 0.0654098 -0.997858 1.08928e-16
    outer loop
       vertex -0.060883 -0.247861 0.1
       vertex -0.0935145 -0.25 0.1
       vertex -0.0935145 -0.25 0
    endloop
  endfacet
  facet normal -0.0654098 -0.997858 0
    outer loop
       vertex -0.0935145 -0.25 0.1
       vertex -0.126146 -0.247861 0.1
       vertex -0.126146 -0.247861 0
    endloop
  endfacet
  facet normal -0.0654098 -0.997858 -1.0893e-16
    outer loop
       vertex -0.126146 -0.247861 0
       vertex -0.0935145 -0.25 0
       vertex -0.0935145 -0.25 0.1
    endloop
  endfacet
  facet normal -0.195096 -0.980784 0
    outer loop
       vertex -0.126146 -0.247861 0
       vertex -0.126146 -0.247861 0.1
       vertex -0.158219 -0.241481 0.1
    endloop
  endfacet
  facet normal -0.195096 -0.980784 -0
    outer loop
       vertex -0.158219 -0.241481 0.1
       vertex -0.158219 -0.241481 0
       vertex -0.126146 -0.247861 0
    endloop
  endfacet
  facet normal -0.321425 -0.946935 0
    outer loop
       vertex -0.158219 -0.241481 0
       vertex -0.158219 -0.241481 0.1
       vertex -0.189185 -0.23097 0.1
    endloop
  endfacet
  facet normal -0.321425 -0.946935 -0
    outer loop
       vertex -0.189185 -0.23097 0.1
       vertex -0.189185 -0.23097 0
       vertex -0.158219 -0.241481 0
    endloop
  endfacet
  facet normal -0.442302 -0.896866 0
    outer loop
       vertex -0.189185 -0.23097 0
       vertex -0.189185 -0.23097 0.1
       vertex -0.218514 -0.216506 0.1
    endloop
  endfacet
  facet normal -0.442302 -0.896866 -0
    outer loop
       vertex -0.218514 -0.216506 0.1
       vertex -0.218514 -0.216506 0
       vertex -0.189185 -0.23097 0
    endloop
  endfacet
  facet normal -0.555561 -0.831476 0
    outer loop
       vertex -0.218514 -0.216506 0
       vertex -0.218514 -0.216506 0.1
       vertex -0.245705 -0.198338 0.1
    endloop
  endfacet
  facet normal -0.555561 -0.831476 -0
    outer loop
       vertex -0.245705 -0.198338 0.1
       vertex -0.245705 -0.198338 0
       vertex -0.218514 -0.216506 0
    endloop
  endfacet
  facet normal -0.659372 -0.751817 0
    outer loop
       vertex -0.245705 -0.198338 0
       vertex -0.245705 -0.198338 0.1
       vertex -0.27029 -0.176776 0.1
    endloop
  endfacet
  facet normal -0.659372 -0.751817 -0
    outer loop
       vertex -0.27029 -0.176776 0.1
       vertex -0.27029 -0.176776 0
       vertex -0.245705 -0.198338 0
    endloop
  endfacet
endsolid cylinder
