solid cylinder
  facet normal 0.751817 -0.659372 0
    outer loop
       vertex 0.20598 -0.176776 0
       vertex 0.227542 -0.152191 0
       vertex 0.227542 -0.152191 0.1
    endloop
  endfacet
  facet normal 0.751817 -0.659372 0
    outer loop
       vertex 0.227542 -0.152191 0.1
       vertex 0.20598 -0.176776 0.1
       vertex 0.20598 -0.176776 0
    endloop
  endfacet
  facet normal 0.831476 -0.555561 0
    outer loop
       vertex 0.227542 -0.152191 0
       vertex 0.24571 -0.125 0
       vertex 0.24571 -0.125 0.1
    endloop
  endfacet
  facet normal 0.831476 -0.555561 0
    outer loop
       vertex 0.24571 -0.125 0.1
       vertex 0.227542 -0.152191 0.1
       vertex 0.227542 -0.152191 0
    endloop
  endfacet
  facet normal 0.896866 -0.442302 0
    outer loop
       vertex 0.24571 -0.125 0
       vertex 0.260174 -0.095671 0
       vertex 0.260174 -0.095671 0.1
    endloop
  endfacet
  facet normal 0.896866 -0.442302 0
    outer loop
       vertex 0.260174 -0.095671 0.1
       vertex 0.24571 -0.125 0.1
       vertex 0.24571 -0.125 0
    endloop
  endfacet
  facet normal 0.946935 -0.321425 0
    outer loop
       vertex 0.260174 -0.095671 0
       vertex 0.270685 -0.064705 0
       vertex 0.270685 -0.064705 0.1
    endloop
  endfacet
  facet normal 0.946935 -0.321425 0
    outer loop
       vertex 0.270685 -0.064705 0.1
       vertex 0.260174 -0.095671 0.1
       vertex 0.260174 -0.095671 0
    endloop
  endfacet
  facet normal 0.980784 -0.195096 0
    outer loop
       vertex 0.270685 -0.064705 0
       vertex 0.277065 -0.0326315 0
       vertex 0.277065 -0.0326315 0.1
    endloop
  endfacet
  facet normal 0.980784 -0.195096 0
    outer loop
       vertex 0.277065 -0.0326315 0.1
       vertex 0.270685 -0.064705 0.1
       vertex 0.270685 -0.064705 0
    endloop
  endfacet
  facet normal 0.997858 -0.0654098 0
    outer loop
       vertex 0.279204 -8.32665e-17 0.1
       vertex 0.277065 -0.0326315 0.1
       vertex 0.277065 -0.0326315 0
    endloop
  endfacet
  facet normal 0.997858 -0.0654098 -1.08928e-16
    outer loop
       vertex 0.277065 -0.0326315 0
       vertex 0.279204 8.32665e-17 0
       vertex 0.279204 -8.32665e-17 0.1
    endloop
  endfacet
  facet normal 0.997858 0.0654098 0
    outer loop
       vertex 0.279204 8.32665e-17 0
       vertex 0.277065 0.0326315 0
       vertex 0.277065 0.0326315 0.1
    endloop
  endfacet
  facet normal 0.997858 0.0654098 1.08928e-16
    outer loop
       vertex 0.277065 0.0326315 0.1
       vertex 0.279204 -8.32665e-17 0.1
       vertex 0.279204 8.32665e-17 0
    endloop
  endfacet
  facet normal 0.980784 0.195096 0
    outer loop
       vertex 0.277065 0.0326315 0
       vertex 0.270685 0.064705 0
       vertex 0.270685 0.064705 0.1
    endloop
  endfacet
  facet normal 0.980784 0.195096 0
    outer loop
       vertex 0.270685 0.064705 0.1
       vertex 0.277065 0.0326315 0.1
       vertex 0.277065 0.0326315 0
    endloop
  endfacet
  facet normal 0.946935 0.321425 0
    outer loop
       vertex 0.270685 0.064705 0
       vertex 0.260174 0.095671 0
       vertex 0.260174 0.095671 0.1
    endloop
  endfacet
  facet normal 0.946935 0.321425 0
    outer loop
       vertex 0.260174 0.095671 0.1
       vertex 0.270685 0.064705 0.1
       vertex 0.270685 0.064705 0
    endloop
  endfacet
  facet normal 0.896866 0.442302 0
    outer loop
       vertex 0.260174 0.095671 0
       vertex 0.24571 0.125 0
       vertex 0.24571 0.125 0.1
    endloop
  endfacet
  facet normal 0.896866 0.442302 0
    outer loop
       vertex 0.24571 0.125 0.1
       vertex 0.260174 0.095671 0.1
       vertex 0.260174 0.095671 0
    endloop
  endfacet
  facet normal 0.831476 0.555561 0
    outer loop
       vertex 0.24571 0.125 0
       vertex 0.227542 0.152191 0
       vertex 0.227542 0.152191 0.1
    endloop
  endfacet
  facet normal 0.831476 0.555561 0
    outer loop
       vertex 0.227542 0.152191 0.1
       vertex 0.24571 0.125 0.1
       vertex 0.24571 0.125 0
    endloop
  endfacet
  facet normal 0.751817 0.659372 0
    outer loop
       vertex 0.227542 0.152191 0
       vertex 0.20598 0.176776 0
       vertex 0.20598 0.176776 0.1
    endloop
  endfacet
  facet normal 0.751817 0.659372 0
    outer loop
       vertex 0.20598 0.176776 0.1
       vertex 0.227542 0.152191 0.1
       vertex 0.227542 0.152191 0
    endloop
  endfacet
  facet normal 0.659372 0.751817 0
    outer loop
       vertex 0.20598 0.176776 0
       vertex 0.181395 0.198338 0
       vertex 0.181395 0.198338 0.1
    endloop
  endfacet
  facet normal 0.659372 0.751817 0
    outer loop
       vertex 0.181395 0.198338 0.1
       vertex 0.20598 0.176776 0.1
       vertex 0.20598 0.176776 0
    endloop
  endfacet
  facet normal 0.555561 0.831476 0
    outer loop
       vertex 0.181395 0.198338 0
       vertex 0.154204 0.216506 0
       vertex 0.154204 0.216506 0.1
    endloop
  endfacet
  facet normal 0.555561 0.831476 0
    outer loop
       vertex 0.154204 0.216506 0.1
       vertex 0.181395 0.198338 0.1
       vertex 0.181395 0.198338 0
    endloop
  endfacet
  facet normal 0.442302 0.896866 0
    outer loop
       vertex 0.154204 0.216506 0
       vertex 0.124875 0.23097 0
       vertex 0.124875 0.23097 0.1
    endloop
  endfacet
  facet normal 0.442302 0.896866 0
    outer loop
       vertex 0.124875 0.23097 0.1
       vertex 0.154204 0.216506 0.1
       vertex 0.154204 0.216506 0
    endloop
  endfacet
  facet normal 0.321425 0.946935 0
    outer loop
       vertex 0.124875 0.23097 0
       vertex 0.0939091 0.241481 0
       vertex 0.0939091 0.241481 0.1
    endloop
  endfacet
  facet normal 0.321425 0.946935 0
    outer loop
       vertex 0.0939091 0.241481 0.1
       vertex 0.124875 0.23097 0.1
       vertex 0.124875 0.23097 0
    endloop
  endfacet
  facet normal 0.195096 0.980784 0
    outer loop
       vertex 0.0939091 0.241481 0
       vertex 0.0618356 0.247861 0
       vertex 0.0618356 0.247861 0.1
    endloop
  endfacet
  facet normal 0.195096 0.980784 0
    outer loop
       vertex 0.0618356 0.247861 0.1
       vertex 0.0939091 0.241481 0.1
       vertex 0.0939091 0.241481 0
    endloop
  endfacet
  facet normal 0.0654098 0.997858 0
    outer loop
       vertex 0.0292041 0.25 0.1
       vertex 0.0618356 0.247861 0.1
       vertex 0.0618356 0.247861 0
    endloop
  endfacet
  facet normal 0.0654098 0.997858 -1.08928e-16
    outer loop
       vertex 0.0618356 0.247861 0
       vertex 0.0292041 0.25 0
       vertex 0.0292041 0.25 0.1
    endloop
  endfacet
  facet normal -0.0654098 0.997858 0
    outer loop
       vertex 0.0292041 0.25 0
       vertex -0.00342738 0.247861 0
       vertex -0.00342738 0.247861 0.1
    endloop
  endfacet
  facet normal -0.0654098 0.997858 1.08928e-16
    outer loop
       vertex -0.00342738 0.247861 0.1
       vertex 0.0292041 0.25 0.1
       vertex 0.0292041 0.25 0
    endloop
  endfacet
  facet normal -0.195096 0.980784 0
    outer loop
       vertex -0.00342738 0.247861 0
       vertex -0.0355009 0.241481 0
       vertex -0.0355009 0.241481 0.1
    endloop
  endfacet
  facet normal -0.195096 0.980784 0
    outer loop
       vertex -0.0355009 0.241481 0.1
       vertex -0.00342738 0.247861 0.1
       vertex -0.00342738 0.247861 0
    endloop
  endfacet
  facet normal -0.321425 0.946935 0
    outer loop
       vertex -0.0355009 0.241481 0
       vertex -0.0664669 0.23097 0
       vertex -0.0664669 0.23097 0.1
    endloop
  endfacet
  facet normal -0.321425 0.946935 0
    outer loop
       vertex -0.0664669 0.23097 0.1
       vertex -0.0355009 0.241481 0.1
       vertex -0.0355009 0.241481 0
    endloop
  endfacet
  facet normal -0.442302 0.896866 0
    outer loop
       vertex -0.0664669 0.23097 0
       vertex -0.0957959 0.216506 0
       vertex -0.0957959 0.216506 0.1
    endloop
  endfacet
  facet normal -0.442302 0.896866 0
    outer loop
       vertex -0.0957959 0.216506 0.1
       vertex -0.0664669 0.23097 0.1
       vertex -0.0664669 0.23097 0
    endloop
  endfacet
  facet normal -0.555561 0.831476 0
    outer loop
       vertex -0.0957959 0.216506 0
       vertex -0.122987 0.198338 0
       vertex -0.122987 0.198338 0.1
    endloop
  endfacet
  facet normal -0.555561 0.831476 0
    outer loop
       vertex -0.122987 0.198338 0.1
       vertex -0.0957959 0.216506 0.1
       vertex -0.0957959 0.216506 0
    endloop
  endfacet
  facet normal -0.659372 0.751817 0
    outer loop
       vertex -0.122987 0.198338 0
       vertex -0.147572 0.176776 0
       vertex -0.147572 0.176776 0.1
    endloop
  endfacet
  facet normal -0.659372 0.751817 0
    outer loop
       vertex -0.147572 0.176776 0.1
       vertex -0.122987 0.198338 0.1
       vertex -0.122987 0.198338 0
    endloop
  endfacet
  facet normal -0.751817 0.659372 0
    outer loop
       vertex -0.147572 0.176776 0
       vertex -0.169134 0.152191 0
       vertex -0.169134 0.152191 0.1
    endloop
  endfacet
  facet normal -0.751817 0.659372 0
    outer loop
       vertex -0.169134 0.152191 0.1
       vertex -0.147572 0.176776 0.1
       vertex -0.147572 0.176776 0
    endloop
  endfacet
  facet normal -0.831476 0.555561 0
    outer loop
       vertex -0.169134 0.152191 0
       vertex -0.187302 0.125 0
       vertex -0.187302 0.125 0.1
    endloop
  endfacet
  facet normal -0.831476 0.555561 0
    outer loop
       vertex -0.187302 0.125 0.1
       vertex -0.169134 0.152191 0.1
       vertex -0.169134 0.152191 0
    endloop
  endfacet
  facet normal -0.896866 0.442302 0
    outer loop
       vertex -0.187302 0.125 0
       vertex -0.201766 0.095671 0
       vertex -0.201766 0.095671 0.1
    endloop
  endfacet
  facet normal -0.896866 0.442302 0
    outer loop
       vertex -0.201766 0.095671 0.1
       vertex -0.187302 0.125 0.1
       vertex -0.187302 0.125 0
    endloop
  endfacet
  facet normal -0.946935 0.321425 0
    outer loop
       vertex -0.201766 0.095671 0
       vertex -0.212277 0.064705 0
       vertex -0.212277 0.064705 0.1
    endloop
  endfacet
  facet normal -0.946935 0.321425 0
    outer loop
       vertex -0.212277 0.064705 0.1
       vertex -0.201766 0.095671 0.1
       vertex -0.201766 0.095671 0
    endloop
  endfacet
  facet normal -0.980784 0.195096 0
    outer loop
       vertex -0.212277 0.064705 0
       vertex -0.218657 0.0326315 0
       vertex -0.218657 0.0326315 0.1
    endloop
  endfacet
  facet normal -0.980784 0.195096 0
    outer loop
       vertex -0.218657 0.0326315 0.1
       vertex -0.212277 0.064705 0.1
       vertex -0.212277 0.064705 0
    endloop
  endfacet
  facet normal -0.997858 0.0654098 0
    outer loop
       vertex -0.220796 8.32665e-17 0.1
       vertex -0.218657 0.0326315 0.1
       vertex -0.218657 0.0326315 0
    endloop
  endfacet
  facet normal -0.997858 0.0654098 -1.08928e-16
    outer loop
       vertex -0.218657 0.0326315 0
       vertex -0.220796 -8.32665e-17 0
       vertex -0.220796 8.32665e-17 0.1
    endloop
  endfacet
  facet normal -0.997858 -0.0654098 0
    outer loop
       vertex -0.220796 -8.32665e-17 0
       vertex -0.218657 -0.0326315 0
       vertex -0.218657 -0.0326315 0.1
    endloop
  endfacet
  facet normal -0.997858 -0.0654098 1.08928e-16
    outer loop
       vertex -0.218657 -0.0326315 0.1
       vertex -0.220796 8.32665e-17 0.1
       vertex -0.220796 -8.32665e-17 0
    endloop
  endfacet
  facet normal -0.980784 -0.195096 0
    outer loop
       vertex -0.218657 -0.0326315 0
       vertex -0.212277 -0.064705 0
       vertex -0.212277 -0.064705 0.1
    endloop
  endfacet
  facet normal -0.980784 -0.195096 0
    outer loop
       vertex -0.212277 -0.064705 0.1
       vertex -0.218657 -0.0326315 0.1
       vertex -0.218657 -0.0326315 0
    endloop
  endfacet
  facet normal -0.946935 -0.321425 0
    outer loop
       vertex -0.212277 -0.064705 0
       vertex -0.201766 -0.095671 0
       vertex -0.201766 -0.095671 0.1
    endloop
  endfacet
  facet normal -0.946935 -0.321425 0
    outer loop
       vertex -0.201766 -0.095671 0.1
       vertex -0.212277 -0.064705 0.1
       vertex -0.212277 -0.064705 0
    endloop
  endfacet
  facet normal -0.896866 -0.442302 0
    outer loop
       vertex -0.201766 -0.095671 0
       vertex -0.187302 -0.125 0
       vertex -0.187302 -0.125 0.1
    endloop
  endfacet
  facet normal -0.896866 -0.442302 0
    outer loop
       vertex -0.187302 -0.125 0.1
       vertex -0.201766 -0.095671 0.1
       vertex -0.201766 -0.095671 0
    endloop
  endfacet
  facet normal -0.831476 -0.555561 0
    outer loop
       vertex -0.187302 -0.125 0
       vertex -0.169134 -0.152191 0
       vertex -0.169134 -0.152191 0.1
    endloop
  endfacet
  facet normal -0.831476 -0.555561 0
    outer loop
       vertex -0.169134 -0.152191 0.1
       vertex -0.187302 -0.125 0.1
       vertex -0.187302 -0.125 0
    endloop
  endfacet
  facet normal -0.751817 -0.659372 0
    outer loop
       vertex -0.169134 -0.152191 0
       vertex -0.147572 -0.176776 0
       vertex -0.147572 -0.176776 0.1
    endloop
  endfacet
  facet normal -0.751817 -0.659372 0
    outer loop
       vertex -0.147572 -0.176776 0.1
       vertex -0.169134 -0.152191 0.1
       vertex -0.169134 -0.152191 0
    endloop
  endfacet
  facet normal 0.659372 -0.751817 0
    outer loop
       vertex 0.20598 -0.176776 0
       vertex 0.20598 -0.176776 0.1
       vertex 0.181395 -0.198338 0.1
    endloop
  endfacet
  facet normal 0.659372 -0.751817 0
    outer loop
       vertex 0.181395 -0.198338 0.1
       vertex 0.181395 -0.198338 0
       vertex 0.20598 -0.176776 0
    endloop
  endfacet
  facet normal 0.555561 -0.831476 0
    outer loop
       vertex 0.181395 -0.198338 0
       vertex 0.181395 -0.198338 0.1
       vertex 0.154204 -0.216506 0.1
    endloop
  endfacet
  facet normal 0.555561 -0.831476 0
    outer loop
       vertex 0.154204 -0.216506 0.1
       vertex 0.154204 -0.216506 0
       vertex 0.181395 -0.198338 0
    endloop
  endfacet
  facet normal 0.442302 -0.896866 0
    outer loop
       vertex 0.154204 -0.216506 0
       vertex 0.154204 -0.216506 0.1
       vertex 0.124875 -0.23097 0.1
    endloop
  endfacet
  facet normal 0.442302 -0.896866 0
    outer loop
       vertex 0.124875 -0.23097 0.1
       vertex 0.124875 -0.23097 0
       vertex 0.154204 -0.216506 0
    endloop
  endfacet
  facet normal 0.321425 -0.946935 0
    outer loop
       vertex 0.124875 -0.23097 0
       vertex 0.124875 -0.23097 0.1
       vertex 0.0939091 -0.241481 0.1
    endloop
  endfacet
  facet normal 0.321425 -0.946935 0
    outer loop
       vertex 0.0939091 -0.241481 0.1
       vertex 0.0939091 -0.241481 0
       vertex 0.124875 -0.23097 0
    endloop
  endfacet
  facet normal 0.195096 -0.980784 0
    outer loop
       vertex 0.0939091 -0.241481 0
       vertex 0.0939091 -0.241481 0.1
       vertex 0.0618356 -0.247861 0.1
    endloop
  endfacet
  facet normal 0.195096 -0.980784 0
    outer loop
       vertex 0.0618356 -0.247861 0.1
       vertex 0.0618356 -0.247861 0
       vertex 0.0939091 -0.241481 0
    endloop
  endfacet
  facet normal 0.0654098 -0.997858 0
    outer loop
       vertex 0.0292041 -0.25 0
       vertex 0.0618356 -0.247861 0
       vertex 0.0618356 -0.247861 0.1
    endloop
  endfacet
  facet normal 0.0654098 -0.997858 1.08928e-16
    outer loop
       vertex 0.0618356 -0.247861 0.1
       vertex 0.0292041 -0.25 0.1
       vertex 0.0292041 -0.25 0
    endloop
  endfacet
  facet normal -0.0654098 -0.997858 0
    outer loop
       vertex 0.0292041 -0.25 0.1
       vertex -0.00342738 -0.247861 0.1
       vertex -0.00342738 -0.247861 0
    endloop
  endfacet
  facet normal -0.0654098 -0.997858 -1.08928e-16
    outer loop
       vertex -0.00342738 -0.247861 0
       vertex 0.0292041 -0.25 0
       vertex 0.0292041 -0.25 0.1
    endloop
  endfacet
  facet normal -0.195096 -0.980784 0
    outer loop
       vertex -0.00342738 -0.247861 0
       vertex -0.00342738 -0.247861 0.1
       vertex -0.0355009 -0.241481 0.1
    endloop
  endfacet
  facet normal -0.195096 -0.980784 -0
    outer loop
       vertex -0.0355009 -0.241481 0.1
       vertex -0.0355009 -0.241481 0
       vertex -0.00342738 -0.247861 0
    endloop
  endfacet
  facet normal -0.321425 -0.946935 0
    outer loop
       vertex -0.0355009 -0.241481 0
       vertex -0.0355009 -0.241481 0.1
       vertex -0.0664669 -0.23097 0.1
    endloop
  endfacet
  facet normal -0.321425 -0.946935 -0
    outer loop
       vertex -0.0664669 -0.23097 0.1
       vertex -0.0664669 -0.23097 0
       vertex -0.0355009 -0.241481 0
    endloop
  endfacet
  facet normal -0.442302 -0.896866 0
    outer loop
       vertex -0.0664669 -0.23097 0
       vertex -0.0664669 -0.23097 0.1
       vertex -0.0957959 -0.216506 0.1
    endloop
  endfacet
  facet normal -0.442302 -0.896866 -0
    outer loop
       vertex -0.0957959 -0.216506 0.1
       vertex -0.0957959 -0.216506 0
       vertex -0.0664669 -0.23097 0
    endloop
  endfacet
  facet normal -0.555561 -0.831476 0
    outer loop
       vertex -0.0957959 -0.216506 0
       vertex -0.0957959 -0.216506 0.1
       vertex -0.122987 -0.198338 0.1
    endloop
  endfacet
  facet normal -0.555561 -0.831476 -0
    outer loop
       vertex -0.122987 -0.198338 0.1
       vertex -0.122987 -0.198338 0
       vertex -0.0957959 -0.216506 0
    endloop
  endfacet
  facet normal -0.659372 -0.751817 0
    outer loop
       vertex -0.122987 -0.198338 0
       vertex -0.122987 -0.198338 0.1
       vertex -0.147572 -0.176776 0.1
    endloop
  endfacet
  facet normal -0.659372 -0.751817 -0
    outer loop
       vertex -0.147572 -0.176776 0.1
       vertex -0.147572 -0.176776 0
       vertex -0.122987 -0.198338 0
    endloop
  endfacet
endsolid cylinder
