solid cylinder
  facet normal 0.751817 -0.659372 0
    outer loop
       vertex 0.303191 -0.176776 0
       vertex 0.324753 -0.152191 0
       vertex 0.324753 -0.152191 0.1
    endloop
  endfacet
  facet normal 0.751817 -0.659372 0
    outer loop
       vertex 0.324753 -0.152191 0.1
       vertex 0.303191 -0.176776 0.1
       vertex 0.303191 -0.176776 0
    endloop
  endfacet
  facet normal 0.831476 -0.555561 0
    outer loop
       vertex 0.324753 -0.152191 0
       vertex 0.342921 -0.125 0
       vertex 0.342921 -0.125 0.1
    endloop
  endfacet
  facet normal 0.831476 -0.555561 0
    outer loop
       vertex 0.342921 -0.125 0.1
       vertex 0.324753 -0.152191 0.1
       vertex 0.324753 -0.152191 0
    endloop
  endfacet
  facet normal 0.896866 -0.442302 0
    outer loop
       vertex 0.342921 -0.125 0
       vertex 0.357385 -0.095671 0
       vertex 0.357385 -0.095671 0.1
    endloop
  endfacet
  facet normal 0.896866 -0.442302 0
    outer loop
       vertex 0.357385 -0.095671 0.1
       vertex 0.342921 -0.125 0.1
       vertex 0.342921 -0.125 0
    endloop
  endfacet
  facet normal 0.946935 -0.321425 0
    outer loop
       vertex 0.357385 -0.095671 0
       vertex 0.367896 -0.064705 0
       vertex 0.367896 -0.064705 0.1
    endloop
  endfacet
  facet normal 0.946935 -0.321425 0
    outer loop
       vertex 0.367896 -0.064705 0.1
       vertex 0.357385 -0.095671 0.1
       vertex 0.357385 -0.095671 0
    endloop
  endfacet
  facet normal 0.980784 -0.195096 0
    outer loop
       vertex 0.367896 -0.064705 0
       vertex 0.374276 -0.0326315 0
       vertex 0.374276 -0.0326315 0.1
    endloop
  endfacet
  facet normal 0.980784 -0.195096 0
    outer loop
       vertex 0.374276 -0.0326315 0.1
       vertex 0.367896 -0.064705 0.1
       vertex 0.367896 -0.064705 0
    endloop
  endfacet
  facet normal 0.997858 -0.0654098 0
    outer loop
       vertex 0.376415 -8.32665e-17 0.1
       vertex 0.374276 -0.0326315 0.1
       vertex 0.374276 -0.0326315 0
    endloop
  endfacet
  facet normal 0.997858 -0.0654098 -1.08928e-16
    outer loop
       vertex 0.374276 -0.0326315 0
       vertex 0.376415 8.32665e-17 0
       vertex 0.376415 -8.32665e-17 0.1
    endloop
  endfacet
  facet normal 0.997858 0.0654098 0
    outer loop
       vertex 0.376415 8.32665e-17 0
       vertex 0.374276 0.0326315 0
       vertex 0.374276 0.0326315 0.1
    endloop
  endfacet
  facet normal 0.997858 0.0654098 1.08928e-16
    outer loop
       vertex 0.374276 0.0326315 0.1
       vertex 0.376415 -8.32665e-17 0.1
       vertex 0.376415 8.32665e-17 0
    endloop
  endfacet
  facet normal 0.980784 0.195096 0
    outer loop
       vertex 0.374276 0.0326315 0
       vertex 0.367896 0.064705 0
       vertex 0.367896 0.064705 0.1
    endloop
  endfacet
  facet normal 0.980784 0.195096 0
    outer loop
       vertex 0.367896 0.064705 0.1
       vertex 0.374276 0.0326315 0.1
       vertex 0.374276 0.0326315 0
    endloop
  endfacet
  facet normal 0.946935 0.321425 0
    outer loop
       vertex 0.367896 0.064705 0
       vertex 0.357385 0.095671 0
       vertex 0.357385 0.095671 0.1
    endloop
  endfacet
  facet normal 0.946935 0.321425 0
    outer loop
       vertex 0.357385 0.095671 0.1
       vertex 0.367896 0.064705 0.1
       vertex 0.367896 0.064705 0
    endloop
  endfacet
  facet normal 0.896866 0.442302 0
    outer loop
       vertex 0.357385 0.095671 0
       vertex 0.342921 0.125 0
       vertex 0.342921 0.125 0.1
    endloop
  endfacet
  facet normal 0.896866 0.442302 0
    outer loop
       vertex 0.342921 0.125 0.1
       vertex 0.357385 0.095671 0.1
       vertex 0.357385 0.095671 0
    endloop
  endfacet
  facet normal 0.831476 0.555561 0
    outer loop
       vertex 0.342921 0.125 0
       vertex 0.324753 0.152191 0
       vertex 0.324753 0.152191 0.1
    endloop
  endfacet
  facet normal 0.831476 0.555561 0
    outer loop
       vertex 0.324753 0.152191 0.1
       vertex 0.342921 0.125 0.1
       vertex 0.342921 0.125 0
    endloop
  endfacet
  facet normal 0.751817 0.659372 0
    outer loop
       vertex 0.324753 0.152191 0
       vertex 0.303191 0.176776 0
       vertex 0.303191 0.176776 0.1
    endloop
  endfacet
  facet normal 0.751817 0.659372 0
    outer loop
       vertex 0.303191 0.176776 0.1
       vertex 0.324753 0.152191 0.1
       vertex 0.324753 0.152191 0
    endloop
  endfacet
  facet normal 0.659372 0.751817 0
    outer loop
       vertex 0.303191 0.176776 0
       vertex 0.278606 0.198338 0
       vertex 0.278606 0.198338 0.1
    endloop
  endfacet
  facet normal 0.659372 0.751817 0
    outer loop
       vertex 0.278606 0.198338 0.1
       vertex 0.303191 0.176776 0.1
       vertex 0.303191 0.176776 0
    endloop
  endfacet
  facet normal 0.555561 0.831476 0
    outer loop
       vertex 0.278606 0.198338 0
       vertex 0.251415 0.216506 0
       vertex 0.251415 0.216506 0.1
    endloop
  endfacet
  facet normal 0.555561 0.831476 0
    outer loop
       vertex 0.251415 0.216506 0.1
       vertex 0.278606 0.198338 0.1
       vertex 0.278606 0.198338 0
    endloop
  endfacet
  facet normal 0.442302 0.896866 0
    outer loop
       vertex 0.251415 0.216506 0
       vertex 0.222086 0.23097 0
       vertex 0.222086 0.23097 0.1
    endloop
  endfacet
  facet normal 0.442302 0.896866 0
    outer loop
       vertex 0.222086 0.23097 0.1
       vertex 0.251415 0.216506 0.1
       vertex 0.251415 0.216506 0
    endloop
  endfacet
  facet normal 0.321425 0.946935 0
    outer loop
       vertex 0.222086 0.23097 0
       vertex 0.19112 0.241481 0
       vertex 0.19112 0.241481 0.1
    endloop
  endfacet
  facet normal 0.321425 0.946935 0
    outer loop
       vertex 0.19112 0.241481 0.1
       vertex 0.222086 0.23097 0.1
       vertex 0.222086 0.23097 0
    endloop
  endfacet
  facet normal 0.195096 0.980784 0
    outer loop
       vertex 0.19112 0.241481 0
       vertex 0.159047 0.247861 0
       vertex 0.159047 0.247861 0.1
    endloop
  endfacet
  facet normal 0.195096 0.980784 0
    outer loop
       vertex 0.159047 0.247861 0.1
       vertex 0.19112 0.241481 0.1
       vertex 0.19112 0.241481 0
    endloop
  endfacet
  facet normal 0.0654098 0.997858 0
    outer loop
       vertex 0.126415 0.25 0.1
       vertex 0.159047 0.247861 0.1
       vertex 0.159047 0.247861 0
    endloop
  endfacet
  facet normal 0.0654098 0.997858 -1.0893e-16
    outer loop
       vertex 0.159047 0.247861 0
       vertex 0.126415 0.25 0
       vertex 0.126415 0.25 0.1
    endloop
  endfacet
  facet normal -0.0654098 0.997858 0
    outer loop
       vertex 0.126415 0.25 0
       vertex 0.093784 0.247861 0
       vertex 0.093784 0.247861 0.1
    endloop
  endfacet
  facet normal -0.0654098 0.997858 1.0893e-16
    outer loop
       vertex 0.093784 0.247861 0.1
       vertex 0.126415 0.25 0.1
       vertex 0.126415 0.25 0
    endloop
  endfacet
  facet normal -0.195096 0.980784 0
    outer loop
       vertex 0.093784 0.247861 0
       vertex 0.0617105 0.241481 0
       vertex 0.0617105 0.241481 0.1
    endloop
  endfacet
  facet normal -0.195096 0.980784 0
    outer loop
       vertex 0.0617105 0.241481 0.1
       vertex 0.093784 0.247861 0.1
       vertex 0.093784 0.247861 0
    endloop
  endfacet
  facet normal -0.321425 0.946935 0
    outer loop
       vertex 0.0617105 0.241481 0
       vertex 0.0307445 0.23097 0
       vertex 0.0307445 0.23097 0.1
    endloop
  endfacet
  facet normal -0.321425 0.946935 0
    outer loop
       vertex 0.0307445 0.23097 0.1
       vertex 0.0617105 0.241481 0.1
       vertex 0.0617105 0.241481 0
    endloop
  endfacet
  facet normal -0.442302 0.896866 0
    outer loop
       vertex 0.0307445 0.23097 0
       vertex 0.00141548 0.216506 0
       vertex 0.00141548 0.216506 0.1
    endloop
  endfacet
  facet normal -0.442302 0.896866 0
    outer loop
       vertex 0.00141548 0.216506 0.1
       vertex 0.0307445 0.23097 0.1
       vertex 0.0307445 0.23097 0
    endloop
  endfacet
  facet normal -0.555561 0.831476 0
    outer loop
       vertex 0.00141548 0.216506 0
       vertex -0.0257755 0.198338 0
       vertex -0.0257755 0.198338 0.1
    endloop
  endfacet
  facet normal -0.555561 0.831476 0
    outer loop
       vertex -0.0257755 0.198338 0.1
       vertex 0.00141548 0.216506 0.1
       vertex 0.00141548 0.216506 0
    endloop
  endfacet
  facet normal -0.659372 0.751817 0
    outer loop
       vertex -0.0257755 0.198338 0
       vertex -0.0503605 0.176776 0
       vertex -0.0503605 0.176776 0.1
    endloop
  endfacet
  facet normal -0.659372 0.751817 0
    outer loop
       vertex -0.0503605 0.176776 0.1
       vertex -0.0257755 0.198338 0.1
       vertex -0.0257755 0.198338 0
    endloop
  endfacet
  facet normal -0.751817 0.659372 0
    outer loop
       vertex -0.0503605 0.176776 0
       vertex -0.0719225 0.152191 0
       vertex -0.0719225 0.152191 0.1
    endloop
  endfacet
  facet normal -0.751817 0.659372 0
    outer loop
       vertex -0.0719225 0.152191 0.1
       vertex -0.0503605 0.176776 0.1
       vertex -0.0503605 0.176776 0
    endloop
  endfacet
  facet normal -0.831476 0.555561 0
    outer loop
       vertex -0.0719225 0.152191 0
       vertex -0.0900905 0.125 0
       vertex -0.0900905 0.125 0.1
    endloop
  endfacet
  facet normal -0.831476 0.555561 0
    outer loop
       vertex -0.0900905 0.125 0.1
       vertex -0.0719225 0.152191 0.1
       vertex -0.0719225 0.152191 0
    endloop
  endfacet
  facet normal -0.896866 0.442302 0
    outer loop
       vertex -0.0900905 0.125 0
       vertex -0.104555 0.095671 0
       vertex -0.104555 0.095671 0.1
    endloop
  endfacet
  facet normal -0.896866 0.442302 0
    outer loop
       vertex -0.104555 0.095671 0.1
       vertex -0.0900905 0.125 0.1
       vertex -0.0900905 0.125 0
    endloop
  endfacet
  facet normal -0.946935 0.321425 0
    outer loop
       vertex -0.104555 0.095671 0
       vertex -0.115066 0.064705 0
       vertex -0.115066 0.064705 0.1
    endloop
  endfacet
  facet normal -0.946935 0.321425 0
    outer loop
       vertex -0.115066 0.064705 0.1
       vertex -0.104555 0.095671 0.1
       vertex -0.104555 0.095671 0
    endloop
  endfacet
  facet normal -0.980784 0.195096 0
    outer loop
       vertex -0.115066 0.064705 0
       vertex -0.121446 0.0326315 0
       vertex -0.121446 0.0326315 0.1
    endloop
  endfacet
  facet normal -0.980784 0.195096 0
    outer loop
       vertex -0.121446 0.0326315 0.1
       vertex -0.115066 0.064705 0.1
       vertex -0.115066 0.064705 0
    endloop
  endfacet
  facet normal -0.997858 0.0654098 0
    outer loop
       vertex -0.123585 8.32665e-17 0.1
       vertex -0.121446 0.0326315 0.1
       vertex -0.121446 0.0326315 0
    endloop
  endfacet
  facet normal -0.997858 0.0654098 -1.08928e-16
    outer loop
       vertex -0.121446 0.0326315 0
       vertex -0.123585 -8.32665e-17 0
       vertex -0.123585 8.32665e-17 0.1
    endloop
  endfacet
  facet normal -0.997858 -0.0654098 0
    outer loop
       vertex -0.123585 -8.32665e-17 0
       vertex -0.121446 -0.0326315 0
       vertex -0.121446 -0.0326315 0.1
    endloop
  endfacet
  facet normal -0.997858 -0.0654098 1.08928e-16
    outer loop
       vertex -0.121446 -0.0326315 0.1
       vertex -0.123585 8.32665e-17 0.1
       vertex -0.123585 -8.32665e-17 0
    endloop
  endfacet
  facet normal -0.980784 -0.195096 0
    outer loop
       vertex -0.121446 -0.0326315 0
       vertex -0.115066 -0.064705 0
       vertex -0.115066 -0.064705 0.1
    endloop
  endfacet
  facet normal -0.980784 -0.195096 0
    outer loop
       vertex -0.115066 -0.064705 0.1
       vertex -0.121446 -0.0326315 0.1
       vertex -0.121446 -0.0326315 0
    endloop
  endfacet
  facet normal -0.946935 -0.321425 0
    outer loop
       vertex -0.115066 -0.064705 0
       vertex -0.104555 -0.095671 0
       vertex -0.104555 -0.095671 0.1
    endloop
  endfacet
  facet normal -0.946935 -0.321425 0
    outer loop
       vertex -0.104555 -0.095671 0.1
       vertex -0.115066 -0.064705 0.1
       vertex -0.115066 -0.064705 0
    endloop
  endfacet
  facet normal -0.896866 -0.442302 0
    outer loop
       vertex -0.104555 -0.095671 0
       vertex -0.0900905 -0.125 0
       vertex -0.0900905 -0.125 0.1
    endloop
  endfacet
  facet normal -0.896866 -0.442302 0
    outer loop
       vertex -0.0900905 -0.125 0.1
       vertex -0.104555 -0.095671 0.1
       vertex -0.104555 -0.095671 0
    endloop
  endfacet
  facet normal -0.831476 -0.555561 0
    outer loop
       vertex -0.0900905 -0.125 0
       vertex -0.0719225 -0.152191 0
       vertex -0.0719225 -0.152191 0.1
    endloop
  endfacet
  facet normal -0.831476 -0.555561 0
    outer loop
       vertex -0.0719225 -0.152191 0.1
       vertex -0.0900905 -0.125 0.1
       vertex -0.0900905 -0.125 0
    endloop
  endfacet
  facet normal -0.751817 -0.659372 0
    outer loop
       vertex -0.0719225 -0.152191 0
       vertex -0.0503605 -0.176776 0
       vertex -0.0503605 -0.176776 0.1
    endloop
  endfacet
  facet normal -0.751817 -0.659372 0
    outer loop
       vertex -0.0503605 -0.176776 0.1
       vertex -0.0719225 -0.152191 0.1
       vertex -0.0719225 -0.152191 0
    endloop
  endfacet
  facet normal 0.659372 -0.751817 0
    outer loop
       vertex 0.303191 -0.176776 0
       vertex 0.303191 -0.176776 0.1
       vertex 0.278606 -0.198338 0.1
    endloop
  endfacet
  facet normal 0.659372 -0.751817 0
    outer loop
       vertex 0.278606 -0.198338 0.1
       vertex 0.278606 -0.198338 0
       vertex 0.303191 -0.176776 0
    endloop
  endfacet
  facet normal 0.555561 -0.831476 0
    outer loop
       vertex 0.278606 -0.198338 0
       vertex 0.278606 -0.198338 0.1
       vertex 0.251415 -0.216506 0.1
    endloop
  endfacet
  facet normal 0.555561 -0.831476 0
    outer loop
       vertex 0.251415 -0.216506 0.1
       vertex 0.251415 -0.216506 0
       vertex 0.278606 -0.198338 0
    endloop
  endfacet
  facet normal 0.442302 -0.896866 0
    outer loop
       vertex 0.251415 -0.216506 0
       vertex 0.251415 -0.216506 0.1
       vertex 0.222086 -0.23097 0.1
    endloop
  endfacet
  facet normal 0.442302 -0.896866 0
    outer loop
       vertex 0.222086 -0.23097 0.1
       vertex 0.222086 -0.23097 0
       vertex 0.251415 -0.216506 0
    endloop
  endfacet
  facet normal 0.321425 -0.946935 0
    outer loop
       vertex 0.222086 -0.23097 0
       vertex 0.222086 -0.23097 0.1
       vertex 0.19112 -0.241481 0.1
    endloop
  endfacet
  facet normal 0.321425 -0.946935 0
    outer loop
       vertex 0.19112 -0.241481 0.1
       vertex 0.19112 -0.241481 0
       vertex 0.222086 -0.23097 0
    endloop
  endfacet
  facet normal 0.195096 -0.980784 0
    outer loop
       vertex 0.19112 -0.241481 0
       vertex 0.19112 -0.241481 0.1
       vertex 0.159047 -0.247861 0.1
    endloop
  endfacet
  facet normal 0.195096 -0.980784 0
    outer loop
       vertex 0.159047 -0.247861 0.1
       vertex 0.159047 -0.247861 0
       vertex 0.19112 -0.241481 0
    endloop
  endfacet
  facet normal 0.0654098 -0.997858 0
    outer loop
       vertex 0.126415 -0.25 0
       vertex 0.159047 -0.247861 0
       vertex 0.159047 -0.247861 0.1
    endloop
  endfacet
  facet normal 0.0654098 -0.997858 1.0893e-16
    outer loop
       vertex 0.159047 -0.247861 0.1
       vertex 0.126415 -0.25 0.1
       vertex 0.126415 -0.25 0
    endloop
  endfacet
  facet normal -0.0654098 -0.997858 0
    outer loop
       vertex 0.126415 -0.25 0.1
       vertex 0.093784 -0.247861 0.1
       vertex 0.093784 -0.247861 0
    endloop
  endfacet
  facet normal -0.0654098 -0.997858 -1.0893e-16
    outer loop
       vertex 0.093784 -0.247861 0
       vertex 0.126415 -0.25 0
       vertex 0.126415 -0.25 0.1
    endloop
  endfacet
  facet normal -0.195096 -0.980784 0
    outer loop
       vertex 0.093784 -0.247861 0
       vertex 0.093784 -0.247861 0.1
       vertex 0.0617105 -0.241481 0.1
    endloop
  endfacet
  facet normal -0.195096 -0.980784 -0
    outer loop
       vertex 0.0617105 -0.241481 0.1
       vertex 0.0617105 -0.241481 0
       vertex 0.093784 -0.247861 0
    endloop
  endfacet
  facet normal -0.321425 -0.946935 0
    outer loop
       vertex 0.0617105 -0.241481 0
       vertex 0.0617105 -0.241481 0.1
       vertex 0.0307445 -0.23097 0.1
    endloop
  endfacet
  facet normal -0.321425 -0.946935 -0
    outer loop
       vertex 0.0307445 -0.23097 0.1
       vertex 0.0307445 -0.23097 0
       vertex 0.0617105 -0.241481 0
    endloop
  endfacet
  facet normal -0.442302 -0.896866 0
    outer loop
       vertex 0.0307445 -0.23097 0
       vertex 0.0307445 -0.23097 0.1
       vertex 0.00141548 -0.216506 0.1
    endloop
  endfacet
  facet normal -0.442302 -0.896866 -0
    outer loop
       vertex 0.00141548 -0.216506 0.1
       vertex 0.00141548 -0.216506 0
       vertex 0.0307445 -0.23097 0
    endloop
  endfacet
  facet normal -0.555561 -0.831476 0
    outer loop
       vertex 0.00141548 -0.216506 0
       vertex 0.00141548 -0.216506 0.1
       vertex -0.0257755 -0.198338 0.1
    endloop
  endfacet
  facet normal -0.555561 -0.831476 -0
    outer loop
       vertex -0.0257755 -0.198338 0.1
       vertex -0.0257755 -0.198338 0
       vertex 0.00141548 -0.216506 0
    endloop
  endfacet
  facet normal -0.659372 -0.751817 0
    outer loop
       vertex -0.0257755 -0.198338 0
       vertex -0.0257755 -0.198338 0.1
       vertex -0.0503605 -0.176776 0.1
    endloop
  endfacet
  facet normal -0.659372 -0.751817 -0
    outer loop
       vertex -0.0503605 -0.176776 0.1
       vertex -0.0503605 -0.176776 0
       vertex -0.0257755 -0.198338 0
    endloop
  endfacet
endsolid cylinder
