solid cylinder
  facet normal 0.751817 -0.659372 0
    outer loop
       vertex -0.0424262 -0.176776 0
       vertex -0.0208642 -0.152191 0
       vertex -0.0208642 -0.152191 0.1
    endloop
  endfacet
  facet normal 0.751817 -0.659372 0
    outer loop
       vertex -0.0208642 -0.152191 0.1
       vertex -0.0424262 -0.176776 0.1
       vertex -0.0424262 -0.176776 0
    endloop
  endfacet
  facet normal 0.831476 -0.555561 0
    outer loop
       vertex -0.0208642 -0.152191 0
       vertex -0.00269619 -0.125 0
       vertex -0.00269619 -0.125 0.1
    endloop
  endfacet
  facet normal 0.831476 -0.555561 0
    outer loop
       vertex -0.00269619 -0.125 0.1
       vertex -0.0208642 -0.152191 0.1
       vertex -0.0208642 -0.152191 0
    endloop
  endfacet
  facet normal 0.896866 -0.442302 0
    outer loop
       vertex -0.00269619 -0.125 0
       vertex 0.0117678 -0.095671 0
       vertex 0.0117678 -0.095671 0.1
    endloop
  endfacet
  facet normal 0.896866 -0.442302 0
    outer loop
       vertex 0.0117678 -0.095671 0.1
       vertex -0.00269619 -0.125 0.1
       vertex -0.00269619 -0.125 0
    endloop
  endfacet
  facet normal 0.946935 -0.321425 0
    outer loop
       vertex 0.0117678 -0.095671 0
       vertex 0.0222788 -0.064705 0
       vertex 0.0222788 -0.064705 0.1
    endloop
  endfacet
  facet normal 0.946935 -0.321425 0
    outer loop
       vertex 0.0222788 -0.064705 0.1
       vertex 0.0117678 -0.095671 0.1
       vertex 0.0117678 -0.095671 0
    endloop
  endfacet
  facet normal 0.980784 -0.195096 0
    outer loop
       vertex 0.0222788 -0.064705 0
       vertex 0.0286588 -0.0326315 0
       vertex 0.0286588 -0.0326315 0.1
    endloop
  endfacet
  facet normal 0.980784 -0.195096 0
    outer loop
       vertex 0.0286588 -0.0326315 0.1
       vertex 0.0222788 -0.064705 0.1
       vertex 0.0222788 -0.064705 0
    endloop
  endfacet
  facet normal 0.997858 -0.0654098 0
    outer loop
       vertex 0.0307978 -8.32665e-17 0.1
       vertex 0.0286588 -0.0326315 0.1
       vertex 0.0286588 -0.0326315 0
    endloop
  endfacet
  facet normal 0.997858 -0.0654098 -1.08928e-16
    outer loop
       vertex 0.0286588 -0.0326315 0
       vertex 0.0307978 8.32665e-17 0
       vertex 0.0307978 -8.32665e-17 0.1
    endloop
  endfacet
  facet normal 0.997858 0.0654098 0
    outer loop
       vertex 0.0307978 8.32665e-17 0
       vertex 0.0286588 0.0326315 0
       vertex 0.0286588 0.0326315 0.1
    endloop
  endfacet
  facet normal 0.997858 0.0654098 1.08928e-16
    outer loop
       vertex 0.0286588 0.0326315 0.1
       vertex 0.0307978 -8.32665e-17 0.1
       vertex 0.0307978 8.32665e-17 0
    endloop
  endfacet
  facet normal 0.980784 0.195096 0
    outer loop
       vertex 0.0286588 0.0326315 0
       vertex 0.0222788 0.064705 0
       vertex 0.0222788 0.064705 0.1
    endloop
  endfacet
  facet normal 0.980784 0.195096 0
    outer loop
       vertex 0.0222788 0.064705 0.1
       vertex 0.0286588 0.0326315 0.1
       vertex 0.0286588 0.0326315 0
    endloop
  endfacet
  facet normal 0.946935 0.321425 0
    outer loop
       vertex 0.0222788 0.064705 0
       vertex 0.0117678 0.095671 0
       vertex 0.0117678 0.095671 0.1
    endloop
  endfacet
  facet normal 0.946935 0.321425 0
    outer loop
       vertex 0.0117678 0.095671 0.1
       vertex 0.0222788 0.064705 0.1
       vertex 0.0222788 0.064705 0
    endloop
  endfacet
  facet normal 0.896866 0.442302 0
    outer loop
       vertex 0.0117678 0.095671 0
       vertex -0.00269619 0.125 0
       vertex -0.00269619 0.125 0.1
    endloop
  endfacet
  facet normal 0.896866 0.442302 0
    outer loop
       vertex -0.00269619 0.125 0.1
       vertex 0.0117678 0.095671 0.1
       vertex 0.0117678 0.095671 0
    endloop
  endfacet
  facet normal 0.831476 0.555561 0
    outer loop
       vertex -0.00269619 0.125 0
       vertex -0.0208642 0.152191 0
       vertex -0.0208642 0.152191 0.1
    endloop
  endfacet
  facet normal 0.831476 0.555561 0
    outer loop
       vertex -0.0208642 0.152191 0.1
       vertex -0.00269619 0.125 0.1
       vertex -0.00269619 0.125 0
    endloop
  endfacet
  facet normal 0.751817 0.659372 0
    outer loop
       vertex -0.0208642 0.152191 0
       vertex -0.0424262 0.176776 0
       vertex -0.0424262 0.176776 0.1
    endloop
  endfacet
  facet normal 0.751817 0.659372 0
    outer loop
       vertex -0.0424262 0.176776 0.1
       vertex -0.0208642 0.152191 0.1
       vertex -0.0208642 0.152191 0
    endloop
  endfacet
  facet normal 0.659372 0.751817 0
    outer loop
       vertex -0.0424262 0.176776 0
       vertex -0.0670112 0.198338 0
       vertex -0.0670112 0.198338 0.1
    endloop
  endfacet
  facet normal 0.659372 0.751817 0
    outer loop
       vertex -0.0670112 0.198338 0.1
       vertex -0.0424262 0.176776 0.1
       vertex -0.0424262 0.176776 0
    endloop
  endfacet
  facet normal 0.555561 0.831476 0
    outer loop
       vertex -0.0670112 0.198338 0
       vertex -0.0942022 0.216506 0
       vertex -0.0942022 0.216506 0.1
    endloop
  endfacet
  facet normal 0.555561 0.831476 0
    outer loop
       vertex -0.0942022 0.216506 0.1
       vertex -0.0670112 0.198338 0.1
       vertex -0.0670112 0.198338 0
    endloop
  endfacet
  facet normal 0.442302 0.896866 0
    outer loop
       vertex -0.0942022 0.216506 0
       vertex -0.123531 0.23097 0
       vertex -0.123531 0.23097 0.1
    endloop
  endfacet
  facet normal 0.442302 0.896866 0
    outer loop
       vertex -0.123531 0.23097 0.1
       vertex -0.0942022 0.216506 0.1
       vertex -0.0942022 0.216506 0
    endloop
  endfacet
  facet normal 0.321425 0.946935 0
    outer loop
       vertex -0.123531 0.23097 0
       vertex -0.154497 0.241481 0
       vertex -0.154497 0.241481 0.1
    endloop
  endfacet
  facet normal 0.321425 0.946935 0
    outer loop
       vertex -0.154497 0.241481 0.1
       vertex -0.123531 0.23097 0.1
       vertex -0.123531 0.23097 0
    endloop
  endfacet
  facet normal 0.195096 0.980784 0
    outer loop
       vertex -0.154497 0.241481 0
       vertex -0.186571 0.247861 0
       vertex -0.186571 0.247861 0.1
    endloop
  endfacet
  facet normal 0.195096 0.980784 0
    outer loop
       vertex -0.186571 0.247861 0.1
       vertex -0.154497 0.241481 0.1
       vertex -0.154497 0.241481 0
    endloop
  endfacet
  facet normal 0.0654098 0.997858 0
    outer loop
       vertex -0.219202 0.25 0.1
       vertex -0.186571 0.247861 0.1
       vertex -0.186571 0.247861 0
    endloop
  endfacet
  facet normal 0.0654098 0.997858 -1.0893e-16
    outer loop
       vertex -0.186571 0.247861 0
       vertex -0.219202 0.25 0
       vertex -0.219202 0.25 0.1
    endloop
  endfacet
  facet normal -0.0654098 0.997858 0
    outer loop
       vertex -0.219202 0.25 0
       vertex -0.251834 0.247861 0
       vertex -0.251834 0.247861 0.1
    endloop
  endfacet
  facet normal -0.0654098 0.997858 1.0893e-16
    outer loop
       vertex -0.251834 0.247861 0.1
       vertex -0.219202 0.25 0.1
       vertex -0.219202 0.25 0
    endloop
  endfacet
  facet normal -0.195096 0.980784 0
    outer loop
       vertex -0.251834 0.247861 0
       vertex -0.283907 0.241481 0
       vertex -0.283907 0.241481 0.1
    endloop
  endfacet
  facet normal -0.195096 0.980784 0
    outer loop
       vertex -0.283907 0.241481 0.1
       vertex -0.251834 0.247861 0.1
       vertex -0.251834 0.247861 0
    endloop
  endfacet
  facet normal -0.321425 0.946935 0
    outer loop
       vertex -0.283907 0.241481 0
       vertex -0.314873 0.23097 0
       vertex -0.314873 0.23097 0.1
    endloop
  endfacet
  facet normal -0.321425 0.946935 0
    outer loop
       vertex -0.314873 0.23097 0.1
       vertex -0.283907 0.241481 0.1
       vertex -0.283907 0.241481 0
    endloop
  endfacet
  facet normal -0.442302 0.896866 0
    outer loop
       vertex -0.314873 0.23097 0
       vertex -0.344202 0.216506 0
       vertex -0.344202 0.216506 0.1
    endloop
  endfacet
  facet normal -0.442302 0.896866 0
    outer loop
       vertex -0.344202 0.216506 0.1
       vertex -0.314873 0.23097 0.1
       vertex -0.314873 0.23097 0
    endloop
  endfacet
  facet normal -0.555561 0.831476 0
    outer loop
       vertex -0.344202 0.216506 0
       vertex -0.371393 0.198338 0
       vertex -0.371393 0.198338 0.1
    endloop
  endfacet
  facet normal -0.555561 0.831476 0
    outer loop
       vertex -0.371393 0.198338 0.1
       vertex -0.344202 0.216506 0.1
       vertex -0.344202 0.216506 0
    endloop
  endfacet
  facet normal -0.659372 0.751817 0
    outer loop
       vertex -0.371393 0.198338 0
       vertex -0.395978 0.176776 0
       vertex -0.395978 0.176776 0.1
    endloop
  endfacet
  facet normal -0.659372 0.751817 0
    outer loop
       vertex -0.395978 0.176776 0.1
       vertex -0.371393 0.198338 0.1
       vertex -0.371393 0.198338 0
    endloop
  endfacet
  facet normal -0.751817 0.659372 0
    outer loop
       vertex -0.395978 0.176776 0
       vertex -0.41754 0.152191 0
       vertex -0.41754 0.152191 0.1
    endloop
  endfacet
  facet normal -0.751817 0.659372 0
    outer loop
       vertex -0.41754 0.152191 0.1
       vertex -0.395978 0.176776 0.1
       vertex -0.395978 0.176776 0
    endloop
  endfacet
  facet normal -0.831476 0.555561 0
    outer loop
       vertex -0.41754 0.152191 0
       vertex -0.435708 0.125 0
       vertex -0.435708 0.125 0.1
    endloop
  endfacet
  facet normal -0.831476 0.555561 0
    outer loop
       vertex -0.435708 0.125 0.1
       vertex -0.41754 0.152191 0.1
       vertex -0.41754 0.152191 0
    endloop
  endfacet
  facet normal -0.896866 0.442302 0
    outer loop
       vertex -0.435708 0.125 0
       vertex -0.450172 0.095671 0
       vertex -0.450172 0.095671 0.1
    endloop
  endfacet
  facet normal -0.896866 0.442302 0
    outer loop
       vertex -0.450172 0.095671 0.1
       vertex -0.435708 0.125 0.1
       vertex -0.435708 0.125 0
    endloop
  endfacet
  facet normal -0.946935 0.321425 0
    outer loop
       vertex -0.450172 0.095671 0
       vertex -0.460683 0.064705 0
       vertex -0.460683 0.064705 0.1
    endloop
  endfacet
  facet normal -0.946935 0.321425 0
    outer loop
       vertex -0.460683 0.064705 0.1
       vertex -0.450172 0.095671 0.1
       vertex -0.450172 0.095671 0
    endloop
  endfacet
  facet normal -0.980784 0.195096 0
    outer loop
       vertex -0.460683 0.064705 0
       vertex -0.467063 0.0326315 0
       vertex -0.467063 0.0326315 0.1
    endloop
  endfacet
  facet normal -0.980784 0.195096 0
    outer loop
       vertex -0.467063 0.0326315 0.1
       vertex -0.460683 0.064705 0.1
       vertex -0.460683 0.064705 0
    endloop
  endfacet
  facet normal -0.997858 0.0654098 0
    outer loop
       vertex -0.469202 8.32665e-17 0.1
       vertex -0.467063 0.0326315 0.1
       vertex -0.467063 0.0326315 0
    endloop
  endfacet
  facet normal -0.997858 0.0654098 -1.08928e-16
    outer loop
       vertex -0.467063 0.0326315 0
       vertex -0.469202 -8.32665e-17 0
       vertex -0.469202 8.32665e-17 0.1
    endloop
  endfacet
  facet normal -0.997858 -0.0654098 0
    outer loop
       vertex -0.469202 -8.32665e-17 0
       vertex -0.467063 -0.0326315 0
       vertex -0.467063 -0.0326315 0.1
    endloop
  endfacet
  facet normal -0.997858 -0.0654098 1.08928e-16
    outer loop
       vertex -0.467063 -0.0326315 0.1
       vertex -0.469202 8.32665e-17 0.1
       vertex -0.469202 -8.32665e-17 0
    endloop
  endfacet
  facet normal -0.980784 -0.195096 0
    outer loop
       vertex -0.467063 -0.0326315 0
       vertex -0.460683 -0.064705 0
       vertex -0.460683 -0.064705 0.1
    endloop
  endfacet
  facet normal -0.980784 -0.195096 0
    outer loop
       vertex -0.460683 -0.064705 0.1
       vertex -0.467063 -0.0326315 0.1
       vertex -0.467063 -0.0326315 0
    endloop
  endfacet
  facet normal -0.946935 -0.321425 0
    outer loop
       vertex -0.460683 -0.064705 0
       vertex -0.450172 -0.095671 0
       vertex -0.450172 -0.095671 0.1
    endloop
  endfacet
  facet normal -0.946935 -0.321425 0
    outer loop
       vertex -0.450172 -0.095671 0.1
       vertex -0.460683 -0.064705 0.1
       vertex -0.460683 -0.064705 0
    endloop
  endfacet
  facet normal -0.896866 -0.442302 0
    outer loop
       vertex -0.450172 -0.095671 0
       vertex -0.435708 -0.125 0
       vertex -0.435708 -0.125 0.1
    endloop
  endfacet
  facet normal -0.896866 -0.442302 0
    outer loop
       vertex -0.435708 -0.125 0.1
       vertex -0.450172 -0.095671 0.1
       vertex -0.450172 -0.095671 0
    endloop
  endfacet
  facet normal -0.831476 -0.555561 0
    outer loop
       vertex -0.435708 -0.125 0
       vertex -0.41754 -0.152191 0
       vertex -0.41754 -0.152191 0.1
    endloop
  endfacet
  facet normal -0.831476 -0.555561 0
    outer loop
       vertex -0.41754 -0.152191 0.1
       vertex -0.435708 -0.125 0.1
       vertex -0.435708 -0.125 0
    endloop
  endfacet
  facet normal -0.751817 -0.659372 0
    outer loop
       vertex -0.41754 -0.152191 0
       vertex -0.395978 -0.176776 0
       vertex -0.395978 -0.176776 0.1
    endloop
  endfacet
  facet normal -0.751817 -0.659372 0
    outer loop
       vertex -0.395978 -0.176776 0.1
       vertex -0.41754 -0.152191 0.1
       vertex -0.41754 -0.152191 0
    endloop
  endfacet
  facet normal 0.659372 -0.751817 0
    outer loop
       vertex -0.0424262 -0.176776 0
       vertex -0.0424262 -0.176776 0.1
       vertex -0.0670112 -0.198338 0.1
    endloop
  endfacet
  facet normal 0.659372 -0.751817 0
    outer loop
       vertex -0.0670112 -0.198338 0.1
       vertex -0.0670112 -0.198338 0
       vertex -0.0424262 -0.176776 0
    endloop
  endfacet
  facet normal 0.555561 -0.831476 0
    outer loop
       vertex -0.0670112 -0.198338 0
       vertex -0.0670112 -0.198338 0.1
       vertex -0.0942022 -0.216506 0.1
    endloop
  endfacet
  facet normal 0.555561 -0.831476 0
    outer loop
       vertex -0.0942022 -0.216506 0.1
       vertex -0.0942022 -0.216506 0
       vertex -0.0670112 -0.198338 0
    endloop
  endfacet
  facet normal 0.442302 -0.896866 0
    outer loop
       vertex -0.0942022 -0.216506 0
       vertex -0.0942022 -0.216506 0.1
       vertex -0.123531 -0.23097 0.1
    endloop
  endfacet
  facet normal 0.442302 -0.896866 0
    outer loop
       vertex -0.123531 -0.23097 0.1
       vertex -0.123531 -0.23097 0
       vertex -0.0942022 -0.216506 0
    endloop
  endfacet
  facet normal 0.321425 -0.946935 0
    outer loop
       vertex -0.123531 -0.23097 0
       vertex -0.123531 -0.23097 0.1
       vertex -0.154497 -0.241481 0.1
    endloop
  endfacet
  facet normal 0.321425 -0.946935 0
    outer loop
       vertex -0.154497 -0.241481 0.1
       vertex -0.154497 -0.241481 0
       vertex -0.123531 -0.23097 0
    endloop
  endfacet
  facet normal 0.195096 -0.980784 0
    outer loop
       vertex -0.154497 -0.241481 0
       vertex -0.154497 -0.241481 0.1
       vertex -0.186571 -0.247861 0.1
    endloop
  endfacet
  facet normal 0.195096 -0.980784 0
    outer loop
       vertex -0.186571 -0.247861 0.1
       vertex -0.186571 -0.247861 0
       vertex -0.154497 -0.241481 0
    endloop
  endfacet
  facet normal 0.0654098 -0.997858 0
    outer loop
       vertex -0.219202 -0.25 0
       vertex -0.186571 -0.247861 0
       vertex -0.186571 -0.247861 0.1
    endloop
  endfacet
  facet normal 0.0654098 -0.997858 1.0893e-16
    outer loop
       vertex -0.186571 -0.247861 0.1
       vertex -0.219202 -0.25 0.1
       vertex -0.219202 -0.25 0
    endloop
  endfacet
  facet normal -0.0654098 -0.997858 0
    outer loop
       vertex -0.219202 -0.25 0.1
       vertex -0.251834 -0.247861 0.1
       vertex -0.251834 -0.247861 0
    endloop
  endfacet
  facet normal -0.0654098 -0.997858 -1.0893e-16
    outer loop
       vertex -0.251834 -0.247861 0
       vertex -0.219202 -0.25 0
       vertex -0.219202 -0.25 0.1
    endloop
  endfacet
  facet normal -0.195096 -0.980784 0
    outer loop
       vertex -0.251834 -0.247861 0
       vertex -0.251834 -0.247861 0.1
       vertex -0.283907 -0.241481 0.1
    endloop
  endfacet
  facet normal -0.195096 -0.980784 -0
    outer loop
       vertex -0.283907 -0.241481 0.1
       vertex -0.283907 -0.241481 0
       vertex -0.251834 -0.247861 0
    endloop
  endfacet
  facet normal -0.321425 -0.946935 0
    outer loop
       vertex -0.283907 -0.241481 0
       vertex -0.283907 -0.241481 0.1
       vertex -0.314873 -0.23097 0.1
    endloop
  endfacet
  facet normal -0.321425 -0.946935 -0
    outer loop
       vertex -0.314873 -0.23097 0.1
       vertex -0.314873 -0.23097 0
       vertex -0.283907 -0.241481 0
    endloop
  endfacet
  facet normal -0.442302 -0.896866 0
    outer loop
       vertex -0.314873 -0.23097 0
       vertex -0.314873 -0.23097 0.1
       vertex -0.344202 -0.216506 0.1
    endloop
  endfacet
  facet normal -0.442302 -0.896866 -0
    outer loop
       vertex -0.344202 -0.216506 0.1
       vertex -0.344202 -0.216506 0
       vertex -0.314873 -0.23097 0
    endloop
  endfacet
  facet normal -0.555561 -0.831476 0
    outer loop
       vertex -0.344202 -0.216506 0
       vertex -0.344202 -0.216506 0.1
       vertex -0.371393 -0.198338 0.1
    endloop
  endfacet
  facet normal -0.555561 -0.831476 -0
    outer loop
       vertex -0.371393 -0.198338 0.1
       vertex -0.371393 -0.198338 0
       vertex -0.344202 -0.216506 0
    endloop
  endfacet
  facet normal -0.659372 -0.751817 0
    outer loop
       vertex -0.371393 -0.198338 0
       vertex -0.371393 -0.198338 0.1
       vertex -0.395978 -0.176776 0.1
    endloop
  endfacet
  facet normal -0.659372 -0.751817 -0
    outer loop
       vertex -0.395978 -0.176776 0.1
       vertex -0.395978 -0.176776 0
       vertex -0.371393 -0.198338 0
    endloop
  endfacet
endsolid cylinder
