solid cylinder
  facet normal 0.751817 -0.659372 0
    outer loop
       vertex 0.112341 -0.176776 0
       vertex 0.133903 -0.152191 0
       vertex 0.133903 -0.152191 0.1
    endloop
  endfacet
  facet normal 0.751817 -0.659372 0
    outer loop
       vertex 0.133903 -0.152191 0.1
       vertex 0.112341 -0.176776 0.1
       vertex 0.112341 -0.176776 0
    endloop
  endfacet
  facet normal 0.831476 -0.555561 0
    outer loop
       vertex 0.133903 -0.152191 0
       vertex 0.152071 -0.125 0
       vertex 0.152071 -0.125 0.1
    endloop
  endfacet
  facet normal 0.831476 -0.555561 0
    outer loop
       vertex 0.152071 -0.125 0.1
       vertex 0.133903 -0.152191 0.1
       vertex 0.133903 -0.152191 0
    endloop
  endfacet
  facet normal 0.896866 -0.442302 0
    outer loop
       vertex 0.152071 -0.125 0
       vertex 0.166535 -0.095671 0
       vertex 0.166535 -0.095671 0.1
    endloop
  endfacet
  facet normal 0.896866 -0.442302 0
    outer loop
       vertex 0.166535 -0.095671 0.1
       vertex 0.152071 -0.125 0.1
       vertex 0.152071 -0.125 0
    endloop
  endfacet
  facet normal 0.946935 -0.321425 0
    outer loop
       vertex 0.166535 -0.095671 0
       vertex 0.177046 -0.064705 0
       vertex 0.177046 -0.064705 0.1
    endloop
  endfacet
  facet normal 0.946935 -0.321425 0
    outer loop
       vertex 0.177046 -0.064705 0.1
       vertex 0.166535 -0.095671 0.1
       vertex 0.166535 -0.095671 0
    endloop
  endfacet
  facet normal 0.980784 -0.195096 0
    outer loop
       vertex 0.177046 -0.064705 0
       vertex 0.183426 -0.0326315 0
       vertex 0.183426 -0.0326315 0.1
    endloop
  endfacet
  facet normal 0.980784 -0.195096 0
    outer loop
       vertex 0.183426 -0.0326315 0.1
       vertex 0.177046 -0.064705 0.1
       vertex 0.177046 -0.064705 0
    endloop
  endfacet
  facet normal 0.997858 -0.0654098 0
    outer loop
       vertex 0.185565 -8.32665e-17 0.1
       vertex 0.183426 -0.0326315 0.1
       vertex 0.183426 -0.0326315 0
    endloop
  endfacet
  facet normal 0.997858 -0.0654098 -1.08928e-16
    outer loop
       vertex 0.183426 -0.0326315 0
       vertex 0.185565 8.32665e-17 0
       vertex 0.185565 -8.32665e-17 0.1
    endloop
  endfacet
  facet normal 0.997858 0.0654098 0
    outer loop
       vertex 0.185565 8.32665e-17 0
       vertex 0.183426 0.0326315 0
       vertex 0.183426 0.0326315 0.1
    endloop
  endfacet
  facet normal 0.997858 0.0654098 1.08928e-16
    outer loop
       vertex 0.183426 0.0326315 0.1
       vertex 0.185565 -8.32665e-17 0.1
       vertex 0.185565 8.32665e-17 0
    endloop
  endfacet
  facet normal 0.980784 0.195096 0
    outer loop
       vertex 0.183426 0.0326315 0
       vertex 0.177046 0.064705 0
       vertex 0.177046 0.064705 0.1
    endloop
  endfacet
  facet normal 0.980784 0.195096 0
    outer loop
       vertex 0.177046 0.064705 0.1
       vertex 0.183426 0.0326315 0.1
       vertex 0.183426 0.0326315 0
    endloop
  endfacet
  facet normal 0.946935 0.321425 0
    outer loop
       vertex 0.177046 0.064705 0
       vertex 0.166535 0.095671 0
       vertex 0.166535 0.095671 0.1
    endloop
  endfacet
  facet normal 0.946935 0.321425 0
    outer loop
       vertex 0.166535 0.095671 0.1
       vertex 0.177046 0.064705 0.1
       vertex 0.177046 0.064705 0
    endloop
  endfacet
  facet normal 0.896866 0.442302 0
    outer loop
       vertex 0.166535 0.095671 0
       vertex 0.152071 0.125 0
       vertex 0.152071 0.125 0.1
    endloop
  endfacet
  facet normal 0.896866 0.442302 0
    outer loop
       vertex 0.152071 0.125 0.1
       vertex 0.166535 0.095671 0.1
       vertex 0.166535 0.095671 0
    endloop
  endfacet
  facet normal 0.831476 0.555561 0
    outer loop
       vertex 0.152071 0.125 0
       vertex 0.133903 0.152191 0
       vertex 0.133903 0.152191 0.1
    endloop
  endfacet
  facet normal 0.831476 0.555561 0
    outer loop
       vertex 0.133903 0.152191 0.1
       vertex 0.152071 0.125 0.1
       vertex 0.152071 0.125 0
    endloop
  endfacet
  facet normal 0.751817 0.659372 0
    outer loop
       vertex 0.133903 0.152191 0
       vertex 0.112341 0.176776 0
       vertex 0.112341 0.176776 0.1
    endloop
  endfacet
  facet normal 0.751817 0.659372 0
    outer loop
       vertex 0.112341 0.176776 0.1
       vertex 0.133903 0.152191 0.1
       vertex 0.133903 0.152191 0
    endloop
  endfacet
  facet normal 0.659372 0.751817 0
    outer loop
       vertex 0.112341 0.176776 0
       vertex 0.0877564 0.198338 0
       vertex 0.0877564 0.198338 0.1
    endloop
  endfacet
  facet normal 0.659372 0.751817 0
    outer loop
       vertex 0.0877564 0.198338 0.1
       vertex 0.112341 0.176776 0.1
       vertex 0.112341 0.176776 0
    endloop
  endfacet
  facet normal 0.555561 0.831476 0
    outer loop
       vertex 0.0877564 0.198338 0
       vertex 0.0605654 0.216506 0
       vertex 0.0605654 0.216506 0.1
    endloop
  endfacet
  facet normal 0.555561 0.831476 0
    outer loop
       vertex 0.0605654 0.216506 0.1
       vertex 0.0877564 0.198338 0.1
       vertex 0.0877564 0.198338 0
    endloop
  endfacet
  facet normal 0.442302 0.896866 0
    outer loop
       vertex 0.0605654 0.216506 0
       vertex 0.0312364 0.23097 0
       vertex 0.0312364 0.23097 0.1
    endloop
  endfacet
  facet normal 0.442302 0.896866 0
    outer loop
       vertex 0.0312364 0.23097 0.1
       vertex 0.0605654 0.216506 0.1
       vertex 0.0605654 0.216506 0
    endloop
  endfacet
  facet normal 0.321425 0.946935 0
    outer loop
       vertex 0.0312364 0.23097 0
       vertex 0.000270379 0.241481 0
       vertex 0.000270379 0.241481 0.1
    endloop
  endfacet
  facet normal 0.321425 0.946935 0
    outer loop
       vertex 0.000270379 0.241481 0.1
       vertex 0.0312364 0.23097 0.1
       vertex 0.0312364 0.23097 0
    endloop
  endfacet
  facet normal 0.195096 0.980784 0
    outer loop
       vertex 0.000270379 0.241481 0
       vertex -0.0318031 0.247861 0
       vertex -0.0318031 0.247861 0.1
    endloop
  endfacet
  facet normal 0.195096 0.980784 0
    outer loop
       vertex -0.0318031 0.247861 0.1
       vertex 0.000270379 0.241481 0.1
       vertex 0.000270379 0.241481 0
    endloop
  endfacet
  facet normal 0.0654098 0.997858 0
    outer loop
       vertex -0.0644346 0.25 0.1
       vertex -0.0318031 0.247861 0.1
       vertex -0.0318031 0.247861 0
    endloop
  endfacet
  facet normal 0.0654098 0.997858 -1.08928e-16
    outer loop
       vertex -0.0318031 0.247861 0
       vertex -0.0644346 0.25 0
       vertex -0.0644346 0.25 0.1
    endloop
  endfacet
  facet normal -0.0654098 0.997858 0
    outer loop
       vertex -0.0644346 0.25 0
       vertex -0.0970661 0.247861 0
       vertex -0.0970661 0.247861 0.1
    endloop
  endfacet
  facet normal -0.0654098 0.997858 1.0893e-16
    outer loop
       vertex -0.0970661 0.247861 0.1
       vertex -0.0644346 0.25 0.1
       vertex -0.0644346 0.25 0
    endloop
  endfacet
  facet normal -0.195096 0.980784 0
    outer loop
       vertex -0.0970661 0.247861 0
       vertex -0.12914 0.241481 0
       vertex -0.12914 0.241481 0.1
    endloop
  endfacet
  facet normal -0.195096 0.980784 0
    outer loop
       vertex -0.12914 0.241481 0.1
       vertex -0.0970661 0.247861 0.1
       vertex -0.0970661 0.247861 0
    endloop
  endfacet
  facet normal -0.321425 0.946935 0
    outer loop
       vertex -0.12914 0.241481 0
       vertex -0.160106 0.23097 0
       vertex -0.160106 0.23097 0.1
    endloop
  endfacet
  facet normal -0.321425 0.946935 0
    outer loop
       vertex -0.160106 0.23097 0.1
       vertex -0.12914 0.241481 0.1
       vertex -0.12914 0.241481 0
    endloop
  endfacet
  facet normal -0.442302 0.896866 0
    outer loop
       vertex -0.160106 0.23097 0
       vertex -0.189435 0.216506 0
       vertex -0.189435 0.216506 0.1
    endloop
  endfacet
  facet normal -0.442302 0.896866 0
    outer loop
       vertex -0.189435 0.216506 0.1
       vertex -0.160106 0.23097 0.1
       vertex -0.160106 0.23097 0
    endloop
  endfacet
  facet normal -0.555561 0.831476 0
    outer loop
       vertex -0.189435 0.216506 0
       vertex -0.216626 0.198338 0
       vertex -0.216626 0.198338 0.1
    endloop
  endfacet
  facet normal -0.555561 0.831476 0
    outer loop
       vertex -0.216626 0.198338 0.1
       vertex -0.189435 0.216506 0.1
       vertex -0.189435 0.216506 0
    endloop
  endfacet
  facet normal -0.659372 0.751817 0
    outer loop
       vertex -0.216626 0.198338 0
       vertex -0.241211 0.176776 0
       vertex -0.241211 0.176776 0.1
    endloop
  endfacet
  facet normal -0.659372 0.751817 0
    outer loop
       vertex -0.241211 0.176776 0.1
       vertex -0.216626 0.198338 0.1
       vertex -0.216626 0.198338 0
    endloop
  endfacet
  facet normal -0.751817 0.659372 0
    outer loop
       vertex -0.241211 0.176776 0
       vertex -0.262773 0.152191 0
       vertex -0.262773 0.152191 0.1
    endloop
  endfacet
  facet normal -0.751817 0.659372 0
    outer loop
       vertex -0.262773 0.152191 0.1
       vertex -0.241211 0.176776 0.1
       vertex -0.241211 0.176776 0
    endloop
  endfacet
  facet normal -0.831476 0.555561 0
    outer loop
       vertex -0.262773 0.152191 0
       vertex -0.280941 0.125 0
       vertex -0.280941 0.125 0.1
    endloop
  endfacet
  facet normal -0.831476 0.555561 0
    outer loop
       vertex -0.280941 0.125 0.1
       vertex -0.262773 0.152191 0.1
       vertex -0.262773 0.152191 0
    endloop
  endfacet
  facet normal -0.896866 0.442302 0
    outer loop
       vertex -0.280941 0.125 0
       vertex -0.295405 0.095671 0
       vertex -0.295405 0.095671 0.1
    endloop
  endfacet
  facet normal -0.896866 0.442302 0
    outer loop
       vertex -0.295405 0.095671 0.1
       vertex -0.280941 0.125 0.1
       vertex -0.280941 0.125 0
    endloop
  endfacet
  facet normal -0.946935 0.321425 0
    outer loop
       vertex -0.295405 0.095671 0
       vertex -0.305916 0.064705 0
       vertex -0.305916 0.064705 0.1
    endloop
  endfacet
  facet normal -0.946935 0.321425 0
    outer loop
       vertex -0.305916 0.064705 0.1
       vertex -0.295405 0.095671 0.1
       vertex -0.295405 0.095671 0
    endloop
  endfacet
  facet normal -0.980784 0.195096 0
    outer loop
       vertex -0.305916 0.064705 0
       vertex -0.312296 0.0326315 0
       vertex -0.312296 0.0326315 0.1
    endloop
  endfacet
  facet normal -0.980784 0.195096 0
    outer loop
       vertex -0.312296 0.0326315 0.1
       vertex -0.305916 0.064705 0.1
       vertex -0.305916 0.064705 0
    endloop
  endfacet
  facet normal -0.997858 0.0654098 0
    outer loop
       vertex -0.314435 8.32665e-17 0.1
       vertex -0.312296 0.0326315 0.1
       vertex -0.312296 0.0326315 0
    endloop
  endfacet
  facet normal -0.997858 0.0654098 -1.08928e-16
    outer loop
       vertex -0.312296 0.0326315 0
       vertex -0.314435 -8.32665e-17 0
       vertex -0.314435 8.32665e-17 0.1
    endloop
  endfacet
  facet normal -0.997858 -0.0654098 0
    outer loop
       vertex -0.314435 -8.32665e-17 0
       vertex -0.312296 -0.0326315 0
       vertex -0.312296 -0.0326315 0.1
    endloop
  endfacet
  facet normal -0.997858 -0.0654098 1.08928e-16
    outer loop
       vertex -0.312296 -0.0326315 0.1
       vertex -0.314435 8.32665e-17 0.1
       vertex -0.314435 -8.32665e-17 0
    endloop
  endfacet
  facet normal -0.980784 -0.195096 0
    outer loop
       vertex -0.312296 -0.0326315 0
       vertex -0.305916 -0.064705 0
       vertex -0.305916 -0.064705 0.1
    endloop
  endfacet
  facet normal -0.980784 -0.195096 0
    outer loop
       vertex -0.305916 -0.064705 0.1
       vertex -0.312296 -0.0326315 0.1
       vertex -0.312296 -0.0326315 0
    endloop
  endfacet
  facet normal -0.946935 -0.321425 0
    outer loop
       vertex -0.305916 -0.064705 0
       vertex -0.295405 -0.095671 0
       vertex -0.295405 -0.095671 0.1
    endloop
  endfacet
  facet normal -0.946935 -0.321425 0
    outer loop
       vertex -0.295405 -0.095671 0.1
       vertex -0.305916 -0.064705 0.1
       vertex -0.305916 -0.064705 0
    endloop
  endfacet
  facet normal -0.896866 -0.442302 0
    outer loop
       vertex -0.295405 -0.095671 0
       vertex -0.280941 -0.125 0
       vertex -0.280941 -0.125 0.1
    endloop
  endfacet
  facet normal -0.896866 -0.442302 0
    outer loop
       vertex -0.280941 -0.125 0.1
       vertex -0.295405 -0.095671 0.1
       vertex -0.295405 -0.095671 0
    endloop
  endfacet
  facet normal -0.831476 -0.555561 0
    outer loop
       vertex -0.280941 -0.125 0
       vertex -0.262773 -0.152191 0
       vertex -0.262773 -0.152191 0.1
    endloop
  endfacet
  facet normal -0.831476 -0.555561 0
    outer loop
       vertex -0.262773 -0.152191 0.1
       vertex -0.280941 -0.125 0.1
       vertex -0.280941 -0.125 0
    endloop
  endfacet
  facet normal -0.751817 -0.659372 0
    outer loop
       vertex -0.262773 -0.152191 0
       vertex -0.241211 -0.176776 0
       vertex -0.241211 -0.176776 0.1
    endloop
  endfacet
  facet normal -0.751817 -0.659372 0
    outer loop
       vertex -0.241211 -0.176776 0.1
       vertex -0.262773 -0.152191 0.1
       vertex -0.262773 -0.152191 0
    endloop
  endfacet
  facet normal 0.659372 -0.751817 0
    outer loop
       vertex 0.112341 -0.176776 0
       vertex 0.112341 -0.176776 0.1
       vertex 0.0877564 -0.198338 0.1
    endloop
  endfacet
  facet normal 0.659372 -0.751817 0
    outer loop
       vertex 0.0877564 -0.198338 0.1
       vertex 0.0877564 -0.198338 0
       vertex 0.112341 -0.176776 0
    endloop
  endfacet
  facet normal 0.555561 -0.831476 0
    outer loop
       vertex 0.0877564 -0.198338 0
       vertex 0.0877564 -0.198338 0.1
       vertex 0.0605654 -0.216506 0.1
    endloop
  endfacet
  facet normal 0.555561 -0.831476 0
    outer loop
       vertex 0.0605654 -0.216506 0.1
       vertex 0.0605654 -0.216506 0
       vertex 0.0877564 -0.198338 0
    endloop
  endfacet
  facet normal 0.442302 -0.896866 0
    outer loop
       vertex 0.0605654 -0.216506 0
       vertex 0.0605654 -0.216506 0.1
       vertex 0.0312364 -0.23097 0.1
    endloop
  endfacet
  facet normal 0.442302 -0.896866 0
    outer loop
       vertex 0.0312364 -0.23097 0.1
       vertex 0.0312364 -0.23097 0
       vertex 0.0605654 -0.216506 0
    endloop
  endfacet
  facet normal 0.321425 -0.946935 0
    outer loop
       vertex 0.0312364 -0.23097 0
       vertex 0.0312364 -0.23097 0.1
       vertex 0.000270379 -0.241481 0.1
    endloop
  endfacet
  facet normal 0.321425 -0.946935 0
    outer loop
       vertex 0.000270379 -0.241481 0.1
       vertex 0.000270379 -0.241481 0
       vertex 0.0312364 -0.23097 0
    endloop
  endfacet
  facet normal 0.195096 -0.980784 0
    outer loop
       vertex 0.000270379 -0.241481 0
       vertex 0.000270379 -0.241481 0.1
       vertex -0.0318031 -0.247861 0.1
    endloop
  endfacet
  facet normal 0.195096 -0.980784 0
    outer loop
       vertex -0.0318031 -0.247861 0.1
       vertex -0.0318031 -0.247861 0
       vertex 0.000270379 -0.241481 0
    endloop
  endfacet
  facet normal 0.0654098 -0.997858 0
    outer loop
       vertex -0.0644346 -0.25 0
       vertex -0.0318031 -0.247861 0
       vertex -0.0318031 -0.247861 0.1
    endloop
  endfacet
  facet normal 0.0654098 -0.997858 1.08928e-16
    outer loop
       vertex -0.0318031 -0.247861 0.1
       vertex -0.0644346 -0.25 0.1
       vertex -0.0644346 -0.25 0
    endloop
  endfacet
  facet normal -0.0654098 -0.997858 0
    outer loop
       vertex -0.0644346 -0.25 0.1
       vertex -0.0970661 -0.247861 0.1
       vertex -0.0970661 -0.247861 0
    endloop
  endfacet
  facet normal -0.0654098 -0.997858 -1.0893e-16
    outer loop
       vertex -0.0970661 -0.247861 0
       vertex -0.0644346 -0.25 0
       vertex -0.0644346 -0.25 0.1
    endloop
  endfacet
  facet normal -0.195096 -0.980784 0
    outer loop
       vertex -0.0970661 -0.247861 0
       vertex -0.0970661 -0.247861 0.1
       vertex -0.12914 -0.241481 0.1
    endloop
  endfacet
  facet normal -0.195096 -0.980784 -0
    outer loop
       vertex -0.12914 -0.241481 0.1
       vertex -0.12914 -0.241481 0
       vertex -0.0970661 -0.247861 0
    endloop
  endfacet
  facet normal -0.321425 -0.946935 0
    outer loop
       vertex -0.12914 -0.241481 0
       vertex -0.12914 -0.241481 0.1
       vertex -0.160106 -0.23097 0.1
    endloop
  endfacet
  facet normal -0.321425 -0.946935 -0
    outer loop
       vertex -0.160106 -0.23097 0.1
       vertex -0.160106 -0.23097 0
       vertex -0.12914 -0.241481 0
    endloop
  endfacet
  facet normal -0.442302 -0.896866 0
    outer loop
       vertex -0.160106 -0.23097 0
       vertex -0.160106 -0.23097 0.1
       vertex -0.189435 -0.216506 0.1
    endloop
  endfacet
  facet normal -0.442302 -0.896866 -0
    outer loop
       vertex -0.189435 -0.216506 0.1
       vertex -0.189435 -0.216506 0
       vertex -0.160106 -0.23097 0
    endloop
  endfacet
  facet normal -0.555561 -0.831476 0
    outer loop
       vertex -0.189435 -0.216506 0
       vertex -0.189435 -0.216506 0.1
       vertex -0.216626 -0.198338 0.1
    endloop
  endfacet
  facet normal -0.555561 -0.831476 -0
    outer loop
       vertex -0.216626 -0.198338 0.1
       vertex -0.216626 -0.198338 0
       vertex -0.189435 -0.216506 0
    endloop
  endfacet
  facet normal -0.659372 -0.751817 0
    outer loop
       vertex -0.216626 -0.198338 0
       vertex -0.216626 -0.198338 0.1
       vertex -0.241211 -0.176776 0.1
    endloop
  endfacet
  facet normal -0.659372 -0.751817 -0
    outer loop
       vertex -0.241211 -0.176776 0.1
       vertex -0.241211 -0.176776 0
       vertex -0.216626 -0.198338 0
    endloop
  endfacet
endsolid cylinder
