solid cylinder
  facet normal 0.751817 -0.659372 0
    outer loop
       vertex 0.246915 -0.176776 0
       vertex 0.268477 -0.152191 0
       vertex 0.268477 -0.152191 0.1
    endloop
  endfacet
  facet normal 0.751817 -0.659372 0
    outer loop
       vertex 0.268477 -0.152191 0.1
       vertex 0.246915 -0.176776 0.1
       vertex 0.246915 -0.176776 0
    endloop
  endfacet
  facet normal 0.831476 -0.555561 0
    outer loop
       vertex 0.268477 -0.152191 0
       vertex 0.286645 -0.125 0
       vertex 0.286645 -0.125 0.1
    endloop
  endfacet
  facet normal 0.831476 -0.555561 0
    outer loop
       vertex 0.286645 -0.125 0.1
       vertex 0.268477 -0.152191 0.1
       vertex 0.268477 -0.152191 0
    endloop
  endfacet
  facet normal 0.896866 -0.442302 0
    outer loop
       vertex 0.286645 -0.125 0
       vertex 0.301109 -0.095671 0
       vertex 0.301109 -0.095671 0.1
    endloop
  endfacet
  facet normal 0.896866 -0.442302 0
    outer loop
       vertex 0.301109 -0.095671 0.1
       vertex 0.286645 -0.125 0.1
       vertex 0.286645 -0.125 0
    endloop
  endfacet
  facet normal 0.946935 -0.321425 0
    outer loop
       vertex 0.301109 -0.095671 0
       vertex 0.31162 -0.064705 0
       vertex 0.31162 -0.064705 0.1
    endloop
  endfacet
  facet normal 0.946935 -0.321425 0
    outer loop
       vertex 0.31162 -0.064705 0.1
       vertex 0.301109 -0.095671 0.1
       vertex 0.301109 -0.095671 0
    endloop
  endfacet
  facet normal 0.980784 -0.195096 0
    outer loop
       vertex 0.31162 -0.064705 0
       vertex 0.318 -0.0326315 0
       vertex 0.318 -0.0326315 0.1
    endloop
  endfacet
  facet normal 0.980784 -0.195096 0
    outer loop
       vertex 0.318 -0.0326315 0.1
       vertex 0.31162 -0.064705 0.1
       vertex 0.31162 -0.064705 0
    endloop
  endfacet
  facet normal 0.997858 -0.0654098 0
    outer loop
       vertex 0.320139 -8.32665e-17 0.1
       vertex 0.318 -0.0326315 0.1
       vertex 0.318 -0.0326315 0
    endloop
  endfacet
  facet normal 0.997858 -0.0654098 -1.08928e-16
    outer loop
       vertex 0.318 -0.0326315 0
       vertex 0.320139 8.32665e-17 0
       vertex 0.320139 -8.32665e-17 0.1
    endloop
  endfacet
  facet normal 0.997858 0.0654098 0
    outer loop
       vertex 0.320139 8.32665e-17 0
       vertex 0.318 0.0326315 0
       vertex 0.318 0.0326315 0.1
    endloop
  endfacet
  facet normal 0.997858 0.0654098 1.08928e-16
    outer loop
       vertex 0.318 0.0326315 0.1
       vertex 0.320139 -8.32665e-17 0.1
       vertex 0.320139 8.32665e-17 0
    endloop
  endfacet
  facet normal 0.980784 0.195096 0
    outer loop
       vertex 0.318 0.0326315 0
       vertex 0.31162 0.064705 0
       vertex 0.31162 0.064705 0.1
    endloop
  endfacet
  facet normal 0.980784 0.195096 0
    outer loop
       vertex 0.31162 0.064705 0.1
       vertex 0.318 0.0326315 0.1
       vertex 0.318 0.0326315 0
    endloop
  endfacet
  facet normal 0.946935 0.321425 0
    outer loop
       vertex 0.31162 0.064705 0
       vertex 0.301109 0.095671 0
       vertex 0.301109 0.095671 0.1
    endloop
  endfacet
  facet normal 0.946935 0.321425 0
    outer loop
       vertex 0.301109 0.095671 0.1
       vertex 0.31162 0.064705 0.1
       vertex 0.31162 0.064705 0
    endloop
  endfacet
  facet normal 0.896866 0.442302 0
    outer loop
       vertex 0.301109 0.095671 0
       vertex 0.286645 0.125 0
       vertex 0.286645 0.125 0.1
    endloop
  endfacet
  facet normal 0.896866 0.442302 0
    outer loop
       vertex 0.286645 0.125 0.1
       vertex 0.301109 0.095671 0.1
       vertex 0.301109 0.095671 0
    endloop
  endfacet
  facet normal 0.831476 0.555561 0
    outer loop
       vertex 0.286645 0.125 0
       vertex 0.268477 0.152191 0
       vertex 0.268477 0.152191 0.1
    endloop
  endfacet
  facet normal 0.831476 0.555561 0
    outer loop
       vertex 0.268477 0.152191 0.1
       vertex 0.286645 0.125 0.1
       vertex 0.286645 0.125 0
    endloop
  endfacet
  facet normal 0.751817 0.659372 0
    outer loop
       vertex 0.268477 0.152191 0
       vertex 0.246915 0.176776 0
       vertex 0.246915 0.176776 0.1
    endloop
  endfacet
  facet normal 0.751817 0.659372 0
    outer loop
       vertex 0.246915 0.176776 0.1
       vertex 0.268477 0.152191 0.1
       vertex 0.268477 0.152191 0
    endloop
  endfacet
  facet normal 0.659372 0.751817 0
    outer loop
       vertex 0.246915 0.176776 0
       vertex 0.22233 0.198338 0
       vertex 0.22233 0.198338 0.1
    endloop
  endfacet
  facet normal 0.659372 0.751817 0
    outer loop
       vertex 0.22233 0.198338 0.1
       vertex 0.246915 0.176776 0.1
       vertex 0.246915 0.176776 0
    endloop
  endfacet
  facet normal 0.555561 0.831476 0
    outer loop
       vertex 0.22233 0.198338 0
       vertex 0.195139 0.216506 0
       vertex 0.195139 0.216506 0.1
    endloop
  endfacet
  facet normal 0.555561 0.831476 0
    outer loop
       vertex 0.195139 0.216506 0.1
       vertex 0.22233 0.198338 0.1
       vertex 0.22233 0.198338 0
    endloop
  endfacet
  facet normal 0.442302 0.896866 0
    outer loop
       vertex 0.195139 0.216506 0
       vertex 0.16581 0.23097 0
       vertex 0.16581 0.23097 0.1
    endloop
  endfacet
  facet normal 0.442302 0.896866 0
    outer loop
       vertex 0.16581 0.23097 0.1
       vertex 0.195139 0.216506 0.1
       vertex 0.195139 0.216506 0
    endloop
  endfacet
  facet normal 0.321425 0.946935 0
    outer loop
       vertex 0.16581 0.23097 0
       vertex 0.134844 0.241481 0
       vertex 0.134844 0.241481 0.1
    endloop
  endfacet
  facet normal 0.321425 0.946935 0
    outer loop
       vertex 0.134844 0.241481 0.1
       vertex 0.16581 0.23097 0.1
       vertex 0.16581 0.23097 0
    endloop
  endfacet
  facet normal 0.195096 0.980784 0
    outer loop
       vertex 0.134844 0.241481 0
       vertex 0.102771 0.247861 0
       vertex 0.102771 0.247861 0.1
    endloop
  endfacet
  facet normal 0.195096 0.980784 0
    outer loop
       vertex 0.102771 0.247861 0.1
       vertex 0.134844 0.241481 0.1
       vertex 0.134844 0.241481 0
    endloop
  endfacet
  facet normal 0.0654098 0.997858 0
    outer loop
       vertex 0.0701391 0.25 0.1
       vertex 0.102771 0.247861 0.1
       vertex 0.102771 0.247861 0
    endloop
  endfacet
  facet normal 0.0654098 0.997858 -1.0893e-16
    outer loop
       vertex 0.102771 0.247861 0
       vertex 0.0701391 0.25 0
       vertex 0.0701391 0.25 0.1
    endloop
  endfacet
  facet normal -0.0654098 0.997858 0
    outer loop
       vertex 0.0701391 0.25 0
       vertex 0.0375076 0.247861 0
       vertex 0.0375076 0.247861 0.1
    endloop
  endfacet
  facet normal -0.0654098 0.997858 1.08928e-16
    outer loop
       vertex 0.0375076 0.247861 0.1
       vertex 0.0701391 0.25 0.1
       vertex 0.0701391 0.25 0
    endloop
  endfacet
  facet normal -0.195096 0.980784 0
    outer loop
       vertex 0.0375076 0.247861 0
       vertex 0.00543408 0.241481 0
       vertex 0.00543408 0.241481 0.1
    endloop
  endfacet
  facet normal -0.195096 0.980784 0
    outer loop
       vertex 0.00543408 0.241481 0.1
       vertex 0.0375076 0.247861 0.1
       vertex 0.0375076 0.247861 0
    endloop
  endfacet
  facet normal -0.321425 0.946935 0
    outer loop
       vertex 0.00543408 0.241481 0
       vertex -0.0255319 0.23097 0
       vertex -0.0255319 0.23097 0.1
    endloop
  endfacet
  facet normal -0.321425 0.946935 0
    outer loop
       vertex -0.0255319 0.23097 0.1
       vertex 0.00543408 0.241481 0.1
       vertex 0.00543408 0.241481 0
    endloop
  endfacet
  facet normal -0.442302 0.896866 0
    outer loop
       vertex -0.0255319 0.23097 0
       vertex -0.0548609 0.216506 0
       vertex -0.0548609 0.216506 0.1
    endloop
  endfacet
  facet normal -0.442302 0.896866 0
    outer loop
       vertex -0.0548609 0.216506 0.1
       vertex -0.0255319 0.23097 0.1
       vertex -0.0255319 0.23097 0
    endloop
  endfacet
  facet normal -0.555561 0.831476 0
    outer loop
       vertex -0.0548609 0.216506 0
       vertex -0.0820519 0.198338 0
       vertex -0.0820519 0.198338 0.1
    endloop
  endfacet
  facet normal -0.555561 0.831476 0
    outer loop
       vertex -0.0820519 0.198338 0.1
       vertex -0.0548609 0.216506 0.1
       vertex -0.0548609 0.216506 0
    endloop
  endfacet
  facet normal -0.659372 0.751817 0
    outer loop
       vertex -0.0820519 0.198338 0
       vertex -0.106637 0.176776 0
       vertex -0.106637 0.176776 0.1
    endloop
  endfacet
  facet normal -0.659372 0.751817 0
    outer loop
       vertex -0.106637 0.176776 0.1
       vertex -0.0820519 0.198338 0.1
       vertex -0.0820519 0.198338 0
    endloop
  endfacet
  facet normal -0.751817 0.659372 0
    outer loop
       vertex -0.106637 0.176776 0
       vertex -0.128199 0.152191 0
       vertex -0.128199 0.152191 0.1
    endloop
  endfacet
  facet normal -0.751817 0.659372 0
    outer loop
       vertex -0.128199 0.152191 0.1
       vertex -0.106637 0.176776 0.1
       vertex -0.106637 0.176776 0
    endloop
  endfacet
  facet normal -0.831476 0.555561 0
    outer loop
       vertex -0.128199 0.152191 0
       vertex -0.146367 0.125 0
       vertex -0.146367 0.125 0.1
    endloop
  endfacet
  facet normal -0.831476 0.555561 0
    outer loop
       vertex -0.146367 0.125 0.1
       vertex -0.128199 0.152191 0.1
       vertex -0.128199 0.152191 0
    endloop
  endfacet
  facet normal -0.896866 0.442302 0
    outer loop
       vertex -0.146367 0.125 0
       vertex -0.160831 0.095671 0
       vertex -0.160831 0.095671 0.1
    endloop
  endfacet
  facet normal -0.896866 0.442302 0
    outer loop
       vertex -0.160831 0.095671 0.1
       vertex -0.146367 0.125 0.1
       vertex -0.146367 0.125 0
    endloop
  endfacet
  facet normal -0.946935 0.321425 0
    outer loop
       vertex -0.160831 0.095671 0
       vertex -0.171342 0.064705 0
       vertex -0.171342 0.064705 0.1
    endloop
  endfacet
  facet normal -0.946935 0.321425 0
    outer loop
       vertex -0.171342 0.064705 0.1
       vertex -0.160831 0.095671 0.1
       vertex -0.160831 0.095671 0
    endloop
  endfacet
  facet normal -0.980784 0.195096 0
    outer loop
       vertex -0.171342 0.064705 0
       vertex -0.177722 0.0326315 0
       vertex -0.177722 0.0326315 0.1
    endloop
  endfacet
  facet normal -0.980784 0.195096 0
    outer loop
       vertex -0.177722 0.0326315 0.1
       vertex -0.171342 0.064705 0.1
       vertex -0.171342 0.064705 0
    endloop
  endfacet
  facet normal -0.997858 0.0654098 0
    outer loop
       vertex -0.179861 8.32665e-17 0.1
       vertex -0.177722 0.0326315 0.1
       vertex -0.177722 0.0326315 0
    endloop
  endfacet
  facet normal -0.997858 0.0654098 -1.08928e-16
    outer loop
       vertex -0.177722 0.0326315 0
       vertex -0.179861 -8.32665e-17 0
       vertex -0.179861 8.32665e-17 0.1
    endloop
  endfacet
  facet normal -0.997858 -0.0654098 0
    outer loop
       vertex -0.179861 -8.32665e-17 0
       vertex -0.177722 -0.0326315 0
       vertex -0.177722 -0.0326315 0.1
    endloop
  endfacet
  facet normal -0.997858 -0.0654098 1.08928e-16
    outer loop
       vertex -0.177722 -0.0326315 0.1
       vertex -0.179861 8.32665e-17 0.1
       vertex -0.179861 -8.32665e-17 0
    endloop
  endfacet
  facet normal -0.980784 -0.195096 0
    outer loop
       vertex -0.177722 -0.0326315 0
       vertex -0.171342 -0.064705 0
       vertex -0.171342 -0.064705 0.1
    endloop
  endfacet
  facet normal -0.980784 -0.195096 0
    outer loop
       vertex -0.171342 -0.064705 0.1
       vertex -0.177722 -0.0326315 0.1
       vertex -0.177722 -0.0326315 0
    endloop
  endfacet
  facet normal -0.946935 -0.321425 0
    outer loop
       vertex -0.171342 -0.064705 0
       vertex -0.160831 -0.095671 0
       vertex -0.160831 -0.095671 0.1
    endloop
  endfacet
  facet normal -0.946935 -0.321425 0
    outer loop
       vertex -0.160831 -0.095671 0.1
       vertex -0.171342 -0.064705 0.1
       vertex -0.171342 -0.064705 0
    endloop
  endfacet
  facet normal -0.896866 -0.442302 0
    outer loop
       vertex -0.160831 -0.095671 0
       vertex -0.146367 -0.125 0
       vertex -0.146367 -0.125 0.1
    endloop
  endfacet
  facet normal -0.896866 -0.442302 0
    outer loop
       vertex -0.146367 -0.125 0.1
       vertex -0.160831 -0.095671 0.1
       vertex -0.160831 -0.095671 0
    endloop
  endfacet
  facet normal -0.831476 -0.555561 0
    outer loop
       vertex -0.146367 -0.125 0
       vertex -0.128199 -0.152191 0
       vertex -0.128199 -0.152191 0.1
    endloop
  endfacet
  facet normal -0.831476 -0.555561 0
    outer loop
       vertex -0.128199 -0.152191 0.1
       vertex -0.146367 -0.125 0.1
       vertex -0.146367 -0.125 0
    endloop
  endfacet
  facet normal -0.751817 -0.659372 0
    outer loop
       vertex -0.128199 -0.152191 0
       vertex -0.106637 -0.176776 0
       vertex -0.106637 -0.176776 0.1
    endloop
  endfacet
  facet normal -0.751817 -0.659372 0
    outer loop
       vertex -0.106637 -0.176776 0.1
       vertex -0.128199 -0.152191 0.1
       vertex -0.128199 -0.152191 0
    endloop
  endfacet
  facet normal 0.659372 -0.751817 0
    outer loop
       vertex 0.246915 -0.176776 0
       vertex 0.246915 -0.176776 0.1
       vertex 0.22233 -0.198338 0.1
    endloop
  endfacet
  facet normal 0.659372 -0.751817 0
    outer loop
       vertex 0.22233 -0.198338 0.1
       vertex 0.22233 -0.198338 0
       vertex 0.246915 -0.176776 0
    endloop
  endfacet
  facet normal 0.555561 -0.831476 0
    outer loop
       vertex 0.22233 -0.198338 0
       vertex 0.22233 -0.198338 0.1
       vertex 0.195139 -0.216506 0.1
    endloop
  endfacet
  facet normal 0.555561 -0.831476 0
    outer loop
       vertex 0.195139 -0.216506 0.1
       vertex 0.195139 -0.216506 0
       vertex 0.22233 -0.198338 0
    endloop
  endfacet
  facet normal 0.442302 -0.896866 0
    outer loop
       vertex 0.195139 -0.216506 0
       vertex 0.195139 -0.216506 0.1
       vertex 0.16581 -0.23097 0.1
    endloop
  endfacet
  facet normal 0.442302 -0.896866 0
    outer loop
       vertex 0.16581 -0.23097 0.1
       vertex 0.16581 -0.23097 0
       vertex 0.195139 -0.216506 0
    endloop
  endfacet
  facet normal 0.321425 -0.946935 0
    outer loop
       vertex 0.16581 -0.23097 0
       vertex 0.16581 -0.23097 0.1
       vertex 0.134844 -0.241481 0.1
    endloop
  endfacet
  facet normal 0.321425 -0.946935 0
    outer loop
       vertex 0.134844 -0.241481 0.1
       vertex 0.134844 -0.241481 0
       vertex 0.16581 -0.23097 0
    endloop
  endfacet
  facet normal 0.195096 -0.980784 0
    outer loop
       vertex 0.134844 -0.241481 0
       vertex 0.134844 -0.241481 0.1
       vertex 0.102771 -0.247861 0.1
    endloop
  endfacet
  facet normal 0.195096 -0.980784 0
    outer loop
       vertex 0.102771 -0.247861 0.1
       vertex 0.102771 -0.247861 0
       vertex 0.134844 -0.241481 0
    endloop
  endfacet
  facet normal 0.0654098 -0.997858 0
    outer loop
       vertex 0.0701391 -0.25 0
       vertex 0.102771 -0.247861 0
       vertex 0.102771 -0.247861 0.1
    endloop
  endfacet
  facet normal 0.0654098 -0.997858 1.0893e-16
    outer loop
       vertex 0.102771 -0.247861 0.1
       vertex 0.0701391 -0.25 0.1
       vertex 0.0701391 -0.25 0
    endloop
  endfacet
  facet normal -0.0654098 -0.997858 0
    outer loop
       vertex 0.0701391 -0.25 0.1
       vertex 0.0375076 -0.247861 0.1
       vertex 0.0375076 -0.247861 0
    endloop
  endfacet
  facet normal -0.0654098 -0.997858 -1.08928e-16
    outer loop
       vertex 0.0375076 -0.247861 0
       vertex 0.0701391 -0.25 0
       vertex 0.0701391 -0.25 0.1
    endloop
  endfacet
  facet normal -0.195096 -0.980784 0
    outer loop
       vertex 0.0375076 -0.247861 0
       vertex 0.0375076 -0.247861 0.1
       vertex 0.00543408 -0.241481 0.1
    endloop
  endfacet
  facet normal -0.195096 -0.980784 -0
    outer loop
       vertex 0.00543408 -0.241481 0.1
       vertex 0.00543408 -0.241481 0
       vertex 0.0375076 -0.247861 0
    endloop
  endfacet
  facet normal -0.321425 -0.946935 0
    outer loop
       vertex 0.00543408 -0.241481 0
       vertex 0.00543408 -0.241481 0.1
       vertex -0.0255319 -0.23097 0.1
    endloop
  endfacet
  facet normal -0.321425 -0.946935 -0
    outer loop
       vertex -0.0255319 -0.23097 0.1
       vertex -0.0255319 -0.23097 0
       vertex 0.00543408 -0.241481 0
    endloop
  endfacet
  facet normal -0.442302 -0.896866 0
    outer loop
       vertex -0.0255319 -0.23097 0
       vertex -0.0255319 -0.23097 0.1
       vertex -0.0548609 -0.216506 0.1
    endloop
  endfacet
  facet normal -0.442302 -0.896866 -0
    outer loop
       vertex -0.0548609 -0.216506 0.1
       vertex -0.0548609 -0.216506 0
       vertex -0.0255319 -0.23097 0
    endloop
  endfacet
  facet normal -0.555561 -0.831476 0
    outer loop
       vertex -0.0548609 -0.216506 0
       vertex -0.0548609 -0.216506 0.1
       vertex -0.0820519 -0.198338 0.1
    endloop
  endfacet
  facet normal -0.555561 -0.831476 -0
    outer loop
       vertex -0.0820519 -0.198338 0.1
       vertex -0.0820519 -0.198338 0
       vertex -0.0548609 -0.216506 0
    endloop
  endfacet
  facet normal -0.659372 -0.751817 0
    outer loop
       vertex -0.0820519 -0.198338 0
       vertex -0.0820519 -0.198338 0.1
       vertex -0.106637 -0.176776 0.1
    endloop
  endfacet
  facet normal -0.659372 -0.751817 -0
    outer loop
       vertex -0.106637 -0.176776 0.1
       vertex -0.106637 -0.176776 0
       vertex -0.0820519 -0.198338 0
    endloop
  endfacet
endsolid cylinder
