solid cylinder
  facet normal 0.751817 -0.659372 0
    outer loop
       vertex 0.435394 -0.176776 0
       vertex 0.456956 -0.152191 0
       vertex 0.456956 -0.152191 0.1
    endloop
  endfacet
  facet normal 0.751817 -0.659372 0
    outer loop
       vertex 0.456956 -0.152191 0.1
       vertex 0.435394 -0.176776 0.1
       vertex 0.435394 -0.176776 0
    endloop
  endfacet
  facet normal 0.831476 -0.555561 0
    outer loop
       vertex 0.456956 -0.152191 0
       vertex 0.475124 -0.125 0
       vertex 0.475124 -0.125 0.1
    endloop
  endfacet
  facet normal 0.831476 -0.555561 0
    outer loop
       vertex 0.475124 -0.125 0.1
       vertex 0.456956 -0.152191 0.1
       vertex 0.456956 -0.152191 0
    endloop
  endfacet
  facet normal 0.896866 -0.442302 0
    outer loop
       vertex 0.475124 -0.125 0
       vertex 0.489588 -0.095671 0
       vertex 0.489588 -0.095671 0.1
    endloop
  endfacet
  facet normal 0.896866 -0.442302 0
    outer loop
       vertex 0.489588 -0.095671 0.1
       vertex 0.475124 -0.125 0.1
       vertex 0.475124 -0.125 0
    endloop
  endfacet
  facet normal 0.946935 -0.321425 0
    outer loop
       vertex 0.489588 -0.095671 0
       vertex 0.500099 -0.064705 0
       vertex 0.500099 -0.064705 0.1
    endloop
  endfacet
  facet normal 0.946935 -0.321425 0
    outer loop
       vertex 0.500099 -0.064705 0.1
       vertex 0.489588 -0.095671 0.1
       vertex 0.489588 -0.095671 0
    endloop
  endfacet
  facet normal 0.980784 -0.195096 0
    outer loop
       vertex 0.500099 -0.064705 0
       vertex 0.506479 -0.0326315 0
       vertex 0.506479 -0.0326315 0.1
    endloop
  endfacet
  facet normal 0.980784 -0.195096 0
    outer loop
       vertex 0.506479 -0.0326315 0.1
       vertex 0.500099 -0.064705 0.1
       vertex 0.500099 -0.064705 0
    endloop
  endfacet
  facet normal 0.997858 -0.0654098 0
    outer loop
       vertex 0.508618 -8.32665e-17 0.1
       vertex 0.506479 -0.0326315 0.1
       vertex 0.506479 -0.0326315 0
    endloop
  endfacet
  facet normal 0.997858 -0.0654098 -1.0893e-16
    outer loop
       vertex 0.506479 -0.0326315 0
       vertex 0.508618 8.32665e-17 0
       vertex 0.508618 -8.32665e-17 0.1
    endloop
  endfacet
  facet normal 0.997858 0.0654098 0
    outer loop
       vertex 0.508618 8.32665e-17 0
       vertex 0.506479 0.0326315 0
       vertex 0.506479 0.0326315 0.1
    endloop
  endfacet
  facet normal 0.997858 0.0654098 1.0893e-16
    outer loop
       vertex 0.506479 0.0326315 0.1
       vertex 0.508618 -8.32665e-17 0.1
       vertex 0.508618 8.32665e-17 0
    endloop
  endfacet
  facet normal 0.980784 0.195096 0
    outer loop
       vertex 0.506479 0.0326315 0
       vertex 0.500099 0.064705 0
       vertex 0.500099 0.064705 0.1
    endloop
  endfacet
  facet normal 0.980784 0.195096 0
    outer loop
       vertex 0.500099 0.064705 0.1
       vertex 0.506479 0.0326315 0.1
       vertex 0.506479 0.0326315 0
    endloop
  endfacet
  facet normal 0.946935 0.321425 0
    outer loop
       vertex 0.500099 0.064705 0
       vertex 0.489588 0.095671 0
       vertex 0.489588 0.095671 0.1
    endloop
  endfacet
  facet normal 0.946935 0.321425 0
    outer loop
       vertex 0.489588 0.095671 0.1
       vertex 0.500099 0.064705 0.1
       vertex 0.500099 0.064705 0
    endloop
  endfacet
  facet normal 0.896866 0.442302 0
    outer loop
       vertex 0.489588 0.095671 0
       vertex 0.475124 0.125 0
       vertex 0.475124 0.125 0.1
    endloop
  endfacet
  facet normal 0.896866 0.442302 0
    outer loop
       vertex 0.475124 0.125 0.1
       vertex 0.489588 0.095671 0.1
       vertex 0.489588 0.095671 0
    endloop
  endfacet
  facet normal 0.831476 0.555561 0
    outer loop
       vertex 0.475124 0.125 0
       vertex 0.456956 0.152191 0
       vertex 0.456956 0.152191 0.1
    endloop
  endfacet
  facet normal 0.831476 0.555561 0
    outer loop
       vertex 0.456956 0.152191 0.1
       vertex 0.475124 0.125 0.1
       vertex 0.475124 0.125 0
    endloop
  endfacet
  facet normal 0.751817 0.659372 0
    outer loop
       vertex 0.456956 0.152191 0
       vertex 0.435394 0.176776 0
       vertex 0.435394 0.176776 0.1
    endloop
  endfacet
  facet normal 0.751817 0.659372 0
    outer loop
       vertex 0.435394 0.176776 0.1
       vertex 0.456956 0.152191 0.1
       vertex 0.456956 0.152191 0
    endloop
  endfacet
  facet normal 0.659372 0.751817 0
    outer loop
       vertex 0.435394 0.176776 0
       vertex 0.410809 0.198338 0
       vertex 0.410809 0.198338 0.1
    endloop
  endfacet
  facet normal 0.659372 0.751817 0
    outer loop
       vertex 0.410809 0.198338 0.1
       vertex 0.435394 0.176776 0.1
       vertex 0.435394 0.176776 0
    endloop
  endfacet
  facet normal 0.555561 0.831476 0
    outer loop
       vertex 0.410809 0.198338 0
       vertex 0.383618 0.216506 0
       vertex 0.383618 0.216506 0.1
    endloop
  endfacet
  facet normal 0.555561 0.831476 0
    outer loop
       vertex 0.383618 0.216506 0.1
       vertex 0.410809 0.198338 0.1
       vertex 0.410809 0.198338 0
    endloop
  endfacet
  facet normal 0.442302 0.896866 0
    outer loop
       vertex 0.383618 0.216506 0
       vertex 0.354289 0.23097 0
       vertex 0.354289 0.23097 0.1
    endloop
  endfacet
  facet normal 0.442302 0.896866 0
    outer loop
       vertex 0.354289 0.23097 0.1
       vertex 0.383618 0.216506 0.1
       vertex 0.383618 0.216506 0
    endloop
  endfacet
  facet normal 0.321425 0.946935 0
    outer loop
       vertex 0.354289 0.23097 0
       vertex 0.323323 0.241481 0
       vertex 0.323323 0.241481 0.1
    endloop
  endfacet
  facet normal 0.321425 0.946935 0
    outer loop
       vertex 0.323323 0.241481 0.1
       vertex 0.354289 0.23097 0.1
       vertex 0.354289 0.23097 0
    endloop
  endfacet
  facet normal 0.195096 0.980784 0
    outer loop
       vertex 0.323323 0.241481 0
       vertex 0.291249 0.247861 0
       vertex 0.291249 0.247861 0.1
    endloop
  endfacet
  facet normal 0.195096 0.980784 0
    outer loop
       vertex 0.291249 0.247861 0.1
       vertex 0.323323 0.241481 0.1
       vertex 0.323323 0.241481 0
    endloop
  endfacet
  facet normal 0.0654098 0.997858 0
    outer loop
       vertex 0.258618 0.25 0.1
       vertex 0.291249 0.247861 0.1
       vertex 0.291249 0.247861 0
    endloop
  endfacet
  facet normal 0.0654098 0.997858 -7.26205e-17
    outer loop
       vertex 0.291249 0.247861 0
       vertex 0.258618 0.25 0
       vertex 0.258618 0.25 0.1
    endloop
  endfacet
  facet normal -0.0654098 0.997858 0
    outer loop
       vertex 0.258618 0.25 0
       vertex 0.225986 0.247861 0
       vertex 0.225986 0.247861 0.1
    endloop
  endfacet
  facet normal -0.0654098 0.997858 7.26205e-17
    outer loop
       vertex 0.225986 0.247861 0.1
       vertex 0.258618 0.25 0.1
       vertex 0.258618 0.25 0
    endloop
  endfacet
  facet normal -0.195096 0.980784 0
    outer loop
       vertex 0.225986 0.247861 0
       vertex 0.193913 0.241481 0
       vertex 0.193913 0.241481 0.1
    endloop
  endfacet
  facet normal -0.195096 0.980784 0
    outer loop
       vertex 0.193913 0.241481 0.1
       vertex 0.225986 0.247861 0.1
       vertex 0.225986 0.247861 0
    endloop
  endfacet
  facet normal -0.321425 0.946935 0
    outer loop
       vertex 0.193913 0.241481 0
       vertex 0.162947 0.23097 0
       vertex 0.162947 0.23097 0.1
    endloop
  endfacet
  facet normal -0.321425 0.946935 0
    outer loop
       vertex 0.162947 0.23097 0.1
       vertex 0.193913 0.241481 0.1
       vertex 0.193913 0.241481 0
    endloop
  endfacet
  facet normal -0.442302 0.896866 0
    outer loop
       vertex 0.162947 0.23097 0
       vertex 0.133618 0.216506 0
       vertex 0.133618 0.216506 0.1
    endloop
  endfacet
  facet normal -0.442302 0.896866 0
    outer loop
       vertex 0.133618 0.216506 0.1
       vertex 0.162947 0.23097 0.1
       vertex 0.162947 0.23097 0
    endloop
  endfacet
  facet normal -0.555561 0.831476 0
    outer loop
       vertex 0.133618 0.216506 0
       vertex 0.106427 0.198338 0
       vertex 0.106427 0.198338 0.1
    endloop
  endfacet
  facet normal -0.555561 0.831476 0
    outer loop
       vertex 0.106427 0.198338 0.1
       vertex 0.133618 0.216506 0.1
       vertex 0.133618 0.216506 0
    endloop
  endfacet
  facet normal -0.659372 0.751817 0
    outer loop
       vertex 0.106427 0.198338 0
       vertex 0.0818415 0.176776 0
       vertex 0.0818415 0.176776 0.1
    endloop
  endfacet
  facet normal -0.659372 0.751817 0
    outer loop
       vertex 0.0818415 0.176776 0.1
       vertex 0.106427 0.198338 0.1
       vertex 0.106427 0.198338 0
    endloop
  endfacet
  facet normal -0.751817 0.659372 0
    outer loop
       vertex 0.0818415 0.176776 0
       vertex 0.0602795 0.152191 0
       vertex 0.0602795 0.152191 0.1
    endloop
  endfacet
  facet normal -0.751817 0.659372 0
    outer loop
       vertex 0.0602795 0.152191 0.1
       vertex 0.0818415 0.176776 0.1
       vertex 0.0818415 0.176776 0
    endloop
  endfacet
  facet normal -0.831476 0.555561 0
    outer loop
       vertex 0.0602795 0.152191 0
       vertex 0.0421115 0.125 0
       vertex 0.0421115 0.125 0.1
    endloop
  endfacet
  facet normal -0.831476 0.555561 0
    outer loop
       vertex 0.0421115 0.125 0.1
       vertex 0.0602795 0.152191 0.1
       vertex 0.0602795 0.152191 0
    endloop
  endfacet
  facet normal -0.896866 0.442302 0
    outer loop
       vertex 0.0421115 0.125 0
       vertex 0.0276475 0.095671 0
       vertex 0.0276475 0.095671 0.1
    endloop
  endfacet
  facet normal -0.896866 0.442302 0
    outer loop
       vertex 0.0276475 0.095671 0.1
       vertex 0.0421115 0.125 0.1
       vertex 0.0421115 0.125 0
    endloop
  endfacet
  facet normal -0.946935 0.321425 0
    outer loop
       vertex 0.0276475 0.095671 0
       vertex 0.0171365 0.064705 0
       vertex 0.0171365 0.064705 0.1
    endloop
  endfacet
  facet normal -0.946935 0.321425 0
    outer loop
       vertex 0.0171365 0.064705 0.1
       vertex 0.0276475 0.095671 0.1
       vertex 0.0276475 0.095671 0
    endloop
  endfacet
  facet normal -0.980784 0.195096 0
    outer loop
       vertex 0.0171365 0.064705 0
       vertex 0.0107565 0.0326315 0
       vertex 0.0107565 0.0326315 0.1
    endloop
  endfacet
  facet normal -0.980784 0.195096 0
    outer loop
       vertex 0.0107565 0.0326315 0.1
       vertex 0.0171365 0.064705 0.1
       vertex 0.0171365 0.064705 0
    endloop
  endfacet
  facet normal -0.997858 0.0654098 0
    outer loop
       vertex 0.00861752 8.32665e-17 0.1
       vertex 0.0107565 0.0326315 0.1
       vertex 0.0107565 0.0326315 0
    endloop
  endfacet
  facet normal -0.997858 0.0654098 -1.08928e-16
    outer loop
       vertex 0.0107565 0.0326315 0
       vertex 0.00861752 -8.32665e-17 0
       vertex 0.00861752 8.32665e-17 0.1
    endloop
  endfacet
  facet normal -0.997858 -0.0654098 0
    outer loop
       vertex 0.00861752 -8.32665e-17 0
       vertex 0.0107565 -0.0326315 0
       vertex 0.0107565 -0.0326315 0.1
    endloop
  endfacet
  facet normal -0.997858 -0.0654098 1.08928e-16
    outer loop
       vertex 0.0107565 -0.0326315 0.1
       vertex 0.00861752 8.32665e-17 0.1
       vertex 0.00861752 -8.32665e-17 0
    endloop
  endfacet
  facet normal -0.980784 -0.195096 0
    outer loop
       vertex 0.0107565 -0.0326315 0
       vertex 0.0171365 -0.064705 0
       vertex 0.0171365 -0.064705 0.1
    endloop
  endfacet
  facet normal -0.980784 -0.195096 0
    outer loop
       vertex 0.0171365 -0.064705 0.1
       vertex 0.0107565 -0.0326315 0.1
       vertex 0.0107565 -0.0326315 0
    endloop
  endfacet
  facet normal -0.946935 -0.321425 0
    outer loop
       vertex 0.0171365 -0.064705 0
       vertex 0.0276475 -0.095671 0
       vertex 0.0276475 -0.095671 0.1
    endloop
  endfacet
  facet normal -0.946935 -0.321425 0
    outer loop
       vertex 0.0276475 -0.095671 0.1
       vertex 0.0171365 -0.064705 0.1
       vertex 0.0171365 -0.064705 0
    endloop
  endfacet
  facet normal -0.896866 -0.442302 0
    outer loop
       vertex 0.0276475 -0.095671 0
       vertex 0.0421115 -0.125 0
       vertex 0.0421115 -0.125 0.1
    endloop
  endfacet
  facet normal -0.896866 -0.442302 0
    outer loop
       vertex 0.0421115 -0.125 0.1
       vertex 0.0276475 -0.095671 0.1
       vertex 0.0276475 -0.095671 0
    endloop
  endfacet
  facet normal -0.831476 -0.555561 0
    outer loop
       vertex 0.0421115 -0.125 0
       vertex 0.0602795 -0.152191 0
       vertex 0.0602795 -0.152191 0.1
    endloop
  endfacet
  facet normal -0.831476 -0.555561 0
    outer loop
       vertex 0.0602795 -0.152191 0.1
       vertex 0.0421115 -0.125 0.1
       vertex 0.0421115 -0.125 0
    endloop
  endfacet
  facet normal -0.751817 -0.659372 0
    outer loop
       vertex 0.0602795 -0.152191 0
       vertex 0.0818415 -0.176776 0
       vertex 0.0818415 -0.176776 0.1
    endloop
  endfacet
  facet normal -0.751817 -0.659372 0
    outer loop
       vertex 0.0818415 -0.176776 0.1
       vertex 0.0602795 -0.152191 0.1
       vertex 0.0602795 -0.152191 0
    endloop
  endfacet
  facet normal 0.659372 -0.751817 0
    outer loop
       vertex 0.435394 -0.176776 0
       vertex 0.435394 -0.176776 0.1
       vertex 0.410809 -0.198338 0.1
    endloop
  endfacet
  facet normal 0.659372 -0.751817 0
    outer loop
       vertex 0.410809 -0.198338 0.1
       vertex 0.410809 -0.198338 0
       vertex 0.435394 -0.176776 0
    endloop
  endfacet
  facet normal 0.555561 -0.831476 0
    outer loop
       vertex 0.410809 -0.198338 0
       vertex 0.410809 -0.198338 0.1
       vertex 0.383618 -0.216506 0.1
    endloop
  endfacet
  facet normal 0.555561 -0.831476 0
    outer loop
       vertex 0.383618 -0.216506 0.1
       vertex 0.383618 -0.216506 0
       vertex 0.410809 -0.198338 0
    endloop
  endfacet
  facet normal 0.442302 -0.896866 0
    outer loop
       vertex 0.383618 -0.216506 0
       vertex 0.383618 -0.216506 0.1
       vertex 0.354289 -0.23097 0.1
    endloop
  endfacet
  facet normal 0.442302 -0.896866 0
    outer loop
       vertex 0.354289 -0.23097 0.1
       vertex 0.354289 -0.23097 0
       vertex 0.383618 -0.216506 0
    endloop
  endfacet
  facet normal 0.321425 -0.946935 0
    outer loop
       vertex 0.354289 -0.23097 0
       vertex 0.354289 -0.23097 0.1
       vertex 0.323323 -0.241481 0.1
    endloop
  endfacet
  facet normal 0.321425 -0.946935 0
    outer loop
       vertex 0.323323 -0.241481 0.1
       vertex 0.323323 -0.241481 0
       vertex 0.354289 -0.23097 0
    endloop
  endfacet
  facet normal 0.195096 -0.980784 0
    outer loop
       vertex 0.323323 -0.241481 0
       vertex 0.323323 -0.241481 0.1
       vertex 0.291249 -0.247861 0.1
    endloop
  endfacet
  facet normal 0.195096 -0.980784 0
    outer loop
       vertex 0.291249 -0.247861 0.1
       vertex 0.291249 -0.247861 0
       vertex 0.323323 -0.241481 0
    endloop
  endfacet
  facet normal 0.0654098 -0.997858 0
    outer loop
       vertex 0.258618 -0.25 0
       vertex 0.291249 -0.247861 0
       vertex 0.291249 -0.247861 0.1
    endloop
  endfacet
  facet normal 0.0654098 -0.997858 7.26205e-17
    outer loop
       vertex 0.291249 -0.247861 0.1
       vertex 0.258618 -0.25 0.1
       vertex 0.258618 -0.25 0
    endloop
  endfacet
  facet normal -0.0654098 -0.997858 0
    outer loop
       vertex 0.258618 -0.25 0.1
       vertex 0.225986 -0.247861 0.1
       vertex 0.225986 -0.247861 0
    endloop
  endfacet
  facet normal -0.0654098 -0.997858 -7.26205e-17
    outer loop
       vertex 0.225986 -0.247861 0
       vertex 0.258618 -0.25 0
       vertex 0.258618 -0.25 0.1
    endloop
  endfacet
  facet normal -0.195096 -0.980784 0
    outer loop
       vertex 0.225986 -0.247861 0
       vertex 0.225986 -0.247861 0.1
       vertex 0.193913 -0.241481 0.1
    endloop
  endfacet
  facet normal -0.195096 -0.980784 -0
    outer loop
       vertex 0.193913 -0.241481 0.1
       vertex 0.193913 -0.241481 0
       vertex 0.225986 -0.247861 0
    endloop
  endfacet
  facet normal -0.321425 -0.946935 0
    outer loop
       vertex 0.193913 -0.241481 0
       vertex 0.193913 -0.241481 0.1
       vertex 0.162947 -0.23097 0.1
    endloop
  endfacet
  facet normal -0.321425 -0.946935 -0
    outer loop
       vertex 0.162947 -0.23097 0.1
       vertex 0.162947 -0.23097 0
       vertex 0.193913 -0.241481 0
    endloop
  endfacet
  facet normal -0.442302 -0.896866 0
    outer loop
       vertex 0.162947 -0.23097 0
       vertex 0.162947 -0.23097 0.1
       vertex 0.133618 -0.216506 0.1
    endloop
  endfacet
  facet normal -0.442302 -0.896866 -0
    outer loop
       vertex 0.133618 -0.216506 0.1
       vertex 0.133618 -0.216506 0
       vertex 0.162947 -0.23097 0
    endloop
  endfacet
  facet normal -0.555561 -0.831476 0
    outer loop
       vertex 0.133618 -0.216506 0
       vertex 0.133618 -0.216506 0.1
       vertex 0.106427 -0.198338 0.1
    endloop
  endfacet
  facet normal -0.555561 -0.831476 -0
    outer loop
       vertex 0.106427 -0.198338 0.1
       vertex 0.106427 -0.198338 0
       vertex 0.133618 -0.216506 0
    endloop
  endfacet
  facet normal -0.659372 -0.751817 0
    outer loop
       vertex 0.106427 -0.198338 0
       vertex 0.106427 -0.198338 0.1
       vertex 0.0818415 -0.176776 0.1
    endloop
  endfacet
  facet normal -0.659372 -0.751817 -0
    outer loop
       vertex 0.0818415 -0.176776 0.1
       vertex 0.0818415 -0.176776 0
       vertex 0.106427 -0.198338 0
    endloop
  endfacet
endsolid cylinder
