solid cylinder
  facet normal 0.751817 -0.659372 0
    outer loop
       vertex 0.338713 -0.176776 0
       vertex 0.360275 -0.152191 0
       vertex 0.360275 -0.152191 0.1
    endloop
  endfacet
  facet normal 0.751817 -0.659372 0
    outer loop
       vertex 0.360275 -0.152191 0.1
       vertex 0.338713 -0.176776 0.1
       vertex 0.338713 -0.176776 0
    endloop
  endfacet
  facet normal 0.831476 -0.555561 0
    outer loop
       vertex 0.360275 -0.152191 0
       vertex 0.378443 -0.125 0
       vertex 0.378443 -0.125 0.1
    endloop
  endfacet
  facet normal 0.831476 -0.555561 0
    outer loop
       vertex 0.378443 -0.125 0.1
       vertex 0.360275 -0.152191 0.1
       vertex 0.360275 -0.152191 0
    endloop
  endfacet
  facet normal 0.896866 -0.442302 0
    outer loop
       vertex 0.378443 -0.125 0
       vertex 0.392907 -0.095671 0
       vertex 0.392907 -0.095671 0.1
    endloop
  endfacet
  facet normal 0.896866 -0.442302 0
    outer loop
       vertex 0.392907 -0.095671 0.1
       vertex 0.378443 -0.125 0.1
       vertex 0.378443 -0.125 0
    endloop
  endfacet
  facet normal 0.946935 -0.321425 0
    outer loop
       vertex 0.392907 -0.095671 0
       vertex 0.403418 -0.064705 0
       vertex 0.403418 -0.064705 0.1
    endloop
  endfacet
  facet normal 0.946935 -0.321425 0
    outer loop
       vertex 0.403418 -0.064705 0.1
       vertex 0.392907 -0.095671 0.1
       vertex 0.392907 -0.095671 0
    endloop
  endfacet
  facet normal 0.980784 -0.195096 0
    outer loop
       vertex 0.403418 -0.064705 0
       vertex 0.409798 -0.0326315 0
       vertex 0.409798 -0.0326315 0.1
    endloop
  endfacet
  facet normal 0.980784 -0.195096 0
    outer loop
       vertex 0.409798 -0.0326315 0.1
       vertex 0.403418 -0.064705 0.1
       vertex 0.403418 -0.064705 0
    endloop
  endfacet
  facet normal 0.997858 -0.0654098 0
    outer loop
       vertex 0.411937 -8.32665e-17 0.1
       vertex 0.409798 -0.0326315 0.1
       vertex 0.409798 -0.0326315 0
    endloop
  endfacet
  facet normal 0.997858 -0.0654098 -1.08928e-16
    outer loop
       vertex 0.409798 -0.0326315 0
       vertex 0.411937 8.32665e-17 0
       vertex 0.411937 -8.32665e-17 0.1
    endloop
  endfacet
  facet normal 0.997858 0.0654098 0
    outer loop
       vertex 0.411937 8.32665e-17 0
       vertex 0.409798 0.0326315 0
       vertex 0.409798 0.0326315 0.1
    endloop
  endfacet
  facet normal 0.997858 0.0654098 1.08928e-16
    outer loop
       vertex 0.409798 0.0326315 0.1
       vertex 0.411937 -8.32665e-17 0.1
       vertex 0.411937 8.32665e-17 0
    endloop
  endfacet
  facet normal 0.980784 0.195096 0
    outer loop
       vertex 0.409798 0.0326315 0
       vertex 0.403418 0.064705 0
       vertex 0.403418 0.064705 0.1
    endloop
  endfacet
  facet normal 0.980784 0.195096 0
    outer loop
       vertex 0.403418 0.064705 0.1
       vertex 0.409798 0.0326315 0.1
       vertex 0.409798 0.0326315 0
    endloop
  endfacet
  facet normal 0.946935 0.321425 0
    outer loop
       vertex 0.403418 0.064705 0
       vertex 0.392907 0.095671 0
       vertex 0.392907 0.095671 0.1
    endloop
  endfacet
  facet normal 0.946935 0.321425 0
    outer loop
       vertex 0.392907 0.095671 0.1
       vertex 0.403418 0.064705 0.1
       vertex 0.403418 0.064705 0
    endloop
  endfacet
  facet normal 0.896866 0.442302 0
    outer loop
       vertex 0.392907 0.095671 0
       vertex 0.378443 0.125 0
       vertex 0.378443 0.125 0.1
    endloop
  endfacet
  facet normal 0.896866 0.442302 0
    outer loop
       vertex 0.378443 0.125 0.1
       vertex 0.392907 0.095671 0.1
       vertex 0.392907 0.095671 0
    endloop
  endfacet
  facet normal 0.831476 0.555561 0
    outer loop
       vertex 0.378443 0.125 0
       vertex 0.360275 0.152191 0
       vertex 0.360275 0.152191 0.1
    endloop
  endfacet
  facet normal 0.831476 0.555561 0
    outer loop
       vertex 0.360275 0.152191 0.1
       vertex 0.378443 0.125 0.1
       vertex 0.378443 0.125 0
    endloop
  endfacet
  facet normal 0.751817 0.659372 0
    outer loop
       vertex 0.360275 0.152191 0
       vertex 0.338713 0.176776 0
       vertex 0.338713 0.176776 0.1
    endloop
  endfacet
  facet normal 0.751817 0.659372 0
    outer loop
       vertex 0.338713 0.176776 0.1
       vertex 0.360275 0.152191 0.1
       vertex 0.360275 0.152191 0
    endloop
  endfacet
  facet normal 0.659372 0.751817 0
    outer loop
       vertex 0.338713 0.176776 0
       vertex 0.314128 0.198338 0
       vertex 0.314128 0.198338 0.1
    endloop
  endfacet
  facet normal 0.659372 0.751817 0
    outer loop
       vertex 0.314128 0.198338 0.1
       vertex 0.338713 0.176776 0.1
       vertex 0.338713 0.176776 0
    endloop
  endfacet
  facet normal 0.555561 0.831476 0
    outer loop
       vertex 0.314128 0.198338 0
       vertex 0.286937 0.216506 0
       vertex 0.286937 0.216506 0.1
    endloop
  endfacet
  facet normal 0.555561 0.831476 0
    outer loop
       vertex 0.286937 0.216506 0.1
       vertex 0.314128 0.198338 0.1
       vertex 0.314128 0.198338 0
    endloop
  endfacet
  facet normal 0.442302 0.896866 0
    outer loop
       vertex 0.286937 0.216506 0
       vertex 0.257608 0.23097 0
       vertex 0.257608 0.23097 0.1
    endloop
  endfacet
  facet normal 0.442302 0.896866 0
    outer loop
       vertex 0.257608 0.23097 0.1
       vertex 0.286937 0.216506 0.1
       vertex 0.286937 0.216506 0
    endloop
  endfacet
  facet normal 0.321425 0.946935 0
    outer loop
       vertex 0.257608 0.23097 0
       vertex 0.226642 0.241481 0
       vertex 0.226642 0.241481 0.1
    endloop
  endfacet
  facet normal 0.321425 0.946935 0
    outer loop
       vertex 0.226642 0.241481 0.1
       vertex 0.257608 0.23097 0.1
       vertex 0.257608 0.23097 0
    endloop
  endfacet
  facet normal 0.195096 0.980784 0
    outer loop
       vertex 0.226642 0.241481 0
       vertex 0.194569 0.247861 0
       vertex 0.194569 0.247861 0.1
    endloop
  endfacet
  facet normal 0.195096 0.980784 0
    outer loop
       vertex 0.194569 0.247861 0.1
       vertex 0.226642 0.241481 0.1
       vertex 0.226642 0.241481 0
    endloop
  endfacet
  facet normal 0.0654098 0.997858 0
    outer loop
       vertex 0.161937 0.25 0.1
       vertex 0.194569 0.247861 0.1
       vertex 0.194569 0.247861 0
    endloop
  endfacet
  facet normal 0.0654098 0.997858 -1.0893e-16
    outer loop
       vertex 0.194569 0.247861 0
       vertex 0.161937 0.25 0
       vertex 0.161937 0.25 0.1
    endloop
  endfacet
  facet normal -0.0654098 0.997858 0
    outer loop
       vertex 0.161937 0.25 0
       vertex 0.129306 0.247861 0
       vertex 0.129306 0.247861 0.1
    endloop
  endfacet
  facet normal -0.0654098 0.997858 1.0893e-16
    outer loop
       vertex 0.129306 0.247861 0.1
       vertex 0.161937 0.25 0.1
       vertex 0.161937 0.25 0
    endloop
  endfacet
  facet normal -0.195096 0.980784 0
    outer loop
       vertex 0.129306 0.247861 0
       vertex 0.0972322 0.241481 0
       vertex 0.0972322 0.241481 0.1
    endloop
  endfacet
  facet normal -0.195096 0.980784 0
    outer loop
       vertex 0.0972322 0.241481 0.1
       vertex 0.129306 0.247861 0.1
       vertex 0.129306 0.247861 0
    endloop
  endfacet
  facet normal -0.321425 0.946935 0
    outer loop
       vertex 0.0972322 0.241481 0
       vertex 0.0662662 0.23097 0
       vertex 0.0662662 0.23097 0.1
    endloop
  endfacet
  facet normal -0.321425 0.946935 0
    outer loop
       vertex 0.0662662 0.23097 0.1
       vertex 0.0972322 0.241481 0.1
       vertex 0.0972322 0.241481 0
    endloop
  endfacet
  facet normal -0.442302 0.896866 0
    outer loop
       vertex 0.0662662 0.23097 0
       vertex 0.0369372 0.216506 0
       vertex 0.0369372 0.216506 0.1
    endloop
  endfacet
  facet normal -0.442302 0.896866 0
    outer loop
       vertex 0.0369372 0.216506 0.1
       vertex 0.0662662 0.23097 0.1
       vertex 0.0662662 0.23097 0
    endloop
  endfacet
  facet normal -0.555561 0.831476 0
    outer loop
       vertex 0.0369372 0.216506 0
       vertex 0.00974621 0.198338 0
       vertex 0.00974621 0.198338 0.1
    endloop
  endfacet
  facet normal -0.555561 0.831476 0
    outer loop
       vertex 0.00974621 0.198338 0.1
       vertex 0.0369372 0.216506 0.1
       vertex 0.0369372 0.216506 0
    endloop
  endfacet
  facet normal -0.659372 0.751817 0
    outer loop
       vertex 0.00974621 0.198338 0
       vertex -0.0148388 0.176776 0
       vertex -0.0148388 0.176776 0.1
    endloop
  endfacet
  facet normal -0.659372 0.751817 0
    outer loop
       vertex -0.0148388 0.176776 0.1
       vertex 0.00974621 0.198338 0.1
       vertex 0.00974621 0.198338 0
    endloop
  endfacet
  facet normal -0.751817 0.659372 0
    outer loop
       vertex -0.0148388 0.176776 0
       vertex -0.0364008 0.152191 0
       vertex -0.0364008 0.152191 0.1
    endloop
  endfacet
  facet normal -0.751817 0.659372 0
    outer loop
       vertex -0.0364008 0.152191 0.1
       vertex -0.0148388 0.176776 0.1
       vertex -0.0148388 0.176776 0
    endloop
  endfacet
  facet normal -0.831476 0.555561 0
    outer loop
       vertex -0.0364008 0.152191 0
       vertex -0.0545688 0.125 0
       vertex -0.0545688 0.125 0.1
    endloop
  endfacet
  facet normal -0.831476 0.555561 0
    outer loop
       vertex -0.0545688 0.125 0.1
       vertex -0.0364008 0.152191 0.1
       vertex -0.0364008 0.152191 0
    endloop
  endfacet
  facet normal -0.896866 0.442302 0
    outer loop
       vertex -0.0545688 0.125 0
       vertex -0.0690328 0.095671 0
       vertex -0.0690328 0.095671 0.1
    endloop
  endfacet
  facet normal -0.896866 0.442302 0
    outer loop
       vertex -0.0690328 0.095671 0.1
       vertex -0.0545688 0.125 0.1
       vertex -0.0545688 0.125 0
    endloop
  endfacet
  facet normal -0.946935 0.321425 0
    outer loop
       vertex -0.0690328 0.095671 0
       vertex -0.0795438 0.064705 0
       vertex -0.0795438 0.064705 0.1
    endloop
  endfacet
  facet normal -0.946935 0.321425 0
    outer loop
       vertex -0.0795438 0.064705 0.1
       vertex -0.0690328 0.095671 0.1
       vertex -0.0690328 0.095671 0
    endloop
  endfacet
  facet normal -0.980784 0.195096 0
    outer loop
       vertex -0.0795438 0.064705 0
       vertex -0.0859238 0.0326315 0
       vertex -0.0859238 0.0326315 0.1
    endloop
  endfacet
  facet normal -0.980784 0.195096 0
    outer loop
       vertex -0.0859238 0.0326315 0.1
       vertex -0.0795438 0.064705 0.1
       vertex -0.0795438 0.064705 0
    endloop
  endfacet
  facet normal -0.997858 0.0654098 0
    outer loop
       vertex -0.0880628 8.32665e-17 0.1
       vertex -0.0859238 0.0326315 0.1
       vertex -0.0859238 0.0326315 0
    endloop
  endfacet
  facet normal -0.997858 0.0654098 -1.08928e-16
    outer loop
       vertex -0.0859238 0.0326315 0
       vertex -0.0880628 -8.32665e-17 0
       vertex -0.0880628 8.32665e-17 0.1
    endloop
  endfacet
  facet normal -0.997858 -0.0654098 0
    outer loop
       vertex -0.0880628 -8.32665e-17 0
       vertex -0.0859238 -0.0326315 0
       vertex -0.0859238 -0.0326315 0.1
    endloop
  endfacet
  facet normal -0.997858 -0.0654098 1.08928e-16
    outer loop
       vertex -0.0859238 -0.0326315 0.1
       vertex -0.0880628 8.32665e-17 0.1
       vertex -0.0880628 -8.32665e-17 0
    endloop
  endfacet
  facet normal -0.980784 -0.195096 0
    outer loop
       vertex -0.0859238 -0.0326315 0
       vertex -0.0795438 -0.064705 0
       vertex -0.0795438 -0.064705 0.1
    endloop
  endfacet
  facet normal -0.980784 -0.195096 0
    outer loop
       vertex -0.0795438 -0.064705 0.1
       vertex -0.0859238 -0.0326315 0.1
       vertex -0.0859238 -0.0326315 0
    endloop
  endfacet
  facet normal -0.946935 -0.321425 0
    outer loop
       vertex -0.0795438 -0.064705 0
       vertex -0.0690328 -0.095671 0
       vertex -0.0690328 -0.095671 0.1
    endloop
  endfacet
  facet normal -0.946935 -0.321425 0
    outer loop
       vertex -0.0690328 -0.095671 0.1
       vertex -0.0795438 -0.064705 0.1
       vertex -0.0795438 -0.064705 0
    endloop
  endfacet
  facet normal -0.896866 -0.442302 0
    outer loop
       vertex -0.0690328 -0.095671 0
       vertex -0.0545688 -0.125 0
       vertex -0.0545688 -0.125 0.1
    endloop
  endfacet
  facet normal -0.896866 -0.442302 0
    outer loop
       vertex -0.0545688 -0.125 0.1
       vertex -0.0690328 -0.095671 0.1
       vertex -0.0690328 -0.095671 0
    endloop
  endfacet
  facet normal -0.831476 -0.555561 0
    outer loop
       vertex -0.0545688 -0.125 0
       vertex -0.0364008 -0.152191 0
       vertex -0.0364008 -0.152191 0.1
    endloop
  endfacet
  facet normal -0.831476 -0.555561 0
    outer loop
       vertex -0.0364008 -0.152191 0.1
       vertex -0.0545688 -0.125 0.1
       vertex -0.0545688 -0.125 0
    endloop
  endfacet
  facet normal -0.751817 -0.659372 0
    outer loop
       vertex -0.0364008 -0.152191 0
       vertex -0.0148388 -0.176776 0
       vertex -0.0148388 -0.176776 0.1
    endloop
  endfacet
  facet normal -0.751817 -0.659372 0
    outer loop
       vertex -0.0148388 -0.176776 0.1
       vertex -0.0364008 -0.152191 0.1
       vertex -0.0364008 -0.152191 0
    endloop
  endfacet
  facet normal 0.659372 -0.751817 0
    outer loop
       vertex 0.338713 -0.176776 0
       vertex 0.338713 -0.176776 0.1
       vertex 0.314128 -0.198338 0.1
    endloop
  endfacet
  facet normal 0.659372 -0.751817 0
    outer loop
       vertex 0.314128 -0.198338 0.1
       vertex 0.314128 -0.198338 0
       vertex 0.338713 -0.176776 0
    endloop
  endfacet
  facet normal 0.555561 -0.831476 0
    outer loop
       vertex 0.314128 -0.198338 0
       vertex 0.314128 -0.198338 0.1
       vertex 0.286937 -0.216506 0.1
    endloop
  endfacet
  facet normal 0.555561 -0.831476 0
    outer loop
       vertex 0.286937 -0.216506 0.1
       vertex 0.286937 -0.216506 0
       vertex 0.314128 -0.198338 0
    endloop
  endfacet
  facet normal 0.442302 -0.896866 0
    outer loop
       vertex 0.286937 -0.216506 0
       vertex 0.286937 -0.216506 0.1
       vertex 0.257608 -0.23097 0.1
    endloop
  endfacet
  facet normal 0.442302 -0.896866 0
    outer loop
       vertex 0.257608 -0.23097 0.1
       vertex 0.257608 -0.23097 0
       vertex 0.286937 -0.216506 0
    endloop
  endfacet
  facet normal 0.321425 -0.946935 0
    outer loop
       vertex 0.257608 -0.23097 0
       vertex 0.257608 -0.23097 0.1
       vertex 0.226642 -0.241481 0.1
    endloop
  endfacet
  facet normal 0.321425 -0.946935 0
    outer loop
       vertex 0.226642 -0.241481 0.1
       vertex 0.226642 -0.241481 0
       vertex 0.257608 -0.23097 0
    endloop
  endfacet
  facet normal 0.195096 -0.980784 0
    outer loop
       vertex 0.226642 -0.241481 0
       vertex 0.226642 -0.241481 0.1
       vertex 0.194569 -0.247861 0.1
    endloop
  endfacet
  facet normal 0.195096 -0.980784 0
    outer loop
       vertex 0.194569 -0.247861 0.1
       vertex 0.194569 -0.247861 0
       vertex 0.226642 -0.241481 0
    endloop
  endfacet
  facet normal 0.0654098 -0.997858 0
    outer loop
       vertex 0.161937 -0.25 0
       vertex 0.194569 -0.247861 0
       vertex 0.194569 -0.247861 0.1
    endloop
  endfacet
  facet normal 0.0654098 -0.997858 1.0893e-16
    outer loop
       vertex 0.194569 -0.247861 0.1
       vertex 0.161937 -0.25 0.1
       vertex 0.161937 -0.25 0
    endloop
  endfacet
  facet normal -0.0654098 -0.997858 0
    outer loop
       vertex 0.161937 -0.25 0.1
       vertex 0.129306 -0.247861 0.1
       vertex 0.129306 -0.247861 0
    endloop
  endfacet
  facet normal -0.0654098 -0.997858 -1.0893e-16
    outer loop
       vertex 0.129306 -0.247861 0
       vertex 0.161937 -0.25 0
       vertex 0.161937 -0.25 0.1
    endloop
  endfacet
  facet normal -0.195096 -0.980784 0
    outer loop
       vertex 0.129306 -0.247861 0
       vertex 0.129306 -0.247861 0.1
       vertex 0.0972322 -0.241481 0.1
    endloop
  endfacet
  facet normal -0.195096 -0.980784 -0
    outer loop
       vertex 0.0972322 -0.241481 0.1
       vertex 0.0972322 -0.241481 0
       vertex 0.129306 -0.247861 0
    endloop
  endfacet
  facet normal -0.321425 -0.946935 0
    outer loop
       vertex 0.0972322 -0.241481 0
       vertex 0.0972322 -0.241481 0.1
       vertex 0.0662662 -0.23097 0.1
    endloop
  endfacet
  facet normal -0.321425 -0.946935 -0
    outer loop
       vertex 0.0662662 -0.23097 0.1
       vertex 0.0662662 -0.23097 0
       vertex 0.0972322 -0.241481 0
    endloop
  endfacet
  facet normal -0.442302 -0.896866 0
    outer loop
       vertex 0.0662662 -0.23097 0
       vertex 0.0662662 -0.23097 0.1
       vertex 0.0369372 -0.216506 0.1
    endloop
  endfacet
  facet normal -0.442302 -0.896866 -0
    outer loop
       vertex 0.0369372 -0.216506 0.1
       vertex 0.0369372 -0.216506 0
       vertex 0.0662662 -0.23097 0
    endloop
  endfacet
  facet normal -0.555561 -0.831476 0
    outer loop
       vertex 0.0369372 -0.216506 0
       vertex 0.0369372 -0.216506 0.1
       vertex 0.00974621 -0.198338 0.1
    endloop
  endfacet
  facet normal -0.555561 -0.831476 -0
    outer loop
       vertex 0.00974621 -0.198338 0.1
       vertex 0.00974621 -0.198338 0
       vertex 0.0369372 -0.216506 0
    endloop
  endfacet
  facet normal -0.659372 -0.751817 0
    outer loop
       vertex 0.00974621 -0.198338 0
       vertex 0.00974621 -0.198338 0.1
       vertex -0.0148388 -0.176776 0.1
    endloop
  endfacet
  facet normal -0.659372 -0.751817 -0
    outer loop
       vertex -0.0148388 -0.176776 0.1
       vertex -0.0148388 -0.176776 0
       vertex 0.00974621 -0.198338 0
    endloop
  endfacet
endsolid cylinder
