solid cylinder
  facet normal 0.751817 -0.659372 0
    outer loop
       vertex 0.246122 -0.176776 0
       vertex 0.267684 -0.152191 0
       vertex 0.267684 -0.152191 0.1
    endloop
  endfacet
  facet normal 0.751817 -0.659372 0
    outer loop
       vertex 0.267684 -0.152191 0.1
       vertex 0.246122 -0.176776 0.1
       vertex 0.246122 -0.176776 0
    endloop
  endfacet
  facet normal 0.831476 -0.555561 0
    outer loop
       vertex 0.267684 -0.152191 0
       vertex 0.285852 -0.125 0
       vertex 0.285852 -0.125 0.1
    endloop
  endfacet
  facet normal 0.831476 -0.555561 0
    outer loop
       vertex 0.285852 -0.125 0.1
       vertex 0.267684 -0.152191 0.1
       vertex 0.267684 -0.152191 0
    endloop
  endfacet
  facet normal 0.896866 -0.442302 0
    outer loop
       vertex 0.285852 -0.125 0
       vertex 0.300316 -0.095671 0
       vertex 0.300316 -0.095671 0.1
    endloop
  endfacet
  facet normal 0.896866 -0.442302 0
    outer loop
       vertex 0.300316 -0.095671 0.1
       vertex 0.285852 -0.125 0.1
       vertex 0.285852 -0.125 0
    endloop
  endfacet
  facet normal 0.946935 -0.321425 0
    outer loop
       vertex 0.300316 -0.095671 0
       vertex 0.310827 -0.064705 0
       vertex 0.310827 -0.064705 0.1
    endloop
  endfacet
  facet normal 0.946935 -0.321425 0
    outer loop
       vertex 0.310827 -0.064705 0.1
       vertex 0.300316 -0.095671 0.1
       vertex 0.300316 -0.095671 0
    endloop
  endfacet
  facet normal 0.980784 -0.195096 0
    outer loop
       vertex 0.310827 -0.064705 0
       vertex 0.317207 -0.0326315 0
       vertex 0.317207 -0.0326315 0.1
    endloop
  endfacet
  facet normal 0.980784 -0.195096 0
    outer loop
       vertex 0.317207 -0.0326315 0.1
       vertex 0.310827 -0.064705 0.1
       vertex 0.310827 -0.064705 0
    endloop
  endfacet
  facet normal 0.997858 -0.0654098 0
    outer loop
       vertex 0.319346 -8.32665e-17 0.1
       vertex 0.317207 -0.0326315 0.1
       vertex 0.317207 -0.0326315 0
    endloop
  endfacet
  facet normal 0.997858 -0.0654098 -1.08928e-16
    outer loop
       vertex 0.317207 -0.0326315 0
       vertex 0.319346 8.32665e-17 0
       vertex 0.319346 -8.32665e-17 0.1
    endloop
  endfacet
  facet normal 0.997858 0.0654098 0
    outer loop
       vertex 0.319346 8.32665e-17 0
       vertex 0.317207 0.0326315 0
       vertex 0.317207 0.0326315 0.1
    endloop
  endfacet
  facet normal 0.997858 0.0654098 1.08928e-16
    outer loop
       vertex 0.317207 0.0326315 0.1
       vertex 0.319346 -8.32665e-17 0.1
       vertex 0.319346 8.32665e-17 0
    endloop
  endfacet
  facet normal 0.980784 0.195096 0
    outer loop
       vertex 0.317207 0.0326315 0
       vertex 0.310827 0.064705 0
       vertex 0.310827 0.064705 0.1
    endloop
  endfacet
  facet normal 0.980784 0.195096 0
    outer loop
       vertex 0.310827 0.064705 0.1
       vertex 0.317207 0.0326315 0.1
       vertex 0.317207 0.0326315 0
    endloop
  endfacet
  facet normal 0.946935 0.321425 0
    outer loop
       vertex 0.310827 0.064705 0
       vertex 0.300316 0.095671 0
       vertex 0.300316 0.095671 0.1
    endloop
  endfacet
  facet normal 0.946935 0.321425 0
    outer loop
       vertex 0.300316 0.095671 0.1
       vertex 0.310827 0.064705 0.1
       vertex 0.310827 0.064705 0
    endloop
  endfacet
  facet normal 0.896866 0.442302 0
    outer loop
       vertex 0.300316 0.095671 0
       vertex 0.285852 0.125 0
       vertex 0.285852 0.125 0.1
    endloop
  endfacet
  facet normal 0.896866 0.442302 0
    outer loop
       vertex 0.285852 0.125 0.1
       vertex 0.300316 0.095671 0.1
       vertex 0.300316 0.095671 0
    endloop
  endfacet
  facet normal 0.831476 0.555561 0
    outer loop
       vertex 0.285852 0.125 0
       vertex 0.267684 0.152191 0
       vertex 0.267684 0.152191 0.1
    endloop
  endfacet
  facet normal 0.831476 0.555561 0
    outer loop
       vertex 0.267684 0.152191 0.1
       vertex 0.285852 0.125 0.1
       vertex 0.285852 0.125 0
    endloop
  endfacet
  facet normal 0.751817 0.659372 0
    outer loop
       vertex 0.267684 0.152191 0
       vertex 0.246122 0.176776 0
       vertex 0.246122 0.176776 0.1
    endloop
  endfacet
  facet normal 0.751817 0.659372 0
    outer loop
       vertex 0.246122 0.176776 0.1
       vertex 0.267684 0.152191 0.1
       vertex 0.267684 0.152191 0
    endloop
  endfacet
  facet normal 0.659372 0.751817 0
    outer loop
       vertex 0.246122 0.176776 0
       vertex 0.221537 0.198338 0
       vertex 0.221537 0.198338 0.1
    endloop
  endfacet
  facet normal 0.659372 0.751817 0
    outer loop
       vertex 0.221537 0.198338 0.1
       vertex 0.246122 0.176776 0.1
       vertex 0.246122 0.176776 0
    endloop
  endfacet
  facet normal 0.555561 0.831476 0
    outer loop
       vertex 0.221537 0.198338 0
       vertex 0.194346 0.216506 0
       vertex 0.194346 0.216506 0.1
    endloop
  endfacet
  facet normal 0.555561 0.831476 0
    outer loop
       vertex 0.194346 0.216506 0.1
       vertex 0.221537 0.198338 0.1
       vertex 0.221537 0.198338 0
    endloop
  endfacet
  facet normal 0.442302 0.896866 0
    outer loop
       vertex 0.194346 0.216506 0
       vertex 0.165017 0.23097 0
       vertex 0.165017 0.23097 0.1
    endloop
  endfacet
  facet normal 0.442302 0.896866 0
    outer loop
       vertex 0.165017 0.23097 0.1
       vertex 0.194346 0.216506 0.1
       vertex 0.194346 0.216506 0
    endloop
  endfacet
  facet normal 0.321425 0.946935 0
    outer loop
       vertex 0.165017 0.23097 0
       vertex 0.134051 0.241481 0
       vertex 0.134051 0.241481 0.1
    endloop
  endfacet
  facet normal 0.321425 0.946935 0
    outer loop
       vertex 0.134051 0.241481 0.1
       vertex 0.165017 0.23097 0.1
       vertex 0.165017 0.23097 0
    endloop
  endfacet
  facet normal 0.195096 0.980784 0
    outer loop
       vertex 0.134051 0.241481 0
       vertex 0.101977 0.247861 0
       vertex 0.101977 0.247861 0.1
    endloop
  endfacet
  facet normal 0.195096 0.980784 0
    outer loop
       vertex 0.101977 0.247861 0.1
       vertex 0.134051 0.241481 0.1
       vertex 0.134051 0.241481 0
    endloop
  endfacet
  facet normal 0.0654098 0.997858 0
    outer loop
       vertex 0.0693458 0.25 0.1
       vertex 0.101977 0.247861 0.1
       vertex 0.101977 0.247861 0
    endloop
  endfacet
  facet normal 0.0654098 0.997858 -1.0893e-16
    outer loop
       vertex 0.101977 0.247861 0
       vertex 0.0693458 0.25 0
       vertex 0.0693458 0.25 0.1
    endloop
  endfacet
  facet normal -0.0654098 0.997858 0
    outer loop
       vertex 0.0693458 0.25 0
       vertex 0.0367143 0.247861 0
       vertex 0.0367143 0.247861 0.1
    endloop
  endfacet
  facet normal -0.0654098 0.997858 1.08928e-16
    outer loop
       vertex 0.0367143 0.247861 0.1
       vertex 0.0693458 0.25 0.1
       vertex 0.0693458 0.25 0
    endloop
  endfacet
  facet normal -0.195096 0.980784 0
    outer loop
       vertex 0.0367143 0.247861 0
       vertex 0.00464081 0.241481 0
       vertex 0.00464081 0.241481 0.1
    endloop
  endfacet
  facet normal -0.195096 0.980784 0
    outer loop
       vertex 0.00464081 0.241481 0.1
       vertex 0.0367143 0.247861 0.1
       vertex 0.0367143 0.247861 0
    endloop
  endfacet
  facet normal -0.321425 0.946935 0
    outer loop
       vertex 0.00464081 0.241481 0
       vertex -0.0263252 0.23097 0
       vertex -0.0263252 0.23097 0.1
    endloop
  endfacet
  facet normal -0.321425 0.946935 0
    outer loop
       vertex -0.0263252 0.23097 0.1
       vertex 0.00464081 0.241481 0.1
       vertex 0.00464081 0.241481 0
    endloop
  endfacet
  facet normal -0.442302 0.896866 0
    outer loop
       vertex -0.0263252 0.23097 0
       vertex -0.0556542 0.216506 0
       vertex -0.0556542 0.216506 0.1
    endloop
  endfacet
  facet normal -0.442302 0.896866 0
    outer loop
       vertex -0.0556542 0.216506 0.1
       vertex -0.0263252 0.23097 0.1
       vertex -0.0263252 0.23097 0
    endloop
  endfacet
  facet normal -0.555561 0.831476 0
    outer loop
       vertex -0.0556542 0.216506 0
       vertex -0.0828452 0.198338 0
       vertex -0.0828452 0.198338 0.1
    endloop
  endfacet
  facet normal -0.555561 0.831476 0
    outer loop
       vertex -0.0828452 0.198338 0.1
       vertex -0.0556542 0.216506 0.1
       vertex -0.0556542 0.216506 0
    endloop
  endfacet
  facet normal -0.659372 0.751817 0
    outer loop
       vertex -0.0828452 0.198338 0
       vertex -0.10743 0.176776 0
       vertex -0.10743 0.176776 0.1
    endloop
  endfacet
  facet normal -0.659372 0.751817 0
    outer loop
       vertex -0.10743 0.176776 0.1
       vertex -0.0828452 0.198338 0.1
       vertex -0.0828452 0.198338 0
    endloop
  endfacet
  facet normal -0.751817 0.659372 0
    outer loop
       vertex -0.10743 0.176776 0
       vertex -0.128992 0.152191 0
       vertex -0.128992 0.152191 0.1
    endloop
  endfacet
  facet normal -0.751817 0.659372 0
    outer loop
       vertex -0.128992 0.152191 0.1
       vertex -0.10743 0.176776 0.1
       vertex -0.10743 0.176776 0
    endloop
  endfacet
  facet normal -0.831476 0.555561 0
    outer loop
       vertex -0.128992 0.152191 0
       vertex -0.14716 0.125 0
       vertex -0.14716 0.125 0.1
    endloop
  endfacet
  facet normal -0.831476 0.555561 0
    outer loop
       vertex -0.14716 0.125 0.1
       vertex -0.128992 0.152191 0.1
       vertex -0.128992 0.152191 0
    endloop
  endfacet
  facet normal -0.896866 0.442302 0
    outer loop
       vertex -0.14716 0.125 0
       vertex -0.161624 0.095671 0
       vertex -0.161624 0.095671 0.1
    endloop
  endfacet
  facet normal -0.896866 0.442302 0
    outer loop
       vertex -0.161624 0.095671 0.1
       vertex -0.14716 0.125 0.1
       vertex -0.14716 0.125 0
    endloop
  endfacet
  facet normal -0.946935 0.321425 0
    outer loop
       vertex -0.161624 0.095671 0
       vertex -0.172135 0.064705 0
       vertex -0.172135 0.064705 0.1
    endloop
  endfacet
  facet normal -0.946935 0.321425 0
    outer loop
       vertex -0.172135 0.064705 0.1
       vertex -0.161624 0.095671 0.1
       vertex -0.161624 0.095671 0
    endloop
  endfacet
  facet normal -0.980784 0.195096 0
    outer loop
       vertex -0.172135 0.064705 0
       vertex -0.178515 0.0326315 0
       vertex -0.178515 0.0326315 0.1
    endloop
  endfacet
  facet normal -0.980784 0.195096 0
    outer loop
       vertex -0.178515 0.0326315 0.1
       vertex -0.172135 0.064705 0.1
       vertex -0.172135 0.064705 0
    endloop
  endfacet
  facet normal -0.997858 0.0654098 0
    outer loop
       vertex -0.180654 8.32665e-17 0.1
       vertex -0.178515 0.0326315 0.1
       vertex -0.178515 0.0326315 0
    endloop
  endfacet
  facet normal -0.997858 0.0654098 -1.08928e-16
    outer loop
       vertex -0.178515 0.0326315 0
       vertex -0.180654 -8.32665e-17 0
       vertex -0.180654 8.32665e-17 0.1
    endloop
  endfacet
  facet normal -0.997858 -0.0654098 0
    outer loop
       vertex -0.180654 -8.32665e-17 0
       vertex -0.178515 -0.0326315 0
       vertex -0.178515 -0.0326315 0.1
    endloop
  endfacet
  facet normal -0.997858 -0.0654098 1.08928e-16
    outer loop
       vertex -0.178515 -0.0326315 0.1
       vertex -0.180654 8.32665e-17 0.1
       vertex -0.180654 -8.32665e-17 0
    endloop
  endfacet
  facet normal -0.980784 -0.195096 0
    outer loop
       vertex -0.178515 -0.0326315 0
       vertex -0.172135 -0.064705 0
       vertex -0.172135 -0.064705 0.1
    endloop
  endfacet
  facet normal -0.980784 -0.195096 0
    outer loop
       vertex -0.172135 -0.064705 0.1
       vertex -0.178515 -0.0326315 0.1
       vertex -0.178515 -0.0326315 0
    endloop
  endfacet
  facet normal -0.946935 -0.321425 0
    outer loop
       vertex -0.172135 -0.064705 0
       vertex -0.161624 -0.095671 0
       vertex -0.161624 -0.095671 0.1
    endloop
  endfacet
  facet normal -0.946935 -0.321425 0
    outer loop
       vertex -0.161624 -0.095671 0.1
       vertex -0.172135 -0.064705 0.1
       vertex -0.172135 -0.064705 0
    endloop
  endfacet
  facet normal -0.896866 -0.442302 0
    outer loop
       vertex -0.161624 -0.095671 0
       vertex -0.14716 -0.125 0
       vertex -0.14716 -0.125 0.1
    endloop
  endfacet
  facet normal -0.896866 -0.442302 0
    outer loop
       vertex -0.14716 -0.125 0.1
       vertex -0.161624 -0.095671 0.1
       vertex -0.161624 -0.095671 0
    endloop
  endfacet
  facet normal -0.831476 -0.555561 0
    outer loop
       vertex -0.14716 -0.125 0
       vertex -0.128992 -0.152191 0
       vertex -0.128992 -0.152191 0.1
    endloop
  endfacet
  facet normal -0.831476 -0.555561 0
    outer loop
       vertex -0.128992 -0.152191 0.1
       vertex -0.14716 -0.125 0.1
       vertex -0.14716 -0.125 0
    endloop
  endfacet
  facet normal -0.751817 -0.659372 0
    outer loop
       vertex -0.128992 -0.152191 0
       vertex -0.10743 -0.176776 0
       vertex -0.10743 -0.176776 0.1
    endloop
  endfacet
  facet normal -0.751817 -0.659372 0
    outer loop
       vertex -0.10743 -0.176776 0.1
       vertex -0.128992 -0.152191 0.1
       vertex -0.128992 -0.152191 0
    endloop
  endfacet
  facet normal 0.659372 -0.751817 0
    outer loop
       vertex 0.246122 -0.176776 0
       vertex 0.246122 -0.176776 0.1
       vertex 0.221537 -0.198338 0.1
    endloop
  endfacet
  facet normal 0.659372 -0.751817 0
    outer loop
       vertex 0.221537 -0.198338 0.1
       vertex 0.221537 -0.198338 0
       vertex 0.246122 -0.176776 0
    endloop
  endfacet
  facet normal 0.555561 -0.831476 0
    outer loop
       vertex 0.221537 -0.198338 0
       vertex 0.221537 -0.198338 0.1
       vertex 0.194346 -0.216506 0.1
    endloop
  endfacet
  facet normal 0.555561 -0.831476 0
    outer loop
       vertex 0.194346 -0.216506 0.1
       vertex 0.194346 -0.216506 0
       vertex 0.221537 -0.198338 0
    endloop
  endfacet
  facet normal 0.442302 -0.896866 0
    outer loop
       vertex 0.194346 -0.216506 0
       vertex 0.194346 -0.216506 0.1
       vertex 0.165017 -0.23097 0.1
    endloop
  endfacet
  facet normal 0.442302 -0.896866 0
    outer loop
       vertex 0.165017 -0.23097 0.1
       vertex 0.165017 -0.23097 0
       vertex 0.194346 -0.216506 0
    endloop
  endfacet
  facet normal 0.321425 -0.946935 0
    outer loop
       vertex 0.165017 -0.23097 0
       vertex 0.165017 -0.23097 0.1
       vertex 0.134051 -0.241481 0.1
    endloop
  endfacet
  facet normal 0.321425 -0.946935 0
    outer loop
       vertex 0.134051 -0.241481 0.1
       vertex 0.134051 -0.241481 0
       vertex 0.165017 -0.23097 0
    endloop
  endfacet
  facet normal 0.195096 -0.980784 0
    outer loop
       vertex 0.134051 -0.241481 0
       vertex 0.134051 -0.241481 0.1
       vertex 0.101977 -0.247861 0.1
    endloop
  endfacet
  facet normal 0.195096 -0.980784 0
    outer loop
       vertex 0.101977 -0.247861 0.1
       vertex 0.101977 -0.247861 0
       vertex 0.134051 -0.241481 0
    endloop
  endfacet
  facet normal 0.0654098 -0.997858 0
    outer loop
       vertex 0.0693458 -0.25 0
       vertex 0.101977 -0.247861 0
       vertex 0.101977 -0.247861 0.1
    endloop
  endfacet
  facet normal 0.0654098 -0.997858 1.0893e-16
    outer loop
       vertex 0.101977 -0.247861 0.1
       vertex 0.0693458 -0.25 0.1
       vertex 0.0693458 -0.25 0
    endloop
  endfacet
  facet normal -0.0654098 -0.997858 0
    outer loop
       vertex 0.0693458 -0.25 0.1
       vertex 0.0367143 -0.247861 0.1
       vertex 0.0367143 -0.247861 0
    endloop
  endfacet
  facet normal -0.0654098 -0.997858 -1.08928e-16
    outer loop
       vertex 0.0367143 -0.247861 0
       vertex 0.0693458 -0.25 0
       vertex 0.0693458 -0.25 0.1
    endloop
  endfacet
  facet normal -0.195096 -0.980784 0
    outer loop
       vertex 0.0367143 -0.247861 0
       vertex 0.0367143 -0.247861 0.1
       vertex 0.00464081 -0.241481 0.1
    endloop
  endfacet
  facet normal -0.195096 -0.980784 -0
    outer loop
       vertex 0.00464081 -0.241481 0.1
       vertex 0.00464081 -0.241481 0
       vertex 0.0367143 -0.247861 0
    endloop
  endfacet
  facet normal -0.321425 -0.946935 0
    outer loop
       vertex 0.00464081 -0.241481 0
       vertex 0.00464081 -0.241481 0.1
       vertex -0.0263252 -0.23097 0.1
    endloop
  endfacet
  facet normal -0.321425 -0.946935 -0
    outer loop
       vertex -0.0263252 -0.23097 0.1
       vertex -0.0263252 -0.23097 0
       vertex 0.00464081 -0.241481 0
    endloop
  endfacet
  facet normal -0.442302 -0.896866 0
    outer loop
       vertex -0.0263252 -0.23097 0
       vertex -0.0263252 -0.23097 0.1
       vertex -0.0556542 -0.216506 0.1
    endloop
  endfacet
  facet normal -0.442302 -0.896866 -0
    outer loop
       vertex -0.0556542 -0.216506 0.1
       vertex -0.0556542 -0.216506 0
       vertex -0.0263252 -0.23097 0
    endloop
  endfacet
  facet normal -0.555561 -0.831476 0
    outer loop
       vertex -0.0556542 -0.216506 0
       vertex -0.0556542 -0.216506 0.1
       vertex -0.0828452 -0.198338 0.1
    endloop
  endfacet
  facet normal -0.555561 -0.831476 -0
    outer loop
       vertex -0.0828452 -0.198338 0.1
       vertex -0.0828452 -0.198338 0
       vertex -0.0556542 -0.216506 0
    endloop
  endfacet
  facet normal -0.659372 -0.751817 0
    outer loop
       vertex -0.0828452 -0.198338 0
       vertex -0.0828452 -0.198338 0.1
       vertex -0.10743 -0.176776 0.1
    endloop
  endfacet
  facet normal -0.659372 -0.751817 -0
    outer loop
       vertex -0.10743 -0.176776 0.1
       vertex -0.10743 -0.176776 0
       vertex -0.0828452 -0.198338 0
    endloop
  endfacet
endsolid cylinder
