solid cylinder
  facet normal 0.751817 -0.659372 0
    outer loop
       vertex 0.366834 -0.176776 0
       vertex 0.388396 -0.152191 0
       vertex 0.388396 -0.152191 0.1
    endloop
  endfacet
  facet normal 0.751817 -0.659372 0
    outer loop
       vertex 0.388396 -0.152191 0.1
       vertex 0.366834 -0.176776 0.1
       vertex 0.366834 -0.176776 0
    endloop
  endfacet
  facet normal 0.831476 -0.555561 0
    outer loop
       vertex 0.388396 -0.152191 0
       vertex 0.406564 -0.125 0
       vertex 0.406564 -0.125 0.1
    endloop
  endfacet
  facet normal 0.831476 -0.555561 0
    outer loop
       vertex 0.406564 -0.125 0.1
       vertex 0.388396 -0.152191 0.1
       vertex 0.388396 -0.152191 0
    endloop
  endfacet
  facet normal 0.896866 -0.442302 0
    outer loop
       vertex 0.406564 -0.125 0
       vertex 0.421028 -0.095671 0
       vertex 0.421028 -0.095671 0.1
    endloop
  endfacet
  facet normal 0.896866 -0.442302 0
    outer loop
       vertex 0.421028 -0.095671 0.1
       vertex 0.406564 -0.125 0.1
       vertex 0.406564 -0.125 0
    endloop
  endfacet
  facet normal 0.946935 -0.321425 0
    outer loop
       vertex 0.421028 -0.095671 0
       vertex 0.431539 -0.064705 0
       vertex 0.431539 -0.064705 0.1
    endloop
  endfacet
  facet normal 0.946935 -0.321425 0
    outer loop
       vertex 0.431539 -0.064705 0.1
       vertex 0.421028 -0.095671 0.1
       vertex 0.421028 -0.095671 0
    endloop
  endfacet
  facet normal 0.980784 -0.195096 0
    outer loop
       vertex 0.431539 -0.064705 0
       vertex 0.437919 -0.0326315 0
       vertex 0.437919 -0.0326315 0.1
    endloop
  endfacet
  facet normal 0.980784 -0.195096 0
    outer loop
       vertex 0.437919 -0.0326315 0.1
       vertex 0.431539 -0.064705 0.1
       vertex 0.431539 -0.064705 0
    endloop
  endfacet
  facet normal 0.997858 -0.0654098 0
    outer loop
       vertex 0.440058 -8.32665e-17 0.1
       vertex 0.437919 -0.0326315 0.1
       vertex 0.437919 -0.0326315 0
    endloop
  endfacet
  facet normal 0.997858 -0.0654098 -1.08928e-16
    outer loop
       vertex 0.437919 -0.0326315 0
       vertex 0.440058 8.32665e-17 0
       vertex 0.440058 -8.32665e-17 0.1
    endloop
  endfacet
  facet normal 0.997858 0.0654098 0
    outer loop
       vertex 0.440058 8.32665e-17 0
       vertex 0.437919 0.0326315 0
       vertex 0.437919 0.0326315 0.1
    endloop
  endfacet
  facet normal 0.997858 0.0654098 1.08928e-16
    outer loop
       vertex 0.437919 0.0326315 0.1
       vertex 0.440058 -8.32665e-17 0.1
       vertex 0.440058 8.32665e-17 0
    endloop
  endfacet
  facet normal 0.980784 0.195096 0
    outer loop
       vertex 0.437919 0.0326315 0
       vertex 0.431539 0.064705 0
       vertex 0.431539 0.064705 0.1
    endloop
  endfacet
  facet normal 0.980784 0.195096 0
    outer loop
       vertex 0.431539 0.064705 0.1
       vertex 0.437919 0.0326315 0.1
       vertex 0.437919 0.0326315 0
    endloop
  endfacet
  facet normal 0.946935 0.321425 0
    outer loop
       vertex 0.431539 0.064705 0
       vertex 0.421028 0.095671 0
       vertex 0.421028 0.095671 0.1
    endloop
  endfacet
  facet normal 0.946935 0.321425 0
    outer loop
       vertex 0.421028 0.095671 0.1
       vertex 0.431539 0.064705 0.1
       vertex 0.431539 0.064705 0
    endloop
  endfacet
  facet normal 0.896866 0.442302 0
    outer loop
       vertex 0.421028 0.095671 0
       vertex 0.406564 0.125 0
       vertex 0.406564 0.125 0.1
    endloop
  endfacet
  facet normal 0.896866 0.442302 0
    outer loop
       vertex 0.406564 0.125 0.1
       vertex 0.421028 0.095671 0.1
       vertex 0.421028 0.095671 0
    endloop
  endfacet
  facet normal 0.831476 0.555561 0
    outer loop
       vertex 0.406564 0.125 0
       vertex 0.388396 0.152191 0
       vertex 0.388396 0.152191 0.1
    endloop
  endfacet
  facet normal 0.831476 0.555561 0
    outer loop
       vertex 0.388396 0.152191 0.1
       vertex 0.406564 0.125 0.1
       vertex 0.406564 0.125 0
    endloop
  endfacet
  facet normal 0.751817 0.659372 0
    outer loop
       vertex 0.388396 0.152191 0
       vertex 0.366834 0.176776 0
       vertex 0.366834 0.176776 0.1
    endloop
  endfacet
  facet normal 0.751817 0.659372 0
    outer loop
       vertex 0.366834 0.176776 0.1
       vertex 0.388396 0.152191 0.1
       vertex 0.388396 0.152191 0
    endloop
  endfacet
  facet normal 0.659372 0.751817 0
    outer loop
       vertex 0.366834 0.176776 0
       vertex 0.342249 0.198338 0
       vertex 0.342249 0.198338 0.1
    endloop
  endfacet
  facet normal 0.659372 0.751817 0
    outer loop
       vertex 0.342249 0.198338 0.1
       vertex 0.366834 0.176776 0.1
       vertex 0.366834 0.176776 0
    endloop
  endfacet
  facet normal 0.555561 0.831476 0
    outer loop
       vertex 0.342249 0.198338 0
       vertex 0.315058 0.216506 0
       vertex 0.315058 0.216506 0.1
    endloop
  endfacet
  facet normal 0.555561 0.831476 0
    outer loop
       vertex 0.315058 0.216506 0.1
       vertex 0.342249 0.198338 0.1
       vertex 0.342249 0.198338 0
    endloop
  endfacet
  facet normal 0.442302 0.896866 0
    outer loop
       vertex 0.315058 0.216506 0
       vertex 0.285729 0.23097 0
       vertex 0.285729 0.23097 0.1
    endloop
  endfacet
  facet normal 0.442302 0.896866 0
    outer loop
       vertex 0.285729 0.23097 0.1
       vertex 0.315058 0.216506 0.1
       vertex 0.315058 0.216506 0
    endloop
  endfacet
  facet normal 0.321425 0.946935 0
    outer loop
       vertex 0.285729 0.23097 0
       vertex 0.254763 0.241481 0
       vertex 0.254763 0.241481 0.1
    endloop
  endfacet
  facet normal 0.321425 0.946935 0
    outer loop
       vertex 0.254763 0.241481 0.1
       vertex 0.285729 0.23097 0.1
       vertex 0.285729 0.23097 0
    endloop
  endfacet
  facet normal 0.195096 0.980784 0
    outer loop
       vertex 0.254763 0.241481 0
       vertex 0.222689 0.247861 0
       vertex 0.222689 0.247861 0.1
    endloop
  endfacet
  facet normal 0.195096 0.980784 0
    outer loop
       vertex 0.222689 0.247861 0.1
       vertex 0.254763 0.241481 0.1
       vertex 0.254763 0.241481 0
    endloop
  endfacet
  facet normal 0.0654098 0.997858 0
    outer loop
       vertex 0.190058 0.25 0.1
       vertex 0.222689 0.247861 0.1
       vertex 0.222689 0.247861 0
    endloop
  endfacet
  facet normal 0.0654098 0.997858 -1.0893e-16
    outer loop
       vertex 0.222689 0.247861 0
       vertex 0.190058 0.25 0
       vertex 0.190058 0.25 0.1
    endloop
  endfacet
  facet normal -0.0654098 0.997858 0
    outer loop
       vertex 0.190058 0.25 0
       vertex 0.157426 0.247861 0
       vertex 0.157426 0.247861 0.1
    endloop
  endfacet
  facet normal -0.0654098 0.997858 1.0893e-16
    outer loop
       vertex 0.157426 0.247861 0.1
       vertex 0.190058 0.25 0.1
       vertex 0.190058 0.25 0
    endloop
  endfacet
  facet normal -0.195096 0.980784 0
    outer loop
       vertex 0.157426 0.247861 0
       vertex 0.125353 0.241481 0
       vertex 0.125353 0.241481 0.1
    endloop
  endfacet
  facet normal -0.195096 0.980784 0
    outer loop
       vertex 0.125353 0.241481 0.1
       vertex 0.157426 0.247861 0.1
       vertex 0.157426 0.247861 0
    endloop
  endfacet
  facet normal -0.321425 0.946935 0
    outer loop
       vertex 0.125353 0.241481 0
       vertex 0.094387 0.23097 0
       vertex 0.094387 0.23097 0.1
    endloop
  endfacet
  facet normal -0.321425 0.946935 0
    outer loop
       vertex 0.094387 0.23097 0.1
       vertex 0.125353 0.241481 0.1
       vertex 0.125353 0.241481 0
    endloop
  endfacet
  facet normal -0.442302 0.896866 0
    outer loop
       vertex 0.094387 0.23097 0
       vertex 0.065058 0.216506 0
       vertex 0.065058 0.216506 0.1
    endloop
  endfacet
  facet normal -0.442302 0.896866 0
    outer loop
       vertex 0.065058 0.216506 0.1
       vertex 0.094387 0.23097 0.1
       vertex 0.094387 0.23097 0
    endloop
  endfacet
  facet normal -0.555561 0.831476 0
    outer loop
       vertex 0.065058 0.216506 0
       vertex 0.037867 0.198338 0
       vertex 0.037867 0.198338 0.1
    endloop
  endfacet
  facet normal -0.555561 0.831476 0
    outer loop
       vertex 0.037867 0.198338 0.1
       vertex 0.065058 0.216506 0.1
       vertex 0.065058 0.216506 0
    endloop
  endfacet
  facet normal -0.659372 0.751817 0
    outer loop
       vertex 0.037867 0.198338 0
       vertex 0.013282 0.176776 0
       vertex 0.013282 0.176776 0.1
    endloop
  endfacet
  facet normal -0.659372 0.751817 0
    outer loop
       vertex 0.013282 0.176776 0.1
       vertex 0.037867 0.198338 0.1
       vertex 0.037867 0.198338 0
    endloop
  endfacet
  facet normal -0.751817 0.659372 0
    outer loop
       vertex 0.013282 0.176776 0
       vertex -0.00828005 0.152191 0
       vertex -0.00828005 0.152191 0.1
    endloop
  endfacet
  facet normal -0.751817 0.659372 0
    outer loop
       vertex -0.00828005 0.152191 0.1
       vertex 0.013282 0.176776 0.1
       vertex 0.013282 0.176776 0
    endloop
  endfacet
  facet normal -0.831476 0.555561 0
    outer loop
       vertex -0.00828005 0.152191 0
       vertex -0.026448 0.125 0
       vertex -0.026448 0.125 0.1
    endloop
  endfacet
  facet normal -0.831476 0.555561 0
    outer loop
       vertex -0.026448 0.125 0.1
       vertex -0.00828005 0.152191 0.1
       vertex -0.00828005 0.152191 0
    endloop
  endfacet
  facet normal -0.896866 0.442302 0
    outer loop
       vertex -0.026448 0.125 0
       vertex -0.040912 0.095671 0
       vertex -0.040912 0.095671 0.1
    endloop
  endfacet
  facet normal -0.896866 0.442302 0
    outer loop
       vertex -0.040912 0.095671 0.1
       vertex -0.026448 0.125 0.1
       vertex -0.026448 0.125 0
    endloop
  endfacet
  facet normal -0.946935 0.321425 0
    outer loop
       vertex -0.040912 0.095671 0
       vertex -0.051423 0.064705 0
       vertex -0.051423 0.064705 0.1
    endloop
  endfacet
  facet normal -0.946935 0.321425 0
    outer loop
       vertex -0.051423 0.064705 0.1
       vertex -0.040912 0.095671 0.1
       vertex -0.040912 0.095671 0
    endloop
  endfacet
  facet normal -0.980784 0.195096 0
    outer loop
       vertex -0.051423 0.064705 0
       vertex -0.057803 0.0326315 0
       vertex -0.057803 0.0326315 0.1
    endloop
  endfacet
  facet normal -0.980784 0.195096 0
    outer loop
       vertex -0.057803 0.0326315 0.1
       vertex -0.051423 0.064705 0.1
       vertex -0.051423 0.064705 0
    endloop
  endfacet
  facet normal -0.997858 0.0654098 0
    outer loop
       vertex -0.059942 8.32665e-17 0.1
       vertex -0.057803 0.0326315 0.1
       vertex -0.057803 0.0326315 0
    endloop
  endfacet
  facet normal -0.997858 0.0654098 -1.08928e-16
    outer loop
       vertex -0.057803 0.0326315 0
       vertex -0.059942 -8.32665e-17 0
       vertex -0.059942 8.32665e-17 0.1
    endloop
  endfacet
  facet normal -0.997858 -0.0654098 0
    outer loop
       vertex -0.059942 -8.32665e-17 0
       vertex -0.057803 -0.0326315 0
       vertex -0.057803 -0.0326315 0.1
    endloop
  endfacet
  facet normal -0.997858 -0.0654098 1.08928e-16
    outer loop
       vertex -0.057803 -0.0326315 0.1
       vertex -0.059942 8.32665e-17 0.1
       vertex -0.059942 -8.32665e-17 0
    endloop
  endfacet
  facet normal -0.980784 -0.195096 0
    outer loop
       vertex -0.057803 -0.0326315 0
       vertex -0.051423 -0.064705 0
       vertex -0.051423 -0.064705 0.1
    endloop
  endfacet
  facet normal -0.980784 -0.195096 0
    outer loop
       vertex -0.051423 -0.064705 0.1
       vertex -0.057803 -0.0326315 0.1
       vertex -0.057803 -0.0326315 0
    endloop
  endfacet
  facet normal -0.946935 -0.321425 0
    outer loop
       vertex -0.051423 -0.064705 0
       vertex -0.040912 -0.095671 0
       vertex -0.040912 -0.095671 0.1
    endloop
  endfacet
  facet normal -0.946935 -0.321425 0
    outer loop
       vertex -0.040912 -0.095671 0.1
       vertex -0.051423 -0.064705 0.1
       vertex -0.051423 -0.064705 0
    endloop
  endfacet
  facet normal -0.896866 -0.442302 0
    outer loop
       vertex -0.040912 -0.095671 0
       vertex -0.026448 -0.125 0
       vertex -0.026448 -0.125 0.1
    endloop
  endfacet
  facet normal -0.896866 -0.442302 0
    outer loop
       vertex -0.026448 -0.125 0.1
       vertex -0.040912 -0.095671 0.1
       vertex -0.040912 -0.095671 0
    endloop
  endfacet
  facet normal -0.831476 -0.555561 0
    outer loop
       vertex -0.026448 -0.125 0
       vertex -0.00828005 -0.152191 0
       vertex -0.00828005 -0.152191 0.1
    endloop
  endfacet
  facet normal -0.831476 -0.555561 0
    outer loop
       vertex -0.00828005 -0.152191 0.1
       vertex -0.026448 -0.125 0.1
       vertex -0.026448 -0.125 0
    endloop
  endfacet
  facet normal -0.751817 -0.659372 0
    outer loop
       vertex -0.00828005 -0.152191 0
       vertex 0.013282 -0.176776 0
       vertex 0.013282 -0.176776 0.1
    endloop
  endfacet
  facet normal -0.751817 -0.659372 0
    outer loop
       vertex 0.013282 -0.176776 0.1
       vertex -0.00828005 -0.152191 0.1
       vertex -0.00828005 -0.152191 0
    endloop
  endfacet
  facet normal 0.659372 -0.751817 0
    outer loop
       vertex 0.366834 -0.176776 0
       vertex 0.366834 -0.176776 0.1
       vertex 0.342249 -0.198338 0.1
    endloop
  endfacet
  facet normal 0.659372 -0.751817 0
    outer loop
       vertex 0.342249 -0.198338 0.1
       vertex 0.342249 -0.198338 0
       vertex 0.366834 -0.176776 0
    endloop
  endfacet
  facet normal 0.555561 -0.831476 0
    outer loop
       vertex 0.342249 -0.198338 0
       vertex 0.342249 -0.198338 0.1
       vertex 0.315058 -0.216506 0.1
    endloop
  endfacet
  facet normal 0.555561 -0.831476 0
    outer loop
       vertex 0.315058 -0.216506 0.1
       vertex 0.315058 -0.216506 0
       vertex 0.342249 -0.198338 0
    endloop
  endfacet
  facet normal 0.442302 -0.896866 0
    outer loop
       vertex 0.315058 -0.216506 0
       vertex 0.315058 -0.216506 0.1
       vertex 0.285729 -0.23097 0.1
    endloop
  endfacet
  facet normal 0.442302 -0.896866 0
    outer loop
       vertex 0.285729 -0.23097 0.1
       vertex 0.285729 -0.23097 0
       vertex 0.315058 -0.216506 0
    endloop
  endfacet
  facet normal 0.321425 -0.946935 0
    outer loop
       vertex 0.285729 -0.23097 0
       vertex 0.285729 -0.23097 0.1
       vertex 0.254763 -0.241481 0.1
    endloop
  endfacet
  facet normal 0.321425 -0.946935 0
    outer loop
       vertex 0.254763 -0.241481 0.1
       vertex 0.254763 -0.241481 0
       vertex 0.285729 -0.23097 0
    endloop
  endfacet
  facet normal 0.195096 -0.980784 0
    outer loop
       vertex 0.254763 -0.241481 0
       vertex 0.254763 -0.241481 0.1
       vertex 0.222689 -0.247861 0.1
    endloop
  endfacet
  facet normal 0.195096 -0.980784 0
    outer loop
       vertex 0.222689 -0.247861 0.1
       vertex 0.222689 -0.247861 0
       vertex 0.254763 -0.241481 0
    endloop
  endfacet
  facet normal 0.0654098 -0.997858 0
    outer loop
       vertex 0.190058 -0.25 0
       vertex 0.222689 -0.247861 0
       vertex 0.222689 -0.247861 0.1
    endloop
  endfacet
  facet normal 0.0654098 -0.997858 1.0893e-16
    outer loop
       vertex 0.222689 -0.247861 0.1
       vertex 0.190058 -0.25 0.1
       vertex 0.190058 -0.25 0
    endloop
  endfacet
  facet normal -0.0654098 -0.997858 0
    outer loop
       vertex 0.190058 -0.25 0.1
       vertex 0.157426 -0.247861 0.1
       vertex 0.157426 -0.247861 0
    endloop
  endfacet
  facet normal -0.0654098 -0.997858 -1.0893e-16
    outer loop
       vertex 0.157426 -0.247861 0
       vertex 0.190058 -0.25 0
       vertex 0.190058 -0.25 0.1
    endloop
  endfacet
  facet normal -0.195096 -0.980784 0
    outer loop
       vertex 0.157426 -0.247861 0
       vertex 0.157426 -0.247861 0.1
       vertex 0.125353 -0.241481 0.1
    endloop
  endfacet
  facet normal -0.195096 -0.980784 -0
    outer loop
       vertex 0.125353 -0.241481 0.1
       vertex 0.125353 -0.241481 0
       vertex 0.157426 -0.247861 0
    endloop
  endfacet
  facet normal -0.321425 -0.946935 0
    outer loop
       vertex 0.125353 -0.241481 0
       vertex 0.125353 -0.241481 0.1
       vertex 0.094387 -0.23097 0.1
    endloop
  endfacet
  facet normal -0.321425 -0.946935 -0
    outer loop
       vertex 0.094387 -0.23097 0.1
       vertex 0.094387 -0.23097 0
       vertex 0.125353 -0.241481 0
    endloop
  endfacet
  facet normal -0.442302 -0.896866 0
    outer loop
       vertex 0.094387 -0.23097 0
       vertex 0.094387 -0.23097 0.1
       vertex 0.065058 -0.216506 0.1
    endloop
  endfacet
  facet normal -0.442302 -0.896866 -0
    outer loop
       vertex 0.065058 -0.216506 0.1
       vertex 0.065058 -0.216506 0
       vertex 0.094387 -0.23097 0
    endloop
  endfacet
  facet normal -0.555561 -0.831476 0
    outer loop
       vertex 0.065058 -0.216506 0
       vertex 0.065058 -0.216506 0.1
       vertex 0.037867 -0.198338 0.1
    endloop
  endfacet
  facet normal -0.555561 -0.831476 -0
    outer loop
       vertex 0.037867 -0.198338 0.1
       vertex 0.037867 -0.198338 0
       vertex 0.065058 -0.216506 0
    endloop
  endfacet
  facet normal -0.659372 -0.751817 0
    outer loop
       vertex 0.037867 -0.198338 0
       vertex 0.037867 -0.198338 0.1
       vertex 0.013282 -0.176776 0.1
    endloop
  endfacet
  facet normal -0.659372 -0.751817 -0
    outer loop
       vertex 0.013282 -0.176776 0.1
       vertex 0.013282 -0.176776 0
       vertex 0.037867 -0.198338 0
    endloop
  endfacet
endsolid cylinder
