solid cylinder
  facet normal 0.751817 -0.659372 0
    outer loop
       vertex 0.0858253 -0.176776 0
       vertex 0.107387 -0.152191 0
       vertex 0.107387 -0.152191 0.1
    endloop
  endfacet
  facet normal 0.751817 -0.659372 0
    outer loop
       vertex 0.107387 -0.152191 0.1
       vertex 0.0858253 -0.176776 0.1
       vertex 0.0858253 -0.176776 0
    endloop
  endfacet
  facet normal 0.831476 -0.555561 0
    outer loop
       vertex 0.107387 -0.152191 0
       vertex 0.125555 -0.125 0
       vertex 0.125555 -0.125 0.1
    endloop
  endfacet
  facet normal 0.831476 -0.555561 0
    outer loop
       vertex 0.125555 -0.125 0.1
       vertex 0.107387 -0.152191 0.1
       vertex 0.107387 -0.152191 0
    endloop
  endfacet
  facet normal 0.896866 -0.442302 0
    outer loop
       vertex 0.125555 -0.125 0
       vertex 0.140019 -0.095671 0
       vertex 0.140019 -0.095671 0.1
    endloop
  endfacet
  facet normal 0.896866 -0.442302 0
    outer loop
       vertex 0.140019 -0.095671 0.1
       vertex 0.125555 -0.125 0.1
       vertex 0.125555 -0.125 0
    endloop
  endfacet
  facet normal 0.946935 -0.321425 0
    outer loop
       vertex 0.140019 -0.095671 0
       vertex 0.15053 -0.064705 0
       vertex 0.15053 -0.064705 0.1
    endloop
  endfacet
  facet normal 0.946935 -0.321425 0
    outer loop
       vertex 0.15053 -0.064705 0.1
       vertex 0.140019 -0.095671 0.1
       vertex 0.140019 -0.095671 0
    endloop
  endfacet
  facet normal 0.980784 -0.195096 0
    outer loop
       vertex 0.15053 -0.064705 0
       vertex 0.15691 -0.0326315 0
       vertex 0.15691 -0.0326315 0.1
    endloop
  endfacet
  facet normal 0.980784 -0.195096 0
    outer loop
       vertex 0.15691 -0.0326315 0.1
       vertex 0.15053 -0.064705 0.1
       vertex 0.15053 -0.064705 0
    endloop
  endfacet
  facet normal 0.997858 -0.0654098 0
    outer loop
       vertex 0.159049 -8.32665e-17 0.1
       vertex 0.15691 -0.0326315 0.1
       vertex 0.15691 -0.0326315 0
    endloop
  endfacet
  facet normal 0.997858 -0.0654098 -1.08928e-16
    outer loop
       vertex 0.15691 -0.0326315 0
       vertex 0.159049 8.32665e-17 0
       vertex 0.159049 -8.32665e-17 0.1
    endloop
  endfacet
  facet normal 0.997858 0.0654098 0
    outer loop
       vertex 0.159049 8.32665e-17 0
       vertex 0.15691 0.0326315 0
       vertex 0.15691 0.0326315 0.1
    endloop
  endfacet
  facet normal 0.997858 0.0654098 1.08928e-16
    outer loop
       vertex 0.15691 0.0326315 0.1
       vertex 0.159049 -8.32665e-17 0.1
       vertex 0.159049 8.32665e-17 0
    endloop
  endfacet
  facet normal 0.980784 0.195096 0
    outer loop
       vertex 0.15691 0.0326315 0
       vertex 0.15053 0.064705 0
       vertex 0.15053 0.064705 0.1
    endloop
  endfacet
  facet normal 0.980784 0.195096 0
    outer loop
       vertex 0.15053 0.064705 0.1
       vertex 0.15691 0.0326315 0.1
       vertex 0.15691 0.0326315 0
    endloop
  endfacet
  facet normal 0.946935 0.321425 0
    outer loop
       vertex 0.15053 0.064705 0
       vertex 0.140019 0.095671 0
       vertex 0.140019 0.095671 0.1
    endloop
  endfacet
  facet normal 0.946935 0.321425 0
    outer loop
       vertex 0.140019 0.095671 0.1
       vertex 0.15053 0.064705 0.1
       vertex 0.15053 0.064705 0
    endloop
  endfacet
  facet normal 0.896866 0.442302 0
    outer loop
       vertex 0.140019 0.095671 0
       vertex 0.125555 0.125 0
       vertex 0.125555 0.125 0.1
    endloop
  endfacet
  facet normal 0.896866 0.442302 0
    outer loop
       vertex 0.125555 0.125 0.1
       vertex 0.140019 0.095671 0.1
       vertex 0.140019 0.095671 0
    endloop
  endfacet
  facet normal 0.831476 0.555561 0
    outer loop
       vertex 0.125555 0.125 0
       vertex 0.107387 0.152191 0
       vertex 0.107387 0.152191 0.1
    endloop
  endfacet
  facet normal 0.831476 0.555561 0
    outer loop
       vertex 0.107387 0.152191 0.1
       vertex 0.125555 0.125 0.1
       vertex 0.125555 0.125 0
    endloop
  endfacet
  facet normal 0.751817 0.659372 0
    outer loop
       vertex 0.107387 0.152191 0
       vertex 0.0858253 0.176776 0
       vertex 0.0858253 0.176776 0.1
    endloop
  endfacet
  facet normal 0.751817 0.659372 0
    outer loop
       vertex 0.0858253 0.176776 0.1
       vertex 0.107387 0.152191 0.1
       vertex 0.107387 0.152191 0
    endloop
  endfacet
  facet normal 0.659372 0.751817 0
    outer loop
       vertex 0.0858253 0.176776 0
       vertex 0.0612403 0.198338 0
       vertex 0.0612403 0.198338 0.1
    endloop
  endfacet
  facet normal 0.659372 0.751817 0
    outer loop
       vertex 0.0612403 0.198338 0.1
       vertex 0.0858253 0.176776 0.1
       vertex 0.0858253 0.176776 0
    endloop
  endfacet
  facet normal 0.555561 0.831476 0
    outer loop
       vertex 0.0612403 0.198338 0
       vertex 0.0340493 0.216506 0
       vertex 0.0340493 0.216506 0.1
    endloop
  endfacet
  facet normal 0.555561 0.831476 0
    outer loop
       vertex 0.0340493 0.216506 0.1
       vertex 0.0612403 0.198338 0.1
       vertex 0.0612403 0.198338 0
    endloop
  endfacet
  facet normal 0.442302 0.896866 0
    outer loop
       vertex 0.0340493 0.216506 0
       vertex 0.00472026 0.23097 0
       vertex 0.00472026 0.23097 0.1
    endloop
  endfacet
  facet normal 0.442302 0.896866 0
    outer loop
       vertex 0.00472026 0.23097 0.1
       vertex 0.0340493 0.216506 0.1
       vertex 0.0340493 0.216506 0
    endloop
  endfacet
  facet normal 0.321425 0.946935 0
    outer loop
       vertex 0.00472026 0.23097 0
       vertex -0.0262457 0.241481 0
       vertex -0.0262457 0.241481 0.1
    endloop
  endfacet
  facet normal 0.321425 0.946935 0
    outer loop
       vertex -0.0262457 0.241481 0.1
       vertex 0.00472026 0.23097 0.1
       vertex 0.00472026 0.23097 0
    endloop
  endfacet
  facet normal 0.195096 0.980784 0
    outer loop
       vertex -0.0262457 0.241481 0
       vertex -0.0583192 0.247861 0
       vertex -0.0583192 0.247861 0.1
    endloop
  endfacet
  facet normal 0.195096 0.980784 0
    outer loop
       vertex -0.0583192 0.247861 0.1
       vertex -0.0262457 0.241481 0.1
       vertex -0.0262457 0.241481 0
    endloop
  endfacet
  facet normal 0.0654098 0.997858 0
    outer loop
       vertex -0.0909507 0.25 0.1
       vertex -0.0583192 0.247861 0.1
       vertex -0.0583192 0.247861 0
    endloop
  endfacet
  facet normal 0.0654098 0.997858 -1.08928e-16
    outer loop
       vertex -0.0583192 0.247861 0
       vertex -0.0909507 0.25 0
       vertex -0.0909507 0.25 0.1
    endloop
  endfacet
  facet normal -0.0654098 0.997858 0
    outer loop
       vertex -0.0909507 0.25 0
       vertex -0.123582 0.247861 0
       vertex -0.123582 0.247861 0.1
    endloop
  endfacet
  facet normal -0.0654098 0.997858 1.08928e-16
    outer loop
       vertex -0.123582 0.247861 0.1
       vertex -0.0909507 0.25 0.1
       vertex -0.0909507 0.25 0
    endloop
  endfacet
  facet normal -0.195096 0.980784 0
    outer loop
       vertex -0.123582 0.247861 0
       vertex -0.155656 0.241481 0
       vertex -0.155656 0.241481 0.1
    endloop
  endfacet
  facet normal -0.195096 0.980784 0
    outer loop
       vertex -0.155656 0.241481 0.1
       vertex -0.123582 0.247861 0.1
       vertex -0.123582 0.247861 0
    endloop
  endfacet
  facet normal -0.321425 0.946935 0
    outer loop
       vertex -0.155656 0.241481 0
       vertex -0.186622 0.23097 0
       vertex -0.186622 0.23097 0.1
    endloop
  endfacet
  facet normal -0.321425 0.946935 0
    outer loop
       vertex -0.186622 0.23097 0.1
       vertex -0.155656 0.241481 0.1
       vertex -0.155656 0.241481 0
    endloop
  endfacet
  facet normal -0.442302 0.896866 0
    outer loop
       vertex -0.186622 0.23097 0
       vertex -0.215951 0.216506 0
       vertex -0.215951 0.216506 0.1
    endloop
  endfacet
  facet normal -0.442302 0.896866 0
    outer loop
       vertex -0.215951 0.216506 0.1
       vertex -0.186622 0.23097 0.1
       vertex -0.186622 0.23097 0
    endloop
  endfacet
  facet normal -0.555561 0.831476 0
    outer loop
       vertex -0.215951 0.216506 0
       vertex -0.243142 0.198338 0
       vertex -0.243142 0.198338 0.1
    endloop
  endfacet
  facet normal -0.555561 0.831476 0
    outer loop
       vertex -0.243142 0.198338 0.1
       vertex -0.215951 0.216506 0.1
       vertex -0.215951 0.216506 0
    endloop
  endfacet
  facet normal -0.659372 0.751817 0
    outer loop
       vertex -0.243142 0.198338 0
       vertex -0.267727 0.176776 0
       vertex -0.267727 0.176776 0.1
    endloop
  endfacet
  facet normal -0.659372 0.751817 0
    outer loop
       vertex -0.267727 0.176776 0.1
       vertex -0.243142 0.198338 0.1
       vertex -0.243142 0.198338 0
    endloop
  endfacet
  facet normal -0.751817 0.659372 0
    outer loop
       vertex -0.267727 0.176776 0
       vertex -0.289289 0.152191 0
       vertex -0.289289 0.152191 0.1
    endloop
  endfacet
  facet normal -0.751817 0.659372 0
    outer loop
       vertex -0.289289 0.152191 0.1
       vertex -0.267727 0.176776 0.1
       vertex -0.267727 0.176776 0
    endloop
  endfacet
  facet normal -0.831476 0.555561 0
    outer loop
       vertex -0.289289 0.152191 0
       vertex -0.307457 0.125 0
       vertex -0.307457 0.125 0.1
    endloop
  endfacet
  facet normal -0.831476 0.555561 0
    outer loop
       vertex -0.307457 0.125 0.1
       vertex -0.289289 0.152191 0.1
       vertex -0.289289 0.152191 0
    endloop
  endfacet
  facet normal -0.896866 0.442302 0
    outer loop
       vertex -0.307457 0.125 0
       vertex -0.321921 0.095671 0
       vertex -0.321921 0.095671 0.1
    endloop
  endfacet
  facet normal -0.896866 0.442302 0
    outer loop
       vertex -0.321921 0.095671 0.1
       vertex -0.307457 0.125 0.1
       vertex -0.307457 0.125 0
    endloop
  endfacet
  facet normal -0.946935 0.321425 0
    outer loop
       vertex -0.321921 0.095671 0
       vertex -0.332432 0.064705 0
       vertex -0.332432 0.064705 0.1
    endloop
  endfacet
  facet normal -0.946935 0.321425 0
    outer loop
       vertex -0.332432 0.064705 0.1
       vertex -0.321921 0.095671 0.1
       vertex -0.321921 0.095671 0
    endloop
  endfacet
  facet normal -0.980784 0.195096 0
    outer loop
       vertex -0.332432 0.064705 0
       vertex -0.338812 0.0326315 0
       vertex -0.338812 0.0326315 0.1
    endloop
  endfacet
  facet normal -0.980784 0.195096 0
    outer loop
       vertex -0.338812 0.0326315 0.1
       vertex -0.332432 0.064705 0.1
       vertex -0.332432 0.064705 0
    endloop
  endfacet
  facet normal -0.997858 0.0654098 0
    outer loop
       vertex -0.340951 8.32665e-17 0.1
       vertex -0.338812 0.0326315 0.1
       vertex -0.338812 0.0326315 0
    endloop
  endfacet
  facet normal -0.997858 0.0654098 -1.08928e-16
    outer loop
       vertex -0.338812 0.0326315 0
       vertex -0.340951 -8.32665e-17 0
       vertex -0.340951 8.32665e-17 0.1
    endloop
  endfacet
  facet normal -0.997858 -0.0654098 0
    outer loop
       vertex -0.340951 -8.32665e-17 0
       vertex -0.338812 -0.0326315 0
       vertex -0.338812 -0.0326315 0.1
    endloop
  endfacet
  facet normal -0.997858 -0.0654098 1.08928e-16
    outer loop
       vertex -0.338812 -0.0326315 0.1
       vertex -0.340951 8.32665e-17 0.1
       vertex -0.340951 -8.32665e-17 0
    endloop
  endfacet
  facet normal -0.980784 -0.195096 0
    outer loop
       vertex -0.338812 -0.0326315 0
       vertex -0.332432 -0.064705 0
       vertex -0.332432 -0.064705 0.1
    endloop
  endfacet
  facet normal -0.980784 -0.195096 0
    outer loop
       vertex -0.332432 -0.064705 0.1
       vertex -0.338812 -0.0326315 0.1
       vertex -0.338812 -0.0326315 0
    endloop
  endfacet
  facet normal -0.946935 -0.321425 0
    outer loop
       vertex -0.332432 -0.064705 0
       vertex -0.321921 -0.095671 0
       vertex -0.321921 -0.095671 0.1
    endloop
  endfacet
  facet normal -0.946935 -0.321425 0
    outer loop
       vertex -0.321921 -0.095671 0.1
       vertex -0.332432 -0.064705 0.1
       vertex -0.332432 -0.064705 0
    endloop
  endfacet
  facet normal -0.896866 -0.442302 0
    outer loop
       vertex -0.321921 -0.095671 0
       vertex -0.307457 -0.125 0
       vertex -0.307457 -0.125 0.1
    endloop
  endfacet
  facet normal -0.896866 -0.442302 0
    outer loop
       vertex -0.307457 -0.125 0.1
       vertex -0.321921 -0.095671 0.1
       vertex -0.321921 -0.095671 0
    endloop
  endfacet
  facet normal -0.831476 -0.555561 0
    outer loop
       vertex -0.307457 -0.125 0
       vertex -0.289289 -0.152191 0
       vertex -0.289289 -0.152191 0.1
    endloop
  endfacet
  facet normal -0.831476 -0.555561 0
    outer loop
       vertex -0.289289 -0.152191 0.1
       vertex -0.307457 -0.125 0.1
       vertex -0.307457 -0.125 0
    endloop
  endfacet
  facet normal -0.751817 -0.659372 0
    outer loop
       vertex -0.289289 -0.152191 0
       vertex -0.267727 -0.176776 0
       vertex -0.267727 -0.176776 0.1
    endloop
  endfacet
  facet normal -0.751817 -0.659372 0
    outer loop
       vertex -0.267727 -0.176776 0.1
       vertex -0.289289 -0.152191 0.1
       vertex -0.289289 -0.152191 0
    endloop
  endfacet
  facet normal 0.659372 -0.751817 0
    outer loop
       vertex 0.0858253 -0.176776 0
       vertex 0.0858253 -0.176776 0.1
       vertex 0.0612403 -0.198338 0.1
    endloop
  endfacet
  facet normal 0.659372 -0.751817 0
    outer loop
       vertex 0.0612403 -0.198338 0.1
       vertex 0.0612403 -0.198338 0
       vertex 0.0858253 -0.176776 0
    endloop
  endfacet
  facet normal 0.555561 -0.831476 0
    outer loop
       vertex 0.0612403 -0.198338 0
       vertex 0.0612403 -0.198338 0.1
       vertex 0.0340493 -0.216506 0.1
    endloop
  endfacet
  facet normal 0.555561 -0.831476 0
    outer loop
       vertex 0.0340493 -0.216506 0.1
       vertex 0.0340493 -0.216506 0
       vertex 0.0612403 -0.198338 0
    endloop
  endfacet
  facet normal 0.442302 -0.896866 0
    outer loop
       vertex 0.0340493 -0.216506 0
       vertex 0.0340493 -0.216506 0.1
       vertex 0.00472026 -0.23097 0.1
    endloop
  endfacet
  facet normal 0.442302 -0.896866 0
    outer loop
       vertex 0.00472026 -0.23097 0.1
       vertex 0.00472026 -0.23097 0
       vertex 0.0340493 -0.216506 0
    endloop
  endfacet
  facet normal 0.321425 -0.946935 0
    outer loop
       vertex 0.00472026 -0.23097 0
       vertex 0.00472026 -0.23097 0.1
       vertex -0.0262457 -0.241481 0.1
    endloop
  endfacet
  facet normal 0.321425 -0.946935 0
    outer loop
       vertex -0.0262457 -0.241481 0.1
       vertex -0.0262457 -0.241481 0
       vertex 0.00472026 -0.23097 0
    endloop
  endfacet
  facet normal 0.195096 -0.980784 0
    outer loop
       vertex -0.0262457 -0.241481 0
       vertex -0.0262457 -0.241481 0.1
       vertex -0.0583192 -0.247861 0.1
    endloop
  endfacet
  facet normal 0.195096 -0.980784 0
    outer loop
       vertex -0.0583192 -0.247861 0.1
       vertex -0.0583192 -0.247861 0
       vertex -0.0262457 -0.241481 0
    endloop
  endfacet
  facet normal 0.0654098 -0.997858 0
    outer loop
       vertex -0.0909507 -0.25 0
       vertex -0.0583192 -0.247861 0
       vertex -0.0583192 -0.247861 0.1
    endloop
  endfacet
  facet normal 0.0654098 -0.997858 1.08928e-16
    outer loop
       vertex -0.0583192 -0.247861 0.1
       vertex -0.0909507 -0.25 0.1
       vertex -0.0909507 -0.25 0
    endloop
  endfacet
  facet normal -0.0654098 -0.997858 0
    outer loop
       vertex -0.0909507 -0.25 0.1
       vertex -0.123582 -0.247861 0.1
       vertex -0.123582 -0.247861 0
    endloop
  endfacet
  facet normal -0.0654098 -0.997858 -1.08928e-16
    outer loop
       vertex -0.123582 -0.247861 0
       vertex -0.0909507 -0.25 0
       vertex -0.0909507 -0.25 0.1
    endloop
  endfacet
  facet normal -0.195096 -0.980784 0
    outer loop
       vertex -0.123582 -0.247861 0
       vertex -0.123582 -0.247861 0.1
       vertex -0.155656 -0.241481 0.1
    endloop
  endfacet
  facet normal -0.195096 -0.980784 -0
    outer loop
       vertex -0.155656 -0.241481 0.1
       vertex -0.155656 -0.241481 0
       vertex -0.123582 -0.247861 0
    endloop
  endfacet
  facet normal -0.321425 -0.946935 0
    outer loop
       vertex -0.155656 -0.241481 0
       vertex -0.155656 -0.241481 0.1
       vertex -0.186622 -0.23097 0.1
    endloop
  endfacet
  facet normal -0.321425 -0.946935 -0
    outer loop
       vertex -0.186622 -0.23097 0.1
       vertex -0.186622 -0.23097 0
       vertex -0.155656 -0.241481 0
    endloop
  endfacet
  facet normal -0.442302 -0.896866 0
    outer loop
       vertex -0.186622 -0.23097 0
       vertex -0.186622 -0.23097 0.1
       vertex -0.215951 -0.216506 0.1
    endloop
  endfacet
  facet normal -0.442302 -0.896866 -0
    outer loop
       vertex -0.215951 -0.216506 0.1
       vertex -0.215951 -0.216506 0
       vertex -0.186622 -0.23097 0
    endloop
  endfacet
  facet normal -0.555561 -0.831476 0
    outer loop
       vertex -0.215951 -0.216506 0
       vertex -0.215951 -0.216506 0.1
       vertex -0.243142 -0.198338 0.1
    endloop
  endfacet
  facet normal -0.555561 -0.831476 -0
    outer loop
       vertex -0.243142 -0.198338 0.1
       vertex -0.243142 -0.198338 0
       vertex -0.215951 -0.216506 0
    endloop
  endfacet
  facet normal -0.659372 -0.751817 0
    outer loop
       vertex -0.243142 -0.198338 0
       vertex -0.243142 -0.198338 0.1
       vertex -0.267727 -0.176776 0.1
    endloop
  endfacet
  facet normal -0.659372 -0.751817 -0
    outer loop
       vertex -0.267727 -0.176776 0.1
       vertex -0.267727 -0.176776 0
       vertex -0.243142 -0.198338 0
    endloop
  endfacet
endsolid cylinder
