solid cylinder
  facet normal 0.751817 -0.659372 0
    outer loop
       vertex -0.119326 -0.176776 0
       vertex -0.0977635 -0.152191 0
       vertex -0.0977635 -0.152191 0.1
    endloop
  endfacet
  facet normal 0.751817 -0.659372 0
    outer loop
       vertex -0.0977635 -0.152191 0.1
       vertex -0.119326 -0.176776 0.1
       vertex -0.119326 -0.176776 0
    endloop
  endfacet
  facet normal 0.831476 -0.555561 0
    outer loop
       vertex -0.0977635 -0.152191 0
       vertex -0.0795955 -0.125 0
       vertex -0.0795955 -0.125 0.1
    endloop
  endfacet
  facet normal 0.831476 -0.555561 0
    outer loop
       vertex -0.0795955 -0.125 0.1
       vertex -0.0977635 -0.152191 0.1
       vertex -0.0977635 -0.152191 0
    endloop
  endfacet
  facet normal 0.896866 -0.442302 0
    outer loop
       vertex -0.0795955 -0.125 0
       vertex -0.0651315 -0.095671 0
       vertex -0.0651315 -0.095671 0.1
    endloop
  endfacet
  facet normal 0.896866 -0.442302 0
    outer loop
       vertex -0.0651315 -0.095671 0.1
       vertex -0.0795955 -0.125 0.1
       vertex -0.0795955 -0.125 0
    endloop
  endfacet
  facet normal 0.946935 -0.321425 0
    outer loop
       vertex -0.0651315 -0.095671 0
       vertex -0.0546205 -0.064705 0
       vertex -0.0546205 -0.064705 0.1
    endloop
  endfacet
  facet normal 0.946935 -0.321425 0
    outer loop
       vertex -0.0546205 -0.064705 0.1
       vertex -0.0651315 -0.095671 0.1
       vertex -0.0651315 -0.095671 0
    endloop
  endfacet
  facet normal 0.980784 -0.195096 0
    outer loop
       vertex -0.0546205 -0.064705 0
       vertex -0.0482405 -0.0326315 0
       vertex -0.0482405 -0.0326315 0.1
    endloop
  endfacet
  facet normal 0.980784 -0.195096 0
    outer loop
       vertex -0.0482405 -0.0326315 0.1
       vertex -0.0546205 -0.064705 0.1
       vertex -0.0546205 -0.064705 0
    endloop
  endfacet
  facet normal 0.997858 -0.0654098 0
    outer loop
       vertex -0.0461015 -8.32665e-17 0.1
       vertex -0.0482405 -0.0326315 0.1
       vertex -0.0482405 -0.0326315 0
    endloop
  endfacet
  facet normal 0.997858 -0.0654098 -1.08928e-16
    outer loop
       vertex -0.0482405 -0.0326315 0
       vertex -0.0461015 8.32665e-17 0
       vertex -0.0461015 -8.32665e-17 0.1
    endloop
  endfacet
  facet normal 0.997858 0.0654098 0
    outer loop
       vertex -0.0461015 8.32665e-17 0
       vertex -0.0482405 0.0326315 0
       vertex -0.0482405 0.0326315 0.1
    endloop
  endfacet
  facet normal 0.997858 0.0654098 1.08928e-16
    outer loop
       vertex -0.0482405 0.0326315 0.1
       vertex -0.0461015 -8.32665e-17 0.1
       vertex -0.0461015 8.32665e-17 0
    endloop
  endfacet
  facet normal 0.980784 0.195096 0
    outer loop
       vertex -0.0482405 0.0326315 0
       vertex -0.0546205 0.064705 0
       vertex -0.0546205 0.064705 0.1
    endloop
  endfacet
  facet normal 0.980784 0.195096 0
    outer loop
       vertex -0.0546205 0.064705 0.1
       vertex -0.0482405 0.0326315 0.1
       vertex -0.0482405 0.0326315 0
    endloop
  endfacet
  facet normal 0.946935 0.321425 0
    outer loop
       vertex -0.0546205 0.064705 0
       vertex -0.0651315 0.095671 0
       vertex -0.0651315 0.095671 0.1
    endloop
  endfacet
  facet normal 0.946935 0.321425 0
    outer loop
       vertex -0.0651315 0.095671 0.1
       vertex -0.0546205 0.064705 0.1
       vertex -0.0546205 0.064705 0
    endloop
  endfacet
  facet normal 0.896866 0.442302 0
    outer loop
       vertex -0.0651315 0.095671 0
       vertex -0.0795955 0.125 0
       vertex -0.0795955 0.125 0.1
    endloop
  endfacet
  facet normal 0.896866 0.442302 0
    outer loop
       vertex -0.0795955 0.125 0.1
       vertex -0.0651315 0.095671 0.1
       vertex -0.0651315 0.095671 0
    endloop
  endfacet
  facet normal 0.831476 0.555561 0
    outer loop
       vertex -0.0795955 0.125 0
       vertex -0.0977635 0.152191 0
       vertex -0.0977635 0.152191 0.1
    endloop
  endfacet
  facet normal 0.831476 0.555561 0
    outer loop
       vertex -0.0977635 0.152191 0.1
       vertex -0.0795955 0.125 0.1
       vertex -0.0795955 0.125 0
    endloop
  endfacet
  facet normal 0.751817 0.659372 0
    outer loop
       vertex -0.0977635 0.152191 0
       vertex -0.119326 0.176776 0
       vertex -0.119326 0.176776 0.1
    endloop
  endfacet
  facet normal 0.751817 0.659372 0
    outer loop
       vertex -0.119326 0.176776 0.1
       vertex -0.0977635 0.152191 0.1
       vertex -0.0977635 0.152191 0
    endloop
  endfacet
  facet normal 0.659372 0.751817 0
    outer loop
       vertex -0.119326 0.176776 0
       vertex -0.143911 0.198338 0
       vertex -0.143911 0.198338 0.1
    endloop
  endfacet
  facet normal 0.659372 0.751817 0
    outer loop
       vertex -0.143911 0.198338 0.1
       vertex -0.119326 0.176776 0.1
       vertex -0.119326 0.176776 0
    endloop
  endfacet
  facet normal 0.555561 0.831476 0
    outer loop
       vertex -0.143911 0.198338 0
       vertex -0.171102 0.216506 0
       vertex -0.171102 0.216506 0.1
    endloop
  endfacet
  facet normal 0.555561 0.831476 0
    outer loop
       vertex -0.171102 0.216506 0.1
       vertex -0.143911 0.198338 0.1
       vertex -0.143911 0.198338 0
    endloop
  endfacet
  facet normal 0.442302 0.896866 0
    outer loop
       vertex -0.171102 0.216506 0
       vertex -0.200431 0.23097 0
       vertex -0.200431 0.23097 0.1
    endloop
  endfacet
  facet normal 0.442302 0.896866 0
    outer loop
       vertex -0.200431 0.23097 0.1
       vertex -0.171102 0.216506 0.1
       vertex -0.171102 0.216506 0
    endloop
  endfacet
  facet normal 0.321425 0.946935 0
    outer loop
       vertex -0.200431 0.23097 0
       vertex -0.231397 0.241481 0
       vertex -0.231397 0.241481 0.1
    endloop
  endfacet
  facet normal 0.321425 0.946935 0
    outer loop
       vertex -0.231397 0.241481 0.1
       vertex -0.200431 0.23097 0.1
       vertex -0.200431 0.23097 0
    endloop
  endfacet
  facet normal 0.195096 0.980784 0
    outer loop
       vertex -0.231397 0.241481 0
       vertex -0.26347 0.247861 0
       vertex -0.26347 0.247861 0.1
    endloop
  endfacet
  facet normal 0.195096 0.980784 0
    outer loop
       vertex -0.26347 0.247861 0.1
       vertex -0.231397 0.241481 0.1
       vertex -0.231397 0.241481 0
    endloop
  endfacet
  facet normal 0.0654098 0.997858 0
    outer loop
       vertex -0.296102 0.25 0.1
       vertex -0.26347 0.247861 0.1
       vertex -0.26347 0.247861 0
    endloop
  endfacet
  facet normal 0.0654098 0.997858 -1.45239e-16
    outer loop
       vertex -0.26347 0.247861 0
       vertex -0.296102 0.25 0
       vertex -0.296102 0.25 0.1
    endloop
  endfacet
  facet normal -0.0654098 0.997858 0
    outer loop
       vertex -0.296102 0.25 0
       vertex -0.328733 0.247861 0
       vertex -0.328733 0.247861 0.1
    endloop
  endfacet
  facet normal -0.0654098 0.997858 1.45239e-16
    outer loop
       vertex -0.328733 0.247861 0.1
       vertex -0.296102 0.25 0.1
       vertex -0.296102 0.25 0
    endloop
  endfacet
  facet normal -0.195096 0.980784 0
    outer loop
       vertex -0.328733 0.247861 0
       vertex -0.360807 0.241481 0
       vertex -0.360807 0.241481 0.1
    endloop
  endfacet
  facet normal -0.195096 0.980784 0
    outer loop
       vertex -0.360807 0.241481 0.1
       vertex -0.328733 0.247861 0.1
       vertex -0.328733 0.247861 0
    endloop
  endfacet
  facet normal -0.321425 0.946935 0
    outer loop
       vertex -0.360807 0.241481 0
       vertex -0.391773 0.23097 0
       vertex -0.391773 0.23097 0.1
    endloop
  endfacet
  facet normal -0.321425 0.946935 0
    outer loop
       vertex -0.391773 0.23097 0.1
       vertex -0.360807 0.241481 0.1
       vertex -0.360807 0.241481 0
    endloop
  endfacet
  facet normal -0.442302 0.896866 0
    outer loop
       vertex -0.391773 0.23097 0
       vertex -0.421102 0.216506 0
       vertex -0.421102 0.216506 0.1
    endloop
  endfacet
  facet normal -0.442302 0.896866 0
    outer loop
       vertex -0.421102 0.216506 0.1
       vertex -0.391773 0.23097 0.1
       vertex -0.391773 0.23097 0
    endloop
  endfacet
  facet normal -0.555561 0.831476 0
    outer loop
       vertex -0.421102 0.216506 0
       vertex -0.448293 0.198338 0
       vertex -0.448293 0.198338 0.1
    endloop
  endfacet
  facet normal -0.555561 0.831476 0
    outer loop
       vertex -0.448293 0.198338 0.1
       vertex -0.421102 0.216506 0.1
       vertex -0.421102 0.216506 0
    endloop
  endfacet
  facet normal -0.659372 0.751817 0
    outer loop
       vertex -0.448293 0.198338 0
       vertex -0.472878 0.176776 0
       vertex -0.472878 0.176776 0.1
    endloop
  endfacet
  facet normal -0.659372 0.751817 0
    outer loop
       vertex -0.472878 0.176776 0.1
       vertex -0.448293 0.198338 0.1
       vertex -0.448293 0.198338 0
    endloop
  endfacet
  facet normal -0.751817 0.659372 0
    outer loop
       vertex -0.472878 0.176776 0
       vertex -0.49444 0.152191 0
       vertex -0.49444 0.152191 0.1
    endloop
  endfacet
  facet normal -0.751817 0.659372 0
    outer loop
       vertex -0.49444 0.152191 0.1
       vertex -0.472878 0.176776 0.1
       vertex -0.472878 0.176776 0
    endloop
  endfacet
  facet normal -0.831476 0.555561 0
    outer loop
       vertex -0.49444 0.152191 0
       vertex -0.512608 0.125 0
       vertex -0.512608 0.125 0.1
    endloop
  endfacet
  facet normal -0.831476 0.555561 0
    outer loop
       vertex -0.512608 0.125 0.1
       vertex -0.49444 0.152191 0.1
       vertex -0.49444 0.152191 0
    endloop
  endfacet
  facet normal -0.896866 0.442302 0
    outer loop
       vertex -0.512608 0.125 0
       vertex -0.527072 0.095671 0
       vertex -0.527072 0.095671 0.1
    endloop
  endfacet
  facet normal -0.896866 0.442302 0
    outer loop
       vertex -0.527072 0.095671 0.1
       vertex -0.512608 0.125 0.1
       vertex -0.512608 0.125 0
    endloop
  endfacet
  facet normal -0.946935 0.321425 0
    outer loop
       vertex -0.527072 0.095671 0
       vertex -0.537583 0.064705 0
       vertex -0.537583 0.064705 0.1
    endloop
  endfacet
  facet normal -0.946935 0.321425 0
    outer loop
       vertex -0.537583 0.064705 0.1
       vertex -0.527072 0.095671 0.1
       vertex -0.527072 0.095671 0
    endloop
  endfacet
  facet normal -0.980784 0.195096 0
    outer loop
       vertex -0.537583 0.064705 0
       vertex -0.543963 0.0326315 0
       vertex -0.543963 0.0326315 0.1
    endloop
  endfacet
  facet normal -0.980784 0.195096 0
    outer loop
       vertex -0.543963 0.0326315 0.1
       vertex -0.537583 0.064705 0.1
       vertex -0.537583 0.064705 0
    endloop
  endfacet
  facet normal -0.997858 0.0654098 0
    outer loop
       vertex -0.546102 8.32665e-17 0.1
       vertex -0.543963 0.0326315 0.1
       vertex -0.543963 0.0326315 0
    endloop
  endfacet
  facet normal -0.997858 0.0654098 -1.08928e-16
    outer loop
       vertex -0.543963 0.0326315 0
       vertex -0.546102 -8.32665e-17 0
       vertex -0.546102 8.32665e-17 0.1
    endloop
  endfacet
  facet normal -0.997858 -0.0654098 0
    outer loop
       vertex -0.546102 -8.32665e-17 0
       vertex -0.543963 -0.0326315 0
       vertex -0.543963 -0.0326315 0.1
    endloop
  endfacet
  facet normal -0.997858 -0.0654098 1.08928e-16
    outer loop
       vertex -0.543963 -0.0326315 0.1
       vertex -0.546102 8.32665e-17 0.1
       vertex -0.546102 -8.32665e-17 0
    endloop
  endfacet
  facet normal -0.980784 -0.195096 0
    outer loop
       vertex -0.543963 -0.0326315 0
       vertex -0.537583 -0.064705 0
       vertex -0.537583 -0.064705 0.1
    endloop
  endfacet
  facet normal -0.980784 -0.195096 0
    outer loop
       vertex -0.537583 -0.064705 0.1
       vertex -0.543963 -0.0326315 0.1
       vertex -0.543963 -0.0326315 0
    endloop
  endfacet
  facet normal -0.946935 -0.321425 0
    outer loop
       vertex -0.537583 -0.064705 0
       vertex -0.527072 -0.095671 0
       vertex -0.527072 -0.095671 0.1
    endloop
  endfacet
  facet normal -0.946935 -0.321425 0
    outer loop
       vertex -0.527072 -0.095671 0.1
       vertex -0.537583 -0.064705 0.1
       vertex -0.537583 -0.064705 0
    endloop
  endfacet
  facet normal -0.896866 -0.442302 0
    outer loop
       vertex -0.527072 -0.095671 0
       vertex -0.512608 -0.125 0
       vertex -0.512608 -0.125 0.1
    endloop
  endfacet
  facet normal -0.896866 -0.442302 0
    outer loop
       vertex -0.512608 -0.125 0.1
       vertex -0.527072 -0.095671 0.1
       vertex -0.527072 -0.095671 0
    endloop
  endfacet
  facet normal -0.831476 -0.555561 0
    outer loop
       vertex -0.512608 -0.125 0
       vertex -0.49444 -0.152191 0
       vertex -0.49444 -0.152191 0.1
    endloop
  endfacet
  facet normal -0.831476 -0.555561 0
    outer loop
       vertex -0.49444 -0.152191 0.1
       vertex -0.512608 -0.125 0.1
       vertex -0.512608 -0.125 0
    endloop
  endfacet
  facet normal -0.751817 -0.659372 0
    outer loop
       vertex -0.49444 -0.152191 0
       vertex -0.472878 -0.176776 0
       vertex -0.472878 -0.176776 0.1
    endloop
  endfacet
  facet normal -0.751817 -0.659372 0
    outer loop
       vertex -0.472878 -0.176776 0.1
       vertex -0.49444 -0.152191 0.1
       vertex -0.49444 -0.152191 0
    endloop
  endfacet
  facet normal 0.659372 -0.751817 0
    outer loop
       vertex -0.119326 -0.176776 0
       vertex -0.119326 -0.176776 0.1
       vertex -0.143911 -0.198338 0.1
    endloop
  endfacet
  facet normal 0.659372 -0.751817 0
    outer loop
       vertex -0.143911 -0.198338 0.1
       vertex -0.143911 -0.198338 0
       vertex -0.119326 -0.176776 0
    endloop
  endfacet
  facet normal 0.555561 -0.831476 0
    outer loop
       vertex -0.143911 -0.198338 0
       vertex -0.143911 -0.198338 0.1
       vertex -0.171102 -0.216506 0.1
    endloop
  endfacet
  facet normal 0.555561 -0.831476 0
    outer loop
       vertex -0.171102 -0.216506 0.1
       vertex -0.171102 -0.216506 0
       vertex -0.143911 -0.198338 0
    endloop
  endfacet
  facet normal 0.442302 -0.896866 0
    outer loop
       vertex -0.171102 -0.216506 0
       vertex -0.171102 -0.216506 0.1
       vertex -0.200431 -0.23097 0.1
    endloop
  endfacet
  facet normal 0.442302 -0.896866 0
    outer loop
       vertex -0.200431 -0.23097 0.1
       vertex -0.200431 -0.23097 0
       vertex -0.171102 -0.216506 0
    endloop
  endfacet
  facet normal 0.321425 -0.946935 0
    outer loop
       vertex -0.200431 -0.23097 0
       vertex -0.200431 -0.23097 0.1
       vertex -0.231397 -0.241481 0.1
    endloop
  endfacet
  facet normal 0.321425 -0.946935 0
    outer loop
       vertex -0.231397 -0.241481 0.1
       vertex -0.231397 -0.241481 0
       vertex -0.200431 -0.23097 0
    endloop
  endfacet
  facet normal 0.195096 -0.980784 0
    outer loop
       vertex -0.231397 -0.241481 0
       vertex -0.231397 -0.241481 0.1
       vertex -0.26347 -0.247861 0.1
    endloop
  endfacet
  facet normal 0.195096 -0.980784 0
    outer loop
       vertex -0.26347 -0.247861 0.1
       vertex -0.26347 -0.247861 0
       vertex -0.231397 -0.241481 0
    endloop
  endfacet
  facet normal 0.0654098 -0.997858 0
    outer loop
       vertex -0.296102 -0.25 0
       vertex -0.26347 -0.247861 0
       vertex -0.26347 -0.247861 0.1
    endloop
  endfacet
  facet normal 0.0654098 -0.997858 1.45239e-16
    outer loop
       vertex -0.26347 -0.247861 0.1
       vertex -0.296102 -0.25 0.1
       vertex -0.296102 -0.25 0
    endloop
  endfacet
  facet normal -0.0654098 -0.997858 0
    outer loop
       vertex -0.296102 -0.25 0.1
       vertex -0.328733 -0.247861 0.1
       vertex -0.328733 -0.247861 0
    endloop
  endfacet
  facet normal -0.0654098 -0.997858 -1.45239e-16
    outer loop
       vertex -0.328733 -0.247861 0
       vertex -0.296102 -0.25 0
       vertex -0.296102 -0.25 0.1
    endloop
  endfacet
  facet normal -0.195096 -0.980784 0
    outer loop
       vertex -0.328733 -0.247861 0
       vertex -0.328733 -0.247861 0.1
       vertex -0.360807 -0.241481 0.1
    endloop
  endfacet
  facet normal -0.195096 -0.980784 -0
    outer loop
       vertex -0.360807 -0.241481 0.1
       vertex -0.360807 -0.241481 0
       vertex -0.328733 -0.247861 0
    endloop
  endfacet
  facet normal -0.321425 -0.946935 0
    outer loop
       vertex -0.360807 -0.241481 0
       vertex -0.360807 -0.241481 0.1
       vertex -0.391773 -0.23097 0.1
    endloop
  endfacet
  facet normal -0.321425 -0.946935 -0
    outer loop
       vertex -0.391773 -0.23097 0.1
       vertex -0.391773 -0.23097 0
       vertex -0.360807 -0.241481 0
    endloop
  endfacet
  facet normal -0.442302 -0.896866 0
    outer loop
       vertex -0.391773 -0.23097 0
       vertex -0.391773 -0.23097 0.1
       vertex -0.421102 -0.216506 0.1
    endloop
  endfacet
  facet normal -0.442302 -0.896866 -0
    outer loop
       vertex -0.421102 -0.216506 0.1
       vertex -0.421102 -0.216506 0
       vertex -0.391773 -0.23097 0
    endloop
  endfacet
  facet normal -0.555561 -0.831476 0
    outer loop
       vertex -0.421102 -0.216506 0
       vertex -0.421102 -0.216506 0.1
       vertex -0.448293 -0.198338 0.1
    endloop
  endfacet
  facet normal -0.555561 -0.831476 -0
    outer loop
       vertex -0.448293 -0.198338 0.1
       vertex -0.448293 -0.198338 0
       vertex -0.421102 -0.216506 0
    endloop
  endfacet
  facet normal -0.659372 -0.751817 0
    outer loop
       vertex -0.448293 -0.198338 0
       vertex -0.448293 -0.198338 0.1
       vertex -0.472878 -0.176776 0.1
    endloop
  endfacet
  facet normal -0.659372 -0.751817 -0
    outer loop
       vertex -0.472878 -0.176776 0.1
       vertex -0.472878 -0.176776 0
       vertex -0.448293 -0.198338 0
    endloop
  endfacet
endsolid cylinder
