solid cylinder
  facet normal 0.751817 -0.659372 0
    outer loop
       vertex 0.163025 -0.176776 0
       vertex 0.184587 -0.152191 0
       vertex 0.184587 -0.152191 0.1
    endloop
  endfacet
  facet normal 0.751817 -0.659372 0
    outer loop
       vertex 0.184587 -0.152191 0.1
       vertex 0.163025 -0.176776 0.1
       vertex 0.163025 -0.176776 0
    endloop
  endfacet
  facet normal 0.831476 -0.555561 0
    outer loop
       vertex 0.184587 -0.152191 0
       vertex 0.202755 -0.125 0
       vertex 0.202755 -0.125 0.1
    endloop
  endfacet
  facet normal 0.831476 -0.555561 0
    outer loop
       vertex 0.202755 -0.125 0.1
       vertex 0.184587 -0.152191 0.1
       vertex 0.184587 -0.152191 0
    endloop
  endfacet
  facet normal 0.896866 -0.442302 0
    outer loop
       vertex 0.202755 -0.125 0
       vertex 0.217219 -0.095671 0
       vertex 0.217219 -0.095671 0.1
    endloop
  endfacet
  facet normal 0.896866 -0.442302 0
    outer loop
       vertex 0.217219 -0.095671 0.1
       vertex 0.202755 -0.125 0.1
       vertex 0.202755 -0.125 0
    endloop
  endfacet
  facet normal 0.946935 -0.321425 0
    outer loop
       vertex 0.217219 -0.095671 0
       vertex 0.22773 -0.064705 0
       vertex 0.22773 -0.064705 0.1
    endloop
  endfacet
  facet normal 0.946935 -0.321425 0
    outer loop
       vertex 0.22773 -0.064705 0.1
       vertex 0.217219 -0.095671 0.1
       vertex 0.217219 -0.095671 0
    endloop
  endfacet
  facet normal 0.980784 -0.195096 0
    outer loop
       vertex 0.22773 -0.064705 0
       vertex 0.23411 -0.0326315 0
       vertex 0.23411 -0.0326315 0.1
    endloop
  endfacet
  facet normal 0.980784 -0.195096 0
    outer loop
       vertex 0.23411 -0.0326315 0.1
       vertex 0.22773 -0.064705 0.1
       vertex 0.22773 -0.064705 0
    endloop
  endfacet
  facet normal 0.997858 -0.0654098 0
    outer loop
       vertex 0.236249 -8.32665e-17 0.1
       vertex 0.23411 -0.0326315 0.1
       vertex 0.23411 -0.0326315 0
    endloop
  endfacet
  facet normal 0.997858 -0.0654098 -1.08928e-16
    outer loop
       vertex 0.23411 -0.0326315 0
       vertex 0.236249 8.32665e-17 0
       vertex 0.236249 -8.32665e-17 0.1
    endloop
  endfacet
  facet normal 0.997858 0.0654098 0
    outer loop
       vertex 0.236249 8.32665e-17 0
       vertex 0.23411 0.0326315 0
       vertex 0.23411 0.0326315 0.1
    endloop
  endfacet
  facet normal 0.997858 0.0654098 1.08928e-16
    outer loop
       vertex 0.23411 0.0326315 0.1
       vertex 0.236249 -8.32665e-17 0.1
       vertex 0.236249 8.32665e-17 0
    endloop
  endfacet
  facet normal 0.980784 0.195096 0
    outer loop
       vertex 0.23411 0.0326315 0
       vertex 0.22773 0.064705 0
       vertex 0.22773 0.064705 0.1
    endloop
  endfacet
  facet normal 0.980784 0.195096 0
    outer loop
       vertex 0.22773 0.064705 0.1
       vertex 0.23411 0.0326315 0.1
       vertex 0.23411 0.0326315 0
    endloop
  endfacet
  facet normal 0.946935 0.321425 0
    outer loop
       vertex 0.22773 0.064705 0
       vertex 0.217219 0.095671 0
       vertex 0.217219 0.095671 0.1
    endloop
  endfacet
  facet normal 0.946935 0.321425 0
    outer loop
       vertex 0.217219 0.095671 0.1
       vertex 0.22773 0.064705 0.1
       vertex 0.22773 0.064705 0
    endloop
  endfacet
  facet normal 0.896866 0.442302 0
    outer loop
       vertex 0.217219 0.095671 0
       vertex 0.202755 0.125 0
       vertex 0.202755 0.125 0.1
    endloop
  endfacet
  facet normal 0.896866 0.442302 0
    outer loop
       vertex 0.202755 0.125 0.1
       vertex 0.217219 0.095671 0.1
       vertex 0.217219 0.095671 0
    endloop
  endfacet
  facet normal 0.831476 0.555561 0
    outer loop
       vertex 0.202755 0.125 0
       vertex 0.184587 0.152191 0
       vertex 0.184587 0.152191 0.1
    endloop
  endfacet
  facet normal 0.831476 0.555561 0
    outer loop
       vertex 0.184587 0.152191 0.1
       vertex 0.202755 0.125 0.1
       vertex 0.202755 0.125 0
    endloop
  endfacet
  facet normal 0.751817 0.659372 0
    outer loop
       vertex 0.184587 0.152191 0
       vertex 0.163025 0.176776 0
       vertex 0.163025 0.176776 0.1
    endloop
  endfacet
  facet normal 0.751817 0.659372 0
    outer loop
       vertex 0.163025 0.176776 0.1
       vertex 0.184587 0.152191 0.1
       vertex 0.184587 0.152191 0
    endloop
  endfacet
  facet normal 0.659372 0.751817 0
    outer loop
       vertex 0.163025 0.176776 0
       vertex 0.13844 0.198338 0
       vertex 0.13844 0.198338 0.1
    endloop
  endfacet
  facet normal 0.659372 0.751817 0
    outer loop
       vertex 0.13844 0.198338 0.1
       vertex 0.163025 0.176776 0.1
       vertex 0.163025 0.176776 0
    endloop
  endfacet
  facet normal 0.555561 0.831476 0
    outer loop
       vertex 0.13844 0.198338 0
       vertex 0.111249 0.216506 0
       vertex 0.111249 0.216506 0.1
    endloop
  endfacet
  facet normal 0.555561 0.831476 0
    outer loop
       vertex 0.111249 0.216506 0.1
       vertex 0.13844 0.198338 0.1
       vertex 0.13844 0.198338 0
    endloop
  endfacet
  facet normal 0.442302 0.896866 0
    outer loop
       vertex 0.111249 0.216506 0
       vertex 0.0819203 0.23097 0
       vertex 0.0819203 0.23097 0.1
    endloop
  endfacet
  facet normal 0.442302 0.896866 0
    outer loop
       vertex 0.0819203 0.23097 0.1
       vertex 0.111249 0.216506 0.1
       vertex 0.111249 0.216506 0
    endloop
  endfacet
  facet normal 0.321425 0.946935 0
    outer loop
       vertex 0.0819203 0.23097 0
       vertex 0.0509543 0.241481 0
       vertex 0.0509543 0.241481 0.1
    endloop
  endfacet
  facet normal 0.321425 0.946935 0
    outer loop
       vertex 0.0509543 0.241481 0.1
       vertex 0.0819203 0.23097 0.1
       vertex 0.0819203 0.23097 0
    endloop
  endfacet
  facet normal 0.195096 0.980784 0
    outer loop
       vertex 0.0509543 0.241481 0
       vertex 0.0188808 0.247861 0
       vertex 0.0188808 0.247861 0.1
    endloop
  endfacet
  facet normal 0.195096 0.980784 0
    outer loop
       vertex 0.0188808 0.247861 0.1
       vertex 0.0509543 0.241481 0.1
       vertex 0.0509543 0.241481 0
    endloop
  endfacet
  facet normal 0.0654098 0.997858 0
    outer loop
       vertex -0.0137507 0.25 0.1
       vertex 0.0188808 0.247861 0.1
       vertex 0.0188808 0.247861 0
    endloop
  endfacet
  facet normal 0.0654098 0.997858 -1.0893e-16
    outer loop
       vertex 0.0188808 0.247861 0
       vertex -0.0137507 0.25 0
       vertex -0.0137507 0.25 0.1
    endloop
  endfacet
  facet normal -0.0654098 0.997858 0
    outer loop
       vertex -0.0137507 0.25 0
       vertex -0.0463822 0.247861 0
       vertex -0.0463822 0.247861 0.1
    endloop
  endfacet
  facet normal -0.0654098 0.997858 1.0893e-16
    outer loop
       vertex -0.0463822 0.247861 0.1
       vertex -0.0137507 0.25 0.1
       vertex -0.0137507 0.25 0
    endloop
  endfacet
  facet normal -0.195096 0.980784 0
    outer loop
       vertex -0.0463822 0.247861 0
       vertex -0.0784557 0.241481 0
       vertex -0.0784557 0.241481 0.1
    endloop
  endfacet
  facet normal -0.195096 0.980784 0
    outer loop
       vertex -0.0784557 0.241481 0.1
       vertex -0.0463822 0.247861 0.1
       vertex -0.0463822 0.247861 0
    endloop
  endfacet
  facet normal -0.321425 0.946935 0
    outer loop
       vertex -0.0784557 0.241481 0
       vertex -0.109422 0.23097 0
       vertex -0.109422 0.23097 0.1
    endloop
  endfacet
  facet normal -0.321425 0.946935 0
    outer loop
       vertex -0.109422 0.23097 0.1
       vertex -0.0784557 0.241481 0.1
       vertex -0.0784557 0.241481 0
    endloop
  endfacet
  facet normal -0.442302 0.896866 0
    outer loop
       vertex -0.109422 0.23097 0
       vertex -0.138751 0.216506 0
       vertex -0.138751 0.216506 0.1
    endloop
  endfacet
  facet normal -0.442302 0.896866 0
    outer loop
       vertex -0.138751 0.216506 0.1
       vertex -0.109422 0.23097 0.1
       vertex -0.109422 0.23097 0
    endloop
  endfacet
  facet normal -0.555561 0.831476 0
    outer loop
       vertex -0.138751 0.216506 0
       vertex -0.165942 0.198338 0
       vertex -0.165942 0.198338 0.1
    endloop
  endfacet
  facet normal -0.555561 0.831476 0
    outer loop
       vertex -0.165942 0.198338 0.1
       vertex -0.138751 0.216506 0.1
       vertex -0.138751 0.216506 0
    endloop
  endfacet
  facet normal -0.659372 0.751817 0
    outer loop
       vertex -0.165942 0.198338 0
       vertex -0.190527 0.176776 0
       vertex -0.190527 0.176776 0.1
    endloop
  endfacet
  facet normal -0.659372 0.751817 0
    outer loop
       vertex -0.190527 0.176776 0.1
       vertex -0.165942 0.198338 0.1
       vertex -0.165942 0.198338 0
    endloop
  endfacet
  facet normal -0.751817 0.659372 0
    outer loop
       vertex -0.190527 0.176776 0
       vertex -0.212089 0.152191 0
       vertex -0.212089 0.152191 0.1
    endloop
  endfacet
  facet normal -0.751817 0.659372 0
    outer loop
       vertex -0.212089 0.152191 0.1
       vertex -0.190527 0.176776 0.1
       vertex -0.190527 0.176776 0
    endloop
  endfacet
  facet normal -0.831476 0.555561 0
    outer loop
       vertex -0.212089 0.152191 0
       vertex -0.230257 0.125 0
       vertex -0.230257 0.125 0.1
    endloop
  endfacet
  facet normal -0.831476 0.555561 0
    outer loop
       vertex -0.230257 0.125 0.1
       vertex -0.212089 0.152191 0.1
       vertex -0.212089 0.152191 0
    endloop
  endfacet
  facet normal -0.896866 0.442302 0
    outer loop
       vertex -0.230257 0.125 0
       vertex -0.244721 0.095671 0
       vertex -0.244721 0.095671 0.1
    endloop
  endfacet
  facet normal -0.896866 0.442302 0
    outer loop
       vertex -0.244721 0.095671 0.1
       vertex -0.230257 0.125 0.1
       vertex -0.230257 0.125 0
    endloop
  endfacet
  facet normal -0.946935 0.321425 0
    outer loop
       vertex -0.244721 0.095671 0
       vertex -0.255232 0.064705 0
       vertex -0.255232 0.064705 0.1
    endloop
  endfacet
  facet normal -0.946935 0.321425 0
    outer loop
       vertex -0.255232 0.064705 0.1
       vertex -0.244721 0.095671 0.1
       vertex -0.244721 0.095671 0
    endloop
  endfacet
  facet normal -0.980784 0.195096 0
    outer loop
       vertex -0.255232 0.064705 0
       vertex -0.261612 0.0326315 0
       vertex -0.261612 0.0326315 0.1
    endloop
  endfacet
  facet normal -0.980784 0.195096 0
    outer loop
       vertex -0.261612 0.0326315 0.1
       vertex -0.255232 0.064705 0.1
       vertex -0.255232 0.064705 0
    endloop
  endfacet
  facet normal -0.997858 0.0654098 0
    outer loop
       vertex -0.263751 8.32665e-17 0.1
       vertex -0.261612 0.0326315 0.1
       vertex -0.261612 0.0326315 0
    endloop
  endfacet
  facet normal -0.997858 0.0654098 -1.08928e-16
    outer loop
       vertex -0.261612 0.0326315 0
       vertex -0.263751 -8.32665e-17 0
       vertex -0.263751 8.32665e-17 0.1
    endloop
  endfacet
  facet normal -0.997858 -0.0654098 0
    outer loop
       vertex -0.263751 -8.32665e-17 0
       vertex -0.261612 -0.0326315 0
       vertex -0.261612 -0.0326315 0.1
    endloop
  endfacet
  facet normal -0.997858 -0.0654098 1.08928e-16
    outer loop
       vertex -0.261612 -0.0326315 0.1
       vertex -0.263751 8.32665e-17 0.1
       vertex -0.263751 -8.32665e-17 0
    endloop
  endfacet
  facet normal -0.980784 -0.195096 0
    outer loop
       vertex -0.261612 -0.0326315 0
       vertex -0.255232 -0.064705 0
       vertex -0.255232 -0.064705 0.1
    endloop
  endfacet
  facet normal -0.980784 -0.195096 0
    outer loop
       vertex -0.255232 -0.064705 0.1
       vertex -0.261612 -0.0326315 0.1
       vertex -0.261612 -0.0326315 0
    endloop
  endfacet
  facet normal -0.946935 -0.321425 0
    outer loop
       vertex -0.255232 -0.064705 0
       vertex -0.244721 -0.095671 0
       vertex -0.244721 -0.095671 0.1
    endloop
  endfacet
  facet normal -0.946935 -0.321425 0
    outer loop
       vertex -0.244721 -0.095671 0.1
       vertex -0.255232 -0.064705 0.1
       vertex -0.255232 -0.064705 0
    endloop
  endfacet
  facet normal -0.896866 -0.442302 0
    outer loop
       vertex -0.244721 -0.095671 0
       vertex -0.230257 -0.125 0
       vertex -0.230257 -0.125 0.1
    endloop
  endfacet
  facet normal -0.896866 -0.442302 0
    outer loop
       vertex -0.230257 -0.125 0.1
       vertex -0.244721 -0.095671 0.1
       vertex -0.244721 -0.095671 0
    endloop
  endfacet
  facet normal -0.831476 -0.555561 0
    outer loop
       vertex -0.230257 -0.125 0
       vertex -0.212089 -0.152191 0
       vertex -0.212089 -0.152191 0.1
    endloop
  endfacet
  facet normal -0.831476 -0.555561 0
    outer loop
       vertex -0.212089 -0.152191 0.1
       vertex -0.230257 -0.125 0.1
       vertex -0.230257 -0.125 0
    endloop
  endfacet
  facet normal -0.751817 -0.659372 0
    outer loop
       vertex -0.212089 -0.152191 0
       vertex -0.190527 -0.176776 0
       vertex -0.190527 -0.176776 0.1
    endloop
  endfacet
  facet normal -0.751817 -0.659372 0
    outer loop
       vertex -0.190527 -0.176776 0.1
       vertex -0.212089 -0.152191 0.1
       vertex -0.212089 -0.152191 0
    endloop
  endfacet
  facet normal 0.659372 -0.751817 0
    outer loop
       vertex 0.163025 -0.176776 0
       vertex 0.163025 -0.176776 0.1
       vertex 0.13844 -0.198338 0.1
    endloop
  endfacet
  facet normal 0.659372 -0.751817 0
    outer loop
       vertex 0.13844 -0.198338 0.1
       vertex 0.13844 -0.198338 0
       vertex 0.163025 -0.176776 0
    endloop
  endfacet
  facet normal 0.555561 -0.831476 0
    outer loop
       vertex 0.13844 -0.198338 0
       vertex 0.13844 -0.198338 0.1
       vertex 0.111249 -0.216506 0.1
    endloop
  endfacet
  facet normal 0.555561 -0.831476 0
    outer loop
       vertex 0.111249 -0.216506 0.1
       vertex 0.111249 -0.216506 0
       vertex 0.13844 -0.198338 0
    endloop
  endfacet
  facet normal 0.442302 -0.896866 0
    outer loop
       vertex 0.111249 -0.216506 0
       vertex 0.111249 -0.216506 0.1
       vertex 0.0819203 -0.23097 0.1
    endloop
  endfacet
  facet normal 0.442302 -0.896866 0
    outer loop
       vertex 0.0819203 -0.23097 0.1
       vertex 0.0819203 -0.23097 0
       vertex 0.111249 -0.216506 0
    endloop
  endfacet
  facet normal 0.321425 -0.946935 0
    outer loop
       vertex 0.0819203 -0.23097 0
       vertex 0.0819203 -0.23097 0.1
       vertex 0.0509543 -0.241481 0.1
    endloop
  endfacet
  facet normal 0.321425 -0.946935 0
    outer loop
       vertex 0.0509543 -0.241481 0.1
       vertex 0.0509543 -0.241481 0
       vertex 0.0819203 -0.23097 0
    endloop
  endfacet
  facet normal 0.195096 -0.980784 0
    outer loop
       vertex 0.0509543 -0.241481 0
       vertex 0.0509543 -0.241481 0.1
       vertex 0.0188808 -0.247861 0.1
    endloop
  endfacet
  facet normal 0.195096 -0.980784 0
    outer loop
       vertex 0.0188808 -0.247861 0.1
       vertex 0.0188808 -0.247861 0
       vertex 0.0509543 -0.241481 0
    endloop
  endfacet
  facet normal 0.0654098 -0.997858 0
    outer loop
       vertex -0.0137507 -0.25 0
       vertex 0.0188808 -0.247861 0
       vertex 0.0188808 -0.247861 0.1
    endloop
  endfacet
  facet normal 0.0654098 -0.997858 1.0893e-16
    outer loop
       vertex 0.0188808 -0.247861 0.1
       vertex -0.0137507 -0.25 0.1
       vertex -0.0137507 -0.25 0
    endloop
  endfacet
  facet normal -0.0654098 -0.997858 0
    outer loop
       vertex -0.0137507 -0.25 0.1
       vertex -0.0463822 -0.247861 0.1
       vertex -0.0463822 -0.247861 0
    endloop
  endfacet
  facet normal -0.0654098 -0.997858 -1.0893e-16
    outer loop
       vertex -0.0463822 -0.247861 0
       vertex -0.0137507 -0.25 0
       vertex -0.0137507 -0.25 0.1
    endloop
  endfacet
  facet normal -0.195096 -0.980784 0
    outer loop
       vertex -0.0463822 -0.247861 0
       vertex -0.0463822 -0.247861 0.1
       vertex -0.0784557 -0.241481 0.1
    endloop
  endfacet
  facet normal -0.195096 -0.980784 -0
    outer loop
       vertex -0.0784557 -0.241481 0.1
       vertex -0.0784557 -0.241481 0
       vertex -0.0463822 -0.247861 0
    endloop
  endfacet
  facet normal -0.321425 -0.946935 0
    outer loop
       vertex -0.0784557 -0.241481 0
       vertex -0.0784557 -0.241481 0.1
       vertex -0.109422 -0.23097 0.1
    endloop
  endfacet
  facet normal -0.321425 -0.946935 -0
    outer loop
       vertex -0.109422 -0.23097 0.1
       vertex -0.109422 -0.23097 0
       vertex -0.0784557 -0.241481 0
    endloop
  endfacet
  facet normal -0.442302 -0.896866 0
    outer loop
       vertex -0.109422 -0.23097 0
       vertex -0.109422 -0.23097 0.1
       vertex -0.138751 -0.216506 0.1
    endloop
  endfacet
  facet normal -0.442302 -0.896866 -0
    outer loop
       vertex -0.138751 -0.216506 0.1
       vertex -0.138751 -0.216506 0
       vertex -0.109422 -0.23097 0
    endloop
  endfacet
  facet normal -0.555561 -0.831476 0
    outer loop
       vertex -0.138751 -0.216506 0
       vertex -0.138751 -0.216506 0.1
       vertex -0.165942 -0.198338 0.1
    endloop
  endfacet
  facet normal -0.555561 -0.831476 -0
    outer loop
       vertex -0.165942 -0.198338 0.1
       vertex -0.165942 -0.198338 0
       vertex -0.138751 -0.216506 0
    endloop
  endfacet
  facet normal -0.659372 -0.751817 0
    outer loop
       vertex -0.165942 -0.198338 0
       vertex -0.165942 -0.198338 0.1
       vertex -0.190527 -0.176776 0.1
    endloop
  endfacet
  facet normal -0.659372 -0.751817 -0
    outer loop
       vertex -0.190527 -0.176776 0.1
       vertex -0.190527 -0.176776 0
       vertex -0.165942 -0.198338 0
    endloop
  endfacet
endsolid cylinder
