solid cylinder
  facet normal 0.751817 -0.659372 0
    outer loop
       vertex 0.0592253 -0.176776 0
       vertex 0.0807873 -0.152191 0
       vertex 0.0807873 -0.152191 0.1
    endloop
  endfacet
  facet normal 0.751817 -0.659372 0
    outer loop
       vertex 0.0807873 -0.152191 0.1
       vertex 0.0592253 -0.176776 0.1
       vertex 0.0592253 -0.176776 0
    endloop
  endfacet
  facet normal 0.831476 -0.555561 0
    outer loop
       vertex 0.0807873 -0.152191 0
       vertex 0.0989553 -0.125 0
       vertex 0.0989553 -0.125 0.1
    endloop
  endfacet
  facet normal 0.831476 -0.555561 0
    outer loop
       vertex 0.0989553 -0.125 0.1
       vertex 0.0807873 -0.152191 0.1
       vertex 0.0807873 -0.152191 0
    endloop
  endfacet
  facet normal 0.896866 -0.442302 0
    outer loop
       vertex 0.0989553 -0.125 0
       vertex 0.113419 -0.095671 0
       vertex 0.113419 -0.095671 0.1
    endloop
  endfacet
  facet normal 0.896866 -0.442302 0
    outer loop
       vertex 0.113419 -0.095671 0.1
       vertex 0.0989553 -0.125 0.1
       vertex 0.0989553 -0.125 0
    endloop
  endfacet
  facet normal 0.946935 -0.321425 0
    outer loop
       vertex 0.113419 -0.095671 0
       vertex 0.12393 -0.064705 0
       vertex 0.12393 -0.064705 0.1
    endloop
  endfacet
  facet normal 0.946935 -0.321425 0
    outer loop
       vertex 0.12393 -0.064705 0.1
       vertex 0.113419 -0.095671 0.1
       vertex 0.113419 -0.095671 0
    endloop
  endfacet
  facet normal 0.980784 -0.195096 0
    outer loop
       vertex 0.12393 -0.064705 0
       vertex 0.13031 -0.0326315 0
       vertex 0.13031 -0.0326315 0.1
    endloop
  endfacet
  facet normal 0.980784 -0.195096 0
    outer loop
       vertex 0.13031 -0.0326315 0.1
       vertex 0.12393 -0.064705 0.1
       vertex 0.12393 -0.064705 0
    endloop
  endfacet
  facet normal 0.997858 -0.0654098 0
    outer loop
       vertex 0.132449 -8.32665e-17 0.1
       vertex 0.13031 -0.0326315 0.1
       vertex 0.13031 -0.0326315 0
    endloop
  endfacet
  facet normal 0.997858 -0.0654098 -1.08928e-16
    outer loop
       vertex 0.13031 -0.0326315 0
       vertex 0.132449 8.32665e-17 0
       vertex 0.132449 -8.32665e-17 0.1
    endloop
  endfacet
  facet normal 0.997858 0.0654098 0
    outer loop
       vertex 0.132449 8.32665e-17 0
       vertex 0.13031 0.0326315 0
       vertex 0.13031 0.0326315 0.1
    endloop
  endfacet
  facet normal 0.997858 0.0654098 1.08928e-16
    outer loop
       vertex 0.13031 0.0326315 0.1
       vertex 0.132449 -8.32665e-17 0.1
       vertex 0.132449 8.32665e-17 0
    endloop
  endfacet
  facet normal 0.980784 0.195096 0
    outer loop
       vertex 0.13031 0.0326315 0
       vertex 0.12393 0.064705 0
       vertex 0.12393 0.064705 0.1
    endloop
  endfacet
  facet normal 0.980784 0.195096 0
    outer loop
       vertex 0.12393 0.064705 0.1
       vertex 0.13031 0.0326315 0.1
       vertex 0.13031 0.0326315 0
    endloop
  endfacet
  facet normal 0.946935 0.321425 0
    outer loop
       vertex 0.12393 0.064705 0
       vertex 0.113419 0.095671 0
       vertex 0.113419 0.095671 0.1
    endloop
  endfacet
  facet normal 0.946935 0.321425 0
    outer loop
       vertex 0.113419 0.095671 0.1
       vertex 0.12393 0.064705 0.1
       vertex 0.12393 0.064705 0
    endloop
  endfacet
  facet normal 0.896866 0.442302 0
    outer loop
       vertex 0.113419 0.095671 0
       vertex 0.0989553 0.125 0
       vertex 0.0989553 0.125 0.1
    endloop
  endfacet
  facet normal 0.896866 0.442302 0
    outer loop
       vertex 0.0989553 0.125 0.1
       vertex 0.113419 0.095671 0.1
       vertex 0.113419 0.095671 0
    endloop
  endfacet
  facet normal 0.831476 0.555561 0
    outer loop
       vertex 0.0989553 0.125 0
       vertex 0.0807873 0.152191 0
       vertex 0.0807873 0.152191 0.1
    endloop
  endfacet
  facet normal 0.831476 0.555561 0
    outer loop
       vertex 0.0807873 0.152191 0.1
       vertex 0.0989553 0.125 0.1
       vertex 0.0989553 0.125 0
    endloop
  endfacet
  facet normal 0.751817 0.659372 0
    outer loop
       vertex 0.0807873 0.152191 0
       vertex 0.0592253 0.176776 0
       vertex 0.0592253 0.176776 0.1
    endloop
  endfacet
  facet normal 0.751817 0.659372 0
    outer loop
       vertex 0.0592253 0.176776 0.1
       vertex 0.0807873 0.152191 0.1
       vertex 0.0807873 0.152191 0
    endloop
  endfacet
  facet normal 0.659372 0.751817 0
    outer loop
       vertex 0.0592253 0.176776 0
       vertex 0.0346403 0.198338 0
       vertex 0.0346403 0.198338 0.1
    endloop
  endfacet
  facet normal 0.659372 0.751817 0
    outer loop
       vertex 0.0346403 0.198338 0.1
       vertex 0.0592253 0.176776 0.1
       vertex 0.0592253 0.176776 0
    endloop
  endfacet
  facet normal 0.555561 0.831476 0
    outer loop
       vertex 0.0346403 0.198338 0
       vertex 0.00744933 0.216506 0
       vertex 0.00744933 0.216506 0.1
    endloop
  endfacet
  facet normal 0.555561 0.831476 0
    outer loop
       vertex 0.00744933 0.216506 0.1
       vertex 0.0346403 0.198338 0.1
       vertex 0.0346403 0.198338 0
    endloop
  endfacet
  facet normal 0.442302 0.896866 0
    outer loop
       vertex 0.00744933 0.216506 0
       vertex -0.0218797 0.23097 0
       vertex -0.0218797 0.23097 0.1
    endloop
  endfacet
  facet normal 0.442302 0.896866 0
    outer loop
       vertex -0.0218797 0.23097 0.1
       vertex 0.00744933 0.216506 0.1
       vertex 0.00744933 0.216506 0
    endloop
  endfacet
  facet normal 0.321425 0.946935 0
    outer loop
       vertex -0.0218797 0.23097 0
       vertex -0.0528457 0.241481 0
       vertex -0.0528457 0.241481 0.1
    endloop
  endfacet
  facet normal 0.321425 0.946935 0
    outer loop
       vertex -0.0528457 0.241481 0.1
       vertex -0.0218797 0.23097 0.1
       vertex -0.0218797 0.23097 0
    endloop
  endfacet
  facet normal 0.195096 0.980784 0
    outer loop
       vertex -0.0528457 0.241481 0
       vertex -0.0849192 0.247861 0
       vertex -0.0849192 0.247861 0.1
    endloop
  endfacet
  facet normal 0.195096 0.980784 0
    outer loop
       vertex -0.0849192 0.247861 0.1
       vertex -0.0528457 0.241481 0.1
       vertex -0.0528457 0.241481 0
    endloop
  endfacet
  facet normal 0.0654098 0.997858 0
    outer loop
       vertex -0.117551 0.25 0.1
       vertex -0.0849192 0.247861 0.1
       vertex -0.0849192 0.247861 0
    endloop
  endfacet
  facet normal 0.0654098 0.997858 -1.08928e-16
    outer loop
       vertex -0.0849192 0.247861 0
       vertex -0.117551 0.25 0
       vertex -0.117551 0.25 0.1
    endloop
  endfacet
  facet normal -0.0654098 0.997858 0
    outer loop
       vertex -0.117551 0.25 0
       vertex -0.150182 0.247861 0
       vertex -0.150182 0.247861 0.1
    endloop
  endfacet
  facet normal -0.0654098 0.997858 1.08928e-16
    outer loop
       vertex -0.150182 0.247861 0.1
       vertex -0.117551 0.25 0.1
       vertex -0.117551 0.25 0
    endloop
  endfacet
  facet normal -0.195096 0.980784 0
    outer loop
       vertex -0.150182 0.247861 0
       vertex -0.182256 0.241481 0
       vertex -0.182256 0.241481 0.1
    endloop
  endfacet
  facet normal -0.195096 0.980784 0
    outer loop
       vertex -0.182256 0.241481 0.1
       vertex -0.150182 0.247861 0.1
       vertex -0.150182 0.247861 0
    endloop
  endfacet
  facet normal -0.321425 0.946935 0
    outer loop
       vertex -0.182256 0.241481 0
       vertex -0.213222 0.23097 0
       vertex -0.213222 0.23097 0.1
    endloop
  endfacet
  facet normal -0.321425 0.946935 0
    outer loop
       vertex -0.213222 0.23097 0.1
       vertex -0.182256 0.241481 0.1
       vertex -0.182256 0.241481 0
    endloop
  endfacet
  facet normal -0.442302 0.896866 0
    outer loop
       vertex -0.213222 0.23097 0
       vertex -0.242551 0.216506 0
       vertex -0.242551 0.216506 0.1
    endloop
  endfacet
  facet normal -0.442302 0.896866 0
    outer loop
       vertex -0.242551 0.216506 0.1
       vertex -0.213222 0.23097 0.1
       vertex -0.213222 0.23097 0
    endloop
  endfacet
  facet normal -0.555561 0.831476 0
    outer loop
       vertex -0.242551 0.216506 0
       vertex -0.269742 0.198338 0
       vertex -0.269742 0.198338 0.1
    endloop
  endfacet
  facet normal -0.555561 0.831476 0
    outer loop
       vertex -0.269742 0.198338 0.1
       vertex -0.242551 0.216506 0.1
       vertex -0.242551 0.216506 0
    endloop
  endfacet
  facet normal -0.659372 0.751817 0
    outer loop
       vertex -0.269742 0.198338 0
       vertex -0.294327 0.176776 0
       vertex -0.294327 0.176776 0.1
    endloop
  endfacet
  facet normal -0.659372 0.751817 0
    outer loop
       vertex -0.294327 0.176776 0.1
       vertex -0.269742 0.198338 0.1
       vertex -0.269742 0.198338 0
    endloop
  endfacet
  facet normal -0.751817 0.659372 0
    outer loop
       vertex -0.294327 0.176776 0
       vertex -0.315889 0.152191 0
       vertex -0.315889 0.152191 0.1
    endloop
  endfacet
  facet normal -0.751817 0.659372 0
    outer loop
       vertex -0.315889 0.152191 0.1
       vertex -0.294327 0.176776 0.1
       vertex -0.294327 0.176776 0
    endloop
  endfacet
  facet normal -0.831476 0.555561 0
    outer loop
       vertex -0.315889 0.152191 0
       vertex -0.334057 0.125 0
       vertex -0.334057 0.125 0.1
    endloop
  endfacet
  facet normal -0.831476 0.555561 0
    outer loop
       vertex -0.334057 0.125 0.1
       vertex -0.315889 0.152191 0.1
       vertex -0.315889 0.152191 0
    endloop
  endfacet
  facet normal -0.896866 0.442302 0
    outer loop
       vertex -0.334057 0.125 0
       vertex -0.348521 0.095671 0
       vertex -0.348521 0.095671 0.1
    endloop
  endfacet
  facet normal -0.896866 0.442302 0
    outer loop
       vertex -0.348521 0.095671 0.1
       vertex -0.334057 0.125 0.1
       vertex -0.334057 0.125 0
    endloop
  endfacet
  facet normal -0.946935 0.321425 0
    outer loop
       vertex -0.348521 0.095671 0
       vertex -0.359032 0.064705 0
       vertex -0.359032 0.064705 0.1
    endloop
  endfacet
  facet normal -0.946935 0.321425 0
    outer loop
       vertex -0.359032 0.064705 0.1
       vertex -0.348521 0.095671 0.1
       vertex -0.348521 0.095671 0
    endloop
  endfacet
  facet normal -0.980784 0.195096 0
    outer loop
       vertex -0.359032 0.064705 0
       vertex -0.365412 0.0326315 0
       vertex -0.365412 0.0326315 0.1
    endloop
  endfacet
  facet normal -0.980784 0.195096 0
    outer loop
       vertex -0.365412 0.0326315 0.1
       vertex -0.359032 0.064705 0.1
       vertex -0.359032 0.064705 0
    endloop
  endfacet
  facet normal -0.997858 0.0654098 0
    outer loop
       vertex -0.367551 8.32665e-17 0.1
       vertex -0.365412 0.0326315 0.1
       vertex -0.365412 0.0326315 0
    endloop
  endfacet
  facet normal -0.997858 0.0654098 -1.08928e-16
    outer loop
       vertex -0.365412 0.0326315 0
       vertex -0.367551 -8.32665e-17 0
       vertex -0.367551 8.32665e-17 0.1
    endloop
  endfacet
  facet normal -0.997858 -0.0654098 0
    outer loop
       vertex -0.367551 -8.32665e-17 0
       vertex -0.365412 -0.0326315 0
       vertex -0.365412 -0.0326315 0.1
    endloop
  endfacet
  facet normal -0.997858 -0.0654098 1.08928e-16
    outer loop
       vertex -0.365412 -0.0326315 0.1
       vertex -0.367551 8.32665e-17 0.1
       vertex -0.367551 -8.32665e-17 0
    endloop
  endfacet
  facet normal -0.980784 -0.195096 0
    outer loop
       vertex -0.365412 -0.0326315 0
       vertex -0.359032 -0.064705 0
       vertex -0.359032 -0.064705 0.1
    endloop
  endfacet
  facet normal -0.980784 -0.195096 0
    outer loop
       vertex -0.359032 -0.064705 0.1
       vertex -0.365412 -0.0326315 0.1
       vertex -0.365412 -0.0326315 0
    endloop
  endfacet
  facet normal -0.946935 -0.321425 0
    outer loop
       vertex -0.359032 -0.064705 0
       vertex -0.348521 -0.095671 0
       vertex -0.348521 -0.095671 0.1
    endloop
  endfacet
  facet normal -0.946935 -0.321425 0
    outer loop
       vertex -0.348521 -0.095671 0.1
       vertex -0.359032 -0.064705 0.1
       vertex -0.359032 -0.064705 0
    endloop
  endfacet
  facet normal -0.896866 -0.442302 0
    outer loop
       vertex -0.348521 -0.095671 0
       vertex -0.334057 -0.125 0
       vertex -0.334057 -0.125 0.1
    endloop
  endfacet
  facet normal -0.896866 -0.442302 0
    outer loop
       vertex -0.334057 -0.125 0.1
       vertex -0.348521 -0.095671 0.1
       vertex -0.348521 -0.095671 0
    endloop
  endfacet
  facet normal -0.831476 -0.555561 0
    outer loop
       vertex -0.334057 -0.125 0
       vertex -0.315889 -0.152191 0
       vertex -0.315889 -0.152191 0.1
    endloop
  endfacet
  facet normal -0.831476 -0.555561 0
    outer loop
       vertex -0.315889 -0.152191 0.1
       vertex -0.334057 -0.125 0.1
       vertex -0.334057 -0.125 0
    endloop
  endfacet
  facet normal -0.751817 -0.659372 0
    outer loop
       vertex -0.315889 -0.152191 0
       vertex -0.294327 -0.176776 0
       vertex -0.294327 -0.176776 0.1
    endloop
  endfacet
  facet normal -0.751817 -0.659372 0
    outer loop
       vertex -0.294327 -0.176776 0.1
       vertex -0.315889 -0.152191 0.1
       vertex -0.315889 -0.152191 0
    endloop
  endfacet
  facet normal 0.659372 -0.751817 0
    outer loop
       vertex 0.0592253 -0.176776 0
       vertex 0.0592253 -0.176776 0.1
       vertex 0.0346403 -0.198338 0.1
    endloop
  endfacet
  facet normal 0.659372 -0.751817 0
    outer loop
       vertex 0.0346403 -0.198338 0.1
       vertex 0.0346403 -0.198338 0
       vertex 0.0592253 -0.176776 0
    endloop
  endfacet
  facet normal 0.555561 -0.831476 0
    outer loop
       vertex 0.0346403 -0.198338 0
       vertex 0.0346403 -0.198338 0.1
       vertex 0.00744933 -0.216506 0.1
    endloop
  endfacet
  facet normal 0.555561 -0.831476 0
    outer loop
       vertex 0.00744933 -0.216506 0.1
       vertex 0.00744933 -0.216506 0
       vertex 0.0346403 -0.198338 0
    endloop
  endfacet
  facet normal 0.442302 -0.896866 0
    outer loop
       vertex 0.00744933 -0.216506 0
       vertex 0.00744933 -0.216506 0.1
       vertex -0.0218797 -0.23097 0.1
    endloop
  endfacet
  facet normal 0.442302 -0.896866 0
    outer loop
       vertex -0.0218797 -0.23097 0.1
       vertex -0.0218797 -0.23097 0
       vertex 0.00744933 -0.216506 0
    endloop
  endfacet
  facet normal 0.321425 -0.946935 0
    outer loop
       vertex -0.0218797 -0.23097 0
       vertex -0.0218797 -0.23097 0.1
       vertex -0.0528457 -0.241481 0.1
    endloop
  endfacet
  facet normal 0.321425 -0.946935 0
    outer loop
       vertex -0.0528457 -0.241481 0.1
       vertex -0.0528457 -0.241481 0
       vertex -0.0218797 -0.23097 0
    endloop
  endfacet
  facet normal 0.195096 -0.980784 0
    outer loop
       vertex -0.0528457 -0.241481 0
       vertex -0.0528457 -0.241481 0.1
       vertex -0.0849192 -0.247861 0.1
    endloop
  endfacet
  facet normal 0.195096 -0.980784 0
    outer loop
       vertex -0.0849192 -0.247861 0.1
       vertex -0.0849192 -0.247861 0
       vertex -0.0528457 -0.241481 0
    endloop
  endfacet
  facet normal 0.0654098 -0.997858 0
    outer loop
       vertex -0.117551 -0.25 0
       vertex -0.0849192 -0.247861 0
       vertex -0.0849192 -0.247861 0.1
    endloop
  endfacet
  facet normal 0.0654098 -0.997858 1.08928e-16
    outer loop
       vertex -0.0849192 -0.247861 0.1
       vertex -0.117551 -0.25 0.1
       vertex -0.117551 -0.25 0
    endloop
  endfacet
  facet normal -0.0654098 -0.997858 0
    outer loop
       vertex -0.117551 -0.25 0.1
       vertex -0.150182 -0.247861 0.1
       vertex -0.150182 -0.247861 0
    endloop
  endfacet
  facet normal -0.0654098 -0.997858 -1.08928e-16
    outer loop
       vertex -0.150182 -0.247861 0
       vertex -0.117551 -0.25 0
       vertex -0.117551 -0.25 0.1
    endloop
  endfacet
  facet normal -0.195096 -0.980784 0
    outer loop
       vertex -0.150182 -0.247861 0
       vertex -0.150182 -0.247861 0.1
       vertex -0.182256 -0.241481 0.1
    endloop
  endfacet
  facet normal -0.195096 -0.980784 -0
    outer loop
       vertex -0.182256 -0.241481 0.1
       vertex -0.182256 -0.241481 0
       vertex -0.150182 -0.247861 0
    endloop
  endfacet
  facet normal -0.321425 -0.946935 0
    outer loop
       vertex -0.182256 -0.241481 0
       vertex -0.182256 -0.241481 0.1
       vertex -0.213222 -0.23097 0.1
    endloop
  endfacet
  facet normal -0.321425 -0.946935 -0
    outer loop
       vertex -0.213222 -0.23097 0.1
       vertex -0.213222 -0.23097 0
       vertex -0.182256 -0.241481 0
    endloop
  endfacet
  facet normal -0.442302 -0.896866 0
    outer loop
       vertex -0.213222 -0.23097 0
       vertex -0.213222 -0.23097 0.1
       vertex -0.242551 -0.216506 0.1
    endloop
  endfacet
  facet normal -0.442302 -0.896866 -0
    outer loop
       vertex -0.242551 -0.216506 0.1
       vertex -0.242551 -0.216506 0
       vertex -0.213222 -0.23097 0
    endloop
  endfacet
  facet normal -0.555561 -0.831476 0
    outer loop
       vertex -0.242551 -0.216506 0
       vertex -0.242551 -0.216506 0.1
       vertex -0.269742 -0.198338 0.1
    endloop
  endfacet
  facet normal -0.555561 -0.831476 -0
    outer loop
       vertex -0.269742 -0.198338 0.1
       vertex -0.269742 -0.198338 0
       vertex -0.242551 -0.216506 0
    endloop
  endfacet
  facet normal -0.659372 -0.751817 0
    outer loop
       vertex -0.269742 -0.198338 0
       vertex -0.269742 -0.198338 0.1
       vertex -0.294327 -0.176776 0.1
    endloop
  endfacet
  facet normal -0.659372 -0.751817 -0
    outer loop
       vertex -0.294327 -0.176776 0.1
       vertex -0.294327 -0.176776 0
       vertex -0.269742 -0.198338 0
    endloop
  endfacet
endsolid cylinder
