solid cylinder
  facet normal 0.751817 -0.659372 0
    outer loop
       vertex 0.337783 -0.176776 0
       vertex 0.359345 -0.152191 0
       vertex 0.359345 -0.152191 0.1
    endloop
  endfacet
  facet normal 0.751817 -0.659372 0
    outer loop
       vertex 0.359345 -0.152191 0.1
       vertex 0.337783 -0.176776 0.1
       vertex 0.337783 -0.176776 0
    endloop
  endfacet
  facet normal 0.831476 -0.555561 0
    outer loop
       vertex 0.359345 -0.152191 0
       vertex 0.377513 -0.125 0
       vertex 0.377513 -0.125 0.1
    endloop
  endfacet
  facet normal 0.831476 -0.555561 0
    outer loop
       vertex 0.377513 -0.125 0.1
       vertex 0.359345 -0.152191 0.1
       vertex 0.359345 -0.152191 0
    endloop
  endfacet
  facet normal 0.896866 -0.442302 0
    outer loop
       vertex 0.377513 -0.125 0
       vertex 0.391977 -0.095671 0
       vertex 0.391977 -0.095671 0.1
    endloop
  endfacet
  facet normal 0.896866 -0.442302 0
    outer loop
       vertex 0.391977 -0.095671 0.1
       vertex 0.377513 -0.125 0.1
       vertex 0.377513 -0.125 0
    endloop
  endfacet
  facet normal 0.946935 -0.321425 0
    outer loop
       vertex 0.391977 -0.095671 0
       vertex 0.402488 -0.064705 0
       vertex 0.402488 -0.064705 0.1
    endloop
  endfacet
  facet normal 0.946935 -0.321425 0
    outer loop
       vertex 0.402488 -0.064705 0.1
       vertex 0.391977 -0.095671 0.1
       vertex 0.391977 -0.095671 0
    endloop
  endfacet
  facet normal 0.980784 -0.195096 0
    outer loop
       vertex 0.402488 -0.064705 0
       vertex 0.408868 -0.0326315 0
       vertex 0.408868 -0.0326315 0.1
    endloop
  endfacet
  facet normal 0.980784 -0.195096 0
    outer loop
       vertex 0.408868 -0.0326315 0.1
       vertex 0.402488 -0.064705 0.1
       vertex 0.402488 -0.064705 0
    endloop
  endfacet
  facet normal 0.997858 -0.0654098 0
    outer loop
       vertex 0.411007 -8.32665e-17 0.1
       vertex 0.408868 -0.0326315 0.1
       vertex 0.408868 -0.0326315 0
    endloop
  endfacet
  facet normal 0.997858 -0.0654098 -1.08928e-16
    outer loop
       vertex 0.408868 -0.0326315 0
       vertex 0.411007 8.32665e-17 0
       vertex 0.411007 -8.32665e-17 0.1
    endloop
  endfacet
  facet normal 0.997858 0.0654098 0
    outer loop
       vertex 0.411007 8.32665e-17 0
       vertex 0.408868 0.0326315 0
       vertex 0.408868 0.0326315 0.1
    endloop
  endfacet
  facet normal 0.997858 0.0654098 1.08928e-16
    outer loop
       vertex 0.408868 0.0326315 0.1
       vertex 0.411007 -8.32665e-17 0.1
       vertex 0.411007 8.32665e-17 0
    endloop
  endfacet
  facet normal 0.980784 0.195096 0
    outer loop
       vertex 0.408868 0.0326315 0
       vertex 0.402488 0.064705 0
       vertex 0.402488 0.064705 0.1
    endloop
  endfacet
  facet normal 0.980784 0.195096 0
    outer loop
       vertex 0.402488 0.064705 0.1
       vertex 0.408868 0.0326315 0.1
       vertex 0.408868 0.0326315 0
    endloop
  endfacet
  facet normal 0.946935 0.321425 0
    outer loop
       vertex 0.402488 0.064705 0
       vertex 0.391977 0.095671 0
       vertex 0.391977 0.095671 0.1
    endloop
  endfacet
  facet normal 0.946935 0.321425 0
    outer loop
       vertex 0.391977 0.095671 0.1
       vertex 0.402488 0.064705 0.1
       vertex 0.402488 0.064705 0
    endloop
  endfacet
  facet normal 0.896866 0.442302 0
    outer loop
       vertex 0.391977 0.095671 0
       vertex 0.377513 0.125 0
       vertex 0.377513 0.125 0.1
    endloop
  endfacet
  facet normal 0.896866 0.442302 0
    outer loop
       vertex 0.377513 0.125 0.1
       vertex 0.391977 0.095671 0.1
       vertex 0.391977 0.095671 0
    endloop
  endfacet
  facet normal 0.831476 0.555561 0
    outer loop
       vertex 0.377513 0.125 0
       vertex 0.359345 0.152191 0
       vertex 0.359345 0.152191 0.1
    endloop
  endfacet
  facet normal 0.831476 0.555561 0
    outer loop
       vertex 0.359345 0.152191 0.1
       vertex 0.377513 0.125 0.1
       vertex 0.377513 0.125 0
    endloop
  endfacet
  facet normal 0.751817 0.659372 0
    outer loop
       vertex 0.359345 0.152191 0
       vertex 0.337783 0.176776 0
       vertex 0.337783 0.176776 0.1
    endloop
  endfacet
  facet normal 0.751817 0.659372 0
    outer loop
       vertex 0.337783 0.176776 0.1
       vertex 0.359345 0.152191 0.1
       vertex 0.359345 0.152191 0
    endloop
  endfacet
  facet normal 0.659372 0.751817 0
    outer loop
       vertex 0.337783 0.176776 0
       vertex 0.313198 0.198338 0
       vertex 0.313198 0.198338 0.1
    endloop
  endfacet
  facet normal 0.659372 0.751817 0
    outer loop
       vertex 0.313198 0.198338 0.1
       vertex 0.337783 0.176776 0.1
       vertex 0.337783 0.176776 0
    endloop
  endfacet
  facet normal 0.555561 0.831476 0
    outer loop
       vertex 0.313198 0.198338 0
       vertex 0.286007 0.216506 0
       vertex 0.286007 0.216506 0.1
    endloop
  endfacet
  facet normal 0.555561 0.831476 0
    outer loop
       vertex 0.286007 0.216506 0.1
       vertex 0.313198 0.198338 0.1
       vertex 0.313198 0.198338 0
    endloop
  endfacet
  facet normal 0.442302 0.896866 0
    outer loop
       vertex 0.286007 0.216506 0
       vertex 0.256678 0.23097 0
       vertex 0.256678 0.23097 0.1
    endloop
  endfacet
  facet normal 0.442302 0.896866 0
    outer loop
       vertex 0.256678 0.23097 0.1
       vertex 0.286007 0.216506 0.1
       vertex 0.286007 0.216506 0
    endloop
  endfacet
  facet normal 0.321425 0.946935 0
    outer loop
       vertex 0.256678 0.23097 0
       vertex 0.225712 0.241481 0
       vertex 0.225712 0.241481 0.1
    endloop
  endfacet
  facet normal 0.321425 0.946935 0
    outer loop
       vertex 0.225712 0.241481 0.1
       vertex 0.256678 0.23097 0.1
       vertex 0.256678 0.23097 0
    endloop
  endfacet
  facet normal 0.195096 0.980784 0
    outer loop
       vertex 0.225712 0.241481 0
       vertex 0.193638 0.247861 0
       vertex 0.193638 0.247861 0.1
    endloop
  endfacet
  facet normal 0.195096 0.980784 0
    outer loop
       vertex 0.193638 0.247861 0.1
       vertex 0.225712 0.241481 0.1
       vertex 0.225712 0.241481 0
    endloop
  endfacet
  facet normal 0.0654098 0.997858 0
    outer loop
       vertex 0.161007 0.25 0.1
       vertex 0.193638 0.247861 0.1
       vertex 0.193638 0.247861 0
    endloop
  endfacet
  facet normal 0.0654098 0.997858 -1.0893e-16
    outer loop
       vertex 0.193638 0.247861 0
       vertex 0.161007 0.25 0
       vertex 0.161007 0.25 0.1
    endloop
  endfacet
  facet normal -0.0654098 0.997858 0
    outer loop
       vertex 0.161007 0.25 0
       vertex 0.128375 0.247861 0
       vertex 0.128375 0.247861 0.1
    endloop
  endfacet
  facet normal -0.0654098 0.997858 1.0893e-16
    outer loop
       vertex 0.128375 0.247861 0.1
       vertex 0.161007 0.25 0.1
       vertex 0.161007 0.25 0
    endloop
  endfacet
  facet normal -0.195096 0.980784 0
    outer loop
       vertex 0.128375 0.247861 0
       vertex 0.0963015 0.241481 0
       vertex 0.0963015 0.241481 0.1
    endloop
  endfacet
  facet normal -0.195096 0.980784 0
    outer loop
       vertex 0.0963015 0.241481 0.1
       vertex 0.128375 0.247861 0.1
       vertex 0.128375 0.247861 0
    endloop
  endfacet
  facet normal -0.321425 0.946935 0
    outer loop
       vertex 0.0963015 0.241481 0
       vertex 0.0653355 0.23097 0
       vertex 0.0653355 0.23097 0.1
    endloop
  endfacet
  facet normal -0.321425 0.946935 0
    outer loop
       vertex 0.0653355 0.23097 0.1
       vertex 0.0963015 0.241481 0.1
       vertex 0.0963015 0.241481 0
    endloop
  endfacet
  facet normal -0.442302 0.896866 0
    outer loop
       vertex 0.0653355 0.23097 0
       vertex 0.0360065 0.216506 0
       vertex 0.0360065 0.216506 0.1
    endloop
  endfacet
  facet normal -0.442302 0.896866 0
    outer loop
       vertex 0.0360065 0.216506 0.1
       vertex 0.0653355 0.23097 0.1
       vertex 0.0653355 0.23097 0
    endloop
  endfacet
  facet normal -0.555561 0.831476 0
    outer loop
       vertex 0.0360065 0.216506 0
       vertex 0.00881553 0.198338 0
       vertex 0.00881553 0.198338 0.1
    endloop
  endfacet
  facet normal -0.555561 0.831476 0
    outer loop
       vertex 0.00881553 0.198338 0.1
       vertex 0.0360065 0.216506 0.1
       vertex 0.0360065 0.216506 0
    endloop
  endfacet
  facet normal -0.659372 0.751817 0
    outer loop
       vertex 0.00881553 0.198338 0
       vertex -0.0157695 0.176776 0
       vertex -0.0157695 0.176776 0.1
    endloop
  endfacet
  facet normal -0.659372 0.751817 0
    outer loop
       vertex -0.0157695 0.176776 0.1
       vertex 0.00881553 0.198338 0.1
       vertex 0.00881553 0.198338 0
    endloop
  endfacet
  facet normal -0.751817 0.659372 0
    outer loop
       vertex -0.0157695 0.176776 0
       vertex -0.0373315 0.152191 0
       vertex -0.0373315 0.152191 0.1
    endloop
  endfacet
  facet normal -0.751817 0.659372 0
    outer loop
       vertex -0.0373315 0.152191 0.1
       vertex -0.0157695 0.176776 0.1
       vertex -0.0157695 0.176776 0
    endloop
  endfacet
  facet normal -0.831476 0.555561 0
    outer loop
       vertex -0.0373315 0.152191 0
       vertex -0.0554995 0.125 0
       vertex -0.0554995 0.125 0.1
    endloop
  endfacet
  facet normal -0.831476 0.555561 0
    outer loop
       vertex -0.0554995 0.125 0.1
       vertex -0.0373315 0.152191 0.1
       vertex -0.0373315 0.152191 0
    endloop
  endfacet
  facet normal -0.896866 0.442302 0
    outer loop
       vertex -0.0554995 0.125 0
       vertex -0.0699635 0.095671 0
       vertex -0.0699635 0.095671 0.1
    endloop
  endfacet
  facet normal -0.896866 0.442302 0
    outer loop
       vertex -0.0699635 0.095671 0.1
       vertex -0.0554995 0.125 0.1
       vertex -0.0554995 0.125 0
    endloop
  endfacet
  facet normal -0.946935 0.321425 0
    outer loop
       vertex -0.0699635 0.095671 0
       vertex -0.0804745 0.064705 0
       vertex -0.0804745 0.064705 0.1
    endloop
  endfacet
  facet normal -0.946935 0.321425 0
    outer loop
       vertex -0.0804745 0.064705 0.1
       vertex -0.0699635 0.095671 0.1
       vertex -0.0699635 0.095671 0
    endloop
  endfacet
  facet normal -0.980784 0.195096 0
    outer loop
       vertex -0.0804745 0.064705 0
       vertex -0.0868545 0.0326315 0
       vertex -0.0868545 0.0326315 0.1
    endloop
  endfacet
  facet normal -0.980784 0.195096 0
    outer loop
       vertex -0.0868545 0.0326315 0.1
       vertex -0.0804745 0.064705 0.1
       vertex -0.0804745 0.064705 0
    endloop
  endfacet
  facet normal -0.997858 0.0654098 0
    outer loop
       vertex -0.0889935 8.32665e-17 0.1
       vertex -0.0868545 0.0326315 0.1
       vertex -0.0868545 0.0326315 0
    endloop
  endfacet
  facet normal -0.997858 0.0654098 -1.08928e-16
    outer loop
       vertex -0.0868545 0.0326315 0
       vertex -0.0889935 -8.32665e-17 0
       vertex -0.0889935 8.32665e-17 0.1
    endloop
  endfacet
  facet normal -0.997858 -0.0654098 0
    outer loop
       vertex -0.0889935 -8.32665e-17 0
       vertex -0.0868545 -0.0326315 0
       vertex -0.0868545 -0.0326315 0.1
    endloop
  endfacet
  facet normal -0.997858 -0.0654098 1.08928e-16
    outer loop
       vertex -0.0868545 -0.0326315 0.1
       vertex -0.0889935 8.32665e-17 0.1
       vertex -0.0889935 -8.32665e-17 0
    endloop
  endfacet
  facet normal -0.980784 -0.195096 0
    outer loop
       vertex -0.0868545 -0.0326315 0
       vertex -0.0804745 -0.064705 0
       vertex -0.0804745 -0.064705 0.1
    endloop
  endfacet
  facet normal -0.980784 -0.195096 0
    outer loop
       vertex -0.0804745 -0.064705 0.1
       vertex -0.0868545 -0.0326315 0.1
       vertex -0.0868545 -0.0326315 0
    endloop
  endfacet
  facet normal -0.946935 -0.321425 0
    outer loop
       vertex -0.0804745 -0.064705 0
       vertex -0.0699635 -0.095671 0
       vertex -0.0699635 -0.095671 0.1
    endloop
  endfacet
  facet normal -0.946935 -0.321425 0
    outer loop
       vertex -0.0699635 -0.095671 0.1
       vertex -0.0804745 -0.064705 0.1
       vertex -0.0804745 -0.064705 0
    endloop
  endfacet
  facet normal -0.896866 -0.442302 0
    outer loop
       vertex -0.0699635 -0.095671 0
       vertex -0.0554995 -0.125 0
       vertex -0.0554995 -0.125 0.1
    endloop
  endfacet
  facet normal -0.896866 -0.442302 0
    outer loop
       vertex -0.0554995 -0.125 0.1
       vertex -0.0699635 -0.095671 0.1
       vertex -0.0699635 -0.095671 0
    endloop
  endfacet
  facet normal -0.831476 -0.555561 0
    outer loop
       vertex -0.0554995 -0.125 0
       vertex -0.0373315 -0.152191 0
       vertex -0.0373315 -0.152191 0.1
    endloop
  endfacet
  facet normal -0.831476 -0.555561 0
    outer loop
       vertex -0.0373315 -0.152191 0.1
       vertex -0.0554995 -0.125 0.1
       vertex -0.0554995 -0.125 0
    endloop
  endfacet
  facet normal -0.751817 -0.659372 0
    outer loop
       vertex -0.0373315 -0.152191 0
       vertex -0.0157695 -0.176776 0
       vertex -0.0157695 -0.176776 0.1
    endloop
  endfacet
  facet normal -0.751817 -0.659372 0
    outer loop
       vertex -0.0157695 -0.176776 0.1
       vertex -0.0373315 -0.152191 0.1
       vertex -0.0373315 -0.152191 0
    endloop
  endfacet
  facet normal 0.659372 -0.751817 0
    outer loop
       vertex 0.337783 -0.176776 0
       vertex 0.337783 -0.176776 0.1
       vertex 0.313198 -0.198338 0.1
    endloop
  endfacet
  facet normal 0.659372 -0.751817 0
    outer loop
       vertex 0.313198 -0.198338 0.1
       vertex 0.313198 -0.198338 0
       vertex 0.337783 -0.176776 0
    endloop
  endfacet
  facet normal 0.555561 -0.831476 0
    outer loop
       vertex 0.313198 -0.198338 0
       vertex 0.313198 -0.198338 0.1
       vertex 0.286007 -0.216506 0.1
    endloop
  endfacet
  facet normal 0.555561 -0.831476 0
    outer loop
       vertex 0.286007 -0.216506 0.1
       vertex 0.286007 -0.216506 0
       vertex 0.313198 -0.198338 0
    endloop
  endfacet
  facet normal 0.442302 -0.896866 0
    outer loop
       vertex 0.286007 -0.216506 0
       vertex 0.286007 -0.216506 0.1
       vertex 0.256678 -0.23097 0.1
    endloop
  endfacet
  facet normal 0.442302 -0.896866 0
    outer loop
       vertex 0.256678 -0.23097 0.1
       vertex 0.256678 -0.23097 0
       vertex 0.286007 -0.216506 0
    endloop
  endfacet
  facet normal 0.321425 -0.946935 0
    outer loop
       vertex 0.256678 -0.23097 0
       vertex 0.256678 -0.23097 0.1
       vertex 0.225712 -0.241481 0.1
    endloop
  endfacet
  facet normal 0.321425 -0.946935 0
    outer loop
       vertex 0.225712 -0.241481 0.1
       vertex 0.225712 -0.241481 0
       vertex 0.256678 -0.23097 0
    endloop
  endfacet
  facet normal 0.195096 -0.980784 0
    outer loop
       vertex 0.225712 -0.241481 0
       vertex 0.225712 -0.241481 0.1
       vertex 0.193638 -0.247861 0.1
    endloop
  endfacet
  facet normal 0.195096 -0.980784 0
    outer loop
       vertex 0.193638 -0.247861 0.1
       vertex 0.193638 -0.247861 0
       vertex 0.225712 -0.241481 0
    endloop
  endfacet
  facet normal 0.0654098 -0.997858 0
    outer loop
       vertex 0.161007 -0.25 0
       vertex 0.193638 -0.247861 0
       vertex 0.193638 -0.247861 0.1
    endloop
  endfacet
  facet normal 0.0654098 -0.997858 1.0893e-16
    outer loop
       vertex 0.193638 -0.247861 0.1
       vertex 0.161007 -0.25 0.1
       vertex 0.161007 -0.25 0
    endloop
  endfacet
  facet normal -0.0654098 -0.997858 0
    outer loop
       vertex 0.161007 -0.25 0.1
       vertex 0.128375 -0.247861 0.1
       vertex 0.128375 -0.247861 0
    endloop
  endfacet
  facet normal -0.0654098 -0.997858 -1.0893e-16
    outer loop
       vertex 0.128375 -0.247861 0
       vertex 0.161007 -0.25 0
       vertex 0.161007 -0.25 0.1
    endloop
  endfacet
  facet normal -0.195096 -0.980784 0
    outer loop
       vertex 0.128375 -0.247861 0
       vertex 0.128375 -0.247861 0.1
       vertex 0.0963015 -0.241481 0.1
    endloop
  endfacet
  facet normal -0.195096 -0.980784 -0
    outer loop
       vertex 0.0963015 -0.241481 0.1
       vertex 0.0963015 -0.241481 0
       vertex 0.128375 -0.247861 0
    endloop
  endfacet
  facet normal -0.321425 -0.946935 0
    outer loop
       vertex 0.0963015 -0.241481 0
       vertex 0.0963015 -0.241481 0.1
       vertex 0.0653355 -0.23097 0.1
    endloop
  endfacet
  facet normal -0.321425 -0.946935 -0
    outer loop
       vertex 0.0653355 -0.23097 0.1
       vertex 0.0653355 -0.23097 0
       vertex 0.0963015 -0.241481 0
    endloop
  endfacet
  facet normal -0.442302 -0.896866 0
    outer loop
       vertex 0.0653355 -0.23097 0
       vertex 0.0653355 -0.23097 0.1
       vertex 0.0360065 -0.216506 0.1
    endloop
  endfacet
  facet normal -0.442302 -0.896866 -0
    outer loop
       vertex 0.0360065 -0.216506 0.1
       vertex 0.0360065 -0.216506 0
       vertex 0.0653355 -0.23097 0
    endloop
  endfacet
  facet normal -0.555561 -0.831476 0
    outer loop
       vertex 0.0360065 -0.216506 0
       vertex 0.0360065 -0.216506 0.1
       vertex 0.00881553 -0.198338 0.1
    endloop
  endfacet
  facet normal -0.555561 -0.831476 -0
    outer loop
       vertex 0.00881553 -0.198338 0.1
       vertex 0.00881553 -0.198338 0
       vertex 0.0360065 -0.216506 0
    endloop
  endfacet
  facet normal -0.659372 -0.751817 0
    outer loop
       vertex 0.00881553 -0.198338 0
       vertex 0.00881553 -0.198338 0.1
       vertex -0.0157695 -0.176776 0.1
    endloop
  endfacet
  facet normal -0.659372 -0.751817 -0
    outer loop
       vertex -0.0157695 -0.176776 0.1
       vertex -0.0157695 -0.176776 0
       vertex 0.00881553 -0.198338 0
    endloop
  endfacet
endsolid cylinder
