solid cylinder
  facet normal 0.751817 -0.659372 0
    outer loop
       vertex 0.184103 -0.176776 0
       vertex 0.205665 -0.152191 0
       vertex 0.205665 -0.152191 0.1
    endloop
  endfacet
  facet normal 0.751817 -0.659372 0
    outer loop
       vertex 0.205665 -0.152191 0.1
       vertex 0.184103 -0.176776 0.1
       vertex 0.184103 -0.176776 0
    endloop
  endfacet
  facet normal 0.831476 -0.555561 0
    outer loop
       vertex 0.205665 -0.152191 0
       vertex 0.223833 -0.125 0
       vertex 0.223833 -0.125 0.1
    endloop
  endfacet
  facet normal 0.831476 -0.555561 0
    outer loop
       vertex 0.223833 -0.125 0.1
       vertex 0.205665 -0.152191 0.1
       vertex 0.205665 -0.152191 0
    endloop
  endfacet
  facet normal 0.896866 -0.442302 0
    outer loop
       vertex 0.223833 -0.125 0
       vertex 0.238297 -0.095671 0
       vertex 0.238297 -0.095671 0.1
    endloop
  endfacet
  facet normal 0.896866 -0.442302 0
    outer loop
       vertex 0.238297 -0.095671 0.1
       vertex 0.223833 -0.125 0.1
       vertex 0.223833 -0.125 0
    endloop
  endfacet
  facet normal 0.946935 -0.321425 0
    outer loop
       vertex 0.238297 -0.095671 0
       vertex 0.248808 -0.064705 0
       vertex 0.248808 -0.064705 0.1
    endloop
  endfacet
  facet normal 0.946935 -0.321425 0
    outer loop
       vertex 0.248808 -0.064705 0.1
       vertex 0.238297 -0.095671 0.1
       vertex 0.238297 -0.095671 0
    endloop
  endfacet
  facet normal 0.980784 -0.195096 0
    outer loop
       vertex 0.248808 -0.064705 0
       vertex 0.255188 -0.0326315 0
       vertex 0.255188 -0.0326315 0.1
    endloop
  endfacet
  facet normal 0.980784 -0.195096 0
    outer loop
       vertex 0.255188 -0.0326315 0.1
       vertex 0.248808 -0.064705 0.1
       vertex 0.248808 -0.064705 0
    endloop
  endfacet
  facet normal 0.997858 -0.0654098 0
    outer loop
       vertex 0.257327 -8.32665e-17 0.1
       vertex 0.255188 -0.0326315 0.1
       vertex 0.255188 -0.0326315 0
    endloop
  endfacet
  facet normal 0.997858 -0.0654098 -1.08928e-16
    outer loop
       vertex 0.255188 -0.0326315 0
       vertex 0.257327 8.32665e-17 0
       vertex 0.257327 -8.32665e-17 0.1
    endloop
  endfacet
  facet normal 0.997858 0.0654098 0
    outer loop
       vertex 0.257327 8.32665e-17 0
       vertex 0.255188 0.0326315 0
       vertex 0.255188 0.0326315 0.1
    endloop
  endfacet
  facet normal 0.997858 0.0654098 1.08928e-16
    outer loop
       vertex 0.255188 0.0326315 0.1
       vertex 0.257327 -8.32665e-17 0.1
       vertex 0.257327 8.32665e-17 0
    endloop
  endfacet
  facet normal 0.980784 0.195096 0
    outer loop
       vertex 0.255188 0.0326315 0
       vertex 0.248808 0.064705 0
       vertex 0.248808 0.064705 0.1
    endloop
  endfacet
  facet normal 0.980784 0.195096 0
    outer loop
       vertex 0.248808 0.064705 0.1
       vertex 0.255188 0.0326315 0.1
       vertex 0.255188 0.0326315 0
    endloop
  endfacet
  facet normal 0.946935 0.321425 0
    outer loop
       vertex 0.248808 0.064705 0
       vertex 0.238297 0.095671 0
       vertex 0.238297 0.095671 0.1
    endloop
  endfacet
  facet normal 0.946935 0.321425 0
    outer loop
       vertex 0.238297 0.095671 0.1
       vertex 0.248808 0.064705 0.1
       vertex 0.248808 0.064705 0
    endloop
  endfacet
  facet normal 0.896866 0.442302 0
    outer loop
       vertex 0.238297 0.095671 0
       vertex 0.223833 0.125 0
       vertex 0.223833 0.125 0.1
    endloop
  endfacet
  facet normal 0.896866 0.442302 0
    outer loop
       vertex 0.223833 0.125 0.1
       vertex 0.238297 0.095671 0.1
       vertex 0.238297 0.095671 0
    endloop
  endfacet
  facet normal 0.831476 0.555561 0
    outer loop
       vertex 0.223833 0.125 0
       vertex 0.205665 0.152191 0
       vertex 0.205665 0.152191 0.1
    endloop
  endfacet
  facet normal 0.831476 0.555561 0
    outer loop
       vertex 0.205665 0.152191 0.1
       vertex 0.223833 0.125 0.1
       vertex 0.223833 0.125 0
    endloop
  endfacet
  facet normal 0.751817 0.659372 0
    outer loop
       vertex 0.205665 0.152191 0
       vertex 0.184103 0.176776 0
       vertex 0.184103 0.176776 0.1
    endloop
  endfacet
  facet normal 0.751817 0.659372 0
    outer loop
       vertex 0.184103 0.176776 0.1
       vertex 0.205665 0.152191 0.1
       vertex 0.205665 0.152191 0
    endloop
  endfacet
  facet normal 0.659372 0.751817 0
    outer loop
       vertex 0.184103 0.176776 0
       vertex 0.159518 0.198338 0
       vertex 0.159518 0.198338 0.1
    endloop
  endfacet
  facet normal 0.659372 0.751817 0
    outer loop
       vertex 0.159518 0.198338 0.1
       vertex 0.184103 0.176776 0.1
       vertex 0.184103 0.176776 0
    endloop
  endfacet
  facet normal 0.555561 0.831476 0
    outer loop
       vertex 0.159518 0.198338 0
       vertex 0.132327 0.216506 0
       vertex 0.132327 0.216506 0.1
    endloop
  endfacet
  facet normal 0.555561 0.831476 0
    outer loop
       vertex 0.132327 0.216506 0.1
       vertex 0.159518 0.198338 0.1
       vertex 0.159518 0.198338 0
    endloop
  endfacet
  facet normal 0.442302 0.896866 0
    outer loop
       vertex 0.132327 0.216506 0
       vertex 0.102998 0.23097 0
       vertex 0.102998 0.23097 0.1
    endloop
  endfacet
  facet normal 0.442302 0.896866 0
    outer loop
       vertex 0.102998 0.23097 0.1
       vertex 0.132327 0.216506 0.1
       vertex 0.132327 0.216506 0
    endloop
  endfacet
  facet normal 0.321425 0.946935 0
    outer loop
       vertex 0.102998 0.23097 0
       vertex 0.0720318 0.241481 0
       vertex 0.0720318 0.241481 0.1
    endloop
  endfacet
  facet normal 0.321425 0.946935 0
    outer loop
       vertex 0.0720318 0.241481 0.1
       vertex 0.102998 0.23097 0.1
       vertex 0.102998 0.23097 0
    endloop
  endfacet
  facet normal 0.195096 0.980784 0
    outer loop
       vertex 0.0720318 0.241481 0
       vertex 0.0399583 0.247861 0
       vertex 0.0399583 0.247861 0.1
    endloop
  endfacet
  facet normal 0.195096 0.980784 0
    outer loop
       vertex 0.0399583 0.247861 0.1
       vertex 0.0720318 0.241481 0.1
       vertex 0.0720318 0.241481 0
    endloop
  endfacet
  facet normal 0.0654098 0.997858 0
    outer loop
       vertex 0.00732683 0.25 0.1
       vertex 0.0399583 0.247861 0.1
       vertex 0.0399583 0.247861 0
    endloop
  endfacet
  facet normal 0.0654098 0.997858 -1.0893e-16
    outer loop
       vertex 0.0399583 0.247861 0
       vertex 0.00732683 0.25 0
       vertex 0.00732683 0.25 0.1
    endloop
  endfacet
  facet normal -0.0654098 0.997858 0
    outer loop
       vertex 0.00732683 0.25 0
       vertex -0.0253047 0.247861 0
       vertex -0.0253047 0.247861 0.1
    endloop
  endfacet
  facet normal -0.0654098 0.997858 1.0893e-16
    outer loop
       vertex -0.0253047 0.247861 0.1
       vertex 0.00732683 0.25 0.1
       vertex 0.00732683 0.25 0
    endloop
  endfacet
  facet normal -0.195096 0.980784 0
    outer loop
       vertex -0.0253047 0.247861 0
       vertex -0.0573782 0.241481 0
       vertex -0.0573782 0.241481 0.1
    endloop
  endfacet
  facet normal -0.195096 0.980784 0
    outer loop
       vertex -0.0573782 0.241481 0.1
       vertex -0.0253047 0.247861 0.1
       vertex -0.0253047 0.247861 0
    endloop
  endfacet
  facet normal -0.321425 0.946935 0
    outer loop
       vertex -0.0573782 0.241481 0
       vertex -0.0883442 0.23097 0
       vertex -0.0883442 0.23097 0.1
    endloop
  endfacet
  facet normal -0.321425 0.946935 0
    outer loop
       vertex -0.0883442 0.23097 0.1
       vertex -0.0573782 0.241481 0.1
       vertex -0.0573782 0.241481 0
    endloop
  endfacet
  facet normal -0.442302 0.896866 0
    outer loop
       vertex -0.0883442 0.23097 0
       vertex -0.117673 0.216506 0
       vertex -0.117673 0.216506 0.1
    endloop
  endfacet
  facet normal -0.442302 0.896866 0
    outer loop
       vertex -0.117673 0.216506 0.1
       vertex -0.0883442 0.23097 0.1
       vertex -0.0883442 0.23097 0
    endloop
  endfacet
  facet normal -0.555561 0.831476 0
    outer loop
       vertex -0.117673 0.216506 0
       vertex -0.144864 0.198338 0
       vertex -0.144864 0.198338 0.1
    endloop
  endfacet
  facet normal -0.555561 0.831476 0
    outer loop
       vertex -0.144864 0.198338 0.1
       vertex -0.117673 0.216506 0.1
       vertex -0.117673 0.216506 0
    endloop
  endfacet
  facet normal -0.659372 0.751817 0
    outer loop
       vertex -0.144864 0.198338 0
       vertex -0.169449 0.176776 0
       vertex -0.169449 0.176776 0.1
    endloop
  endfacet
  facet normal -0.659372 0.751817 0
    outer loop
       vertex -0.169449 0.176776 0.1
       vertex -0.144864 0.198338 0.1
       vertex -0.144864 0.198338 0
    endloop
  endfacet
  facet normal -0.751817 0.659372 0
    outer loop
       vertex -0.169449 0.176776 0
       vertex -0.191011 0.152191 0
       vertex -0.191011 0.152191 0.1
    endloop
  endfacet
  facet normal -0.751817 0.659372 0
    outer loop
       vertex -0.191011 0.152191 0.1
       vertex -0.169449 0.176776 0.1
       vertex -0.169449 0.176776 0
    endloop
  endfacet
  facet normal -0.831476 0.555561 0
    outer loop
       vertex -0.191011 0.152191 0
       vertex -0.209179 0.125 0
       vertex -0.209179 0.125 0.1
    endloop
  endfacet
  facet normal -0.831476 0.555561 0
    outer loop
       vertex -0.209179 0.125 0.1
       vertex -0.191011 0.152191 0.1
       vertex -0.191011 0.152191 0
    endloop
  endfacet
  facet normal -0.896866 0.442302 0
    outer loop
       vertex -0.209179 0.125 0
       vertex -0.223643 0.095671 0
       vertex -0.223643 0.095671 0.1
    endloop
  endfacet
  facet normal -0.896866 0.442302 0
    outer loop
       vertex -0.223643 0.095671 0.1
       vertex -0.209179 0.125 0.1
       vertex -0.209179 0.125 0
    endloop
  endfacet
  facet normal -0.946935 0.321425 0
    outer loop
       vertex -0.223643 0.095671 0
       vertex -0.234154 0.064705 0
       vertex -0.234154 0.064705 0.1
    endloop
  endfacet
  facet normal -0.946935 0.321425 0
    outer loop
       vertex -0.234154 0.064705 0.1
       vertex -0.223643 0.095671 0.1
       vertex -0.223643 0.095671 0
    endloop
  endfacet
  facet normal -0.980784 0.195096 0
    outer loop
       vertex -0.234154 0.064705 0
       vertex -0.240534 0.0326315 0
       vertex -0.240534 0.0326315 0.1
    endloop
  endfacet
  facet normal -0.980784 0.195096 0
    outer loop
       vertex -0.240534 0.0326315 0.1
       vertex -0.234154 0.064705 0.1
       vertex -0.234154 0.064705 0
    endloop
  endfacet
  facet normal -0.997858 0.0654098 0
    outer loop
       vertex -0.242673 8.32665e-17 0.1
       vertex -0.240534 0.0326315 0.1
       vertex -0.240534 0.0326315 0
    endloop
  endfacet
  facet normal -0.997858 0.0654098 -1.08928e-16
    outer loop
       vertex -0.240534 0.0326315 0
       vertex -0.242673 -8.32665e-17 0
       vertex -0.242673 8.32665e-17 0.1
    endloop
  endfacet
  facet normal -0.997858 -0.0654098 0
    outer loop
       vertex -0.242673 -8.32665e-17 0
       vertex -0.240534 -0.0326315 0
       vertex -0.240534 -0.0326315 0.1
    endloop
  endfacet
  facet normal -0.997858 -0.0654098 1.08928e-16
    outer loop
       vertex -0.240534 -0.0326315 0.1
       vertex -0.242673 8.32665e-17 0.1
       vertex -0.242673 -8.32665e-17 0
    endloop
  endfacet
  facet normal -0.980784 -0.195096 0
    outer loop
       vertex -0.240534 -0.0326315 0
       vertex -0.234154 -0.064705 0
       vertex -0.234154 -0.064705 0.1
    endloop
  endfacet
  facet normal -0.980784 -0.195096 0
    outer loop
       vertex -0.234154 -0.064705 0.1
       vertex -0.240534 -0.0326315 0.1
       vertex -0.240534 -0.0326315 0
    endloop
  endfacet
  facet normal -0.946935 -0.321425 0
    outer loop
       vertex -0.234154 -0.064705 0
       vertex -0.223643 -0.095671 0
       vertex -0.223643 -0.095671 0.1
    endloop
  endfacet
  facet normal -0.946935 -0.321425 0
    outer loop
       vertex -0.223643 -0.095671 0.1
       vertex -0.234154 -0.064705 0.1
       vertex -0.234154 -0.064705 0
    endloop
  endfacet
  facet normal -0.896866 -0.442302 0
    outer loop
       vertex -0.223643 -0.095671 0
       vertex -0.209179 -0.125 0
       vertex -0.209179 -0.125 0.1
    endloop
  endfacet
  facet normal -0.896866 -0.442302 0
    outer loop
       vertex -0.209179 -0.125 0.1
       vertex -0.223643 -0.095671 0.1
       vertex -0.223643 -0.095671 0
    endloop
  endfacet
  facet normal -0.831476 -0.555561 0
    outer loop
       vertex -0.209179 -0.125 0
       vertex -0.191011 -0.152191 0
       vertex -0.191011 -0.152191 0.1
    endloop
  endfacet
  facet normal -0.831476 -0.555561 0
    outer loop
       vertex -0.191011 -0.152191 0.1
       vertex -0.209179 -0.125 0.1
       vertex -0.209179 -0.125 0
    endloop
  endfacet
  facet normal -0.751817 -0.659372 0
    outer loop
       vertex -0.191011 -0.152191 0
       vertex -0.169449 -0.176776 0
       vertex -0.169449 -0.176776 0.1
    endloop
  endfacet
  facet normal -0.751817 -0.659372 0
    outer loop
       vertex -0.169449 -0.176776 0.1
       vertex -0.191011 -0.152191 0.1
       vertex -0.191011 -0.152191 0
    endloop
  endfacet
  facet normal 0.659372 -0.751817 0
    outer loop
       vertex 0.184103 -0.176776 0
       vertex 0.184103 -0.176776 0.1
       vertex 0.159518 -0.198338 0.1
    endloop
  endfacet
  facet normal 0.659372 -0.751817 0
    outer loop
       vertex 0.159518 -0.198338 0.1
       vertex 0.159518 -0.198338 0
       vertex 0.184103 -0.176776 0
    endloop
  endfacet
  facet normal 0.555561 -0.831476 0
    outer loop
       vertex 0.159518 -0.198338 0
       vertex 0.159518 -0.198338 0.1
       vertex 0.132327 -0.216506 0.1
    endloop
  endfacet
  facet normal 0.555561 -0.831476 0
    outer loop
       vertex 0.132327 -0.216506 0.1
       vertex 0.132327 -0.216506 0
       vertex 0.159518 -0.198338 0
    endloop
  endfacet
  facet normal 0.442302 -0.896866 0
    outer loop
       vertex 0.132327 -0.216506 0
       vertex 0.132327 -0.216506 0.1
       vertex 0.102998 -0.23097 0.1
    endloop
  endfacet
  facet normal 0.442302 -0.896866 0
    outer loop
       vertex 0.102998 -0.23097 0.1
       vertex 0.102998 -0.23097 0
       vertex 0.132327 -0.216506 0
    endloop
  endfacet
  facet normal 0.321425 -0.946935 0
    outer loop
       vertex 0.102998 -0.23097 0
       vertex 0.102998 -0.23097 0.1
       vertex 0.0720318 -0.241481 0.1
    endloop
  endfacet
  facet normal 0.321425 -0.946935 0
    outer loop
       vertex 0.0720318 -0.241481 0.1
       vertex 0.0720318 -0.241481 0
       vertex 0.102998 -0.23097 0
    endloop
  endfacet
  facet normal 0.195096 -0.980784 0
    outer loop
       vertex 0.0720318 -0.241481 0
       vertex 0.0720318 -0.241481 0.1
       vertex 0.0399583 -0.247861 0.1
    endloop
  endfacet
  facet normal 0.195096 -0.980784 0
    outer loop
       vertex 0.0399583 -0.247861 0.1
       vertex 0.0399583 -0.247861 0
       vertex 0.0720318 -0.241481 0
    endloop
  endfacet
  facet normal 0.0654098 -0.997858 0
    outer loop
       vertex 0.00732683 -0.25 0
       vertex 0.0399583 -0.247861 0
       vertex 0.0399583 -0.247861 0.1
    endloop
  endfacet
  facet normal 0.0654098 -0.997858 1.0893e-16
    outer loop
       vertex 0.0399583 -0.247861 0.1
       vertex 0.00732683 -0.25 0.1
       vertex 0.00732683 -0.25 0
    endloop
  endfacet
  facet normal -0.0654098 -0.997858 0
    outer loop
       vertex 0.00732683 -0.25 0.1
       vertex -0.0253047 -0.247861 0.1
       vertex -0.0253047 -0.247861 0
    endloop
  endfacet
  facet normal -0.0654098 -0.997858 -1.0893e-16
    outer loop
       vertex -0.0253047 -0.247861 0
       vertex 0.00732683 -0.25 0
       vertex 0.00732683 -0.25 0.1
    endloop
  endfacet
  facet normal -0.195096 -0.980784 0
    outer loop
       vertex -0.0253047 -0.247861 0
       vertex -0.0253047 -0.247861 0.1
       vertex -0.0573782 -0.241481 0.1
    endloop
  endfacet
  facet normal -0.195096 -0.980784 -0
    outer loop
       vertex -0.0573782 -0.241481 0.1
       vertex -0.0573782 -0.241481 0
       vertex -0.0253047 -0.247861 0
    endloop
  endfacet
  facet normal -0.321425 -0.946935 0
    outer loop
       vertex -0.0573782 -0.241481 0
       vertex -0.0573782 -0.241481 0.1
       vertex -0.0883442 -0.23097 0.1
    endloop
  endfacet
  facet normal -0.321425 -0.946935 -0
    outer loop
       vertex -0.0883442 -0.23097 0.1
       vertex -0.0883442 -0.23097 0
       vertex -0.0573782 -0.241481 0
    endloop
  endfacet
  facet normal -0.442302 -0.896866 0
    outer loop
       vertex -0.0883442 -0.23097 0
       vertex -0.0883442 -0.23097 0.1
       vertex -0.117673 -0.216506 0.1
    endloop
  endfacet
  facet normal -0.442302 -0.896866 -0
    outer loop
       vertex -0.117673 -0.216506 0.1
       vertex -0.117673 -0.216506 0
       vertex -0.0883442 -0.23097 0
    endloop
  endfacet
  facet normal -0.555561 -0.831476 0
    outer loop
       vertex -0.117673 -0.216506 0
       vertex -0.117673 -0.216506 0.1
       vertex -0.144864 -0.198338 0.1
    endloop
  endfacet
  facet normal -0.555561 -0.831476 -0
    outer loop
       vertex -0.144864 -0.198338 0.1
       vertex -0.144864 -0.198338 0
       vertex -0.117673 -0.216506 0
    endloop
  endfacet
  facet normal -0.659372 -0.751817 0
    outer loop
       vertex -0.144864 -0.198338 0
       vertex -0.144864 -0.198338 0.1
       vertex -0.169449 -0.176776 0.1
    endloop
  endfacet
  facet normal -0.659372 -0.751817 -0
    outer loop
       vertex -0.169449 -0.176776 0.1
       vertex -0.169449 -0.176776 0
       vertex -0.144864 -0.198338 0
    endloop
  endfacet
endsolid cylinder
