solid cylinder
  facet normal 0.751817 -0.659372 0
    outer loop
       vertex 0.234957 -0.176776 0
       vertex 0.256519 -0.152191 0
       vertex 0.256519 -0.152191 0.1
    endloop
  endfacet
  facet normal 0.751817 -0.659372 0
    outer loop
       vertex 0.256519 -0.152191 0.1
       vertex 0.234957 -0.176776 0.1
       vertex 0.234957 -0.176776 0
    endloop
  endfacet
  facet normal 0.831476 -0.555561 0
    outer loop
       vertex 0.256519 -0.152191 0
       vertex 0.274687 -0.125 0
       vertex 0.274687 -0.125 0.1
    endloop
  endfacet
  facet normal 0.831476 -0.555561 0
    outer loop
       vertex 0.274687 -0.125 0.1
       vertex 0.256519 -0.152191 0.1
       vertex 0.256519 -0.152191 0
    endloop
  endfacet
  facet normal 0.896866 -0.442302 0
    outer loop
       vertex 0.274687 -0.125 0
       vertex 0.289151 -0.095671 0
       vertex 0.289151 -0.095671 0.1
    endloop
  endfacet
  facet normal 0.896866 -0.442302 0
    outer loop
       vertex 0.289151 -0.095671 0.1
       vertex 0.274687 -0.125 0.1
       vertex 0.274687 -0.125 0
    endloop
  endfacet
  facet normal 0.946935 -0.321425 0
    outer loop
       vertex 0.289151 -0.095671 0
       vertex 0.299662 -0.064705 0
       vertex 0.299662 -0.064705 0.1
    endloop
  endfacet
  facet normal 0.946935 -0.321425 0
    outer loop
       vertex 0.299662 -0.064705 0.1
       vertex 0.289151 -0.095671 0.1
       vertex 0.289151 -0.095671 0
    endloop
  endfacet
  facet normal 0.980784 -0.195096 0
    outer loop
       vertex 0.299662 -0.064705 0
       vertex 0.306042 -0.0326315 0
       vertex 0.306042 -0.0326315 0.1
    endloop
  endfacet
  facet normal 0.980784 -0.195096 0
    outer loop
       vertex 0.306042 -0.0326315 0.1
       vertex 0.299662 -0.064705 0.1
       vertex 0.299662 -0.064705 0
    endloop
  endfacet
  facet normal 0.997858 -0.0654098 0
    outer loop
       vertex 0.308181 -8.32665e-17 0.1
       vertex 0.306042 -0.0326315 0.1
       vertex 0.306042 -0.0326315 0
    endloop
  endfacet
  facet normal 0.997858 -0.0654098 -1.08928e-16
    outer loop
       vertex 0.306042 -0.0326315 0
       vertex 0.308181 8.32665e-17 0
       vertex 0.308181 -8.32665e-17 0.1
    endloop
  endfacet
  facet normal 0.997858 0.0654098 0
    outer loop
       vertex 0.308181 8.32665e-17 0
       vertex 0.306042 0.0326315 0
       vertex 0.306042 0.0326315 0.1
    endloop
  endfacet
  facet normal 0.997858 0.0654098 1.08928e-16
    outer loop
       vertex 0.306042 0.0326315 0.1
       vertex 0.308181 -8.32665e-17 0.1
       vertex 0.308181 8.32665e-17 0
    endloop
  endfacet
  facet normal 0.980784 0.195096 0
    outer loop
       vertex 0.306042 0.0326315 0
       vertex 0.299662 0.064705 0
       vertex 0.299662 0.064705 0.1
    endloop
  endfacet
  facet normal 0.980784 0.195096 0
    outer loop
       vertex 0.299662 0.064705 0.1
       vertex 0.306042 0.0326315 0.1
       vertex 0.306042 0.0326315 0
    endloop
  endfacet
  facet normal 0.946935 0.321425 0
    outer loop
       vertex 0.299662 0.064705 0
       vertex 0.289151 0.095671 0
       vertex 0.289151 0.095671 0.1
    endloop
  endfacet
  facet normal 0.946935 0.321425 0
    outer loop
       vertex 0.289151 0.095671 0.1
       vertex 0.299662 0.064705 0.1
       vertex 0.299662 0.064705 0
    endloop
  endfacet
  facet normal 0.896866 0.442302 0
    outer loop
       vertex 0.289151 0.095671 0
       vertex 0.274687 0.125 0
       vertex 0.274687 0.125 0.1
    endloop
  endfacet
  facet normal 0.896866 0.442302 0
    outer loop
       vertex 0.274687 0.125 0.1
       vertex 0.289151 0.095671 0.1
       vertex 0.289151 0.095671 0
    endloop
  endfacet
  facet normal 0.831476 0.555561 0
    outer loop
       vertex 0.274687 0.125 0
       vertex 0.256519 0.152191 0
       vertex 0.256519 0.152191 0.1
    endloop
  endfacet
  facet normal 0.831476 0.555561 0
    outer loop
       vertex 0.256519 0.152191 0.1
       vertex 0.274687 0.125 0.1
       vertex 0.274687 0.125 0
    endloop
  endfacet
  facet normal 0.751817 0.659372 0
    outer loop
       vertex 0.256519 0.152191 0
       vertex 0.234957 0.176776 0
       vertex 0.234957 0.176776 0.1
    endloop
  endfacet
  facet normal 0.751817 0.659372 0
    outer loop
       vertex 0.234957 0.176776 0.1
       vertex 0.256519 0.152191 0.1
       vertex 0.256519 0.152191 0
    endloop
  endfacet
  facet normal 0.659372 0.751817 0
    outer loop
       vertex 0.234957 0.176776 0
       vertex 0.210372 0.198338 0
       vertex 0.210372 0.198338 0.1
    endloop
  endfacet
  facet normal 0.659372 0.751817 0
    outer loop
       vertex 0.210372 0.198338 0.1
       vertex 0.234957 0.176776 0.1
       vertex 0.234957 0.176776 0
    endloop
  endfacet
  facet normal 0.555561 0.831476 0
    outer loop
       vertex 0.210372 0.198338 0
       vertex 0.183181 0.216506 0
       vertex 0.183181 0.216506 0.1
    endloop
  endfacet
  facet normal 0.555561 0.831476 0
    outer loop
       vertex 0.183181 0.216506 0.1
       vertex 0.210372 0.198338 0.1
       vertex 0.210372 0.198338 0
    endloop
  endfacet
  facet normal 0.442302 0.896866 0
    outer loop
       vertex 0.183181 0.216506 0
       vertex 0.153852 0.23097 0
       vertex 0.153852 0.23097 0.1
    endloop
  endfacet
  facet normal 0.442302 0.896866 0
    outer loop
       vertex 0.153852 0.23097 0.1
       vertex 0.183181 0.216506 0.1
       vertex 0.183181 0.216506 0
    endloop
  endfacet
  facet normal 0.321425 0.946935 0
    outer loop
       vertex 0.153852 0.23097 0
       vertex 0.122886 0.241481 0
       vertex 0.122886 0.241481 0.1
    endloop
  endfacet
  facet normal 0.321425 0.946935 0
    outer loop
       vertex 0.122886 0.241481 0.1
       vertex 0.153852 0.23097 0.1
       vertex 0.153852 0.23097 0
    endloop
  endfacet
  facet normal 0.195096 0.980784 0
    outer loop
       vertex 0.122886 0.241481 0
       vertex 0.0908123 0.247861 0
       vertex 0.0908123 0.247861 0.1
    endloop
  endfacet
  facet normal 0.195096 0.980784 0
    outer loop
       vertex 0.0908123 0.247861 0.1
       vertex 0.122886 0.241481 0.1
       vertex 0.122886 0.241481 0
    endloop
  endfacet
  facet normal 0.0654098 0.997858 0
    outer loop
       vertex 0.0581808 0.25 0.1
       vertex 0.0908123 0.247861 0.1
       vertex 0.0908123 0.247861 0
    endloop
  endfacet
  facet normal 0.0654098 0.997858 -1.08928e-16
    outer loop
       vertex 0.0908123 0.247861 0
       vertex 0.0581808 0.25 0
       vertex 0.0581808 0.25 0.1
    endloop
  endfacet
  facet normal -0.0654098 0.997858 0
    outer loop
       vertex 0.0581808 0.25 0
       vertex 0.0255493 0.247861 0
       vertex 0.0255493 0.247861 0.1
    endloop
  endfacet
  facet normal -0.0654098 0.997858 1.08928e-16
    outer loop
       vertex 0.0255493 0.247861 0.1
       vertex 0.0581808 0.25 0.1
       vertex 0.0581808 0.25 0
    endloop
  endfacet
  facet normal -0.195096 0.980784 0
    outer loop
       vertex 0.0255493 0.247861 0
       vertex -0.00652425 0.241481 0
       vertex -0.00652425 0.241481 0.1
    endloop
  endfacet
  facet normal -0.195096 0.980784 0
    outer loop
       vertex -0.00652425 0.241481 0.1
       vertex 0.0255493 0.247861 0.1
       vertex 0.0255493 0.247861 0
    endloop
  endfacet
  facet normal -0.321425 0.946935 0
    outer loop
       vertex -0.00652425 0.241481 0
       vertex -0.0374902 0.23097 0
       vertex -0.0374902 0.23097 0.1
    endloop
  endfacet
  facet normal -0.321425 0.946935 0
    outer loop
       vertex -0.0374902 0.23097 0.1
       vertex -0.00652425 0.241481 0.1
       vertex -0.00652425 0.241481 0
    endloop
  endfacet
  facet normal -0.442302 0.896866 0
    outer loop
       vertex -0.0374902 0.23097 0
       vertex -0.0668192 0.216506 0
       vertex -0.0668192 0.216506 0.1
    endloop
  endfacet
  facet normal -0.442302 0.896866 0
    outer loop
       vertex -0.0668192 0.216506 0.1
       vertex -0.0374902 0.23097 0.1
       vertex -0.0374902 0.23097 0
    endloop
  endfacet
  facet normal -0.555561 0.831476 0
    outer loop
       vertex -0.0668192 0.216506 0
       vertex -0.0940102 0.198338 0
       vertex -0.0940102 0.198338 0.1
    endloop
  endfacet
  facet normal -0.555561 0.831476 0
    outer loop
       vertex -0.0940102 0.198338 0.1
       vertex -0.0668192 0.216506 0.1
       vertex -0.0668192 0.216506 0
    endloop
  endfacet
  facet normal -0.659372 0.751817 0
    outer loop
       vertex -0.0940102 0.198338 0
       vertex -0.118595 0.176776 0
       vertex -0.118595 0.176776 0.1
    endloop
  endfacet
  facet normal -0.659372 0.751817 0
    outer loop
       vertex -0.118595 0.176776 0.1
       vertex -0.0940102 0.198338 0.1
       vertex -0.0940102 0.198338 0
    endloop
  endfacet
  facet normal -0.751817 0.659372 0
    outer loop
       vertex -0.118595 0.176776 0
       vertex -0.140157 0.152191 0
       vertex -0.140157 0.152191 0.1
    endloop
  endfacet
  facet normal -0.751817 0.659372 0
    outer loop
       vertex -0.140157 0.152191 0.1
       vertex -0.118595 0.176776 0.1
       vertex -0.118595 0.176776 0
    endloop
  endfacet
  facet normal -0.831476 0.555561 0
    outer loop
       vertex -0.140157 0.152191 0
       vertex -0.158325 0.125 0
       vertex -0.158325 0.125 0.1
    endloop
  endfacet
  facet normal -0.831476 0.555561 0
    outer loop
       vertex -0.158325 0.125 0.1
       vertex -0.140157 0.152191 0.1
       vertex -0.140157 0.152191 0
    endloop
  endfacet
  facet normal -0.896866 0.442302 0
    outer loop
       vertex -0.158325 0.125 0
       vertex -0.172789 0.095671 0
       vertex -0.172789 0.095671 0.1
    endloop
  endfacet
  facet normal -0.896866 0.442302 0
    outer loop
       vertex -0.172789 0.095671 0.1
       vertex -0.158325 0.125 0.1
       vertex -0.158325 0.125 0
    endloop
  endfacet
  facet normal -0.946935 0.321425 0
    outer loop
       vertex -0.172789 0.095671 0
       vertex -0.1833 0.064705 0
       vertex -0.1833 0.064705 0.1
    endloop
  endfacet
  facet normal -0.946935 0.321425 0
    outer loop
       vertex -0.1833 0.064705 0.1
       vertex -0.172789 0.095671 0.1
       vertex -0.172789 0.095671 0
    endloop
  endfacet
  facet normal -0.980784 0.195096 0
    outer loop
       vertex -0.1833 0.064705 0
       vertex -0.18968 0.0326315 0
       vertex -0.18968 0.0326315 0.1
    endloop
  endfacet
  facet normal -0.980784 0.195096 0
    outer loop
       vertex -0.18968 0.0326315 0.1
       vertex -0.1833 0.064705 0.1
       vertex -0.1833 0.064705 0
    endloop
  endfacet
  facet normal -0.997858 0.0654098 0
    outer loop
       vertex -0.191819 8.32665e-17 0.1
       vertex -0.18968 0.0326315 0.1
       vertex -0.18968 0.0326315 0
    endloop
  endfacet
  facet normal -0.997858 0.0654098 -1.08928e-16
    outer loop
       vertex -0.18968 0.0326315 0
       vertex -0.191819 -8.32665e-17 0
       vertex -0.191819 8.32665e-17 0.1
    endloop
  endfacet
  facet normal -0.997858 -0.0654098 0
    outer loop
       vertex -0.191819 -8.32665e-17 0
       vertex -0.18968 -0.0326315 0
       vertex -0.18968 -0.0326315 0.1
    endloop
  endfacet
  facet normal -0.997858 -0.0654098 1.08928e-16
    outer loop
       vertex -0.18968 -0.0326315 0.1
       vertex -0.191819 8.32665e-17 0.1
       vertex -0.191819 -8.32665e-17 0
    endloop
  endfacet
  facet normal -0.980784 -0.195096 0
    outer loop
       vertex -0.18968 -0.0326315 0
       vertex -0.1833 -0.064705 0
       vertex -0.1833 -0.064705 0.1
    endloop
  endfacet
  facet normal -0.980784 -0.195096 0
    outer loop
       vertex -0.1833 -0.064705 0.1
       vertex -0.18968 -0.0326315 0.1
       vertex -0.18968 -0.0326315 0
    endloop
  endfacet
  facet normal -0.946935 -0.321425 0
    outer loop
       vertex -0.1833 -0.064705 0
       vertex -0.172789 -0.095671 0
       vertex -0.172789 -0.095671 0.1
    endloop
  endfacet
  facet normal -0.946935 -0.321425 0
    outer loop
       vertex -0.172789 -0.095671 0.1
       vertex -0.1833 -0.064705 0.1
       vertex -0.1833 -0.064705 0
    endloop
  endfacet
  facet normal -0.896866 -0.442302 0
    outer loop
       vertex -0.172789 -0.095671 0
       vertex -0.158325 -0.125 0
       vertex -0.158325 -0.125 0.1
    endloop
  endfacet
  facet normal -0.896866 -0.442302 0
    outer loop
       vertex -0.158325 -0.125 0.1
       vertex -0.172789 -0.095671 0.1
       vertex -0.172789 -0.095671 0
    endloop
  endfacet
  facet normal -0.831476 -0.555561 0
    outer loop
       vertex -0.158325 -0.125 0
       vertex -0.140157 -0.152191 0
       vertex -0.140157 -0.152191 0.1
    endloop
  endfacet
  facet normal -0.831476 -0.555561 0
    outer loop
       vertex -0.140157 -0.152191 0.1
       vertex -0.158325 -0.125 0.1
       vertex -0.158325 -0.125 0
    endloop
  endfacet
  facet normal -0.751817 -0.659372 0
    outer loop
       vertex -0.140157 -0.152191 0
       vertex -0.118595 -0.176776 0
       vertex -0.118595 -0.176776 0.1
    endloop
  endfacet
  facet normal -0.751817 -0.659372 0
    outer loop
       vertex -0.118595 -0.176776 0.1
       vertex -0.140157 -0.152191 0.1
       vertex -0.140157 -0.152191 0
    endloop
  endfacet
  facet normal 0.659372 -0.751817 0
    outer loop
       vertex 0.234957 -0.176776 0
       vertex 0.234957 -0.176776 0.1
       vertex 0.210372 -0.198338 0.1
    endloop
  endfacet
  facet normal 0.659372 -0.751817 0
    outer loop
       vertex 0.210372 -0.198338 0.1
       vertex 0.210372 -0.198338 0
       vertex 0.234957 -0.176776 0
    endloop
  endfacet
  facet normal 0.555561 -0.831476 0
    outer loop
       vertex 0.210372 -0.198338 0
       vertex 0.210372 -0.198338 0.1
       vertex 0.183181 -0.216506 0.1
    endloop
  endfacet
  facet normal 0.555561 -0.831476 0
    outer loop
       vertex 0.183181 -0.216506 0.1
       vertex 0.183181 -0.216506 0
       vertex 0.210372 -0.198338 0
    endloop
  endfacet
  facet normal 0.442302 -0.896866 0
    outer loop
       vertex 0.183181 -0.216506 0
       vertex 0.183181 -0.216506 0.1
       vertex 0.153852 -0.23097 0.1
    endloop
  endfacet
  facet normal 0.442302 -0.896866 0
    outer loop
       vertex 0.153852 -0.23097 0.1
       vertex 0.153852 -0.23097 0
       vertex 0.183181 -0.216506 0
    endloop
  endfacet
  facet normal 0.321425 -0.946935 0
    outer loop
       vertex 0.153852 -0.23097 0
       vertex 0.153852 -0.23097 0.1
       vertex 0.122886 -0.241481 0.1
    endloop
  endfacet
  facet normal 0.321425 -0.946935 0
    outer loop
       vertex 0.122886 -0.241481 0.1
       vertex 0.122886 -0.241481 0
       vertex 0.153852 -0.23097 0
    endloop
  endfacet
  facet normal 0.195096 -0.980784 0
    outer loop
       vertex 0.122886 -0.241481 0
       vertex 0.122886 -0.241481 0.1
       vertex 0.0908123 -0.247861 0.1
    endloop
  endfacet
  facet normal 0.195096 -0.980784 0
    outer loop
       vertex 0.0908123 -0.247861 0.1
       vertex 0.0908123 -0.247861 0
       vertex 0.122886 -0.241481 0
    endloop
  endfacet
  facet normal 0.0654098 -0.997858 0
    outer loop
       vertex 0.0581808 -0.25 0
       vertex 0.0908123 -0.247861 0
       vertex 0.0908123 -0.247861 0.1
    endloop
  endfacet
  facet normal 0.0654098 -0.997858 1.08928e-16
    outer loop
       vertex 0.0908123 -0.247861 0.1
       vertex 0.0581808 -0.25 0.1
       vertex 0.0581808 -0.25 0
    endloop
  endfacet
  facet normal -0.0654098 -0.997858 0
    outer loop
       vertex 0.0581808 -0.25 0.1
       vertex 0.0255493 -0.247861 0.1
       vertex 0.0255493 -0.247861 0
    endloop
  endfacet
  facet normal -0.0654098 -0.997858 -1.08928e-16
    outer loop
       vertex 0.0255493 -0.247861 0
       vertex 0.0581808 -0.25 0
       vertex 0.0581808 -0.25 0.1
    endloop
  endfacet
  facet normal -0.195096 -0.980784 0
    outer loop
       vertex 0.0255493 -0.247861 0
       vertex 0.0255493 -0.247861 0.1
       vertex -0.00652425 -0.241481 0.1
    endloop
  endfacet
  facet normal -0.195096 -0.980784 -0
    outer loop
       vertex -0.00652425 -0.241481 0.1
       vertex -0.00652425 -0.241481 0
       vertex 0.0255493 -0.247861 0
    endloop
  endfacet
  facet normal -0.321425 -0.946935 0
    outer loop
       vertex -0.00652425 -0.241481 0
       vertex -0.00652425 -0.241481 0.1
       vertex -0.0374902 -0.23097 0.1
    endloop
  endfacet
  facet normal -0.321425 -0.946935 -0
    outer loop
       vertex -0.0374902 -0.23097 0.1
       vertex -0.0374902 -0.23097 0
       vertex -0.00652425 -0.241481 0
    endloop
  endfacet
  facet normal -0.442302 -0.896866 0
    outer loop
       vertex -0.0374902 -0.23097 0
       vertex -0.0374902 -0.23097 0.1
       vertex -0.0668192 -0.216506 0.1
    endloop
  endfacet
  facet normal -0.442302 -0.896866 -0
    outer loop
       vertex -0.0668192 -0.216506 0.1
       vertex -0.0668192 -0.216506 0
       vertex -0.0374902 -0.23097 0
    endloop
  endfacet
  facet normal -0.555561 -0.831476 0
    outer loop
       vertex -0.0668192 -0.216506 0
       vertex -0.0668192 -0.216506 0.1
       vertex -0.0940102 -0.198338 0.1
    endloop
  endfacet
  facet normal -0.555561 -0.831476 -0
    outer loop
       vertex -0.0940102 -0.198338 0.1
       vertex -0.0940102 -0.198338 0
       vertex -0.0668192 -0.216506 0
    endloop
  endfacet
  facet normal -0.659372 -0.751817 0
    outer loop
       vertex -0.0940102 -0.198338 0
       vertex -0.0940102 -0.198338 0.1
       vertex -0.118595 -0.176776 0.1
    endloop
  endfacet
  facet normal -0.659372 -0.751817 -0
    outer loop
       vertex -0.118595 -0.176776 0.1
       vertex -0.118595 -0.176776 0
       vertex -0.0940102 -0.198338 0
    endloop
  endfacet
endsolid cylinder
