solid cylinder
  facet normal 0.751817 -0.659372 0
    outer loop
       vertex 0.298224 -0.176776 0
       vertex 0.319786 -0.152191 0
       vertex 0.319786 -0.152191 0.1
    endloop
  endfacet
  facet normal 0.751817 -0.659372 0
    outer loop
       vertex 0.319786 -0.152191 0.1
       vertex 0.298224 -0.176776 0.1
       vertex 0.298224 -0.176776 0
    endloop
  endfacet
  facet normal 0.831476 -0.555561 0
    outer loop
       vertex 0.319786 -0.152191 0
       vertex 0.337954 -0.125 0
       vertex 0.337954 -0.125 0.1
    endloop
  endfacet
  facet normal 0.831476 -0.555561 0
    outer loop
       vertex 0.337954 -0.125 0.1
       vertex 0.319786 -0.152191 0.1
       vertex 0.319786 -0.152191 0
    endloop
  endfacet
  facet normal 0.896866 -0.442302 0
    outer loop
       vertex 0.337954 -0.125 0
       vertex 0.352418 -0.095671 0
       vertex 0.352418 -0.095671 0.1
    endloop
  endfacet
  facet normal 0.896866 -0.442302 0
    outer loop
       vertex 0.352418 -0.095671 0.1
       vertex 0.337954 -0.125 0.1
       vertex 0.337954 -0.125 0
    endloop
  endfacet
  facet normal 0.946935 -0.321425 0
    outer loop
       vertex 0.352418 -0.095671 0
       vertex 0.362929 -0.064705 0
       vertex 0.362929 -0.064705 0.1
    endloop
  endfacet
  facet normal 0.946935 -0.321425 0
    outer loop
       vertex 0.362929 -0.064705 0.1
       vertex 0.352418 -0.095671 0.1
       vertex 0.352418 -0.095671 0
    endloop
  endfacet
  facet normal 0.980784 -0.195096 0
    outer loop
       vertex 0.362929 -0.064705 0
       vertex 0.369309 -0.0326315 0
       vertex 0.369309 -0.0326315 0.1
    endloop
  endfacet
  facet normal 0.980784 -0.195096 0
    outer loop
       vertex 0.369309 -0.0326315 0.1
       vertex 0.362929 -0.064705 0.1
       vertex 0.362929 -0.064705 0
    endloop
  endfacet
  facet normal 0.997858 -0.0654098 0
    outer loop
       vertex 0.371448 -8.32665e-17 0.1
       vertex 0.369309 -0.0326315 0.1
       vertex 0.369309 -0.0326315 0
    endloop
  endfacet
  facet normal 0.997858 -0.0654098 -1.08928e-16
    outer loop
       vertex 0.369309 -0.0326315 0
       vertex 0.371448 8.32665e-17 0
       vertex 0.371448 -8.32665e-17 0.1
    endloop
  endfacet
  facet normal 0.997858 0.0654098 0
    outer loop
       vertex 0.371448 8.32665e-17 0
       vertex 0.369309 0.0326315 0
       vertex 0.369309 0.0326315 0.1
    endloop
  endfacet
  facet normal 0.997858 0.0654098 1.08928e-16
    outer loop
       vertex 0.369309 0.0326315 0.1
       vertex 0.371448 -8.32665e-17 0.1
       vertex 0.371448 8.32665e-17 0
    endloop
  endfacet
  facet normal 0.980784 0.195096 0
    outer loop
       vertex 0.369309 0.0326315 0
       vertex 0.362929 0.064705 0
       vertex 0.362929 0.064705 0.1
    endloop
  endfacet
  facet normal 0.980784 0.195096 0
    outer loop
       vertex 0.362929 0.064705 0.1
       vertex 0.369309 0.0326315 0.1
       vertex 0.369309 0.0326315 0
    endloop
  endfacet
  facet normal 0.946935 0.321425 0
    outer loop
       vertex 0.362929 0.064705 0
       vertex 0.352418 0.095671 0
       vertex 0.352418 0.095671 0.1
    endloop
  endfacet
  facet normal 0.946935 0.321425 0
    outer loop
       vertex 0.352418 0.095671 0.1
       vertex 0.362929 0.064705 0.1
       vertex 0.362929 0.064705 0
    endloop
  endfacet
  facet normal 0.896866 0.442302 0
    outer loop
       vertex 0.352418 0.095671 0
       vertex 0.337954 0.125 0
       vertex 0.337954 0.125 0.1
    endloop
  endfacet
  facet normal 0.896866 0.442302 0
    outer loop
       vertex 0.337954 0.125 0.1
       vertex 0.352418 0.095671 0.1
       vertex 0.352418 0.095671 0
    endloop
  endfacet
  facet normal 0.831476 0.555561 0
    outer loop
       vertex 0.337954 0.125 0
       vertex 0.319786 0.152191 0
       vertex 0.319786 0.152191 0.1
    endloop
  endfacet
  facet normal 0.831476 0.555561 0
    outer loop
       vertex 0.319786 0.152191 0.1
       vertex 0.337954 0.125 0.1
       vertex 0.337954 0.125 0
    endloop
  endfacet
  facet normal 0.751817 0.659372 0
    outer loop
       vertex 0.319786 0.152191 0
       vertex 0.298224 0.176776 0
       vertex 0.298224 0.176776 0.1
    endloop
  endfacet
  facet normal 0.751817 0.659372 0
    outer loop
       vertex 0.298224 0.176776 0.1
       vertex 0.319786 0.152191 0.1
       vertex 0.319786 0.152191 0
    endloop
  endfacet
  facet normal 0.659372 0.751817 0
    outer loop
       vertex 0.298224 0.176776 0
       vertex 0.273639 0.198338 0
       vertex 0.273639 0.198338 0.1
    endloop
  endfacet
  facet normal 0.659372 0.751817 0
    outer loop
       vertex 0.273639 0.198338 0.1
       vertex 0.298224 0.176776 0.1
       vertex 0.298224 0.176776 0
    endloop
  endfacet
  facet normal 0.555561 0.831476 0
    outer loop
       vertex 0.273639 0.198338 0
       vertex 0.246448 0.216506 0
       vertex 0.246448 0.216506 0.1
    endloop
  endfacet
  facet normal 0.555561 0.831476 0
    outer loop
       vertex 0.246448 0.216506 0.1
       vertex 0.273639 0.198338 0.1
       vertex 0.273639 0.198338 0
    endloop
  endfacet
  facet normal 0.442302 0.896866 0
    outer loop
       vertex 0.246448 0.216506 0
       vertex 0.217119 0.23097 0
       vertex 0.217119 0.23097 0.1
    endloop
  endfacet
  facet normal 0.442302 0.896866 0
    outer loop
       vertex 0.217119 0.23097 0.1
       vertex 0.246448 0.216506 0.1
       vertex 0.246448 0.216506 0
    endloop
  endfacet
  facet normal 0.321425 0.946935 0
    outer loop
       vertex 0.217119 0.23097 0
       vertex 0.186153 0.241481 0
       vertex 0.186153 0.241481 0.1
    endloop
  endfacet
  facet normal 0.321425 0.946935 0
    outer loop
       vertex 0.186153 0.241481 0.1
       vertex 0.217119 0.23097 0.1
       vertex 0.217119 0.23097 0
    endloop
  endfacet
  facet normal 0.195096 0.980784 0
    outer loop
       vertex 0.186153 0.241481 0
       vertex 0.15408 0.247861 0
       vertex 0.15408 0.247861 0.1
    endloop
  endfacet
  facet normal 0.195096 0.980784 0
    outer loop
       vertex 0.15408 0.247861 0.1
       vertex 0.186153 0.241481 0.1
       vertex 0.186153 0.241481 0
    endloop
  endfacet
  facet normal 0.0654098 0.997858 0
    outer loop
       vertex 0.121448 0.25 0.1
       vertex 0.15408 0.247861 0.1
       vertex 0.15408 0.247861 0
    endloop
  endfacet
  facet normal 0.0654098 0.997858 -1.0893e-16
    outer loop
       vertex 0.15408 0.247861 0
       vertex 0.121448 0.25 0
       vertex 0.121448 0.25 0.1
    endloop
  endfacet
  facet normal -0.0654098 0.997858 0
    outer loop
       vertex 0.121448 0.25 0
       vertex 0.0888165 0.247861 0
       vertex 0.0888165 0.247861 0.1
    endloop
  endfacet
  facet normal -0.0654098 0.997858 1.0893e-16
    outer loop
       vertex 0.0888165 0.247861 0.1
       vertex 0.121448 0.25 0.1
       vertex 0.121448 0.25 0
    endloop
  endfacet
  facet normal -0.195096 0.980784 0
    outer loop
       vertex 0.0888165 0.247861 0
       vertex 0.056743 0.241481 0
       vertex 0.056743 0.241481 0.1
    endloop
  endfacet
  facet normal -0.195096 0.980784 0
    outer loop
       vertex 0.056743 0.241481 0.1
       vertex 0.0888165 0.247861 0.1
       vertex 0.0888165 0.247861 0
    endloop
  endfacet
  facet normal -0.321425 0.946935 0
    outer loop
       vertex 0.056743 0.241481 0
       vertex 0.025777 0.23097 0
       vertex 0.025777 0.23097 0.1
    endloop
  endfacet
  facet normal -0.321425 0.946935 0
    outer loop
       vertex 0.025777 0.23097 0.1
       vertex 0.056743 0.241481 0.1
       vertex 0.056743 0.241481 0
    endloop
  endfacet
  facet normal -0.442302 0.896866 0
    outer loop
       vertex 0.025777 0.23097 0
       vertex -0.003552 0.216506 0
       vertex -0.003552 0.216506 0.1
    endloop
  endfacet
  facet normal -0.442302 0.896866 0
    outer loop
       vertex -0.003552 0.216506 0.1
       vertex 0.025777 0.23097 0.1
       vertex 0.025777 0.23097 0
    endloop
  endfacet
  facet normal -0.555561 0.831476 0
    outer loop
       vertex -0.003552 0.216506 0
       vertex -0.030743 0.198338 0
       vertex -0.030743 0.198338 0.1
    endloop
  endfacet
  facet normal -0.555561 0.831476 0
    outer loop
       vertex -0.030743 0.198338 0.1
       vertex -0.003552 0.216506 0.1
       vertex -0.003552 0.216506 0
    endloop
  endfacet
  facet normal -0.659372 0.751817 0
    outer loop
       vertex -0.030743 0.198338 0
       vertex -0.055328 0.176776 0
       vertex -0.055328 0.176776 0.1
    endloop
  endfacet
  facet normal -0.659372 0.751817 0
    outer loop
       vertex -0.055328 0.176776 0.1
       vertex -0.030743 0.198338 0.1
       vertex -0.030743 0.198338 0
    endloop
  endfacet
  facet normal -0.751817 0.659372 0
    outer loop
       vertex -0.055328 0.176776 0
       vertex -0.07689 0.152191 0
       vertex -0.07689 0.152191 0.1
    endloop
  endfacet
  facet normal -0.751817 0.659372 0
    outer loop
       vertex -0.07689 0.152191 0.1
       vertex -0.055328 0.176776 0.1
       vertex -0.055328 0.176776 0
    endloop
  endfacet
  facet normal -0.831476 0.555561 0
    outer loop
       vertex -0.07689 0.152191 0
       vertex -0.095058 0.125 0
       vertex -0.095058 0.125 0.1
    endloop
  endfacet
  facet normal -0.831476 0.555561 0
    outer loop
       vertex -0.095058 0.125 0.1
       vertex -0.07689 0.152191 0.1
       vertex -0.07689 0.152191 0
    endloop
  endfacet
  facet normal -0.896866 0.442302 0
    outer loop
       vertex -0.095058 0.125 0
       vertex -0.109522 0.095671 0
       vertex -0.109522 0.095671 0.1
    endloop
  endfacet
  facet normal -0.896866 0.442302 0
    outer loop
       vertex -0.109522 0.095671 0.1
       vertex -0.095058 0.125 0.1
       vertex -0.095058 0.125 0
    endloop
  endfacet
  facet normal -0.946935 0.321425 0
    outer loop
       vertex -0.109522 0.095671 0
       vertex -0.120033 0.064705 0
       vertex -0.120033 0.064705 0.1
    endloop
  endfacet
  facet normal -0.946935 0.321425 0
    outer loop
       vertex -0.120033 0.064705 0.1
       vertex -0.109522 0.095671 0.1
       vertex -0.109522 0.095671 0
    endloop
  endfacet
  facet normal -0.980784 0.195096 0
    outer loop
       vertex -0.120033 0.064705 0
       vertex -0.126413 0.0326315 0
       vertex -0.126413 0.0326315 0.1
    endloop
  endfacet
  facet normal -0.980784 0.195096 0
    outer loop
       vertex -0.126413 0.0326315 0.1
       vertex -0.120033 0.064705 0.1
       vertex -0.120033 0.064705 0
    endloop
  endfacet
  facet normal -0.997858 0.0654098 0
    outer loop
       vertex -0.128552 8.32665e-17 0.1
       vertex -0.126413 0.0326315 0.1
       vertex -0.126413 0.0326315 0
    endloop
  endfacet
  facet normal -0.997858 0.0654098 -1.08928e-16
    outer loop
       vertex -0.126413 0.0326315 0
       vertex -0.128552 -8.32665e-17 0
       vertex -0.128552 8.32665e-17 0.1
    endloop
  endfacet
  facet normal -0.997858 -0.0654098 0
    outer loop
       vertex -0.128552 -8.32665e-17 0
       vertex -0.126413 -0.0326315 0
       vertex -0.126413 -0.0326315 0.1
    endloop
  endfacet
  facet normal -0.997858 -0.0654098 1.08928e-16
    outer loop
       vertex -0.126413 -0.0326315 0.1
       vertex -0.128552 8.32665e-17 0.1
       vertex -0.128552 -8.32665e-17 0
    endloop
  endfacet
  facet normal -0.980784 -0.195096 0
    outer loop
       vertex -0.126413 -0.0326315 0
       vertex -0.120033 -0.064705 0
       vertex -0.120033 -0.064705 0.1
    endloop
  endfacet
  facet normal -0.980784 -0.195096 0
    outer loop
       vertex -0.120033 -0.064705 0.1
       vertex -0.126413 -0.0326315 0.1
       vertex -0.126413 -0.0326315 0
    endloop
  endfacet
  facet normal -0.946935 -0.321425 0
    outer loop
       vertex -0.120033 -0.064705 0
       vertex -0.109522 -0.095671 0
       vertex -0.109522 -0.095671 0.1
    endloop
  endfacet
  facet normal -0.946935 -0.321425 0
    outer loop
       vertex -0.109522 -0.095671 0.1
       vertex -0.120033 -0.064705 0.1
       vertex -0.120033 -0.064705 0
    endloop
  endfacet
  facet normal -0.896866 -0.442302 0
    outer loop
       vertex -0.109522 -0.095671 0
       vertex -0.095058 -0.125 0
       vertex -0.095058 -0.125 0.1
    endloop
  endfacet
  facet normal -0.896866 -0.442302 0
    outer loop
       vertex -0.095058 -0.125 0.1
       vertex -0.109522 -0.095671 0.1
       vertex -0.109522 -0.095671 0
    endloop
  endfacet
  facet normal -0.831476 -0.555561 0
    outer loop
       vertex -0.095058 -0.125 0
       vertex -0.07689 -0.152191 0
       vertex -0.07689 -0.152191 0.1
    endloop
  endfacet
  facet normal -0.831476 -0.555561 0
    outer loop
       vertex -0.07689 -0.152191 0.1
       vertex -0.095058 -0.125 0.1
       vertex -0.095058 -0.125 0
    endloop
  endfacet
  facet normal -0.751817 -0.659372 0
    outer loop
       vertex -0.07689 -0.152191 0
       vertex -0.055328 -0.176776 0
       vertex -0.055328 -0.176776 0.1
    endloop
  endfacet
  facet normal -0.751817 -0.659372 0
    outer loop
       vertex -0.055328 -0.176776 0.1
       vertex -0.07689 -0.152191 0.1
       vertex -0.07689 -0.152191 0
    endloop
  endfacet
  facet normal 0.659372 -0.751817 0
    outer loop
       vertex 0.298224 -0.176776 0
       vertex 0.298224 -0.176776 0.1
       vertex 0.273639 -0.198338 0.1
    endloop
  endfacet
  facet normal 0.659372 -0.751817 0
    outer loop
       vertex 0.273639 -0.198338 0.1
       vertex 0.273639 -0.198338 0
       vertex 0.298224 -0.176776 0
    endloop
  endfacet
  facet normal 0.555561 -0.831476 0
    outer loop
       vertex 0.273639 -0.198338 0
       vertex 0.273639 -0.198338 0.1
       vertex 0.246448 -0.216506 0.1
    endloop
  endfacet
  facet normal 0.555561 -0.831476 0
    outer loop
       vertex 0.246448 -0.216506 0.1
       vertex 0.246448 -0.216506 0
       vertex 0.273639 -0.198338 0
    endloop
  endfacet
  facet normal 0.442302 -0.896866 0
    outer loop
       vertex 0.246448 -0.216506 0
       vertex 0.246448 -0.216506 0.1
       vertex 0.217119 -0.23097 0.1
    endloop
  endfacet
  facet normal 0.442302 -0.896866 0
    outer loop
       vertex 0.217119 -0.23097 0.1
       vertex 0.217119 -0.23097 0
       vertex 0.246448 -0.216506 0
    endloop
  endfacet
  facet normal 0.321425 -0.946935 0
    outer loop
       vertex 0.217119 -0.23097 0
       vertex 0.217119 -0.23097 0.1
       vertex 0.186153 -0.241481 0.1
    endloop
  endfacet
  facet normal 0.321425 -0.946935 0
    outer loop
       vertex 0.186153 -0.241481 0.1
       vertex 0.186153 -0.241481 0
       vertex 0.217119 -0.23097 0
    endloop
  endfacet
  facet normal 0.195096 -0.980784 0
    outer loop
       vertex 0.186153 -0.241481 0
       vertex 0.186153 -0.241481 0.1
       vertex 0.15408 -0.247861 0.1
    endloop
  endfacet
  facet normal 0.195096 -0.980784 0
    outer loop
       vertex 0.15408 -0.247861 0.1
       vertex 0.15408 -0.247861 0
       vertex 0.186153 -0.241481 0
    endloop
  endfacet
  facet normal 0.0654098 -0.997858 0
    outer loop
       vertex 0.121448 -0.25 0
       vertex 0.15408 -0.247861 0
       vertex 0.15408 -0.247861 0.1
    endloop
  endfacet
  facet normal 0.0654098 -0.997858 1.0893e-16
    outer loop
       vertex 0.15408 -0.247861 0.1
       vertex 0.121448 -0.25 0.1
       vertex 0.121448 -0.25 0
    endloop
  endfacet
  facet normal -0.0654098 -0.997858 0
    outer loop
       vertex 0.121448 -0.25 0.1
       vertex 0.0888165 -0.247861 0.1
       vertex 0.0888165 -0.247861 0
    endloop
  endfacet
  facet normal -0.0654098 -0.997858 -1.0893e-16
    outer loop
       vertex 0.0888165 -0.247861 0
       vertex 0.121448 -0.25 0
       vertex 0.121448 -0.25 0.1
    endloop
  endfacet
  facet normal -0.195096 -0.980784 0
    outer loop
       vertex 0.0888165 -0.247861 0
       vertex 0.0888165 -0.247861 0.1
       vertex 0.056743 -0.241481 0.1
    endloop
  endfacet
  facet normal -0.195096 -0.980784 -0
    outer loop
       vertex 0.056743 -0.241481 0.1
       vertex 0.056743 -0.241481 0
       vertex 0.0888165 -0.247861 0
    endloop
  endfacet
  facet normal -0.321425 -0.946935 0
    outer loop
       vertex 0.056743 -0.241481 0
       vertex 0.056743 -0.241481 0.1
       vertex 0.025777 -0.23097 0.1
    endloop
  endfacet
  facet normal -0.321425 -0.946935 -0
    outer loop
       vertex 0.025777 -0.23097 0.1
       vertex 0.025777 -0.23097 0
       vertex 0.056743 -0.241481 0
    endloop
  endfacet
  facet normal -0.442302 -0.896866 0
    outer loop
       vertex 0.025777 -0.23097 0
       vertex 0.025777 -0.23097 0.1
       vertex -0.003552 -0.216506 0.1
    endloop
  endfacet
  facet normal -0.442302 -0.896866 -0
    outer loop
       vertex -0.003552 -0.216506 0.1
       vertex -0.003552 -0.216506 0
       vertex 0.025777 -0.23097 0
    endloop
  endfacet
  facet normal -0.555561 -0.831476 0
    outer loop
       vertex -0.003552 -0.216506 0
       vertex -0.003552 -0.216506 0.1
       vertex -0.030743 -0.198338 0.1
    endloop
  endfacet
  facet normal -0.555561 -0.831476 -0
    outer loop
       vertex -0.030743 -0.198338 0.1
       vertex -0.030743 -0.198338 0
       vertex -0.003552 -0.216506 0
    endloop
  endfacet
  facet normal -0.659372 -0.751817 0
    outer loop
       vertex -0.030743 -0.198338 0
       vertex -0.030743 -0.198338 0.1
       vertex -0.055328 -0.176776 0.1
    endloop
  endfacet
  facet normal -0.659372 -0.751817 -0
    outer loop
       vertex -0.055328 -0.176776 0.1
       vertex -0.055328 -0.176776 0
       vertex -0.030743 -0.198338 0
    endloop
  endfacet
endsolid cylinder
