solid cylinder
  facet normal 0.751817 -0.659372 0
    outer loop
       vertex 0.0428705 -0.176776 0
       vertex 0.0644325 -0.152191 0
       vertex 0.0644325 -0.152191 0.1
    endloop
  endfacet
  facet normal 0.751817 -0.659372 0
    outer loop
       vertex 0.0644325 -0.152191 0.1
       vertex 0.0428705 -0.176776 0.1
       vertex 0.0428705 -0.176776 0
    endloop
  endfacet
  facet normal 0.831476 -0.555561 0
    outer loop
       vertex 0.0644325 -0.152191 0
       vertex 0.0826005 -0.125 0
       vertex 0.0826005 -0.125 0.1
    endloop
  endfacet
  facet normal 0.831476 -0.555561 0
    outer loop
       vertex 0.0826005 -0.125 0.1
       vertex 0.0644325 -0.152191 0.1
       vertex 0.0644325 -0.152191 0
    endloop
  endfacet
  facet normal 0.896866 -0.442302 0
    outer loop
       vertex 0.0826005 -0.125 0
       vertex 0.0970645 -0.095671 0
       vertex 0.0970645 -0.095671 0.1
    endloop
  endfacet
  facet normal 0.896866 -0.442302 0
    outer loop
       vertex 0.0970645 -0.095671 0.1
       vertex 0.0826005 -0.125 0.1
       vertex 0.0826005 -0.125 0
    endloop
  endfacet
  facet normal 0.946935 -0.321425 0
    outer loop
       vertex 0.0970645 -0.095671 0
       vertex 0.107575 -0.064705 0
       vertex 0.107575 -0.064705 0.1
    endloop
  endfacet
  facet normal 0.946935 -0.321425 0
    outer loop
       vertex 0.107575 -0.064705 0.1
       vertex 0.0970645 -0.095671 0.1
       vertex 0.0970645 -0.095671 0
    endloop
  endfacet
  facet normal 0.980784 -0.195096 0
    outer loop
       vertex 0.107575 -0.064705 0
       vertex 0.113955 -0.0326315 0
       vertex 0.113955 -0.0326315 0.1
    endloop
  endfacet
  facet normal 0.980784 -0.195096 0
    outer loop
       vertex 0.113955 -0.0326315 0.1
       vertex 0.107575 -0.064705 0.1
       vertex 0.107575 -0.064705 0
    endloop
  endfacet
  facet normal 0.997858 -0.0654098 0
    outer loop
       vertex 0.116094 -8.32665e-17 0.1
       vertex 0.113955 -0.0326315 0.1
       vertex 0.113955 -0.0326315 0
    endloop
  endfacet
  facet normal 0.997858 -0.0654098 -1.08928e-16
    outer loop
       vertex 0.113955 -0.0326315 0
       vertex 0.116094 8.32665e-17 0
       vertex 0.116094 -8.32665e-17 0.1
    endloop
  endfacet
  facet normal 0.997858 0.0654098 0
    outer loop
       vertex 0.116094 8.32665e-17 0
       vertex 0.113955 0.0326315 0
       vertex 0.113955 0.0326315 0.1
    endloop
  endfacet
  facet normal 0.997858 0.0654098 1.08928e-16
    outer loop
       vertex 0.113955 0.0326315 0.1
       vertex 0.116094 -8.32665e-17 0.1
       vertex 0.116094 8.32665e-17 0
    endloop
  endfacet
  facet normal 0.980784 0.195096 0
    outer loop
       vertex 0.113955 0.0326315 0
       vertex 0.107575 0.064705 0
       vertex 0.107575 0.064705 0.1
    endloop
  endfacet
  facet normal 0.980784 0.195096 0
    outer loop
       vertex 0.107575 0.064705 0.1
       vertex 0.113955 0.0326315 0.1
       vertex 0.113955 0.0326315 0
    endloop
  endfacet
  facet normal 0.946935 0.321425 0
    outer loop
       vertex 0.107575 0.064705 0
       vertex 0.0970645 0.095671 0
       vertex 0.0970645 0.095671 0.1
    endloop
  endfacet
  facet normal 0.946935 0.321425 0
    outer loop
       vertex 0.0970645 0.095671 0.1
       vertex 0.107575 0.064705 0.1
       vertex 0.107575 0.064705 0
    endloop
  endfacet
  facet normal 0.896866 0.442302 0
    outer loop
       vertex 0.0970645 0.095671 0
       vertex 0.0826005 0.125 0
       vertex 0.0826005 0.125 0.1
    endloop
  endfacet
  facet normal 0.896866 0.442302 0
    outer loop
       vertex 0.0826005 0.125 0.1
       vertex 0.0970645 0.095671 0.1
       vertex 0.0970645 0.095671 0
    endloop
  endfacet
  facet normal 0.831476 0.555561 0
    outer loop
       vertex 0.0826005 0.125 0
       vertex 0.0644325 0.152191 0
       vertex 0.0644325 0.152191 0.1
    endloop
  endfacet
  facet normal 0.831476 0.555561 0
    outer loop
       vertex 0.0644325 0.152191 0.1
       vertex 0.0826005 0.125 0.1
       vertex 0.0826005 0.125 0
    endloop
  endfacet
  facet normal 0.751817 0.659372 0
    outer loop
       vertex 0.0644325 0.152191 0
       vertex 0.0428705 0.176776 0
       vertex 0.0428705 0.176776 0.1
    endloop
  endfacet
  facet normal 0.751817 0.659372 0
    outer loop
       vertex 0.0428705 0.176776 0.1
       vertex 0.0644325 0.152191 0.1
       vertex 0.0644325 0.152191 0
    endloop
  endfacet
  facet normal 0.659372 0.751817 0
    outer loop
       vertex 0.0428705 0.176776 0
       vertex 0.0182855 0.198338 0
       vertex 0.0182855 0.198338 0.1
    endloop
  endfacet
  facet normal 0.659372 0.751817 0
    outer loop
       vertex 0.0182855 0.198338 0.1
       vertex 0.0428705 0.176776 0.1
       vertex 0.0428705 0.176776 0
    endloop
  endfacet
  facet normal 0.555561 0.831476 0
    outer loop
       vertex 0.0182855 0.198338 0
       vertex -0.00890554 0.216506 0
       vertex -0.00890554 0.216506 0.1
    endloop
  endfacet
  facet normal 0.555561 0.831476 0
    outer loop
       vertex -0.00890554 0.216506 0.1
       vertex 0.0182855 0.198338 0.1
       vertex 0.0182855 0.198338 0
    endloop
  endfacet
  facet normal 0.442302 0.896866 0
    outer loop
       vertex -0.00890554 0.216506 0
       vertex -0.0382345 0.23097 0
       vertex -0.0382345 0.23097 0.1
    endloop
  endfacet
  facet normal 0.442302 0.896866 0
    outer loop
       vertex -0.0382345 0.23097 0.1
       vertex -0.00890554 0.216506 0.1
       vertex -0.00890554 0.216506 0
    endloop
  endfacet
  facet normal 0.321425 0.946935 0
    outer loop
       vertex -0.0382345 0.23097 0
       vertex -0.0692005 0.241481 0
       vertex -0.0692005 0.241481 0.1
    endloop
  endfacet
  facet normal 0.321425 0.946935 0
    outer loop
       vertex -0.0692005 0.241481 0.1
       vertex -0.0382345 0.23097 0.1
       vertex -0.0382345 0.23097 0
    endloop
  endfacet
  facet normal 0.195096 0.980784 0
    outer loop
       vertex -0.0692005 0.241481 0
       vertex -0.101274 0.247861 0
       vertex -0.101274 0.247861 0.1
    endloop
  endfacet
  facet normal 0.195096 0.980784 0
    outer loop
       vertex -0.101274 0.247861 0.1
       vertex -0.0692005 0.241481 0.1
       vertex -0.0692005 0.241481 0
    endloop
  endfacet
  facet normal 0.0654098 0.997858 0
    outer loop
       vertex -0.133906 0.25 0.1
       vertex -0.101274 0.247861 0.1
       vertex -0.101274 0.247861 0
    endloop
  endfacet
  facet normal 0.0654098 0.997858 -1.0893e-16
    outer loop
       vertex -0.101274 0.247861 0
       vertex -0.133906 0.25 0
       vertex -0.133906 0.25 0.1
    endloop
  endfacet
  facet normal -0.0654098 0.997858 0
    outer loop
       vertex -0.133906 0.25 0
       vertex -0.166537 0.247861 0
       vertex -0.166537 0.247861 0.1
    endloop
  endfacet
  facet normal -0.0654098 0.997858 1.0893e-16
    outer loop
       vertex -0.166537 0.247861 0.1
       vertex -0.133906 0.25 0.1
       vertex -0.133906 0.25 0
    endloop
  endfacet
  facet normal -0.195096 0.980784 0
    outer loop
       vertex -0.166537 0.247861 0
       vertex -0.198611 0.241481 0
       vertex -0.198611 0.241481 0.1
    endloop
  endfacet
  facet normal -0.195096 0.980784 0
    outer loop
       vertex -0.198611 0.241481 0.1
       vertex -0.166537 0.247861 0.1
       vertex -0.166537 0.247861 0
    endloop
  endfacet
  facet normal -0.321425 0.946935 0
    outer loop
       vertex -0.198611 0.241481 0
       vertex -0.229577 0.23097 0
       vertex -0.229577 0.23097 0.1
    endloop
  endfacet
  facet normal -0.321425 0.946935 0
    outer loop
       vertex -0.229577 0.23097 0.1
       vertex -0.198611 0.241481 0.1
       vertex -0.198611 0.241481 0
    endloop
  endfacet
  facet normal -0.442302 0.896866 0
    outer loop
       vertex -0.229577 0.23097 0
       vertex -0.258906 0.216506 0
       vertex -0.258906 0.216506 0.1
    endloop
  endfacet
  facet normal -0.442302 0.896866 0
    outer loop
       vertex -0.258906 0.216506 0.1
       vertex -0.229577 0.23097 0.1
       vertex -0.229577 0.23097 0
    endloop
  endfacet
  facet normal -0.555561 0.831476 0
    outer loop
       vertex -0.258906 0.216506 0
       vertex -0.286097 0.198338 0
       vertex -0.286097 0.198338 0.1
    endloop
  endfacet
  facet normal -0.555561 0.831476 0
    outer loop
       vertex -0.286097 0.198338 0.1
       vertex -0.258906 0.216506 0.1
       vertex -0.258906 0.216506 0
    endloop
  endfacet
  facet normal -0.659372 0.751817 0
    outer loop
       vertex -0.286097 0.198338 0
       vertex -0.310682 0.176776 0
       vertex -0.310682 0.176776 0.1
    endloop
  endfacet
  facet normal -0.659372 0.751817 0
    outer loop
       vertex -0.310682 0.176776 0.1
       vertex -0.286097 0.198338 0.1
       vertex -0.286097 0.198338 0
    endloop
  endfacet
  facet normal -0.751817 0.659372 0
    outer loop
       vertex -0.310682 0.176776 0
       vertex -0.332244 0.152191 0
       vertex -0.332244 0.152191 0.1
    endloop
  endfacet
  facet normal -0.751817 0.659372 0
    outer loop
       vertex -0.332244 0.152191 0.1
       vertex -0.310682 0.176776 0.1
       vertex -0.310682 0.176776 0
    endloop
  endfacet
  facet normal -0.831476 0.555561 0
    outer loop
       vertex -0.332244 0.152191 0
       vertex -0.350412 0.125 0
       vertex -0.350412 0.125 0.1
    endloop
  endfacet
  facet normal -0.831476 0.555561 0
    outer loop
       vertex -0.350412 0.125 0.1
       vertex -0.332244 0.152191 0.1
       vertex -0.332244 0.152191 0
    endloop
  endfacet
  facet normal -0.896866 0.442302 0
    outer loop
       vertex -0.350412 0.125 0
       vertex -0.364876 0.095671 0
       vertex -0.364876 0.095671 0.1
    endloop
  endfacet
  facet normal -0.896866 0.442302 0
    outer loop
       vertex -0.364876 0.095671 0.1
       vertex -0.350412 0.125 0.1
       vertex -0.350412 0.125 0
    endloop
  endfacet
  facet normal -0.946935 0.321425 0
    outer loop
       vertex -0.364876 0.095671 0
       vertex -0.375387 0.064705 0
       vertex -0.375387 0.064705 0.1
    endloop
  endfacet
  facet normal -0.946935 0.321425 0
    outer loop
       vertex -0.375387 0.064705 0.1
       vertex -0.364876 0.095671 0.1
       vertex -0.364876 0.095671 0
    endloop
  endfacet
  facet normal -0.980784 0.195096 0
    outer loop
       vertex -0.375387 0.064705 0
       vertex -0.381767 0.0326315 0
       vertex -0.381767 0.0326315 0.1
    endloop
  endfacet
  facet normal -0.980784 0.195096 0
    outer loop
       vertex -0.381767 0.0326315 0.1
       vertex -0.375387 0.064705 0.1
       vertex -0.375387 0.064705 0
    endloop
  endfacet
  facet normal -0.997858 0.0654098 0
    outer loop
       vertex -0.383906 8.32665e-17 0.1
       vertex -0.381767 0.0326315 0.1
       vertex -0.381767 0.0326315 0
    endloop
  endfacet
  facet normal -0.997858 0.0654098 -1.08928e-16
    outer loop
       vertex -0.381767 0.0326315 0
       vertex -0.383906 -8.32665e-17 0
       vertex -0.383906 8.32665e-17 0.1
    endloop
  endfacet
  facet normal -0.997858 -0.0654098 0
    outer loop
       vertex -0.383906 -8.32665e-17 0
       vertex -0.381767 -0.0326315 0
       vertex -0.381767 -0.0326315 0.1
    endloop
  endfacet
  facet normal -0.997858 -0.0654098 1.08928e-16
    outer loop
       vertex -0.381767 -0.0326315 0.1
       vertex -0.383906 8.32665e-17 0.1
       vertex -0.383906 -8.32665e-17 0
    endloop
  endfacet
  facet normal -0.980784 -0.195096 0
    outer loop
       vertex -0.381767 -0.0326315 0
       vertex -0.375387 -0.064705 0
       vertex -0.375387 -0.064705 0.1
    endloop
  endfacet
  facet normal -0.980784 -0.195096 0
    outer loop
       vertex -0.375387 -0.064705 0.1
       vertex -0.381767 -0.0326315 0.1
       vertex -0.381767 -0.0326315 0
    endloop
  endfacet
  facet normal -0.946935 -0.321425 0
    outer loop
       vertex -0.375387 -0.064705 0
       vertex -0.364876 -0.095671 0
       vertex -0.364876 -0.095671 0.1
    endloop
  endfacet
  facet normal -0.946935 -0.321425 0
    outer loop
       vertex -0.364876 -0.095671 0.1
       vertex -0.375387 -0.064705 0.1
       vertex -0.375387 -0.064705 0
    endloop
  endfacet
  facet normal -0.896866 -0.442302 0
    outer loop
       vertex -0.364876 -0.095671 0
       vertex -0.350412 -0.125 0
       vertex -0.350412 -0.125 0.1
    endloop
  endfacet
  facet normal -0.896866 -0.442302 0
    outer loop
       vertex -0.350412 -0.125 0.1
       vertex -0.364876 -0.095671 0.1
       vertex -0.364876 -0.095671 0
    endloop
  endfacet
  facet normal -0.831476 -0.555561 0
    outer loop
       vertex -0.350412 -0.125 0
       vertex -0.332244 -0.152191 0
       vertex -0.332244 -0.152191 0.1
    endloop
  endfacet
  facet normal -0.831476 -0.555561 0
    outer loop
       vertex -0.332244 -0.152191 0.1
       vertex -0.350412 -0.125 0.1
       vertex -0.350412 -0.125 0
    endloop
  endfacet
  facet normal -0.751817 -0.659372 0
    outer loop
       vertex -0.332244 -0.152191 0
       vertex -0.310682 -0.176776 0
       vertex -0.310682 -0.176776 0.1
    endloop
  endfacet
  facet normal -0.751817 -0.659372 0
    outer loop
       vertex -0.310682 -0.176776 0.1
       vertex -0.332244 -0.152191 0.1
       vertex -0.332244 -0.152191 0
    endloop
  endfacet
  facet normal 0.659372 -0.751817 0
    outer loop
       vertex 0.0428705 -0.176776 0
       vertex 0.0428705 -0.176776 0.1
       vertex 0.0182855 -0.198338 0.1
    endloop
  endfacet
  facet normal 0.659372 -0.751817 0
    outer loop
       vertex 0.0182855 -0.198338 0.1
       vertex 0.0182855 -0.198338 0
       vertex 0.0428705 -0.176776 0
    endloop
  endfacet
  facet normal 0.555561 -0.831476 0
    outer loop
       vertex 0.0182855 -0.198338 0
       vertex 0.0182855 -0.198338 0.1
       vertex -0.00890554 -0.216506 0.1
    endloop
  endfacet
  facet normal 0.555561 -0.831476 0
    outer loop
       vertex -0.00890554 -0.216506 0.1
       vertex -0.00890554 -0.216506 0
       vertex 0.0182855 -0.198338 0
    endloop
  endfacet
  facet normal 0.442302 -0.896866 0
    outer loop
       vertex -0.00890554 -0.216506 0
       vertex -0.00890554 -0.216506 0.1
       vertex -0.0382345 -0.23097 0.1
    endloop
  endfacet
  facet normal 0.442302 -0.896866 0
    outer loop
       vertex -0.0382345 -0.23097 0.1
       vertex -0.0382345 -0.23097 0
       vertex -0.00890554 -0.216506 0
    endloop
  endfacet
  facet normal 0.321425 -0.946935 0
    outer loop
       vertex -0.0382345 -0.23097 0
       vertex -0.0382345 -0.23097 0.1
       vertex -0.0692005 -0.241481 0.1
    endloop
  endfacet
  facet normal 0.321425 -0.946935 0
    outer loop
       vertex -0.0692005 -0.241481 0.1
       vertex -0.0692005 -0.241481 0
       vertex -0.0382345 -0.23097 0
    endloop
  endfacet
  facet normal 0.195096 -0.980784 0
    outer loop
       vertex -0.0692005 -0.241481 0
       vertex -0.0692005 -0.241481 0.1
       vertex -0.101274 -0.247861 0.1
    endloop
  endfacet
  facet normal 0.195096 -0.980784 0
    outer loop
       vertex -0.101274 -0.247861 0.1
       vertex -0.101274 -0.247861 0
       vertex -0.0692005 -0.241481 0
    endloop
  endfacet
  facet normal 0.0654098 -0.997858 0
    outer loop
       vertex -0.133906 -0.25 0
       vertex -0.101274 -0.247861 0
       vertex -0.101274 -0.247861 0.1
    endloop
  endfacet
  facet normal 0.0654098 -0.997858 1.0893e-16
    outer loop
       vertex -0.101274 -0.247861 0.1
       vertex -0.133906 -0.25 0.1
       vertex -0.133906 -0.25 0
    endloop
  endfacet
  facet normal -0.0654098 -0.997858 0
    outer loop
       vertex -0.133906 -0.25 0.1
       vertex -0.166537 -0.247861 0.1
       vertex -0.166537 -0.247861 0
    endloop
  endfacet
  facet normal -0.0654098 -0.997858 -1.0893e-16
    outer loop
       vertex -0.166537 -0.247861 0
       vertex -0.133906 -0.25 0
       vertex -0.133906 -0.25 0.1
    endloop
  endfacet
  facet normal -0.195096 -0.980784 0
    outer loop
       vertex -0.166537 -0.247861 0
       vertex -0.166537 -0.247861 0.1
       vertex -0.198611 -0.241481 0.1
    endloop
  endfacet
  facet normal -0.195096 -0.980784 -0
    outer loop
       vertex -0.198611 -0.241481 0.1
       vertex -0.198611 -0.241481 0
       vertex -0.166537 -0.247861 0
    endloop
  endfacet
  facet normal -0.321425 -0.946935 0
    outer loop
       vertex -0.198611 -0.241481 0
       vertex -0.198611 -0.241481 0.1
       vertex -0.229577 -0.23097 0.1
    endloop
  endfacet
  facet normal -0.321425 -0.946935 -0
    outer loop
       vertex -0.229577 -0.23097 0.1
       vertex -0.229577 -0.23097 0
       vertex -0.198611 -0.241481 0
    endloop
  endfacet
  facet normal -0.442302 -0.896866 0
    outer loop
       vertex -0.229577 -0.23097 0
       vertex -0.229577 -0.23097 0.1
       vertex -0.258906 -0.216506 0.1
    endloop
  endfacet
  facet normal -0.442302 -0.896866 -0
    outer loop
       vertex -0.258906 -0.216506 0.1
       vertex -0.258906 -0.216506 0
       vertex -0.229577 -0.23097 0
    endloop
  endfacet
  facet normal -0.555561 -0.831476 0
    outer loop
       vertex -0.258906 -0.216506 0
       vertex -0.258906 -0.216506 0.1
       vertex -0.286097 -0.198338 0.1
    endloop
  endfacet
  facet normal -0.555561 -0.831476 -0
    outer loop
       vertex -0.286097 -0.198338 0.1
       vertex -0.286097 -0.198338 0
       vertex -0.258906 -0.216506 0
    endloop
  endfacet
  facet normal -0.659372 -0.751817 0
    outer loop
       vertex -0.286097 -0.198338 0
       vertex -0.286097 -0.198338 0.1
       vertex -0.310682 -0.176776 0.1
    endloop
  endfacet
  facet normal -0.659372 -0.751817 -0
    outer loop
       vertex -0.310682 -0.176776 0.1
       vertex -0.310682 -0.176776 0
       vertex -0.286097 -0.198338 0
    endloop
  endfacet
endsolid cylinder
