solid cylinder
  facet normal 0.751817 -0.659372 0
    outer loop
       vertex 0.191361 -0.176776 0
       vertex 0.212923 -0.152191 0
       vertex 0.212923 -0.152191 0.1
    endloop
  endfacet
  facet normal 0.751817 -0.659372 0
    outer loop
       vertex 0.212923 -0.152191 0.1
       vertex 0.191361 -0.176776 0.1
       vertex 0.191361 -0.176776 0
    endloop
  endfacet
  facet normal 0.831476 -0.555561 0
    outer loop
       vertex 0.212923 -0.152191 0
       vertex 0.231091 -0.125 0
       vertex 0.231091 -0.125 0.1
    endloop
  endfacet
  facet normal 0.831476 -0.555561 0
    outer loop
       vertex 0.231091 -0.125 0.1
       vertex 0.212923 -0.152191 0.1
       vertex 0.212923 -0.152191 0
    endloop
  endfacet
  facet normal 0.896866 -0.442302 0
    outer loop
       vertex 0.231091 -0.125 0
       vertex 0.245555 -0.095671 0
       vertex 0.245555 -0.095671 0.1
    endloop
  endfacet
  facet normal 0.896866 -0.442302 0
    outer loop
       vertex 0.245555 -0.095671 0.1
       vertex 0.231091 -0.125 0.1
       vertex 0.231091 -0.125 0
    endloop
  endfacet
  facet normal 0.946935 -0.321425 0
    outer loop
       vertex 0.245555 -0.095671 0
       vertex 0.256066 -0.064705 0
       vertex 0.256066 -0.064705 0.1
    endloop
  endfacet
  facet normal 0.946935 -0.321425 0
    outer loop
       vertex 0.256066 -0.064705 0.1
       vertex 0.245555 -0.095671 0.1
       vertex 0.245555 -0.095671 0
    endloop
  endfacet
  facet normal 0.980784 -0.195096 0
    outer loop
       vertex 0.256066 -0.064705 0
       vertex 0.262446 -0.0326315 0
       vertex 0.262446 -0.0326315 0.1
    endloop
  endfacet
  facet normal 0.980784 -0.195096 0
    outer loop
       vertex 0.262446 -0.0326315 0.1
       vertex 0.256066 -0.064705 0.1
       vertex 0.256066 -0.064705 0
    endloop
  endfacet
  facet normal 0.997858 -0.0654098 0
    outer loop
       vertex 0.264585 -8.32665e-17 0.1
       vertex 0.262446 -0.0326315 0.1
       vertex 0.262446 -0.0326315 0
    endloop
  endfacet
  facet normal 0.997858 -0.0654098 -1.08928e-16
    outer loop
       vertex 0.262446 -0.0326315 0
       vertex 0.264585 8.32665e-17 0
       vertex 0.264585 -8.32665e-17 0.1
    endloop
  endfacet
  facet normal 0.997858 0.0654098 0
    outer loop
       vertex 0.264585 8.32665e-17 0
       vertex 0.262446 0.0326315 0
       vertex 0.262446 0.0326315 0.1
    endloop
  endfacet
  facet normal 0.997858 0.0654098 1.08928e-16
    outer loop
       vertex 0.262446 0.0326315 0.1
       vertex 0.264585 -8.32665e-17 0.1
       vertex 0.264585 8.32665e-17 0
    endloop
  endfacet
  facet normal 0.980784 0.195096 0
    outer loop
       vertex 0.262446 0.0326315 0
       vertex 0.256066 0.064705 0
       vertex 0.256066 0.064705 0.1
    endloop
  endfacet
  facet normal 0.980784 0.195096 0
    outer loop
       vertex 0.256066 0.064705 0.1
       vertex 0.262446 0.0326315 0.1
       vertex 0.262446 0.0326315 0
    endloop
  endfacet
  facet normal 0.946935 0.321425 0
    outer loop
       vertex 0.256066 0.064705 0
       vertex 0.245555 0.095671 0
       vertex 0.245555 0.095671 0.1
    endloop
  endfacet
  facet normal 0.946935 0.321425 0
    outer loop
       vertex 0.245555 0.095671 0.1
       vertex 0.256066 0.064705 0.1
       vertex 0.256066 0.064705 0
    endloop
  endfacet
  facet normal 0.896866 0.442302 0
    outer loop
       vertex 0.245555 0.095671 0
       vertex 0.231091 0.125 0
       vertex 0.231091 0.125 0.1
    endloop
  endfacet
  facet normal 0.896866 0.442302 0
    outer loop
       vertex 0.231091 0.125 0.1
       vertex 0.245555 0.095671 0.1
       vertex 0.245555 0.095671 0
    endloop
  endfacet
  facet normal 0.831476 0.555561 0
    outer loop
       vertex 0.231091 0.125 0
       vertex 0.212923 0.152191 0
       vertex 0.212923 0.152191 0.1
    endloop
  endfacet
  facet normal 0.831476 0.555561 0
    outer loop
       vertex 0.212923 0.152191 0.1
       vertex 0.231091 0.125 0.1
       vertex 0.231091 0.125 0
    endloop
  endfacet
  facet normal 0.751817 0.659372 0
    outer loop
       vertex 0.212923 0.152191 0
       vertex 0.191361 0.176776 0
       vertex 0.191361 0.176776 0.1
    endloop
  endfacet
  facet normal 0.751817 0.659372 0
    outer loop
       vertex 0.191361 0.176776 0.1
       vertex 0.212923 0.152191 0.1
       vertex 0.212923 0.152191 0
    endloop
  endfacet
  facet normal 0.659372 0.751817 0
    outer loop
       vertex 0.191361 0.176776 0
       vertex 0.166776 0.198338 0
       vertex 0.166776 0.198338 0.1
    endloop
  endfacet
  facet normal 0.659372 0.751817 0
    outer loop
       vertex 0.166776 0.198338 0.1
       vertex 0.191361 0.176776 0.1
       vertex 0.191361 0.176776 0
    endloop
  endfacet
  facet normal 0.555561 0.831476 0
    outer loop
       vertex 0.166776 0.198338 0
       vertex 0.139585 0.216506 0
       vertex 0.139585 0.216506 0.1
    endloop
  endfacet
  facet normal 0.555561 0.831476 0
    outer loop
       vertex 0.139585 0.216506 0.1
       vertex 0.166776 0.198338 0.1
       vertex 0.166776 0.198338 0
    endloop
  endfacet
  facet normal 0.442302 0.896866 0
    outer loop
       vertex 0.139585 0.216506 0
       vertex 0.110256 0.23097 0
       vertex 0.110256 0.23097 0.1
    endloop
  endfacet
  facet normal 0.442302 0.896866 0
    outer loop
       vertex 0.110256 0.23097 0.1
       vertex 0.139585 0.216506 0.1
       vertex 0.139585 0.216506 0
    endloop
  endfacet
  facet normal 0.321425 0.946935 0
    outer loop
       vertex 0.110256 0.23097 0
       vertex 0.0792899 0.241481 0
       vertex 0.0792899 0.241481 0.1
    endloop
  endfacet
  facet normal 0.321425 0.946935 0
    outer loop
       vertex 0.0792899 0.241481 0.1
       vertex 0.110256 0.23097 0.1
       vertex 0.110256 0.23097 0
    endloop
  endfacet
  facet normal 0.195096 0.980784 0
    outer loop
       vertex 0.0792899 0.241481 0
       vertex 0.0472164 0.247861 0
       vertex 0.0472164 0.247861 0.1
    endloop
  endfacet
  facet normal 0.195096 0.980784 0
    outer loop
       vertex 0.0472164 0.247861 0.1
       vertex 0.0792899 0.241481 0.1
       vertex 0.0792899 0.241481 0
    endloop
  endfacet
  facet normal 0.0654098 0.997858 0
    outer loop
       vertex 0.0145849 0.25 0.1
       vertex 0.0472164 0.247861 0.1
       vertex 0.0472164 0.247861 0
    endloop
  endfacet
  facet normal 0.0654098 0.997858 -1.0893e-16
    outer loop
       vertex 0.0472164 0.247861 0
       vertex 0.0145849 0.25 0
       vertex 0.0145849 0.25 0.1
    endloop
  endfacet
  facet normal -0.0654098 0.997858 0
    outer loop
       vertex 0.0145849 0.25 0
       vertex -0.0180466 0.247861 0
       vertex -0.0180466 0.247861 0.1
    endloop
  endfacet
  facet normal -0.0654098 0.997858 1.08928e-16
    outer loop
       vertex -0.0180466 0.247861 0.1
       vertex 0.0145849 0.25 0.1
       vertex 0.0145849 0.25 0
    endloop
  endfacet
  facet normal -0.195096 0.980784 0
    outer loop
       vertex -0.0180466 0.247861 0
       vertex -0.0501201 0.241481 0
       vertex -0.0501201 0.241481 0.1
    endloop
  endfacet
  facet normal -0.195096 0.980784 0
    outer loop
       vertex -0.0501201 0.241481 0.1
       vertex -0.0180466 0.247861 0.1
       vertex -0.0180466 0.247861 0
    endloop
  endfacet
  facet normal -0.321425 0.946935 0
    outer loop
       vertex -0.0501201 0.241481 0
       vertex -0.0810861 0.23097 0
       vertex -0.0810861 0.23097 0.1
    endloop
  endfacet
  facet normal -0.321425 0.946935 0
    outer loop
       vertex -0.0810861 0.23097 0.1
       vertex -0.0501201 0.241481 0.1
       vertex -0.0501201 0.241481 0
    endloop
  endfacet
  facet normal -0.442302 0.896866 0
    outer loop
       vertex -0.0810861 0.23097 0
       vertex -0.110415 0.216506 0
       vertex -0.110415 0.216506 0.1
    endloop
  endfacet
  facet normal -0.442302 0.896866 0
    outer loop
       vertex -0.110415 0.216506 0.1
       vertex -0.0810861 0.23097 0.1
       vertex -0.0810861 0.23097 0
    endloop
  endfacet
  facet normal -0.555561 0.831476 0
    outer loop
       vertex -0.110415 0.216506 0
       vertex -0.137606 0.198338 0
       vertex -0.137606 0.198338 0.1
    endloop
  endfacet
  facet normal -0.555561 0.831476 0
    outer loop
       vertex -0.137606 0.198338 0.1
       vertex -0.110415 0.216506 0.1
       vertex -0.110415 0.216506 0
    endloop
  endfacet
  facet normal -0.659372 0.751817 0
    outer loop
       vertex -0.137606 0.198338 0
       vertex -0.162191 0.176776 0
       vertex -0.162191 0.176776 0.1
    endloop
  endfacet
  facet normal -0.659372 0.751817 0
    outer loop
       vertex -0.162191 0.176776 0.1
       vertex -0.137606 0.198338 0.1
       vertex -0.137606 0.198338 0
    endloop
  endfacet
  facet normal -0.751817 0.659372 0
    outer loop
       vertex -0.162191 0.176776 0
       vertex -0.183753 0.152191 0
       vertex -0.183753 0.152191 0.1
    endloop
  endfacet
  facet normal -0.751817 0.659372 0
    outer loop
       vertex -0.183753 0.152191 0.1
       vertex -0.162191 0.176776 0.1
       vertex -0.162191 0.176776 0
    endloop
  endfacet
  facet normal -0.831476 0.555561 0
    outer loop
       vertex -0.183753 0.152191 0
       vertex -0.201921 0.125 0
       vertex -0.201921 0.125 0.1
    endloop
  endfacet
  facet normal -0.831476 0.555561 0
    outer loop
       vertex -0.201921 0.125 0.1
       vertex -0.183753 0.152191 0.1
       vertex -0.183753 0.152191 0
    endloop
  endfacet
  facet normal -0.896866 0.442302 0
    outer loop
       vertex -0.201921 0.125 0
       vertex -0.216385 0.095671 0
       vertex -0.216385 0.095671 0.1
    endloop
  endfacet
  facet normal -0.896866 0.442302 0
    outer loop
       vertex -0.216385 0.095671 0.1
       vertex -0.201921 0.125 0.1
       vertex -0.201921 0.125 0
    endloop
  endfacet
  facet normal -0.946935 0.321425 0
    outer loop
       vertex -0.216385 0.095671 0
       vertex -0.226896 0.064705 0
       vertex -0.226896 0.064705 0.1
    endloop
  endfacet
  facet normal -0.946935 0.321425 0
    outer loop
       vertex -0.226896 0.064705 0.1
       vertex -0.216385 0.095671 0.1
       vertex -0.216385 0.095671 0
    endloop
  endfacet
  facet normal -0.980784 0.195096 0
    outer loop
       vertex -0.226896 0.064705 0
       vertex -0.233276 0.0326315 0
       vertex -0.233276 0.0326315 0.1
    endloop
  endfacet
  facet normal -0.980784 0.195096 0
    outer loop
       vertex -0.233276 0.0326315 0.1
       vertex -0.226896 0.064705 0.1
       vertex -0.226896 0.064705 0
    endloop
  endfacet
  facet normal -0.997858 0.0654098 0
    outer loop
       vertex -0.235415 8.32665e-17 0.1
       vertex -0.233276 0.0326315 0.1
       vertex -0.233276 0.0326315 0
    endloop
  endfacet
  facet normal -0.997858 0.0654098 -1.08928e-16
    outer loop
       vertex -0.233276 0.0326315 0
       vertex -0.235415 -8.32665e-17 0
       vertex -0.235415 8.32665e-17 0.1
    endloop
  endfacet
  facet normal -0.997858 -0.0654098 0
    outer loop
       vertex -0.235415 -8.32665e-17 0
       vertex -0.233276 -0.0326315 0
       vertex -0.233276 -0.0326315 0.1
    endloop
  endfacet
  facet normal -0.997858 -0.0654098 1.08928e-16
    outer loop
       vertex -0.233276 -0.0326315 0.1
       vertex -0.235415 8.32665e-17 0.1
       vertex -0.235415 -8.32665e-17 0
    endloop
  endfacet
  facet normal -0.980784 -0.195096 0
    outer loop
       vertex -0.233276 -0.0326315 0
       vertex -0.226896 -0.064705 0
       vertex -0.226896 -0.064705 0.1
    endloop
  endfacet
  facet normal -0.980784 -0.195096 0
    outer loop
       vertex -0.226896 -0.064705 0.1
       vertex -0.233276 -0.0326315 0.1
       vertex -0.233276 -0.0326315 0
    endloop
  endfacet
  facet normal -0.946935 -0.321425 0
    outer loop
       vertex -0.226896 -0.064705 0
       vertex -0.216385 -0.095671 0
       vertex -0.216385 -0.095671 0.1
    endloop
  endfacet
  facet normal -0.946935 -0.321425 0
    outer loop
       vertex -0.216385 -0.095671 0.1
       vertex -0.226896 -0.064705 0.1
       vertex -0.226896 -0.064705 0
    endloop
  endfacet
  facet normal -0.896866 -0.442302 0
    outer loop
       vertex -0.216385 -0.095671 0
       vertex -0.201921 -0.125 0
       vertex -0.201921 -0.125 0.1
    endloop
  endfacet
  facet normal -0.896866 -0.442302 0
    outer loop
       vertex -0.201921 -0.125 0.1
       vertex -0.216385 -0.095671 0.1
       vertex -0.216385 -0.095671 0
    endloop
  endfacet
  facet normal -0.831476 -0.555561 0
    outer loop
       vertex -0.201921 -0.125 0
       vertex -0.183753 -0.152191 0
       vertex -0.183753 -0.152191 0.1
    endloop
  endfacet
  facet normal -0.831476 -0.555561 0
    outer loop
       vertex -0.183753 -0.152191 0.1
       vertex -0.201921 -0.125 0.1
       vertex -0.201921 -0.125 0
    endloop
  endfacet
  facet normal -0.751817 -0.659372 0
    outer loop
       vertex -0.183753 -0.152191 0
       vertex -0.162191 -0.176776 0
       vertex -0.162191 -0.176776 0.1
    endloop
  endfacet
  facet normal -0.751817 -0.659372 0
    outer loop
       vertex -0.162191 -0.176776 0.1
       vertex -0.183753 -0.152191 0.1
       vertex -0.183753 -0.152191 0
    endloop
  endfacet
  facet normal 0.659372 -0.751817 0
    outer loop
       vertex 0.191361 -0.176776 0
       vertex 0.191361 -0.176776 0.1
       vertex 0.166776 -0.198338 0.1
    endloop
  endfacet
  facet normal 0.659372 -0.751817 0
    outer loop
       vertex 0.166776 -0.198338 0.1
       vertex 0.166776 -0.198338 0
       vertex 0.191361 -0.176776 0
    endloop
  endfacet
  facet normal 0.555561 -0.831476 0
    outer loop
       vertex 0.166776 -0.198338 0
       vertex 0.166776 -0.198338 0.1
       vertex 0.139585 -0.216506 0.1
    endloop
  endfacet
  facet normal 0.555561 -0.831476 0
    outer loop
       vertex 0.139585 -0.216506 0.1
       vertex 0.139585 -0.216506 0
       vertex 0.166776 -0.198338 0
    endloop
  endfacet
  facet normal 0.442302 -0.896866 0
    outer loop
       vertex 0.139585 -0.216506 0
       vertex 0.139585 -0.216506 0.1
       vertex 0.110256 -0.23097 0.1
    endloop
  endfacet
  facet normal 0.442302 -0.896866 0
    outer loop
       vertex 0.110256 -0.23097 0.1
       vertex 0.110256 -0.23097 0
       vertex 0.139585 -0.216506 0
    endloop
  endfacet
  facet normal 0.321425 -0.946935 0
    outer loop
       vertex 0.110256 -0.23097 0
       vertex 0.110256 -0.23097 0.1
       vertex 0.0792899 -0.241481 0.1
    endloop
  endfacet
  facet normal 0.321425 -0.946935 0
    outer loop
       vertex 0.0792899 -0.241481 0.1
       vertex 0.0792899 -0.241481 0
       vertex 0.110256 -0.23097 0
    endloop
  endfacet
  facet normal 0.195096 -0.980784 0
    outer loop
       vertex 0.0792899 -0.241481 0
       vertex 0.0792899 -0.241481 0.1
       vertex 0.0472164 -0.247861 0.1
    endloop
  endfacet
  facet normal 0.195096 -0.980784 0
    outer loop
       vertex 0.0472164 -0.247861 0.1
       vertex 0.0472164 -0.247861 0
       vertex 0.0792899 -0.241481 0
    endloop
  endfacet
  facet normal 0.0654098 -0.997858 0
    outer loop
       vertex 0.0145849 -0.25 0
       vertex 0.0472164 -0.247861 0
       vertex 0.0472164 -0.247861 0.1
    endloop
  endfacet
  facet normal 0.0654098 -0.997858 1.0893e-16
    outer loop
       vertex 0.0472164 -0.247861 0.1
       vertex 0.0145849 -0.25 0.1
       vertex 0.0145849 -0.25 0
    endloop
  endfacet
  facet normal -0.0654098 -0.997858 0
    outer loop
       vertex 0.0145849 -0.25 0.1
       vertex -0.0180466 -0.247861 0.1
       vertex -0.0180466 -0.247861 0
    endloop
  endfacet
  facet normal -0.0654098 -0.997858 -1.08928e-16
    outer loop
       vertex -0.0180466 -0.247861 0
       vertex 0.0145849 -0.25 0
       vertex 0.0145849 -0.25 0.1
    endloop
  endfacet
  facet normal -0.195096 -0.980784 0
    outer loop
       vertex -0.0180466 -0.247861 0
       vertex -0.0180466 -0.247861 0.1
       vertex -0.0501201 -0.241481 0.1
    endloop
  endfacet
  facet normal -0.195096 -0.980784 -0
    outer loop
       vertex -0.0501201 -0.241481 0.1
       vertex -0.0501201 -0.241481 0
       vertex -0.0180466 -0.247861 0
    endloop
  endfacet
  facet normal -0.321425 -0.946935 0
    outer loop
       vertex -0.0501201 -0.241481 0
       vertex -0.0501201 -0.241481 0.1
       vertex -0.0810861 -0.23097 0.1
    endloop
  endfacet
  facet normal -0.321425 -0.946935 -0
    outer loop
       vertex -0.0810861 -0.23097 0.1
       vertex -0.0810861 -0.23097 0
       vertex -0.0501201 -0.241481 0
    endloop
  endfacet
  facet normal -0.442302 -0.896866 0
    outer loop
       vertex -0.0810861 -0.23097 0
       vertex -0.0810861 -0.23097 0.1
       vertex -0.110415 -0.216506 0.1
    endloop
  endfacet
  facet normal -0.442302 -0.896866 -0
    outer loop
       vertex -0.110415 -0.216506 0.1
       vertex -0.110415 -0.216506 0
       vertex -0.0810861 -0.23097 0
    endloop
  endfacet
  facet normal -0.555561 -0.831476 0
    outer loop
       vertex -0.110415 -0.216506 0
       vertex -0.110415 -0.216506 0.1
       vertex -0.137606 -0.198338 0.1
    endloop
  endfacet
  facet normal -0.555561 -0.831476 -0
    outer loop
       vertex -0.137606 -0.198338 0.1
       vertex -0.137606 -0.198338 0
       vertex -0.110415 -0.216506 0
    endloop
  endfacet
  facet normal -0.659372 -0.751817 0
    outer loop
       vertex -0.137606 -0.198338 0
       vertex -0.137606 -0.198338 0.1
       vertex -0.162191 -0.176776 0.1
    endloop
  endfacet
  facet normal -0.659372 -0.751817 -0
    outer loop
       vertex -0.162191 -0.176776 0.1
       vertex -0.162191 -0.176776 0
       vertex -0.137606 -0.198338 0
    endloop
  endfacet
endsolid cylinder
