solid cylinder
  facet normal 0.751817 -0.659372 0
    outer loop
       vertex 0.144083 -0.176776 0
       vertex 0.165645 -0.152191 0
       vertex 0.165645 -0.152191 0.1
    endloop
  endfacet
  facet normal 0.751817 -0.659372 0
    outer loop
       vertex 0.165645 -0.152191 0.1
       vertex 0.144083 -0.176776 0.1
       vertex 0.144083 -0.176776 0
    endloop
  endfacet
  facet normal 0.831476 -0.555561 0
    outer loop
       vertex 0.165645 -0.152191 0
       vertex 0.183813 -0.125 0
       vertex 0.183813 -0.125 0.1
    endloop
  endfacet
  facet normal 0.831476 -0.555561 0
    outer loop
       vertex 0.183813 -0.125 0.1
       vertex 0.165645 -0.152191 0.1
       vertex 0.165645 -0.152191 0
    endloop
  endfacet
  facet normal 0.896866 -0.442302 0
    outer loop
       vertex 0.183813 -0.125 0
       vertex 0.198277 -0.095671 0
       vertex 0.198277 -0.095671 0.1
    endloop
  endfacet
  facet normal 0.896866 -0.442302 0
    outer loop
       vertex 0.198277 -0.095671 0.1
       vertex 0.183813 -0.125 0.1
       vertex 0.183813 -0.125 0
    endloop
  endfacet
  facet normal 0.946935 -0.321425 0
    outer loop
       vertex 0.198277 -0.095671 0
       vertex 0.208788 -0.064705 0
       vertex 0.208788 -0.064705 0.1
    endloop
  endfacet
  facet normal 0.946935 -0.321425 0
    outer loop
       vertex 0.208788 -0.064705 0.1
       vertex 0.198277 -0.095671 0.1
       vertex 0.198277 -0.095671 0
    endloop
  endfacet
  facet normal 0.980784 -0.195096 0
    outer loop
       vertex 0.208788 -0.064705 0
       vertex 0.215168 -0.0326315 0
       vertex 0.215168 -0.0326315 0.1
    endloop
  endfacet
  facet normal 0.980784 -0.195096 0
    outer loop
       vertex 0.215168 -0.0326315 0.1
       vertex 0.208788 -0.064705 0.1
       vertex 0.208788 -0.064705 0
    endloop
  endfacet
  facet normal 0.997858 -0.0654098 0
    outer loop
       vertex 0.217307 -8.32665e-17 0.1
       vertex 0.215168 -0.0326315 0.1
       vertex 0.215168 -0.0326315 0
    endloop
  endfacet
  facet normal 0.997858 -0.0654098 -1.08928e-16
    outer loop
       vertex 0.215168 -0.0326315 0
       vertex 0.217307 8.32665e-17 0
       vertex 0.217307 -8.32665e-17 0.1
    endloop
  endfacet
  facet normal 0.997858 0.0654098 0
    outer loop
       vertex 0.217307 8.32665e-17 0
       vertex 0.215168 0.0326315 0
       vertex 0.215168 0.0326315 0.1
    endloop
  endfacet
  facet normal 0.997858 0.0654098 1.08928e-16
    outer loop
       vertex 0.215168 0.0326315 0.1
       vertex 0.217307 -8.32665e-17 0.1
       vertex 0.217307 8.32665e-17 0
    endloop
  endfacet
  facet normal 0.980784 0.195096 0
    outer loop
       vertex 0.215168 0.0326315 0
       vertex 0.208788 0.064705 0
       vertex 0.208788 0.064705 0.1
    endloop
  endfacet
  facet normal 0.980784 0.195096 0
    outer loop
       vertex 0.208788 0.064705 0.1
       vertex 0.215168 0.0326315 0.1
       vertex 0.215168 0.0326315 0
    endloop
  endfacet
  facet normal 0.946935 0.321425 0
    outer loop
       vertex 0.208788 0.064705 0
       vertex 0.198277 0.095671 0
       vertex 0.198277 0.095671 0.1
    endloop
  endfacet
  facet normal 0.946935 0.321425 0
    outer loop
       vertex 0.198277 0.095671 0.1
       vertex 0.208788 0.064705 0.1
       vertex 0.208788 0.064705 0
    endloop
  endfacet
  facet normal 0.896866 0.442302 0
    outer loop
       vertex 0.198277 0.095671 0
       vertex 0.183813 0.125 0
       vertex 0.183813 0.125 0.1
    endloop
  endfacet
  facet normal 0.896866 0.442302 0
    outer loop
       vertex 0.183813 0.125 0.1
       vertex 0.198277 0.095671 0.1
       vertex 0.198277 0.095671 0
    endloop
  endfacet
  facet normal 0.831476 0.555561 0
    outer loop
       vertex 0.183813 0.125 0
       vertex 0.165645 0.152191 0
       vertex 0.165645 0.152191 0.1
    endloop
  endfacet
  facet normal 0.831476 0.555561 0
    outer loop
       vertex 0.165645 0.152191 0.1
       vertex 0.183813 0.125 0.1
       vertex 0.183813 0.125 0
    endloop
  endfacet
  facet normal 0.751817 0.659372 0
    outer loop
       vertex 0.165645 0.152191 0
       vertex 0.144083 0.176776 0
       vertex 0.144083 0.176776 0.1
    endloop
  endfacet
  facet normal 0.751817 0.659372 0
    outer loop
       vertex 0.144083 0.176776 0.1
       vertex 0.165645 0.152191 0.1
       vertex 0.165645 0.152191 0
    endloop
  endfacet
  facet normal 0.659372 0.751817 0
    outer loop
       vertex 0.144083 0.176776 0
       vertex 0.119498 0.198338 0
       vertex 0.119498 0.198338 0.1
    endloop
  endfacet
  facet normal 0.659372 0.751817 0
    outer loop
       vertex 0.119498 0.198338 0.1
       vertex 0.144083 0.176776 0.1
       vertex 0.144083 0.176776 0
    endloop
  endfacet
  facet normal 0.555561 0.831476 0
    outer loop
       vertex 0.119498 0.198338 0
       vertex 0.0923074 0.216506 0
       vertex 0.0923074 0.216506 0.1
    endloop
  endfacet
  facet normal 0.555561 0.831476 0
    outer loop
       vertex 0.0923074 0.216506 0.1
       vertex 0.119498 0.198338 0.1
       vertex 0.119498 0.198338 0
    endloop
  endfacet
  facet normal 0.442302 0.896866 0
    outer loop
       vertex 0.0923074 0.216506 0
       vertex 0.0629784 0.23097 0
       vertex 0.0629784 0.23097 0.1
    endloop
  endfacet
  facet normal 0.442302 0.896866 0
    outer loop
       vertex 0.0629784 0.23097 0.1
       vertex 0.0923074 0.216506 0.1
       vertex 0.0923074 0.216506 0
    endloop
  endfacet
  facet normal 0.321425 0.946935 0
    outer loop
       vertex 0.0629784 0.23097 0
       vertex 0.0320124 0.241481 0
       vertex 0.0320124 0.241481 0.1
    endloop
  endfacet
  facet normal 0.321425 0.946935 0
    outer loop
       vertex 0.0320124 0.241481 0.1
       vertex 0.0629784 0.23097 0.1
       vertex 0.0629784 0.23097 0
    endloop
  endfacet
  facet normal 0.195096 0.980784 0
    outer loop
       vertex 0.0320124 0.241481 0
       vertex -6.11404e-05 0.247861 0
       vertex -6.11404e-05 0.247861 0.1
    endloop
  endfacet
  facet normal 0.195096 0.980784 0
    outer loop
       vertex -6.11404e-05 0.247861 0.1
       vertex 0.0320124 0.241481 0.1
       vertex 0.0320124 0.241481 0
    endloop
  endfacet
  facet normal 0.0654098 0.997858 0
    outer loop
       vertex -0.0326926 0.25 0.1
       vertex -6.11404e-05 0.247861 0.1
       vertex -6.11404e-05 0.247861 0
    endloop
  endfacet
  facet normal 0.0654098 0.997858 -1.08928e-16
    outer loop
       vertex -6.11404e-05 0.247861 0
       vertex -0.0326926 0.25 0
       vertex -0.0326926 0.25 0.1
    endloop
  endfacet
  facet normal -0.0654098 0.997858 0
    outer loop
       vertex -0.0326926 0.25 0
       vertex -0.0653241 0.247861 0
       vertex -0.0653241 0.247861 0.1
    endloop
  endfacet
  facet normal -0.0654098 0.997858 1.0893e-16
    outer loop
       vertex -0.0653241 0.247861 0.1
       vertex -0.0326926 0.25 0.1
       vertex -0.0326926 0.25 0
    endloop
  endfacet
  facet normal -0.195096 0.980784 0
    outer loop
       vertex -0.0653241 0.247861 0
       vertex -0.0973976 0.241481 0
       vertex -0.0973976 0.241481 0.1
    endloop
  endfacet
  facet normal -0.195096 0.980784 0
    outer loop
       vertex -0.0973976 0.241481 0.1
       vertex -0.0653241 0.247861 0.1
       vertex -0.0653241 0.247861 0
    endloop
  endfacet
  facet normal -0.321425 0.946935 0
    outer loop
       vertex -0.0973976 0.241481 0
       vertex -0.128364 0.23097 0
       vertex -0.128364 0.23097 0.1
    endloop
  endfacet
  facet normal -0.321425 0.946935 0
    outer loop
       vertex -0.128364 0.23097 0.1
       vertex -0.0973976 0.241481 0.1
       vertex -0.0973976 0.241481 0
    endloop
  endfacet
  facet normal -0.442302 0.896866 0
    outer loop
       vertex -0.128364 0.23097 0
       vertex -0.157693 0.216506 0
       vertex -0.157693 0.216506 0.1
    endloop
  endfacet
  facet normal -0.442302 0.896866 0
    outer loop
       vertex -0.157693 0.216506 0.1
       vertex -0.128364 0.23097 0.1
       vertex -0.128364 0.23097 0
    endloop
  endfacet
  facet normal -0.555561 0.831476 0
    outer loop
       vertex -0.157693 0.216506 0
       vertex -0.184884 0.198338 0
       vertex -0.184884 0.198338 0.1
    endloop
  endfacet
  facet normal -0.555561 0.831476 0
    outer loop
       vertex -0.184884 0.198338 0.1
       vertex -0.157693 0.216506 0.1
       vertex -0.157693 0.216506 0
    endloop
  endfacet
  facet normal -0.659372 0.751817 0
    outer loop
       vertex -0.184884 0.198338 0
       vertex -0.209469 0.176776 0
       vertex -0.209469 0.176776 0.1
    endloop
  endfacet
  facet normal -0.659372 0.751817 0
    outer loop
       vertex -0.209469 0.176776 0.1
       vertex -0.184884 0.198338 0.1
       vertex -0.184884 0.198338 0
    endloop
  endfacet
  facet normal -0.751817 0.659372 0
    outer loop
       vertex -0.209469 0.176776 0
       vertex -0.231031 0.152191 0
       vertex -0.231031 0.152191 0.1
    endloop
  endfacet
  facet normal -0.751817 0.659372 0
    outer loop
       vertex -0.231031 0.152191 0.1
       vertex -0.209469 0.176776 0.1
       vertex -0.209469 0.176776 0
    endloop
  endfacet
  facet normal -0.831476 0.555561 0
    outer loop
       vertex -0.231031 0.152191 0
       vertex -0.249199 0.125 0
       vertex -0.249199 0.125 0.1
    endloop
  endfacet
  facet normal -0.831476 0.555561 0
    outer loop
       vertex -0.249199 0.125 0.1
       vertex -0.231031 0.152191 0.1
       vertex -0.231031 0.152191 0
    endloop
  endfacet
  facet normal -0.896866 0.442302 0
    outer loop
       vertex -0.249199 0.125 0
       vertex -0.263663 0.095671 0
       vertex -0.263663 0.095671 0.1
    endloop
  endfacet
  facet normal -0.896866 0.442302 0
    outer loop
       vertex -0.263663 0.095671 0.1
       vertex -0.249199 0.125 0.1
       vertex -0.249199 0.125 0
    endloop
  endfacet
  facet normal -0.946935 0.321425 0
    outer loop
       vertex -0.263663 0.095671 0
       vertex -0.274174 0.064705 0
       vertex -0.274174 0.064705 0.1
    endloop
  endfacet
  facet normal -0.946935 0.321425 0
    outer loop
       vertex -0.274174 0.064705 0.1
       vertex -0.263663 0.095671 0.1
       vertex -0.263663 0.095671 0
    endloop
  endfacet
  facet normal -0.980784 0.195096 0
    outer loop
       vertex -0.274174 0.064705 0
       vertex -0.280554 0.0326315 0
       vertex -0.280554 0.0326315 0.1
    endloop
  endfacet
  facet normal -0.980784 0.195096 0
    outer loop
       vertex -0.280554 0.0326315 0.1
       vertex -0.274174 0.064705 0.1
       vertex -0.274174 0.064705 0
    endloop
  endfacet
  facet normal -0.997858 0.0654098 0
    outer loop
       vertex -0.282693 8.32665e-17 0.1
       vertex -0.280554 0.0326315 0.1
       vertex -0.280554 0.0326315 0
    endloop
  endfacet
  facet normal -0.997858 0.0654098 -1.08928e-16
    outer loop
       vertex -0.280554 0.0326315 0
       vertex -0.282693 -8.32665e-17 0
       vertex -0.282693 8.32665e-17 0.1
    endloop
  endfacet
  facet normal -0.997858 -0.0654098 0
    outer loop
       vertex -0.282693 -8.32665e-17 0
       vertex -0.280554 -0.0326315 0
       vertex -0.280554 -0.0326315 0.1
    endloop
  endfacet
  facet normal -0.997858 -0.0654098 1.08928e-16
    outer loop
       vertex -0.280554 -0.0326315 0.1
       vertex -0.282693 8.32665e-17 0.1
       vertex -0.282693 -8.32665e-17 0
    endloop
  endfacet
  facet normal -0.980784 -0.195096 0
    outer loop
       vertex -0.280554 -0.0326315 0
       vertex -0.274174 -0.064705 0
       vertex -0.274174 -0.064705 0.1
    endloop
  endfacet
  facet normal -0.980784 -0.195096 0
    outer loop
       vertex -0.274174 -0.064705 0.1
       vertex -0.280554 -0.0326315 0.1
       vertex -0.280554 -0.0326315 0
    endloop
  endfacet
  facet normal -0.946935 -0.321425 0
    outer loop
       vertex -0.274174 -0.064705 0
       vertex -0.263663 -0.095671 0
       vertex -0.263663 -0.095671 0.1
    endloop
  endfacet
  facet normal -0.946935 -0.321425 0
    outer loop
       vertex -0.263663 -0.095671 0.1
       vertex -0.274174 -0.064705 0.1
       vertex -0.274174 -0.064705 0
    endloop
  endfacet
  facet normal -0.896866 -0.442302 0
    outer loop
       vertex -0.263663 -0.095671 0
       vertex -0.249199 -0.125 0
       vertex -0.249199 -0.125 0.1
    endloop
  endfacet
  facet normal -0.896866 -0.442302 0
    outer loop
       vertex -0.249199 -0.125 0.1
       vertex -0.263663 -0.095671 0.1
       vertex -0.263663 -0.095671 0
    endloop
  endfacet
  facet normal -0.831476 -0.555561 0
    outer loop
       vertex -0.249199 -0.125 0
       vertex -0.231031 -0.152191 0
       vertex -0.231031 -0.152191 0.1
    endloop
  endfacet
  facet normal -0.831476 -0.555561 0
    outer loop
       vertex -0.231031 -0.152191 0.1
       vertex -0.249199 -0.125 0.1
       vertex -0.249199 -0.125 0
    endloop
  endfacet
  facet normal -0.751817 -0.659372 0
    outer loop
       vertex -0.231031 -0.152191 0
       vertex -0.209469 -0.176776 0
       vertex -0.209469 -0.176776 0.1
    endloop
  endfacet
  facet normal -0.751817 -0.659372 0
    outer loop
       vertex -0.209469 -0.176776 0.1
       vertex -0.231031 -0.152191 0.1
       vertex -0.231031 -0.152191 0
    endloop
  endfacet
  facet normal 0.659372 -0.751817 0
    outer loop
       vertex 0.144083 -0.176776 0
       vertex 0.144083 -0.176776 0.1
       vertex 0.119498 -0.198338 0.1
    endloop
  endfacet
  facet normal 0.659372 -0.751817 0
    outer loop
       vertex 0.119498 -0.198338 0.1
       vertex 0.119498 -0.198338 0
       vertex 0.144083 -0.176776 0
    endloop
  endfacet
  facet normal 0.555561 -0.831476 0
    outer loop
       vertex 0.119498 -0.198338 0
       vertex 0.119498 -0.198338 0.1
       vertex 0.0923074 -0.216506 0.1
    endloop
  endfacet
  facet normal 0.555561 -0.831476 0
    outer loop
       vertex 0.0923074 -0.216506 0.1
       vertex 0.0923074 -0.216506 0
       vertex 0.119498 -0.198338 0
    endloop
  endfacet
  facet normal 0.442302 -0.896866 0
    outer loop
       vertex 0.0923074 -0.216506 0
       vertex 0.0923074 -0.216506 0.1
       vertex 0.0629784 -0.23097 0.1
    endloop
  endfacet
  facet normal 0.442302 -0.896866 0
    outer loop
       vertex 0.0629784 -0.23097 0.1
       vertex 0.0629784 -0.23097 0
       vertex 0.0923074 -0.216506 0
    endloop
  endfacet
  facet normal 0.321425 -0.946935 0
    outer loop
       vertex 0.0629784 -0.23097 0
       vertex 0.0629784 -0.23097 0.1
       vertex 0.0320124 -0.241481 0.1
    endloop
  endfacet
  facet normal 0.321425 -0.946935 0
    outer loop
       vertex 0.0320124 -0.241481 0.1
       vertex 0.0320124 -0.241481 0
       vertex 0.0629784 -0.23097 0
    endloop
  endfacet
  facet normal 0.195096 -0.980784 0
    outer loop
       vertex 0.0320124 -0.241481 0
       vertex 0.0320124 -0.241481 0.1
       vertex -6.11404e-05 -0.247861 0.1
    endloop
  endfacet
  facet normal 0.195096 -0.980784 0
    outer loop
       vertex -6.11404e-05 -0.247861 0.1
       vertex -6.11404e-05 -0.247861 0
       vertex 0.0320124 -0.241481 0
    endloop
  endfacet
  facet normal 0.0654098 -0.997858 0
    outer loop
       vertex -0.0326926 -0.25 0
       vertex -6.11404e-05 -0.247861 0
       vertex -6.11404e-05 -0.247861 0.1
    endloop
  endfacet
  facet normal 0.0654098 -0.997858 1.08928e-16
    outer loop
       vertex -6.11404e-05 -0.247861 0.1
       vertex -0.0326926 -0.25 0.1
       vertex -0.0326926 -0.25 0
    endloop
  endfacet
  facet normal -0.0654098 -0.997858 0
    outer loop
       vertex -0.0326926 -0.25 0.1
       vertex -0.0653241 -0.247861 0.1
       vertex -0.0653241 -0.247861 0
    endloop
  endfacet
  facet normal -0.0654098 -0.997858 -1.0893e-16
    outer loop
       vertex -0.0653241 -0.247861 0
       vertex -0.0326926 -0.25 0
       vertex -0.0326926 -0.25 0.1
    endloop
  endfacet
  facet normal -0.195096 -0.980784 0
    outer loop
       vertex -0.0653241 -0.247861 0
       vertex -0.0653241 -0.247861 0.1
       vertex -0.0973976 -0.241481 0.1
    endloop
  endfacet
  facet normal -0.195096 -0.980784 -0
    outer loop
       vertex -0.0973976 -0.241481 0.1
       vertex -0.0973976 -0.241481 0
       vertex -0.0653241 -0.247861 0
    endloop
  endfacet
  facet normal -0.321425 -0.946935 0
    outer loop
       vertex -0.0973976 -0.241481 0
       vertex -0.0973976 -0.241481 0.1
       vertex -0.128364 -0.23097 0.1
    endloop
  endfacet
  facet normal -0.321425 -0.946935 -0
    outer loop
       vertex -0.128364 -0.23097 0.1
       vertex -0.128364 -0.23097 0
       vertex -0.0973976 -0.241481 0
    endloop
  endfacet
  facet normal -0.442302 -0.896866 0
    outer loop
       vertex -0.128364 -0.23097 0
       vertex -0.128364 -0.23097 0.1
       vertex -0.157693 -0.216506 0.1
    endloop
  endfacet
  facet normal -0.442302 -0.896866 -0
    outer loop
       vertex -0.157693 -0.216506 0.1
       vertex -0.157693 -0.216506 0
       vertex -0.128364 -0.23097 0
    endloop
  endfacet
  facet normal -0.555561 -0.831476 0
    outer loop
       vertex -0.157693 -0.216506 0
       vertex -0.157693 -0.216506 0.1
       vertex -0.184884 -0.198338 0.1
    endloop
  endfacet
  facet normal -0.555561 -0.831476 -0
    outer loop
       vertex -0.184884 -0.198338 0.1
       vertex -0.184884 -0.198338 0
       vertex -0.157693 -0.216506 0
    endloop
  endfacet
  facet normal -0.659372 -0.751817 0
    outer loop
       vertex -0.184884 -0.198338 0
       vertex -0.184884 -0.198338 0.1
       vertex -0.209469 -0.176776 0.1
    endloop
  endfacet
  facet normal -0.659372 -0.751817 -0
    outer loop
       vertex -0.209469 -0.176776 0.1
       vertex -0.209469 -0.176776 0
       vertex -0.184884 -0.198338 0
    endloop
  endfacet
endsolid cylinder
