solid cylinder
  facet normal 0.751817 -0.659372 0
    outer loop
       vertex 0.02749 -0.176776 0
       vertex 0.049052 -0.152191 0
       vertex 0.049052 -0.152191 0.1
    endloop
  endfacet
  facet normal 0.751817 -0.659372 0
    outer loop
       vertex 0.049052 -0.152191 0.1
       vertex 0.02749 -0.176776 0.1
       vertex 0.02749 -0.176776 0
    endloop
  endfacet
  facet normal 0.831476 -0.555561 0
    outer loop
       vertex 0.049052 -0.152191 0
       vertex 0.06722 -0.125 0
       vertex 0.06722 -0.125 0.1
    endloop
  endfacet
  facet normal 0.831476 -0.555561 0
    outer loop
       vertex 0.06722 -0.125 0.1
       vertex 0.049052 -0.152191 0.1
       vertex 0.049052 -0.152191 0
    endloop
  endfacet
  facet normal 0.896866 -0.442302 0
    outer loop
       vertex 0.06722 -0.125 0
       vertex 0.081684 -0.095671 0
       vertex 0.081684 -0.095671 0.1
    endloop
  endfacet
  facet normal 0.896866 -0.442302 0
    outer loop
       vertex 0.081684 -0.095671 0.1
       vertex 0.06722 -0.125 0.1
       vertex 0.06722 -0.125 0
    endloop
  endfacet
  facet normal 0.946935 -0.321425 0
    outer loop
       vertex 0.081684 -0.095671 0
       vertex 0.092195 -0.064705 0
       vertex 0.092195 -0.064705 0.1
    endloop
  endfacet
  facet normal 0.946935 -0.321425 0
    outer loop
       vertex 0.092195 -0.064705 0.1
       vertex 0.081684 -0.095671 0.1
       vertex 0.081684 -0.095671 0
    endloop
  endfacet
  facet normal 0.980784 -0.195096 0
    outer loop
       vertex 0.092195 -0.064705 0
       vertex 0.098575 -0.0326315 0
       vertex 0.098575 -0.0326315 0.1
    endloop
  endfacet
  facet normal 0.980784 -0.195096 0
    outer loop
       vertex 0.098575 -0.0326315 0.1
       vertex 0.092195 -0.064705 0.1
       vertex 0.092195 -0.064705 0
    endloop
  endfacet
  facet normal 0.997858 -0.0654098 0
    outer loop
       vertex 0.100714 -8.32665e-17 0.1
       vertex 0.098575 -0.0326315 0.1
       vertex 0.098575 -0.0326315 0
    endloop
  endfacet
  facet normal 0.997858 -0.0654098 -1.08928e-16
    outer loop
       vertex 0.098575 -0.0326315 0
       vertex 0.100714 8.32665e-17 0
       vertex 0.100714 -8.32665e-17 0.1
    endloop
  endfacet
  facet normal 0.997858 0.0654098 0
    outer loop
       vertex 0.100714 8.32665e-17 0
       vertex 0.098575 0.0326315 0
       vertex 0.098575 0.0326315 0.1
    endloop
  endfacet
  facet normal 0.997858 0.0654098 1.08928e-16
    outer loop
       vertex 0.098575 0.0326315 0.1
       vertex 0.100714 -8.32665e-17 0.1
       vertex 0.100714 8.32665e-17 0
    endloop
  endfacet
  facet normal 0.980784 0.195096 0
    outer loop
       vertex 0.098575 0.0326315 0
       vertex 0.092195 0.064705 0
       vertex 0.092195 0.064705 0.1
    endloop
  endfacet
  facet normal 0.980784 0.195096 0
    outer loop
       vertex 0.092195 0.064705 0.1
       vertex 0.098575 0.0326315 0.1
       vertex 0.098575 0.0326315 0
    endloop
  endfacet
  facet normal 0.946935 0.321425 0
    outer loop
       vertex 0.092195 0.064705 0
       vertex 0.081684 0.095671 0
       vertex 0.081684 0.095671 0.1
    endloop
  endfacet
  facet normal 0.946935 0.321425 0
    outer loop
       vertex 0.081684 0.095671 0.1
       vertex 0.092195 0.064705 0.1
       vertex 0.092195 0.064705 0
    endloop
  endfacet
  facet normal 0.896866 0.442302 0
    outer loop
       vertex 0.081684 0.095671 0
       vertex 0.06722 0.125 0
       vertex 0.06722 0.125 0.1
    endloop
  endfacet
  facet normal 0.896866 0.442302 0
    outer loop
       vertex 0.06722 0.125 0.1
       vertex 0.081684 0.095671 0.1
       vertex 0.081684 0.095671 0
    endloop
  endfacet
  facet normal 0.831476 0.555561 0
    outer loop
       vertex 0.06722 0.125 0
       vertex 0.049052 0.152191 0
       vertex 0.049052 0.152191 0.1
    endloop
  endfacet
  facet normal 0.831476 0.555561 0
    outer loop
       vertex 0.049052 0.152191 0.1
       vertex 0.06722 0.125 0.1
       vertex 0.06722 0.125 0
    endloop
  endfacet
  facet normal 0.751817 0.659372 0
    outer loop
       vertex 0.049052 0.152191 0
       vertex 0.02749 0.176776 0
       vertex 0.02749 0.176776 0.1
    endloop
  endfacet
  facet normal 0.751817 0.659372 0
    outer loop
       vertex 0.02749 0.176776 0.1
       vertex 0.049052 0.152191 0.1
       vertex 0.049052 0.152191 0
    endloop
  endfacet
  facet normal 0.659372 0.751817 0
    outer loop
       vertex 0.02749 0.176776 0
       vertex 0.00290502 0.198338 0
       vertex 0.00290502 0.198338 0.1
    endloop
  endfacet
  facet normal 0.659372 0.751817 0
    outer loop
       vertex 0.00290502 0.198338 0.1
       vertex 0.02749 0.176776 0.1
       vertex 0.02749 0.176776 0
    endloop
  endfacet
  facet normal 0.555561 0.831476 0
    outer loop
       vertex 0.00290502 0.198338 0
       vertex -0.024286 0.216506 0
       vertex -0.024286 0.216506 0.1
    endloop
  endfacet
  facet normal 0.555561 0.831476 0
    outer loop
       vertex -0.024286 0.216506 0.1
       vertex 0.00290502 0.198338 0.1
       vertex 0.00290502 0.198338 0
    endloop
  endfacet
  facet normal 0.442302 0.896866 0
    outer loop
       vertex -0.024286 0.216506 0
       vertex -0.053615 0.23097 0
       vertex -0.053615 0.23097 0.1
    endloop
  endfacet
  facet normal 0.442302 0.896866 0
    outer loop
       vertex -0.053615 0.23097 0.1
       vertex -0.024286 0.216506 0.1
       vertex -0.024286 0.216506 0
    endloop
  endfacet
  facet normal 0.321425 0.946935 0
    outer loop
       vertex -0.053615 0.23097 0
       vertex -0.084581 0.241481 0
       vertex -0.084581 0.241481 0.1
    endloop
  endfacet
  facet normal 0.321425 0.946935 0
    outer loop
       vertex -0.084581 0.241481 0.1
       vertex -0.053615 0.23097 0.1
       vertex -0.053615 0.23097 0
    endloop
  endfacet
  facet normal 0.195096 0.980784 0
    outer loop
       vertex -0.084581 0.241481 0
       vertex -0.116654 0.247861 0
       vertex -0.116654 0.247861 0.1
    endloop
  endfacet
  facet normal 0.195096 0.980784 0
    outer loop
       vertex -0.116654 0.247861 0.1
       vertex -0.084581 0.241481 0.1
       vertex -0.084581 0.241481 0
    endloop
  endfacet
  facet normal 0.0654098 0.997858 0
    outer loop
       vertex -0.149286 0.25 0.1
       vertex -0.116654 0.247861 0.1
       vertex -0.116654 0.247861 0
    endloop
  endfacet
  facet normal 0.0654098 0.997858 -1.0893e-16
    outer loop
       vertex -0.116654 0.247861 0
       vertex -0.149286 0.25 0
       vertex -0.149286 0.25 0.1
    endloop
  endfacet
  facet normal -0.0654098 0.997858 0
    outer loop
       vertex -0.149286 0.25 0
       vertex -0.181917 0.247861 0
       vertex -0.181917 0.247861 0.1
    endloop
  endfacet
  facet normal -0.0654098 0.997858 1.0893e-16
    outer loop
       vertex -0.181917 0.247861 0.1
       vertex -0.149286 0.25 0.1
       vertex -0.149286 0.25 0
    endloop
  endfacet
  facet normal -0.195096 0.980784 0
    outer loop
       vertex -0.181917 0.247861 0
       vertex -0.213991 0.241481 0
       vertex -0.213991 0.241481 0.1
    endloop
  endfacet
  facet normal -0.195096 0.980784 0
    outer loop
       vertex -0.213991 0.241481 0.1
       vertex -0.181917 0.247861 0.1
       vertex -0.181917 0.247861 0
    endloop
  endfacet
  facet normal -0.321425 0.946935 0
    outer loop
       vertex -0.213991 0.241481 0
       vertex -0.244957 0.23097 0
       vertex -0.244957 0.23097 0.1
    endloop
  endfacet
  facet normal -0.321425 0.946935 0
    outer loop
       vertex -0.244957 0.23097 0.1
       vertex -0.213991 0.241481 0.1
       vertex -0.213991 0.241481 0
    endloop
  endfacet
  facet normal -0.442302 0.896866 0
    outer loop
       vertex -0.244957 0.23097 0
       vertex -0.274286 0.216506 0
       vertex -0.274286 0.216506 0.1
    endloop
  endfacet
  facet normal -0.442302 0.896866 0
    outer loop
       vertex -0.274286 0.216506 0.1
       vertex -0.244957 0.23097 0.1
       vertex -0.244957 0.23097 0
    endloop
  endfacet
  facet normal -0.555561 0.831476 0
    outer loop
       vertex -0.274286 0.216506 0
       vertex -0.301477 0.198338 0
       vertex -0.301477 0.198338 0.1
    endloop
  endfacet
  facet normal -0.555561 0.831476 0
    outer loop
       vertex -0.301477 0.198338 0.1
       vertex -0.274286 0.216506 0.1
       vertex -0.274286 0.216506 0
    endloop
  endfacet
  facet normal -0.659372 0.751817 0
    outer loop
       vertex -0.301477 0.198338 0
       vertex -0.326062 0.176776 0
       vertex -0.326062 0.176776 0.1
    endloop
  endfacet
  facet normal -0.659372 0.751817 0
    outer loop
       vertex -0.326062 0.176776 0.1
       vertex -0.301477 0.198338 0.1
       vertex -0.301477 0.198338 0
    endloop
  endfacet
  facet normal -0.751817 0.659372 0
    outer loop
       vertex -0.326062 0.176776 0
       vertex -0.347624 0.152191 0
       vertex -0.347624 0.152191 0.1
    endloop
  endfacet
  facet normal -0.751817 0.659372 0
    outer loop
       vertex -0.347624 0.152191 0.1
       vertex -0.326062 0.176776 0.1
       vertex -0.326062 0.176776 0
    endloop
  endfacet
  facet normal -0.831476 0.555561 0
    outer loop
       vertex -0.347624 0.152191 0
       vertex -0.365792 0.125 0
       vertex -0.365792 0.125 0.1
    endloop
  endfacet
  facet normal -0.831476 0.555561 0
    outer loop
       vertex -0.365792 0.125 0.1
       vertex -0.347624 0.152191 0.1
       vertex -0.347624 0.152191 0
    endloop
  endfacet
  facet normal -0.896866 0.442302 0
    outer loop
       vertex -0.365792 0.125 0
       vertex -0.380256 0.095671 0
       vertex -0.380256 0.095671 0.1
    endloop
  endfacet
  facet normal -0.896866 0.442302 0
    outer loop
       vertex -0.380256 0.095671 0.1
       vertex -0.365792 0.125 0.1
       vertex -0.365792 0.125 0
    endloop
  endfacet
  facet normal -0.946935 0.321425 0
    outer loop
       vertex -0.380256 0.095671 0
       vertex -0.390767 0.064705 0
       vertex -0.390767 0.064705 0.1
    endloop
  endfacet
  facet normal -0.946935 0.321425 0
    outer loop
       vertex -0.390767 0.064705 0.1
       vertex -0.380256 0.095671 0.1
       vertex -0.380256 0.095671 0
    endloop
  endfacet
  facet normal -0.980784 0.195096 0
    outer loop
       vertex -0.390767 0.064705 0
       vertex -0.397147 0.0326315 0
       vertex -0.397147 0.0326315 0.1
    endloop
  endfacet
  facet normal -0.980784 0.195096 0
    outer loop
       vertex -0.397147 0.0326315 0.1
       vertex -0.390767 0.064705 0.1
       vertex -0.390767 0.064705 0
    endloop
  endfacet
  facet normal -0.997858 0.0654098 0
    outer loop
       vertex -0.399286 8.32665e-17 0.1
       vertex -0.397147 0.0326315 0.1
       vertex -0.397147 0.0326315 0
    endloop
  endfacet
  facet normal -0.997858 0.0654098 -1.08928e-16
    outer loop
       vertex -0.397147 0.0326315 0
       vertex -0.399286 -8.32665e-17 0
       vertex -0.399286 8.32665e-17 0.1
    endloop
  endfacet
  facet normal -0.997858 -0.0654098 0
    outer loop
       vertex -0.399286 -8.32665e-17 0
       vertex -0.397147 -0.0326315 0
       vertex -0.397147 -0.0326315 0.1
    endloop
  endfacet
  facet normal -0.997858 -0.0654098 1.08928e-16
    outer loop
       vertex -0.397147 -0.0326315 0.1
       vertex -0.399286 8.32665e-17 0.1
       vertex -0.399286 -8.32665e-17 0
    endloop
  endfacet
  facet normal -0.980784 -0.195096 0
    outer loop
       vertex -0.397147 -0.0326315 0
       vertex -0.390767 -0.064705 0
       vertex -0.390767 -0.064705 0.1
    endloop
  endfacet
  facet normal -0.980784 -0.195096 0
    outer loop
       vertex -0.390767 -0.064705 0.1
       vertex -0.397147 -0.0326315 0.1
       vertex -0.397147 -0.0326315 0
    endloop
  endfacet
  facet normal -0.946935 -0.321425 0
    outer loop
       vertex -0.390767 -0.064705 0
       vertex -0.380256 -0.095671 0
       vertex -0.380256 -0.095671 0.1
    endloop
  endfacet
  facet normal -0.946935 -0.321425 0
    outer loop
       vertex -0.380256 -0.095671 0.1
       vertex -0.390767 -0.064705 0.1
       vertex -0.390767 -0.064705 0
    endloop
  endfacet
  facet normal -0.896866 -0.442302 0
    outer loop
       vertex -0.380256 -0.095671 0
       vertex -0.365792 -0.125 0
       vertex -0.365792 -0.125 0.1
    endloop
  endfacet
  facet normal -0.896866 -0.442302 0
    outer loop
       vertex -0.365792 -0.125 0.1
       vertex -0.380256 -0.095671 0.1
       vertex -0.380256 -0.095671 0
    endloop
  endfacet
  facet normal -0.831476 -0.555561 0
    outer loop
       vertex -0.365792 -0.125 0
       vertex -0.347624 -0.152191 0
       vertex -0.347624 -0.152191 0.1
    endloop
  endfacet
  facet normal -0.831476 -0.555561 0
    outer loop
       vertex -0.347624 -0.152191 0.1
       vertex -0.365792 -0.125 0.1
       vertex -0.365792 -0.125 0
    endloop
  endfacet
  facet normal -0.751817 -0.659372 0
    outer loop
       vertex -0.347624 -0.152191 0
       vertex -0.326062 -0.176776 0
       vertex -0.326062 -0.176776 0.1
    endloop
  endfacet
  facet normal -0.751817 -0.659372 0
    outer loop
       vertex -0.326062 -0.176776 0.1
       vertex -0.347624 -0.152191 0.1
       vertex -0.347624 -0.152191 0
    endloop
  endfacet
  facet normal 0.659372 -0.751817 0
    outer loop
       vertex 0.02749 -0.176776 0
       vertex 0.02749 -0.176776 0.1
       vertex 0.00290502 -0.198338 0.1
    endloop
  endfacet
  facet normal 0.659372 -0.751817 0
    outer loop
       vertex 0.00290502 -0.198338 0.1
       vertex 0.00290502 -0.198338 0
       vertex 0.02749 -0.176776 0
    endloop
  endfacet
  facet normal 0.555561 -0.831476 0
    outer loop
       vertex 0.00290502 -0.198338 0
       vertex 0.00290502 -0.198338 0.1
       vertex -0.024286 -0.216506 0.1
    endloop
  endfacet
  facet normal 0.555561 -0.831476 0
    outer loop
       vertex -0.024286 -0.216506 0.1
       vertex -0.024286 -0.216506 0
       vertex 0.00290502 -0.198338 0
    endloop
  endfacet
  facet normal 0.442302 -0.896866 0
    outer loop
       vertex -0.024286 -0.216506 0
       vertex -0.024286 -0.216506 0.1
       vertex -0.053615 -0.23097 0.1
    endloop
  endfacet
  facet normal 0.442302 -0.896866 0
    outer loop
       vertex -0.053615 -0.23097 0.1
       vertex -0.053615 -0.23097 0
       vertex -0.024286 -0.216506 0
    endloop
  endfacet
  facet normal 0.321425 -0.946935 0
    outer loop
       vertex -0.053615 -0.23097 0
       vertex -0.053615 -0.23097 0.1
       vertex -0.084581 -0.241481 0.1
    endloop
  endfacet
  facet normal 0.321425 -0.946935 0
    outer loop
       vertex -0.084581 -0.241481 0.1
       vertex -0.084581 -0.241481 0
       vertex -0.053615 -0.23097 0
    endloop
  endfacet
  facet normal 0.195096 -0.980784 0
    outer loop
       vertex -0.084581 -0.241481 0
       vertex -0.084581 -0.241481 0.1
       vertex -0.116654 -0.247861 0.1
    endloop
  endfacet
  facet normal 0.195096 -0.980784 0
    outer loop
       vertex -0.116654 -0.247861 0.1
       vertex -0.116654 -0.247861 0
       vertex -0.084581 -0.241481 0
    endloop
  endfacet
  facet normal 0.0654098 -0.997858 0
    outer loop
       vertex -0.149286 -0.25 0
       vertex -0.116654 -0.247861 0
       vertex -0.116654 -0.247861 0.1
    endloop
  endfacet
  facet normal 0.0654098 -0.997858 1.0893e-16
    outer loop
       vertex -0.116654 -0.247861 0.1
       vertex -0.149286 -0.25 0.1
       vertex -0.149286 -0.25 0
    endloop
  endfacet
  facet normal -0.0654098 -0.997858 0
    outer loop
       vertex -0.149286 -0.25 0.1
       vertex -0.181917 -0.247861 0.1
       vertex -0.181917 -0.247861 0
    endloop
  endfacet
  facet normal -0.0654098 -0.997858 -1.0893e-16
    outer loop
       vertex -0.181917 -0.247861 0
       vertex -0.149286 -0.25 0
       vertex -0.149286 -0.25 0.1
    endloop
  endfacet
  facet normal -0.195096 -0.980784 0
    outer loop
       vertex -0.181917 -0.247861 0
       vertex -0.181917 -0.247861 0.1
       vertex -0.213991 -0.241481 0.1
    endloop
  endfacet
  facet normal -0.195096 -0.980784 -0
    outer loop
       vertex -0.213991 -0.241481 0.1
       vertex -0.213991 -0.241481 0
       vertex -0.181917 -0.247861 0
    endloop
  endfacet
  facet normal -0.321425 -0.946935 0
    outer loop
       vertex -0.213991 -0.241481 0
       vertex -0.213991 -0.241481 0.1
       vertex -0.244957 -0.23097 0.1
    endloop
  endfacet
  facet normal -0.321425 -0.946935 -0
    outer loop
       vertex -0.244957 -0.23097 0.1
       vertex -0.244957 -0.23097 0
       vertex -0.213991 -0.241481 0
    endloop
  endfacet
  facet normal -0.442302 -0.896866 0
    outer loop
       vertex -0.244957 -0.23097 0
       vertex -0.244957 -0.23097 0.1
       vertex -0.274286 -0.216506 0.1
    endloop
  endfacet
  facet normal -0.442302 -0.896866 -0
    outer loop
       vertex -0.274286 -0.216506 0.1
       vertex -0.274286 -0.216506 0
       vertex -0.244957 -0.23097 0
    endloop
  endfacet
  facet normal -0.555561 -0.831476 0
    outer loop
       vertex -0.274286 -0.216506 0
       vertex -0.274286 -0.216506 0.1
       vertex -0.301477 -0.198338 0.1
    endloop
  endfacet
  facet normal -0.555561 -0.831476 -0
    outer loop
       vertex -0.301477 -0.198338 0.1
       vertex -0.301477 -0.198338 0
       vertex -0.274286 -0.216506 0
    endloop
  endfacet
  facet normal -0.659372 -0.751817 0
    outer loop
       vertex -0.301477 -0.198338 0
       vertex -0.301477 -0.198338 0.1
       vertex -0.326062 -0.176776 0.1
    endloop
  endfacet
  facet normal -0.659372 -0.751817 -0
    outer loop
       vertex -0.326062 -0.176776 0.1
       vertex -0.326062 -0.176776 0
       vertex -0.301477 -0.198338 0
    endloop
  endfacet
endsolid cylinder
