solid cylinder
  facet normal 0.751817 -0.659372 0
    outer loop
       vertex 0.32736 -0.176776 0
       vertex 0.348922 -0.152191 0
       vertex 0.348922 -0.152191 0.1
    endloop
  endfacet
  facet normal 0.751817 -0.659372 0
    outer loop
       vertex 0.348922 -0.152191 0.1
       vertex 0.32736 -0.176776 0.1
       vertex 0.32736 -0.176776 0
    endloop
  endfacet
  facet normal 0.831476 -0.555561 0
    outer loop
       vertex 0.348922 -0.152191 0
       vertex 0.36709 -0.125 0
       vertex 0.36709 -0.125 0.1
    endloop
  endfacet
  facet normal 0.831476 -0.555561 0
    outer loop
       vertex 0.36709 -0.125 0.1
       vertex 0.348922 -0.152191 0.1
       vertex 0.348922 -0.152191 0
    endloop
  endfacet
  facet normal 0.896866 -0.442302 0
    outer loop
       vertex 0.36709 -0.125 0
       vertex 0.381554 -0.095671 0
       vertex 0.381554 -0.095671 0.1
    endloop
  endfacet
  facet normal 0.896866 -0.442302 0
    outer loop
       vertex 0.381554 -0.095671 0.1
       vertex 0.36709 -0.125 0.1
       vertex 0.36709 -0.125 0
    endloop
  endfacet
  facet normal 0.946935 -0.321425 0
    outer loop
       vertex 0.381554 -0.095671 0
       vertex 0.392065 -0.064705 0
       vertex 0.392065 -0.064705 0.1
    endloop
  endfacet
  facet normal 0.946935 -0.321425 0
    outer loop
       vertex 0.392065 -0.064705 0.1
       vertex 0.381554 -0.095671 0.1
       vertex 0.381554 -0.095671 0
    endloop
  endfacet
  facet normal 0.980784 -0.195096 0
    outer loop
       vertex 0.392065 -0.064705 0
       vertex 0.398445 -0.0326315 0
       vertex 0.398445 -0.0326315 0.1
    endloop
  endfacet
  facet normal 0.980784 -0.195096 0
    outer loop
       vertex 0.398445 -0.0326315 0.1
       vertex 0.392065 -0.064705 0.1
       vertex 0.392065 -0.064705 0
    endloop
  endfacet
  facet normal 0.997858 -0.0654098 0
    outer loop
       vertex 0.400584 -8.32665e-17 0.1
       vertex 0.398445 -0.0326315 0.1
       vertex 0.398445 -0.0326315 0
    endloop
  endfacet
  facet normal 0.997858 -0.0654098 -1.08928e-16
    outer loop
       vertex 0.398445 -0.0326315 0
       vertex 0.400584 8.32665e-17 0
       vertex 0.400584 -8.32665e-17 0.1
    endloop
  endfacet
  facet normal 0.997858 0.0654098 0
    outer loop
       vertex 0.400584 8.32665e-17 0
       vertex 0.398445 0.0326315 0
       vertex 0.398445 0.0326315 0.1
    endloop
  endfacet
  facet normal 0.997858 0.0654098 1.08928e-16
    outer loop
       vertex 0.398445 0.0326315 0.1
       vertex 0.400584 -8.32665e-17 0.1
       vertex 0.400584 8.32665e-17 0
    endloop
  endfacet
  facet normal 0.980784 0.195096 0
    outer loop
       vertex 0.398445 0.0326315 0
       vertex 0.392065 0.064705 0
       vertex 0.392065 0.064705 0.1
    endloop
  endfacet
  facet normal 0.980784 0.195096 0
    outer loop
       vertex 0.392065 0.064705 0.1
       vertex 0.398445 0.0326315 0.1
       vertex 0.398445 0.0326315 0
    endloop
  endfacet
  facet normal 0.946935 0.321425 0
    outer loop
       vertex 0.392065 0.064705 0
       vertex 0.381554 0.095671 0
       vertex 0.381554 0.095671 0.1
    endloop
  endfacet
  facet normal 0.946935 0.321425 0
    outer loop
       vertex 0.381554 0.095671 0.1
       vertex 0.392065 0.064705 0.1
       vertex 0.392065 0.064705 0
    endloop
  endfacet
  facet normal 0.896866 0.442302 0
    outer loop
       vertex 0.381554 0.095671 0
       vertex 0.36709 0.125 0
       vertex 0.36709 0.125 0.1
    endloop
  endfacet
  facet normal 0.896866 0.442302 0
    outer loop
       vertex 0.36709 0.125 0.1
       vertex 0.381554 0.095671 0.1
       vertex 0.381554 0.095671 0
    endloop
  endfacet
  facet normal 0.831476 0.555561 0
    outer loop
       vertex 0.36709 0.125 0
       vertex 0.348922 0.152191 0
       vertex 0.348922 0.152191 0.1
    endloop
  endfacet
  facet normal 0.831476 0.555561 0
    outer loop
       vertex 0.348922 0.152191 0.1
       vertex 0.36709 0.125 0.1
       vertex 0.36709 0.125 0
    endloop
  endfacet
  facet normal 0.751817 0.659372 0
    outer loop
       vertex 0.348922 0.152191 0
       vertex 0.32736 0.176776 0
       vertex 0.32736 0.176776 0.1
    endloop
  endfacet
  facet normal 0.751817 0.659372 0
    outer loop
       vertex 0.32736 0.176776 0.1
       vertex 0.348922 0.152191 0.1
       vertex 0.348922 0.152191 0
    endloop
  endfacet
  facet normal 0.659372 0.751817 0
    outer loop
       vertex 0.32736 0.176776 0
       vertex 0.302775 0.198338 0
       vertex 0.302775 0.198338 0.1
    endloop
  endfacet
  facet normal 0.659372 0.751817 0
    outer loop
       vertex 0.302775 0.198338 0.1
       vertex 0.32736 0.176776 0.1
       vertex 0.32736 0.176776 0
    endloop
  endfacet
  facet normal 0.555561 0.831476 0
    outer loop
       vertex 0.302775 0.198338 0
       vertex 0.275584 0.216506 0
       vertex 0.275584 0.216506 0.1
    endloop
  endfacet
  facet normal 0.555561 0.831476 0
    outer loop
       vertex 0.275584 0.216506 0.1
       vertex 0.302775 0.198338 0.1
       vertex 0.302775 0.198338 0
    endloop
  endfacet
  facet normal 0.442302 0.896866 0
    outer loop
       vertex 0.275584 0.216506 0
       vertex 0.246255 0.23097 0
       vertex 0.246255 0.23097 0.1
    endloop
  endfacet
  facet normal 0.442302 0.896866 0
    outer loop
       vertex 0.246255 0.23097 0.1
       vertex 0.275584 0.216506 0.1
       vertex 0.275584 0.216506 0
    endloop
  endfacet
  facet normal 0.321425 0.946935 0
    outer loop
       vertex 0.246255 0.23097 0
       vertex 0.215289 0.241481 0
       vertex 0.215289 0.241481 0.1
    endloop
  endfacet
  facet normal 0.321425 0.946935 0
    outer loop
       vertex 0.215289 0.241481 0.1
       vertex 0.246255 0.23097 0.1
       vertex 0.246255 0.23097 0
    endloop
  endfacet
  facet normal 0.195096 0.980784 0
    outer loop
       vertex 0.215289 0.241481 0
       vertex 0.183216 0.247861 0
       vertex 0.183216 0.247861 0.1
    endloop
  endfacet
  facet normal 0.195096 0.980784 0
    outer loop
       vertex 0.183216 0.247861 0.1
       vertex 0.215289 0.241481 0.1
       vertex 0.215289 0.241481 0
    endloop
  endfacet
  facet normal 0.0654098 0.997858 0
    outer loop
       vertex 0.150584 0.25 0.1
       vertex 0.183216 0.247861 0.1
       vertex 0.183216 0.247861 0
    endloop
  endfacet
  facet normal 0.0654098 0.997858 -1.0893e-16
    outer loop
       vertex 0.183216 0.247861 0
       vertex 0.150584 0.25 0
       vertex 0.150584 0.25 0.1
    endloop
  endfacet
  facet normal -0.0654098 0.997858 0
    outer loop
       vertex 0.150584 0.25 0
       vertex 0.117953 0.247861 0
       vertex 0.117953 0.247861 0.1
    endloop
  endfacet
  facet normal -0.0654098 0.997858 1.0893e-16
    outer loop
       vertex 0.117953 0.247861 0.1
       vertex 0.150584 0.25 0.1
       vertex 0.150584 0.25 0
    endloop
  endfacet
  facet normal -0.195096 0.980784 0
    outer loop
       vertex 0.117953 0.247861 0
       vertex 0.0858793 0.241481 0
       vertex 0.0858793 0.241481 0.1
    endloop
  endfacet
  facet normal -0.195096 0.980784 0
    outer loop
       vertex 0.0858793 0.241481 0.1
       vertex 0.117953 0.247861 0.1
       vertex 0.117953 0.247861 0
    endloop
  endfacet
  facet normal -0.321425 0.946935 0
    outer loop
       vertex 0.0858793 0.241481 0
       vertex 0.0549133 0.23097 0
       vertex 0.0549133 0.23097 0.1
    endloop
  endfacet
  facet normal -0.321425 0.946935 0
    outer loop
       vertex 0.0549133 0.23097 0.1
       vertex 0.0858793 0.241481 0.1
       vertex 0.0858793 0.241481 0
    endloop
  endfacet
  facet normal -0.442302 0.896866 0
    outer loop
       vertex 0.0549133 0.23097 0
       vertex 0.0255843 0.216506 0
       vertex 0.0255843 0.216506 0.1
    endloop
  endfacet
  facet normal -0.442302 0.896866 0
    outer loop
       vertex 0.0255843 0.216506 0.1
       vertex 0.0549133 0.23097 0.1
       vertex 0.0549133 0.23097 0
    endloop
  endfacet
  facet normal -0.555561 0.831476 0
    outer loop
       vertex 0.0255843 0.216506 0
       vertex -0.0016067 0.198338 0
       vertex -0.0016067 0.198338 0.1
    endloop
  endfacet
  facet normal -0.555561 0.831476 0
    outer loop
       vertex -0.0016067 0.198338 0.1
       vertex 0.0255843 0.216506 0.1
       vertex 0.0255843 0.216506 0
    endloop
  endfacet
  facet normal -0.659372 0.751817 0
    outer loop
       vertex -0.0016067 0.198338 0
       vertex -0.0261917 0.176776 0
       vertex -0.0261917 0.176776 0.1
    endloop
  endfacet
  facet normal -0.659372 0.751817 0
    outer loop
       vertex -0.0261917 0.176776 0.1
       vertex -0.0016067 0.198338 0.1
       vertex -0.0016067 0.198338 0
    endloop
  endfacet
  facet normal -0.751817 0.659372 0
    outer loop
       vertex -0.0261917 0.176776 0
       vertex -0.0477537 0.152191 0
       vertex -0.0477537 0.152191 0.1
    endloop
  endfacet
  facet normal -0.751817 0.659372 0
    outer loop
       vertex -0.0477537 0.152191 0.1
       vertex -0.0261917 0.176776 0.1
       vertex -0.0261917 0.176776 0
    endloop
  endfacet
  facet normal -0.831476 0.555561 0
    outer loop
       vertex -0.0477537 0.152191 0
       vertex -0.0659217 0.125 0
       vertex -0.0659217 0.125 0.1
    endloop
  endfacet
  facet normal -0.831476 0.555561 0
    outer loop
       vertex -0.0659217 0.125 0.1
       vertex -0.0477537 0.152191 0.1
       vertex -0.0477537 0.152191 0
    endloop
  endfacet
  facet normal -0.896866 0.442302 0
    outer loop
       vertex -0.0659217 0.125 0
       vertex -0.0803857 0.095671 0
       vertex -0.0803857 0.095671 0.1
    endloop
  endfacet
  facet normal -0.896866 0.442302 0
    outer loop
       vertex -0.0803857 0.095671 0.1
       vertex -0.0659217 0.125 0.1
       vertex -0.0659217 0.125 0
    endloop
  endfacet
  facet normal -0.946935 0.321425 0
    outer loop
       vertex -0.0803857 0.095671 0
       vertex -0.0908967 0.064705 0
       vertex -0.0908967 0.064705 0.1
    endloop
  endfacet
  facet normal -0.946935 0.321425 0
    outer loop
       vertex -0.0908967 0.064705 0.1
       vertex -0.0803857 0.095671 0.1
       vertex -0.0803857 0.095671 0
    endloop
  endfacet
  facet normal -0.980784 0.195096 0
    outer loop
       vertex -0.0908967 0.064705 0
       vertex -0.0972767 0.0326315 0
       vertex -0.0972767 0.0326315 0.1
    endloop
  endfacet
  facet normal -0.980784 0.195096 0
    outer loop
       vertex -0.0972767 0.0326315 0.1
       vertex -0.0908967 0.064705 0.1
       vertex -0.0908967 0.064705 0
    endloop
  endfacet
  facet normal -0.997858 0.0654098 0
    outer loop
       vertex -0.0994157 8.32665e-17 0.1
       vertex -0.0972767 0.0326315 0.1
       vertex -0.0972767 0.0326315 0
    endloop
  endfacet
  facet normal -0.997858 0.0654098 -1.08928e-16
    outer loop
       vertex -0.0972767 0.0326315 0
       vertex -0.0994157 -8.32665e-17 0
       vertex -0.0994157 8.32665e-17 0.1
    endloop
  endfacet
  facet normal -0.997858 -0.0654098 0
    outer loop
       vertex -0.0994157 -8.32665e-17 0
       vertex -0.0972767 -0.0326315 0
       vertex -0.0972767 -0.0326315 0.1
    endloop
  endfacet
  facet normal -0.997858 -0.0654098 1.08928e-16
    outer loop
       vertex -0.0972767 -0.0326315 0.1
       vertex -0.0994157 8.32665e-17 0.1
       vertex -0.0994157 -8.32665e-17 0
    endloop
  endfacet
  facet normal -0.980784 -0.195096 0
    outer loop
       vertex -0.0972767 -0.0326315 0
       vertex -0.0908967 -0.064705 0
       vertex -0.0908967 -0.064705 0.1
    endloop
  endfacet
  facet normal -0.980784 -0.195096 0
    outer loop
       vertex -0.0908967 -0.064705 0.1
       vertex -0.0972767 -0.0326315 0.1
       vertex -0.0972767 -0.0326315 0
    endloop
  endfacet
  facet normal -0.946935 -0.321425 0
    outer loop
       vertex -0.0908967 -0.064705 0
       vertex -0.0803857 -0.095671 0
       vertex -0.0803857 -0.095671 0.1
    endloop
  endfacet
  facet normal -0.946935 -0.321425 0
    outer loop
       vertex -0.0803857 -0.095671 0.1
       vertex -0.0908967 -0.064705 0.1
       vertex -0.0908967 -0.064705 0
    endloop
  endfacet
  facet normal -0.896866 -0.442302 0
    outer loop
       vertex -0.0803857 -0.095671 0
       vertex -0.0659217 -0.125 0
       vertex -0.0659217 -0.125 0.1
    endloop
  endfacet
  facet normal -0.896866 -0.442302 0
    outer loop
       vertex -0.0659217 -0.125 0.1
       vertex -0.0803857 -0.095671 0.1
       vertex -0.0803857 -0.095671 0
    endloop
  endfacet
  facet normal -0.831476 -0.555561 0
    outer loop
       vertex -0.0659217 -0.125 0
       vertex -0.0477537 -0.152191 0
       vertex -0.0477537 -0.152191 0.1
    endloop
  endfacet
  facet normal -0.831476 -0.555561 0
    outer loop
       vertex -0.0477537 -0.152191 0.1
       vertex -0.0659217 -0.125 0.1
       vertex -0.0659217 -0.125 0
    endloop
  endfacet
  facet normal -0.751817 -0.659372 0
    outer loop
       vertex -0.0477537 -0.152191 0
       vertex -0.0261917 -0.176776 0
       vertex -0.0261917 -0.176776 0.1
    endloop
  endfacet
  facet normal -0.751817 -0.659372 0
    outer loop
       vertex -0.0261917 -0.176776 0.1
       vertex -0.0477537 -0.152191 0.1
       vertex -0.0477537 -0.152191 0
    endloop
  endfacet
  facet normal 0.659372 -0.751817 0
    outer loop
       vertex 0.32736 -0.176776 0
       vertex 0.32736 -0.176776 0.1
       vertex 0.302775 -0.198338 0.1
    endloop
  endfacet
  facet normal 0.659372 -0.751817 0
    outer loop
       vertex 0.302775 -0.198338 0.1
       vertex 0.302775 -0.198338 0
       vertex 0.32736 -0.176776 0
    endloop
  endfacet
  facet normal 0.555561 -0.831476 0
    outer loop
       vertex 0.302775 -0.198338 0
       vertex 0.302775 -0.198338 0.1
       vertex 0.275584 -0.216506 0.1
    endloop
  endfacet
  facet normal 0.555561 -0.831476 0
    outer loop
       vertex 0.275584 -0.216506 0.1
       vertex 0.275584 -0.216506 0
       vertex 0.302775 -0.198338 0
    endloop
  endfacet
  facet normal 0.442302 -0.896866 0
    outer loop
       vertex 0.275584 -0.216506 0
       vertex 0.275584 -0.216506 0.1
       vertex 0.246255 -0.23097 0.1
    endloop
  endfacet
  facet normal 0.442302 -0.896866 0
    outer loop
       vertex 0.246255 -0.23097 0.1
       vertex 0.246255 -0.23097 0
       vertex 0.275584 -0.216506 0
    endloop
  endfacet
  facet normal 0.321425 -0.946935 0
    outer loop
       vertex 0.246255 -0.23097 0
       vertex 0.246255 -0.23097 0.1
       vertex 0.215289 -0.241481 0.1
    endloop
  endfacet
  facet normal 0.321425 -0.946935 0
    outer loop
       vertex 0.215289 -0.241481 0.1
       vertex 0.215289 -0.241481 0
       vertex 0.246255 -0.23097 0
    endloop
  endfacet
  facet normal 0.195096 -0.980784 0
    outer loop
       vertex 0.215289 -0.241481 0
       vertex 0.215289 -0.241481 0.1
       vertex 0.183216 -0.247861 0.1
    endloop
  endfacet
  facet normal 0.195096 -0.980784 0
    outer loop
       vertex 0.183216 -0.247861 0.1
       vertex 0.183216 -0.247861 0
       vertex 0.215289 -0.241481 0
    endloop
  endfacet
  facet normal 0.0654098 -0.997858 0
    outer loop
       vertex 0.150584 -0.25 0
       vertex 0.183216 -0.247861 0
       vertex 0.183216 -0.247861 0.1
    endloop
  endfacet
  facet normal 0.0654098 -0.997858 1.0893e-16
    outer loop
       vertex 0.183216 -0.247861 0.1
       vertex 0.150584 -0.25 0.1
       vertex 0.150584 -0.25 0
    endloop
  endfacet
  facet normal -0.0654098 -0.997858 0
    outer loop
       vertex 0.150584 -0.25 0.1
       vertex 0.117953 -0.247861 0.1
       vertex 0.117953 -0.247861 0
    endloop
  endfacet
  facet normal -0.0654098 -0.997858 -1.0893e-16
    outer loop
       vertex 0.117953 -0.247861 0
       vertex 0.150584 -0.25 0
       vertex 0.150584 -0.25 0.1
    endloop
  endfacet
  facet normal -0.195096 -0.980784 0
    outer loop
       vertex 0.117953 -0.247861 0
       vertex 0.117953 -0.247861 0.1
       vertex 0.0858793 -0.241481 0.1
    endloop
  endfacet
  facet normal -0.195096 -0.980784 -0
    outer loop
       vertex 0.0858793 -0.241481 0.1
       vertex 0.0858793 -0.241481 0
       vertex 0.117953 -0.247861 0
    endloop
  endfacet
  facet normal -0.321425 -0.946935 0
    outer loop
       vertex 0.0858793 -0.241481 0
       vertex 0.0858793 -0.241481 0.1
       vertex 0.0549133 -0.23097 0.1
    endloop
  endfacet
  facet normal -0.321425 -0.946935 -0
    outer loop
       vertex 0.0549133 -0.23097 0.1
       vertex 0.0549133 -0.23097 0
       vertex 0.0858793 -0.241481 0
    endloop
  endfacet
  facet normal -0.442302 -0.896866 0
    outer loop
       vertex 0.0549133 -0.23097 0
       vertex 0.0549133 -0.23097 0.1
       vertex 0.0255843 -0.216506 0.1
    endloop
  endfacet
  facet normal -0.442302 -0.896866 -0
    outer loop
       vertex 0.0255843 -0.216506 0.1
       vertex 0.0255843 -0.216506 0
       vertex 0.0549133 -0.23097 0
    endloop
  endfacet
  facet normal -0.555561 -0.831476 0
    outer loop
       vertex 0.0255843 -0.216506 0
       vertex 0.0255843 -0.216506 0.1
       vertex -0.0016067 -0.198338 0.1
    endloop
  endfacet
  facet normal -0.555561 -0.831476 -0
    outer loop
       vertex -0.0016067 -0.198338 0.1
       vertex -0.0016067 -0.198338 0
       vertex 0.0255843 -0.216506 0
    endloop
  endfacet
  facet normal -0.659372 -0.751817 0
    outer loop
       vertex -0.0016067 -0.198338 0
       vertex -0.0016067 -0.198338 0.1
       vertex -0.0261917 -0.176776 0.1
    endloop
  endfacet
  facet normal -0.659372 -0.751817 -0
    outer loop
       vertex -0.0261917 -0.176776 0.1
       vertex -0.0261917 -0.176776 0
       vertex -0.0016067 -0.198338 0
    endloop
  endfacet
endsolid cylinder
