solid cylinder
  facet normal 0.751817 -0.659372 0
    outer loop
       vertex 0.312588 -0.176776 0
       vertex 0.33415 -0.152191 0
       vertex 0.33415 -0.152191 0.1
    endloop
  endfacet
  facet normal 0.751817 -0.659372 0
    outer loop
       vertex 0.33415 -0.152191 0.1
       vertex 0.312588 -0.176776 0.1
       vertex 0.312588 -0.176776 0
    endloop
  endfacet
  facet normal 0.831476 -0.555561 0
    outer loop
       vertex 0.33415 -0.152191 0
       vertex 0.352318 -0.125 0
       vertex 0.352318 -0.125 0.1
    endloop
  endfacet
  facet normal 0.831476 -0.555561 0
    outer loop
       vertex 0.352318 -0.125 0.1
       vertex 0.33415 -0.152191 0.1
       vertex 0.33415 -0.152191 0
    endloop
  endfacet
  facet normal 0.896866 -0.442302 0
    outer loop
       vertex 0.352318 -0.125 0
       vertex 0.366782 -0.095671 0
       vertex 0.366782 -0.095671 0.1
    endloop
  endfacet
  facet normal 0.896866 -0.442302 0
    outer loop
       vertex 0.366782 -0.095671 0.1
       vertex 0.352318 -0.125 0.1
       vertex 0.352318 -0.125 0
    endloop
  endfacet
  facet normal 0.946935 -0.321425 0
    outer loop
       vertex 0.366782 -0.095671 0
       vertex 0.377293 -0.064705 0
       vertex 0.377293 -0.064705 0.1
    endloop
  endfacet
  facet normal 0.946935 -0.321425 0
    outer loop
       vertex 0.377293 -0.064705 0.1
       vertex 0.366782 -0.095671 0.1
       vertex 0.366782 -0.095671 0
    endloop
  endfacet
  facet normal 0.980784 -0.195096 0
    outer loop
       vertex 0.377293 -0.064705 0
       vertex 0.383673 -0.0326315 0
       vertex 0.383673 -0.0326315 0.1
    endloop
  endfacet
  facet normal 0.980784 -0.195096 0
    outer loop
       vertex 0.383673 -0.0326315 0.1
       vertex 0.377293 -0.064705 0.1
       vertex 0.377293 -0.064705 0
    endloop
  endfacet
  facet normal 0.997858 -0.0654098 0
    outer loop
       vertex 0.385812 -8.32665e-17 0.1
       vertex 0.383673 -0.0326315 0.1
       vertex 0.383673 -0.0326315 0
    endloop
  endfacet
  facet normal 0.997858 -0.0654098 -1.08928e-16
    outer loop
       vertex 0.383673 -0.0326315 0
       vertex 0.385812 8.32665e-17 0
       vertex 0.385812 -8.32665e-17 0.1
    endloop
  endfacet
  facet normal 0.997858 0.0654098 0
    outer loop
       vertex 0.385812 8.32665e-17 0
       vertex 0.383673 0.0326315 0
       vertex 0.383673 0.0326315 0.1
    endloop
  endfacet
  facet normal 0.997858 0.0654098 1.08928e-16
    outer loop
       vertex 0.383673 0.0326315 0.1
       vertex 0.385812 -8.32665e-17 0.1
       vertex 0.385812 8.32665e-17 0
    endloop
  endfacet
  facet normal 0.980784 0.195096 0
    outer loop
       vertex 0.383673 0.0326315 0
       vertex 0.377293 0.064705 0
       vertex 0.377293 0.064705 0.1
    endloop
  endfacet
  facet normal 0.980784 0.195096 0
    outer loop
       vertex 0.377293 0.064705 0.1
       vertex 0.383673 0.0326315 0.1
       vertex 0.383673 0.0326315 0
    endloop
  endfacet
  facet normal 0.946935 0.321425 0
    outer loop
       vertex 0.377293 0.064705 0
       vertex 0.366782 0.095671 0
       vertex 0.366782 0.095671 0.1
    endloop
  endfacet
  facet normal 0.946935 0.321425 0
    outer loop
       vertex 0.366782 0.095671 0.1
       vertex 0.377293 0.064705 0.1
       vertex 0.377293 0.064705 0
    endloop
  endfacet
  facet normal 0.896866 0.442302 0
    outer loop
       vertex 0.366782 0.095671 0
       vertex 0.352318 0.125 0
       vertex 0.352318 0.125 0.1
    endloop
  endfacet
  facet normal 0.896866 0.442302 0
    outer loop
       vertex 0.352318 0.125 0.1
       vertex 0.366782 0.095671 0.1
       vertex 0.366782 0.095671 0
    endloop
  endfacet
  facet normal 0.831476 0.555561 0
    outer loop
       vertex 0.352318 0.125 0
       vertex 0.33415 0.152191 0
       vertex 0.33415 0.152191 0.1
    endloop
  endfacet
  facet normal 0.831476 0.555561 0
    outer loop
       vertex 0.33415 0.152191 0.1
       vertex 0.352318 0.125 0.1
       vertex 0.352318 0.125 0
    endloop
  endfacet
  facet normal 0.751817 0.659372 0
    outer loop
       vertex 0.33415 0.152191 0
       vertex 0.312588 0.176776 0
       vertex 0.312588 0.176776 0.1
    endloop
  endfacet
  facet normal 0.751817 0.659372 0
    outer loop
       vertex 0.312588 0.176776 0.1
       vertex 0.33415 0.152191 0.1
       vertex 0.33415 0.152191 0
    endloop
  endfacet
  facet normal 0.659372 0.751817 0
    outer loop
       vertex 0.312588 0.176776 0
       vertex 0.288003 0.198338 0
       vertex 0.288003 0.198338 0.1
    endloop
  endfacet
  facet normal 0.659372 0.751817 0
    outer loop
       vertex 0.288003 0.198338 0.1
       vertex 0.312588 0.176776 0.1
       vertex 0.312588 0.176776 0
    endloop
  endfacet
  facet normal 0.555561 0.831476 0
    outer loop
       vertex 0.288003 0.198338 0
       vertex 0.260812 0.216506 0
       vertex 0.260812 0.216506 0.1
    endloop
  endfacet
  facet normal 0.555561 0.831476 0
    outer loop
       vertex 0.260812 0.216506 0.1
       vertex 0.288003 0.198338 0.1
       vertex 0.288003 0.198338 0
    endloop
  endfacet
  facet normal 0.442302 0.896866 0
    outer loop
       vertex 0.260812 0.216506 0
       vertex 0.231483 0.23097 0
       vertex 0.231483 0.23097 0.1
    endloop
  endfacet
  facet normal 0.442302 0.896866 0
    outer loop
       vertex 0.231483 0.23097 0.1
       vertex 0.260812 0.216506 0.1
       vertex 0.260812 0.216506 0
    endloop
  endfacet
  facet normal 0.321425 0.946935 0
    outer loop
       vertex 0.231483 0.23097 0
       vertex 0.200517 0.241481 0
       vertex 0.200517 0.241481 0.1
    endloop
  endfacet
  facet normal 0.321425 0.946935 0
    outer loop
       vertex 0.200517 0.241481 0.1
       vertex 0.231483 0.23097 0.1
       vertex 0.231483 0.23097 0
    endloop
  endfacet
  facet normal 0.195096 0.980784 0
    outer loop
       vertex 0.200517 0.241481 0
       vertex 0.168443 0.247861 0
       vertex 0.168443 0.247861 0.1
    endloop
  endfacet
  facet normal 0.195096 0.980784 0
    outer loop
       vertex 0.168443 0.247861 0.1
       vertex 0.200517 0.241481 0.1
       vertex 0.200517 0.241481 0
    endloop
  endfacet
  facet normal 0.0654098 0.997858 0
    outer loop
       vertex 0.135812 0.25 0.1
       vertex 0.168443 0.247861 0.1
       vertex 0.168443 0.247861 0
    endloop
  endfacet
  facet normal 0.0654098 0.997858 -1.0893e-16
    outer loop
       vertex 0.168443 0.247861 0
       vertex 0.135812 0.25 0
       vertex 0.135812 0.25 0.1
    endloop
  endfacet
  facet normal -0.0654098 0.997858 0
    outer loop
       vertex 0.135812 0.25 0
       vertex 0.10318 0.247861 0
       vertex 0.10318 0.247861 0.1
    endloop
  endfacet
  facet normal -0.0654098 0.997858 1.0893e-16
    outer loop
       vertex 0.10318 0.247861 0.1
       vertex 0.135812 0.25 0.1
       vertex 0.135812 0.25 0
    endloop
  endfacet
  facet normal -0.195096 0.980784 0
    outer loop
       vertex 0.10318 0.247861 0
       vertex 0.0711066 0.241481 0
       vertex 0.0711066 0.241481 0.1
    endloop
  endfacet
  facet normal -0.195096 0.980784 0
    outer loop
       vertex 0.0711066 0.241481 0.1
       vertex 0.10318 0.247861 0.1
       vertex 0.10318 0.247861 0
    endloop
  endfacet
  facet normal -0.321425 0.946935 0
    outer loop
       vertex 0.0711066 0.241481 0
       vertex 0.0401406 0.23097 0
       vertex 0.0401406 0.23097 0.1
    endloop
  endfacet
  facet normal -0.321425 0.946935 0
    outer loop
       vertex 0.0401406 0.23097 0.1
       vertex 0.0711066 0.241481 0.1
       vertex 0.0711066 0.241481 0
    endloop
  endfacet
  facet normal -0.442302 0.896866 0
    outer loop
       vertex 0.0401406 0.23097 0
       vertex 0.0108116 0.216506 0
       vertex 0.0108116 0.216506 0.1
    endloop
  endfacet
  facet normal -0.442302 0.896866 0
    outer loop
       vertex 0.0108116 0.216506 0.1
       vertex 0.0401406 0.23097 0.1
       vertex 0.0401406 0.23097 0
    endloop
  endfacet
  facet normal -0.555561 0.831476 0
    outer loop
       vertex 0.0108116 0.216506 0
       vertex -0.0163794 0.198338 0
       vertex -0.0163794 0.198338 0.1
    endloop
  endfacet
  facet normal -0.555561 0.831476 0
    outer loop
       vertex -0.0163794 0.198338 0.1
       vertex 0.0108116 0.216506 0.1
       vertex 0.0108116 0.216506 0
    endloop
  endfacet
  facet normal -0.659372 0.751817 0
    outer loop
       vertex -0.0163794 0.198338 0
       vertex -0.0409644 0.176776 0
       vertex -0.0409644 0.176776 0.1
    endloop
  endfacet
  facet normal -0.659372 0.751817 0
    outer loop
       vertex -0.0409644 0.176776 0.1
       vertex -0.0163794 0.198338 0.1
       vertex -0.0163794 0.198338 0
    endloop
  endfacet
  facet normal -0.751817 0.659372 0
    outer loop
       vertex -0.0409644 0.176776 0
       vertex -0.0625264 0.152191 0
       vertex -0.0625264 0.152191 0.1
    endloop
  endfacet
  facet normal -0.751817 0.659372 0
    outer loop
       vertex -0.0625264 0.152191 0.1
       vertex -0.0409644 0.176776 0.1
       vertex -0.0409644 0.176776 0
    endloop
  endfacet
  facet normal -0.831476 0.555561 0
    outer loop
       vertex -0.0625264 0.152191 0
       vertex -0.0806944 0.125 0
       vertex -0.0806944 0.125 0.1
    endloop
  endfacet
  facet normal -0.831476 0.555561 0
    outer loop
       vertex -0.0806944 0.125 0.1
       vertex -0.0625264 0.152191 0.1
       vertex -0.0625264 0.152191 0
    endloop
  endfacet
  facet normal -0.896866 0.442302 0
    outer loop
       vertex -0.0806944 0.125 0
       vertex -0.0951584 0.095671 0
       vertex -0.0951584 0.095671 0.1
    endloop
  endfacet
  facet normal -0.896866 0.442302 0
    outer loop
       vertex -0.0951584 0.095671 0.1
       vertex -0.0806944 0.125 0.1
       vertex -0.0806944 0.125 0
    endloop
  endfacet
  facet normal -0.946935 0.321425 0
    outer loop
       vertex -0.0951584 0.095671 0
       vertex -0.105669 0.064705 0
       vertex -0.105669 0.064705 0.1
    endloop
  endfacet
  facet normal -0.946935 0.321425 0
    outer loop
       vertex -0.105669 0.064705 0.1
       vertex -0.0951584 0.095671 0.1
       vertex -0.0951584 0.095671 0
    endloop
  endfacet
  facet normal -0.980784 0.195096 0
    outer loop
       vertex -0.105669 0.064705 0
       vertex -0.112049 0.0326315 0
       vertex -0.112049 0.0326315 0.1
    endloop
  endfacet
  facet normal -0.980784 0.195096 0
    outer loop
       vertex -0.112049 0.0326315 0.1
       vertex -0.105669 0.064705 0.1
       vertex -0.105669 0.064705 0
    endloop
  endfacet
  facet normal -0.997858 0.0654098 0
    outer loop
       vertex -0.114188 8.32665e-17 0.1
       vertex -0.112049 0.0326315 0.1
       vertex -0.112049 0.0326315 0
    endloop
  endfacet
  facet normal -0.997858 0.0654098 -1.08928e-16
    outer loop
       vertex -0.112049 0.0326315 0
       vertex -0.114188 -8.32665e-17 0
       vertex -0.114188 8.32665e-17 0.1
    endloop
  endfacet
  facet normal -0.997858 -0.0654098 0
    outer loop
       vertex -0.114188 -8.32665e-17 0
       vertex -0.112049 -0.0326315 0
       vertex -0.112049 -0.0326315 0.1
    endloop
  endfacet
  facet normal -0.997858 -0.0654098 1.08928e-16
    outer loop
       vertex -0.112049 -0.0326315 0.1
       vertex -0.114188 8.32665e-17 0.1
       vertex -0.114188 -8.32665e-17 0
    endloop
  endfacet
  facet normal -0.980784 -0.195096 0
    outer loop
       vertex -0.112049 -0.0326315 0
       vertex -0.105669 -0.064705 0
       vertex -0.105669 -0.064705 0.1
    endloop
  endfacet
  facet normal -0.980784 -0.195096 0
    outer loop
       vertex -0.105669 -0.064705 0.1
       vertex -0.112049 -0.0326315 0.1
       vertex -0.112049 -0.0326315 0
    endloop
  endfacet
  facet normal -0.946935 -0.321425 0
    outer loop
       vertex -0.105669 -0.064705 0
       vertex -0.0951584 -0.095671 0
       vertex -0.0951584 -0.095671 0.1
    endloop
  endfacet
  facet normal -0.946935 -0.321425 0
    outer loop
       vertex -0.0951584 -0.095671 0.1
       vertex -0.105669 -0.064705 0.1
       vertex -0.105669 -0.064705 0
    endloop
  endfacet
  facet normal -0.896866 -0.442302 0
    outer loop
       vertex -0.0951584 -0.095671 0
       vertex -0.0806944 -0.125 0
       vertex -0.0806944 -0.125 0.1
    endloop
  endfacet
  facet normal -0.896866 -0.442302 0
    outer loop
       vertex -0.0806944 -0.125 0.1
       vertex -0.0951584 -0.095671 0.1
       vertex -0.0951584 -0.095671 0
    endloop
  endfacet
  facet normal -0.831476 -0.555561 0
    outer loop
       vertex -0.0806944 -0.125 0
       vertex -0.0625264 -0.152191 0
       vertex -0.0625264 -0.152191 0.1
    endloop
  endfacet
  facet normal -0.831476 -0.555561 0
    outer loop
       vertex -0.0625264 -0.152191 0.1
       vertex -0.0806944 -0.125 0.1
       vertex -0.0806944 -0.125 0
    endloop
  endfacet
  facet normal -0.751817 -0.659372 0
    outer loop
       vertex -0.0625264 -0.152191 0
       vertex -0.0409644 -0.176776 0
       vertex -0.0409644 -0.176776 0.1
    endloop
  endfacet
  facet normal -0.751817 -0.659372 0
    outer loop
       vertex -0.0409644 -0.176776 0.1
       vertex -0.0625264 -0.152191 0.1
       vertex -0.0625264 -0.152191 0
    endloop
  endfacet
  facet normal 0.659372 -0.751817 0
    outer loop
       vertex 0.312588 -0.176776 0
       vertex 0.312588 -0.176776 0.1
       vertex 0.288003 -0.198338 0.1
    endloop
  endfacet
  facet normal 0.659372 -0.751817 0
    outer loop
       vertex 0.288003 -0.198338 0.1
       vertex 0.288003 -0.198338 0
       vertex 0.312588 -0.176776 0
    endloop
  endfacet
  facet normal 0.555561 -0.831476 0
    outer loop
       vertex 0.288003 -0.198338 0
       vertex 0.288003 -0.198338 0.1
       vertex 0.260812 -0.216506 0.1
    endloop
  endfacet
  facet normal 0.555561 -0.831476 0
    outer loop
       vertex 0.260812 -0.216506 0.1
       vertex 0.260812 -0.216506 0
       vertex 0.288003 -0.198338 0
    endloop
  endfacet
  facet normal 0.442302 -0.896866 0
    outer loop
       vertex 0.260812 -0.216506 0
       vertex 0.260812 -0.216506 0.1
       vertex 0.231483 -0.23097 0.1
    endloop
  endfacet
  facet normal 0.442302 -0.896866 0
    outer loop
       vertex 0.231483 -0.23097 0.1
       vertex 0.231483 -0.23097 0
       vertex 0.260812 -0.216506 0
    endloop
  endfacet
  facet normal 0.321425 -0.946935 0
    outer loop
       vertex 0.231483 -0.23097 0
       vertex 0.231483 -0.23097 0.1
       vertex 0.200517 -0.241481 0.1
    endloop
  endfacet
  facet normal 0.321425 -0.946935 0
    outer loop
       vertex 0.200517 -0.241481 0.1
       vertex 0.200517 -0.241481 0
       vertex 0.231483 -0.23097 0
    endloop
  endfacet
  facet normal 0.195096 -0.980784 0
    outer loop
       vertex 0.200517 -0.241481 0
       vertex 0.200517 -0.241481 0.1
       vertex 0.168443 -0.247861 0.1
    endloop
  endfacet
  facet normal 0.195096 -0.980784 0
    outer loop
       vertex 0.168443 -0.247861 0.1
       vertex 0.168443 -0.247861 0
       vertex 0.200517 -0.241481 0
    endloop
  endfacet
  facet normal 0.0654098 -0.997858 0
    outer loop
       vertex 0.135812 -0.25 0
       vertex 0.168443 -0.247861 0
       vertex 0.168443 -0.247861 0.1
    endloop
  endfacet
  facet normal 0.0654098 -0.997858 1.0893e-16
    outer loop
       vertex 0.168443 -0.247861 0.1
       vertex 0.135812 -0.25 0.1
       vertex 0.135812 -0.25 0
    endloop
  endfacet
  facet normal -0.0654098 -0.997858 0
    outer loop
       vertex 0.135812 -0.25 0.1
       vertex 0.10318 -0.247861 0.1
       vertex 0.10318 -0.247861 0
    endloop
  endfacet
  facet normal -0.0654098 -0.997858 -1.0893e-16
    outer loop
       vertex 0.10318 -0.247861 0
       vertex 0.135812 -0.25 0
       vertex 0.135812 -0.25 0.1
    endloop
  endfacet
  facet normal -0.195096 -0.980784 0
    outer loop
       vertex 0.10318 -0.247861 0
       vertex 0.10318 -0.247861 0.1
       vertex 0.0711066 -0.241481 0.1
    endloop
  endfacet
  facet normal -0.195096 -0.980784 -0
    outer loop
       vertex 0.0711066 -0.241481 0.1
       vertex 0.0711066 -0.241481 0
       vertex 0.10318 -0.247861 0
    endloop
  endfacet
  facet normal -0.321425 -0.946935 0
    outer loop
       vertex 0.0711066 -0.241481 0
       vertex 0.0711066 -0.241481 0.1
       vertex 0.0401406 -0.23097 0.1
    endloop
  endfacet
  facet normal -0.321425 -0.946935 -0
    outer loop
       vertex 0.0401406 -0.23097 0.1
       vertex 0.0401406 -0.23097 0
       vertex 0.0711066 -0.241481 0
    endloop
  endfacet
  facet normal -0.442302 -0.896866 0
    outer loop
       vertex 0.0401406 -0.23097 0
       vertex 0.0401406 -0.23097 0.1
       vertex 0.0108116 -0.216506 0.1
    endloop
  endfacet
  facet normal -0.442302 -0.896866 -0
    outer loop
       vertex 0.0108116 -0.216506 0.1
       vertex 0.0108116 -0.216506 0
       vertex 0.0401406 -0.23097 0
    endloop
  endfacet
  facet normal -0.555561 -0.831476 0
    outer loop
       vertex 0.0108116 -0.216506 0
       vertex 0.0108116 -0.216506 0.1
       vertex -0.0163794 -0.198338 0.1
    endloop
  endfacet
  facet normal -0.555561 -0.831476 -0
    outer loop
       vertex -0.0163794 -0.198338 0.1
       vertex -0.0163794 -0.198338 0
       vertex 0.0108116 -0.216506 0
    endloop
  endfacet
  facet normal -0.659372 -0.751817 0
    outer loop
       vertex -0.0163794 -0.198338 0
       vertex -0.0163794 -0.198338 0.1
       vertex -0.0409644 -0.176776 0.1
    endloop
  endfacet
  facet normal -0.659372 -0.751817 -0
    outer loop
       vertex -0.0409644 -0.176776 0.1
       vertex -0.0409644 -0.176776 0
       vertex -0.0163794 -0.198338 0
    endloop
  endfacet
endsolid cylinder
