solid cylinder
  facet normal 0.751817 -0.659372 0
    outer loop
       vertex 0.262126 -0.176776 0
       vertex 0.283688 -0.152191 0
       vertex 0.283688 -0.152191 0.1
    endloop
  endfacet
  facet normal 0.751817 -0.659372 0
    outer loop
       vertex 0.283688 -0.152191 0.1
       vertex 0.262126 -0.176776 0.1
       vertex 0.262126 -0.176776 0
    endloop
  endfacet
  facet normal 0.831476 -0.555561 0
    outer loop
       vertex 0.283688 -0.152191 0
       vertex 0.301856 -0.125 0
       vertex 0.301856 -0.125 0.1
    endloop
  endfacet
  facet normal 0.831476 -0.555561 0
    outer loop
       vertex 0.301856 -0.125 0.1
       vertex 0.283688 -0.152191 0.1
       vertex 0.283688 -0.152191 0
    endloop
  endfacet
  facet normal 0.896866 -0.442302 0
    outer loop
       vertex 0.301856 -0.125 0
       vertex 0.31632 -0.095671 0
       vertex 0.31632 -0.095671 0.1
    endloop
  endfacet
  facet normal 0.896866 -0.442302 0
    outer loop
       vertex 0.31632 -0.095671 0.1
       vertex 0.301856 -0.125 0.1
       vertex 0.301856 -0.125 0
    endloop
  endfacet
  facet normal 0.946935 -0.321425 0
    outer loop
       vertex 0.31632 -0.095671 0
       vertex 0.326831 -0.064705 0
       vertex 0.326831 -0.064705 0.1
    endloop
  endfacet
  facet normal 0.946935 -0.321425 0
    outer loop
       vertex 0.326831 -0.064705 0.1
       vertex 0.31632 -0.095671 0.1
       vertex 0.31632 -0.095671 0
    endloop
  endfacet
  facet normal 0.980784 -0.195096 0
    outer loop
       vertex 0.326831 -0.064705 0
       vertex 0.333211 -0.0326315 0
       vertex 0.333211 -0.0326315 0.1
    endloop
  endfacet
  facet normal 0.980784 -0.195096 0
    outer loop
       vertex 0.333211 -0.0326315 0.1
       vertex 0.326831 -0.064705 0.1
       vertex 0.326831 -0.064705 0
    endloop
  endfacet
  facet normal 0.997858 -0.0654098 0
    outer loop
       vertex 0.33535 -8.32665e-17 0.1
       vertex 0.333211 -0.0326315 0.1
       vertex 0.333211 -0.0326315 0
    endloop
  endfacet
  facet normal 0.997858 -0.0654098 -1.08928e-16
    outer loop
       vertex 0.333211 -0.0326315 0
       vertex 0.33535 8.32665e-17 0
       vertex 0.33535 -8.32665e-17 0.1
    endloop
  endfacet
  facet normal 0.997858 0.0654098 0
    outer loop
       vertex 0.33535 8.32665e-17 0
       vertex 0.333211 0.0326315 0
       vertex 0.333211 0.0326315 0.1
    endloop
  endfacet
  facet normal 0.997858 0.0654098 1.08928e-16
    outer loop
       vertex 0.333211 0.0326315 0.1
       vertex 0.33535 -8.32665e-17 0.1
       vertex 0.33535 8.32665e-17 0
    endloop
  endfacet
  facet normal 0.980784 0.195096 0
    outer loop
       vertex 0.333211 0.0326315 0
       vertex 0.326831 0.064705 0
       vertex 0.326831 0.064705 0.1
    endloop
  endfacet
  facet normal 0.980784 0.195096 0
    outer loop
       vertex 0.326831 0.064705 0.1
       vertex 0.333211 0.0326315 0.1
       vertex 0.333211 0.0326315 0
    endloop
  endfacet
  facet normal 0.946935 0.321425 0
    outer loop
       vertex 0.326831 0.064705 0
       vertex 0.31632 0.095671 0
       vertex 0.31632 0.095671 0.1
    endloop
  endfacet
  facet normal 0.946935 0.321425 0
    outer loop
       vertex 0.31632 0.095671 0.1
       vertex 0.326831 0.064705 0.1
       vertex 0.326831 0.064705 0
    endloop
  endfacet
  facet normal 0.896866 0.442302 0
    outer loop
       vertex 0.31632 0.095671 0
       vertex 0.301856 0.125 0
       vertex 0.301856 0.125 0.1
    endloop
  endfacet
  facet normal 0.896866 0.442302 0
    outer loop
       vertex 0.301856 0.125 0.1
       vertex 0.31632 0.095671 0.1
       vertex 0.31632 0.095671 0
    endloop
  endfacet
  facet normal 0.831476 0.555561 0
    outer loop
       vertex 0.301856 0.125 0
       vertex 0.283688 0.152191 0
       vertex 0.283688 0.152191 0.1
    endloop
  endfacet
  facet normal 0.831476 0.555561 0
    outer loop
       vertex 0.283688 0.152191 0.1
       vertex 0.301856 0.125 0.1
       vertex 0.301856 0.125 0
    endloop
  endfacet
  facet normal 0.751817 0.659372 0
    outer loop
       vertex 0.283688 0.152191 0
       vertex 0.262126 0.176776 0
       vertex 0.262126 0.176776 0.1
    endloop
  endfacet
  facet normal 0.751817 0.659372 0
    outer loop
       vertex 0.262126 0.176776 0.1
       vertex 0.283688 0.152191 0.1
       vertex 0.283688 0.152191 0
    endloop
  endfacet
  facet normal 0.659372 0.751817 0
    outer loop
       vertex 0.262126 0.176776 0
       vertex 0.237541 0.198338 0
       vertex 0.237541 0.198338 0.1
    endloop
  endfacet
  facet normal 0.659372 0.751817 0
    outer loop
       vertex 0.237541 0.198338 0.1
       vertex 0.262126 0.176776 0.1
       vertex 0.262126 0.176776 0
    endloop
  endfacet
  facet normal 0.555561 0.831476 0
    outer loop
       vertex 0.237541 0.198338 0
       vertex 0.21035 0.216506 0
       vertex 0.21035 0.216506 0.1
    endloop
  endfacet
  facet normal 0.555561 0.831476 0
    outer loop
       vertex 0.21035 0.216506 0.1
       vertex 0.237541 0.198338 0.1
       vertex 0.237541 0.198338 0
    endloop
  endfacet
  facet normal 0.442302 0.896866 0
    outer loop
       vertex 0.21035 0.216506 0
       vertex 0.181021 0.23097 0
       vertex 0.181021 0.23097 0.1
    endloop
  endfacet
  facet normal 0.442302 0.896866 0
    outer loop
       vertex 0.181021 0.23097 0.1
       vertex 0.21035 0.216506 0.1
       vertex 0.21035 0.216506 0
    endloop
  endfacet
  facet normal 0.321425 0.946935 0
    outer loop
       vertex 0.181021 0.23097 0
       vertex 0.150055 0.241481 0
       vertex 0.150055 0.241481 0.1
    endloop
  endfacet
  facet normal 0.321425 0.946935 0
    outer loop
       vertex 0.150055 0.241481 0.1
       vertex 0.181021 0.23097 0.1
       vertex 0.181021 0.23097 0
    endloop
  endfacet
  facet normal 0.195096 0.980784 0
    outer loop
       vertex 0.150055 0.241481 0
       vertex 0.117981 0.247861 0
       vertex 0.117981 0.247861 0.1
    endloop
  endfacet
  facet normal 0.195096 0.980784 0
    outer loop
       vertex 0.117981 0.247861 0.1
       vertex 0.150055 0.241481 0.1
       vertex 0.150055 0.241481 0
    endloop
  endfacet
  facet normal 0.0654098 0.997858 0
    outer loop
       vertex 0.0853498 0.25 0.1
       vertex 0.117981 0.247861 0.1
       vertex 0.117981 0.247861 0
    endloop
  endfacet
  facet normal 0.0654098 0.997858 -1.08928e-16
    outer loop
       vertex 0.117981 0.247861 0
       vertex 0.0853498 0.25 0
       vertex 0.0853498 0.25 0.1
    endloop
  endfacet
  facet normal -0.0654098 0.997858 0
    outer loop
       vertex 0.0853498 0.25 0
       vertex 0.0527183 0.247861 0
       vertex 0.0527183 0.247861 0.1
    endloop
  endfacet
  facet normal -0.0654098 0.997858 1.08928e-16
    outer loop
       vertex 0.0527183 0.247861 0.1
       vertex 0.0853498 0.25 0.1
       vertex 0.0853498 0.25 0
    endloop
  endfacet
  facet normal -0.195096 0.980784 0
    outer loop
       vertex 0.0527183 0.247861 0
       vertex 0.0206448 0.241481 0
       vertex 0.0206448 0.241481 0.1
    endloop
  endfacet
  facet normal -0.195096 0.980784 0
    outer loop
       vertex 0.0206448 0.241481 0.1
       vertex 0.0527183 0.247861 0.1
       vertex 0.0527183 0.247861 0
    endloop
  endfacet
  facet normal -0.321425 0.946935 0
    outer loop
       vertex 0.0206448 0.241481 0
       vertex -0.0103212 0.23097 0
       vertex -0.0103212 0.23097 0.1
    endloop
  endfacet
  facet normal -0.321425 0.946935 0
    outer loop
       vertex -0.0103212 0.23097 0.1
       vertex 0.0206448 0.241481 0.1
       vertex 0.0206448 0.241481 0
    endloop
  endfacet
  facet normal -0.442302 0.896866 0
    outer loop
       vertex -0.0103212 0.23097 0
       vertex -0.0396502 0.216506 0
       vertex -0.0396502 0.216506 0.1
    endloop
  endfacet
  facet normal -0.442302 0.896866 0
    outer loop
       vertex -0.0396502 0.216506 0.1
       vertex -0.0103212 0.23097 0.1
       vertex -0.0103212 0.23097 0
    endloop
  endfacet
  facet normal -0.555561 0.831476 0
    outer loop
       vertex -0.0396502 0.216506 0
       vertex -0.0668412 0.198338 0
       vertex -0.0668412 0.198338 0.1
    endloop
  endfacet
  facet normal -0.555561 0.831476 0
    outer loop
       vertex -0.0668412 0.198338 0.1
       vertex -0.0396502 0.216506 0.1
       vertex -0.0396502 0.216506 0
    endloop
  endfacet
  facet normal -0.659372 0.751817 0
    outer loop
       vertex -0.0668412 0.198338 0
       vertex -0.0914262 0.176776 0
       vertex -0.0914262 0.176776 0.1
    endloop
  endfacet
  facet normal -0.659372 0.751817 0
    outer loop
       vertex -0.0914262 0.176776 0.1
       vertex -0.0668412 0.198338 0.1
       vertex -0.0668412 0.198338 0
    endloop
  endfacet
  facet normal -0.751817 0.659372 0
    outer loop
       vertex -0.0914262 0.176776 0
       vertex -0.112988 0.152191 0
       vertex -0.112988 0.152191 0.1
    endloop
  endfacet
  facet normal -0.751817 0.659372 0
    outer loop
       vertex -0.112988 0.152191 0.1
       vertex -0.0914262 0.176776 0.1
       vertex -0.0914262 0.176776 0
    endloop
  endfacet
  facet normal -0.831476 0.555561 0
    outer loop
       vertex -0.112988 0.152191 0
       vertex -0.131156 0.125 0
       vertex -0.131156 0.125 0.1
    endloop
  endfacet
  facet normal -0.831476 0.555561 0
    outer loop
       vertex -0.131156 0.125 0.1
       vertex -0.112988 0.152191 0.1
       vertex -0.112988 0.152191 0
    endloop
  endfacet
  facet normal -0.896866 0.442302 0
    outer loop
       vertex -0.131156 0.125 0
       vertex -0.14562 0.095671 0
       vertex -0.14562 0.095671 0.1
    endloop
  endfacet
  facet normal -0.896866 0.442302 0
    outer loop
       vertex -0.14562 0.095671 0.1
       vertex -0.131156 0.125 0.1
       vertex -0.131156 0.125 0
    endloop
  endfacet
  facet normal -0.946935 0.321425 0
    outer loop
       vertex -0.14562 0.095671 0
       vertex -0.156131 0.064705 0
       vertex -0.156131 0.064705 0.1
    endloop
  endfacet
  facet normal -0.946935 0.321425 0
    outer loop
       vertex -0.156131 0.064705 0.1
       vertex -0.14562 0.095671 0.1
       vertex -0.14562 0.095671 0
    endloop
  endfacet
  facet normal -0.980784 0.195096 0
    outer loop
       vertex -0.156131 0.064705 0
       vertex -0.162511 0.0326315 0
       vertex -0.162511 0.0326315 0.1
    endloop
  endfacet
  facet normal -0.980784 0.195096 0
    outer loop
       vertex -0.162511 0.0326315 0.1
       vertex -0.156131 0.064705 0.1
       vertex -0.156131 0.064705 0
    endloop
  endfacet
  facet normal -0.997858 0.0654098 0
    outer loop
       vertex -0.16465 8.32665e-17 0.1
       vertex -0.162511 0.0326315 0.1
       vertex -0.162511 0.0326315 0
    endloop
  endfacet
  facet normal -0.997858 0.0654098 -1.08928e-16
    outer loop
       vertex -0.162511 0.0326315 0
       vertex -0.16465 -8.32665e-17 0
       vertex -0.16465 8.32665e-17 0.1
    endloop
  endfacet
  facet normal -0.997858 -0.0654098 0
    outer loop
       vertex -0.16465 -8.32665e-17 0
       vertex -0.162511 -0.0326315 0
       vertex -0.162511 -0.0326315 0.1
    endloop
  endfacet
  facet normal -0.997858 -0.0654098 1.08928e-16
    outer loop
       vertex -0.162511 -0.0326315 0.1
       vertex -0.16465 8.32665e-17 0.1
       vertex -0.16465 -8.32665e-17 0
    endloop
  endfacet
  facet normal -0.980784 -0.195096 0
    outer loop
       vertex -0.162511 -0.0326315 0
       vertex -0.156131 -0.064705 0
       vertex -0.156131 -0.064705 0.1
    endloop
  endfacet
  facet normal -0.980784 -0.195096 0
    outer loop
       vertex -0.156131 -0.064705 0.1
       vertex -0.162511 -0.0326315 0.1
       vertex -0.162511 -0.0326315 0
    endloop
  endfacet
  facet normal -0.946935 -0.321425 0
    outer loop
       vertex -0.156131 -0.064705 0
       vertex -0.14562 -0.095671 0
       vertex -0.14562 -0.095671 0.1
    endloop
  endfacet
  facet normal -0.946935 -0.321425 0
    outer loop
       vertex -0.14562 -0.095671 0.1
       vertex -0.156131 -0.064705 0.1
       vertex -0.156131 -0.064705 0
    endloop
  endfacet
  facet normal -0.896866 -0.442302 0
    outer loop
       vertex -0.14562 -0.095671 0
       vertex -0.131156 -0.125 0
       vertex -0.131156 -0.125 0.1
    endloop
  endfacet
  facet normal -0.896866 -0.442302 0
    outer loop
       vertex -0.131156 -0.125 0.1
       vertex -0.14562 -0.095671 0.1
       vertex -0.14562 -0.095671 0
    endloop
  endfacet
  facet normal -0.831476 -0.555561 0
    outer loop
       vertex -0.131156 -0.125 0
       vertex -0.112988 -0.152191 0
       vertex -0.112988 -0.152191 0.1
    endloop
  endfacet
  facet normal -0.831476 -0.555561 0
    outer loop
       vertex -0.112988 -0.152191 0.1
       vertex -0.131156 -0.125 0.1
       vertex -0.131156 -0.125 0
    endloop
  endfacet
  facet normal -0.751817 -0.659372 0
    outer loop
       vertex -0.112988 -0.152191 0
       vertex -0.0914262 -0.176776 0
       vertex -0.0914262 -0.176776 0.1
    endloop
  endfacet
  facet normal -0.751817 -0.659372 0
    outer loop
       vertex -0.0914262 -0.176776 0.1
       vertex -0.112988 -0.152191 0.1
       vertex -0.112988 -0.152191 0
    endloop
  endfacet
  facet normal 0.659372 -0.751817 0
    outer loop
       vertex 0.262126 -0.176776 0
       vertex 0.262126 -0.176776 0.1
       vertex 0.237541 -0.198338 0.1
    endloop
  endfacet
  facet normal 0.659372 -0.751817 0
    outer loop
       vertex 0.237541 -0.198338 0.1
       vertex 0.237541 -0.198338 0
       vertex 0.262126 -0.176776 0
    endloop
  endfacet
  facet normal 0.555561 -0.831476 0
    outer loop
       vertex 0.237541 -0.198338 0
       vertex 0.237541 -0.198338 0.1
       vertex 0.21035 -0.216506 0.1
    endloop
  endfacet
  facet normal 0.555561 -0.831476 0
    outer loop
       vertex 0.21035 -0.216506 0.1
       vertex 0.21035 -0.216506 0
       vertex 0.237541 -0.198338 0
    endloop
  endfacet
  facet normal 0.442302 -0.896866 0
    outer loop
       vertex 0.21035 -0.216506 0
       vertex 0.21035 -0.216506 0.1
       vertex 0.181021 -0.23097 0.1
    endloop
  endfacet
  facet normal 0.442302 -0.896866 0
    outer loop
       vertex 0.181021 -0.23097 0.1
       vertex 0.181021 -0.23097 0
       vertex 0.21035 -0.216506 0
    endloop
  endfacet
  facet normal 0.321425 -0.946935 0
    outer loop
       vertex 0.181021 -0.23097 0
       vertex 0.181021 -0.23097 0.1
       vertex 0.150055 -0.241481 0.1
    endloop
  endfacet
  facet normal 0.321425 -0.946935 0
    outer loop
       vertex 0.150055 -0.241481 0.1
       vertex 0.150055 -0.241481 0
       vertex 0.181021 -0.23097 0
    endloop
  endfacet
  facet normal 0.195096 -0.980784 0
    outer loop
       vertex 0.150055 -0.241481 0
       vertex 0.150055 -0.241481 0.1
       vertex 0.117981 -0.247861 0.1
    endloop
  endfacet
  facet normal 0.195096 -0.980784 0
    outer loop
       vertex 0.117981 -0.247861 0.1
       vertex 0.117981 -0.247861 0
       vertex 0.150055 -0.241481 0
    endloop
  endfacet
  facet normal 0.0654098 -0.997858 0
    outer loop
       vertex 0.0853498 -0.25 0
       vertex 0.117981 -0.247861 0
       vertex 0.117981 -0.247861 0.1
    endloop
  endfacet
  facet normal 0.0654098 -0.997858 1.08928e-16
    outer loop
       vertex 0.117981 -0.247861 0.1
       vertex 0.0853498 -0.25 0.1
       vertex 0.0853498 -0.25 0
    endloop
  endfacet
  facet normal -0.0654098 -0.997858 0
    outer loop
       vertex 0.0853498 -0.25 0.1
       vertex 0.0527183 -0.247861 0.1
       vertex 0.0527183 -0.247861 0
    endloop
  endfacet
  facet normal -0.0654098 -0.997858 -1.08928e-16
    outer loop
       vertex 0.0527183 -0.247861 0
       vertex 0.0853498 -0.25 0
       vertex 0.0853498 -0.25 0.1
    endloop
  endfacet
  facet normal -0.195096 -0.980784 0
    outer loop
       vertex 0.0527183 -0.247861 0
       vertex 0.0527183 -0.247861 0.1
       vertex 0.0206448 -0.241481 0.1
    endloop
  endfacet
  facet normal -0.195096 -0.980784 -0
    outer loop
       vertex 0.0206448 -0.241481 0.1
       vertex 0.0206448 -0.241481 0
       vertex 0.0527183 -0.247861 0
    endloop
  endfacet
  facet normal -0.321425 -0.946935 0
    outer loop
       vertex 0.0206448 -0.241481 0
       vertex 0.0206448 -0.241481 0.1
       vertex -0.0103212 -0.23097 0.1
    endloop
  endfacet
  facet normal -0.321425 -0.946935 -0
    outer loop
       vertex -0.0103212 -0.23097 0.1
       vertex -0.0103212 -0.23097 0
       vertex 0.0206448 -0.241481 0
    endloop
  endfacet
  facet normal -0.442302 -0.896866 0
    outer loop
       vertex -0.0103212 -0.23097 0
       vertex -0.0103212 -0.23097 0.1
       vertex -0.0396502 -0.216506 0.1
    endloop
  endfacet
  facet normal -0.442302 -0.896866 -0
    outer loop
       vertex -0.0396502 -0.216506 0.1
       vertex -0.0396502 -0.216506 0
       vertex -0.0103212 -0.23097 0
    endloop
  endfacet
  facet normal -0.555561 -0.831476 0
    outer loop
       vertex -0.0396502 -0.216506 0
       vertex -0.0396502 -0.216506 0.1
       vertex -0.0668412 -0.198338 0.1
    endloop
  endfacet
  facet normal -0.555561 -0.831476 -0
    outer loop
       vertex -0.0668412 -0.198338 0.1
       vertex -0.0668412 -0.198338 0
       vertex -0.0396502 -0.216506 0
    endloop
  endfacet
  facet normal -0.659372 -0.751817 0
    outer loop
       vertex -0.0668412 -0.198338 0
       vertex -0.0668412 -0.198338 0.1
       vertex -0.0914262 -0.176776 0.1
    endloop
  endfacet
  facet normal -0.659372 -0.751817 -0
    outer loop
       vertex -0.0914262 -0.176776 0.1
       vertex -0.0914262 -0.176776 0
       vertex -0.0668412 -0.198338 0
    endloop
  endfacet
endsolid cylinder
