solid cylinder
  facet normal 0.751817 -0.659372 0
    outer loop
       vertex 0.159086 -0.176776 0
       vertex 0.180648 -0.152191 0
       vertex 0.180648 -0.152191 0.1
    endloop
  endfacet
  facet normal 0.751817 -0.659372 0
    outer loop
       vertex 0.180648 -0.152191 0.1
       vertex 0.159086 -0.176776 0.1
       vertex 0.159086 -0.176776 0
    endloop
  endfacet
  facet normal 0.831476 -0.555561 0
    outer loop
       vertex 0.180648 -0.152191 0
       vertex 0.198816 -0.125 0
       vertex 0.198816 -0.125 0.1
    endloop
  endfacet
  facet normal 0.831476 -0.555561 0
    outer loop
       vertex 0.198816 -0.125 0.1
       vertex 0.180648 -0.152191 0.1
       vertex 0.180648 -0.152191 0
    endloop
  endfacet
  facet normal 0.896866 -0.442302 0
    outer loop
       vertex 0.198816 -0.125 0
       vertex 0.21328 -0.095671 0
       vertex 0.21328 -0.095671 0.1
    endloop
  endfacet
  facet normal 0.896866 -0.442302 0
    outer loop
       vertex 0.21328 -0.095671 0.1
       vertex 0.198816 -0.125 0.1
       vertex 0.198816 -0.125 0
    endloop
  endfacet
  facet normal 0.946935 -0.321425 0
    outer loop
       vertex 0.21328 -0.095671 0
       vertex 0.223791 -0.064705 0
       vertex 0.223791 -0.064705 0.1
    endloop
  endfacet
  facet normal 0.946935 -0.321425 0
    outer loop
       vertex 0.223791 -0.064705 0.1
       vertex 0.21328 -0.095671 0.1
       vertex 0.21328 -0.095671 0
    endloop
  endfacet
  facet normal 0.980784 -0.195096 0
    outer loop
       vertex 0.223791 -0.064705 0
       vertex 0.230171 -0.0326315 0
       vertex 0.230171 -0.0326315 0.1
    endloop
  endfacet
  facet normal 0.980784 -0.195096 0
    outer loop
       vertex 0.230171 -0.0326315 0.1
       vertex 0.223791 -0.064705 0.1
       vertex 0.223791 -0.064705 0
    endloop
  endfacet
  facet normal 0.997858 -0.0654098 0
    outer loop
       vertex 0.23231 -8.32665e-17 0.1
       vertex 0.230171 -0.0326315 0.1
       vertex 0.230171 -0.0326315 0
    endloop
  endfacet
  facet normal 0.997858 -0.0654098 -1.08928e-16
    outer loop
       vertex 0.230171 -0.0326315 0
       vertex 0.23231 8.32665e-17 0
       vertex 0.23231 -8.32665e-17 0.1
    endloop
  endfacet
  facet normal 0.997858 0.0654098 0
    outer loop
       vertex 0.23231 8.32665e-17 0
       vertex 0.230171 0.0326315 0
       vertex 0.230171 0.0326315 0.1
    endloop
  endfacet
  facet normal 0.997858 0.0654098 1.08928e-16
    outer loop
       vertex 0.230171 0.0326315 0.1
       vertex 0.23231 -8.32665e-17 0.1
       vertex 0.23231 8.32665e-17 0
    endloop
  endfacet
  facet normal 0.980784 0.195096 0
    outer loop
       vertex 0.230171 0.0326315 0
       vertex 0.223791 0.064705 0
       vertex 0.223791 0.064705 0.1
    endloop
  endfacet
  facet normal 0.980784 0.195096 0
    outer loop
       vertex 0.223791 0.064705 0.1
       vertex 0.230171 0.0326315 0.1
       vertex 0.230171 0.0326315 0
    endloop
  endfacet
  facet normal 0.946935 0.321425 0
    outer loop
       vertex 0.223791 0.064705 0
       vertex 0.21328 0.095671 0
       vertex 0.21328 0.095671 0.1
    endloop
  endfacet
  facet normal 0.946935 0.321425 0
    outer loop
       vertex 0.21328 0.095671 0.1
       vertex 0.223791 0.064705 0.1
       vertex 0.223791 0.064705 0
    endloop
  endfacet
  facet normal 0.896866 0.442302 0
    outer loop
       vertex 0.21328 0.095671 0
       vertex 0.198816 0.125 0
       vertex 0.198816 0.125 0.1
    endloop
  endfacet
  facet normal 0.896866 0.442302 0
    outer loop
       vertex 0.198816 0.125 0.1
       vertex 0.21328 0.095671 0.1
       vertex 0.21328 0.095671 0
    endloop
  endfacet
  facet normal 0.831476 0.555561 0
    outer loop
       vertex 0.198816 0.125 0
       vertex 0.180648 0.152191 0
       vertex 0.180648 0.152191 0.1
    endloop
  endfacet
  facet normal 0.831476 0.555561 0
    outer loop
       vertex 0.180648 0.152191 0.1
       vertex 0.198816 0.125 0.1
       vertex 0.198816 0.125 0
    endloop
  endfacet
  facet normal 0.751817 0.659372 0
    outer loop
       vertex 0.180648 0.152191 0
       vertex 0.159086 0.176776 0
       vertex 0.159086 0.176776 0.1
    endloop
  endfacet
  facet normal 0.751817 0.659372 0
    outer loop
       vertex 0.159086 0.176776 0.1
       vertex 0.180648 0.152191 0.1
       vertex 0.180648 0.152191 0
    endloop
  endfacet
  facet normal 0.659372 0.751817 0
    outer loop
       vertex 0.159086 0.176776 0
       vertex 0.134501 0.198338 0
       vertex 0.134501 0.198338 0.1
    endloop
  endfacet
  facet normal 0.659372 0.751817 0
    outer loop
       vertex 0.134501 0.198338 0.1
       vertex 0.159086 0.176776 0.1
       vertex 0.159086 0.176776 0
    endloop
  endfacet
  facet normal 0.555561 0.831476 0
    outer loop
       vertex 0.134501 0.198338 0
       vertex 0.10731 0.216506 0
       vertex 0.10731 0.216506 0.1
    endloop
  endfacet
  facet normal 0.555561 0.831476 0
    outer loop
       vertex 0.10731 0.216506 0.1
       vertex 0.134501 0.198338 0.1
       vertex 0.134501 0.198338 0
    endloop
  endfacet
  facet normal 0.442302 0.896866 0
    outer loop
       vertex 0.10731 0.216506 0
       vertex 0.0779811 0.23097 0
       vertex 0.0779811 0.23097 0.1
    endloop
  endfacet
  facet normal 0.442302 0.896866 0
    outer loop
       vertex 0.0779811 0.23097 0.1
       vertex 0.10731 0.216506 0.1
       vertex 0.10731 0.216506 0
    endloop
  endfacet
  facet normal 0.321425 0.946935 0
    outer loop
       vertex 0.0779811 0.23097 0
       vertex 0.0470151 0.241481 0
       vertex 0.0470151 0.241481 0.1
    endloop
  endfacet
  facet normal 0.321425 0.946935 0
    outer loop
       vertex 0.0470151 0.241481 0.1
       vertex 0.0779811 0.23097 0.1
       vertex 0.0779811 0.23097 0
    endloop
  endfacet
  facet normal 0.195096 0.980784 0
    outer loop
       vertex 0.0470151 0.241481 0
       vertex 0.0149416 0.247861 0
       vertex 0.0149416 0.247861 0.1
    endloop
  endfacet
  facet normal 0.195096 0.980784 0
    outer loop
       vertex 0.0149416 0.247861 0.1
       vertex 0.0470151 0.241481 0.1
       vertex 0.0470151 0.241481 0
    endloop
  endfacet
  facet normal 0.0654098 0.997858 0
    outer loop
       vertex -0.0176899 0.25 0.1
       vertex 0.0149416 0.247861 0.1
       vertex 0.0149416 0.247861 0
    endloop
  endfacet
  facet normal 0.0654098 0.997858 -1.08928e-16
    outer loop
       vertex 0.0149416 0.247861 0
       vertex -0.0176899 0.25 0
       vertex -0.0176899 0.25 0.1
    endloop
  endfacet
  facet normal -0.0654098 0.997858 0
    outer loop
       vertex -0.0176899 0.25 0
       vertex -0.0503214 0.247861 0
       vertex -0.0503214 0.247861 0.1
    endloop
  endfacet
  facet normal -0.0654098 0.997858 1.0893e-16
    outer loop
       vertex -0.0503214 0.247861 0.1
       vertex -0.0176899 0.25 0.1
       vertex -0.0176899 0.25 0
    endloop
  endfacet
  facet normal -0.195096 0.980784 0
    outer loop
       vertex -0.0503214 0.247861 0
       vertex -0.0823949 0.241481 0
       vertex -0.0823949 0.241481 0.1
    endloop
  endfacet
  facet normal -0.195096 0.980784 0
    outer loop
       vertex -0.0823949 0.241481 0.1
       vertex -0.0503214 0.247861 0.1
       vertex -0.0503214 0.247861 0
    endloop
  endfacet
  facet normal -0.321425 0.946935 0
    outer loop
       vertex -0.0823949 0.241481 0
       vertex -0.113361 0.23097 0
       vertex -0.113361 0.23097 0.1
    endloop
  endfacet
  facet normal -0.321425 0.946935 0
    outer loop
       vertex -0.113361 0.23097 0.1
       vertex -0.0823949 0.241481 0.1
       vertex -0.0823949 0.241481 0
    endloop
  endfacet
  facet normal -0.442302 0.896866 0
    outer loop
       vertex -0.113361 0.23097 0
       vertex -0.14269 0.216506 0
       vertex -0.14269 0.216506 0.1
    endloop
  endfacet
  facet normal -0.442302 0.896866 0
    outer loop
       vertex -0.14269 0.216506 0.1
       vertex -0.113361 0.23097 0.1
       vertex -0.113361 0.23097 0
    endloop
  endfacet
  facet normal -0.555561 0.831476 0
    outer loop
       vertex -0.14269 0.216506 0
       vertex -0.169881 0.198338 0
       vertex -0.169881 0.198338 0.1
    endloop
  endfacet
  facet normal -0.555561 0.831476 0
    outer loop
       vertex -0.169881 0.198338 0.1
       vertex -0.14269 0.216506 0.1
       vertex -0.14269 0.216506 0
    endloop
  endfacet
  facet normal -0.659372 0.751817 0
    outer loop
       vertex -0.169881 0.198338 0
       vertex -0.194466 0.176776 0
       vertex -0.194466 0.176776 0.1
    endloop
  endfacet
  facet normal -0.659372 0.751817 0
    outer loop
       vertex -0.194466 0.176776 0.1
       vertex -0.169881 0.198338 0.1
       vertex -0.169881 0.198338 0
    endloop
  endfacet
  facet normal -0.751817 0.659372 0
    outer loop
       vertex -0.194466 0.176776 0
       vertex -0.216028 0.152191 0
       vertex -0.216028 0.152191 0.1
    endloop
  endfacet
  facet normal -0.751817 0.659372 0
    outer loop
       vertex -0.216028 0.152191 0.1
       vertex -0.194466 0.176776 0.1
       vertex -0.194466 0.176776 0
    endloop
  endfacet
  facet normal -0.831476 0.555561 0
    outer loop
       vertex -0.216028 0.152191 0
       vertex -0.234196 0.125 0
       vertex -0.234196 0.125 0.1
    endloop
  endfacet
  facet normal -0.831476 0.555561 0
    outer loop
       vertex -0.234196 0.125 0.1
       vertex -0.216028 0.152191 0.1
       vertex -0.216028 0.152191 0
    endloop
  endfacet
  facet normal -0.896866 0.442302 0
    outer loop
       vertex -0.234196 0.125 0
       vertex -0.24866 0.095671 0
       vertex -0.24866 0.095671 0.1
    endloop
  endfacet
  facet normal -0.896866 0.442302 0
    outer loop
       vertex -0.24866 0.095671 0.1
       vertex -0.234196 0.125 0.1
       vertex -0.234196 0.125 0
    endloop
  endfacet
  facet normal -0.946935 0.321425 0
    outer loop
       vertex -0.24866 0.095671 0
       vertex -0.259171 0.064705 0
       vertex -0.259171 0.064705 0.1
    endloop
  endfacet
  facet normal -0.946935 0.321425 0
    outer loop
       vertex -0.259171 0.064705 0.1
       vertex -0.24866 0.095671 0.1
       vertex -0.24866 0.095671 0
    endloop
  endfacet
  facet normal -0.980784 0.195096 0
    outer loop
       vertex -0.259171 0.064705 0
       vertex -0.265551 0.0326315 0
       vertex -0.265551 0.0326315 0.1
    endloop
  endfacet
  facet normal -0.980784 0.195096 0
    outer loop
       vertex -0.265551 0.0326315 0.1
       vertex -0.259171 0.064705 0.1
       vertex -0.259171 0.064705 0
    endloop
  endfacet
  facet normal -0.997858 0.0654098 0
    outer loop
       vertex -0.26769 8.32665e-17 0.1
       vertex -0.265551 0.0326315 0.1
       vertex -0.265551 0.0326315 0
    endloop
  endfacet
  facet normal -0.997858 0.0654098 -1.08928e-16
    outer loop
       vertex -0.265551 0.0326315 0
       vertex -0.26769 -8.32665e-17 0
       vertex -0.26769 8.32665e-17 0.1
    endloop
  endfacet
  facet normal -0.997858 -0.0654098 0
    outer loop
       vertex -0.26769 -8.32665e-17 0
       vertex -0.265551 -0.0326315 0
       vertex -0.265551 -0.0326315 0.1
    endloop
  endfacet
  facet normal -0.997858 -0.0654098 1.08928e-16
    outer loop
       vertex -0.265551 -0.0326315 0.1
       vertex -0.26769 8.32665e-17 0.1
       vertex -0.26769 -8.32665e-17 0
    endloop
  endfacet
  facet normal -0.980784 -0.195096 0
    outer loop
       vertex -0.265551 -0.0326315 0
       vertex -0.259171 -0.064705 0
       vertex -0.259171 -0.064705 0.1
    endloop
  endfacet
  facet normal -0.980784 -0.195096 0
    outer loop
       vertex -0.259171 -0.064705 0.1
       vertex -0.265551 -0.0326315 0.1
       vertex -0.265551 -0.0326315 0
    endloop
  endfacet
  facet normal -0.946935 -0.321425 0
    outer loop
       vertex -0.259171 -0.064705 0
       vertex -0.24866 -0.095671 0
       vertex -0.24866 -0.095671 0.1
    endloop
  endfacet
  facet normal -0.946935 -0.321425 0
    outer loop
       vertex -0.24866 -0.095671 0.1
       vertex -0.259171 -0.064705 0.1
       vertex -0.259171 -0.064705 0
    endloop
  endfacet
  facet normal -0.896866 -0.442302 0
    outer loop
       vertex -0.24866 -0.095671 0
       vertex -0.234196 -0.125 0
       vertex -0.234196 -0.125 0.1
    endloop
  endfacet
  facet normal -0.896866 -0.442302 0
    outer loop
       vertex -0.234196 -0.125 0.1
       vertex -0.24866 -0.095671 0.1
       vertex -0.24866 -0.095671 0
    endloop
  endfacet
  facet normal -0.831476 -0.555561 0
    outer loop
       vertex -0.234196 -0.125 0
       vertex -0.216028 -0.152191 0
       vertex -0.216028 -0.152191 0.1
    endloop
  endfacet
  facet normal -0.831476 -0.555561 0
    outer loop
       vertex -0.216028 -0.152191 0.1
       vertex -0.234196 -0.125 0.1
       vertex -0.234196 -0.125 0
    endloop
  endfacet
  facet normal -0.751817 -0.659372 0
    outer loop
       vertex -0.216028 -0.152191 0
       vertex -0.194466 -0.176776 0
       vertex -0.194466 -0.176776 0.1
    endloop
  endfacet
  facet normal -0.751817 -0.659372 0
    outer loop
       vertex -0.194466 -0.176776 0.1
       vertex -0.216028 -0.152191 0.1
       vertex -0.216028 -0.152191 0
    endloop
  endfacet
  facet normal 0.659372 -0.751817 0
    outer loop
       vertex 0.159086 -0.176776 0
       vertex 0.159086 -0.176776 0.1
       vertex 0.134501 -0.198338 0.1
    endloop
  endfacet
  facet normal 0.659372 -0.751817 0
    outer loop
       vertex 0.134501 -0.198338 0.1
       vertex 0.134501 -0.198338 0
       vertex 0.159086 -0.176776 0
    endloop
  endfacet
  facet normal 0.555561 -0.831476 0
    outer loop
       vertex 0.134501 -0.198338 0
       vertex 0.134501 -0.198338 0.1
       vertex 0.10731 -0.216506 0.1
    endloop
  endfacet
  facet normal 0.555561 -0.831476 0
    outer loop
       vertex 0.10731 -0.216506 0.1
       vertex 0.10731 -0.216506 0
       vertex 0.134501 -0.198338 0
    endloop
  endfacet
  facet normal 0.442302 -0.896866 0
    outer loop
       vertex 0.10731 -0.216506 0
       vertex 0.10731 -0.216506 0.1
       vertex 0.0779811 -0.23097 0.1
    endloop
  endfacet
  facet normal 0.442302 -0.896866 0
    outer loop
       vertex 0.0779811 -0.23097 0.1
       vertex 0.0779811 -0.23097 0
       vertex 0.10731 -0.216506 0
    endloop
  endfacet
  facet normal 0.321425 -0.946935 0
    outer loop
       vertex 0.0779811 -0.23097 0
       vertex 0.0779811 -0.23097 0.1
       vertex 0.0470151 -0.241481 0.1
    endloop
  endfacet
  facet normal 0.321425 -0.946935 0
    outer loop
       vertex 0.0470151 -0.241481 0.1
       vertex 0.0470151 -0.241481 0
       vertex 0.0779811 -0.23097 0
    endloop
  endfacet
  facet normal 0.195096 -0.980784 0
    outer loop
       vertex 0.0470151 -0.241481 0
       vertex 0.0470151 -0.241481 0.1
       vertex 0.0149416 -0.247861 0.1
    endloop
  endfacet
  facet normal 0.195096 -0.980784 0
    outer loop
       vertex 0.0149416 -0.247861 0.1
       vertex 0.0149416 -0.247861 0
       vertex 0.0470151 -0.241481 0
    endloop
  endfacet
  facet normal 0.0654098 -0.997858 0
    outer loop
       vertex -0.0176899 -0.25 0
       vertex 0.0149416 -0.247861 0
       vertex 0.0149416 -0.247861 0.1
    endloop
  endfacet
  facet normal 0.0654098 -0.997858 1.08928e-16
    outer loop
       vertex 0.0149416 -0.247861 0.1
       vertex -0.0176899 -0.25 0.1
       vertex -0.0176899 -0.25 0
    endloop
  endfacet
  facet normal -0.0654098 -0.997858 0
    outer loop
       vertex -0.0176899 -0.25 0.1
       vertex -0.0503214 -0.247861 0.1
       vertex -0.0503214 -0.247861 0
    endloop
  endfacet
  facet normal -0.0654098 -0.997858 -1.0893e-16
    outer loop
       vertex -0.0503214 -0.247861 0
       vertex -0.0176899 -0.25 0
       vertex -0.0176899 -0.25 0.1
    endloop
  endfacet
  facet normal -0.195096 -0.980784 0
    outer loop
       vertex -0.0503214 -0.247861 0
       vertex -0.0503214 -0.247861 0.1
       vertex -0.0823949 -0.241481 0.1
    endloop
  endfacet
  facet normal -0.195096 -0.980784 -0
    outer loop
       vertex -0.0823949 -0.241481 0.1
       vertex -0.0823949 -0.241481 0
       vertex -0.0503214 -0.247861 0
    endloop
  endfacet
  facet normal -0.321425 -0.946935 0
    outer loop
       vertex -0.0823949 -0.241481 0
       vertex -0.0823949 -0.241481 0.1
       vertex -0.113361 -0.23097 0.1
    endloop
  endfacet
  facet normal -0.321425 -0.946935 -0
    outer loop
       vertex -0.113361 -0.23097 0.1
       vertex -0.113361 -0.23097 0
       vertex -0.0823949 -0.241481 0
    endloop
  endfacet
  facet normal -0.442302 -0.896866 0
    outer loop
       vertex -0.113361 -0.23097 0
       vertex -0.113361 -0.23097 0.1
       vertex -0.14269 -0.216506 0.1
    endloop
  endfacet
  facet normal -0.442302 -0.896866 -0
    outer loop
       vertex -0.14269 -0.216506 0.1
       vertex -0.14269 -0.216506 0
       vertex -0.113361 -0.23097 0
    endloop
  endfacet
  facet normal -0.555561 -0.831476 0
    outer loop
       vertex -0.14269 -0.216506 0
       vertex -0.14269 -0.216506 0.1
       vertex -0.169881 -0.198338 0.1
    endloop
  endfacet
  facet normal -0.555561 -0.831476 -0
    outer loop
       vertex -0.169881 -0.198338 0.1
       vertex -0.169881 -0.198338 0
       vertex -0.14269 -0.216506 0
    endloop
  endfacet
  facet normal -0.659372 -0.751817 0
    outer loop
       vertex -0.169881 -0.198338 0
       vertex -0.169881 -0.198338 0.1
       vertex -0.194466 -0.176776 0.1
    endloop
  endfacet
  facet normal -0.659372 -0.751817 -0
    outer loop
       vertex -0.194466 -0.176776 0.1
       vertex -0.194466 -0.176776 0
       vertex -0.169881 -0.198338 0
    endloop
  endfacet
endsolid cylinder
