solid cylinder
  facet normal 0.751817 -0.659372 0
    outer loop
       vertex 0.354321 -0.176776 0
       vertex 0.375883 -0.152191 0
       vertex 0.375883 -0.152191 0.1
    endloop
  endfacet
  facet normal 0.751817 -0.659372 0
    outer loop
       vertex 0.375883 -0.152191 0.1
       vertex 0.354321 -0.176776 0.1
       vertex 0.354321 -0.176776 0
    endloop
  endfacet
  facet normal 0.831476 -0.555561 0
    outer loop
       vertex 0.375883 -0.152191 0
       vertex 0.394051 -0.125 0
       vertex 0.394051 -0.125 0.1
    endloop
  endfacet
  facet normal 0.831476 -0.555561 0
    outer loop
       vertex 0.394051 -0.125 0.1
       vertex 0.375883 -0.152191 0.1
       vertex 0.375883 -0.152191 0
    endloop
  endfacet
  facet normal 0.896866 -0.442302 0
    outer loop
       vertex 0.394051 -0.125 0
       vertex 0.408515 -0.095671 0
       vertex 0.408515 -0.095671 0.1
    endloop
  endfacet
  facet normal 0.896866 -0.442302 0
    outer loop
       vertex 0.408515 -0.095671 0.1
       vertex 0.394051 -0.125 0.1
       vertex 0.394051 -0.125 0
    endloop
  endfacet
  facet normal 0.946935 -0.321425 0
    outer loop
       vertex 0.408515 -0.095671 0
       vertex 0.419026 -0.064705 0
       vertex 0.419026 -0.064705 0.1
    endloop
  endfacet
  facet normal 0.946935 -0.321425 0
    outer loop
       vertex 0.419026 -0.064705 0.1
       vertex 0.408515 -0.095671 0.1
       vertex 0.408515 -0.095671 0
    endloop
  endfacet
  facet normal 0.980784 -0.195096 0
    outer loop
       vertex 0.419026 -0.064705 0
       vertex 0.425406 -0.0326315 0
       vertex 0.425406 -0.0326315 0.1
    endloop
  endfacet
  facet normal 0.980784 -0.195096 0
    outer loop
       vertex 0.425406 -0.0326315 0.1
       vertex 0.419026 -0.064705 0.1
       vertex 0.419026 -0.064705 0
    endloop
  endfacet
  facet normal 0.997858 -0.0654098 0
    outer loop
       vertex 0.427545 -8.32665e-17 0.1
       vertex 0.425406 -0.0326315 0.1
       vertex 0.425406 -0.0326315 0
    endloop
  endfacet
  facet normal 0.997858 -0.0654098 -1.08928e-16
    outer loop
       vertex 0.425406 -0.0326315 0
       vertex 0.427545 8.32665e-17 0
       vertex 0.427545 -8.32665e-17 0.1
    endloop
  endfacet
  facet normal 0.997858 0.0654098 0
    outer loop
       vertex 0.427545 8.32665e-17 0
       vertex 0.425406 0.0326315 0
       vertex 0.425406 0.0326315 0.1
    endloop
  endfacet
  facet normal 0.997858 0.0654098 1.08928e-16
    outer loop
       vertex 0.425406 0.0326315 0.1
       vertex 0.427545 -8.32665e-17 0.1
       vertex 0.427545 8.32665e-17 0
    endloop
  endfacet
  facet normal 0.980784 0.195096 0
    outer loop
       vertex 0.425406 0.0326315 0
       vertex 0.419026 0.064705 0
       vertex 0.419026 0.064705 0.1
    endloop
  endfacet
  facet normal 0.980784 0.195096 0
    outer loop
       vertex 0.419026 0.064705 0.1
       vertex 0.425406 0.0326315 0.1
       vertex 0.425406 0.0326315 0
    endloop
  endfacet
  facet normal 0.946935 0.321425 0
    outer loop
       vertex 0.419026 0.064705 0
       vertex 0.408515 0.095671 0
       vertex 0.408515 0.095671 0.1
    endloop
  endfacet
  facet normal 0.946935 0.321425 0
    outer loop
       vertex 0.408515 0.095671 0.1
       vertex 0.419026 0.064705 0.1
       vertex 0.419026 0.064705 0
    endloop
  endfacet
  facet normal 0.896866 0.442302 0
    outer loop
       vertex 0.408515 0.095671 0
       vertex 0.394051 0.125 0
       vertex 0.394051 0.125 0.1
    endloop
  endfacet
  facet normal 0.896866 0.442302 0
    outer loop
       vertex 0.394051 0.125 0.1
       vertex 0.408515 0.095671 0.1
       vertex 0.408515 0.095671 0
    endloop
  endfacet
  facet normal 0.831476 0.555561 0
    outer loop
       vertex 0.394051 0.125 0
       vertex 0.375883 0.152191 0
       vertex 0.375883 0.152191 0.1
    endloop
  endfacet
  facet normal 0.831476 0.555561 0
    outer loop
       vertex 0.375883 0.152191 0.1
       vertex 0.394051 0.125 0.1
       vertex 0.394051 0.125 0
    endloop
  endfacet
  facet normal 0.751817 0.659372 0
    outer loop
       vertex 0.375883 0.152191 0
       vertex 0.354321 0.176776 0
       vertex 0.354321 0.176776 0.1
    endloop
  endfacet
  facet normal 0.751817 0.659372 0
    outer loop
       vertex 0.354321 0.176776 0.1
       vertex 0.375883 0.152191 0.1
       vertex 0.375883 0.152191 0
    endloop
  endfacet
  facet normal 0.659372 0.751817 0
    outer loop
       vertex 0.354321 0.176776 0
       vertex 0.329736 0.198338 0
       vertex 0.329736 0.198338 0.1
    endloop
  endfacet
  facet normal 0.659372 0.751817 0
    outer loop
       vertex 0.329736 0.198338 0.1
       vertex 0.354321 0.176776 0.1
       vertex 0.354321 0.176776 0
    endloop
  endfacet
  facet normal 0.555561 0.831476 0
    outer loop
       vertex 0.329736 0.198338 0
       vertex 0.302545 0.216506 0
       vertex 0.302545 0.216506 0.1
    endloop
  endfacet
  facet normal 0.555561 0.831476 0
    outer loop
       vertex 0.302545 0.216506 0.1
       vertex 0.329736 0.198338 0.1
       vertex 0.329736 0.198338 0
    endloop
  endfacet
  facet normal 0.442302 0.896866 0
    outer loop
       vertex 0.302545 0.216506 0
       vertex 0.273216 0.23097 0
       vertex 0.273216 0.23097 0.1
    endloop
  endfacet
  facet normal 0.442302 0.896866 0
    outer loop
       vertex 0.273216 0.23097 0.1
       vertex 0.302545 0.216506 0.1
       vertex 0.302545 0.216506 0
    endloop
  endfacet
  facet normal 0.321425 0.946935 0
    outer loop
       vertex 0.273216 0.23097 0
       vertex 0.24225 0.241481 0
       vertex 0.24225 0.241481 0.1
    endloop
  endfacet
  facet normal 0.321425 0.946935 0
    outer loop
       vertex 0.24225 0.241481 0.1
       vertex 0.273216 0.23097 0.1
       vertex 0.273216 0.23097 0
    endloop
  endfacet
  facet normal 0.195096 0.980784 0
    outer loop
       vertex 0.24225 0.241481 0
       vertex 0.210176 0.247861 0
       vertex 0.210176 0.247861 0.1
    endloop
  endfacet
  facet normal 0.195096 0.980784 0
    outer loop
       vertex 0.210176 0.247861 0.1
       vertex 0.24225 0.241481 0.1
       vertex 0.24225 0.241481 0
    endloop
  endfacet
  facet normal 0.0654098 0.997858 0
    outer loop
       vertex 0.177545 0.25 0.1
       vertex 0.210176 0.247861 0.1
       vertex 0.210176 0.247861 0
    endloop
  endfacet
  facet normal 0.0654098 0.997858 -1.0893e-16
    outer loop
       vertex 0.210176 0.247861 0
       vertex 0.177545 0.25 0
       vertex 0.177545 0.25 0.1
    endloop
  endfacet
  facet normal -0.0654098 0.997858 0
    outer loop
       vertex 0.177545 0.25 0
       vertex 0.144913 0.247861 0
       vertex 0.144913 0.247861 0.1
    endloop
  endfacet
  facet normal -0.0654098 0.997858 1.0893e-16
    outer loop
       vertex 0.144913 0.247861 0.1
       vertex 0.177545 0.25 0.1
       vertex 0.177545 0.25 0
    endloop
  endfacet
  facet normal -0.195096 0.980784 0
    outer loop
       vertex 0.144913 0.247861 0
       vertex 0.11284 0.241481 0
       vertex 0.11284 0.241481 0.1
    endloop
  endfacet
  facet normal -0.195096 0.980784 0
    outer loop
       vertex 0.11284 0.241481 0.1
       vertex 0.144913 0.247861 0.1
       vertex 0.144913 0.247861 0
    endloop
  endfacet
  facet normal -0.321425 0.946935 0
    outer loop
       vertex 0.11284 0.241481 0
       vertex 0.0818736 0.23097 0
       vertex 0.0818736 0.23097 0.1
    endloop
  endfacet
  facet normal -0.321425 0.946935 0
    outer loop
       vertex 0.0818736 0.23097 0.1
       vertex 0.11284 0.241481 0.1
       vertex 0.11284 0.241481 0
    endloop
  endfacet
  facet normal -0.442302 0.896866 0
    outer loop
       vertex 0.0818736 0.23097 0
       vertex 0.0525446 0.216506 0
       vertex 0.0525446 0.216506 0.1
    endloop
  endfacet
  facet normal -0.442302 0.896866 0
    outer loop
       vertex 0.0525446 0.216506 0.1
       vertex 0.0818736 0.23097 0.1
       vertex 0.0818736 0.23097 0
    endloop
  endfacet
  facet normal -0.555561 0.831476 0
    outer loop
       vertex 0.0525446 0.216506 0
       vertex 0.0253536 0.198338 0
       vertex 0.0253536 0.198338 0.1
    endloop
  endfacet
  facet normal -0.555561 0.831476 0
    outer loop
       vertex 0.0253536 0.198338 0.1
       vertex 0.0525446 0.216506 0.1
       vertex 0.0525446 0.216506 0
    endloop
  endfacet
  facet normal -0.659372 0.751817 0
    outer loop
       vertex 0.0253536 0.198338 0
       vertex 0.000768568 0.176776 0
       vertex 0.000768568 0.176776 0.1
    endloop
  endfacet
  facet normal -0.659372 0.751817 0
    outer loop
       vertex 0.000768568 0.176776 0.1
       vertex 0.0253536 0.198338 0.1
       vertex 0.0253536 0.198338 0
    endloop
  endfacet
  facet normal -0.751817 0.659372 0
    outer loop
       vertex 0.000768568 0.176776 0
       vertex -0.0207934 0.152191 0
       vertex -0.0207934 0.152191 0.1
    endloop
  endfacet
  facet normal -0.751817 0.659372 0
    outer loop
       vertex -0.0207934 0.152191 0.1
       vertex 0.000768568 0.176776 0.1
       vertex 0.000768568 0.176776 0
    endloop
  endfacet
  facet normal -0.831476 0.555561 0
    outer loop
       vertex -0.0207934 0.152191 0
       vertex -0.0389614 0.125 0
       vertex -0.0389614 0.125 0.1
    endloop
  endfacet
  facet normal -0.831476 0.555561 0
    outer loop
       vertex -0.0389614 0.125 0.1
       vertex -0.0207934 0.152191 0.1
       vertex -0.0207934 0.152191 0
    endloop
  endfacet
  facet normal -0.896866 0.442302 0
    outer loop
       vertex -0.0389614 0.125 0
       vertex -0.0534254 0.095671 0
       vertex -0.0534254 0.095671 0.1
    endloop
  endfacet
  facet normal -0.896866 0.442302 0
    outer loop
       vertex -0.0534254 0.095671 0.1
       vertex -0.0389614 0.125 0.1
       vertex -0.0389614 0.125 0
    endloop
  endfacet
  facet normal -0.946935 0.321425 0
    outer loop
       vertex -0.0534254 0.095671 0
       vertex -0.0639364 0.064705 0
       vertex -0.0639364 0.064705 0.1
    endloop
  endfacet
  facet normal -0.946935 0.321425 0
    outer loop
       vertex -0.0639364 0.064705 0.1
       vertex -0.0534254 0.095671 0.1
       vertex -0.0534254 0.095671 0
    endloop
  endfacet
  facet normal -0.980784 0.195096 0
    outer loop
       vertex -0.0639364 0.064705 0
       vertex -0.0703164 0.0326315 0
       vertex -0.0703164 0.0326315 0.1
    endloop
  endfacet
  facet normal -0.980784 0.195096 0
    outer loop
       vertex -0.0703164 0.0326315 0.1
       vertex -0.0639364 0.064705 0.1
       vertex -0.0639364 0.064705 0
    endloop
  endfacet
  facet normal -0.997858 0.0654098 0
    outer loop
       vertex -0.0724554 8.32665e-17 0.1
       vertex -0.0703164 0.0326315 0.1
       vertex -0.0703164 0.0326315 0
    endloop
  endfacet
  facet normal -0.997858 0.0654098 -1.08928e-16
    outer loop
       vertex -0.0703164 0.0326315 0
       vertex -0.0724554 -8.32665e-17 0
       vertex -0.0724554 8.32665e-17 0.1
    endloop
  endfacet
  facet normal -0.997858 -0.0654098 0
    outer loop
       vertex -0.0724554 -8.32665e-17 0
       vertex -0.0703164 -0.0326315 0
       vertex -0.0703164 -0.0326315 0.1
    endloop
  endfacet
  facet normal -0.997858 -0.0654098 1.08928e-16
    outer loop
       vertex -0.0703164 -0.0326315 0.1
       vertex -0.0724554 8.32665e-17 0.1
       vertex -0.0724554 -8.32665e-17 0
    endloop
  endfacet
  facet normal -0.980784 -0.195096 0
    outer loop
       vertex -0.0703164 -0.0326315 0
       vertex -0.0639364 -0.064705 0
       vertex -0.0639364 -0.064705 0.1
    endloop
  endfacet
  facet normal -0.980784 -0.195096 0
    outer loop
       vertex -0.0639364 -0.064705 0.1
       vertex -0.0703164 -0.0326315 0.1
       vertex -0.0703164 -0.0326315 0
    endloop
  endfacet
  facet normal -0.946935 -0.321425 0
    outer loop
       vertex -0.0639364 -0.064705 0
       vertex -0.0534254 -0.095671 0
       vertex -0.0534254 -0.095671 0.1
    endloop
  endfacet
  facet normal -0.946935 -0.321425 0
    outer loop
       vertex -0.0534254 -0.095671 0.1
       vertex -0.0639364 -0.064705 0.1
       vertex -0.0639364 -0.064705 0
    endloop
  endfacet
  facet normal -0.896866 -0.442302 0
    outer loop
       vertex -0.0534254 -0.095671 0
       vertex -0.0389614 -0.125 0
       vertex -0.0389614 -0.125 0.1
    endloop
  endfacet
  facet normal -0.896866 -0.442302 0
    outer loop
       vertex -0.0389614 -0.125 0.1
       vertex -0.0534254 -0.095671 0.1
       vertex -0.0534254 -0.095671 0
    endloop
  endfacet
  facet normal -0.831476 -0.555561 0
    outer loop
       vertex -0.0389614 -0.125 0
       vertex -0.0207934 -0.152191 0
       vertex -0.0207934 -0.152191 0.1
    endloop
  endfacet
  facet normal -0.831476 -0.555561 0
    outer loop
       vertex -0.0207934 -0.152191 0.1
       vertex -0.0389614 -0.125 0.1
       vertex -0.0389614 -0.125 0
    endloop
  endfacet
  facet normal -0.751817 -0.659372 0
    outer loop
       vertex -0.0207934 -0.152191 0
       vertex 0.000768568 -0.176776 0
       vertex 0.000768568 -0.176776 0.1
    endloop
  endfacet
  facet normal -0.751817 -0.659372 0
    outer loop
       vertex 0.000768568 -0.176776 0.1
       vertex -0.0207934 -0.152191 0.1
       vertex -0.0207934 -0.152191 0
    endloop
  endfacet
  facet normal 0.659372 -0.751817 0
    outer loop
       vertex 0.354321 -0.176776 0
       vertex 0.354321 -0.176776 0.1
       vertex 0.329736 -0.198338 0.1
    endloop
  endfacet
  facet normal 0.659372 -0.751817 0
    outer loop
       vertex 0.329736 -0.198338 0.1
       vertex 0.329736 -0.198338 0
       vertex 0.354321 -0.176776 0
    endloop
  endfacet
  facet normal 0.555561 -0.831476 0
    outer loop
       vertex 0.329736 -0.198338 0
       vertex 0.329736 -0.198338 0.1
       vertex 0.302545 -0.216506 0.1
    endloop
  endfacet
  facet normal 0.555561 -0.831476 0
    outer loop
       vertex 0.302545 -0.216506 0.1
       vertex 0.302545 -0.216506 0
       vertex 0.329736 -0.198338 0
    endloop
  endfacet
  facet normal 0.442302 -0.896866 0
    outer loop
       vertex 0.302545 -0.216506 0
       vertex 0.302545 -0.216506 0.1
       vertex 0.273216 -0.23097 0.1
    endloop
  endfacet
  facet normal 0.442302 -0.896866 0
    outer loop
       vertex 0.273216 -0.23097 0.1
       vertex 0.273216 -0.23097 0
       vertex 0.302545 -0.216506 0
    endloop
  endfacet
  facet normal 0.321425 -0.946935 0
    outer loop
       vertex 0.273216 -0.23097 0
       vertex 0.273216 -0.23097 0.1
       vertex 0.24225 -0.241481 0.1
    endloop
  endfacet
  facet normal 0.321425 -0.946935 0
    outer loop
       vertex 0.24225 -0.241481 0.1
       vertex 0.24225 -0.241481 0
       vertex 0.273216 -0.23097 0
    endloop
  endfacet
  facet normal 0.195096 -0.980784 0
    outer loop
       vertex 0.24225 -0.241481 0
       vertex 0.24225 -0.241481 0.1
       vertex 0.210176 -0.247861 0.1
    endloop
  endfacet
  facet normal 0.195096 -0.980784 0
    outer loop
       vertex 0.210176 -0.247861 0.1
       vertex 0.210176 -0.247861 0
       vertex 0.24225 -0.241481 0
    endloop
  endfacet
  facet normal 0.0654098 -0.997858 0
    outer loop
       vertex 0.177545 -0.25 0
       vertex 0.210176 -0.247861 0
       vertex 0.210176 -0.247861 0.1
    endloop
  endfacet
  facet normal 0.0654098 -0.997858 1.0893e-16
    outer loop
       vertex 0.210176 -0.247861 0.1
       vertex 0.177545 -0.25 0.1
       vertex 0.177545 -0.25 0
    endloop
  endfacet
  facet normal -0.0654098 -0.997858 0
    outer loop
       vertex 0.177545 -0.25 0.1
       vertex 0.144913 -0.247861 0.1
       vertex 0.144913 -0.247861 0
    endloop
  endfacet
  facet normal -0.0654098 -0.997858 -1.0893e-16
    outer loop
       vertex 0.144913 -0.247861 0
       vertex 0.177545 -0.25 0
       vertex 0.177545 -0.25 0.1
    endloop
  endfacet
  facet normal -0.195096 -0.980784 0
    outer loop
       vertex 0.144913 -0.247861 0
       vertex 0.144913 -0.247861 0.1
       vertex 0.11284 -0.241481 0.1
    endloop
  endfacet
  facet normal -0.195096 -0.980784 -0
    outer loop
       vertex 0.11284 -0.241481 0.1
       vertex 0.11284 -0.241481 0
       vertex 0.144913 -0.247861 0
    endloop
  endfacet
  facet normal -0.321425 -0.946935 0
    outer loop
       vertex 0.11284 -0.241481 0
       vertex 0.11284 -0.241481 0.1
       vertex 0.0818736 -0.23097 0.1
    endloop
  endfacet
  facet normal -0.321425 -0.946935 -0
    outer loop
       vertex 0.0818736 -0.23097 0.1
       vertex 0.0818736 -0.23097 0
       vertex 0.11284 -0.241481 0
    endloop
  endfacet
  facet normal -0.442302 -0.896866 0
    outer loop
       vertex 0.0818736 -0.23097 0
       vertex 0.0818736 -0.23097 0.1
       vertex 0.0525446 -0.216506 0.1
    endloop
  endfacet
  facet normal -0.442302 -0.896866 -0
    outer loop
       vertex 0.0525446 -0.216506 0.1
       vertex 0.0525446 -0.216506 0
       vertex 0.0818736 -0.23097 0
    endloop
  endfacet
  facet normal -0.555561 -0.831476 0
    outer loop
       vertex 0.0525446 -0.216506 0
       vertex 0.0525446 -0.216506 0.1
       vertex 0.0253536 -0.198338 0.1
    endloop
  endfacet
  facet normal -0.555561 -0.831476 -0
    outer loop
       vertex 0.0253536 -0.198338 0.1
       vertex 0.0253536 -0.198338 0
       vertex 0.0525446 -0.216506 0
    endloop
  endfacet
  facet normal -0.659372 -0.751817 0
    outer loop
       vertex 0.0253536 -0.198338 0
       vertex 0.0253536 -0.198338 0.1
       vertex 0.000768568 -0.176776 0.1
    endloop
  endfacet
  facet normal -0.659372 -0.751817 -0
    outer loop
       vertex 0.000768568 -0.176776 0.1
       vertex 0.000768568 -0.176776 0
       vertex 0.0253536 -0.198338 0
    endloop
  endfacet
endsolid cylinder
