solid cylinder
  facet normal 0.751817 -0.659372 0
    outer loop
       vertex 0.326449 -0.176776 0
       vertex 0.348011 -0.152191 0
       vertex 0.348011 -0.152191 0.1
    endloop
  endfacet
  facet normal 0.751817 -0.659372 0
    outer loop
       vertex 0.348011 -0.152191 0.1
       vertex 0.326449 -0.176776 0.1
       vertex 0.326449 -0.176776 0
    endloop
  endfacet
  facet normal 0.831476 -0.555561 0
    outer loop
       vertex 0.348011 -0.152191 0
       vertex 0.366179 -0.125 0
       vertex 0.366179 -0.125 0.1
    endloop
  endfacet
  facet normal 0.831476 -0.555561 0
    outer loop
       vertex 0.366179 -0.125 0.1
       vertex 0.348011 -0.152191 0.1
       vertex 0.348011 -0.152191 0
    endloop
  endfacet
  facet normal 0.896866 -0.442302 0
    outer loop
       vertex 0.366179 -0.125 0
       vertex 0.380643 -0.095671 0
       vertex 0.380643 -0.095671 0.1
    endloop
  endfacet
  facet normal 0.896866 -0.442302 0
    outer loop
       vertex 0.380643 -0.095671 0.1
       vertex 0.366179 -0.125 0.1
       vertex 0.366179 -0.125 0
    endloop
  endfacet
  facet normal 0.946935 -0.321425 0
    outer loop
       vertex 0.380643 -0.095671 0
       vertex 0.391154 -0.064705 0
       vertex 0.391154 -0.064705 0.1
    endloop
  endfacet
  facet normal 0.946935 -0.321425 0
    outer loop
       vertex 0.391154 -0.064705 0.1
       vertex 0.380643 -0.095671 0.1
       vertex 0.380643 -0.095671 0
    endloop
  endfacet
  facet normal 0.980784 -0.195096 0
    outer loop
       vertex 0.391154 -0.064705 0
       vertex 0.397534 -0.0326315 0
       vertex 0.397534 -0.0326315 0.1
    endloop
  endfacet
  facet normal 0.980784 -0.195096 0
    outer loop
       vertex 0.397534 -0.0326315 0.1
       vertex 0.391154 -0.064705 0.1
       vertex 0.391154 -0.064705 0
    endloop
  endfacet
  facet normal 0.997858 -0.0654098 0
    outer loop
       vertex 0.399673 -8.32665e-17 0.1
       vertex 0.397534 -0.0326315 0.1
       vertex 0.397534 -0.0326315 0
    endloop
  endfacet
  facet normal 0.997858 -0.0654098 -1.08928e-16
    outer loop
       vertex 0.397534 -0.0326315 0
       vertex 0.399673 8.32665e-17 0
       vertex 0.399673 -8.32665e-17 0.1
    endloop
  endfacet
  facet normal 0.997858 0.0654098 0
    outer loop
       vertex 0.399673 8.32665e-17 0
       vertex 0.397534 0.0326315 0
       vertex 0.397534 0.0326315 0.1
    endloop
  endfacet
  facet normal 0.997858 0.0654098 1.08928e-16
    outer loop
       vertex 0.397534 0.0326315 0.1
       vertex 0.399673 -8.32665e-17 0.1
       vertex 0.399673 8.32665e-17 0
    endloop
  endfacet
  facet normal 0.980784 0.195096 0
    outer loop
       vertex 0.397534 0.0326315 0
       vertex 0.391154 0.064705 0
       vertex 0.391154 0.064705 0.1
    endloop
  endfacet
  facet normal 0.980784 0.195096 0
    outer loop
       vertex 0.391154 0.064705 0.1
       vertex 0.397534 0.0326315 0.1
       vertex 0.397534 0.0326315 0
    endloop
  endfacet
  facet normal 0.946935 0.321425 0
    outer loop
       vertex 0.391154 0.064705 0
       vertex 0.380643 0.095671 0
       vertex 0.380643 0.095671 0.1
    endloop
  endfacet
  facet normal 0.946935 0.321425 0
    outer loop
       vertex 0.380643 0.095671 0.1
       vertex 0.391154 0.064705 0.1
       vertex 0.391154 0.064705 0
    endloop
  endfacet
  facet normal 0.896866 0.442302 0
    outer loop
       vertex 0.380643 0.095671 0
       vertex 0.366179 0.125 0
       vertex 0.366179 0.125 0.1
    endloop
  endfacet
  facet normal 0.896866 0.442302 0
    outer loop
       vertex 0.366179 0.125 0.1
       vertex 0.380643 0.095671 0.1
       vertex 0.380643 0.095671 0
    endloop
  endfacet
  facet normal 0.831476 0.555561 0
    outer loop
       vertex 0.366179 0.125 0
       vertex 0.348011 0.152191 0
       vertex 0.348011 0.152191 0.1
    endloop
  endfacet
  facet normal 0.831476 0.555561 0
    outer loop
       vertex 0.348011 0.152191 0.1
       vertex 0.366179 0.125 0.1
       vertex 0.366179 0.125 0
    endloop
  endfacet
  facet normal 0.751817 0.659372 0
    outer loop
       vertex 0.348011 0.152191 0
       vertex 0.326449 0.176776 0
       vertex 0.326449 0.176776 0.1
    endloop
  endfacet
  facet normal 0.751817 0.659372 0
    outer loop
       vertex 0.326449 0.176776 0.1
       vertex 0.348011 0.152191 0.1
       vertex 0.348011 0.152191 0
    endloop
  endfacet
  facet normal 0.659372 0.751817 0
    outer loop
       vertex 0.326449 0.176776 0
       vertex 0.301864 0.198338 0
       vertex 0.301864 0.198338 0.1
    endloop
  endfacet
  facet normal 0.659372 0.751817 0
    outer loop
       vertex 0.301864 0.198338 0.1
       vertex 0.326449 0.176776 0.1
       vertex 0.326449 0.176776 0
    endloop
  endfacet
  facet normal 0.555561 0.831476 0
    outer loop
       vertex 0.301864 0.198338 0
       vertex 0.274673 0.216506 0
       vertex 0.274673 0.216506 0.1
    endloop
  endfacet
  facet normal 0.555561 0.831476 0
    outer loop
       vertex 0.274673 0.216506 0.1
       vertex 0.301864 0.198338 0.1
       vertex 0.301864 0.198338 0
    endloop
  endfacet
  facet normal 0.442302 0.896866 0
    outer loop
       vertex 0.274673 0.216506 0
       vertex 0.245344 0.23097 0
       vertex 0.245344 0.23097 0.1
    endloop
  endfacet
  facet normal 0.442302 0.896866 0
    outer loop
       vertex 0.245344 0.23097 0.1
       vertex 0.274673 0.216506 0.1
       vertex 0.274673 0.216506 0
    endloop
  endfacet
  facet normal 0.321425 0.946935 0
    outer loop
       vertex 0.245344 0.23097 0
       vertex 0.214378 0.241481 0
       vertex 0.214378 0.241481 0.1
    endloop
  endfacet
  facet normal 0.321425 0.946935 0
    outer loop
       vertex 0.214378 0.241481 0.1
       vertex 0.245344 0.23097 0.1
       vertex 0.245344 0.23097 0
    endloop
  endfacet
  facet normal 0.195096 0.980784 0
    outer loop
       vertex 0.214378 0.241481 0
       vertex 0.182305 0.247861 0
       vertex 0.182305 0.247861 0.1
    endloop
  endfacet
  facet normal 0.195096 0.980784 0
    outer loop
       vertex 0.182305 0.247861 0.1
       vertex 0.214378 0.241481 0.1
       vertex 0.214378 0.241481 0
    endloop
  endfacet
  facet normal 0.0654098 0.997858 0
    outer loop
       vertex 0.149673 0.25 0.1
       vertex 0.182305 0.247861 0.1
       vertex 0.182305 0.247861 0
    endloop
  endfacet
  facet normal 0.0654098 0.997858 -1.0893e-16
    outer loop
       vertex 0.182305 0.247861 0
       vertex 0.149673 0.25 0
       vertex 0.149673 0.25 0.1
    endloop
  endfacet
  facet normal -0.0654098 0.997858 0
    outer loop
       vertex 0.149673 0.25 0
       vertex 0.117042 0.247861 0
       vertex 0.117042 0.247861 0.1
    endloop
  endfacet
  facet normal -0.0654098 0.997858 1.0893e-16
    outer loop
       vertex 0.117042 0.247861 0.1
       vertex 0.149673 0.25 0.1
       vertex 0.149673 0.25 0
    endloop
  endfacet
  facet normal -0.195096 0.980784 0
    outer loop
       vertex 0.117042 0.247861 0
       vertex 0.084968 0.241481 0
       vertex 0.084968 0.241481 0.1
    endloop
  endfacet
  facet normal -0.195096 0.980784 0
    outer loop
       vertex 0.084968 0.241481 0.1
       vertex 0.117042 0.247861 0.1
       vertex 0.117042 0.247861 0
    endloop
  endfacet
  facet normal -0.321425 0.946935 0
    outer loop
       vertex 0.084968 0.241481 0
       vertex 0.054002 0.23097 0
       vertex 0.054002 0.23097 0.1
    endloop
  endfacet
  facet normal -0.321425 0.946935 0
    outer loop
       vertex 0.054002 0.23097 0.1
       vertex 0.084968 0.241481 0.1
       vertex 0.084968 0.241481 0
    endloop
  endfacet
  facet normal -0.442302 0.896866 0
    outer loop
       vertex 0.054002 0.23097 0
       vertex 0.024673 0.216506 0
       vertex 0.024673 0.216506 0.1
    endloop
  endfacet
  facet normal -0.442302 0.896866 0
    outer loop
       vertex 0.024673 0.216506 0.1
       vertex 0.054002 0.23097 0.1
       vertex 0.054002 0.23097 0
    endloop
  endfacet
  facet normal -0.555561 0.831476 0
    outer loop
       vertex 0.024673 0.216506 0
       vertex -0.00251797 0.198338 0
       vertex -0.00251797 0.198338 0.1
    endloop
  endfacet
  facet normal -0.555561 0.831476 0
    outer loop
       vertex -0.00251797 0.198338 0.1
       vertex 0.024673 0.216506 0.1
       vertex 0.024673 0.216506 0
    endloop
  endfacet
  facet normal -0.659372 0.751817 0
    outer loop
       vertex -0.00251797 0.198338 0
       vertex -0.027103 0.176776 0
       vertex -0.027103 0.176776 0.1
    endloop
  endfacet
  facet normal -0.659372 0.751817 0
    outer loop
       vertex -0.027103 0.176776 0.1
       vertex -0.00251797 0.198338 0.1
       vertex -0.00251797 0.198338 0
    endloop
  endfacet
  facet normal -0.751817 0.659372 0
    outer loop
       vertex -0.027103 0.176776 0
       vertex -0.048665 0.152191 0
       vertex -0.048665 0.152191 0.1
    endloop
  endfacet
  facet normal -0.751817 0.659372 0
    outer loop
       vertex -0.048665 0.152191 0.1
       vertex -0.027103 0.176776 0.1
       vertex -0.027103 0.176776 0
    endloop
  endfacet
  facet normal -0.831476 0.555561 0
    outer loop
       vertex -0.048665 0.152191 0
       vertex -0.066833 0.125 0
       vertex -0.066833 0.125 0.1
    endloop
  endfacet
  facet normal -0.831476 0.555561 0
    outer loop
       vertex -0.066833 0.125 0.1
       vertex -0.048665 0.152191 0.1
       vertex -0.048665 0.152191 0
    endloop
  endfacet
  facet normal -0.896866 0.442302 0
    outer loop
       vertex -0.066833 0.125 0
       vertex -0.081297 0.095671 0
       vertex -0.081297 0.095671 0.1
    endloop
  endfacet
  facet normal -0.896866 0.442302 0
    outer loop
       vertex -0.081297 0.095671 0.1
       vertex -0.066833 0.125 0.1
       vertex -0.066833 0.125 0
    endloop
  endfacet
  facet normal -0.946935 0.321425 0
    outer loop
       vertex -0.081297 0.095671 0
       vertex -0.091808 0.064705 0
       vertex -0.091808 0.064705 0.1
    endloop
  endfacet
  facet normal -0.946935 0.321425 0
    outer loop
       vertex -0.091808 0.064705 0.1
       vertex -0.081297 0.095671 0.1
       vertex -0.081297 0.095671 0
    endloop
  endfacet
  facet normal -0.980784 0.195096 0
    outer loop
       vertex -0.091808 0.064705 0
       vertex -0.098188 0.0326315 0
       vertex -0.098188 0.0326315 0.1
    endloop
  endfacet
  facet normal -0.980784 0.195096 0
    outer loop
       vertex -0.098188 0.0326315 0.1
       vertex -0.091808 0.064705 0.1
       vertex -0.091808 0.064705 0
    endloop
  endfacet
  facet normal -0.997858 0.0654098 0
    outer loop
       vertex -0.100327 8.32665e-17 0.1
       vertex -0.098188 0.0326315 0.1
       vertex -0.098188 0.0326315 0
    endloop
  endfacet
  facet normal -0.997858 0.0654098 -1.08928e-16
    outer loop
       vertex -0.098188 0.0326315 0
       vertex -0.100327 -8.32665e-17 0
       vertex -0.100327 8.32665e-17 0.1
    endloop
  endfacet
  facet normal -0.997858 -0.0654098 0
    outer loop
       vertex -0.100327 -8.32665e-17 0
       vertex -0.098188 -0.0326315 0
       vertex -0.098188 -0.0326315 0.1
    endloop
  endfacet
  facet normal -0.997858 -0.0654098 1.08928e-16
    outer loop
       vertex -0.098188 -0.0326315 0.1
       vertex -0.100327 8.32665e-17 0.1
       vertex -0.100327 -8.32665e-17 0
    endloop
  endfacet
  facet normal -0.980784 -0.195096 0
    outer loop
       vertex -0.098188 -0.0326315 0
       vertex -0.091808 -0.064705 0
       vertex -0.091808 -0.064705 0.1
    endloop
  endfacet
  facet normal -0.980784 -0.195096 0
    outer loop
       vertex -0.091808 -0.064705 0.1
       vertex -0.098188 -0.0326315 0.1
       vertex -0.098188 -0.0326315 0
    endloop
  endfacet
  facet normal -0.946935 -0.321425 0
    outer loop
       vertex -0.091808 -0.064705 0
       vertex -0.081297 -0.095671 0
       vertex -0.081297 -0.095671 0.1
    endloop
  endfacet
  facet normal -0.946935 -0.321425 0
    outer loop
       vertex -0.081297 -0.095671 0.1
       vertex -0.091808 -0.064705 0.1
       vertex -0.091808 -0.064705 0
    endloop
  endfacet
  facet normal -0.896866 -0.442302 0
    outer loop
       vertex -0.081297 -0.095671 0
       vertex -0.066833 -0.125 0
       vertex -0.066833 -0.125 0.1
    endloop
  endfacet
  facet normal -0.896866 -0.442302 0
    outer loop
       vertex -0.066833 -0.125 0.1
       vertex -0.081297 -0.095671 0.1
       vertex -0.081297 -0.095671 0
    endloop
  endfacet
  facet normal -0.831476 -0.555561 0
    outer loop
       vertex -0.066833 -0.125 0
       vertex -0.048665 -0.152191 0
       vertex -0.048665 -0.152191 0.1
    endloop
  endfacet
  facet normal -0.831476 -0.555561 0
    outer loop
       vertex -0.048665 -0.152191 0.1
       vertex -0.066833 -0.125 0.1
       vertex -0.066833 -0.125 0
    endloop
  endfacet
  facet normal -0.751817 -0.659372 0
    outer loop
       vertex -0.048665 -0.152191 0
       vertex -0.027103 -0.176776 0
       vertex -0.027103 -0.176776 0.1
    endloop
  endfacet
  facet normal -0.751817 -0.659372 0
    outer loop
       vertex -0.027103 -0.176776 0.1
       vertex -0.048665 -0.152191 0.1
       vertex -0.048665 -0.152191 0
    endloop
  endfacet
  facet normal 0.659372 -0.751817 0
    outer loop
       vertex 0.326449 -0.176776 0
       vertex 0.326449 -0.176776 0.1
       vertex 0.301864 -0.198338 0.1
    endloop
  endfacet
  facet normal 0.659372 -0.751817 0
    outer loop
       vertex 0.301864 -0.198338 0.1
       vertex 0.301864 -0.198338 0
       vertex 0.326449 -0.176776 0
    endloop
  endfacet
  facet normal 0.555561 -0.831476 0
    outer loop
       vertex 0.301864 -0.198338 0
       vertex 0.301864 -0.198338 0.1
       vertex 0.274673 -0.216506 0.1
    endloop
  endfacet
  facet normal 0.555561 -0.831476 0
    outer loop
       vertex 0.274673 -0.216506 0.1
       vertex 0.274673 -0.216506 0
       vertex 0.301864 -0.198338 0
    endloop
  endfacet
  facet normal 0.442302 -0.896866 0
    outer loop
       vertex 0.274673 -0.216506 0
       vertex 0.274673 -0.216506 0.1
       vertex 0.245344 -0.23097 0.1
    endloop
  endfacet
  facet normal 0.442302 -0.896866 0
    outer loop
       vertex 0.245344 -0.23097 0.1
       vertex 0.245344 -0.23097 0
       vertex 0.274673 -0.216506 0
    endloop
  endfacet
  facet normal 0.321425 -0.946935 0
    outer loop
       vertex 0.245344 -0.23097 0
       vertex 0.245344 -0.23097 0.1
       vertex 0.214378 -0.241481 0.1
    endloop
  endfacet
  facet normal 0.321425 -0.946935 0
    outer loop
       vertex 0.214378 -0.241481 0.1
       vertex 0.214378 -0.241481 0
       vertex 0.245344 -0.23097 0
    endloop
  endfacet
  facet normal 0.195096 -0.980784 0
    outer loop
       vertex 0.214378 -0.241481 0
       vertex 0.214378 -0.241481 0.1
       vertex 0.182305 -0.247861 0.1
    endloop
  endfacet
  facet normal 0.195096 -0.980784 0
    outer loop
       vertex 0.182305 -0.247861 0.1
       vertex 0.182305 -0.247861 0
       vertex 0.214378 -0.241481 0
    endloop
  endfacet
  facet normal 0.0654098 -0.997858 0
    outer loop
       vertex 0.149673 -0.25 0
       vertex 0.182305 -0.247861 0
       vertex 0.182305 -0.247861 0.1
    endloop
  endfacet
  facet normal 0.0654098 -0.997858 1.0893e-16
    outer loop
       vertex 0.182305 -0.247861 0.1
       vertex 0.149673 -0.25 0.1
       vertex 0.149673 -0.25 0
    endloop
  endfacet
  facet normal -0.0654098 -0.997858 0
    outer loop
       vertex 0.149673 -0.25 0.1
       vertex 0.117042 -0.247861 0.1
       vertex 0.117042 -0.247861 0
    endloop
  endfacet
  facet normal -0.0654098 -0.997858 -1.0893e-16
    outer loop
       vertex 0.117042 -0.247861 0
       vertex 0.149673 -0.25 0
       vertex 0.149673 -0.25 0.1
    endloop
  endfacet
  facet normal -0.195096 -0.980784 0
    outer loop
       vertex 0.117042 -0.247861 0
       vertex 0.117042 -0.247861 0.1
       vertex 0.084968 -0.241481 0.1
    endloop
  endfacet
  facet normal -0.195096 -0.980784 -0
    outer loop
       vertex 0.084968 -0.241481 0.1
       vertex 0.084968 -0.241481 0
       vertex 0.117042 -0.247861 0
    endloop
  endfacet
  facet normal -0.321425 -0.946935 0
    outer loop
       vertex 0.084968 -0.241481 0
       vertex 0.084968 -0.241481 0.1
       vertex 0.054002 -0.23097 0.1
    endloop
  endfacet
  facet normal -0.321425 -0.946935 -0
    outer loop
       vertex 0.054002 -0.23097 0.1
       vertex 0.054002 -0.23097 0
       vertex 0.084968 -0.241481 0
    endloop
  endfacet
  facet normal -0.442302 -0.896866 0
    outer loop
       vertex 0.054002 -0.23097 0
       vertex 0.054002 -0.23097 0.1
       vertex 0.024673 -0.216506 0.1
    endloop
  endfacet
  facet normal -0.442302 -0.896866 -0
    outer loop
       vertex 0.024673 -0.216506 0.1
       vertex 0.024673 -0.216506 0
       vertex 0.054002 -0.23097 0
    endloop
  endfacet
  facet normal -0.555561 -0.831476 0
    outer loop
       vertex 0.024673 -0.216506 0
       vertex 0.024673 -0.216506 0.1
       vertex -0.00251797 -0.198338 0.1
    endloop
  endfacet
  facet normal -0.555561 -0.831476 -0
    outer loop
       vertex -0.00251797 -0.198338 0.1
       vertex -0.00251797 -0.198338 0
       vertex 0.024673 -0.216506 0
    endloop
  endfacet
  facet normal -0.659372 -0.751817 0
    outer loop
       vertex -0.00251797 -0.198338 0
       vertex -0.00251797 -0.198338 0.1
       vertex -0.027103 -0.176776 0.1
    endloop
  endfacet
  facet normal -0.659372 -0.751817 -0
    outer loop
       vertex -0.027103 -0.176776 0.1
       vertex -0.027103 -0.176776 0
       vertex -0.00251797 -0.198338 0
    endloop
  endfacet
endsolid cylinder
