solid cylinder
  facet normal 0.751817 -0.659372 0
    outer loop
       vertex -0.0921219 -0.176776 0
       vertex -0.0705599 -0.152191 0
       vertex -0.0705599 -0.152191 0.1
    endloop
  endfacet
  facet normal 0.751817 -0.659372 0
    outer loop
       vertex -0.0705599 -0.152191 0.1
       vertex -0.0921219 -0.176776 0.1
       vertex -0.0921219 -0.176776 0
    endloop
  endfacet
  facet normal 0.831476 -0.555561 0
    outer loop
       vertex -0.0705599 -0.152191 0
       vertex -0.0523919 -0.125 0
       vertex -0.0523919 -0.125 0.1
    endloop
  endfacet
  facet normal 0.831476 -0.555561 0
    outer loop
       vertex -0.0523919 -0.125 0.1
       vertex -0.0705599 -0.152191 0.1
       vertex -0.0705599 -0.152191 0
    endloop
  endfacet
  facet normal 0.896866 -0.442302 0
    outer loop
       vertex -0.0523919 -0.125 0
       vertex -0.0379279 -0.095671 0
       vertex -0.0379279 -0.095671 0.1
    endloop
  endfacet
  facet normal 0.896866 -0.442302 0
    outer loop
       vertex -0.0379279 -0.095671 0.1
       vertex -0.0523919 -0.125 0.1
       vertex -0.0523919 -0.125 0
    endloop
  endfacet
  facet normal 0.946935 -0.321425 0
    outer loop
       vertex -0.0379279 -0.095671 0
       vertex -0.0274169 -0.064705 0
       vertex -0.0274169 -0.064705 0.1
    endloop
  endfacet
  facet normal 0.946935 -0.321425 0
    outer loop
       vertex -0.0274169 -0.064705 0.1
       vertex -0.0379279 -0.095671 0.1
       vertex -0.0379279 -0.095671 0
    endloop
  endfacet
  facet normal 0.980784 -0.195096 0
    outer loop
       vertex -0.0274169 -0.064705 0
       vertex -0.0210369 -0.0326315 0
       vertex -0.0210369 -0.0326315 0.1
    endloop
  endfacet
  facet normal 0.980784 -0.195096 0
    outer loop
       vertex -0.0210369 -0.0326315 0.1
       vertex -0.0274169 -0.064705 0.1
       vertex -0.0274169 -0.064705 0
    endloop
  endfacet
  facet normal 0.997858 -0.0654098 0
    outer loop
       vertex -0.0188979 -8.32665e-17 0.1
       vertex -0.0210369 -0.0326315 0.1
       vertex -0.0210369 -0.0326315 0
    endloop
  endfacet
  facet normal 0.997858 -0.0654098 -1.08928e-16
    outer loop
       vertex -0.0210369 -0.0326315 0
       vertex -0.0188979 8.32665e-17 0
       vertex -0.0188979 -8.32665e-17 0.1
    endloop
  endfacet
  facet normal 0.997858 0.0654098 0
    outer loop
       vertex -0.0188979 8.32665e-17 0
       vertex -0.0210369 0.0326315 0
       vertex -0.0210369 0.0326315 0.1
    endloop
  endfacet
  facet normal 0.997858 0.0654098 1.08928e-16
    outer loop
       vertex -0.0210369 0.0326315 0.1
       vertex -0.0188979 -8.32665e-17 0.1
       vertex -0.0188979 8.32665e-17 0
    endloop
  endfacet
  facet normal 0.980784 0.195096 0
    outer loop
       vertex -0.0210369 0.0326315 0
       vertex -0.0274169 0.064705 0
       vertex -0.0274169 0.064705 0.1
    endloop
  endfacet
  facet normal 0.980784 0.195096 0
    outer loop
       vertex -0.0274169 0.064705 0.1
       vertex -0.0210369 0.0326315 0.1
       vertex -0.0210369 0.0326315 0
    endloop
  endfacet
  facet normal 0.946935 0.321425 0
    outer loop
       vertex -0.0274169 0.064705 0
       vertex -0.0379279 0.095671 0
       vertex -0.0379279 0.095671 0.1
    endloop
  endfacet
  facet normal 0.946935 0.321425 0
    outer loop
       vertex -0.0379279 0.095671 0.1
       vertex -0.0274169 0.064705 0.1
       vertex -0.0274169 0.064705 0
    endloop
  endfacet
  facet normal 0.896866 0.442302 0
    outer loop
       vertex -0.0379279 0.095671 0
       vertex -0.0523919 0.125 0
       vertex -0.0523919 0.125 0.1
    endloop
  endfacet
  facet normal 0.896866 0.442302 0
    outer loop
       vertex -0.0523919 0.125 0.1
       vertex -0.0379279 0.095671 0.1
       vertex -0.0379279 0.095671 0
    endloop
  endfacet
  facet normal 0.831476 0.555561 0
    outer loop
       vertex -0.0523919 0.125 0
       vertex -0.0705599 0.152191 0
       vertex -0.0705599 0.152191 0.1
    endloop
  endfacet
  facet normal 0.831476 0.555561 0
    outer loop
       vertex -0.0705599 0.152191 0.1
       vertex -0.0523919 0.125 0.1
       vertex -0.0523919 0.125 0
    endloop
  endfacet
  facet normal 0.751817 0.659372 0
    outer loop
       vertex -0.0705599 0.152191 0
       vertex -0.0921219 0.176776 0
       vertex -0.0921219 0.176776 0.1
    endloop
  endfacet
  facet normal 0.751817 0.659372 0
    outer loop
       vertex -0.0921219 0.176776 0.1
       vertex -0.0705599 0.152191 0.1
       vertex -0.0705599 0.152191 0
    endloop
  endfacet
  facet normal 0.659372 0.751817 0
    outer loop
       vertex -0.0921219 0.176776 0
       vertex -0.116707 0.198338 0
       vertex -0.116707 0.198338 0.1
    endloop
  endfacet
  facet normal 0.659372 0.751817 0
    outer loop
       vertex -0.116707 0.198338 0.1
       vertex -0.0921219 0.176776 0.1
       vertex -0.0921219 0.176776 0
    endloop
  endfacet
  facet normal 0.555561 0.831476 0
    outer loop
       vertex -0.116707 0.198338 0
       vertex -0.143898 0.216506 0
       vertex -0.143898 0.216506 0.1
    endloop
  endfacet
  facet normal 0.555561 0.831476 0
    outer loop
       vertex -0.143898 0.216506 0.1
       vertex -0.116707 0.198338 0.1
       vertex -0.116707 0.198338 0
    endloop
  endfacet
  facet normal 0.442302 0.896866 0
    outer loop
       vertex -0.143898 0.216506 0
       vertex -0.173227 0.23097 0
       vertex -0.173227 0.23097 0.1
    endloop
  endfacet
  facet normal 0.442302 0.896866 0
    outer loop
       vertex -0.173227 0.23097 0.1
       vertex -0.143898 0.216506 0.1
       vertex -0.143898 0.216506 0
    endloop
  endfacet
  facet normal 0.321425 0.946935 0
    outer loop
       vertex -0.173227 0.23097 0
       vertex -0.204193 0.241481 0
       vertex -0.204193 0.241481 0.1
    endloop
  endfacet
  facet normal 0.321425 0.946935 0
    outer loop
       vertex -0.204193 0.241481 0.1
       vertex -0.173227 0.23097 0.1
       vertex -0.173227 0.23097 0
    endloop
  endfacet
  facet normal 0.195096 0.980784 0
    outer loop
       vertex -0.204193 0.241481 0
       vertex -0.236266 0.247861 0
       vertex -0.236266 0.247861 0.1
    endloop
  endfacet
  facet normal 0.195096 0.980784 0
    outer loop
       vertex -0.236266 0.247861 0.1
       vertex -0.204193 0.241481 0.1
       vertex -0.204193 0.241481 0
    endloop
  endfacet
  facet normal 0.0654098 0.997858 0
    outer loop
       vertex -0.268898 0.25 0.1
       vertex -0.236266 0.247861 0.1
       vertex -0.236266 0.247861 0
    endloop
  endfacet
  facet normal 0.0654098 0.997858 -1.45239e-16
    outer loop
       vertex -0.236266 0.247861 0
       vertex -0.268898 0.25 0
       vertex -0.268898 0.25 0.1
    endloop
  endfacet
  facet normal -0.0654098 0.997858 0
    outer loop
       vertex -0.268898 0.25 0
       vertex -0.301529 0.247861 0
       vertex -0.301529 0.247861 0.1
    endloop
  endfacet
  facet normal -0.0654098 0.997858 1.45239e-16
    outer loop
       vertex -0.301529 0.247861 0.1
       vertex -0.268898 0.25 0.1
       vertex -0.268898 0.25 0
    endloop
  endfacet
  facet normal -0.195096 0.980784 0
    outer loop
       vertex -0.301529 0.247861 0
       vertex -0.333603 0.241481 0
       vertex -0.333603 0.241481 0.1
    endloop
  endfacet
  facet normal -0.195096 0.980784 0
    outer loop
       vertex -0.333603 0.241481 0.1
       vertex -0.301529 0.247861 0.1
       vertex -0.301529 0.247861 0
    endloop
  endfacet
  facet normal -0.321425 0.946935 0
    outer loop
       vertex -0.333603 0.241481 0
       vertex -0.364569 0.23097 0
       vertex -0.364569 0.23097 0.1
    endloop
  endfacet
  facet normal -0.321425 0.946935 0
    outer loop
       vertex -0.364569 0.23097 0.1
       vertex -0.333603 0.241481 0.1
       vertex -0.333603 0.241481 0
    endloop
  endfacet
  facet normal -0.442302 0.896866 0
    outer loop
       vertex -0.364569 0.23097 0
       vertex -0.393898 0.216506 0
       vertex -0.393898 0.216506 0.1
    endloop
  endfacet
  facet normal -0.442302 0.896866 0
    outer loop
       vertex -0.393898 0.216506 0.1
       vertex -0.364569 0.23097 0.1
       vertex -0.364569 0.23097 0
    endloop
  endfacet
  facet normal -0.555561 0.831476 0
    outer loop
       vertex -0.393898 0.216506 0
       vertex -0.421089 0.198338 0
       vertex -0.421089 0.198338 0.1
    endloop
  endfacet
  facet normal -0.555561 0.831476 0
    outer loop
       vertex -0.421089 0.198338 0.1
       vertex -0.393898 0.216506 0.1
       vertex -0.393898 0.216506 0
    endloop
  endfacet
  facet normal -0.659372 0.751817 0
    outer loop
       vertex -0.421089 0.198338 0
       vertex -0.445674 0.176776 0
       vertex -0.445674 0.176776 0.1
    endloop
  endfacet
  facet normal -0.659372 0.751817 0
    outer loop
       vertex -0.445674 0.176776 0.1
       vertex -0.421089 0.198338 0.1
       vertex -0.421089 0.198338 0
    endloop
  endfacet
  facet normal -0.751817 0.659372 0
    outer loop
       vertex -0.445674 0.176776 0
       vertex -0.467236 0.152191 0
       vertex -0.467236 0.152191 0.1
    endloop
  endfacet
  facet normal -0.751817 0.659372 0
    outer loop
       vertex -0.467236 0.152191 0.1
       vertex -0.445674 0.176776 0.1
       vertex -0.445674 0.176776 0
    endloop
  endfacet
  facet normal -0.831476 0.555561 0
    outer loop
       vertex -0.467236 0.152191 0
       vertex -0.485404 0.125 0
       vertex -0.485404 0.125 0.1
    endloop
  endfacet
  facet normal -0.831476 0.555561 0
    outer loop
       vertex -0.485404 0.125 0.1
       vertex -0.467236 0.152191 0.1
       vertex -0.467236 0.152191 0
    endloop
  endfacet
  facet normal -0.896866 0.442302 0
    outer loop
       vertex -0.485404 0.125 0
       vertex -0.499868 0.095671 0
       vertex -0.499868 0.095671 0.1
    endloop
  endfacet
  facet normal -0.896866 0.442302 0
    outer loop
       vertex -0.499868 0.095671 0.1
       vertex -0.485404 0.125 0.1
       vertex -0.485404 0.125 0
    endloop
  endfacet
  facet normal -0.946935 0.321425 0
    outer loop
       vertex -0.499868 0.095671 0
       vertex -0.510379 0.064705 0
       vertex -0.510379 0.064705 0.1
    endloop
  endfacet
  facet normal -0.946935 0.321425 0
    outer loop
       vertex -0.510379 0.064705 0.1
       vertex -0.499868 0.095671 0.1
       vertex -0.499868 0.095671 0
    endloop
  endfacet
  facet normal -0.980784 0.195096 0
    outer loop
       vertex -0.510379 0.064705 0
       vertex -0.516759 0.0326315 0
       vertex -0.516759 0.0326315 0.1
    endloop
  endfacet
  facet normal -0.980784 0.195096 0
    outer loop
       vertex -0.516759 0.0326315 0.1
       vertex -0.510379 0.064705 0.1
       vertex -0.510379 0.064705 0
    endloop
  endfacet
  facet normal -0.997858 0.0654098 0
    outer loop
       vertex -0.518898 8.32665e-17 0.1
       vertex -0.516759 0.0326315 0.1
       vertex -0.516759 0.0326315 0
    endloop
  endfacet
  facet normal -0.997858 0.0654098 -1.08928e-16
    outer loop
       vertex -0.516759 0.0326315 0
       vertex -0.518898 -8.32665e-17 0
       vertex -0.518898 8.32665e-17 0.1
    endloop
  endfacet
  facet normal -0.997858 -0.0654098 0
    outer loop
       vertex -0.518898 -8.32665e-17 0
       vertex -0.516759 -0.0326315 0
       vertex -0.516759 -0.0326315 0.1
    endloop
  endfacet
  facet normal -0.997858 -0.0654098 1.08928e-16
    outer loop
       vertex -0.516759 -0.0326315 0.1
       vertex -0.518898 8.32665e-17 0.1
       vertex -0.518898 -8.32665e-17 0
    endloop
  endfacet
  facet normal -0.980784 -0.195096 0
    outer loop
       vertex -0.516759 -0.0326315 0
       vertex -0.510379 -0.064705 0
       vertex -0.510379 -0.064705 0.1
    endloop
  endfacet
  facet normal -0.980784 -0.195096 0
    outer loop
       vertex -0.510379 -0.064705 0.1
       vertex -0.516759 -0.0326315 0.1
       vertex -0.516759 -0.0326315 0
    endloop
  endfacet
  facet normal -0.946935 -0.321425 0
    outer loop
       vertex -0.510379 -0.064705 0
       vertex -0.499868 -0.095671 0
       vertex -0.499868 -0.095671 0.1
    endloop
  endfacet
  facet normal -0.946935 -0.321425 0
    outer loop
       vertex -0.499868 -0.095671 0.1
       vertex -0.510379 -0.064705 0.1
       vertex -0.510379 -0.064705 0
    endloop
  endfacet
  facet normal -0.896866 -0.442302 0
    outer loop
       vertex -0.499868 -0.095671 0
       vertex -0.485404 -0.125 0
       vertex -0.485404 -0.125 0.1
    endloop
  endfacet
  facet normal -0.896866 -0.442302 0
    outer loop
       vertex -0.485404 -0.125 0.1
       vertex -0.499868 -0.095671 0.1
       vertex -0.499868 -0.095671 0
    endloop
  endfacet
  facet normal -0.831476 -0.555561 0
    outer loop
       vertex -0.485404 -0.125 0
       vertex -0.467236 -0.152191 0
       vertex -0.467236 -0.152191 0.1
    endloop
  endfacet
  facet normal -0.831476 -0.555561 0
    outer loop
       vertex -0.467236 -0.152191 0.1
       vertex -0.485404 -0.125 0.1
       vertex -0.485404 -0.125 0
    endloop
  endfacet
  facet normal -0.751817 -0.659372 0
    outer loop
       vertex -0.467236 -0.152191 0
       vertex -0.445674 -0.176776 0
       vertex -0.445674 -0.176776 0.1
    endloop
  endfacet
  facet normal -0.751817 -0.659372 0
    outer loop
       vertex -0.445674 -0.176776 0.1
       vertex -0.467236 -0.152191 0.1
       vertex -0.467236 -0.152191 0
    endloop
  endfacet
  facet normal 0.659372 -0.751817 0
    outer loop
       vertex -0.0921219 -0.176776 0
       vertex -0.0921219 -0.176776 0.1
       vertex -0.116707 -0.198338 0.1
    endloop
  endfacet
  facet normal 0.659372 -0.751817 0
    outer loop
       vertex -0.116707 -0.198338 0.1
       vertex -0.116707 -0.198338 0
       vertex -0.0921219 -0.176776 0
    endloop
  endfacet
  facet normal 0.555561 -0.831476 0
    outer loop
       vertex -0.116707 -0.198338 0
       vertex -0.116707 -0.198338 0.1
       vertex -0.143898 -0.216506 0.1
    endloop
  endfacet
  facet normal 0.555561 -0.831476 0
    outer loop
       vertex -0.143898 -0.216506 0.1
       vertex -0.143898 -0.216506 0
       vertex -0.116707 -0.198338 0
    endloop
  endfacet
  facet normal 0.442302 -0.896866 0
    outer loop
       vertex -0.143898 -0.216506 0
       vertex -0.143898 -0.216506 0.1
       vertex -0.173227 -0.23097 0.1
    endloop
  endfacet
  facet normal 0.442302 -0.896866 0
    outer loop
       vertex -0.173227 -0.23097 0.1
       vertex -0.173227 -0.23097 0
       vertex -0.143898 -0.216506 0
    endloop
  endfacet
  facet normal 0.321425 -0.946935 0
    outer loop
       vertex -0.173227 -0.23097 0
       vertex -0.173227 -0.23097 0.1
       vertex -0.204193 -0.241481 0.1
    endloop
  endfacet
  facet normal 0.321425 -0.946935 0
    outer loop
       vertex -0.204193 -0.241481 0.1
       vertex -0.204193 -0.241481 0
       vertex -0.173227 -0.23097 0
    endloop
  endfacet
  facet normal 0.195096 -0.980784 0
    outer loop
       vertex -0.204193 -0.241481 0
       vertex -0.204193 -0.241481 0.1
       vertex -0.236266 -0.247861 0.1
    endloop
  endfacet
  facet normal 0.195096 -0.980784 0
    outer loop
       vertex -0.236266 -0.247861 0.1
       vertex -0.236266 -0.247861 0
       vertex -0.204193 -0.241481 0
    endloop
  endfacet
  facet normal 0.0654098 -0.997858 0
    outer loop
       vertex -0.268898 -0.25 0
       vertex -0.236266 -0.247861 0
       vertex -0.236266 -0.247861 0.1
    endloop
  endfacet
  facet normal 0.0654098 -0.997858 1.45239e-16
    outer loop
       vertex -0.236266 -0.247861 0.1
       vertex -0.268898 -0.25 0.1
       vertex -0.268898 -0.25 0
    endloop
  endfacet
  facet normal -0.0654098 -0.997858 0
    outer loop
       vertex -0.268898 -0.25 0.1
       vertex -0.301529 -0.247861 0.1
       vertex -0.301529 -0.247861 0
    endloop
  endfacet
  facet normal -0.0654098 -0.997858 -1.45239e-16
    outer loop
       vertex -0.301529 -0.247861 0
       vertex -0.268898 -0.25 0
       vertex -0.268898 -0.25 0.1
    endloop
  endfacet
  facet normal -0.195096 -0.980784 0
    outer loop
       vertex -0.301529 -0.247861 0
       vertex -0.301529 -0.247861 0.1
       vertex -0.333603 -0.241481 0.1
    endloop
  endfacet
  facet normal -0.195096 -0.980784 -0
    outer loop
       vertex -0.333603 -0.241481 0.1
       vertex -0.333603 -0.241481 0
       vertex -0.301529 -0.247861 0
    endloop
  endfacet
  facet normal -0.321425 -0.946935 0
    outer loop
       vertex -0.333603 -0.241481 0
       vertex -0.333603 -0.241481 0.1
       vertex -0.364569 -0.23097 0.1
    endloop
  endfacet
  facet normal -0.321425 -0.946935 -0
    outer loop
       vertex -0.364569 -0.23097 0.1
       vertex -0.364569 -0.23097 0
       vertex -0.333603 -0.241481 0
    endloop
  endfacet
  facet normal -0.442302 -0.896866 0
    outer loop
       vertex -0.364569 -0.23097 0
       vertex -0.364569 -0.23097 0.1
       vertex -0.393898 -0.216506 0.1
    endloop
  endfacet
  facet normal -0.442302 -0.896866 -0
    outer loop
       vertex -0.393898 -0.216506 0.1
       vertex -0.393898 -0.216506 0
       vertex -0.364569 -0.23097 0
    endloop
  endfacet
  facet normal -0.555561 -0.831476 0
    outer loop
       vertex -0.393898 -0.216506 0
       vertex -0.393898 -0.216506 0.1
       vertex -0.421089 -0.198338 0.1
    endloop
  endfacet
  facet normal -0.555561 -0.831476 -0
    outer loop
       vertex -0.421089 -0.198338 0.1
       vertex -0.421089 -0.198338 0
       vertex -0.393898 -0.216506 0
    endloop
  endfacet
  facet normal -0.659372 -0.751817 0
    outer loop
       vertex -0.421089 -0.198338 0
       vertex -0.421089 -0.198338 0.1
       vertex -0.445674 -0.176776 0.1
    endloop
  endfacet
  facet normal -0.659372 -0.751817 -0
    outer loop
       vertex -0.445674 -0.176776 0.1
       vertex -0.445674 -0.176776 0
       vertex -0.421089 -0.198338 0
    endloop
  endfacet
endsolid cylinder
