solid cylinder
  facet normal 0.751817 -0.659372 0
    outer loop
       vertex 0.00973451 -0.176776 0
       vertex 0.0312965 -0.152191 0
       vertex 0.0312965 -0.152191 0.1
    endloop
  endfacet
  facet normal 0.751817 -0.659372 0
    outer loop
       vertex 0.0312965 -0.152191 0.1
       vertex 0.00973451 -0.176776 0.1
       vertex 0.00973451 -0.176776 0
    endloop
  endfacet
  facet normal 0.831476 -0.555561 0
    outer loop
       vertex 0.0312965 -0.152191 0
       vertex 0.0494645 -0.125 0
       vertex 0.0494645 -0.125 0.1
    endloop
  endfacet
  facet normal 0.831476 -0.555561 0
    outer loop
       vertex 0.0494645 -0.125 0.1
       vertex 0.0312965 -0.152191 0.1
       vertex 0.0312965 -0.152191 0
    endloop
  endfacet
  facet normal 0.896866 -0.442302 0
    outer loop
       vertex 0.0494645 -0.125 0
       vertex 0.0639285 -0.095671 0
       vertex 0.0639285 -0.095671 0.1
    endloop
  endfacet
  facet normal 0.896866 -0.442302 0
    outer loop
       vertex 0.0639285 -0.095671 0.1
       vertex 0.0494645 -0.125 0.1
       vertex 0.0494645 -0.125 0
    endloop
  endfacet
  facet normal 0.946935 -0.321425 0
    outer loop
       vertex 0.0639285 -0.095671 0
       vertex 0.0744395 -0.064705 0
       vertex 0.0744395 -0.064705 0.1
    endloop
  endfacet
  facet normal 0.946935 -0.321425 0
    outer loop
       vertex 0.0744395 -0.064705 0.1
       vertex 0.0639285 -0.095671 0.1
       vertex 0.0639285 -0.095671 0
    endloop
  endfacet
  facet normal 0.980784 -0.195096 0
    outer loop
       vertex 0.0744395 -0.064705 0
       vertex 0.0808195 -0.0326315 0
       vertex 0.0808195 -0.0326315 0.1
    endloop
  endfacet
  facet normal 0.980784 -0.195096 0
    outer loop
       vertex 0.0808195 -0.0326315 0.1
       vertex 0.0744395 -0.064705 0.1
       vertex 0.0744395 -0.064705 0
    endloop
  endfacet
  facet normal 0.997858 -0.0654098 0
    outer loop
       vertex 0.0829585 -8.32665e-17 0.1
       vertex 0.0808195 -0.0326315 0.1
       vertex 0.0808195 -0.0326315 0
    endloop
  endfacet
  facet normal 0.997858 -0.0654098 -1.08928e-16
    outer loop
       vertex 0.0808195 -0.0326315 0
       vertex 0.0829585 8.32665e-17 0
       vertex 0.0829585 -8.32665e-17 0.1
    endloop
  endfacet
  facet normal 0.997858 0.0654098 0
    outer loop
       vertex 0.0829585 8.32665e-17 0
       vertex 0.0808195 0.0326315 0
       vertex 0.0808195 0.0326315 0.1
    endloop
  endfacet
  facet normal 0.997858 0.0654098 1.08928e-16
    outer loop
       vertex 0.0808195 0.0326315 0.1
       vertex 0.0829585 -8.32665e-17 0.1
       vertex 0.0829585 8.32665e-17 0
    endloop
  endfacet
  facet normal 0.980784 0.195096 0
    outer loop
       vertex 0.0808195 0.0326315 0
       vertex 0.0744395 0.064705 0
       vertex 0.0744395 0.064705 0.1
    endloop
  endfacet
  facet normal 0.980784 0.195096 0
    outer loop
       vertex 0.0744395 0.064705 0.1
       vertex 0.0808195 0.0326315 0.1
       vertex 0.0808195 0.0326315 0
    endloop
  endfacet
  facet normal 0.946935 0.321425 0
    outer loop
       vertex 0.0744395 0.064705 0
       vertex 0.0639285 0.095671 0
       vertex 0.0639285 0.095671 0.1
    endloop
  endfacet
  facet normal 0.946935 0.321425 0
    outer loop
       vertex 0.0639285 0.095671 0.1
       vertex 0.0744395 0.064705 0.1
       vertex 0.0744395 0.064705 0
    endloop
  endfacet
  facet normal 0.896866 0.442302 0
    outer loop
       vertex 0.0639285 0.095671 0
       vertex 0.0494645 0.125 0
       vertex 0.0494645 0.125 0.1
    endloop
  endfacet
  facet normal 0.896866 0.442302 0
    outer loop
       vertex 0.0494645 0.125 0.1
       vertex 0.0639285 0.095671 0.1
       vertex 0.0639285 0.095671 0
    endloop
  endfacet
  facet normal 0.831476 0.555561 0
    outer loop
       vertex 0.0494645 0.125 0
       vertex 0.0312965 0.152191 0
       vertex 0.0312965 0.152191 0.1
    endloop
  endfacet
  facet normal 0.831476 0.555561 0
    outer loop
       vertex 0.0312965 0.152191 0.1
       vertex 0.0494645 0.125 0.1
       vertex 0.0494645 0.125 0
    endloop
  endfacet
  facet normal 0.751817 0.659372 0
    outer loop
       vertex 0.0312965 0.152191 0
       vertex 0.00973451 0.176776 0
       vertex 0.00973451 0.176776 0.1
    endloop
  endfacet
  facet normal 0.751817 0.659372 0
    outer loop
       vertex 0.00973451 0.176776 0.1
       vertex 0.0312965 0.152191 0.1
       vertex 0.0312965 0.152191 0
    endloop
  endfacet
  facet normal 0.659372 0.751817 0
    outer loop
       vertex 0.00973451 0.176776 0
       vertex -0.0148505 0.198338 0
       vertex -0.0148505 0.198338 0.1
    endloop
  endfacet
  facet normal 0.659372 0.751817 0
    outer loop
       vertex -0.0148505 0.198338 0.1
       vertex 0.00973451 0.176776 0.1
       vertex 0.00973451 0.176776 0
    endloop
  endfacet
  facet normal 0.555561 0.831476 0
    outer loop
       vertex -0.0148505 0.198338 0
       vertex -0.0420415 0.216506 0
       vertex -0.0420415 0.216506 0.1
    endloop
  endfacet
  facet normal 0.555561 0.831476 0
    outer loop
       vertex -0.0420415 0.216506 0.1
       vertex -0.0148505 0.198338 0.1
       vertex -0.0148505 0.198338 0
    endloop
  endfacet
  facet normal 0.442302 0.896866 0
    outer loop
       vertex -0.0420415 0.216506 0
       vertex -0.0713705 0.23097 0
       vertex -0.0713705 0.23097 0.1
    endloop
  endfacet
  facet normal 0.442302 0.896866 0
    outer loop
       vertex -0.0713705 0.23097 0.1
       vertex -0.0420415 0.216506 0.1
       vertex -0.0420415 0.216506 0
    endloop
  endfacet
  facet normal 0.321425 0.946935 0
    outer loop
       vertex -0.0713705 0.23097 0
       vertex -0.102336 0.241481 0
       vertex -0.102336 0.241481 0.1
    endloop
  endfacet
  facet normal 0.321425 0.946935 0
    outer loop
       vertex -0.102336 0.241481 0.1
       vertex -0.0713705 0.23097 0.1
       vertex -0.0713705 0.23097 0
    endloop
  endfacet
  facet normal 0.195096 0.980784 0
    outer loop
       vertex -0.102336 0.241481 0
       vertex -0.13441 0.247861 0
       vertex -0.13441 0.247861 0.1
    endloop
  endfacet
  facet normal 0.195096 0.980784 0
    outer loop
       vertex -0.13441 0.247861 0.1
       vertex -0.102336 0.241481 0.1
       vertex -0.102336 0.241481 0
    endloop
  endfacet
  facet normal 0.0654098 0.997858 0
    outer loop
       vertex -0.167041 0.25 0.1
       vertex -0.13441 0.247861 0.1
       vertex -0.13441 0.247861 0
    endloop
  endfacet
  facet normal 0.0654098 0.997858 -1.0893e-16
    outer loop
       vertex -0.13441 0.247861 0
       vertex -0.167041 0.25 0
       vertex -0.167041 0.25 0.1
    endloop
  endfacet
  facet normal -0.0654098 0.997858 0
    outer loop
       vertex -0.167041 0.25 0
       vertex -0.199673 0.247861 0
       vertex -0.199673 0.247861 0.1
    endloop
  endfacet
  facet normal -0.0654098 0.997858 1.0893e-16
    outer loop
       vertex -0.199673 0.247861 0.1
       vertex -0.167041 0.25 0.1
       vertex -0.167041 0.25 0
    endloop
  endfacet
  facet normal -0.195096 0.980784 0
    outer loop
       vertex -0.199673 0.247861 0
       vertex -0.231746 0.241481 0
       vertex -0.231746 0.241481 0.1
    endloop
  endfacet
  facet normal -0.195096 0.980784 0
    outer loop
       vertex -0.231746 0.241481 0.1
       vertex -0.199673 0.247861 0.1
       vertex -0.199673 0.247861 0
    endloop
  endfacet
  facet normal -0.321425 0.946935 0
    outer loop
       vertex -0.231746 0.241481 0
       vertex -0.262712 0.23097 0
       vertex -0.262712 0.23097 0.1
    endloop
  endfacet
  facet normal -0.321425 0.946935 0
    outer loop
       vertex -0.262712 0.23097 0.1
       vertex -0.231746 0.241481 0.1
       vertex -0.231746 0.241481 0
    endloop
  endfacet
  facet normal -0.442302 0.896866 0
    outer loop
       vertex -0.262712 0.23097 0
       vertex -0.292041 0.216506 0
       vertex -0.292041 0.216506 0.1
    endloop
  endfacet
  facet normal -0.442302 0.896866 0
    outer loop
       vertex -0.292041 0.216506 0.1
       vertex -0.262712 0.23097 0.1
       vertex -0.262712 0.23097 0
    endloop
  endfacet
  facet normal -0.555561 0.831476 0
    outer loop
       vertex -0.292041 0.216506 0
       vertex -0.319232 0.198338 0
       vertex -0.319232 0.198338 0.1
    endloop
  endfacet
  facet normal -0.555561 0.831476 0
    outer loop
       vertex -0.319232 0.198338 0.1
       vertex -0.292041 0.216506 0.1
       vertex -0.292041 0.216506 0
    endloop
  endfacet
  facet normal -0.659372 0.751817 0
    outer loop
       vertex -0.319232 0.198338 0
       vertex -0.343817 0.176776 0
       vertex -0.343817 0.176776 0.1
    endloop
  endfacet
  facet normal -0.659372 0.751817 0
    outer loop
       vertex -0.343817 0.176776 0.1
       vertex -0.319232 0.198338 0.1
       vertex -0.319232 0.198338 0
    endloop
  endfacet
  facet normal -0.751817 0.659372 0
    outer loop
       vertex -0.343817 0.176776 0
       vertex -0.365379 0.152191 0
       vertex -0.365379 0.152191 0.1
    endloop
  endfacet
  facet normal -0.751817 0.659372 0
    outer loop
       vertex -0.365379 0.152191 0.1
       vertex -0.343817 0.176776 0.1
       vertex -0.343817 0.176776 0
    endloop
  endfacet
  facet normal -0.831476 0.555561 0
    outer loop
       vertex -0.365379 0.152191 0
       vertex -0.383547 0.125 0
       vertex -0.383547 0.125 0.1
    endloop
  endfacet
  facet normal -0.831476 0.555561 0
    outer loop
       vertex -0.383547 0.125 0.1
       vertex -0.365379 0.152191 0.1
       vertex -0.365379 0.152191 0
    endloop
  endfacet
  facet normal -0.896866 0.442302 0
    outer loop
       vertex -0.383547 0.125 0
       vertex -0.398011 0.095671 0
       vertex -0.398011 0.095671 0.1
    endloop
  endfacet
  facet normal -0.896866 0.442302 0
    outer loop
       vertex -0.398011 0.095671 0.1
       vertex -0.383547 0.125 0.1
       vertex -0.383547 0.125 0
    endloop
  endfacet
  facet normal -0.946935 0.321425 0
    outer loop
       vertex -0.398011 0.095671 0
       vertex -0.408522 0.064705 0
       vertex -0.408522 0.064705 0.1
    endloop
  endfacet
  facet normal -0.946935 0.321425 0
    outer loop
       vertex -0.408522 0.064705 0.1
       vertex -0.398011 0.095671 0.1
       vertex -0.398011 0.095671 0
    endloop
  endfacet
  facet normal -0.980784 0.195096 0
    outer loop
       vertex -0.408522 0.064705 0
       vertex -0.414902 0.0326315 0
       vertex -0.414902 0.0326315 0.1
    endloop
  endfacet
  facet normal -0.980784 0.195096 0
    outer loop
       vertex -0.414902 0.0326315 0.1
       vertex -0.408522 0.064705 0.1
       vertex -0.408522 0.064705 0
    endloop
  endfacet
  facet normal -0.997858 0.0654098 0
    outer loop
       vertex -0.417041 8.32665e-17 0.1
       vertex -0.414902 0.0326315 0.1
       vertex -0.414902 0.0326315 0
    endloop
  endfacet
  facet normal -0.997858 0.0654098 -1.08928e-16
    outer loop
       vertex -0.414902 0.0326315 0
       vertex -0.417041 -8.32665e-17 0
       vertex -0.417041 8.32665e-17 0.1
    endloop
  endfacet
  facet normal -0.997858 -0.0654098 0
    outer loop
       vertex -0.417041 -8.32665e-17 0
       vertex -0.414902 -0.0326315 0
       vertex -0.414902 -0.0326315 0.1
    endloop
  endfacet
  facet normal -0.997858 -0.0654098 1.08928e-16
    outer loop
       vertex -0.414902 -0.0326315 0.1
       vertex -0.417041 8.32665e-17 0.1
       vertex -0.417041 -8.32665e-17 0
    endloop
  endfacet
  facet normal -0.980784 -0.195096 0
    outer loop
       vertex -0.414902 -0.0326315 0
       vertex -0.408522 -0.064705 0
       vertex -0.408522 -0.064705 0.1
    endloop
  endfacet
  facet normal -0.980784 -0.195096 0
    outer loop
       vertex -0.408522 -0.064705 0.1
       vertex -0.414902 -0.0326315 0.1
       vertex -0.414902 -0.0326315 0
    endloop
  endfacet
  facet normal -0.946935 -0.321425 0
    outer loop
       vertex -0.408522 -0.064705 0
       vertex -0.398011 -0.095671 0
       vertex -0.398011 -0.095671 0.1
    endloop
  endfacet
  facet normal -0.946935 -0.321425 0
    outer loop
       vertex -0.398011 -0.095671 0.1
       vertex -0.408522 -0.064705 0.1
       vertex -0.408522 -0.064705 0
    endloop
  endfacet
  facet normal -0.896866 -0.442302 0
    outer loop
       vertex -0.398011 -0.095671 0
       vertex -0.383547 -0.125 0
       vertex -0.383547 -0.125 0.1
    endloop
  endfacet
  facet normal -0.896866 -0.442302 0
    outer loop
       vertex -0.383547 -0.125 0.1
       vertex -0.398011 -0.095671 0.1
       vertex -0.398011 -0.095671 0
    endloop
  endfacet
  facet normal -0.831476 -0.555561 0
    outer loop
       vertex -0.383547 -0.125 0
       vertex -0.365379 -0.152191 0
       vertex -0.365379 -0.152191 0.1
    endloop
  endfacet
  facet normal -0.831476 -0.555561 0
    outer loop
       vertex -0.365379 -0.152191 0.1
       vertex -0.383547 -0.125 0.1
       vertex -0.383547 -0.125 0
    endloop
  endfacet
  facet normal -0.751817 -0.659372 0
    outer loop
       vertex -0.365379 -0.152191 0
       vertex -0.343817 -0.176776 0
       vertex -0.343817 -0.176776 0.1
    endloop
  endfacet
  facet normal -0.751817 -0.659372 0
    outer loop
       vertex -0.343817 -0.176776 0.1
       vertex -0.365379 -0.152191 0.1
       vertex -0.365379 -0.152191 0
    endloop
  endfacet
  facet normal 0.659372 -0.751817 0
    outer loop
       vertex 0.00973451 -0.176776 0
       vertex 0.00973451 -0.176776 0.1
       vertex -0.0148505 -0.198338 0.1
    endloop
  endfacet
  facet normal 0.659372 -0.751817 0
    outer loop
       vertex -0.0148505 -0.198338 0.1
       vertex -0.0148505 -0.198338 0
       vertex 0.00973451 -0.176776 0
    endloop
  endfacet
  facet normal 0.555561 -0.831476 0
    outer loop
       vertex -0.0148505 -0.198338 0
       vertex -0.0148505 -0.198338 0.1
       vertex -0.0420415 -0.216506 0.1
    endloop
  endfacet
  facet normal 0.555561 -0.831476 0
    outer loop
       vertex -0.0420415 -0.216506 0.1
       vertex -0.0420415 -0.216506 0
       vertex -0.0148505 -0.198338 0
    endloop
  endfacet
  facet normal 0.442302 -0.896866 0
    outer loop
       vertex -0.0420415 -0.216506 0
       vertex -0.0420415 -0.216506 0.1
       vertex -0.0713705 -0.23097 0.1
    endloop
  endfacet
  facet normal 0.442302 -0.896866 0
    outer loop
       vertex -0.0713705 -0.23097 0.1
       vertex -0.0713705 -0.23097 0
       vertex -0.0420415 -0.216506 0
    endloop
  endfacet
  facet normal 0.321425 -0.946935 0
    outer loop
       vertex -0.0713705 -0.23097 0
       vertex -0.0713705 -0.23097 0.1
       vertex -0.102336 -0.241481 0.1
    endloop
  endfacet
  facet normal 0.321425 -0.946935 0
    outer loop
       vertex -0.102336 -0.241481 0.1
       vertex -0.102336 -0.241481 0
       vertex -0.0713705 -0.23097 0
    endloop
  endfacet
  facet normal 0.195096 -0.980784 0
    outer loop
       vertex -0.102336 -0.241481 0
       vertex -0.102336 -0.241481 0.1
       vertex -0.13441 -0.247861 0.1
    endloop
  endfacet
  facet normal 0.195096 -0.980784 0
    outer loop
       vertex -0.13441 -0.247861 0.1
       vertex -0.13441 -0.247861 0
       vertex -0.102336 -0.241481 0
    endloop
  endfacet
  facet normal 0.0654098 -0.997858 0
    outer loop
       vertex -0.167041 -0.25 0
       vertex -0.13441 -0.247861 0
       vertex -0.13441 -0.247861 0.1
    endloop
  endfacet
  facet normal 0.0654098 -0.997858 1.0893e-16
    outer loop
       vertex -0.13441 -0.247861 0.1
       vertex -0.167041 -0.25 0.1
       vertex -0.167041 -0.25 0
    endloop
  endfacet
  facet normal -0.0654098 -0.997858 0
    outer loop
       vertex -0.167041 -0.25 0.1
       vertex -0.199673 -0.247861 0.1
       vertex -0.199673 -0.247861 0
    endloop
  endfacet
  facet normal -0.0654098 -0.997858 -1.0893e-16
    outer loop
       vertex -0.199673 -0.247861 0
       vertex -0.167041 -0.25 0
       vertex -0.167041 -0.25 0.1
    endloop
  endfacet
  facet normal -0.195096 -0.980784 0
    outer loop
       vertex -0.199673 -0.247861 0
       vertex -0.199673 -0.247861 0.1
       vertex -0.231746 -0.241481 0.1
    endloop
  endfacet
  facet normal -0.195096 -0.980784 -0
    outer loop
       vertex -0.231746 -0.241481 0.1
       vertex -0.231746 -0.241481 0
       vertex -0.199673 -0.247861 0
    endloop
  endfacet
  facet normal -0.321425 -0.946935 0
    outer loop
       vertex -0.231746 -0.241481 0
       vertex -0.231746 -0.241481 0.1
       vertex -0.262712 -0.23097 0.1
    endloop
  endfacet
  facet normal -0.321425 -0.946935 -0
    outer loop
       vertex -0.262712 -0.23097 0.1
       vertex -0.262712 -0.23097 0
       vertex -0.231746 -0.241481 0
    endloop
  endfacet
  facet normal -0.442302 -0.896866 0
    outer loop
       vertex -0.262712 -0.23097 0
       vertex -0.262712 -0.23097 0.1
       vertex -0.292041 -0.216506 0.1
    endloop
  endfacet
  facet normal -0.442302 -0.896866 -0
    outer loop
       vertex -0.292041 -0.216506 0.1
       vertex -0.292041 -0.216506 0
       vertex -0.262712 -0.23097 0
    endloop
  endfacet
  facet normal -0.555561 -0.831476 0
    outer loop
       vertex -0.292041 -0.216506 0
       vertex -0.292041 -0.216506 0.1
       vertex -0.319232 -0.198338 0.1
    endloop
  endfacet
  facet normal -0.555561 -0.831476 -0
    outer loop
       vertex -0.319232 -0.198338 0.1
       vertex -0.319232 -0.198338 0
       vertex -0.292041 -0.216506 0
    endloop
  endfacet
  facet normal -0.659372 -0.751817 0
    outer loop
       vertex -0.319232 -0.198338 0
       vertex -0.319232 -0.198338 0.1
       vertex -0.343817 -0.176776 0.1
    endloop
  endfacet
  facet normal -0.659372 -0.751817 -0
    outer loop
       vertex -0.343817 -0.176776 0.1
       vertex -0.343817 -0.176776 0
       vertex -0.319232 -0.198338 0
    endloop
  endfacet
endsolid cylinder
