solid cylinder
  facet normal 0.751817 -0.659372 0
    outer loop
       vertex 0.185916 -0.176776 0
       vertex 0.207478 -0.152191 0
       vertex 0.207478 -0.152191 0.1
    endloop
  endfacet
  facet normal 0.751817 -0.659372 0
    outer loop
       vertex 0.207478 -0.152191 0.1
       vertex 0.185916 -0.176776 0.1
       vertex 0.185916 -0.176776 0
    endloop
  endfacet
  facet normal 0.831476 -0.555561 0
    outer loop
       vertex 0.207478 -0.152191 0
       vertex 0.225646 -0.125 0
       vertex 0.225646 -0.125 0.1
    endloop
  endfacet
  facet normal 0.831476 -0.555561 0
    outer loop
       vertex 0.225646 -0.125 0.1
       vertex 0.207478 -0.152191 0.1
       vertex 0.207478 -0.152191 0
    endloop
  endfacet
  facet normal 0.896866 -0.442302 0
    outer loop
       vertex 0.225646 -0.125 0
       vertex 0.24011 -0.095671 0
       vertex 0.24011 -0.095671 0.1
    endloop
  endfacet
  facet normal 0.896866 -0.442302 0
    outer loop
       vertex 0.24011 -0.095671 0.1
       vertex 0.225646 -0.125 0.1
       vertex 0.225646 -0.125 0
    endloop
  endfacet
  facet normal 0.946935 -0.321425 0
    outer loop
       vertex 0.24011 -0.095671 0
       vertex 0.250621 -0.064705 0
       vertex 0.250621 -0.064705 0.1
    endloop
  endfacet
  facet normal 0.946935 -0.321425 0
    outer loop
       vertex 0.250621 -0.064705 0.1
       vertex 0.24011 -0.095671 0.1
       vertex 0.24011 -0.095671 0
    endloop
  endfacet
  facet normal 0.980784 -0.195096 0
    outer loop
       vertex 0.250621 -0.064705 0
       vertex 0.257001 -0.0326315 0
       vertex 0.257001 -0.0326315 0.1
    endloop
  endfacet
  facet normal 0.980784 -0.195096 0
    outer loop
       vertex 0.257001 -0.0326315 0.1
       vertex 0.250621 -0.064705 0.1
       vertex 0.250621 -0.064705 0
    endloop
  endfacet
  facet normal 0.997858 -0.0654098 0
    outer loop
       vertex 0.25914 -8.32665e-17 0.1
       vertex 0.257001 -0.0326315 0.1
       vertex 0.257001 -0.0326315 0
    endloop
  endfacet
  facet normal 0.997858 -0.0654098 -1.08928e-16
    outer loop
       vertex 0.257001 -0.0326315 0
       vertex 0.25914 8.32665e-17 0
       vertex 0.25914 -8.32665e-17 0.1
    endloop
  endfacet
  facet normal 0.997858 0.0654098 0
    outer loop
       vertex 0.25914 8.32665e-17 0
       vertex 0.257001 0.0326315 0
       vertex 0.257001 0.0326315 0.1
    endloop
  endfacet
  facet normal 0.997858 0.0654098 1.08928e-16
    outer loop
       vertex 0.257001 0.0326315 0.1
       vertex 0.25914 -8.32665e-17 0.1
       vertex 0.25914 8.32665e-17 0
    endloop
  endfacet
  facet normal 0.980784 0.195096 0
    outer loop
       vertex 0.257001 0.0326315 0
       vertex 0.250621 0.064705 0
       vertex 0.250621 0.064705 0.1
    endloop
  endfacet
  facet normal 0.980784 0.195096 0
    outer loop
       vertex 0.250621 0.064705 0.1
       vertex 0.257001 0.0326315 0.1
       vertex 0.257001 0.0326315 0
    endloop
  endfacet
  facet normal 0.946935 0.321425 0
    outer loop
       vertex 0.250621 0.064705 0
       vertex 0.24011 0.095671 0
       vertex 0.24011 0.095671 0.1
    endloop
  endfacet
  facet normal 0.946935 0.321425 0
    outer loop
       vertex 0.24011 0.095671 0.1
       vertex 0.250621 0.064705 0.1
       vertex 0.250621 0.064705 0
    endloop
  endfacet
  facet normal 0.896866 0.442302 0
    outer loop
       vertex 0.24011 0.095671 0
       vertex 0.225646 0.125 0
       vertex 0.225646 0.125 0.1
    endloop
  endfacet
  facet normal 0.896866 0.442302 0
    outer loop
       vertex 0.225646 0.125 0.1
       vertex 0.24011 0.095671 0.1
       vertex 0.24011 0.095671 0
    endloop
  endfacet
  facet normal 0.831476 0.555561 0
    outer loop
       vertex 0.225646 0.125 0
       vertex 0.207478 0.152191 0
       vertex 0.207478 0.152191 0.1
    endloop
  endfacet
  facet normal 0.831476 0.555561 0
    outer loop
       vertex 0.207478 0.152191 0.1
       vertex 0.225646 0.125 0.1
       vertex 0.225646 0.125 0
    endloop
  endfacet
  facet normal 0.751817 0.659372 0
    outer loop
       vertex 0.207478 0.152191 0
       vertex 0.185916 0.176776 0
       vertex 0.185916 0.176776 0.1
    endloop
  endfacet
  facet normal 0.751817 0.659372 0
    outer loop
       vertex 0.185916 0.176776 0.1
       vertex 0.207478 0.152191 0.1
       vertex 0.207478 0.152191 0
    endloop
  endfacet
  facet normal 0.659372 0.751817 0
    outer loop
       vertex 0.185916 0.176776 0
       vertex 0.161331 0.198338 0
       vertex 0.161331 0.198338 0.1
    endloop
  endfacet
  facet normal 0.659372 0.751817 0
    outer loop
       vertex 0.161331 0.198338 0.1
       vertex 0.185916 0.176776 0.1
       vertex 0.185916 0.176776 0
    endloop
  endfacet
  facet normal 0.555561 0.831476 0
    outer loop
       vertex 0.161331 0.198338 0
       vertex 0.13414 0.216506 0
       vertex 0.13414 0.216506 0.1
    endloop
  endfacet
  facet normal 0.555561 0.831476 0
    outer loop
       vertex 0.13414 0.216506 0.1
       vertex 0.161331 0.198338 0.1
       vertex 0.161331 0.198338 0
    endloop
  endfacet
  facet normal 0.442302 0.896866 0
    outer loop
       vertex 0.13414 0.216506 0
       vertex 0.104811 0.23097 0
       vertex 0.104811 0.23097 0.1
    endloop
  endfacet
  facet normal 0.442302 0.896866 0
    outer loop
       vertex 0.104811 0.23097 0.1
       vertex 0.13414 0.216506 0.1
       vertex 0.13414 0.216506 0
    endloop
  endfacet
  facet normal 0.321425 0.946935 0
    outer loop
       vertex 0.104811 0.23097 0
       vertex 0.0738449 0.241481 0
       vertex 0.0738449 0.241481 0.1
    endloop
  endfacet
  facet normal 0.321425 0.946935 0
    outer loop
       vertex 0.0738449 0.241481 0.1
       vertex 0.104811 0.23097 0.1
       vertex 0.104811 0.23097 0
    endloop
  endfacet
  facet normal 0.195096 0.980784 0
    outer loop
       vertex 0.0738449 0.241481 0
       vertex 0.0417714 0.247861 0
       vertex 0.0417714 0.247861 0.1
    endloop
  endfacet
  facet normal 0.195096 0.980784 0
    outer loop
       vertex 0.0417714 0.247861 0.1
       vertex 0.0738449 0.241481 0.1
       vertex 0.0738449 0.241481 0
    endloop
  endfacet
  facet normal 0.0654098 0.997858 0
    outer loop
       vertex 0.00913991 0.25 0.1
       vertex 0.0417714 0.247861 0.1
       vertex 0.0417714 0.247861 0
    endloop
  endfacet
  facet normal 0.0654098 0.997858 -1.0893e-16
    outer loop
       vertex 0.0417714 0.247861 0
       vertex 0.00913991 0.25 0
       vertex 0.00913991 0.25 0.1
    endloop
  endfacet
  facet normal -0.0654098 0.997858 0
    outer loop
       vertex 0.00913991 0.25 0
       vertex -0.0234916 0.247861 0
       vertex -0.0234916 0.247861 0.1
    endloop
  endfacet
  facet normal -0.0654098 0.997858 1.0893e-16
    outer loop
       vertex -0.0234916 0.247861 0.1
       vertex 0.00913991 0.25 0.1
       vertex 0.00913991 0.25 0
    endloop
  endfacet
  facet normal -0.195096 0.980784 0
    outer loop
       vertex -0.0234916 0.247861 0
       vertex -0.0555651 0.241481 0
       vertex -0.0555651 0.241481 0.1
    endloop
  endfacet
  facet normal -0.195096 0.980784 0
    outer loop
       vertex -0.0555651 0.241481 0.1
       vertex -0.0234916 0.247861 0.1
       vertex -0.0234916 0.247861 0
    endloop
  endfacet
  facet normal -0.321425 0.946935 0
    outer loop
       vertex -0.0555651 0.241481 0
       vertex -0.0865311 0.23097 0
       vertex -0.0865311 0.23097 0.1
    endloop
  endfacet
  facet normal -0.321425 0.946935 0
    outer loop
       vertex -0.0865311 0.23097 0.1
       vertex -0.0555651 0.241481 0.1
       vertex -0.0555651 0.241481 0
    endloop
  endfacet
  facet normal -0.442302 0.896866 0
    outer loop
       vertex -0.0865311 0.23097 0
       vertex -0.11586 0.216506 0
       vertex -0.11586 0.216506 0.1
    endloop
  endfacet
  facet normal -0.442302 0.896866 0
    outer loop
       vertex -0.11586 0.216506 0.1
       vertex -0.0865311 0.23097 0.1
       vertex -0.0865311 0.23097 0
    endloop
  endfacet
  facet normal -0.555561 0.831476 0
    outer loop
       vertex -0.11586 0.216506 0
       vertex -0.143051 0.198338 0
       vertex -0.143051 0.198338 0.1
    endloop
  endfacet
  facet normal -0.555561 0.831476 0
    outer loop
       vertex -0.143051 0.198338 0.1
       vertex -0.11586 0.216506 0.1
       vertex -0.11586 0.216506 0
    endloop
  endfacet
  facet normal -0.659372 0.751817 0
    outer loop
       vertex -0.143051 0.198338 0
       vertex -0.167636 0.176776 0
       vertex -0.167636 0.176776 0.1
    endloop
  endfacet
  facet normal -0.659372 0.751817 0
    outer loop
       vertex -0.167636 0.176776 0.1
       vertex -0.143051 0.198338 0.1
       vertex -0.143051 0.198338 0
    endloop
  endfacet
  facet normal -0.751817 0.659372 0
    outer loop
       vertex -0.167636 0.176776 0
       vertex -0.189198 0.152191 0
       vertex -0.189198 0.152191 0.1
    endloop
  endfacet
  facet normal -0.751817 0.659372 0
    outer loop
       vertex -0.189198 0.152191 0.1
       vertex -0.167636 0.176776 0.1
       vertex -0.167636 0.176776 0
    endloop
  endfacet
  facet normal -0.831476 0.555561 0
    outer loop
       vertex -0.189198 0.152191 0
       vertex -0.207366 0.125 0
       vertex -0.207366 0.125 0.1
    endloop
  endfacet
  facet normal -0.831476 0.555561 0
    outer loop
       vertex -0.207366 0.125 0.1
       vertex -0.189198 0.152191 0.1
       vertex -0.189198 0.152191 0
    endloop
  endfacet
  facet normal -0.896866 0.442302 0
    outer loop
       vertex -0.207366 0.125 0
       vertex -0.22183 0.095671 0
       vertex -0.22183 0.095671 0.1
    endloop
  endfacet
  facet normal -0.896866 0.442302 0
    outer loop
       vertex -0.22183 0.095671 0.1
       vertex -0.207366 0.125 0.1
       vertex -0.207366 0.125 0
    endloop
  endfacet
  facet normal -0.946935 0.321425 0
    outer loop
       vertex -0.22183 0.095671 0
       vertex -0.232341 0.064705 0
       vertex -0.232341 0.064705 0.1
    endloop
  endfacet
  facet normal -0.946935 0.321425 0
    outer loop
       vertex -0.232341 0.064705 0.1
       vertex -0.22183 0.095671 0.1
       vertex -0.22183 0.095671 0
    endloop
  endfacet
  facet normal -0.980784 0.195096 0
    outer loop
       vertex -0.232341 0.064705 0
       vertex -0.238721 0.0326315 0
       vertex -0.238721 0.0326315 0.1
    endloop
  endfacet
  facet normal -0.980784 0.195096 0
    outer loop
       vertex -0.238721 0.0326315 0.1
       vertex -0.232341 0.064705 0.1
       vertex -0.232341 0.064705 0
    endloop
  endfacet
  facet normal -0.997858 0.0654098 0
    outer loop
       vertex -0.24086 8.32665e-17 0.1
       vertex -0.238721 0.0326315 0.1
       vertex -0.238721 0.0326315 0
    endloop
  endfacet
  facet normal -0.997858 0.0654098 -1.08928e-16
    outer loop
       vertex -0.238721 0.0326315 0
       vertex -0.24086 -8.32665e-17 0
       vertex -0.24086 8.32665e-17 0.1
    endloop
  endfacet
  facet normal -0.997858 -0.0654098 0
    outer loop
       vertex -0.24086 -8.32665e-17 0
       vertex -0.238721 -0.0326315 0
       vertex -0.238721 -0.0326315 0.1
    endloop
  endfacet
  facet normal -0.997858 -0.0654098 1.08928e-16
    outer loop
       vertex -0.238721 -0.0326315 0.1
       vertex -0.24086 8.32665e-17 0.1
       vertex -0.24086 -8.32665e-17 0
    endloop
  endfacet
  facet normal -0.980784 -0.195096 0
    outer loop
       vertex -0.238721 -0.0326315 0
       vertex -0.232341 -0.064705 0
       vertex -0.232341 -0.064705 0.1
    endloop
  endfacet
  facet normal -0.980784 -0.195096 0
    outer loop
       vertex -0.232341 -0.064705 0.1
       vertex -0.238721 -0.0326315 0.1
       vertex -0.238721 -0.0326315 0
    endloop
  endfacet
  facet normal -0.946935 -0.321425 0
    outer loop
       vertex -0.232341 -0.064705 0
       vertex -0.22183 -0.095671 0
       vertex -0.22183 -0.095671 0.1
    endloop
  endfacet
  facet normal -0.946935 -0.321425 0
    outer loop
       vertex -0.22183 -0.095671 0.1
       vertex -0.232341 -0.064705 0.1
       vertex -0.232341 -0.064705 0
    endloop
  endfacet
  facet normal -0.896866 -0.442302 0
    outer loop
       vertex -0.22183 -0.095671 0
       vertex -0.207366 -0.125 0
       vertex -0.207366 -0.125 0.1
    endloop
  endfacet
  facet normal -0.896866 -0.442302 0
    outer loop
       vertex -0.207366 -0.125 0.1
       vertex -0.22183 -0.095671 0.1
       vertex -0.22183 -0.095671 0
    endloop
  endfacet
  facet normal -0.831476 -0.555561 0
    outer loop
       vertex -0.207366 -0.125 0
       vertex -0.189198 -0.152191 0
       vertex -0.189198 -0.152191 0.1
    endloop
  endfacet
  facet normal -0.831476 -0.555561 0
    outer loop
       vertex -0.189198 -0.152191 0.1
       vertex -0.207366 -0.125 0.1
       vertex -0.207366 -0.125 0
    endloop
  endfacet
  facet normal -0.751817 -0.659372 0
    outer loop
       vertex -0.189198 -0.152191 0
       vertex -0.167636 -0.176776 0
       vertex -0.167636 -0.176776 0.1
    endloop
  endfacet
  facet normal -0.751817 -0.659372 0
    outer loop
       vertex -0.167636 -0.176776 0.1
       vertex -0.189198 -0.152191 0.1
       vertex -0.189198 -0.152191 0
    endloop
  endfacet
  facet normal 0.659372 -0.751817 0
    outer loop
       vertex 0.185916 -0.176776 0
       vertex 0.185916 -0.176776 0.1
       vertex 0.161331 -0.198338 0.1
    endloop
  endfacet
  facet normal 0.659372 -0.751817 0
    outer loop
       vertex 0.161331 -0.198338 0.1
       vertex 0.161331 -0.198338 0
       vertex 0.185916 -0.176776 0
    endloop
  endfacet
  facet normal 0.555561 -0.831476 0
    outer loop
       vertex 0.161331 -0.198338 0
       vertex 0.161331 -0.198338 0.1
       vertex 0.13414 -0.216506 0.1
    endloop
  endfacet
  facet normal 0.555561 -0.831476 0
    outer loop
       vertex 0.13414 -0.216506 0.1
       vertex 0.13414 -0.216506 0
       vertex 0.161331 -0.198338 0
    endloop
  endfacet
  facet normal 0.442302 -0.896866 0
    outer loop
       vertex 0.13414 -0.216506 0
       vertex 0.13414 -0.216506 0.1
       vertex 0.104811 -0.23097 0.1
    endloop
  endfacet
  facet normal 0.442302 -0.896866 0
    outer loop
       vertex 0.104811 -0.23097 0.1
       vertex 0.104811 -0.23097 0
       vertex 0.13414 -0.216506 0
    endloop
  endfacet
  facet normal 0.321425 -0.946935 0
    outer loop
       vertex 0.104811 -0.23097 0
       vertex 0.104811 -0.23097 0.1
       vertex 0.0738449 -0.241481 0.1
    endloop
  endfacet
  facet normal 0.321425 -0.946935 0
    outer loop
       vertex 0.0738449 -0.241481 0.1
       vertex 0.0738449 -0.241481 0
       vertex 0.104811 -0.23097 0
    endloop
  endfacet
  facet normal 0.195096 -0.980784 0
    outer loop
       vertex 0.0738449 -0.241481 0
       vertex 0.0738449 -0.241481 0.1
       vertex 0.0417714 -0.247861 0.1
    endloop
  endfacet
  facet normal 0.195096 -0.980784 0
    outer loop
       vertex 0.0417714 -0.247861 0.1
       vertex 0.0417714 -0.247861 0
       vertex 0.0738449 -0.241481 0
    endloop
  endfacet
  facet normal 0.0654098 -0.997858 0
    outer loop
       vertex 0.00913991 -0.25 0
       vertex 0.0417714 -0.247861 0
       vertex 0.0417714 -0.247861 0.1
    endloop
  endfacet
  facet normal 0.0654098 -0.997858 1.0893e-16
    outer loop
       vertex 0.0417714 -0.247861 0.1
       vertex 0.00913991 -0.25 0.1
       vertex 0.00913991 -0.25 0
    endloop
  endfacet
  facet normal -0.0654098 -0.997858 0
    outer loop
       vertex 0.00913991 -0.25 0.1
       vertex -0.0234916 -0.247861 0.1
       vertex -0.0234916 -0.247861 0
    endloop
  endfacet
  facet normal -0.0654098 -0.997858 -1.0893e-16
    outer loop
       vertex -0.0234916 -0.247861 0
       vertex 0.00913991 -0.25 0
       vertex 0.00913991 -0.25 0.1
    endloop
  endfacet
  facet normal -0.195096 -0.980784 0
    outer loop
       vertex -0.0234916 -0.247861 0
       vertex -0.0234916 -0.247861 0.1
       vertex -0.0555651 -0.241481 0.1
    endloop
  endfacet
  facet normal -0.195096 -0.980784 -0
    outer loop
       vertex -0.0555651 -0.241481 0.1
       vertex -0.0555651 -0.241481 0
       vertex -0.0234916 -0.247861 0
    endloop
  endfacet
  facet normal -0.321425 -0.946935 0
    outer loop
       vertex -0.0555651 -0.241481 0
       vertex -0.0555651 -0.241481 0.1
       vertex -0.0865311 -0.23097 0.1
    endloop
  endfacet
  facet normal -0.321425 -0.946935 -0
    outer loop
       vertex -0.0865311 -0.23097 0.1
       vertex -0.0865311 -0.23097 0
       vertex -0.0555651 -0.241481 0
    endloop
  endfacet
  facet normal -0.442302 -0.896866 0
    outer loop
       vertex -0.0865311 -0.23097 0
       vertex -0.0865311 -0.23097 0.1
       vertex -0.11586 -0.216506 0.1
    endloop
  endfacet
  facet normal -0.442302 -0.896866 -0
    outer loop
       vertex -0.11586 -0.216506 0.1
       vertex -0.11586 -0.216506 0
       vertex -0.0865311 -0.23097 0
    endloop
  endfacet
  facet normal -0.555561 -0.831476 0
    outer loop
       vertex -0.11586 -0.216506 0
       vertex -0.11586 -0.216506 0.1
       vertex -0.143051 -0.198338 0.1
    endloop
  endfacet
  facet normal -0.555561 -0.831476 -0
    outer loop
       vertex -0.143051 -0.198338 0.1
       vertex -0.143051 -0.198338 0
       vertex -0.11586 -0.216506 0
    endloop
  endfacet
  facet normal -0.659372 -0.751817 0
    outer loop
       vertex -0.143051 -0.198338 0
       vertex -0.143051 -0.198338 0.1
       vertex -0.167636 -0.176776 0.1
    endloop
  endfacet
  facet normal -0.659372 -0.751817 -0
    outer loop
       vertex -0.167636 -0.176776 0.1
       vertex -0.167636 -0.176776 0
       vertex -0.143051 -0.198338 0
    endloop
  endfacet
endsolid cylinder
