solid cylinder
  facet normal 0.751817 -0.659372 0
    outer loop
       vertex 0.211836 -0.176776 0
       vertex 0.233398 -0.152191 0
       vertex 0.233398 -0.152191 0.1
    endloop
  endfacet
  facet normal 0.751817 -0.659372 0
    outer loop
       vertex 0.233398 -0.152191 0.1
       vertex 0.211836 -0.176776 0.1
       vertex 0.211836 -0.176776 0
    endloop
  endfacet
  facet normal 0.831476 -0.555561 0
    outer loop
       vertex 0.233398 -0.152191 0
       vertex 0.251566 -0.125 0
       vertex 0.251566 -0.125 0.1
    endloop
  endfacet
  facet normal 0.831476 -0.555561 0
    outer loop
       vertex 0.251566 -0.125 0.1
       vertex 0.233398 -0.152191 0.1
       vertex 0.233398 -0.152191 0
    endloop
  endfacet
  facet normal 0.896866 -0.442302 0
    outer loop
       vertex 0.251566 -0.125 0
       vertex 0.26603 -0.095671 0
       vertex 0.26603 -0.095671 0.1
    endloop
  endfacet
  facet normal 0.896866 -0.442302 0
    outer loop
       vertex 0.26603 -0.095671 0.1
       vertex 0.251566 -0.125 0.1
       vertex 0.251566 -0.125 0
    endloop
  endfacet
  facet normal 0.946935 -0.321425 0
    outer loop
       vertex 0.26603 -0.095671 0
       vertex 0.276541 -0.064705 0
       vertex 0.276541 -0.064705 0.1
    endloop
  endfacet
  facet normal 0.946935 -0.321425 0
    outer loop
       vertex 0.276541 -0.064705 0.1
       vertex 0.26603 -0.095671 0.1
       vertex 0.26603 -0.095671 0
    endloop
  endfacet
  facet normal 0.980784 -0.195096 0
    outer loop
       vertex 0.276541 -0.064705 0
       vertex 0.282921 -0.0326315 0
       vertex 0.282921 -0.0326315 0.1
    endloop
  endfacet
  facet normal 0.980784 -0.195096 0
    outer loop
       vertex 0.282921 -0.0326315 0.1
       vertex 0.276541 -0.064705 0.1
       vertex 0.276541 -0.064705 0
    endloop
  endfacet
  facet normal 0.997858 -0.0654098 0
    outer loop
       vertex 0.28506 -8.32665e-17 0.1
       vertex 0.282921 -0.0326315 0.1
       vertex 0.282921 -0.0326315 0
    endloop
  endfacet
  facet normal 0.997858 -0.0654098 -1.08928e-16
    outer loop
       vertex 0.282921 -0.0326315 0
       vertex 0.28506 8.32665e-17 0
       vertex 0.28506 -8.32665e-17 0.1
    endloop
  endfacet
  facet normal 0.997858 0.0654098 0
    outer loop
       vertex 0.28506 8.32665e-17 0
       vertex 0.282921 0.0326315 0
       vertex 0.282921 0.0326315 0.1
    endloop
  endfacet
  facet normal 0.997858 0.0654098 1.08928e-16
    outer loop
       vertex 0.282921 0.0326315 0.1
       vertex 0.28506 -8.32665e-17 0.1
       vertex 0.28506 8.32665e-17 0
    endloop
  endfacet
  facet normal 0.980784 0.195096 0
    outer loop
       vertex 0.282921 0.0326315 0
       vertex 0.276541 0.064705 0
       vertex 0.276541 0.064705 0.1
    endloop
  endfacet
  facet normal 0.980784 0.195096 0
    outer loop
       vertex 0.276541 0.064705 0.1
       vertex 0.282921 0.0326315 0.1
       vertex 0.282921 0.0326315 0
    endloop
  endfacet
  facet normal 0.946935 0.321425 0
    outer loop
       vertex 0.276541 0.064705 0
       vertex 0.26603 0.095671 0
       vertex 0.26603 0.095671 0.1
    endloop
  endfacet
  facet normal 0.946935 0.321425 0
    outer loop
       vertex 0.26603 0.095671 0.1
       vertex 0.276541 0.064705 0.1
       vertex 0.276541 0.064705 0
    endloop
  endfacet
  facet normal 0.896866 0.442302 0
    outer loop
       vertex 0.26603 0.095671 0
       vertex 0.251566 0.125 0
       vertex 0.251566 0.125 0.1
    endloop
  endfacet
  facet normal 0.896866 0.442302 0
    outer loop
       vertex 0.251566 0.125 0.1
       vertex 0.26603 0.095671 0.1
       vertex 0.26603 0.095671 0
    endloop
  endfacet
  facet normal 0.831476 0.555561 0
    outer loop
       vertex 0.251566 0.125 0
       vertex 0.233398 0.152191 0
       vertex 0.233398 0.152191 0.1
    endloop
  endfacet
  facet normal 0.831476 0.555561 0
    outer loop
       vertex 0.233398 0.152191 0.1
       vertex 0.251566 0.125 0.1
       vertex 0.251566 0.125 0
    endloop
  endfacet
  facet normal 0.751817 0.659372 0
    outer loop
       vertex 0.233398 0.152191 0
       vertex 0.211836 0.176776 0
       vertex 0.211836 0.176776 0.1
    endloop
  endfacet
  facet normal 0.751817 0.659372 0
    outer loop
       vertex 0.211836 0.176776 0.1
       vertex 0.233398 0.152191 0.1
       vertex 0.233398 0.152191 0
    endloop
  endfacet
  facet normal 0.659372 0.751817 0
    outer loop
       vertex 0.211836 0.176776 0
       vertex 0.187251 0.198338 0
       vertex 0.187251 0.198338 0.1
    endloop
  endfacet
  facet normal 0.659372 0.751817 0
    outer loop
       vertex 0.187251 0.198338 0.1
       vertex 0.211836 0.176776 0.1
       vertex 0.211836 0.176776 0
    endloop
  endfacet
  facet normal 0.555561 0.831476 0
    outer loop
       vertex 0.187251 0.198338 0
       vertex 0.16006 0.216506 0
       vertex 0.16006 0.216506 0.1
    endloop
  endfacet
  facet normal 0.555561 0.831476 0
    outer loop
       vertex 0.16006 0.216506 0.1
       vertex 0.187251 0.198338 0.1
       vertex 0.187251 0.198338 0
    endloop
  endfacet
  facet normal 0.442302 0.896866 0
    outer loop
       vertex 0.16006 0.216506 0
       vertex 0.130731 0.23097 0
       vertex 0.130731 0.23097 0.1
    endloop
  endfacet
  facet normal 0.442302 0.896866 0
    outer loop
       vertex 0.130731 0.23097 0.1
       vertex 0.16006 0.216506 0.1
       vertex 0.16006 0.216506 0
    endloop
  endfacet
  facet normal 0.321425 0.946935 0
    outer loop
       vertex 0.130731 0.23097 0
       vertex 0.0997653 0.241481 0
       vertex 0.0997653 0.241481 0.1
    endloop
  endfacet
  facet normal 0.321425 0.946935 0
    outer loop
       vertex 0.0997653 0.241481 0.1
       vertex 0.130731 0.23097 0.1
       vertex 0.130731 0.23097 0
    endloop
  endfacet
  facet normal 0.195096 0.980784 0
    outer loop
       vertex 0.0997653 0.241481 0
       vertex 0.0676918 0.247861 0
       vertex 0.0676918 0.247861 0.1
    endloop
  endfacet
  facet normal 0.195096 0.980784 0
    outer loop
       vertex 0.0676918 0.247861 0.1
       vertex 0.0997653 0.241481 0.1
       vertex 0.0997653 0.241481 0
    endloop
  endfacet
  facet normal 0.0654098 0.997858 0
    outer loop
       vertex 0.0350603 0.25 0.1
       vertex 0.0676918 0.247861 0.1
       vertex 0.0676918 0.247861 0
    endloop
  endfacet
  facet normal 0.0654098 0.997858 -1.08928e-16
    outer loop
       vertex 0.0676918 0.247861 0
       vertex 0.0350603 0.25 0
       vertex 0.0350603 0.25 0.1
    endloop
  endfacet
  facet normal -0.0654098 0.997858 0
    outer loop
       vertex 0.0350603 0.25 0
       vertex 0.00242876 0.247861 0
       vertex 0.00242876 0.247861 0.1
    endloop
  endfacet
  facet normal -0.0654098 0.997858 1.08928e-16
    outer loop
       vertex 0.00242876 0.247861 0.1
       vertex 0.0350603 0.25 0.1
       vertex 0.0350603 0.25 0
    endloop
  endfacet
  facet normal -0.195096 0.980784 0
    outer loop
       vertex 0.00242876 0.247861 0
       vertex -0.0296447 0.241481 0
       vertex -0.0296447 0.241481 0.1
    endloop
  endfacet
  facet normal -0.195096 0.980784 0
    outer loop
       vertex -0.0296447 0.241481 0.1
       vertex 0.00242876 0.247861 0.1
       vertex 0.00242876 0.247861 0
    endloop
  endfacet
  facet normal -0.321425 0.946935 0
    outer loop
       vertex -0.0296447 0.241481 0
       vertex -0.0606107 0.23097 0
       vertex -0.0606107 0.23097 0.1
    endloop
  endfacet
  facet normal -0.321425 0.946935 0
    outer loop
       vertex -0.0606107 0.23097 0.1
       vertex -0.0296447 0.241481 0.1
       vertex -0.0296447 0.241481 0
    endloop
  endfacet
  facet normal -0.442302 0.896866 0
    outer loop
       vertex -0.0606107 0.23097 0
       vertex -0.0899397 0.216506 0
       vertex -0.0899397 0.216506 0.1
    endloop
  endfacet
  facet normal -0.442302 0.896866 0
    outer loop
       vertex -0.0899397 0.216506 0.1
       vertex -0.0606107 0.23097 0.1
       vertex -0.0606107 0.23097 0
    endloop
  endfacet
  facet normal -0.555561 0.831476 0
    outer loop
       vertex -0.0899397 0.216506 0
       vertex -0.117131 0.198338 0
       vertex -0.117131 0.198338 0.1
    endloop
  endfacet
  facet normal -0.555561 0.831476 0
    outer loop
       vertex -0.117131 0.198338 0.1
       vertex -0.0899397 0.216506 0.1
       vertex -0.0899397 0.216506 0
    endloop
  endfacet
  facet normal -0.659372 0.751817 0
    outer loop
       vertex -0.117131 0.198338 0
       vertex -0.141716 0.176776 0
       vertex -0.141716 0.176776 0.1
    endloop
  endfacet
  facet normal -0.659372 0.751817 0
    outer loop
       vertex -0.141716 0.176776 0.1
       vertex -0.117131 0.198338 0.1
       vertex -0.117131 0.198338 0
    endloop
  endfacet
  facet normal -0.751817 0.659372 0
    outer loop
       vertex -0.141716 0.176776 0
       vertex -0.163278 0.152191 0
       vertex -0.163278 0.152191 0.1
    endloop
  endfacet
  facet normal -0.751817 0.659372 0
    outer loop
       vertex -0.163278 0.152191 0.1
       vertex -0.141716 0.176776 0.1
       vertex -0.141716 0.176776 0
    endloop
  endfacet
  facet normal -0.831476 0.555561 0
    outer loop
       vertex -0.163278 0.152191 0
       vertex -0.181446 0.125 0
       vertex -0.181446 0.125 0.1
    endloop
  endfacet
  facet normal -0.831476 0.555561 0
    outer loop
       vertex -0.181446 0.125 0.1
       vertex -0.163278 0.152191 0.1
       vertex -0.163278 0.152191 0
    endloop
  endfacet
  facet normal -0.896866 0.442302 0
    outer loop
       vertex -0.181446 0.125 0
       vertex -0.19591 0.095671 0
       vertex -0.19591 0.095671 0.1
    endloop
  endfacet
  facet normal -0.896866 0.442302 0
    outer loop
       vertex -0.19591 0.095671 0.1
       vertex -0.181446 0.125 0.1
       vertex -0.181446 0.125 0
    endloop
  endfacet
  facet normal -0.946935 0.321425 0
    outer loop
       vertex -0.19591 0.095671 0
       vertex -0.206421 0.064705 0
       vertex -0.206421 0.064705 0.1
    endloop
  endfacet
  facet normal -0.946935 0.321425 0
    outer loop
       vertex -0.206421 0.064705 0.1
       vertex -0.19591 0.095671 0.1
       vertex -0.19591 0.095671 0
    endloop
  endfacet
  facet normal -0.980784 0.195096 0
    outer loop
       vertex -0.206421 0.064705 0
       vertex -0.212801 0.0326315 0
       vertex -0.212801 0.0326315 0.1
    endloop
  endfacet
  facet normal -0.980784 0.195096 0
    outer loop
       vertex -0.212801 0.0326315 0.1
       vertex -0.206421 0.064705 0.1
       vertex -0.206421 0.064705 0
    endloop
  endfacet
  facet normal -0.997858 0.0654098 0
    outer loop
       vertex -0.21494 8.32665e-17 0.1
       vertex -0.212801 0.0326315 0.1
       vertex -0.212801 0.0326315 0
    endloop
  endfacet
  facet normal -0.997858 0.0654098 -1.08928e-16
    outer loop
       vertex -0.212801 0.0326315 0
       vertex -0.21494 -8.32665e-17 0
       vertex -0.21494 8.32665e-17 0.1
    endloop
  endfacet
  facet normal -0.997858 -0.0654098 0
    outer loop
       vertex -0.21494 -8.32665e-17 0
       vertex -0.212801 -0.0326315 0
       vertex -0.212801 -0.0326315 0.1
    endloop
  endfacet
  facet normal -0.997858 -0.0654098 1.08928e-16
    outer loop
       vertex -0.212801 -0.0326315 0.1
       vertex -0.21494 8.32665e-17 0.1
       vertex -0.21494 -8.32665e-17 0
    endloop
  endfacet
  facet normal -0.980784 -0.195096 0
    outer loop
       vertex -0.212801 -0.0326315 0
       vertex -0.206421 -0.064705 0
       vertex -0.206421 -0.064705 0.1
    endloop
  endfacet
  facet normal -0.980784 -0.195096 0
    outer loop
       vertex -0.206421 -0.064705 0.1
       vertex -0.212801 -0.0326315 0.1
       vertex -0.212801 -0.0326315 0
    endloop
  endfacet
  facet normal -0.946935 -0.321425 0
    outer loop
       vertex -0.206421 -0.064705 0
       vertex -0.19591 -0.095671 0
       vertex -0.19591 -0.095671 0.1
    endloop
  endfacet
  facet normal -0.946935 -0.321425 0
    outer loop
       vertex -0.19591 -0.095671 0.1
       vertex -0.206421 -0.064705 0.1
       vertex -0.206421 -0.064705 0
    endloop
  endfacet
  facet normal -0.896866 -0.442302 0
    outer loop
       vertex -0.19591 -0.095671 0
       vertex -0.181446 -0.125 0
       vertex -0.181446 -0.125 0.1
    endloop
  endfacet
  facet normal -0.896866 -0.442302 0
    outer loop
       vertex -0.181446 -0.125 0.1
       vertex -0.19591 -0.095671 0.1
       vertex -0.19591 -0.095671 0
    endloop
  endfacet
  facet normal -0.831476 -0.555561 0
    outer loop
       vertex -0.181446 -0.125 0
       vertex -0.163278 -0.152191 0
       vertex -0.163278 -0.152191 0.1
    endloop
  endfacet
  facet normal -0.831476 -0.555561 0
    outer loop
       vertex -0.163278 -0.152191 0.1
       vertex -0.181446 -0.125 0.1
       vertex -0.181446 -0.125 0
    endloop
  endfacet
  facet normal -0.751817 -0.659372 0
    outer loop
       vertex -0.163278 -0.152191 0
       vertex -0.141716 -0.176776 0
       vertex -0.141716 -0.176776 0.1
    endloop
  endfacet
  facet normal -0.751817 -0.659372 0
    outer loop
       vertex -0.141716 -0.176776 0.1
       vertex -0.163278 -0.152191 0.1
       vertex -0.163278 -0.152191 0
    endloop
  endfacet
  facet normal 0.659372 -0.751817 0
    outer loop
       vertex 0.211836 -0.176776 0
       vertex 0.211836 -0.176776 0.1
       vertex 0.187251 -0.198338 0.1
    endloop
  endfacet
  facet normal 0.659372 -0.751817 0
    outer loop
       vertex 0.187251 -0.198338 0.1
       vertex 0.187251 -0.198338 0
       vertex 0.211836 -0.176776 0
    endloop
  endfacet
  facet normal 0.555561 -0.831476 0
    outer loop
       vertex 0.187251 -0.198338 0
       vertex 0.187251 -0.198338 0.1
       vertex 0.16006 -0.216506 0.1
    endloop
  endfacet
  facet normal 0.555561 -0.831476 0
    outer loop
       vertex 0.16006 -0.216506 0.1
       vertex 0.16006 -0.216506 0
       vertex 0.187251 -0.198338 0
    endloop
  endfacet
  facet normal 0.442302 -0.896866 0
    outer loop
       vertex 0.16006 -0.216506 0
       vertex 0.16006 -0.216506 0.1
       vertex 0.130731 -0.23097 0.1
    endloop
  endfacet
  facet normal 0.442302 -0.896866 0
    outer loop
       vertex 0.130731 -0.23097 0.1
       vertex 0.130731 -0.23097 0
       vertex 0.16006 -0.216506 0
    endloop
  endfacet
  facet normal 0.321425 -0.946935 0
    outer loop
       vertex 0.130731 -0.23097 0
       vertex 0.130731 -0.23097 0.1
       vertex 0.0997653 -0.241481 0.1
    endloop
  endfacet
  facet normal 0.321425 -0.946935 0
    outer loop
       vertex 0.0997653 -0.241481 0.1
       vertex 0.0997653 -0.241481 0
       vertex 0.130731 -0.23097 0
    endloop
  endfacet
  facet normal 0.195096 -0.980784 0
    outer loop
       vertex 0.0997653 -0.241481 0
       vertex 0.0997653 -0.241481 0.1
       vertex 0.0676918 -0.247861 0.1
    endloop
  endfacet
  facet normal 0.195096 -0.980784 0
    outer loop
       vertex 0.0676918 -0.247861 0.1
       vertex 0.0676918 -0.247861 0
       vertex 0.0997653 -0.241481 0
    endloop
  endfacet
  facet normal 0.0654098 -0.997858 0
    outer loop
       vertex 0.0350603 -0.25 0
       vertex 0.0676918 -0.247861 0
       vertex 0.0676918 -0.247861 0.1
    endloop
  endfacet
  facet normal 0.0654098 -0.997858 1.08928e-16
    outer loop
       vertex 0.0676918 -0.247861 0.1
       vertex 0.0350603 -0.25 0.1
       vertex 0.0350603 -0.25 0
    endloop
  endfacet
  facet normal -0.0654098 -0.997858 0
    outer loop
       vertex 0.0350603 -0.25 0.1
       vertex 0.00242876 -0.247861 0.1
       vertex 0.00242876 -0.247861 0
    endloop
  endfacet
  facet normal -0.0654098 -0.997858 -1.08928e-16
    outer loop
       vertex 0.00242876 -0.247861 0
       vertex 0.0350603 -0.25 0
       vertex 0.0350603 -0.25 0.1
    endloop
  endfacet
  facet normal -0.195096 -0.980784 0
    outer loop
       vertex 0.00242876 -0.247861 0
       vertex 0.00242876 -0.247861 0.1
       vertex -0.0296447 -0.241481 0.1
    endloop
  endfacet
  facet normal -0.195096 -0.980784 -0
    outer loop
       vertex -0.0296447 -0.241481 0.1
       vertex -0.0296447 -0.241481 0
       vertex 0.00242876 -0.247861 0
    endloop
  endfacet
  facet normal -0.321425 -0.946935 0
    outer loop
       vertex -0.0296447 -0.241481 0
       vertex -0.0296447 -0.241481 0.1
       vertex -0.0606107 -0.23097 0.1
    endloop
  endfacet
  facet normal -0.321425 -0.946935 -0
    outer loop
       vertex -0.0606107 -0.23097 0.1
       vertex -0.0606107 -0.23097 0
       vertex -0.0296447 -0.241481 0
    endloop
  endfacet
  facet normal -0.442302 -0.896866 0
    outer loop
       vertex -0.0606107 -0.23097 0
       vertex -0.0606107 -0.23097 0.1
       vertex -0.0899397 -0.216506 0.1
    endloop
  endfacet
  facet normal -0.442302 -0.896866 -0
    outer loop
       vertex -0.0899397 -0.216506 0.1
       vertex -0.0899397 -0.216506 0
       vertex -0.0606107 -0.23097 0
    endloop
  endfacet
  facet normal -0.555561 -0.831476 0
    outer loop
       vertex -0.0899397 -0.216506 0
       vertex -0.0899397 -0.216506 0.1
       vertex -0.117131 -0.198338 0.1
    endloop
  endfacet
  facet normal -0.555561 -0.831476 -0
    outer loop
       vertex -0.117131 -0.198338 0.1
       vertex -0.117131 -0.198338 0
       vertex -0.0899397 -0.216506 0
    endloop
  endfacet
  facet normal -0.659372 -0.751817 0
    outer loop
       vertex -0.117131 -0.198338 0
       vertex -0.117131 -0.198338 0.1
       vertex -0.141716 -0.176776 0.1
    endloop
  endfacet
  facet normal -0.659372 -0.751817 -0
    outer loop
       vertex -0.141716 -0.176776 0.1
       vertex -0.141716 -0.176776 0
       vertex -0.117131 -0.198338 0
    endloop
  endfacet
endsolid cylinder
