solid cylinder
  facet normal 0.751817 -0.659372 0
    outer loop
       vertex 0.259557 -0.176776 0
       vertex 0.281119 -0.152191 0
       vertex 0.281119 -0.152191 0.1
    endloop
  endfacet
  facet normal 0.751817 -0.659372 0
    outer loop
       vertex 0.281119 -0.152191 0.1
       vertex 0.259557 -0.176776 0.1
       vertex 0.259557 -0.176776 0
    endloop
  endfacet
  facet normal 0.831476 -0.555561 0
    outer loop
       vertex 0.281119 -0.152191 0
       vertex 0.299287 -0.125 0
       vertex 0.299287 -0.125 0.1
    endloop
  endfacet
  facet normal 0.831476 -0.555561 0
    outer loop
       vertex 0.299287 -0.125 0.1
       vertex 0.281119 -0.152191 0.1
       vertex 0.281119 -0.152191 0
    endloop
  endfacet
  facet normal 0.896866 -0.442302 0
    outer loop
       vertex 0.299287 -0.125 0
       vertex 0.313751 -0.095671 0
       vertex 0.313751 -0.095671 0.1
    endloop
  endfacet
  facet normal 0.896866 -0.442302 0
    outer loop
       vertex 0.313751 -0.095671 0.1
       vertex 0.299287 -0.125 0.1
       vertex 0.299287 -0.125 0
    endloop
  endfacet
  facet normal 0.946935 -0.321425 0
    outer loop
       vertex 0.313751 -0.095671 0
       vertex 0.324262 -0.064705 0
       vertex 0.324262 -0.064705 0.1
    endloop
  endfacet
  facet normal 0.946935 -0.321425 0
    outer loop
       vertex 0.324262 -0.064705 0.1
       vertex 0.313751 -0.095671 0.1
       vertex 0.313751 -0.095671 0
    endloop
  endfacet
  facet normal 0.980784 -0.195096 0
    outer loop
       vertex 0.324262 -0.064705 0
       vertex 0.330642 -0.0326315 0
       vertex 0.330642 -0.0326315 0.1
    endloop
  endfacet
  facet normal 0.980784 -0.195096 0
    outer loop
       vertex 0.330642 -0.0326315 0.1
       vertex 0.324262 -0.064705 0.1
       vertex 0.324262 -0.064705 0
    endloop
  endfacet
  facet normal 0.997858 -0.0654098 0
    outer loop
       vertex 0.332781 -8.32665e-17 0.1
       vertex 0.330642 -0.0326315 0.1
       vertex 0.330642 -0.0326315 0
    endloop
  endfacet
  facet normal 0.997858 -0.0654098 -1.08928e-16
    outer loop
       vertex 0.330642 -0.0326315 0
       vertex 0.332781 8.32665e-17 0
       vertex 0.332781 -8.32665e-17 0.1
    endloop
  endfacet
  facet normal 0.997858 0.0654098 0
    outer loop
       vertex 0.332781 8.32665e-17 0
       vertex 0.330642 0.0326315 0
       vertex 0.330642 0.0326315 0.1
    endloop
  endfacet
  facet normal 0.997858 0.0654098 1.08928e-16
    outer loop
       vertex 0.330642 0.0326315 0.1
       vertex 0.332781 -8.32665e-17 0.1
       vertex 0.332781 8.32665e-17 0
    endloop
  endfacet
  facet normal 0.980784 0.195096 0
    outer loop
       vertex 0.330642 0.0326315 0
       vertex 0.324262 0.064705 0
       vertex 0.324262 0.064705 0.1
    endloop
  endfacet
  facet normal 0.980784 0.195096 0
    outer loop
       vertex 0.324262 0.064705 0.1
       vertex 0.330642 0.0326315 0.1
       vertex 0.330642 0.0326315 0
    endloop
  endfacet
  facet normal 0.946935 0.321425 0
    outer loop
       vertex 0.324262 0.064705 0
       vertex 0.313751 0.095671 0
       vertex 0.313751 0.095671 0.1
    endloop
  endfacet
  facet normal 0.946935 0.321425 0
    outer loop
       vertex 0.313751 0.095671 0.1
       vertex 0.324262 0.064705 0.1
       vertex 0.324262 0.064705 0
    endloop
  endfacet
  facet normal 0.896866 0.442302 0
    outer loop
       vertex 0.313751 0.095671 0
       vertex 0.299287 0.125 0
       vertex 0.299287 0.125 0.1
    endloop
  endfacet
  facet normal 0.896866 0.442302 0
    outer loop
       vertex 0.299287 0.125 0.1
       vertex 0.313751 0.095671 0.1
       vertex 0.313751 0.095671 0
    endloop
  endfacet
  facet normal 0.831476 0.555561 0
    outer loop
       vertex 0.299287 0.125 0
       vertex 0.281119 0.152191 0
       vertex 0.281119 0.152191 0.1
    endloop
  endfacet
  facet normal 0.831476 0.555561 0
    outer loop
       vertex 0.281119 0.152191 0.1
       vertex 0.299287 0.125 0.1
       vertex 0.299287 0.125 0
    endloop
  endfacet
  facet normal 0.751817 0.659372 0
    outer loop
       vertex 0.281119 0.152191 0
       vertex 0.259557 0.176776 0
       vertex 0.259557 0.176776 0.1
    endloop
  endfacet
  facet normal 0.751817 0.659372 0
    outer loop
       vertex 0.259557 0.176776 0.1
       vertex 0.281119 0.152191 0.1
       vertex 0.281119 0.152191 0
    endloop
  endfacet
  facet normal 0.659372 0.751817 0
    outer loop
       vertex 0.259557 0.176776 0
       vertex 0.234972 0.198338 0
       vertex 0.234972 0.198338 0.1
    endloop
  endfacet
  facet normal 0.659372 0.751817 0
    outer loop
       vertex 0.234972 0.198338 0.1
       vertex 0.259557 0.176776 0.1
       vertex 0.259557 0.176776 0
    endloop
  endfacet
  facet normal 0.555561 0.831476 0
    outer loop
       vertex 0.234972 0.198338 0
       vertex 0.207781 0.216506 0
       vertex 0.207781 0.216506 0.1
    endloop
  endfacet
  facet normal 0.555561 0.831476 0
    outer loop
       vertex 0.207781 0.216506 0.1
       vertex 0.234972 0.198338 0.1
       vertex 0.234972 0.198338 0
    endloop
  endfacet
  facet normal 0.442302 0.896866 0
    outer loop
       vertex 0.207781 0.216506 0
       vertex 0.178452 0.23097 0
       vertex 0.178452 0.23097 0.1
    endloop
  endfacet
  facet normal 0.442302 0.896866 0
    outer loop
       vertex 0.178452 0.23097 0.1
       vertex 0.207781 0.216506 0.1
       vertex 0.207781 0.216506 0
    endloop
  endfacet
  facet normal 0.321425 0.946935 0
    outer loop
       vertex 0.178452 0.23097 0
       vertex 0.147486 0.241481 0
       vertex 0.147486 0.241481 0.1
    endloop
  endfacet
  facet normal 0.321425 0.946935 0
    outer loop
       vertex 0.147486 0.241481 0.1
       vertex 0.178452 0.23097 0.1
       vertex 0.178452 0.23097 0
    endloop
  endfacet
  facet normal 0.195096 0.980784 0
    outer loop
       vertex 0.147486 0.241481 0
       vertex 0.115413 0.247861 0
       vertex 0.115413 0.247861 0.1
    endloop
  endfacet
  facet normal 0.195096 0.980784 0
    outer loop
       vertex 0.115413 0.247861 0.1
       vertex 0.147486 0.241481 0.1
       vertex 0.147486 0.241481 0
    endloop
  endfacet
  facet normal 0.0654098 0.997858 0
    outer loop
       vertex 0.0827814 0.25 0.1
       vertex 0.115413 0.247861 0.1
       vertex 0.115413 0.247861 0
    endloop
  endfacet
  facet normal 0.0654098 0.997858 -1.0893e-16
    outer loop
       vertex 0.115413 0.247861 0
       vertex 0.0827814 0.25 0
       vertex 0.0827814 0.25 0.1
    endloop
  endfacet
  facet normal -0.0654098 0.997858 0
    outer loop
       vertex 0.0827814 0.25 0
       vertex 0.0501499 0.247861 0
       vertex 0.0501499 0.247861 0.1
    endloop
  endfacet
  facet normal -0.0654098 0.997858 1.08928e-16
    outer loop
       vertex 0.0501499 0.247861 0.1
       vertex 0.0827814 0.25 0.1
       vertex 0.0827814 0.25 0
    endloop
  endfacet
  facet normal -0.195096 0.980784 0
    outer loop
       vertex 0.0501499 0.247861 0
       vertex 0.0180764 0.241481 0
       vertex 0.0180764 0.241481 0.1
    endloop
  endfacet
  facet normal -0.195096 0.980784 0
    outer loop
       vertex 0.0180764 0.241481 0.1
       vertex 0.0501499 0.247861 0.1
       vertex 0.0501499 0.247861 0
    endloop
  endfacet
  facet normal -0.321425 0.946935 0
    outer loop
       vertex 0.0180764 0.241481 0
       vertex -0.0128896 0.23097 0
       vertex -0.0128896 0.23097 0.1
    endloop
  endfacet
  facet normal -0.321425 0.946935 0
    outer loop
       vertex -0.0128896 0.23097 0.1
       vertex 0.0180764 0.241481 0.1
       vertex 0.0180764 0.241481 0
    endloop
  endfacet
  facet normal -0.442302 0.896866 0
    outer loop
       vertex -0.0128896 0.23097 0
       vertex -0.0422186 0.216506 0
       vertex -0.0422186 0.216506 0.1
    endloop
  endfacet
  facet normal -0.442302 0.896866 0
    outer loop
       vertex -0.0422186 0.216506 0.1
       vertex -0.0128896 0.23097 0.1
       vertex -0.0128896 0.23097 0
    endloop
  endfacet
  facet normal -0.555561 0.831476 0
    outer loop
       vertex -0.0422186 0.216506 0
       vertex -0.0694096 0.198338 0
       vertex -0.0694096 0.198338 0.1
    endloop
  endfacet
  facet normal -0.555561 0.831476 0
    outer loop
       vertex -0.0694096 0.198338 0.1
       vertex -0.0422186 0.216506 0.1
       vertex -0.0422186 0.216506 0
    endloop
  endfacet
  facet normal -0.659372 0.751817 0
    outer loop
       vertex -0.0694096 0.198338 0
       vertex -0.0939946 0.176776 0
       vertex -0.0939946 0.176776 0.1
    endloop
  endfacet
  facet normal -0.659372 0.751817 0
    outer loop
       vertex -0.0939946 0.176776 0.1
       vertex -0.0694096 0.198338 0.1
       vertex -0.0694096 0.198338 0
    endloop
  endfacet
  facet normal -0.751817 0.659372 0
    outer loop
       vertex -0.0939946 0.176776 0
       vertex -0.115557 0.152191 0
       vertex -0.115557 0.152191 0.1
    endloop
  endfacet
  facet normal -0.751817 0.659372 0
    outer loop
       vertex -0.115557 0.152191 0.1
       vertex -0.0939946 0.176776 0.1
       vertex -0.0939946 0.176776 0
    endloop
  endfacet
  facet normal -0.831476 0.555561 0
    outer loop
       vertex -0.115557 0.152191 0
       vertex -0.133725 0.125 0
       vertex -0.133725 0.125 0.1
    endloop
  endfacet
  facet normal -0.831476 0.555561 0
    outer loop
       vertex -0.133725 0.125 0.1
       vertex -0.115557 0.152191 0.1
       vertex -0.115557 0.152191 0
    endloop
  endfacet
  facet normal -0.896866 0.442302 0
    outer loop
       vertex -0.133725 0.125 0
       vertex -0.148189 0.095671 0
       vertex -0.148189 0.095671 0.1
    endloop
  endfacet
  facet normal -0.896866 0.442302 0
    outer loop
       vertex -0.148189 0.095671 0.1
       vertex -0.133725 0.125 0.1
       vertex -0.133725 0.125 0
    endloop
  endfacet
  facet normal -0.946935 0.321425 0
    outer loop
       vertex -0.148189 0.095671 0
       vertex -0.1587 0.064705 0
       vertex -0.1587 0.064705 0.1
    endloop
  endfacet
  facet normal -0.946935 0.321425 0
    outer loop
       vertex -0.1587 0.064705 0.1
       vertex -0.148189 0.095671 0.1
       vertex -0.148189 0.095671 0
    endloop
  endfacet
  facet normal -0.980784 0.195096 0
    outer loop
       vertex -0.1587 0.064705 0
       vertex -0.16508 0.0326315 0
       vertex -0.16508 0.0326315 0.1
    endloop
  endfacet
  facet normal -0.980784 0.195096 0
    outer loop
       vertex -0.16508 0.0326315 0.1
       vertex -0.1587 0.064705 0.1
       vertex -0.1587 0.064705 0
    endloop
  endfacet
  facet normal -0.997858 0.0654098 0
    outer loop
       vertex -0.167219 8.32665e-17 0.1
       vertex -0.16508 0.0326315 0.1
       vertex -0.16508 0.0326315 0
    endloop
  endfacet
  facet normal -0.997858 0.0654098 -1.08928e-16
    outer loop
       vertex -0.16508 0.0326315 0
       vertex -0.167219 -8.32665e-17 0
       vertex -0.167219 8.32665e-17 0.1
    endloop
  endfacet
  facet normal -0.997858 -0.0654098 0
    outer loop
       vertex -0.167219 -8.32665e-17 0
       vertex -0.16508 -0.0326315 0
       vertex -0.16508 -0.0326315 0.1
    endloop
  endfacet
  facet normal -0.997858 -0.0654098 1.08928e-16
    outer loop
       vertex -0.16508 -0.0326315 0.1
       vertex -0.167219 8.32665e-17 0.1
       vertex -0.167219 -8.32665e-17 0
    endloop
  endfacet
  facet normal -0.980784 -0.195096 0
    outer loop
       vertex -0.16508 -0.0326315 0
       vertex -0.1587 -0.064705 0
       vertex -0.1587 -0.064705 0.1
    endloop
  endfacet
  facet normal -0.980784 -0.195096 0
    outer loop
       vertex -0.1587 -0.064705 0.1
       vertex -0.16508 -0.0326315 0.1
       vertex -0.16508 -0.0326315 0
    endloop
  endfacet
  facet normal -0.946935 -0.321425 0
    outer loop
       vertex -0.1587 -0.064705 0
       vertex -0.148189 -0.095671 0
       vertex -0.148189 -0.095671 0.1
    endloop
  endfacet
  facet normal -0.946935 -0.321425 0
    outer loop
       vertex -0.148189 -0.095671 0.1
       vertex -0.1587 -0.064705 0.1
       vertex -0.1587 -0.064705 0
    endloop
  endfacet
  facet normal -0.896866 -0.442302 0
    outer loop
       vertex -0.148189 -0.095671 0
       vertex -0.133725 -0.125 0
       vertex -0.133725 -0.125 0.1
    endloop
  endfacet
  facet normal -0.896866 -0.442302 0
    outer loop
       vertex -0.133725 -0.125 0.1
       vertex -0.148189 -0.095671 0.1
       vertex -0.148189 -0.095671 0
    endloop
  endfacet
  facet normal -0.831476 -0.555561 0
    outer loop
       vertex -0.133725 -0.125 0
       vertex -0.115557 -0.152191 0
       vertex -0.115557 -0.152191 0.1
    endloop
  endfacet
  facet normal -0.831476 -0.555561 0
    outer loop
       vertex -0.115557 -0.152191 0.1
       vertex -0.133725 -0.125 0.1
       vertex -0.133725 -0.125 0
    endloop
  endfacet
  facet normal -0.751817 -0.659372 0
    outer loop
       vertex -0.115557 -0.152191 0
       vertex -0.0939946 -0.176776 0
       vertex -0.0939946 -0.176776 0.1
    endloop
  endfacet
  facet normal -0.751817 -0.659372 0
    outer loop
       vertex -0.0939946 -0.176776 0.1
       vertex -0.115557 -0.152191 0.1
       vertex -0.115557 -0.152191 0
    endloop
  endfacet
  facet normal 0.659372 -0.751817 0
    outer loop
       vertex 0.259557 -0.176776 0
       vertex 0.259557 -0.176776 0.1
       vertex 0.234972 -0.198338 0.1
    endloop
  endfacet
  facet normal 0.659372 -0.751817 0
    outer loop
       vertex 0.234972 -0.198338 0.1
       vertex 0.234972 -0.198338 0
       vertex 0.259557 -0.176776 0
    endloop
  endfacet
  facet normal 0.555561 -0.831476 0
    outer loop
       vertex 0.234972 -0.198338 0
       vertex 0.234972 -0.198338 0.1
       vertex 0.207781 -0.216506 0.1
    endloop
  endfacet
  facet normal 0.555561 -0.831476 0
    outer loop
       vertex 0.207781 -0.216506 0.1
       vertex 0.207781 -0.216506 0
       vertex 0.234972 -0.198338 0
    endloop
  endfacet
  facet normal 0.442302 -0.896866 0
    outer loop
       vertex 0.207781 -0.216506 0
       vertex 0.207781 -0.216506 0.1
       vertex 0.178452 -0.23097 0.1
    endloop
  endfacet
  facet normal 0.442302 -0.896866 0
    outer loop
       vertex 0.178452 -0.23097 0.1
       vertex 0.178452 -0.23097 0
       vertex 0.207781 -0.216506 0
    endloop
  endfacet
  facet normal 0.321425 -0.946935 0
    outer loop
       vertex 0.178452 -0.23097 0
       vertex 0.178452 -0.23097 0.1
       vertex 0.147486 -0.241481 0.1
    endloop
  endfacet
  facet normal 0.321425 -0.946935 0
    outer loop
       vertex 0.147486 -0.241481 0.1
       vertex 0.147486 -0.241481 0
       vertex 0.178452 -0.23097 0
    endloop
  endfacet
  facet normal 0.195096 -0.980784 0
    outer loop
       vertex 0.147486 -0.241481 0
       vertex 0.147486 -0.241481 0.1
       vertex 0.115413 -0.247861 0.1
    endloop
  endfacet
  facet normal 0.195096 -0.980784 0
    outer loop
       vertex 0.115413 -0.247861 0.1
       vertex 0.115413 -0.247861 0
       vertex 0.147486 -0.241481 0
    endloop
  endfacet
  facet normal 0.0654098 -0.997858 0
    outer loop
       vertex 0.0827814 -0.25 0
       vertex 0.115413 -0.247861 0
       vertex 0.115413 -0.247861 0.1
    endloop
  endfacet
  facet normal 0.0654098 -0.997858 1.0893e-16
    outer loop
       vertex 0.115413 -0.247861 0.1
       vertex 0.0827814 -0.25 0.1
       vertex 0.0827814 -0.25 0
    endloop
  endfacet
  facet normal -0.0654098 -0.997858 0
    outer loop
       vertex 0.0827814 -0.25 0.1
       vertex 0.0501499 -0.247861 0.1
       vertex 0.0501499 -0.247861 0
    endloop
  endfacet
  facet normal -0.0654098 -0.997858 -1.08928e-16
    outer loop
       vertex 0.0501499 -0.247861 0
       vertex 0.0827814 -0.25 0
       vertex 0.0827814 -0.25 0.1
    endloop
  endfacet
  facet normal -0.195096 -0.980784 0
    outer loop
       vertex 0.0501499 -0.247861 0
       vertex 0.0501499 -0.247861 0.1
       vertex 0.0180764 -0.241481 0.1
    endloop
  endfacet
  facet normal -0.195096 -0.980784 -0
    outer loop
       vertex 0.0180764 -0.241481 0.1
       vertex 0.0180764 -0.241481 0
       vertex 0.0501499 -0.247861 0
    endloop
  endfacet
  facet normal -0.321425 -0.946935 0
    outer loop
       vertex 0.0180764 -0.241481 0
       vertex 0.0180764 -0.241481 0.1
       vertex -0.0128896 -0.23097 0.1
    endloop
  endfacet
  facet normal -0.321425 -0.946935 -0
    outer loop
       vertex -0.0128896 -0.23097 0.1
       vertex -0.0128896 -0.23097 0
       vertex 0.0180764 -0.241481 0
    endloop
  endfacet
  facet normal -0.442302 -0.896866 0
    outer loop
       vertex -0.0128896 -0.23097 0
       vertex -0.0128896 -0.23097 0.1
       vertex -0.0422186 -0.216506 0.1
    endloop
  endfacet
  facet normal -0.442302 -0.896866 -0
    outer loop
       vertex -0.0422186 -0.216506 0.1
       vertex -0.0422186 -0.216506 0
       vertex -0.0128896 -0.23097 0
    endloop
  endfacet
  facet normal -0.555561 -0.831476 0
    outer loop
       vertex -0.0422186 -0.216506 0
       vertex -0.0422186 -0.216506 0.1
       vertex -0.0694096 -0.198338 0.1
    endloop
  endfacet
  facet normal -0.555561 -0.831476 -0
    outer loop
       vertex -0.0694096 -0.198338 0.1
       vertex -0.0694096 -0.198338 0
       vertex -0.0422186 -0.216506 0
    endloop
  endfacet
  facet normal -0.659372 -0.751817 0
    outer loop
       vertex -0.0694096 -0.198338 0
       vertex -0.0694096 -0.198338 0.1
       vertex -0.0939946 -0.176776 0.1
    endloop
  endfacet
  facet normal -0.659372 -0.751817 -0
    outer loop
       vertex -0.0939946 -0.176776 0.1
       vertex -0.0939946 -0.176776 0
       vertex -0.0694096 -0.198338 0
    endloop
  endfacet
endsolid cylinder
