solid cylinder
  facet normal 0.751817 -0.659372 0
    outer loop
       vertex 0.121665 -0.176776 0
       vertex 0.143227 -0.152191 0
       vertex 0.143227 -0.152191 0.1
    endloop
  endfacet
  facet normal 0.751817 -0.659372 0
    outer loop
       vertex 0.143227 -0.152191 0.1
       vertex 0.121665 -0.176776 0.1
       vertex 0.121665 -0.176776 0
    endloop
  endfacet
  facet normal 0.831476 -0.555561 0
    outer loop
       vertex 0.143227 -0.152191 0
       vertex 0.161395 -0.125 0
       vertex 0.161395 -0.125 0.1
    endloop
  endfacet
  facet normal 0.831476 -0.555561 0
    outer loop
       vertex 0.161395 -0.125 0.1
       vertex 0.143227 -0.152191 0.1
       vertex 0.143227 -0.152191 0
    endloop
  endfacet
  facet normal 0.896866 -0.442302 0
    outer loop
       vertex 0.161395 -0.125 0
       vertex 0.175859 -0.095671 0
       vertex 0.175859 -0.095671 0.1
    endloop
  endfacet
  facet normal 0.896866 -0.442302 0
    outer loop
       vertex 0.175859 -0.095671 0.1
       vertex 0.161395 -0.125 0.1
       vertex 0.161395 -0.125 0
    endloop
  endfacet
  facet normal 0.946935 -0.321425 0
    outer loop
       vertex 0.175859 -0.095671 0
       vertex 0.18637 -0.064705 0
       vertex 0.18637 -0.064705 0.1
    endloop
  endfacet
  facet normal 0.946935 -0.321425 0
    outer loop
       vertex 0.18637 -0.064705 0.1
       vertex 0.175859 -0.095671 0.1
       vertex 0.175859 -0.095671 0
    endloop
  endfacet
  facet normal 0.980784 -0.195096 0
    outer loop
       vertex 0.18637 -0.064705 0
       vertex 0.19275 -0.0326315 0
       vertex 0.19275 -0.0326315 0.1
    endloop
  endfacet
  facet normal 0.980784 -0.195096 0
    outer loop
       vertex 0.19275 -0.0326315 0.1
       vertex 0.18637 -0.064705 0.1
       vertex 0.18637 -0.064705 0
    endloop
  endfacet
  facet normal 0.997858 -0.0654098 0
    outer loop
       vertex 0.194889 -8.32665e-17 0.1
       vertex 0.19275 -0.0326315 0.1
       vertex 0.19275 -0.0326315 0
    endloop
  endfacet
  facet normal 0.997858 -0.0654098 -1.08928e-16
    outer loop
       vertex 0.19275 -0.0326315 0
       vertex 0.194889 8.32665e-17 0
       vertex 0.194889 -8.32665e-17 0.1
    endloop
  endfacet
  facet normal 0.997858 0.0654098 0
    outer loop
       vertex 0.194889 8.32665e-17 0
       vertex 0.19275 0.0326315 0
       vertex 0.19275 0.0326315 0.1
    endloop
  endfacet
  facet normal 0.997858 0.0654098 1.08928e-16
    outer loop
       vertex 0.19275 0.0326315 0.1
       vertex 0.194889 -8.32665e-17 0.1
       vertex 0.194889 8.32665e-17 0
    endloop
  endfacet
  facet normal 0.980784 0.195096 0
    outer loop
       vertex 0.19275 0.0326315 0
       vertex 0.18637 0.064705 0
       vertex 0.18637 0.064705 0.1
    endloop
  endfacet
  facet normal 0.980784 0.195096 0
    outer loop
       vertex 0.18637 0.064705 0.1
       vertex 0.19275 0.0326315 0.1
       vertex 0.19275 0.0326315 0
    endloop
  endfacet
  facet normal 0.946935 0.321425 0
    outer loop
       vertex 0.18637 0.064705 0
       vertex 0.175859 0.095671 0
       vertex 0.175859 0.095671 0.1
    endloop
  endfacet
  facet normal 0.946935 0.321425 0
    outer loop
       vertex 0.175859 0.095671 0.1
       vertex 0.18637 0.064705 0.1
       vertex 0.18637 0.064705 0
    endloop
  endfacet
  facet normal 0.896866 0.442302 0
    outer loop
       vertex 0.175859 0.095671 0
       vertex 0.161395 0.125 0
       vertex 0.161395 0.125 0.1
    endloop
  endfacet
  facet normal 0.896866 0.442302 0
    outer loop
       vertex 0.161395 0.125 0.1
       vertex 0.175859 0.095671 0.1
       vertex 0.175859 0.095671 0
    endloop
  endfacet
  facet normal 0.831476 0.555561 0
    outer loop
       vertex 0.161395 0.125 0
       vertex 0.143227 0.152191 0
       vertex 0.143227 0.152191 0.1
    endloop
  endfacet
  facet normal 0.831476 0.555561 0
    outer loop
       vertex 0.143227 0.152191 0.1
       vertex 0.161395 0.125 0.1
       vertex 0.161395 0.125 0
    endloop
  endfacet
  facet normal 0.751817 0.659372 0
    outer loop
       vertex 0.143227 0.152191 0
       vertex 0.121665 0.176776 0
       vertex 0.121665 0.176776 0.1
    endloop
  endfacet
  facet normal 0.751817 0.659372 0
    outer loop
       vertex 0.121665 0.176776 0.1
       vertex 0.143227 0.152191 0.1
       vertex 0.143227 0.152191 0
    endloop
  endfacet
  facet normal 0.659372 0.751817 0
    outer loop
       vertex 0.121665 0.176776 0
       vertex 0.0970798 0.198338 0
       vertex 0.0970798 0.198338 0.1
    endloop
  endfacet
  facet normal 0.659372 0.751817 0
    outer loop
       vertex 0.0970798 0.198338 0.1
       vertex 0.121665 0.176776 0.1
       vertex 0.121665 0.176776 0
    endloop
  endfacet
  facet normal 0.555561 0.831476 0
    outer loop
       vertex 0.0970798 0.198338 0
       vertex 0.0698888 0.216506 0
       vertex 0.0698888 0.216506 0.1
    endloop
  endfacet
  facet normal 0.555561 0.831476 0
    outer loop
       vertex 0.0698888 0.216506 0.1
       vertex 0.0970798 0.198338 0.1
       vertex 0.0970798 0.198338 0
    endloop
  endfacet
  facet normal 0.442302 0.896866 0
    outer loop
       vertex 0.0698888 0.216506 0
       vertex 0.0405598 0.23097 0
       vertex 0.0405598 0.23097 0.1
    endloop
  endfacet
  facet normal 0.442302 0.896866 0
    outer loop
       vertex 0.0405598 0.23097 0.1
       vertex 0.0698888 0.216506 0.1
       vertex 0.0698888 0.216506 0
    endloop
  endfacet
  facet normal 0.321425 0.946935 0
    outer loop
       vertex 0.0405598 0.23097 0
       vertex 0.00959382 0.241481 0
       vertex 0.00959382 0.241481 0.1
    endloop
  endfacet
  facet normal 0.321425 0.946935 0
    outer loop
       vertex 0.00959382 0.241481 0.1
       vertex 0.0405598 0.23097 0.1
       vertex 0.0405598 0.23097 0
    endloop
  endfacet
  facet normal 0.195096 0.980784 0
    outer loop
       vertex 0.00959382 0.241481 0
       vertex -0.0224797 0.247861 0
       vertex -0.0224797 0.247861 0.1
    endloop
  endfacet
  facet normal 0.195096 0.980784 0
    outer loop
       vertex -0.0224797 0.247861 0.1
       vertex 0.00959382 0.241481 0.1
       vertex 0.00959382 0.241481 0
    endloop
  endfacet
  facet normal 0.0654098 0.997858 0
    outer loop
       vertex -0.0551112 0.25 0.1
       vertex -0.0224797 0.247861 0.1
       vertex -0.0224797 0.247861 0
    endloop
  endfacet
  facet normal 0.0654098 0.997858 -1.08928e-16
    outer loop
       vertex -0.0224797 0.247861 0
       vertex -0.0551112 0.25 0
       vertex -0.0551112 0.25 0.1
    endloop
  endfacet
  facet normal -0.0654098 0.997858 0
    outer loop
       vertex -0.0551112 0.25 0
       vertex -0.0877427 0.247861 0
       vertex -0.0877427 0.247861 0.1
    endloop
  endfacet
  facet normal -0.0654098 0.997858 1.08928e-16
    outer loop
       vertex -0.0877427 0.247861 0.1
       vertex -0.0551112 0.25 0.1
       vertex -0.0551112 0.25 0
    endloop
  endfacet
  facet normal -0.195096 0.980784 0
    outer loop
       vertex -0.0877427 0.247861 0
       vertex -0.119816 0.241481 0
       vertex -0.119816 0.241481 0.1
    endloop
  endfacet
  facet normal -0.195096 0.980784 0
    outer loop
       vertex -0.119816 0.241481 0.1
       vertex -0.0877427 0.247861 0.1
       vertex -0.0877427 0.247861 0
    endloop
  endfacet
  facet normal -0.321425 0.946935 0
    outer loop
       vertex -0.119816 0.241481 0
       vertex -0.150782 0.23097 0
       vertex -0.150782 0.23097 0.1
    endloop
  endfacet
  facet normal -0.321425 0.946935 0
    outer loop
       vertex -0.150782 0.23097 0.1
       vertex -0.119816 0.241481 0.1
       vertex -0.119816 0.241481 0
    endloop
  endfacet
  facet normal -0.442302 0.896866 0
    outer loop
       vertex -0.150782 0.23097 0
       vertex -0.180111 0.216506 0
       vertex -0.180111 0.216506 0.1
    endloop
  endfacet
  facet normal -0.442302 0.896866 0
    outer loop
       vertex -0.180111 0.216506 0.1
       vertex -0.150782 0.23097 0.1
       vertex -0.150782 0.23097 0
    endloop
  endfacet
  facet normal -0.555561 0.831476 0
    outer loop
       vertex -0.180111 0.216506 0
       vertex -0.207302 0.198338 0
       vertex -0.207302 0.198338 0.1
    endloop
  endfacet
  facet normal -0.555561 0.831476 0
    outer loop
       vertex -0.207302 0.198338 0.1
       vertex -0.180111 0.216506 0.1
       vertex -0.180111 0.216506 0
    endloop
  endfacet
  facet normal -0.659372 0.751817 0
    outer loop
       vertex -0.207302 0.198338 0
       vertex -0.231887 0.176776 0
       vertex -0.231887 0.176776 0.1
    endloop
  endfacet
  facet normal -0.659372 0.751817 0
    outer loop
       vertex -0.231887 0.176776 0.1
       vertex -0.207302 0.198338 0.1
       vertex -0.207302 0.198338 0
    endloop
  endfacet
  facet normal -0.751817 0.659372 0
    outer loop
       vertex -0.231887 0.176776 0
       vertex -0.253449 0.152191 0
       vertex -0.253449 0.152191 0.1
    endloop
  endfacet
  facet normal -0.751817 0.659372 0
    outer loop
       vertex -0.253449 0.152191 0.1
       vertex -0.231887 0.176776 0.1
       vertex -0.231887 0.176776 0
    endloop
  endfacet
  facet normal -0.831476 0.555561 0
    outer loop
       vertex -0.253449 0.152191 0
       vertex -0.271617 0.125 0
       vertex -0.271617 0.125 0.1
    endloop
  endfacet
  facet normal -0.831476 0.555561 0
    outer loop
       vertex -0.271617 0.125 0.1
       vertex -0.253449 0.152191 0.1
       vertex -0.253449 0.152191 0
    endloop
  endfacet
  facet normal -0.896866 0.442302 0
    outer loop
       vertex -0.271617 0.125 0
       vertex -0.286081 0.095671 0
       vertex -0.286081 0.095671 0.1
    endloop
  endfacet
  facet normal -0.896866 0.442302 0
    outer loop
       vertex -0.286081 0.095671 0.1
       vertex -0.271617 0.125 0.1
       vertex -0.271617 0.125 0
    endloop
  endfacet
  facet normal -0.946935 0.321425 0
    outer loop
       vertex -0.286081 0.095671 0
       vertex -0.296592 0.064705 0
       vertex -0.296592 0.064705 0.1
    endloop
  endfacet
  facet normal -0.946935 0.321425 0
    outer loop
       vertex -0.296592 0.064705 0.1
       vertex -0.286081 0.095671 0.1
       vertex -0.286081 0.095671 0
    endloop
  endfacet
  facet normal -0.980784 0.195096 0
    outer loop
       vertex -0.296592 0.064705 0
       vertex -0.302972 0.0326315 0
       vertex -0.302972 0.0326315 0.1
    endloop
  endfacet
  facet normal -0.980784 0.195096 0
    outer loop
       vertex -0.302972 0.0326315 0.1
       vertex -0.296592 0.064705 0.1
       vertex -0.296592 0.064705 0
    endloop
  endfacet
  facet normal -0.997858 0.0654098 0
    outer loop
       vertex -0.305111 8.32665e-17 0.1
       vertex -0.302972 0.0326315 0.1
       vertex -0.302972 0.0326315 0
    endloop
  endfacet
  facet normal -0.997858 0.0654098 -1.08928e-16
    outer loop
       vertex -0.302972 0.0326315 0
       vertex -0.305111 -8.32665e-17 0
       vertex -0.305111 8.32665e-17 0.1
    endloop
  endfacet
  facet normal -0.997858 -0.0654098 0
    outer loop
       vertex -0.305111 -8.32665e-17 0
       vertex -0.302972 -0.0326315 0
       vertex -0.302972 -0.0326315 0.1
    endloop
  endfacet
  facet normal -0.997858 -0.0654098 1.08928e-16
    outer loop
       vertex -0.302972 -0.0326315 0.1
       vertex -0.305111 8.32665e-17 0.1
       vertex -0.305111 -8.32665e-17 0
    endloop
  endfacet
  facet normal -0.980784 -0.195096 0
    outer loop
       vertex -0.302972 -0.0326315 0
       vertex -0.296592 -0.064705 0
       vertex -0.296592 -0.064705 0.1
    endloop
  endfacet
  facet normal -0.980784 -0.195096 0
    outer loop
       vertex -0.296592 -0.064705 0.1
       vertex -0.302972 -0.0326315 0.1
       vertex -0.302972 -0.0326315 0
    endloop
  endfacet
  facet normal -0.946935 -0.321425 0
    outer loop
       vertex -0.296592 -0.064705 0
       vertex -0.286081 -0.095671 0
       vertex -0.286081 -0.095671 0.1
    endloop
  endfacet
  facet normal -0.946935 -0.321425 0
    outer loop
       vertex -0.286081 -0.095671 0.1
       vertex -0.296592 -0.064705 0.1
       vertex -0.296592 -0.064705 0
    endloop
  endfacet
  facet normal -0.896866 -0.442302 0
    outer loop
       vertex -0.286081 -0.095671 0
       vertex -0.271617 -0.125 0
       vertex -0.271617 -0.125 0.1
    endloop
  endfacet
  facet normal -0.896866 -0.442302 0
    outer loop
       vertex -0.271617 -0.125 0.1
       vertex -0.286081 -0.095671 0.1
       vertex -0.286081 -0.095671 0
    endloop
  endfacet
  facet normal -0.831476 -0.555561 0
    outer loop
       vertex -0.271617 -0.125 0
       vertex -0.253449 -0.152191 0
       vertex -0.253449 -0.152191 0.1
    endloop
  endfacet
  facet normal -0.831476 -0.555561 0
    outer loop
       vertex -0.253449 -0.152191 0.1
       vertex -0.271617 -0.125 0.1
       vertex -0.271617 -0.125 0
    endloop
  endfacet
  facet normal -0.751817 -0.659372 0
    outer loop
       vertex -0.253449 -0.152191 0
       vertex -0.231887 -0.176776 0
       vertex -0.231887 -0.176776 0.1
    endloop
  endfacet
  facet normal -0.751817 -0.659372 0
    outer loop
       vertex -0.231887 -0.176776 0.1
       vertex -0.253449 -0.152191 0.1
       vertex -0.253449 -0.152191 0
    endloop
  endfacet
  facet normal 0.659372 -0.751817 0
    outer loop
       vertex 0.121665 -0.176776 0
       vertex 0.121665 -0.176776 0.1
       vertex 0.0970798 -0.198338 0.1
    endloop
  endfacet
  facet normal 0.659372 -0.751817 0
    outer loop
       vertex 0.0970798 -0.198338 0.1
       vertex 0.0970798 -0.198338 0
       vertex 0.121665 -0.176776 0
    endloop
  endfacet
  facet normal 0.555561 -0.831476 0
    outer loop
       vertex 0.0970798 -0.198338 0
       vertex 0.0970798 -0.198338 0.1
       vertex 0.0698888 -0.216506 0.1
    endloop
  endfacet
  facet normal 0.555561 -0.831476 0
    outer loop
       vertex 0.0698888 -0.216506 0.1
       vertex 0.0698888 -0.216506 0
       vertex 0.0970798 -0.198338 0
    endloop
  endfacet
  facet normal 0.442302 -0.896866 0
    outer loop
       vertex 0.0698888 -0.216506 0
       vertex 0.0698888 -0.216506 0.1
       vertex 0.0405598 -0.23097 0.1
    endloop
  endfacet
  facet normal 0.442302 -0.896866 0
    outer loop
       vertex 0.0405598 -0.23097 0.1
       vertex 0.0405598 -0.23097 0
       vertex 0.0698888 -0.216506 0
    endloop
  endfacet
  facet normal 0.321425 -0.946935 0
    outer loop
       vertex 0.0405598 -0.23097 0
       vertex 0.0405598 -0.23097 0.1
       vertex 0.00959382 -0.241481 0.1
    endloop
  endfacet
  facet normal 0.321425 -0.946935 0
    outer loop
       vertex 0.00959382 -0.241481 0.1
       vertex 0.00959382 -0.241481 0
       vertex 0.0405598 -0.23097 0
    endloop
  endfacet
  facet normal 0.195096 -0.980784 0
    outer loop
       vertex 0.00959382 -0.241481 0
       vertex 0.00959382 -0.241481 0.1
       vertex -0.0224797 -0.247861 0.1
    endloop
  endfacet
  facet normal 0.195096 -0.980784 0
    outer loop
       vertex -0.0224797 -0.247861 0.1
       vertex -0.0224797 -0.247861 0
       vertex 0.00959382 -0.241481 0
    endloop
  endfacet
  facet normal 0.0654098 -0.997858 0
    outer loop
       vertex -0.0551112 -0.25 0
       vertex -0.0224797 -0.247861 0
       vertex -0.0224797 -0.247861 0.1
    endloop
  endfacet
  facet normal 0.0654098 -0.997858 1.08928e-16
    outer loop
       vertex -0.0224797 -0.247861 0.1
       vertex -0.0551112 -0.25 0.1
       vertex -0.0551112 -0.25 0
    endloop
  endfacet
  facet normal -0.0654098 -0.997858 0
    outer loop
       vertex -0.0551112 -0.25 0.1
       vertex -0.0877427 -0.247861 0.1
       vertex -0.0877427 -0.247861 0
    endloop
  endfacet
  facet normal -0.0654098 -0.997858 -1.08928e-16
    outer loop
       vertex -0.0877427 -0.247861 0
       vertex -0.0551112 -0.25 0
       vertex -0.0551112 -0.25 0.1
    endloop
  endfacet
  facet normal -0.195096 -0.980784 0
    outer loop
       vertex -0.0877427 -0.247861 0
       vertex -0.0877427 -0.247861 0.1
       vertex -0.119816 -0.241481 0.1
    endloop
  endfacet
  facet normal -0.195096 -0.980784 -0
    outer loop
       vertex -0.119816 -0.241481 0.1
       vertex -0.119816 -0.241481 0
       vertex -0.0877427 -0.247861 0
    endloop
  endfacet
  facet normal -0.321425 -0.946935 0
    outer loop
       vertex -0.119816 -0.241481 0
       vertex -0.119816 -0.241481 0.1
       vertex -0.150782 -0.23097 0.1
    endloop
  endfacet
  facet normal -0.321425 -0.946935 -0
    outer loop
       vertex -0.150782 -0.23097 0.1
       vertex -0.150782 -0.23097 0
       vertex -0.119816 -0.241481 0
    endloop
  endfacet
  facet normal -0.442302 -0.896866 0
    outer loop
       vertex -0.150782 -0.23097 0
       vertex -0.150782 -0.23097 0.1
       vertex -0.180111 -0.216506 0.1
    endloop
  endfacet
  facet normal -0.442302 -0.896866 -0
    outer loop
       vertex -0.180111 -0.216506 0.1
       vertex -0.180111 -0.216506 0
       vertex -0.150782 -0.23097 0
    endloop
  endfacet
  facet normal -0.555561 -0.831476 0
    outer loop
       vertex -0.180111 -0.216506 0
       vertex -0.180111 -0.216506 0.1
       vertex -0.207302 -0.198338 0.1
    endloop
  endfacet
  facet normal -0.555561 -0.831476 -0
    outer loop
       vertex -0.207302 -0.198338 0.1
       vertex -0.207302 -0.198338 0
       vertex -0.180111 -0.216506 0
    endloop
  endfacet
  facet normal -0.659372 -0.751817 0
    outer loop
       vertex -0.207302 -0.198338 0
       vertex -0.207302 -0.198338 0.1
       vertex -0.231887 -0.176776 0.1
    endloop
  endfacet
  facet normal -0.659372 -0.751817 -0
    outer loop
       vertex -0.231887 -0.176776 0.1
       vertex -0.231887 -0.176776 0
       vertex -0.207302 -0.198338 0
    endloop
  endfacet
endsolid cylinder
