solid cylinder
  facet normal 0.751817 -0.659372 0
    outer loop
       vertex 0.316966 -0.176776 0
       vertex 0.338528 -0.152191 0
       vertex 0.338528 -0.152191 0.1
    endloop
  endfacet
  facet normal 0.751817 -0.659372 0
    outer loop
       vertex 0.338528 -0.152191 0.1
       vertex 0.316966 -0.176776 0.1
       vertex 0.316966 -0.176776 0
    endloop
  endfacet
  facet normal 0.831476 -0.555561 0
    outer loop
       vertex 0.338528 -0.152191 0
       vertex 0.356696 -0.125 0
       vertex 0.356696 -0.125 0.1
    endloop
  endfacet
  facet normal 0.831476 -0.555561 0
    outer loop
       vertex 0.356696 -0.125 0.1
       vertex 0.338528 -0.152191 0.1
       vertex 0.338528 -0.152191 0
    endloop
  endfacet
  facet normal 0.896866 -0.442302 0
    outer loop
       vertex 0.356696 -0.125 0
       vertex 0.37116 -0.095671 0
       vertex 0.37116 -0.095671 0.1
    endloop
  endfacet
  facet normal 0.896866 -0.442302 0
    outer loop
       vertex 0.37116 -0.095671 0.1
       vertex 0.356696 -0.125 0.1
       vertex 0.356696 -0.125 0
    endloop
  endfacet
  facet normal 0.946935 -0.321425 0
    outer loop
       vertex 0.37116 -0.095671 0
       vertex 0.381671 -0.064705 0
       vertex 0.381671 -0.064705 0.1
    endloop
  endfacet
  facet normal 0.946935 -0.321425 0
    outer loop
       vertex 0.381671 -0.064705 0.1
       vertex 0.37116 -0.095671 0.1
       vertex 0.37116 -0.095671 0
    endloop
  endfacet
  facet normal 0.980784 -0.195096 0
    outer loop
       vertex 0.381671 -0.064705 0
       vertex 0.388051 -0.0326315 0
       vertex 0.388051 -0.0326315 0.1
    endloop
  endfacet
  facet normal 0.980784 -0.195096 0
    outer loop
       vertex 0.388051 -0.0326315 0.1
       vertex 0.381671 -0.064705 0.1
       vertex 0.381671 -0.064705 0
    endloop
  endfacet
  facet normal 0.997858 -0.0654098 0
    outer loop
       vertex 0.39019 -8.32665e-17 0.1
       vertex 0.388051 -0.0326315 0.1
       vertex 0.388051 -0.0326315 0
    endloop
  endfacet
  facet normal 0.997858 -0.0654098 -1.08928e-16
    outer loop
       vertex 0.388051 -0.0326315 0
       vertex 0.39019 8.32665e-17 0
       vertex 0.39019 -8.32665e-17 0.1
    endloop
  endfacet
  facet normal 0.997858 0.0654098 0
    outer loop
       vertex 0.39019 8.32665e-17 0
       vertex 0.388051 0.0326315 0
       vertex 0.388051 0.0326315 0.1
    endloop
  endfacet
  facet normal 0.997858 0.0654098 1.08928e-16
    outer loop
       vertex 0.388051 0.0326315 0.1
       vertex 0.39019 -8.32665e-17 0.1
       vertex 0.39019 8.32665e-17 0
    endloop
  endfacet
  facet normal 0.980784 0.195096 0
    outer loop
       vertex 0.388051 0.0326315 0
       vertex 0.381671 0.064705 0
       vertex 0.381671 0.064705 0.1
    endloop
  endfacet
  facet normal 0.980784 0.195096 0
    outer loop
       vertex 0.381671 0.064705 0.1
       vertex 0.388051 0.0326315 0.1
       vertex 0.388051 0.0326315 0
    endloop
  endfacet
  facet normal 0.946935 0.321425 0
    outer loop
       vertex 0.381671 0.064705 0
       vertex 0.37116 0.095671 0
       vertex 0.37116 0.095671 0.1
    endloop
  endfacet
  facet normal 0.946935 0.321425 0
    outer loop
       vertex 0.37116 0.095671 0.1
       vertex 0.381671 0.064705 0.1
       vertex 0.381671 0.064705 0
    endloop
  endfacet
  facet normal 0.896866 0.442302 0
    outer loop
       vertex 0.37116 0.095671 0
       vertex 0.356696 0.125 0
       vertex 0.356696 0.125 0.1
    endloop
  endfacet
  facet normal 0.896866 0.442302 0
    outer loop
       vertex 0.356696 0.125 0.1
       vertex 0.37116 0.095671 0.1
       vertex 0.37116 0.095671 0
    endloop
  endfacet
  facet normal 0.831476 0.555561 0
    outer loop
       vertex 0.356696 0.125 0
       vertex 0.338528 0.152191 0
       vertex 0.338528 0.152191 0.1
    endloop
  endfacet
  facet normal 0.831476 0.555561 0
    outer loop
       vertex 0.338528 0.152191 0.1
       vertex 0.356696 0.125 0.1
       vertex 0.356696 0.125 0
    endloop
  endfacet
  facet normal 0.751817 0.659372 0
    outer loop
       vertex 0.338528 0.152191 0
       vertex 0.316966 0.176776 0
       vertex 0.316966 0.176776 0.1
    endloop
  endfacet
  facet normal 0.751817 0.659372 0
    outer loop
       vertex 0.316966 0.176776 0.1
       vertex 0.338528 0.152191 0.1
       vertex 0.338528 0.152191 0
    endloop
  endfacet
  facet normal 0.659372 0.751817 0
    outer loop
       vertex 0.316966 0.176776 0
       vertex 0.292381 0.198338 0
       vertex 0.292381 0.198338 0.1
    endloop
  endfacet
  facet normal 0.659372 0.751817 0
    outer loop
       vertex 0.292381 0.198338 0.1
       vertex 0.316966 0.176776 0.1
       vertex 0.316966 0.176776 0
    endloop
  endfacet
  facet normal 0.555561 0.831476 0
    outer loop
       vertex 0.292381 0.198338 0
       vertex 0.26519 0.216506 0
       vertex 0.26519 0.216506 0.1
    endloop
  endfacet
  facet normal 0.555561 0.831476 0
    outer loop
       vertex 0.26519 0.216506 0.1
       vertex 0.292381 0.198338 0.1
       vertex 0.292381 0.198338 0
    endloop
  endfacet
  facet normal 0.442302 0.896866 0
    outer loop
       vertex 0.26519 0.216506 0
       vertex 0.235861 0.23097 0
       vertex 0.235861 0.23097 0.1
    endloop
  endfacet
  facet normal 0.442302 0.896866 0
    outer loop
       vertex 0.235861 0.23097 0.1
       vertex 0.26519 0.216506 0.1
       vertex 0.26519 0.216506 0
    endloop
  endfacet
  facet normal 0.321425 0.946935 0
    outer loop
       vertex 0.235861 0.23097 0
       vertex 0.204895 0.241481 0
       vertex 0.204895 0.241481 0.1
    endloop
  endfacet
  facet normal 0.321425 0.946935 0
    outer loop
       vertex 0.204895 0.241481 0.1
       vertex 0.235861 0.23097 0.1
       vertex 0.235861 0.23097 0
    endloop
  endfacet
  facet normal 0.195096 0.980784 0
    outer loop
       vertex 0.204895 0.241481 0
       vertex 0.172822 0.247861 0
       vertex 0.172822 0.247861 0.1
    endloop
  endfacet
  facet normal 0.195096 0.980784 0
    outer loop
       vertex 0.172822 0.247861 0.1
       vertex 0.204895 0.241481 0.1
       vertex 0.204895 0.241481 0
    endloop
  endfacet
  facet normal 0.0654098 0.997858 0
    outer loop
       vertex 0.14019 0.25 0.1
       vertex 0.172822 0.247861 0.1
       vertex 0.172822 0.247861 0
    endloop
  endfacet
  facet normal 0.0654098 0.997858 -1.0893e-16
    outer loop
       vertex 0.172822 0.247861 0
       vertex 0.14019 0.25 0
       vertex 0.14019 0.25 0.1
    endloop
  endfacet
  facet normal -0.0654098 0.997858 0
    outer loop
       vertex 0.14019 0.25 0
       vertex 0.107559 0.247861 0
       vertex 0.107559 0.247861 0.1
    endloop
  endfacet
  facet normal -0.0654098 0.997858 1.0893e-16
    outer loop
       vertex 0.107559 0.247861 0.1
       vertex 0.14019 0.25 0.1
       vertex 0.14019 0.25 0
    endloop
  endfacet
  facet normal -0.195096 0.980784 0
    outer loop
       vertex 0.107559 0.247861 0
       vertex 0.0754853 0.241481 0
       vertex 0.0754853 0.241481 0.1
    endloop
  endfacet
  facet normal -0.195096 0.980784 0
    outer loop
       vertex 0.0754853 0.241481 0.1
       vertex 0.107559 0.247861 0.1
       vertex 0.107559 0.247861 0
    endloop
  endfacet
  facet normal -0.321425 0.946935 0
    outer loop
       vertex 0.0754853 0.241481 0
       vertex 0.0445193 0.23097 0
       vertex 0.0445193 0.23097 0.1
    endloop
  endfacet
  facet normal -0.321425 0.946935 0
    outer loop
       vertex 0.0445193 0.23097 0.1
       vertex 0.0754853 0.241481 0.1
       vertex 0.0754853 0.241481 0
    endloop
  endfacet
  facet normal -0.442302 0.896866 0
    outer loop
       vertex 0.0445193 0.23097 0
       vertex 0.0151903 0.216506 0
       vertex 0.0151903 0.216506 0.1
    endloop
  endfacet
  facet normal -0.442302 0.896866 0
    outer loop
       vertex 0.0151903 0.216506 0.1
       vertex 0.0445193 0.23097 0.1
       vertex 0.0445193 0.23097 0
    endloop
  endfacet
  facet normal -0.555561 0.831476 0
    outer loop
       vertex 0.0151903 0.216506 0
       vertex -0.0120007 0.198338 0
       vertex -0.0120007 0.198338 0.1
    endloop
  endfacet
  facet normal -0.555561 0.831476 0
    outer loop
       vertex -0.0120007 0.198338 0.1
       vertex 0.0151903 0.216506 0.1
       vertex 0.0151903 0.216506 0
    endloop
  endfacet
  facet normal -0.659372 0.751817 0
    outer loop
       vertex -0.0120007 0.198338 0
       vertex -0.0365857 0.176776 0
       vertex -0.0365857 0.176776 0.1
    endloop
  endfacet
  facet normal -0.659372 0.751817 0
    outer loop
       vertex -0.0365857 0.176776 0.1
       vertex -0.0120007 0.198338 0.1
       vertex -0.0120007 0.198338 0
    endloop
  endfacet
  facet normal -0.751817 0.659372 0
    outer loop
       vertex -0.0365857 0.176776 0
       vertex -0.0581477 0.152191 0
       vertex -0.0581477 0.152191 0.1
    endloop
  endfacet
  facet normal -0.751817 0.659372 0
    outer loop
       vertex -0.0581477 0.152191 0.1
       vertex -0.0365857 0.176776 0.1
       vertex -0.0365857 0.176776 0
    endloop
  endfacet
  facet normal -0.831476 0.555561 0
    outer loop
       vertex -0.0581477 0.152191 0
       vertex -0.0763157 0.125 0
       vertex -0.0763157 0.125 0.1
    endloop
  endfacet
  facet normal -0.831476 0.555561 0
    outer loop
       vertex -0.0763157 0.125 0.1
       vertex -0.0581477 0.152191 0.1
       vertex -0.0581477 0.152191 0
    endloop
  endfacet
  facet normal -0.896866 0.442302 0
    outer loop
       vertex -0.0763157 0.125 0
       vertex -0.0907797 0.095671 0
       vertex -0.0907797 0.095671 0.1
    endloop
  endfacet
  facet normal -0.896866 0.442302 0
    outer loop
       vertex -0.0907797 0.095671 0.1
       vertex -0.0763157 0.125 0.1
       vertex -0.0763157 0.125 0
    endloop
  endfacet
  facet normal -0.946935 0.321425 0
    outer loop
       vertex -0.0907797 0.095671 0
       vertex -0.101291 0.064705 0
       vertex -0.101291 0.064705 0.1
    endloop
  endfacet
  facet normal -0.946935 0.321425 0
    outer loop
       vertex -0.101291 0.064705 0.1
       vertex -0.0907797 0.095671 0.1
       vertex -0.0907797 0.095671 0
    endloop
  endfacet
  facet normal -0.980784 0.195096 0
    outer loop
       vertex -0.101291 0.064705 0
       vertex -0.107671 0.0326315 0
       vertex -0.107671 0.0326315 0.1
    endloop
  endfacet
  facet normal -0.980784 0.195096 0
    outer loop
       vertex -0.107671 0.0326315 0.1
       vertex -0.101291 0.064705 0.1
       vertex -0.101291 0.064705 0
    endloop
  endfacet
  facet normal -0.997858 0.0654098 0
    outer loop
       vertex -0.10981 8.32665e-17 0.1
       vertex -0.107671 0.0326315 0.1
       vertex -0.107671 0.0326315 0
    endloop
  endfacet
  facet normal -0.997858 0.0654098 -1.08928e-16
    outer loop
       vertex -0.107671 0.0326315 0
       vertex -0.10981 -8.32665e-17 0
       vertex -0.10981 8.32665e-17 0.1
    endloop
  endfacet
  facet normal -0.997858 -0.0654098 0
    outer loop
       vertex -0.10981 -8.32665e-17 0
       vertex -0.107671 -0.0326315 0
       vertex -0.107671 -0.0326315 0.1
    endloop
  endfacet
  facet normal -0.997858 -0.0654098 1.08928e-16
    outer loop
       vertex -0.107671 -0.0326315 0.1
       vertex -0.10981 8.32665e-17 0.1
       vertex -0.10981 -8.32665e-17 0
    endloop
  endfacet
  facet normal -0.980784 -0.195096 0
    outer loop
       vertex -0.107671 -0.0326315 0
       vertex -0.101291 -0.064705 0
       vertex -0.101291 -0.064705 0.1
    endloop
  endfacet
  facet normal -0.980784 -0.195096 0
    outer loop
       vertex -0.101291 -0.064705 0.1
       vertex -0.107671 -0.0326315 0.1
       vertex -0.107671 -0.0326315 0
    endloop
  endfacet
  facet normal -0.946935 -0.321425 0
    outer loop
       vertex -0.101291 -0.064705 0
       vertex -0.0907797 -0.095671 0
       vertex -0.0907797 -0.095671 0.1
    endloop
  endfacet
  facet normal -0.946935 -0.321425 0
    outer loop
       vertex -0.0907797 -0.095671 0.1
       vertex -0.101291 -0.064705 0.1
       vertex -0.101291 -0.064705 0
    endloop
  endfacet
  facet normal -0.896866 -0.442302 0
    outer loop
       vertex -0.0907797 -0.095671 0
       vertex -0.0763157 -0.125 0
       vertex -0.0763157 -0.125 0.1
    endloop
  endfacet
  facet normal -0.896866 -0.442302 0
    outer loop
       vertex -0.0763157 -0.125 0.1
       vertex -0.0907797 -0.095671 0.1
       vertex -0.0907797 -0.095671 0
    endloop
  endfacet
  facet normal -0.831476 -0.555561 0
    outer loop
       vertex -0.0763157 -0.125 0
       vertex -0.0581477 -0.152191 0
       vertex -0.0581477 -0.152191 0.1
    endloop
  endfacet
  facet normal -0.831476 -0.555561 0
    outer loop
       vertex -0.0581477 -0.152191 0.1
       vertex -0.0763157 -0.125 0.1
       vertex -0.0763157 -0.125 0
    endloop
  endfacet
  facet normal -0.751817 -0.659372 0
    outer loop
       vertex -0.0581477 -0.152191 0
       vertex -0.0365857 -0.176776 0
       vertex -0.0365857 -0.176776 0.1
    endloop
  endfacet
  facet normal -0.751817 -0.659372 0
    outer loop
       vertex -0.0365857 -0.176776 0.1
       vertex -0.0581477 -0.152191 0.1
       vertex -0.0581477 -0.152191 0
    endloop
  endfacet
  facet normal 0.659372 -0.751817 0
    outer loop
       vertex 0.316966 -0.176776 0
       vertex 0.316966 -0.176776 0.1
       vertex 0.292381 -0.198338 0.1
    endloop
  endfacet
  facet normal 0.659372 -0.751817 0
    outer loop
       vertex 0.292381 -0.198338 0.1
       vertex 0.292381 -0.198338 0
       vertex 0.316966 -0.176776 0
    endloop
  endfacet
  facet normal 0.555561 -0.831476 0
    outer loop
       vertex 0.292381 -0.198338 0
       vertex 0.292381 -0.198338 0.1
       vertex 0.26519 -0.216506 0.1
    endloop
  endfacet
  facet normal 0.555561 -0.831476 0
    outer loop
       vertex 0.26519 -0.216506 0.1
       vertex 0.26519 -0.216506 0
       vertex 0.292381 -0.198338 0
    endloop
  endfacet
  facet normal 0.442302 -0.896866 0
    outer loop
       vertex 0.26519 -0.216506 0
       vertex 0.26519 -0.216506 0.1
       vertex 0.235861 -0.23097 0.1
    endloop
  endfacet
  facet normal 0.442302 -0.896866 0
    outer loop
       vertex 0.235861 -0.23097 0.1
       vertex 0.235861 -0.23097 0
       vertex 0.26519 -0.216506 0
    endloop
  endfacet
  facet normal 0.321425 -0.946935 0
    outer loop
       vertex 0.235861 -0.23097 0
       vertex 0.235861 -0.23097 0.1
       vertex 0.204895 -0.241481 0.1
    endloop
  endfacet
  facet normal 0.321425 -0.946935 0
    outer loop
       vertex 0.204895 -0.241481 0.1
       vertex 0.204895 -0.241481 0
       vertex 0.235861 -0.23097 0
    endloop
  endfacet
  facet normal 0.195096 -0.980784 0
    outer loop
       vertex 0.204895 -0.241481 0
       vertex 0.204895 -0.241481 0.1
       vertex 0.172822 -0.247861 0.1
    endloop
  endfacet
  facet normal 0.195096 -0.980784 0
    outer loop
       vertex 0.172822 -0.247861 0.1
       vertex 0.172822 -0.247861 0
       vertex 0.204895 -0.241481 0
    endloop
  endfacet
  facet normal 0.0654098 -0.997858 0
    outer loop
       vertex 0.14019 -0.25 0
       vertex 0.172822 -0.247861 0
       vertex 0.172822 -0.247861 0.1
    endloop
  endfacet
  facet normal 0.0654098 -0.997858 1.0893e-16
    outer loop
       vertex 0.172822 -0.247861 0.1
       vertex 0.14019 -0.25 0.1
       vertex 0.14019 -0.25 0
    endloop
  endfacet
  facet normal -0.0654098 -0.997858 0
    outer loop
       vertex 0.14019 -0.25 0.1
       vertex 0.107559 -0.247861 0.1
       vertex 0.107559 -0.247861 0
    endloop
  endfacet
  facet normal -0.0654098 -0.997858 -1.0893e-16
    outer loop
       vertex 0.107559 -0.247861 0
       vertex 0.14019 -0.25 0
       vertex 0.14019 -0.25 0.1
    endloop
  endfacet
  facet normal -0.195096 -0.980784 0
    outer loop
       vertex 0.107559 -0.247861 0
       vertex 0.107559 -0.247861 0.1
       vertex 0.0754853 -0.241481 0.1
    endloop
  endfacet
  facet normal -0.195096 -0.980784 -0
    outer loop
       vertex 0.0754853 -0.241481 0.1
       vertex 0.0754853 -0.241481 0
       vertex 0.107559 -0.247861 0
    endloop
  endfacet
  facet normal -0.321425 -0.946935 0
    outer loop
       vertex 0.0754853 -0.241481 0
       vertex 0.0754853 -0.241481 0.1
       vertex 0.0445193 -0.23097 0.1
    endloop
  endfacet
  facet normal -0.321425 -0.946935 -0
    outer loop
       vertex 0.0445193 -0.23097 0.1
       vertex 0.0445193 -0.23097 0
       vertex 0.0754853 -0.241481 0
    endloop
  endfacet
  facet normal -0.442302 -0.896866 0
    outer loop
       vertex 0.0445193 -0.23097 0
       vertex 0.0445193 -0.23097 0.1
       vertex 0.0151903 -0.216506 0.1
    endloop
  endfacet
  facet normal -0.442302 -0.896866 -0
    outer loop
       vertex 0.0151903 -0.216506 0.1
       vertex 0.0151903 -0.216506 0
       vertex 0.0445193 -0.23097 0
    endloop
  endfacet
  facet normal -0.555561 -0.831476 0
    outer loop
       vertex 0.0151903 -0.216506 0
       vertex 0.0151903 -0.216506 0.1
       vertex -0.0120007 -0.198338 0.1
    endloop
  endfacet
  facet normal -0.555561 -0.831476 -0
    outer loop
       vertex -0.0120007 -0.198338 0.1
       vertex -0.0120007 -0.198338 0
       vertex 0.0151903 -0.216506 0
    endloop
  endfacet
  facet normal -0.659372 -0.751817 0
    outer loop
       vertex -0.0120007 -0.198338 0
       vertex -0.0120007 -0.198338 0.1
       vertex -0.0365857 -0.176776 0.1
    endloop
  endfacet
  facet normal -0.659372 -0.751817 -0
    outer loop
       vertex -0.0365857 -0.176776 0.1
       vertex -0.0365857 -0.176776 0
       vertex -0.0120007 -0.198338 0
    endloop
  endfacet
endsolid cylinder
