solid cylinder
  facet normal 0.751817 -0.659372 0
    outer loop
       vertex 0.238522 -0.176776 0
       vertex 0.260084 -0.152191 0
       vertex 0.260084 -0.152191 0.1
    endloop
  endfacet
  facet normal 0.751817 -0.659372 0
    outer loop
       vertex 0.260084 -0.152191 0.1
       vertex 0.238522 -0.176776 0.1
       vertex 0.238522 -0.176776 0
    endloop
  endfacet
  facet normal 0.831476 -0.555561 0
    outer loop
       vertex 0.260084 -0.152191 0
       vertex 0.278252 -0.125 0
       vertex 0.278252 -0.125 0.1
    endloop
  endfacet
  facet normal 0.831476 -0.555561 0
    outer loop
       vertex 0.278252 -0.125 0.1
       vertex 0.260084 -0.152191 0.1
       vertex 0.260084 -0.152191 0
    endloop
  endfacet
  facet normal 0.896866 -0.442302 0
    outer loop
       vertex 0.278252 -0.125 0
       vertex 0.292716 -0.095671 0
       vertex 0.292716 -0.095671 0.1
    endloop
  endfacet
  facet normal 0.896866 -0.442302 0
    outer loop
       vertex 0.292716 -0.095671 0.1
       vertex 0.278252 -0.125 0.1
       vertex 0.278252 -0.125 0
    endloop
  endfacet
  facet normal 0.946935 -0.321425 0
    outer loop
       vertex 0.292716 -0.095671 0
       vertex 0.303227 -0.064705 0
       vertex 0.303227 -0.064705 0.1
    endloop
  endfacet
  facet normal 0.946935 -0.321425 0
    outer loop
       vertex 0.303227 -0.064705 0.1
       vertex 0.292716 -0.095671 0.1
       vertex 0.292716 -0.095671 0
    endloop
  endfacet
  facet normal 0.980784 -0.195096 0
    outer loop
       vertex 0.303227 -0.064705 0
       vertex 0.309607 -0.0326315 0
       vertex 0.309607 -0.0326315 0.1
    endloop
  endfacet
  facet normal 0.980784 -0.195096 0
    outer loop
       vertex 0.309607 -0.0326315 0.1
       vertex 0.303227 -0.064705 0.1
       vertex 0.303227 -0.064705 0
    endloop
  endfacet
  facet normal 0.997858 -0.0654098 0
    outer loop
       vertex 0.311746 -8.32665e-17 0.1
       vertex 0.309607 -0.0326315 0.1
       vertex 0.309607 -0.0326315 0
    endloop
  endfacet
  facet normal 0.997858 -0.0654098 -1.08928e-16
    outer loop
       vertex 0.309607 -0.0326315 0
       vertex 0.311746 8.32665e-17 0
       vertex 0.311746 -8.32665e-17 0.1
    endloop
  endfacet
  facet normal 0.997858 0.0654098 0
    outer loop
       vertex 0.311746 8.32665e-17 0
       vertex 0.309607 0.0326315 0
       vertex 0.309607 0.0326315 0.1
    endloop
  endfacet
  facet normal 0.997858 0.0654098 1.08928e-16
    outer loop
       vertex 0.309607 0.0326315 0.1
       vertex 0.311746 -8.32665e-17 0.1
       vertex 0.311746 8.32665e-17 0
    endloop
  endfacet
  facet normal 0.980784 0.195096 0
    outer loop
       vertex 0.309607 0.0326315 0
       vertex 0.303227 0.064705 0
       vertex 0.303227 0.064705 0.1
    endloop
  endfacet
  facet normal 0.980784 0.195096 0
    outer loop
       vertex 0.303227 0.064705 0.1
       vertex 0.309607 0.0326315 0.1
       vertex 0.309607 0.0326315 0
    endloop
  endfacet
  facet normal 0.946935 0.321425 0
    outer loop
       vertex 0.303227 0.064705 0
       vertex 0.292716 0.095671 0
       vertex 0.292716 0.095671 0.1
    endloop
  endfacet
  facet normal 0.946935 0.321425 0
    outer loop
       vertex 0.292716 0.095671 0.1
       vertex 0.303227 0.064705 0.1
       vertex 0.303227 0.064705 0
    endloop
  endfacet
  facet normal 0.896866 0.442302 0
    outer loop
       vertex 0.292716 0.095671 0
       vertex 0.278252 0.125 0
       vertex 0.278252 0.125 0.1
    endloop
  endfacet
  facet normal 0.896866 0.442302 0
    outer loop
       vertex 0.278252 0.125 0.1
       vertex 0.292716 0.095671 0.1
       vertex 0.292716 0.095671 0
    endloop
  endfacet
  facet normal 0.831476 0.555561 0
    outer loop
       vertex 0.278252 0.125 0
       vertex 0.260084 0.152191 0
       vertex 0.260084 0.152191 0.1
    endloop
  endfacet
  facet normal 0.831476 0.555561 0
    outer loop
       vertex 0.260084 0.152191 0.1
       vertex 0.278252 0.125 0.1
       vertex 0.278252 0.125 0
    endloop
  endfacet
  facet normal 0.751817 0.659372 0
    outer loop
       vertex 0.260084 0.152191 0
       vertex 0.238522 0.176776 0
       vertex 0.238522 0.176776 0.1
    endloop
  endfacet
  facet normal 0.751817 0.659372 0
    outer loop
       vertex 0.238522 0.176776 0.1
       vertex 0.260084 0.152191 0.1
       vertex 0.260084 0.152191 0
    endloop
  endfacet
  facet normal 0.659372 0.751817 0
    outer loop
       vertex 0.238522 0.176776 0
       vertex 0.213937 0.198338 0
       vertex 0.213937 0.198338 0.1
    endloop
  endfacet
  facet normal 0.659372 0.751817 0
    outer loop
       vertex 0.213937 0.198338 0.1
       vertex 0.238522 0.176776 0.1
       vertex 0.238522 0.176776 0
    endloop
  endfacet
  facet normal 0.555561 0.831476 0
    outer loop
       vertex 0.213937 0.198338 0
       vertex 0.186746 0.216506 0
       vertex 0.186746 0.216506 0.1
    endloop
  endfacet
  facet normal 0.555561 0.831476 0
    outer loop
       vertex 0.186746 0.216506 0.1
       vertex 0.213937 0.198338 0.1
       vertex 0.213937 0.198338 0
    endloop
  endfacet
  facet normal 0.442302 0.896866 0
    outer loop
       vertex 0.186746 0.216506 0
       vertex 0.157417 0.23097 0
       vertex 0.157417 0.23097 0.1
    endloop
  endfacet
  facet normal 0.442302 0.896866 0
    outer loop
       vertex 0.157417 0.23097 0.1
       vertex 0.186746 0.216506 0.1
       vertex 0.186746 0.216506 0
    endloop
  endfacet
  facet normal 0.321425 0.946935 0
    outer loop
       vertex 0.157417 0.23097 0
       vertex 0.126451 0.241481 0
       vertex 0.126451 0.241481 0.1
    endloop
  endfacet
  facet normal 0.321425 0.946935 0
    outer loop
       vertex 0.126451 0.241481 0.1
       vertex 0.157417 0.23097 0.1
       vertex 0.157417 0.23097 0
    endloop
  endfacet
  facet normal 0.195096 0.980784 0
    outer loop
       vertex 0.126451 0.241481 0
       vertex 0.0943772 0.247861 0
       vertex 0.0943772 0.247861 0.1
    endloop
  endfacet
  facet normal 0.195096 0.980784 0
    outer loop
       vertex 0.0943772 0.247861 0.1
       vertex 0.126451 0.241481 0.1
       vertex 0.126451 0.241481 0
    endloop
  endfacet
  facet normal 0.0654098 0.997858 0
    outer loop
       vertex 0.0617457 0.25 0.1
       vertex 0.0943772 0.247861 0.1
       vertex 0.0943772 0.247861 0
    endloop
  endfacet
  facet normal 0.0654098 0.997858 -1.08928e-16
    outer loop
       vertex 0.0943772 0.247861 0
       vertex 0.0617457 0.25 0
       vertex 0.0617457 0.25 0.1
    endloop
  endfacet
  facet normal -0.0654098 0.997858 0
    outer loop
       vertex 0.0617457 0.25 0
       vertex 0.0291142 0.247861 0
       vertex 0.0291142 0.247861 0.1
    endloop
  endfacet
  facet normal -0.0654098 0.997858 1.08928e-16
    outer loop
       vertex 0.0291142 0.247861 0.1
       vertex 0.0617457 0.25 0.1
       vertex 0.0617457 0.25 0
    endloop
  endfacet
  facet normal -0.195096 0.980784 0
    outer loop
       vertex 0.0291142 0.247861 0
       vertex -0.00295934 0.241481 0
       vertex -0.00295934 0.241481 0.1
    endloop
  endfacet
  facet normal -0.195096 0.980784 0
    outer loop
       vertex -0.00295934 0.241481 0.1
       vertex 0.0291142 0.247861 0.1
       vertex 0.0291142 0.247861 0
    endloop
  endfacet
  facet normal -0.321425 0.946935 0
    outer loop
       vertex -0.00295934 0.241481 0
       vertex -0.0339253 0.23097 0
       vertex -0.0339253 0.23097 0.1
    endloop
  endfacet
  facet normal -0.321425 0.946935 0
    outer loop
       vertex -0.0339253 0.23097 0.1
       vertex -0.00295934 0.241481 0.1
       vertex -0.00295934 0.241481 0
    endloop
  endfacet
  facet normal -0.442302 0.896866 0
    outer loop
       vertex -0.0339253 0.23097 0
       vertex -0.0632543 0.216506 0
       vertex -0.0632543 0.216506 0.1
    endloop
  endfacet
  facet normal -0.442302 0.896866 0
    outer loop
       vertex -0.0632543 0.216506 0.1
       vertex -0.0339253 0.23097 0.1
       vertex -0.0339253 0.23097 0
    endloop
  endfacet
  facet normal -0.555561 0.831476 0
    outer loop
       vertex -0.0632543 0.216506 0
       vertex -0.0904453 0.198338 0
       vertex -0.0904453 0.198338 0.1
    endloop
  endfacet
  facet normal -0.555561 0.831476 0
    outer loop
       vertex -0.0904453 0.198338 0.1
       vertex -0.0632543 0.216506 0.1
       vertex -0.0632543 0.216506 0
    endloop
  endfacet
  facet normal -0.659372 0.751817 0
    outer loop
       vertex -0.0904453 0.198338 0
       vertex -0.11503 0.176776 0
       vertex -0.11503 0.176776 0.1
    endloop
  endfacet
  facet normal -0.659372 0.751817 0
    outer loop
       vertex -0.11503 0.176776 0.1
       vertex -0.0904453 0.198338 0.1
       vertex -0.0904453 0.198338 0
    endloop
  endfacet
  facet normal -0.751817 0.659372 0
    outer loop
       vertex -0.11503 0.176776 0
       vertex -0.136592 0.152191 0
       vertex -0.136592 0.152191 0.1
    endloop
  endfacet
  facet normal -0.751817 0.659372 0
    outer loop
       vertex -0.136592 0.152191 0.1
       vertex -0.11503 0.176776 0.1
       vertex -0.11503 0.176776 0
    endloop
  endfacet
  facet normal -0.831476 0.555561 0
    outer loop
       vertex -0.136592 0.152191 0
       vertex -0.15476 0.125 0
       vertex -0.15476 0.125 0.1
    endloop
  endfacet
  facet normal -0.831476 0.555561 0
    outer loop
       vertex -0.15476 0.125 0.1
       vertex -0.136592 0.152191 0.1
       vertex -0.136592 0.152191 0
    endloop
  endfacet
  facet normal -0.896866 0.442302 0
    outer loop
       vertex -0.15476 0.125 0
       vertex -0.169224 0.095671 0
       vertex -0.169224 0.095671 0.1
    endloop
  endfacet
  facet normal -0.896866 0.442302 0
    outer loop
       vertex -0.169224 0.095671 0.1
       vertex -0.15476 0.125 0.1
       vertex -0.15476 0.125 0
    endloop
  endfacet
  facet normal -0.946935 0.321425 0
    outer loop
       vertex -0.169224 0.095671 0
       vertex -0.179735 0.064705 0
       vertex -0.179735 0.064705 0.1
    endloop
  endfacet
  facet normal -0.946935 0.321425 0
    outer loop
       vertex -0.179735 0.064705 0.1
       vertex -0.169224 0.095671 0.1
       vertex -0.169224 0.095671 0
    endloop
  endfacet
  facet normal -0.980784 0.195096 0
    outer loop
       vertex -0.179735 0.064705 0
       vertex -0.186115 0.0326315 0
       vertex -0.186115 0.0326315 0.1
    endloop
  endfacet
  facet normal -0.980784 0.195096 0
    outer loop
       vertex -0.186115 0.0326315 0.1
       vertex -0.179735 0.064705 0.1
       vertex -0.179735 0.064705 0
    endloop
  endfacet
  facet normal -0.997858 0.0654098 0
    outer loop
       vertex -0.188254 8.32665e-17 0.1
       vertex -0.186115 0.0326315 0.1
       vertex -0.186115 0.0326315 0
    endloop
  endfacet
  facet normal -0.997858 0.0654098 -1.08928e-16
    outer loop
       vertex -0.186115 0.0326315 0
       vertex -0.188254 -8.32665e-17 0
       vertex -0.188254 8.32665e-17 0.1
    endloop
  endfacet
  facet normal -0.997858 -0.0654098 0
    outer loop
       vertex -0.188254 -8.32665e-17 0
       vertex -0.186115 -0.0326315 0
       vertex -0.186115 -0.0326315 0.1
    endloop
  endfacet
  facet normal -0.997858 -0.0654098 1.08928e-16
    outer loop
       vertex -0.186115 -0.0326315 0.1
       vertex -0.188254 8.32665e-17 0.1
       vertex -0.188254 -8.32665e-17 0
    endloop
  endfacet
  facet normal -0.980784 -0.195096 0
    outer loop
       vertex -0.186115 -0.0326315 0
       vertex -0.179735 -0.064705 0
       vertex -0.179735 -0.064705 0.1
    endloop
  endfacet
  facet normal -0.980784 -0.195096 0
    outer loop
       vertex -0.179735 -0.064705 0.1
       vertex -0.186115 -0.0326315 0.1
       vertex -0.186115 -0.0326315 0
    endloop
  endfacet
  facet normal -0.946935 -0.321425 0
    outer loop
       vertex -0.179735 -0.064705 0
       vertex -0.169224 -0.095671 0
       vertex -0.169224 -0.095671 0.1
    endloop
  endfacet
  facet normal -0.946935 -0.321425 0
    outer loop
       vertex -0.169224 -0.095671 0.1
       vertex -0.179735 -0.064705 0.1
       vertex -0.179735 -0.064705 0
    endloop
  endfacet
  facet normal -0.896866 -0.442302 0
    outer loop
       vertex -0.169224 -0.095671 0
       vertex -0.15476 -0.125 0
       vertex -0.15476 -0.125 0.1
    endloop
  endfacet
  facet normal -0.896866 -0.442302 0
    outer loop
       vertex -0.15476 -0.125 0.1
       vertex -0.169224 -0.095671 0.1
       vertex -0.169224 -0.095671 0
    endloop
  endfacet
  facet normal -0.831476 -0.555561 0
    outer loop
       vertex -0.15476 -0.125 0
       vertex -0.136592 -0.152191 0
       vertex -0.136592 -0.152191 0.1
    endloop
  endfacet
  facet normal -0.831476 -0.555561 0
    outer loop
       vertex -0.136592 -0.152191 0.1
       vertex -0.15476 -0.125 0.1
       vertex -0.15476 -0.125 0
    endloop
  endfacet
  facet normal -0.751817 -0.659372 0
    outer loop
       vertex -0.136592 -0.152191 0
       vertex -0.11503 -0.176776 0
       vertex -0.11503 -0.176776 0.1
    endloop
  endfacet
  facet normal -0.751817 -0.659372 0
    outer loop
       vertex -0.11503 -0.176776 0.1
       vertex -0.136592 -0.152191 0.1
       vertex -0.136592 -0.152191 0
    endloop
  endfacet
  facet normal 0.659372 -0.751817 0
    outer loop
       vertex 0.238522 -0.176776 0
       vertex 0.238522 -0.176776 0.1
       vertex 0.213937 -0.198338 0.1
    endloop
  endfacet
  facet normal 0.659372 -0.751817 0
    outer loop
       vertex 0.213937 -0.198338 0.1
       vertex 0.213937 -0.198338 0
       vertex 0.238522 -0.176776 0
    endloop
  endfacet
  facet normal 0.555561 -0.831476 0
    outer loop
       vertex 0.213937 -0.198338 0
       vertex 0.213937 -0.198338 0.1
       vertex 0.186746 -0.216506 0.1
    endloop
  endfacet
  facet normal 0.555561 -0.831476 0
    outer loop
       vertex 0.186746 -0.216506 0.1
       vertex 0.186746 -0.216506 0
       vertex 0.213937 -0.198338 0
    endloop
  endfacet
  facet normal 0.442302 -0.896866 0
    outer loop
       vertex 0.186746 -0.216506 0
       vertex 0.186746 -0.216506 0.1
       vertex 0.157417 -0.23097 0.1
    endloop
  endfacet
  facet normal 0.442302 -0.896866 0
    outer loop
       vertex 0.157417 -0.23097 0.1
       vertex 0.157417 -0.23097 0
       vertex 0.186746 -0.216506 0
    endloop
  endfacet
  facet normal 0.321425 -0.946935 0
    outer loop
       vertex 0.157417 -0.23097 0
       vertex 0.157417 -0.23097 0.1
       vertex 0.126451 -0.241481 0.1
    endloop
  endfacet
  facet normal 0.321425 -0.946935 0
    outer loop
       vertex 0.126451 -0.241481 0.1
       vertex 0.126451 -0.241481 0
       vertex 0.157417 -0.23097 0
    endloop
  endfacet
  facet normal 0.195096 -0.980784 0
    outer loop
       vertex 0.126451 -0.241481 0
       vertex 0.126451 -0.241481 0.1
       vertex 0.0943772 -0.247861 0.1
    endloop
  endfacet
  facet normal 0.195096 -0.980784 0
    outer loop
       vertex 0.0943772 -0.247861 0.1
       vertex 0.0943772 -0.247861 0
       vertex 0.126451 -0.241481 0
    endloop
  endfacet
  facet normal 0.0654098 -0.997858 0
    outer loop
       vertex 0.0617457 -0.25 0
       vertex 0.0943772 -0.247861 0
       vertex 0.0943772 -0.247861 0.1
    endloop
  endfacet
  facet normal 0.0654098 -0.997858 1.08928e-16
    outer loop
       vertex 0.0943772 -0.247861 0.1
       vertex 0.0617457 -0.25 0.1
       vertex 0.0617457 -0.25 0
    endloop
  endfacet
  facet normal -0.0654098 -0.997858 0
    outer loop
       vertex 0.0617457 -0.25 0.1
       vertex 0.0291142 -0.247861 0.1
       vertex 0.0291142 -0.247861 0
    endloop
  endfacet
  facet normal -0.0654098 -0.997858 -1.08928e-16
    outer loop
       vertex 0.0291142 -0.247861 0
       vertex 0.0617457 -0.25 0
       vertex 0.0617457 -0.25 0.1
    endloop
  endfacet
  facet normal -0.195096 -0.980784 0
    outer loop
       vertex 0.0291142 -0.247861 0
       vertex 0.0291142 -0.247861 0.1
       vertex -0.00295934 -0.241481 0.1
    endloop
  endfacet
  facet normal -0.195096 -0.980784 -0
    outer loop
       vertex -0.00295934 -0.241481 0.1
       vertex -0.00295934 -0.241481 0
       vertex 0.0291142 -0.247861 0
    endloop
  endfacet
  facet normal -0.321425 -0.946935 0
    outer loop
       vertex -0.00295934 -0.241481 0
       vertex -0.00295934 -0.241481 0.1
       vertex -0.0339253 -0.23097 0.1
    endloop
  endfacet
  facet normal -0.321425 -0.946935 -0
    outer loop
       vertex -0.0339253 -0.23097 0.1
       vertex -0.0339253 -0.23097 0
       vertex -0.00295934 -0.241481 0
    endloop
  endfacet
  facet normal -0.442302 -0.896866 0
    outer loop
       vertex -0.0339253 -0.23097 0
       vertex -0.0339253 -0.23097 0.1
       vertex -0.0632543 -0.216506 0.1
    endloop
  endfacet
  facet normal -0.442302 -0.896866 -0
    outer loop
       vertex -0.0632543 -0.216506 0.1
       vertex -0.0632543 -0.216506 0
       vertex -0.0339253 -0.23097 0
    endloop
  endfacet
  facet normal -0.555561 -0.831476 0
    outer loop
       vertex -0.0632543 -0.216506 0
       vertex -0.0632543 -0.216506 0.1
       vertex -0.0904453 -0.198338 0.1
    endloop
  endfacet
  facet normal -0.555561 -0.831476 -0
    outer loop
       vertex -0.0904453 -0.198338 0.1
       vertex -0.0904453 -0.198338 0
       vertex -0.0632543 -0.216506 0
    endloop
  endfacet
  facet normal -0.659372 -0.751817 0
    outer loop
       vertex -0.0904453 -0.198338 0
       vertex -0.0904453 -0.198338 0.1
       vertex -0.11503 -0.176776 0.1
    endloop
  endfacet
  facet normal -0.659372 -0.751817 -0
    outer loop
       vertex -0.11503 -0.176776 0.1
       vertex -0.11503 -0.176776 0
       vertex -0.0904453 -0.198338 0
    endloop
  endfacet
endsolid cylinder
