solid cylinder
  facet normal 0.751817 -0.659372 0
    outer loop
       vertex -0.110801 -0.176776 0
       vertex -0.089239 -0.152191 0
       vertex -0.089239 -0.152191 0.1
    endloop
  endfacet
  facet normal 0.751817 -0.659372 0
    outer loop
       vertex -0.089239 -0.152191 0.1
       vertex -0.110801 -0.176776 0.1
       vertex -0.110801 -0.176776 0
    endloop
  endfacet
  facet normal 0.831476 -0.555561 0
    outer loop
       vertex -0.089239 -0.152191 0
       vertex -0.071071 -0.125 0
       vertex -0.071071 -0.125 0.1
    endloop
  endfacet
  facet normal 0.831476 -0.555561 0
    outer loop
       vertex -0.071071 -0.125 0.1
       vertex -0.089239 -0.152191 0.1
       vertex -0.089239 -0.152191 0
    endloop
  endfacet
  facet normal 0.896866 -0.442302 0
    outer loop
       vertex -0.071071 -0.125 0
       vertex -0.056607 -0.095671 0
       vertex -0.056607 -0.095671 0.1
    endloop
  endfacet
  facet normal 0.896866 -0.442302 0
    outer loop
       vertex -0.056607 -0.095671 0.1
       vertex -0.071071 -0.125 0.1
       vertex -0.071071 -0.125 0
    endloop
  endfacet
  facet normal 0.946935 -0.321425 0
    outer loop
       vertex -0.056607 -0.095671 0
       vertex -0.046096 -0.064705 0
       vertex -0.046096 -0.064705 0.1
    endloop
  endfacet
  facet normal 0.946935 -0.321425 0
    outer loop
       vertex -0.046096 -0.064705 0.1
       vertex -0.056607 -0.095671 0.1
       vertex -0.056607 -0.095671 0
    endloop
  endfacet
  facet normal 0.980784 -0.195096 0
    outer loop
       vertex -0.046096 -0.064705 0
       vertex -0.039716 -0.0326315 0
       vertex -0.039716 -0.0326315 0.1
    endloop
  endfacet
  facet normal 0.980784 -0.195096 0
    outer loop
       vertex -0.039716 -0.0326315 0.1
       vertex -0.046096 -0.064705 0.1
       vertex -0.046096 -0.064705 0
    endloop
  endfacet
  facet normal 0.997858 -0.0654098 0
    outer loop
       vertex -0.037577 -8.32665e-17 0.1
       vertex -0.039716 -0.0326315 0.1
       vertex -0.039716 -0.0326315 0
    endloop
  endfacet
  facet normal 0.997858 -0.0654098 -1.08928e-16
    outer loop
       vertex -0.039716 -0.0326315 0
       vertex -0.037577 8.32665e-17 0
       vertex -0.037577 -8.32665e-17 0.1
    endloop
  endfacet
  facet normal 0.997858 0.0654098 0
    outer loop
       vertex -0.037577 8.32665e-17 0
       vertex -0.039716 0.0326315 0
       vertex -0.039716 0.0326315 0.1
    endloop
  endfacet
  facet normal 0.997858 0.0654098 1.08928e-16
    outer loop
       vertex -0.039716 0.0326315 0.1
       vertex -0.037577 -8.32665e-17 0.1
       vertex -0.037577 8.32665e-17 0
    endloop
  endfacet
  facet normal 0.980784 0.195096 0
    outer loop
       vertex -0.039716 0.0326315 0
       vertex -0.046096 0.064705 0
       vertex -0.046096 0.064705 0.1
    endloop
  endfacet
  facet normal 0.980784 0.195096 0
    outer loop
       vertex -0.046096 0.064705 0.1
       vertex -0.039716 0.0326315 0.1
       vertex -0.039716 0.0326315 0
    endloop
  endfacet
  facet normal 0.946935 0.321425 0
    outer loop
       vertex -0.046096 0.064705 0
       vertex -0.056607 0.095671 0
       vertex -0.056607 0.095671 0.1
    endloop
  endfacet
  facet normal 0.946935 0.321425 0
    outer loop
       vertex -0.056607 0.095671 0.1
       vertex -0.046096 0.064705 0.1
       vertex -0.046096 0.064705 0
    endloop
  endfacet
  facet normal 0.896866 0.442302 0
    outer loop
       vertex -0.056607 0.095671 0
       vertex -0.071071 0.125 0
       vertex -0.071071 0.125 0.1
    endloop
  endfacet
  facet normal 0.896866 0.442302 0
    outer loop
       vertex -0.071071 0.125 0.1
       vertex -0.056607 0.095671 0.1
       vertex -0.056607 0.095671 0
    endloop
  endfacet
  facet normal 0.831476 0.555561 0
    outer loop
       vertex -0.071071 0.125 0
       vertex -0.089239 0.152191 0
       vertex -0.089239 0.152191 0.1
    endloop
  endfacet
  facet normal 0.831476 0.555561 0
    outer loop
       vertex -0.089239 0.152191 0.1
       vertex -0.071071 0.125 0.1
       vertex -0.071071 0.125 0
    endloop
  endfacet
  facet normal 0.751817 0.659372 0
    outer loop
       vertex -0.089239 0.152191 0
       vertex -0.110801 0.176776 0
       vertex -0.110801 0.176776 0.1
    endloop
  endfacet
  facet normal 0.751817 0.659372 0
    outer loop
       vertex -0.110801 0.176776 0.1
       vertex -0.089239 0.152191 0.1
       vertex -0.089239 0.152191 0
    endloop
  endfacet
  facet normal 0.659372 0.751817 0
    outer loop
       vertex -0.110801 0.176776 0
       vertex -0.135386 0.198338 0
       vertex -0.135386 0.198338 0.1
    endloop
  endfacet
  facet normal 0.659372 0.751817 0
    outer loop
       vertex -0.135386 0.198338 0.1
       vertex -0.110801 0.176776 0.1
       vertex -0.110801 0.176776 0
    endloop
  endfacet
  facet normal 0.555561 0.831476 0
    outer loop
       vertex -0.135386 0.198338 0
       vertex -0.162577 0.216506 0
       vertex -0.162577 0.216506 0.1
    endloop
  endfacet
  facet normal 0.555561 0.831476 0
    outer loop
       vertex -0.162577 0.216506 0.1
       vertex -0.135386 0.198338 0.1
       vertex -0.135386 0.198338 0
    endloop
  endfacet
  facet normal 0.442302 0.896866 0
    outer loop
       vertex -0.162577 0.216506 0
       vertex -0.191906 0.23097 0
       vertex -0.191906 0.23097 0.1
    endloop
  endfacet
  facet normal 0.442302 0.896866 0
    outer loop
       vertex -0.191906 0.23097 0.1
       vertex -0.162577 0.216506 0.1
       vertex -0.162577 0.216506 0
    endloop
  endfacet
  facet normal 0.321425 0.946935 0
    outer loop
       vertex -0.191906 0.23097 0
       vertex -0.222872 0.241481 0
       vertex -0.222872 0.241481 0.1
    endloop
  endfacet
  facet normal 0.321425 0.946935 0
    outer loop
       vertex -0.222872 0.241481 0.1
       vertex -0.191906 0.23097 0.1
       vertex -0.191906 0.23097 0
    endloop
  endfacet
  facet normal 0.195096 0.980784 0
    outer loop
       vertex -0.222872 0.241481 0
       vertex -0.254946 0.247861 0
       vertex -0.254946 0.247861 0.1
    endloop
  endfacet
  facet normal 0.195096 0.980784 0
    outer loop
       vertex -0.254946 0.247861 0.1
       vertex -0.222872 0.241481 0.1
       vertex -0.222872 0.241481 0
    endloop
  endfacet
  facet normal 0.0654098 0.997858 0
    outer loop
       vertex -0.287577 0.25 0.1
       vertex -0.254946 0.247861 0.1
       vertex -0.254946 0.247861 0
    endloop
  endfacet
  facet normal 0.0654098 0.997858 -1.45239e-16
    outer loop
       vertex -0.254946 0.247861 0
       vertex -0.287577 0.25 0
       vertex -0.287577 0.25 0.1
    endloop
  endfacet
  facet normal -0.0654098 0.997858 0
    outer loop
       vertex -0.287577 0.25 0
       vertex -0.320209 0.247861 0
       vertex -0.320209 0.247861 0.1
    endloop
  endfacet
  facet normal -0.0654098 0.997858 1.45239e-16
    outer loop
       vertex -0.320209 0.247861 0.1
       vertex -0.287577 0.25 0.1
       vertex -0.287577 0.25 0
    endloop
  endfacet
  facet normal -0.195096 0.980784 0
    outer loop
       vertex -0.320209 0.247861 0
       vertex -0.352282 0.241481 0
       vertex -0.352282 0.241481 0.1
    endloop
  endfacet
  facet normal -0.195096 0.980784 0
    outer loop
       vertex -0.352282 0.241481 0.1
       vertex -0.320209 0.247861 0.1
       vertex -0.320209 0.247861 0
    endloop
  endfacet
  facet normal -0.321425 0.946935 0
    outer loop
       vertex -0.352282 0.241481 0
       vertex -0.383248 0.23097 0
       vertex -0.383248 0.23097 0.1
    endloop
  endfacet
  facet normal -0.321425 0.946935 0
    outer loop
       vertex -0.383248 0.23097 0.1
       vertex -0.352282 0.241481 0.1
       vertex -0.352282 0.241481 0
    endloop
  endfacet
  facet normal -0.442302 0.896866 0
    outer loop
       vertex -0.383248 0.23097 0
       vertex -0.412577 0.216506 0
       vertex -0.412577 0.216506 0.1
    endloop
  endfacet
  facet normal -0.442302 0.896866 0
    outer loop
       vertex -0.412577 0.216506 0.1
       vertex -0.383248 0.23097 0.1
       vertex -0.383248 0.23097 0
    endloop
  endfacet
  facet normal -0.555561 0.831476 0
    outer loop
       vertex -0.412577 0.216506 0
       vertex -0.439768 0.198338 0
       vertex -0.439768 0.198338 0.1
    endloop
  endfacet
  facet normal -0.555561 0.831476 0
    outer loop
       vertex -0.439768 0.198338 0.1
       vertex -0.412577 0.216506 0.1
       vertex -0.412577 0.216506 0
    endloop
  endfacet
  facet normal -0.659372 0.751817 0
    outer loop
       vertex -0.439768 0.198338 0
       vertex -0.464353 0.176776 0
       vertex -0.464353 0.176776 0.1
    endloop
  endfacet
  facet normal -0.659372 0.751817 0
    outer loop
       vertex -0.464353 0.176776 0.1
       vertex -0.439768 0.198338 0.1
       vertex -0.439768 0.198338 0
    endloop
  endfacet
  facet normal -0.751817 0.659372 0
    outer loop
       vertex -0.464353 0.176776 0
       vertex -0.485915 0.152191 0
       vertex -0.485915 0.152191 0.1
    endloop
  endfacet
  facet normal -0.751817 0.659372 0
    outer loop
       vertex -0.485915 0.152191 0.1
       vertex -0.464353 0.176776 0.1
       vertex -0.464353 0.176776 0
    endloop
  endfacet
  facet normal -0.831476 0.555561 0
    outer loop
       vertex -0.485915 0.152191 0
       vertex -0.504083 0.125 0
       vertex -0.504083 0.125 0.1
    endloop
  endfacet
  facet normal -0.831476 0.555561 0
    outer loop
       vertex -0.504083 0.125 0.1
       vertex -0.485915 0.152191 0.1
       vertex -0.485915 0.152191 0
    endloop
  endfacet
  facet normal -0.896866 0.442302 0
    outer loop
       vertex -0.504083 0.125 0
       vertex -0.518547 0.095671 0
       vertex -0.518547 0.095671 0.1
    endloop
  endfacet
  facet normal -0.896866 0.442302 0
    outer loop
       vertex -0.518547 0.095671 0.1
       vertex -0.504083 0.125 0.1
       vertex -0.504083 0.125 0
    endloop
  endfacet
  facet normal -0.946935 0.321425 0
    outer loop
       vertex -0.518547 0.095671 0
       vertex -0.529058 0.064705 0
       vertex -0.529058 0.064705 0.1
    endloop
  endfacet
  facet normal -0.946935 0.321425 0
    outer loop
       vertex -0.529058 0.064705 0.1
       vertex -0.518547 0.095671 0.1
       vertex -0.518547 0.095671 0
    endloop
  endfacet
  facet normal -0.980784 0.195096 0
    outer loop
       vertex -0.529058 0.064705 0
       vertex -0.535438 0.0326315 0
       vertex -0.535438 0.0326315 0.1
    endloop
  endfacet
  facet normal -0.980784 0.195096 0
    outer loop
       vertex -0.535438 0.0326315 0.1
       vertex -0.529058 0.064705 0.1
       vertex -0.529058 0.064705 0
    endloop
  endfacet
  facet normal -0.997858 0.0654098 0
    outer loop
       vertex -0.537577 8.32665e-17 0.1
       vertex -0.535438 0.0326315 0.1
       vertex -0.535438 0.0326315 0
    endloop
  endfacet
  facet normal -0.997858 0.0654098 -1.08928e-16
    outer loop
       vertex -0.535438 0.0326315 0
       vertex -0.537577 -8.32665e-17 0
       vertex -0.537577 8.32665e-17 0.1
    endloop
  endfacet
  facet normal -0.997858 -0.0654098 0
    outer loop
       vertex -0.537577 -8.32665e-17 0
       vertex -0.535438 -0.0326315 0
       vertex -0.535438 -0.0326315 0.1
    endloop
  endfacet
  facet normal -0.997858 -0.0654098 1.08928e-16
    outer loop
       vertex -0.535438 -0.0326315 0.1
       vertex -0.537577 8.32665e-17 0.1
       vertex -0.537577 -8.32665e-17 0
    endloop
  endfacet
  facet normal -0.980784 -0.195096 0
    outer loop
       vertex -0.535438 -0.0326315 0
       vertex -0.529058 -0.064705 0
       vertex -0.529058 -0.064705 0.1
    endloop
  endfacet
  facet normal -0.980784 -0.195096 0
    outer loop
       vertex -0.529058 -0.064705 0.1
       vertex -0.535438 -0.0326315 0.1
       vertex -0.535438 -0.0326315 0
    endloop
  endfacet
  facet normal -0.946935 -0.321425 0
    outer loop
       vertex -0.529058 -0.064705 0
       vertex -0.518547 -0.095671 0
       vertex -0.518547 -0.095671 0.1
    endloop
  endfacet
  facet normal -0.946935 -0.321425 0
    outer loop
       vertex -0.518547 -0.095671 0.1
       vertex -0.529058 -0.064705 0.1
       vertex -0.529058 -0.064705 0
    endloop
  endfacet
  facet normal -0.896866 -0.442302 0
    outer loop
       vertex -0.518547 -0.095671 0
       vertex -0.504083 -0.125 0
       vertex -0.504083 -0.125 0.1
    endloop
  endfacet
  facet normal -0.896866 -0.442302 0
    outer loop
       vertex -0.504083 -0.125 0.1
       vertex -0.518547 -0.095671 0.1
       vertex -0.518547 -0.095671 0
    endloop
  endfacet
  facet normal -0.831476 -0.555561 0
    outer loop
       vertex -0.504083 -0.125 0
       vertex -0.485915 -0.152191 0
       vertex -0.485915 -0.152191 0.1
    endloop
  endfacet
  facet normal -0.831476 -0.555561 0
    outer loop
       vertex -0.485915 -0.152191 0.1
       vertex -0.504083 -0.125 0.1
       vertex -0.504083 -0.125 0
    endloop
  endfacet
  facet normal -0.751817 -0.659372 0
    outer loop
       vertex -0.485915 -0.152191 0
       vertex -0.464353 -0.176776 0
       vertex -0.464353 -0.176776 0.1
    endloop
  endfacet
  facet normal -0.751817 -0.659372 0
    outer loop
       vertex -0.464353 -0.176776 0.1
       vertex -0.485915 -0.152191 0.1
       vertex -0.485915 -0.152191 0
    endloop
  endfacet
  facet normal 0.659372 -0.751817 0
    outer loop
       vertex -0.110801 -0.176776 0
       vertex -0.110801 -0.176776 0.1
       vertex -0.135386 -0.198338 0.1
    endloop
  endfacet
  facet normal 0.659372 -0.751817 0
    outer loop
       vertex -0.135386 -0.198338 0.1
       vertex -0.135386 -0.198338 0
       vertex -0.110801 -0.176776 0
    endloop
  endfacet
  facet normal 0.555561 -0.831476 0
    outer loop
       vertex -0.135386 -0.198338 0
       vertex -0.135386 -0.198338 0.1
       vertex -0.162577 -0.216506 0.1
    endloop
  endfacet
  facet normal 0.555561 -0.831476 0
    outer loop
       vertex -0.162577 -0.216506 0.1
       vertex -0.162577 -0.216506 0
       vertex -0.135386 -0.198338 0
    endloop
  endfacet
  facet normal 0.442302 -0.896866 0
    outer loop
       vertex -0.162577 -0.216506 0
       vertex -0.162577 -0.216506 0.1
       vertex -0.191906 -0.23097 0.1
    endloop
  endfacet
  facet normal 0.442302 -0.896866 0
    outer loop
       vertex -0.191906 -0.23097 0.1
       vertex -0.191906 -0.23097 0
       vertex -0.162577 -0.216506 0
    endloop
  endfacet
  facet normal 0.321425 -0.946935 0
    outer loop
       vertex -0.191906 -0.23097 0
       vertex -0.191906 -0.23097 0.1
       vertex -0.222872 -0.241481 0.1
    endloop
  endfacet
  facet normal 0.321425 -0.946935 0
    outer loop
       vertex -0.222872 -0.241481 0.1
       vertex -0.222872 -0.241481 0
       vertex -0.191906 -0.23097 0
    endloop
  endfacet
  facet normal 0.195096 -0.980784 0
    outer loop
       vertex -0.222872 -0.241481 0
       vertex -0.222872 -0.241481 0.1
       vertex -0.254946 -0.247861 0.1
    endloop
  endfacet
  facet normal 0.195096 -0.980784 0
    outer loop
       vertex -0.254946 -0.247861 0.1
       vertex -0.254946 -0.247861 0
       vertex -0.222872 -0.241481 0
    endloop
  endfacet
  facet normal 0.0654098 -0.997858 0
    outer loop
       vertex -0.287577 -0.25 0
       vertex -0.254946 -0.247861 0
       vertex -0.254946 -0.247861 0.1
    endloop
  endfacet
  facet normal 0.0654098 -0.997858 1.45239e-16
    outer loop
       vertex -0.254946 -0.247861 0.1
       vertex -0.287577 -0.25 0.1
       vertex -0.287577 -0.25 0
    endloop
  endfacet
  facet normal -0.0654098 -0.997858 0
    outer loop
       vertex -0.287577 -0.25 0.1
       vertex -0.320209 -0.247861 0.1
       vertex -0.320209 -0.247861 0
    endloop
  endfacet
  facet normal -0.0654098 -0.997858 -1.45239e-16
    outer loop
       vertex -0.320209 -0.247861 0
       vertex -0.287577 -0.25 0
       vertex -0.287577 -0.25 0.1
    endloop
  endfacet
  facet normal -0.195096 -0.980784 0
    outer loop
       vertex -0.320209 -0.247861 0
       vertex -0.320209 -0.247861 0.1
       vertex -0.352282 -0.241481 0.1
    endloop
  endfacet
  facet normal -0.195096 -0.980784 -0
    outer loop
       vertex -0.352282 -0.241481 0.1
       vertex -0.352282 -0.241481 0
       vertex -0.320209 -0.247861 0
    endloop
  endfacet
  facet normal -0.321425 -0.946935 0
    outer loop
       vertex -0.352282 -0.241481 0
       vertex -0.352282 -0.241481 0.1
       vertex -0.383248 -0.23097 0.1
    endloop
  endfacet
  facet normal -0.321425 -0.946935 -0
    outer loop
       vertex -0.383248 -0.23097 0.1
       vertex -0.383248 -0.23097 0
       vertex -0.352282 -0.241481 0
    endloop
  endfacet
  facet normal -0.442302 -0.896866 0
    outer loop
       vertex -0.383248 -0.23097 0
       vertex -0.383248 -0.23097 0.1
       vertex -0.412577 -0.216506 0.1
    endloop
  endfacet
  facet normal -0.442302 -0.896866 -0
    outer loop
       vertex -0.412577 -0.216506 0.1
       vertex -0.412577 -0.216506 0
       vertex -0.383248 -0.23097 0
    endloop
  endfacet
  facet normal -0.555561 -0.831476 0
    outer loop
       vertex -0.412577 -0.216506 0
       vertex -0.412577 -0.216506 0.1
       vertex -0.439768 -0.198338 0.1
    endloop
  endfacet
  facet normal -0.555561 -0.831476 -0
    outer loop
       vertex -0.439768 -0.198338 0.1
       vertex -0.439768 -0.198338 0
       vertex -0.412577 -0.216506 0
    endloop
  endfacet
  facet normal -0.659372 -0.751817 0
    outer loop
       vertex -0.439768 -0.198338 0
       vertex -0.439768 -0.198338 0.1
       vertex -0.464353 -0.176776 0.1
    endloop
  endfacet
  facet normal -0.659372 -0.751817 -0
    outer loop
       vertex -0.464353 -0.176776 0.1
       vertex -0.464353 -0.176776 0
       vertex -0.439768 -0.198338 0
    endloop
  endfacet
endsolid cylinder
