solid cylinder
  facet normal 0.751817 -0.659372 0
    outer loop
       vertex 0.260759 -0.176776 0
       vertex 0.282321 -0.152191 0
       vertex 0.282321 -0.152191 0.1
    endloop
  endfacet
  facet normal 0.751817 -0.659372 0
    outer loop
       vertex 0.282321 -0.152191 0.1
       vertex 0.260759 -0.176776 0.1
       vertex 0.260759 -0.176776 0
    endloop
  endfacet
  facet normal 0.831476 -0.555561 0
    outer loop
       vertex 0.282321 -0.152191 0
       vertex 0.300489 -0.125 0
       vertex 0.300489 -0.125 0.1
    endloop
  endfacet
  facet normal 0.831476 -0.555561 0
    outer loop
       vertex 0.300489 -0.125 0.1
       vertex 0.282321 -0.152191 0.1
       vertex 0.282321 -0.152191 0
    endloop
  endfacet
  facet normal 0.896866 -0.442302 0
    outer loop
       vertex 0.300489 -0.125 0
       vertex 0.314953 -0.095671 0
       vertex 0.314953 -0.095671 0.1
    endloop
  endfacet
  facet normal 0.896866 -0.442302 0
    outer loop
       vertex 0.314953 -0.095671 0.1
       vertex 0.300489 -0.125 0.1
       vertex 0.300489 -0.125 0
    endloop
  endfacet
  facet normal 0.946935 -0.321425 0
    outer loop
       vertex 0.314953 -0.095671 0
       vertex 0.325464 -0.064705 0
       vertex 0.325464 -0.064705 0.1
    endloop
  endfacet
  facet normal 0.946935 -0.321425 0
    outer loop
       vertex 0.325464 -0.064705 0.1
       vertex 0.314953 -0.095671 0.1
       vertex 0.314953 -0.095671 0
    endloop
  endfacet
  facet normal 0.980784 -0.195096 0
    outer loop
       vertex 0.325464 -0.064705 0
       vertex 0.331844 -0.0326315 0
       vertex 0.331844 -0.0326315 0.1
    endloop
  endfacet
  facet normal 0.980784 -0.195096 0
    outer loop
       vertex 0.331844 -0.0326315 0.1
       vertex 0.325464 -0.064705 0.1
       vertex 0.325464 -0.064705 0
    endloop
  endfacet
  facet normal 0.997858 -0.0654098 0
    outer loop
       vertex 0.333983 -8.32665e-17 0.1
       vertex 0.331844 -0.0326315 0.1
       vertex 0.331844 -0.0326315 0
    endloop
  endfacet
  facet normal 0.997858 -0.0654098 -1.08928e-16
    outer loop
       vertex 0.331844 -0.0326315 0
       vertex 0.333983 8.32665e-17 0
       vertex 0.333983 -8.32665e-17 0.1
    endloop
  endfacet
  facet normal 0.997858 0.0654098 0
    outer loop
       vertex 0.333983 8.32665e-17 0
       vertex 0.331844 0.0326315 0
       vertex 0.331844 0.0326315 0.1
    endloop
  endfacet
  facet normal 0.997858 0.0654098 1.08928e-16
    outer loop
       vertex 0.331844 0.0326315 0.1
       vertex 0.333983 -8.32665e-17 0.1
       vertex 0.333983 8.32665e-17 0
    endloop
  endfacet
  facet normal 0.980784 0.195096 0
    outer loop
       vertex 0.331844 0.0326315 0
       vertex 0.325464 0.064705 0
       vertex 0.325464 0.064705 0.1
    endloop
  endfacet
  facet normal 0.980784 0.195096 0
    outer loop
       vertex 0.325464 0.064705 0.1
       vertex 0.331844 0.0326315 0.1
       vertex 0.331844 0.0326315 0
    endloop
  endfacet
  facet normal 0.946935 0.321425 0
    outer loop
       vertex 0.325464 0.064705 0
       vertex 0.314953 0.095671 0
       vertex 0.314953 0.095671 0.1
    endloop
  endfacet
  facet normal 0.946935 0.321425 0
    outer loop
       vertex 0.314953 0.095671 0.1
       vertex 0.325464 0.064705 0.1
       vertex 0.325464 0.064705 0
    endloop
  endfacet
  facet normal 0.896866 0.442302 0
    outer loop
       vertex 0.314953 0.095671 0
       vertex 0.300489 0.125 0
       vertex 0.300489 0.125 0.1
    endloop
  endfacet
  facet normal 0.896866 0.442302 0
    outer loop
       vertex 0.300489 0.125 0.1
       vertex 0.314953 0.095671 0.1
       vertex 0.314953 0.095671 0
    endloop
  endfacet
  facet normal 0.831476 0.555561 0
    outer loop
       vertex 0.300489 0.125 0
       vertex 0.282321 0.152191 0
       vertex 0.282321 0.152191 0.1
    endloop
  endfacet
  facet normal 0.831476 0.555561 0
    outer loop
       vertex 0.282321 0.152191 0.1
       vertex 0.300489 0.125 0.1
       vertex 0.300489 0.125 0
    endloop
  endfacet
  facet normal 0.751817 0.659372 0
    outer loop
       vertex 0.282321 0.152191 0
       vertex 0.260759 0.176776 0
       vertex 0.260759 0.176776 0.1
    endloop
  endfacet
  facet normal 0.751817 0.659372 0
    outer loop
       vertex 0.260759 0.176776 0.1
       vertex 0.282321 0.152191 0.1
       vertex 0.282321 0.152191 0
    endloop
  endfacet
  facet normal 0.659372 0.751817 0
    outer loop
       vertex 0.260759 0.176776 0
       vertex 0.236174 0.198338 0
       vertex 0.236174 0.198338 0.1
    endloop
  endfacet
  facet normal 0.659372 0.751817 0
    outer loop
       vertex 0.236174 0.198338 0.1
       vertex 0.260759 0.176776 0.1
       vertex 0.260759 0.176776 0
    endloop
  endfacet
  facet normal 0.555561 0.831476 0
    outer loop
       vertex 0.236174 0.198338 0
       vertex 0.208983 0.216506 0
       vertex 0.208983 0.216506 0.1
    endloop
  endfacet
  facet normal 0.555561 0.831476 0
    outer loop
       vertex 0.208983 0.216506 0.1
       vertex 0.236174 0.198338 0.1
       vertex 0.236174 0.198338 0
    endloop
  endfacet
  facet normal 0.442302 0.896866 0
    outer loop
       vertex 0.208983 0.216506 0
       vertex 0.179654 0.23097 0
       vertex 0.179654 0.23097 0.1
    endloop
  endfacet
  facet normal 0.442302 0.896866 0
    outer loop
       vertex 0.179654 0.23097 0.1
       vertex 0.208983 0.216506 0.1
       vertex 0.208983 0.216506 0
    endloop
  endfacet
  facet normal 0.321425 0.946935 0
    outer loop
       vertex 0.179654 0.23097 0
       vertex 0.148688 0.241481 0
       vertex 0.148688 0.241481 0.1
    endloop
  endfacet
  facet normal 0.321425 0.946935 0
    outer loop
       vertex 0.148688 0.241481 0.1
       vertex 0.179654 0.23097 0.1
       vertex 0.179654 0.23097 0
    endloop
  endfacet
  facet normal 0.195096 0.980784 0
    outer loop
       vertex 0.148688 0.241481 0
       vertex 0.116615 0.247861 0
       vertex 0.116615 0.247861 0.1
    endloop
  endfacet
  facet normal 0.195096 0.980784 0
    outer loop
       vertex 0.116615 0.247861 0.1
       vertex 0.148688 0.241481 0.1
       vertex 0.148688 0.241481 0
    endloop
  endfacet
  facet normal 0.0654098 0.997858 0
    outer loop
       vertex 0.0839835 0.25 0.1
       vertex 0.116615 0.247861 0.1
       vertex 0.116615 0.247861 0
    endloop
  endfacet
  facet normal 0.0654098 0.997858 -1.0893e-16
    outer loop
       vertex 0.116615 0.247861 0
       vertex 0.0839835 0.25 0
       vertex 0.0839835 0.25 0.1
    endloop
  endfacet
  facet normal -0.0654098 0.997858 0
    outer loop
       vertex 0.0839835 0.25 0
       vertex 0.051352 0.247861 0
       vertex 0.051352 0.247861 0.1
    endloop
  endfacet
  facet normal -0.0654098 0.997858 1.08928e-16
    outer loop
       vertex 0.051352 0.247861 0.1
       vertex 0.0839835 0.25 0.1
       vertex 0.0839835 0.25 0
    endloop
  endfacet
  facet normal -0.195096 0.980784 0
    outer loop
       vertex 0.051352 0.247861 0
       vertex 0.0192785 0.241481 0
       vertex 0.0192785 0.241481 0.1
    endloop
  endfacet
  facet normal -0.195096 0.980784 0
    outer loop
       vertex 0.0192785 0.241481 0.1
       vertex 0.051352 0.247861 0.1
       vertex 0.051352 0.247861 0
    endloop
  endfacet
  facet normal -0.321425 0.946935 0
    outer loop
       vertex 0.0192785 0.241481 0
       vertex -0.0116875 0.23097 0
       vertex -0.0116875 0.23097 0.1
    endloop
  endfacet
  facet normal -0.321425 0.946935 0
    outer loop
       vertex -0.0116875 0.23097 0.1
       vertex 0.0192785 0.241481 0.1
       vertex 0.0192785 0.241481 0
    endloop
  endfacet
  facet normal -0.442302 0.896866 0
    outer loop
       vertex -0.0116875 0.23097 0
       vertex -0.0410165 0.216506 0
       vertex -0.0410165 0.216506 0.1
    endloop
  endfacet
  facet normal -0.442302 0.896866 0
    outer loop
       vertex -0.0410165 0.216506 0.1
       vertex -0.0116875 0.23097 0.1
       vertex -0.0116875 0.23097 0
    endloop
  endfacet
  facet normal -0.555561 0.831476 0
    outer loop
       vertex -0.0410165 0.216506 0
       vertex -0.0682075 0.198338 0
       vertex -0.0682075 0.198338 0.1
    endloop
  endfacet
  facet normal -0.555561 0.831476 0
    outer loop
       vertex -0.0682075 0.198338 0.1
       vertex -0.0410165 0.216506 0.1
       vertex -0.0410165 0.216506 0
    endloop
  endfacet
  facet normal -0.659372 0.751817 0
    outer loop
       vertex -0.0682075 0.198338 0
       vertex -0.0927925 0.176776 0
       vertex -0.0927925 0.176776 0.1
    endloop
  endfacet
  facet normal -0.659372 0.751817 0
    outer loop
       vertex -0.0927925 0.176776 0.1
       vertex -0.0682075 0.198338 0.1
       vertex -0.0682075 0.198338 0
    endloop
  endfacet
  facet normal -0.751817 0.659372 0
    outer loop
       vertex -0.0927925 0.176776 0
       vertex -0.114355 0.152191 0
       vertex -0.114355 0.152191 0.1
    endloop
  endfacet
  facet normal -0.751817 0.659372 0
    outer loop
       vertex -0.114355 0.152191 0.1
       vertex -0.0927925 0.176776 0.1
       vertex -0.0927925 0.176776 0
    endloop
  endfacet
  facet normal -0.831476 0.555561 0
    outer loop
       vertex -0.114355 0.152191 0
       vertex -0.132523 0.125 0
       vertex -0.132523 0.125 0.1
    endloop
  endfacet
  facet normal -0.831476 0.555561 0
    outer loop
       vertex -0.132523 0.125 0.1
       vertex -0.114355 0.152191 0.1
       vertex -0.114355 0.152191 0
    endloop
  endfacet
  facet normal -0.896866 0.442302 0
    outer loop
       vertex -0.132523 0.125 0
       vertex -0.146987 0.095671 0
       vertex -0.146987 0.095671 0.1
    endloop
  endfacet
  facet normal -0.896866 0.442302 0
    outer loop
       vertex -0.146987 0.095671 0.1
       vertex -0.132523 0.125 0.1
       vertex -0.132523 0.125 0
    endloop
  endfacet
  facet normal -0.946935 0.321425 0
    outer loop
       vertex -0.146987 0.095671 0
       vertex -0.157498 0.064705 0
       vertex -0.157498 0.064705 0.1
    endloop
  endfacet
  facet normal -0.946935 0.321425 0
    outer loop
       vertex -0.157498 0.064705 0.1
       vertex -0.146987 0.095671 0.1
       vertex -0.146987 0.095671 0
    endloop
  endfacet
  facet normal -0.980784 0.195096 0
    outer loop
       vertex -0.157498 0.064705 0
       vertex -0.163878 0.0326315 0
       vertex -0.163878 0.0326315 0.1
    endloop
  endfacet
  facet normal -0.980784 0.195096 0
    outer loop
       vertex -0.163878 0.0326315 0.1
       vertex -0.157498 0.064705 0.1
       vertex -0.157498 0.064705 0
    endloop
  endfacet
  facet normal -0.997858 0.0654098 0
    outer loop
       vertex -0.166017 8.32665e-17 0.1
       vertex -0.163878 0.0326315 0.1
       vertex -0.163878 0.0326315 0
    endloop
  endfacet
  facet normal -0.997858 0.0654098 -1.08928e-16
    outer loop
       vertex -0.163878 0.0326315 0
       vertex -0.166017 -8.32665e-17 0
       vertex -0.166017 8.32665e-17 0.1
    endloop
  endfacet
  facet normal -0.997858 -0.0654098 0
    outer loop
       vertex -0.166017 -8.32665e-17 0
       vertex -0.163878 -0.0326315 0
       vertex -0.163878 -0.0326315 0.1
    endloop
  endfacet
  facet normal -0.997858 -0.0654098 1.08928e-16
    outer loop
       vertex -0.163878 -0.0326315 0.1
       vertex -0.166017 8.32665e-17 0.1
       vertex -0.166017 -8.32665e-17 0
    endloop
  endfacet
  facet normal -0.980784 -0.195096 0
    outer loop
       vertex -0.163878 -0.0326315 0
       vertex -0.157498 -0.064705 0
       vertex -0.157498 -0.064705 0.1
    endloop
  endfacet
  facet normal -0.980784 -0.195096 0
    outer loop
       vertex -0.157498 -0.064705 0.1
       vertex -0.163878 -0.0326315 0.1
       vertex -0.163878 -0.0326315 0
    endloop
  endfacet
  facet normal -0.946935 -0.321425 0
    outer loop
       vertex -0.157498 -0.064705 0
       vertex -0.146987 -0.095671 0
       vertex -0.146987 -0.095671 0.1
    endloop
  endfacet
  facet normal -0.946935 -0.321425 0
    outer loop
       vertex -0.146987 -0.095671 0.1
       vertex -0.157498 -0.064705 0.1
       vertex -0.157498 -0.064705 0
    endloop
  endfacet
  facet normal -0.896866 -0.442302 0
    outer loop
       vertex -0.146987 -0.095671 0
       vertex -0.132523 -0.125 0
       vertex -0.132523 -0.125 0.1
    endloop
  endfacet
  facet normal -0.896866 -0.442302 0
    outer loop
       vertex -0.132523 -0.125 0.1
       vertex -0.146987 -0.095671 0.1
       vertex -0.146987 -0.095671 0
    endloop
  endfacet
  facet normal -0.831476 -0.555561 0
    outer loop
       vertex -0.132523 -0.125 0
       vertex -0.114355 -0.152191 0
       vertex -0.114355 -0.152191 0.1
    endloop
  endfacet
  facet normal -0.831476 -0.555561 0
    outer loop
       vertex -0.114355 -0.152191 0.1
       vertex -0.132523 -0.125 0.1
       vertex -0.132523 -0.125 0
    endloop
  endfacet
  facet normal -0.751817 -0.659372 0
    outer loop
       vertex -0.114355 -0.152191 0
       vertex -0.0927925 -0.176776 0
       vertex -0.0927925 -0.176776 0.1
    endloop
  endfacet
  facet normal -0.751817 -0.659372 0
    outer loop
       vertex -0.0927925 -0.176776 0.1
       vertex -0.114355 -0.152191 0.1
       vertex -0.114355 -0.152191 0
    endloop
  endfacet
  facet normal 0.659372 -0.751817 0
    outer loop
       vertex 0.260759 -0.176776 0
       vertex 0.260759 -0.176776 0.1
       vertex 0.236174 -0.198338 0.1
    endloop
  endfacet
  facet normal 0.659372 -0.751817 0
    outer loop
       vertex 0.236174 -0.198338 0.1
       vertex 0.236174 -0.198338 0
       vertex 0.260759 -0.176776 0
    endloop
  endfacet
  facet normal 0.555561 -0.831476 0
    outer loop
       vertex 0.236174 -0.198338 0
       vertex 0.236174 -0.198338 0.1
       vertex 0.208983 -0.216506 0.1
    endloop
  endfacet
  facet normal 0.555561 -0.831476 0
    outer loop
       vertex 0.208983 -0.216506 0.1
       vertex 0.208983 -0.216506 0
       vertex 0.236174 -0.198338 0
    endloop
  endfacet
  facet normal 0.442302 -0.896866 0
    outer loop
       vertex 0.208983 -0.216506 0
       vertex 0.208983 -0.216506 0.1
       vertex 0.179654 -0.23097 0.1
    endloop
  endfacet
  facet normal 0.442302 -0.896866 0
    outer loop
       vertex 0.179654 -0.23097 0.1
       vertex 0.179654 -0.23097 0
       vertex 0.208983 -0.216506 0
    endloop
  endfacet
  facet normal 0.321425 -0.946935 0
    outer loop
       vertex 0.179654 -0.23097 0
       vertex 0.179654 -0.23097 0.1
       vertex 0.148688 -0.241481 0.1
    endloop
  endfacet
  facet normal 0.321425 -0.946935 0
    outer loop
       vertex 0.148688 -0.241481 0.1
       vertex 0.148688 -0.241481 0
       vertex 0.179654 -0.23097 0
    endloop
  endfacet
  facet normal 0.195096 -0.980784 0
    outer loop
       vertex 0.148688 -0.241481 0
       vertex 0.148688 -0.241481 0.1
       vertex 0.116615 -0.247861 0.1
    endloop
  endfacet
  facet normal 0.195096 -0.980784 0
    outer loop
       vertex 0.116615 -0.247861 0.1
       vertex 0.116615 -0.247861 0
       vertex 0.148688 -0.241481 0
    endloop
  endfacet
  facet normal 0.0654098 -0.997858 0
    outer loop
       vertex 0.0839835 -0.25 0
       vertex 0.116615 -0.247861 0
       vertex 0.116615 -0.247861 0.1
    endloop
  endfacet
  facet normal 0.0654098 -0.997858 1.0893e-16
    outer loop
       vertex 0.116615 -0.247861 0.1
       vertex 0.0839835 -0.25 0.1
       vertex 0.0839835 -0.25 0
    endloop
  endfacet
  facet normal -0.0654098 -0.997858 0
    outer loop
       vertex 0.0839835 -0.25 0.1
       vertex 0.051352 -0.247861 0.1
       vertex 0.051352 -0.247861 0
    endloop
  endfacet
  facet normal -0.0654098 -0.997858 -1.08928e-16
    outer loop
       vertex 0.051352 -0.247861 0
       vertex 0.0839835 -0.25 0
       vertex 0.0839835 -0.25 0.1
    endloop
  endfacet
  facet normal -0.195096 -0.980784 0
    outer loop
       vertex 0.051352 -0.247861 0
       vertex 0.051352 -0.247861 0.1
       vertex 0.0192785 -0.241481 0.1
    endloop
  endfacet
  facet normal -0.195096 -0.980784 -0
    outer loop
       vertex 0.0192785 -0.241481 0.1
       vertex 0.0192785 -0.241481 0
       vertex 0.051352 -0.247861 0
    endloop
  endfacet
  facet normal -0.321425 -0.946935 0
    outer loop
       vertex 0.0192785 -0.241481 0
       vertex 0.0192785 -0.241481 0.1
       vertex -0.0116875 -0.23097 0.1
    endloop
  endfacet
  facet normal -0.321425 -0.946935 -0
    outer loop
       vertex -0.0116875 -0.23097 0.1
       vertex -0.0116875 -0.23097 0
       vertex 0.0192785 -0.241481 0
    endloop
  endfacet
  facet normal -0.442302 -0.896866 0
    outer loop
       vertex -0.0116875 -0.23097 0
       vertex -0.0116875 -0.23097 0.1
       vertex -0.0410165 -0.216506 0.1
    endloop
  endfacet
  facet normal -0.442302 -0.896866 -0
    outer loop
       vertex -0.0410165 -0.216506 0.1
       vertex -0.0410165 -0.216506 0
       vertex -0.0116875 -0.23097 0
    endloop
  endfacet
  facet normal -0.555561 -0.831476 0
    outer loop
       vertex -0.0410165 -0.216506 0
       vertex -0.0410165 -0.216506 0.1
       vertex -0.0682075 -0.198338 0.1
    endloop
  endfacet
  facet normal -0.555561 -0.831476 -0
    outer loop
       vertex -0.0682075 -0.198338 0.1
       vertex -0.0682075 -0.198338 0
       vertex -0.0410165 -0.216506 0
    endloop
  endfacet
  facet normal -0.659372 -0.751817 0
    outer loop
       vertex -0.0682075 -0.198338 0
       vertex -0.0682075 -0.198338 0.1
       vertex -0.0927925 -0.176776 0.1
    endloop
  endfacet
  facet normal -0.659372 -0.751817 -0
    outer loop
       vertex -0.0927925 -0.176776 0.1
       vertex -0.0927925 -0.176776 0
       vertex -0.0682075 -0.198338 0
    endloop
  endfacet
endsolid cylinder
