solid cylinder
  facet normal 0.751817 -0.659372 0
    outer loop
       vertex 0.187372 -0.176776 0
       vertex 0.208934 -0.152191 0
       vertex 0.208934 -0.152191 0.1
    endloop
  endfacet
  facet normal 0.751817 -0.659372 0
    outer loop
       vertex 0.208934 -0.152191 0.1
       vertex 0.187372 -0.176776 0.1
       vertex 0.187372 -0.176776 0
    endloop
  endfacet
  facet normal 0.831476 -0.555561 0
    outer loop
       vertex 0.208934 -0.152191 0
       vertex 0.227102 -0.125 0
       vertex 0.227102 -0.125 0.1
    endloop
  endfacet
  facet normal 0.831476 -0.555561 0
    outer loop
       vertex 0.227102 -0.125 0.1
       vertex 0.208934 -0.152191 0.1
       vertex 0.208934 -0.152191 0
    endloop
  endfacet
  facet normal 0.896866 -0.442302 0
    outer loop
       vertex 0.227102 -0.125 0
       vertex 0.241566 -0.095671 0
       vertex 0.241566 -0.095671 0.1
    endloop
  endfacet
  facet normal 0.896866 -0.442302 0
    outer loop
       vertex 0.241566 -0.095671 0.1
       vertex 0.227102 -0.125 0.1
       vertex 0.227102 -0.125 0
    endloop
  endfacet
  facet normal 0.946935 -0.321425 0
    outer loop
       vertex 0.241566 -0.095671 0
       vertex 0.252077 -0.064705 0
       vertex 0.252077 -0.064705 0.1
    endloop
  endfacet
  facet normal 0.946935 -0.321425 0
    outer loop
       vertex 0.252077 -0.064705 0.1
       vertex 0.241566 -0.095671 0.1
       vertex 0.241566 -0.095671 0
    endloop
  endfacet
  facet normal 0.980784 -0.195096 0
    outer loop
       vertex 0.252077 -0.064705 0
       vertex 0.258457 -0.0326315 0
       vertex 0.258457 -0.0326315 0.1
    endloop
  endfacet
  facet normal 0.980784 -0.195096 0
    outer loop
       vertex 0.258457 -0.0326315 0.1
       vertex 0.252077 -0.064705 0.1
       vertex 0.252077 -0.064705 0
    endloop
  endfacet
  facet normal 0.997858 -0.0654098 0
    outer loop
       vertex 0.260596 -8.32665e-17 0.1
       vertex 0.258457 -0.0326315 0.1
       vertex 0.258457 -0.0326315 0
    endloop
  endfacet
  facet normal 0.997858 -0.0654098 -1.08928e-16
    outer loop
       vertex 0.258457 -0.0326315 0
       vertex 0.260596 8.32665e-17 0
       vertex 0.260596 -8.32665e-17 0.1
    endloop
  endfacet
  facet normal 0.997858 0.0654098 0
    outer loop
       vertex 0.260596 8.32665e-17 0
       vertex 0.258457 0.0326315 0
       vertex 0.258457 0.0326315 0.1
    endloop
  endfacet
  facet normal 0.997858 0.0654098 1.08928e-16
    outer loop
       vertex 0.258457 0.0326315 0.1
       vertex 0.260596 -8.32665e-17 0.1
       vertex 0.260596 8.32665e-17 0
    endloop
  endfacet
  facet normal 0.980784 0.195096 0
    outer loop
       vertex 0.258457 0.0326315 0
       vertex 0.252077 0.064705 0
       vertex 0.252077 0.064705 0.1
    endloop
  endfacet
  facet normal 0.980784 0.195096 0
    outer loop
       vertex 0.252077 0.064705 0.1
       vertex 0.258457 0.0326315 0.1
       vertex 0.258457 0.0326315 0
    endloop
  endfacet
  facet normal 0.946935 0.321425 0
    outer loop
       vertex 0.252077 0.064705 0
       vertex 0.241566 0.095671 0
       vertex 0.241566 0.095671 0.1
    endloop
  endfacet
  facet normal 0.946935 0.321425 0
    outer loop
       vertex 0.241566 0.095671 0.1
       vertex 0.252077 0.064705 0.1
       vertex 0.252077 0.064705 0
    endloop
  endfacet
  facet normal 0.896866 0.442302 0
    outer loop
       vertex 0.241566 0.095671 0
       vertex 0.227102 0.125 0
       vertex 0.227102 0.125 0.1
    endloop
  endfacet
  facet normal 0.896866 0.442302 0
    outer loop
       vertex 0.227102 0.125 0.1
       vertex 0.241566 0.095671 0.1
       vertex 0.241566 0.095671 0
    endloop
  endfacet
  facet normal 0.831476 0.555561 0
    outer loop
       vertex 0.227102 0.125 0
       vertex 0.208934 0.152191 0
       vertex 0.208934 0.152191 0.1
    endloop
  endfacet
  facet normal 0.831476 0.555561 0
    outer loop
       vertex 0.208934 0.152191 0.1
       vertex 0.227102 0.125 0.1
       vertex 0.227102 0.125 0
    endloop
  endfacet
  facet normal 0.751817 0.659372 0
    outer loop
       vertex 0.208934 0.152191 0
       vertex 0.187372 0.176776 0
       vertex 0.187372 0.176776 0.1
    endloop
  endfacet
  facet normal 0.751817 0.659372 0
    outer loop
       vertex 0.187372 0.176776 0.1
       vertex 0.208934 0.152191 0.1
       vertex 0.208934 0.152191 0
    endloop
  endfacet
  facet normal 0.659372 0.751817 0
    outer loop
       vertex 0.187372 0.176776 0
       vertex 0.162787 0.198338 0
       vertex 0.162787 0.198338 0.1
    endloop
  endfacet
  facet normal 0.659372 0.751817 0
    outer loop
       vertex 0.162787 0.198338 0.1
       vertex 0.187372 0.176776 0.1
       vertex 0.187372 0.176776 0
    endloop
  endfacet
  facet normal 0.555561 0.831476 0
    outer loop
       vertex 0.162787 0.198338 0
       vertex 0.135596 0.216506 0
       vertex 0.135596 0.216506 0.1
    endloop
  endfacet
  facet normal 0.555561 0.831476 0
    outer loop
       vertex 0.135596 0.216506 0.1
       vertex 0.162787 0.198338 0.1
       vertex 0.162787 0.198338 0
    endloop
  endfacet
  facet normal 0.442302 0.896866 0
    outer loop
       vertex 0.135596 0.216506 0
       vertex 0.106267 0.23097 0
       vertex 0.106267 0.23097 0.1
    endloop
  endfacet
  facet normal 0.442302 0.896866 0
    outer loop
       vertex 0.106267 0.23097 0.1
       vertex 0.135596 0.216506 0.1
       vertex 0.135596 0.216506 0
    endloop
  endfacet
  facet normal 0.321425 0.946935 0
    outer loop
       vertex 0.106267 0.23097 0
       vertex 0.0753011 0.241481 0
       vertex 0.0753011 0.241481 0.1
    endloop
  endfacet
  facet normal 0.321425 0.946935 0
    outer loop
       vertex 0.0753011 0.241481 0.1
       vertex 0.106267 0.23097 0.1
       vertex 0.106267 0.23097 0
    endloop
  endfacet
  facet normal 0.195096 0.980784 0
    outer loop
       vertex 0.0753011 0.241481 0
       vertex 0.0432276 0.247861 0
       vertex 0.0432276 0.247861 0.1
    endloop
  endfacet
  facet normal 0.195096 0.980784 0
    outer loop
       vertex 0.0432276 0.247861 0.1
       vertex 0.0753011 0.241481 0.1
       vertex 0.0753011 0.241481 0
    endloop
  endfacet
  facet normal 0.0654098 0.997858 0
    outer loop
       vertex 0.0105961 0.25 0.1
       vertex 0.0432276 0.247861 0.1
       vertex 0.0432276 0.247861 0
    endloop
  endfacet
  facet normal 0.0654098 0.997858 -1.0893e-16
    outer loop
       vertex 0.0432276 0.247861 0
       vertex 0.0105961 0.25 0
       vertex 0.0105961 0.25 0.1
    endloop
  endfacet
  facet normal -0.0654098 0.997858 0
    outer loop
       vertex 0.0105961 0.25 0
       vertex -0.0220354 0.247861 0
       vertex -0.0220354 0.247861 0.1
    endloop
  endfacet
  facet normal -0.0654098 0.997858 1.08928e-16
    outer loop
       vertex -0.0220354 0.247861 0.1
       vertex 0.0105961 0.25 0.1
       vertex 0.0105961 0.25 0
    endloop
  endfacet
  facet normal -0.195096 0.980784 0
    outer loop
       vertex -0.0220354 0.247861 0
       vertex -0.0541089 0.241481 0
       vertex -0.0541089 0.241481 0.1
    endloop
  endfacet
  facet normal -0.195096 0.980784 0
    outer loop
       vertex -0.0541089 0.241481 0.1
       vertex -0.0220354 0.247861 0.1
       vertex -0.0220354 0.247861 0
    endloop
  endfacet
  facet normal -0.321425 0.946935 0
    outer loop
       vertex -0.0541089 0.241481 0
       vertex -0.0850749 0.23097 0
       vertex -0.0850749 0.23097 0.1
    endloop
  endfacet
  facet normal -0.321425 0.946935 0
    outer loop
       vertex -0.0850749 0.23097 0.1
       vertex -0.0541089 0.241481 0.1
       vertex -0.0541089 0.241481 0
    endloop
  endfacet
  facet normal -0.442302 0.896866 0
    outer loop
       vertex -0.0850749 0.23097 0
       vertex -0.114404 0.216506 0
       vertex -0.114404 0.216506 0.1
    endloop
  endfacet
  facet normal -0.442302 0.896866 0
    outer loop
       vertex -0.114404 0.216506 0.1
       vertex -0.0850749 0.23097 0.1
       vertex -0.0850749 0.23097 0
    endloop
  endfacet
  facet normal -0.555561 0.831476 0
    outer loop
       vertex -0.114404 0.216506 0
       vertex -0.141595 0.198338 0
       vertex -0.141595 0.198338 0.1
    endloop
  endfacet
  facet normal -0.555561 0.831476 0
    outer loop
       vertex -0.141595 0.198338 0.1
       vertex -0.114404 0.216506 0.1
       vertex -0.114404 0.216506 0
    endloop
  endfacet
  facet normal -0.659372 0.751817 0
    outer loop
       vertex -0.141595 0.198338 0
       vertex -0.16618 0.176776 0
       vertex -0.16618 0.176776 0.1
    endloop
  endfacet
  facet normal -0.659372 0.751817 0
    outer loop
       vertex -0.16618 0.176776 0.1
       vertex -0.141595 0.198338 0.1
       vertex -0.141595 0.198338 0
    endloop
  endfacet
  facet normal -0.751817 0.659372 0
    outer loop
       vertex -0.16618 0.176776 0
       vertex -0.187742 0.152191 0
       vertex -0.187742 0.152191 0.1
    endloop
  endfacet
  facet normal -0.751817 0.659372 0
    outer loop
       vertex -0.187742 0.152191 0.1
       vertex -0.16618 0.176776 0.1
       vertex -0.16618 0.176776 0
    endloop
  endfacet
  facet normal -0.831476 0.555561 0
    outer loop
       vertex -0.187742 0.152191 0
       vertex -0.20591 0.125 0
       vertex -0.20591 0.125 0.1
    endloop
  endfacet
  facet normal -0.831476 0.555561 0
    outer loop
       vertex -0.20591 0.125 0.1
       vertex -0.187742 0.152191 0.1
       vertex -0.187742 0.152191 0
    endloop
  endfacet
  facet normal -0.896866 0.442302 0
    outer loop
       vertex -0.20591 0.125 0
       vertex -0.220374 0.095671 0
       vertex -0.220374 0.095671 0.1
    endloop
  endfacet
  facet normal -0.896866 0.442302 0
    outer loop
       vertex -0.220374 0.095671 0.1
       vertex -0.20591 0.125 0.1
       vertex -0.20591 0.125 0
    endloop
  endfacet
  facet normal -0.946935 0.321425 0
    outer loop
       vertex -0.220374 0.095671 0
       vertex -0.230885 0.064705 0
       vertex -0.230885 0.064705 0.1
    endloop
  endfacet
  facet normal -0.946935 0.321425 0
    outer loop
       vertex -0.230885 0.064705 0.1
       vertex -0.220374 0.095671 0.1
       vertex -0.220374 0.095671 0
    endloop
  endfacet
  facet normal -0.980784 0.195096 0
    outer loop
       vertex -0.230885 0.064705 0
       vertex -0.237265 0.0326315 0
       vertex -0.237265 0.0326315 0.1
    endloop
  endfacet
  facet normal -0.980784 0.195096 0
    outer loop
       vertex -0.237265 0.0326315 0.1
       vertex -0.230885 0.064705 0.1
       vertex -0.230885 0.064705 0
    endloop
  endfacet
  facet normal -0.997858 0.0654098 0
    outer loop
       vertex -0.239404 8.32665e-17 0.1
       vertex -0.237265 0.0326315 0.1
       vertex -0.237265 0.0326315 0
    endloop
  endfacet
  facet normal -0.997858 0.0654098 -1.08928e-16
    outer loop
       vertex -0.237265 0.0326315 0
       vertex -0.239404 -8.32665e-17 0
       vertex -0.239404 8.32665e-17 0.1
    endloop
  endfacet
  facet normal -0.997858 -0.0654098 0
    outer loop
       vertex -0.239404 -8.32665e-17 0
       vertex -0.237265 -0.0326315 0
       vertex -0.237265 -0.0326315 0.1
    endloop
  endfacet
  facet normal -0.997858 -0.0654098 1.08928e-16
    outer loop
       vertex -0.237265 -0.0326315 0.1
       vertex -0.239404 8.32665e-17 0.1
       vertex -0.239404 -8.32665e-17 0
    endloop
  endfacet
  facet normal -0.980784 -0.195096 0
    outer loop
       vertex -0.237265 -0.0326315 0
       vertex -0.230885 -0.064705 0
       vertex -0.230885 -0.064705 0.1
    endloop
  endfacet
  facet normal -0.980784 -0.195096 0
    outer loop
       vertex -0.230885 -0.064705 0.1
       vertex -0.237265 -0.0326315 0.1
       vertex -0.237265 -0.0326315 0
    endloop
  endfacet
  facet normal -0.946935 -0.321425 0
    outer loop
       vertex -0.230885 -0.064705 0
       vertex -0.220374 -0.095671 0
       vertex -0.220374 -0.095671 0.1
    endloop
  endfacet
  facet normal -0.946935 -0.321425 0
    outer loop
       vertex -0.220374 -0.095671 0.1
       vertex -0.230885 -0.064705 0.1
       vertex -0.230885 -0.064705 0
    endloop
  endfacet
  facet normal -0.896866 -0.442302 0
    outer loop
       vertex -0.220374 -0.095671 0
       vertex -0.20591 -0.125 0
       vertex -0.20591 -0.125 0.1
    endloop
  endfacet
  facet normal -0.896866 -0.442302 0
    outer loop
       vertex -0.20591 -0.125 0.1
       vertex -0.220374 -0.095671 0.1
       vertex -0.220374 -0.095671 0
    endloop
  endfacet
  facet normal -0.831476 -0.555561 0
    outer loop
       vertex -0.20591 -0.125 0
       vertex -0.187742 -0.152191 0
       vertex -0.187742 -0.152191 0.1
    endloop
  endfacet
  facet normal -0.831476 -0.555561 0
    outer loop
       vertex -0.187742 -0.152191 0.1
       vertex -0.20591 -0.125 0.1
       vertex -0.20591 -0.125 0
    endloop
  endfacet
  facet normal -0.751817 -0.659372 0
    outer loop
       vertex -0.187742 -0.152191 0
       vertex -0.16618 -0.176776 0
       vertex -0.16618 -0.176776 0.1
    endloop
  endfacet
  facet normal -0.751817 -0.659372 0
    outer loop
       vertex -0.16618 -0.176776 0.1
       vertex -0.187742 -0.152191 0.1
       vertex -0.187742 -0.152191 0
    endloop
  endfacet
  facet normal 0.659372 -0.751817 0
    outer loop
       vertex 0.187372 -0.176776 0
       vertex 0.187372 -0.176776 0.1
       vertex 0.162787 -0.198338 0.1
    endloop
  endfacet
  facet normal 0.659372 -0.751817 0
    outer loop
       vertex 0.162787 -0.198338 0.1
       vertex 0.162787 -0.198338 0
       vertex 0.187372 -0.176776 0
    endloop
  endfacet
  facet normal 0.555561 -0.831476 0
    outer loop
       vertex 0.162787 -0.198338 0
       vertex 0.162787 -0.198338 0.1
       vertex 0.135596 -0.216506 0.1
    endloop
  endfacet
  facet normal 0.555561 -0.831476 0
    outer loop
       vertex 0.135596 -0.216506 0.1
       vertex 0.135596 -0.216506 0
       vertex 0.162787 -0.198338 0
    endloop
  endfacet
  facet normal 0.442302 -0.896866 0
    outer loop
       vertex 0.135596 -0.216506 0
       vertex 0.135596 -0.216506 0.1
       vertex 0.106267 -0.23097 0.1
    endloop
  endfacet
  facet normal 0.442302 -0.896866 0
    outer loop
       vertex 0.106267 -0.23097 0.1
       vertex 0.106267 -0.23097 0
       vertex 0.135596 -0.216506 0
    endloop
  endfacet
  facet normal 0.321425 -0.946935 0
    outer loop
       vertex 0.106267 -0.23097 0
       vertex 0.106267 -0.23097 0.1
       vertex 0.0753011 -0.241481 0.1
    endloop
  endfacet
  facet normal 0.321425 -0.946935 0
    outer loop
       vertex 0.0753011 -0.241481 0.1
       vertex 0.0753011 -0.241481 0
       vertex 0.106267 -0.23097 0
    endloop
  endfacet
  facet normal 0.195096 -0.980784 0
    outer loop
       vertex 0.0753011 -0.241481 0
       vertex 0.0753011 -0.241481 0.1
       vertex 0.0432276 -0.247861 0.1
    endloop
  endfacet
  facet normal 0.195096 -0.980784 0
    outer loop
       vertex 0.0432276 -0.247861 0.1
       vertex 0.0432276 -0.247861 0
       vertex 0.0753011 -0.241481 0
    endloop
  endfacet
  facet normal 0.0654098 -0.997858 0
    outer loop
       vertex 0.0105961 -0.25 0
       vertex 0.0432276 -0.247861 0
       vertex 0.0432276 -0.247861 0.1
    endloop
  endfacet
  facet normal 0.0654098 -0.997858 1.0893e-16
    outer loop
       vertex 0.0432276 -0.247861 0.1
       vertex 0.0105961 -0.25 0.1
       vertex 0.0105961 -0.25 0
    endloop
  endfacet
  facet normal -0.0654098 -0.997858 0
    outer loop
       vertex 0.0105961 -0.25 0.1
       vertex -0.0220354 -0.247861 0.1
       vertex -0.0220354 -0.247861 0
    endloop
  endfacet
  facet normal -0.0654098 -0.997858 -1.08928e-16
    outer loop
       vertex -0.0220354 -0.247861 0
       vertex 0.0105961 -0.25 0
       vertex 0.0105961 -0.25 0.1
    endloop
  endfacet
  facet normal -0.195096 -0.980784 0
    outer loop
       vertex -0.0220354 -0.247861 0
       vertex -0.0220354 -0.247861 0.1
       vertex -0.0541089 -0.241481 0.1
    endloop
  endfacet
  facet normal -0.195096 -0.980784 -0
    outer loop
       vertex -0.0541089 -0.241481 0.1
       vertex -0.0541089 -0.241481 0
       vertex -0.0220354 -0.247861 0
    endloop
  endfacet
  facet normal -0.321425 -0.946935 0
    outer loop
       vertex -0.0541089 -0.241481 0
       vertex -0.0541089 -0.241481 0.1
       vertex -0.0850749 -0.23097 0.1
    endloop
  endfacet
  facet normal -0.321425 -0.946935 -0
    outer loop
       vertex -0.0850749 -0.23097 0.1
       vertex -0.0850749 -0.23097 0
       vertex -0.0541089 -0.241481 0
    endloop
  endfacet
  facet normal -0.442302 -0.896866 0
    outer loop
       vertex -0.0850749 -0.23097 0
       vertex -0.0850749 -0.23097 0.1
       vertex -0.114404 -0.216506 0.1
    endloop
  endfacet
  facet normal -0.442302 -0.896866 -0
    outer loop
       vertex -0.114404 -0.216506 0.1
       vertex -0.114404 -0.216506 0
       vertex -0.0850749 -0.23097 0
    endloop
  endfacet
  facet normal -0.555561 -0.831476 0
    outer loop
       vertex -0.114404 -0.216506 0
       vertex -0.114404 -0.216506 0.1
       vertex -0.141595 -0.198338 0.1
    endloop
  endfacet
  facet normal -0.555561 -0.831476 -0
    outer loop
       vertex -0.141595 -0.198338 0.1
       vertex -0.141595 -0.198338 0
       vertex -0.114404 -0.216506 0
    endloop
  endfacet
  facet normal -0.659372 -0.751817 0
    outer loop
       vertex -0.141595 -0.198338 0
       vertex -0.141595 -0.198338 0.1
       vertex -0.16618 -0.176776 0.1
    endloop
  endfacet
  facet normal -0.659372 -0.751817 -0
    outer loop
       vertex -0.16618 -0.176776 0.1
       vertex -0.16618 -0.176776 0
       vertex -0.141595 -0.198338 0
    endloop
  endfacet
endsolid cylinder
