solid cylinder
  facet normal 0.751817 -0.659372 0
    outer loop
       vertex 0.476688 -0.176776 0
       vertex 0.49825 -0.152191 0
       vertex 0.49825 -0.152191 0.1
    endloop
  endfacet
  facet normal 0.751817 -0.659372 0
    outer loop
       vertex 0.49825 -0.152191 0.1
       vertex 0.476688 -0.176776 0.1
       vertex 0.476688 -0.176776 0
    endloop
  endfacet
  facet normal 0.831476 -0.555561 0
    outer loop
       vertex 0.49825 -0.152191 0
       vertex 0.516418 -0.125 0
       vertex 0.516418 -0.125 0.1
    endloop
  endfacet
  facet normal 0.831476 -0.555561 0
    outer loop
       vertex 0.516418 -0.125 0.1
       vertex 0.49825 -0.152191 0.1
       vertex 0.49825 -0.152191 0
    endloop
  endfacet
  facet normal 0.896866 -0.442302 0
    outer loop
       vertex 0.516418 -0.125 0
       vertex 0.530882 -0.095671 0
       vertex 0.530882 -0.095671 0.1
    endloop
  endfacet
  facet normal 0.896866 -0.442302 0
    outer loop
       vertex 0.530882 -0.095671 0.1
       vertex 0.516418 -0.125 0.1
       vertex 0.516418 -0.125 0
    endloop
  endfacet
  facet normal 0.946935 -0.321425 0
    outer loop
       vertex 0.530882 -0.095671 0
       vertex 0.541393 -0.064705 0
       vertex 0.541393 -0.064705 0.1
    endloop
  endfacet
  facet normal 0.946935 -0.321425 0
    outer loop
       vertex 0.541393 -0.064705 0.1
       vertex 0.530882 -0.095671 0.1
       vertex 0.530882 -0.095671 0
    endloop
  endfacet
  facet normal 0.980784 -0.195096 0
    outer loop
       vertex 0.541393 -0.064705 0
       vertex 0.547773 -0.0326315 0
       vertex 0.547773 -0.0326315 0.1
    endloop
  endfacet
  facet normal 0.980784 -0.195096 0
    outer loop
       vertex 0.547773 -0.0326315 0.1
       vertex 0.541393 -0.064705 0.1
       vertex 0.541393 -0.064705 0
    endloop
  endfacet
  facet normal 0.997858 -0.0654098 0
    outer loop
       vertex 0.549912 -8.32665e-17 0.1
       vertex 0.547773 -0.0326315 0.1
       vertex 0.547773 -0.0326315 0
    endloop
  endfacet
  facet normal 0.997858 -0.0654098 -1.0893e-16
    outer loop
       vertex 0.547773 -0.0326315 0
       vertex 0.549912 8.32665e-17 0
       vertex 0.549912 -8.32665e-17 0.1
    endloop
  endfacet
  facet normal 0.997858 0.0654098 0
    outer loop
       vertex 0.549912 8.32665e-17 0
       vertex 0.547773 0.0326315 0
       vertex 0.547773 0.0326315 0.1
    endloop
  endfacet
  facet normal 0.997858 0.0654098 1.0893e-16
    outer loop
       vertex 0.547773 0.0326315 0.1
       vertex 0.549912 -8.32665e-17 0.1
       vertex 0.549912 8.32665e-17 0
    endloop
  endfacet
  facet normal 0.980784 0.195096 0
    outer loop
       vertex 0.547773 0.0326315 0
       vertex 0.541393 0.064705 0
       vertex 0.541393 0.064705 0.1
    endloop
  endfacet
  facet normal 0.980784 0.195096 0
    outer loop
       vertex 0.541393 0.064705 0.1
       vertex 0.547773 0.0326315 0.1
       vertex 0.547773 0.0326315 0
    endloop
  endfacet
  facet normal 0.946935 0.321425 0
    outer loop
       vertex 0.541393 0.064705 0
       vertex 0.530882 0.095671 0
       vertex 0.530882 0.095671 0.1
    endloop
  endfacet
  facet normal 0.946935 0.321425 0
    outer loop
       vertex 0.530882 0.095671 0.1
       vertex 0.541393 0.064705 0.1
       vertex 0.541393 0.064705 0
    endloop
  endfacet
  facet normal 0.896866 0.442302 0
    outer loop
       vertex 0.530882 0.095671 0
       vertex 0.516418 0.125 0
       vertex 0.516418 0.125 0.1
    endloop
  endfacet
  facet normal 0.896866 0.442302 0
    outer loop
       vertex 0.516418 0.125 0.1
       vertex 0.530882 0.095671 0.1
       vertex 0.530882 0.095671 0
    endloop
  endfacet
  facet normal 0.831476 0.555561 0
    outer loop
       vertex 0.516418 0.125 0
       vertex 0.49825 0.152191 0
       vertex 0.49825 0.152191 0.1
    endloop
  endfacet
  facet normal 0.831476 0.555561 0
    outer loop
       vertex 0.49825 0.152191 0.1
       vertex 0.516418 0.125 0.1
       vertex 0.516418 0.125 0
    endloop
  endfacet
  facet normal 0.751817 0.659372 0
    outer loop
       vertex 0.49825 0.152191 0
       vertex 0.476688 0.176776 0
       vertex 0.476688 0.176776 0.1
    endloop
  endfacet
  facet normal 0.751817 0.659372 0
    outer loop
       vertex 0.476688 0.176776 0.1
       vertex 0.49825 0.152191 0.1
       vertex 0.49825 0.152191 0
    endloop
  endfacet
  facet normal 0.659372 0.751817 0
    outer loop
       vertex 0.476688 0.176776 0
       vertex 0.452103 0.198338 0
       vertex 0.452103 0.198338 0.1
    endloop
  endfacet
  facet normal 0.659372 0.751817 0
    outer loop
       vertex 0.452103 0.198338 0.1
       vertex 0.476688 0.176776 0.1
       vertex 0.476688 0.176776 0
    endloop
  endfacet
  facet normal 0.555561 0.831476 0
    outer loop
       vertex 0.452103 0.198338 0
       vertex 0.424912 0.216506 0
       vertex 0.424912 0.216506 0.1
    endloop
  endfacet
  facet normal 0.555561 0.831476 0
    outer loop
       vertex 0.424912 0.216506 0.1
       vertex 0.452103 0.198338 0.1
       vertex 0.452103 0.198338 0
    endloop
  endfacet
  facet normal 0.442302 0.896866 0
    outer loop
       vertex 0.424912 0.216506 0
       vertex 0.395583 0.23097 0
       vertex 0.395583 0.23097 0.1
    endloop
  endfacet
  facet normal 0.442302 0.896866 0
    outer loop
       vertex 0.395583 0.23097 0.1
       vertex 0.424912 0.216506 0.1
       vertex 0.424912 0.216506 0
    endloop
  endfacet
  facet normal 0.321425 0.946935 0
    outer loop
       vertex 0.395583 0.23097 0
       vertex 0.364617 0.241481 0
       vertex 0.364617 0.241481 0.1
    endloop
  endfacet
  facet normal 0.321425 0.946935 0
    outer loop
       vertex 0.364617 0.241481 0.1
       vertex 0.395583 0.23097 0.1
       vertex 0.395583 0.23097 0
    endloop
  endfacet
  facet normal 0.195096 0.980784 0
    outer loop
       vertex 0.364617 0.241481 0
       vertex 0.332543 0.247861 0
       vertex 0.332543 0.247861 0.1
    endloop
  endfacet
  facet normal 0.195096 0.980784 0
    outer loop
       vertex 0.332543 0.247861 0.1
       vertex 0.364617 0.241481 0.1
       vertex 0.364617 0.241481 0
    endloop
  endfacet
  facet normal 0.0654098 0.997858 0
    outer loop
       vertex 0.299912 0.25 0.1
       vertex 0.332543 0.247861 0.1
       vertex 0.332543 0.247861 0
    endloop
  endfacet
  facet normal 0.0654098 0.997858 -7.26205e-17
    outer loop
       vertex 0.332543 0.247861 0
       vertex 0.299912 0.25 0
       vertex 0.299912 0.25 0.1
    endloop
  endfacet
  facet normal -0.0654098 0.997858 0
    outer loop
       vertex 0.299912 0.25 0
       vertex 0.26728 0.247861 0
       vertex 0.26728 0.247861 0.1
    endloop
  endfacet
  facet normal -0.0654098 0.997858 7.26205e-17
    outer loop
       vertex 0.26728 0.247861 0.1
       vertex 0.299912 0.25 0.1
       vertex 0.299912 0.25 0
    endloop
  endfacet
  facet normal -0.195096 0.980784 0
    outer loop
       vertex 0.26728 0.247861 0
       vertex 0.235207 0.241481 0
       vertex 0.235207 0.241481 0.1
    endloop
  endfacet
  facet normal -0.195096 0.980784 0
    outer loop
       vertex 0.235207 0.241481 0.1
       vertex 0.26728 0.247861 0.1
       vertex 0.26728 0.247861 0
    endloop
  endfacet
  facet normal -0.321425 0.946935 0
    outer loop
       vertex 0.235207 0.241481 0
       vertex 0.204241 0.23097 0
       vertex 0.204241 0.23097 0.1
    endloop
  endfacet
  facet normal -0.321425 0.946935 0
    outer loop
       vertex 0.204241 0.23097 0.1
       vertex 0.235207 0.241481 0.1
       vertex 0.235207 0.241481 0
    endloop
  endfacet
  facet normal -0.442302 0.896866 0
    outer loop
       vertex 0.204241 0.23097 0
       vertex 0.174912 0.216506 0
       vertex 0.174912 0.216506 0.1
    endloop
  endfacet
  facet normal -0.442302 0.896866 0
    outer loop
       vertex 0.174912 0.216506 0.1
       vertex 0.204241 0.23097 0.1
       vertex 0.204241 0.23097 0
    endloop
  endfacet
  facet normal -0.555561 0.831476 0
    outer loop
       vertex 0.174912 0.216506 0
       vertex 0.147721 0.198338 0
       vertex 0.147721 0.198338 0.1
    endloop
  endfacet
  facet normal -0.555561 0.831476 0
    outer loop
       vertex 0.147721 0.198338 0.1
       vertex 0.174912 0.216506 0.1
       vertex 0.174912 0.216506 0
    endloop
  endfacet
  facet normal -0.659372 0.751817 0
    outer loop
       vertex 0.147721 0.198338 0
       vertex 0.123136 0.176776 0
       vertex 0.123136 0.176776 0.1
    endloop
  endfacet
  facet normal -0.659372 0.751817 0
    outer loop
       vertex 0.123136 0.176776 0.1
       vertex 0.147721 0.198338 0.1
       vertex 0.147721 0.198338 0
    endloop
  endfacet
  facet normal -0.751817 0.659372 0
    outer loop
       vertex 0.123136 0.176776 0
       vertex 0.101574 0.152191 0
       vertex 0.101574 0.152191 0.1
    endloop
  endfacet
  facet normal -0.751817 0.659372 0
    outer loop
       vertex 0.101574 0.152191 0.1
       vertex 0.123136 0.176776 0.1
       vertex 0.123136 0.176776 0
    endloop
  endfacet
  facet normal -0.831476 0.555561 0
    outer loop
       vertex 0.101574 0.152191 0
       vertex 0.083406 0.125 0
       vertex 0.083406 0.125 0.1
    endloop
  endfacet
  facet normal -0.831476 0.555561 0
    outer loop
       vertex 0.083406 0.125 0.1
       vertex 0.101574 0.152191 0.1
       vertex 0.101574 0.152191 0
    endloop
  endfacet
  facet normal -0.896866 0.442302 0
    outer loop
       vertex 0.083406 0.125 0
       vertex 0.068942 0.095671 0
       vertex 0.068942 0.095671 0.1
    endloop
  endfacet
  facet normal -0.896866 0.442302 0
    outer loop
       vertex 0.068942 0.095671 0.1
       vertex 0.083406 0.125 0.1
       vertex 0.083406 0.125 0
    endloop
  endfacet
  facet normal -0.946935 0.321425 0
    outer loop
       vertex 0.068942 0.095671 0
       vertex 0.058431 0.064705 0
       vertex 0.058431 0.064705 0.1
    endloop
  endfacet
  facet normal -0.946935 0.321425 0
    outer loop
       vertex 0.058431 0.064705 0.1
       vertex 0.068942 0.095671 0.1
       vertex 0.068942 0.095671 0
    endloop
  endfacet
  facet normal -0.980784 0.195096 0
    outer loop
       vertex 0.058431 0.064705 0
       vertex 0.052051 0.0326315 0
       vertex 0.052051 0.0326315 0.1
    endloop
  endfacet
  facet normal -0.980784 0.195096 0
    outer loop
       vertex 0.052051 0.0326315 0.1
       vertex 0.058431 0.064705 0.1
       vertex 0.058431 0.064705 0
    endloop
  endfacet
  facet normal -0.997858 0.0654098 0
    outer loop
       vertex 0.049912 8.32665e-17 0.1
       vertex 0.052051 0.0326315 0.1
       vertex 0.052051 0.0326315 0
    endloop
  endfacet
  facet normal -0.997858 0.0654098 -1.08928e-16
    outer loop
       vertex 0.052051 0.0326315 0
       vertex 0.049912 -8.32665e-17 0
       vertex 0.049912 8.32665e-17 0.1
    endloop
  endfacet
  facet normal -0.997858 -0.0654098 0
    outer loop
       vertex 0.049912 -8.32665e-17 0
       vertex 0.052051 -0.0326315 0
       vertex 0.052051 -0.0326315 0.1
    endloop
  endfacet
  facet normal -0.997858 -0.0654098 1.08928e-16
    outer loop
       vertex 0.052051 -0.0326315 0.1
       vertex 0.049912 8.32665e-17 0.1
       vertex 0.049912 -8.32665e-17 0
    endloop
  endfacet
  facet normal -0.980784 -0.195096 0
    outer loop
       vertex 0.052051 -0.0326315 0
       vertex 0.058431 -0.064705 0
       vertex 0.058431 -0.064705 0.1
    endloop
  endfacet
  facet normal -0.980784 -0.195096 0
    outer loop
       vertex 0.058431 -0.064705 0.1
       vertex 0.052051 -0.0326315 0.1
       vertex 0.052051 -0.0326315 0
    endloop
  endfacet
  facet normal -0.946935 -0.321425 0
    outer loop
       vertex 0.058431 -0.064705 0
       vertex 0.068942 -0.095671 0
       vertex 0.068942 -0.095671 0.1
    endloop
  endfacet
  facet normal -0.946935 -0.321425 0
    outer loop
       vertex 0.068942 -0.095671 0.1
       vertex 0.058431 -0.064705 0.1
       vertex 0.058431 -0.064705 0
    endloop
  endfacet
  facet normal -0.896866 -0.442302 0
    outer loop
       vertex 0.068942 -0.095671 0
       vertex 0.083406 -0.125 0
       vertex 0.083406 -0.125 0.1
    endloop
  endfacet
  facet normal -0.896866 -0.442302 0
    outer loop
       vertex 0.083406 -0.125 0.1
       vertex 0.068942 -0.095671 0.1
       vertex 0.068942 -0.095671 0
    endloop
  endfacet
  facet normal -0.831476 -0.555561 0
    outer loop
       vertex 0.083406 -0.125 0
       vertex 0.101574 -0.152191 0
       vertex 0.101574 -0.152191 0.1
    endloop
  endfacet
  facet normal -0.831476 -0.555561 0
    outer loop
       vertex 0.101574 -0.152191 0.1
       vertex 0.083406 -0.125 0.1
       vertex 0.083406 -0.125 0
    endloop
  endfacet
  facet normal -0.751817 -0.659372 0
    outer loop
       vertex 0.101574 -0.152191 0
       vertex 0.123136 -0.176776 0
       vertex 0.123136 -0.176776 0.1
    endloop
  endfacet
  facet normal -0.751817 -0.659372 0
    outer loop
       vertex 0.123136 -0.176776 0.1
       vertex 0.101574 -0.152191 0.1
       vertex 0.101574 -0.152191 0
    endloop
  endfacet
  facet normal 0.659372 -0.751817 0
    outer loop
       vertex 0.476688 -0.176776 0
       vertex 0.476688 -0.176776 0.1
       vertex 0.452103 -0.198338 0.1
    endloop
  endfacet
  facet normal 0.659372 -0.751817 0
    outer loop
       vertex 0.452103 -0.198338 0.1
       vertex 0.452103 -0.198338 0
       vertex 0.476688 -0.176776 0
    endloop
  endfacet
  facet normal 0.555561 -0.831476 0
    outer loop
       vertex 0.452103 -0.198338 0
       vertex 0.452103 -0.198338 0.1
       vertex 0.424912 -0.216506 0.1
    endloop
  endfacet
  facet normal 0.555561 -0.831476 0
    outer loop
       vertex 0.424912 -0.216506 0.1
       vertex 0.424912 -0.216506 0
       vertex 0.452103 -0.198338 0
    endloop
  endfacet
  facet normal 0.442302 -0.896866 0
    outer loop
       vertex 0.424912 -0.216506 0
       vertex 0.424912 -0.216506 0.1
       vertex 0.395583 -0.23097 0.1
    endloop
  endfacet
  facet normal 0.442302 -0.896866 0
    outer loop
       vertex 0.395583 -0.23097 0.1
       vertex 0.395583 -0.23097 0
       vertex 0.424912 -0.216506 0
    endloop
  endfacet
  facet normal 0.321425 -0.946935 0
    outer loop
       vertex 0.395583 -0.23097 0
       vertex 0.395583 -0.23097 0.1
       vertex 0.364617 -0.241481 0.1
    endloop
  endfacet
  facet normal 0.321425 -0.946935 0
    outer loop
       vertex 0.364617 -0.241481 0.1
       vertex 0.364617 -0.241481 0
       vertex 0.395583 -0.23097 0
    endloop
  endfacet
  facet normal 0.195096 -0.980784 0
    outer loop
       vertex 0.364617 -0.241481 0
       vertex 0.364617 -0.241481 0.1
       vertex 0.332543 -0.247861 0.1
    endloop
  endfacet
  facet normal 0.195096 -0.980784 0
    outer loop
       vertex 0.332543 -0.247861 0.1
       vertex 0.332543 -0.247861 0
       vertex 0.364617 -0.241481 0
    endloop
  endfacet
  facet normal 0.0654098 -0.997858 0
    outer loop
       vertex 0.299912 -0.25 0
       vertex 0.332543 -0.247861 0
       vertex 0.332543 -0.247861 0.1
    endloop
  endfacet
  facet normal 0.0654098 -0.997858 7.26205e-17
    outer loop
       vertex 0.332543 -0.247861 0.1
       vertex 0.299912 -0.25 0.1
       vertex 0.299912 -0.25 0
    endloop
  endfacet
  facet normal -0.0654098 -0.997858 0
    outer loop
       vertex 0.299912 -0.25 0.1
       vertex 0.26728 -0.247861 0.1
       vertex 0.26728 -0.247861 0
    endloop
  endfacet
  facet normal -0.0654098 -0.997858 -7.26205e-17
    outer loop
       vertex 0.26728 -0.247861 0
       vertex 0.299912 -0.25 0
       vertex 0.299912 -0.25 0.1
    endloop
  endfacet
  facet normal -0.195096 -0.980784 0
    outer loop
       vertex 0.26728 -0.247861 0
       vertex 0.26728 -0.247861 0.1
       vertex 0.235207 -0.241481 0.1
    endloop
  endfacet
  facet normal -0.195096 -0.980784 -0
    outer loop
       vertex 0.235207 -0.241481 0.1
       vertex 0.235207 -0.241481 0
       vertex 0.26728 -0.247861 0
    endloop
  endfacet
  facet normal -0.321425 -0.946935 0
    outer loop
       vertex 0.235207 -0.241481 0
       vertex 0.235207 -0.241481 0.1
       vertex 0.204241 -0.23097 0.1
    endloop
  endfacet
  facet normal -0.321425 -0.946935 -0
    outer loop
       vertex 0.204241 -0.23097 0.1
       vertex 0.204241 -0.23097 0
       vertex 0.235207 -0.241481 0
    endloop
  endfacet
  facet normal -0.442302 -0.896866 0
    outer loop
       vertex 0.204241 -0.23097 0
       vertex 0.204241 -0.23097 0.1
       vertex 0.174912 -0.216506 0.1
    endloop
  endfacet
  facet normal -0.442302 -0.896866 -0
    outer loop
       vertex 0.174912 -0.216506 0.1
       vertex 0.174912 -0.216506 0
       vertex 0.204241 -0.23097 0
    endloop
  endfacet
  facet normal -0.555561 -0.831476 0
    outer loop
       vertex 0.174912 -0.216506 0
       vertex 0.174912 -0.216506 0.1
       vertex 0.147721 -0.198338 0.1
    endloop
  endfacet
  facet normal -0.555561 -0.831476 -0
    outer loop
       vertex 0.147721 -0.198338 0.1
       vertex 0.147721 -0.198338 0
       vertex 0.174912 -0.216506 0
    endloop
  endfacet
  facet normal -0.659372 -0.751817 0
    outer loop
       vertex 0.147721 -0.198338 0
       vertex 0.147721 -0.198338 0.1
       vertex 0.123136 -0.176776 0.1
    endloop
  endfacet
  facet normal -0.659372 -0.751817 -0
    outer loop
       vertex 0.123136 -0.176776 0.1
       vertex 0.123136 -0.176776 0
       vertex 0.147721 -0.198338 0
    endloop
  endfacet
endsolid cylinder
