solid cylinder
  facet normal 0.751817 -0.659372 0
    outer loop
       vertex 0.224332 -0.176776 0
       vertex 0.245894 -0.152191 0
       vertex 0.245894 -0.152191 0.1
    endloop
  endfacet
  facet normal 0.751817 -0.659372 0
    outer loop
       vertex 0.245894 -0.152191 0.1
       vertex 0.224332 -0.176776 0.1
       vertex 0.224332 -0.176776 0
    endloop
  endfacet
  facet normal 0.831476 -0.555561 0
    outer loop
       vertex 0.245894 -0.152191 0
       vertex 0.264062 -0.125 0
       vertex 0.264062 -0.125 0.1
    endloop
  endfacet
  facet normal 0.831476 -0.555561 0
    outer loop
       vertex 0.264062 -0.125 0.1
       vertex 0.245894 -0.152191 0.1
       vertex 0.245894 -0.152191 0
    endloop
  endfacet
  facet normal 0.896866 -0.442302 0
    outer loop
       vertex 0.264062 -0.125 0
       vertex 0.278526 -0.095671 0
       vertex 0.278526 -0.095671 0.1
    endloop
  endfacet
  facet normal 0.896866 -0.442302 0
    outer loop
       vertex 0.278526 -0.095671 0.1
       vertex 0.264062 -0.125 0.1
       vertex 0.264062 -0.125 0
    endloop
  endfacet
  facet normal 0.946935 -0.321425 0
    outer loop
       vertex 0.278526 -0.095671 0
       vertex 0.289037 -0.064705 0
       vertex 0.289037 -0.064705 0.1
    endloop
  endfacet
  facet normal 0.946935 -0.321425 0
    outer loop
       vertex 0.289037 -0.064705 0.1
       vertex 0.278526 -0.095671 0.1
       vertex 0.278526 -0.095671 0
    endloop
  endfacet
  facet normal 0.980784 -0.195096 0
    outer loop
       vertex 0.289037 -0.064705 0
       vertex 0.295417 -0.0326315 0
       vertex 0.295417 -0.0326315 0.1
    endloop
  endfacet
  facet normal 0.980784 -0.195096 0
    outer loop
       vertex 0.295417 -0.0326315 0.1
       vertex 0.289037 -0.064705 0.1
       vertex 0.289037 -0.064705 0
    endloop
  endfacet
  facet normal 0.997858 -0.0654098 0
    outer loop
       vertex 0.297556 -8.32665e-17 0.1
       vertex 0.295417 -0.0326315 0.1
       vertex 0.295417 -0.0326315 0
    endloop
  endfacet
  facet normal 0.997858 -0.0654098 -1.08928e-16
    outer loop
       vertex 0.295417 -0.0326315 0
       vertex 0.297556 8.32665e-17 0
       vertex 0.297556 -8.32665e-17 0.1
    endloop
  endfacet
  facet normal 0.997858 0.0654098 0
    outer loop
       vertex 0.297556 8.32665e-17 0
       vertex 0.295417 0.0326315 0
       vertex 0.295417 0.0326315 0.1
    endloop
  endfacet
  facet normal 0.997858 0.0654098 1.08928e-16
    outer loop
       vertex 0.295417 0.0326315 0.1
       vertex 0.297556 -8.32665e-17 0.1
       vertex 0.297556 8.32665e-17 0
    endloop
  endfacet
  facet normal 0.980784 0.195096 0
    outer loop
       vertex 0.295417 0.0326315 0
       vertex 0.289037 0.064705 0
       vertex 0.289037 0.064705 0.1
    endloop
  endfacet
  facet normal 0.980784 0.195096 0
    outer loop
       vertex 0.289037 0.064705 0.1
       vertex 0.295417 0.0326315 0.1
       vertex 0.295417 0.0326315 0
    endloop
  endfacet
  facet normal 0.946935 0.321425 0
    outer loop
       vertex 0.289037 0.064705 0
       vertex 0.278526 0.095671 0
       vertex 0.278526 0.095671 0.1
    endloop
  endfacet
  facet normal 0.946935 0.321425 0
    outer loop
       vertex 0.278526 0.095671 0.1
       vertex 0.289037 0.064705 0.1
       vertex 0.289037 0.064705 0
    endloop
  endfacet
  facet normal 0.896866 0.442302 0
    outer loop
       vertex 0.278526 0.095671 0
       vertex 0.264062 0.125 0
       vertex 0.264062 0.125 0.1
    endloop
  endfacet
  facet normal 0.896866 0.442302 0
    outer loop
       vertex 0.264062 0.125 0.1
       vertex 0.278526 0.095671 0.1
       vertex 0.278526 0.095671 0
    endloop
  endfacet
  facet normal 0.831476 0.555561 0
    outer loop
       vertex 0.264062 0.125 0
       vertex 0.245894 0.152191 0
       vertex 0.245894 0.152191 0.1
    endloop
  endfacet
  facet normal 0.831476 0.555561 0
    outer loop
       vertex 0.245894 0.152191 0.1
       vertex 0.264062 0.125 0.1
       vertex 0.264062 0.125 0
    endloop
  endfacet
  facet normal 0.751817 0.659372 0
    outer loop
       vertex 0.245894 0.152191 0
       vertex 0.224332 0.176776 0
       vertex 0.224332 0.176776 0.1
    endloop
  endfacet
  facet normal 0.751817 0.659372 0
    outer loop
       vertex 0.224332 0.176776 0.1
       vertex 0.245894 0.152191 0.1
       vertex 0.245894 0.152191 0
    endloop
  endfacet
  facet normal 0.659372 0.751817 0
    outer loop
       vertex 0.224332 0.176776 0
       vertex 0.199747 0.198338 0
       vertex 0.199747 0.198338 0.1
    endloop
  endfacet
  facet normal 0.659372 0.751817 0
    outer loop
       vertex 0.199747 0.198338 0.1
       vertex 0.224332 0.176776 0.1
       vertex 0.224332 0.176776 0
    endloop
  endfacet
  facet normal 0.555561 0.831476 0
    outer loop
       vertex 0.199747 0.198338 0
       vertex 0.172556 0.216506 0
       vertex 0.172556 0.216506 0.1
    endloop
  endfacet
  facet normal 0.555561 0.831476 0
    outer loop
       vertex 0.172556 0.216506 0.1
       vertex 0.199747 0.198338 0.1
       vertex 0.199747 0.198338 0
    endloop
  endfacet
  facet normal 0.442302 0.896866 0
    outer loop
       vertex 0.172556 0.216506 0
       vertex 0.143227 0.23097 0
       vertex 0.143227 0.23097 0.1
    endloop
  endfacet
  facet normal 0.442302 0.896866 0
    outer loop
       vertex 0.143227 0.23097 0.1
       vertex 0.172556 0.216506 0.1
       vertex 0.172556 0.216506 0
    endloop
  endfacet
  facet normal 0.321425 0.946935 0
    outer loop
       vertex 0.143227 0.23097 0
       vertex 0.112261 0.241481 0
       vertex 0.112261 0.241481 0.1
    endloop
  endfacet
  facet normal 0.321425 0.946935 0
    outer loop
       vertex 0.112261 0.241481 0.1
       vertex 0.143227 0.23097 0.1
       vertex 0.143227 0.23097 0
    endloop
  endfacet
  facet normal 0.195096 0.980784 0
    outer loop
       vertex 0.112261 0.241481 0
       vertex 0.0801879 0.247861 0
       vertex 0.0801879 0.247861 0.1
    endloop
  endfacet
  facet normal 0.195096 0.980784 0
    outer loop
       vertex 0.0801879 0.247861 0.1
       vertex 0.112261 0.241481 0.1
       vertex 0.112261 0.241481 0
    endloop
  endfacet
  facet normal 0.0654098 0.997858 0
    outer loop
       vertex 0.0475564 0.25 0.1
       vertex 0.0801879 0.247861 0.1
       vertex 0.0801879 0.247861 0
    endloop
  endfacet
  facet normal 0.0654098 0.997858 -1.08928e-16
    outer loop
       vertex 0.0801879 0.247861 0
       vertex 0.0475564 0.25 0
       vertex 0.0475564 0.25 0.1
    endloop
  endfacet
  facet normal -0.0654098 0.997858 0
    outer loop
       vertex 0.0475564 0.25 0
       vertex 0.0149249 0.247861 0
       vertex 0.0149249 0.247861 0.1
    endloop
  endfacet
  facet normal -0.0654098 0.997858 1.08928e-16
    outer loop
       vertex 0.0149249 0.247861 0.1
       vertex 0.0475564 0.25 0.1
       vertex 0.0475564 0.25 0
    endloop
  endfacet
  facet normal -0.195096 0.980784 0
    outer loop
       vertex 0.0149249 0.247861 0
       vertex -0.0171486 0.241481 0
       vertex -0.0171486 0.241481 0.1
    endloop
  endfacet
  facet normal -0.195096 0.980784 0
    outer loop
       vertex -0.0171486 0.241481 0.1
       vertex 0.0149249 0.247861 0.1
       vertex 0.0149249 0.247861 0
    endloop
  endfacet
  facet normal -0.321425 0.946935 0
    outer loop
       vertex -0.0171486 0.241481 0
       vertex -0.0481146 0.23097 0
       vertex -0.0481146 0.23097 0.1
    endloop
  endfacet
  facet normal -0.321425 0.946935 0
    outer loop
       vertex -0.0481146 0.23097 0.1
       vertex -0.0171486 0.241481 0.1
       vertex -0.0171486 0.241481 0
    endloop
  endfacet
  facet normal -0.442302 0.896866 0
    outer loop
       vertex -0.0481146 0.23097 0
       vertex -0.0774436 0.216506 0
       vertex -0.0774436 0.216506 0.1
    endloop
  endfacet
  facet normal -0.442302 0.896866 0
    outer loop
       vertex -0.0774436 0.216506 0.1
       vertex -0.0481146 0.23097 0.1
       vertex -0.0481146 0.23097 0
    endloop
  endfacet
  facet normal -0.555561 0.831476 0
    outer loop
       vertex -0.0774436 0.216506 0
       vertex -0.104635 0.198338 0
       vertex -0.104635 0.198338 0.1
    endloop
  endfacet
  facet normal -0.555561 0.831476 0
    outer loop
       vertex -0.104635 0.198338 0.1
       vertex -0.0774436 0.216506 0.1
       vertex -0.0774436 0.216506 0
    endloop
  endfacet
  facet normal -0.659372 0.751817 0
    outer loop
       vertex -0.104635 0.198338 0
       vertex -0.12922 0.176776 0
       vertex -0.12922 0.176776 0.1
    endloop
  endfacet
  facet normal -0.659372 0.751817 0
    outer loop
       vertex -0.12922 0.176776 0.1
       vertex -0.104635 0.198338 0.1
       vertex -0.104635 0.198338 0
    endloop
  endfacet
  facet normal -0.751817 0.659372 0
    outer loop
       vertex -0.12922 0.176776 0
       vertex -0.150782 0.152191 0
       vertex -0.150782 0.152191 0.1
    endloop
  endfacet
  facet normal -0.751817 0.659372 0
    outer loop
       vertex -0.150782 0.152191 0.1
       vertex -0.12922 0.176776 0.1
       vertex -0.12922 0.176776 0
    endloop
  endfacet
  facet normal -0.831476 0.555561 0
    outer loop
       vertex -0.150782 0.152191 0
       vertex -0.16895 0.125 0
       vertex -0.16895 0.125 0.1
    endloop
  endfacet
  facet normal -0.831476 0.555561 0
    outer loop
       vertex -0.16895 0.125 0.1
       vertex -0.150782 0.152191 0.1
       vertex -0.150782 0.152191 0
    endloop
  endfacet
  facet normal -0.896866 0.442302 0
    outer loop
       vertex -0.16895 0.125 0
       vertex -0.183414 0.095671 0
       vertex -0.183414 0.095671 0.1
    endloop
  endfacet
  facet normal -0.896866 0.442302 0
    outer loop
       vertex -0.183414 0.095671 0.1
       vertex -0.16895 0.125 0.1
       vertex -0.16895 0.125 0
    endloop
  endfacet
  facet normal -0.946935 0.321425 0
    outer loop
       vertex -0.183414 0.095671 0
       vertex -0.193925 0.064705 0
       vertex -0.193925 0.064705 0.1
    endloop
  endfacet
  facet normal -0.946935 0.321425 0
    outer loop
       vertex -0.193925 0.064705 0.1
       vertex -0.183414 0.095671 0.1
       vertex -0.183414 0.095671 0
    endloop
  endfacet
  facet normal -0.980784 0.195096 0
    outer loop
       vertex -0.193925 0.064705 0
       vertex -0.200305 0.0326315 0
       vertex -0.200305 0.0326315 0.1
    endloop
  endfacet
  facet normal -0.980784 0.195096 0
    outer loop
       vertex -0.200305 0.0326315 0.1
       vertex -0.193925 0.064705 0.1
       vertex -0.193925 0.064705 0
    endloop
  endfacet
  facet normal -0.997858 0.0654098 0
    outer loop
       vertex -0.202444 8.32665e-17 0.1
       vertex -0.200305 0.0326315 0.1
       vertex -0.200305 0.0326315 0
    endloop
  endfacet
  facet normal -0.997858 0.0654098 -1.08928e-16
    outer loop
       vertex -0.200305 0.0326315 0
       vertex -0.202444 -8.32665e-17 0
       vertex -0.202444 8.32665e-17 0.1
    endloop
  endfacet
  facet normal -0.997858 -0.0654098 0
    outer loop
       vertex -0.202444 -8.32665e-17 0
       vertex -0.200305 -0.0326315 0
       vertex -0.200305 -0.0326315 0.1
    endloop
  endfacet
  facet normal -0.997858 -0.0654098 1.08928e-16
    outer loop
       vertex -0.200305 -0.0326315 0.1
       vertex -0.202444 8.32665e-17 0.1
       vertex -0.202444 -8.32665e-17 0
    endloop
  endfacet
  facet normal -0.980784 -0.195096 0
    outer loop
       vertex -0.200305 -0.0326315 0
       vertex -0.193925 -0.064705 0
       vertex -0.193925 -0.064705 0.1
    endloop
  endfacet
  facet normal -0.980784 -0.195096 0
    outer loop
       vertex -0.193925 -0.064705 0.1
       vertex -0.200305 -0.0326315 0.1
       vertex -0.200305 -0.0326315 0
    endloop
  endfacet
  facet normal -0.946935 -0.321425 0
    outer loop
       vertex -0.193925 -0.064705 0
       vertex -0.183414 -0.095671 0
       vertex -0.183414 -0.095671 0.1
    endloop
  endfacet
  facet normal -0.946935 -0.321425 0
    outer loop
       vertex -0.183414 -0.095671 0.1
       vertex -0.193925 -0.064705 0.1
       vertex -0.193925 -0.064705 0
    endloop
  endfacet
  facet normal -0.896866 -0.442302 0
    outer loop
       vertex -0.183414 -0.095671 0
       vertex -0.16895 -0.125 0
       vertex -0.16895 -0.125 0.1
    endloop
  endfacet
  facet normal -0.896866 -0.442302 0
    outer loop
       vertex -0.16895 -0.125 0.1
       vertex -0.183414 -0.095671 0.1
       vertex -0.183414 -0.095671 0
    endloop
  endfacet
  facet normal -0.831476 -0.555561 0
    outer loop
       vertex -0.16895 -0.125 0
       vertex -0.150782 -0.152191 0
       vertex -0.150782 -0.152191 0.1
    endloop
  endfacet
  facet normal -0.831476 -0.555561 0
    outer loop
       vertex -0.150782 -0.152191 0.1
       vertex -0.16895 -0.125 0.1
       vertex -0.16895 -0.125 0
    endloop
  endfacet
  facet normal -0.751817 -0.659372 0
    outer loop
       vertex -0.150782 -0.152191 0
       vertex -0.12922 -0.176776 0
       vertex -0.12922 -0.176776 0.1
    endloop
  endfacet
  facet normal -0.751817 -0.659372 0
    outer loop
       vertex -0.12922 -0.176776 0.1
       vertex -0.150782 -0.152191 0.1
       vertex -0.150782 -0.152191 0
    endloop
  endfacet
  facet normal 0.659372 -0.751817 0
    outer loop
       vertex 0.224332 -0.176776 0
       vertex 0.224332 -0.176776 0.1
       vertex 0.199747 -0.198338 0.1
    endloop
  endfacet
  facet normal 0.659372 -0.751817 0
    outer loop
       vertex 0.199747 -0.198338 0.1
       vertex 0.199747 -0.198338 0
       vertex 0.224332 -0.176776 0
    endloop
  endfacet
  facet normal 0.555561 -0.831476 0
    outer loop
       vertex 0.199747 -0.198338 0
       vertex 0.199747 -0.198338 0.1
       vertex 0.172556 -0.216506 0.1
    endloop
  endfacet
  facet normal 0.555561 -0.831476 0
    outer loop
       vertex 0.172556 -0.216506 0.1
       vertex 0.172556 -0.216506 0
       vertex 0.199747 -0.198338 0
    endloop
  endfacet
  facet normal 0.442302 -0.896866 0
    outer loop
       vertex 0.172556 -0.216506 0
       vertex 0.172556 -0.216506 0.1
       vertex 0.143227 -0.23097 0.1
    endloop
  endfacet
  facet normal 0.442302 -0.896866 0
    outer loop
       vertex 0.143227 -0.23097 0.1
       vertex 0.143227 -0.23097 0
       vertex 0.172556 -0.216506 0
    endloop
  endfacet
  facet normal 0.321425 -0.946935 0
    outer loop
       vertex 0.143227 -0.23097 0
       vertex 0.143227 -0.23097 0.1
       vertex 0.112261 -0.241481 0.1
    endloop
  endfacet
  facet normal 0.321425 -0.946935 0
    outer loop
       vertex 0.112261 -0.241481 0.1
       vertex 0.112261 -0.241481 0
       vertex 0.143227 -0.23097 0
    endloop
  endfacet
  facet normal 0.195096 -0.980784 0
    outer loop
       vertex 0.112261 -0.241481 0
       vertex 0.112261 -0.241481 0.1
       vertex 0.0801879 -0.247861 0.1
    endloop
  endfacet
  facet normal 0.195096 -0.980784 0
    outer loop
       vertex 0.0801879 -0.247861 0.1
       vertex 0.0801879 -0.247861 0
       vertex 0.112261 -0.241481 0
    endloop
  endfacet
  facet normal 0.0654098 -0.997858 0
    outer loop
       vertex 0.0475564 -0.25 0
       vertex 0.0801879 -0.247861 0
       vertex 0.0801879 -0.247861 0.1
    endloop
  endfacet
  facet normal 0.0654098 -0.997858 1.08928e-16
    outer loop
       vertex 0.0801879 -0.247861 0.1
       vertex 0.0475564 -0.25 0.1
       vertex 0.0475564 -0.25 0
    endloop
  endfacet
  facet normal -0.0654098 -0.997858 0
    outer loop
       vertex 0.0475564 -0.25 0.1
       vertex 0.0149249 -0.247861 0.1
       vertex 0.0149249 -0.247861 0
    endloop
  endfacet
  facet normal -0.0654098 -0.997858 -1.08928e-16
    outer loop
       vertex 0.0149249 -0.247861 0
       vertex 0.0475564 -0.25 0
       vertex 0.0475564 -0.25 0.1
    endloop
  endfacet
  facet normal -0.195096 -0.980784 0
    outer loop
       vertex 0.0149249 -0.247861 0
       vertex 0.0149249 -0.247861 0.1
       vertex -0.0171486 -0.241481 0.1
    endloop
  endfacet
  facet normal -0.195096 -0.980784 -0
    outer loop
       vertex -0.0171486 -0.241481 0.1
       vertex -0.0171486 -0.241481 0
       vertex 0.0149249 -0.247861 0
    endloop
  endfacet
  facet normal -0.321425 -0.946935 0
    outer loop
       vertex -0.0171486 -0.241481 0
       vertex -0.0171486 -0.241481 0.1
       vertex -0.0481146 -0.23097 0.1
    endloop
  endfacet
  facet normal -0.321425 -0.946935 -0
    outer loop
       vertex -0.0481146 -0.23097 0.1
       vertex -0.0481146 -0.23097 0
       vertex -0.0171486 -0.241481 0
    endloop
  endfacet
  facet normal -0.442302 -0.896866 0
    outer loop
       vertex -0.0481146 -0.23097 0
       vertex -0.0481146 -0.23097 0.1
       vertex -0.0774436 -0.216506 0.1
    endloop
  endfacet
  facet normal -0.442302 -0.896866 -0
    outer loop
       vertex -0.0774436 -0.216506 0.1
       vertex -0.0774436 -0.216506 0
       vertex -0.0481146 -0.23097 0
    endloop
  endfacet
  facet normal -0.555561 -0.831476 0
    outer loop
       vertex -0.0774436 -0.216506 0
       vertex -0.0774436 -0.216506 0.1
       vertex -0.104635 -0.198338 0.1
    endloop
  endfacet
  facet normal -0.555561 -0.831476 -0
    outer loop
       vertex -0.104635 -0.198338 0.1
       vertex -0.104635 -0.198338 0
       vertex -0.0774436 -0.216506 0
    endloop
  endfacet
  facet normal -0.659372 -0.751817 0
    outer loop
       vertex -0.104635 -0.198338 0
       vertex -0.104635 -0.198338 0.1
       vertex -0.12922 -0.176776 0.1
    endloop
  endfacet
  facet normal -0.659372 -0.751817 -0
    outer loop
       vertex -0.12922 -0.176776 0.1
       vertex -0.12922 -0.176776 0
       vertex -0.104635 -0.198338 0
    endloop
  endfacet
endsolid cylinder
