solid cylinder
  facet normal 0.751817 -0.659372 0
    outer loop
       vertex 0.161732 -0.176776 0
       vertex 0.183294 -0.152191 0
       vertex 0.183294 -0.152191 0.1
    endloop
  endfacet
  facet normal 0.751817 -0.659372 0
    outer loop
       vertex 0.183294 -0.152191 0.1
       vertex 0.161732 -0.176776 0.1
       vertex 0.161732 -0.176776 0
    endloop
  endfacet
  facet normal 0.831476 -0.555561 0
    outer loop
       vertex 0.183294 -0.152191 0
       vertex 0.201462 -0.125 0
       vertex 0.201462 -0.125 0.1
    endloop
  endfacet
  facet normal 0.831476 -0.555561 0
    outer loop
       vertex 0.201462 -0.125 0.1
       vertex 0.183294 -0.152191 0.1
       vertex 0.183294 -0.152191 0
    endloop
  endfacet
  facet normal 0.896866 -0.442302 0
    outer loop
       vertex 0.201462 -0.125 0
       vertex 0.215926 -0.095671 0
       vertex 0.215926 -0.095671 0.1
    endloop
  endfacet
  facet normal 0.896866 -0.442302 0
    outer loop
       vertex 0.215926 -0.095671 0.1
       vertex 0.201462 -0.125 0.1
       vertex 0.201462 -0.125 0
    endloop
  endfacet
  facet normal 0.946935 -0.321425 0
    outer loop
       vertex 0.215926 -0.095671 0
       vertex 0.226437 -0.064705 0
       vertex 0.226437 -0.064705 0.1
    endloop
  endfacet
  facet normal 0.946935 -0.321425 0
    outer loop
       vertex 0.226437 -0.064705 0.1
       vertex 0.215926 -0.095671 0.1
       vertex 0.215926 -0.095671 0
    endloop
  endfacet
  facet normal 0.980784 -0.195096 0
    outer loop
       vertex 0.226437 -0.064705 0
       vertex 0.232817 -0.0326315 0
       vertex 0.232817 -0.0326315 0.1
    endloop
  endfacet
  facet normal 0.980784 -0.195096 0
    outer loop
       vertex 0.232817 -0.0326315 0.1
       vertex 0.226437 -0.064705 0.1
       vertex 0.226437 -0.064705 0
    endloop
  endfacet
  facet normal 0.997858 -0.0654098 0
    outer loop
       vertex 0.234956 -8.32665e-17 0.1
       vertex 0.232817 -0.0326315 0.1
       vertex 0.232817 -0.0326315 0
    endloop
  endfacet
  facet normal 0.997858 -0.0654098 -1.08928e-16
    outer loop
       vertex 0.232817 -0.0326315 0
       vertex 0.234956 8.32665e-17 0
       vertex 0.234956 -8.32665e-17 0.1
    endloop
  endfacet
  facet normal 0.997858 0.0654098 0
    outer loop
       vertex 0.234956 8.32665e-17 0
       vertex 0.232817 0.0326315 0
       vertex 0.232817 0.0326315 0.1
    endloop
  endfacet
  facet normal 0.997858 0.0654098 1.08928e-16
    outer loop
       vertex 0.232817 0.0326315 0.1
       vertex 0.234956 -8.32665e-17 0.1
       vertex 0.234956 8.32665e-17 0
    endloop
  endfacet
  facet normal 0.980784 0.195096 0
    outer loop
       vertex 0.232817 0.0326315 0
       vertex 0.226437 0.064705 0
       vertex 0.226437 0.064705 0.1
    endloop
  endfacet
  facet normal 0.980784 0.195096 0
    outer loop
       vertex 0.226437 0.064705 0.1
       vertex 0.232817 0.0326315 0.1
       vertex 0.232817 0.0326315 0
    endloop
  endfacet
  facet normal 0.946935 0.321425 0
    outer loop
       vertex 0.226437 0.064705 0
       vertex 0.215926 0.095671 0
       vertex 0.215926 0.095671 0.1
    endloop
  endfacet
  facet normal 0.946935 0.321425 0
    outer loop
       vertex 0.215926 0.095671 0.1
       vertex 0.226437 0.064705 0.1
       vertex 0.226437 0.064705 0
    endloop
  endfacet
  facet normal 0.896866 0.442302 0
    outer loop
       vertex 0.215926 0.095671 0
       vertex 0.201462 0.125 0
       vertex 0.201462 0.125 0.1
    endloop
  endfacet
  facet normal 0.896866 0.442302 0
    outer loop
       vertex 0.201462 0.125 0.1
       vertex 0.215926 0.095671 0.1
       vertex 0.215926 0.095671 0
    endloop
  endfacet
  facet normal 0.831476 0.555561 0
    outer loop
       vertex 0.201462 0.125 0
       vertex 0.183294 0.152191 0
       vertex 0.183294 0.152191 0.1
    endloop
  endfacet
  facet normal 0.831476 0.555561 0
    outer loop
       vertex 0.183294 0.152191 0.1
       vertex 0.201462 0.125 0.1
       vertex 0.201462 0.125 0
    endloop
  endfacet
  facet normal 0.751817 0.659372 0
    outer loop
       vertex 0.183294 0.152191 0
       vertex 0.161732 0.176776 0
       vertex 0.161732 0.176776 0.1
    endloop
  endfacet
  facet normal 0.751817 0.659372 0
    outer loop
       vertex 0.161732 0.176776 0.1
       vertex 0.183294 0.152191 0.1
       vertex 0.183294 0.152191 0
    endloop
  endfacet
  facet normal 0.659372 0.751817 0
    outer loop
       vertex 0.161732 0.176776 0
       vertex 0.137147 0.198338 0
       vertex 0.137147 0.198338 0.1
    endloop
  endfacet
  facet normal 0.659372 0.751817 0
    outer loop
       vertex 0.137147 0.198338 0.1
       vertex 0.161732 0.176776 0.1
       vertex 0.161732 0.176776 0
    endloop
  endfacet
  facet normal 0.555561 0.831476 0
    outer loop
       vertex 0.137147 0.198338 0
       vertex 0.109956 0.216506 0
       vertex 0.109956 0.216506 0.1
    endloop
  endfacet
  facet normal 0.555561 0.831476 0
    outer loop
       vertex 0.109956 0.216506 0.1
       vertex 0.137147 0.198338 0.1
       vertex 0.137147 0.198338 0
    endloop
  endfacet
  facet normal 0.442302 0.896866 0
    outer loop
       vertex 0.109956 0.216506 0
       vertex 0.0806272 0.23097 0
       vertex 0.0806272 0.23097 0.1
    endloop
  endfacet
  facet normal 0.442302 0.896866 0
    outer loop
       vertex 0.0806272 0.23097 0.1
       vertex 0.109956 0.216506 0.1
       vertex 0.109956 0.216506 0
    endloop
  endfacet
  facet normal 0.321425 0.946935 0
    outer loop
       vertex 0.0806272 0.23097 0
       vertex 0.0496612 0.241481 0
       vertex 0.0496612 0.241481 0.1
    endloop
  endfacet
  facet normal 0.321425 0.946935 0
    outer loop
       vertex 0.0496612 0.241481 0.1
       vertex 0.0806272 0.23097 0.1
       vertex 0.0806272 0.23097 0
    endloop
  endfacet
  facet normal 0.195096 0.980784 0
    outer loop
       vertex 0.0496612 0.241481 0
       vertex 0.0175877 0.247861 0
       vertex 0.0175877 0.247861 0.1
    endloop
  endfacet
  facet normal 0.195096 0.980784 0
    outer loop
       vertex 0.0175877 0.247861 0.1
       vertex 0.0496612 0.241481 0.1
       vertex 0.0496612 0.241481 0
    endloop
  endfacet
  facet normal 0.0654098 0.997858 0
    outer loop
       vertex -0.0150438 0.25 0.1
       vertex 0.0175877 0.247861 0.1
       vertex 0.0175877 0.247861 0
    endloop
  endfacet
  facet normal 0.0654098 0.997858 -1.0893e-16
    outer loop
       vertex 0.0175877 0.247861 0
       vertex -0.0150438 0.25 0
       vertex -0.0150438 0.25 0.1
    endloop
  endfacet
  facet normal -0.0654098 0.997858 0
    outer loop
       vertex -0.0150438 0.25 0
       vertex -0.0476753 0.247861 0
       vertex -0.0476753 0.247861 0.1
    endloop
  endfacet
  facet normal -0.0654098 0.997858 1.0893e-16
    outer loop
       vertex -0.0476753 0.247861 0.1
       vertex -0.0150438 0.25 0.1
       vertex -0.0150438 0.25 0
    endloop
  endfacet
  facet normal -0.195096 0.980784 0
    outer loop
       vertex -0.0476753 0.247861 0
       vertex -0.0797488 0.241481 0
       vertex -0.0797488 0.241481 0.1
    endloop
  endfacet
  facet normal -0.195096 0.980784 0
    outer loop
       vertex -0.0797488 0.241481 0.1
       vertex -0.0476753 0.247861 0.1
       vertex -0.0476753 0.247861 0
    endloop
  endfacet
  facet normal -0.321425 0.946935 0
    outer loop
       vertex -0.0797488 0.241481 0
       vertex -0.110715 0.23097 0
       vertex -0.110715 0.23097 0.1
    endloop
  endfacet
  facet normal -0.321425 0.946935 0
    outer loop
       vertex -0.110715 0.23097 0.1
       vertex -0.0797488 0.241481 0.1
       vertex -0.0797488 0.241481 0
    endloop
  endfacet
  facet normal -0.442302 0.896866 0
    outer loop
       vertex -0.110715 0.23097 0
       vertex -0.140044 0.216506 0
       vertex -0.140044 0.216506 0.1
    endloop
  endfacet
  facet normal -0.442302 0.896866 0
    outer loop
       vertex -0.140044 0.216506 0.1
       vertex -0.110715 0.23097 0.1
       vertex -0.110715 0.23097 0
    endloop
  endfacet
  facet normal -0.555561 0.831476 0
    outer loop
       vertex -0.140044 0.216506 0
       vertex -0.167235 0.198338 0
       vertex -0.167235 0.198338 0.1
    endloop
  endfacet
  facet normal -0.555561 0.831476 0
    outer loop
       vertex -0.167235 0.198338 0.1
       vertex -0.140044 0.216506 0.1
       vertex -0.140044 0.216506 0
    endloop
  endfacet
  facet normal -0.659372 0.751817 0
    outer loop
       vertex -0.167235 0.198338 0
       vertex -0.19182 0.176776 0
       vertex -0.19182 0.176776 0.1
    endloop
  endfacet
  facet normal -0.659372 0.751817 0
    outer loop
       vertex -0.19182 0.176776 0.1
       vertex -0.167235 0.198338 0.1
       vertex -0.167235 0.198338 0
    endloop
  endfacet
  facet normal -0.751817 0.659372 0
    outer loop
       vertex -0.19182 0.176776 0
       vertex -0.213382 0.152191 0
       vertex -0.213382 0.152191 0.1
    endloop
  endfacet
  facet normal -0.751817 0.659372 0
    outer loop
       vertex -0.213382 0.152191 0.1
       vertex -0.19182 0.176776 0.1
       vertex -0.19182 0.176776 0
    endloop
  endfacet
  facet normal -0.831476 0.555561 0
    outer loop
       vertex -0.213382 0.152191 0
       vertex -0.23155 0.125 0
       vertex -0.23155 0.125 0.1
    endloop
  endfacet
  facet normal -0.831476 0.555561 0
    outer loop
       vertex -0.23155 0.125 0.1
       vertex -0.213382 0.152191 0.1
       vertex -0.213382 0.152191 0
    endloop
  endfacet
  facet normal -0.896866 0.442302 0
    outer loop
       vertex -0.23155 0.125 0
       vertex -0.246014 0.095671 0
       vertex -0.246014 0.095671 0.1
    endloop
  endfacet
  facet normal -0.896866 0.442302 0
    outer loop
       vertex -0.246014 0.095671 0.1
       vertex -0.23155 0.125 0.1
       vertex -0.23155 0.125 0
    endloop
  endfacet
  facet normal -0.946935 0.321425 0
    outer loop
       vertex -0.246014 0.095671 0
       vertex -0.256525 0.064705 0
       vertex -0.256525 0.064705 0.1
    endloop
  endfacet
  facet normal -0.946935 0.321425 0
    outer loop
       vertex -0.256525 0.064705 0.1
       vertex -0.246014 0.095671 0.1
       vertex -0.246014 0.095671 0
    endloop
  endfacet
  facet normal -0.980784 0.195096 0
    outer loop
       vertex -0.256525 0.064705 0
       vertex -0.262905 0.0326315 0
       vertex -0.262905 0.0326315 0.1
    endloop
  endfacet
  facet normal -0.980784 0.195096 0
    outer loop
       vertex -0.262905 0.0326315 0.1
       vertex -0.256525 0.064705 0.1
       vertex -0.256525 0.064705 0
    endloop
  endfacet
  facet normal -0.997858 0.0654098 0
    outer loop
       vertex -0.265044 8.32665e-17 0.1
       vertex -0.262905 0.0326315 0.1
       vertex -0.262905 0.0326315 0
    endloop
  endfacet
  facet normal -0.997858 0.0654098 -1.08928e-16
    outer loop
       vertex -0.262905 0.0326315 0
       vertex -0.265044 -8.32665e-17 0
       vertex -0.265044 8.32665e-17 0.1
    endloop
  endfacet
  facet normal -0.997858 -0.0654098 0
    outer loop
       vertex -0.265044 -8.32665e-17 0
       vertex -0.262905 -0.0326315 0
       vertex -0.262905 -0.0326315 0.1
    endloop
  endfacet
  facet normal -0.997858 -0.0654098 1.08928e-16
    outer loop
       vertex -0.262905 -0.0326315 0.1
       vertex -0.265044 8.32665e-17 0.1
       vertex -0.265044 -8.32665e-17 0
    endloop
  endfacet
  facet normal -0.980784 -0.195096 0
    outer loop
       vertex -0.262905 -0.0326315 0
       vertex -0.256525 -0.064705 0
       vertex -0.256525 -0.064705 0.1
    endloop
  endfacet
  facet normal -0.980784 -0.195096 0
    outer loop
       vertex -0.256525 -0.064705 0.1
       vertex -0.262905 -0.0326315 0.1
       vertex -0.262905 -0.0326315 0
    endloop
  endfacet
  facet normal -0.946935 -0.321425 0
    outer loop
       vertex -0.256525 -0.064705 0
       vertex -0.246014 -0.095671 0
       vertex -0.246014 -0.095671 0.1
    endloop
  endfacet
  facet normal -0.946935 -0.321425 0
    outer loop
       vertex -0.246014 -0.095671 0.1
       vertex -0.256525 -0.064705 0.1
       vertex -0.256525 -0.064705 0
    endloop
  endfacet
  facet normal -0.896866 -0.442302 0
    outer loop
       vertex -0.246014 -0.095671 0
       vertex -0.23155 -0.125 0
       vertex -0.23155 -0.125 0.1
    endloop
  endfacet
  facet normal -0.896866 -0.442302 0
    outer loop
       vertex -0.23155 -0.125 0.1
       vertex -0.246014 -0.095671 0.1
       vertex -0.246014 -0.095671 0
    endloop
  endfacet
  facet normal -0.831476 -0.555561 0
    outer loop
       vertex -0.23155 -0.125 0
       vertex -0.213382 -0.152191 0
       vertex -0.213382 -0.152191 0.1
    endloop
  endfacet
  facet normal -0.831476 -0.555561 0
    outer loop
       vertex -0.213382 -0.152191 0.1
       vertex -0.23155 -0.125 0.1
       vertex -0.23155 -0.125 0
    endloop
  endfacet
  facet normal -0.751817 -0.659372 0
    outer loop
       vertex -0.213382 -0.152191 0
       vertex -0.19182 -0.176776 0
       vertex -0.19182 -0.176776 0.1
    endloop
  endfacet
  facet normal -0.751817 -0.659372 0
    outer loop
       vertex -0.19182 -0.176776 0.1
       vertex -0.213382 -0.152191 0.1
       vertex -0.213382 -0.152191 0
    endloop
  endfacet
  facet normal 0.659372 -0.751817 0
    outer loop
       vertex 0.161732 -0.176776 0
       vertex 0.161732 -0.176776 0.1
       vertex 0.137147 -0.198338 0.1
    endloop
  endfacet
  facet normal 0.659372 -0.751817 0
    outer loop
       vertex 0.137147 -0.198338 0.1
       vertex 0.137147 -0.198338 0
       vertex 0.161732 -0.176776 0
    endloop
  endfacet
  facet normal 0.555561 -0.831476 0
    outer loop
       vertex 0.137147 -0.198338 0
       vertex 0.137147 -0.198338 0.1
       vertex 0.109956 -0.216506 0.1
    endloop
  endfacet
  facet normal 0.555561 -0.831476 0
    outer loop
       vertex 0.109956 -0.216506 0.1
       vertex 0.109956 -0.216506 0
       vertex 0.137147 -0.198338 0
    endloop
  endfacet
  facet normal 0.442302 -0.896866 0
    outer loop
       vertex 0.109956 -0.216506 0
       vertex 0.109956 -0.216506 0.1
       vertex 0.0806272 -0.23097 0.1
    endloop
  endfacet
  facet normal 0.442302 -0.896866 0
    outer loop
       vertex 0.0806272 -0.23097 0.1
       vertex 0.0806272 -0.23097 0
       vertex 0.109956 -0.216506 0
    endloop
  endfacet
  facet normal 0.321425 -0.946935 0
    outer loop
       vertex 0.0806272 -0.23097 0
       vertex 0.0806272 -0.23097 0.1
       vertex 0.0496612 -0.241481 0.1
    endloop
  endfacet
  facet normal 0.321425 -0.946935 0
    outer loop
       vertex 0.0496612 -0.241481 0.1
       vertex 0.0496612 -0.241481 0
       vertex 0.0806272 -0.23097 0
    endloop
  endfacet
  facet normal 0.195096 -0.980784 0
    outer loop
       vertex 0.0496612 -0.241481 0
       vertex 0.0496612 -0.241481 0.1
       vertex 0.0175877 -0.247861 0.1
    endloop
  endfacet
  facet normal 0.195096 -0.980784 0
    outer loop
       vertex 0.0175877 -0.247861 0.1
       vertex 0.0175877 -0.247861 0
       vertex 0.0496612 -0.241481 0
    endloop
  endfacet
  facet normal 0.0654098 -0.997858 0
    outer loop
       vertex -0.0150438 -0.25 0
       vertex 0.0175877 -0.247861 0
       vertex 0.0175877 -0.247861 0.1
    endloop
  endfacet
  facet normal 0.0654098 -0.997858 1.0893e-16
    outer loop
       vertex 0.0175877 -0.247861 0.1
       vertex -0.0150438 -0.25 0.1
       vertex -0.0150438 -0.25 0
    endloop
  endfacet
  facet normal -0.0654098 -0.997858 0
    outer loop
       vertex -0.0150438 -0.25 0.1
       vertex -0.0476753 -0.247861 0.1
       vertex -0.0476753 -0.247861 0
    endloop
  endfacet
  facet normal -0.0654098 -0.997858 -1.0893e-16
    outer loop
       vertex -0.0476753 -0.247861 0
       vertex -0.0150438 -0.25 0
       vertex -0.0150438 -0.25 0.1
    endloop
  endfacet
  facet normal -0.195096 -0.980784 0
    outer loop
       vertex -0.0476753 -0.247861 0
       vertex -0.0476753 -0.247861 0.1
       vertex -0.0797488 -0.241481 0.1
    endloop
  endfacet
  facet normal -0.195096 -0.980784 -0
    outer loop
       vertex -0.0797488 -0.241481 0.1
       vertex -0.0797488 -0.241481 0
       vertex -0.0476753 -0.247861 0
    endloop
  endfacet
  facet normal -0.321425 -0.946935 0
    outer loop
       vertex -0.0797488 -0.241481 0
       vertex -0.0797488 -0.241481 0.1
       vertex -0.110715 -0.23097 0.1
    endloop
  endfacet
  facet normal -0.321425 -0.946935 -0
    outer loop
       vertex -0.110715 -0.23097 0.1
       vertex -0.110715 -0.23097 0
       vertex -0.0797488 -0.241481 0
    endloop
  endfacet
  facet normal -0.442302 -0.896866 0
    outer loop
       vertex -0.110715 -0.23097 0
       vertex -0.110715 -0.23097 0.1
       vertex -0.140044 -0.216506 0.1
    endloop
  endfacet
  facet normal -0.442302 -0.896866 -0
    outer loop
       vertex -0.140044 -0.216506 0.1
       vertex -0.140044 -0.216506 0
       vertex -0.110715 -0.23097 0
    endloop
  endfacet
  facet normal -0.555561 -0.831476 0
    outer loop
       vertex -0.140044 -0.216506 0
       vertex -0.140044 -0.216506 0.1
       vertex -0.167235 -0.198338 0.1
    endloop
  endfacet
  facet normal -0.555561 -0.831476 -0
    outer loop
       vertex -0.167235 -0.198338 0.1
       vertex -0.167235 -0.198338 0
       vertex -0.140044 -0.216506 0
    endloop
  endfacet
  facet normal -0.659372 -0.751817 0
    outer loop
       vertex -0.167235 -0.198338 0
       vertex -0.167235 -0.198338 0.1
       vertex -0.19182 -0.176776 0.1
    endloop
  endfacet
  facet normal -0.659372 -0.751817 -0
    outer loop
       vertex -0.19182 -0.176776 0.1
       vertex -0.19182 -0.176776 0
       vertex -0.167235 -0.198338 0
    endloop
  endfacet
endsolid cylinder
