solid cylinder
  facet normal 0.751817 -0.659372 0
    outer loop
       vertex 0.129022 -0.176776 0
       vertex 0.150584 -0.152191 0
       vertex 0.150584 -0.152191 0.1
    endloop
  endfacet
  facet normal 0.751817 -0.659372 0
    outer loop
       vertex 0.150584 -0.152191 0.1
       vertex 0.129022 -0.176776 0.1
       vertex 0.129022 -0.176776 0
    endloop
  endfacet
  facet normal 0.831476 -0.555561 0
    outer loop
       vertex 0.150584 -0.152191 0
       vertex 0.168752 -0.125 0
       vertex 0.168752 -0.125 0.1
    endloop
  endfacet
  facet normal 0.831476 -0.555561 0
    outer loop
       vertex 0.168752 -0.125 0.1
       vertex 0.150584 -0.152191 0.1
       vertex 0.150584 -0.152191 0
    endloop
  endfacet
  facet normal 0.896866 -0.442302 0
    outer loop
       vertex 0.168752 -0.125 0
       vertex 0.183216 -0.095671 0
       vertex 0.183216 -0.095671 0.1
    endloop
  endfacet
  facet normal 0.896866 -0.442302 0
    outer loop
       vertex 0.183216 -0.095671 0.1
       vertex 0.168752 -0.125 0.1
       vertex 0.168752 -0.125 0
    endloop
  endfacet
  facet normal 0.946935 -0.321425 0
    outer loop
       vertex 0.183216 -0.095671 0
       vertex 0.193727 -0.064705 0
       vertex 0.193727 -0.064705 0.1
    endloop
  endfacet
  facet normal 0.946935 -0.321425 0
    outer loop
       vertex 0.193727 -0.064705 0.1
       vertex 0.183216 -0.095671 0.1
       vertex 0.183216 -0.095671 0
    endloop
  endfacet
  facet normal 0.980784 -0.195096 0
    outer loop
       vertex 0.193727 -0.064705 0
       vertex 0.200107 -0.0326315 0
       vertex 0.200107 -0.0326315 0.1
    endloop
  endfacet
  facet normal 0.980784 -0.195096 0
    outer loop
       vertex 0.200107 -0.0326315 0.1
       vertex 0.193727 -0.064705 0.1
       vertex 0.193727 -0.064705 0
    endloop
  endfacet
  facet normal 0.997858 -0.0654098 0
    outer loop
       vertex 0.202246 -8.32665e-17 0.1
       vertex 0.200107 -0.0326315 0.1
       vertex 0.200107 -0.0326315 0
    endloop
  endfacet
  facet normal 0.997858 -0.0654098 -1.08928e-16
    outer loop
       vertex 0.200107 -0.0326315 0
       vertex 0.202246 8.32665e-17 0
       vertex 0.202246 -8.32665e-17 0.1
    endloop
  endfacet
  facet normal 0.997858 0.0654098 0
    outer loop
       vertex 0.202246 8.32665e-17 0
       vertex 0.200107 0.0326315 0
       vertex 0.200107 0.0326315 0.1
    endloop
  endfacet
  facet normal 0.997858 0.0654098 1.08928e-16
    outer loop
       vertex 0.200107 0.0326315 0.1
       vertex 0.202246 -8.32665e-17 0.1
       vertex 0.202246 8.32665e-17 0
    endloop
  endfacet
  facet normal 0.980784 0.195096 0
    outer loop
       vertex 0.200107 0.0326315 0
       vertex 0.193727 0.064705 0
       vertex 0.193727 0.064705 0.1
    endloop
  endfacet
  facet normal 0.980784 0.195096 0
    outer loop
       vertex 0.193727 0.064705 0.1
       vertex 0.200107 0.0326315 0.1
       vertex 0.200107 0.0326315 0
    endloop
  endfacet
  facet normal 0.946935 0.321425 0
    outer loop
       vertex 0.193727 0.064705 0
       vertex 0.183216 0.095671 0
       vertex 0.183216 0.095671 0.1
    endloop
  endfacet
  facet normal 0.946935 0.321425 0
    outer loop
       vertex 0.183216 0.095671 0.1
       vertex 0.193727 0.064705 0.1
       vertex 0.193727 0.064705 0
    endloop
  endfacet
  facet normal 0.896866 0.442302 0
    outer loop
       vertex 0.183216 0.095671 0
       vertex 0.168752 0.125 0
       vertex 0.168752 0.125 0.1
    endloop
  endfacet
  facet normal 0.896866 0.442302 0
    outer loop
       vertex 0.168752 0.125 0.1
       vertex 0.183216 0.095671 0.1
       vertex 0.183216 0.095671 0
    endloop
  endfacet
  facet normal 0.831476 0.555561 0
    outer loop
       vertex 0.168752 0.125 0
       vertex 0.150584 0.152191 0
       vertex 0.150584 0.152191 0.1
    endloop
  endfacet
  facet normal 0.831476 0.555561 0
    outer loop
       vertex 0.150584 0.152191 0.1
       vertex 0.168752 0.125 0.1
       vertex 0.168752 0.125 0
    endloop
  endfacet
  facet normal 0.751817 0.659372 0
    outer loop
       vertex 0.150584 0.152191 0
       vertex 0.129022 0.176776 0
       vertex 0.129022 0.176776 0.1
    endloop
  endfacet
  facet normal 0.751817 0.659372 0
    outer loop
       vertex 0.129022 0.176776 0.1
       vertex 0.150584 0.152191 0.1
       vertex 0.150584 0.152191 0
    endloop
  endfacet
  facet normal 0.659372 0.751817 0
    outer loop
       vertex 0.129022 0.176776 0
       vertex 0.104437 0.198338 0
       vertex 0.104437 0.198338 0.1
    endloop
  endfacet
  facet normal 0.659372 0.751817 0
    outer loop
       vertex 0.104437 0.198338 0.1
       vertex 0.129022 0.176776 0.1
       vertex 0.129022 0.176776 0
    endloop
  endfacet
  facet normal 0.555561 0.831476 0
    outer loop
       vertex 0.104437 0.198338 0
       vertex 0.0772459 0.216506 0
       vertex 0.0772459 0.216506 0.1
    endloop
  endfacet
  facet normal 0.555561 0.831476 0
    outer loop
       vertex 0.0772459 0.216506 0.1
       vertex 0.104437 0.198338 0.1
       vertex 0.104437 0.198338 0
    endloop
  endfacet
  facet normal 0.442302 0.896866 0
    outer loop
       vertex 0.0772459 0.216506 0
       vertex 0.0479169 0.23097 0
       vertex 0.0479169 0.23097 0.1
    endloop
  endfacet
  facet normal 0.442302 0.896866 0
    outer loop
       vertex 0.0479169 0.23097 0.1
       vertex 0.0772459 0.216506 0.1
       vertex 0.0772459 0.216506 0
    endloop
  endfacet
  facet normal 0.321425 0.946935 0
    outer loop
       vertex 0.0479169 0.23097 0
       vertex 0.0169509 0.241481 0
       vertex 0.0169509 0.241481 0.1
    endloop
  endfacet
  facet normal 0.321425 0.946935 0
    outer loop
       vertex 0.0169509 0.241481 0.1
       vertex 0.0479169 0.23097 0.1
       vertex 0.0479169 0.23097 0
    endloop
  endfacet
  facet normal 0.195096 0.980784 0
    outer loop
       vertex 0.0169509 0.241481 0
       vertex -0.0151226 0.247861 0
       vertex -0.0151226 0.247861 0.1
    endloop
  endfacet
  facet normal 0.195096 0.980784 0
    outer loop
       vertex -0.0151226 0.247861 0.1
       vertex 0.0169509 0.241481 0.1
       vertex 0.0169509 0.241481 0
    endloop
  endfacet
  facet normal 0.0654098 0.997858 0
    outer loop
       vertex -0.0477541 0.25 0.1
       vertex -0.0151226 0.247861 0.1
       vertex -0.0151226 0.247861 0
    endloop
  endfacet
  facet normal 0.0654098 0.997858 -1.08928e-16
    outer loop
       vertex -0.0151226 0.247861 0
       vertex -0.0477541 0.25 0
       vertex -0.0477541 0.25 0.1
    endloop
  endfacet
  facet normal -0.0654098 0.997858 0
    outer loop
       vertex -0.0477541 0.25 0
       vertex -0.0803856 0.247861 0
       vertex -0.0803856 0.247861 0.1
    endloop
  endfacet
  facet normal -0.0654098 0.997858 1.0893e-16
    outer loop
       vertex -0.0803856 0.247861 0.1
       vertex -0.0477541 0.25 0.1
       vertex -0.0477541 0.25 0
    endloop
  endfacet
  facet normal -0.195096 0.980784 0
    outer loop
       vertex -0.0803856 0.247861 0
       vertex -0.112459 0.241481 0
       vertex -0.112459 0.241481 0.1
    endloop
  endfacet
  facet normal -0.195096 0.980784 0
    outer loop
       vertex -0.112459 0.241481 0.1
       vertex -0.0803856 0.247861 0.1
       vertex -0.0803856 0.247861 0
    endloop
  endfacet
  facet normal -0.321425 0.946935 0
    outer loop
       vertex -0.112459 0.241481 0
       vertex -0.143425 0.23097 0
       vertex -0.143425 0.23097 0.1
    endloop
  endfacet
  facet normal -0.321425 0.946935 0
    outer loop
       vertex -0.143425 0.23097 0.1
       vertex -0.112459 0.241481 0.1
       vertex -0.112459 0.241481 0
    endloop
  endfacet
  facet normal -0.442302 0.896866 0
    outer loop
       vertex -0.143425 0.23097 0
       vertex -0.172754 0.216506 0
       vertex -0.172754 0.216506 0.1
    endloop
  endfacet
  facet normal -0.442302 0.896866 0
    outer loop
       vertex -0.172754 0.216506 0.1
       vertex -0.143425 0.23097 0.1
       vertex -0.143425 0.23097 0
    endloop
  endfacet
  facet normal -0.555561 0.831476 0
    outer loop
       vertex -0.172754 0.216506 0
       vertex -0.199945 0.198338 0
       vertex -0.199945 0.198338 0.1
    endloop
  endfacet
  facet normal -0.555561 0.831476 0
    outer loop
       vertex -0.199945 0.198338 0.1
       vertex -0.172754 0.216506 0.1
       vertex -0.172754 0.216506 0
    endloop
  endfacet
  facet normal -0.659372 0.751817 0
    outer loop
       vertex -0.199945 0.198338 0
       vertex -0.22453 0.176776 0
       vertex -0.22453 0.176776 0.1
    endloop
  endfacet
  facet normal -0.659372 0.751817 0
    outer loop
       vertex -0.22453 0.176776 0.1
       vertex -0.199945 0.198338 0.1
       vertex -0.199945 0.198338 0
    endloop
  endfacet
  facet normal -0.751817 0.659372 0
    outer loop
       vertex -0.22453 0.176776 0
       vertex -0.246092 0.152191 0
       vertex -0.246092 0.152191 0.1
    endloop
  endfacet
  facet normal -0.751817 0.659372 0
    outer loop
       vertex -0.246092 0.152191 0.1
       vertex -0.22453 0.176776 0.1
       vertex -0.22453 0.176776 0
    endloop
  endfacet
  facet normal -0.831476 0.555561 0
    outer loop
       vertex -0.246092 0.152191 0
       vertex -0.26426 0.125 0
       vertex -0.26426 0.125 0.1
    endloop
  endfacet
  facet normal -0.831476 0.555561 0
    outer loop
       vertex -0.26426 0.125 0.1
       vertex -0.246092 0.152191 0.1
       vertex -0.246092 0.152191 0
    endloop
  endfacet
  facet normal -0.896866 0.442302 0
    outer loop
       vertex -0.26426 0.125 0
       vertex -0.278724 0.095671 0
       vertex -0.278724 0.095671 0.1
    endloop
  endfacet
  facet normal -0.896866 0.442302 0
    outer loop
       vertex -0.278724 0.095671 0.1
       vertex -0.26426 0.125 0.1
       vertex -0.26426 0.125 0
    endloop
  endfacet
  facet normal -0.946935 0.321425 0
    outer loop
       vertex -0.278724 0.095671 0
       vertex -0.289235 0.064705 0
       vertex -0.289235 0.064705 0.1
    endloop
  endfacet
  facet normal -0.946935 0.321425 0
    outer loop
       vertex -0.289235 0.064705 0.1
       vertex -0.278724 0.095671 0.1
       vertex -0.278724 0.095671 0
    endloop
  endfacet
  facet normal -0.980784 0.195096 0
    outer loop
       vertex -0.289235 0.064705 0
       vertex -0.295615 0.0326315 0
       vertex -0.295615 0.0326315 0.1
    endloop
  endfacet
  facet normal -0.980784 0.195096 0
    outer loop
       vertex -0.295615 0.0326315 0.1
       vertex -0.289235 0.064705 0.1
       vertex -0.289235 0.064705 0
    endloop
  endfacet
  facet normal -0.997858 0.0654098 0
    outer loop
       vertex -0.297754 8.32665e-17 0.1
       vertex -0.295615 0.0326315 0.1
       vertex -0.295615 0.0326315 0
    endloop
  endfacet
  facet normal -0.997858 0.0654098 -1.08928e-16
    outer loop
       vertex -0.295615 0.0326315 0
       vertex -0.297754 -8.32665e-17 0
       vertex -0.297754 8.32665e-17 0.1
    endloop
  endfacet
  facet normal -0.997858 -0.0654098 0
    outer loop
       vertex -0.297754 -8.32665e-17 0
       vertex -0.295615 -0.0326315 0
       vertex -0.295615 -0.0326315 0.1
    endloop
  endfacet
  facet normal -0.997858 -0.0654098 1.08928e-16
    outer loop
       vertex -0.295615 -0.0326315 0.1
       vertex -0.297754 8.32665e-17 0.1
       vertex -0.297754 -8.32665e-17 0
    endloop
  endfacet
  facet normal -0.980784 -0.195096 0
    outer loop
       vertex -0.295615 -0.0326315 0
       vertex -0.289235 -0.064705 0
       vertex -0.289235 -0.064705 0.1
    endloop
  endfacet
  facet normal -0.980784 -0.195096 0
    outer loop
       vertex -0.289235 -0.064705 0.1
       vertex -0.295615 -0.0326315 0.1
       vertex -0.295615 -0.0326315 0
    endloop
  endfacet
  facet normal -0.946935 -0.321425 0
    outer loop
       vertex -0.289235 -0.064705 0
       vertex -0.278724 -0.095671 0
       vertex -0.278724 -0.095671 0.1
    endloop
  endfacet
  facet normal -0.946935 -0.321425 0
    outer loop
       vertex -0.278724 -0.095671 0.1
       vertex -0.289235 -0.064705 0.1
       vertex -0.289235 -0.064705 0
    endloop
  endfacet
  facet normal -0.896866 -0.442302 0
    outer loop
       vertex -0.278724 -0.095671 0
       vertex -0.26426 -0.125 0
       vertex -0.26426 -0.125 0.1
    endloop
  endfacet
  facet normal -0.896866 -0.442302 0
    outer loop
       vertex -0.26426 -0.125 0.1
       vertex -0.278724 -0.095671 0.1
       vertex -0.278724 -0.095671 0
    endloop
  endfacet
  facet normal -0.831476 -0.555561 0
    outer loop
       vertex -0.26426 -0.125 0
       vertex -0.246092 -0.152191 0
       vertex -0.246092 -0.152191 0.1
    endloop
  endfacet
  facet normal -0.831476 -0.555561 0
    outer loop
       vertex -0.246092 -0.152191 0.1
       vertex -0.26426 -0.125 0.1
       vertex -0.26426 -0.125 0
    endloop
  endfacet
  facet normal -0.751817 -0.659372 0
    outer loop
       vertex -0.246092 -0.152191 0
       vertex -0.22453 -0.176776 0
       vertex -0.22453 -0.176776 0.1
    endloop
  endfacet
  facet normal -0.751817 -0.659372 0
    outer loop
       vertex -0.22453 -0.176776 0.1
       vertex -0.246092 -0.152191 0.1
       vertex -0.246092 -0.152191 0
    endloop
  endfacet
  facet normal 0.659372 -0.751817 0
    outer loop
       vertex 0.129022 -0.176776 0
       vertex 0.129022 -0.176776 0.1
       vertex 0.104437 -0.198338 0.1
    endloop
  endfacet
  facet normal 0.659372 -0.751817 0
    outer loop
       vertex 0.104437 -0.198338 0.1
       vertex 0.104437 -0.198338 0
       vertex 0.129022 -0.176776 0
    endloop
  endfacet
  facet normal 0.555561 -0.831476 0
    outer loop
       vertex 0.104437 -0.198338 0
       vertex 0.104437 -0.198338 0.1
       vertex 0.0772459 -0.216506 0.1
    endloop
  endfacet
  facet normal 0.555561 -0.831476 0
    outer loop
       vertex 0.0772459 -0.216506 0.1
       vertex 0.0772459 -0.216506 0
       vertex 0.104437 -0.198338 0
    endloop
  endfacet
  facet normal 0.442302 -0.896866 0
    outer loop
       vertex 0.0772459 -0.216506 0
       vertex 0.0772459 -0.216506 0.1
       vertex 0.0479169 -0.23097 0.1
    endloop
  endfacet
  facet normal 0.442302 -0.896866 0
    outer loop
       vertex 0.0479169 -0.23097 0.1
       vertex 0.0479169 -0.23097 0
       vertex 0.0772459 -0.216506 0
    endloop
  endfacet
  facet normal 0.321425 -0.946935 0
    outer loop
       vertex 0.0479169 -0.23097 0
       vertex 0.0479169 -0.23097 0.1
       vertex 0.0169509 -0.241481 0.1
    endloop
  endfacet
  facet normal 0.321425 -0.946935 0
    outer loop
       vertex 0.0169509 -0.241481 0.1
       vertex 0.0169509 -0.241481 0
       vertex 0.0479169 -0.23097 0
    endloop
  endfacet
  facet normal 0.195096 -0.980784 0
    outer loop
       vertex 0.0169509 -0.241481 0
       vertex 0.0169509 -0.241481 0.1
       vertex -0.0151226 -0.247861 0.1
    endloop
  endfacet
  facet normal 0.195096 -0.980784 0
    outer loop
       vertex -0.0151226 -0.247861 0.1
       vertex -0.0151226 -0.247861 0
       vertex 0.0169509 -0.241481 0
    endloop
  endfacet
  facet normal 0.0654098 -0.997858 0
    outer loop
       vertex -0.0477541 -0.25 0
       vertex -0.0151226 -0.247861 0
       vertex -0.0151226 -0.247861 0.1
    endloop
  endfacet
  facet normal 0.0654098 -0.997858 1.08928e-16
    outer loop
       vertex -0.0151226 -0.247861 0.1
       vertex -0.0477541 -0.25 0.1
       vertex -0.0477541 -0.25 0
    endloop
  endfacet
  facet normal -0.0654098 -0.997858 0
    outer loop
       vertex -0.0477541 -0.25 0.1
       vertex -0.0803856 -0.247861 0.1
       vertex -0.0803856 -0.247861 0
    endloop
  endfacet
  facet normal -0.0654098 -0.997858 -1.0893e-16
    outer loop
       vertex -0.0803856 -0.247861 0
       vertex -0.0477541 -0.25 0
       vertex -0.0477541 -0.25 0.1
    endloop
  endfacet
  facet normal -0.195096 -0.980784 0
    outer loop
       vertex -0.0803856 -0.247861 0
       vertex -0.0803856 -0.247861 0.1
       vertex -0.112459 -0.241481 0.1
    endloop
  endfacet
  facet normal -0.195096 -0.980784 -0
    outer loop
       vertex -0.112459 -0.241481 0.1
       vertex -0.112459 -0.241481 0
       vertex -0.0803856 -0.247861 0
    endloop
  endfacet
  facet normal -0.321425 -0.946935 0
    outer loop
       vertex -0.112459 -0.241481 0
       vertex -0.112459 -0.241481 0.1
       vertex -0.143425 -0.23097 0.1
    endloop
  endfacet
  facet normal -0.321425 -0.946935 -0
    outer loop
       vertex -0.143425 -0.23097 0.1
       vertex -0.143425 -0.23097 0
       vertex -0.112459 -0.241481 0
    endloop
  endfacet
  facet normal -0.442302 -0.896866 0
    outer loop
       vertex -0.143425 -0.23097 0
       vertex -0.143425 -0.23097 0.1
       vertex -0.172754 -0.216506 0.1
    endloop
  endfacet
  facet normal -0.442302 -0.896866 -0
    outer loop
       vertex -0.172754 -0.216506 0.1
       vertex -0.172754 -0.216506 0
       vertex -0.143425 -0.23097 0
    endloop
  endfacet
  facet normal -0.555561 -0.831476 0
    outer loop
       vertex -0.172754 -0.216506 0
       vertex -0.172754 -0.216506 0.1
       vertex -0.199945 -0.198338 0.1
    endloop
  endfacet
  facet normal -0.555561 -0.831476 -0
    outer loop
       vertex -0.199945 -0.198338 0.1
       vertex -0.199945 -0.198338 0
       vertex -0.172754 -0.216506 0
    endloop
  endfacet
  facet normal -0.659372 -0.751817 0
    outer loop
       vertex -0.199945 -0.198338 0
       vertex -0.199945 -0.198338 0.1
       vertex -0.22453 -0.176776 0.1
    endloop
  endfacet
  facet normal -0.659372 -0.751817 -0
    outer loop
       vertex -0.22453 -0.176776 0.1
       vertex -0.22453 -0.176776 0
       vertex -0.199945 -0.198338 0
    endloop
  endfacet
endsolid cylinder
