solid cylinder
  facet normal 0.751817 -0.659372 0
    outer loop
       vertex -0.109405 -0.176776 0
       vertex -0.0878434 -0.152191 0
       vertex -0.0878434 -0.152191 0.1
    endloop
  endfacet
  facet normal 0.751817 -0.659372 0
    outer loop
       vertex -0.0878434 -0.152191 0.1
       vertex -0.109405 -0.176776 0.1
       vertex -0.109405 -0.176776 0
    endloop
  endfacet
  facet normal 0.831476 -0.555561 0
    outer loop
       vertex -0.0878434 -0.152191 0
       vertex -0.0696754 -0.125 0
       vertex -0.0696754 -0.125 0.1
    endloop
  endfacet
  facet normal 0.831476 -0.555561 0
    outer loop
       vertex -0.0696754 -0.125 0.1
       vertex -0.0878434 -0.152191 0.1
       vertex -0.0878434 -0.152191 0
    endloop
  endfacet
  facet normal 0.896866 -0.442302 0
    outer loop
       vertex -0.0696754 -0.125 0
       vertex -0.0552114 -0.095671 0
       vertex -0.0552114 -0.095671 0.1
    endloop
  endfacet
  facet normal 0.896866 -0.442302 0
    outer loop
       vertex -0.0552114 -0.095671 0.1
       vertex -0.0696754 -0.125 0.1
       vertex -0.0696754 -0.125 0
    endloop
  endfacet
  facet normal 0.946935 -0.321425 0
    outer loop
       vertex -0.0552114 -0.095671 0
       vertex -0.0447004 -0.064705 0
       vertex -0.0447004 -0.064705 0.1
    endloop
  endfacet
  facet normal 0.946935 -0.321425 0
    outer loop
       vertex -0.0447004 -0.064705 0.1
       vertex -0.0552114 -0.095671 0.1
       vertex -0.0552114 -0.095671 0
    endloop
  endfacet
  facet normal 0.980784 -0.195096 0
    outer loop
       vertex -0.0447004 -0.064705 0
       vertex -0.0383204 -0.0326315 0
       vertex -0.0383204 -0.0326315 0.1
    endloop
  endfacet
  facet normal 0.980784 -0.195096 0
    outer loop
       vertex -0.0383204 -0.0326315 0.1
       vertex -0.0447004 -0.064705 0.1
       vertex -0.0447004 -0.064705 0
    endloop
  endfacet
  facet normal 0.997858 -0.0654098 0
    outer loop
       vertex -0.0361814 -8.32665e-17 0.1
       vertex -0.0383204 -0.0326315 0.1
       vertex -0.0383204 -0.0326315 0
    endloop
  endfacet
  facet normal 0.997858 -0.0654098 -1.08928e-16
    outer loop
       vertex -0.0383204 -0.0326315 0
       vertex -0.0361814 8.32665e-17 0
       vertex -0.0361814 -8.32665e-17 0.1
    endloop
  endfacet
  facet normal 0.997858 0.0654098 0
    outer loop
       vertex -0.0361814 8.32665e-17 0
       vertex -0.0383204 0.0326315 0
       vertex -0.0383204 0.0326315 0.1
    endloop
  endfacet
  facet normal 0.997858 0.0654098 1.08928e-16
    outer loop
       vertex -0.0383204 0.0326315 0.1
       vertex -0.0361814 -8.32665e-17 0.1
       vertex -0.0361814 8.32665e-17 0
    endloop
  endfacet
  facet normal 0.980784 0.195096 0
    outer loop
       vertex -0.0383204 0.0326315 0
       vertex -0.0447004 0.064705 0
       vertex -0.0447004 0.064705 0.1
    endloop
  endfacet
  facet normal 0.980784 0.195096 0
    outer loop
       vertex -0.0447004 0.064705 0.1
       vertex -0.0383204 0.0326315 0.1
       vertex -0.0383204 0.0326315 0
    endloop
  endfacet
  facet normal 0.946935 0.321425 0
    outer loop
       vertex -0.0447004 0.064705 0
       vertex -0.0552114 0.095671 0
       vertex -0.0552114 0.095671 0.1
    endloop
  endfacet
  facet normal 0.946935 0.321425 0
    outer loop
       vertex -0.0552114 0.095671 0.1
       vertex -0.0447004 0.064705 0.1
       vertex -0.0447004 0.064705 0
    endloop
  endfacet
  facet normal 0.896866 0.442302 0
    outer loop
       vertex -0.0552114 0.095671 0
       vertex -0.0696754 0.125 0
       vertex -0.0696754 0.125 0.1
    endloop
  endfacet
  facet normal 0.896866 0.442302 0
    outer loop
       vertex -0.0696754 0.125 0.1
       vertex -0.0552114 0.095671 0.1
       vertex -0.0552114 0.095671 0
    endloop
  endfacet
  facet normal 0.831476 0.555561 0
    outer loop
       vertex -0.0696754 0.125 0
       vertex -0.0878434 0.152191 0
       vertex -0.0878434 0.152191 0.1
    endloop
  endfacet
  facet normal 0.831476 0.555561 0
    outer loop
       vertex -0.0878434 0.152191 0.1
       vertex -0.0696754 0.125 0.1
       vertex -0.0696754 0.125 0
    endloop
  endfacet
  facet normal 0.751817 0.659372 0
    outer loop
       vertex -0.0878434 0.152191 0
       vertex -0.109405 0.176776 0
       vertex -0.109405 0.176776 0.1
    endloop
  endfacet
  facet normal 0.751817 0.659372 0
    outer loop
       vertex -0.109405 0.176776 0.1
       vertex -0.0878434 0.152191 0.1
       vertex -0.0878434 0.152191 0
    endloop
  endfacet
  facet normal 0.659372 0.751817 0
    outer loop
       vertex -0.109405 0.176776 0
       vertex -0.13399 0.198338 0
       vertex -0.13399 0.198338 0.1
    endloop
  endfacet
  facet normal 0.659372 0.751817 0
    outer loop
       vertex -0.13399 0.198338 0.1
       vertex -0.109405 0.176776 0.1
       vertex -0.109405 0.176776 0
    endloop
  endfacet
  facet normal 0.555561 0.831476 0
    outer loop
       vertex -0.13399 0.198338 0
       vertex -0.161181 0.216506 0
       vertex -0.161181 0.216506 0.1
    endloop
  endfacet
  facet normal 0.555561 0.831476 0
    outer loop
       vertex -0.161181 0.216506 0.1
       vertex -0.13399 0.198338 0.1
       vertex -0.13399 0.198338 0
    endloop
  endfacet
  facet normal 0.442302 0.896866 0
    outer loop
       vertex -0.161181 0.216506 0
       vertex -0.19051 0.23097 0
       vertex -0.19051 0.23097 0.1
    endloop
  endfacet
  facet normal 0.442302 0.896866 0
    outer loop
       vertex -0.19051 0.23097 0.1
       vertex -0.161181 0.216506 0.1
       vertex -0.161181 0.216506 0
    endloop
  endfacet
  facet normal 0.321425 0.946935 0
    outer loop
       vertex -0.19051 0.23097 0
       vertex -0.221476 0.241481 0
       vertex -0.221476 0.241481 0.1
    endloop
  endfacet
  facet normal 0.321425 0.946935 0
    outer loop
       vertex -0.221476 0.241481 0.1
       vertex -0.19051 0.23097 0.1
       vertex -0.19051 0.23097 0
    endloop
  endfacet
  facet normal 0.195096 0.980784 0
    outer loop
       vertex -0.221476 0.241481 0
       vertex -0.25355 0.247861 0
       vertex -0.25355 0.247861 0.1
    endloop
  endfacet
  facet normal 0.195096 0.980784 0
    outer loop
       vertex -0.25355 0.247861 0.1
       vertex -0.221476 0.241481 0.1
       vertex -0.221476 0.241481 0
    endloop
  endfacet
  facet normal 0.0654098 0.997858 0
    outer loop
       vertex -0.286181 0.25 0.1
       vertex -0.25355 0.247861 0.1
       vertex -0.25355 0.247861 0
    endloop
  endfacet
  facet normal 0.0654098 0.997858 -1.45239e-16
    outer loop
       vertex -0.25355 0.247861 0
       vertex -0.286181 0.25 0
       vertex -0.286181 0.25 0.1
    endloop
  endfacet
  facet normal -0.0654098 0.997858 0
    outer loop
       vertex -0.286181 0.25 0
       vertex -0.318813 0.247861 0
       vertex -0.318813 0.247861 0.1
    endloop
  endfacet
  facet normal -0.0654098 0.997858 1.45239e-16
    outer loop
       vertex -0.318813 0.247861 0.1
       vertex -0.286181 0.25 0.1
       vertex -0.286181 0.25 0
    endloop
  endfacet
  facet normal -0.195096 0.980784 0
    outer loop
       vertex -0.318813 0.247861 0
       vertex -0.350886 0.241481 0
       vertex -0.350886 0.241481 0.1
    endloop
  endfacet
  facet normal -0.195096 0.980784 0
    outer loop
       vertex -0.350886 0.241481 0.1
       vertex -0.318813 0.247861 0.1
       vertex -0.318813 0.247861 0
    endloop
  endfacet
  facet normal -0.321425 0.946935 0
    outer loop
       vertex -0.350886 0.241481 0
       vertex -0.381852 0.23097 0
       vertex -0.381852 0.23097 0.1
    endloop
  endfacet
  facet normal -0.321425 0.946935 0
    outer loop
       vertex -0.381852 0.23097 0.1
       vertex -0.350886 0.241481 0.1
       vertex -0.350886 0.241481 0
    endloop
  endfacet
  facet normal -0.442302 0.896866 0
    outer loop
       vertex -0.381852 0.23097 0
       vertex -0.411181 0.216506 0
       vertex -0.411181 0.216506 0.1
    endloop
  endfacet
  facet normal -0.442302 0.896866 0
    outer loop
       vertex -0.411181 0.216506 0.1
       vertex -0.381852 0.23097 0.1
       vertex -0.381852 0.23097 0
    endloop
  endfacet
  facet normal -0.555561 0.831476 0
    outer loop
       vertex -0.411181 0.216506 0
       vertex -0.438372 0.198338 0
       vertex -0.438372 0.198338 0.1
    endloop
  endfacet
  facet normal -0.555561 0.831476 0
    outer loop
       vertex -0.438372 0.198338 0.1
       vertex -0.411181 0.216506 0.1
       vertex -0.411181 0.216506 0
    endloop
  endfacet
  facet normal -0.659372 0.751817 0
    outer loop
       vertex -0.438372 0.198338 0
       vertex -0.462957 0.176776 0
       vertex -0.462957 0.176776 0.1
    endloop
  endfacet
  facet normal -0.659372 0.751817 0
    outer loop
       vertex -0.462957 0.176776 0.1
       vertex -0.438372 0.198338 0.1
       vertex -0.438372 0.198338 0
    endloop
  endfacet
  facet normal -0.751817 0.659372 0
    outer loop
       vertex -0.462957 0.176776 0
       vertex -0.484519 0.152191 0
       vertex -0.484519 0.152191 0.1
    endloop
  endfacet
  facet normal -0.751817 0.659372 0
    outer loop
       vertex -0.484519 0.152191 0.1
       vertex -0.462957 0.176776 0.1
       vertex -0.462957 0.176776 0
    endloop
  endfacet
  facet normal -0.831476 0.555561 0
    outer loop
       vertex -0.484519 0.152191 0
       vertex -0.502687 0.125 0
       vertex -0.502687 0.125 0.1
    endloop
  endfacet
  facet normal -0.831476 0.555561 0
    outer loop
       vertex -0.502687 0.125 0.1
       vertex -0.484519 0.152191 0.1
       vertex -0.484519 0.152191 0
    endloop
  endfacet
  facet normal -0.896866 0.442302 0
    outer loop
       vertex -0.502687 0.125 0
       vertex -0.517151 0.095671 0
       vertex -0.517151 0.095671 0.1
    endloop
  endfacet
  facet normal -0.896866 0.442302 0
    outer loop
       vertex -0.517151 0.095671 0.1
       vertex -0.502687 0.125 0.1
       vertex -0.502687 0.125 0
    endloop
  endfacet
  facet normal -0.946935 0.321425 0
    outer loop
       vertex -0.517151 0.095671 0
       vertex -0.527662 0.064705 0
       vertex -0.527662 0.064705 0.1
    endloop
  endfacet
  facet normal -0.946935 0.321425 0
    outer loop
       vertex -0.527662 0.064705 0.1
       vertex -0.517151 0.095671 0.1
       vertex -0.517151 0.095671 0
    endloop
  endfacet
  facet normal -0.980784 0.195096 0
    outer loop
       vertex -0.527662 0.064705 0
       vertex -0.534042 0.0326315 0
       vertex -0.534042 0.0326315 0.1
    endloop
  endfacet
  facet normal -0.980784 0.195096 0
    outer loop
       vertex -0.534042 0.0326315 0.1
       vertex -0.527662 0.064705 0.1
       vertex -0.527662 0.064705 0
    endloop
  endfacet
  facet normal -0.997858 0.0654098 0
    outer loop
       vertex -0.536181 8.32665e-17 0.1
       vertex -0.534042 0.0326315 0.1
       vertex -0.534042 0.0326315 0
    endloop
  endfacet
  facet normal -0.997858 0.0654098 -1.08928e-16
    outer loop
       vertex -0.534042 0.0326315 0
       vertex -0.536181 -8.32665e-17 0
       vertex -0.536181 8.32665e-17 0.1
    endloop
  endfacet
  facet normal -0.997858 -0.0654098 0
    outer loop
       vertex -0.536181 -8.32665e-17 0
       vertex -0.534042 -0.0326315 0
       vertex -0.534042 -0.0326315 0.1
    endloop
  endfacet
  facet normal -0.997858 -0.0654098 1.08928e-16
    outer loop
       vertex -0.534042 -0.0326315 0.1
       vertex -0.536181 8.32665e-17 0.1
       vertex -0.536181 -8.32665e-17 0
    endloop
  endfacet
  facet normal -0.980784 -0.195096 0
    outer loop
       vertex -0.534042 -0.0326315 0
       vertex -0.527662 -0.064705 0
       vertex -0.527662 -0.064705 0.1
    endloop
  endfacet
  facet normal -0.980784 -0.195096 0
    outer loop
       vertex -0.527662 -0.064705 0.1
       vertex -0.534042 -0.0326315 0.1
       vertex -0.534042 -0.0326315 0
    endloop
  endfacet
  facet normal -0.946935 -0.321425 0
    outer loop
       vertex -0.527662 -0.064705 0
       vertex -0.517151 -0.095671 0
       vertex -0.517151 -0.095671 0.1
    endloop
  endfacet
  facet normal -0.946935 -0.321425 0
    outer loop
       vertex -0.517151 -0.095671 0.1
       vertex -0.527662 -0.064705 0.1
       vertex -0.527662 -0.064705 0
    endloop
  endfacet
  facet normal -0.896866 -0.442302 0
    outer loop
       vertex -0.517151 -0.095671 0
       vertex -0.502687 -0.125 0
       vertex -0.502687 -0.125 0.1
    endloop
  endfacet
  facet normal -0.896866 -0.442302 0
    outer loop
       vertex -0.502687 -0.125 0.1
       vertex -0.517151 -0.095671 0.1
       vertex -0.517151 -0.095671 0
    endloop
  endfacet
  facet normal -0.831476 -0.555561 0
    outer loop
       vertex -0.502687 -0.125 0
       vertex -0.484519 -0.152191 0
       vertex -0.484519 -0.152191 0.1
    endloop
  endfacet
  facet normal -0.831476 -0.555561 0
    outer loop
       vertex -0.484519 -0.152191 0.1
       vertex -0.502687 -0.125 0.1
       vertex -0.502687 -0.125 0
    endloop
  endfacet
  facet normal -0.751817 -0.659372 0
    outer loop
       vertex -0.484519 -0.152191 0
       vertex -0.462957 -0.176776 0
       vertex -0.462957 -0.176776 0.1
    endloop
  endfacet
  facet normal -0.751817 -0.659372 0
    outer loop
       vertex -0.462957 -0.176776 0.1
       vertex -0.484519 -0.152191 0.1
       vertex -0.484519 -0.152191 0
    endloop
  endfacet
  facet normal 0.659372 -0.751817 0
    outer loop
       vertex -0.109405 -0.176776 0
       vertex -0.109405 -0.176776 0.1
       vertex -0.13399 -0.198338 0.1
    endloop
  endfacet
  facet normal 0.659372 -0.751817 0
    outer loop
       vertex -0.13399 -0.198338 0.1
       vertex -0.13399 -0.198338 0
       vertex -0.109405 -0.176776 0
    endloop
  endfacet
  facet normal 0.555561 -0.831476 0
    outer loop
       vertex -0.13399 -0.198338 0
       vertex -0.13399 -0.198338 0.1
       vertex -0.161181 -0.216506 0.1
    endloop
  endfacet
  facet normal 0.555561 -0.831476 0
    outer loop
       vertex -0.161181 -0.216506 0.1
       vertex -0.161181 -0.216506 0
       vertex -0.13399 -0.198338 0
    endloop
  endfacet
  facet normal 0.442302 -0.896866 0
    outer loop
       vertex -0.161181 -0.216506 0
       vertex -0.161181 -0.216506 0.1
       vertex -0.19051 -0.23097 0.1
    endloop
  endfacet
  facet normal 0.442302 -0.896866 0
    outer loop
       vertex -0.19051 -0.23097 0.1
       vertex -0.19051 -0.23097 0
       vertex -0.161181 -0.216506 0
    endloop
  endfacet
  facet normal 0.321425 -0.946935 0
    outer loop
       vertex -0.19051 -0.23097 0
       vertex -0.19051 -0.23097 0.1
       vertex -0.221476 -0.241481 0.1
    endloop
  endfacet
  facet normal 0.321425 -0.946935 0
    outer loop
       vertex -0.221476 -0.241481 0.1
       vertex -0.221476 -0.241481 0
       vertex -0.19051 -0.23097 0
    endloop
  endfacet
  facet normal 0.195096 -0.980784 0
    outer loop
       vertex -0.221476 -0.241481 0
       vertex -0.221476 -0.241481 0.1
       vertex -0.25355 -0.247861 0.1
    endloop
  endfacet
  facet normal 0.195096 -0.980784 0
    outer loop
       vertex -0.25355 -0.247861 0.1
       vertex -0.25355 -0.247861 0
       vertex -0.221476 -0.241481 0
    endloop
  endfacet
  facet normal 0.0654098 -0.997858 0
    outer loop
       vertex -0.286181 -0.25 0
       vertex -0.25355 -0.247861 0
       vertex -0.25355 -0.247861 0.1
    endloop
  endfacet
  facet normal 0.0654098 -0.997858 1.45239e-16
    outer loop
       vertex -0.25355 -0.247861 0.1
       vertex -0.286181 -0.25 0.1
       vertex -0.286181 -0.25 0
    endloop
  endfacet
  facet normal -0.0654098 -0.997858 0
    outer loop
       vertex -0.286181 -0.25 0.1
       vertex -0.318813 -0.247861 0.1
       vertex -0.318813 -0.247861 0
    endloop
  endfacet
  facet normal -0.0654098 -0.997858 -1.45239e-16
    outer loop
       vertex -0.318813 -0.247861 0
       vertex -0.286181 -0.25 0
       vertex -0.286181 -0.25 0.1
    endloop
  endfacet
  facet normal -0.195096 -0.980784 0
    outer loop
       vertex -0.318813 -0.247861 0
       vertex -0.318813 -0.247861 0.1
       vertex -0.350886 -0.241481 0.1
    endloop
  endfacet
  facet normal -0.195096 -0.980784 -0
    outer loop
       vertex -0.350886 -0.241481 0.1
       vertex -0.350886 -0.241481 0
       vertex -0.318813 -0.247861 0
    endloop
  endfacet
  facet normal -0.321425 -0.946935 0
    outer loop
       vertex -0.350886 -0.241481 0
       vertex -0.350886 -0.241481 0.1
       vertex -0.381852 -0.23097 0.1
    endloop
  endfacet
  facet normal -0.321425 -0.946935 -0
    outer loop
       vertex -0.381852 -0.23097 0.1
       vertex -0.381852 -0.23097 0
       vertex -0.350886 -0.241481 0
    endloop
  endfacet
  facet normal -0.442302 -0.896866 0
    outer loop
       vertex -0.381852 -0.23097 0
       vertex -0.381852 -0.23097 0.1
       vertex -0.411181 -0.216506 0.1
    endloop
  endfacet
  facet normal -0.442302 -0.896866 -0
    outer loop
       vertex -0.411181 -0.216506 0.1
       vertex -0.411181 -0.216506 0
       vertex -0.381852 -0.23097 0
    endloop
  endfacet
  facet normal -0.555561 -0.831476 0
    outer loop
       vertex -0.411181 -0.216506 0
       vertex -0.411181 -0.216506 0.1
       vertex -0.438372 -0.198338 0.1
    endloop
  endfacet
  facet normal -0.555561 -0.831476 -0
    outer loop
       vertex -0.438372 -0.198338 0.1
       vertex -0.438372 -0.198338 0
       vertex -0.411181 -0.216506 0
    endloop
  endfacet
  facet normal -0.659372 -0.751817 0
    outer loop
       vertex -0.438372 -0.198338 0
       vertex -0.438372 -0.198338 0.1
       vertex -0.462957 -0.176776 0.1
    endloop
  endfacet
  facet normal -0.659372 -0.751817 -0
    outer loop
       vertex -0.462957 -0.176776 0.1
       vertex -0.462957 -0.176776 0
       vertex -0.438372 -0.198338 0
    endloop
  endfacet
endsolid cylinder
