solid cylinder
  facet normal 0.751817 -0.659372 0
    outer loop
       vertex 0.458393 -0.176776 0
       vertex 0.479955 -0.152191 0
       vertex 0.479955 -0.152191 0.1
    endloop
  endfacet
  facet normal 0.751817 -0.659372 0
    outer loop
       vertex 0.479955 -0.152191 0.1
       vertex 0.458393 -0.176776 0.1
       vertex 0.458393 -0.176776 0
    endloop
  endfacet
  facet normal 0.831476 -0.555561 0
    outer loop
       vertex 0.479955 -0.152191 0
       vertex 0.498123 -0.125 0
       vertex 0.498123 -0.125 0.1
    endloop
  endfacet
  facet normal 0.831476 -0.555561 0
    outer loop
       vertex 0.498123 -0.125 0.1
       vertex 0.479955 -0.152191 0.1
       vertex 0.479955 -0.152191 0
    endloop
  endfacet
  facet normal 0.896866 -0.442302 0
    outer loop
       vertex 0.498123 -0.125 0
       vertex 0.512587 -0.095671 0
       vertex 0.512587 -0.095671 0.1
    endloop
  endfacet
  facet normal 0.896866 -0.442302 0
    outer loop
       vertex 0.512587 -0.095671 0.1
       vertex 0.498123 -0.125 0.1
       vertex 0.498123 -0.125 0
    endloop
  endfacet
  facet normal 0.946935 -0.321425 0
    outer loop
       vertex 0.512587 -0.095671 0
       vertex 0.523098 -0.064705 0
       vertex 0.523098 -0.064705 0.1
    endloop
  endfacet
  facet normal 0.946935 -0.321425 0
    outer loop
       vertex 0.523098 -0.064705 0.1
       vertex 0.512587 -0.095671 0.1
       vertex 0.512587 -0.095671 0
    endloop
  endfacet
  facet normal 0.980784 -0.195096 0
    outer loop
       vertex 0.523098 -0.064705 0
       vertex 0.529478 -0.0326315 0
       vertex 0.529478 -0.0326315 0.1
    endloop
  endfacet
  facet normal 0.980784 -0.195096 0
    outer loop
       vertex 0.529478 -0.0326315 0.1
       vertex 0.523098 -0.064705 0.1
       vertex 0.523098 -0.064705 0
    endloop
  endfacet
  facet normal 0.997858 -0.0654098 0
    outer loop
       vertex 0.531617 -8.32665e-17 0.1
       vertex 0.529478 -0.0326315 0.1
       vertex 0.529478 -0.0326315 0
    endloop
  endfacet
  facet normal 0.997858 -0.0654098 -1.0893e-16
    outer loop
       vertex 0.529478 -0.0326315 0
       vertex 0.531617 8.32665e-17 0
       vertex 0.531617 -8.32665e-17 0.1
    endloop
  endfacet
  facet normal 0.997858 0.0654098 0
    outer loop
       vertex 0.531617 8.32665e-17 0
       vertex 0.529478 0.0326315 0
       vertex 0.529478 0.0326315 0.1
    endloop
  endfacet
  facet normal 0.997858 0.0654098 1.0893e-16
    outer loop
       vertex 0.529478 0.0326315 0.1
       vertex 0.531617 -8.32665e-17 0.1
       vertex 0.531617 8.32665e-17 0
    endloop
  endfacet
  facet normal 0.980784 0.195096 0
    outer loop
       vertex 0.529478 0.0326315 0
       vertex 0.523098 0.064705 0
       vertex 0.523098 0.064705 0.1
    endloop
  endfacet
  facet normal 0.980784 0.195096 0
    outer loop
       vertex 0.523098 0.064705 0.1
       vertex 0.529478 0.0326315 0.1
       vertex 0.529478 0.0326315 0
    endloop
  endfacet
  facet normal 0.946935 0.321425 0
    outer loop
       vertex 0.523098 0.064705 0
       vertex 0.512587 0.095671 0
       vertex 0.512587 0.095671 0.1
    endloop
  endfacet
  facet normal 0.946935 0.321425 0
    outer loop
       vertex 0.512587 0.095671 0.1
       vertex 0.523098 0.064705 0.1
       vertex 0.523098 0.064705 0
    endloop
  endfacet
  facet normal 0.896866 0.442302 0
    outer loop
       vertex 0.512587 0.095671 0
       vertex 0.498123 0.125 0
       vertex 0.498123 0.125 0.1
    endloop
  endfacet
  facet normal 0.896866 0.442302 0
    outer loop
       vertex 0.498123 0.125 0.1
       vertex 0.512587 0.095671 0.1
       vertex 0.512587 0.095671 0
    endloop
  endfacet
  facet normal 0.831476 0.555561 0
    outer loop
       vertex 0.498123 0.125 0
       vertex 0.479955 0.152191 0
       vertex 0.479955 0.152191 0.1
    endloop
  endfacet
  facet normal 0.831476 0.555561 0
    outer loop
       vertex 0.479955 0.152191 0.1
       vertex 0.498123 0.125 0.1
       vertex 0.498123 0.125 0
    endloop
  endfacet
  facet normal 0.751817 0.659372 0
    outer loop
       vertex 0.479955 0.152191 0
       vertex 0.458393 0.176776 0
       vertex 0.458393 0.176776 0.1
    endloop
  endfacet
  facet normal 0.751817 0.659372 0
    outer loop
       vertex 0.458393 0.176776 0.1
       vertex 0.479955 0.152191 0.1
       vertex 0.479955 0.152191 0
    endloop
  endfacet
  facet normal 0.659372 0.751817 0
    outer loop
       vertex 0.458393 0.176776 0
       vertex 0.433808 0.198338 0
       vertex 0.433808 0.198338 0.1
    endloop
  endfacet
  facet normal 0.659372 0.751817 0
    outer loop
       vertex 0.433808 0.198338 0.1
       vertex 0.458393 0.176776 0.1
       vertex 0.458393 0.176776 0
    endloop
  endfacet
  facet normal 0.555561 0.831476 0
    outer loop
       vertex 0.433808 0.198338 0
       vertex 0.406617 0.216506 0
       vertex 0.406617 0.216506 0.1
    endloop
  endfacet
  facet normal 0.555561 0.831476 0
    outer loop
       vertex 0.406617 0.216506 0.1
       vertex 0.433808 0.198338 0.1
       vertex 0.433808 0.198338 0
    endloop
  endfacet
  facet normal 0.442302 0.896866 0
    outer loop
       vertex 0.406617 0.216506 0
       vertex 0.377288 0.23097 0
       vertex 0.377288 0.23097 0.1
    endloop
  endfacet
  facet normal 0.442302 0.896866 0
    outer loop
       vertex 0.377288 0.23097 0.1
       vertex 0.406617 0.216506 0.1
       vertex 0.406617 0.216506 0
    endloop
  endfacet
  facet normal 0.321425 0.946935 0
    outer loop
       vertex 0.377288 0.23097 0
       vertex 0.346322 0.241481 0
       vertex 0.346322 0.241481 0.1
    endloop
  endfacet
  facet normal 0.321425 0.946935 0
    outer loop
       vertex 0.346322 0.241481 0.1
       vertex 0.377288 0.23097 0.1
       vertex 0.377288 0.23097 0
    endloop
  endfacet
  facet normal 0.195096 0.980784 0
    outer loop
       vertex 0.346322 0.241481 0
       vertex 0.314248 0.247861 0
       vertex 0.314248 0.247861 0.1
    endloop
  endfacet
  facet normal 0.195096 0.980784 0
    outer loop
       vertex 0.314248 0.247861 0.1
       vertex 0.346322 0.241481 0.1
       vertex 0.346322 0.241481 0
    endloop
  endfacet
  facet normal 0.0654098 0.997858 0
    outer loop
       vertex 0.281617 0.25 0.1
       vertex 0.314248 0.247861 0.1
       vertex 0.314248 0.247861 0
    endloop
  endfacet
  facet normal 0.0654098 0.997858 -7.26205e-17
    outer loop
       vertex 0.314248 0.247861 0
       vertex 0.281617 0.25 0
       vertex 0.281617 0.25 0.1
    endloop
  endfacet
  facet normal -0.0654098 0.997858 0
    outer loop
       vertex 0.281617 0.25 0
       vertex 0.248985 0.247861 0
       vertex 0.248985 0.247861 0.1
    endloop
  endfacet
  facet normal -0.0654098 0.997858 7.26205e-17
    outer loop
       vertex 0.248985 0.247861 0.1
       vertex 0.281617 0.25 0.1
       vertex 0.281617 0.25 0
    endloop
  endfacet
  facet normal -0.195096 0.980784 0
    outer loop
       vertex 0.248985 0.247861 0
       vertex 0.216912 0.241481 0
       vertex 0.216912 0.241481 0.1
    endloop
  endfacet
  facet normal -0.195096 0.980784 0
    outer loop
       vertex 0.216912 0.241481 0.1
       vertex 0.248985 0.247861 0.1
       vertex 0.248985 0.247861 0
    endloop
  endfacet
  facet normal -0.321425 0.946935 0
    outer loop
       vertex 0.216912 0.241481 0
       vertex 0.185946 0.23097 0
       vertex 0.185946 0.23097 0.1
    endloop
  endfacet
  facet normal -0.321425 0.946935 0
    outer loop
       vertex 0.185946 0.23097 0.1
       vertex 0.216912 0.241481 0.1
       vertex 0.216912 0.241481 0
    endloop
  endfacet
  facet normal -0.442302 0.896866 0
    outer loop
       vertex 0.185946 0.23097 0
       vertex 0.156617 0.216506 0
       vertex 0.156617 0.216506 0.1
    endloop
  endfacet
  facet normal -0.442302 0.896866 0
    outer loop
       vertex 0.156617 0.216506 0.1
       vertex 0.185946 0.23097 0.1
       vertex 0.185946 0.23097 0
    endloop
  endfacet
  facet normal -0.555561 0.831476 0
    outer loop
       vertex 0.156617 0.216506 0
       vertex 0.129426 0.198338 0
       vertex 0.129426 0.198338 0.1
    endloop
  endfacet
  facet normal -0.555561 0.831476 0
    outer loop
       vertex 0.129426 0.198338 0.1
       vertex 0.156617 0.216506 0.1
       vertex 0.156617 0.216506 0
    endloop
  endfacet
  facet normal -0.659372 0.751817 0
    outer loop
       vertex 0.129426 0.198338 0
       vertex 0.104841 0.176776 0
       vertex 0.104841 0.176776 0.1
    endloop
  endfacet
  facet normal -0.659372 0.751817 0
    outer loop
       vertex 0.104841 0.176776 0.1
       vertex 0.129426 0.198338 0.1
       vertex 0.129426 0.198338 0
    endloop
  endfacet
  facet normal -0.751817 0.659372 0
    outer loop
       vertex 0.104841 0.176776 0
       vertex 0.0832786 0.152191 0
       vertex 0.0832786 0.152191 0.1
    endloop
  endfacet
  facet normal -0.751817 0.659372 0
    outer loop
       vertex 0.0832786 0.152191 0.1
       vertex 0.104841 0.176776 0.1
       vertex 0.104841 0.176776 0
    endloop
  endfacet
  facet normal -0.831476 0.555561 0
    outer loop
       vertex 0.0832786 0.152191 0
       vertex 0.0651106 0.125 0
       vertex 0.0651106 0.125 0.1
    endloop
  endfacet
  facet normal -0.831476 0.555561 0
    outer loop
       vertex 0.0651106 0.125 0.1
       vertex 0.0832786 0.152191 0.1
       vertex 0.0832786 0.152191 0
    endloop
  endfacet
  facet normal -0.896866 0.442302 0
    outer loop
       vertex 0.0651106 0.125 0
       vertex 0.0506466 0.095671 0
       vertex 0.0506466 0.095671 0.1
    endloop
  endfacet
  facet normal -0.896866 0.442302 0
    outer loop
       vertex 0.0506466 0.095671 0.1
       vertex 0.0651106 0.125 0.1
       vertex 0.0651106 0.125 0
    endloop
  endfacet
  facet normal -0.946935 0.321425 0
    outer loop
       vertex 0.0506466 0.095671 0
       vertex 0.0401356 0.064705 0
       vertex 0.0401356 0.064705 0.1
    endloop
  endfacet
  facet normal -0.946935 0.321425 0
    outer loop
       vertex 0.0401356 0.064705 0.1
       vertex 0.0506466 0.095671 0.1
       vertex 0.0506466 0.095671 0
    endloop
  endfacet
  facet normal -0.980784 0.195096 0
    outer loop
       vertex 0.0401356 0.064705 0
       vertex 0.0337556 0.0326315 0
       vertex 0.0337556 0.0326315 0.1
    endloop
  endfacet
  facet normal -0.980784 0.195096 0
    outer loop
       vertex 0.0337556 0.0326315 0.1
       vertex 0.0401356 0.064705 0.1
       vertex 0.0401356 0.064705 0
    endloop
  endfacet
  facet normal -0.997858 0.0654098 0
    outer loop
       vertex 0.0316166 8.32665e-17 0.1
       vertex 0.0337556 0.0326315 0.1
       vertex 0.0337556 0.0326315 0
    endloop
  endfacet
  facet normal -0.997858 0.0654098 -1.08928e-16
    outer loop
       vertex 0.0337556 0.0326315 0
       vertex 0.0316166 -8.32665e-17 0
       vertex 0.0316166 8.32665e-17 0.1
    endloop
  endfacet
  facet normal -0.997858 -0.0654098 0
    outer loop
       vertex 0.0316166 -8.32665e-17 0
       vertex 0.0337556 -0.0326315 0
       vertex 0.0337556 -0.0326315 0.1
    endloop
  endfacet
  facet normal -0.997858 -0.0654098 1.08928e-16
    outer loop
       vertex 0.0337556 -0.0326315 0.1
       vertex 0.0316166 8.32665e-17 0.1
       vertex 0.0316166 -8.32665e-17 0
    endloop
  endfacet
  facet normal -0.980784 -0.195096 0
    outer loop
       vertex 0.0337556 -0.0326315 0
       vertex 0.0401356 -0.064705 0
       vertex 0.0401356 -0.064705 0.1
    endloop
  endfacet
  facet normal -0.980784 -0.195096 0
    outer loop
       vertex 0.0401356 -0.064705 0.1
       vertex 0.0337556 -0.0326315 0.1
       vertex 0.0337556 -0.0326315 0
    endloop
  endfacet
  facet normal -0.946935 -0.321425 0
    outer loop
       vertex 0.0401356 -0.064705 0
       vertex 0.0506466 -0.095671 0
       vertex 0.0506466 -0.095671 0.1
    endloop
  endfacet
  facet normal -0.946935 -0.321425 0
    outer loop
       vertex 0.0506466 -0.095671 0.1
       vertex 0.0401356 -0.064705 0.1
       vertex 0.0401356 -0.064705 0
    endloop
  endfacet
  facet normal -0.896866 -0.442302 0
    outer loop
       vertex 0.0506466 -0.095671 0
       vertex 0.0651106 -0.125 0
       vertex 0.0651106 -0.125 0.1
    endloop
  endfacet
  facet normal -0.896866 -0.442302 0
    outer loop
       vertex 0.0651106 -0.125 0.1
       vertex 0.0506466 -0.095671 0.1
       vertex 0.0506466 -0.095671 0
    endloop
  endfacet
  facet normal -0.831476 -0.555561 0
    outer loop
       vertex 0.0651106 -0.125 0
       vertex 0.0832786 -0.152191 0
       vertex 0.0832786 -0.152191 0.1
    endloop
  endfacet
  facet normal -0.831476 -0.555561 0
    outer loop
       vertex 0.0832786 -0.152191 0.1
       vertex 0.0651106 -0.125 0.1
       vertex 0.0651106 -0.125 0
    endloop
  endfacet
  facet normal -0.751817 -0.659372 0
    outer loop
       vertex 0.0832786 -0.152191 0
       vertex 0.104841 -0.176776 0
       vertex 0.104841 -0.176776 0.1
    endloop
  endfacet
  facet normal -0.751817 -0.659372 0
    outer loop
       vertex 0.104841 -0.176776 0.1
       vertex 0.0832786 -0.152191 0.1
       vertex 0.0832786 -0.152191 0
    endloop
  endfacet
  facet normal 0.659372 -0.751817 0
    outer loop
       vertex 0.458393 -0.176776 0
       vertex 0.458393 -0.176776 0.1
       vertex 0.433808 -0.198338 0.1
    endloop
  endfacet
  facet normal 0.659372 -0.751817 0
    outer loop
       vertex 0.433808 -0.198338 0.1
       vertex 0.433808 -0.198338 0
       vertex 0.458393 -0.176776 0
    endloop
  endfacet
  facet normal 0.555561 -0.831476 0
    outer loop
       vertex 0.433808 -0.198338 0
       vertex 0.433808 -0.198338 0.1
       vertex 0.406617 -0.216506 0.1
    endloop
  endfacet
  facet normal 0.555561 -0.831476 0
    outer loop
       vertex 0.406617 -0.216506 0.1
       vertex 0.406617 -0.216506 0
       vertex 0.433808 -0.198338 0
    endloop
  endfacet
  facet normal 0.442302 -0.896866 0
    outer loop
       vertex 0.406617 -0.216506 0
       vertex 0.406617 -0.216506 0.1
       vertex 0.377288 -0.23097 0.1
    endloop
  endfacet
  facet normal 0.442302 -0.896866 0
    outer loop
       vertex 0.377288 -0.23097 0.1
       vertex 0.377288 -0.23097 0
       vertex 0.406617 -0.216506 0
    endloop
  endfacet
  facet normal 0.321425 -0.946935 0
    outer loop
       vertex 0.377288 -0.23097 0
       vertex 0.377288 -0.23097 0.1
       vertex 0.346322 -0.241481 0.1
    endloop
  endfacet
  facet normal 0.321425 -0.946935 0
    outer loop
       vertex 0.346322 -0.241481 0.1
       vertex 0.346322 -0.241481 0
       vertex 0.377288 -0.23097 0
    endloop
  endfacet
  facet normal 0.195096 -0.980784 0
    outer loop
       vertex 0.346322 -0.241481 0
       vertex 0.346322 -0.241481 0.1
       vertex 0.314248 -0.247861 0.1
    endloop
  endfacet
  facet normal 0.195096 -0.980784 0
    outer loop
       vertex 0.314248 -0.247861 0.1
       vertex 0.314248 -0.247861 0
       vertex 0.346322 -0.241481 0
    endloop
  endfacet
  facet normal 0.0654098 -0.997858 0
    outer loop
       vertex 0.281617 -0.25 0
       vertex 0.314248 -0.247861 0
       vertex 0.314248 -0.247861 0.1
    endloop
  endfacet
  facet normal 0.0654098 -0.997858 7.26205e-17
    outer loop
       vertex 0.314248 -0.247861 0.1
       vertex 0.281617 -0.25 0.1
       vertex 0.281617 -0.25 0
    endloop
  endfacet
  facet normal -0.0654098 -0.997858 0
    outer loop
       vertex 0.281617 -0.25 0.1
       vertex 0.248985 -0.247861 0.1
       vertex 0.248985 -0.247861 0
    endloop
  endfacet
  facet normal -0.0654098 -0.997858 -7.26205e-17
    outer loop
       vertex 0.248985 -0.247861 0
       vertex 0.281617 -0.25 0
       vertex 0.281617 -0.25 0.1
    endloop
  endfacet
  facet normal -0.195096 -0.980784 0
    outer loop
       vertex 0.248985 -0.247861 0
       vertex 0.248985 -0.247861 0.1
       vertex 0.216912 -0.241481 0.1
    endloop
  endfacet
  facet normal -0.195096 -0.980784 -0
    outer loop
       vertex 0.216912 -0.241481 0.1
       vertex 0.216912 -0.241481 0
       vertex 0.248985 -0.247861 0
    endloop
  endfacet
  facet normal -0.321425 -0.946935 0
    outer loop
       vertex 0.216912 -0.241481 0
       vertex 0.216912 -0.241481 0.1
       vertex 0.185946 -0.23097 0.1
    endloop
  endfacet
  facet normal -0.321425 -0.946935 -0
    outer loop
       vertex 0.185946 -0.23097 0.1
       vertex 0.185946 -0.23097 0
       vertex 0.216912 -0.241481 0
    endloop
  endfacet
  facet normal -0.442302 -0.896866 0
    outer loop
       vertex 0.185946 -0.23097 0
       vertex 0.185946 -0.23097 0.1
       vertex 0.156617 -0.216506 0.1
    endloop
  endfacet
  facet normal -0.442302 -0.896866 -0
    outer loop
       vertex 0.156617 -0.216506 0.1
       vertex 0.156617 -0.216506 0
       vertex 0.185946 -0.23097 0
    endloop
  endfacet
  facet normal -0.555561 -0.831476 0
    outer loop
       vertex 0.156617 -0.216506 0
       vertex 0.156617 -0.216506 0.1
       vertex 0.129426 -0.198338 0.1
    endloop
  endfacet
  facet normal -0.555561 -0.831476 -0
    outer loop
       vertex 0.129426 -0.198338 0.1
       vertex 0.129426 -0.198338 0
       vertex 0.156617 -0.216506 0
    endloop
  endfacet
  facet normal -0.659372 -0.751817 0
    outer loop
       vertex 0.129426 -0.198338 0
       vertex 0.129426 -0.198338 0.1
       vertex 0.104841 -0.176776 0.1
    endloop
  endfacet
  facet normal -0.659372 -0.751817 -0
    outer loop
       vertex 0.104841 -0.176776 0.1
       vertex 0.104841 -0.176776 0
       vertex 0.129426 -0.198338 0
    endloop
  endfacet
endsolid cylinder
