solid cylinder
  facet normal 0.751817 -0.659372 0
    outer loop
       vertex -0.00324101 -0.176776 0
       vertex 0.018321 -0.152191 0
       vertex 0.018321 -0.152191 0.1
    endloop
  endfacet
  facet normal 0.751817 -0.659372 0
    outer loop
       vertex 0.018321 -0.152191 0.1
       vertex -0.00324101 -0.176776 0.1
       vertex -0.00324101 -0.176776 0
    endloop
  endfacet
  facet normal 0.831476 -0.555561 0
    outer loop
       vertex 0.018321 -0.152191 0
       vertex 0.036489 -0.125 0
       vertex 0.036489 -0.125 0.1
    endloop
  endfacet
  facet normal 0.831476 -0.555561 0
    outer loop
       vertex 0.036489 -0.125 0.1
       vertex 0.018321 -0.152191 0.1
       vertex 0.018321 -0.152191 0
    endloop
  endfacet
  facet normal 0.896866 -0.442302 0
    outer loop
       vertex 0.036489 -0.125 0
       vertex 0.050953 -0.095671 0
       vertex 0.050953 -0.095671 0.1
    endloop
  endfacet
  facet normal 0.896866 -0.442302 0
    outer loop
       vertex 0.050953 -0.095671 0.1
       vertex 0.036489 -0.125 0.1
       vertex 0.036489 -0.125 0
    endloop
  endfacet
  facet normal 0.946935 -0.321425 0
    outer loop
       vertex 0.050953 -0.095671 0
       vertex 0.061464 -0.064705 0
       vertex 0.061464 -0.064705 0.1
    endloop
  endfacet
  facet normal 0.946935 -0.321425 0
    outer loop
       vertex 0.061464 -0.064705 0.1
       vertex 0.050953 -0.095671 0.1
       vertex 0.050953 -0.095671 0
    endloop
  endfacet
  facet normal 0.980784 -0.195096 0
    outer loop
       vertex 0.061464 -0.064705 0
       vertex 0.067844 -0.0326315 0
       vertex 0.067844 -0.0326315 0.1
    endloop
  endfacet
  facet normal 0.980784 -0.195096 0
    outer loop
       vertex 0.067844 -0.0326315 0.1
       vertex 0.061464 -0.064705 0.1
       vertex 0.061464 -0.064705 0
    endloop
  endfacet
  facet normal 0.997858 -0.0654098 0
    outer loop
       vertex 0.069983 -8.32665e-17 0.1
       vertex 0.067844 -0.0326315 0.1
       vertex 0.067844 -0.0326315 0
    endloop
  endfacet
  facet normal 0.997858 -0.0654098 -1.08928e-16
    outer loop
       vertex 0.067844 -0.0326315 0
       vertex 0.069983 8.32665e-17 0
       vertex 0.069983 -8.32665e-17 0.1
    endloop
  endfacet
  facet normal 0.997858 0.0654098 0
    outer loop
       vertex 0.069983 8.32665e-17 0
       vertex 0.067844 0.0326315 0
       vertex 0.067844 0.0326315 0.1
    endloop
  endfacet
  facet normal 0.997858 0.0654098 1.08928e-16
    outer loop
       vertex 0.067844 0.0326315 0.1
       vertex 0.069983 -8.32665e-17 0.1
       vertex 0.069983 8.32665e-17 0
    endloop
  endfacet
  facet normal 0.980784 0.195096 0
    outer loop
       vertex 0.067844 0.0326315 0
       vertex 0.061464 0.064705 0
       vertex 0.061464 0.064705 0.1
    endloop
  endfacet
  facet normal 0.980784 0.195096 0
    outer loop
       vertex 0.061464 0.064705 0.1
       vertex 0.067844 0.0326315 0.1
       vertex 0.067844 0.0326315 0
    endloop
  endfacet
  facet normal 0.946935 0.321425 0
    outer loop
       vertex 0.061464 0.064705 0
       vertex 0.050953 0.095671 0
       vertex 0.050953 0.095671 0.1
    endloop
  endfacet
  facet normal 0.946935 0.321425 0
    outer loop
       vertex 0.050953 0.095671 0.1
       vertex 0.061464 0.064705 0.1
       vertex 0.061464 0.064705 0
    endloop
  endfacet
  facet normal 0.896866 0.442302 0
    outer loop
       vertex 0.050953 0.095671 0
       vertex 0.036489 0.125 0
       vertex 0.036489 0.125 0.1
    endloop
  endfacet
  facet normal 0.896866 0.442302 0
    outer loop
       vertex 0.036489 0.125 0.1
       vertex 0.050953 0.095671 0.1
       vertex 0.050953 0.095671 0
    endloop
  endfacet
  facet normal 0.831476 0.555561 0
    outer loop
       vertex 0.036489 0.125 0
       vertex 0.018321 0.152191 0
       vertex 0.018321 0.152191 0.1
    endloop
  endfacet
  facet normal 0.831476 0.555561 0
    outer loop
       vertex 0.018321 0.152191 0.1
       vertex 0.036489 0.125 0.1
       vertex 0.036489 0.125 0
    endloop
  endfacet
  facet normal 0.751817 0.659372 0
    outer loop
       vertex 0.018321 0.152191 0
       vertex -0.00324101 0.176776 0
       vertex -0.00324101 0.176776 0.1
    endloop
  endfacet
  facet normal 0.751817 0.659372 0
    outer loop
       vertex -0.00324101 0.176776 0.1
       vertex 0.018321 0.152191 0.1
       vertex 0.018321 0.152191 0
    endloop
  endfacet
  facet normal 0.659372 0.751817 0
    outer loop
       vertex -0.00324101 0.176776 0
       vertex -0.027826 0.198338 0
       vertex -0.027826 0.198338 0.1
    endloop
  endfacet
  facet normal 0.659372 0.751817 0
    outer loop
       vertex -0.027826 0.198338 0.1
       vertex -0.00324101 0.176776 0.1
       vertex -0.00324101 0.176776 0
    endloop
  endfacet
  facet normal 0.555561 0.831476 0
    outer loop
       vertex -0.027826 0.198338 0
       vertex -0.055017 0.216506 0
       vertex -0.055017 0.216506 0.1
    endloop
  endfacet
  facet normal 0.555561 0.831476 0
    outer loop
       vertex -0.055017 0.216506 0.1
       vertex -0.027826 0.198338 0.1
       vertex -0.027826 0.198338 0
    endloop
  endfacet
  facet normal 0.442302 0.896866 0
    outer loop
       vertex -0.055017 0.216506 0
       vertex -0.084346 0.23097 0
       vertex -0.084346 0.23097 0.1
    endloop
  endfacet
  facet normal 0.442302 0.896866 0
    outer loop
       vertex -0.084346 0.23097 0.1
       vertex -0.055017 0.216506 0.1
       vertex -0.055017 0.216506 0
    endloop
  endfacet
  facet normal 0.321425 0.946935 0
    outer loop
       vertex -0.084346 0.23097 0
       vertex -0.115312 0.241481 0
       vertex -0.115312 0.241481 0.1
    endloop
  endfacet
  facet normal 0.321425 0.946935 0
    outer loop
       vertex -0.115312 0.241481 0.1
       vertex -0.084346 0.23097 0.1
       vertex -0.084346 0.23097 0
    endloop
  endfacet
  facet normal 0.195096 0.980784 0
    outer loop
       vertex -0.115312 0.241481 0
       vertex -0.147386 0.247861 0
       vertex -0.147386 0.247861 0.1
    endloop
  endfacet
  facet normal 0.195096 0.980784 0
    outer loop
       vertex -0.147386 0.247861 0.1
       vertex -0.115312 0.241481 0.1
       vertex -0.115312 0.241481 0
    endloop
  endfacet
  facet normal 0.0654098 0.997858 0
    outer loop
       vertex -0.180017 0.25 0.1
       vertex -0.147386 0.247861 0.1
       vertex -0.147386 0.247861 0
    endloop
  endfacet
  facet normal 0.0654098 0.997858 -1.0893e-16
    outer loop
       vertex -0.147386 0.247861 0
       vertex -0.180017 0.25 0
       vertex -0.180017 0.25 0.1
    endloop
  endfacet
  facet normal -0.0654098 0.997858 0
    outer loop
       vertex -0.180017 0.25 0
       vertex -0.212649 0.247861 0
       vertex -0.212649 0.247861 0.1
    endloop
  endfacet
  facet normal -0.0654098 0.997858 1.0893e-16
    outer loop
       vertex -0.212649 0.247861 0.1
       vertex -0.180017 0.25 0.1
       vertex -0.180017 0.25 0
    endloop
  endfacet
  facet normal -0.195096 0.980784 0
    outer loop
       vertex -0.212649 0.247861 0
       vertex -0.244722 0.241481 0
       vertex -0.244722 0.241481 0.1
    endloop
  endfacet
  facet normal -0.195096 0.980784 0
    outer loop
       vertex -0.244722 0.241481 0.1
       vertex -0.212649 0.247861 0.1
       vertex -0.212649 0.247861 0
    endloop
  endfacet
  facet normal -0.321425 0.946935 0
    outer loop
       vertex -0.244722 0.241481 0
       vertex -0.275688 0.23097 0
       vertex -0.275688 0.23097 0.1
    endloop
  endfacet
  facet normal -0.321425 0.946935 0
    outer loop
       vertex -0.275688 0.23097 0.1
       vertex -0.244722 0.241481 0.1
       vertex -0.244722 0.241481 0
    endloop
  endfacet
  facet normal -0.442302 0.896866 0
    outer loop
       vertex -0.275688 0.23097 0
       vertex -0.305017 0.216506 0
       vertex -0.305017 0.216506 0.1
    endloop
  endfacet
  facet normal -0.442302 0.896866 0
    outer loop
       vertex -0.305017 0.216506 0.1
       vertex -0.275688 0.23097 0.1
       vertex -0.275688 0.23097 0
    endloop
  endfacet
  facet normal -0.555561 0.831476 0
    outer loop
       vertex -0.305017 0.216506 0
       vertex -0.332208 0.198338 0
       vertex -0.332208 0.198338 0.1
    endloop
  endfacet
  facet normal -0.555561 0.831476 0
    outer loop
       vertex -0.332208 0.198338 0.1
       vertex -0.305017 0.216506 0.1
       vertex -0.305017 0.216506 0
    endloop
  endfacet
  facet normal -0.659372 0.751817 0
    outer loop
       vertex -0.332208 0.198338 0
       vertex -0.356793 0.176776 0
       vertex -0.356793 0.176776 0.1
    endloop
  endfacet
  facet normal -0.659372 0.751817 0
    outer loop
       vertex -0.356793 0.176776 0.1
       vertex -0.332208 0.198338 0.1
       vertex -0.332208 0.198338 0
    endloop
  endfacet
  facet normal -0.751817 0.659372 0
    outer loop
       vertex -0.356793 0.176776 0
       vertex -0.378355 0.152191 0
       vertex -0.378355 0.152191 0.1
    endloop
  endfacet
  facet normal -0.751817 0.659372 0
    outer loop
       vertex -0.378355 0.152191 0.1
       vertex -0.356793 0.176776 0.1
       vertex -0.356793 0.176776 0
    endloop
  endfacet
  facet normal -0.831476 0.555561 0
    outer loop
       vertex -0.378355 0.152191 0
       vertex -0.396523 0.125 0
       vertex -0.396523 0.125 0.1
    endloop
  endfacet
  facet normal -0.831476 0.555561 0
    outer loop
       vertex -0.396523 0.125 0.1
       vertex -0.378355 0.152191 0.1
       vertex -0.378355 0.152191 0
    endloop
  endfacet
  facet normal -0.896866 0.442302 0
    outer loop
       vertex -0.396523 0.125 0
       vertex -0.410987 0.095671 0
       vertex -0.410987 0.095671 0.1
    endloop
  endfacet
  facet normal -0.896866 0.442302 0
    outer loop
       vertex -0.410987 0.095671 0.1
       vertex -0.396523 0.125 0.1
       vertex -0.396523 0.125 0
    endloop
  endfacet
  facet normal -0.946935 0.321425 0
    outer loop
       vertex -0.410987 0.095671 0
       vertex -0.421498 0.064705 0
       vertex -0.421498 0.064705 0.1
    endloop
  endfacet
  facet normal -0.946935 0.321425 0
    outer loop
       vertex -0.421498 0.064705 0.1
       vertex -0.410987 0.095671 0.1
       vertex -0.410987 0.095671 0
    endloop
  endfacet
  facet normal -0.980784 0.195096 0
    outer loop
       vertex -0.421498 0.064705 0
       vertex -0.427878 0.0326315 0
       vertex -0.427878 0.0326315 0.1
    endloop
  endfacet
  facet normal -0.980784 0.195096 0
    outer loop
       vertex -0.427878 0.0326315 0.1
       vertex -0.421498 0.064705 0.1
       vertex -0.421498 0.064705 0
    endloop
  endfacet
  facet normal -0.997858 0.0654098 0
    outer loop
       vertex -0.430017 8.32665e-17 0.1
       vertex -0.427878 0.0326315 0.1
       vertex -0.427878 0.0326315 0
    endloop
  endfacet
  facet normal -0.997858 0.0654098 -1.08928e-16
    outer loop
       vertex -0.427878 0.0326315 0
       vertex -0.430017 -8.32665e-17 0
       vertex -0.430017 8.32665e-17 0.1
    endloop
  endfacet
  facet normal -0.997858 -0.0654098 0
    outer loop
       vertex -0.430017 -8.32665e-17 0
       vertex -0.427878 -0.0326315 0
       vertex -0.427878 -0.0326315 0.1
    endloop
  endfacet
  facet normal -0.997858 -0.0654098 1.08928e-16
    outer loop
       vertex -0.427878 -0.0326315 0.1
       vertex -0.430017 8.32665e-17 0.1
       vertex -0.430017 -8.32665e-17 0
    endloop
  endfacet
  facet normal -0.980784 -0.195096 0
    outer loop
       vertex -0.427878 -0.0326315 0
       vertex -0.421498 -0.064705 0
       vertex -0.421498 -0.064705 0.1
    endloop
  endfacet
  facet normal -0.980784 -0.195096 0
    outer loop
       vertex -0.421498 -0.064705 0.1
       vertex -0.427878 -0.0326315 0.1
       vertex -0.427878 -0.0326315 0
    endloop
  endfacet
  facet normal -0.946935 -0.321425 0
    outer loop
       vertex -0.421498 -0.064705 0
       vertex -0.410987 -0.095671 0
       vertex -0.410987 -0.095671 0.1
    endloop
  endfacet
  facet normal -0.946935 -0.321425 0
    outer loop
       vertex -0.410987 -0.095671 0.1
       vertex -0.421498 -0.064705 0.1
       vertex -0.421498 -0.064705 0
    endloop
  endfacet
  facet normal -0.896866 -0.442302 0
    outer loop
       vertex -0.410987 -0.095671 0
       vertex -0.396523 -0.125 0
       vertex -0.396523 -0.125 0.1
    endloop
  endfacet
  facet normal -0.896866 -0.442302 0
    outer loop
       vertex -0.396523 -0.125 0.1
       vertex -0.410987 -0.095671 0.1
       vertex -0.410987 -0.095671 0
    endloop
  endfacet
  facet normal -0.831476 -0.555561 0
    outer loop
       vertex -0.396523 -0.125 0
       vertex -0.378355 -0.152191 0
       vertex -0.378355 -0.152191 0.1
    endloop
  endfacet
  facet normal -0.831476 -0.555561 0
    outer loop
       vertex -0.378355 -0.152191 0.1
       vertex -0.396523 -0.125 0.1
       vertex -0.396523 -0.125 0
    endloop
  endfacet
  facet normal -0.751817 -0.659372 0
    outer loop
       vertex -0.378355 -0.152191 0
       vertex -0.356793 -0.176776 0
       vertex -0.356793 -0.176776 0.1
    endloop
  endfacet
  facet normal -0.751817 -0.659372 0
    outer loop
       vertex -0.356793 -0.176776 0.1
       vertex -0.378355 -0.152191 0.1
       vertex -0.378355 -0.152191 0
    endloop
  endfacet
  facet normal 0.659372 -0.751817 0
    outer loop
       vertex -0.00324101 -0.176776 0
       vertex -0.00324101 -0.176776 0.1
       vertex -0.027826 -0.198338 0.1
    endloop
  endfacet
  facet normal 0.659372 -0.751817 0
    outer loop
       vertex -0.027826 -0.198338 0.1
       vertex -0.027826 -0.198338 0
       vertex -0.00324101 -0.176776 0
    endloop
  endfacet
  facet normal 0.555561 -0.831476 0
    outer loop
       vertex -0.027826 -0.198338 0
       vertex -0.027826 -0.198338 0.1
       vertex -0.055017 -0.216506 0.1
    endloop
  endfacet
  facet normal 0.555561 -0.831476 0
    outer loop
       vertex -0.055017 -0.216506 0.1
       vertex -0.055017 -0.216506 0
       vertex -0.027826 -0.198338 0
    endloop
  endfacet
  facet normal 0.442302 -0.896866 0
    outer loop
       vertex -0.055017 -0.216506 0
       vertex -0.055017 -0.216506 0.1
       vertex -0.084346 -0.23097 0.1
    endloop
  endfacet
  facet normal 0.442302 -0.896866 0
    outer loop
       vertex -0.084346 -0.23097 0.1
       vertex -0.084346 -0.23097 0
       vertex -0.055017 -0.216506 0
    endloop
  endfacet
  facet normal 0.321425 -0.946935 0
    outer loop
       vertex -0.084346 -0.23097 0
       vertex -0.084346 -0.23097 0.1
       vertex -0.115312 -0.241481 0.1
    endloop
  endfacet
  facet normal 0.321425 -0.946935 0
    outer loop
       vertex -0.115312 -0.241481 0.1
       vertex -0.115312 -0.241481 0
       vertex -0.084346 -0.23097 0
    endloop
  endfacet
  facet normal 0.195096 -0.980784 0
    outer loop
       vertex -0.115312 -0.241481 0
       vertex -0.115312 -0.241481 0.1
       vertex -0.147386 -0.247861 0.1
    endloop
  endfacet
  facet normal 0.195096 -0.980784 0
    outer loop
       vertex -0.147386 -0.247861 0.1
       vertex -0.147386 -0.247861 0
       vertex -0.115312 -0.241481 0
    endloop
  endfacet
  facet normal 0.0654098 -0.997858 0
    outer loop
       vertex -0.180017 -0.25 0
       vertex -0.147386 -0.247861 0
       vertex -0.147386 -0.247861 0.1
    endloop
  endfacet
  facet normal 0.0654098 -0.997858 1.0893e-16
    outer loop
       vertex -0.147386 -0.247861 0.1
       vertex -0.180017 -0.25 0.1
       vertex -0.180017 -0.25 0
    endloop
  endfacet
  facet normal -0.0654098 -0.997858 0
    outer loop
       vertex -0.180017 -0.25 0.1
       vertex -0.212649 -0.247861 0.1
       vertex -0.212649 -0.247861 0
    endloop
  endfacet
  facet normal -0.0654098 -0.997858 -1.0893e-16
    outer loop
       vertex -0.212649 -0.247861 0
       vertex -0.180017 -0.25 0
       vertex -0.180017 -0.25 0.1
    endloop
  endfacet
  facet normal -0.195096 -0.980784 0
    outer loop
       vertex -0.212649 -0.247861 0
       vertex -0.212649 -0.247861 0.1
       vertex -0.244722 -0.241481 0.1
    endloop
  endfacet
  facet normal -0.195096 -0.980784 -0
    outer loop
       vertex -0.244722 -0.241481 0.1
       vertex -0.244722 -0.241481 0
       vertex -0.212649 -0.247861 0
    endloop
  endfacet
  facet normal -0.321425 -0.946935 0
    outer loop
       vertex -0.244722 -0.241481 0
       vertex -0.244722 -0.241481 0.1
       vertex -0.275688 -0.23097 0.1
    endloop
  endfacet
  facet normal -0.321425 -0.946935 -0
    outer loop
       vertex -0.275688 -0.23097 0.1
       vertex -0.275688 -0.23097 0
       vertex -0.244722 -0.241481 0
    endloop
  endfacet
  facet normal -0.442302 -0.896866 0
    outer loop
       vertex -0.275688 -0.23097 0
       vertex -0.275688 -0.23097 0.1
       vertex -0.305017 -0.216506 0.1
    endloop
  endfacet
  facet normal -0.442302 -0.896866 -0
    outer loop
       vertex -0.305017 -0.216506 0.1
       vertex -0.305017 -0.216506 0
       vertex -0.275688 -0.23097 0
    endloop
  endfacet
  facet normal -0.555561 -0.831476 0
    outer loop
       vertex -0.305017 -0.216506 0
       vertex -0.305017 -0.216506 0.1
       vertex -0.332208 -0.198338 0.1
    endloop
  endfacet
  facet normal -0.555561 -0.831476 -0
    outer loop
       vertex -0.332208 -0.198338 0.1
       vertex -0.332208 -0.198338 0
       vertex -0.305017 -0.216506 0
    endloop
  endfacet
  facet normal -0.659372 -0.751817 0
    outer loop
       vertex -0.332208 -0.198338 0
       vertex -0.332208 -0.198338 0.1
       vertex -0.356793 -0.176776 0.1
    endloop
  endfacet
  facet normal -0.659372 -0.751817 -0
    outer loop
       vertex -0.356793 -0.176776 0.1
       vertex -0.356793 -0.176776 0
       vertex -0.332208 -0.198338 0
    endloop
  endfacet
endsolid cylinder
