solid cylinder
  facet normal 0.751817 -0.659372 0
    outer loop
       vertex 0.220164 -0.176776 0
       vertex 0.241726 -0.152191 0
       vertex 0.241726 -0.152191 0.1
    endloop
  endfacet
  facet normal 0.751817 -0.659372 0
    outer loop
       vertex 0.241726 -0.152191 0.1
       vertex 0.220164 -0.176776 0.1
       vertex 0.220164 -0.176776 0
    endloop
  endfacet
  facet normal 0.831476 -0.555561 0
    outer loop
       vertex 0.241726 -0.152191 0
       vertex 0.259894 -0.125 0
       vertex 0.259894 -0.125 0.1
    endloop
  endfacet
  facet normal 0.831476 -0.555561 0
    outer loop
       vertex 0.259894 -0.125 0.1
       vertex 0.241726 -0.152191 0.1
       vertex 0.241726 -0.152191 0
    endloop
  endfacet
  facet normal 0.896866 -0.442302 0
    outer loop
       vertex 0.259894 -0.125 0
       vertex 0.274358 -0.095671 0
       vertex 0.274358 -0.095671 0.1
    endloop
  endfacet
  facet normal 0.896866 -0.442302 0
    outer loop
       vertex 0.274358 -0.095671 0.1
       vertex 0.259894 -0.125 0.1
       vertex 0.259894 -0.125 0
    endloop
  endfacet
  facet normal 0.946935 -0.321425 0
    outer loop
       vertex 0.274358 -0.095671 0
       vertex 0.284869 -0.064705 0
       vertex 0.284869 -0.064705 0.1
    endloop
  endfacet
  facet normal 0.946935 -0.321425 0
    outer loop
       vertex 0.284869 -0.064705 0.1
       vertex 0.274358 -0.095671 0.1
       vertex 0.274358 -0.095671 0
    endloop
  endfacet
  facet normal 0.980784 -0.195096 0
    outer loop
       vertex 0.284869 -0.064705 0
       vertex 0.291249 -0.0326315 0
       vertex 0.291249 -0.0326315 0.1
    endloop
  endfacet
  facet normal 0.980784 -0.195096 0
    outer loop
       vertex 0.291249 -0.0326315 0.1
       vertex 0.284869 -0.064705 0.1
       vertex 0.284869 -0.064705 0
    endloop
  endfacet
  facet normal 0.997858 -0.0654098 0
    outer loop
       vertex 0.293388 -8.32665e-17 0.1
       vertex 0.291249 -0.0326315 0.1
       vertex 0.291249 -0.0326315 0
    endloop
  endfacet
  facet normal 0.997858 -0.0654098 -1.08928e-16
    outer loop
       vertex 0.291249 -0.0326315 0
       vertex 0.293388 8.32665e-17 0
       vertex 0.293388 -8.32665e-17 0.1
    endloop
  endfacet
  facet normal 0.997858 0.0654098 0
    outer loop
       vertex 0.293388 8.32665e-17 0
       vertex 0.291249 0.0326315 0
       vertex 0.291249 0.0326315 0.1
    endloop
  endfacet
  facet normal 0.997858 0.0654098 1.08928e-16
    outer loop
       vertex 0.291249 0.0326315 0.1
       vertex 0.293388 -8.32665e-17 0.1
       vertex 0.293388 8.32665e-17 0
    endloop
  endfacet
  facet normal 0.980784 0.195096 0
    outer loop
       vertex 0.291249 0.0326315 0
       vertex 0.284869 0.064705 0
       vertex 0.284869 0.064705 0.1
    endloop
  endfacet
  facet normal 0.980784 0.195096 0
    outer loop
       vertex 0.284869 0.064705 0.1
       vertex 0.291249 0.0326315 0.1
       vertex 0.291249 0.0326315 0
    endloop
  endfacet
  facet normal 0.946935 0.321425 0
    outer loop
       vertex 0.284869 0.064705 0
       vertex 0.274358 0.095671 0
       vertex 0.274358 0.095671 0.1
    endloop
  endfacet
  facet normal 0.946935 0.321425 0
    outer loop
       vertex 0.274358 0.095671 0.1
       vertex 0.284869 0.064705 0.1
       vertex 0.284869 0.064705 0
    endloop
  endfacet
  facet normal 0.896866 0.442302 0
    outer loop
       vertex 0.274358 0.095671 0
       vertex 0.259894 0.125 0
       vertex 0.259894 0.125 0.1
    endloop
  endfacet
  facet normal 0.896866 0.442302 0
    outer loop
       vertex 0.259894 0.125 0.1
       vertex 0.274358 0.095671 0.1
       vertex 0.274358 0.095671 0
    endloop
  endfacet
  facet normal 0.831476 0.555561 0
    outer loop
       vertex 0.259894 0.125 0
       vertex 0.241726 0.152191 0
       vertex 0.241726 0.152191 0.1
    endloop
  endfacet
  facet normal 0.831476 0.555561 0
    outer loop
       vertex 0.241726 0.152191 0.1
       vertex 0.259894 0.125 0.1
       vertex 0.259894 0.125 0
    endloop
  endfacet
  facet normal 0.751817 0.659372 0
    outer loop
       vertex 0.241726 0.152191 0
       vertex 0.220164 0.176776 0
       vertex 0.220164 0.176776 0.1
    endloop
  endfacet
  facet normal 0.751817 0.659372 0
    outer loop
       vertex 0.220164 0.176776 0.1
       vertex 0.241726 0.152191 0.1
       vertex 0.241726 0.152191 0
    endloop
  endfacet
  facet normal 0.659372 0.751817 0
    outer loop
       vertex 0.220164 0.176776 0
       vertex 0.195579 0.198338 0
       vertex 0.195579 0.198338 0.1
    endloop
  endfacet
  facet normal 0.659372 0.751817 0
    outer loop
       vertex 0.195579 0.198338 0.1
       vertex 0.220164 0.176776 0.1
       vertex 0.220164 0.176776 0
    endloop
  endfacet
  facet normal 0.555561 0.831476 0
    outer loop
       vertex 0.195579 0.198338 0
       vertex 0.168388 0.216506 0
       vertex 0.168388 0.216506 0.1
    endloop
  endfacet
  facet normal 0.555561 0.831476 0
    outer loop
       vertex 0.168388 0.216506 0.1
       vertex 0.195579 0.198338 0.1
       vertex 0.195579 0.198338 0
    endloop
  endfacet
  facet normal 0.442302 0.896866 0
    outer loop
       vertex 0.168388 0.216506 0
       vertex 0.139059 0.23097 0
       vertex 0.139059 0.23097 0.1
    endloop
  endfacet
  facet normal 0.442302 0.896866 0
    outer loop
       vertex 0.139059 0.23097 0.1
       vertex 0.168388 0.216506 0.1
       vertex 0.168388 0.216506 0
    endloop
  endfacet
  facet normal 0.321425 0.946935 0
    outer loop
       vertex 0.139059 0.23097 0
       vertex 0.108093 0.241481 0
       vertex 0.108093 0.241481 0.1
    endloop
  endfacet
  facet normal 0.321425 0.946935 0
    outer loop
       vertex 0.108093 0.241481 0.1
       vertex 0.139059 0.23097 0.1
       vertex 0.139059 0.23097 0
    endloop
  endfacet
  facet normal 0.195096 0.980784 0
    outer loop
       vertex 0.108093 0.241481 0
       vertex 0.0760199 0.247861 0
       vertex 0.0760199 0.247861 0.1
    endloop
  endfacet
  facet normal 0.195096 0.980784 0
    outer loop
       vertex 0.0760199 0.247861 0.1
       vertex 0.108093 0.241481 0.1
       vertex 0.108093 0.241481 0
    endloop
  endfacet
  facet normal 0.0654098 0.997858 0
    outer loop
       vertex 0.0433884 0.25 0.1
       vertex 0.0760199 0.247861 0.1
       vertex 0.0760199 0.247861 0
    endloop
  endfacet
  facet normal 0.0654098 0.997858 -1.08928e-16
    outer loop
       vertex 0.0760199 0.247861 0
       vertex 0.0433884 0.25 0
       vertex 0.0433884 0.25 0.1
    endloop
  endfacet
  facet normal -0.0654098 0.997858 0
    outer loop
       vertex 0.0433884 0.25 0
       vertex 0.0107569 0.247861 0
       vertex 0.0107569 0.247861 0.1
    endloop
  endfacet
  facet normal -0.0654098 0.997858 1.08928e-16
    outer loop
       vertex 0.0107569 0.247861 0.1
       vertex 0.0433884 0.25 0.1
       vertex 0.0433884 0.25 0
    endloop
  endfacet
  facet normal -0.195096 0.980784 0
    outer loop
       vertex 0.0107569 0.247861 0
       vertex -0.0213166 0.241481 0
       vertex -0.0213166 0.241481 0.1
    endloop
  endfacet
  facet normal -0.195096 0.980784 0
    outer loop
       vertex -0.0213166 0.241481 0.1
       vertex 0.0107569 0.247861 0.1
       vertex 0.0107569 0.247861 0
    endloop
  endfacet
  facet normal -0.321425 0.946935 0
    outer loop
       vertex -0.0213166 0.241481 0
       vertex -0.0522826 0.23097 0
       vertex -0.0522826 0.23097 0.1
    endloop
  endfacet
  facet normal -0.321425 0.946935 0
    outer loop
       vertex -0.0522826 0.23097 0.1
       vertex -0.0213166 0.241481 0.1
       vertex -0.0213166 0.241481 0
    endloop
  endfacet
  facet normal -0.442302 0.896866 0
    outer loop
       vertex -0.0522826 0.23097 0
       vertex -0.0816116 0.216506 0
       vertex -0.0816116 0.216506 0.1
    endloop
  endfacet
  facet normal -0.442302 0.896866 0
    outer loop
       vertex -0.0816116 0.216506 0.1
       vertex -0.0522826 0.23097 0.1
       vertex -0.0522826 0.23097 0
    endloop
  endfacet
  facet normal -0.555561 0.831476 0
    outer loop
       vertex -0.0816116 0.216506 0
       vertex -0.108803 0.198338 0
       vertex -0.108803 0.198338 0.1
    endloop
  endfacet
  facet normal -0.555561 0.831476 0
    outer loop
       vertex -0.108803 0.198338 0.1
       vertex -0.0816116 0.216506 0.1
       vertex -0.0816116 0.216506 0
    endloop
  endfacet
  facet normal -0.659372 0.751817 0
    outer loop
       vertex -0.108803 0.198338 0
       vertex -0.133388 0.176776 0
       vertex -0.133388 0.176776 0.1
    endloop
  endfacet
  facet normal -0.659372 0.751817 0
    outer loop
       vertex -0.133388 0.176776 0.1
       vertex -0.108803 0.198338 0.1
       vertex -0.108803 0.198338 0
    endloop
  endfacet
  facet normal -0.751817 0.659372 0
    outer loop
       vertex -0.133388 0.176776 0
       vertex -0.15495 0.152191 0
       vertex -0.15495 0.152191 0.1
    endloop
  endfacet
  facet normal -0.751817 0.659372 0
    outer loop
       vertex -0.15495 0.152191 0.1
       vertex -0.133388 0.176776 0.1
       vertex -0.133388 0.176776 0
    endloop
  endfacet
  facet normal -0.831476 0.555561 0
    outer loop
       vertex -0.15495 0.152191 0
       vertex -0.173118 0.125 0
       vertex -0.173118 0.125 0.1
    endloop
  endfacet
  facet normal -0.831476 0.555561 0
    outer loop
       vertex -0.173118 0.125 0.1
       vertex -0.15495 0.152191 0.1
       vertex -0.15495 0.152191 0
    endloop
  endfacet
  facet normal -0.896866 0.442302 0
    outer loop
       vertex -0.173118 0.125 0
       vertex -0.187582 0.095671 0
       vertex -0.187582 0.095671 0.1
    endloop
  endfacet
  facet normal -0.896866 0.442302 0
    outer loop
       vertex -0.187582 0.095671 0.1
       vertex -0.173118 0.125 0.1
       vertex -0.173118 0.125 0
    endloop
  endfacet
  facet normal -0.946935 0.321425 0
    outer loop
       vertex -0.187582 0.095671 0
       vertex -0.198093 0.064705 0
       vertex -0.198093 0.064705 0.1
    endloop
  endfacet
  facet normal -0.946935 0.321425 0
    outer loop
       vertex -0.198093 0.064705 0.1
       vertex -0.187582 0.095671 0.1
       vertex -0.187582 0.095671 0
    endloop
  endfacet
  facet normal -0.980784 0.195096 0
    outer loop
       vertex -0.198093 0.064705 0
       vertex -0.204473 0.0326315 0
       vertex -0.204473 0.0326315 0.1
    endloop
  endfacet
  facet normal -0.980784 0.195096 0
    outer loop
       vertex -0.204473 0.0326315 0.1
       vertex -0.198093 0.064705 0.1
       vertex -0.198093 0.064705 0
    endloop
  endfacet
  facet normal -0.997858 0.0654098 0
    outer loop
       vertex -0.206612 8.32665e-17 0.1
       vertex -0.204473 0.0326315 0.1
       vertex -0.204473 0.0326315 0
    endloop
  endfacet
  facet normal -0.997858 0.0654098 -1.08928e-16
    outer loop
       vertex -0.204473 0.0326315 0
       vertex -0.206612 -8.32665e-17 0
       vertex -0.206612 8.32665e-17 0.1
    endloop
  endfacet
  facet normal -0.997858 -0.0654098 0
    outer loop
       vertex -0.206612 -8.32665e-17 0
       vertex -0.204473 -0.0326315 0
       vertex -0.204473 -0.0326315 0.1
    endloop
  endfacet
  facet normal -0.997858 -0.0654098 1.08928e-16
    outer loop
       vertex -0.204473 -0.0326315 0.1
       vertex -0.206612 8.32665e-17 0.1
       vertex -0.206612 -8.32665e-17 0
    endloop
  endfacet
  facet normal -0.980784 -0.195096 0
    outer loop
       vertex -0.204473 -0.0326315 0
       vertex -0.198093 -0.064705 0
       vertex -0.198093 -0.064705 0.1
    endloop
  endfacet
  facet normal -0.980784 -0.195096 0
    outer loop
       vertex -0.198093 -0.064705 0.1
       vertex -0.204473 -0.0326315 0.1
       vertex -0.204473 -0.0326315 0
    endloop
  endfacet
  facet normal -0.946935 -0.321425 0
    outer loop
       vertex -0.198093 -0.064705 0
       vertex -0.187582 -0.095671 0
       vertex -0.187582 -0.095671 0.1
    endloop
  endfacet
  facet normal -0.946935 -0.321425 0
    outer loop
       vertex -0.187582 -0.095671 0.1
       vertex -0.198093 -0.064705 0.1
       vertex -0.198093 -0.064705 0
    endloop
  endfacet
  facet normal -0.896866 -0.442302 0
    outer loop
       vertex -0.187582 -0.095671 0
       vertex -0.173118 -0.125 0
       vertex -0.173118 -0.125 0.1
    endloop
  endfacet
  facet normal -0.896866 -0.442302 0
    outer loop
       vertex -0.173118 -0.125 0.1
       vertex -0.187582 -0.095671 0.1
       vertex -0.187582 -0.095671 0
    endloop
  endfacet
  facet normal -0.831476 -0.555561 0
    outer loop
       vertex -0.173118 -0.125 0
       vertex -0.15495 -0.152191 0
       vertex -0.15495 -0.152191 0.1
    endloop
  endfacet
  facet normal -0.831476 -0.555561 0
    outer loop
       vertex -0.15495 -0.152191 0.1
       vertex -0.173118 -0.125 0.1
       vertex -0.173118 -0.125 0
    endloop
  endfacet
  facet normal -0.751817 -0.659372 0
    outer loop
       vertex -0.15495 -0.152191 0
       vertex -0.133388 -0.176776 0
       vertex -0.133388 -0.176776 0.1
    endloop
  endfacet
  facet normal -0.751817 -0.659372 0
    outer loop
       vertex -0.133388 -0.176776 0.1
       vertex -0.15495 -0.152191 0.1
       vertex -0.15495 -0.152191 0
    endloop
  endfacet
  facet normal 0.659372 -0.751817 0
    outer loop
       vertex 0.220164 -0.176776 0
       vertex 0.220164 -0.176776 0.1
       vertex 0.195579 -0.198338 0.1
    endloop
  endfacet
  facet normal 0.659372 -0.751817 0
    outer loop
       vertex 0.195579 -0.198338 0.1
       vertex 0.195579 -0.198338 0
       vertex 0.220164 -0.176776 0
    endloop
  endfacet
  facet normal 0.555561 -0.831476 0
    outer loop
       vertex 0.195579 -0.198338 0
       vertex 0.195579 -0.198338 0.1
       vertex 0.168388 -0.216506 0.1
    endloop
  endfacet
  facet normal 0.555561 -0.831476 0
    outer loop
       vertex 0.168388 -0.216506 0.1
       vertex 0.168388 -0.216506 0
       vertex 0.195579 -0.198338 0
    endloop
  endfacet
  facet normal 0.442302 -0.896866 0
    outer loop
       vertex 0.168388 -0.216506 0
       vertex 0.168388 -0.216506 0.1
       vertex 0.139059 -0.23097 0.1
    endloop
  endfacet
  facet normal 0.442302 -0.896866 0
    outer loop
       vertex 0.139059 -0.23097 0.1
       vertex 0.139059 -0.23097 0
       vertex 0.168388 -0.216506 0
    endloop
  endfacet
  facet normal 0.321425 -0.946935 0
    outer loop
       vertex 0.139059 -0.23097 0
       vertex 0.139059 -0.23097 0.1
       vertex 0.108093 -0.241481 0.1
    endloop
  endfacet
  facet normal 0.321425 -0.946935 0
    outer loop
       vertex 0.108093 -0.241481 0.1
       vertex 0.108093 -0.241481 0
       vertex 0.139059 -0.23097 0
    endloop
  endfacet
  facet normal 0.195096 -0.980784 0
    outer loop
       vertex 0.108093 -0.241481 0
       vertex 0.108093 -0.241481 0.1
       vertex 0.0760199 -0.247861 0.1
    endloop
  endfacet
  facet normal 0.195096 -0.980784 0
    outer loop
       vertex 0.0760199 -0.247861 0.1
       vertex 0.0760199 -0.247861 0
       vertex 0.108093 -0.241481 0
    endloop
  endfacet
  facet normal 0.0654098 -0.997858 0
    outer loop
       vertex 0.0433884 -0.25 0
       vertex 0.0760199 -0.247861 0
       vertex 0.0760199 -0.247861 0.1
    endloop
  endfacet
  facet normal 0.0654098 -0.997858 1.08928e-16
    outer loop
       vertex 0.0760199 -0.247861 0.1
       vertex 0.0433884 -0.25 0.1
       vertex 0.0433884 -0.25 0
    endloop
  endfacet
  facet normal -0.0654098 -0.997858 0
    outer loop
       vertex 0.0433884 -0.25 0.1
       vertex 0.0107569 -0.247861 0.1
       vertex 0.0107569 -0.247861 0
    endloop
  endfacet
  facet normal -0.0654098 -0.997858 -1.08928e-16
    outer loop
       vertex 0.0107569 -0.247861 0
       vertex 0.0433884 -0.25 0
       vertex 0.0433884 -0.25 0.1
    endloop
  endfacet
  facet normal -0.195096 -0.980784 0
    outer loop
       vertex 0.0107569 -0.247861 0
       vertex 0.0107569 -0.247861 0.1
       vertex -0.0213166 -0.241481 0.1
    endloop
  endfacet
  facet normal -0.195096 -0.980784 -0
    outer loop
       vertex -0.0213166 -0.241481 0.1
       vertex -0.0213166 -0.241481 0
       vertex 0.0107569 -0.247861 0
    endloop
  endfacet
  facet normal -0.321425 -0.946935 0
    outer loop
       vertex -0.0213166 -0.241481 0
       vertex -0.0213166 -0.241481 0.1
       vertex -0.0522826 -0.23097 0.1
    endloop
  endfacet
  facet normal -0.321425 -0.946935 -0
    outer loop
       vertex -0.0522826 -0.23097 0.1
       vertex -0.0522826 -0.23097 0
       vertex -0.0213166 -0.241481 0
    endloop
  endfacet
  facet normal -0.442302 -0.896866 0
    outer loop
       vertex -0.0522826 -0.23097 0
       vertex -0.0522826 -0.23097 0.1
       vertex -0.0816116 -0.216506 0.1
    endloop
  endfacet
  facet normal -0.442302 -0.896866 -0
    outer loop
       vertex -0.0816116 -0.216506 0.1
       vertex -0.0816116 -0.216506 0
       vertex -0.0522826 -0.23097 0
    endloop
  endfacet
  facet normal -0.555561 -0.831476 0
    outer loop
       vertex -0.0816116 -0.216506 0
       vertex -0.0816116 -0.216506 0.1
       vertex -0.108803 -0.198338 0.1
    endloop
  endfacet
  facet normal -0.555561 -0.831476 -0
    outer loop
       vertex -0.108803 -0.198338 0.1
       vertex -0.108803 -0.198338 0
       vertex -0.0816116 -0.216506 0
    endloop
  endfacet
  facet normal -0.659372 -0.751817 0
    outer loop
       vertex -0.108803 -0.198338 0
       vertex -0.108803 -0.198338 0.1
       vertex -0.133388 -0.176776 0.1
    endloop
  endfacet
  facet normal -0.659372 -0.751817 -0
    outer loop
       vertex -0.133388 -0.176776 0.1
       vertex -0.133388 -0.176776 0
       vertex -0.108803 -0.198338 0
    endloop
  endfacet
endsolid cylinder
