solid cylinder
  facet normal 0.751817 -0.659372 0
    outer loop
       vertex -0.052765 -0.176776 0
       vertex -0.031203 -0.152191 0
       vertex -0.031203 -0.152191 0.1
    endloop
  endfacet
  facet normal 0.751817 -0.659372 0
    outer loop
       vertex -0.031203 -0.152191 0.1
       vertex -0.052765 -0.176776 0.1
       vertex -0.052765 -0.176776 0
    endloop
  endfacet
  facet normal 0.831476 -0.555561 0
    outer loop
       vertex -0.031203 -0.152191 0
       vertex -0.013035 -0.125 0
       vertex -0.013035 -0.125 0.1
    endloop
  endfacet
  facet normal 0.831476 -0.555561 0
    outer loop
       vertex -0.013035 -0.125 0.1
       vertex -0.031203 -0.152191 0.1
       vertex -0.031203 -0.152191 0
    endloop
  endfacet
  facet normal 0.896866 -0.442302 0
    outer loop
       vertex -0.013035 -0.125 0
       vertex 0.001429 -0.095671 0
       vertex 0.001429 -0.095671 0.1
    endloop
  endfacet
  facet normal 0.896866 -0.442302 0
    outer loop
       vertex 0.001429 -0.095671 0.1
       vertex -0.013035 -0.125 0.1
       vertex -0.013035 -0.125 0
    endloop
  endfacet
  facet normal 0.946935 -0.321425 0
    outer loop
       vertex 0.001429 -0.095671 0
       vertex 0.01194 -0.064705 0
       vertex 0.01194 -0.064705 0.1
    endloop
  endfacet
  facet normal 0.946935 -0.321425 0
    outer loop
       vertex 0.01194 -0.064705 0.1
       vertex 0.001429 -0.095671 0.1
       vertex 0.001429 -0.095671 0
    endloop
  endfacet
  facet normal 0.980784 -0.195096 0
    outer loop
       vertex 0.01194 -0.064705 0
       vertex 0.01832 -0.0326315 0
       vertex 0.01832 -0.0326315 0.1
    endloop
  endfacet
  facet normal 0.980784 -0.195096 0
    outer loop
       vertex 0.01832 -0.0326315 0.1
       vertex 0.01194 -0.064705 0.1
       vertex 0.01194 -0.064705 0
    endloop
  endfacet
  facet normal 0.997858 -0.0654098 0
    outer loop
       vertex 0.020459 -8.32665e-17 0.1
       vertex 0.01832 -0.0326315 0.1
       vertex 0.01832 -0.0326315 0
    endloop
  endfacet
  facet normal 0.997858 -0.0654098 -1.08928e-16
    outer loop
       vertex 0.01832 -0.0326315 0
       vertex 0.020459 8.32665e-17 0
       vertex 0.020459 -8.32665e-17 0.1
    endloop
  endfacet
  facet normal 0.997858 0.0654098 0
    outer loop
       vertex 0.020459 8.32665e-17 0
       vertex 0.01832 0.0326315 0
       vertex 0.01832 0.0326315 0.1
    endloop
  endfacet
  facet normal 0.997858 0.0654098 1.08928e-16
    outer loop
       vertex 0.01832 0.0326315 0.1
       vertex 0.020459 -8.32665e-17 0.1
       vertex 0.020459 8.32665e-17 0
    endloop
  endfacet
  facet normal 0.980784 0.195096 0
    outer loop
       vertex 0.01832 0.0326315 0
       vertex 0.01194 0.064705 0
       vertex 0.01194 0.064705 0.1
    endloop
  endfacet
  facet normal 0.980784 0.195096 0
    outer loop
       vertex 0.01194 0.064705 0.1
       vertex 0.01832 0.0326315 0.1
       vertex 0.01832 0.0326315 0
    endloop
  endfacet
  facet normal 0.946935 0.321425 0
    outer loop
       vertex 0.01194 0.064705 0
       vertex 0.001429 0.095671 0
       vertex 0.001429 0.095671 0.1
    endloop
  endfacet
  facet normal 0.946935 0.321425 0
    outer loop
       vertex 0.001429 0.095671 0.1
       vertex 0.01194 0.064705 0.1
       vertex 0.01194 0.064705 0
    endloop
  endfacet
  facet normal 0.896866 0.442302 0
    outer loop
       vertex 0.001429 0.095671 0
       vertex -0.013035 0.125 0
       vertex -0.013035 0.125 0.1
    endloop
  endfacet
  facet normal 0.896866 0.442302 0
    outer loop
       vertex -0.013035 0.125 0.1
       vertex 0.001429 0.095671 0.1
       vertex 0.001429 0.095671 0
    endloop
  endfacet
  facet normal 0.831476 0.555561 0
    outer loop
       vertex -0.013035 0.125 0
       vertex -0.031203 0.152191 0
       vertex -0.031203 0.152191 0.1
    endloop
  endfacet
  facet normal 0.831476 0.555561 0
    outer loop
       vertex -0.031203 0.152191 0.1
       vertex -0.013035 0.125 0.1
       vertex -0.013035 0.125 0
    endloop
  endfacet
  facet normal 0.751817 0.659372 0
    outer loop
       vertex -0.031203 0.152191 0
       vertex -0.052765 0.176776 0
       vertex -0.052765 0.176776 0.1
    endloop
  endfacet
  facet normal 0.751817 0.659372 0
    outer loop
       vertex -0.052765 0.176776 0.1
       vertex -0.031203 0.152191 0.1
       vertex -0.031203 0.152191 0
    endloop
  endfacet
  facet normal 0.659372 0.751817 0
    outer loop
       vertex -0.052765 0.176776 0
       vertex -0.07735 0.198338 0
       vertex -0.07735 0.198338 0.1
    endloop
  endfacet
  facet normal 0.659372 0.751817 0
    outer loop
       vertex -0.07735 0.198338 0.1
       vertex -0.052765 0.176776 0.1
       vertex -0.052765 0.176776 0
    endloop
  endfacet
  facet normal 0.555561 0.831476 0
    outer loop
       vertex -0.07735 0.198338 0
       vertex -0.104541 0.216506 0
       vertex -0.104541 0.216506 0.1
    endloop
  endfacet
  facet normal 0.555561 0.831476 0
    outer loop
       vertex -0.104541 0.216506 0.1
       vertex -0.07735 0.198338 0.1
       vertex -0.07735 0.198338 0
    endloop
  endfacet
  facet normal 0.442302 0.896866 0
    outer loop
       vertex -0.104541 0.216506 0
       vertex -0.13387 0.23097 0
       vertex -0.13387 0.23097 0.1
    endloop
  endfacet
  facet normal 0.442302 0.896866 0
    outer loop
       vertex -0.13387 0.23097 0.1
       vertex -0.104541 0.216506 0.1
       vertex -0.104541 0.216506 0
    endloop
  endfacet
  facet normal 0.321425 0.946935 0
    outer loop
       vertex -0.13387 0.23097 0
       vertex -0.164836 0.241481 0
       vertex -0.164836 0.241481 0.1
    endloop
  endfacet
  facet normal 0.321425 0.946935 0
    outer loop
       vertex -0.164836 0.241481 0.1
       vertex -0.13387 0.23097 0.1
       vertex -0.13387 0.23097 0
    endloop
  endfacet
  facet normal 0.195096 0.980784 0
    outer loop
       vertex -0.164836 0.241481 0
       vertex -0.19691 0.247861 0
       vertex -0.19691 0.247861 0.1
    endloop
  endfacet
  facet normal 0.195096 0.980784 0
    outer loop
       vertex -0.19691 0.247861 0.1
       vertex -0.164836 0.241481 0.1
       vertex -0.164836 0.241481 0
    endloop
  endfacet
  facet normal 0.0654098 0.997858 0
    outer loop
       vertex -0.229541 0.25 0.1
       vertex -0.19691 0.247861 0.1
       vertex -0.19691 0.247861 0
    endloop
  endfacet
  facet normal 0.0654098 0.997858 -1.0893e-16
    outer loop
       vertex -0.19691 0.247861 0
       vertex -0.229541 0.25 0
       vertex -0.229541 0.25 0.1
    endloop
  endfacet
  facet normal -0.0654098 0.997858 0
    outer loop
       vertex -0.229541 0.25 0
       vertex -0.262173 0.247861 0
       vertex -0.262173 0.247861 0.1
    endloop
  endfacet
  facet normal -0.0654098 0.997858 1.0893e-16
    outer loop
       vertex -0.262173 0.247861 0.1
       vertex -0.229541 0.25 0.1
       vertex -0.229541 0.25 0
    endloop
  endfacet
  facet normal -0.195096 0.980784 0
    outer loop
       vertex -0.262173 0.247861 0
       vertex -0.294246 0.241481 0
       vertex -0.294246 0.241481 0.1
    endloop
  endfacet
  facet normal -0.195096 0.980784 0
    outer loop
       vertex -0.294246 0.241481 0.1
       vertex -0.262173 0.247861 0.1
       vertex -0.262173 0.247861 0
    endloop
  endfacet
  facet normal -0.321425 0.946935 0
    outer loop
       vertex -0.294246 0.241481 0
       vertex -0.325212 0.23097 0
       vertex -0.325212 0.23097 0.1
    endloop
  endfacet
  facet normal -0.321425 0.946935 0
    outer loop
       vertex -0.325212 0.23097 0.1
       vertex -0.294246 0.241481 0.1
       vertex -0.294246 0.241481 0
    endloop
  endfacet
  facet normal -0.442302 0.896866 0
    outer loop
       vertex -0.325212 0.23097 0
       vertex -0.354541 0.216506 0
       vertex -0.354541 0.216506 0.1
    endloop
  endfacet
  facet normal -0.442302 0.896866 0
    outer loop
       vertex -0.354541 0.216506 0.1
       vertex -0.325212 0.23097 0.1
       vertex -0.325212 0.23097 0
    endloop
  endfacet
  facet normal -0.555561 0.831476 0
    outer loop
       vertex -0.354541 0.216506 0
       vertex -0.381732 0.198338 0
       vertex -0.381732 0.198338 0.1
    endloop
  endfacet
  facet normal -0.555561 0.831476 0
    outer loop
       vertex -0.381732 0.198338 0.1
       vertex -0.354541 0.216506 0.1
       vertex -0.354541 0.216506 0
    endloop
  endfacet
  facet normal -0.659372 0.751817 0
    outer loop
       vertex -0.381732 0.198338 0
       vertex -0.406317 0.176776 0
       vertex -0.406317 0.176776 0.1
    endloop
  endfacet
  facet normal -0.659372 0.751817 0
    outer loop
       vertex -0.406317 0.176776 0.1
       vertex -0.381732 0.198338 0.1
       vertex -0.381732 0.198338 0
    endloop
  endfacet
  facet normal -0.751817 0.659372 0
    outer loop
       vertex -0.406317 0.176776 0
       vertex -0.427879 0.152191 0
       vertex -0.427879 0.152191 0.1
    endloop
  endfacet
  facet normal -0.751817 0.659372 0
    outer loop
       vertex -0.427879 0.152191 0.1
       vertex -0.406317 0.176776 0.1
       vertex -0.406317 0.176776 0
    endloop
  endfacet
  facet normal -0.831476 0.555561 0
    outer loop
       vertex -0.427879 0.152191 0
       vertex -0.446047 0.125 0
       vertex -0.446047 0.125 0.1
    endloop
  endfacet
  facet normal -0.831476 0.555561 0
    outer loop
       vertex -0.446047 0.125 0.1
       vertex -0.427879 0.152191 0.1
       vertex -0.427879 0.152191 0
    endloop
  endfacet
  facet normal -0.896866 0.442302 0
    outer loop
       vertex -0.446047 0.125 0
       vertex -0.460511 0.095671 0
       vertex -0.460511 0.095671 0.1
    endloop
  endfacet
  facet normal -0.896866 0.442302 0
    outer loop
       vertex -0.460511 0.095671 0.1
       vertex -0.446047 0.125 0.1
       vertex -0.446047 0.125 0
    endloop
  endfacet
  facet normal -0.946935 0.321425 0
    outer loop
       vertex -0.460511 0.095671 0
       vertex -0.471022 0.064705 0
       vertex -0.471022 0.064705 0.1
    endloop
  endfacet
  facet normal -0.946935 0.321425 0
    outer loop
       vertex -0.471022 0.064705 0.1
       vertex -0.460511 0.095671 0.1
       vertex -0.460511 0.095671 0
    endloop
  endfacet
  facet normal -0.980784 0.195096 0
    outer loop
       vertex -0.471022 0.064705 0
       vertex -0.477402 0.0326315 0
       vertex -0.477402 0.0326315 0.1
    endloop
  endfacet
  facet normal -0.980784 0.195096 0
    outer loop
       vertex -0.477402 0.0326315 0.1
       vertex -0.471022 0.064705 0.1
       vertex -0.471022 0.064705 0
    endloop
  endfacet
  facet normal -0.997858 0.0654098 0
    outer loop
       vertex -0.479541 8.32665e-17 0.1
       vertex -0.477402 0.0326315 0.1
       vertex -0.477402 0.0326315 0
    endloop
  endfacet
  facet normal -0.997858 0.0654098 -1.08928e-16
    outer loop
       vertex -0.477402 0.0326315 0
       vertex -0.479541 -8.32665e-17 0
       vertex -0.479541 8.32665e-17 0.1
    endloop
  endfacet
  facet normal -0.997858 -0.0654098 0
    outer loop
       vertex -0.479541 -8.32665e-17 0
       vertex -0.477402 -0.0326315 0
       vertex -0.477402 -0.0326315 0.1
    endloop
  endfacet
  facet normal -0.997858 -0.0654098 1.08928e-16
    outer loop
       vertex -0.477402 -0.0326315 0.1
       vertex -0.479541 8.32665e-17 0.1
       vertex -0.479541 -8.32665e-17 0
    endloop
  endfacet
  facet normal -0.980784 -0.195096 0
    outer loop
       vertex -0.477402 -0.0326315 0
       vertex -0.471022 -0.064705 0
       vertex -0.471022 -0.064705 0.1
    endloop
  endfacet
  facet normal -0.980784 -0.195096 0
    outer loop
       vertex -0.471022 -0.064705 0.1
       vertex -0.477402 -0.0326315 0.1
       vertex -0.477402 -0.0326315 0
    endloop
  endfacet
  facet normal -0.946935 -0.321425 0
    outer loop
       vertex -0.471022 -0.064705 0
       vertex -0.460511 -0.095671 0
       vertex -0.460511 -0.095671 0.1
    endloop
  endfacet
  facet normal -0.946935 -0.321425 0
    outer loop
       vertex -0.460511 -0.095671 0.1
       vertex -0.471022 -0.064705 0.1
       vertex -0.471022 -0.064705 0
    endloop
  endfacet
  facet normal -0.896866 -0.442302 0
    outer loop
       vertex -0.460511 -0.095671 0
       vertex -0.446047 -0.125 0
       vertex -0.446047 -0.125 0.1
    endloop
  endfacet
  facet normal -0.896866 -0.442302 0
    outer loop
       vertex -0.446047 -0.125 0.1
       vertex -0.460511 -0.095671 0.1
       vertex -0.460511 -0.095671 0
    endloop
  endfacet
  facet normal -0.831476 -0.555561 0
    outer loop
       vertex -0.446047 -0.125 0
       vertex -0.427879 -0.152191 0
       vertex -0.427879 -0.152191 0.1
    endloop
  endfacet
  facet normal -0.831476 -0.555561 0
    outer loop
       vertex -0.427879 -0.152191 0.1
       vertex -0.446047 -0.125 0.1
       vertex -0.446047 -0.125 0
    endloop
  endfacet
  facet normal -0.751817 -0.659372 0
    outer loop
       vertex -0.427879 -0.152191 0
       vertex -0.406317 -0.176776 0
       vertex -0.406317 -0.176776 0.1
    endloop
  endfacet
  facet normal -0.751817 -0.659372 0
    outer loop
       vertex -0.406317 -0.176776 0.1
       vertex -0.427879 -0.152191 0.1
       vertex -0.427879 -0.152191 0
    endloop
  endfacet
  facet normal 0.659372 -0.751817 0
    outer loop
       vertex -0.052765 -0.176776 0
       vertex -0.052765 -0.176776 0.1
       vertex -0.07735 -0.198338 0.1
    endloop
  endfacet
  facet normal 0.659372 -0.751817 0
    outer loop
       vertex -0.07735 -0.198338 0.1
       vertex -0.07735 -0.198338 0
       vertex -0.052765 -0.176776 0
    endloop
  endfacet
  facet normal 0.555561 -0.831476 0
    outer loop
       vertex -0.07735 -0.198338 0
       vertex -0.07735 -0.198338 0.1
       vertex -0.104541 -0.216506 0.1
    endloop
  endfacet
  facet normal 0.555561 -0.831476 0
    outer loop
       vertex -0.104541 -0.216506 0.1
       vertex -0.104541 -0.216506 0
       vertex -0.07735 -0.198338 0
    endloop
  endfacet
  facet normal 0.442302 -0.896866 0
    outer loop
       vertex -0.104541 -0.216506 0
       vertex -0.104541 -0.216506 0.1
       vertex -0.13387 -0.23097 0.1
    endloop
  endfacet
  facet normal 0.442302 -0.896866 0
    outer loop
       vertex -0.13387 -0.23097 0.1
       vertex -0.13387 -0.23097 0
       vertex -0.104541 -0.216506 0
    endloop
  endfacet
  facet normal 0.321425 -0.946935 0
    outer loop
       vertex -0.13387 -0.23097 0
       vertex -0.13387 -0.23097 0.1
       vertex -0.164836 -0.241481 0.1
    endloop
  endfacet
  facet normal 0.321425 -0.946935 0
    outer loop
       vertex -0.164836 -0.241481 0.1
       vertex -0.164836 -0.241481 0
       vertex -0.13387 -0.23097 0
    endloop
  endfacet
  facet normal 0.195096 -0.980784 0
    outer loop
       vertex -0.164836 -0.241481 0
       vertex -0.164836 -0.241481 0.1
       vertex -0.19691 -0.247861 0.1
    endloop
  endfacet
  facet normal 0.195096 -0.980784 0
    outer loop
       vertex -0.19691 -0.247861 0.1
       vertex -0.19691 -0.247861 0
       vertex -0.164836 -0.241481 0
    endloop
  endfacet
  facet normal 0.0654098 -0.997858 0
    outer loop
       vertex -0.229541 -0.25 0
       vertex -0.19691 -0.247861 0
       vertex -0.19691 -0.247861 0.1
    endloop
  endfacet
  facet normal 0.0654098 -0.997858 1.0893e-16
    outer loop
       vertex -0.19691 -0.247861 0.1
       vertex -0.229541 -0.25 0.1
       vertex -0.229541 -0.25 0
    endloop
  endfacet
  facet normal -0.0654098 -0.997858 0
    outer loop
       vertex -0.229541 -0.25 0.1
       vertex -0.262173 -0.247861 0.1
       vertex -0.262173 -0.247861 0
    endloop
  endfacet
  facet normal -0.0654098 -0.997858 -1.0893e-16
    outer loop
       vertex -0.262173 -0.247861 0
       vertex -0.229541 -0.25 0
       vertex -0.229541 -0.25 0.1
    endloop
  endfacet
  facet normal -0.195096 -0.980784 0
    outer loop
       vertex -0.262173 -0.247861 0
       vertex -0.262173 -0.247861 0.1
       vertex -0.294246 -0.241481 0.1
    endloop
  endfacet
  facet normal -0.195096 -0.980784 -0
    outer loop
       vertex -0.294246 -0.241481 0.1
       vertex -0.294246 -0.241481 0
       vertex -0.262173 -0.247861 0
    endloop
  endfacet
  facet normal -0.321425 -0.946935 0
    outer loop
       vertex -0.294246 -0.241481 0
       vertex -0.294246 -0.241481 0.1
       vertex -0.325212 -0.23097 0.1
    endloop
  endfacet
  facet normal -0.321425 -0.946935 -0
    outer loop
       vertex -0.325212 -0.23097 0.1
       vertex -0.325212 -0.23097 0
       vertex -0.294246 -0.241481 0
    endloop
  endfacet
  facet normal -0.442302 -0.896866 0
    outer loop
       vertex -0.325212 -0.23097 0
       vertex -0.325212 -0.23097 0.1
       vertex -0.354541 -0.216506 0.1
    endloop
  endfacet
  facet normal -0.442302 -0.896866 -0
    outer loop
       vertex -0.354541 -0.216506 0.1
       vertex -0.354541 -0.216506 0
       vertex -0.325212 -0.23097 0
    endloop
  endfacet
  facet normal -0.555561 -0.831476 0
    outer loop
       vertex -0.354541 -0.216506 0
       vertex -0.354541 -0.216506 0.1
       vertex -0.381732 -0.198338 0.1
    endloop
  endfacet
  facet normal -0.555561 -0.831476 -0
    outer loop
       vertex -0.381732 -0.198338 0.1
       vertex -0.381732 -0.198338 0
       vertex -0.354541 -0.216506 0
    endloop
  endfacet
  facet normal -0.659372 -0.751817 0
    outer loop
       vertex -0.381732 -0.198338 0
       vertex -0.381732 -0.198338 0.1
       vertex -0.406317 -0.176776 0.1
    endloop
  endfacet
  facet normal -0.659372 -0.751817 -0
    outer loop
       vertex -0.406317 -0.176776 0.1
       vertex -0.406317 -0.176776 0
       vertex -0.381732 -0.198338 0
    endloop
  endfacet
endsolid cylinder
