solid cylinder
  facet normal 0.751817 -0.659372 0
    outer loop
       vertex 0.314686 -0.176776 0
       vertex 0.336248 -0.152191 0
       vertex 0.336248 -0.152191 0.1
    endloop
  endfacet
  facet normal 0.751817 -0.659372 0
    outer loop
       vertex 0.336248 -0.152191 0.1
       vertex 0.314686 -0.176776 0.1
       vertex 0.314686 -0.176776 0
    endloop
  endfacet
  facet normal 0.831476 -0.555561 0
    outer loop
       vertex 0.336248 -0.152191 0
       vertex 0.354416 -0.125 0
       vertex 0.354416 -0.125 0.1
    endloop
  endfacet
  facet normal 0.831476 -0.555561 0
    outer loop
       vertex 0.354416 -0.125 0.1
       vertex 0.336248 -0.152191 0.1
       vertex 0.336248 -0.152191 0
    endloop
  endfacet
  facet normal 0.896866 -0.442302 0
    outer loop
       vertex 0.354416 -0.125 0
       vertex 0.36888 -0.095671 0
       vertex 0.36888 -0.095671 0.1
    endloop
  endfacet
  facet normal 0.896866 -0.442302 0
    outer loop
       vertex 0.36888 -0.095671 0.1
       vertex 0.354416 -0.125 0.1
       vertex 0.354416 -0.125 0
    endloop
  endfacet
  facet normal 0.946935 -0.321425 0
    outer loop
       vertex 0.36888 -0.095671 0
       vertex 0.379391 -0.064705 0
       vertex 0.379391 -0.064705 0.1
    endloop
  endfacet
  facet normal 0.946935 -0.321425 0
    outer loop
       vertex 0.379391 -0.064705 0.1
       vertex 0.36888 -0.095671 0.1
       vertex 0.36888 -0.095671 0
    endloop
  endfacet
  facet normal 0.980784 -0.195096 0
    outer loop
       vertex 0.379391 -0.064705 0
       vertex 0.385771 -0.0326315 0
       vertex 0.385771 -0.0326315 0.1
    endloop
  endfacet
  facet normal 0.980784 -0.195096 0
    outer loop
       vertex 0.385771 -0.0326315 0.1
       vertex 0.379391 -0.064705 0.1
       vertex 0.379391 -0.064705 0
    endloop
  endfacet
  facet normal 0.997858 -0.0654098 0
    outer loop
       vertex 0.38791 -8.32665e-17 0.1
       vertex 0.385771 -0.0326315 0.1
       vertex 0.385771 -0.0326315 0
    endloop
  endfacet
  facet normal 0.997858 -0.0654098 -1.08928e-16
    outer loop
       vertex 0.385771 -0.0326315 0
       vertex 0.38791 8.32665e-17 0
       vertex 0.38791 -8.32665e-17 0.1
    endloop
  endfacet
  facet normal 0.997858 0.0654098 0
    outer loop
       vertex 0.38791 8.32665e-17 0
       vertex 0.385771 0.0326315 0
       vertex 0.385771 0.0326315 0.1
    endloop
  endfacet
  facet normal 0.997858 0.0654098 1.08928e-16
    outer loop
       vertex 0.385771 0.0326315 0.1
       vertex 0.38791 -8.32665e-17 0.1
       vertex 0.38791 8.32665e-17 0
    endloop
  endfacet
  facet normal 0.980784 0.195096 0
    outer loop
       vertex 0.385771 0.0326315 0
       vertex 0.379391 0.064705 0
       vertex 0.379391 0.064705 0.1
    endloop
  endfacet
  facet normal 0.980784 0.195096 0
    outer loop
       vertex 0.379391 0.064705 0.1
       vertex 0.385771 0.0326315 0.1
       vertex 0.385771 0.0326315 0
    endloop
  endfacet
  facet normal 0.946935 0.321425 0
    outer loop
       vertex 0.379391 0.064705 0
       vertex 0.36888 0.095671 0
       vertex 0.36888 0.095671 0.1
    endloop
  endfacet
  facet normal 0.946935 0.321425 0
    outer loop
       vertex 0.36888 0.095671 0.1
       vertex 0.379391 0.064705 0.1
       vertex 0.379391 0.064705 0
    endloop
  endfacet
  facet normal 0.896866 0.442302 0
    outer loop
       vertex 0.36888 0.095671 0
       vertex 0.354416 0.125 0
       vertex 0.354416 0.125 0.1
    endloop
  endfacet
  facet normal 0.896866 0.442302 0
    outer loop
       vertex 0.354416 0.125 0.1
       vertex 0.36888 0.095671 0.1
       vertex 0.36888 0.095671 0
    endloop
  endfacet
  facet normal 0.831476 0.555561 0
    outer loop
       vertex 0.354416 0.125 0
       vertex 0.336248 0.152191 0
       vertex 0.336248 0.152191 0.1
    endloop
  endfacet
  facet normal 0.831476 0.555561 0
    outer loop
       vertex 0.336248 0.152191 0.1
       vertex 0.354416 0.125 0.1
       vertex 0.354416 0.125 0
    endloop
  endfacet
  facet normal 0.751817 0.659372 0
    outer loop
       vertex 0.336248 0.152191 0
       vertex 0.314686 0.176776 0
       vertex 0.314686 0.176776 0.1
    endloop
  endfacet
  facet normal 0.751817 0.659372 0
    outer loop
       vertex 0.314686 0.176776 0.1
       vertex 0.336248 0.152191 0.1
       vertex 0.336248 0.152191 0
    endloop
  endfacet
  facet normal 0.659372 0.751817 0
    outer loop
       vertex 0.314686 0.176776 0
       vertex 0.290101 0.198338 0
       vertex 0.290101 0.198338 0.1
    endloop
  endfacet
  facet normal 0.659372 0.751817 0
    outer loop
       vertex 0.290101 0.198338 0.1
       vertex 0.314686 0.176776 0.1
       vertex 0.314686 0.176776 0
    endloop
  endfacet
  facet normal 0.555561 0.831476 0
    outer loop
       vertex 0.290101 0.198338 0
       vertex 0.26291 0.216506 0
       vertex 0.26291 0.216506 0.1
    endloop
  endfacet
  facet normal 0.555561 0.831476 0
    outer loop
       vertex 0.26291 0.216506 0.1
       vertex 0.290101 0.198338 0.1
       vertex 0.290101 0.198338 0
    endloop
  endfacet
  facet normal 0.442302 0.896866 0
    outer loop
       vertex 0.26291 0.216506 0
       vertex 0.233581 0.23097 0
       vertex 0.233581 0.23097 0.1
    endloop
  endfacet
  facet normal 0.442302 0.896866 0
    outer loop
       vertex 0.233581 0.23097 0.1
       vertex 0.26291 0.216506 0.1
       vertex 0.26291 0.216506 0
    endloop
  endfacet
  facet normal 0.321425 0.946935 0
    outer loop
       vertex 0.233581 0.23097 0
       vertex 0.202615 0.241481 0
       vertex 0.202615 0.241481 0.1
    endloop
  endfacet
  facet normal 0.321425 0.946935 0
    outer loop
       vertex 0.202615 0.241481 0.1
       vertex 0.233581 0.23097 0.1
       vertex 0.233581 0.23097 0
    endloop
  endfacet
  facet normal 0.195096 0.980784 0
    outer loop
       vertex 0.202615 0.241481 0
       vertex 0.170542 0.247861 0
       vertex 0.170542 0.247861 0.1
    endloop
  endfacet
  facet normal 0.195096 0.980784 0
    outer loop
       vertex 0.170542 0.247861 0.1
       vertex 0.202615 0.241481 0.1
       vertex 0.202615 0.241481 0
    endloop
  endfacet
  facet normal 0.0654098 0.997858 0
    outer loop
       vertex 0.13791 0.25 0.1
       vertex 0.170542 0.247861 0.1
       vertex 0.170542 0.247861 0
    endloop
  endfacet
  facet normal 0.0654098 0.997858 -1.0893e-16
    outer loop
       vertex 0.170542 0.247861 0
       vertex 0.13791 0.25 0
       vertex 0.13791 0.25 0.1
    endloop
  endfacet
  facet normal -0.0654098 0.997858 0
    outer loop
       vertex 0.13791 0.25 0
       vertex 0.105279 0.247861 0
       vertex 0.105279 0.247861 0.1
    endloop
  endfacet
  facet normal -0.0654098 0.997858 1.0893e-16
    outer loop
       vertex 0.105279 0.247861 0.1
       vertex 0.13791 0.25 0.1
       vertex 0.13791 0.25 0
    endloop
  endfacet
  facet normal -0.195096 0.980784 0
    outer loop
       vertex 0.105279 0.247861 0
       vertex 0.0732053 0.241481 0
       vertex 0.0732053 0.241481 0.1
    endloop
  endfacet
  facet normal -0.195096 0.980784 0
    outer loop
       vertex 0.0732053 0.241481 0.1
       vertex 0.105279 0.247861 0.1
       vertex 0.105279 0.247861 0
    endloop
  endfacet
  facet normal -0.321425 0.946935 0
    outer loop
       vertex 0.0732053 0.241481 0
       vertex 0.0422393 0.23097 0
       vertex 0.0422393 0.23097 0.1
    endloop
  endfacet
  facet normal -0.321425 0.946935 0
    outer loop
       vertex 0.0422393 0.23097 0.1
       vertex 0.0732053 0.241481 0.1
       vertex 0.0732053 0.241481 0
    endloop
  endfacet
  facet normal -0.442302 0.896866 0
    outer loop
       vertex 0.0422393 0.23097 0
       vertex 0.0129103 0.216506 0
       vertex 0.0129103 0.216506 0.1
    endloop
  endfacet
  facet normal -0.442302 0.896866 0
    outer loop
       vertex 0.0129103 0.216506 0.1
       vertex 0.0422393 0.23097 0.1
       vertex 0.0422393 0.23097 0
    endloop
  endfacet
  facet normal -0.555561 0.831476 0
    outer loop
       vertex 0.0129103 0.216506 0
       vertex -0.0142807 0.198338 0
       vertex -0.0142807 0.198338 0.1
    endloop
  endfacet
  facet normal -0.555561 0.831476 0
    outer loop
       vertex -0.0142807 0.198338 0.1
       vertex 0.0129103 0.216506 0.1
       vertex 0.0129103 0.216506 0
    endloop
  endfacet
  facet normal -0.659372 0.751817 0
    outer loop
       vertex -0.0142807 0.198338 0
       vertex -0.0388657 0.176776 0
       vertex -0.0388657 0.176776 0.1
    endloop
  endfacet
  facet normal -0.659372 0.751817 0
    outer loop
       vertex -0.0388657 0.176776 0.1
       vertex -0.0142807 0.198338 0.1
       vertex -0.0142807 0.198338 0
    endloop
  endfacet
  facet normal -0.751817 0.659372 0
    outer loop
       vertex -0.0388657 0.176776 0
       vertex -0.0604277 0.152191 0
       vertex -0.0604277 0.152191 0.1
    endloop
  endfacet
  facet normal -0.751817 0.659372 0
    outer loop
       vertex -0.0604277 0.152191 0.1
       vertex -0.0388657 0.176776 0.1
       vertex -0.0388657 0.176776 0
    endloop
  endfacet
  facet normal -0.831476 0.555561 0
    outer loop
       vertex -0.0604277 0.152191 0
       vertex -0.0785957 0.125 0
       vertex -0.0785957 0.125 0.1
    endloop
  endfacet
  facet normal -0.831476 0.555561 0
    outer loop
       vertex -0.0785957 0.125 0.1
       vertex -0.0604277 0.152191 0.1
       vertex -0.0604277 0.152191 0
    endloop
  endfacet
  facet normal -0.896866 0.442302 0
    outer loop
       vertex -0.0785957 0.125 0
       vertex -0.0930597 0.095671 0
       vertex -0.0930597 0.095671 0.1
    endloop
  endfacet
  facet normal -0.896866 0.442302 0
    outer loop
       vertex -0.0930597 0.095671 0.1
       vertex -0.0785957 0.125 0.1
       vertex -0.0785957 0.125 0
    endloop
  endfacet
  facet normal -0.946935 0.321425 0
    outer loop
       vertex -0.0930597 0.095671 0
       vertex -0.103571 0.064705 0
       vertex -0.103571 0.064705 0.1
    endloop
  endfacet
  facet normal -0.946935 0.321425 0
    outer loop
       vertex -0.103571 0.064705 0.1
       vertex -0.0930597 0.095671 0.1
       vertex -0.0930597 0.095671 0
    endloop
  endfacet
  facet normal -0.980784 0.195096 0
    outer loop
       vertex -0.103571 0.064705 0
       vertex -0.109951 0.0326315 0
       vertex -0.109951 0.0326315 0.1
    endloop
  endfacet
  facet normal -0.980784 0.195096 0
    outer loop
       vertex -0.109951 0.0326315 0.1
       vertex -0.103571 0.064705 0.1
       vertex -0.103571 0.064705 0
    endloop
  endfacet
  facet normal -0.997858 0.0654098 0
    outer loop
       vertex -0.11209 8.32665e-17 0.1
       vertex -0.109951 0.0326315 0.1
       vertex -0.109951 0.0326315 0
    endloop
  endfacet
  facet normal -0.997858 0.0654098 -1.08928e-16
    outer loop
       vertex -0.109951 0.0326315 0
       vertex -0.11209 -8.32665e-17 0
       vertex -0.11209 8.32665e-17 0.1
    endloop
  endfacet
  facet normal -0.997858 -0.0654098 0
    outer loop
       vertex -0.11209 -8.32665e-17 0
       vertex -0.109951 -0.0326315 0
       vertex -0.109951 -0.0326315 0.1
    endloop
  endfacet
  facet normal -0.997858 -0.0654098 1.08928e-16
    outer loop
       vertex -0.109951 -0.0326315 0.1
       vertex -0.11209 8.32665e-17 0.1
       vertex -0.11209 -8.32665e-17 0
    endloop
  endfacet
  facet normal -0.980784 -0.195096 0
    outer loop
       vertex -0.109951 -0.0326315 0
       vertex -0.103571 -0.064705 0
       vertex -0.103571 -0.064705 0.1
    endloop
  endfacet
  facet normal -0.980784 -0.195096 0
    outer loop
       vertex -0.103571 -0.064705 0.1
       vertex -0.109951 -0.0326315 0.1
       vertex -0.109951 -0.0326315 0
    endloop
  endfacet
  facet normal -0.946935 -0.321425 0
    outer loop
       vertex -0.103571 -0.064705 0
       vertex -0.0930597 -0.095671 0
       vertex -0.0930597 -0.095671 0.1
    endloop
  endfacet
  facet normal -0.946935 -0.321425 0
    outer loop
       vertex -0.0930597 -0.095671 0.1
       vertex -0.103571 -0.064705 0.1
       vertex -0.103571 -0.064705 0
    endloop
  endfacet
  facet normal -0.896866 -0.442302 0
    outer loop
       vertex -0.0930597 -0.095671 0
       vertex -0.0785957 -0.125 0
       vertex -0.0785957 -0.125 0.1
    endloop
  endfacet
  facet normal -0.896866 -0.442302 0
    outer loop
       vertex -0.0785957 -0.125 0.1
       vertex -0.0930597 -0.095671 0.1
       vertex -0.0930597 -0.095671 0
    endloop
  endfacet
  facet normal -0.831476 -0.555561 0
    outer loop
       vertex -0.0785957 -0.125 0
       vertex -0.0604277 -0.152191 0
       vertex -0.0604277 -0.152191 0.1
    endloop
  endfacet
  facet normal -0.831476 -0.555561 0
    outer loop
       vertex -0.0604277 -0.152191 0.1
       vertex -0.0785957 -0.125 0.1
       vertex -0.0785957 -0.125 0
    endloop
  endfacet
  facet normal -0.751817 -0.659372 0
    outer loop
       vertex -0.0604277 -0.152191 0
       vertex -0.0388657 -0.176776 0
       vertex -0.0388657 -0.176776 0.1
    endloop
  endfacet
  facet normal -0.751817 -0.659372 0
    outer loop
       vertex -0.0388657 -0.176776 0.1
       vertex -0.0604277 -0.152191 0.1
       vertex -0.0604277 -0.152191 0
    endloop
  endfacet
  facet normal 0.659372 -0.751817 0
    outer loop
       vertex 0.314686 -0.176776 0
       vertex 0.314686 -0.176776 0.1
       vertex 0.290101 -0.198338 0.1
    endloop
  endfacet
  facet normal 0.659372 -0.751817 0
    outer loop
       vertex 0.290101 -0.198338 0.1
       vertex 0.290101 -0.198338 0
       vertex 0.314686 -0.176776 0
    endloop
  endfacet
  facet normal 0.555561 -0.831476 0
    outer loop
       vertex 0.290101 -0.198338 0
       vertex 0.290101 -0.198338 0.1
       vertex 0.26291 -0.216506 0.1
    endloop
  endfacet
  facet normal 0.555561 -0.831476 0
    outer loop
       vertex 0.26291 -0.216506 0.1
       vertex 0.26291 -0.216506 0
       vertex 0.290101 -0.198338 0
    endloop
  endfacet
  facet normal 0.442302 -0.896866 0
    outer loop
       vertex 0.26291 -0.216506 0
       vertex 0.26291 -0.216506 0.1
       vertex 0.233581 -0.23097 0.1
    endloop
  endfacet
  facet normal 0.442302 -0.896866 0
    outer loop
       vertex 0.233581 -0.23097 0.1
       vertex 0.233581 -0.23097 0
       vertex 0.26291 -0.216506 0
    endloop
  endfacet
  facet normal 0.321425 -0.946935 0
    outer loop
       vertex 0.233581 -0.23097 0
       vertex 0.233581 -0.23097 0.1
       vertex 0.202615 -0.241481 0.1
    endloop
  endfacet
  facet normal 0.321425 -0.946935 0
    outer loop
       vertex 0.202615 -0.241481 0.1
       vertex 0.202615 -0.241481 0
       vertex 0.233581 -0.23097 0
    endloop
  endfacet
  facet normal 0.195096 -0.980784 0
    outer loop
       vertex 0.202615 -0.241481 0
       vertex 0.202615 -0.241481 0.1
       vertex 0.170542 -0.247861 0.1
    endloop
  endfacet
  facet normal 0.195096 -0.980784 0
    outer loop
       vertex 0.170542 -0.247861 0.1
       vertex 0.170542 -0.247861 0
       vertex 0.202615 -0.241481 0
    endloop
  endfacet
  facet normal 0.0654098 -0.997858 0
    outer loop
       vertex 0.13791 -0.25 0
       vertex 0.170542 -0.247861 0
       vertex 0.170542 -0.247861 0.1
    endloop
  endfacet
  facet normal 0.0654098 -0.997858 1.0893e-16
    outer loop
       vertex 0.170542 -0.247861 0.1
       vertex 0.13791 -0.25 0.1
       vertex 0.13791 -0.25 0
    endloop
  endfacet
  facet normal -0.0654098 -0.997858 0
    outer loop
       vertex 0.13791 -0.25 0.1
       vertex 0.105279 -0.247861 0.1
       vertex 0.105279 -0.247861 0
    endloop
  endfacet
  facet normal -0.0654098 -0.997858 -1.0893e-16
    outer loop
       vertex 0.105279 -0.247861 0
       vertex 0.13791 -0.25 0
       vertex 0.13791 -0.25 0.1
    endloop
  endfacet
  facet normal -0.195096 -0.980784 0
    outer loop
       vertex 0.105279 -0.247861 0
       vertex 0.105279 -0.247861 0.1
       vertex 0.0732053 -0.241481 0.1
    endloop
  endfacet
  facet normal -0.195096 -0.980784 -0
    outer loop
       vertex 0.0732053 -0.241481 0.1
       vertex 0.0732053 -0.241481 0
       vertex 0.105279 -0.247861 0
    endloop
  endfacet
  facet normal -0.321425 -0.946935 0
    outer loop
       vertex 0.0732053 -0.241481 0
       vertex 0.0732053 -0.241481 0.1
       vertex 0.0422393 -0.23097 0.1
    endloop
  endfacet
  facet normal -0.321425 -0.946935 -0
    outer loop
       vertex 0.0422393 -0.23097 0.1
       vertex 0.0422393 -0.23097 0
       vertex 0.0732053 -0.241481 0
    endloop
  endfacet
  facet normal -0.442302 -0.896866 0
    outer loop
       vertex 0.0422393 -0.23097 0
       vertex 0.0422393 -0.23097 0.1
       vertex 0.0129103 -0.216506 0.1
    endloop
  endfacet
  facet normal -0.442302 -0.896866 -0
    outer loop
       vertex 0.0129103 -0.216506 0.1
       vertex 0.0129103 -0.216506 0
       vertex 0.0422393 -0.23097 0
    endloop
  endfacet
  facet normal -0.555561 -0.831476 0
    outer loop
       vertex 0.0129103 -0.216506 0
       vertex 0.0129103 -0.216506 0.1
       vertex -0.0142807 -0.198338 0.1
    endloop
  endfacet
  facet normal -0.555561 -0.831476 -0
    outer loop
       vertex -0.0142807 -0.198338 0.1
       vertex -0.0142807 -0.198338 0
       vertex 0.0129103 -0.216506 0
    endloop
  endfacet
  facet normal -0.659372 -0.751817 0
    outer loop
       vertex -0.0142807 -0.198338 0
       vertex -0.0142807 -0.198338 0.1
       vertex -0.0388657 -0.176776 0.1
    endloop
  endfacet
  facet normal -0.659372 -0.751817 -0
    outer loop
       vertex -0.0388657 -0.176776 0.1
       vertex -0.0388657 -0.176776 0
       vertex -0.0142807 -0.198338 0
    endloop
  endfacet
endsolid cylinder
